-10874.2, 255458, -94.0897, 1.16797, -1046.57, 0.288653, 0.354491, 1.03299, 0.34851, 0.655882, 0.0001, 45.5, 246, 26.6846, 0.0886178, 0, 0, 1, 0, 114503
-10874.2, 255458, -94.0897, 1.16797, -1046.57, 0.288653, 0.354491, 1.03299, 0.34851, 0.655882, 3, 45.5, 246, 26.6846, 0.0886178, 0, 0, 1, 0, 114503
-9641.27, 279850, -110.336, 1.24468, -1100.47, 0.30914, 0.325796, 0.993198, 0.349787, 0.651995, 0.0001, 91, 246, 26.6846, 0.0886178, 0, 0, 1, 0, 114503
-8075.9, 307299, -128.667, 1.32643, -1161.8, 0.332642, 0.302686, 0.958125, 0.351078, 0.648177, 0.0001, 182, 246, 26.6846, 0.0886178, 0, 0, 1, 0, 114503
-6166.15, -7558.13, -53.0468, 3.32245, -779.491, -0.0523159, 0.212263, 1.03299, 0.34851, 0.655882, 0.0001, 45.5, 246, 31.5931, 4.72624e-05, 0, 0, 1, 1, 114521
-11183.4, 336638, -414.649, 3.79821, -871.26, 0.166659, 0.423676, 0.993198, 0.349787, 0.651995, 0.0001, 91, 246, 46.41, 0.204989, 1.04067, 1, 1, 0, 114525
-7105.71, 94253, -163.466, 3.44351, -719.879, 0.163798, 0.216613, 1.03299, 0.34851, 0.655882, 3, 45.5, 246, 40.6396, 0.143542, 0, 0, 1, 0, 114528
-3068.37, 118091, -251.472, 4.22275, -817.035, 0.308834, 0.267152, 0.958125, 0.351078, 0.648177, 0.0001, 182, 246, 40.6396, 0.143542, 1.19726, 1, 1, 0, 114528
-3068.37, 118091, -251.472, 4.22275, -817.035, 0.308834, 0.267152, 0.958125, 0.351078, 0.648177, 3, 182, 246, 40.6396, 0.143542, 1.02911, 1, 1, 0, 114528
1325.07, 141007, -337.4, 4.96478, -932.996, 0.46094, 0.355751, 0.9175, 0.352806, 0.64323, 0.0001, 455, 246, 40.6396, 0.143542, 2.41119, 1, 0, 0, 114528
1325.07, 141007, -337.4, 4.96478, -932.996, 0.46094, 0.355751, 0.9175, 0.352806, 0.64323, 3, 455, 246, 40.6396, 0.143542, 2.41249, 1, 0, 0, 114528
-8242.73, 90648, -110.888, 2.55198, -891.505, -0.0276423, 0.302607, 1.03299, 0.34851, 0.655882, 0.0001, 45.5, 246, 35.7451, 0.152058, 0, 0, 1, 0, 114535
-8242.73, 90648, -110.888, 2.55198, -891.505, -0.0276423, 0.302607, 1.03299, 0.34851, 0.655882, 3, 45.5, 246, 35.7451, 0.152058, 0, 0, 1, 0, 114535
-7585.61, 156970, -256.141, 3.28032, -839.46, -0.0517823, 0.344339, 1.03299, 0.34851, 0.655882, 0.0001, 45.5, 246, 50.8494, 0.222578, 1.18789, 1, 0, 0, 114540
-7585.61, 156970, -256.141, 3.28032, -839.46, -0.0517823, 0.344339, 1.03299, 0.34851, 0.655882, 3, 45.5, 246, 50.8494, 0.222578, 1.06241, 1, 0, 0, 114540
-4601.09, 170421, -306.114, 3.57391, -861.211, -0.000166265, 0.361563, 0.993198, 0.349787, 0.651995, 0.0001, 91, 246, 50.8494, 0.222578, 1.4182, 1, 1, 0, 114540
-4601.09, 170421, -306.114, 3.57391, -861.211, -0.000166265, 0.361563, 0.993198, 0.349787, 0.651995, 3, 91, 246, 50.8494, 0.222578, 1.27906, 1, 1, 0, 114540
-758.533, 186047, -365.681, 3.92273, -898.428, 0.0615611, 0.397084, 0.958125, 0.351078, 0.648177, 0.0001, 182, 246, 50.8494, 0.222578, 2.56456, 1, 0, 0, 114540
-758.533, 186047, -365.681, 3.92273, -898.428, 0.0615611, 0.397084, 0.958125, 0.351078, 0.648177, 3, 182, 246, 50.8494, 0.222578, 2.39337, 1, 0, 0, 114540
-9303.43, 921505, -230.898, 0.113273, -526.497, 0.8061, 0.387131, 1.03299, 0.34851, 0.655882, 0.0001, 45.5, 246, 19.2901, 0.0545605, 0, 0, 1, 0, 114542
-9303.43, 921505, -230.898, 0.113273, -526.497, 0.8061, 0.387131, 1.03299, 0.34851, 0.655882, 3, 45.5, 246, 19.2901, 0.0545605, 0, 0, 1, 0, 114542
-8578.22, 971006, -238.42, 0.122095, -604.134, 0.923838, 0.354353, 0.993198, 0.349787, 0.651995, 3, 91, 246, 19.2901, 0.0545605, 0, 0, 1, 0, 114542
-11090.2, 274266, -99.4839, 1.13828, -1009.5, 0.357831, 0.355974, 1.03299, 0.34851, 0.655882, 0.0001, 45.5, 246, 26.5133, 0.0868682, 0, 0, 1, 0, 114554
-11090.2, 274266, -99.4839, 1.13828, -1009.5, 0.357831, 0.355974, 1.03299, 0.34851, 0.655882, 3, 45.5, 246, 26.5133, 0.0868682, 0, 0, 1, 0, 114554
-9789.1, 298889, -115.329, 1.21713, -1073.95, 0.385728, 0.327078, 0.993198, 0.349787, 0.651995, 3, 91, 246, 26.5133, 0.0868682, 0, 0, 1, 0, 114554
-11184.9, 722082, -7.8322, 0.240546, -618.805, -0.000135215, 0.339743, 1.03299, 0.34851, 0.655882, 0.0001, 45.5, 246, 13.8613, 0.00351627, 0, 0, 1, 0, 114555
-10693.5, 728760, -9.42214, 0.247998, -618.86, 0.0001268, 0.303638, 0.993198, 0.349787, 0.651995, 0.0001, 91, 246, 13.8613, 0.00351627, 0, 0, 1, 0, 114555
-10417.9, 147658, -87.2804, 2.22596, -1114.32, -0.00999732, 0.311462, 1.03299, 0.34851, 0.655882, 0.0001, 45.5, 246, 29.7044, 0.115777, 0, 0, 1, 0, 114557
-10417.9, 147658, -87.2804, 2.22596, -1114.32, -0.00999732, 0.311462, 1.03299, 0.34851, 0.655882, 3, 45.5, 246, 29.7044, 0.115777, 0, 0, 1, 0, 114557
-5422.97, 192430, -101.088, 3.57864, -1430.41, 1.1099, 0.26407, 0.9175, 0.352806, 0.64323, 0.0001, 455, 246, 13.7959, 0.0306318, 0, 0, 0, 0, 114558
-5422.97, 192430, -101.088, 3.57864, -1430.41, 1.1099, 0.26407, 0.9175, 0.352806, 0.64323, 3, 455, 246, 13.7959, 0.0306318, 0, 0, 0, 0, 114558
-11223.4, 397872, -303.012, 1.11665, -1018.83, -0.00551145, 0.547688, 1.03299, 0.34851, 0.655882, 0.0001, 45.5, 246, 41.8585, 0.194328, 0, 0, 0, 0, 114563
-11223.4, 397872, -303.012, 1.11665, -1018.83, -0.00551145, 0.547688, 1.03299, 0.34851, 0.655882, 3, 45.5, 246, 41.8585, 0.194328, 0, 0, 0, 0, 114563
-9476.4, 444813, -332.447, 0.489249, -874.392, 0.0116868, 0.58534, 1.03299, 0.34851, 0.655882, 3, 45.5, 246, 39.6881, 0.19762, 0, 0, 0, 0, 114564
-5744.8, 476855, -368.969, 0.531626, -887.395, 0.0140275, 0.561882, 0.958125, 0.351078, 0.648177, 3, 182, 246, 39.6881, 0.19762, 0, 0, 0, 0, 114564
-8997.54, 193384, -334.301, 3.50532, -674.042, 0.287062, 0.363093, 1.03299, 0.34851, 0.655882, 0.0001, 45.5, 246, 52.1838, 0.229917, 1.4325, 1, 0, 0, 114582
-8997.54, 193384, -334.301, 3.50532, -674.042, 0.287062, 0.363093, 1.03299, 0.34851, 0.655882, 3, 45.5, 246, 52.1838, 0.229917, 1.37028, 1, 0, 0, 114582
-4787.5, 207458, -390.851, 3.91168, -745.633, 0.363908, 0.390793, 0.993198, 0.349787, 0.651995, 0.0001, 91, 246, 52.1838, 0.229917, 1.79196, 1, 1, 0, 114582
-4787.5, 207458, -390.851, 3.91168, -745.633, 0.363908, 0.390793, 0.993198, 0.349787, 0.651995, 3, 91, 246, 52.1838, 0.229917, 1.67795, 1, 1, 0, 114582
-11213.9, 231616, -191.298, 1.95223, -895.542, -0.0178809, 0.40788, 1.03299, 0.34851, 0.655882, 0.0001, 45.5, 246, 37.4079, 0.176908, 0, 0, 0, 0, 114585
-11213.9, 231616, -191.298, 1.95223, -895.542, -0.0178809, 0.40788, 1.03299, 0.34851, 0.655882, 3, 45.5, 246, 37.4079, 0.176908, 0, 0, 0, 0, 114585
-10435.8, 153430, -110.614, 2.46758, -1069.88, -0.0232787, 0.307691, 1.03299, 0.34851, 0.655882, 0.0001, 45.5, 246, 32.6138, 0.131295, 0, 0, 1, 0, 114589
-10435.8, 153430, -110.614, 2.46758, -1069.88, -0.0232787, 0.307691, 1.03299, 0.34851, 0.655882, 3, 45.5, 246, 32.6138, 0.131295, 0, 0, 1, 0, 114589
-2090.19, 92448.5, -257.423, 4.8665, -1171.83, 0.486463, 0.329547, 0.9175, 0.352806, 0.64323, 0.0001, 455, 246, 36.526, 0.0855265, 1.3439, 1, 1, 0, 114596
-2090.19, 92448.5, -257.423, 4.8665, -1171.83, 0.486463, 0.329547, 0.9175, 0.352806, 0.64323, 3, 455, 246, 36.526, 0.0855265, 1.30164, 1, 1, 0, 114596
-12422.9, 300043, -46.8926, 1.11757, -715.3, 0.274634, 0.328509, 1.03299, 0.34851, 0.655882, 3, 45.5, 246, 17.0095, 0.0413595, 0, 0, 1, 0, 114597
-9635.39, 329213, -67.7462, 1.26263, -788.591, 0.314344, 0.27171, 0.958125, 0.351078, 0.648177, 0.0001, 182, 246, 17.0095, 0.0413595, 0, 0, 1, 0, 114597
-9063.3, 432618, -311.827, 0.333115, -776.107, 0.0462342, 0.562857, 1.03299, 0.34851, 0.655882, 0.0001, 45.5, 246, 36.8746, 0.190579, 0, 0, 0, 0, 114602
-7786.7, 446128, -326.383, 0.34698, -784.719, 0.0470859, 0.545984, 0.993198, 0.349787, 0.651995, 0.0001, 91, 246, 36.8746, 0.190579, 0, 0, 1, 0, 114602
-6318.44, 460109, -340.95, 0.360715, -793.757, 0.0479926, 0.533479, 0.958125, 0.351078, 0.648177, 0.0001, 182, 246, 36.8746, 0.190579, 0, 0, 0, 0, 114602
-11529, 266080, -58.2208, 1.11829, -901.15, 0.276089, 0.33521, 1.03299, 0.34851, 0.655882, 0.0001, 45.5, 246, 20.9451, 0.0562903, 0, 0, 1, 0, 114605
-11529, 266080, -58.2208, 1.11829, -901.15, 0.276089, 0.33521, 1.03299, 0.34851, 0.655882, 3, 45.5, 246, 20.9451, 0.0562903, 0, 0, 1, 0, 114605
-10385.6, 285013, -70.5454, 1.18916, -944.694, 0.294792, 0.304549, 0.993198, 0.349787, 0.651995, 0.0001, 91, 246, 20.9451, 0.0562903, 0, 0, 1, 0, 114605
-10385.6, 285013, -70.5454, 1.18916, -944.694, 0.294792, 0.304549, 0.993198, 0.349787, 0.651995, 3, 91, 246, 20.9451, 0.0562903, 0, 0, 1, 0, 114605
-11785.1, 262907, -314.452, 2.79352, -1010.94, 0.131894, 0.478557, 1.03299, 0.34851, 0.655882, 0.0001, 45.5, 246, 50.1574, 0.232935, 0, 0, 0, 0, 114616
-2078.26, 312168, -433.991, 3.36361, -1130.15, 0.224393, 0.521496, 0.958125, 0.351078, 0.648177, 0.0001, 182, 246, 50.1574, 0.232935, 2.02477, 1, 0, 0, 114616
-2078.26, 312168, -433.991, 3.36361, -1130.15, 0.224393, 0.521496, 0.958125, 0.351078, 0.648177, 3, 182, 246, 50.1574, 0.232935, 1.89078, 1, 0, 0, 114616
-12677.3, 262486, -13.156, 1.23959, -735.098, 0.620356, 0.316268, 1.03299, 0.34851, 0.655882, 0.0001, 45.5, 246, 14.2687, 0.0198365, 0, 0, 1, 0, 114620
-11441.6, 282164, -22.8037, 1.3468, -816.12, 0.695916, 0.285811, 0.993198, 0.349787, 0.651995, 3, 91, 246, 14.2687, 0.0198365, 0, 0, 1, 0, 114620
-9865.84, 306570, -34.8633, 1.46901, -918.74, 0.791678, 0.261591, 0.958125, 0.351078, 0.648177, 0.0001, 182, 246, 14.2687, 0.0198365, 0, 0, 1, 0, 114620
-6207.48, 75951.5, -125.208, 3.50255, -856.548, 0.120952, 0.280125, 0.9175, 0.352806, 0.64323, 3, 455, 246, 20.7333, 0.0693947, 0, 0, 1, 0, 114624
-3802.98, 84819.1, -223.939, 5.87346, -1424.33, 1.94117, 0.346612, 0.9175, 0.352806, 0.64323, 0.0001, 455, 246, 25.4872, 0.0492201, 1.08646, 1, 1, 0, 114625
-3802.98, 84819.1, -223.939, 5.87346, -1424.33, 1.94117, 0.346612, 0.9175, 0.352806, 0.64323, 3, 455, 246, 25.4872, 0.0492201, 1.05899, 1, 1, 0, 114625
-8612.68, 54782.3, -24.665, 2.70209, -1051.71, 0.000237742, 0.252382, 0.993198, 0.349787, 0.651995, 0.0001, 91, 246, 14.9427, 0.0538975, 1.01037, 1, 1, 0, 114630
-2661.97, 107085, -267.499, 5.96428, -1753.22, 1.76723, 0.362995, 0.9175, 0.352806, 0.64323, 0.0001, 455, 246, 29.5235, 0.0510851, 1.54189, 1, 1, 0, 114646
-2661.97, 107085, -267.499, 5.96428, -1753.22, 1.76723, 0.362995, 0.9175, 0.352806, 0.64323, 3, 455, 246, 29.5235, 0.0510851, 1.54146, 1, 1, 0, 114646
-8270.42, 94178.1, -120.362, 3.20046, -884.463, 0.137843, 0.234411, 1.03299, 0.34851, 0.655882, 0.0001, 45.5, 246, 35.5524, 0.130328, 0, 0, 1, 0, 114647
-8270.42, 94178.1, -120.362, 3.20046, -884.463, 0.137843, 0.234411, 1.03299, 0.34851, 0.655882, 3, 45.5, 246, 35.5524, 0.130328, 0, 0, 1, 0, 114647
-731.318, 154751, -284.533, 4.48792, -1073.82, 0.380926, 0.334322, 0.9175, 0.352806, 0.64323, 0.0001, 455, 246, 35.5524, 0.130328, 1.44014, 1, 0, 0, 114647
-731.318, 154751, -284.533, 4.48792, -1073.82, 0.380926, 0.334322, 0.9175, 0.352806, 0.64323, 3, 455, 246, 35.5524, 0.130328, 1.44199, 1, 0, 0, 114647
-8609.58, 298059, -420.495, 3.30238, -812.574, 0.00315516, 0.522483, 0.993198, 0.349787, 0.651995, 0.0001, 91, 246, 50.5045, 0.24344, 1.15508, 1, 1, 0, 114649
-8609.58, 298059, -420.495, 3.30238, -812.574, 0.00315516, 0.522483, 0.993198, 0.349787, 0.651995, 3, 91, 246, 50.5045, 0.24344, 1.0233, 1, 1, 0, 114649
-1733.69, 214783, -221.694, 5.65244, -1860.48, 1.63376, 0.319212, 0.9175, 0.352806, 0.64323, 0.0001, 455, 246, 20.0074, 0.0547298, 0, 0, 0, 0, 114657
-1733.69, 214783, -221.694, 5.65244, -1860.48, 1.63376, 0.319212, 0.9175, 0.352806, 0.64323, 3, 455, 246, 20.0074, 0.0547298, 0, 0, 0, 0, 114657
-5646.69, 301976, -401.672, 3.60434, -671.75, 0.396619, 0.433963, 0.958125, 0.351078, 0.648177, 0.0001, 182, 246, 40.0206, 0.193686, 1.00725, 1, 0, 0, 114661
-9843.14, 350465, -70.9219, 0.715939, -953.756, 0.0655585, 0.312683, 0.993198, 0.349787, 0.651995, 0.0001, 91, 246, 21.4619, 0.0496535, 0, 0, 1, 0, 114662
-4927.87, 390472, -489.626, 3.32093, -864.445, 0.111124, 0.560524, 0.958125, 0.351078, 0.648177, 0.0001, 182, 246, 45.979, 0.219571, 1.29665, 1, 0, 0, 114667
-4927.87, 390472, -489.626, 3.32093, -864.445, 0.111124, 0.560524, 0.958125, 0.351078, 0.648177, 3, 182, 246, 45.979, 0.219571, 1.24, 1, 0, 0, 114667
-7534.27, 239654, -323.817, 3.89279, -994.786, 0.230742, 0.329075, 0.993198, 0.349787, 0.651995, 0.0001, 91, 246, 45.9014, 0.190231, 1.01897, 1, 1, 0, 114668
-1981.85, 263960, -396.149, 4.35272, -1078.22, 0.316894, 0.375508, 0.958125, 0.351078, 0.648177, 0.0001, 182, 246, 45.9014, 0.190231, 3.04173, 1, 0, 0, 114668
-1981.85, 263960, -396.149, 4.35272, -1078.22, 0.316894, 0.375508, 0.958125, 0.351078, 0.648177, 3, 182, 246, 45.9014, 0.190231, 2.80621, 1, 0, 0, 114668
-10684, 76475.9, 24.8216, 3.35367, -928.715, 0.170514, 0.165676, 1.03299, 0.34851, 0.655882, 0.0001, 45.5, 246, 11.6938, 0.0257562, 0, 0, 0, 0, 114670
-10684, 76475.9, 24.8216, 3.35367, -928.715, 0.170514, 0.165676, 1.03299, 0.34851, 0.655882, 3, 45.5, 246, 11.6938, 0.0257562, 0, 0, 0, 0, 114670
-9803.54, 111123, -87.9267, 3.01402, -1037.34, 0.322451, 0.238472, 1.03299, 0.34851, 0.655882, 0.0001, 45.5, 246, 30.5132, 0.109258, 0, 0, 0, 0, 114671
-9803.54, 111123, -87.9267, 3.01402, -1037.34, 0.322451, 0.238472, 1.03299, 0.34851, 0.655882, 3, 45.5, 246, 30.5132, 0.109258, 0, 0, 0, 0, 114671
-3715.54, 50605.7, -166.766, 3.83833, -1044.13, 0.000700457, 0.222437, 0.993198, 0.349787, 0.651995, 0.0001, 91, 246, 46.9865, 0.103261, 0, 0, 1, 1, 114672
-3715.54, 50605.7, -166.766, 3.83833, -1044.13, 0.000700457, 0.222437, 0.993198, 0.349787, 0.651995, 3, 91, 246, 46.9865, 0.103261, 0, 0, 1, 1, 114672
-2381.97, 70736.6, -222.042, 4.21945, -1070.58, 0.0720437, 0.258569, 0.958125, 0.351078, 0.648177, 0.0001, 182, 246, 46.9865, 0.103261, 1.26748, 1, 1, 0, 114672
-2381.97, 70736.6, -222.042, 4.21945, -1070.58, 0.0720437, 0.258569, 0.958125, 0.351078, 0.648177, 3, 182, 246, 46.9865, 0.103261, 1.08696, 1, 1, 0, 114672
678.096, 101318, -315.862, 4.86865, -1142.88, 0.194971, 0.343915, 0.9175, 0.352806, 0.64323, 0.0001, 455, 246, 46.9865, 0.103261, 2.40222, 1, 1, 1, 114672
678.096, 101318, -315.862, 4.86865, -1142.88, 0.194971, 0.343915, 0.9175, 0.352806, 0.64323, 3, 455, 246, 46.9865, 0.103261, 2.40158, 1, 1, 1, 114672
-8163.98, 107923, -161.125, 3.40561, -686.317, 0.175877, 0.218351, 1.03299, 0.34851, 0.655882, 3, 45.5, 246, 38.0433, 0.139656, 0, 0, 1, 0, 114678
774.298, 152000, -327.329, 4.90615, -895.501, 0.470815, 0.351755, 0.9175, 0.352806, 0.64323, 0.0001, 455, 246, 38.0433, 0.139656, 1.96559, 1, 0, 0, 114678
774.298, 152000, -327.329, 4.90615, -895.501, 0.470815, 0.351755, 0.9175, 0.352806, 0.64323, 3, 455, 246, 38.0433, 0.139656, 1.96677, 1, 0, 0, 114678
-7199.12, 830773, -351.131, 0.131048, -906.325, 0.391591, 0.472828, 1.03299, 0.34851, 0.655882, 0.0001, 45.5, 246, 32.7483, 0.10158, 0, 0, 0, 0, 114701
-7199.12, 830773, -351.131, 0.131048, -906.325, 0.391591, 0.472828, 1.03299, 0.34851, 0.655882, 3, 45.5, 246, 32.7483, 0.10158, 0, 0, 0, 0, 114701
-10978.4, 354250, -276.816, 0.756399, -651.575, 0.794033, 0.512941, 1.03299, 0.34851, 0.655882, 0.0001, 45.5, 246, 33.6454, 0.17585, 0, 0, 0, 0, 114702
-10978.4, 354250, -276.816, 0.756399, -651.575, 0.794033, 0.512941, 1.03299, 0.34851, 0.655882, 3, 45.5, 246, 33.6454, 0.17585, 0, 0, 0, 0, 114702
-6063.19, 121763, -236.514, 2.74823, -702.85, 0.273823, 0.379204, 1.03299, 0.34851, 0.655882, 0.0001, 45.5, 246, 52.5407, 0.240897, 1.30312, 1, 1, 0, 114707
-6063.19, 121763, -236.514, 2.74823, -702.85, 0.273823, 0.379204, 1.03299, 0.34851, 0.655882, 3, 45.5, 246, 52.5407, 0.240897, 1.13309, 1, 1, 0, 114707
-4016.66, 133985, -274.949, 3.01924, -756.588, 0.324342, 0.383527, 0.993198, 0.349787, 0.651995, 0.0001, 91, 246, 52.5407, 0.240897, 1.39029, 1, 1, 0, 114707
-4016.66, 133985, -274.949, 3.01924, -756.588, 0.324342, 0.383527, 0.993198, 0.349787, 0.651995, 3, 91, 246, 52.5407, 0.240897, 1.23627, 1, 1, 0, 114707
-1341.45, 148992, -321.36, 3.33897, -825.855, 0.388592, 0.402803, 0.958125, 0.351078, 0.648177, 0.0001, 182, 246, 52.5407, 0.240897, 1.9218, 1, 1, 0, 114707
-1341.45, 148992, -321.36, 3.33897, -825.855, 0.388592, 0.402803, 0.958125, 0.351078, 0.648177, 3, 182, 246, 52.5407, 0.240897, 1.77966, 1, 1, 0, 114707
-8720.83, 22508.7, -11.8311, 1.64042, -1177.73, 0.159386, 0.294962, 0.993198, 0.349787, 0.651995, 0.0001, 91, 246, 10.4244, 0.060415, 0, 0, 1, 1, 114711
-8720.83, 22508.7, -11.8311, 1.64042, -1177.73, 0.159386, 0.294962, 0.993198, 0.349787, 0.651995, 3, 91, 246, 10.4244, 0.060415, 0, 0, 1, 1, 114711
-9260.88, 149693, -177.928, 2.18456, -658.012, -0.0224954, 0.383441, 1.03299, 0.34851, 0.655882, 3, 45.5, 246, 39.4288, 0.199541, 0, 0, 1, 0, 114718
-9641.2, 246307, -49.1868, 1.84573, -750.333, 0.118462, 0.256963, 0.958125, 0.351078, 0.648177, 0.0001, 182, 246, 14.8824, 0.0330977, 0, 0, 1, 0, 114719
-8243.6, 62514.1, -59.8659, 3.35031, -679.209, 0.271567, 0.212785, 0.993198, 0.349787, 0.651995, 3, 91, 246, 18.8448, 0.0574202, 0, 0, 1, 0, 114720
-4346.24, 948062, -381.855, 0.0309719, -1090.82, 0.396727, 0.474996, 1.03299, 0.34851, 0.655882, 0.0001, 45.5, 246, 36.7604, 0.0954957, 0, 0, 0, 0, 114724
-4346.24, 948062, -381.855, 0.0309719, -1090.82, 0.396727, 0.474996, 1.03299, 0.34851, 0.655882, 3, 45.5, 246, 36.7604, 0.0954957, 0, 0, 0, 0, 114724
6507.16, 636935, -554.021, 4.44089, -1149.58, 0.165329, 0.435014, 0.9175, 0.352806, 0.64323, 0.0001, 455, 246, 38.7215, 0.134473, 0, 0, 0, 0, 114726
6507.16, 636935, -554.021, 4.44089, -1149.58, 0.165329, 0.435014, 0.9175, 0.352806, 0.64323, 3, 455, 246, 38.7215, 0.134473, 0, 0, 0, 0, 114726
-6662.89, 105983, -192.328, 3.19159, -709.927, -0.0120232, 0.278067, 1.03299, 0.34851, 0.655882, 0.0001, 45.5, 246, 45.7502, 0.182081, 1.10398, 1, 1, 0, 114731
-4797.98, 115578, -231.004, 3.47205, -729.793, 0.0366812, 0.287655, 0.993198, 0.349787, 0.651995, 0.0001, 91, 246, 45.7502, 0.182081, 1.14961, 1, 1, 0, 114731
-2390.28, 126629, -276.953, 3.80279, -761.734, 0.0953541, 0.314321, 0.958125, 0.351078, 0.648177, 0.0001, 182, 246, 45.7502, 0.182081, 1.45318, 1, 1, 0, 114731
-2390.28, 126629, -276.953, 3.80279, -761.734, 0.0953541, 0.314321, 0.958125, 0.351078, 0.648177, 3, 182, 246, 45.7502, 0.182081, 1.29731, 1, 1, 0, 114731
1941.02, 144851, -353.64, 4.35199, -830.007, 0.195804, 0.380379, 0.9175, 0.352806, 0.64323, 0.0001, 455, 246, 45.7502, 0.182081, 3.29339, 1, 0, 0, 114731
1941.02, 144851, -353.64, 4.35199, -830.007, 0.195804, 0.380379, 0.9175, 0.352806, 0.64323, 3, 455, 246, 45.7502, 0.182081, 3.29693, 1, 0, 0, 114731
-10634.9, 206597, -112.429, 1.28589, -702.849, 0.391821, 0.365125, 1.03299, 0.34851, 0.655882, 0.0001, 45.5, 246, 25.6781, 0.117976, 0, 0, 1, 0, 114735
-9533.39, 220508, -126.978, 1.3818, -754.046, 0.426004, 0.338692, 0.993198, 0.349787, 0.651995, 0.0001, 91, 246, 25.6781, 0.117976, 0, 0, 1, 0, 114735
-4168.59, 790216, -321.583, 0.0206243, -1089.99, 0.307351, 0.429471, 0.993198, 0.349787, 0.651995, 0.0001, 91, 246, 34.5222, 0.100225, 0, 0, 1, 0, 114736
-10752.3, 516410, -190.304, 0.562078, -823.614, 0.270036, 0.40219, 1.03299, 0.34851, 0.655882, 0.0001, 45.5, 246, 27.3182, 0.0914297, 0, 0, 0, 0, 114738
-10752.3, 516410, -190.304, 0.562078, -823.614, 0.270036, 0.40219, 1.03299, 0.34851, 0.655882, 3, 45.5, 246, 27.3182, 0.0914297, 0, 0, 0, 0, 114738
-4938.76, 144342, -293.869, 3.5753, -900.079, 0.103732, 0.33773, 1.03299, 0.34851, 0.655882, 0.0001, 45.5, 246, 58.1441, 0.242999, 1.51809, 1, 0, 0, 114743
-4938.76, 144342, -293.869, 3.5753, -900.079, 0.103732, 0.33773, 1.03299, 0.34851, 0.655882, 3, 45.5, 246, 58.1441, 0.242999, 1.44288, 1, 0, 0, 114743
-1585.13, 162059, -354.435, 3.95153, -951.862, 0.168691, 0.365383, 0.993198, 0.349787, 0.651995, 0.0001, 91, 246, 58.1441, 0.242999, 2.0244, 1, 1, 0, 114743
-1585.13, 162059, -354.435, 3.95153, -951.862, 0.168691, 0.365383, 0.993198, 0.349787, 0.651995, 3, 91, 246, 58.1441, 0.242999, 1.93224, 1, 1, 0, 114743
-11541.5, 389870, -35.5441, 0.634683, -837.751, 0.431911, 0.33763, 1.03299, 0.34851, 0.655882, 0.0001, 45.5, 246, 18.0804, 0.0248217, 0, 0, 1, 0, 114744
-11541.5, 389870, -35.5441, 0.634683, -837.751, 0.431911, 0.33763, 1.03299, 0.34851, 0.655882, 3, 45.5, 246, 18.0804, 0.0248217, 0, 0, 1, 0, 114744
-10667.6, 412476, -41.9911, 0.674803, -899.944, 0.465568, 0.303047, 0.993198, 0.349787, 0.651995, 0.0001, 91, 246, 18.0804, 0.0248217, 0, 0, 1, 0, 114744
-9588.49, 438613, -49.3326, 0.717408, -972.445, 0.504835, 0.273161, 0.958125, 0.351078, 0.648177, 0.0001, 182, 246, 18.0804, 0.0248217, 0, 0, 1, 0, 114744
-7710.2, 941305, -260.537, 0.172971, -955.69, 0.101783, 0.408106, 1.03299, 0.34851, 0.655882, 0.0001, 45.5, 246, 30.5316, 0.069675, 0, 0, 0, 0, 114745
-7710.2, 941305, -260.537, 0.172971, -955.69, 0.101783, 0.408106, 1.03299, 0.34851, 0.655882, 3, 45.5, 246, 30.5316, 0.069675, 0, 0, 0, 0, 114745
-9312.84, 199483, -70.0688, 3.55562, -761.324, 0.252982, 0.210075, 0.958125, 0.351078, 0.648177, 0.0001, 182, 246, 15.4071, 0.0370181, 0, 0, 1, 0, 114748
-9312.84, 199483, -70.0688, 3.55562, -761.324, 0.252982, 0.210075, 0.958125, 0.351078, 0.648177, 3, 182, 246, 15.4071, 0.0370181, 0, 0, 1, 0, 114748
-4803.17, 217933, -115.535, 4.07317, -823.409, 0.356208, 0.255337, 0.9175, 0.352806, 0.64323, 0.0001, 455, 246, 15.4071, 0.0370181, 0, 0, 0, 0, 114748
-4803.17, 217933, -115.535, 4.07317, -823.409, 0.356208, 0.255337, 0.9175, 0.352806, 0.64323, 3, 455, 246, 15.4071, 0.0370181, 0, 0, 0, 0, 114748
-11443.2, 315696, -147.493, 1.07982, -772.123, 0.00903632, 0.388488, 1.03299, 0.34851, 0.655882, 0.0001, 45.5, 246, 27.2572, 0.115813, 0, 0, 1, 0, 114751
-11443.2, 315696, -147.493, 1.07982, -772.123, 0.00903632, 0.388488, 1.03299, 0.34851, 0.655882, 3, 45.5, 246, 27.2572, 0.115813, 0, 0, 1, 0, 114751
-5185.14, 299563, -375.143, 4.0935, -830.049, 0.0669663, 0.362273, 0.958125, 0.351078, 0.648177, 0.0001, 182, 246, 40.2958, 0.172507, 1.09445, 1, 0, 0, 114757
-3167.56, 340624, -436.013, 3.87233, -1066.99, 0.0694253, 0.451589, 0.958125, 0.351078, 0.648177, 0.0001, 182, 246, 46.6792, 0.200373, 2.43229, 1, 0, 0, 114763
-3167.56, 340624, -436.013, 3.87233, -1066.99, 0.0694253, 0.451589, 0.958125, 0.351078, 0.648177, 3, 182, 246, 46.6792, 0.200373, 2.4199, 1, 0, 0, 114763
-7784.1, 645721, -423.364, 0.194692, -962.173, 0.0180911, 0.612029, 1.03299, 0.34851, 0.655882, 0.0001, 45.5, 246, 40.3894, 0.172446, 0, 0, 0, 0, 114772
-7784.1, 645721, -423.364, 0.194692, -962.173, 0.0180911, 0.612029, 1.03299, 0.34851, 0.655882, 3, 45.5, 246, 40.3894, 0.172446, 0, 0, 0, 0, 114772
-9828.51, 478589, -129.565, 0.400872, -815.764, 0.434282, 0.370603, 1.03299, 0.34851, 0.655882, 0.0001, 45.5, 246, 23.6497, 0.0652722, 0, 0, 1, 0, 114783
-9039.34, 503038, -137.207, 0.424826, -877.426, 0.467084, 0.337274, 0.993198, 0.349787, 0.651995, 0.0001, 91, 246, 23.6497, 0.0652722, 0, 0, 1, 0, 114783
-10371.6, 195621, -132.917, 1.29439, -626.208, 0.353267, 0.384693, 1.03299, 0.34851, 0.655882, 0.0001, 45.5, 246, 28.0616, 0.144181, 0, 0, 1, 0, 114785
-9286.02, 206982, -147.697, 1.38887, -668.749, 0.382519, 0.35985, 0.993198, 0.349787, 0.651995, 0.0001, 91, 246, 28.0616, 0.144181, 0, 0, 1, 0, 114785
-7415.53, 398461, -245.202, 0.267609, -1023.62, 0.655805, 0.475752, 1.03299, 0.34851, 0.655882, 0.0001, 45.5, 246, 35.5183, 0.146337, 0, 0, 0, 0, 114786
-8499.64, 473362, -148.491, 0.446772, -1002.71, 0.17743, 0.347362, 0.993198, 0.349787, 0.651995, 0.0001, 91, 246, 27.2041, 0.0775747, 0, 0, 1, 0, 114791
-11196.4, 282116, -22.8334, 0.790365, -612.861, 0.0809454, 0.33337, 1.03299, 0.34851, 0.655882, 0.0001, 45.5, 246, 12.7084, 0.0240804, 0, 0, 1, 0, 114798
-10458.7, 289909, -28.2394, 0.82645, -621.489, 0.0849005, 0.299505, 0.993198, 0.349787, 0.651995, 0.0001, 91, 246, 12.7084, 0.0240804, 0, 0, 1, 0, 114798
-6129.37, 118480, -136.375, 2.56987, -1072.83, 0.989236, 0.282338, 0.9175, 0.352806, 0.64323, 0.0001, 455, 246, 26.1379, 0.115586, 0, 0, 1, 0, 114807
-6129.37, 118480, -136.375, 2.56987, -1072.83, 0.989236, 0.282338, 0.9175, 0.352806, 0.64323, 3, 455, 246, 26.1379, 0.115586, 0, 0, 1, 0, 114807
-5384.7, 165857, -235.597, 3.49275, -720.156, 0.296872, 0.301626, 0.958125, 0.351078, 0.648177, 0.0001, 182, 246, 35.309, 0.15057, 0, 0, 1, 0, 114812
-850.106, 184971, -299.923, 4.02159, -810.39, 0.403754, 0.351477, 0.9175, 0.352806, 0.64323, 0.0001, 455, 246, 35.309, 0.15057, 1.06354, 1, 0, 0, 114812
-850.106, 184971, -299.923, 4.02159, -810.39, 0.403754, 0.351477, 0.9175, 0.352806, 0.64323, 3, 455, 246, 35.309, 0.15057, 1.09507, 1, 0, 0, 114812
-8541.68, 143199, -193.979, 3.53651, -1050.08, 0.262762, 0.24759, 1.03299, 0.34851, 0.655882, 3, 45.5, 246, 44.2334, 0.17068, 0, 0, 0, 0, 114821
-1835.7, 195601, -319.611, 4.41817, -1225.64, 0.437805, 0.312138, 0.958125, 0.351078, 0.648177, 0.0001, 182, 246, 44.2334, 0.17068, 1.76452, 1, 0, 0, 114821
-1835.7, 195601, -319.611, 4.41817, -1225.64, 0.437805, 0.312138, 0.958125, 0.351078, 0.648177, 3, 182, 246, 44.2334, 0.17068, 1.60009, 1, 0, 0, 114821
-12166.9, 182950, -37.735, 2.11291, -1166.6, 0.101772, 0.286198, 1.03299, 0.34851, 0.655882, 0.0001, 45.5, 246, 23.04, 0.0611672, 0, 0, 1, 0, 114823
-12166.9, 182950, -37.735, 2.11291, -1166.6, 0.101772, 0.286198, 1.03299, 0.34851, 0.655882, 3, 45.5, 246, 23.04, 0.0611672, 0, 0, 1, 0, 114823
-9441.32, 74258.6, -14.1677, 1.55034, -1125.48, 0.378634, 0.316966, 1.03299, 0.34851, 0.655882, 0.0001, 45.5, 246, 17.2966, 0.0596617, 0, 0, 1, 0, 114824
-9441.32, 74258.6, -14.1677, 1.55034, -1125.48, 0.378634, 0.316966, 1.03299, 0.34851, 0.655882, 3, 45.5, 246, 17.2966, 0.0596617, 0, 0, 1, 0, 114824
-7409.67, 433442, -368.137, 0.180083, -1025.74, 0.0523574, 0.659249, 1.03299, 0.34851, 0.655882, 0.0001, 45.5, 246, 44.8926, 0.230023, 0, 0, 0, 0, 114827
-6044.83, 455798, -384.185, 0.187623, -1036.14, 0.0529438, 0.652053, 0.993198, 0.349787, 0.651995, 0.0001, 91, 246, 44.8926, 0.230023, 0, 0, 1, 0, 114827
-9756.37, 361953, -445.945, 3.67785, -1086.2, 0.0206823, 0.497058, 0.993198, 0.349787, 0.651995, 0.0001, 91, 246, 51.5908, 0.224016, 1.05205, 1, 1, 0, 114833
-11911.1, 255298, -56.8764, 1.28408, -772.195, -0.00745793, 0.329164, 1.03299, 0.34851, 0.655882, 0.0001, 45.5, 246, 19.0964, 0.0580113, 0, 0, 1, 0, 114834
-11911.1, 255298, -56.8764, 1.28408, -772.195, -0.00745793, 0.329164, 1.03299, 0.34851, 0.655882, 3, 45.5, 246, 19.0964, 0.0580113, 0, 0, 1, 0, 114834
-10914.2, 282778, -310.433, 1.69131, -984.441, 0.472772, 0.574937, 1.03299, 0.34851, 0.655882, 0.0001, 45.5, 246, 47.611, 0.243206, 0, 0, 0, 0, 114839
-10914.2, 282778, -310.433, 1.69131, -984.441, 0.472772, 0.574937, 1.03299, 0.34851, 0.655882, 3, 45.5, 246, 47.611, 0.243206, 0, 0, 0, 0, 114839
-3835.2, 389313, -480.039, 3.23189, -999.426, 0.0429003, 0.562653, 0.958125, 0.351078, 0.648177, 3, 182, 246, 48.0635, 0.222408, 1.05088, 1, 0, 0, 114841
-9789.37, 235074, -62.4604, 1.20204, -1082.85, 0.07934, 0.305065, 0.993198, 0.349787, 0.651995, 0.0001, 91, 246, 21.9863, 0.0609259, 0, 0, 1, 0, 114844
-7723.38, 495639, -215.203, 0.291954, -842.681, 0.00442908, 0.396973, 0.993198, 0.349787, 0.651995, 0.0001, 91, 246, 29.08, 0.110968, 0, 0, 1, 0, 114847
-14432.3, 184795, -55.3098, 3.50667, -1095.21, -0.00342671, 0.157982, 1.03299, 0.34851, 0.655882, 0.0001, 45.5, 246, 25.5985, 0.070431, 0, 0, 0, 0, 114851
-14432.3, 184795, -55.3098, 3.50667, -1095.21, -0.00342671, 0.157982, 1.03299, 0.34851, 0.655882, 3, 45.5, 246, 25.5985, 0.070431, 0, 0, 0, 0, 114851
-11069.8, 201288, -110.131, 1.8604, -1052.67, -0.00468261, 0.343095, 1.03299, 0.34851, 0.655882, 0.0001, 45.5, 246, 30.3476, 0.120317, 0, 0, 1, 0, 114852
-11069.8, 201288, -110.131, 1.8604, -1052.67, -0.00468261, 0.343095, 1.03299, 0.34851, 0.655882, 3, 45.5, 246, 30.3476, 0.120317, 0, 0, 1, 0, 114852
-7273.93, 98834.9, -127.194, 2.14746, -1180.14, 0.000347533, 0.340815, 0.993198, 0.349787, 0.651995, 0.0001, 91, 246, 38.5751, 0.198136, 0, 0, 1, 0, 114857
-7273.93, 98834.9, -127.194, 2.14746, -1180.14, 0.000347533, 0.340815, 0.993198, 0.349787, 0.651995, 3, 91, 246, 38.5751, 0.198136, 0, 0, 1, 0, 114857
-6846.32, 589276, -288.916, 0.171868, -1006.08, 0.335012, 0.470703, 1.03299, 0.34851, 0.655882, 0.0001, 45.5, 246, 34.6258, 0.120271, 0, 0, 0, 0, 114858
-5805.47, 620538, -300.209, 0.180868, -1063.74, 0.353883, 0.444885, 0.993198, 0.349787, 0.651995, 0.0001, 91, 246, 34.6258, 0.120271, 0, 0, 1, 0, 114858
-8618.33, 212124, -167.182, 0.179555, -672.052, 0.260009, 0.479992, 1.03299, 0.34851, 0.655882, 0.0001, 45.5, 246, 33.5549, 0.217311, 2.29202, 1, 1, 0, 114864
-8618.33, 212124, -167.182, 0.179555, -672.052, 0.260009, 0.479992, 1.03299, 0.34851, 0.655882, 3, 45.5, 246, 33.5549, 0.217311, 2.29195, 1, 1, 0, 114864
-8443.55, 223937, -173.969, 0.188249, -701.7, 0.271305, 0.455002, 0.993198, 0.349787, 0.651995, 0.0001, 91, 246, 33.5549, 0.217311, 2.7002, 1, 1, 0, 114864
-8443.55, 223937, -173.969, 0.188249, -701.7, 0.271305, 0.455002, 0.993198, 0.349787, 0.651995, 3, 91, 246, 33.5549, 0.217311, 2.69944, 1, 1, 0, 114864
-8202.61, 236870, -180.675, 0.19703, -734.059, 0.283627, 0.43416, 0.958125, 0.351078, 0.648177, 0.0001, 182, 246, 33.5549, 0.217311, 3.63506, 1, 1, 0, 114864
-8202.61, 236870, -180.675, 0.19703, -734.059, 0.283627, 0.43416, 0.958125, 0.351078, 0.648177, 3, 182, 246, 33.5549, 0.217311, 3.53313, 1, 1, 0, 114864
-9024.99, 42319.7, 13.5466, 3.65113, -695.67, -0.0626962, 0.141853, 1.03299, 0.34851, 0.655882, 0.0001, 45.5, 246, 9.45589, 0.0269281, 0, 0, 1, 0, 114871
-8939.52, 127166, -90.2611, 0.90379, -972.766, -0.000648662, 0.389327, 1.03299, 0.34851, 0.655882, 0.0001, 45.5, 246, 30.1329, 0.168937, 0, 0, 1, 0, 114878
-8939.52, 127166, -90.2611, 0.90379, -972.766, -0.000648662, 0.389327, 1.03299, 0.34851, 0.655882, 3, 45.5, 246, 30.1329, 0.168937, 0, 0, 1, 0, 114878
-11140, 309983, -283.401, 1.5239, -1007.3, -0.0108621, 0.543399, 1.03299, 0.34851, 0.655882, 0.0001, 45.5, 246, 44.4791, 0.221554, 0, 0, 0, 0, 114885
-11140, 309983, -283.401, 1.5239, -1007.3, -0.0108621, 0.543399, 1.03299, 0.34851, 0.655882, 3, 45.5, 246, 44.4791, 0.221554, 0, 0, 0, 0, 114885
84.0557, 378704, -401.103, 1.85947, -1062.32, 0.0307862, 0.541693, 0.9175, 0.352806, 0.64323, 3, 455, 246, 44.4791, 0.221554, 0, 0, 0, 0, 114885
-9551.06, 207106, -266.306, 3.09973, -1156.63, -0.0452415, 0.405793, 1.03299, 0.34851, 0.655882, 0.0001, 45.5, 246, 51.0227, 0.227085, 0, 0, 0, 0, 114896
-5896.8, 231797, -324.566, 3.37196, -1177.55, 0.000759015, 0.422067, 0.993198, 0.349787, 0.651995, 3, 91, 246, 51.0227, 0.227085, 0, 0, 1, 0, 114896
-1066.23, 259275, -393.603, 3.6924, -1216.05, 0.0555723, 0.455146, 0.958125, 0.351078, 0.648177, 0.0001, 182, 246, 51.0227, 0.227085, 3.19724, 1, 0, 0, 114896
-1066.23, 259275, -393.603, 3.6924, -1216.05, 0.0555723, 0.455146, 0.958125, 0.351078, 0.648177, 3, 182, 246, 51.0227, 0.227085, 2.92972, 1, 0, 0, 114896
-8747.22, 18171.7, 2.64545, 1.67265, -923.503, -0.0116985, 0.313696, 1.03299, 0.34851, 0.655882, 3, 45.5, 246, 10.1683, 0.0479115, 0, 0, 1, 1, 114897
-10377.7, 494918, -343.055, 0.627745, -907.888, 0.00145084, 0.571182, 1.03299, 0.34851, 0.655882, 3, 45.5, 246, 39.2821, 0.181812, 0, 0, 0, 0, 114900
-10924, 304528, -292.307, 1.29557, -885.851, 0.244647, 0.565243, 1.03299, 0.34851, 0.655882, 0.0001, 45.5, 246, 43.5015, 0.22908, 0, 0, 0, 0, 114902
-10924, 304528, -292.307, 1.29557, -885.851, 0.244647, 0.565243, 1.03299, 0.34851, 0.655882, 3, 45.5, 246, 43.5015, 0.22908, 0, 0, 0, 0, 114902
-7730.53, 68097.8, -89.6155, 1.83764, -1094.17, 0.212144, 0.325731, 0.993198, 0.349787, 0.651995, 0.0001, 91, 246, 34.8137, 0.191376, 0, 0, 1, 1, 114905
-7730.53, 68097.8, -89.6155, 1.83764, -1094.17, 0.212144, 0.325731, 0.993198, 0.349787, 0.651995, 3, 91, 246, 34.8137, 0.191376, 0, 0, 1, 1, 114905
-7805.7, 107841, -148.686, 2.10968, -1055.75, -0.00961595, 0.392723, 1.03299, 0.34851, 0.655882, 3, 45.5, 246, 44.6036, 0.232449, 0, 0, 1, 0, 114906
-8109.3, 121646, -169.469, 3.37651, -977.531, 0.274999, 0.246111, 1.03299, 0.34851, 0.655882, 3, 45.5, 246, 41.9299, 0.16054, 0, 0, 0, 0, 114913
-2788.24, 166673, -278.53, 4.19183, -1137.93, 0.43864, 0.29682, 0.958125, 0.351078, 0.648177, 0.0001, 182, 246, 41.9299, 0.16054, 1.21839, 1, 0, 0, 114913
-1829.21, 79915.9, -247.077, 3.89428, -838.61, 0.178095, 0.314128, 0.9175, 0.352806, 0.64323, 0.0001, 455, 246, 44.8554, 0.125792, 1.34465, 1, 1, 0, 114918
-1829.21, 79915.9, -247.077, 3.89428, -838.61, 0.178095, 0.314128, 0.9175, 0.352806, 0.64323, 3, 455, 246, 44.8554, 0.125792, 1.27041, 1, 1, 0, 114918
-6139.43, 62031.5, -143.517, 3.06509, -562.31, 0.473814, 0.234384, 1.03299, 0.34851, 0.655882, 0.0001, 45.5, 246, 40.2031, 0.124339, 1.0416, 1, 1, 0, 114922
-3702.3, 80646.7, -210.652, 3.84411, -707.248, 0.680068, 0.261578, 0.958125, 0.351078, 0.648177, 0.0001, 182, 246, 40.2031, 0.124339, 3.22227, 1, 1, 0, 114922
-3702.3, 80646.7, -210.652, 3.84411, -707.248, 0.680068, 0.261578, 0.958125, 0.351078, 0.648177, 3, 182, 246, 40.2031, 0.124339, 2.99451, 1, 1, 0, 114922
-879.238, 101039, -279.739, 4.60744, -872.342, 0.913191, 0.330108, 0.9175, 0.352806, 0.64323, 0.0001, 455, 246, 40.2031, 0.124339, 1.5124, 1, 1, 0, 114922
-879.238, 101039, -279.739, 4.60744, -872.342, 0.913191, 0.330108, 0.9175, 0.352806, 0.64323, 3, 455, 246, 40.2031, 0.124339, 1.45889, 1, 1, 0, 114922
-5233.3, 61971.6, -151.475, 2.43996, -751.941, 0.67482, 0.317558, 1.03299, 0.34851, 0.655882, 0.0001, 45.5, 246, 50.3677, 0.197427, 1.12125, 1, 1, 0, 114924
-4337.5, 76174.1, -181.448, 2.72264, -855.65, 0.788083, 0.309749, 0.993198, 0.349787, 0.651995, 0.0001, 91, 246, 50.3677, 0.197427, 1.10728, 1, 1, 0, 114924
-2990.84, 95535.1, -219.851, 3.07036, -996.64, 0.942221, 0.315938, 0.958125, 0.351078, 0.648177, 0.0001, 182, 246, 50.3677, 0.197427, 1.31616, 1, 1, 0, 114924
-2990.84, 95535.1, -219.851, 3.07036, -996.64, 0.942221, 0.315938, 0.958125, 0.351078, 0.648177, 3, 182, 246, 50.3677, 0.197427, 1.15848, 1, 1, 0, 114924
-66.252, 135214, -291.438, 3.68946, -1283.46, 1.25558, 0.350545, 0.9175, 0.352806, 0.64323, 0.0001, 455, 246, 50.3677, 0.197427, 4.06699, 1, 0, 0, 114924
-66.252, 135214, -291.438, 3.68946, -1283.46, 1.25558, 0.350545, 0.9175, 0.352806, 0.64323, 3, 455, 246, 50.3677, 0.197427, 4.07328, 1, 0, 0, 114924
-8088.13, 114553, -165.846, 2.16832, -615.239, 0.341064, 0.36731, 1.03299, 0.34851, 0.655882, 0.0001, 45.5, 246, 40.8806, 0.200956, 0, 0, 1, 0, 114927
-8088.13, 114553, -165.846, 2.16832, -615.239, 0.341064, 0.36731, 1.03299, 0.34851, 0.655882, 3, 45.5, 246, 40.8806, 0.200956, 0, 0, 1, 0, 114927
-12410.7, 299670, -24.2773, 1.07154, -874.098, 0.320891, 0.325121, 1.03299, 0.34851, 0.655882, 0.0001, 45.5, 246, 17.4282, 0.0266015, 0, 0, 1, 0, 114930
-12410.7, 299670, -24.2773, 1.07154, -874.098, 0.320891, 0.325121, 1.03299, 0.34851, 0.655882, 3, 45.5, 246, 17.4282, 0.0266015, 0, 0, 1, 0, 114930
-11208.6, 319013, -34.3147, 1.14098, -922.057, 0.34369, 0.293257, 0.993198, 0.349787, 0.651995, 3, 91, 246, 17.4282, 0.0266015, 0, 0, 1, 0, 114930
-9734.28, 340827, -45.8799, 1.21483, -976.761, 0.369866, 0.26683, 0.958125, 0.351078, 0.648177, 0.0001, 182, 246, 17.4282, 0.0266015, 0, 0, 1, 0, 114930
-11392.8, 296836, -196.001, 1.20784, -722.771, -0.00676313, 0.436316, 1.03299, 0.34851, 0.655882, 0.0001, 45.5, 246, 32.1339, 0.16014, 0, 0, 1, 0, 114932
-11392.8, 296836, -196.001, 1.20784, -722.771, -0.00676313, 0.436316, 1.03299, 0.34851, 0.655882, 3, 45.5, 246, 32.1339, 0.16014, 0, 0, 1, 0, 114932
-10571.8, 669026, -153.777, 0.39346, -877.038, 0.517051, 0.369914, 1.03299, 0.34851, 0.655882, 0.0001, 45.5, 246, 25.4049, 0.0543943, 0, 0, 1, 0, 114934
-10571.8, 669026, -153.777, 0.39346, -877.038, 0.517051, 0.369914, 1.03299, 0.34851, 0.655882, 3, 45.5, 246, 25.4049, 0.0543943, 0, 0, 1, 0, 114934
-9798.52, 142985, -165.291, 3.37759, -834.486, 0.094194, 0.235287, 1.03299, 0.34851, 0.655882, 0.0001, 45.5, 246, 37.7297, 0.146148, 0, 0, 0, 0, 114935
-9798.52, 142985, -165.291, 3.37759, -834.486, 0.094194, 0.235287, 1.03299, 0.34851, 0.655882, 3, 45.5, 246, 37.7297, 0.146148, 0, 0, 0, 0, 114935
1575.2, 200230, -349.145, 4.77269, -1022.77, 0.354494, 0.36314, 0.9175, 0.352806, 0.64323, 0.0001, 455, 246, 37.7297, 0.146148, 3.88402, 1, 0, 0, 114935
1575.2, 200230, -349.145, 4.77269, -1022.77, 0.354494, 0.36314, 0.9175, 0.352806, 0.64323, 3, 455, 246, 37.7297, 0.146148, 3.98961, 1, 0, 0, 114935
-6337.89, -11868.7, -24.3159, 3.55773, -1063.67, 0.197456, 0.184805, 1.03299, 0.34851, 0.655882, 0.0001, 45.5, 246, 24.5065, 0.0514202, 0, 0, 1, 0, 114942
-6337.89, -11868.7, -24.3159, 3.55773, -1063.67, 0.197456, 0.184805, 1.03299, 0.34851, 0.655882, 3, 45.5, 246, 24.5065, 0.0514202, 0, 0, 1, 0, 114942
-6495.89, 8365.15, -63.774, 3.93441, -1107.58, 0.267406, 0.201756, 0.993198, 0.349787, 0.651995, 3, 91, 246, 24.5065, 0.0514202, 0, 0, 1, 1, 114942
-4175.41, 237114, -181.797, 2.83854, -1637.69, 1.23155, 0.29062, 0.9175, 0.352806, 0.64323, 0.0001, 455, 246, 26.4675, 0.104184, 0, 0, 0, 0, 114956
-4175.41, 237114, -181.797, 2.83854, -1637.69, 1.23155, 0.29062, 0.9175, 0.352806, 0.64323, 3, 455, 246, 26.4675, 0.104184, 0, 0, 0, 0, 114956
-6958.8, 167472, -282.441, 3.36638, -1005.58, -0.0126904, 0.380008, 1.03299, 0.34851, 0.655882, 0.0001, 45.5, 246, 55.3946, 0.244746, 1.2403, 1, 0, 0, 114957
-6958.8, 167472, -282.441, 3.36638, -1005.58, -0.0126904, 0.380008, 1.03299, 0.34851, 0.655882, 3, 45.5, 246, 55.3946, 0.244746, 1.13272, 1, 0, 0, 114957
-3514.19, 187244, -341.971, 3.68556, -1036.74, 0.0418483, 0.403102, 0.993198, 0.349787, 0.651995, 0.0001, 91, 246, 55.3946, 0.244746, 1.63701, 1, 1, 0, 114957
-3514.19, 187244, -341.971, 3.68556, -1036.74, 0.0418483, 0.403102, 0.993198, 0.349787, 0.651995, 3, 91, 246, 55.3946, 0.244746, 1.52833, 1, 1, 0, 114957
1073.02, 210178, -413.838, 4.06868, -1087.64, 0.108594, 0.44625, 0.958125, 0.351078, 0.648177, 0.0001, 182, 246, 55.3946, 0.244746, 0, 0, 0, 0, 114957
1073.02, 210178, -413.838, 4.06868, -1087.64, 0.108594, 0.44625, 0.958125, 0.351078, 0.648177, 3, 182, 246, 55.3946, 0.244746, 0, 0, 0, 0, 114957
-9401.11, 89663.4, -73.9436, 3.26489, -863.525, -0.0428159, 0.205695, 1.03299, 0.34851, 0.655882, 0.0001, 45.5, 246, 27.1793, 0.0924742, 0, 0, 1, 0, 114958
-9401.11, 89663.4, -73.9436, 3.26489, -863.525, -0.0428159, 0.205695, 1.03299, 0.34851, 0.655882, 3, 45.5, 246, 27.1793, 0.0924742, 0, 0, 1, 0, 114958
-16669.5, 304520, -422.394, 3.5515, -672.323, 0.317383, 0.455735, 1.03299, 0.34851, 0.655882, 0.0001, 45.5, 246, 50.2564, 0.232897, 1.1296, 1, 0, 0, 114959
-16669.5, 304520, -422.394, 3.5515, -672.323, 0.317383, 0.455735, 1.03299, 0.34851, 0.655882, 3, 45.5, 246, 50.2564, 0.232897, 1.07513, 1, 0, 0, 114959
-10092.1, 322085, -489.757, 3.98437, -757.689, 0.3997, 0.493168, 0.993198, 0.349787, 0.651995, 0.0001, 91, 246, 50.2564, 0.232897, 1.6194, 1, 1, 0, 114959
-10092.1, 322085, -489.757, 3.98437, -757.689, 0.3997, 0.493168, 0.993198, 0.349787, 0.651995, 3, 91, 246, 50.2564, 0.232897, 1.56373, 1, 1, 0, 114959
-9913.8, 144886, -2.74547, 0.889381, -1170.93, -0.00342812, 0.331957, 1.03299, 0.34851, 0.655882, 0.0001, 45.5, 246, 15.286, 0.023078, 0, 0, 1, 0, 114962
-9913.8, 144886, -2.74547, 0.889381, -1170.93, -0.00342812, 0.331957, 1.03299, 0.34851, 0.655882, 3, 45.5, 246, 15.286, 0.023078, 0, 0, 1, 0, 114962
-2605.6, 45100.4, -196.06, 3.93846, -656.065, 0.00933456, 0.198212, 0.993198, 0.349787, 0.651995, 0.0001, 91, 246, 49.73, 0.092319, 1.18274, 1, 1, 0, 114966
-1335.68, 53773.5, -240.847, 4.33757, -684.654, 0.0847134, 0.236955, 0.958125, 0.351078, 0.648177, 0.0001, 182, 246, 49.73, 0.092319, 1.32655, 1, 1, 0, 114966
-1335.68, 53773.5, -240.847, 4.33757, -684.654, 0.0847134, 0.236955, 0.958125, 0.351078, 0.648177, 3, 182, 246, 49.73, 0.092319, 1.1676, 1, 1, 0, 114966
1199.79, 68050.7, -317.506, 5.02302, -751.819, 0.215831, 0.328041, 0.9175, 0.352806, 0.64323, 0.0001, 455, 246, 49.73, 0.092319, 1.71875, 1, 1, 1, 114966
1199.79, 68050.7, -317.506, 5.02302, -751.819, 0.215831, 0.328041, 0.9175, 0.352806, 0.64323, 3, 455, 246, 49.73, 0.092319, 1.60095, 1, 1, 1, 114966
-7306.16, 20809.5, -60.6216, 3.05536, -1177.36, 0.627736, 0.255224, 0.993198, 0.349787, 0.651995, 3, 91, 246, 25.6825, 0.066743, 0, 0, 1, 0, 114969
-6209.07, 253111, -385.838, 3.76379, -983.37, 0.00762331, 0.431463, 0.993198, 0.349787, 0.651995, 0.0001, 91, 246, 52.3439, 0.232485, 1.38488, 1, 1, 0, 114973
-6209.07, 253111, -385.838, 3.76379, -983.37, 0.00762331, 0.431463, 0.993198, 0.349787, 0.651995, 3, 91, 246, 52.3439, 0.232485, 1.27838, 1, 1, 0, 114973
-4513.93, 816839, -203.512, 0.864075, -1421.52, 0.671142, 0.277014, 0.9175, 0.352806, 0.64323, 3, 455, 246, 28.8949, 0.0568408, 0, 0, 0, 0, 114978
-9510.35, 604099, -147.212, 0.608275, -618.515, 0.019418, 0.302527, 0.958125, 0.351078, 0.648177, 3, 182, 246, 19.6328, 0.057884, 0, 0, 1, 0, 114981
-11161.4, 158533, -8.73109, 1.51724, -846.033, 0.475656, 0.30772, 1.03299, 0.34851, 0.655882, 0.0001, 45.5, 246, 14.4618, 0.0289567, 0, 0, 1, 0, 114983
-11161.4, 158533, -8.73109, 1.51724, -846.033, 0.475656, 0.30772, 1.03299, 0.34851, 0.655882, 3, 45.5, 246, 14.4618, 0.0289567, 0, 0, 1, 0, 114983
-8751.33, 114884, -125.575, 2.99699, -1177.53, 0.0238955, 0.279531, 1.03299, 0.34851, 0.655882, 0.0001, 45.5, 246, 38.1651, 0.15222, 0, 0, 0, 0, 114985
-8751.33, 114884, -125.575, 2.99699, -1177.53, 0.0238955, 0.279531, 1.03299, 0.34851, 0.655882, 3, 45.5, 246, 38.1651, 0.15222, 0, 0, 0, 0, 114985
-7013.21, 139865, -169.885, 3.25416, -1198.08, 0.06706, 0.283202, 0.993198, 0.349787, 0.651995, 0.0001, 91, 246, 38.1651, 0.15222, 0, 0, 1, 0, 114985
-7013.21, 139865, -169.885, 3.25416, -1198.08, 0.06706, 0.283202, 0.993198, 0.349787, 0.651995, 3, 91, 246, 38.1651, 0.15222, 0, 0, 1, 0, 114985
334.512, 207761, -309.427, 4.04377, -1311.16, 0.208179, 0.354028, 0.9175, 0.352806, 0.64323, 0.0001, 455, 246, 38.1651, 0.15222, 2.10757, 1, 0, 0, 114985
334.512, 207761, -309.427, 4.04377, -1311.16, 0.208179, 0.354028, 0.9175, 0.352806, 0.64323, 3, 455, 246, 38.1651, 0.15222, 2.49926, 1, 0, 0, 114985
-6530.06, 277971, -411.186, 3.69237, -1082.79, 0.462597, 0.461027, 0.993198, 0.349787, 0.651995, 0.0001, 91, 246, 52.5791, 0.23314, 1.35162, 1, 1, 0, 114995
-6530.06, 277971, -411.186, 3.69237, -1082.79, 0.462597, 0.461027, 0.993198, 0.349787, 0.651995, 3, 91, 246, 52.5791, 0.23314, 1.24631, 1, 1, 0, 114995
-6006, 74936.1, -156.204, 2.77551, -711.439, 0.222301, 0.294007, 1.03299, 0.34851, 0.655882, 0.0001, 45.5, 246, 45.6782, 0.176756, 1.04087, 1, 1, 0, 114999
-3304.69, 98209.5, -226.173, 3.33803, -806.764, 0.32723, 0.305727, 0.958125, 0.351078, 0.648177, 0.0001, 182, 246, 45.6782, 0.176756, 1.15847, 1, 1, 0, 114999
-341.48, 119354, -290.688, 3.83626, -906.056, 0.431302, 0.348447, 0.9175, 0.352806, 0.64323, 0.0001, 455, 246, 45.6782, 0.176756, 1.94354, 1, 1, 0, 114999
-341.48, 119354, -290.688, 3.83626, -906.056, 0.431302, 0.348447, 0.9175, 0.352806, 0.64323, 3, 455, 246, 45.6782, 0.176756, 1.89751, 1, 0, 0, 114999
