-11537.3, 327426, -136.325, 1.10599, -894.301, -0.00565071, 0.377915, 1.03299, 0.34851, 0.655882, 0.0001, 45.5, 246, 27.7618, 0.10452, 0, 0, 1, 0, 140501
-11537.3, 327426, -136.325, 1.10599, -894.301, -0.00565071, 0.377915, 1.03299, 0.34851, 0.655882, 3, 45.5, 246, 27.7618, 0.10452, 0, 0, 1, 0, 140501
-4637.27, 119620, -181.509, 3.10394, -1160.95, 0.140906, 0.301298, 0.9175, 0.352806, 0.64323, 3, 455, 246, 31.6296, 0.128876, 0, 0, 1, 0, 140503
-9325.74, 45639.3, 18.1482, 2.70329, -761.012, 0.202496, 0.237135, 1.03299, 0.34851, 0.655882, 0.0001, 45.5, 246, 8.09088, 0.0236418, 0, 0, 1, 0, 140505
-12592.9, 304245, -4.01103, 1.04774, -739.75, 0.00179992, 0.323307, 1.03299, 0.34851, 0.655882, 0.0001, 45.5, 246, 13.237, 0.0112681, 0, 0, 1, 0, 140506
-12592.9, 304245, -4.01103, 1.04774, -739.75, 0.00179992, 0.323307, 1.03299, 0.34851, 0.655882, 3, 45.5, 246, 13.237, 0.0112681, 0, 0, 1, 0, 140506
-11450, 313705, -11.3125, 1.09584, -740.466, 0.00684605, 0.290977, 0.993198, 0.349787, 0.651995, 3, 91, 246, 13.237, 0.0112681, 0, 0, 1, 0, 140506
-10132.8, 323302, -19.2521, 1.1444, -742.037, 0.0123685, 0.26381, 0.958125, 0.351078, 0.648177, 0.0001, 182, 246, 13.237, 0.0112681, 0, 0, 1, 0, 140506
-12507.2, 152819, -5.62421, 2.55033, -940.332, -0.0307664, 0.243499, 1.03299, 0.34851, 0.655882, 0.0001, 45.5, 246, 16.2474, 0.0355126, 0, 0, 1, 0, 140511
-12507.2, 152819, -5.62421, 2.55033, -940.332, -0.0307664, 0.243499, 1.03299, 0.34851, 0.655882, 3, 45.5, 246, 16.2474, 0.0355126, 0, 0, 1, 0, 140511
-10928.8, 167638, -28.5831, 2.73398, -939.171, -9.74872e-05, 0.232259, 0.993198, 0.349787, 0.651995, 0.0001, 91, 246, 16.2474, 0.0355126, 0, 0, 1, 0, 140511
-10928.8, 167638, -28.5831, 2.73398, -939.171, -9.74872e-05, 0.232259, 0.993198, 0.349787, 0.651995, 3, 91, 246, 16.2474, 0.0355126, 0, 0, 1, 0, 140511
-5605.16, 204462, -96.6866, 3.25942, -965.416, 0.0917407, 0.24968, 0.9175, 0.352806, 0.64323, 3, 455, 246, 16.2474, 0.0355126, 0, 0, 1, 0, 140511
785.001, 238222, -368.581, 3.61393, -871.667, 0.434266, 0.424039, 0.9175, 0.352806, 0.64323, 0.0001, 455, 246, 40.3433, 0.191314, 2.21122, 1, 0, 0, 140513
785.001, 238222, -368.581, 3.61393, -871.667, 0.434266, 0.424039, 0.9175, 0.352806, 0.64323, 3, 455, 246, 40.3433, 0.191314, 2.2984, 1, 0, 0, 140513
-13816.6, 355582, -435.726, 3.8495, -659.677, 0.000759256, 0.439128, 0.993198, 0.349787, 0.651995, 0.0001, 91, 246, 43.98, 0.205483, 1.04777, 1, 1, 0, 140519
-5732.87, 367691, -506.725, 4.25876, -713.74, 0.072983, 0.491587, 0.958125, 0.351078, 0.648177, 0.0001, 182, 246, 43.98, 0.205483, 3.33211, 1, 0, 0, 140519
-5732.87, 367691, -506.725, 4.25876, -713.74, 0.072983, 0.491587, 0.958125, 0.351078, 0.648177, 3, 182, 246, 43.98, 0.205483, 3.01584, 1, 0, 0, 140519
-7031.74, 77369.4, -93.3188, 3.42399, -1182.87, 0.170114, 0.280022, 0.9175, 0.352806, 0.64323, 3, 455, 246, 11.4214, 0.05293, 0, 0, 1, 0, 140520
-11878.7, 194080, -68.5376, 2.09528, -1164.94, -0.0150811, 0.302409, 1.03299, 0.34851, 0.655882, 0.0001, 45.5, 246, 26.6798, 0.0851711, 0, 0, 1, 0, 140521
-11878.7, 194080, -68.5376, 2.09528, -1164.94, -0.0150811, 0.302409, 1.03299, 0.34851, 0.655882, 3, 45.5, 246, 26.6798, 0.0851711, 0, 0, 1, 0, 140521
-10146.2, 217612, -95.8808, 2.23193, -1168.69, 0.00546579, 0.284634, 0.993198, 0.349787, 0.651995, 0.0001, 91, 246, 26.6798, 0.0851711, 0, 0, 1, 0, 140521
-10146.2, 217612, -95.8808, 2.23193, -1168.69, 0.00546579, 0.284634, 0.993198, 0.349787, 0.651995, 3, 91, 246, 26.6798, 0.0851711, 0, 0, 1, 0, 140521
-7278.7, 457289, -570.331, 3.72647, -747.15, 0.0741977, 0.608033, 0.958125, 0.351078, 0.648177, 0.0001, 182, 246, 44.8573, 0.216929, 0, 0, 0, 0, 140522
-7278.7, 457289, -570.331, 3.72647, -747.15, 0.0741977, 0.608033, 0.958125, 0.351078, 0.648177, 3, 182, 246, 44.8573, 0.216929, 2.68608, 1, 0, 0, 140522
-7342.65, 502156, -371.414, 0.305316, -1112.83, 0.0139371, 0.613935, 1.03299, 0.34851, 0.655882, 0.0001, 45.5, 246, 43.8101, 0.19605, 0, 0, 0, 0, 140526
-7342.65, 502156, -371.414, 0.305316, -1112.83, 0.0139371, 0.613935, 1.03299, 0.34851, 0.655882, 3, 45.5, 246, 43.8101, 0.19605, 0, 0, 0, 0, 140526
-11447.6, 576034, -136.344, 0.529966, -866.07, 0.717369, 0.364328, 1.03299, 0.34851, 0.655882, 0.0001, 45.5, 246, 24.6046, 0.0544304, 0, 0, 1, 0, 140528
-7735.08, 1.02545e+06, -138.447, 0.740925, -839.139, 0.0197278, 0.248637, 0.9175, 0.352806, 0.64323, 3, 455, 246, 23.0449, 0.0295833, 0, 0, 0, 0, 140532
-11113.5, 290247, -273.532, 1.25513, -768.652, 0.622533, 0.526603, 1.03299, 0.34851, 0.655882, 0.0001, 45.5, 246, 39.6626, 0.209117, 0, 0, 0, 0, 140533
-11113.5, 290247, -273.532, 1.25513, -768.652, 0.622533, 0.526603, 1.03299, 0.34851, 0.655882, 3, 45.5, 246, 39.6626, 0.209117, 0, 0, 0, 0, 140533
-10457, 224344, -207.786, 1.28833, -599.037, 0.0490651, 0.473002, 1.03299, 0.34851, 0.655882, 0.0001, 45.5, 246, 36.486, 0.210651, 0, 0, 1, 0, 140542
-10457, 224344, -207.786, 1.28833, -599.037, 0.0490651, 0.473002, 1.03299, 0.34851, 0.655882, 3, 45.5, 246, 36.486, 0.210651, 0, 0, 1, 0, 140542
-9008.9, 232013, -226.377, 1.36258, -611.689, 0.0572212, 0.455276, 0.993198, 0.349787, 0.651995, 0.0001, 91, 246, 36.486, 0.210651, 0, 0, 1, 0, 140542
-7294.72, 136750, -214.163, 3.3874, -1029.57, 0.0806778, 0.295583, 1.03299, 0.34851, 0.655882, 0.0001, 45.5, 246, 48.5717, 0.199357, 1.04625, 1, 0, 0, 140545
-7294.72, 136750, -214.163, 3.3874, -1029.57, 0.0806778, 0.295583, 1.03299, 0.34851, 0.655882, 3, 45.5, 246, 48.5717, 0.199357, 0, 0, 0, 0, 140545
-4650.41, 157534, -268.009, 3.72035, -1070.03, 0.137903, 0.313263, 0.993198, 0.349787, 0.651995, 0.0001, 91, 246, 48.5717, 0.199357, 1.21741, 1, 1, 0, 140545
-1019.45, 181656, -333.781, 4.12154, -1130.98, 0.209981, 0.35129, 0.958125, 0.351078, 0.648177, 0.0001, 182, 246, 48.5717, 0.199357, 2.2265, 1, 0, 0, 140545
-1019.45, 181656, -333.781, 4.12154, -1130.98, 0.209981, 0.35129, 0.958125, 0.351078, 0.648177, 3, 182, 246, 48.5717, 0.199357, 2.06422, 1, 0, 0, 140545
-9332.86, 265607, -136.488, 0.843598, -678.608, 0.377155, 0.357744, 0.993198, 0.349787, 0.651995, 0.0001, 91, 246, 24.5853, 0.118145, 0, 0, 1, 0, 140549
-6946.9, 217267, -336.633, 3.48386, -728.41, -5.58835e-05, 0.394596, 0.993198, 0.349787, 0.651995, 0.0001, 91, 246, 47.4577, 0.218804, 1.17684, 1, 1, 0, 140557
-6946.9, 217267, -336.633, 3.48386, -728.41, -5.58835e-05, 0.394596, 0.993198, 0.349787, 0.651995, 3, 91, 246, 47.4577, 0.218804, 1.02222, 1, 1, 0, 140557
-2332.98, 229418, -393.614, 3.82047, -766.806, 0.0585416, 0.429405, 0.958125, 0.351078, 0.648177, 0.0001, 182, 246, 47.4577, 0.218804, 2.11074, 1, 0, 0, 140557
-2332.98, 229418, -393.614, 3.82047, -766.806, 0.0585416, 0.429405, 0.958125, 0.351078, 0.648177, 3, 182, 246, 47.4577, 0.218804, 1.94819, 1, 0, 0, 140557
-10504, 495132, -70.9296, 0.377982, -659.095, 0.0172543, 0.348743, 1.03299, 0.34851, 0.655882, 0.0001, 45.5, 246, 17.2663, 0.0375943, 0, 0, 1, 0, 140559
-9884.39, 503277, -75.5923, 0.391115, -661.674, 0.0179526, 0.31369, 0.993198, 0.349787, 0.651995, 0.0001, 91, 246, 17.2663, 0.0375943, 0, 0, 1, 0, 140559
-7581.46, 437250, -356.493, 0.0850579, -827.65, 0.839269, 0.596412, 1.03299, 0.34851, 0.655882, 0.0001, 45.5, 246, 38.2828, 0.19233, 0, 0, 0, 0, 140560
-6480.8, 475055, -369.832, 0.0923503, -955.11, 0.967632, 0.582413, 0.993198, 0.349787, 0.651995, 0.0001, 91, 246, 38.2828, 0.19233, 0, 0, 1, 0, 140560
-11376, 436098, -101.74, 0.681849, -917.875, 0.529197, 0.355572, 1.03299, 0.34851, 0.655882, 0.0001, 45.5, 246, 24.0438, 0.0562796, 0, 0, 1, 0, 140561
-11376, 436098, -101.74, 0.681849, -917.875, 0.529197, 0.355572, 1.03299, 0.34851, 0.655882, 3, 45.5, 246, 24.0438, 0.0562796, 0, 0, 1, 0, 140561
-9184.56, 108648, -122.737, 3.28699, -832.248, 0.601269, 0.208787, 1.03299, 0.34851, 0.655882, 0.0001, 45.5, 246, 33.189, 0.11649, 0, 0, 0, 0, 140563
-9184.56, 108648, -122.737, 3.28699, -832.248, 0.601269, 0.208787, 1.03299, 0.34851, 0.655882, 3, 45.5, 246, 33.189, 0.11649, 0, 0, 0, 0, 140563
-7408.83, 126240, -161.748, 3.7035, -937.32, 0.723595, 0.218906, 0.993198, 0.349787, 0.651995, 0.0001, 91, 246, 33.189, 0.11649, 4.08299, 1, 1, 0, 140563
-7408.83, 126240, -161.748, 3.7035, -937.32, 0.723595, 0.218906, 0.993198, 0.349787, 0.651995, 3, 91, 246, 33.189, 0.11649, 3.93259, 1, 1, 0, 140563
611.505, 199450, -317.314, 5.23205, -1401.82, 1.2603, 0.346911, 0.9175, 0.352806, 0.64323, 0.0001, 455, 246, 33.189, 0.11649, 2.4698, 1, 0, 0, 140563
611.505, 199450, -317.314, 5.23205, -1401.82, 1.2603, 0.346911, 0.9175, 0.352806, 0.64323, 3, 455, 246, 33.189, 0.11649, 2.5311, 1, 0, 0, 140563
-11617.7, 179724, -58.7436, 1.93986, -881.077, 0.0280118, 0.303197, 1.03299, 0.34851, 0.655882, 0.0001, 45.5, 246, 22.0162, 0.0751064, 0, 0, 1, 0, 140568
-11617.7, 179724, -58.7436, 1.93986, -881.077, 0.0280118, 0.303197, 1.03299, 0.34851, 0.655882, 3, 45.5, 246, 22.0162, 0.0751064, 0, 0, 1, 0, 140568
-10215.2, 193540, -78.4431, 2.06504, -889.826, 0.0458222, 0.282436, 0.993198, 0.349787, 0.651995, 3, 91, 246, 22.0162, 0.0751064, 0, 0, 1, 0, 140568
-9510.01, 381326, -175.94, 0.614446, -989.967, 0.140348, 0.414167, 1.03299, 0.34851, 0.655882, 0.0001, 45.5, 246, 31.0539, 0.116204, 0, 0, 0, 0, 140573
-8389.98, 402410, -188.643, 0.643915, -1015.61, 0.145309, 0.385266, 0.993198, 0.349787, 0.651995, 0.0001, 91, 246, 31.0539, 0.116204, 0, 0, 1, 0, 140573
-7058.83, 424811, -201.871, 0.673603, -1043.06, 0.150673, 0.360813, 0.958125, 0.351078, 0.648177, 0.0001, 182, 246, 31.0539, 0.116204, 0, 0, 1, 0, 140573
-11599.1, 457939, -105.345, 0.794039, -1162.02, -0.00280971, 0.356898, 1.03299, 0.34851, 0.655882, 0.0001, 45.5, 246, 28.2392, 0.0608016, 0, 0, 1, 0, 140574
-11599.1, 457939, -105.345, 0.794039, -1162.02, -0.00280971, 0.356898, 1.03299, 0.34851, 0.655882, 3, 45.5, 246, 28.2392, 0.0608016, 0, 0, 0, 0, 140574
-7566.96, 99704.9, -144.378, 3.60786, -1054.37, 0.118725, 0.207111, 1.03299, 0.34851, 0.655882, 3, 45.5, 246, 40.5863, 0.144695, 0, 0, 0, 0, 140580
-5637.53, 120905, -195.321, 3.97884, -1096.89, 0.185396, 0.226981, 0.993198, 0.349787, 0.651995, 3, 91, 246, 40.5863, 0.144695, 0, 0, 1, 0, 140580
-2833.13, 145401, -258.613, 4.43263, -1162.3, 0.270996, 0.269881, 0.958125, 0.351078, 0.648177, 0.0001, 182, 246, 40.5863, 0.144695, 1.19293, 1, 0, 0, 140580
-5274.61, 131119, -263.975, 3.33665, -846.939, 0.171484, 0.334642, 1.03299, 0.34851, 0.655882, 0.0001, 45.5, 246, 55.459, 0.233563, 1.43432, 1, 0, 0, 140583
-5274.61, 131119, -263.975, 3.33665, -846.939, 0.171484, 0.334642, 1.03299, 0.34851, 0.655882, 3, 45.5, 246, 55.459, 0.233563, 1.34388, 1, 0, 0, 140583
-2504.86, 147198, -316.416, 3.68344, -901.373, 0.231847, 0.353718, 0.993198, 0.349787, 0.651995, 0.0001, 91, 246, 55.459, 0.233563, 1.76391, 1, 1, 0, 140583
-2504.86, 147198, -316.416, 3.68344, -901.373, 0.231847, 0.353718, 0.993198, 0.349787, 0.651995, 3, 91, 246, 55.459, 0.233563, 1.65999, 1, 1, 0, 140583
1215.49, 166929, -381.089, 4.10393, -976.92, 0.309727, 0.393643, 0.958125, 0.351078, 0.648177, 0.0001, 182, 246, 55.459, 0.233563, 4.95413, 1, 0, 0, 140583
1215.49, 166929, -381.089, 4.10393, -976.92, 0.309727, 0.393643, 0.958125, 0.351078, 0.648177, 3, 182, 246, 55.459, 0.233563, 4.47347, 1, 0, 0, 140583
-6595.83, 149444, -272.511, 3.35431, -782.615, -0.0542269, 0.345971, 1.03299, 0.34851, 0.655882, 0.0001, 45.5, 246, 53.4764, 0.232115, 1.36215, 1, 0, 0, 140584
-6595.83, 149444, -272.511, 3.35431, -782.615, -0.0542269, 0.345971, 1.03299, 0.34851, 0.655882, 3, 45.5, 246, 53.4764, 0.232115, 1.2718, 1, 0, 0, 140584
-3568.85, 161512, -323.261, 3.65965, -806.577, -0.000174535, 0.365826, 0.993198, 0.349787, 0.651995, 0.0001, 91, 246, 53.4764, 0.232115, 1.66408, 1, 1, 0, 140584
-3568.85, 161512, -323.261, 3.65965, -806.577, -0.000174535, 0.365826, 0.993198, 0.349787, 0.651995, 3, 91, 246, 53.4764, 0.232115, 1.55769, 1, 1, 0, 140584
319.204, 175820, -384.006, 4.02437, -846.354, 0.0646795, 0.404882, 0.958125, 0.351078, 0.648177, 0.0001, 182, 246, 53.4764, 0.232115, 3.3863, 1, 0, 0, 140584
319.204, 175820, -384.006, 4.02437, -846.354, 0.0646795, 0.404882, 0.958125, 0.351078, 0.648177, 3, 182, 246, 53.4764, 0.232115, 3.15966, 1, 0, 0, 140584
-7835.61, 10316, -33.2756, 2.21854, -727.179, 0.0049523, 0.292505, 1.03299, 0.34851, 0.655882, 0.0001, 45.5, 246, 24.0092, 0.0617312, 0, 0, 1, 1, 140591
-8335.14, 76669.4, -86.9862, 3.39828, -982.166, -0.00161398, 0.20264, 1.03299, 0.34851, 0.655882, 0.0001, 45.5, 246, 31.7162, 0.107261, 0, 0, 1, 0, 140593
-8335.14, 76669.4, -86.9862, 3.39828, -982.166, -0.00161398, 0.20264, 1.03299, 0.34851, 0.655882, 3, 45.5, 246, 31.7162, 0.107261, 0, 0, 1, 0, 140593
-7087.83, 93645, -126.872, 3.70659, -996.087, 0.053825, 0.214308, 0.993198, 0.349787, 0.651995, 0.0001, 91, 246, 31.7162, 0.107261, 0, 0, 1, 0, 140593
-7087.83, 93645, -126.872, 3.70659, -996.087, 0.053825, 0.214308, 0.993198, 0.349787, 0.651995, 3, 91, 246, 31.7162, 0.107261, 0, 0, 1, 0, 140593
-1645.58, 140214, -256.317, 4.69672, -1097.13, 0.239128, 0.320861, 0.9175, 0.352806, 0.64323, 0.0001, 455, 246, 31.7162, 0.107261, 1.01133, 1, 0, 0, 140593
-1645.58, 140214, -256.317, 4.69672, -1097.13, 0.239128, 0.320861, 0.9175, 0.352806, 0.64323, 3, 455, 246, 31.7162, 0.107261, 1.02841, 1, 0, 0, 140593
-8964.99, 270424, -201.084, 0.862648, -1152.49, 0.00151443, 0.477158, 1.03299, 0.34851, 0.655882, 0.0001, 45.5, 246, 39.2091, 0.188716, 0, 0, 0, 0, 140595
-7733.44, 294546, -219.607, 0.902983, -1157.96, 0.00493752, 0.455329, 0.993198, 0.349787, 0.651995, 0.0001, 91, 246, 39.2091, 0.188716, 0, 0, 1, 0, 140595
-10517, 80439.8, 11.7688, 2.95912, -1034.53, -0.000553366, 0.213628, 1.03299, 0.34851, 0.655882, 0.0001, 45.5, 246, 14.3865, 0.0365109, 0, 0, 1, 0, 140598
-10517, 80439.8, 11.7688, 2.95912, -1034.53, -0.000553366, 0.213628, 1.03299, 0.34851, 0.655882, 3, 45.5, 246, 14.3865, 0.0365109, 0, 0, 1, 0, 140598
-9266.27, 87260.9, -15.2322, 2.97923, -1073.41, 0.00239309, 0.228304, 0.993198, 0.349787, 0.651995, 0.0001, 91, 246, 14.1013, 0.0389932, 0, 0, 1, 0, 140599
-9266.27, 87260.9, -15.2322, 2.97923, -1073.41, 0.00239309, 0.228304, 0.993198, 0.349787, 0.651995, 3, 91, 246, 14.1013, 0.0389932, 0, 0, 1, 0, 140599
-10157, 183373, -140.791, 1.67783, -859.062, 0.00101487, 0.383513, 1.03299, 0.34851, 0.655882, 3, 45.5, 246, 33.3476, 0.161989, 0, 0, 1, 0, 140600
-8776.04, 196633, -162.654, 1.77859, -866.979, 0.0141322, 0.363982, 0.993198, 0.349787, 0.651995, 0.0001, 91, 246, 33.3476, 0.161989, 0, 0, 1, 0, 140600
483.123, 231200, -306.443, 5.11695, -1178.32, 0.666979, 0.329777, 0.9175, 0.352806, 0.64323, 0.0001, 455, 246, 30.6404, 0.106766, 1.07816, 1, 0, 0, 140603
483.123, 231200, -306.443, 5.11695, -1178.32, 0.666979, 0.329777, 0.9175, 0.352806, 0.64323, 3, 455, 246, 30.6404, 0.106766, 1.24238, 1, 0, 0, 140603
-6837.28, 800540, -175.035, 0.177342, -1120.82, 0.00961762, 0.341521, 0.993198, 0.349787, 0.651995, 0.0001, 91, 246, 30.6292, 0.0547121, 0, 0, 1, 0, 140606
-6075.06, 823600, -181.739, 0.182409, -1123.39, 0.00977454, 0.312138, 0.958125, 0.351078, 0.648177, 0.0001, 182, 246, 30.6292, 0.0547121, 0, 0, 1, 0, 140606
-12870.8, 364244, 2.78075, 0.88211, -835.712, -0.0020948, 0.32768, 1.03299, 0.34851, 0.655882, 3, 45.5, 246, 14.7993, 0.00522774, 0, 0, 1, 0, 140610
-10408.3, 388459, -11.0269, 0.957157, -836.309, 0.00533676, 0.265469, 0.958125, 0.351078, 0.648177, 0.0001, 182, 246, 14.7993, 0.00522774, 0, 0, 1, 0, 140610
-1000.64, 146883, -284.091, 4.62289, -764.345, 0.441502, 0.332417, 0.9175, 0.352806, 0.64323, 0.0001, 455, 246, 33.777, 0.127616, 1.09813, 1, 0, 0, 140614
-1000.64, 146883, -284.091, 4.62289, -764.345, 0.441502, 0.332417, 0.9175, 0.352806, 0.64323, 3, 455, 246, 33.777, 0.127616, 1.10038, 1, 0, 0, 140614
-16872.1, -239120, -17.2796, 0.318433, -1165.28, 0.0296923, 0.37051, 1.03299, 0.34851, 0.655882, 0.0001, 45.5, 246, -156.8, 0.0961268, 0, 0, 1, 0, 140615
-16872.1, -239120, -17.2796, 0.318433, -1165.28, 0.0296923, 0.37051, 1.03299, 0.34851, 0.655882, 3, 45.5, 246, -156.8, 0.0961268, 0, 0, 1, 0, 140615
-9175.49, 60437.8, -14.9815, 1.50819, -854.956, 0.014187, 0.318977, 1.03299, 0.34851, 0.655882, 0.0001, 45.5, 246, 14.7875, 0.0595893, 0, 0, 1, 0, 140618
-8598.11, 83821, -85.053, 1.71092, -794.362, -0.00995606, 0.347444, 1.03299, 0.34851, 0.655882, 3, 45.5, 246, 31.5343, 0.161035, 0, 0, 1, 0, 140622
-9689.89, 474285, -177.126, 0.42343, -777.336, -0.000759216, 0.403428, 1.03299, 0.34851, 0.655882, 0.0001, 45.5, 246, 26.3417, 0.0968986, 0, 0, 1, 0, 140625
-9689.89, 474285, -177.126, 0.42343, -777.336, -0.000759216, 0.403428, 1.03299, 0.34851, 0.655882, 3, 45.5, 246, 26.3417, 0.0968986, 0, 0, 1, 0, 140625
-8749.89, 485423, -186.533, 0.438741, -779.357, 5.67733e-05, 0.37271, 0.993198, 0.349787, 0.651995, 0.0001, 91, 246, 26.3417, 0.0968986, 0, 0, 1, 0, 140625
-7675.75, 496709, -195.936, 0.45356, -781.665, 0.000930759, 0.346275, 0.958125, 0.351078, 0.648177, 0.0001, 182, 246, 26.3417, 0.0968986, 0, 0, 1, 0, 140625
-11232.1, 432111, -210.959, 0.64237, -619.422, 0.325719, 0.429076, 1.03299, 0.34851, 0.655882, 0.0001, 45.5, 246, 26.3741, 0.119211, 0, 0, 1, 0, 140628
-11232.1, 432111, -210.959, 0.64237, -619.422, 0.325719, 0.429076, 1.03299, 0.34851, 0.655882, 3, 45.5, 246, 26.3741, 0.119211, 0, 0, 1, 0, 140628
-9630.37, 172491, -189.331, 2.37275, -917.964, -0.0137091, 0.386313, 1.03299, 0.34851, 0.655882, 3, 45.5, 246, 41.6798, 0.198514, 0, 0, 1, 0, 140629
-7552.35, 187853, -223.924, 2.54726, -931.228, 0.0128421, 0.380935, 0.993198, 0.349787, 0.651995, 0.0001, 91, 246, 41.6798, 0.198514, 0, 0, 1, 0, 140629
-7552.35, 187853, -223.924, 2.54726, -931.228, 0.0128421, 0.380935, 0.993198, 0.349787, 0.651995, 3, 91, 246, 41.6798, 0.198514, 0, 0, 1, 0, 140629
-9607.6, 470153, -121.273, 0.950228, -734.962, 0.00449944, 0.292173, 0.958125, 0.351078, 0.648177, 3, 182, 246, 20.8695, 0.0585247, 0, 0, 1, 0, 140630
-8776.36, 110786, -75.7293, 0.541461, -1048.34, -0.000674409, 0.391859, 1.03299, 0.34851, 0.655882, 0.0001, 45.5, 246, 28.7404, 0.178486, 0, 0, 1, 0, 140631
-8776.36, 110786, -75.7293, 0.541461, -1048.34, -0.000674409, 0.391859, 1.03299, 0.34851, 0.655882, 3, 45.5, 246, 28.7404, 0.178486, 0, 0, 1, 0, 140631
-9118.43, 824646, -183.528, 0.239375, -890.264, -0.000254085, 0.379471, 1.03299, 0.34851, 0.655882, 0.0001, 45.5, 246, 26.7634, 0.0573257, 0, 0, 0, 0, 140634
-9118.43, 824646, -183.528, 0.239375, -890.264, -0.000254085, 0.379471, 1.03299, 0.34851, 0.655882, 3, 45.5, 246, 26.7634, 0.0573257, 0, 0, 0, 0, 140634
-8158.04, 839155, -191.349, 0.247053, -891.447, 5.6624e-06, 0.34631, 0.993198, 0.349787, 0.651995, 3, 91, 246, 26.7634, 0.0573257, 0, 0, 1, 0, 140634
-5744.12, 597202, -392.949, 0.102662, -1100.48, 0.446518, 0.575417, 1.03299, 0.34851, 0.655882, 0.0001, 45.5, 246, 41.1823, 0.160703, 5.67794, 1, 0, 0, 140635
-5744.12, 597202, -392.949, 0.102662, -1100.48, 0.446518, 0.575417, 1.03299, 0.34851, 0.655882, 3, 45.5, 246, 41.1823, 0.160703, 5.65701, 1, 0, 0, 140635
-10505.2, 398686, -299.127, 0.790247, -875.573, 0.136207, 0.547857, 1.03299, 0.34851, 0.655882, 0.0001, 45.5, 246, 38.8948, 0.190973, 0, 0, 0, 0, 140639
-10505.2, 398686, -299.127, 0.790247, -875.573, 0.136207, 0.547857, 1.03299, 0.34851, 0.655882, 3, 45.5, 246, 38.8948, 0.190973, 0, 0, 0, 0, 140639
-3813.6, 108304, -264.408, 3.16027, -721.858, 0.807609, 0.312745, 1.03299, 0.34851, 0.655882, 0.0001, 45.5, 246, 56.0948, 0.218676, 1.64577, 1, 1, 0, 140641
-3813.6, 108304, -264.408, 3.16027, -721.858, 0.807609, 0.312745, 1.03299, 0.34851, 0.655882, 3, 45.5, 246, 56.0948, 0.218676, 1.54409, 1, 1, 0, 140641
-1427.97, 125955, -312.288, 3.60718, -858.325, 0.983303, 0.326161, 0.993198, 0.349787, 0.651995, 0.0001, 91, 246, 56.0948, 0.218676, 1.89941, 1, 1, 1, 140641
-1427.97, 125955, -312.288, 3.60718, -858.325, 0.983303, 0.326161, 0.993198, 0.349787, 0.651995, 3, 91, 246, 56.0948, 0.218676, 1.80332, 1, 1, 0, 140641
1972.18, 152075, -376.855, 4.19649, -1060.3, 1.24324, 0.364151, 0.958125, 0.351078, 0.648177, 0.0001, 182, 246, 56.0948, 0.218676, 5.69643, 1, 0, 0, 140641
1972.18, 152075, -376.855, 4.19649, -1060.3, 1.24324, 0.364151, 0.958125, 0.351078, 0.648177, 3, 182, 246, 56.0948, 0.218676, 5.02196, 1, 0, 0, 140641
343.676, 275784, -359.912, 3.61475, -935.382, 0.605352, 0.405174, 0.9175, 0.352806, 0.64323, 3, 455, 246, 36.7898, 0.170777, 1.1962, 1, 0, 0, 140645
-9312.23, 110972, -2.3172, 0.606904, -961.021, 0.0369767, 0.338937, 1.03299, 0.34851, 0.655882, 0.0001, 45.5, 246, 11.3911, 0.0190899, 0, 0, 1, 0, 140646
-9312.23, 110972, -2.3172, 0.606904, -961.021, 0.0369767, 0.338937, 1.03299, 0.34851, 0.655882, 3, 45.5, 246, 11.3911, 0.0190899, 0, 0, 1, 0, 140646
-10108, 113451, -26.9349, 1.75954, -1137.78, -0.0129784, 0.309716, 1.03299, 0.34851, 0.655882, 0.0001, 45.5, 246, 20.2362, 0.0658833, 0, 0, 1, 0, 140648
-10108, 113451, -26.9349, 1.75954, -1137.78, -0.0129784, 0.309716, 1.03299, 0.34851, 0.655882, 3, 45.5, 246, 20.2362, 0.0658833, 0, 0, 1, 0, 140648
-12379.4, 119023, 15.8346, 3.32111, -1011.41, -0.0474943, 0.167664, 1.03299, 0.34851, 0.655882, 0.0001, 45.5, 246, 14.9191, 0.0296332, 0, 0, 0, 0, 140651
-12379.4, 119023, 15.8346, 3.32111, -1011.41, -0.0474943, 0.167664, 1.03299, 0.34851, 0.655882, 3, 45.5, 246, 14.9191, 0.0296332, 0, 0, 0, 0, 140651
908.302, 351839, -392.804, 4.15738, -848.021, 0.736221, 0.397874, 0.9175, 0.352806, 0.64323, 3, 455, 246, 32.2176, 0.145582, 1.1363, 1, 0, 0, 140657
-10294.1, 165156, -13.1168, 1.85013, -1095.31, 0.750592, 0.272776, 0.993198, 0.349787, 0.651995, 0.0001, 91, 246, 14.738, 0.0241449, 0, 0, 1, 0, 140659
-10294.1, 165156, -13.1168, 1.85013, -1095.31, 0.750592, 0.272776, 0.993198, 0.349787, 0.651995, 3, 91, 246, 14.738, 0.0241449, 0, 0, 1, 0, 140659
-11543.3, 274968, -242.651, 1.61723, -799.191, 0.0875057, 0.480135, 1.03299, 0.34851, 0.655882, 0.0001, 45.5, 246, 39.2568, 0.200825, 0, 0, 0, 0, 140663
-11543.3, 274968, -242.651, 1.61723, -799.191, 0.0875057, 0.480135, 1.03299, 0.34851, 0.655882, 3, 45.5, 246, 39.2568, 0.200825, 0, 0, 0, 0, 140663
-10865.7, 898797, -19.1873, 0.383176, -1026.86, 0.42249, 0.270965, 0.958125, 0.351078, 0.648177, 3, 182, 246, 21.0103, 0.00473853, 0, 0, 1, 0, 140668
-8993.85, 171713, -227.897, 2.28762, -820.217, 0.263527, 0.434644, 1.03299, 0.34851, 0.655882, 3, 45.5, 246, 46.0659, 0.232207, 0, 0, 1, 0, 140671
-8709.67, 95219.8, -94.1918, 1.68029, -808.24, -0.0131673, 0.356382, 1.03299, 0.34851, 0.655882, 3, 45.5, 246, 32.4807, 0.168587, 0, 0, 1, 0, 140672
-9755.84, 223725, -244.144, 1.96695, -1121.65, 0.040082, 0.497971, 1.03299, 0.34851, 0.655882, 3, 45.5, 246, 47.3502, 0.237646, 0, 0, 0, 0, 140684
-10292, 333175, -275.879, 0.662168, -669.862, 0.345214, 0.545184, 1.03299, 0.34851, 0.655882, 0.0001, 45.5, 246, 36.4483, 0.204461, 0, 0, 0, 0, 140688
-10292, 333175, -275.879, 0.662168, -669.862, 0.345214, 0.545184, 1.03299, 0.34851, 0.655882, 3, 45.5, 246, 36.4483, 0.204461, 0, 0, 0, 0, 140688
-7164.39, 367501, -309.981, 0.750364, -763.963, 0.392399, 0.515921, 0.958125, 0.351078, 0.648177, 0.0001, 182, 246, 36.4483, 0.204461, 0, 0, 0, 0, 140688
-12331.9, 218687, -144.18, 2.63789, -1162.74, 0.0183216, 0.310365, 1.03299, 0.34851, 0.655882, 0.0001, 45.5, 246, 35.494, 0.133719, 0, 0, 0, 0, 140691
-12331.9, 218687, -144.18, 2.63789, -1162.74, 0.0183216, 0.310365, 1.03299, 0.34851, 0.655882, 3, 45.5, 246, 35.494, 0.133719, 0, 0, 0, 0, 140691
-11502.1, 965225, -14.6437, 0.260054, -868.673, 0.626996, 0.303342, 0.993198, 0.349787, 0.651995, 3, 91, 246, 19.0624, 0.00375657, 0, 0, 1, 0, 140692
-9394.36, 437299, -375.432, 0.481317, -926.771, -5.97129e-06, 0.663357, 1.03299, 0.34851, 0.655882, 3, 45.5, 246, 44.1869, 0.230152, 0, 0, 0, 0, 140693
-10154, 556690, -194.883, 0.538853, -1016.83, 0.290626, 0.400965, 1.03299, 0.34851, 0.655882, 0.0001, 45.5, 246, 30.6117, 0.0863951, 0, 0, 0, 0, 140696
-10154, 556690, -194.883, 0.538853, -1016.83, 0.290626, 0.400965, 1.03299, 0.34851, 0.655882, 3, 45.5, 246, 30.6117, 0.0863951, 0, 0, 0, 0, 140696
-5619.71, 550757, -475.919, 0.0249365, -1199.62, 1.43568e-05, 0.754425, 1.03299, 0.34851, 0.655882, 0.0001, 45.5, 246, 49.8944, 0.234062, 0, 0, 0, 0, 140703
-3664.61, 580165, -494.68, 0.0259052, -1199.95, 1.71939e-05, 0.758125, 0.993198, 0.349787, 0.651995, 3, 91, 246, 49.8944, 0.234062, 0, 0, 1, 0, 140703
-11792.7, 125796, 14.7502, 2.50334, -936.5, -0.029541, 0.246281, 1.03299, 0.34851, 0.655882, 0.0001, 45.5, 246, 12.7661, 0.0214422, 0, 0, 1, 0, 140704
-11792.7, 125796, 14.7502, 2.50334, -936.5, -0.029541, 0.246281, 1.03299, 0.34851, 0.655882, 3, 45.5, 246, 12.7661, 0.0214422, 0, 0, 1, 0, 140704
-6210.98, 176492, -68.2667, 3.18834, -954.763, 0.0880689, 0.247801, 0.9175, 0.352806, 0.64323, 3, 455, 246, 12.7661, 0.0214422, 0, 0, 1, 0, 140704
-4002.39, 52919.7, -161.854, 3.72241, -1084.47, 0.168338, 0.230787, 0.993198, 0.349787, 0.651995, 0.0001, 91, 246, 46.232, 0.109343, 0, 0, 1, 1, 140709
-4002.39, 52919.7, -161.854, 3.72241, -1084.47, 0.168338, 0.230787, 0.993198, 0.349787, 0.651995, 3, 91, 246, 46.232, 0.109343, 0, 0, 1, 1, 140709
-2660.24, 75657.7, -217.237, 4.12147, -1139.77, 0.242318, 0.263566, 0.958125, 0.351078, 0.648177, 0.0001, 182, 246, 46.232, 0.109343, 1.25522, 1, 1, 0, 140709
-2660.24, 75657.7, -217.237, 4.12147, -1139.77, 0.242318, 0.263566, 0.958125, 0.351078, 0.648177, 3, 182, 246, 46.232, 0.109343, 1.08443, 1, 1, 0, 140709
528.941, 112235, -313.749, 4.80528, -1256.99, 0.376979, 0.34489, 0.9175, 0.352806, 0.64323, 0.0001, 455, 246, 46.232, 0.109343, 2.72502, 1, 0, 0, 140709
528.941, 112235, -313.749, 4.80528, -1256.99, 0.376979, 0.34489, 0.9175, 0.352806, 0.64323, 3, 455, 246, 46.232, 0.109343, 2.72471, 1, 0, 0, 140709
-7907.49, 115694, -155.727, 2.58099, -1038.19, -0.0263502, 0.346599, 1.03299, 0.34851, 0.655882, 0.0001, 45.5, 246, 43.259, 0.198503, 0, 0, 1, 0, 140711
-7907.49, 115694, -155.727, 2.58099, -1038.19, -0.0263502, 0.346599, 1.03299, 0.34851, 0.655882, 3, 45.5, 246, 43.259, 0.198503, 0, 0, 1, 0, 140711
-358.763, 185190, -304.397, 3.34696, -1114.59, 0.101178, 0.381759, 0.9175, 0.352806, 0.64323, 0.0001, 455, 246, 43.259, 0.198503, 1.73341, 1, 0, 0, 140711
-358.763, 185190, -304.397, 3.34696, -1114.59, 0.101178, 0.381759, 0.9175, 0.352806, 0.64323, 3, 455, 246, 43.259, 0.198503, 1.79157, 1, 0, 0, 140711
-9688, 327850, -177.627, 0.677373, -893.718, 0.860662, 0.416128, 1.03299, 0.34851, 0.655882, 0.0001, 45.5, 246, 30.2582, 0.121608, 0, 0, 1, 0, 140713
-8579.77, 361425, -191.128, 0.74084, -1038.29, 0.998696, 0.387868, 0.993198, 0.349787, 0.651995, 0.0001, 91, 246, 30.2582, 0.121608, 0, 0, 1, 0, 140713
-3306.55, 293639, -405.369, 3.43999, -990.976, 0.443672, 0.469113, 0.958125, 0.351078, 0.648177, 0.0001, 182, 246, 45.9587, 0.214299, 1.39146, 1, 0, 0, 140724
-3306.55, 293639, -405.369, 3.43999, -990.976, 0.443672, 0.469113, 0.958125, 0.351078, 0.648177, 3, 182, 246, 45.9587, 0.214299, 1.17249, 1, 0, 0, 140724
-12945.3, 332077, -344.372, 2.17386, -1043.32, -0.00333606, 0.575394, 1.03299, 0.34851, 0.655882, 3, 45.5, 246, 49.5077, 0.237925, 0, 0, 0, 0, 140730
-9895.46, 221210, -237.477, 1.7599, -1015.53, 0.673016, 0.482867, 1.03299, 0.34851, 0.655882, 3, 45.5, 246, 44.1595, 0.220098, 0, 0, 0, 0, 140734
-8387.82, 397978, -140.829, 0.551985, -1108.78, 0.00114878, 0.350277, 0.993198, 0.349787, 0.651995, 0.0001, 91, 246, 29.1003, 0.0885662, 0, 0, 1, 0, 140739
-6829.24, 35154.6, -88.6871, 3.0274, -540.538, 0.820165, 0.213813, 1.03299, 0.34851, 0.655882, 0.0001, 45.5, 246, 30.764, 0.0690533, 2.54176, 1, 1, 0, 140751
-6829.24, 35154.6, -88.6871, 3.0274, -540.538, 0.820165, 0.213813, 1.03299, 0.34851, 0.655882, 3, 45.5, 246, 30.764, 0.0690533, 2.43939, 1, 1, 0, 140751
-3584.14, 80729.1, -218.317, 5.04404, -1087.51, 1.85573, 0.321421, 0.9175, 0.352806, 0.64323, 0.0001, 455, 246, 30.764, 0.0690533, 1.03359, 1, 1, 0, 140751
-5716.77, 770554, -212.423, 0.145126, -1188.5, 0.0155729, 0.36165, 0.993198, 0.349787, 0.651995, 0.0001, 91, 246, 33.2785, 0.0691561, 0, 0, 1, 0, 140762
-4933.57, 796886, -219.934, 0.149315, -1192.28, 0.0157067, 0.333619, 0.958125, 0.351078, 0.648177, 0.0001, 182, 246, 33.2785, 0.0691561, 0, 0, 0, 0, 140762
-8554.05, -2002.56, -2.08375, 2.09057, -1139.4, 0.587596, 0.285653, 0.993198, 0.349787, 0.651995, 3, 91, 246, 5.82399, 0.0595568, 0, 0, 1, 0, 140763
-3340.03, 275995, -410.415, 3.35141, -904.918, 0.90511, 0.484241, 0.958125, 0.351078, 0.648177, 0.0001, 182, 246, 45.4842, 0.221741, 1.48825, 1, 0, 0, 140765
-3340.03, 275995, -410.415, 3.35141, -904.918, 0.90511, 0.484241, 0.958125, 0.351078, 0.648177, 3, 182, 246, 45.4842, 0.221741, 1.28361, 1, 0, 0, 140765
-10612.3, 180607, -128.779, 1.90042, -825.289, -0.00941789, 0.355007, 1.03299, 0.34851, 0.655882, 0.0001, 45.5, 246, 31.2175, 0.143545, 0, 0, 1, 0, 140769
-8159.66, 59281.6, -72.8882, 3.01926, -762.165, 0.175094, 0.228976, 1.03299, 0.34851, 0.655882, 0.0001, 45.5, 246, 27.9629, 0.0918784, 0, 0, 1, 0, 140773
-8159.66, 59281.6, -72.8882, 3.01926, -762.165, 0.175094, 0.228976, 1.03299, 0.34851, 0.655882, 3, 45.5, 246, 27.9629, 0.0918784, 0, 0, 1, 0, 140773
-6027.75, 295633, -451.019, 3.77586, -1140.55, 0.42998, 0.509352, 0.993198, 0.349787, 0.651995, 0.0001, 91, 246, 55.6357, 0.247961, 1.53298, 1, 1, 0, 140778
-6027.75, 295633, -451.019, 3.77586, -1140.55, 0.42998, 0.509352, 0.993198, 0.349787, 0.651995, 3, 91, 246, 55.6357, 0.247961, 1.45098, 1, 1, 0, 140778
-7680.62, 481602, -335.64, 0.139828, -674.647, 0.0489487, 0.543483, 0.993198, 0.349787, 0.651995, 0.0001, 91, 246, 34.2633, 0.182124, 0, 0, 1, 0, 140782
-11050.5, 348756, -333.61, 1.37756, -1095.3, 0.434322, 0.598275, 1.03299, 0.34851, 0.655882, 0.0001, 45.5, 246, 46.9653, 0.22615, 0, 0, 0, 0, 140790
-11050.5, 348756, -333.61, 1.37756, -1095.3, 0.434322, 0.598275, 1.03299, 0.34851, 0.655882, 3, 45.5, 246, 46.9653, 0.22615, 0, 0, 0, 0, 140790
-11519.5, 845948, -59.2424, 0.277142, -686.359, 0.0324658, 0.34332, 1.03299, 0.34851, 0.655882, 0.0001, 45.5, 246, 17.8302, 0.0184585, 0, 0, 1, 0, 140793
-11519.5, 845948, -59.2424, 0.277142, -686.359, 0.0324658, 0.34332, 1.03299, 0.34851, 0.655882, 3, 45.5, 246, 17.8302, 0.0184585, 0, 0, 1, 0, 140793
-10727.4, 855744, -62.8536, 0.286438, -690.372, 0.0329837, 0.307562, 0.993198, 0.349787, 0.651995, 3, 91, 246, 17.8302, 0.0184585, 0, 0, 1, 0, 140793
-10301, 265286, -156.107, 1.20399, -1071.71, 0.0178714, 0.407098, 1.03299, 0.34851, 0.655882, 0.0001, 45.5, 246, 33.6333, 0.142787, 0, 0, 0, 0, 140795
-10301, 265286, -156.107, 1.20399, -1071.71, 0.0178714, 0.407098, 1.03299, 0.34851, 0.655882, 3, 45.5, 246, 33.6333, 0.142787, 0, 0, 0, 0, 140795
-8833.92, 286200, -176.046, 1.26693, -1080.72, 0.0246427, 0.382781, 0.993198, 0.349787, 0.651995, 3, 91, 246, 33.6333, 0.142787, 0, 0, 1, 0, 140795
-8910.85, 120622, -73.5805, 0.833488, -1098.16, 3.55605e-06, 0.375714, 1.03299, 0.34851, 0.655882, 0.0001, 45.5, 246, 27.6132, 0.14371, 0, 0, 1, 0, 140805
-8910.85, 120622, -73.5805, 0.833488, -1098.16, 3.55605e-06, 0.375714, 1.03299, 0.34851, 0.655882, 3, 45.5, 246, 27.6132, 0.14371, 0, 0, 1, 0, 140805
-2799.2, 93186.5, -224.181, 3.39723, -1074.45, -0.00014322, 0.306534, 0.993198, 0.349787, 0.651995, 0.0001, 91, 246, 55.0462, 0.215635, 1.4155, 1, 1, 0, 140807
-2799.2, 93186.5, -224.181, 3.39723, -1074.45, -0.00014322, 0.306534, 0.993198, 0.349787, 0.651995, 3, 91, 246, 55.0462, 0.215635, 1.23447, 1, 1, 0, 140807
-664.696, 115090, -279.825, 3.70969, -1102.58, 0.055332, 0.331734, 0.958125, 0.351078, 0.648177, 0.0001, 182, 246, 55.0462, 0.215635, 2.0634, 1, 1, 0, 140807
-664.696, 115090, -279.825, 3.70969, -1102.58, 0.055332, 0.331734, 0.958125, 0.351078, 0.648177, 3, 182, 246, 55.0462, 0.215635, 1.91585, 1, 1, 0, 140807
-9241.5, -106668, -3.07593, 0.107414, -1052.95, 0.0742431, 0.343592, 1.03299, 0.34851, 0.655882, 0.0001, 45.5, 246, -69.5694, 0.0399954, 0, 0, 1, 0, 140817
-9241.5, -106668, -3.07593, 0.107414, -1052.95, 0.0742431, 0.343592, 1.03299, 0.34851, 0.655882, 3, 45.5, 246, -69.5694, 0.0399954, 0, 0, 1, 0, 140817
-11968.4, 417423, -81.2795, 0.805402, -998.387, 0.392628, 0.346326, 1.03299, 0.34851, 0.655882, 0.0001, 45.5, 246, 24.1243, 0.0493067, 0, 0, 1, 0, 140819
-11968.4, 417423, -81.2795, 0.805402, -998.387, 0.392628, 0.346326, 1.03299, 0.34851, 0.655882, 3, 45.5, 246, 24.1243, 0.0493067, 0, 0, 1, 0, 140819
-9101.77, 189984, -228.871, 2.23007, -1104.19, 0.00448807, 0.464507, 1.03299, 0.34851, 0.655882, 0.0001, 45.5, 246, 48.1395, 0.240833, 0, 0, 0, 0, 140838
-9101.77, 189984, -228.871, 2.23007, -1104.19, 0.00448807, 0.464507, 1.03299, 0.34851, 0.655882, 3, 45.5, 246, 48.1395, 0.240833, 0, 0, 0, 0, 140838
-10281.3, 978850, -35.3722, 0.173269, -780.644, 0.663913, 0.305075, 0.993198, 0.349787, 0.651995, 0.0001, 91, 246, 17.8028, 0.00837199, 0, 0, 1, 0, 140848
-12809.5, 371687, -0.994486, 0.862856, -913.188, 0.000260478, 0.328446, 1.03299, 0.34851, 0.655882, 0.0001, 45.5, 246, 16.4418, 0.00790309, 0, 0, 1, 0, 140851
-12809.5, 371687, -0.994486, 0.862856, -913.188, 0.000260478, 0.328446, 1.03299, 0.34851, 0.655882, 3, 45.5, 246, 16.4418, 0.00790309, 0, 0, 1, 0, 140851
-10331.8, 400792, -16.0874, 0.935848, -914.662, 0.00737166, 0.265997, 0.958125, 0.351078, 0.648177, 0.0001, 182, 246, 16.4418, 0.00790309, 0, 0, 1, 0, 140851
-11723.7, 635111, -72.2719, 0.470867, -1036.63, 0.268661, 0.345167, 1.03299, 0.34851, 0.655882, 0.0001, 45.5, 246, 24.8715, 0.0293482, 0, 0, 1, 0, 140852
-11723.7, 635111, -72.2719, 0.470867, -1036.63, 0.268661, 0.345167, 1.03299, 0.34851, 0.655882, 3, 45.5, 246, 24.8715, 0.0293482, 0, 0, 1, 0, 140852
-9253.76, 696228, -87.0463, 0.518885, -1135.38, 0.295939, 0.279788, 0.958125, 0.351078, 0.648177, 3, 182, 246, 24.8715, 0.0293482, 0, 0, 1, 0, 140852
-11768.5, 502449, -81.304, 0.653268, -1045.35, 0.0420114, 0.34795, 1.03299, 0.34851, 0.655882, 0.0001, 45.5, 246, 24.9099, 0.0433052, 0, 0, 1, 0, 140854
-11768.5, 502449, -81.304, 0.653268, -1045.35, 0.0420114, 0.34795, 1.03299, 0.34851, 0.655882, 3, 45.5, 246, 24.9099, 0.0433052, 0, 0, 1, 0, 140854
-8215.28, -6429.71, -1.24026, 1.94484, -625.2, -0.00644996, 0.3038, 1.03299, 0.34851, 0.655882, 3, 45.5, 246, 9.57503, 0.0383153, 0, 0, 1, 1, 140855
-9349.21, 144185, -147.538, 1.85836, -701.9, -0.0134962, 0.383016, 1.03299, 0.34851, 0.655882, 0.0001, 45.5, 246, 36.0136, 0.187184, 0, 0, 1, 0, 140865
-9349.21, 144185, -147.538, 1.85836, -701.9, -0.0134962, 0.383016, 1.03299, 0.34851, 0.655882, 3, 45.5, 246, 36.0136, 0.187184, 0, 0, 1, 0, 140865
-7825.27, 282343, -413.131, 3.77938, -879.666, 0.00485279, 0.450674, 0.993198, 0.349787, 0.651995, 0.0001, 91, 246, 50.9761, 0.23059, 1.38349, 1, 1, 0, 140866
-7825.27, 282343, -413.131, 3.77938, -879.666, 0.00485279, 0.450674, 0.993198, 0.349787, 0.651995, 3, 91, 246, 50.9761, 0.23059, 1.28928, 1, 1, 0, 140866
-10807.9, 305519, -114.504, 1.04784, -1114.27, 0.00394322, 0.368579, 1.03299, 0.34851, 0.655882, 0.0001, 45.5, 246, 28.9316, 0.0946245, 0, 0, 1, 0, 140884
-10807.9, 305519, -114.504, 1.04784, -1114.27, 0.00394322, 0.368579, 1.03299, 0.34851, 0.655882, 3, 45.5, 246, 28.9316, 0.0946245, 0, 0, 1, 0, 140884
-9460.77, 327584, -130.637, 1.09743, -1118.87, 0.0090008, 0.339555, 0.993198, 0.349787, 0.651995, 3, 91, 246, 28.9316, 0.0946245, 0, 0, 1, 0, 140884
-5519.74, 727072, -270.92, 0.156339, -1051.05, 0.56173, 0.372119, 0.958125, 0.351078, 0.648177, 0.0001, 182, 246, 29.8611, 0.0915559, 0, 0, 0, 0, 140893
-5519.74, 727072, -270.92, 0.156339, -1051.05, 0.56173, 0.372119, 0.958125, 0.351078, 0.648177, 3, 182, 246, 29.8611, 0.0915559, 0, 0, 0, 0, 140893
-8532.24, 164021, -56.8379, 3.80438, -1062.13, 0.895599, 0.211394, 0.958125, 0.351078, 0.648177, 3, 182, 246, 14.424, 0.0296255, 0, 0, 1, 0, 140898
-7905.41, 39784.6, -70.3798, 3.76516, -1112.71, 1.31078, 0.28897, 0.9175, 0.352806, 0.64323, 3, 455, 246, 6.64139, 0.0369867, 0, 0, 1, 0, 140902
-6390.73, 521513, -247.139, 0.256157, -1091.43, 0.106108, 0.420967, 0.993198, 0.349787, 0.651995, 0.0001, 91, 246, 34.3777, 0.12099, 0, 0, 1, 0, 140905
-5377.06, 546925, -257.547, 0.265784, -1111.81, 0.108221, 0.397552, 0.958125, 0.351078, 0.648177, 0.0001, 182, 246, 34.3777, 0.12099, 0, 0, 0, 0, 140905
-7174.34, -2572.55, -12.8396, 3.28486, -1019.47, 0.147889, 0.207285, 1.03299, 0.34851, 0.655882, 0.0001, 45.5, 246, 19.9154, 0.0585145, 0, 0, 1, 1, 140908
-7174.34, -2572.55, -12.8396, 3.28486, -1019.47, 0.147889, 0.207285, 1.03299, 0.34851, 0.655882, 3, 45.5, 246, 19.9154, 0.0585145, 0, 0, 1, 1, 140908
-6810.84, 149241, -247.944, 3.11978, -1066.27, 0.239239, 0.374439, 1.03299, 0.34851, 0.655882, 0.0001, 45.5, 246, 53.3102, 0.237608, 1.11467, 1, 0, 0, 140909
-3977.32, 173772, -303.06, 3.44589, -1136.52, 0.297786, 0.389554, 0.993198, 0.349787, 0.651995, 0.0001, 91, 246, 53.3102, 0.237608, 1.36464, 1, 1, 0, 140909
-3977.32, 173772, -303.06, 3.44589, -1136.52, 0.297786, 0.389554, 0.993198, 0.349787, 0.651995, 3, 91, 246, 53.3102, 0.237608, 1.20495, 1, 1, 0, 140909
-34.0476, 203464, -371.19, 3.83884, -1231.18, 0.373564, 0.423601, 0.958125, 0.351078, 0.648177, 0.0001, 182, 246, 53.3102, 0.237608, 3.8034, 1, 0, 0, 140909
-34.0476, 203464, -371.19, 3.83884, -1231.18, 0.373564, 0.423601, 0.958125, 0.351078, 0.648177, 3, 182, 246, 53.3102, 0.237608, 3.49208, 1, 0, 0, 140909
-10652.3, 491622, -316.652, 0.674106, -895.572, 0.0658073, 0.534013, 1.03299, 0.34851, 0.655882, 3, 45.5, 246, 37.3035, 0.166423, 0, 0, 0, 0, 140915
-11321.1, 104559, -3.9467, 2.97964, -797.021, 0.313142, 0.203024, 1.03299, 0.34851, 0.655882, 0.0001, 45.5, 246, 14.2844, 0.0351816, 0, 0, 1, 0, 140923
-11321.1, 104559, -3.9467, 2.97964, -797.021, 0.313142, 0.203024, 1.03299, 0.34851, 0.655882, 3, 45.5, 246, 14.2844, 0.0351816, 0, 0, 1, 0, 140923
-8242.82, 523067, -398.004, 0.0335992, -693.883, 0.862476, 0.596916, 1.03299, 0.34851, 0.655882, 0.0001, 45.5, 246, 34.8707, 0.174149, 0, 0, 0, 0, 140927
-8242.82, 523067, -398.004, 0.0335992, -693.883, 0.862476, 0.596916, 1.03299, 0.34851, 0.655882, 3, 45.5, 246, 34.8707, 0.174149, 0, 0, 0, 0, 140927
-9585, 377954, -167.177, 0.722248, -1161.85, -0.00094923, 0.407151, 1.03299, 0.34851, 0.655882, 0.0001, 45.5, 246, 32.9346, 0.112538, 0, 0, 0, 0, 140932
-9585, 377954, -167.177, 0.722248, -1161.85, -0.00094923, 0.407151, 1.03299, 0.34851, 0.655882, 3, 45.5, 246, 32.9346, 0.112538, 0, 0, 0, 0, 140932
-8307.08, 402146, -181.867, 0.752516, -1165.28, 0.00143803, 0.378361, 0.993198, 0.349787, 0.651995, 3, 91, 246, 32.9346, 0.112538, 0, 0, 1, 0, 140932
-10737.7, 386334, -94.2992, 0.628562, -795.084, 0.00254034, 0.358099, 1.03299, 0.34851, 0.655882, 0.0001, 45.5, 246, 21.672, 0.0635863, 0, 0, 1, 0, 140946
-10737.7, 386334, -94.2992, 0.628562, -795.084, 0.00254034, 0.358099, 1.03299, 0.34851, 0.655882, 3, 45.5, 246, 21.672, 0.0635863, 0, 0, 1, 0, 140946
-9825.53, 397586, -102.515, 0.653023, -797.176, 0.00434509, 0.324927, 0.993198, 0.349787, 0.651995, 0.0001, 91, 246, 21.672, 0.0635863, 0, 0, 1, 0, 140946
-10778.9, 362716, -315.738, 1.04788, -952.095, 0.117308, 0.586983, 1.03299, 0.34851, 0.655882, 0.0001, 45.5, 246, 43.3775, 0.219511, 0, 0, 0, 0, 140953
-10778.9, 362716, -315.738, 1.04788, -952.095, 0.117308, 0.586983, 1.03299, 0.34851, 0.655882, 3, 45.5, 246, 43.3775, 0.219511, 0, 0, 0, 0, 140953
-7986.52, 526506, -226.933, 0.342816, -1083.51, 0.437353, 0.428327, 1.03299, 0.34851, 0.655882, 0.0001, 45.5, 246, 33.4196, 0.103385, 0, 0, 0, 0, 140954
-7986.52, 526506, -226.933, 0.342816, -1083.51, 0.437353, 0.428327, 1.03299, 0.34851, 0.655882, 3, 45.5, 246, 33.4196, 0.103385, 0, 0, 0, 0, 140954
-6881.15, 562600, -238.525, 0.363555, -1166.24, 0.47041, 0.399343, 0.993198, 0.349787, 0.651995, 3, 91, 246, 33.4196, 0.103385, 0, 0, 1, 0, 140954
-9435.14, 282376, -384.783, 3.65384, -766.569, 0.262333, 0.410469, 0.993198, 0.349787, 0.651995, 0.0001, 91, 246, 45.7095, 0.20875, 1.11865, 1, 1, 0, 140956
-3141.94, 301002, -451.742, 4.0821, -847.318, 0.342159, 0.453841, 0.958125, 0.351078, 0.648177, 0.0001, 182, 246, 45.7095, 0.20875, 3.25749, 1, 0, 0, 140956
-3141.94, 301002, -451.742, 4.0821, -847.318, 0.342159, 0.453841, 0.958125, 0.351078, 0.648177, 3, 182, 246, 45.7095, 0.20875, 2.99872, 1, 0, 0, 140956
-9376.08, 409363, -223.728, 0.613468, -996.788, -0.00166099, 0.456638, 1.03299, 0.34851, 0.655882, 0.0001, 45.5, 246, 34.4734, 0.141366, 0, 0, 0, 0, 140957
-9376.08, 409363, -223.728, 0.613468, -996.788, -0.00166099, 0.456638, 1.03299, 0.34851, 0.655882, 3, 45.5, 246, 34.4734, 0.141366, 0, 0, 0, 0, 140957
-8013.47, 427695, -238.559, 0.638755, -1000.47, 6.02521e-05, 0.431253, 0.993198, 0.349787, 0.651995, 3, 91, 246, 34.4734, 0.141366, 0, 0, 1, 0, 140957
-9420.78, -104071, 0.746821, 0.348902, -1138.84, 0.255981, 0.349275, 1.03299, 0.34851, 0.655882, 0.0001, 45.5, 246, -50.4483, 0.0865492, 0, 0, 1, 0, 140960
-9420.78, -104071, 0.746821, 0.348902, -1138.84, 0.255981, 0.349275, 1.03299, 0.34851, 0.655882, 3, 45.5, 246, -50.4483, 0.0865492, 0, 0, 1, 0, 140960
-9821.37, -81680.5, -2.93312, 0.365523, -1186.91, 0.267356, 0.314168, 0.993198, 0.349787, 0.651995, 0.0001, 91, 246, -50.4483, 0.0865492, 0, 0, 1, 0, 140960
-9821.37, -81680.5, -2.93312, 0.365523, -1186.91, 0.267356, 0.314168, 0.993198, 0.349787, 0.651995, 3, 91, 246, -50.4483, 0.0865492, 0, 0, 1, 0, 140960
-10762.5, 364752, -83.5813, 0.682951, -887.599, 0.0160497, 0.353558, 1.03299, 0.34851, 0.655882, 0.0001, 45.5, 246, 22.3871, 0.0599234, 0, 0, 1, 0, 140965
-10762.5, 364752, -83.5813, 0.682951, -887.599, 0.0160497, 0.353558, 1.03299, 0.34851, 0.655882, 3, 45.5, 246, 22.3871, 0.0599234, 0, 0, 1, 0, 140965
-9831.66, 378992, -92.4404, 0.710654, -891.621, 0.0182278, 0.320392, 0.993198, 0.349787, 0.651995, 0.0001, 91, 246, 22.3871, 0.0599234, 0, 0, 1, 0, 140965
-6769.3, 7137.83, -47.7014, 2.96148, -945.222, 0.641749, 0.235912, 1.03299, 0.34851, 0.655882, 0.0001, 45.5, 246, 29.6076, 0.0609174, 0, 0, 1, 0, 140969
-6769.3, 7137.83, -47.7014, 2.96148, -945.222, 0.641749, 0.235912, 1.03299, 0.34851, 0.655882, 3, 45.5, 246, 29.6076, 0.0609174, 0, 0, 1, 0, 140969
-9380.66, 57606.5, -7.96159, 3.50442, -1143.85, -0.0563568, 0.169467, 1.03299, 0.34851, 0.655882, 0.0001, 45.5, 246, 19.7442, 0.0602677, 1.15485, 1, 0, 0, 140971
-9380.66, 57606.5, -7.96159, 3.50442, -1143.85, -0.0563568, 0.169467, 1.03299, 0.34851, 0.655882, 3, 45.5, 246, 19.7442, 0.0602677, 1.09625, 1, 0, 0, 140971
-8468.79, 79827.6, -46.9342, 3.81565, -1141.47, 0.0025072, 0.18273, 0.993198, 0.349787, 0.651995, 0.0001, 91, 246, 19.7442, 0.0602677, 0, 0, 1, 0, 140971
-8468.79, 79827.6, -46.9342, 3.81565, -1141.47, 0.0025072, 0.18273, 0.993198, 0.349787, 0.651995, 3, 91, 246, 19.7442, 0.0602677, 0, 0, 1, 0, 140971
-11084, 585601, -35.2085, 0.33896, -697.641, 0.0838866, 0.340948, 1.03299, 0.34851, 0.655882, 0.0001, 45.5, 246, 16.1808, 0.0163055, 0, 0, 1, 0, 140974
-11084, 585601, -35.2085, 0.33896, -697.641, 0.0838866, 0.340948, 1.03299, 0.34851, 0.655882, 3, 45.5, 246, 16.1808, 0.0163055, 0, 0, 1, 0, 140974
-10459.1, 596862, -38.529, 0.351661, -707.379, 0.0855441, 0.3052, 0.993198, 0.349787, 0.651995, 0.0001, 91, 246, 16.1808, 0.0163055, 0, 0, 1, 0, 140974
-9680.96, 85627.5, -58.4899, 3.40754, -808.472, -0.00262289, 0.180449, 1.03299, 0.34851, 0.655882, 0.0001, 45.5, 246, 23.8053, 0.0758762, 0, 0, 1, 0, 140982
-9680.96, 85627.5, -58.4899, 3.40754, -808.472, -0.00262289, 0.180449, 1.03299, 0.34851, 0.655882, 3, 45.5, 246, 23.8053, 0.0758762, 0, 0, 1, 0, 140982
-8731.87, 548831, -452.26, 0.0398721, -761.511, 0.0823754, 0.707967, 1.03299, 0.34851, 0.655882, 0.0001, 45.5, 246, 41.0776, 0.219267, 0, 0, 0, 0, 140988
-8731.87, 548831, -452.26, 0.0398721, -761.511, 0.0823754, 0.707967, 1.03299, 0.34851, 0.655882, 3, 45.5, 246, 41.0776, 0.219267, 0, 0, 0, 0, 140988
-7054.74, 565312, -469.626, 0.0415597, -772.053, 0.0834692, 0.706137, 0.993198, 0.349787, 0.651995, 3, 91, 246, 41.0776, 0.219267, 0, 0, 1, 0, 140988
-9398.05, 115096, -95.1812, 2.34357, -1032.89, 0.092451, 0.310349, 1.03299, 0.34851, 0.655882, 0.0001, 45.5, 246, 31.8083, 0.133501, 0, 0, 1, 0, 140997
-9398.05, 115096, -95.1812, 2.34357, -1032.89, 0.092451, 0.310349, 1.03299, 0.34851, 0.655882, 3, 45.5, 246, 31.8083, 0.133501, 0, 0, 1, 0, 140997
-9320.75, 92648, -63.4588, 2.2538, -1085.55, 0.233661, 0.299475, 1.03299, 0.34851, 0.655882, 0.0001, 45.5, 246, 27.5332, 0.109734, 0, 0, 1, 0, 141000
-9320.75, 92648, -63.4588, 2.2538, -1085.55, 0.233661, 0.299475, 1.03299, 0.34851, 0.655882, 3, 45.5, 246, 27.5332, 0.109734, 0, 0, 1, 0, 141000
