1084.04, 265331, -342.964, 4.86821, -914.387, 0.246287, 0.343213, 0.9175, 0.352806, 0.64323, 0.0001, 455, 246, 32.5368, 0.123595, 1.12157, 1, 0, 0, 97501
1084.04, 265331, -342.964, 4.86821, -914.387, 0.246287, 0.343213, 0.9175, 0.352806, 0.64323, 3, 455, 246, 32.5368, 0.123595, 1.35742, 1, 0, 0, 97501
-3140.01, 132582, -260.588, 4.41395, -869.215, 0.531821, 0.261537, 0.958125, 0.351078, 0.648177, 0.0001, 182, 246, 39.2983, 0.139046, 1.16582, 1, 1, 0, 97502
2049.11, 162210, -357.528, 5.31435, -1047.3, 0.752425, 0.364636, 0.9175, 0.352806, 0.64323, 0.0001, 455, 246, 39.2983, 0.139046, 3.78788, 1, 0, 0, 97502
2049.11, 162210, -357.528, 5.31435, -1047.3, 0.752425, 0.364636, 0.9175, 0.352806, 0.64323, 3, 455, 246, 39.2983, 0.139046, 3.81544, 1, 0, 0, 97502
-12531.5, 736820, -25.8073, 0.378143, -898.173, 0.342935, 0.338833, 1.03299, 0.34851, 0.655882, 0.0001, 45.5, 246, 20.7676, 0.00983151, 0, 0, 1, 0, 97512
-12531.5, 736820, -25.8073, 0.378143, -898.173, 0.342935, 0.338833, 1.03299, 0.34851, 0.655882, 3, 45.5, 246, 20.7676, 0.00983151, 0, 0, 1, 0, 97512
-10668.6, 203308, -233.966, 2.60096, -787.156, -0.0319992, 0.398918, 1.03299, 0.34851, 0.655882, 0.0001, 45.5, 246, 43.0826, 0.206298, 0, 0, 0, 0, 97519
-9720.71, 565360, -71.085, 0.725328, -1066.59, 0.00348937, 0.275656, 0.958125, 0.351078, 0.648177, 3, 182, 246, 23.7349, 0.0290671, 0, 0, 1, 0, 97520
-9028.36, 303883, -430.248, 3.42611, -784.566, -0.000122395, 0.515029, 0.993198, 0.349787, 0.651995, 0.0001, 91, 246, 50.173, 0.240528, 1.23624, 1, 1, 0, 97522
-9028.36, 303883, -430.248, 3.42611, -784.566, -0.000122395, 0.515029, 0.993198, 0.349787, 0.651995, 3, 91, 246, 50.173, 0.240528, 1.12565, 1, 1, 0, 97522
-10996.2, 235219, -275.13, 3.03992, -1109.76, -0.0442974, 0.411981, 1.03299, 0.34851, 0.655882, 0.0001, 45.5, 246, 49.2974, 0.218235, 0, 0, 0, 0, 97531
-10996.2, 235219, -275.13, 3.03992, -1109.76, -0.0442974, 0.411981, 1.03299, 0.34851, 0.655882, 3, 45.5, 246, 49.2974, 0.218235, 0, 0, 0, 0, 97531
-1874.59, 283617, -398.806, 3.61297, -1168.86, 0.0524408, 0.458027, 0.958125, 0.351078, 0.648177, 0.0001, 182, 246, 49.2974, 0.218235, 2.1517, 1, 0, 0, 97531
-1874.59, 283617, -398.806, 3.61297, -1168.86, 0.0524408, 0.458027, 0.958125, 0.351078, 0.648177, 3, 182, 246, 49.2974, 0.218235, 1.97922, 1, 0, 0, 97531
876.658, 335737, -406.525, 3.29648, -844.351, 0.215636, 0.451149, 0.9175, 0.352806, 0.64323, 3, 455, 246, 38.1047, 0.180525, 1.70916, 1, 0, 0, 97552
-9367.97, 708458, -214.448, 0.294609, -833.509, -0.000395199, 0.402829, 1.03299, 0.34851, 0.655882, 0.0001, 45.5, 246, 27.2864, 0.0783474, 0, 0, 0, 0, 97561
-9367.97, 708458, -214.448, 0.294609, -833.509, -0.000395199, 0.402829, 1.03299, 0.34851, 0.655882, 3, 45.5, 246, 27.2864, 0.0783474, 0, 0, 0, 0, 97561
-12956.9, 146620, -22.3582, 3.21479, -938.806, 0.0801158, 0.18146, 1.03299, 0.34851, 0.655882, 0.0001, 45.5, 246, 19.2452, 0.0491437, 0, 0, 0, 0, 97567
-12956.9, 146620, -22.3582, 3.21479, -938.806, 0.0801158, 0.18146, 1.03299, 0.34851, 0.655882, 3, 45.5, 246, 19.2452, 0.0491437, 0, 0, 0, 0, 97567
-12998.9, 152829, -30.809, 3.16303, -915.455, -0.015914, 0.190222, 1.03299, 0.34851, 0.655882, 0.0001, 45.5, 246, 19.8986, 0.0537917, 0, 0, 0, 0, 97572
-12998.9, 152829, -30.809, 3.16303, -915.455, -0.015914, 0.190222, 1.03299, 0.34851, 0.655882, 3, 45.5, 246, 19.8986, 0.0537917, 0, 0, 0, 0, 97572
-6115.14, 875356, -314.204, 0.124353, -1050.59, 0.465735, 0.438878, 1.03299, 0.34851, 0.655882, 0.0001, 45.5, 246, 34.094, 0.0842219, 0, 0, 0, 0, 97577
-6115.14, 875356, -314.204, 0.124353, -1050.59, 0.465735, 0.438878, 1.03299, 0.34851, 0.655882, 3, 45.5, 246, 34.094, 0.0842219, 0, 0, 0, 0, 97577
-6841.11, 854623, -302.615, 0.0142222, -687.053, 0.737716, 0.399872, 0.993198, 0.349787, 0.651995, 0.0001, 91, 246, 24.0475, 0.0815916, 0, 0, 1, 0, 97582
-9345.61, 534257, -464.511, 0.295282, -924.358, -0.000166552, 0.745882, 1.03299, 0.34851, 0.655882, 3, 45.5, 246, 45.8365, 0.234361, 0, 0, 0, 0, 97586
-12044.9, 313931, -318.685, 1.49466, -760.136, -0.00965425, 0.592801, 1.03299, 0.34851, 0.655882, 0.0001, 45.5, 246, 44.3982, 0.24326, 0, 0, 0, 0, 97588
-11648.7, 308335, -297.162, 1.66484, -941.522, 0.0163472, 0.552362, 1.03299, 0.34851, 0.655882, 0.0001, 45.5, 246, 45.049, 0.228236, 0, 0, 0, 0, 97591
-11648.7, 308335, -297.162, 1.66484, -941.522, 0.0163472, 0.552362, 1.03299, 0.34851, 0.655882, 3, 45.5, 246, 45.049, 0.228236, 0, 0, 0, 0, 97591
-1330.58, 108849, -123.413, 0.440732, -1195.76, 0.98003, 0.329229, 0.993198, 0.349787, 0.651995, 0.0001, 91, 246, 468.349, 0.0592325, 0, 0, 1, 0, 97593
-5114.09, 217519, -133.547, 3.02499, -1526.64, 1.11659, 0.267673, 0.9175, 0.352806, 0.64323, 0.0001, 455, 246, 19.593, 0.0609772, 0, 0, 0, 0, 97595
-5114.09, 217519, -133.547, 3.02499, -1526.64, 1.11659, 0.267673, 0.9175, 0.352806, 0.64323, 3, 455, 246, 19.593, 0.0609772, 0, 0, 0, 0, 97595
-8039.47, -5870.79, -1.82242, 2.29276, -776.749, 0.0120938, 0.285455, 1.03299, 0.34851, 0.655882, 0.0001, 45.5, 246, 12.1879, 0.0461785, 0, 0, 1, 1, 97606
-8039.47, -5870.79, -1.82242, 2.29276, -776.749, 0.0120938, 0.285455, 1.03299, 0.34851, 0.655882, 3, 45.5, 246, 12.1879, 0.0461785, 0, 0, 1, 1, 97606
-4761.65, 754945, -182.18, 1.21986, -1396.61, 0.60151, 0.264886, 0.9175, 0.352806, 0.64323, 3, 455, 246, 27.8568, 0.0506837, 0, 0, 0, 0, 97608
-10913.9, 171266, -126.508, 2.68813, -1155.11, 0.00699735, 0.300067, 1.03299, 0.34851, 0.655882, 0.0001, 45.5, 246, 34.961, 0.136082, 0, 0, 0, 0, 97610
-10913.9, 171266, -126.508, 2.68813, -1155.11, 0.00699735, 0.300067, 1.03299, 0.34851, 0.655882, 3, 45.5, 246, 34.961, 0.136082, 0, 0, 0, 0, 97610
-10773.9, 224734, -156.938, 1.43967, -734.792, 0.00731473, 0.401028, 1.03299, 0.34851, 0.655882, 0.0001, 45.5, 246, 31.5015, 0.157628, 0, 0, 1, 0, 97612
-10773.9, 224734, -156.938, 1.43967, -734.792, 0.00731473, 0.401028, 1.03299, 0.34851, 0.655882, 3, 45.5, 246, 31.5015, 0.157628, 0, 0, 1, 0, 97612
-9321.82, 234681, -175.501, 1.52052, -742.675, 0.0169533, 0.379252, 0.993198, 0.349787, 0.651995, 3, 91, 246, 31.5015, 0.157628, 0, 0, 1, 0, 97612
-7592.24, 245147, -195.602, 1.60532, -752.939, 0.0277526, 0.363481, 0.958125, 0.351078, 0.648177, 3, 182, 246, 31.5015, 0.157628, 0, 0, 1, 0, 97612
-8619.4, 422432, -220.085, 0.361204, -646.696, 0.205819, 0.414493, 0.993198, 0.349787, 0.651995, 0.0001, 91, 246, 27.0846, 0.130123, 0, 0, 1, 0, 97613
-9555.12, 78080.5, -31.3382, 2.33628, -1019.71, 0.11602, 0.278371, 1.03299, 0.34851, 0.655882, 0.0001, 45.5, 246, 21.0891, 0.0755109, 0, 0, 1, 0, 97615
-9555.12, 78080.5, -31.3382, 2.33628, -1019.71, 0.11602, 0.278371, 1.03299, 0.34851, 0.655882, 3, 45.5, 246, 21.0891, 0.0755109, 0, 0, 1, 0, 97615
-5601.84, 147255, -132.343, 3.03085, -1133.77, 0.235398, 0.272444, 0.9175, 0.352806, 0.64323, 3, 455, 246, 21.0891, 0.0755109, 0, 0, 1, 0, 97615
-7802.18, 1.02839e+06, -91.979, 0.772711, -1197.69, 0.00914244, 0.238565, 0.9175, 0.352806, 0.64323, 3, 455, 246, 29.2147, 0.0182594, 0, 0, 0, 0, 97617
-3338.19, 272520, -424.39, 3.27044, -750.83, 0.0766533, 0.522329, 0.958125, 0.351078, 0.648177, 0.0001, 182, 246, 48.0201, 0.23992, 1.72608, 1, 0, 0, 97618
-3338.19, 272520, -424.39, 3.27044, -750.83, 0.0766533, 0.522329, 0.958125, 0.351078, 0.648177, 3, 182, 246, 48.0201, 0.23992, 1.54574, 1, 0, 0, 97618
-6733.07, -37548.6, 11.3618, 3.18395, -856.652, 0.173153, 0.223537, 1.03299, 0.34851, 0.655882, 0.0001, 45.5, 246, 10.431, 0.0460172, 0, 0, 1, 1, 97620
-6733.07, -37548.6, 11.3618, 3.18395, -856.652, 0.173153, 0.223537, 1.03299, 0.34851, 0.655882, 3, 45.5, 246, 10.431, 0.0460172, 0, 0, 1, 1, 97620
-10716.4, 917449, -153.165, 0.27869, -843.518, 0.694159, 0.360883, 1.03299, 0.34851, 0.655882, 0.0001, 45.5, 246, 24.473, 0.0376833, 0, 0, 1, 0, 97622
-6996.64, 110333, -193.155, 3.17669, -687.119, 0.00128161, 0.27914, 1.03299, 0.34851, 0.655882, 0.0001, 45.5, 246, 44.8444, 0.180405, 1.07616, 1, 1, 0, 97623
-6996.64, 110333, -193.155, 3.17669, -687.119, 0.00128161, 0.27914, 1.03299, 0.34851, 0.655882, 3, 45.5, 246, 44.8444, 0.180405, 0, 0, 1, 0, 97623
-5085.5, 119448, -231.083, 3.45741, -708.347, 0.0496304, 0.288355, 0.993198, 0.349787, 0.651995, 0.0001, 91, 246, 44.8444, 0.180405, 1.10333, 1, 1, 0, 97623
-2635.71, 130039, -276.184, 3.7884, -741.414, 0.108131, 0.314591, 0.958125, 0.351078, 0.648177, 0.0001, 182, 246, 44.8444, 0.180405, 1.38152, 1, 1, 0, 97623
-2635.71, 130039, -276.184, 3.7884, -741.414, 0.108131, 0.314591, 0.958125, 0.351078, 0.648177, 3, 182, 246, 44.8444, 0.180405, 1.22026, 1, 1, 0, 97623
1740.07, 147657, -351.532, 4.33795, -810.812, 0.208711, 0.379974, 0.9175, 0.352806, 0.64323, 0.0001, 455, 246, 44.8444, 0.180405, 2.92789, 1, 0, 0, 97623
1740.07, 147657, -351.532, 4.33795, -810.812, 0.208711, 0.379974, 0.9175, 0.352806, 0.64323, 3, 455, 246, 44.8444, 0.180405, 2.92997, 1, 0, 0, 97623
-10547.4, 89488.2, -10.9134, 3.09887, -1098.05, -0.0412975, 0.206117, 1.03299, 0.34851, 0.655882, 0.0001, 45.5, 246, 19.2442, 0.0555992, 0, 0, 0, 0, 97626
-10547.4, 89488.2, -10.9134, 3.09887, -1098.05, -0.0412975, 0.206117, 1.03299, 0.34851, 0.655882, 3, 45.5, 246, 19.2442, 0.0555992, 0, 0, 0, 0, 97626
-9359.69, 109957, -44.1079, 3.35282, -1097.07, 0.0044029, 0.208039, 0.993198, 0.349787, 0.651995, 0.0001, 91, 246, 19.2442, 0.0555992, 0, 0, 1, 0, 97626
-9359.69, 109957, -44.1079, 3.35282, -1097.07, 0.0044029, 0.208039, 0.993198, 0.349787, 0.651995, 3, 91, 246, 19.2442, 0.0555992, 0, 0, 1, 0, 97626
-10227.8, 182319, -184.198, 1.79055, -637.88, 0.497552, 0.407015, 1.03299, 0.34851, 0.655882, 0.0001, 45.5, 246, 35.8162, 0.186014, 0, 0, 1, 0, 97631
-10227.8, 182319, -184.198, 1.79055, -637.88, 0.497552, 0.407015, 1.03299, 0.34851, 0.655882, 3, 45.5, 246, 35.8162, 0.186014, 0, 0, 1, 0, 97631
-12550.6, 473727, -27.8044, 0.623678, -778.644, 0.49976, 0.335583, 1.03299, 0.34851, 0.655882, 0.0001, 45.5, 246, 17.1079, 0.0165724, 0, 0, 1, 0, 97634
-12550.6, 473727, -27.8044, 0.623678, -778.644, 0.49976, 0.335583, 1.03299, 0.34851, 0.655882, 3, 45.5, 246, 17.1079, 0.0165724, 0, 0, 1, 0, 97634
-10633.5, 249576, -116.06, 1.18532, -1023.6, 0.503144, 0.368574, 1.03299, 0.34851, 0.655882, 0.0001, 45.5, 246, 28.7863, 0.106299, 0, 0, 1, 0, 97639
-10633.5, 249576, -116.06, 1.18532, -1023.6, 0.503144, 0.368574, 1.03299, 0.34851, 0.655882, 3, 45.5, 246, 28.7863, 0.106299, 0, 0, 1, 0, 97639
-9346.47, 277015, -133.695, 1.27958, -1116.83, 0.553844, 0.341217, 0.993198, 0.349787, 0.651995, 0.0001, 91, 246, 28.7863, 0.106299, 0, 0, 1, 0, 97639
-7661.57, 310313, -154.284, 1.38435, -1230.01, 0.615497, 0.319698, 0.958125, 0.351078, 0.648177, 0.0001, 182, 246, 28.7863, 0.106299, 0, 0, 1, 0, 97639
-9204.38, 80020.3, -63.573, 2.85877, -802.544, 0.122029, 0.24121, 1.03299, 0.34851, 0.655882, 0.0001, 45.5, 246, 25.1563, 0.0890064, 0, 0, 1, 0, 97640
-9204.38, 80020.3, -63.573, 2.85877, -802.544, 0.122029, 0.24121, 1.03299, 0.34851, 0.655882, 3, 45.5, 246, 25.1563, 0.0890064, 0, 0, 1, 0, 97640
-8058.24, 256953, -355.159, 3.52082, -842.483, 0.0996636, 0.407833, 0.993198, 0.349787, 0.651995, 0.0001, 91, 246, 47.0246, 0.213305, 1.03575, 1, 1, 0, 97643
-2586.15, 274295, -418.919, 3.88666, -897.994, 0.162453, 0.445389, 0.958125, 0.351078, 0.648177, 0.0001, 182, 246, 47.0246, 0.213305, 2.50474, 1, 0, 0, 97643
-2586.15, 274295, -418.919, 3.88666, -897.994, 0.162453, 0.445389, 0.958125, 0.351078, 0.648177, 3, 182, 246, 47.0246, 0.213305, 2.32054, 1, 0, 0, 97643
-11098.2, 104130, -6.01298, 2.94873, -1167.77, -0.0413854, 0.218118, 1.03299, 0.34851, 0.655882, 0.0001, 45.5, 246, 19.2449, 0.0518419, 0, 0, 0, 0, 97647
-11098.2, 104130, -6.01298, 2.94873, -1167.77, -0.0413854, 0.218118, 1.03299, 0.34851, 0.655882, 3, 45.5, 246, 19.2449, 0.0518419, 0, 0, 0, 0, 97647
-9781.63, 127316, -39.0741, 3.18191, -1165.66, -9.66511e-05, 0.216209, 0.993198, 0.349787, 0.651995, 0.0001, 91, 246, 19.2449, 0.0518419, 0, 0, 1, 0, 97647
-9781.63, 127316, -39.0741, 3.18191, -1165.66, -9.66511e-05, 0.216209, 0.993198, 0.349787, 0.651995, 3, 91, 246, 19.2449, 0.0518419, 0, 0, 1, 0, 97647
-9362.88, 97070.4, -11.85, 2.11571, -1150.54, 0.0560671, 0.269253, 0.993198, 0.349787, 0.651995, 0.0001, 91, 246, 13.6887, 0.035918, 0, 0, 1, 0, 97648
-9362.88, 97070.4, -11.85, 2.11571, -1150.54, 0.0560671, 0.269253, 0.993198, 0.349787, 0.651995, 3, 91, 246, 13.6887, 0.035918, 0, 0, 1, 0, 97648
-8196.56, 311993, -408.472, 3.53384, -1057.48, 0.0936863, 0.477839, 0.993198, 0.349787, 0.651995, 0.0001, 91, 246, 51.1227, 0.227489, 1.04475, 1, 1, 0, 97650
-11403.8, 235084, -108.112, 1.54488, -1008.73, 0.387405, 0.349092, 1.03299, 0.34851, 0.655882, 0.0001, 45.5, 246, 28.3555, 0.103479, 0, 0, 1, 0, 97652
-11403.8, 235084, -108.112, 1.54488, -1008.73, 0.387405, 0.349092, 1.03299, 0.34851, 0.655882, 3, 45.5, 246, 28.3555, 0.103479, 0, 0, 1, 0, 97652
-7225.3, 453099, -236.135, 0.327701, -983.485, 0.236566, 0.425267, 0.993198, 0.349787, 0.651995, 0.0001, 91, 246, 32.8062, 0.131972, 0, 0, 1, 0, 97653
-10006.7, 338334, -265.163, 0.886055, -947.053, 0.426812, 0.519616, 1.03299, 0.34851, 0.655882, 0.0001, 45.5, 246, 39.1702, 0.189611, 0, 0, 0, 0, 97654
-10006.7, 338334, -265.163, 0.886055, -947.053, 0.426812, 0.519616, 1.03299, 0.34851, 0.655882, 3, 45.5, 246, 39.1702, 0.189611, 0, 0, 0, 0, 97654
-9056.49, 304859, -149.663, 0.943847, -1009.8, 0.669707, 0.359062, 0.993198, 0.349787, 0.651995, 0.0001, 91, 246, 28.385, 0.112189, 0, 0, 1, 0, 97656
-12940.1, 178766, -39.249, 2.66817, -1178.53, -0.0333201, 0.245645, 1.03299, 0.34851, 0.655882, 0.0001, 45.5, 246, 23.9888, 0.0646788, 0, 0, 0, 0, 97658
-12940.1, 178766, -39.249, 2.66817, -1178.53, -0.0333201, 0.245645, 1.03299, 0.34851, 0.655882, 3, 45.5, 246, 23.9888, 0.0646788, 0, 0, 0, 0, 97658
-12606.1, 395290, -486.527, 3.98669, -948.937, 0.0072882, 0.493928, 0.993198, 0.349787, 0.651995, 0.0001, 91, 246, 50.2816, 0.219685, 1.22246, 1, 1, 0, 97664
-12606.1, 395290, -486.527, 3.98669, -948.937, 0.0072882, 0.493928, 0.993198, 0.349787, 0.651995, 3, 91, 246, 50.2816, 0.219685, 1.15914, 1, 1, 0, 97664
-9444.36, 183944, -315.786, 3.52163, -553.098, 0.253421, 0.325505, 1.03299, 0.34851, 0.655882, 0.0001, 45.5, 246, 48.7203, 0.21325, 1.4162, 1, 0, 0, 97668
-9444.36, 183944, -315.786, 3.52163, -553.098, 0.253421, 0.325505, 1.03299, 0.34851, 0.655882, 3, 45.5, 246, 48.7203, 0.21325, 1.34336, 1, 0, 0, 97668
-5548.81, 194304, -366.012, 3.91948, -612.99, 0.32727, 0.350774, 0.993198, 0.349787, 0.651995, 0.0001, 91, 246, 48.7203, 0.21325, 1.62885, 1, 1, 0, 97668
-5548.81, 194304, -366.012, 3.91948, -612.99, 0.32727, 0.350774, 0.993198, 0.349787, 0.651995, 3, 91, 246, 48.7203, 0.21325, 1.53603, 1, 1, 0, 97668
-581.41, 208270, -428.975, 4.41213, -695.04, 0.425399, 0.400361, 0.958125, 0.351078, 0.648177, 0.0001, 182, 246, 48.7203, 0.21325, 3.52604, 1, 0, 0, 97668
-581.41, 208270, -428.975, 4.41213, -695.04, 0.425399, 0.400361, 0.958125, 0.351078, 0.648177, 3, 182, 246, 48.7203, 0.21325, 3.25072, 1, 0, 0, 97668
-8688.45, 92901.8, -90.4478, 1.59975, -866.652, -0.0104722, 0.360796, 1.03299, 0.34851, 0.655882, 0.0001, 45.5, 246, 32.5403, 0.172305, 0, 0, 1, 0, 97672
-8688.45, 92901.8, -90.4478, 1.59975, -866.652, -0.0104722, 0.360796, 1.03299, 0.34851, 0.655882, 3, 45.5, 246, 32.5403, 0.172305, 0, 0, 1, 0, 97672
-9449.94, 440206, -395.372, 0.603383, -1039.27, -0.00109524, 0.695311, 1.03299, 0.34851, 0.655882, 0.0001, 45.5, 246, 47.3455, 0.240413, 0, 0, 0, 0, 97686
-6933.9, 369953, -281.104, 0.204447, -1102.66, 0.443481, 0.545245, 1.03299, 0.34851, 0.655882, 0.0001, 45.5, 246, 40.7746, 0.192366, 2.09221, 1, 0, 0, 97691
-6933.9, 369953, -281.104, 0.204447, -1102.66, 0.443481, 0.545245, 1.03299, 0.34851, 0.655882, 3, 45.5, 246, 40.7746, 0.192366, 2.09231, 1, 0, 0, 97691
-6059.44, 403732, -293.434, 0.217042, -1187.43, 0.477111, 0.526329, 0.993198, 0.349787, 0.651995, 0.0001, 91, 246, 40.7746, 0.192366, 2.39114, 1, 1, 0, 97691
-6059.44, 403732, -293.434, 0.217042, -1187.43, 0.477111, 0.526329, 0.993198, 0.349787, 0.651995, 3, 91, 246, 40.7746, 0.192366, 2.39081, 1, 1, 0, 97691
-5020.1, 443161, -305.892, 0.230376, -1286.11, 0.516252, 0.511682, 0.958125, 0.351078, 0.648177, 0.0001, 182, 246, 40.7746, 0.192366, 3.06297, 1, 0, 0, 97691
-5020.1, 443161, -305.892, 0.230376, -1286.11, 0.516252, 0.511682, 0.958125, 0.351078, 0.648177, 3, 182, 246, 40.7746, 0.192366, 2.9711, 1, 0, 0, 97691
-6478.12, 36887, -102.768, 2.59899, -663.221, 0.898333, 0.268, 0.993198, 0.349787, 0.651995, 3, 91, 246, 36.1478, 0.0892101, 0, 0, 1, 0, 97699
-5992.26, 48143.7, -128.49, 2.94036, -784.183, 1.08619, 0.268255, 0.958125, 0.351078, 0.648177, 0.0001, 182, 246, 36.1478, 0.0892101, 0, 0, 1, 0, 97699
-5992.26, 48143.7, -128.49, 2.94036, -784.183, 1.08619, 0.268255, 0.958125, 0.351078, 0.648177, 3, 182, 246, 36.1478, 0.0892101, 0, 0, 1, 0, 97699
-13192.3, 197304, 7.81722, 2.04969, -1172.38, -0.0191046, 0.276646, 1.03299, 0.34851, 0.655882, 0.0001, 45.5, 246, 17.7911, 0.0235326, 0, 0, 1, 0, 97702
-13192.3, 197304, 7.81722, 2.04969, -1172.38, -0.0191046, 0.276646, 1.03299, 0.34851, 0.655882, 3, 45.5, 246, 17.7911, 0.0235326, 0, 0, 1, 0, 97702
-6657.49, 946138, -366.721, 0.0707838, -884.919, 0.000722757, 0.476094, 1.03299, 0.34851, 0.655882, 0.0001, 45.5, 246, 32.5533, 0.0998261, 0, 0, 0, 0, 97704
-6657.49, 946138, -366.721, 0.0707838, -884.919, 0.000722757, 0.476094, 1.03299, 0.34851, 0.655882, 3, 45.5, 246, 32.5533, 0.0998261, 0, 0, 0, 0, 97704
-2883.44, 281707, -414.999, 3.53013, -903.176, 0.0501652, 0.479795, 0.958125, 0.351078, 0.648177, 0.0001, 182, 246, 47.7966, 0.223721, 1.94182, 1, 0, 0, 97708
-2883.44, 281707, -414.999, 3.53013, -903.176, 0.0501652, 0.479795, 0.958125, 0.351078, 0.648177, 3, 182, 246, 47.7966, 0.223721, 1.76938, 1, 0, 0, 97708
-10060.4, 245549, -234.713, 1.31214, -914.548, 0.761778, 0.493306, 1.03299, 0.34851, 0.655882, 0.0001, 45.5, 246, 40.5334, 0.206946, 0, 0, 0, 0, 97711
-10060.4, 245549, -234.713, 1.31214, -914.548, 0.761778, 0.493306, 1.03299, 0.34851, 0.655882, 3, 45.5, 246, 40.5334, 0.206946, 0, 0, 0, 0, 97711
-2912.11, 295778, -397.135, 4.05789, -1084.45, 0.212801, 0.398239, 0.958125, 0.351078, 0.648177, 0.0001, 182, 246, 45.2176, 0.19012, 2.03849, 1, 0, 0, 97712
-2912.11, 295778, -397.135, 4.05789, -1084.45, 0.212801, 0.398239, 0.958125, 0.351078, 0.648177, 3, 182, 246, 45.2176, 0.19012, 1.88128, 1, 0, 0, 97712
-2943.71, 275590, -414.654, 3.71083, -936.609, 0.836109, 0.452637, 0.958125, 0.351078, 0.648177, 0.0001, 182, 246, 45.3055, 0.211213, 1.9352, 1, 0, 0, 97715
-2943.71, 275590, -414.654, 3.71083, -936.609, 0.836109, 0.452637, 0.958125, 0.351078, 0.648177, 3, 182, 246, 45.3055, 0.211213, 1.7678, 1, 0, 0, 97715
-10976.8, 317609, -186.12, 1.18695, -1043, 0.525294, 0.416551, 1.03299, 0.34851, 0.655882, 0.0001, 45.5, 246, 34.141, 0.134986, 0, 0, 0, 0, 97716
-10976.8, 317609, -186.12, 1.18695, -1043, 0.525294, 0.416551, 1.03299, 0.34851, 0.655882, 3, 45.5, 246, 34.141, 0.134986, 0, 0, 0, 0, 97716
-7693, 310785, -274.718, 1.16349, -1136.15, 0.00540077, 0.518983, 0.993198, 0.349787, 0.651995, 3, 91, 246, 43.6776, 0.21944, 0, 0, 1, 0, 97731
-9949.8, 927500, -197.617, 0.230039, -731.036, 0.0029663, 0.380572, 1.03299, 0.34851, 0.655882, 0.0001, 45.5, 246, 23.689, 0.0550236, 0, 0, 0, 0, 97738
-9949.8, 927500, -197.617, 0.230039, -731.036, 0.0029663, 0.380572, 1.03299, 0.34851, 0.655882, 3, 45.5, 246, 23.689, 0.0550236, 0, 0, 0, 0, 97738
-7717.8, 948075, -213.05, 0.244429, -734.349, 0.00346431, 0.318617, 0.958125, 0.351078, 0.648177, 3, 182, 246, 23.689, 0.0550236, 0, 0, 1, 0, 97738
-10422.5, 213281, -186.443, 1.3208, -602.461, 0.267772, 0.440358, 1.03299, 0.34851, 0.655882, 0.0001, 45.5, 246, 33.9768, 0.189478, 0, 0, 1, 0, 97741
-10422.5, 213281, -186.443, 1.3208, -602.461, 0.267772, 0.440358, 1.03299, 0.34851, 0.655882, 3, 45.5, 246, 33.9768, 0.189478, 0, 0, 1, 0, 97741
-23126.2, 96278.8, -461.985, 1.82198, -1613.1, 1.35722, 0.613418, 0.9175, 0.352806, 0.64323, 3, 455, 246, 521.975, 0.183465, 0, 0, 0, 0, 97748
-9987.34, 181609, -205.464, 2.38932, -817.814, 0.194782, 0.389886, 1.03299, 0.34851, 0.655882, 0.0001, 45.5, 246, 41.3994, 0.198216, 0, 0, 1, 0, 97750
-9987.34, 181609, -205.464, 2.38932, -817.814, 0.194782, 0.389886, 1.03299, 0.34851, 0.655882, 3, 45.5, 246, 41.3994, 0.198216, 0, 0, 0, 0, 97750
153.746, 242171, -345.436, 3.20441, -1007.88, 0.34347, 0.420636, 0.9175, 0.352806, 0.64323, 3, 455, 246, 41.3994, 0.198216, 1.45953, 1, 0, 0, 97750
-10948.5, 94323.3, -0.622664, 2.91616, -661.75, 0.365796, 0.208159, 1.03299, 0.34851, 0.655882, 0.0001, 45.5, 246, 11.5569, 0.0280427, 0, 0, 1, 0, 97755
-10948.5, 94323.3, -0.622664, 2.91616, -661.75, 0.365796, 0.208159, 1.03299, 0.34851, 0.655882, 3, 45.5, 246, 11.5569, 0.0280427, 0, 0, 1, 0, 97755
-9857.05, 104027, -19.7419, 3.21601, -705.475, 0.432012, 0.20564, 0.993198, 0.349787, 0.651995, 0.0001, 91, 246, 11.5569, 0.0280427, 0, 0, 1, 0, 97755
-9857.05, 104027, -19.7419, 3.21601, -705.475, 0.432012, 0.20564, 0.993198, 0.349787, 0.651995, 3, 91, 246, 11.5569, 0.0280427, 0, 0, 1, 0, 97755
-8411.75, 115673, -44.1216, 3.57525, -763.147, 0.51795, 0.219649, 0.958125, 0.351078, 0.648177, 0.0001, 182, 246, 11.5569, 0.0280427, 0, 0, 1, 0, 97755
-8411.75, 115673, -44.1216, 3.57525, -763.147, 0.51795, 0.219649, 0.958125, 0.351078, 0.648177, 3, 182, 246, 11.5569, 0.0280427, 0, 0, 1, 0, 97755
-7805.03, 686263, -174.252, 0.471986, -1164.79, 1.10421, 0.311248, 0.958125, 0.351078, 0.648177, 3, 182, 246, 25.2287, 0.0592716, 0, 0, 1, 0, 97759
-7756.46, 38116, -60.8171, 2.61985, -1181.82, 0.00200722, 0.276644, 0.993198, 0.349787, 0.651995, 3, 91, 246, 25.6219, 0.0958574, 0, 0, 1, 1, 97762
-7560.97, 141446, -208.008, 2.84974, -1094.36, -0.0385575, 0.375658, 1.03299, 0.34851, 0.655882, 3, 45.5, 246, 49.3914, 0.227189, 0, 0, 0, 0, 97763
-5289.2, 163167, -255.077, 3.0831, -1109, 0.000101439, 0.381927, 0.993198, 0.349787, 0.651995, 3, 91, 246, 49.3914, 0.227189, 0, 0, 1, 0, 97763
-2222.96, 186651, -310.036, 3.35259, -1136.83, 0.045585, 0.402242, 0.958125, 0.351078, 0.648177, 0.0001, 182, 246, 49.3914, 0.227189, 1.35726, 1, 0, 0, 97763
-2222.96, 186651, -310.036, 3.35259, -1136.83, 0.045585, 0.402242, 0.958125, 0.351078, 0.648177, 3, 182, 246, 49.3914, 0.227189, 1.08691, 1, 0, 0, 97763
-8847.67, 49062.8, -1.05886, 0.507815, -862.601, 0.108501, 0.339806, 1.03299, 0.34851, 0.655882, 3, 45.5, 246, 7.57555, 0.0250602, 0, 0, 1, 0, 97766
-7821.94, -12475.4, -5.01304, 2.37048, -676.909, 0.191386, 0.281099, 1.03299, 0.34851, 0.655882, 3, 45.5, 246, 12.969, 0.0336042, 0, 0, 1, 1, 97767
-9769.93, 529478, -447.728, 0.089314, -652.479, 0.480797, 0.686293, 1.03299, 0.34851, 0.655882, 3, 45.5, 246, 38.1061, 0.208883, 0, 0, 0, 0, 97768
-6131.83, 145405, -292.34, 3.16533, -601.788, -0.0259542, 0.382015, 1.03299, 0.34851, 0.655882, 0.0001, 45.5, 246, 55.0495, 0.247819, 1.52415, 1, 1, 0, 97769
-6131.83, 145405, -292.34, 3.16533, -601.788, -0.0259542, 0.382015, 1.03299, 0.34851, 0.655882, 3, 45.5, 246, 55.0495, 0.247819, 1.45138, 1, 1, 0, 97769
-3230.94, 153478, -337.198, 3.44914, -628.909, 0.0220109, 0.398488, 0.993198, 0.349787, 0.651995, 0.0001, 91, 246, 55.0495, 0.247819, 1.80082, 1, 1, 0, 97769
-3230.94, 153478, -337.198, 3.44914, -628.909, 0.0220109, 0.398488, 0.993198, 0.349787, 0.651995, 3, 91, 246, 55.0495, 0.247819, 1.70107, 1, 1, 0, 97769
398.863, 163487, -390.515, 3.78471, -668.621, 0.0797527, 0.432438, 0.958125, 0.351078, 0.648177, 0.0001, 182, 246, 55.0495, 0.247819, 2.98611, 1, 1, 1, 97769
398.863, 163487, -390.515, 3.78471, -668.621, 0.0797527, 0.432438, 0.958125, 0.351078, 0.648177, 3, 182, 246, 55.0495, 0.247819, 2.80399, 1, 1, 1, 97769
-7267.84, 44150.6, -75.1081, 3.91487, -706.357, 0.962326, 0.175605, 0.993198, 0.349787, 0.651995, 0.0001, 91, 246, 21.2522, 0.0500497, 0, 0, 1, 0, 97771
-7267.84, 44150.6, -75.1081, 3.91487, -706.357, 0.962326, 0.175605, 0.993198, 0.349787, 0.651995, 3, 91, 246, 21.2522, 0.0500497, 0, 0, 1, 0, 97771
-6402.41, 57198.3, -112.654, 4.55872, -849.772, 1.22775, 0.216502, 0.958125, 0.351078, 0.648177, 0.0001, 182, 246, 21.2522, 0.0500497, 0, 0, 1, 0, 97771
-6402.41, 57198.3, -112.654, 4.55872, -849.772, 1.22775, 0.216502, 0.958125, 0.351078, 0.648177, 3, 182, 246, 21.2522, 0.0500497, 0, 0, 1, 0, 97771
-8415.01, 750906, -279.105, 0.263496, -939.229, 0.00699754, 0.440489, 1.03299, 0.34851, 0.655882, 0.0001, 45.5, 246, 31.871, 0.0960004, 0, 0, 0, 0, 97772
-8415.01, 750906, -279.105, 0.263496, -939.229, 0.00699754, 0.440489, 1.03299, 0.34851, 0.655882, 3, 45.5, 246, 31.871, 0.0960004, 0, 0, 0, 0, 97772
-6721.21, 97380, -136.5, 3.23366, -1183.35, 0.0123547, 0.267253, 0.993198, 0.349787, 0.651995, 0.0001, 91, 246, 36.0096, 0.138948, 0, 0, 1, 0, 97775
-6721.21, 97380, -136.5, 3.23366, -1183.35, 0.0123547, 0.267253, 0.993198, 0.349787, 0.651995, 3, 91, 246, 36.0096, 0.138948, 0, 0, 1, 0, 97775
-1457.24, 159651, -264.305, 3.97912, -1260.01, 0.146067, 0.332454, 0.9175, 0.352806, 0.64323, 0.0001, 455, 246, 36.0096, 0.138948, 1.15933, 1, 0, 0, 97775
-1457.24, 159651, -264.305, 3.97912, -1260.01, 0.146067, 0.332454, 0.9175, 0.352806, 0.64323, 3, 455, 246, 36.0096, 0.138948, 1.16557, 1, 0, 0, 97775
-5957.58, 115016, -208.625, 2.97822, -1073.91, 0.167637, 0.354652, 1.03299, 0.34851, 0.655882, 0.0001, 45.5, 246, 52.7353, 0.235719, 1.13909, 1, 1, 0, 97778
-5957.58, 115016, -208.625, 2.97822, -1073.91, 0.167637, 0.354652, 1.03299, 0.34851, 0.655882, 3, 45.5, 246, 52.7353, 0.235719, 0, 0, 1, 0, 97778
-3885.73, 138172, -257.769, 3.26518, -1126.23, 0.216136, 0.363571, 0.993198, 0.349787, 0.651995, 0.0001, 91, 246, 52.7353, 0.235719, 1.24165, 1, 1, 0, 97778
-3885.73, 138172, -257.769, 3.26518, -1126.23, 0.216136, 0.363571, 0.993198, 0.349787, 0.651995, 3, 91, 246, 52.7353, 0.235719, 1.02538, 1, 1, 0, 97778
-946.646, 165062, -317.376, 3.6047, -1197.21, 0.277387, 0.389027, 0.958125, 0.351078, 0.648177, 0.0001, 182, 246, 52.7353, 0.235719, 2.11927, 1, 0, 0, 97778
-946.646, 165062, -317.376, 3.6047, -1197.21, 0.277387, 0.389027, 0.958125, 0.351078, 0.648177, 3, 182, 246, 52.7353, 0.235719, 1.95771, 1, 0, 0, 97778
-10930.6, 447070, -110.607, 0.554216, -712.896, 0.199308, 0.36233, 1.03299, 0.34851, 0.655882, 0.0001, 45.5, 246, 21.0139, 0.0623714, 0, 0, 1, 0, 97787
-10930.6, 447070, -110.607, 0.554216, -712.896, 0.199308, 0.36233, 1.03299, 0.34851, 0.655882, 3, 45.5, 246, 21.0139, 0.0623714, 0, 0, 1, 0, 97787
-9964.99, 461293, -118.436, 0.581192, -737.9, 0.20725, 0.329071, 0.993198, 0.349787, 0.651995, 3, 91, 246, 21.0139, 0.0623714, 0, 0, 1, 0, 97787
-8836.91, 476592, -126.598, 0.608405, -764.93, 0.215872, 0.300301, 0.958125, 0.351078, 0.648177, 0.0001, 182, 246, 21.0139, 0.0623714, 0, 0, 1, 0, 97787
-12738.9, 478962, -206.932, 3.19968, -804.431, 0.0597725, 0.250845, 0.958125, 0.351078, 0.648177, 0.0001, 182, 246, 25.3005, 0.0759953, 0, 0, 0, 0, 97791
-12738.9, 478962, -206.932, 3.19968, -804.431, 0.0597725, 0.250845, 0.958125, 0.351078, 0.648177, 3, 182, 246, 25.3005, 0.0759953, 0, 0, 0, 0, 97791
-8823.78, 309920, -263.751, 0.468951, -868.236, 0.324584, 0.556649, 1.03299, 0.34851, 0.655882, 0.0001, 45.5, 246, 39.8052, 0.219435, 0, 0, 0, 0, 97792
-8729.88, 146084, -194.429, 2.50783, -736.897, -0.0175, 0.371938, 1.03299, 0.34851, 0.655882, 0.0001, 45.5, 246, 42.9922, 0.206645, 0, 0, 1, 0, 97793
-8729.88, 146084, -194.429, 2.50783, -736.897, -0.0175, 0.371938, 1.03299, 0.34851, 0.655882, 3, 45.5, 246, 42.9922, 0.206645, 0, 0, 1, 0, 97793
-411.566, 184687, -322.426, 3.24627, -816.135, 0.102922, 0.405696, 0.9175, 0.352806, 0.64323, 0.0001, 455, 246, 42.9922, 0.206645, 1.52763, 1, 0, 0, 97793
-411.566, 184687, -322.426, 3.24627, -816.135, 0.102922, 0.405696, 0.9175, 0.352806, 0.64323, 3, 455, 246, 42.9922, 0.206645, 1.53138, 1, 0, 0, 97793
-11307, 324326, -299.991, 1.42419, -958.317, 0.0410065, 0.565656, 1.03299, 0.34851, 0.655882, 0.0001, 45.5, 246, 44.4932, 0.225865, 0, 0, 0, 0, 97798
-11307, 324326, -299.991, 1.42419, -958.317, 0.0410065, 0.565656, 1.03299, 0.34851, 0.655882, 3, 45.5, 246, 44.4932, 0.225865, 0, 0, 0, 0, 97798
-8642.63, 554762, -253.218, 0.313165, -877.112, 0.0496303, 0.452049, 1.03299, 0.34851, 0.655882, 0.0001, 45.5, 246, 31.4596, 0.117816, 0, 0, 0, 0, 97799
-8642.63, 554762, -253.218, 0.313165, -877.112, 0.0496303, 0.452049, 1.03299, 0.34851, 0.655882, 3, 45.5, 246, 31.4596, 0.117816, 0, 0, 0, 0, 97799
-7502.24, 571026, -264.726, 0.325145, -886.262, 0.0504733, 0.424946, 0.993198, 0.349787, 0.651995, 3, 91, 246, 31.4596, 0.117816, 0, 0, 1, 0, 97799
-5721.31, 49648.8, -123.975, 3.11794, -1037.06, 0.0685697, 0.262559, 0.993198, 0.349787, 0.651995, 0.0001, 91, 246, 40.5238, 0.118849, 0, 0, 1, 1, 97800
-5721.31, 49648.8, -123.975, 3.11794, -1037.06, 0.0685697, 0.262559, 0.993198, 0.349787, 0.651995, 3, 91, 246, 40.5238, 0.118849, 0, 0, 1, 1, 97800
-2705.65, 98560.4, -233.623, 3.83991, -1125.02, 0.197137, 0.317375, 0.9175, 0.352806, 0.64323, 0.0001, 455, 246, 40.5238, 0.118849, 1.21749, 1, 1, 0, 97800
-2705.65, 98560.4, -233.623, 3.83991, -1125.02, 0.197137, 0.317375, 0.9175, 0.352806, 0.64323, 3, 455, 246, 40.5238, 0.118849, 1.21171, 1, 1, 0, 97800
-10103.5, 93993.7, -18.5392, 2.18005, -1045.74, -0.0033966, 0.283113, 1.03299, 0.34851, 0.655882, 0.0001, 45.5, 246, 18.5118, 0.059473, 0, 0, 1, 0, 97801
-10103.5, 93993.7, -18.5392, 2.18005, -1045.74, -0.0033966, 0.283113, 1.03299, 0.34851, 0.655882, 3, 45.5, 246, 18.5118, 0.059473, 0, 0, 1, 0, 97801
-10405.4, 76840, 7.11537, 3.22505, -601.34, -0.0208619, 0.182839, 1.03299, 0.34851, 0.655882, 0.0001, 45.5, 246, 9.11362, 0.022066, 0, 0, 1, 0, 97802
-10405.4, 76840, 7.11537, 3.22505, -601.34, -0.0208619, 0.182839, 1.03299, 0.34851, 0.655882, 3, 45.5, 246, 9.11362, 0.022066, 0, 0, 1, 0, 97802
-8262.31, 88735.8, -31.9617, 3.82288, -609.333, 0.0880203, 0.208946, 0.958125, 0.351078, 0.648177, 0.0001, 182, 246, 9.11362, 0.022066, 0, 0, 1, 0, 97802
-8262.31, 88735.8, -31.9617, 3.82288, -609.333, 0.0880203, 0.208946, 0.958125, 0.351078, 0.648177, 3, 182, 246, 9.11362, 0.022066, 0, 0, 1, 0, 97802
-12714.4, 253634, -2.95507, 1.36751, -946.254, -0.00138964, 0.312164, 1.03299, 0.34851, 0.655882, 3, 45.5, 246, 15.9405, 0.0175669, 0, 0, 1, 0, 97808
-11413.5, 269107, -15.0554, 1.43814, -947.012, 0.00725042, 0.282773, 0.993198, 0.349787, 0.651995, 3, 91, 246, 15.9405, 0.0175669, 0, 0, 1, 0, 97808
-9862.31, 284799, -28.3843, 1.51118, -949.645, 0.0168185, 0.259249, 0.958125, 0.351078, 0.648177, 0.0001, 182, 246, 15.9405, 0.0175669, 0, 0, 1, 0, 97808
-8855.02, 277497, -175.468, 1.06284, -941.36, 0.339186, 0.38924, 0.993198, 0.349787, 0.651995, 0.0001, 91, 246, 31.6958, 0.146356, 0, 0, 1, 0, 97817
-7378.23, 299811, -193.128, 1.13267, -1000.57, 0.363983, 0.368582, 0.958125, 0.351078, 0.648177, 0.0001, 182, 246, 31.6958, 0.146356, 0, 0, 1, 0, 97817
-7378.23, 299811, -193.128, 1.13267, -1000.57, 0.363983, 0.368582, 0.958125, 0.351078, 0.648177, 3, 182, 246, 31.6958, 0.146356, 0, 0, 1, 0, 97817
-7801.23, 495304, -354.871, 0.383933, -1100.58, 0.138063, 0.58752, 1.03299, 0.34851, 0.655882, 3, 45.5, 246, 42.5434, 0.185548, 0, 0, 0, 0, 97823
-5779.34, 479102, -301.038, 0.199646, -1096.36, 0.0207723, 0.500704, 0.993198, 0.349787, 0.651995, 0.0001, 91, 246, 39.0487, 0.166306, 0, 0, 1, 0, 97830
-7986.7, 101104, -116.922, 2.43675, -679.313, 0.124855, 0.292325, 0.993198, 0.349787, 0.651995, 3, 91, 246, 29.991, 0.131078, 0, 0, 1, 0, 97833
-10137.7, 155680, -188.886, 3.39237, -785.261, 0.328817, 0.239491, 1.03299, 0.34851, 0.655882, 3, 45.5, 246, 38.8194, 0.152246, 0, 0, 0, 0, 97840
-11122.8, 148519, -14.5416, 1.78525, -1010.37, -0.0136636, 0.299445, 1.03299, 0.34851, 0.655882, 0.0001, 45.5, 246, 17.2353, 0.0423395, 0, 0, 1, 0, 97841
-11122.8, 148519, -14.5416, 1.78525, -1010.37, -0.0136636, 0.299445, 1.03299, 0.34851, 0.655882, 3, 45.5, 246, 17.2353, 0.0423395, 0, 0, 1, 0, 97841
-10118.4, 166050, -32.1692, 1.89042, -1010.47, 0.00116764, 0.275567, 0.993198, 0.349787, 0.651995, 0.0001, 91, 246, 17.2353, 0.0423395, 0, 0, 1, 0, 97841
-5822.42, 207811, -255.94, 2.96509, -763.94, 0.276099, 0.351483, 0.958125, 0.351078, 0.648177, 0.0001, 182, 246, 36.6082, 0.171002, 0, 0, 1, 0, 97842
-5822.42, 207811, -255.94, 2.96509, -763.94, 0.276099, 0.351483, 0.958125, 0.351078, 0.648177, 3, 182, 246, 36.6082, 0.171002, 0, 0, 1, 0, 97842
-9727.78, 195181, -215.259, 1.38717, -698.284, 0.722652, 0.479209, 1.03299, 0.34851, 0.655882, 3, 45.5, 246, 39.8909, 0.223178, 0, 0, 1, 0, 97845
-8245.78, 213948, -237.397, 1.52755, -798.129, 0.826335, 0.46369, 0.993198, 0.349787, 0.651995, 0.0001, 91, 246, 39.8909, 0.223178, 0, 0, 1, 0, 97845
-7609.95, 85427.2, -119.416, 2.72963, -1137.22, -0.0233807, 0.306105, 1.03299, 0.34851, 0.655882, 0.0001, 45.5, 246, 40.1045, 0.170866, 0, 0, 1, 0, 97847
-7609.95, 85427.2, -119.416, 2.72963, -1137.22, -0.0233807, 0.306105, 1.03299, 0.34851, 0.655882, 3, 45.5, 246, 40.1045, 0.170866, 0, 0, 1, 0, 97847
-6417.16, 108245, -158.261, 2.94281, -1146.46, 0.0119134, 0.303803, 0.993198, 0.349787, 0.651995, 0.0001, 91, 246, 40.1045, 0.170866, 0, 0, 1, 0, 97847
-6417.16, 108245, -158.261, 2.94281, -1146.46, 0.0119134, 0.303803, 0.993198, 0.349787, 0.651995, 3, 91, 246, 40.1045, 0.170866, 0, 0, 1, 0, 97847
-1151.73, 166992, -275.751, 3.57204, -1216.24, 0.12092, 0.349079, 0.9175, 0.352806, 0.64323, 0.0001, 455, 246, 40.1045, 0.170866, 1.32544, 1, 0, 0, 97847
-1151.73, 166992, -275.751, 3.57204, -1216.24, 0.12092, 0.349079, 0.9175, 0.352806, 0.64323, 3, 455, 246, 40.1045, 0.170866, 1.34061, 1, 0, 0, 97847
-11723, 304541, -166.97, 1.56283, -1183.49, -0.00960963, 0.393272, 1.03299, 0.34851, 0.655882, 0.0001, 45.5, 246, 35.2328, 0.132707, 0, 0, 0, 0, 97854
-11723, 304541, -166.97, 1.56283, -1183.49, -0.00960963, 0.393272, 1.03299, 0.34851, 0.655882, 3, 45.5, 246, 35.2328, 0.132707, 0, 0, 0, 0, 97854
-6755.78, 139169, -273.897, 3.32221, -587.472, 0.411477, 0.308147, 1.03299, 0.34851, 0.655882, 0.0001, 45.5, 246, 49.9006, 0.207401, 1.46463, 1, 0, 0, 97858
-6755.78, 139169, -273.897, 3.32221, -587.472, 0.411477, 0.308147, 1.03299, 0.34851, 0.655882, 3, 45.5, 246, 49.9006, 0.207401, 1.38506, 1, 0, 0, 97858
-3896.63, 150623, -319.037, 3.71432, -659.417, 0.498158, 0.325518, 0.993198, 0.349787, 0.651995, 0.0001, 91, 246, 49.9006, 0.207401, 1.63755, 1, 1, 0, 97858
-3896.63, 150623, -319.037, 3.71432, -659.417, 0.498158, 0.325518, 0.993198, 0.349787, 0.651995, 3, 91, 246, 49.9006, 0.207401, 1.53196, 1, 1, 0, 97858
-154.214, 165962, -376.232, 4.2023, -757.393, 0.615295, 0.36564, 0.958125, 0.351078, 0.648177, 0.0001, 182, 246, 49.9006, 0.207401, 2.58155, 1, 0, 0, 97858
-154.214, 165962, -376.232, 4.2023, -757.393, 0.615295, 0.36564, 0.958125, 0.351078, 0.648177, 3, 182, 246, 49.9006, 0.207401, 2.42233, 1, 0, 0, 97858
-11071.3, 725978, -102.938, 0.337261, -721.212, 0.000950813, 0.353218, 1.03299, 0.34851, 0.655882, 0.0001, 45.5, 246, 20.132, 0.0370851, 0, 0, 1, 0, 97859
-11071.3, 725978, -102.938, 0.337261, -721.212, 0.000950813, 0.353218, 1.03299, 0.34851, 0.655882, 3, 45.5, 246, 20.132, 0.0370851, 0, 0, 1, 0, 97859
-11712.7, 160809, -125.186, 3.40964, -904.17, -0.0529647, 0.207262, 1.03299, 0.34851, 0.655882, 0.0001, 45.5, 246, 32.086, 0.116483, 0, 0, 0, 0, 97862
-11712.7, 160809, -125.186, 3.40964, -904.17, -0.0529647, 0.207262, 1.03299, 0.34851, 0.655882, 3, 45.5, 246, 32.086, 0.116483, 0, 0, 0, 0, 97862
-10660.3, 250301, -209.535, 1.70663, -1091.06, 0.399868, 0.441856, 1.03299, 0.34851, 0.655882, 0.0001, 45.5, 246, 40.1858, 0.182623, 0, 0, 0, 0, 97866
-8380.77, 714327, -402.409, 0.307393, -1013.03, 0.166931, 0.555015, 1.03299, 0.34851, 0.655882, 0.0001, 45.5, 246, 38.8307, 0.143155, 3.60442, 1, 0, 0, 97867
-8380.77, 714327, -402.409, 0.307393, -1013.03, 0.166931, 0.555015, 1.03299, 0.34851, 0.655882, 3, 45.5, 246, 38.8307, 0.143155, 3.60481, 1, 0, 0, 97867
-9790.01, 143974, -143.259, 2.77452, -950.55, 0.193284, 0.297437, 1.03299, 0.34851, 0.655882, 0.0001, 45.5, 246, 36.4943, 0.150954, 0, 0, 0, 0, 97871
-388.879, 218071, -300.17, 3.81103, -1166.53, 0.390491, 0.351523, 0.9175, 0.352806, 0.64323, 3, 455, 246, 36.4943, 0.150954, 1.102, 1, 0, 0, 97871
-11177.9, 383652, -162.391, 0.858173, -909.741, 0.662254, 0.390155, 1.03299, 0.34851, 0.655882, 0.0001, 45.5, 246, 28.5179, 0.0975626, 0, 0, 0, 0, 97874
-11177.9, 383652, -162.391, 0.858173, -909.741, 0.662254, 0.390155, 1.03299, 0.34851, 0.655882, 3, 45.5, 246, 28.5179, 0.0975626, 0, 0, 0, 0, 97874
-7324.12, 698121, -233.699, 0.205105, -1049.55, 0.142606, 0.413839, 1.03299, 0.34851, 0.655882, 0.0001, 45.5, 246, 32.126, 0.0836681, 0, 0, 0, 0, 97878
-10438.4, 202691, -228.315, 2.24318, -852.395, 0.720204, 0.41428, 1.03299, 0.34851, 0.655882, 0.0001, 45.5, 246, 41.7655, 0.197841, 0, 0, 0, 0, 97894
-10438.4, 202691, -228.315, 2.24318, -852.395, 0.720204, 0.41428, 1.03299, 0.34851, 0.655882, 3, 45.5, 246, 41.7655, 0.197841, 0, 0, 0, 0, 97894
-11684.4, 363334, -241.657, 1.16263, -883.894, 0.113458, 0.471085, 1.03299, 0.34851, 0.655882, 0.0001, 45.5, 246, 35.8425, 0.16388, 0, 0, 0, 0, 97896
-11684.4, 363334, -241.657, 1.16263, -883.894, 0.113458, 0.471085, 1.03299, 0.34851, 0.655882, 3, 45.5, 246, 35.8425, 0.16388, 0, 0, 0, 0, 97896
-5756.24, 811271, -441.414, 0.0949597, -1084.81, -3.75744e-05, 0.572094, 1.03299, 0.34851, 0.655882, 3, 45.5, 246, 40.6129, 0.141258, 0, 0, 0, 0, 97898
-11588.5, 136690, -74.7737, 3.63017, -1131.13, -0.0537278, 0.163428, 1.03299, 0.34851, 0.655882, 0.0001, 45.5, 246, 29.0624, 0.0918901, 0, 0, 0, 0, 97905
-11588.5, 136690, -74.7737, 3.63017, -1131.13, -0.0537278, 0.163428, 1.03299, 0.34851, 0.655882, 3, 45.5, 246, 29.0624, 0.0918901, 0, 0, 0, 0, 97905
-9279.89, 158510, -121.13, 3.96256, -1136.77, 0.00954966, 0.180918, 0.993198, 0.349787, 0.651995, 0.0001, 91, 246, 29.0624, 0.0918901, 0, 0, 1, 0, 97905
-9279.89, 158510, -121.13, 3.96256, -1136.77, 0.00954966, 0.180918, 0.993198, 0.349787, 0.651995, 3, 91, 246, 29.0624, 0.0918901, 0, 0, 1, 0, 97905
-11749.9, 574370, -84.3028, 0.503824, -748.448, -0.00115761, 0.34911, 1.03299, 0.34851, 0.655882, 0.0001, 45.5, 246, 19.8028, 0.0389608, 0, 0, 1, 0, 97906
-11749.9, 574370, -84.3028, 0.503824, -748.448, -0.00115761, 0.34911, 1.03299, 0.34851, 0.655882, 3, 45.5, 246, 19.8028, 0.0389608, 0, 0, 1, 0, 97906
-6656.24, 565763, -314.517, 0.092323, -911.23, 0.794759, 0.489192, 1.03299, 0.34851, 0.655882, 0.0001, 45.5, 246, 33.7373, 0.126379, 0, 0, 0, 0, 97910
-5697.21, 610534, -325.578, 0.0996862, -1042.97, 0.908952, 0.464908, 0.993198, 0.349787, 0.651995, 0.0001, 91, 246, 33.7373, 0.126379, 0, 0, 1, 0, 97910
-4588.29, 667779, -336.432, 0.108138, -1218.89, 1.06146, 0.444762, 0.958125, 0.351078, 0.648177, 0.0001, 182, 246, 33.7373, 0.126379, 0, 0, 0, 0, 97910
-6899.4, 21591.9, -70.6054, 3.38355, -1186.84, 0.0421832, 0.241296, 0.993198, 0.349787, 0.651995, 0.0001, 91, 246, 27.6574, 0.0700828, 0, 0, 1, 1, 97912
-8826.55, 433674, -239.27, 0.196075, -603.547, 0.0235081, 0.470956, 1.03299, 0.34851, 0.655882, 0.0001, 45.5, 246, 28.4472, 0.145162, 0, 0, 1, 0, 97914
-9399.84, 43833.3, 30.1186, 3.4876, -1044.29, -0.0186994, 0.161965, 1.03299, 0.34851, 0.655882, 0.0001, 45.5, 246, 11.4608, 0.0334667, 1.21836, 1, 0, 0, 97917
-9399.84, 43833.3, 30.1186, 3.4876, -1044.29, -0.0186994, 0.161965, 1.03299, 0.34851, 0.655882, 3, 45.5, 246, 11.4608, 0.0334667, 1.16609, 1, 0, 0, 97917
-10254.6, 413113, -93.9355, 0.595399, -1131.84, 0.047748, 0.357615, 1.03299, 0.34851, 0.655882, 0.0001, 45.5, 246, 26.7131, 0.0588009, 0, 0, 1, 0, 97918
-9297.17, 436968, -103.692, 0.619675, -1142.18, 0.0497439, 0.324219, 0.993198, 0.349787, 0.651995, 0.0001, 91, 246, 26.7131, 0.0588009, 0, 0, 1, 0, 97918
-8158.31, 461406, -113.875, 0.643557, -1153.2, 0.0519034, 0.295329, 0.958125, 0.351078, 0.648177, 0.0001, 182, 246, 26.7131, 0.0588009, 0, 0, 1, 0, 97918
777.582, 280454, -372.58, 3.96772, -1015.98, 1.41516, 0.410881, 0.9175, 0.352806, 0.64323, 0.0001, 455, 246, 35.6632, 0.168245, 1.44608, 1, 0, 0, 97921
777.582, 280454, -372.58, 3.96772, -1015.98, 1.41516, 0.410881, 0.9175, 0.352806, 0.64323, 3, 455, 246, 35.6632, 0.168245, 1.85857, 1, 0, 0, 97921
-4534.14, 68925.2, -168.294, 3.3584, -970.964, -0.0465275, 0.251646, 1.03299, 0.34851, 0.655882, 0.0001, 45.5, 246, 50.8887, 0.176289, 1.18112, 1, 1, 0, 97934
-3116.02, 86013.6, -214.785, 3.65623, -985.49, 0.00748102, 0.264909, 0.993198, 0.349787, 0.651995, 0.0001, 91, 246, 50.8887, 0.176289, 1.34032, 1, 1, 0, 97934
-3116.02, 86013.6, -214.785, 3.65623, -985.49, 0.00748102, 0.264909, 0.993198, 0.349787, 0.651995, 3, 91, 246, 50.8887, 0.176289, 1.15572, 1, 1, 0, 97934
-1049.97, 104632, -270.255, 4.01057, -1016.04, 0.0721355, 0.296713, 0.958125, 0.351078, 0.648177, 0.0001, 182, 246, 50.8887, 0.176289, 1.81143, 1, 1, 0, 97934
-1049.97, 104632, -270.255, 4.01057, -1016.04, 0.0721355, 0.296713, 0.958125, 0.351078, 0.648177, 3, 182, 246, 50.8887, 0.176289, 1.66905, 1, 1, 0, 97934
-9061.9, 423019, -331.328, 0.619147, -1054.86, 0.185245, 0.588652, 1.03299, 0.34851, 0.655882, 0.0001, 45.5, 246, 42.8527, 0.201276, 0, 0, 0, 0, 97936
-9061.9, 423019, -331.328, 0.619147, -1054.86, 0.185245, 0.588652, 1.03299, 0.34851, 0.655882, 3, 45.5, 246, 42.8527, 0.201276, 0, 0, 0, 0, 97936
-10587.8, 332074, -224.262, 1.15803, -1082.49, 0.253466, 0.46206, 1.03299, 0.34851, 0.655882, 0.0001, 45.5, 246, 37.979, 0.163051, 0, 0, 0, 0, 97947
-10587.8, 332074, -224.262, 1.15803, -1082.49, 0.253466, 0.46206, 1.03299, 0.34851, 0.655882, 3, 45.5, 246, 37.979, 0.163051, 0, 0, 0, 0, 97947
-9718.51, 328289, -235.186, 0.750382, -884.815, 0.473287, 0.486152, 1.03299, 0.34851, 0.655882, 0.0001, 45.5, 246, 35.8669, 0.172646, 0, 0, 0, 0, 97951
-9718.51, 328289, -235.186, 0.750382, -884.815, 0.473287, 0.486152, 1.03299, 0.34851, 0.655882, 3, 45.5, 246, 35.8669, 0.172646, 0, 0, 0, 0, 97951
-8309.96, 352996, -252.175, 0.804706, -961.729, 0.514412, 0.464319, 0.993198, 0.349787, 0.651995, 3, 91, 246, 35.8669, 0.172646, 0, 0, 1, 0, 97951
-5988.98, 41631.2, -112.796, 2.9644, -964.878, 0.17566, 0.264312, 0.993198, 0.349787, 0.651995, 3, 91, 246, 39.6775, 0.102515, 0, 0, 1, 1, 97955
-252.848, 129809, -297.251, 4.76626, -1243.71, 0.596811, 0.340917, 0.9175, 0.352806, 0.64323, 0.0001, 455, 246, 39.5755, 0.125628, 2.13306, 1, 0, 0, 97959
-252.848, 129809, -297.251, 4.76626, -1243.71, 0.596811, 0.340917, 0.9175, 0.352806, 0.64323, 3, 455, 246, 39.5755, 0.125628, 2.13345, 1, 0, 0, 97959
-7131.65, 135168, -232.607, 2.64418, -767.52, 0.657386, 0.381417, 1.03299, 0.34851, 0.655882, 0.0001, 45.5, 246, 49.1045, 0.226644, 1.09639, 1, 1, 0, 97962
-4976.38, 153217, -272.167, 2.96481, -878.552, 0.772079, 0.383818, 0.993198, 0.349787, 0.651995, 0.0001, 91, 246, 49.1045, 0.226644, 1.14564, 1, 1, 0, 97962
-2010.25, 177821, -322.76, 3.36363, -1030.63, 0.929367, 0.402604, 0.958125, 0.351078, 0.648177, 0.0001, 182, 246, 49.1045, 0.226644, 1.65194, 1, 0, 0, 97962
-2010.25, 177821, -322.76, 3.36363, -1030.63, 0.929367, 0.402604, 0.958125, 0.351078, 0.648177, 3, 182, 246, 49.1045, 0.226644, 1.46418, 1, 0, 0, 97962
-6858.04, 523793, -333.857, 0.089116, -782.531, 0.236442, 0.517544, 0.993198, 0.349787, 0.651995, 0.0001, 91, 246, 34.0016, 0.163367, 0, 0, 1, 0, 97964
-8625.58, 26368.7, -20.1911, 1.51183, -968.416, 0.746193, 0.325062, 1.03299, 0.34851, 0.655882, 0.0001, 45.5, 246, 18.7859, 0.0891969, 0, 0, 1, 0, 97965
-8625.58, 26368.7, -20.1911, 1.51183, -968.416, 0.746193, 0.325062, 1.03299, 0.34851, 0.655882, 3, 45.5, 246, 18.7859, 0.0891969, 0, 0, 1, 0, 97965
-9354.01, 676081, -203.909, 0.340155, -926.361, 0.0196698, 0.399102, 1.03299, 0.34851, 0.655882, 0.0001, 45.5, 246, 28.7866, 0.0777095, 0, 0, 0, 0, 97968
-9354.01, 676081, -203.909, 0.340155, -926.361, 0.0196698, 0.399102, 1.03299, 0.34851, 0.655882, 3, 45.5, 246, 28.7866, 0.0777095, 0, 0, 0, 0, 97968
-6843.24, 709518, -223.642, 0.363934, -936.293, 0.0208889, 0.340628, 0.958125, 0.351078, 0.648177, 3, 182, 246, 28.7866, 0.0777095, 0, 0, 0, 0, 97968
-6179.38, 243851, -146.622, 1.48441, -1791.69, 1.46346, 0.302405, 0.9175, 0.352806, 0.64323, 0.0001, 455, 246, 29.3512, 0.15554, 4.54185, 1, 0, 0, 97970
-4490.38, 407533, -526.136, 2.95235, -866.552, 0.0456232, 0.657239, 0.958125, 0.351078, 0.648177, 3, 182, 246, 48.7952, 0.242921, 1.05799, 1, 0, 0, 97986
-14009, 179220, 6.76467, 2.75071, -1140.8, 0.0448345, 0.221457, 1.03299, 0.34851, 0.655882, 0.0001, 45.5, 246, 18.3382, 0.0308233, 0, 0, 0, 0, 97988
-14009, 179220, 6.76467, 2.75071, -1140.8, 0.0448345, 0.221457, 1.03299, 0.34851, 0.655882, 3, 45.5, 246, 18.3382, 0.0308233, 0, 0, 0, 0, 97988
-9365.81, 91310.3, -77.3163, 3.27573, -891.695, -0.0493616, 0.206992, 1.03299, 0.34851, 0.655882, 0.0001, 45.5, 246, 28.0505, 0.0961614, 0, 0, 1, 0, 97989
-9365.81, 91310.3, -77.3163, 3.27573, -891.695, -0.0493616, 0.206992, 1.03299, 0.34851, 0.655882, 3, 45.5, 246, 28.0505, 0.0961614, 0, 0, 1, 0, 97989
1895.32, 254713, -347.499, 5.07368, -1244.35, 0.663426, 0.349896, 0.9175, 0.352806, 0.64323, 0.0001, 455, 246, 33.837, 0.122863, 0, 0, 0, 0, 97992
1895.32, 254713, -347.499, 5.07368, -1244.35, 0.663426, 0.349896, 0.9175, 0.352806, 0.64323, 3, 455, 246, 33.837, 0.122863, 0, 0, 0, 0, 97992
-11506.2, 213163, 3.07267, 1.14651, -961.137, 0.242773, 0.320742, 1.03299, 0.34851, 0.655882, 0.0001, 45.5, 246, 14.6929, 0.0127994, 0, 0, 1, 0, 97996
-10636.2, 232748, -7.18503, 1.21708, -1000.03, 0.258832, 0.289355, 0.993198, 0.349787, 0.651995, 0.0001, 91, 246, 14.6929, 0.0127994, 0, 0, 1, 0, 97996
-10293, 253746, -250.17, 1.28931, -818.898, 0.179946, 0.529585, 1.03299, 0.34851, 0.655882, 0.0001, 45.5, 246, 42.0753, 0.232112, 0, 0, 0, 0, 97998
-10293, 253746, -250.17, 1.28931, -818.898, 0.179946, 0.529585, 1.03299, 0.34851, 0.655882, 3, 45.5, 246, 42.0753, 0.232112, 0, 0, 0, 0, 97998
-9365.89, 125714, -78.9773, 1.3662, -922.02, 0.0126462, 0.356078, 1.03299, 0.34851, 0.655882, 3, 45.5, 246, 27.3259, 0.131802, 0, 0, 1, 0, 97999
