-9382.81, 165017, -190.557, 2.32606, -846.968, -0.0235873, 0.391192, 1.03299, 0.34851, 0.655882, 0.0001, 45.5, 246, 41.9139, 0.20459, 0, 0, 1, 0, 49012
-9382.81, 165017, -190.557, 2.32606, -846.968, -0.0235873, 0.391192, 1.03299, 0.34851, 0.655882, 3, 45.5, 246, 41.9139, 0.20459, 0, 0, 1, 0, 49012
-11473.5, 298782, -251.757, 1.48445, -866.786, -0.00490433, 0.497143, 1.03299, 0.34851, 0.655882, 0.0001, 45.5, 246, 39.9523, 0.201217, 0, 0, 0, 0, 49016
-11473.5, 298782, -251.757, 1.48445, -866.786, -0.00490433, 0.497143, 1.03299, 0.34851, 0.655882, 3, 45.5, 246, 39.9523, 0.201217, 0, 0, 0, 0, 49016
-25834.8, 802218, -486.131, 2.45458, -751.57, 8.98024e-05, 0.495876, 0.993198, 0.349787, 0.651995, 0.0001, 91, 246, 35.6533, 0.14415, 0, 0, 1, 0, 49022
-25834.8, 802218, -486.131, 2.45458, -751.57, 8.98024e-05, 0.495876, 0.993198, 0.349787, 0.651995, 3, 91, 246, 35.6533, 0.14415, 0, 0, 1, 0, 49022
-10485.1, 100231, -47.6895, 3.14713, -771.824, -0.00538089, 0.20285, 1.03299, 0.34851, 0.655882, 0.0001, 45.5, 246, 20.9772, 0.0678349, 0, 0, 1, 0, 49031
-10485.1, 100231, -47.6895, 3.14713, -771.824, -0.00538089, 0.20285, 1.03299, 0.34851, 0.655882, 3, 45.5, 246, 20.9772, 0.0678349, 0, 0, 1, 0, 49031
-10883.5, 411253, -95.6622, 0.575528, -672.923, -0.000129694, 0.357911, 1.03299, 0.34851, 0.655882, 0.0001, 45.5, 246, 19.5735, 0.0605934, 0, 0, 1, 0, 49032
-10883.5, 411253, -95.6622, 0.575528, -672.923, -0.000129694, 0.357911, 1.03299, 0.34851, 0.655882, 3, 45.5, 246, 19.5735, 0.0605934, 0, 0, 1, 0, 49032
-10007.7, 419300, -102.803, 0.59726, -674.522, 0.00138017, 0.324422, 0.993198, 0.349787, 0.651995, 0.0001, 91, 246, 19.5735, 0.0605934, 0, 0, 1, 0, 49032
-9558.58, 134803, -118.577, 2.39391, -1049.18, -0.0231081, 0.324047, 1.03299, 0.34851, 0.655882, 0.0001, 45.5, 246, 34.7904, 0.149936, 0, 0, 1, 0, 49040
-9558.58, 134803, -118.577, 2.39391, -1049.18, -0.0231081, 0.324047, 1.03299, 0.34851, 0.655882, 3, 45.5, 246, 34.7904, 0.149936, 0, 0, 1, 0, 49040
-10592, 458592, -224.243, 0.650775, -831.943, -0.00145511, 0.442693, 1.03299, 0.34851, 0.655882, 0.0001, 45.5, 246, 30.8945, 0.126619, 0, 0, 0, 0, 49047
-10592, 458592, -224.243, 0.650775, -831.943, -0.00145511, 0.442693, 1.03299, 0.34851, 0.655882, 3, 45.5, 246, 30.8945, 0.126619, 0, 0, 0, 0, 49047
-7288.21, 484949, -253.123, 0.704612, -840.603, 0.00258027, 0.394442, 0.958125, 0.351078, 0.648177, 3, 182, 246, 30.8945, 0.126619, 0, 0, 0, 0, 49047
-11084.4, 164726, -41.2164, 2.83971, -639.348, 0.200243, 0.225648, 0.993198, 0.349787, 0.651995, 0.0001, 91, 246, 14.1062, 0.0385604, 0, 0, 1, 0, 49057
-11084.4, 164726, -41.2164, 2.83971, -639.348, 0.200243, 0.225648, 0.993198, 0.349787, 0.651995, 3, 91, 246, 14.1062, 0.0385604, 0, 0, 1, 0, 49057
-4823.39, 69748.6, -168.879, 2.69241, -778.308, -0.0335488, 0.321569, 1.03299, 0.34851, 0.655882, 0.0001, 45.5, 246, 53.6013, 0.217501, 1.17978, 1, 1, 0, 49058
-3710.82, 80853.3, -202.028, 2.90022, -789.87, 0.000798658, 0.319344, 0.993198, 0.349787, 0.651995, 0.0001, 91, 246, 53.6013, 0.217501, 1.24381, 1, 1, 0, 49058
-3710.82, 80853.3, -202.028, 2.90022, -789.87, 0.000798658, 0.319344, 0.993198, 0.349787, 0.651995, 3, 91, 246, 53.6013, 0.217501, 1.03444, 1, 1, 0, 49058
-2206, 92860.2, -240.269, 3.13686, -809.987, 0.0408265, 0.329538, 0.958125, 0.351078, 0.648177, 0.0001, 182, 246, 53.6013, 0.217501, 1.4986, 1, 1, 0, 49058
-2206, 92860.2, -240.269, 3.13686, -809.987, 0.0408265, 0.329538, 0.958125, 0.351078, 0.648177, 3, 182, 246, 53.6013, 0.217501, 1.34208, 1, 1, 0, 49058
573.249, 110996, -301.286, 3.5108, -853.722, 0.105893, 0.363525, 0.9175, 0.352806, 0.64323, 0.0001, 455, 246, 53.6013, 0.217501, 2.60514, 1, 0, 0, 49058
573.249, 110996, -301.286, 3.5108, -853.722, 0.105893, 0.363525, 0.9175, 0.352806, 0.64323, 3, 455, 246, 53.6013, 0.217501, 2.52333, 1, 0, 0, 49058
-7979.65, 33033.1, -38.6115, 2.9092, -1152.11, 0.00678691, 0.247986, 1.03299, 0.34851, 0.655882, 3, 45.5, 246, 25.9982, 0.0918388, 0, 0, 1, 0, 49063
-9439.57, 196891, -162.57, 1.2454, -992.151, 0.193223, 0.434934, 1.03299, 0.34851, 0.655882, 0.0001, 45.5, 246, 36.9927, 0.190232, 0, 0, 1, 0, 49069
-4052.99, 371489, -482.792, 3.51935, -926.061, 0.162616, 0.538361, 0.958125, 0.351078, 0.648177, 0.0001, 182, 246, 46.8724, 0.218809, 2.09453, 1, 0, 0, 49073
-4052.99, 371489, -482.792, 3.51935, -926.061, 0.162616, 0.538361, 0.958125, 0.351078, 0.648177, 3, 182, 246, 46.8724, 0.218809, 2.12003, 1, 0, 0, 49073
-8546.53, 5619.31, -7.94764, 2.08755, -1003, 0.362721, 0.284395, 0.993198, 0.349787, 0.651995, 3, 91, 246, 8.41762, 0.0544958, 0, 0, 1, 1, 49076
-11093.2, 99439.5, -15.1821, 3.53227, -1105.45, 0.009944, 0.155787, 1.03299, 0.34851, 0.655882, 0.0001, 45.5, 246, 20.7112, 0.0570506, 0, 0, 0, 0, 49087
-11093.2, 99439.5, -15.1821, 3.53227, -1105.45, 0.009944, 0.155787, 1.03299, 0.34851, 0.655882, 3, 45.5, 246, 20.7112, 0.0570506, 0, 0, 0, 0, 49087
-9525.58, 120630, -54.1072, 3.86059, -1115.64, 0.0700961, 0.169498, 0.993198, 0.349787, 0.651995, 0.0001, 91, 246, 20.7112, 0.0570506, 0, 0, 1, 0, 49087
-9525.58, 120630, -54.1072, 3.86059, -1115.64, 0.0700961, 0.169498, 0.993198, 0.349787, 0.651995, 3, 91, 246, 20.7112, 0.0570506, 0, 0, 1, 0, 49087
-9726.3, 137211, -106.156, 2.00774, -917.553, -0.00420182, 0.338557, 1.03299, 0.34851, 0.655882, 0.0001, 45.5, 246, 31.3737, 0.141834, 0, 0, 1, 0, 49090
-9726.3, 137211, -106.156, 2.00774, -917.553, -0.00420182, 0.338557, 1.03299, 0.34851, 0.655882, 3, 45.5, 246, 31.3737, 0.141834, 0, 0, 1, 0, 49090
-10813.3, 85328.9, 26.4266, 2.64725, -1113.93, 0.379349, 0.234803, 1.03299, 0.34851, 0.655882, 0.0001, 45.5, 246, 13.1162, 0.0255954, 0, 0, 1, 0, 49098
-10813.3, 85328.9, 26.4266, 2.64725, -1113.93, 0.379349, 0.234803, 1.03299, 0.34851, 0.655882, 3, 45.5, 246, 13.1162, 0.0255954, 0, 0, 1, 0, 49098
-9869.75, 110120, -0.605222, 2.90823, -1187.15, 0.439548, 0.226305, 0.993198, 0.349787, 0.651995, 3, 91, 246, 13.1162, 0.0255954, 0, 0, 1, 0, 49098
-10913, 244704, -277.056, 2.1733, -904.657, 0.0761883, 0.501986, 1.03299, 0.34851, 0.655882, 3, 45.5, 246, 46.7739, 0.235955, 0, 0, 0, 0, 49104
-6503.73, 613464, -474.32, 0.114637, -1103.65, 0.0501829, 0.700454, 1.03299, 0.34851, 0.655882, 3, 45.5, 246, 46.1902, 0.20457, 0, 0, 0, 0, 49105
-10852.1, 200549, -176.294, 2.4655, -1062.16, -0.0247831, 0.360615, 1.03299, 0.34851, 0.655882, 0.0001, 45.5, 246, 39.1809, 0.170317, 0, 0, 0, 0, 49106
-10852.1, 200549, -176.294, 2.4655, -1062.16, -0.0247831, 0.360615, 1.03299, 0.34851, 0.655882, 3, 45.5, 246, 39.1809, 0.170317, 0, 0, 0, 0, 49106
83.6792, 273900, -326.161, 3.17161, -1139.17, 0.0905713, 0.386186, 0.9175, 0.352806, 0.64323, 3, 455, 246, 39.1809, 0.170317, 1.0551, 1, 0, 0, 49106
-6071.87, 111175, -223.878, 2.74624, -642.393, 0.677598, 0.342, 1.03299, 0.34851, 0.655882, 0.0001, 45.5, 246, 49.3579, 0.212119, 1.3109, 1, 1, 0, 49115
-6071.87, 111175, -223.878, 2.74624, -642.393, 0.677598, 0.342, 1.03299, 0.34851, 0.655882, 3, 45.5, 246, 49.3579, 0.212119, 1.14446, 1, 1, 0, 49115
-4193.25, 124863, -260.322, 3.08595, -741.254, 0.800613, 0.344278, 0.993198, 0.349787, 0.651995, 0.0001, 91, 246, 49.3579, 0.212119, 1.33674, 1, 1, 0, 49115
-4193.25, 124863, -260.322, 3.08595, -741.254, 0.800613, 0.344278, 0.993198, 0.349787, 0.651995, 3, 91, 246, 49.3579, 0.212119, 1.17665, 1, 1, 0, 49115
-1630.83, 143746, -307.111, 3.5121, -878.262, 0.971209, 0.364082, 0.958125, 0.351078, 0.648177, 0.0001, 182, 246, 49.3579, 0.212119, 1.76807, 1, 1, 0, 49115
-1630.83, 143746, -307.111, 3.5121, -878.262, 0.971209, 0.364082, 0.958125, 0.351078, 0.648177, 3, 182, 246, 49.3579, 0.212119, 1.63068, 1, 1, 0, 49115
-7880.26, -16830.8, 22.7839, 2.67194, -1075.85, -0.0129283, 0.259757, 1.03299, 0.34851, 0.655882, 0.0001, 45.5, 246, 7.86184, 0.0540099, 0, 0, 1, 0, 49118
-7880.26, -16830.8, 22.7839, 2.67194, -1075.85, -0.0129283, 0.259757, 1.03299, 0.34851, 0.655882, 3, 45.5, 246, 7.86184, 0.0540099, 0, 0, 1, 0, 49118
-10615.9, 480044, -108.197, 0.516304, -889.771, 0.230885, 0.360312, 1.03299, 0.34851, 0.655882, 0.0001, 45.5, 246, 23.776, 0.0566987, 0, 0, 1, 0, 49124
-10615.9, 480044, -108.197, 0.516304, -889.771, 0.230885, 0.360312, 1.03299, 0.34851, 0.655882, 3, 45.5, 246, 23.776, 0.0566987, 0, 0, 1, 0, 49124
-9638.35, 500714, -116.462, 0.541967, -925.148, 0.240904, 0.326711, 0.993198, 0.349787, 0.651995, 3, 91, 246, 23.776, 0.0566987, 0, 0, 1, 0, 49124
-10559.6, 293499, -200.387, 1.06119, -840.545, 0.156372, 0.449537, 1.03299, 0.34851, 0.655882, 0.0001, 45.5, 246, 34.14, 0.165723, 0, 0, 0, 0, 49125
-10559.6, 293499, -200.387, 1.06119, -840.545, 0.156372, 0.449537, 1.03299, 0.34851, 0.655882, 3, 45.5, 246, 34.14, 0.165723, 0, 0, 0, 0, 49125
-9017.06, 309449, -218.726, 1.12337, -868.3, 0.165703, 0.427204, 0.993198, 0.349787, 0.651995, 3, 91, 246, 34.14, 0.165723, 0, 0, 1, 0, 49125
-10789.8, 156247, -68.9941, 1.82973, -809.911, 0.244019, 0.315257, 1.03299, 0.34851, 0.655882, 0.0001, 45.5, 246, 22.9955, 0.0894118, 0, 0, 1, 0, 49127
-9640.81, 170265, -87.3998, 1.96751, -847.429, 0.270259, 0.29349, 0.993198, 0.349787, 0.651995, 0.0001, 91, 246, 22.9955, 0.0894118, 0, 0, 1, 0, 49127
-3317.07, 183460, -301.98, 3.53857, -947.114, 1.19563, 0.357942, 0.958125, 0.351078, 0.648177, 0.0001, 182, 246, 42.5794, 0.188234, 1.10911, 1, 0, 0, 49130
-6016.79, 50036.6, -129.575, 3.7491, -674.114, 0.0567154, 0.240691, 0.958125, 0.351078, 0.648177, 3, 182, 246, 29.1372, 0.0754316, 0, 0, 1, 0, 49137
-3083.4, 46204.7, -169.986, 2.76854, -666.136, 0.752127, 0.265336, 1.03299, 0.34851, 0.655882, 0.0001, 45.5, 246, 56.9665, 0.143252, 1.40628, 1, 1, 0, 49146
-3083.4, 46204.7, -169.986, 2.76854, -666.136, 0.752127, 0.265336, 1.03299, 0.34851, 0.655882, 3, 45.5, 246, 56.9665, 0.143252, 1.26846, 1, 1, 0, 49146
-2176.88, 57963.3, -202.676, 3.11991, -773.702, 0.896726, 0.263005, 0.993198, 0.349787, 0.651995, 0.0001, 91, 246, 56.9665, 0.143252, 1.47383, 1, 1, 0, 49146
-2176.88, 57963.3, -202.676, 3.11991, -773.702, 0.896726, 0.263005, 0.993198, 0.349787, 0.651995, 3, 91, 246, 56.9665, 0.143252, 1.34083, 1, 1, 0, 49146
-808.114, 74785.6, -245.671, 3.56662, -926.349, 1.1019, 0.278691, 0.958125, 0.351078, 0.648177, 0.0001, 182, 246, 56.9665, 0.143252, 1.77113, 1, 1, 0, 49146
-808.114, 74785.6, -245.671, 3.56662, -926.349, 1.1019, 0.278691, 0.958125, 0.351078, 0.648177, 3, 182, 246, 56.9665, 0.143252, 1.64118, 1, 1, 0, 49146
2268.12, 112222, -329.882, 4.40768, -1261.2, 1.55115, 0.336524, 0.9175, 0.352806, 0.64323, 0.0001, 455, 246, 56.9665, 0.143252, 0, 0, 0, 0, 49146
2268.12, 112222, -329.882, 4.40768, -1261.2, 1.55115, 0.336524, 0.9175, 0.352806, 0.64323, 3, 455, 246, 56.9665, 0.143252, 0, 0, 0, 0, 49146
-8740.38, 74814.1, -30.4129, 0.414951, -1072.08, 0.0585944, 0.352629, 1.03299, 0.34851, 0.655882, 0.0001, 45.5, 246, 18.2362, 0.0980471, 0, 0, 1, 0, 49149
-8740.38, 74814.1, -30.4129, 0.414951, -1072.08, 0.0585944, 0.352629, 1.03299, 0.34851, 0.655882, 3, 45.5, 246, 18.2362, 0.0980471, 0, 0, 1, 0, 49149
-11209, 400983, -272.232, 0.871651, -805.876, 0.0902191, 0.506617, 1.03299, 0.34851, 0.655882, 0.0001, 45.5, 246, 35.6765, 0.171959, 0, 0, 0, 0, 49150
-11209, 400983, -272.232, 0.871651, -805.876, 0.0902191, 0.506617, 1.03299, 0.34851, 0.655882, 3, 45.5, 246, 35.6765, 0.171959, 0, 0, 0, 0, 49150
-8927.52, 70328.4, -5.25259, 0.49529, -958.443, 0.0250248, 0.340689, 1.03299, 0.34851, 0.655882, 0.0001, 45.5, 246, 10.3238, 0.0305403, 0, 0, 1, 0, 49152
-8789.05, 292784, -241.727, 0.941407, -752.66, 8.35755e-05, 0.478828, 0.993198, 0.349787, 0.651995, 0.0001, 91, 246, 36.5302, 0.201377, 0, 0, 1, 0, 49154
-11294.1, 309162, -106.837, 0.898503, -616.674, 0.108307, 0.363066, 1.03299, 0.34851, 0.655882, 0.0001, 45.5, 246, 20.9308, 0.0853785, 0, 0, 1, 0, 49159
-11294.1, 309162, -106.837, 0.898503, -616.674, 0.108307, 0.363066, 1.03299, 0.34851, 0.655882, 3, 45.5, 246, 20.9308, 0.0853785, 0, 0, 1, 0, 49159
-10207, 317865, -116.688, 0.943558, -630.33, 0.113982, 0.332253, 0.993198, 0.349787, 0.651995, 0.0001, 91, 246, 20.9308, 0.0853785, 0, 0, 1, 0, 49159
-10207, 317865, -116.688, 0.943558, -630.33, 0.113982, 0.332253, 0.993198, 0.349787, 0.651995, 3, 91, 246, 20.9308, 0.0853785, 0, 0, 1, 0, 49159
-10472, 665415, -122.983, 0.34014, -858.633, 0.862282, 0.35769, 1.03299, 0.34851, 0.655882, 0.0001, 45.5, 246, 23.6458, 0.0408453, 0, 0, 1, 0, 49171
-10472, 665415, -122.983, 0.34014, -858.633, 0.862282, 0.35769, 1.03299, 0.34851, 0.655882, 3, 45.5, 246, 23.6458, 0.0408453, 0, 0, 1, 0, 49171
-6893.36, -18496.3, 2.11178, 3.39953, -1032.85, 0.0331317, 0.199686, 1.03299, 0.34851, 0.655882, 0.0001, 45.5, 246, 16.1857, 0.0536862, 0, 0, 1, 0, 49175
-6893.36, -18496.3, 2.11178, 3.39953, -1032.85, 0.0331317, 0.199686, 1.03299, 0.34851, 0.655882, 3, 45.5, 246, 16.1857, 0.0536862, 0, 0, 1, 0, 49175
-6665.41, 36901.2, -85.6931, 3.52774, -706.334, 0.17437, 0.174237, 1.03299, 0.34851, 0.655882, 0.0001, 45.5, 246, 31.4337, 0.0751181, 1.18426, 1, 1, 0, 49188
-10151.9, 80066, 12.7223, 2.2102, -912.667, -0.0025188, 0.273132, 1.03299, 0.34851, 0.655882, 0.0001, 45.5, 246, 10.9553, 0.0251344, 0, 0, 1, 0, 49191
-10151.9, 80066, 12.7223, 2.2102, -912.667, -0.0025188, 0.273132, 1.03299, 0.34851, 0.655882, 3, 45.5, 246, 10.9553, 0.0251344, 0, 0, 1, 0, 49191
-10427.7, 376356, -470.223, 3.65317, -1037.1, 0.0934883, 0.525702, 0.993198, 0.349787, 0.651995, 0.0001, 91, 246, 51.6664, 0.228574, 1.11322, 1, 1, 0, 49203
-10427.7, 376356, -470.223, 3.65317, -1037.1, 0.0934883, 0.525702, 0.993198, 0.349787, 0.651995, 3, 91, 246, 51.6664, 0.228574, 1.01805, 1, 1, 0, 49203
-9251.24, 98627.5, -6.87375, 0.67552, -1099.45, 0.0101599, 0.339566, 1.03299, 0.34851, 0.655882, 0.0001, 45.5, 246, 13.2976, 0.0312169, 0, 0, 1, 0, 49205
-9251.24, 98627.5, -6.87375, 0.67552, -1099.45, 0.0101599, 0.339566, 1.03299, 0.34851, 0.655882, 3, 45.5, 246, 13.2976, 0.0312169, 0, 0, 1, 0, 49205
-13548.9, 206874, -34.8227, 2.42505, -1189.21, -0.0277514, 0.261155, 1.03299, 0.34851, 0.655882, 0.0001, 45.5, 246, 23.4601, 0.056691, 0, 0, 0, 0, 49213
-13548.9, 206874, -34.8227, 2.42505, -1189.21, -0.0277514, 0.261155, 1.03299, 0.34851, 0.655882, 3, 45.5, 246, 23.4601, 0.056691, 0, 0, 0, 0, 49213
-8030.43, 73731.1, -71.81, 2.93138, -1094.96, 0.204418, 0.252999, 0.993198, 0.349787, 0.651995, 0.0001, 91, 246, 24.651, 0.0893112, 0, 0, 1, 0, 49214
-8030.43, 73731.1, -71.81, 2.93138, -1094.96, 0.204418, 0.252999, 0.993198, 0.349787, 0.651995, 3, 91, 246, 24.651, 0.0893112, 0, 0, 1, 0, 49214
-9455.6, 114091, -61.744, 1.56855, -1157.73, 0.149465, 0.338308, 1.03299, 0.34851, 0.655882, 3, 45.5, 246, 26.4195, 0.110774, 0, 0, 1, 0, 49217
-11008.2, 544214, -13.9302, 0.843906, -1108.99, 0.00345184, 0.266314, 0.958125, 0.351078, 0.648177, 3, 182, 246, 21.1469, 0.00505732, 0, 0, 1, 0, 49221
-6791.38, 211651, -317.306, 3.97908, -861.989, -0.000204347, 0.313192, 0.993198, 0.349787, 0.651995, 0.0001, 91, 246, 46.1958, 0.193021, 1.18798, 1, 1, 0, 49224
-6791.38, 211651, -317.306, 3.97908, -861.989, -0.000204347, 0.313192, 0.993198, 0.349787, 0.651995, 3, 91, 246, 46.1958, 0.193021, 1.04297, 1, 1, 0, 49224
-1796.81, 227577, -384.033, 4.39793, -905.738, 0.0768911, 0.361023, 0.958125, 0.351078, 0.648177, 0.0001, 182, 246, 46.1958, 0.193021, 2.54583, 1, 0, 0, 49224
-1796.81, 227577, -384.033, 4.39793, -905.738, 0.0768911, 0.361023, 0.958125, 0.351078, 0.648177, 3, 182, 246, 46.1958, 0.193021, 2.36667, 1, 0, 0, 49224
92.1853, 439247, -400.664, 2.17968, -985.986, 0.0424731, 0.471649, 0.9175, 0.352806, 0.64323, 3, 455, 246, 39.2164, 0.175684, 0, 0, 0, 0, 49226
-10912.8, 346388, -38.2996, 0.848883, -644.814, 0.0731549, 0.300004, 0.993198, 0.349787, 0.651995, 0.0001, 91, 246, 14.1807, 0.0272084, 0, 0, 1, 0, 49229
-10912.8, 346388, -38.2996, 0.848883, -644.814, 0.0731549, 0.300004, 0.993198, 0.349787, 0.651995, 3, 91, 246, 14.1807, 0.0272084, 0, 0, 1, 0, 49229
-8885.97, 46181.1, -11.8853, 0.847458, -1088.5, 0.00113908, 0.304639, 0.993198, 0.349787, 0.651995, 0.0001, 91, 246, 10.4188, 0.0545184, 0, 0, 1, 1, 49232
-8885.97, 46181.1, -11.8853, 0.847458, -1088.5, 0.00113908, 0.304639, 0.993198, 0.349787, 0.651995, 3, 91, 246, 10.4188, 0.0545184, 0, 0, 1, 1, 49232
-12121.6, 229727, -4.40355, 1.35422, -1161.75, 0.0200781, 0.314397, 1.03299, 0.34851, 0.655882, 0.0001, 45.5, 246, 18.5719, 0.0232081, 0, 0, 1, 0, 49234
-12121.6, 229727, -4.40355, 1.35422, -1161.75, 0.0200781, 0.314397, 1.03299, 0.34851, 0.655882, 3, 45.5, 246, 18.5719, 0.0232081, 0, 0, 1, 0, 49234
-8581.27, 171546, -237.192, 2.80143, -969.769, -0.0369806, 0.402034, 1.03299, 0.34851, 0.655882, 0.0001, 45.5, 246, 49.0615, 0.230089, 0, 0, 0, 0, 49237
-2413.84, 208200, -336.04, 3.29441, -1015.97, 0.0443002, 0.42986, 0.958125, 0.351078, 0.648177, 0.0001, 182, 246, 49.0615, 0.230089, 1.40252, 1, 0, 0, 49237
-2413.84, 208200, -336.04, 3.29441, -1015.97, 0.0443002, 0.42986, 0.958125, 0.351078, 0.648177, 3, 182, 246, 49.0615, 0.230089, 1.1537, 1, 0, 0, 49237
-10833.5, 149462, -117.34, 2.99332, -936.967, -0.0312377, 0.255429, 1.03299, 0.34851, 0.655882, 0.0001, 45.5, 246, 32.1507, 0.123079, 0, 0, 0, 0, 49243
-10833.5, 149462, -117.34, 2.99332, -936.967, -0.0312377, 0.255429, 1.03299, 0.34851, 0.655882, 3, 45.5, 246, 32.1507, 0.123079, 0, 0, 0, 0, 49243
-8629.95, 71516, -73.3519, 1.24484, -959.942, 0.00460466, 0.37571, 1.03299, 0.34851, 0.655882, 0.0001, 45.5, 246, 32.6338, 0.202984, 0, 0, 1, 0, 49244
-8629.95, 71516, -73.3519, 1.24484, -959.942, 0.00460466, 0.37571, 1.03299, 0.34851, 0.655882, 3, 45.5, 246, 32.6338, 0.202984, 0, 0, 1, 0, 49244
-9635.31, 546729, -74.4036, 0.407996, -1069.98, 0.53342, 0.311903, 0.993198, 0.349787, 0.651995, 0.0001, 91, 246, 23.1647, 0.032474, 0, 0, 1, 0, 49250
-8756.61, 585355, -80.9456, 0.433424, -1169.44, 0.583369, 0.281197, 0.958125, 0.351078, 0.648177, 0.0001, 182, 246, 23.1647, 0.032474, 0, 0, 1, 0, 49250
-7306.2, 57752.6, -98.4604, 2.50796, -742.705, -0.0217601, 0.291775, 1.03299, 0.34851, 0.655882, 3, 45.5, 246, 36.4194, 0.140303, 0, 0, 1, 0, 49268
-11079.8, 362016, -211.674, 0.850169, -716.5, 0.155567, 0.445835, 1.03299, 0.34851, 0.655882, 0.0001, 45.5, 246, 30.508, 0.145121, 0, 0, 0, 0, 49269
-11079.8, 362016, -211.674, 0.850169, -716.5, 0.155567, 0.445835, 1.03299, 0.34851, 0.655882, 3, 45.5, 246, 30.508, 0.145121, 0, 0, 0, 0, 49269
-6908.47, 11270.2, -61.3621, 2.55217, -621.488, -0.00855369, 0.270311, 1.03299, 0.34851, 0.655882, 3, 45.5, 246, 33.2874, 0.0423462, 0, 0, 1, 1, 49284
-8092.42, 83466.5, -107.46, 1.82589, -805.462, 0.0586668, 0.360548, 1.03299, 0.34851, 0.655882, 3, 45.5, 246, 37.4939, 0.195499, 0, 0, 1, 0, 49286
-12598.6, 153697, -80.0179, 3.6293, -945.6, -0.0583902, 0.15498, 1.03299, 0.34851, 0.655882, 0.0001, 45.5, 246, 26.9207, 0.0852633, 0, 0, 0, 0, 49287
-12598.6, 153697, -80.0179, 3.6293, -945.6, -0.0583902, 0.15498, 1.03299, 0.34851, 0.655882, 3, 45.5, 246, 26.9207, 0.0852633, 0, 0, 0, 0, 49287
-10080, 168643, -120.372, 3.95961, -951.44, 0.00486198, 0.171946, 0.993198, 0.349787, 0.651995, 0.0001, 91, 246, 26.9207, 0.0852633, 0, 0, 1, 0, 49287
-10080, 168643, -120.372, 3.95961, -951.44, 0.00486198, 0.171946, 0.993198, 0.349787, 0.651995, 3, 91, 246, 26.9207, 0.0852633, 0, 0, 1, 0, 49287
-8885.31, 36055.9, -7.05225, 0.47874, -1111.19, 0.283218, 0.306071, 0.993198, 0.349787, 0.651995, 0.0001, 91, 246, 7.46368, 0.0497871, 0, 0, 1, 1, 49293
-8885.31, 36055.9, -7.05225, 0.47874, -1111.19, 0.283218, 0.306071, 0.993198, 0.349787, 0.651995, 3, 91, 246, 7.46368, 0.0497871, 0, 0, 1, 1, 49293
-7890.62, 434629, -180.118, 0.34276, -1151.79, 0.117197, 0.411192, 1.03299, 0.34851, 0.655882, 0.0001, 45.5, 246, 32.6649, 0.103906, 0, 0, 0, 0, 49296
-10393.5, 278255, -281.453, 1.03254, -756.384, 0.563998, 0.567521, 1.03299, 0.34851, 0.655882, 0.0001, 45.5, 246, 41.6158, 0.234123, 0, 0, 0, 0, 49297
-10393.5, 278255, -281.453, 1.03254, -756.384, 0.563998, 0.567521, 1.03299, 0.34851, 0.655882, 3, 45.5, 246, 41.6158, 0.234123, 0, 0, 0, 0, 49297
-8587.78, 299755, -304.03, 1.12155, -839.43, 0.624769, 0.555902, 0.993198, 0.349787, 0.651995, 3, 91, 246, 41.6158, 0.234123, 0, 0, 1, 0, 49297
-8247.05, 495655, -179.064, 0.321207, -825.95, 0.22193, 0.366006, 0.993198, 0.349787, 0.651995, 0.0001, 91, 246, 25.9455, 0.0895641, 0, 0, 1, 0, 49310
-10950.6, 200771, -170.311, 2.05489, -776.818, -0.0159898, 0.37885, 1.03299, 0.34851, 0.655882, 3, 45.5, 246, 35.0894, 0.168496, 0, 0, 1, 0, 49311
-10676.7, 541184, -43.2639, 0.800159, -748.198, 0.180378, 0.269622, 0.958125, 0.351078, 0.648177, 3, 182, 246, 16.0419, 0.0176842, 0, 0, 1, 0, 49312
-6187.19, 124067, -225.903, 2.91586, -885.265, 0.13942, 0.365013, 1.03299, 0.34851, 0.655882, 0.0001, 45.5, 246, 52.4991, 0.236806, 1.20951, 1, 1, 0, 49321
-4021.52, 140397, -270.199, 3.18874, -928.24, 0.184379, 0.372786, 0.993198, 0.349787, 0.651995, 0.0001, 91, 246, 52.4991, 0.236806, 1.32259, 1, 1, 0, 49321
-4021.52, 140397, -270.199, 3.18874, -928.24, 0.184379, 0.372786, 0.993198, 0.349787, 0.651995, 3, 91, 246, 52.4991, 0.236806, 1.1479, 1, 1, 0, 49321
-1120.09, 159502, -323.364, 3.5095, -986.315, 0.240617, 0.396297, 0.958125, 0.351078, 0.648177, 0.0001, 182, 246, 52.4991, 0.236806, 2.04895, 1, 0, 0, 49321
-1120.09, 159502, -323.364, 3.5095, -986.315, 0.240617, 0.396297, 0.958125, 0.351078, 0.648177, 3, 182, 246, 52.4991, 0.236806, 1.89843, 1, 0, 0, 49321
-10938.4, 291121, -93.2076, 1.05789, -1104.15, 0.00944476, 0.35578, 1.03299, 0.34851, 0.655882, 0.0001, 45.5, 246, 26.8935, 0.0817461, 0, 0, 1, 0, 49324
-10938.4, 291121, -93.2076, 1.05789, -1104.15, 0.00944476, 0.35578, 1.03299, 0.34851, 0.655882, 3, 45.5, 246, 26.8935, 0.0817461, 0, 0, 1, 0, 49324
-9690.12, 312791, -108.33, 1.10811, -1109.12, 0.0146166, 0.3259, 0.993198, 0.349787, 0.651995, 3, 91, 246, 26.8935, 0.0817461, 0, 0, 1, 0, 49324
-8176.25, 334869, -124.52, 1.15907, -1115.65, 0.0203056, 0.301136, 0.958125, 0.351078, 0.648177, 0.0001, 182, 246, 26.8935, 0.0817461, 0, 0, 1, 0, 49324
-9773.8, 240925, -175.758, 1.28599, -1143.74, -0.00431069, 0.436611, 1.03299, 0.34851, 0.655882, 3, 45.5, 246, 37.7461, 0.174714, 0, 0, 0, 0, 49325
-8263.93, 264412, -198.805, 1.35479, -1150.15, 0.00334224, 0.415701, 0.993198, 0.349787, 0.651995, 0.0001, 91, 246, 37.7461, 0.174714, 0, 0, 1, 0, 49325
-11551.8, 408107, -137.228, 0.96713, -1130.89, -0.0019548, 0.374306, 1.03299, 0.34851, 0.655882, 0.0001, 45.5, 246, 30.2135, 0.0867809, 0, 0, 0, 0, 49332
-11551.8, 408107, -137.228, 0.96713, -1130.89, -0.0019548, 0.374306, 1.03299, 0.34851, 0.655882, 3, 45.5, 246, 30.2135, 0.0867809, 0, 0, 0, 0, 49332
-2120.43, 107489, -245.423, 3.68872, -1074.31, 0.171451, 0.323511, 0.9175, 0.352806, 0.64323, 0.0001, 455, 246, 42.5796, 0.148037, 1.38019, 1, 1, 0, 49335
-2120.43, 107489, -245.423, 3.68872, -1074.31, 0.171451, 0.323511, 0.9175, 0.352806, 0.64323, 3, 455, 246, 42.5796, 0.148037, 1.36995, 1, 1, 0, 49335
-8493.47, 332054, -462.409, 3.5823, -977.736, -6.33008e-05, 0.546361, 0.993198, 0.349787, 0.651995, 0.0001, 91, 246, 53.6098, 0.246771, 1.31647, 1, 1, 0, 49339
-8493.47, 332054, -462.409, 3.5823, -977.736, -6.33008e-05, 0.546361, 0.993198, 0.349787, 0.651995, 3, 91, 246, 53.6098, 0.246771, 1.22776, 1, 1, 0, 49339
-1858.99, 41452.3, -222.821, 4.08167, -691.548, 0.706812, 0.240212, 0.958125, 0.351078, 0.648177, 0.0001, 182, 246, 51.7149, 0.051631, 1.09325, 1, 1, 0, 49341
190.339, 59652.4, -297.209, 4.93443, -865.675, 0.967287, 0.321621, 0.9175, 0.352806, 0.64323, 0.0001, 455, 246, 51.7149, 0.051631, 1.5555, 1, 1, 0, 49341
190.339, 59652.4, -297.209, 4.93443, -865.675, 0.967287, 0.321621, 0.9175, 0.352806, 0.64323, 3, 455, 246, 51.7149, 0.051631, 1.4238, 1, 1, 0, 49341
-10411.7, 358264, -327.082, 0.618652, -715.046, 0.0160545, 0.630989, 1.03299, 0.34851, 0.655882, 0.0001, 45.5, 246, 41.4533, 0.240825, 0, 0, 0, 0, 49350
-10411.7, 358264, -327.082, 0.618652, -715.046, 0.0160545, 0.630989, 1.03299, 0.34851, 0.655882, 3, 45.5, 246, 41.4533, 0.240825, 0, 0, 0, 0, 49350
-8733.78, 369543, -346.351, 0.647947, -722.587, 0.0178605, 0.622422, 0.993198, 0.349787, 0.651995, 3, 91, 246, 41.4533, 0.240825, 0, 0, 1, 0, 49350
-9097.1, 71920.4, -37.3809, 1.48007, -748.892, -0.0100373, 0.327189, 1.03299, 0.34851, 0.655882, 0.0001, 45.5, 246, 19.574, 0.0907845, 0, 0, 1, 0, 49359
-9097.1, 71920.4, -37.3809, 1.48007, -748.892, -0.0100373, 0.327189, 1.03299, 0.34851, 0.655882, 3, 45.5, 246, 19.574, 0.0907845, 0, 0, 1, 0, 49359
-11150.7, 545875, -9.26738, 0.338387, -735.732, 0.0035981, 0.338977, 1.03299, 0.34851, 0.655882, 0.0001, 45.5, 246, 15.2417, 0.00591105, 0, 0, 1, 0, 49361
-10603.5, 555434, -11.8293, 0.349547, -736.276, 0.00411997, 0.303083, 0.993198, 0.349787, 0.651995, 0.0001, 91, 246, 15.2417, 0.00591105, 0, 0, 1, 0, 49361
-8605.21, 171600, -53.7799, 1.18103, -1200.22, 0.920308, 0.278326, 0.958125, 0.351078, 0.648177, 0.0001, 182, 246, 17.8691, 0.0600107, 0, 0, 1, 0, 49363
-8605.21, 171600, -53.7799, 1.18103, -1200.22, 0.920308, 0.278326, 0.958125, 0.351078, 0.648177, 3, 182, 246, 17.8691, 0.0600107, 0, 0, 1, 0, 49363
-6568.57, -4273.13, -29.2564, 3.50917, -984.251, -0.053447, 0.189805, 1.03299, 0.34851, 0.655882, 0.0001, 45.5, 246, 24.4441, 0.0523355, 0, 0, 1, 1, 49370
-6568.57, -4273.13, -29.2564, 3.50917, -984.251, -0.053447, 0.189805, 1.03299, 0.34851, 0.655882, 3, 45.5, 246, 24.4441, 0.0523355, 0, 0, 1, 1, 49370
-10923.6, 363792, -118.562, 0.637708, -618.989, 0.803092, 0.366922, 1.03299, 0.34851, 0.655882, 0.0001, 45.5, 246, 20.4248, 0.0731438, 0, 0, 1, 0, 49374
-10923.6, 363792, -118.562, 0.637708, -618.989, 0.803092, 0.366922, 1.03299, 0.34851, 0.655882, 3, 45.5, 246, 20.4248, 0.0731438, 0, 0, 1, 0, 49374
-9976.62, 388699, -127.183, 0.693558, -711.378, 0.92205, 0.334552, 0.993198, 0.349787, 0.651995, 0.0001, 91, 246, 20.4248, 0.0731438, 0, 0, 1, 0, 49374
-8766.11, 420575, -136.983, 0.758589, -835.599, 1.08202, 0.306931, 0.958125, 0.351078, 0.648177, 0.0001, 182, 246, 20.4248, 0.0731438, 0, 0, 1, 0, 49374
-10936.8, 126749, -63.7989, 2.86188, -966.38, 0.15122, 0.238609, 1.03299, 0.34851, 0.655882, 0.0001, 45.5, 246, 25.3677, 0.086147, 0, 0, 1, 0, 49382
-10936.8, 126749, -63.7989, 2.86188, -966.38, 0.15122, 0.238609, 1.03299, 0.34851, 0.655882, 3, 45.5, 246, 25.3677, 0.086147, 0, 0, 1, 0, 49382
-7708.17, 311476, -265.698, 0.992727, -1103.35, 0.0584019, 0.512545, 0.993198, 0.349787, 0.651995, 0.0001, 91, 246, 42.3748, 0.215258, 0, 0, 1, 0, 49383
-8871.97, 35489.2, 1.85155, 2.73747, -920.889, 0.0183961, 0.243281, 1.03299, 0.34851, 0.655882, 0.0001, 45.5, 246, 13.5597, 0.0464306, 1.22532, 1, 1, 0, 49388
-9348.3, 199573, -207.268, 1.60703, -1052.64, -0.0119934, 0.48321, 1.03299, 0.34851, 0.655882, 0.0001, 45.5, 246, 44.2111, 0.235072, 0, 0, 0, 0, 49391
-9348.3, 199573, -207.268, 1.60703, -1052.64, -0.0119934, 0.48321, 1.03299, 0.34851, 0.655882, 3, 45.5, 246, 44.2111, 0.235072, 0, 0, 0, 0, 49391
-12009.1, 275507, -106.401, 1.26664, -755.015, 0.699295, 0.349339, 1.03299, 0.34851, 0.655882, 0.0001, 45.5, 246, 23.4622, 0.0849019, 0, 0, 1, 0, 49393
-12009.1, 275507, -106.401, 1.26664, -755.015, 0.699295, 0.349339, 1.03299, 0.34851, 0.655882, 3, 45.5, 246, 23.4622, 0.0849019, 0, 0, 1, 0, 49393
-6710.54, 4920.07, -59.8409, 3.74589, -1140.56, 0.027248, 0.219021, 0.993198, 0.349787, 0.651995, 0.0001, 91, 246, 24.5436, 0.0503747, 0, 0, 1, 1, 49402
-6710.54, 4920.07, -59.8409, 3.74589, -1140.56, 0.027248, 0.219021, 0.993198, 0.349787, 0.651995, 3, 91, 246, 24.5436, 0.0503747, 0, 0, 1, 1, 49402
-11309.7, 171442, -3.75484, 1.43908, -660.547, 0.18142, 0.310158, 1.03299, 0.34851, 0.655882, 0.0001, 45.5, 246, 10.985, 0.0187601, 0, 0, 1, 0, 49409
-10440, 180806, -12.9171, 1.53044, -680.89, 0.196736, 0.281698, 0.993198, 0.349787, 0.651995, 0.0001, 91, 246, 10.985, 0.0187601, 0, 0, 1, 0, 49409
-7270.94, 47052.1, -86.49, 2.23274, -920.205, 0.00179517, 0.297151, 0.993198, 0.349787, 0.651995, 0.0001, 91, 246, 34.7509, 0.139687, 0, 0, 1, 1, 49416
-7270.94, 47052.1, -86.49, 2.23274, -920.205, 0.00179517, 0.297151, 0.993198, 0.349787, 0.651995, 3, 91, 246, 34.7509, 0.139687, 0, 0, 1, 1, 49416
-4761, 58230.4, -148.911, 3.8424, -1189.89, 0.00429171, 0.22654, 0.993198, 0.349787, 0.651995, 3, 91, 246, 41.4197, 0.117759, 0, 0, 1, 0, 49417
-3315.61, 83987.6, -207.927, 4.22559, -1216.17, 0.0758576, 0.263097, 0.958125, 0.351078, 0.648177, 0.0001, 182, 246, 41.4197, 0.117759, 1.04831, 1, 1, 0, 49417
114.262, 122566, -308.201, 4.87886, -1291.89, 0.199438, 0.349256, 0.9175, 0.352806, 0.64323, 0.0001, 455, 246, 41.4197, 0.117759, 2.45624, 1, 0, 0, 49417
114.262, 122566, -308.201, 4.87886, -1291.89, 0.199438, 0.349256, 0.9175, 0.352806, 0.64323, 3, 455, 246, 41.4197, 0.117759, 2.45684, 1, 0, 0, 49417
-11742.8, 372639, 4.4054, 0.628222, -1070.75, 0.0115439, 0.334198, 1.03299, 0.34851, 0.655882, 0.0001, 45.5, 246, 18.2664, 0.00370976, 0, 0, 1, 0, 49421
-10963.3, 392931, -1.56463, 0.652549, -1072.83, 0.013369, 0.299287, 0.993198, 0.349787, 0.651995, 0.0001, 91, 246, 18.2664, 0.00370976, 0, 0, 1, 0, 49421
-9375.1, 191911, -245.898, 3.17532, -1145.72, 0.0587858, 0.366308, 1.03299, 0.34851, 0.655882, 0.0001, 45.5, 246, 49.2218, 0.212983, 0, 0, 0, 0, 49426
-5945.43, 217466, -303.378, 3.47523, -1184.95, 0.108352, 0.382083, 0.993198, 0.349787, 0.651995, 3, 91, 246, 49.2218, 0.212983, 0, 0, 1, 0, 49426
-1330.5, 246737, -372.716, 3.83182, -1243.85, 0.169868, 0.415957, 0.958125, 0.351078, 0.648177, 0.0001, 182, 246, 49.2218, 0.212983, 2.4169, 1, 0, 0, 49426
-1330.5, 246737, -372.716, 3.83182, -1243.85, 0.169868, 0.415957, 0.958125, 0.351078, 0.648177, 3, 182, 246, 49.2218, 0.212983, 2.22705, 1, 0, 0, 49426
-6768.74, -13380.7, -25.6095, 3.14681, -731.107, 0.196294, 0.220996, 1.03299, 0.34851, 0.655882, 3, 45.5, 246, 21.7131, 0.0182933, 0, 0, 1, 1, 49429
-11140.6, 196690, -97.8699, 1.85687, -1053.25, 0.0153486, 0.3342, 1.03299, 0.34851, 0.655882, 0.0001, 45.5, 246, 28.884, 0.110304, 0, 0, 1, 0, 49430
-11140.6, 196690, -97.8699, 1.85687, -1053.25, 0.0153486, 0.3342, 1.03299, 0.34851, 0.655882, 3, 45.5, 246, 28.884, 0.110304, 0, 0, 1, 0, 49430
-11939.4, 693852, -25.8309, 0.365449, -940.666, 0.0106473, 0.339333, 1.03299, 0.34851, 0.655882, 0.0001, 45.5, 246, 21.1053, 0.0110223, 0, 0, 1, 0, 49432
-11939.4, 693852, -25.8309, 0.365449, -940.666, 0.0106473, 0.339333, 1.03299, 0.34851, 0.655882, 3, 45.5, 246, 21.1053, 0.0110223, 0, 0, 1, 0, 49432
-11089.9, 709762, -29.813, 0.377831, -942.568, 0.0112727, 0.303555, 0.993198, 0.349787, 0.651995, 3, 91, 246, 21.1053, 0.0110223, 0, 0, 1, 0, 49432
-12319.6, 257999, -119.385, 1.81753, -1114.03, 0.269857, 0.341467, 1.03299, 0.34851, 0.655882, 0.0001, 45.5, 246, 30.6804, 0.105922, 0, 0, 0, 0, 49435
-12319.6, 257999, -119.385, 1.81753, -1114.03, 0.269857, 0.341467, 1.03299, 0.34851, 0.655882, 3, 45.5, 246, 30.6804, 0.105922, 0, 0, 0, 0, 49435
-10830.7, 343984, -293.214, 0.986916, -833.865, 0.0917253, 0.563243, 1.03299, 0.34851, 0.655882, 0.0001, 45.5, 246, 40.7143, 0.214736, 0, 0, 0, 0, 49436
-10830.7, 343984, -293.214, 0.986916, -833.865, 0.0917253, 0.563243, 1.03299, 0.34851, 0.655882, 3, 45.5, 246, 40.7143, 0.214736, 0, 0, 0, 0, 49436
-8680.35, 168982, -214.164, 2.75794, -1173.15, -0.0288636, 0.393605, 1.03299, 0.34851, 0.655882, 0.0001, 45.5, 246, 47.9843, 0.220076, 0, 0, 0, 0, 49438
-6108.46, 193952, -262.547, 2.98142, -1189.04, 0.00727866, 0.398729, 0.993198, 0.349787, 0.651995, 0.0001, 91, 246, 47.9843, 0.220076, 0, 0, 1, 0, 49438
-6108.46, 193952, -262.547, 2.98142, -1189.04, 0.00727866, 0.398729, 0.993198, 0.349787, 0.651995, 3, 91, 246, 47.9843, 0.220076, 0, 0, 1, 0, 49438
-13430, 198253, -13.9863, 2.3285, -1195.33, -0.0253512, 0.262317, 1.03299, 0.34851, 0.655882, 0.0001, 45.5, 246, 20.9967, 0.0423742, 0, 0, 1, 0, 49441
-13430, 198253, -13.9863, 2.3285, -1195.33, -0.0253512, 0.262317, 1.03299, 0.34851, 0.655882, 3, 45.5, 246, 20.9967, 0.0423742, 0, 0, 0, 0, 49441
-11504.8, 222648, -41.0393, 2.48743, -1194.63, 0.000118248, 0.246931, 0.993198, 0.349787, 0.651995, 0.0001, 91, 246, 20.9967, 0.0423742, 0, 0, 1, 0, 49441
-11504.8, 222648, -41.0393, 2.48743, -1194.63, 0.000118248, 0.246931, 0.993198, 0.349787, 0.651995, 3, 91, 246, 20.9967, 0.0423742, 0, 0, 1, 0, 49441
-10116.3, 281219, -23.0952, 1.50604, -675.542, 0.0711046, 0.258444, 0.958125, 0.351078, 0.648177, 0.0001, 182, 246, 11.969, 0.0141677, 0, 0, 1, 0, 49443
-10466.1, 475174, -168.495, 0.468303, -643.966, 0.130214, 0.394822, 1.03299, 0.34851, 0.655882, 0.0001, 45.5, 246, 23.3173, 0.0900055, 0, 0, 1, 0, 49445
-10466.1, 475174, -168.495, 0.468303, -643.966, 0.130214, 0.394822, 1.03299, 0.34851, 0.655882, 3, 45.5, 246, 23.3173, 0.0900055, 0, 0, 1, 0, 49445
-9470.33, 486420, -177.484, 0.488927, -659.751, 0.133976, 0.363623, 0.993198, 0.349787, 0.651995, 3, 91, 246, 23.3173, 0.0900055, 0, 0, 1, 0, 49445
-8324.65, 498285, -186.576, 0.50941, -676.497, 0.137991, 0.336765, 0.958125, 0.351078, 0.648177, 0.0001, 182, 246, 23.3173, 0.0900055, 0, 0, 1, 0, 49445
-10231.9, 273484, -274.126, 1.40337, -990.992, -0.00211445, 0.562239, 1.03299, 0.34851, 0.655882, 0.0001, 45.5, 246, 45.9216, 0.244062, 0, 0, 0, 0, 49448
-10231.9, 273484, -274.126, 1.40337, -990.992, -0.00211445, 0.562239, 1.03299, 0.34851, 0.655882, 3, 45.5, 246, 45.9216, 0.244062, 0, 0, 0, 0, 49448
-7583.07, 221652, -247.655, 1.83761, -1059.12, 0.317292, 0.47101, 0.993198, 0.349787, 0.651995, 3, 91, 246, 44.4634, 0.233732, 0, 0, 1, 0, 49449
-16085.2, 552736, -92.0707, 1.65919, -944.52, 0.148664, 0.283896, 0.993198, 0.349787, 0.651995, 0.0001, 91, 246, 23.154, 0.0401197, 0, 0, 1, 0, 49450
-16085.2, 552736, -92.0707, 1.65919, -944.52, 0.148664, 0.283896, 0.993198, 0.349787, 0.651995, 3, 91, 246, 23.154, 0.0401197, 0, 0, 1, 0, 49450
-11072.1, 345815, -218.944, 1.18129, -1021.86, 0.00341433, 0.453733, 1.03299, 0.34851, 0.655882, 0.0001, 45.5, 246, 36.6071, 0.158037, 0, 0, 0, 0, 49457
-11072.1, 345815, -218.944, 1.18129, -1021.86, 0.00341433, 0.453733, 1.03299, 0.34851, 0.655882, 3, 45.5, 246, 36.6071, 0.158037, 0, 0, 0, 0, 49457
-10879.6, 251469, -283.464, 2.23902, -986.621, -0.0230098, 0.510816, 1.03299, 0.34851, 0.655882, 0.0001, 45.5, 246, 48.2468, 0.239788, 0, 0, 0, 0, 49459
-10879.6, 251469, -283.464, 2.23902, -986.621, -0.0230098, 0.510816, 1.03299, 0.34851, 0.655882, 3, 45.5, 246, 48.2468, 0.239788, 0, 0, 0, 0, 49459
-9117.44, 572344, -377.044, 0.350498, -896.996, -0.000283005, 0.585034, 1.03299, 0.34851, 0.655882, 0.0001, 45.5, 246, 38.718, 0.173865, 0, 0, 0, 0, 49470
-9117.44, 572344, -377.044, 0.350498, -896.996, -0.000283005, 0.585034, 1.03299, 0.34851, 0.655882, 3, 45.5, 246, 38.718, 0.173865, 0, 0, 0, 0, 49470
-6277.38, 56841.9, -133.902, 3.32631, -562.304, 0.604469, 0.194178, 1.03299, 0.34851, 0.655882, 0.0001, 45.5, 246, 37.1383, 0.100989, 1.02268, 1, 1, 0, 49479
-745.299, 101719, -287.909, 5.31371, -980.458, 1.27909, 0.336683, 0.9175, 0.352806, 0.64323, 0.0001, 455, 246, 37.1383, 0.100989, 1.51367, 1, 1, 0, 49479
-745.299, 101719, -287.909, 5.31371, -980.458, 1.27909, 0.336683, 0.9175, 0.352806, 0.64323, 3, 455, 246, 37.1383, 0.100989, 1.4697, 1, 1, 0, 49479
-10781.4, 204573, -139.35, 2.03241, -1191.09, -0.0192905, 0.361744, 1.03299, 0.34851, 0.655882, 0.0001, 45.5, 246, 35.515, 0.145924, 0, 0, 0, 0, 49481
-10781.4, 204573, -139.35, 2.03241, -1191.09, -0.0192905, 0.361744, 1.03299, 0.34851, 0.655882, 3, 45.5, 246, 35.515, 0.145924, 0, 0, 0, 0, 49481
-10738, 278192, -118.421, 1.03631, -946.876, 0.505875, 0.370347, 1.03299, 0.34851, 0.655882, 0.0001, 45.5, 246, 27.3548, 0.0989127, 0, 0, 1, 0, 49485
-10738, 278192, -118.421, 1.03631, -946.876, 0.505875, 0.370347, 1.03299, 0.34851, 0.655882, 3, 45.5, 246, 27.3548, 0.0989127, 0, 0, 1, 0, 49485
-9502.23, 303569, -133.547, 1.11581, -1033.29, 0.55535, 0.341484, 0.993198, 0.349787, 0.651995, 0.0001, 91, 246, 27.3548, 0.0989127, 0, 0, 1, 0, 49485
-9502.23, 303569, -133.547, 1.11581, -1033.29, 0.55535, 0.341484, 0.993198, 0.349787, 0.651995, 3, 91, 246, 27.3548, 0.0989127, 0, 0, 1, 0, 49485
-7919.49, 334192, -150.96, 1.20355, -1137.78, 0.615244, 0.318041, 0.958125, 0.351078, 0.648177, 0.0001, 182, 246, 27.3548, 0.0989127, 0, 0, 1, 0, 49485
-9010.91, 688585, -265.111, 0.398056, -1052.1, -0.000710155, 0.43873, 1.03299, 0.34851, 0.655882, 0.0001, 45.5, 246, 33.9558, 0.0995875, 0, 0, 0, 0, 49487
-10049.9, 250820, -13.8307, 1.83432, -806.516, 0.0740256, 0.251794, 0.958125, 0.351078, 0.648177, 0.0001, 182, 246, 12.1223, 0.00760136, 0, 0, 1, 0, 49491
