-10796.7, 150836, -78.3898, 2.21992, -1012.63, 0.154779, 0.300603, 1.03299, 0.34851, 0.655882, 0.0001, 45.5, 246, 27.1606, 0.101661, 0, 0, 1, 0, 48003
-10796.7, 150836, -78.3898, 2.21992, -1012.63, 0.154779, 0.300603, 1.03299, 0.34851, 0.655882, 3, 45.5, 246, 27.1606, 0.101661, 0, 0, 1, 0, 48003
-10016.9, 203315, -187.324, 1.64444, -928.753, 0.565574, 0.428071, 1.03299, 0.34851, 0.655882, 3, 45.5, 246, 38.3829, 0.188507, 0, 0, 1, 0, 48006
-8203.02, 72837.9, -69.7829, 2.30769, -982.191, 0.030088, 0.284259, 0.993198, 0.349787, 0.651995, 0.0001, 91, 246, 25.0977, 0.103892, 0, 0, 1, 0, 48007
-8203.02, 72837.9, -69.7829, 2.30769, -982.191, 0.030088, 0.284259, 0.993198, 0.349787, 0.651995, 3, 91, 246, 25.0977, 0.103892, 0, 0, 1, 0, 48007
-7128.86, 160857, -260.598, 3.19918, -1097.44, 0.294656, 0.377262, 1.03299, 0.34851, 0.655882, 0.0001, 45.5, 246, 53.6323, 0.236799, 1.12432, 1, 0, 0, 48010
-3975.98, 187729, -319.454, 3.55074, -1181.92, 0.361456, 0.395371, 0.993198, 0.349787, 0.651995, 0.0001, 91, 246, 53.6323, 0.236799, 1.407, 1, 1, 0, 48010
-3975.98, 187729, -319.454, 3.55074, -1181.92, 0.361456, 0.395371, 0.993198, 0.349787, 0.651995, 3, 91, 246, 53.6323, 0.236799, 1.2604, 1, 1, 0, 48010
-10199.1, 276168, -225.6, 1.31489, -1048.05, -0.00804128, 0.486818, 1.03299, 0.34851, 0.655882, 0.0001, 45.5, 246, 40.7525, 0.199047, 0, 0, 0, 0, 48013
-10199.1, 276168, -225.6, 1.31489, -1048.05, -0.00804128, 0.486818, 1.03299, 0.34851, 0.655882, 3, 45.5, 246, 40.7525, 0.199047, 0, 0, 0, 0, 48013
-9455.2, 390525, -362.895, 0.84111, -1150.02, 0.00153538, 0.67058, 1.03299, 0.34851, 0.655882, 3, 45.5, 246, 48.9138, 0.245489, 0, 0, 0, 0, 48022
-11051.8, 236905, -209.456, 1.61001, -766.459, 0.655482, 0.435123, 1.03299, 0.34851, 0.655882, 0.0001, 45.5, 246, 36.1955, 0.179493, 0, 0, 0, 0, 48023
-11051.8, 236905, -209.456, 1.61001, -766.459, 0.655482, 0.435123, 1.03299, 0.34851, 0.655882, 3, 45.5, 246, 36.1955, 0.179493, 0, 0, 0, 0, 48023
-8578.5, 115211, -123.999, 3.79121, -644.278, 0.287119, 0.187264, 0.993198, 0.349787, 0.651995, 0.0001, 91, 246, 25.6923, 0.0867513, 0, 0, 1, 0, 48024
-8578.5, 115211, -123.999, 3.79121, -644.278, 0.287119, 0.187264, 0.993198, 0.349787, 0.651995, 3, 91, 246, 25.6923, 0.0867513, 0, 0, 1, 0, 48024
-6454.99, 124946, -160.432, 4.22694, -693.978, 0.374654, 0.220642, 0.958125, 0.351078, 0.648177, 0.0001, 182, 246, 25.6923, 0.0867513, 0, 0, 1, 0, 48024
-6454.99, 124946, -160.432, 4.22694, -693.978, 0.374654, 0.220642, 0.958125, 0.351078, 0.648177, 3, 182, 246, 25.6923, 0.0867513, 0, 0, 1, 0, 48024
-11141.4, 152132, -45.3109, 1.89496, -738.386, 0.203164, 0.299099, 1.03299, 0.34851, 0.655882, 0.0001, 45.5, 246, 18.6011, 0.0645375, 0, 0, 1, 0, 48025
-11141.4, 152132, -45.3109, 1.89496, -738.386, 0.203164, 0.299099, 1.03299, 0.34851, 0.655882, 3, 45.5, 246, 18.6011, 0.0645375, 0, 0, 1, 0, 48025
-10025, 163537, -61.4616, 2.03466, -766.697, 0.227408, 0.277377, 0.993198, 0.349787, 0.651995, 0.0001, 91, 246, 18.6011, 0.0645375, 0, 0, 1, 0, 48025
-12455.6, 519817, -12.5184, 0.558125, -1025.81, -0.000749798, 0.335822, 1.03299, 0.34851, 0.655882, 0.0001, 45.5, 246, 20.6063, 0.00974162, 0, 0, 1, 0, 48033
-12455.6, 519817, -12.5184, 0.558125, -1025.81, -0.000749798, 0.335822, 1.03299, 0.34851, 0.655882, 3, 45.5, 246, 20.6063, 0.00974162, 0, 0, 1, 0, 48033
-11446.4, 538179, -18.1901, 0.578647, -1026.03, 0.000668723, 0.300632, 0.993198, 0.349787, 0.651995, 3, 91, 246, 20.6063, 0.00974162, 0, 0, 1, 0, 48033
-3650.75, 100331, -206.677, 3.12937, -1123.6, 0.582226, 0.312118, 0.958125, 0.351078, 0.648177, 0.0001, 182, 246, 47.3387, 0.190957, 1.02136, 1, 1, 0, 48036
-684.948, 141323, -280.624, 3.65043, -1318.86, 0.738619, 0.347034, 0.9175, 0.352806, 0.64323, 0.0001, 455, 246, 47.3387, 0.190957, 2.69651, 1, 0, 0, 48036
-684.948, 141323, -280.624, 3.65043, -1318.86, 0.738619, 0.347034, 0.9175, 0.352806, 0.64323, 3, 455, 246, 47.3387, 0.190957, 2.70102, 1, 0, 0, 48036
-11815.6, 215739, -76.5691, 1.49736, -595.246, 0.423847, 0.327154, 1.03299, 0.34851, 0.655882, 3, 45.5, 246, 19.2784, 0.0759785, 0, 0, 1, 0, 48038
-8919.92, 202990, -96.161, 2.30118, -647.063, 0.0629008, 0.2631, 0.958125, 0.351078, 0.648177, 3, 182, 246, 18.8646, 0.0698682, 0, 0, 1, 0, 48040
-9236.67, 548069, -271.266, 0.217618, -613.858, -0.000179005, 0.47183, 1.03299, 0.34851, 0.655882, 0.0001, 45.5, 246, 27.8548, 0.129612, 0, 0, 0, 0, 48043
-9236.67, 548069, -271.266, 0.217618, -613.858, -0.000179005, 0.47183, 1.03299, 0.34851, 0.655882, 3, 45.5, 246, 27.8548, 0.129612, 0, 0, 0, 0, 48043
-8290.78, 556009, -281.785, 0.225082, -615.463, 3.61302e-05, 0.446192, 0.993198, 0.349787, 0.651995, 0.0001, 91, 246, 27.8548, 0.129612, 0, 0, 1, 0, 48043
-7218.42, 564097, -292.023, 0.232257, -617.206, 0.000265718, 0.424704, 0.958125, 0.351078, 0.648177, 0.0001, 182, 246, 27.8548, 0.129612, 0, 0, 1, 0, 48043
-8235.65, 140679, -219.018, 3.31666, -704.51, 0.0790795, 0.281225, 1.03299, 0.34851, 0.655882, 0.0001, 45.5, 246, 44.48, 0.184154, 1.07127, 1, 0, 0, 48045
-5684.95, 151191, -261.677, 3.63564, -738.491, 0.13382, 0.295451, 0.993198, 0.349787, 0.651995, 0.0001, 91, 246, 44.48, 0.184154, 1.07344, 1, 1, 0, 48045
-2420.82, 163934, -313.386, 4.01776, -787.485, 0.202397, 0.328983, 0.958125, 0.351078, 0.648177, 0.0001, 182, 246, 44.48, 0.184154, 1.53748, 1, 1, 0, 48045
-2420.82, 163934, -313.386, 4.01776, -787.485, 0.202397, 0.328983, 0.958125, 0.351078, 0.648177, 3, 182, 246, 44.48, 0.184154, 1.34342, 1, 1, 0, 48045
-10169.4, 123117, -68.2477, 2.28349, -1007.97, 0.0182619, 0.29498, 1.03299, 0.34851, 0.655882, 0.0001, 45.5, 246, 26.4504, 0.101569, 0, 0, 1, 0, 48046
-10169.4, 123117, -68.2477, 2.28349, -1007.97, 0.0182619, 0.29498, 1.03299, 0.34851, 0.655882, 3, 45.5, 246, 26.4504, 0.101569, 0, 0, 1, 0, 48046
-8984.08, 141045, -94.676, 2.44517, -1017.88, 0.0429353, 0.280809, 0.993198, 0.349787, 0.651995, 0.0001, 91, 246, 26.4504, 0.101569, 0, 0, 1, 0, 48046
-8133.91, 203897, -191.002, 2.06166, -1126.44, 0.556641, 0.377017, 0.993198, 0.349787, 0.651995, 3, 91, 246, 37.8153, 0.176118, 0, 0, 1, 0, 48048
-2905, 171336, -289.331, 4.42713, -1056.48, 0.884038, 0.283012, 0.958125, 0.351078, 0.648177, 0.0001, 182, 246, 40.1283, 0.150196, 1.25512, 1, 0, 0, 48054
-2905, 171336, -289.331, 4.42713, -1056.48, 0.884038, 0.283012, 0.958125, 0.351078, 0.648177, 3, 182, 246, 40.1283, 0.150196, 1.03403, 1, 0, 0, 48054
-7224.06, 397493, -335.252, 0.287845, -908.133, 0.207938, 0.599564, 0.993198, 0.349787, 0.651995, 0.0001, 91, 246, 41.4126, 0.224835, 0, 0, 1, 0, 48060
-9897.66, 194768, -285.018, 3.3604, -771.022, 0.157507, 0.3448, 1.03299, 0.34851, 0.655882, 0.0001, 45.5, 246, 48.3128, 0.212311, 1.02482, 1, 0, 0, 48062
-6143.41, 209071, -337.346, 3.70961, -823.399, 0.217783, 0.365434, 0.993198, 0.349787, 0.651995, 0.0001, 91, 246, 48.3128, 0.212311, 1.30223, 1, 1, 0, 48062
-6143.41, 209071, -337.346, 3.70961, -823.399, 0.217783, 0.365434, 0.993198, 0.349787, 0.651995, 3, 91, 246, 48.3128, 0.212311, 1.17372, 1, 1, 0, 48062
-1306.19, 227052, -401.778, 4.13338, -896.051, 0.295441, 0.407212, 0.958125, 0.351078, 0.648177, 0.0001, 182, 246, 48.3128, 0.212311, 2.96975, 1, 0, 0, 48062
-1306.19, 227052, -401.778, 4.13338, -896.051, 0.295441, 0.407212, 0.958125, 0.351078, 0.648177, 3, 182, 246, 48.3128, 0.212311, 2.75629, 1, 0, 0, 48062
7520.14, 259883, -515.044, 4.86792, -1040.57, 0.440014, 0.503908, 0.9175, 0.352806, 0.64323, 0.0001, 455, 246, 48.3128, 0.212311, 0, 0, 0, 0, 48062
7520.14, 259883, -515.044, 4.86792, -1040.57, 0.440014, 0.503908, 0.9175, 0.352806, 0.64323, 3, 455, 246, 48.3128, 0.212311, 0, 0, 0, 0, 48062
-8684.96, 46830.9, -23.5939, 3.46379, -868.618, -0.0573446, 0.174374, 1.03299, 0.34851, 0.655882, 0.0001, 45.5, 246, 19.2284, 0.0574725, 1.07665, 1, 1, 0, 48078
-8684.96, 46830.9, -23.5939, 3.46379, -868.618, -0.0573446, 0.174374, 1.03299, 0.34851, 0.655882, 3, 45.5, 246, 19.2284, 0.0574725, 1.01972, 1, 1, 0, 48078
-8015.74, 59462.3, -54.4261, 3.76862, -868.283, 0.000137341, 0.186479, 0.993198, 0.349787, 0.651995, 0.0001, 91, 246, 19.2284, 0.0574725, 0, 0, 1, 0, 48078
-8015.74, 59462.3, -54.4261, 3.76862, -868.283, 0.000137341, 0.186479, 0.993198, 0.349787, 0.651995, 3, 91, 246, 19.2284, 0.0574725, 0, 0, 1, 0, 48078
-9587.54, 549962, -311.263, 0.231358, -610.785, 0.0703455, 0.510952, 1.03299, 0.34851, 0.655882, 0.0001, 45.5, 246, 29.9638, 0.146949, 0, 0, 0, 0, 48079
-9587.54, 549962, -311.263, 0.231358, -610.785, 0.0703455, 0.510952, 1.03299, 0.34851, 0.655882, 3, 45.5, 246, 29.9638, 0.146949, 0, 0, 0, 0, 48079
-8406.37, 560412, -323.666, 0.240509, -619.647, 0.0713833, 0.488858, 0.993198, 0.349787, 0.651995, 3, 91, 246, 29.9638, 0.146949, 0, 0, 1, 0, 48079
-10600, 136172, -37.8456, 1.87491, -1045.8, -0.0157467, 0.304675, 1.03299, 0.34851, 0.655882, 0.0001, 45.5, 246, 21.2595, 0.0697668, 0, 0, 1, 0, 48089
-10600, 136172, -37.8456, 1.87491, -1045.8, -0.0157467, 0.304675, 1.03299, 0.34851, 0.655882, 3, 45.5, 246, 21.2595, 0.0697668, 0, 0, 1, 0, 48089
-2616.57, 103378, -238.398, 4.15621, -1151.19, 0.237566, 0.320271, 0.9175, 0.352806, 0.64323, 0.0001, 455, 246, 36.9341, 0.11182, 1.16476, 1, 1, 0, 48090
-2616.57, 103378, -238.398, 4.15621, -1151.19, 0.237566, 0.320271, 0.9175, 0.352806, 0.64323, 3, 455, 246, 36.9341, 0.11182, 1.15252, 1, 1, 0, 48090
-7038.46, 691365, -281.434, 0.280497, -1188.67, 0.018164, 0.450364, 1.03299, 0.34851, 0.655882, 3, 45.5, 246, 36.9712, 0.104013, 0, 0, 0, 0, 48093
-6953.95, -8136.72, -18.0981, 3.23944, -877.083, 0.0771229, 0.212627, 1.03299, 0.34851, 0.655882, 0.0001, 45.5, 246, 20.1698, 0.0442919, 0, 0, 1, 1, 48097
-6953.95, -8136.72, -18.0981, 3.23944, -877.083, 0.0771229, 0.212627, 1.03299, 0.34851, 0.655882, 3, 45.5, 246, 20.1698, 0.0442919, 0, 0, 1, 1, 48097
-8413.74, 222930, -138.529, 0.875127, -1089.09, 0.586493, 0.374528, 0.993198, 0.349787, 0.651995, 0.0001, 91, 246, 31.0959, 0.147484, 0, 0, 1, 0, 48099
-8413.74, 222930, -138.529, 0.875127, -1089.09, 0.586493, 0.374528, 0.993198, 0.349787, 0.651995, 3, 91, 246, 31.0959, 0.147484, 0, 0, 1, 0, 48099
-3709.46, 314041, -428.613, 3.56864, -893.348, 0.0990384, 0.47961, 0.958125, 0.351078, 0.648177, 0.0001, 182, 246, 46.0336, 0.213554, 1.69095, 1, 0, 0, 48104
-3709.46, 314041, -428.613, 3.56864, -893.348, 0.0990384, 0.47961, 0.958125, 0.351078, 0.648177, 3, 182, 246, 46.0336, 0.213554, 1.5254, 1, 0, 0, 48104
-2549.52, 107683, -238.304, 4.36099, -1067.11, 0.348494, 0.317906, 0.9175, 0.352806, 0.64323, 0.0001, 455, 246, 34.2166, 0.108938, 1.03878, 1, 1, 0, 48107
-2549.52, 107683, -238.304, 4.36099, -1067.11, 0.348494, 0.317906, 0.9175, 0.352806, 0.64323, 3, 455, 246, 34.2166, 0.108938, 1.03211, 1, 1, 0, 48107
-5935.21, 223334, -334.214, 3.52696, -1028.27, 0.15307, 0.4014, 0.993198, 0.349787, 0.651995, 0.0001, 91, 246, 50.2184, 0.222648, 1.11839, 1, 1, 0, 48110
-1014.45, 247497, -402.585, 3.90484, -1095.19, 0.218979, 0.438847, 0.958125, 0.351078, 0.648177, 0.0001, 182, 246, 50.2184, 0.222648, 3.95709, 1, 0, 0, 48110
-1014.45, 247497, -402.585, 3.90484, -1095.19, 0.218979, 0.438847, 0.958125, 0.351078, 0.648177, 3, 182, 246, 50.2184, 0.222648, 3.56508, 1, 0, 0, 48110
-9449.08, 197210, -312.964, 3.53591, -787.225, 0.297226, 0.342339, 1.03299, 0.34851, 0.655882, 0.0001, 45.5, 246, 50.9176, 0.219444, 1.28954, 1, 0, 0, 48111
-9449.08, 197210, -312.964, 3.53591, -787.225, 0.297226, 0.342339, 1.03299, 0.34851, 0.655882, 3, 45.5, 246, 50.9176, 0.219444, 1.20403, 1, 0, 0, 48111
-5256.24, 214330, -371.652, 3.94828, -864.533, 0.376338, 0.369579, 0.993198, 0.349787, 0.651995, 0.0001, 91, 246, 50.9176, 0.219444, 1.58377, 1, 1, 0, 48111
-5256.24, 214330, -371.652, 3.94828, -864.533, 0.376338, 0.369579, 0.993198, 0.349787, 0.651995, 3, 91, 246, 50.9176, 0.219444, 1.48943, 1, 1, 0, 48111
-5199.75, 391577, -417.645, 4.47823, -1224.8, 0.854007, 0.35363, 0.958125, 0.351078, 0.648177, 3, 182, 246, 40.3846, 0.155289, 1.09043, 1, 0, 0, 48112
-6542.65, 88538.6, -144.755, 2.98771, -886.59, 0.9338, 0.270124, 0.993198, 0.349787, 0.651995, 0.0001, 91, 246, 35.9708, 0.134568, 0, 0, 1, 0, 48113
-1653.01, 159420, -265.296, 4.22035, -1440.6, 1.62177, 0.332304, 0.9175, 0.352806, 0.64323, 0.0001, 455, 246, 35.9708, 0.134568, 1.50517, 1, 0, 0, 48113
-1653.01, 159420, -265.296, 4.22035, -1440.6, 1.62177, 0.332304, 0.9175, 0.352806, 0.64323, 3, 455, 246, 35.9708, 0.134568, 1.50814, 1, 0, 0, 48113
-7929.37, 70020.9, -80.0315, 3.72217, -739.416, 0.631372, 0.18833, 0.993198, 0.349787, 0.651995, 0.0001, 91, 246, 21.7832, 0.0629106, 0, 0, 1, 0, 48121
-7929.37, 70020.9, -80.0315, 3.72217, -739.416, 0.631372, 0.18833, 0.993198, 0.349787, 0.651995, 3, 91, 246, 21.7832, 0.0629106, 0, 0, 1, 0, 48121
-6669.88, 83345.2, -116.259, 4.22939, -836.74, 0.77834, 0.220484, 0.958125, 0.351078, 0.648177, 0.0001, 182, 246, 21.7832, 0.0629106, 0, 0, 1, 0, 48121
-6669.88, 83345.2, -116.259, 4.22939, -836.74, 0.77834, 0.220484, 0.958125, 0.351078, 0.648177, 3, 182, 246, 21.7832, 0.0629106, 0, 0, 1, 0, 48121
-3966.36, 109517, -187.087, 5.16448, -1039.95, 1.08197, 0.310552, 0.9175, 0.352806, 0.64323, 0.0001, 455, 246, 21.7832, 0.0629106, 0, 0, 1, 0, 48121
-3966.36, 109517, -187.087, 5.16448, -1039.95, 1.08197, 0.310552, 0.9175, 0.352806, 0.64323, 3, 455, 246, 21.7832, 0.0629106, 0, 0, 1, 0, 48121
-6286.75, -57294.1, 23.7378, 3.30457, -871.897, 0.400594, 0.218401, 1.03299, 0.34851, 0.655882, 0.0001, 45.5, 246, 5.84482, 0.0706212, 1.73541, 1, 1, 0, 48123
-6286.75, -57294.1, 23.7378, 3.30457, -871.897, 0.400594, 0.218401, 1.03299, 0.34851, 0.655882, 3, 45.5, 246, 5.84482, 0.0706212, 1.31357, 1, 1, 0, 48123
-4112.45, 749925, -258.323, 0.0901292, -1105.97, 0.205446, 0.331416, 0.9175, 0.352806, 0.64323, 0.0001, 455, 246, 31.1904, 0.0879345, 3.78518, 1, 0, 0, 48126
-4112.45, 749925, -258.323, 0.0901292, -1105.97, 0.205446, 0.331416, 0.9175, 0.352806, 0.64323, 3, 455, 246, 31.1904, 0.0879345, 3.66884, 1, 0, 0, 48126
-9849.3, 113334, -103.882, 3.64855, -929.214, -0.0635515, 0.171655, 1.03299, 0.34851, 0.655882, 0.0001, 45.5, 246, 31.5327, 0.106976, 0, 0, 0, 0, 48134
-9849.3, 113334, -103.882, 3.64855, -929.214, -0.0635515, 0.171655, 1.03299, 0.34851, 0.655882, 3, 45.5, 246, 31.5327, 0.106976, 0, 0, 0, 0, 48134
-7893.38, 128058, -146.197, 3.98292, -936.965, 0.000454687, 0.190263, 0.993198, 0.349787, 0.651995, 0.0001, 91, 246, 31.5327, 0.106976, 0, 0, 1, 0, 48134
-7893.38, 128058, -146.197, 3.98292, -936.965, 0.000454687, 0.190263, 0.993198, 0.349787, 0.651995, 3, 91, 246, 31.5327, 0.106976, 0, 0, 1, 0, 48134
-412.521, 169522, -284.445, 5.08416, -1030.07, 0.211215, 0.324002, 0.9175, 0.352806, 0.64323, 0.0001, 455, 246, 31.5327, 0.106976, 1.15959, 1, 0, 0, 48134
-412.521, 169522, -284.445, 5.08416, -1030.07, 0.211215, 0.324002, 0.9175, 0.352806, 0.64323, 3, 455, 246, 31.5327, 0.106976, 1.16884, 1, 0, 0, 48134
-6789.25, -8978.46, -24.5198, 3.28625, -799.244, -0.0504135, 0.209435, 1.03299, 0.34851, 0.655882, 0.0001, 45.5, 246, 21.3991, 0.0344454, 0, 0, 1, 1, 48136
-6789.25, -8978.46, -24.5198, 3.28625, -799.244, -0.0504135, 0.209435, 1.03299, 0.34851, 0.655882, 3, 45.5, 246, 21.3991, 0.0344454, 0, 0, 1, 1, 48136
-7433.15, 205745, -241.904, 1.93803, -1022.04, 0.27001, 0.460863, 0.993198, 0.349787, 0.651995, 3, 91, 246, 44.772, 0.236808, 0, 0, 1, 0, 48141
-3978.24, 654885, -377.455, 0.00874218, -1079.77, 2.3578e-06, 0.526107, 0.993198, 0.349787, 0.651995, 0.0001, 91, 246, 39.5389, 0.150718, 0, 0, 1, 0, 48153
-7380.3, 174957, -284.027, 3.24318, -1020.45, -0.0262899, 0.404629, 1.03299, 0.34851, 0.655882, 0.0001, 45.5, 246, 55.226, 0.24985, 1.16935, 1, 0, 0, 48170
-7380.3, 174957, -284.027, 3.24318, -1020.45, -0.0262899, 0.404629, 1.03299, 0.34851, 0.655882, 3, 45.5, 246, 55.226, 0.24985, 1.0466, 1, 0, 0, 48170
-3935.22, 195056, -342.311, 3.5417, -1048.09, 0.0241736, 0.425522, 0.993198, 0.349787, 0.651995, 0.0001, 91, 246, 55.226, 0.24985, 1.53509, 1, 1, 0, 48170
-3935.22, 195056, -342.311, 3.5417, -1048.09, 0.0241736, 0.425522, 0.993198, 0.349787, 0.651995, 3, 91, 246, 55.226, 0.24985, 1.41453, 1, 1, 0, 48170
-10959.6, 388692, -37.2149, 0.775113, -779.464, 0.00330448, 0.300778, 0.993198, 0.349787, 0.651995, 3, 91, 246, 16.5066, 0.0244089, 0, 0, 1, 0, 48173
-9822.62, 399359, -44.1398, 0.804762, -780.884, 0.00604751, 0.271379, 0.958125, 0.351078, 0.648177, 0.0001, 182, 246, 16.5066, 0.0244089, 0, 0, 1, 0, 48173
-11621.6, 148151, 6.38348, 1.92937, -839.873, -0.001618, 0.285539, 1.03299, 0.34851, 0.655882, 3, 45.5, 246, 12.2012, 0.0189433, 0, 0, 1, 0, 48174
-9450.01, 110796, -41.9668, 1.24216, -1036.31, 0.0419772, 0.337916, 1.03299, 0.34851, 0.655882, 0.0001, 45.5, 246, 21.3571, 0.086528, 0, 0, 1, 0, 48175
-9450.01, 110796, -41.9668, 1.24216, -1036.31, 0.0419772, 0.337916, 1.03299, 0.34851, 0.655882, 3, 45.5, 246, 21.3571, 0.086528, 0, 0, 1, 0, 48175
-8391.65, 223630, -182.221, 1.60695, -1109.31, 0.468209, 0.390663, 0.993198, 0.349787, 0.651995, 0.0001, 91, 246, 36.1938, 0.171521, 0, 0, 1, 0, 48177
-17344.2, 507253, -181.422, 1.62114, -1077.76, 0.225459, 0.362896, 1.03299, 0.34851, 0.655882, 0.0001, 45.5, 246, 32.2012, 0.0901164, 0, 0, 0, 0, 48193
-17344.2, 507253, -181.422, 1.62114, -1077.76, 0.225459, 0.362896, 1.03299, 0.34851, 0.655882, 3, 45.5, 246, 32.2012, 0.0901164, 0, 0, 0, 0, 48193
-9971.79, 125672, -18.8164, 1.26148, -957.818, 0.00876076, 0.32496, 1.03299, 0.34851, 0.655882, 3, 45.5, 246, 16.2181, 0.0476764, 0, 0, 1, 0, 48197
-3347.58, 198436, -323.757, 3.06192, -824.172, 0.0590045, 0.432325, 0.958125, 0.351078, 0.648177, 0.0001, 182, 246, 47.1763, 0.230366, 1.07635, 1, 0, 0, 48205
-9570.5, 298163, -107.972, 0.976698, -1002.1, 0.68596, 0.328041, 0.993198, 0.349787, 0.651995, 0.0001, 91, 246, 24.4547, 0.0814361, 0, 0, 1, 0, 48206
-8993.5, 349641, -275.591, 0.2569, -645.209, 0.505987, 0.543075, 1.03299, 0.34851, 0.655882, 0.0001, 45.5, 246, 34.5326, 0.196245, 0, 0, 1, 0, 48209
-8831.92, 303162, -231.509, 0.82917, -745.448, 0.259642, 0.459004, 0.993198, 0.349787, 0.651995, 0.0001, 91, 246, 34.0669, 0.1843, 0, 0, 1, 0, 48215
-10613, 565253, -81.4538, 0.484168, -696.265, 0.432212, 0.312178, 0.993198, 0.349787, 0.651995, 3, 91, 246, 17.4378, 0.0343641, 0, 0, 1, 0, 48216
-9529.63, 588053, -87.3475, 0.512089, -748.517, 0.465064, 0.281812, 0.958125, 0.351078, 0.648177, 0.0001, 182, 246, 17.4378, 0.0343641, 0, 0, 1, 0, 48216
-7592.62, 93374.5, -129.359, 3.53887, -1180.15, -0.0303378, 0.220498, 1.03299, 0.34851, 0.655882, 0.0001, 45.5, 246, 40.0921, 0.145909, 0, 0, 0, 0, 48219
-7592.62, 93374.5, -129.359, 3.53887, -1180.15, -0.0303378, 0.220498, 1.03299, 0.34851, 0.655882, 3, 45.5, 246, 40.0921, 0.145909, 0, 0, 0, 0, 48219
-5824.29, 118062, -181.611, 3.86684, -1195.05, 0.0297807, 0.238149, 0.993198, 0.349787, 0.651995, 0.0001, 91, 246, 40.0921, 0.145909, 0, 0, 1, 0, 48219
-5824.29, 118062, -181.611, 3.86684, -1195.05, 0.0297807, 0.238149, 0.993198, 0.349787, 0.651995, 3, 91, 246, 40.0921, 0.145909, 0, 0, 1, 0, 48219
-12924, 134846, -7.36728, 3.573, -1175.49, -0.0565887, 0.143615, 1.03299, 0.34851, 0.655882, 0.0001, 45.5, 246, 20.8905, 0.0500543, 0, 0, 0, 0, 48229
-12924, 134846, -7.36728, 3.573, -1175.49, -0.0565887, 0.143615, 1.03299, 0.34851, 0.655882, 3, 45.5, 246, 20.8905, 0.0500543, 0, 0, 0, 0, 48229
-10776.1, 158043, -48.1446, 3.89287, -1173.22, 0.00462914, 0.157901, 0.993198, 0.349787, 0.651995, 0.0001, 91, 246, 20.8905, 0.0500543, 0, 0, 1, 0, 48229
-10776.1, 158043, -48.1446, 3.89287, -1173.22, 0.00462914, 0.157901, 0.993198, 0.349787, 0.651995, 3, 91, 246, 20.8905, 0.0500543, 0, 0, 1, 0, 48229
-9947.01, 90010.7, -9.04951, 1.84328, -851.533, 0.0247863, 0.298118, 1.03299, 0.34851, 0.655882, 0.0001, 45.5, 246, 13.9508, 0.042813, 0, 0, 1, 0, 48232
-9947.01, 90010.7, -9.04951, 1.84328, -851.533, 0.0247863, 0.298118, 1.03299, 0.34851, 0.655882, 3, 45.5, 246, 13.9508, 0.042813, 0, 0, 1, 0, 48232
-10980.1, 551099, -123.99, 0.575726, -1070.38, 0.0598893, 0.363796, 1.03299, 0.34851, 0.655882, 0.0001, 45.5, 246, 27.8106, 0.0582564, 0, 0, 1, 0, 48233
-10980.1, 551099, -123.99, 0.575726, -1070.38, 0.0598893, 0.363796, 1.03299, 0.34851, 0.655882, 3, 45.5, 246, 27.8106, 0.0582564, 0, 0, 0, 0, 48233
-8137.25, 596460, -145.073, 0.622868, -1095.86, 0.0642612, 0.302183, 0.958125, 0.351078, 0.648177, 3, 182, 246, 27.8106, 0.0582564, 0, 0, 1, 0, 48233
-8835.48, 191685, -41.7322, 1.00161, -1085.67, 0.660738, 0.274733, 0.958125, 0.351078, 0.648177, 0.0001, 182, 246, 16.1116, 0.0430408, 0, 0, 1, 0, 48235
-8835.48, 191685, -41.7322, 1.00161, -1085.67, 0.660738, 0.274733, 0.958125, 0.351078, 0.648177, 3, 182, 246, 16.1116, 0.0430408, 0, 0, 1, 0, 48235
-8726.11, 182804, -131.458, 1.77605, -1053.37, 0.103742, 0.339067, 0.993198, 0.349787, 0.651995, 0.0001, 91, 246, 31.3861, 0.139846, 0, 0, 1, 0, 48239
176.083, 267098, -313.097, 4.70547, -1290.75, 1.64745, 0.344503, 0.9175, 0.352806, 0.64323, 3, 455, 246, 30.2102, 0.118855, 1.0241, 1, 0, 0, 48240
-10247.7, 198295, -305.956, 3.28818, -576.197, -0.0478529, 0.374071, 1.03299, 0.34851, 0.655882, 0.0001, 45.5, 246, 48.241, 0.224039, 1.23375, 1, 0, 0, 48243
-10247.7, 198295, -305.956, 3.28818, -576.197, -0.0478529, 0.374071, 1.03299, 0.34851, 0.655882, 3, 45.5, 246, 48.241, 0.224039, 1.07141, 1, 0, 0, 48243
-6491.29, 205543, -352.695, 3.5868, -603.862, 0.00404163, 0.393905, 0.993198, 0.349787, 0.651995, 0.0001, 91, 246, 48.241, 0.224039, 1.40946, 1, 1, 0, 48243
-6491.29, 205543, -352.695, 3.5868, -603.862, 0.00404163, 0.393905, 0.993198, 0.349787, 0.651995, 3, 91, 246, 48.241, 0.224039, 1.29657, 1, 1, 0, 48243
-1870.36, 215000, -408.508, 3.94243, -644.895, 0.0663475, 0.432439, 0.958125, 0.351078, 0.648177, 0.0001, 182, 246, 48.241, 0.224039, 2.34539, 1, 0, 0, 48243
-1870.36, 215000, -408.508, 3.94243, -644.895, 0.0663475, 0.432439, 0.958125, 0.351078, 0.648177, 3, 182, 246, 48.241, 0.224039, 2.18064, 1, 0, 0, 48243
-9356.26, 162560, -79.9414, 1.0155, -1125.95, 0.0406977, 0.365482, 1.03299, 0.34851, 0.655882, 3, 45.5, 246, 27.2499, 0.11562, 0, 0, 1, 0, 48246
-10498.7, 160738, -125.087, 2.06351, -751.983, 0.435031, 0.334081, 1.03299, 0.34851, 0.655882, 0.0001, 45.5, 246, 30.2835, 0.135359, 0, 0, 1, 0, 48249
-9001.74, 175556, -148.696, 2.25444, -816.87, 0.489101, 0.318425, 0.993198, 0.349787, 0.651995, 3, 91, 246, 30.2835, 0.135359, 0, 0, 1, 0, 48249
-9351.37, 49610.8, 5.78565, 2.54966, -1006.38, -0.010803, 0.25589, 1.03299, 0.34851, 0.655882, 0.0001, 45.5, 246, 13.5066, 0.0436757, 1.08914, 1, 1, 0, 48252
-9351.37, 49610.8, 5.78565, 2.54966, -1006.38, -0.010803, 0.25589, 1.03299, 0.34851, 0.655882, 3, 45.5, 246, 13.5066, 0.0436757, 1.02332, 1, 1, 0, 48252
-8896.33, 66985.1, -17.966, 2.7371, -1007.45, 0.0198568, 0.245459, 0.993198, 0.349787, 0.651995, 0.0001, 91, 246, 13.5066, 0.0436757, 0, 0, 1, 0, 48252
-6533.29, 109287, -89.1046, 3.27538, -1040.85, 0.113057, 0.265274, 0.9175, 0.352806, 0.64323, 3, 455, 246, 13.5066, 0.0436757, 0, 0, 1, 0, 48252
-7455.28, 105793, -159.029, 2.21205, -937.219, -0.0229157, 0.387671, 1.03299, 0.34851, 0.655882, 3, 45.5, 246, 46.1153, 0.235708, 0, 0, 1, 0, 48264
-1662.68, 161973, -278.218, 2.79529, -994.09, 0.0681364, 0.393905, 0.9175, 0.352806, 0.64323, 3, 455, 246, 46.1153, 0.235708, 1.05727, 1, 0, 0, 48264
-10586.3, 95206.5, -21.0622, 2.94749, -996.425, 0.251445, 0.21727, 1.03299, 0.34851, 0.655882, 0.0001, 45.5, 246, 19.6407, 0.0578667, 0, 0, 1, 0, 48265
-10586.3, 95206.5, -21.0622, 2.94749, -996.425, 0.251445, 0.21727, 1.03299, 0.34851, 0.655882, 3, 45.5, 246, 19.6407, 0.0578667, 0, 0, 1, 0, 48265
-7204.75, 111293, -181.857, 2.27864, -737.87, -0.0235276, 0.39202, 1.03299, 0.34851, 0.655882, 3, 45.5, 246, 47.5945, 0.239597, 0, 0, 1, 0, 48269
-1127.62, 148323, -294.479, 2.89627, -799.633, 0.0736958, 0.406192, 0.9175, 0.352806, 0.64323, 0.0001, 455, 246, 47.5945, 0.239597, 1.48364, 1, 0, 0, 48269
-1127.62, 148323, -294.479, 2.89627, -799.633, 0.0736958, 0.406192, 0.9175, 0.352806, 0.64323, 3, 455, 246, 47.5945, 0.239597, 1.5036, 1, 0, 0, 48269
-9286.23, 55484.2, -8.50661, 3.55284, -993.857, -0.0602672, 0.16055, 1.03299, 0.34851, 0.655882, 0.0001, 45.5, 246, 17.9962, 0.05342, 1.02086, 1, 0, 0, 48273
-8437.16, 72083.4, -42.9922, 3.87038, -991.52, 0.000291057, 0.17503, 0.993198, 0.349787, 0.651995, 0.0001, 91, 246, 17.9962, 0.05342, 0, 0, 1, 0, 48273
-8437.16, 72083.4, -42.9922, 3.87038, -991.52, 0.000291057, 0.17503, 0.993198, 0.349787, 0.651995, 3, 91, 246, 17.9962, 0.05342, 0, 0, 1, 0, 48273
-8450.46, 629662, -345.102, 0.256244, -879.05, 0.0482676, 0.523823, 1.03299, 0.34851, 0.655882, 0.0001, 45.5, 246, 35.1783, 0.142365, 0, 0, 0, 0, 48279
-8450.46, 629662, -345.102, 0.256244, -879.05, 0.0482676, 0.523823, 1.03299, 0.34851, 0.655882, 3, 45.5, 246, 35.1783, 0.142365, 0, 0, 0, 0, 48279
-10882.8, 269559, -103.753, 0.987351, -765.834, 0.389459, 0.362103, 1.03299, 0.34851, 0.655882, 0.0001, 45.5, 246, 23.5315, 0.0905718, 0, 0, 1, 0, 48284
-10882.8, 269559, -103.753, 0.987351, -765.834, 0.389459, 0.362103, 1.03299, 0.34851, 0.655882, 3, 45.5, 246, 23.5315, 0.0905718, 0, 0, 1, 0, 48284
-9810.9, 286520, -115.764, 1.05483, -819.4, 0.419875, 0.332099, 0.993198, 0.349787, 0.651995, 0.0001, 91, 246, 23.5315, 0.0905718, 0, 0, 1, 0, 48284
-10401.2, 382758, -346.204, 0.43737, -640.913, 0.0504201, 0.649258, 1.03299, 0.34851, 0.655882, 0.0001, 45.5, 246, 40.2036, 0.239752, 0, 0, 0, 0, 48285
-10401.2, 382758, -346.204, 0.43737, -640.913, 0.0504201, 0.649258, 1.03299, 0.34851, 0.655882, 3, 45.5, 246, 40.2036, 0.239752, 0, 0, 0, 0, 48285
-7091.18, 404271, -381.827, 0.478093, -660.326, 0.053106, 0.639091, 0.958125, 0.351078, 0.648177, 0.0001, 182, 246, 40.2036, 0.239752, 0, 0, 0, 0, 48285
-10603.4, 446180, -229.058, 0.858637, -1094.23, 0.00365768, 0.447007, 1.03299, 0.34851, 0.655882, 0.0001, 45.5, 246, 35.7285, 0.131721, 0, 0, 0, 0, 48294
-10603.4, 446180, -229.058, 0.858637, -1094.23, 0.00365768, 0.447007, 1.03299, 0.34851, 0.655882, 3, 45.5, 246, 35.7285, 0.131721, 0, 0, 0, 0, 48294
-7468.87, 87910, -106.48, 3.08718, -1084.72, 0.129071, 0.256779, 0.993198, 0.349787, 0.651995, 0.0001, 91, 246, 30.5527, 0.11382, 0, 0, 1, 0, 48299
-7468.87, 87910, -106.48, 3.08718, -1084.72, 0.129071, 0.256779, 0.993198, 0.349787, 0.651995, 3, 91, 246, 30.5527, 0.11382, 0, 0, 1, 0, 48299
-7999.51, 26823.8, -64.703, 3.82316, -911.066, 0.834432, 0.289164, 0.9175, 0.352806, 0.64323, 3, 455, 246, 6.52776, 0.0358011, 0, 0, 1, 0, 48304
-6497.57, 200395, -301.069, 3.59064, -925.55, 0.719209, 0.334109, 0.993198, 0.349787, 0.651995, 0.0001, 91, 246, 45.0715, 0.191465, 1.02572, 1, 1, 0, 48310
-2033.09, 228656, -365.584, 4.10754, -1085.55, 0.884701, 0.370926, 0.958125, 0.351078, 0.648177, 0.0001, 182, 246, 45.0715, 0.191465, 1.99191, 1, 0, 0, 48310
-2033.09, 228656, -365.584, 4.10754, -1085.55, 0.884701, 0.370926, 0.958125, 0.351078, 0.648177, 3, 182, 246, 45.0715, 0.191465, 1.82836, 1, 0, 0, 48310
-9054.72, 331412, -129.044, 0.754073, -1031.18, 0.79879, 0.343094, 0.993198, 0.349787, 0.651995, 0.0001, 91, 246, 26.0795, 0.0896166, 0, 0, 1, 0, 48319
-10835.2, 307603, -93.3717, 0.992915, -1174.74, 0.00613848, 0.356649, 1.03299, 0.34851, 0.655882, 0.0001, 45.5, 246, 27.6379, 0.0780852, 0, 0, 1, 0, 48323
-10835.2, 307603, -93.3717, 0.992915, -1174.74, 0.00613848, 0.356649, 1.03299, 0.34851, 0.655882, 3, 45.5, 246, 27.6379, 0.0780852, 0, 0, 1, 0, 48323
-9593.67, 332054, -108.355, 1.03863, -1179, 0.0106794, 0.326193, 0.993198, 0.349787, 0.651995, 3, 91, 246, 27.6379, 0.0780852, 0, 0, 1, 0, 48323
-10144, 95358.9, -52.7127, 3.01477, -729.136, -0.0379924, 0.218938, 1.03299, 0.34851, 0.655882, 0.0001, 45.5, 246, 21.4094, 0.0723727, 0, 0, 1, 0, 48325
-10144, 95358.9, -52.7127, 3.01477, -729.136, -0.0379924, 0.218938, 1.03299, 0.34851, 0.655882, 3, 45.5, 246, 21.4094, 0.0723727, 0, 0, 1, 0, 48325
-10183.4, 340198, -48.9628, 1.6296, -944.622, 0.0689041, 0.258514, 0.958125, 0.351078, 0.648177, 3, 182, 246, 18.1115, 0.0266722, 0, 0, 1, 0, 48339
-12398.5, 138924, -44.7977, 3.39239, -972.834, 0.192697, 0.16814, 1.03299, 0.34851, 0.655882, 0.0001, 45.5, 246, 22.883, 0.065503, 0, 0, 0, 0, 48340
-12398.5, 138924, -44.7977, 3.39239, -972.834, 0.192697, 0.16814, 1.03299, 0.34851, 0.655882, 3, 45.5, 246, 22.883, 0.065503, 0, 0, 0, 0, 48340
-6872.08, 433398, -528.22, 3.90113, -834.574, 0.493008, 0.534835, 0.958125, 0.351078, 0.648177, 0.0001, 182, 246, 42.6625, 0.199492, 1.77624, 1, 0, 0, 48355
-6872.08, 433398, -528.22, 3.90113, -834.574, 0.493008, 0.534835, 0.958125, 0.351078, 0.648177, 3, 182, 246, 42.6625, 0.199492, 1.90076, 1, 0, 0, 48355
-12137.8, 282872, -109.096, 1.25896, -708.043, 0.556462, 0.351128, 1.03299, 0.34851, 0.655882, 3, 45.5, 246, 22.93, 0.0864262, 0, 0, 1, 0, 48356
-5703.15, 247134, -366.381, 3.18954, -1167.42, 0.760926, 0.478234, 0.993198, 0.349787, 0.651995, 0.0001, 91, 246, 52.4008, 0.242507, 1.03453, 1, 1, 0, 48359
-10715.3, 651959, -28.9485, 0.607476, -999.901, 0.00164743, 0.269807, 0.958125, 0.351078, 0.648177, 3, 182, 246, 21.3335, 0.0100553, 0, 0, 1, 0, 48371
-10176.7, 306459, -436.833, 3.35504, -650.195, 0.204636, 0.514872, 0.993198, 0.349787, 0.651995, 0.0001, 91, 246, 47.4523, 0.235011, 1.22184, 1, 1, 0, 48376
-10176.7, 306459, -436.833, 3.35504, -650.195, 0.204636, 0.514872, 0.993198, 0.349787, 0.651995, 3, 91, 246, 47.4523, 0.235011, 1.11035, 1, 1, 0, 48376
-3591.84, 321967, -501.119, 3.72419, -719.226, 0.268284, 0.556178, 0.958125, 0.351078, 0.648177, 0.0001, 182, 246, 47.4523, 0.235011, 3.86573, 1, 0, 0, 48376
-3591.84, 321967, -501.119, 3.72419, -719.226, 0.268284, 0.556178, 0.958125, 0.351078, 0.648177, 3, 182, 246, 47.4523, 0.235011, 3.42695, 1, 0, 0, 48376
-4007.56, 335357, -432.563, 3.36948, -980.188, 0.522569, 0.494878, 0.958125, 0.351078, 0.648177, 0.0001, 182, 246, 44.9953, 0.211196, 1.11956, 1, 0, 0, 48377
-6791.19, 82983, -146.116, 3.41326, -824.788, -0.0508692, 0.223259, 1.03299, 0.34851, 0.655882, 3, 45.5, 246, 40.942, 0.143303, 0, 0, 1, 0, 48380
-3275.31, 108420, -234.453, 4.07758, -863.795, 0.0717317, 0.268836, 0.958125, 0.351078, 0.648177, 0.0001, 182, 246, 40.942, 0.143303, 1.11332, 1, 1, 0, 48380
563.091, 129585, -315.487, 4.68721, -929.044, 0.186114, 0.346426, 0.9175, 0.352806, 0.64323, 0.0001, 455, 246, 40.942, 0.143303, 2.06025, 1, 0, 0, 48380
563.091, 129585, -315.487, 4.68721, -929.044, 0.186114, 0.346426, 0.9175, 0.352806, 0.64323, 3, 455, 246, 40.942, 0.143303, 2.0601, 1, 0, 0, 48380
-9306.86, 484442, -544.001, 4.18534, -716.02, 0.107629, 0.489485, 0.958125, 0.351078, 0.648177, 0.0001, 182, 246, 40.6127, 0.188066, 0, 0, 0, 0, 48381
-9306.86, 484442, -544.001, 4.18534, -716.02, 0.107629, 0.489485, 0.958125, 0.351078, 0.648177, 3, 182, 246, 40.6127, 0.188066, 2.30317, 1, 0, 0, 48381
-8822.97, 798326, -241.269, 0.265314, -922.743, 0.00932528, 0.410406, 1.03299, 0.34851, 0.655882, 0.0001, 45.5, 246, 29.7421, 0.0778622, 0, 0, 0, 0, 48384
-8822.97, 798326, -241.269, 0.265314, -922.743, 0.00932528, 0.410406, 1.03299, 0.34851, 0.655882, 3, 45.5, 246, 29.7421, 0.0778622, 0, 0, 0, 0, 48384
-11349.5, 144329, -92.7682, 3.20839, -963.075, -0.0383117, 0.217011, 1.03299, 0.34851, 0.655882, 0.0001, 45.5, 246, 29.1172, 0.101961, 0, 0, 0, 0, 48386
-11349.5, 144329, -92.7682, 3.20839, -963.075, -0.0383117, 0.217011, 1.03299, 0.34851, 0.655882, 3, 45.5, 246, 29.1172, 0.101961, 0, 0, 0, 0, 48386
-6528.99, 177317, -174.557, 3.80047, -991.291, 0.0691277, 0.245882, 0.958125, 0.351078, 0.648177, 0.0001, 182, 246, 29.1172, 0.101961, 0, 0, 1, 0, 48386
-6528.99, 177317, -174.557, 3.80047, -991.291, 0.0691277, 0.245882, 0.958125, 0.351078, 0.648177, 3, 182, 246, 29.1172, 0.101961, 0, 0, 1, 0, 48386
-17867, 268316, -138.505, 3.34655, -696.222, 0.0339003, 0.196835, 1.03299, 0.34851, 0.655882, 0.0001, 45.5, 246, 26.6909, 0.0963195, 0, 0, 0, 0, 48393
-17867, 268316, -138.505, 3.34655, -696.222, 0.0339003, 0.196835, 1.03299, 0.34851, 0.655882, 3, 45.5, 246, 26.6909, 0.0963195, 0, 0, 0, 0, 48393
-9471.71, 71571, -26.5209, 2.25255, -775.301, -0.00705983, 0.279639, 1.03299, 0.34851, 0.655882, 0.0001, 45.5, 246, 17.4047, 0.0630611, 0, 0, 1, 0, 48394
-9471.71, 71571, -26.5209, 2.25255, -775.301, -0.00705983, 0.279639, 1.03299, 0.34851, 0.655882, 3, 45.5, 246, 17.4047, 0.0630611, 0, 0, 1, 0, 48394
-5991.03, 904265, -234.824, 0.120265, -1043.36, 0.189161, 0.363182, 0.993198, 0.349787, 0.651995, 0.0001, 91, 246, 30.5876, 0.0637458, 0, 0, 1, 0, 48396
-9359.5, 60616.4, -19.3305, 2.89204, -787.446, -0.0301355, 0.227938, 1.03299, 0.34851, 0.655882, 0.0001, 45.5, 246, 16.6514, 0.0532083, 0, 0, 1, 0, 48398
-11342.6, 415864, -49.0874, 0.609903, -879.816, 0.0990012, 0.341178, 1.03299, 0.34851, 0.655882, 0.0001, 45.5, 246, 19.6861, 0.0322873, 0, 0, 1, 0, 48401
-11342.6, 415864, -49.0874, 0.609903, -879.816, 0.0990012, 0.341178, 1.03299, 0.34851, 0.655882, 3, 45.5, 246, 19.6861, 0.0322873, 0, 0, 1, 0, 48401
-10445.9, 431861, -55.8927, 0.636398, -894.786, 0.102307, 0.306668, 0.993198, 0.349787, 0.651995, 0.0001, 91, 246, 19.6861, 0.0322873, 0, 0, 1, 0, 48401
-5443.89, 381140, -499.216, 4.32163, -828.371, 0.079339, 0.472711, 0.958125, 0.351078, 0.648177, 3, 182, 246, 44.4099, 0.198074, 3.90569, 1, 0, 0, 48404
-8451.24, 420735, -299.006, 0.622934, -1188.57, 0.0303335, 0.546875, 1.03299, 0.34851, 0.655882, 0.0001, 45.5, 246, 42.5508, 0.184588, 0, 0, 0, 0, 48405
-8451.24, 420735, -299.006, 0.622934, -1188.57, 0.0303335, 0.546875, 1.03299, 0.34851, 0.655882, 3, 45.5, 246, 42.5508, 0.184588, 0, 0, 0, 0, 48405
-13849.7, 354068, -163.136, 2.77312, -1010.77, 0.253737, 0.268693, 0.993198, 0.349787, 0.651995, 0.0001, 91, 246, 28.8962, 0.089717, 0, 0, 1, 0, 48409
-13849.7, 354068, -163.136, 2.77312, -1010.77, 0.253737, 0.268693, 0.993198, 0.349787, 0.651995, 3, 91, 246, 28.8962, 0.089717, 0, 0, 1, 0, 48409
-7765.6, -6449.97, 8.24159, 2.91221, -1058.83, 0.0581941, 0.240257, 1.03299, 0.34851, 0.655882, 3, 45.5, 246, 13.4869, 0.0567119, 0, 0, 1, 0, 48427
-10070.5, 201783, -266.43, 2.7799, -790.494, -0.0213765, 0.419876, 1.03299, 0.34851, 0.655882, 3, 45.5, 246, 47.3552, 0.227335, 0, 0, 0, 0, 48428
-3064.86, 228146, -360.076, 3.27517, -844.435, 0.0588991, 0.44954, 0.958125, 0.351078, 0.648177, 0.0001, 182, 246, 47.3552, 0.227335, 1.36322, 1, 0, 0, 48428
-3064.86, 228146, -360.076, 3.27517, -844.435, 0.0588991, 0.44954, 0.958125, 0.351078, 0.648177, 3, 182, 246, 47.3552, 0.227335, 1.11973, 1, 0, 0, 48428
-5390.38, 83680.5, -177.069, 2.82157, -847.513, -0.0374786, 0.323467, 1.03299, 0.34851, 0.655882, 0.0001, 45.5, 246, 51.4263, 0.216544, 1.14103, 1, 1, 0, 48430
-4018.25, 96795.7, -214.206, 3.04662, -860.044, 0.000341998, 0.324953, 0.993198, 0.349787, 0.651995, 0.0001, 91, 246, 51.4263, 0.216544, 1.20193, 1, 1, 0, 48430
-2161.8, 111022, -257.361, 3.30526, -882.744, 0.0446522, 0.339937, 0.958125, 0.351078, 0.648177, 0.0001, 182, 246, 51.4263, 0.216544, 1.52893, 1, 1, 0, 48430
-2161.8, 111022, -257.361, 3.30526, -882.744, 0.0446522, 0.339937, 0.958125, 0.351078, 0.648177, 3, 182, 246, 51.4263, 0.216544, 1.36706, 1, 1, 0, 48430
1281.65, 132681, -326.964, 3.71917, -933.391, 0.117394, 0.382593, 0.9175, 0.352806, 0.64323, 0.0001, 455, 246, 51.4263, 0.216544, 4.35706, 1, 0, 0, 48430
1281.65, 132681, -326.964, 3.71917, -933.391, 0.117394, 0.382593, 0.9175, 0.352806, 0.64323, 3, 455, 246, 51.4263, 0.216544, 4.36352, 1, 0, 0, 48430
-10459, 160690, -122.867, 2.37854, -978.74, -0.0231313, 0.320881, 1.03299, 0.34851, 0.655882, 0.0001, 45.5, 246, 33.1143, 0.13954, 0, 0, 1, 0, 48431
-10459, 160690, -122.867, 2.37854, -978.74, -0.0231313, 0.320881, 1.03299, 0.34851, 0.655882, 3, 45.5, 246, 33.1143, 0.13954, 0, 0, 1, 0, 48431
-10016.4, 343262, -439.576, 3.81954, -972.549, 9.66984e-05, 0.467706, 0.993198, 0.349787, 0.651995, 0.0001, 91, 246, 50.319, 0.221251, 1.19029, 1, 1, 0, 48433
-10016.4, 343262, -439.576, 3.81954, -972.549, 9.66984e-05, 0.467706, 0.993198, 0.349787, 0.651995, 3, 91, 246, 50.319, 0.221251, 1.09585, 1, 1, 0, 48433
-8172.46, 233071, -324.294, 3.76589, -811.347, 0.476986, 0.329392, 0.993198, 0.349787, 0.651995, 0.0001, 91, 246, 43.3188, 0.186047, 1.01319, 1, 1, 0, 48441
-2924.1, 254829, -388.58, 4.26033, -921.541, 0.592245, 0.371761, 0.958125, 0.351078, 0.648177, 0.0001, 182, 246, 43.3188, 0.186047, 1.99371, 1, 0, 0, 48441
-2924.1, 254829, -388.58, 4.26033, -921.541, 0.592245, 0.371761, 0.958125, 0.351078, 0.648177, 3, 182, 246, 43.3188, 0.186047, 1.83312, 1, 0, 0, 48441
-6542.8, 50374.2, -156.226, 3.93137, -1166.14, 0.210476, 0.317241, 0.9175, 0.352806, 0.64323, 3, 455, 246, 26.7351, 0.00469535, 0, 0, 1, 1, 48445
-7219.26, 90491.2, -117.863, 3.16144, -1066.42, 0.00408864, 0.257384, 0.993198, 0.349787, 0.651995, 0.0001, 91, 246, 32.4292, 0.121586, 0, 0, 1, 0, 48446
-7219.26, 90491.2, -117.863, 3.16144, -1066.42, 0.00408864, 0.257384, 0.993198, 0.349787, 0.651995, 3, 91, 246, 32.4292, 0.121586, 0, 0, 1, 0, 48446
-10203.8, 223856, -258.433, 2.06444, -970.298, 0.601611, 0.481243, 1.03299, 0.34851, 0.655882, 0.0001, 45.5, 246, 45.858, 0.225823, 0, 0, 0, 0, 48448
-10203.8, 223856, -258.433, 2.06444, -970.298, 0.601611, 0.481243, 1.03299, 0.34851, 0.655882, 3, 45.5, 246, 45.858, 0.225823, 0, 0, 0, 0, 48448
-11443, 341995, -195.686, 1.0069, -747.472, 0.291798, 0.426561, 1.03299, 0.34851, 0.655882, 0.0001, 45.5, 246, 30.1133, 0.137126, 0, 0, 1, 0, 48461
-11443, 341995, -195.686, 1.0069, -747.472, 0.291798, 0.426561, 1.03299, 0.34851, 0.655882, 3, 45.5, 246, 30.1133, 0.137126, 0, 0, 0, 0, 48461
-9876.59, 160584, -159.29, 2.426, -1004.69, 0.670565, 0.339287, 1.03299, 0.34851, 0.655882, 3, 45.5, 246, 37.8968, 0.162373, 0, 0, 0, 0, 48463
428.531, 220627, -307.089, 5.39079, -1596.7, 1.61276, 0.34193, 0.9175, 0.352806, 0.64323, 0.0001, 455, 246, 30.4829, 0.103451, 1.94921, 1, 0, 0, 48469
428.531, 220627, -307.089, 5.39079, -1596.7, 1.61276, 0.34193, 0.9175, 0.352806, 0.64323, 3, 455, 246, 30.4829, 0.103451, 2.12501, 1, 0, 0, 48469
-7067.26, 491032, -319.442, 0.24595, -1069.79, 0.187639, 0.540533, 1.03299, 0.34851, 0.655882, 0.0001, 45.5, 246, 39.6352, 0.166603, 0, 0, 0, 0, 48472
-3073.92, 188336, -308.252, 4.41008, -931.123, 0.432426, 0.293687, 0.958125, 0.351078, 0.648177, 0.0001, 182, 246, 40.6402, 0.158487, 1.32573, 1, 0, 0, 48473
-3073.92, 188336, -308.252, 4.41008, -931.123, 0.432426, 0.293687, 0.958125, 0.351078, 0.648177, 3, 182, 246, 40.6402, 0.158487, 1.12277, 1, 0, 0, 48473
-9653.19, 360416, -496.636, 3.79654, -999.369, 0.230751, 0.545619, 0.993198, 0.349787, 0.651995, 0.0001, 91, 246, 53.2809, 0.240037, 1.41842, 1, 1, 0, 48474
-9653.19, 360416, -496.636, 3.79654, -999.369, 0.230751, 0.545619, 0.993198, 0.349787, 0.651995, 3, 91, 246, 53.2809, 0.240037, 1.3545, 1, 1, 0, 48474
513.508, 425206, -355.985, 3.18727, -1085.74, 0.135741, 0.369112, 0.9175, 0.352806, 0.64323, 3, 455, 246, 35.0305, 0.131581, 0, 0, 0, 0, 48475
-9329.21, 192672, -287.514, 2.77483, -696.952, -0.0328928, 0.446278, 1.03299, 0.34851, 0.655882, 0.0001, 45.5, 246, 50.0316, 0.246788, 1.04326, 1, 0, 0, 48476
-6221.88, 202572, -330.211, 3.00449, -718.75, 0.00376773, 0.456313, 0.993198, 0.349787, 0.651995, 0.0001, 91, 246, 50.0316, 0.246788, 1.09339, 1, 1, 0, 48476
-2375.53, 214273, -379.912, 3.26947, -750.916, 0.047016, 0.480242, 0.958125, 0.351078, 0.648177, 0.0001, 182, 246, 50.0316, 0.246788, 1.79111, 1, 0, 0, 48476
-2375.53, 214273, -379.912, 3.26947, -750.916, 0.047016, 0.480242, 0.958125, 0.351078, 0.648177, 3, 182, 246, 50.0316, 0.246788, 1.6197, 1, 0, 0, 48476
-11461.2, 242105, -356.119, 3.54385, -797.604, -0.0559716, 0.415047, 1.03299, 0.34851, 0.655882, 0.0001, 45.5, 246, 52.9749, 0.240126, 1.13078, 1, 0, 0, 48478
-11461.2, 242105, -356.119, 3.54385, -797.604, -0.0559716, 0.415047, 1.03299, 0.34851, 0.655882, 3, 45.5, 246, 52.9749, 0.240126, 1.05241, 1, 0, 0, 48478
-6358.26, 255425, -419.086, 3.88858, -832.058, 0.00468201, 0.447267, 0.993198, 0.349787, 0.651995, 0.0001, 91, 246, 52.9749, 0.240126, 1.6436, 1, 1, 0, 48478
-6358.26, 255425, -419.086, 3.88858, -832.058, 0.00468201, 0.447267, 0.993198, 0.349787, 0.651995, 3, 91, 246, 52.9749, 0.240126, 1.56367, 1, 1, 0, 48478
-6794.63, 1.09931e+06, -122.287, 0.50639, -1393.35, 0.85568, 0.246064, 0.9175, 0.352806, 0.64323, 3, 455, 246, 25.3243, 0.0253474, 0, 0, 0, 0, 48479
-14477.3, 397494, -493.638, 3.58394, -752.386, 0.494115, 0.532051, 0.993198, 0.349787, 0.651995, 0.0001, 91, 246, 45.6411, 0.215548, 1.00548, 1, 1, 0, 48488
-4818.66, 41811, -136.02, 3.54291, -711.943, 0.123252, 0.184858, 1.03299, 0.34851, 0.655882, 0.0001, 45.5, 246, 43.4805, 0.0989234, 1.26159, 1, 1, 0, 48491
-3948.52, 51611.7, -173.335, 3.90057, -744.807, 0.187738, 0.201009, 0.993198, 0.349787, 0.651995, 0.0001, 91, 246, 43.4805, 0.0989234, 1.02684, 1, 1, 0, 48491
-2650.41, 63083.4, -219.419, 4.33577, -793.625, 0.270215, 0.239141, 0.958125, 0.351078, 0.648177, 0.0001, 182, 246, 43.4805, 0.0989234, 1.17073, 1, 1, 0, 48491
-2650.41, 63083.4, -219.419, 4.33577, -793.625, 0.270215, 0.239141, 0.958125, 0.351078, 0.648177, 3, 182, 246, 43.4805, 0.0989234, 1.00768, 1, 1, 0, 48491
63.3065, 82634.9, -300.78, 5.09373, -896.106, 0.42305, 0.332193, 0.9175, 0.352806, 0.64323, 0.0001, 455, 246, 43.4805, 0.0989234, 1.67295, 1, 1, 0, 48491
63.3065, 82634.9, -300.78, 5.09373, -896.106, 0.42305, 0.332193, 0.9175, 0.352806, 0.64323, 3, 455, 246, 43.4805, 0.0989234, 1.5901, 1, 1, 0, 48491
-6757.62, 610.607, -22.913, 3.57163, -1119.32, 0.273374, 0.17813, 1.03299, 0.34851, 0.655882, 0.0001, 45.5, 246, 23.8475, 0.0662052, 0, 0, 1, 0, 48496
-6757.62, 610.607, -22.913, 3.57163, -1119.32, 0.273374, 0.17813, 1.03299, 0.34851, 0.655882, 3, 45.5, 246, 23.8475, 0.0662052, 0, 0, 1, 0, 48496
-6927.5, 467297, -525.224, 3.94654, -912.871, 0.244117, 0.506797, 0.958125, 0.351078, 0.648177, 3, 182, 246, 43.3153, 0.19122, 0, 0, 0, 0, 48500
