-9893.19, 112664, -75.8273, 2.30124, -753.307, -0.0247714, 0.292765, 1.03299, 0.34851, 0.655882, 0.0001, 45.5, 246, 25.4228, 0.104684, 0, 0, 1, 0, 199505
-9893.19, 112664, -75.8273, 2.30124, -753.307, -0.0247714, 0.292765, 1.03299, 0.34851, 0.655882, 3, 45.5, 246, 25.4228, 0.104684, 0, 0, 1, 0, 199505
-8349.23, 643500, -367.88, 0.0634373, -655.856, 0.684056, 0.520024, 1.03299, 0.34851, 0.655882, 0.0001, 45.5, 246, 30.0157, 0.131945, 0, 0, 0, 0, 199506
-7171.89, 679645, -380.37, 0.0680676, -736.029, 0.766981, 0.498535, 0.993198, 0.349787, 0.651995, 3, 91, 246, 30.0157, 0.131945, 0, 0, 1, 0, 199506
-7034.14, 443367, -232.839, 0.421311, -1159.2, 0.493783, 0.421071, 0.993198, 0.349787, 0.651995, 0.0001, 91, 246, 34.5563, 0.13015, 0, 0, 1, 0, 199507
-5821.73, 482512, -245.654, 0.447994, -1260.24, 0.536472, 0.398213, 0.958125, 0.351078, 0.648177, 0.0001, 182, 246, 34.5563, 0.13015, 0, 0, 0, 0, 199507
-11102.9, 348970, -131.532, 3.25906, -791.527, 0.118526, 0.225468, 0.958125, 0.351078, 0.648177, 0.0001, 182, 246, 21.0831, 0.057291, 0, 0, 1, 0, 199508
-11102.9, 348970, -131.532, 3.25906, -791.527, 0.118526, 0.225468, 0.958125, 0.351078, 0.648177, 3, 182, 246, 21.0831, 0.057291, 0, 0, 1, 0, 199508
-9727.33, 464324, -414.895, 0.318897, -801.364, 0.262468, 0.698037, 1.03299, 0.34851, 0.655882, 0.0001, 45.5, 246, 42.7561, 0.231347, 0, 0, 0, 0, 199511
-9727.33, 464324, -414.895, 0.318897, -801.364, 0.262468, 0.698037, 1.03299, 0.34851, 0.655882, 3, 45.5, 246, 42.7561, 0.231347, 0, 0, 0, 0, 199511
-5504.93, 509783, -455.619, 0.356372, -882.069, 0.287299, 0.69824, 0.958125, 0.351078, 0.648177, 3, 182, 246, 42.7561, 0.231347, 0, 0, 0, 0, 199511
-6775.86, 738481, -392.844, 0.104339, -948.034, 0.0179332, 0.541957, 1.03299, 0.34851, 0.655882, 0.0001, 45.5, 246, 36.8895, 0.138179, 0, 0, 0, 0, 199517
-6775.86, 738481, -392.844, 0.104339, -948.034, 0.0179332, 0.541957, 1.03299, 0.34851, 0.655882, 3, 45.5, 246, 36.8895, 0.138179, 0, 0, 0, 0, 199517
-1824.95, 228314, -345.655, 4.27758, -1331.2, 1.10782, 0.342765, 0.958125, 0.351078, 0.648177, 0.0001, 182, 246, 44.4157, 0.178688, 1.87514, 1, 0, 0, 199518
-1824.95, 228314, -345.655, 4.27758, -1331.2, 1.10782, 0.342765, 0.958125, 0.351078, 0.648177, 3, 182, 246, 44.4157, 0.178688, 1.70678, 1, 0, 0, 199518
-11082.6, 159090, -70.2684, 2.20485, -1082.25, 0.0217338, 0.298483, 1.03299, 0.34851, 0.655882, 0.0001, 45.5, 246, 26.5561, 0.0941984, 0, 0, 1, 0, 199524
-11082.6, 159090, -70.2684, 2.20485, -1082.25, 0.0217338, 0.298483, 1.03299, 0.34851, 0.655882, 3, 45.5, 246, 26.5561, 0.0941984, 0, 0, 1, 0, 199524
-8032.93, 276142, -224.655, 0.966423, -1041.05, 0.192397, 0.466128, 0.993198, 0.349787, 0.651995, 0.0001, 91, 246, 38.9854, 0.201245, 0, 0, 1, 0, 199527
-6069.31, 1952.16, -59.4758, 3.47219, -761.635, -0.0459283, 0.190668, 1.03299, 0.34851, 0.655882, 0.0001, 45.5, 246, 30.7566, 0.0315934, 0, 0, 1, 1, 199528
-6069.31, 1952.16, -59.4758, 3.47219, -761.635, -0.0459283, 0.190668, 1.03299, 0.34851, 0.655882, 3, 45.5, 246, 30.7566, 0.0315934, 0, 0, 1, 1, 199528
-8762.46, 323149, -134.857, 0.738703, -1031.82, 5.0321e-05, 0.352735, 0.993198, 0.349787, 0.651995, 0.0001, 91, 246, 28.3955, 0.102732, 0, 0, 1, 0, 199529
-8085.55, 685030, -399.893, 0.17152, -874.321, 0.0413264, 0.566513, 1.03299, 0.34851, 0.655882, 0.0001, 45.5, 246, 36.7084, 0.152104, 0, 0, 0, 0, 199531
-8085.55, 685030, -399.893, 0.17152, -874.321, 0.0413264, 0.566513, 1.03299, 0.34851, 0.655882, 3, 45.5, 246, 36.7084, 0.152104, 0, 0, 0, 0, 199531
-12250.2, 508269, -12.4977, 0.532847, -895.109, 0.077658, 0.336208, 1.03299, 0.34851, 0.655882, 0.0001, 45.5, 246, 18.2326, 0.00926454, 0, 0, 1, 0, 199535
-12250.2, 508269, -12.4977, 0.532847, -895.109, 0.077658, 0.336208, 1.03299, 0.34851, 0.655882, 3, 45.5, 246, 18.2326, 0.00926454, 0, 0, 1, 0, 199535
-10251.9, 541347, -22.517, 0.575753, -918.533, 0.0823793, 0.270153, 0.958125, 0.351078, 0.648177, 0.0001, 182, 246, 18.2326, 0.00926454, 0, 0, 1, 0, 199535
-8679.27, 12237.4, 3.43336, 1.29741, -742.67, 0.040827, 0.325737, 1.03299, 0.34851, 0.655882, 3, 45.5, 246, 6.53218, 0.0390669, 0, 0, 1, 1, 199542
-7461.57, 544807, -395.42, 0.091477, -888.8, 0.0594861, 0.623577, 1.03299, 0.34851, 0.655882, 0.0001, 45.5, 246, 40.0804, 0.192144, 0, 0, 0, 0, 199544
-7703.38, 7373.86, -24.0902, 2.62339, -936.539, 0.24001, 0.264349, 1.03299, 0.34851, 0.655882, 0.0001, 45.5, 246, 21.8471, 0.0660781, 0, 0, 1, 1, 199546
-7703.38, 7373.86, -24.0902, 2.62339, -936.539, 0.24001, 0.264349, 1.03299, 0.34851, 0.655882, 3, 45.5, 246, 21.8471, 0.0660781, 0, 0, 1, 1, 199546
-6399.15, 69521.2, -134.357, 3.57913, -1132.22, 0.434386, 0.292017, 0.9175, 0.352806, 0.64323, 3, 455, 246, 21.8471, 0.0660781, 0, 0, 1, 0, 199546
-6511.81, -19816.1, -26.5493, 3.25557, -753.735, 0.188494, 0.214819, 1.03299, 0.34851, 0.655882, 0.0001, 45.5, 246, 23.0695, 0.00163816, 0, 0, 1, 1, 199552
-6511.81, -19816.1, -26.5493, 3.25557, -753.735, 0.188494, 0.214819, 1.03299, 0.34851, 0.655882, 3, 45.5, 246, 23.0695, 0.00163816, 0, 0, 1, 1, 199552
-16412, 292237, -366.209, 3.5858, -646.609, 0.0170011, 0.387714, 1.03299, 0.34851, 0.655882, 0.0001, 45.5, 246, 46.6646, 0.214672, 1.01987, 1, 0, 0, 199556
-10515.6, 302652, -425.575, 3.95063, -690.809, 0.0795952, 0.419438, 0.993198, 0.349787, 0.651995, 0.0001, 91, 246, 46.6646, 0.214672, 1.3577, 1, 1, 0, 199556
-10515.6, 302652, -425.575, 3.95063, -690.809, 0.0795952, 0.419438, 0.993198, 0.349787, 0.651995, 3, 91, 246, 46.6646, 0.214672, 1.27427, 1, 1, 0, 199556
-9820.77, 84954, -47.2047, 3.18885, -855.497, 0.161803, 0.20042, 1.03299, 0.34851, 0.655882, 0.0001, 45.5, 246, 22.4837, 0.0718851, 0, 0, 1, 0, 199560
-9820.77, 84954, -47.2047, 3.18885, -855.497, 0.161803, 0.20042, 1.03299, 0.34851, 0.655882, 3, 45.5, 246, 22.4837, 0.0718851, 0, 0, 1, 0, 199560
-9901.56, 265369, -60.7926, 1.13393, -1185.09, 0.0043415, 0.304774, 0.993198, 0.349787, 0.651995, 0.0001, 91, 246, 23.0787, 0.0546669, 0, 0, 1, 0, 199561
-10231.6, 462246, -88.405, 0.994528, -642.948, 0.0493076, 0.278509, 0.958125, 0.351078, 0.648177, 3, 182, 246, 17.1135, 0.0424462, 0, 0, 1, 0, 199566
-4384.56, 337066, -488.025, 3.51764, -718.643, 0.0741046, 0.558265, 0.958125, 0.351078, 0.648177, 0.0001, 182, 246, 46.6631, 0.231911, 2.30516, 1, 0, 0, 199567
-4384.56, 337066, -488.025, 3.51764, -718.643, 0.0741046, 0.558265, 0.958125, 0.351078, 0.648177, 3, 182, 246, 46.6631, 0.231911, 2.14156, 1, 0, 0, 199567
-9148.65, 70607.2, -48.3379, 3.44765, -953.694, 0.411275, 0.171726, 1.03299, 0.34851, 0.655882, 0.0001, 45.5, 246, 24.4781, 0.074721, 0, 0, 0, 0, 199568
-9148.65, 70607.2, -48.3379, 3.44765, -953.694, 0.411275, 0.171726, 1.03299, 0.34851, 0.655882, 3, 45.5, 246, 24.4781, 0.074721, 0, 0, 0, 0, 199568
-6265.71, 112537, -134.849, 4.35154, -1139.2, 0.625741, 0.221173, 0.958125, 0.351078, 0.648177, 3, 182, 246, 24.4781, 0.074721, 0, 0, 1, 0, 199568
-11953.6, 239521, -17.0099, 1.23394, -697.303, -0.00462356, 0.319381, 1.03299, 0.34851, 0.655882, 0.0001, 45.5, 246, 13.4814, 0.0254602, 0, 0, 1, 0, 199570
-11953.6, 239521, -17.0099, 1.23394, -697.303, -0.00462356, 0.319381, 1.03299, 0.34851, 0.655882, 3, 45.5, 246, 13.4814, 0.0254602, 0, 0, 1, 0, 199570
-2370.51, 52766.6, -198.367, 3.48209, -741.378, 0.00430195, 0.242274, 0.993198, 0.349787, 0.651995, 0.0001, 91, 246, 55.0762, 0.126431, 1.28146, 1, 1, 0, 199581
-2370.51, 52766.6, -198.367, 3.48209, -741.378, 0.00430195, 0.242274, 0.993198, 0.349787, 0.651995, 3, 91, 246, 55.0762, 0.126431, 1.08468, 1, 1, 0, 199581
-1058.55, 63554.1, -241.378, 3.80295, -766.305, 0.0626411, 0.266265, 0.958125, 0.351078, 0.648177, 0.0001, 182, 246, 55.0762, 0.126431, 1.53271, 1, 1, 0, 199581
-1058.55, 63554.1, -241.378, 3.80295, -766.305, 0.0626411, 0.266265, 0.958125, 0.351078, 0.648177, 3, 182, 246, 55.0762, 0.126431, 1.38484, 1, 1, 0, 199581
1521.74, 80466, -312.638, 4.33357, -823.488, 0.160904, 0.327814, 0.9175, 0.352806, 0.64323, 0.0001, 455, 246, 55.0762, 0.126431, 2.21935, 1, 1, 1, 199581
1521.74, 80466, -312.638, 4.33357, -823.488, 0.160904, 0.327814, 0.9175, 0.352806, 0.64323, 3, 455, 246, 55.0762, 0.126431, 2.09862, 1, 1, 1, 199581
-10145.2, 71984.2, 21.1279, 2.38849, -1033.73, 0.163622, 0.25986, 1.03299, 0.34851, 0.655882, 0.0001, 45.5, 246, 11.3729, 0.0253424, 0, 0, 1, 0, 199585
-10145.2, 71984.2, 21.1279, 2.38849, -1033.73, 0.163622, 0.25986, 1.03299, 0.34851, 0.655882, 3, 45.5, 246, 11.3729, 0.0253424, 0, 0, 1, 0, 199585
-6453.65, 144550, -71.0796, 3.13751, -1168.46, 0.30062, 0.256515, 0.9175, 0.352806, 0.64323, 3, 455, 246, 11.3729, 0.0253424, 0, 0, 1, 0, 199585
-7784.07, -15580.8, 0.10871, 2.44235, -889.222, 0.403994, 0.27738, 1.03299, 0.34851, 0.655882, 0.0001, 45.5, 246, 13.5477, 0.0500861, 0, 0, 1, 0, 199587
-12011.4, 299715, -245.189, 1.77079, -961.287, -0.00117107, 0.469124, 1.03299, 0.34851, 0.655882, 0.0001, 45.5, 246, 40.4625, 0.190219, 0, 0, 0, 0, 199598
-7995.88, 1796.2, -7.34173, 2.46851, -1065.77, 0.609614, 0.273075, 1.03299, 0.34851, 0.655882, 0.0001, 45.5, 246, 17.7158, 0.0677516, 0, 0, 1, 0, 199600
-7995.88, 1796.2, -7.34173, 2.46851, -1065.77, 0.609614, 0.273075, 1.03299, 0.34851, 0.655882, 3, 45.5, 246, 17.7158, 0.0677516, 0, 0, 1, 0, 199600
-10091.3, 140354, -138.821, 3.49269, -1061.2, 0.196279, 0.211794, 1.03299, 0.34851, 0.655882, 0.0001, 45.5, 246, 36.7631, 0.132995, 0, 0, 0, 0, 199604
-10091.3, 140354, -138.821, 3.49269, -1061.2, 0.196279, 0.211794, 1.03299, 0.34851, 0.655882, 3, 45.5, 246, 36.7631, 0.132995, 0, 0, 0, 0, 199604
-6097.88, 87979.3, -123.785, 3.41951, -673.294, 0.226364, 0.274543, 0.9175, 0.352806, 0.64323, 3, 455, 246, 20.4677, 0.0720664, 0, 0, 1, 0, 199607
-8235.49, 671097, -337.095, 0.00811307, -556.598, 0.565661, 0.487507, 1.03299, 0.34851, 0.655882, 0.0001, 45.5, 246, 26.3305, 0.117852, 0, 0, 1, 0, 199611
28.9659, 220826, -334.421, 4.28754, -714.853, 0.152919, 0.362128, 0.9175, 0.352806, 0.64323, 0.0001, 455, 246, 34.5495, 0.148325, 1.11629, 1, 0, 0, 199625
28.9659, 220826, -334.421, 4.28754, -714.853, 0.152919, 0.362128, 0.9175, 0.352806, 0.64323, 3, 455, 246, 34.5495, 0.148325, 1.12571, 1, 0, 0, 199625
-9269.44, 943755, -181.607, 0.191671, -800.219, 0.259354, 0.372089, 1.03299, 0.34851, 0.655882, 3, 45.5, 246, 24.4996, 0.0471135, 0, 0, 1, 0, 199627
-11391.2, 280325, -231.216, 1.58182, -919.465, 0.396679, 0.460275, 1.03299, 0.34851, 0.655882, 0.0001, 45.5, 246, 38.6758, 0.183152, 0, 0, 0, 0, 199633
-11391.2, 280325, -231.216, 1.58182, -919.465, 0.396679, 0.460275, 1.03299, 0.34851, 0.655882, 3, 45.5, 246, 38.6758, 0.183152, 0, 0, 0, 0, 199633
-6403.51, 888494, -210.557, 0.110033, -1052.2, 0.671159, 0.349152, 0.993198, 0.349787, 0.651995, 0.0001, 91, 246, 28.3021, 0.0548431, 0, 0, 1, 0, 199636
-5694.38, 945296, -217.379, 0.117313, -1177.72, 0.750847, 0.320206, 0.958125, 0.351078, 0.648177, 0.0001, 182, 246, 28.3021, 0.0548431, 0, 0, 1, 0, 199636
-8805.88, 89746, -41.6806, 3.69601, -1194.28, 0.266969, 0.188321, 0.993198, 0.349787, 0.651995, 0.0001, 91, 246, 19.1493, 0.0563035, 0, 0, 1, 0, 199642
-8805.88, 89746, -41.6806, 3.69601, -1194.28, 0.266969, 0.188321, 0.993198, 0.349787, 0.651995, 3, 91, 246, 19.1493, 0.0563035, 0, 0, 1, 0, 199642
-8561.5, 911591, -266.49, 0.273365, -1036.81, 0.000327788, 0.415116, 1.03299, 0.34851, 0.655882, 0.0001, 45.5, 246, 32.6777, 0.0752648, 0, 0, 0, 0, 199644
-9777.64, 239603, -29.3896, 1.95186, -850.897, 0.0158892, 0.251021, 0.958125, 0.351078, 0.648177, 0.0001, 182, 246, 14.0955, 0.0188108, 0, 0, 1, 0, 199662
-8311.92, 893564, -49.2993, 0.871745, -1296.99, 0.450627, 0.234053, 0.9175, 0.352806, 0.64323, 0.0001, 455, 246, 23.9163, 0.00905374, 0, 0, 0, 0, 199666
-9524.06, 401851, -274.677, 0.807775, -1124.89, -0.00299242, 0.517977, 1.03299, 0.34851, 0.655882, 3, 45.5, 246, 40.6351, 0.176516, 0, 0, 0, 0, 199671
-11225.9, 159565, -13.7712, 1.50088, -598.913, 0.681693, 0.307159, 1.03299, 0.34851, 0.655882, 0.0001, 45.5, 246, 11.7863, 0.0275333, 0, 0, 1, 0, 199676
-10353.9, 172701, -23.504, 1.64444, -672.626, 0.776157, 0.279692, 0.993198, 0.349787, 0.651995, 0.0001, 91, 246, 11.7863, 0.0275333, 0, 0, 1, 0, 199676
-10631.9, 129787, 1.18549, 1.57207, -1196.64, -0.00647616, 0.308576, 1.03299, 0.34851, 0.655882, 0.0001, 45.5, 246, 16.1883, 0.0313059, 0, 0, 1, 0, 199685
-10631.9, 129787, 1.18549, 1.57207, -1196.64, -0.00647616, 0.308576, 1.03299, 0.34851, 0.655882, 3, 45.5, 246, 16.1883, 0.0313059, 0, 0, 1, 0, 199685
-9023.67, 96226.7, -89.5273, 2.39322, -855.319, 0.111181, 0.297815, 1.03299, 0.34851, 0.655882, 0.0001, 45.5, 246, 30.3166, 0.126811, 0, 0, 1, 0, 199687
-9023.67, 96226.7, -89.5273, 2.39322, -855.319, 0.111181, 0.297815, 1.03299, 0.34851, 0.655882, 3, 45.5, 246, 30.3166, 0.126811, 0, 0, 1, 0, 199687
-10788.6, 223049, -208.539, 2.38983, -1156.98, 0.00624519, 0.404442, 1.03299, 0.34851, 0.655882, 0.0001, 45.5, 246, 42.9315, 0.190438, 0, 0, 0, 0, 199688
-10788.6, 223049, -208.539, 2.38983, -1156.98, 0.00624519, 0.404442, 1.03299, 0.34851, 0.655882, 3, 45.5, 246, 42.9315, 0.190438, 0, 0, 0, 0, 199688
-12578.3, 912109, -40.8037, 0.304201, -817.274, 0.53913, 0.340368, 1.03299, 0.34851, 0.655882, 0.0001, 45.5, 246, 20.4912, 0.0110838, 0, 0, 1, 0, 199694
-8723.39, 291253, -165.807, 0.876992, -942.03, 0.125325, 0.383527, 0.993198, 0.349787, 0.651995, 0.0001, 91, 246, 30.7937, 0.137417, 0, 0, 1, 0, 199695
-1822.04, 232255, -256.563, 3.96824, -1001.48, 0.456615, 0.313854, 0.9175, 0.352806, 0.64323, 0.0001, 455, 246, 29.197, 0.11197, 0, 0, 0, 0, 199698
-1822.04, 232255, -256.563, 3.96824, -1001.48, 0.456615, 0.313854, 0.9175, 0.352806, 0.64323, 3, 455, 246, 29.197, 0.11197, 0, 0, 0, 0, 199698
974.994, 224251, -363.732, 3.86512, -810.52, 0.125899, 0.404761, 0.9175, 0.352806, 0.64323, 0.0001, 455, 246, 39.9606, 0.180744, 2.24009, 1, 0, 0, 199699
974.994, 224251, -363.732, 3.86512, -810.52, 0.125899, 0.404761, 0.9175, 0.352806, 0.64323, 3, 455, 246, 39.9606, 0.180744, 2.27832, 1, 0, 0, 199699
-9606.09, 97384.1, -75.5159, 2.75536, -755.779, -0.0360663, 0.255015, 1.03299, 0.34851, 0.655882, 0.0001, 45.5, 246, 25.9995, 0.0980499, 0, 0, 1, 0, 199701
-9606.09, 97384.1, -75.5159, 2.75536, -755.779, -0.0360663, 0.255015, 1.03299, 0.34851, 0.655882, 3, 45.5, 246, 25.9995, 0.0980499, 0, 0, 1, 0, 199701
-10376.5, 633134, -30.4406, 0.320226, -958.037, 0.634092, 0.304416, 0.993198, 0.349787, 0.651995, 0.0001, 91, 246, 19.4736, 0.0116038, 0, 0, 1, 0, 199703
-11120, 592265, -217.196, 0.433468, -596.522, 0.0507341, 0.415126, 1.03299, 0.34851, 0.655882, 0.0001, 45.5, 246, 23.8144, 0.0944794, 0, 0, 1, 0, 199708
-8008.6, 10210.7, -30.6394, 2.71311, -1007.03, 2.83523e-05, 0.264756, 0.993198, 0.349787, 0.651995, 0.0001, 91, 246, 16.8209, 0.0598224, 0, 0, 1, 1, 199709
-8008.6, 10210.7, -30.6394, 2.71311, -1007.03, 2.83523e-05, 0.264756, 0.993198, 0.349787, 0.651995, 3, 91, 246, 16.8209, 0.0598224, 0, 0, 1, 1, 199709
-10405.1, 10366, -107.484, 0.420091, -1058.47, 0.984342, 0.295395, 0.958125, 0.351078, 0.648177, 0.0001, 182, 246, 510.563, 0.0500667, 0, 0, 1, 0, 199713
-9724.56, 188587, -138.148, 1.30683, -903.971, -0.00374344, 0.403418, 1.03299, 0.34851, 0.655882, 0.0001, 45.5, 246, 33.2666, 0.167541, 0, 0, 1, 0, 199715
-9724.56, 188587, -138.148, 1.30683, -903.971, -0.00374344, 0.403418, 1.03299, 0.34851, 0.655882, 3, 45.5, 246, 33.2666, 0.167541, 0, 0, 1, 0, 199715
-9082.22, 70746.4, -55.4445, 2.78035, -688.14, -0.0212574, 0.245295, 1.03299, 0.34851, 0.655882, 0.0001, 45.5, 246, 22.6793, 0.0797591, 0, 0, 1, 0, 199720
-9082.22, 70746.4, -55.4445, 2.78035, -688.14, -0.0212574, 0.245295, 1.03299, 0.34851, 0.655882, 3, 45.5, 246, 22.6793, 0.0797591, 0, 0, 1, 0, 199720
-9339.64, 215034, -135.182, 0.996315, -1103.49, 0.106279, 0.407127, 1.03299, 0.34851, 0.655882, 0.0001, 45.5, 246, 33.1361, 0.15119, 0, 0, 1, 0, 199731
-9339.64, 215034, -135.182, 0.996315, -1103.49, 0.106279, 0.407127, 1.03299, 0.34851, 0.655882, 3, 45.5, 246, 33.1361, 0.15119, 0, 0, 1, 0, 199731
-6969.58, 686760, -345.671, 0.137142, -941.362, 0.156128, 0.504672, 1.03299, 0.34851, 0.655882, 0.0001, 45.5, 246, 35.1368, 0.127482, 0, 0, 0, 0, 199754
-6969.58, 686760, -345.671, 0.137142, -941.362, 0.156128, 0.504672, 1.03299, 0.34851, 0.655882, 3, 45.5, 246, 35.1368, 0.127482, 0, 0, 0, 0, 199754
-10792.8, 335585, -274.942, 1.27445, -1051.85, 0.028084, 0.530822, 1.03299, 0.34851, 0.655882, 0.0001, 45.5, 246, 42.6334, 0.203655, 0, 0, 0, 0, 199775
-10792.8, 335585, -274.942, 1.27445, -1051.85, 0.028084, 0.530822, 1.03299, 0.34851, 0.655882, 3, 45.5, 246, 42.6334, 0.203655, 0, 0, 0, 0, 199775
-11887.9, 331251, -324.031, 1.76507, -1059.59, 0.0378924, 0.579408, 1.03299, 0.34851, 0.655882, 0.0001, 45.5, 246, 47.7643, 0.23315, 0, 0, 0, 0, 199786
-11887.9, 331251, -324.031, 1.76507, -1059.59, 0.0378924, 0.579408, 1.03299, 0.34851, 0.655882, 3, 45.5, 246, 47.7643, 0.23315, 0, 0, 0, 0, 199786
-7958.23, 941474, -223.273, 0.218036, -1096.44, 0.367851, 0.387389, 1.03299, 0.34851, 0.655882, 0.0001, 45.5, 246, 32.194, 0.0565816, 0, 0, 0, 0, 199791
-7958.23, 941474, -223.273, 0.218036, -1096.44, 0.367851, 0.387389, 1.03299, 0.34851, 0.655882, 3, 45.5, 246, 32.194, 0.0565816, 0, 0, 0, 0, 199791
-1638.17, 176750, -265.792, 4.35443, -1810.75, 1.44949, 0.332682, 0.9175, 0.352806, 0.64323, 0.0001, 455, 246, 34.6865, 0.12408, 1.45219, 1, 0, 0, 199801
-1638.17, 176750, -265.792, 4.35443, -1810.75, 1.44949, 0.332682, 0.9175, 0.352806, 0.64323, 3, 455, 246, 34.6865, 0.12408, 1.48624, 1, 0, 0, 199801
-9032.59, 36809.4, 18.6941, 3.10213, -906.089, -0.0457122, 0.206457, 1.03299, 0.34851, 0.655882, 0.0001, 45.5, 246, 10.4203, 0.033646, 1.21923, 1, 1, 0, 199802
-9032.59, 36809.4, 18.6941, 3.10213, -906.089, -0.0457122, 0.206457, 1.03299, 0.34851, 0.655882, 3, 45.5, 246, 10.4203, 0.033646, 1.1574, 1, 1, 0, 199802
-7677.03, -8434.01, -17.8477, 2.44616, -646.348, -0.0103515, 0.277894, 1.03299, 0.34851, 0.655882, 0.0001, 45.5, 246, 18.3205, 0.0230821, 0, 0, 1, 1, 199804
-7677.03, -8434.01, -17.8477, 2.44616, -646.348, -0.0103515, 0.277894, 1.03299, 0.34851, 0.655882, 3, 45.5, 246, 18.3205, 0.0230821, 0, 0, 1, 1, 199804
-11634.2, 269780, -159.166, 1.51684, -985.064, 0.748314, 0.381189, 1.03299, 0.34851, 0.655882, 0.0001, 45.5, 246, 32.1699, 0.125754, 0, 0, 0, 0, 199807
-11634.2, 269780, -159.166, 1.51684, -985.064, 0.748314, 0.381189, 1.03299, 0.34851, 0.655882, 3, 45.5, 246, 32.1699, 0.125754, 0, 0, 0, 0, 199807
-8391.13, 61697.2, -72.5434, 2.67706, -605.173, -0.0339991, 0.25972, 1.03299, 0.34851, 0.655882, 0.0001, 45.5, 246, 26.4833, 0.0945049, 0, 0, 1, 0, 199813
-8391.13, 61697.2, -72.5434, 2.67706, -605.173, -0.0339991, 0.25972, 1.03299, 0.34851, 0.655882, 3, 45.5, 246, 26.4833, 0.0945049, 0, 0, 1, 0, 199813
-5327.72, 83926.6, -155.559, 3.46261, -644.436, 0.102684, 0.284469, 0.9175, 0.352806, 0.64323, 3, 455, 246, 26.4833, 0.0945049, 0, 0, 1, 0, 199813
-8034.7, 116633, -159.723, 3.16543, -963.613, -0.0318587, 0.274652, 1.03299, 0.34851, 0.655882, 0.0001, 45.5, 246, 41.6676, 0.167648, 0, 0, 1, 0, 199814
-8034.7, 116633, -159.723, 3.16543, -963.613, -0.0318587, 0.274652, 1.03299, 0.34851, 0.655882, 3, 45.5, 246, 41.6676, 0.167648, 0, 0, 1, 0, 199814
-6116.49, 133257, -202.81, 3.43775, -978.027, 0.0159589, 0.283107, 0.993198, 0.349787, 0.651995, 3, 91, 246, 41.6676, 0.167648, 0, 0, 1, 0, 199814
-7578.63, 3913.44, -25.2012, 3.41863, -1139.63, -7.21776e-05, 0.230459, 0.993198, 0.349787, 0.651995, 0.0001, 91, 246, 14.9148, 0.0611258, 0, 0, 1, 1, 199815
-7578.63, 3913.44, -25.2012, 3.41863, -1139.63, -7.21776e-05, 0.230459, 0.993198, 0.349787, 0.651995, 3, 91, 246, 14.9148, 0.0611258, 0, 0, 1, 1, 199815
-11909.4, 331818, -5.66142, 0.791488, -921.154, 0.0922472, 0.331004, 1.03299, 0.34851, 0.655882, 0.0001, 45.5, 246, 16.4084, 0.0112789, 0, 0, 1, 0, 199816
-11909.4, 331818, -5.66142, 0.791488, -921.154, 0.0922472, 0.331004, 1.03299, 0.34851, 0.655882, 3, 45.5, 246, 16.4084, 0.0112789, 0, 0, 1, 0, 199816
-10998.1, 348471, -12.6239, 0.828091, -935.188, 0.0965333, 0.296981, 0.993198, 0.349787, 0.651995, 0.0001, 91, 246, 16.4084, 0.0112789, 0, 0, 1, 0, 199816
-6324.66, 81776.4, -135.625, 3.22816, -1103.12, 0.000624237, 0.264966, 0.993198, 0.349787, 0.651995, 0.0001, 91, 246, 37.1724, 0.13902, 0, 0, 1, 0, 199820
-6324.66, 81776.4, -135.625, 3.22816, -1103.12, 0.000624237, 0.264966, 0.993198, 0.349787, 0.651995, 3, 91, 246, 37.1724, 0.13902, 0, 0, 1, 0, 199820
-1826.21, 135617, -256.109, 3.96417, -1171.33, 0.132996, 0.32906, 0.9175, 0.352806, 0.64323, 0.0001, 455, 246, 37.1724, 0.13902, 1.23154, 1, 0, 0, 199820
-1826.21, 135617, -256.109, 3.96417, -1171.33, 0.132996, 0.32906, 0.9175, 0.352806, 0.64323, 3, 455, 246, 37.1724, 0.13902, 1.24826, 1, 0, 0, 199820
-6129.92, 461525, -298.489, 0.387231, -1168.1, 0.0158563, 0.501712, 0.993198, 0.349787, 0.651995, 0.0001, 91, 246, 40.3649, 0.169865, 0, 0, 1, 0, 199821
-6324.74, 11905.3, -64.5483, 2.94209, -1003.57, 0.746707, 0.241273, 1.03299, 0.34851, 0.655882, 0.0001, 45.5, 246, 35.3632, 0.0681947, 0, 0, 1, 0, 199823
-2739.3, 128899, -252.711, 4.74799, -1821.1, 1.58003, 0.334937, 0.9175, 0.352806, 0.64323, 0.0001, 455, 246, 35.3632, 0.0681947, 1.60426, 1, 0, 0, 199823
-2739.3, 128899, -252.711, 4.74799, -1821.1, 1.58003, 0.334937, 0.9175, 0.352806, 0.64323, 3, 455, 246, 35.3632, 0.0681947, 1.60449, 1, 0, 0, 199823
-11602.6, 455764, -14.4003, 0.51464, -907.779, -0.000314445, 0.336997, 1.03299, 0.34851, 0.655882, 0.0001, 45.5, 246, 17.9708, 0.011287, 0, 0, 1, 0, 199829
-11602.6, 455764, -14.4003, 0.51464, -907.779, -0.000314445, 0.336997, 1.03299, 0.34851, 0.655882, 3, 45.5, 246, 17.9708, 0.011287, 0, 0, 1, 0, 199829
-8932.58, 104417, -107.22, 3.32437, -1128.51, -0.0326238, 0.227551, 1.03299, 0.34851, 0.655882, 0.0001, 45.5, 246, 35.1116, 0.128208, 0, 0, 0, 0, 199831
-8932.58, 104417, -107.22, 3.32437, -1128.51, -0.0326238, 0.227551, 1.03299, 0.34851, 0.655882, 3, 45.5, 246, 35.1116, 0.128208, 0, 0, 0, 0, 199831
-7218.81, 126705, -152.661, 3.61699, -1139.11, 0.020208, 0.238141, 0.993198, 0.349787, 0.651995, 0.0001, 91, 246, 35.1116, 0.128208, 0, 0, 1, 0, 199831
-7218.81, 126705, -152.661, 3.61699, -1139.11, 0.020208, 0.238141, 0.993198, 0.349787, 0.651995, 3, 91, 246, 35.1116, 0.128208, 0, 0, 1, 0, 199831
34.987, 186647, -297.832, 4.54552, -1237.25, 0.19213, 0.337678, 0.9175, 0.352806, 0.64323, 0.0001, 455, 246, 35.1116, 0.128208, 1.71287, 1, 0, 0, 199831
34.987, 186647, -297.832, 4.54552, -1237.25, 0.19213, 0.337678, 0.9175, 0.352806, 0.64323, 3, 455, 246, 35.1116, 0.128208, 1.75444, 1, 0, 0, 199831
-11262.5, 99710.4, 0.552411, 3.30263, -1109.66, -0.0477853, 0.178977, 1.03299, 0.34851, 0.655882, 0.0001, 45.5, 246, 18.0727, 0.0463891, 0, 0, 0, 0, 199835
-11262.5, 99710.4, 0.552411, 3.30263, -1109.66, -0.0477853, 0.178977, 1.03299, 0.34851, 0.655882, 3, 45.5, 246, 18.0727, 0.0463891, 0, 0, 0, 0, 199835
-9833.97, 120485, -34.2549, 3.58393, -1107.25, 0.00429193, 0.185859, 0.993198, 0.349787, 0.651995, 0.0001, 91, 246, 18.0727, 0.0463891, 0, 0, 1, 0, 199835
-9833.97, 120485, -34.2549, 3.58393, -1107.25, 0.00429193, 0.185859, 0.993198, 0.349787, 0.651995, 3, 91, 246, 18.0727, 0.0463891, 0, 0, 1, 0, 199835
-10090.7, 375201, -355.056, 0.299176, -607.532, 0.351222, 0.661049, 1.03299, 0.34851, 0.655882, 0.0001, 45.5, 246, 39.7671, 0.241955, 0, 0, 0, 0, 199841
-8744.62, 391662, -371.455, 0.317526, -646.288, 0.372302, 0.654335, 0.993198, 0.349787, 0.651995, 0.0001, 91, 246, 39.7671, 0.241955, 0, 0, 1, 0, 199841
-9478.19, 183822, -289.709, 3.31712, -643.465, 0.179995, 0.34512, 1.03299, 0.34851, 0.655882, 0.0001, 45.5, 246, 48.0025, 0.213955, 1.23992, 1, 0, 0, 199843
-9478.19, 183822, -289.709, 3.31712, -643.465, 0.179995, 0.34512, 1.03299, 0.34851, 0.655882, 3, 45.5, 246, 48.0025, 0.213955, 1.04247, 1, 0, 0, 199843
-5931.94, 194985, -337.786, 3.66326, -694.309, 0.240297, 0.364349, 0.993198, 0.349787, 0.651995, 0.0001, 91, 246, 48.0025, 0.213955, 1.38672, 1, 1, 0, 199843
-5931.94, 194985, -337.786, 3.66326, -694.309, 0.240297, 0.364349, 0.993198, 0.349787, 0.651995, 3, 91, 246, 48.0025, 0.213955, 1.26855, 1, 1, 0, 199843
-1422.78, 209338, -396.888, 4.08294, -763.608, 0.318207, 0.404337, 0.958125, 0.351078, 0.648177, 0.0001, 182, 246, 48.0025, 0.213955, 2.4948, 1, 0, 0, 199843
-1422.78, 209338, -396.888, 4.08294, -763.608, 0.318207, 0.404337, 0.958125, 0.351078, 0.648177, 3, 182, 246, 48.0025, 0.213955, 2.32264, 1, 0, 0, 199843
-8578.48, 168232, -12.3697, 0.0461759, -1153.28, 0.00616422, 0.342588, 1.03299, 0.34851, 0.655882, 0.0001, 45.5, 246, 15.1622, 0.0171713, 0, 0, 1, 0, 199845
-8578.48, 168232, -12.3697, 0.0461759, -1153.28, 0.00616422, 0.342588, 1.03299, 0.34851, 0.655882, 3, 45.5, 246, 15.1622, 0.0171713, 0, 0, 1, 0, 199845
-8093.78, 345353, -182.115, 0.717742, -1114.9, 0.03857, 0.392581, 0.993198, 0.349787, 0.651995, 0.0001, 91, 246, 33.2314, 0.131893, 0, 0, 1, 0, 199851
-9214.13, 50375.8, -5.04295, 3.22058, -698.131, 0.0842539, 0.190689, 1.03299, 0.34851, 0.655882, 0.0001, 45.5, 246, 12.8609, 0.0373816, 0, 0, 1, 0, 199856
-9214.13, 50375.8, -5.04295, 3.22058, -698.131, 0.0842539, 0.190689, 1.03299, 0.34851, 0.655882, 3, 45.5, 246, 12.8609, 0.0373816, 0, 0, 1, 0, 199856
-8842.55, 344133, -491.714, 3.80854, -975.48, 0.0794514, 0.549567, 0.993198, 0.349787, 0.651995, 0.0001, 91, 246, 54.3316, 0.247146, 1.5066, 1, 1, 0, 199861
-8842.55, 344133, -491.714, 3.80854, -975.48, 0.0794514, 0.549567, 0.993198, 0.349787, 0.651995, 3, 91, 246, 54.3316, 0.247146, 1.44409, 1, 1, 0, 199861
-8449.2, 185066, -79.2594, 3.10092, -1092.65, 0.774096, 0.237927, 0.958125, 0.351078, 0.648177, 3, 182, 246, 18.2403, 0.0480932, 0, 0, 1, 0, 199863
-6641.34, -13438.9, -21.7607, 3.28252, -865.395, 0.335878, 0.207321, 1.03299, 0.34851, 0.655882, 0.0001, 45.5, 246, 21.797, 0.0341122, 0, 0, 1, 0, 199872
-6641.34, -13438.9, -21.7607, 3.28252, -865.395, 0.335878, 0.207321, 1.03299, 0.34851, 0.655882, 3, 45.5, 246, 21.797, 0.0341122, 0, 0, 1, 0, 199872
673.14, 168930, -335.234, 4.65536, -718.611, 0.179323, 0.358697, 0.9175, 0.352806, 0.64323, 0.0001, 455, 246, 37.4057, 0.15001, 1.66843, 1, 0, 0, 199873
673.14, 168930, -335.234, 4.65536, -718.611, 0.179323, 0.358697, 0.9175, 0.352806, 0.64323, 3, 455, 246, 37.4057, 0.15001, 1.66949, 1, 0, 0, 199873
1702.31, 329353, -354.488, 4.98004, -1030.64, 0.294365, 0.33759, 0.9175, 0.352806, 0.64323, 3, 455, 246, 31.7611, 0.111966, 0, 0, 0, 0, 199882
-10448, 253787, -229.237, 1.0679, -638.726, 0.0574282, 0.507116, 1.03299, 0.34851, 0.655882, 0.0001, 45.5, 246, 37.4358, 0.218009, 0, 0, 1, 0, 199886
-10448, 253787, -229.237, 1.0679, -638.726, 0.0574282, 0.507116, 1.03299, 0.34851, 0.655882, 3, 45.5, 246, 37.4358, 0.218009, 0, 0, 1, 0, 199886
-9007.35, 262724, -247.393, 1.12638, -651.759, 0.0632866, 0.489929, 0.993198, 0.349787, 0.651995, 0.0001, 91, 246, 37.4358, 0.218009, 0, 0, 1, 0, 199886
-8472.39, 25009.9, 13.3926, 3.42993, -1033.14, 0.00619962, 0.17763, 1.03299, 0.34851, 0.655882, 0.0001, 45.5, 246, 13.8224, 0.0465158, 1.38759, 1, 1, 0, 199890
-9614.19, 97649, -0.522084, 2.10161, -753.511, 0.538968, 0.264833, 0.993198, 0.349787, 0.651995, 0.0001, 91, 246, 8.33243, 0.0147061, 0, 0, 1, 0, 199892
-9614.19, 97649, -0.522084, 2.10161, -753.511, 0.538968, 0.264833, 0.993198, 0.349787, 0.651995, 3, 91, 246, 8.33243, 0.0147061, 0, 0, 1, 0, 199892
-8815.26, 111367, -16.2505, 2.30312, -825.575, 0.612404, 0.252256, 0.958125, 0.351078, 0.648177, 0.0001, 182, 246, 8.33243, 0.0147061, 0, 0, 1, 0, 199892
-8815.26, 111367, -16.2505, 2.30312, -825.575, 0.612404, 0.252256, 0.958125, 0.351078, 0.648177, 3, 182, 246, 8.33243, 0.0147061, 0, 0, 1, 0, 199892
-7274.8, 134926, -44.043, 2.62624, -953.026, 0.742621, 0.250005, 0.9175, 0.352806, 0.64323, 0.0001, 455, 246, 8.33243, 0.0147061, 0, 0, 1, 0, 199892
-7274.8, 134926, -44.043, 2.62624, -953.026, 0.742621, 0.250005, 0.9175, 0.352806, 0.64323, 3, 455, 246, 8.33243, 0.0147061, 0, 0, 1, 0, 199892
-10355.7, 478922, -78.8372, 0.636379, -945.494, 0.00376862, 0.312262, 0.993198, 0.349787, 0.651995, 3, 91, 246, 22.3743, 0.0412127, 0, 0, 1, 0, 199897
-8645.54, 551803, -237.819, 1.86694, -1250.45, 0.299319, 0.327019, 0.958125, 0.351078, 0.648177, 0.0001, 182, 246, 32.984, 0.0917796, 0, 0, 0, 0, 199906
-8645.54, 551803, -237.819, 1.86694, -1250.45, 0.299319, 0.327019, 0.958125, 0.351078, 0.648177, 3, 182, 246, 32.984, 0.0917796, 0, 0, 0, 0, 199906
-10889.2, 241927, -308.06, 2.28322, -875.426, 0.64982, 0.511907, 1.03299, 0.34851, 0.655882, 0.0001, 45.5, 246, 48.2154, 0.238701, 0, 0, 0, 0, 199908
-10889.2, 241927, -308.06, 2.28322, -875.426, 0.64982, 0.511907, 1.03299, 0.34851, 0.655882, 3, 45.5, 246, 48.2154, 0.238701, 0, 0, 0, 0, 199908
-9389.88, 660908, -224.998, 0.434596, -1074.55, 0.0104633, 0.413383, 1.03299, 0.34851, 0.655882, 0.0001, 45.5, 246, 32.6716, 0.0877568, 0, 0, 0, 0, 199912
-9389.88, 660908, -224.998, 0.434596, -1074.55, 0.0104633, 0.413383, 1.03299, 0.34851, 0.655882, 3, 45.5, 246, 32.6716, 0.0877568, 0, 0, 0, 0, 199912
-8753.96, 80657.2, -69.1499, 1.43103, -1105.37, 0.212413, 0.358042, 1.03299, 0.34851, 0.655882, 0.0001, 45.5, 246, 29.875, 0.157115, 0, 0, 1, 0, 199916
-8753.96, 80657.2, -69.1499, 1.43103, -1105.37, 0.212413, 0.358042, 1.03299, 0.34851, 0.655882, 3, 45.5, 246, 29.875, 0.157115, 0, 0, 1, 0, 199916
-6857.18, 56193.7, -114.576, 3.09439, -879.789, 1.1134, 0.27796, 0.9175, 0.352806, 0.64323, 0.0001, 455, 246, 24.3156, 0.0679868, 0, 0, 1, 0, 199917
-6857.18, 56193.7, -114.576, 3.09439, -879.789, 1.1134, 0.27796, 0.9175, 0.352806, 0.64323, 3, 455, 246, 24.3156, 0.0679868, 0, 0, 1, 0, 199917
-11758.9, 351158, -98.2981, 1.03445, -1090.5, 0.261076, 0.352519, 1.03299, 0.34851, 0.655882, 0.0001, 45.5, 246, 26.9448, 0.0705521, 0, 0, 1, 0, 199918
-11758.9, 351158, -98.2981, 1.03445, -1090.5, 0.261076, 0.352519, 1.03299, 0.34851, 0.655882, 3, 45.5, 246, 26.9448, 0.0705521, 0, 0, 1, 0, 199918
-8392.49, 408151, -130.485, 1.16462, -1197.49, 0.296115, 0.297198, 0.958125, 0.351078, 0.648177, 3, 182, 246, 26.9448, 0.0705521, 0, 0, 1, 0, 199918
-11971.7, 115478, -15.8546, 3.58528, -977.607, 0.149364, 0.139372, 1.03299, 0.34851, 0.655882, 0.0001, 45.5, 246, 19.281, 0.0495539, 0, 0, 0, 0, 199922
-11971.7, 115478, -15.8546, 3.58528, -977.607, 0.149364, 0.139372, 1.03299, 0.34851, 0.655882, 3, 45.5, 246, 19.281, 0.0495539, 0, 0, 0, 0, 199922
-15.9214, 514921, -447.046, 1.76571, -911.652, 0.0281817, 0.528311, 0.9175, 0.352806, 0.64323, 3, 455, 246, 39.269, 0.180857, 0, 0, 0, 0, 199925
-6902.29, 79789.8, -119.454, 3.12946, -1020.9, 0.147539, 0.258856, 0.993198, 0.349787, 0.651995, 0.0001, 91, 246, 33.4688, 0.123128, 0, 0, 1, 0, 199926
-6902.29, 79789.8, -119.454, 3.12946, -1020.9, 0.147539, 0.258856, 0.993198, 0.349787, 0.651995, 3, 91, 246, 33.4688, 0.123128, 0, 0, 1, 0, 199926
-9236.05, 175404, -195.614, 1.62115, -843.657, 0.00126245, 0.467132, 1.03299, 0.34851, 0.655882, 0.0001, 45.5, 246, 42.9208, 0.239245, 0, 0, 1, 0, 199930
-9236.05, 175404, -195.614, 1.62115, -843.657, 0.00126245, 0.467132, 1.03299, 0.34851, 0.655882, 3, 45.5, 246, 42.9208, 0.239245, 0, 0, 1, 0, 199930
-9285.25, 711272, -352.978, 0.107025, -580.066, 0.339771, 0.499462, 1.03299, 0.34851, 0.655882, 0.0001, 45.5, 246, 27.4489, 0.12158, 0, 0, 0, 0, 199931
-9285.25, 711272, -352.978, 0.107025, -580.066, 0.339771, 0.499462, 1.03299, 0.34851, 0.655882, 3, 45.5, 246, 27.4489, 0.12158, 0, 0, 0, 0, 199931
-4798.19, 46099.5, -147.683, 3.48964, -592.779, -0.0584013, 0.193614, 1.03299, 0.34851, 0.655882, 0.0001, 45.5, 246, 44.2891, 0.106194, 1.15525, 1, 1, 0, 199933
-3874.18, 52505.7, -181.071, 3.80056, -605.694, 4.43973e-06, 0.207756, 0.993198, 0.349787, 0.651995, 0.0001, 91, 246, 44.2891, 0.106194, 1.08302, 1, 1, 0, 199933
-2611.57, 59767.1, -221.02, 4.17281, -630.051, 0.0698529, 0.241524, 0.958125, 0.351078, 0.648177, 0.0001, 182, 246, 44.2891, 0.106194, 1.16014, 1, 1, 0, 199933
-203.977, 71681.1, -288.612, 4.80432, -687.034, 0.189704, 0.322524, 0.9175, 0.352806, 0.64323, 0.0001, 455, 246, 44.2891, 0.106194, 1.44688, 1, 1, 0, 199933
-203.977, 71681.1, -288.612, 4.80432, -687.034, 0.189704, 0.322524, 0.9175, 0.352806, 0.64323, 3, 455, 246, 44.2891, 0.106194, 1.3511, 1, 1, 1, 199933
-10610.4, 180756, -143.434, 2.12823, -1003.25, 0.695203, 0.346239, 1.03299, 0.34851, 0.655882, 0.0001, 45.5, 246, 34.4783, 0.144258, 0, 0, 0, 0, 199936
-8141.18, -21482.6, -1.7159, 2.75616, -940.184, 0.0098359, 0.267159, 0.993198, 0.349787, 0.651995, 3, 91, 246, 5.26679, 0.0654785, 0, 0, 1, 1, 199939
-9594.34, 344840, -276.933, 0.950748, -1119.4, -0.00284433, 0.547185, 1.03299, 0.34851, 0.655882, 0.0001, 45.5, 246, 43.1371, 0.206407, 0, 0, 0, 0, 199944
-9594.34, 344840, -276.933, 0.950748, -1119.4, -0.00284433, 0.547185, 1.03299, 0.34851, 0.655882, 3, 45.5, 246, 43.1371, 0.206407, 0, 0, 0, 0, 199944
-9901, 228877, -18.8567, 2.13389, -817.169, 0.023084, 0.245709, 0.958125, 0.351078, 0.648177, 0.0001, 182, 246, 12.3881, 0.0111232, 0, 0, 1, 0, 199947
-7812.58, -746.979, -3.47414, 2.78596, -957.736, -0.0360902, 0.25119, 1.03299, 0.34851, 0.655882, 3, 45.5, 246, 15.5404, 0.0557665, 0, 0, 1, 1, 199949
-7056.5, 52503.8, -106.155, 3.63306, -988.519, 0.113244, 0.287595, 0.9175, 0.352806, 0.64323, 3, 455, 246, 15.5404, 0.0557665, 0, 0, 1, 1, 199949
-8244.83, 209547, -153.985, 0.0709007, -757.913, 0.445522, 0.460976, 1.03299, 0.34851, 0.655882, 0.0001, 45.5, 246, 32.3888, 0.200688, 5.40928, 1, 1, 0, 199952
-8244.83, 209547, -153.985, 0.0709007, -757.913, 0.445522, 0.460976, 1.03299, 0.34851, 0.655882, 3, 45.5, 246, 32.3888, 0.200688, 5.32577, 1, 1, 0, 199952
-9021.88, 66372.8, -22.8788, 0.904202, -806.273, 0.000802967, 0.341852, 1.03299, 0.34851, 0.655882, 0.0001, 45.5, 246, 15.7022, 0.0778753, 0, 0, 1, 0, 199959
-9021.88, 66372.8, -22.8788, 0.904202, -806.273, 0.000802967, 0.341852, 1.03299, 0.34851, 0.655882, 3, 45.5, 246, 15.7022, 0.0778753, 0, 0, 1, 0, 199959
-8051.26, 99821.5, -91.9208, 2.89494, -1199.34, 0.112475, 0.263745, 0.993198, 0.349787, 0.651995, 0.0001, 91, 246, 28.1241, 0.106291, 0, 0, 1, 0, 199975
-8051.26, 99821.5, -91.9208, 2.89494, -1199.34, 0.112475, 0.263745, 0.993198, 0.349787, 0.651995, 3, 91, 246, 28.1241, 0.106291, 0, 0, 1, 0, 199975
-9811.66, 74580.2, -12.8779, 2.51236, -1002.35, 0.0719573, 0.258977, 1.03299, 0.34851, 0.655882, 0.0001, 45.5, 246, 17.5289, 0.0561468, 0, 0, 1, 0, 199984
-9811.66, 74580.2, -12.8779, 2.51236, -1002.35, 0.0719573, 0.258977, 1.03299, 0.34851, 0.655882, 3, 45.5, 246, 17.5289, 0.0561468, 0, 0, 1, 0, 199984
-10449, 323497, -149.647, 0.858459, -881.496, -0.00313384, 0.397657, 1.03299, 0.34851, 0.655882, 0.0001, 45.5, 246, 28.7429, 0.117157, 0, 0, 1, 0, 199985
-10449, 323497, -149.647, 0.858459, -881.496, -0.00313384, 0.397657, 1.03299, 0.34851, 0.655882, 3, 45.5, 246, 28.7429, 0.117157, 0, 0, 1, 0, 199985
-9236.18, 337443, -163.211, 0.896335, -884.906, 0.000246294, 0.369143, 0.993198, 0.349787, 0.651995, 0.0001, 91, 246, 28.7429, 0.117157, 0, 0, 1, 0, 199985
-9236.18, 337443, -163.211, 0.896335, -884.906, 0.000246294, 0.369143, 0.993198, 0.349787, 0.651995, 3, 91, 246, 28.7429, 0.117157, 0, 0, 1, 0, 199985
-7813.61, 351667, -177.379, 0.934294, -889.3, 0.00392497, 0.345352, 0.958125, 0.351078, 0.648177, 0.0001, 182, 246, 28.7429, 0.117157, 0, 0, 1, 0, 199985
-7813.61, 351667, -177.379, 0.934294, -889.3, 0.00392497, 0.345352, 0.958125, 0.351078, 0.648177, 3, 182, 246, 28.7429, 0.117157, 0, 0, 1, 0, 199985
-11474.6, 682883, -44.9452, 0.355118, -1033.71, 0.45611, 0.341297, 1.03299, 0.34851, 0.655882, 0.0001, 45.5, 246, 23.9496, 0.0168031, 0, 0, 1, 0, 199997
-11474.6, 682883, -44.9452, 0.355118, -1033.71, 0.45611, 0.341297, 1.03299, 0.34851, 0.655882, 3, 45.5, 246, 23.9496, 0.0168031, 0, 0, 1, 0, 199997
-10620.1, 720583, -49.9387, 0.376188, -1114.52, 0.492169, 0.30564, 0.993198, 0.349787, 0.651995, 3, 91, 246, 23.9496, 0.0168031, 0, 0, 1, 0, 199997
