-10053.9, 448529, -379.113, 0.76414, -1053.9, 0.00994827, 0.652969, 1.03299, 0.34851, 0.655882, 0.0001, 45.5, 246, 45.9657, 0.222595, 0, 0, 0, 0, 113001
-10053.9, 448529, -379.113, 0.76414, -1053.9, 0.00994827, 0.652969, 1.03299, 0.34851, 0.655882, 3, 45.5, 246, 45.9657, 0.222595, 0, 0, 0, 0, 113001
-9676.06, 125402, -0.846087, 0.842697, -1074.11, -0.00325707, 0.33317, 1.03299, 0.34851, 0.655882, 0.0001, 45.5, 246, 13.2735, 0.0208874, 0, 0, 1, 0, 113006
-9676.06, 125402, -0.846087, 0.842697, -1074.11, -0.00325707, 0.33317, 1.03299, 0.34851, 0.655882, 3, 45.5, 246, 13.2735, 0.0208874, 0, 0, 1, 0, 113006
-12316.5, 335143, -72.7421, 1.02843, -722.252, 0.124855, 0.339961, 1.03299, 0.34851, 0.655882, 0.0001, 45.5, 246, 19.2615, 0.0558255, 0, 0, 1, 0, 113019
-6136.76, 733108, -177.279, 1.64413, -909.392, 0.0516717, 0.257183, 0.9175, 0.352806, 0.64323, 3, 455, 246, 24.3845, 0.0465091, 0, 0, 0, 0, 113023
-9940.99, 89652.2, -39.7651, 2.75541, -918.707, -0.0170982, 0.244865, 1.03299, 0.34851, 0.655882, 0.0001, 45.5, 246, 21.6491, 0.073705, 0, 0, 1, 0, 113024
-9940.99, 89652.2, -39.7651, 2.75541, -918.707, -0.0170982, 0.244865, 1.03299, 0.34851, 0.655882, 3, 45.5, 246, 21.6491, 0.073705, 0, 0, 1, 0, 113024
696.878, 460227, -411.408, 4.08445, -799.293, 0.171566, 0.379773, 0.9175, 0.352806, 0.64323, 3, 455, 246, 31.4041, 0.127739, 0, 0, 0, 0, 113025
-6395.5, 2700.88, -48.6317, 3.21231, -976.248, 0.602261, 0.213635, 1.03299, 0.34851, 0.655882, 0.0001, 45.5, 246, 30.2239, 0.0534192, 0, 0, 1, 0, 113036
-6395.5, 2700.88, -48.6317, 3.21231, -976.248, 0.602261, 0.213635, 1.03299, 0.34851, 0.655882, 3, 45.5, 246, 30.2239, 0.0534192, 0, 0, 1, 0, 113036
-3676.71, 97711.8, -233.113, 5.07683, -1586.06, 1.24253, 0.338839, 0.9175, 0.352806, 0.64323, 0.0001, 455, 246, 30.2239, 0.0534192, 1.19509, 1, 1, 0, 113036
-3676.71, 97711.8, -233.113, 5.07683, -1586.06, 1.24253, 0.338839, 0.9175, 0.352806, 0.64323, 3, 455, 246, 30.2239, 0.0534192, 1.17447, 1, 1, 0, 113036
-7783.57, 633501, -430.988, 0.12615, -892.594, 0.197809, 0.618767, 1.03299, 0.34851, 0.655882, 3, 45.5, 246, 39.2546, 0.174161, 0, 0, 0, 0, 113043
-7827.78, 339642, -290.399, 1.39853, -633.759, 0.194423, 0.455296, 0.958125, 0.351078, 0.648177, 3, 182, 246, 33.6008, 0.182899, 0, 0, 1, 0, 113044
-8708.08, 513707, -414.405, 0.294931, -929.105, 0.160528, 0.666595, 1.03299, 0.34851, 0.655882, 0.0001, 45.5, 246, 42.9674, 0.210915, 0, 0, 0, 0, 113047
-8708.08, 513707, -414.405, 0.294931, -929.105, 0.160528, 0.666595, 1.03299, 0.34851, 0.655882, 3, 45.5, 246, 42.9674, 0.210915, 0, 0, 0, 0, 113047
-9983.93, 172174, -206.323, 3.47696, -985.78, -0.0582784, 0.269762, 1.03299, 0.34851, 0.655882, 3, 45.5, 246, 43.405, 0.174699, 0, 0, 0, 0, 113052
-6840.76, 189620, -258.585, 3.79392, -1003.28, -0.000184389, 0.288342, 0.993198, 0.349787, 0.651995, 3, 91, 246, 43.405, 0.174699, 0, 0, 1, 0, 113052
-2740.49, 209359, -321.326, 4.17436, -1039.03, 0.0695669, 0.326965, 0.958125, 0.351078, 0.648177, 0.0001, 182, 246, 43.405, 0.174699, 1.454, 1, 0, 0, 113052
-2740.49, 209359, -321.326, 4.17436, -1039.03, 0.0695669, 0.326965, 0.958125, 0.351078, 0.648177, 3, 182, 246, 43.405, 0.174699, 1.25578, 1, 0, 0, 113052
-8259.12, 155651, -234.287, 3.51522, -972.179, 0.500048, 0.271245, 1.03299, 0.34851, 0.655882, 0.0001, 45.5, 246, 47.2768, 0.187371, 1.11216, 1, 0, 0, 113053
-5083.8, 179824, -291.713, 3.96227, -1087.69, 0.609507, 0.293258, 0.993198, 0.349787, 0.651995, 0.0001, 91, 246, 47.2768, 0.187371, 1.21712, 1, 1, 0, 113053
-5083.8, 179824, -291.713, 3.96227, -1087.69, 0.609507, 0.293258, 0.993198, 0.349787, 0.651995, 3, 91, 246, 47.2768, 0.187371, 1.06139, 1, 1, 0, 113053
-573.528, 212351, -367.403, 4.53239, -1249.95, 0.761982, 0.341797, 0.958125, 0.351078, 0.648177, 0.0001, 182, 246, 47.2768, 0.187371, 3.23933, 1, 0, 0, 113053
-573.528, 212351, -367.403, 4.53239, -1249.95, 0.761982, 0.341797, 0.958125, 0.351078, 0.648177, 3, 182, 246, 47.2768, 0.187371, 2.99666, 1, 0, 0, 113053
-7005.7, 124297, -218.953, 2.2845, -676.032, 0.518838, 0.415076, 1.03299, 0.34851, 0.655882, 0.0001, 45.5, 246, 49.5625, 0.247114, 1.06265, 1, 1, 0, 113059
-3089.79, 155039, -289.147, 2.81032, -853.263, 0.688495, 0.41853, 0.958125, 0.351078, 0.648177, 0.0001, 182, 246, 49.5625, 0.247114, 1.21388, 1, 1, 0, 113059
-10790.7, 143528, -71.9812, 2.13399, -903.573, 0.628145, 0.296341, 1.03299, 0.34851, 0.655882, 0.0001, 45.5, 246, 24.9931, 0.0912287, 0, 0, 1, 0, 113063
-9740.92, 265860, -55.4076, 1.65039, -667.648, 0.0678535, 0.261952, 0.958125, 0.351078, 0.648177, 0.0001, 182, 246, 14.8089, 0.0372722, 0, 0, 1, 0, 113066
-10625.2, 548749, -465.165, 0.209528, -696.93, 0.00676003, 0.731905, 1.03299, 0.34851, 0.655882, 3, 45.5, 246, 41.1253, 0.226943, 0, 0, 0, 0, 113075
-10874.8, 433595, -62.8397, 0.552693, -1028.02, 0.345077, 0.345252, 1.03299, 0.34851, 0.655882, 0.0001, 45.5, 246, 23.1905, 0.0371318, 0, 0, 1, 0, 113076
-10874.8, 433595, -62.8397, 0.552693, -1028.02, 0.345077, 0.345252, 1.03299, 0.34851, 0.655882, 3, 45.5, 246, 23.1905, 0.0371318, 0, 0, 1, 0, 113076
-9995.73, 461594, -70.5388, 0.583998, -1088.46, 0.366479, 0.31074, 0.993198, 0.349787, 0.651995, 0.0001, 91, 246, 23.1905, 0.0371318, 0, 0, 1, 0, 113076
-8914.13, 493208, -79.0057, 0.616489, -1156.73, 0.390685, 0.280788, 0.958125, 0.351078, 0.648177, 0.0001, 182, 246, 23.1905, 0.0371318, 0, 0, 1, 0, 113076
-10815.2, 166146, -14.8605, 2.18096, -657.798, 0.024292, 0.257005, 0.993198, 0.349787, 0.651995, 3, 91, 246, 11.0945, 0.0213017, 0, 0, 1, 0, 113087
-12378.9, -140110, -28.5349, 0.247758, -1133.79, 0.280299, 0.369572, 1.03299, 0.34851, 0.655882, 0.0001, 45.5, 246, -71.489, 0.136067, 0, 0, 1, 0, 113090
-12378.9, -140110, -28.5349, 0.247758, -1133.79, 0.280299, 0.369572, 1.03299, 0.34851, 0.655882, 3, 45.5, 246, -71.489, 0.136067, 0, 0, 1, 0, 113090
-13386.2, 132797, 28.7153, 3.45001, -1105.32, 0.0177937, 0.147322, 1.03299, 0.34851, 0.655882, 0.0001, 45.5, 246, 15.2825, 0.024461, 0, 0, 0, 0, 113096
-13386.2, 132797, 28.7153, 3.45001, -1105.32, 0.0177937, 0.147322, 1.03299, 0.34851, 0.655882, 3, 45.5, 246, 15.2825, 0.024461, 0, 0, 0, 0, 113096
-3270.53, 71812.1, -208.503, 4.29457, -894.645, 0.166322, 0.24393, 0.958125, 0.351078, 0.648177, 0.0001, 182, 246, 40.7372, 0.106658, 1.04936, 1, 1, 0, 113106
-375.62, 94613.2, -292.532, 4.99937, -979.839, 0.302206, 0.333668, 0.9175, 0.352806, 0.64323, 0.0001, 455, 246, 40.7372, 0.106658, 1.66756, 1, 1, 1, 113106
-375.62, 94613.2, -292.532, 4.99937, -979.839, 0.302206, 0.333668, 0.9175, 0.352806, 0.64323, 3, 455, 246, 40.7372, 0.106658, 1.61074, 1, 1, 1, 113106
-10762.2, 285094, -266.361, 1.44, -931.51, 0.00529084, 0.534029, 1.03299, 0.34851, 0.655882, 0.0001, 45.5, 246, 43.3281, 0.224944, 0, 0, 0, 0, 113112
-10762.2, 285094, -266.361, 1.44, -931.51, 0.00529084, 0.534029, 1.03299, 0.34851, 0.655882, 3, 45.5, 246, 43.3281, 0.224944, 0, 0, 0, 0, 113112
-12305.8, 217434, -28.2394, 1.51829, -959.916, 0.851579, 0.308358, 1.03299, 0.34851, 0.655882, 0.0001, 45.5, 246, 19.2894, 0.0389615, 0, 0, 1, 0, 113113
-12305.8, 217434, -28.2394, 1.51829, -959.916, 0.851579, 0.308358, 1.03299, 0.34851, 0.655882, 3, 45.5, 246, 19.2894, 0.0389615, 0, 0, 1, 0, 113113
-8177.89, -2494.61, -19.6006, 2.56617, -971.734, 0.0293135, 0.272572, 0.993198, 0.349787, 0.651995, 3, 91, 246, 13.176, 0.0539503, 0, 0, 1, 1, 113121
-5133.16, 405839, -470.101, 4.28692, -1049.96, 0.247263, 0.429875, 0.958125, 0.351078, 0.648177, 3, 182, 246, 43.9239, 0.180502, 0, 0, 0, 0, 113125
-6953.15, 86327.9, -124.352, 3.04961, -1019.12, 0.000522824, 0.267926, 0.993198, 0.349787, 0.651995, 0.0001, 91, 246, 34.2647, 0.131595, 0, 0, 1, 0, 113136
-6953.15, 86327.9, -124.352, 3.04961, -1019.12, 0.000522824, 0.267926, 0.993198, 0.349787, 0.651995, 3, 91, 246, 34.2647, 0.131595, 0, 0, 1, 0, 113136
1309.16, 312150, -377.287, 4.2991, -872.315, 0.212795, 0.377183, 0.9175, 0.352806, 0.64323, 3, 455, 246, 34.4515, 0.143087, 1.73082, 1, 0, 0, 113141
-5702.54, 152242, -125.902, 3.09841, -1111.45, 0.522203, 0.269643, 0.9175, 0.352806, 0.64323, 3, 455, 246, 19.556, 0.0676916, 0, 0, 1, 0, 113143
-10989.9, 349123, -195.848, 0.860638, -738.571, 0.397383, 0.428352, 1.03299, 0.34851, 0.655882, 0.0001, 45.5, 246, 29.5238, 0.133756, 0, 0, 1, 0, 113155
-10989.9, 349123, -195.848, 0.860638, -738.571, 0.397383, 0.428352, 1.03299, 0.34851, 0.655882, 3, 45.5, 246, 29.5238, 0.133756, 0, 0, 1, 0, 113155
-10422, 251058, -232.108, 1.26363, -803.389, 0.833795, 0.48213, 1.03299, 0.34851, 0.655882, 0.0001, 45.5, 246, 38.0383, 0.196028, 0, 0, 0, 0, 113159
-10422, 251058, -232.108, 1.26363, -803.389, 0.833795, 0.48213, 1.03299, 0.34851, 0.655882, 3, 45.5, 246, 38.0383, 0.196028, 0, 0, 0, 0, 113159
-9036.02, 271655, -391.084, 3.53291, -676.524, 0.0693705, 0.440925, 0.993198, 0.349787, 0.651995, 0.0001, 91, 246, 46.7794, 0.22238, 1.20936, 1, 1, 0, 113163
-9036.02, 271655, -391.084, 3.53291, -676.524, 0.0693705, 0.440925, 0.993198, 0.349787, 0.651995, 3, 91, 246, 46.7794, 0.22238, 1.08576, 1, 1, 0, 113163
-3125.22, 284466, -453.183, 3.89808, -728.756, 0.131433, 0.481577, 0.958125, 0.351078, 0.648177, 0.0001, 182, 246, 46.7794, 0.22238, 2.74056, 1, 0, 0, 113163
-3125.22, 284466, -453.183, 3.89808, -728.756, 0.131433, 0.481577, 0.958125, 0.351078, 0.648177, 3, 182, 246, 46.7794, 0.22238, 2.54346, 1, 0, 0, 113163
-10279.6, 389344, -268.122, 0.618977, -738.035, 0.636483, 0.497715, 1.03299, 0.34851, 0.655882, 0.0001, 45.5, 246, 33.2887, 0.161635, 0, 0, 0, 0, 113164
-10279.6, 389344, -268.122, 0.618977, -738.035, 0.636483, 0.497715, 1.03299, 0.34851, 0.655882, 3, 45.5, 246, 33.2887, 0.161635, 0, 0, 0, 0, 113164
-8318.2, 188848, -225.021, 1.5576, -607.599, 0.462444, 0.453764, 0.993198, 0.349787, 0.651995, 0.0001, 91, 246, 39.3364, 0.229411, 0, 0, 1, 0, 113166
-10515.7, 199832, -307.473, 3.47345, -580.173, -0.0550977, 0.343881, 1.03299, 0.34851, 0.655882, 0.0001, 45.5, 246, 47.8302, 0.216226, 1.20823, 1, 0, 0, 113168
-10515.7, 199832, -307.473, 3.47345, -580.173, -0.0550977, 0.343881, 1.03299, 0.34851, 0.655882, 3, 45.5, 246, 47.8302, 0.216226, 1.12367, 1, 0, 0, 113168
-6542.39, 207121, -356.52, 3.7984, -609.391, 0.00297879, 0.367749, 0.993198, 0.349787, 0.651995, 0.0001, 91, 246, 47.8302, 0.216226, 1.4672, 1, 1, 0, 113168
-6542.39, 207121, -356.52, 3.7984, -609.391, 0.00297879, 0.367749, 0.993198, 0.349787, 0.651995, 3, 91, 246, 47.8302, 0.216226, 1.3639, 1, 1, 0, 113168
-1640.01, 216826, -415.64, 4.1898, -653.592, 0.0731085, 0.41234, 0.958125, 0.351078, 0.648177, 0.0001, 182, 246, 47.8302, 0.216226, 2.60303, 1, 0, 0, 113168
-1640.01, 216826, -415.64, 4.1898, -653.592, 0.0731085, 0.41234, 0.958125, 0.351078, 0.648177, 3, 182, 246, 47.8302, 0.216226, 2.4247, 1, 0, 0, 113168
-7818.85, 129600, -191.566, 3.59936, -972.934, -0.0616894, 0.24148, 1.03299, 0.34851, 0.655882, 3, 45.5, 246, 44.7812, 0.172757, 0, 0, 0, 0, 113172
-5285.31, 146629, -243.544, 3.93339, -989.604, 0.000663299, 0.262581, 0.993198, 0.349787, 0.651995, 0.0001, 91, 246, 44.7812, 0.172757, 1.01055, 1, 1, 0, 113172
-1880.61, 165756, -306.274, 4.33732, -1025.34, 0.0758271, 0.305064, 0.958125, 0.351078, 0.648177, 0.0001, 182, 246, 44.7812, 0.172757, 1.69492, 1, 0, 0, 113172
-1880.61, 165756, -306.274, 4.33732, -1025.34, 0.0758271, 0.305064, 0.958125, 0.351078, 0.648177, 3, 182, 246, 44.7812, 0.172757, 1.51713, 1, 0, 0, 113172
-7944.92, 705333, -367.056, 0.135318, -808.954, 0.564419, 0.506982, 1.03299, 0.34851, 0.655882, 3, 45.5, 246, 32.4165, 0.122361, 0, 0, 0, 0, 113176
-10894.6, 130497, -78.3287, 2.72675, -707.279, -0.0352428, 0.253241, 1.03299, 0.34851, 0.655882, 0.0001, 45.5, 246, 24.1277, 0.0913753, 0, 0, 1, 0, 113178
-10894.6, 130497, -78.3287, 2.72675, -707.279, -0.0352428, 0.253241, 1.03299, 0.34851, 0.655882, 3, 45.5, 246, 24.1277, 0.0913753, 0, 0, 1, 0, 113178
-5773.64, 103291, -200.524, 2.87851, -857.857, 0.117946, 0.338816, 1.03299, 0.34851, 0.655882, 0.0001, 45.5, 246, 51.4628, 0.224285, 1.19497, 1, 1, 0, 113179
-4018.58, 118147, -241.144, 3.1395, -894.505, 0.16069, 0.343425, 0.993198, 0.349787, 0.651995, 0.0001, 91, 246, 51.4628, 0.224285, 1.26869, 1, 1, 0, 113179
-4018.58, 118147, -241.144, 3.1395, -894.505, 0.16069, 0.343425, 0.993198, 0.349787, 0.651995, 3, 91, 246, 51.4628, 0.224285, 1.04441, 1, 1, 0, 113179
-1647.96, 135265, -289.609, 3.44445, -944.501, 0.213685, 0.363079, 0.958125, 0.351078, 0.648177, 0.0001, 182, 246, 51.4628, 0.224285, 1.74516, 1, 1, 0, 113179
-1647.96, 135265, -289.609, 3.44445, -944.501, 0.213685, 0.363079, 0.958125, 0.351078, 0.648177, 3, 182, 246, 51.4628, 0.224285, 1.59035, 1, 1, 0, 113179
48.2639, 536141, -526.216, 2.22686, -696.723, 0.0524733, 0.59545, 0.9175, 0.352806, 0.64323, 3, 455, 246, 37.5105, 0.190843, 0, 0, 0, 0, 113181
-10953.9, 399474, -379.365, 0.985218, -990.005, 0.171141, 0.673618, 1.03299, 0.34851, 0.655882, 3, 45.5, 246, 47.2029, 0.241912, 0, 0, 0, 0, 113183
-7917.32, 247282, -371.375, 3.4082, -692.615, 0.0831979, 0.439259, 0.993198, 0.349787, 0.651995, 0.0001, 91, 246, 47.5936, 0.226921, 1.19696, 1, 1, 0, 113184
-7917.32, 247282, -371.375, 3.4082, -692.615, 0.0831979, 0.439259, 0.993198, 0.349787, 0.651995, 3, 91, 246, 47.5936, 0.226921, 1.05762, 1, 1, 0, 113184
-2681.89, 260260, -430.158, 3.75362, -742.938, 0.14136, 0.47531, 0.958125, 0.351078, 0.648177, 0.0001, 182, 246, 47.5936, 0.226921, 2.38864, 1, 0, 0, 113184
-2681.89, 260260, -430.158, 3.75362, -742.938, 0.14136, 0.47531, 0.958125, 0.351078, 0.648177, 3, 182, 246, 47.5936, 0.226921, 2.21397, 1, 0, 0, 113184
-5956.6, 600947, -308.185, 0.0260808, -946.429, 0.254789, 0.487532, 1.03299, 0.34851, 0.655882, 0.0001, 45.5, 246, 34.3661, 0.127893, 0, 0, 0, 0, 113187
-4332.7, 656298, -327.416, 0.0284523, -1029.79, 0.277109, 0.442715, 0.958125, 0.351078, 0.648177, 0.0001, 182, 246, 34.3661, 0.127893, 4.272, 1, 0, 0, 113187
-4332.7, 656298, -327.416, 0.0284523, -1029.79, 0.277109, 0.442715, 0.958125, 0.351078, 0.648177, 3, 182, 246, 34.3661, 0.127893, 4.27241, 1, 0, 0, 113187
-9097.38, 314007, -240.664, 0.418264, -723.099, 0.252012, 0.517483, 1.03299, 0.34851, 0.655882, 0.0001, 45.5, 246, 35.2867, 0.197363, 0, 0, 0, 0, 113188
-6769.85, 103581, -168.391, 3.38848, -1099.86, -0.0551623, 0.264433, 1.03299, 0.34851, 0.655882, 3, 45.5, 246, 45.7967, 0.179095, 0, 0, 0, 0, 113191
-4810.3, 125154, -219.514, 3.69083, -1112.95, -9.33498e-05, 0.279559, 0.993198, 0.349787, 0.651995, 3, 91, 246, 45.7967, 0.179095, 0, 0, 1, 0, 113191
-2024.34, 148542, -280.586, 4.05137, -1144.03, 0.0657542, 0.313608, 0.958125, 0.351078, 0.648177, 0.0001, 182, 246, 45.7967, 0.179095, 1.54013, 1, 0, 0, 113191
-2024.34, 148542, -280.586, 4.05137, -1144.03, 0.0657542, 0.313608, 0.958125, 0.351078, 0.648177, 3, 182, 246, 45.7967, 0.179095, 1.36998, 1, 0, 0, 113191
-6066.62, -64087.1, 26.6387, 3.40125, -866.258, 0.383216, 0.213072, 1.03299, 0.34851, 0.655882, 0.0001, 45.5, 246, 4.54953, 0.0807279, 2.14476, 1, 1, 0, 113197
-6066.62, -64087.1, 26.6387, 3.40125, -866.258, 0.383216, 0.213072, 1.03299, 0.34851, 0.655882, 3, 45.5, 246, 4.54953, 0.0807279, 2.02692, 1, 1, 0, 113197
-7132.87, -51751.7, -0.382029, 3.79245, -924.922, 0.468332, 0.22673, 0.993198, 0.349787, 0.651995, 3, 91, 246, 4.54953, 0.0807279, 0, 0, 1, 0, 113197
-7175.09, 477506, -203.316, 0.321909, -1110.9, 0.501055, 0.386422, 0.993198, 0.349787, 0.651995, 0.0001, 91, 246, 31.3711, 0.104273, 0, 0, 1, 0, 113204
-8944.09, 108973, -72.7475, 1.01236, -1070.71, 0.00370282, 0.372159, 1.03299, 0.34851, 0.655882, 0.0001, 45.5, 246, 28.1852, 0.149863, 0, 0, 1, 0, 113212
-8944.09, 108973, -72.7475, 1.01236, -1070.71, 0.00370282, 0.372159, 1.03299, 0.34851, 0.655882, 3, 45.5, 246, 28.1852, 0.149863, 0, 0, 1, 0, 113212
-8546.12, 755328, -262.824, 0.146533, -690.014, 0.258632, 0.424548, 1.03299, 0.34851, 0.655882, 0.0001, 45.5, 246, 25.686, 0.085841, 0, 0, 0, 0, 113213
-8546.12, 755328, -262.824, 0.146533, -690.014, 0.258632, 0.424548, 1.03299, 0.34851, 0.655882, 3, 45.5, 246, 25.686, 0.085841, 0, 0, 0, 0, 113213
-7645.75, 775942, -272.088, 0.153291, -720.5, 0.269755, 0.394787, 0.993198, 0.349787, 0.651995, 3, 91, 246, 25.686, 0.085841, 0, 0, 1, 0, 113213
-5736.15, 64479, -138.964, 3.10375, -925.316, 0.0174762, 0.266894, 0.993198, 0.349787, 0.651995, 0.0001, 91, 246, 40.3276, 0.138991, 0, 0, 1, 0, 113214
-2306.91, 103112, -241.539, 3.79403, -990.958, 0.140015, 0.320214, 0.9175, 0.352806, 0.64323, 0.0001, 455, 246, 40.3276, 0.138991, 1.21974, 1, 1, 0, 113214
-2306.91, 103112, -241.539, 3.79403, -990.958, 0.140015, 0.320214, 0.9175, 0.352806, 0.64323, 3, 455, 246, 40.3276, 0.138991, 1.20732, 1, 1, 0, 113214
-14296.4, -194288, 0.62779, 0.536192, -1133.26, 0.0946312, 0.37844, 1.03299, 0.34851, 0.655882, 0.0001, 45.5, 246, -118.899, 0.125572, 0, 0, 1, 0, 113222
-14296.4, -194288, 0.62779, 0.536192, -1133.26, 0.0946312, 0.37844, 1.03299, 0.34851, 0.655882, 3, 45.5, 246, -118.899, 0.125572, 0, 0, 1, 0, 113222
-3401.49, 483030, -141.585, 4.30129, -1126.44, 0.231814, 0.227015, 0.9175, 0.352806, 0.64323, 0.0001, 455, 246, 21.4621, 0.0236053, 0, 0, 0, 0, 113223
-3401.49, 483030, -141.585, 4.30129, -1126.44, 0.231814, 0.227015, 0.9175, 0.352806, 0.64323, 3, 455, 246, 21.4621, 0.0236053, 0, 0, 0, 0, 113223
-11724.4, 310789, -41.4341, 0.847752, -581.999, 0.376378, 0.334623, 1.03299, 0.34851, 0.655882, 0.0001, 45.5, 246, 14.1534, 0.0342813, 0, 0, 1, 0, 113227
-11724.4, 310789, -41.4341, 0.847752, -581.999, 0.376378, 0.334623, 1.03299, 0.34851, 0.655882, 3, 45.5, 246, 14.1534, 0.0342813, 0, 0, 1, 0, 113227
-10784.2, 323495, -47.8961, 0.901985, -620.03, 0.403751, 0.301353, 0.993198, 0.349787, 0.651995, 0.0001, 91, 246, 14.1534, 0.0342813, 0, 0, 1, 0, 113227
-2788.35, 760339, -338.201, 0.713967, -1232.26, 0.778257, 0.379383, 0.9175, 0.352806, 0.64323, 3, 455, 246, 31.2689, 0.107838, 0, 0, 0, 0, 113228
-5581.87, 71404.9, -145.717, 3.83577, -1219.34, 0.176662, 0.259353, 0.958125, 0.351078, 0.648177, 3, 182, 246, 31.5771, 0.0959187, 0, 0, 1, 0, 113236
-11333.4, 283026, -224.919, 1.60763, -994.48, 0.354674, 0.452685, 1.03299, 0.34851, 0.655882, 0.0001, 45.5, 246, 38.9795, 0.17829, 0, 0, 0, 0, 113251
-11333.4, 283026, -224.919, 1.60763, -994.48, 0.354674, 0.452685, 1.03299, 0.34851, 0.655882, 3, 45.5, 246, 38.9795, 0.17829, 0, 0, 0, 0, 113251
-5962.54, 337597, -287.68, 1.88469, -1149.78, 0.429527, 0.430498, 0.958125, 0.351078, 0.648177, 0.0001, 182, 246, 38.9795, 0.17829, 0, 0, 0, 0, 113251
-5962.54, 337597, -287.68, 1.88469, -1149.78, 0.429527, 0.430498, 0.958125, 0.351078, 0.648177, 3, 182, 246, 38.9795, 0.17829, 0, 0, 0, 0, 113251
-2020.36, 89343.4, -262.367, 5.08046, -1204.23, 0.645891, 0.333677, 0.9175, 0.352806, 0.64323, 0.0001, 455, 246, 36.5119, 0.0757737, 1.38709, 1, 1, 0, 113252
-2020.36, 89343.4, -262.367, 5.08046, -1204.23, 0.645891, 0.333677, 0.9175, 0.352806, 0.64323, 3, 455, 246, 36.5119, 0.0757737, 1.33798, 1, 1, 0, 113252
-10086.6, 182906, -200.494, 2.44993, -919.967, 0.509442, 0.374211, 1.03299, 0.34851, 0.655882, 0.0001, 45.5, 246, 41.086, 0.186672, 0, 0, 0, 0, 113262
-10086.6, 182906, -200.494, 2.44993, -919.967, 0.509442, 0.374211, 1.03299, 0.34851, 0.655882, 3, 45.5, 246, 41.086, 0.186672, 0, 0, 0, 0, 113262
-6859.12, -583.697, -41.9724, 2.97478, -804.315, 0.0105776, 0.239589, 1.03299, 0.34851, 0.655882, 0.0001, 45.5, 246, 27.64, 0.0353028, 0, 0, 1, 1, 113268
-6121.14, 39018.7, -150.305, 3.97736, -871.973, 0.188965, 0.300581, 0.9175, 0.352806, 0.64323, 3, 455, 246, 27.64, 0.0353028, 0, 0, 1, 1, 113268
-11382.8, 178207, -40.0299, 1.56321, -597.752, 0.225041, 0.311966, 1.03299, 0.34851, 0.655882, 0.0001, 45.5, 246, 15.3138, 0.0521037, 0, 0, 1, 0, 113270
-11382.8, 178207, -40.0299, 1.56321, -597.752, 0.225041, 0.311966, 1.03299, 0.34851, 0.655882, 3, 45.5, 246, 15.3138, 0.0521037, 0, 0, 1, 0, 113270
-10349.3, 186721, -51.1369, 1.67047, -622.327, 0.245234, 0.285485, 0.993198, 0.349787, 0.651995, 0.0001, 91, 246, 15.3138, 0.0521037, 0, 0, 1, 0, 113270
-4446.36, 632275, -154.614, 3.72252, -1072.06, 0.238181, 0.223748, 0.9175, 0.352806, 0.64323, 3, 455, 246, 22.7963, 0.0272651, 0, 0, 0, 0, 113287
-8818.72, 41518.2, -5.94119, 3.33559, -922.621, -0.0432223, 0.186765, 1.03299, 0.34851, 0.655882, 0.0001, 45.5, 246, 16.276, 0.0503324, 1.20073, 1, 1, 0, 113288
-8818.72, 41518.2, -5.94119, 3.33559, -922.621, -0.0432223, 0.186765, 1.03299, 0.34851, 0.655882, 3, 45.5, 246, 16.276, 0.0503324, 1.13785, 1, 1, 0, 113288
-7721.38, 39321.8, -53.2355, 3.57717, -732.534, 0.0647941, 0.163573, 1.03299, 0.34851, 0.655882, 0.0001, 45.5, 246, 23.9869, 0.0633296, 1.09581, 1, 1, 0, 113290
-7721.38, 39321.8, -53.2355, 3.57717, -732.534, 0.0647941, 0.163573, 1.03299, 0.34851, 0.655882, 3, 45.5, 246, 23.9869, 0.0633296, 1.02555, 1, 1, 0, 113290
-6192.43, 59209, -120.844, 4.34893, -781.59, 0.207306, 0.217215, 0.958125, 0.351078, 0.648177, 3, 182, 246, 23.9869, 0.0633296, 0, 0, 1, 0, 113290
-6336.85, 366430, -455.461, 3.71072, -721.267, 0.173098, 0.474402, 0.958125, 0.351078, 0.648177, 0.0001, 182, 246, 41.4234, 0.197078, 1.22444, 1, 0, 0, 113297
-6336.85, 366430, -455.461, 3.71072, -721.267, 0.173098, 0.474402, 0.958125, 0.351078, 0.648177, 3, 182, 246, 41.4234, 0.197078, 1.05995, 1, 0, 0, 113297
-10824.4, 260700, -70.2708, 4.14204, -730.541, 0.0968232, 0.171399, 0.958125, 0.351078, 0.648177, 0.0001, 182, 246, 15.2694, 0.0290961, 0, 0, 1, 0, 113300
-10824.4, 260700, -70.2708, 4.14204, -730.541, 0.0968232, 0.171399, 0.958125, 0.351078, 0.648177, 3, 182, 246, 15.2694, 0.0290961, 0, 0, 1, 0, 113300
-4512.56, 351806, -395.426, 4.42928, -1140.32, 0.14629, 0.345517, 0.958125, 0.351078, 0.648177, 0.0001, 182, 246, 42.3536, 0.161359, 1.30836, 1, 0, 0, 113301
-4512.56, 351806, -395.426, 4.42928, -1140.32, 0.14629, 0.345517, 0.958125, 0.351078, 0.648177, 3, 182, 246, 42.3536, 0.161359, 1.28772, 1, 0, 0, 113301
-4348.37, 336316, -435.805, 3.8236, -888.67, 0.0737646, 0.452686, 0.958125, 0.351078, 0.648177, 0.0001, 182, 246, 44.5022, 0.199609, 1.75722, 1, 0, 0, 113306
-4348.37, 336316, -435.805, 3.8236, -888.67, 0.0737646, 0.452686, 0.958125, 0.351078, 0.648177, 3, 182, 246, 44.5022, 0.199609, 1.61902, 1, 0, 0, 113306
-29090.9, 483629, -133.518, 3.37035, -1129.16, 0.112594, 0.169347, 1.03299, 0.34851, 0.655882, 0.0001, 45.5, 246, 31.5767, 0.073141, 0, 0, 0, 0, 113309
-29090.9, 483629, -133.518, 3.37035, -1129.16, 0.112594, 0.169347, 1.03299, 0.34851, 0.655882, 3, 45.5, 246, 31.5767, 0.073141, 0, 0, 0, 0, 113309
-6723.32, -9429.12, -28.4197, 3.26083, -734.595, 0.0344724, 0.210329, 1.03299, 0.34851, 0.655882, 3, 45.5, 246, 22.0322, 0.0259454, 0, 0, 1, 1, 113321
-7188.2, 114802, -182.707, 2.94631, -912.31, 0.19589, 0.314546, 1.03299, 0.34851, 0.655882, 3, 45.5, 246, 45.7446, 0.194753, 0, 0, 1, 0, 113325
-2763.25, 152199, -274.851, 3.5643, -1026.82, 0.307907, 0.340711, 0.958125, 0.351078, 0.648177, 0.0001, 182, 246, 45.7446, 0.194753, 1.26827, 1, 1, 0, 113325
-2763.25, 152199, -274.851, 3.5643, -1026.82, 0.307907, 0.340711, 0.958125, 0.351078, 0.648177, 3, 182, 246, 45.7446, 0.194753, 1.0498, 1, 1, 0, 113325
-6258.1, 29452, -155.63, 4.1144, -857.862, 0.249027, 0.308981, 0.9175, 0.352806, 0.64323, 3, 455, 246, 30.2581, 0.00369021, 0, 0, 1, 1, 113329
-9143.27, 770784, -205.176, 0.293623, -958.018, 0.136242, 0.391353, 1.03299, 0.34851, 0.655882, 0.0001, 45.5, 246, 29.0383, 0.0669999, 0, 0, 0, 0, 113332
-9143.27, 770784, -205.176, 0.293623, -958.018, 0.136242, 0.391353, 1.03299, 0.34851, 0.655882, 3, 45.5, 246, 29.0383, 0.0669999, 0, 0, 0, 0, 113332
-12239.9, 370196, -54.9751, 0.805047, -567.384, 0.395646, 0.337749, 1.03299, 0.34851, 0.655882, 0.0001, 45.5, 246, 14.9038, 0.0372355, 0, 0, 1, 0, 113333
-12239.9, 370196, -54.9751, 0.805047, -567.384, 0.395646, 0.337749, 1.03299, 0.34851, 0.655882, 3, 45.5, 246, 14.9038, 0.0372355, 0, 0, 1, 0, 113333
-9829.87, 400265, -69.0599, 0.911988, -652.148, 0.459582, 0.275908, 0.958125, 0.351078, 0.648177, 0.0001, 182, 246, 14.9038, 0.0372355, 0, 0, 1, 0, 113333
-10150, 166784, -173.738, 3.30171, -1145.42, -0.00288326, 0.273822, 1.03299, 0.34851, 0.655882, 0.0001, 45.5, 246, 41.3389, 0.162604, 0, 0, 0, 0, 113336
-10150, 166784, -173.738, 3.30171, -1145.42, -0.00288326, 0.273822, 1.03299, 0.34851, 0.655882, 3, 45.5, 246, 41.3389, 0.162604, 0, 0, 0, 0, 113336
-7317.55, 190600, -225.762, 3.60117, -1167.64, 0.0494334, 0.286785, 0.993198, 0.349787, 0.651995, 0.0001, 91, 246, 41.3389, 0.162604, 0, 0, 1, 0, 113336
-7317.55, 190600, -225.762, 3.60117, -1167.64, 0.0494334, 0.286785, 0.993198, 0.349787, 0.651995, 3, 91, 246, 41.3389, 0.162604, 0, 0, 1, 0, 113336
-10426.3, 390239, -224.967, 0.866521, -991.893, 0.0274441, 0.456961, 1.03299, 0.34851, 0.655882, 0.0001, 45.5, 246, 35.1437, 0.146954, 0, 0, 0, 0, 113347
-10426.3, 390239, -224.967, 0.866521, -991.893, 0.0274441, 0.456961, 1.03299, 0.34851, 0.655882, 3, 45.5, 246, 35.1437, 0.146954, 0, 0, 0, 0, 113347
-4811.6, 84195.5, -193.245, 2.95681, -754.815, 0.00359123, 0.309468, 1.03299, 0.34851, 0.655882, 0.0001, 45.5, 246, 52.825, 0.210718, 1.31256, 1, 1, 0, 113360
-4811.6, 84195.5, -193.245, 2.95681, -754.815, 0.00359123, 0.309468, 1.03299, 0.34851, 0.655882, 3, 45.5, 246, 52.825, 0.210718, 1.11201, 1, 1, 0, 113360
-3312.62, 95127.4, -230.834, 3.2071, -774.885, 0.0453413, 0.313977, 0.993198, 0.349787, 0.651995, 0.0001, 91, 246, 52.825, 0.210718, 1.39942, 1, 1, 0, 113360
-3312.62, 95127.4, -230.834, 3.2071, -774.885, 0.0453413, 0.313977, 0.993198, 0.349787, 0.651995, 3, 91, 246, 52.825, 0.210718, 1.22929, 1, 1, 0, 113360
-1322.3, 107424, -275.048, 3.49809, -805.861, 0.0953906, 0.333416, 0.958125, 0.351078, 0.648177, 0.0001, 182, 246, 52.825, 0.210718, 1.76577, 1, 1, 0, 113360
-1322.3, 107424, -275.048, 3.49809, -805.861, 0.0953906, 0.333416, 0.958125, 0.351078, 0.648177, 3, 182, 246, 52.825, 0.210718, 1.62164, 1, 1, 0, 113360
2337.65, 127012, -347.639, 3.97153, -869.878, 0.179966, 0.385148, 0.9175, 0.352806, 0.64323, 0.0001, 455, 246, 52.825, 0.210718, 0, 0, 0, 0, 113360
2337.65, 127012, -347.639, 3.97153, -869.878, 0.179966, 0.385148, 0.9175, 0.352806, 0.64323, 3, 455, 246, 52.825, 0.210718, 0, 0, 0, 0, 113360
-10609.9, 269656, -225.222, 1.12965, -739.774, 0.424133, 0.480868, 1.03299, 0.34851, 0.655882, 0.0001, 45.5, 246, 36.1619, 0.191729, 0, 0, 1, 0, 113363
-10609.9, 269656, -225.222, 1.12965, -739.774, 0.424133, 0.480868, 1.03299, 0.34851, 0.655882, 3, 45.5, 246, 36.1619, 0.191729, 0, 0, 0, 0, 113363
-8989.23, 287307, -245.069, 1.21646, -800.818, 0.461073, 0.462091, 0.993198, 0.349787, 0.651995, 3, 91, 246, 36.1619, 0.191729, 0, 0, 1, 0, 113363
-9853.63, 271073, -158.877, 1.3323, -732.494, 0.280349, 0.35915, 0.993198, 0.349787, 0.651995, 3, 91, 246, 27.3084, 0.126595, 0, 0, 1, 0, 113364
-8153.45, 285553, -176.212, 1.42117, -773.166, 0.302047, 0.33944, 0.958125, 0.351078, 0.648177, 0.0001, 182, 246, 27.3084, 0.126595, 0, 0, 1, 0, 113364
-8983.82, 99254.7, -112.174, 3.13306, -714.686, -0.0216723, 0.231789, 1.03299, 0.34851, 0.655882, 0.0001, 45.5, 246, 31.64, 0.117254, 0, 0, 1, 0, 113366
-8983.82, 99254.7, -112.174, 3.13306, -714.686, -0.0216723, 0.231789, 1.03299, 0.34851, 0.655882, 3, 45.5, 246, 31.64, 0.117254, 0, 0, 1, 0, 113366
-9959.15, 786517, -91.1704, 0.323979, -924.922, 0.0496994, 0.313197, 0.993198, 0.349787, 0.651995, 3, 91, 246, 23.5048, 0.0290087, 0, 0, 1, 0, 113367
-937.18, 143460, -286.264, 3.74216, -958.644, 0.681162, 0.353235, 0.9175, 0.352806, 0.64323, 0.0001, 455, 246, 41.4711, 0.174114, 1.62568, 1, 0, 0, 113369
-937.18, 143460, -286.264, 3.74216, -958.644, 0.681162, 0.353235, 0.9175, 0.352806, 0.64323, 3, 455, 246, 41.4711, 0.174114, 1.62056, 1, 0, 0, 113369
-6925.34, -14729.8, -1.73905, 3.37433, -917.203, 0.0987895, 0.19817, 1.03299, 0.34851, 0.655882, 3, 45.5, 246, 15.8464, 0.0470516, 0, 0, 1, 1, 113377
-8850.72, 652694, -232.755, 0.41038, -1121.8, 0.0775633, 0.418847, 1.03299, 0.34851, 0.655882, 0.0001, 45.5, 246, 33.8453, 0.0906651, 0, 0, 0, 0, 113386
-8850.72, 652694, -232.755, 0.41038, -1121.8, 0.0775633, 0.418847, 1.03299, 0.34851, 0.655882, 3, 45.5, 246, 33.8453, 0.0906651, 0, 0, 0, 0, 113386
-11151.1, 362358, -339.835, 1.12884, -944.211, 0.378405, 0.611917, 1.03299, 0.34851, 0.655882, 0.0001, 45.5, 246, 44.6855, 0.226899, 0, 0, 0, 0, 113387
-11151.1, 362358, -339.835, 1.12884, -944.211, 0.378405, 0.611917, 1.03299, 0.34851, 0.655882, 3, 45.5, 246, 44.6855, 0.226899, 0, 0, 0, 0, 113387
-10708.2, 138391, -9.97944, 1.61905, -1169.72, -0.00509247, 0.30852, 1.03299, 0.34851, 0.655882, 0.0001, 45.5, 246, 17.89, 0.0415202, 0, 0, 1, 0, 113389
-10708.2, 138391, -9.97944, 1.61905, -1169.72, -0.00509247, 0.30852, 1.03299, 0.34851, 0.655882, 3, 45.5, 246, 17.89, 0.0415202, 0, 0, 1, 0, 113389
-10450, 399398, -156.202, 0.673746, -869.643, 0.215714, 0.392481, 1.03299, 0.34851, 0.655882, 0.0001, 45.5, 246, 27.4127, 0.0974461, 0, 0, 1, 0, 113391
-10450, 399398, -156.202, 0.673746, -869.643, 0.215714, 0.392481, 1.03299, 0.34851, 0.655882, 3, 45.5, 246, 27.4127, 0.0974461, 0, 0, 1, 0, 113391
-10333.7, 80514.9, 7.40477, 2.65279, -1112.17, -0.0315267, 0.243497, 1.03299, 0.34851, 0.655882, 0.0001, 45.5, 246, 15.4121, 0.041296, 0, 0, 1, 0, 113394
-10333.7, 80514.9, 7.40477, 2.65279, -1112.17, -0.0315267, 0.243497, 1.03299, 0.34851, 0.655882, 3, 45.5, 246, 15.4121, 0.041296, 0, 0, 1, 0, 113394
-9471.41, 101615, -19.823, 2.84942, -1109.92, 0.00171589, 0.234906, 0.993198, 0.349787, 0.651995, 0.0001, 91, 246, 15.4121, 0.041296, 0, 0, 1, 0, 113394
-9471.41, 101615, -19.823, 2.84942, -1109.92, 0.00171589, 0.234906, 0.993198, 0.349787, 0.651995, 3, 91, 246, 15.4121, 0.041296, 0, 0, 1, 0, 113394
-8187.47, 543848, -293.486, 0.408171, -1083.97, 0.011884, 0.494497, 1.03299, 0.34851, 0.655882, 3, 45.5, 246, 37.5817, 0.14002, 0, 0, 0, 0, 113398
-11762.3, 363355, -26.3918, 0.696599, -588.701, 0.171006, 0.334916, 1.03299, 0.34851, 0.655882, 0.0001, 45.5, 246, 12.9228, 0.0207844, 0, 0, 1, 0, 113401
-11762.3, 363355, -26.3918, 0.696599, -588.701, 0.171006, 0.334916, 1.03299, 0.34851, 0.655882, 3, 45.5, 246, 12.9228, 0.0207844, 0, 0, 1, 0, 113401
-10898.4, 372871, -31.2445, 0.730733, -605.707, 0.178053, 0.300507, 0.993198, 0.349787, 0.651995, 0.0001, 91, 246, 12.9228, 0.0207844, 0, 0, 1, 0, 113401
-9414.26, 217588, -209.656, 1.53218, -1167.12, -0.0068196, 0.485433, 1.03299, 0.34851, 0.655882, 0.0001, 45.5, 246, 43.9473, 0.224217, 0, 0, 0, 0, 113403
-9414.26, 217588, -209.656, 1.53218, -1167.12, -0.0068196, 0.485433, 1.03299, 0.34851, 0.655882, 3, 45.5, 246, 43.9473, 0.224217, 0, 0, 0, 0, 113403
-7640.71, 242306, -238.882, 1.62363, -1176.16, 0.00410827, 0.472163, 0.993198, 0.349787, 0.651995, 0.0001, 91, 246, 43.9473, 0.224217, 0, 0, 1, 0, 113403
-7640.71, 242306, -238.882, 1.62363, -1176.16, 0.00410827, 0.472163, 0.993198, 0.349787, 0.651995, 3, 91, 246, 43.9473, 0.224217, 0, 0, 1, 0, 113403
-10148.8, 157174, -163.761, 2.88208, -888.947, 0.300866, 0.29451, 1.03299, 0.34851, 0.655882, 0.0001, 45.5, 246, 37.4753, 0.155115, 0, 0, 0, 0, 113406
765.087, 234061, -333.218, 4.09808, -1185.45, 0.566671, 0.367585, 0.9175, 0.352806, 0.64323, 0.0001, 455, 246, 37.4753, 0.155115, 2.18058, 1, 0, 0, 113406
765.087, 234061, -333.218, 4.09808, -1185.45, 0.566671, 0.367585, 0.9175, 0.352806, 0.64323, 3, 455, 246, 37.4753, 0.155115, 2.82181, 1, 0, 0, 113406
-11409.9, 380712, -268.286, 1.32752, -1153.82, -0.00046027, 0.498685, 1.03299, 0.34851, 0.655882, 0.0001, 45.5, 246, 41.5607, 0.176399, 0, 0, 0, 0, 113408
-11409.9, 380712, -268.286, 1.32752, -1153.82, -0.00046027, 0.498685, 1.03299, 0.34851, 0.655882, 3, 45.5, 246, 41.5607, 0.176399, 0, 0, 0, 0, 113408
-10762.1, 395065, -263.479, 0.671351, -701.673, 0.705576, 0.485396, 1.03299, 0.34851, 0.655882, 0.0001, 45.5, 246, 31.9432, 0.153469, 0, 0, 0, 0, 113409
-10762.1, 395065, -263.479, 0.671351, -701.673, 0.705576, 0.485396, 1.03299, 0.34851, 0.655882, 3, 45.5, 246, 31.9432, 0.153469, 0, 0, 0, 0, 113409
-7198.78, 456002, -297.183, 0.794245, -916.049, 0.914147, 0.445255, 0.958125, 0.351078, 0.648177, 3, 182, 246, 31.9432, 0.153469, 0, 0, 0, 0, 113409
-11097.6, 445493, -187.215, 0.907883, -1141.56, 0.0324506, 0.407461, 1.03299, 0.34851, 0.655882, 0.0001, 45.5, 246, 33.5447, 0.107309, 0, 0, 0, 0, 113415
-11761.1, 280178, -133.261, 1.42077, -918.328, 0.0187892, 0.369824, 1.03299, 0.34851, 0.655882, 0.0001, 45.5, 246, 28.9724, 0.114346, 0, 0, 1, 0, 113420
-11761.1, 280178, -133.261, 1.42077, -918.328, 0.0187892, 0.369824, 1.03299, 0.34851, 0.655882, 3, 45.5, 246, 28.9724, 0.114346, 0, 0, 1, 0, 113420
-8671.88, 21390.6, -13.9265, 1.7733, -1011.93, 0.141181, 0.291511, 0.993198, 0.349787, 0.651995, 0.0001, 91, 246, 11.0663, 0.0582526, 0, 0, 1, 1, 113421
-8671.88, 21390.6, -13.9265, 1.7733, -1011.93, 0.141181, 0.291511, 0.993198, 0.349787, 0.651995, 3, 91, 246, 11.0663, 0.0582526, 0, 0, 1, 1, 113421
-10555.5, 321517, -101.165, 0.660731, -600.134, 0.0170545, 0.365219, 1.03299, 0.34851, 0.655882, 0.0001, 45.5, 246, 19.8674, 0.0802533, 0, 0, 1, 0, 113422
-9771.56, 328260, -108.796, 0.68751, -603.716, 0.0191014, 0.332777, 0.993198, 0.349787, 0.651995, 0.0001, 91, 246, 19.8674, 0.0802533, 0, 0, 1, 0, 113422
-10778.5, 220615, -156.252, 1.90756, -1168.76, 0.0604181, 0.38221, 1.03299, 0.34851, 0.655882, 0.0001, 45.5, 246, 36.6541, 0.154437, 0, 0, 0, 0, 113423
-10778.5, 220615, -156.252, 1.90756, -1168.76, 0.0604181, 0.38221, 1.03299, 0.34851, 0.655882, 3, 45.5, 246, 36.6541, 0.154437, 0, 0, 0, 0, 113423
-9276.17, 288647, -386.247, 3.44579, -797.22, 0.20944, 0.443544, 0.993198, 0.349787, 0.651995, 0.0001, 91, 246, 46.5555, 0.216555, 1.01784, 1, 1, 0, 113425
-3177.97, 307245, -451.1, 3.82531, -868.982, 0.276593, 0.481722, 0.958125, 0.351078, 0.648177, 0.0001, 182, 246, 46.5555, 0.216555, 2.77354, 1, 0, 0, 113425
-3177.97, 307245, -451.1, 3.82531, -868.982, 0.276593, 0.481722, 0.958125, 0.351078, 0.648177, 3, 182, 246, 46.5555, 0.216555, 2.57202, 1, 0, 0, 113425
-6356.42, 116894, -233.901, 3.38128, -631.489, 0.524676, 0.257212, 1.03299, 0.34851, 0.655882, 0.0001, 45.5, 246, 47.2045, 0.180191, 1.37091, 1, 0, 0, 113428
-6356.42, 116894, -233.901, 3.38128, -631.489, 0.524676, 0.257212, 1.03299, 0.34851, 0.655882, 3, 45.5, 246, 47.2045, 0.180191, 1.27032, 1, 0, 0, 113428
-3979.32, 129385, -277.435, 3.80484, -716.929, 0.633842, 0.273484, 0.993198, 0.349787, 0.651995, 0.0001, 91, 246, 47.2045, 0.180191, 1.46122, 1, 1, 0, 113428
-3979.32, 129385, -277.435, 3.80484, -716.929, 0.633842, 0.273484, 0.993198, 0.349787, 0.651995, 3, 91, 246, 47.2045, 0.180191, 1.33821, 1, 1, 0, 113428
-767.93, 146470, -333.966, 4.34188, -835.913, 0.785233, 0.314214, 0.958125, 0.351078, 0.648177, 0.0001, 182, 246, 47.2045, 0.180191, 2.04348, 1, 1, 1, 113428
-767.93, 146470, -333.966, 4.34188, -835.913, 0.785233, 0.314214, 0.958125, 0.351078, 0.648177, 3, 182, 246, 47.2045, 0.180191, 1.91149, 1, 1, 1, 113428
-7796.48, 95208.1, -138.191, 3.41399, -927.142, 0.776021, 0.202326, 1.03299, 0.34851, 0.655882, 3, 45.5, 246, 37.7735, 0.128948, 0, 0, 0, 0, 113431
-6036.62, 117540, -184.174, 3.8975, -1078.3, 0.951281, 0.217159, 0.993198, 0.349787, 0.651995, 3, 91, 246, 37.7735, 0.128948, 0, 0, 1, 0, 113431
-3280.31, 150166, -248.513, 4.53888, -1303.22, 1.21141, 0.259679, 0.958125, 0.351078, 0.648177, 0.0001, 182, 246, 37.7735, 0.128948, 1.01543, 1, 0, 0, 113431
-12178.5, 277033, -19.7133, 1.00856, -578.781, 0.754313, 0.325056, 1.03299, 0.34851, 0.655882, 0.0001, 45.5, 246, 12.2853, 0.0204317, 0, 0, 1, 0, 113447
-12178.5, 277033, -19.7133, 1.00856, -578.781, 0.754313, 0.325056, 1.03299, 0.34851, 0.655882, 3, 45.5, 246, 12.2853, 0.0204317, 0, 0, 1, 0, 113447
-11153.8, 295660, -26.4383, 1.10003, -658.051, 0.861934, 0.292671, 0.993198, 0.349787, 0.651995, 3, 91, 246, 12.2853, 0.0204317, 0, 0, 1, 0, 113447
-5609.59, 519106, -360.414, 0.106211, -1017.44, 0.226877, 0.560678, 0.993198, 0.349787, 0.651995, 0.0001, 91, 246, 39.8103, 0.1816, 0, 0, 1, 0, 113450
-4325.96, 546816, -373.291, 0.111053, -1056.34, 0.235367, 0.549027, 0.958125, 0.351078, 0.648177, 0.0001, 182, 246, 39.8103, 0.1816, 0, 0, 0, 0, 113450
-7149.73, 496734, -263.152, 0.336664, -949.045, 0.011001, 0.443685, 0.993198, 0.349787, 0.651995, 0.0001, 91, 246, 33.8536, 0.136494, 0, 0, 1, 0, 113458
-5933.31, 514148, -274.971, 0.348273, -953.165, 0.011536, 0.422291, 0.958125, 0.351078, 0.648177, 0.0001, 182, 246, 33.8536, 0.136494, 0, 0, 0, 0, 113458
-8398.16, 98640.3, -117.649, 1.51178, -1046.28, -0.00216621, 0.409227, 1.03299, 0.34851, 0.655882, 0.0001, 45.5, 246, 40.4601, 0.242155, 0, 0, 1, 0, 113459
-8398.16, 98640.3, -117.649, 1.51178, -1046.28, -0.00216621, 0.409227, 1.03299, 0.34851, 0.655882, 3, 45.5, 246, 40.4601, 0.242155, 0, 0, 1, 0, 113459
-7795.47, 2873.09, -23.2885, 3.11742, -1029.16, -0.000113858, 0.244972, 0.993198, 0.349787, 0.651995, 3, 91, 246, 14.1326, 0.0564603, 0, 0, 1, 1, 113461
-7214.65, 46405.2, -108.424, 3.79871, -1064.46, 0.122246, 0.295806, 0.9175, 0.352806, 0.64323, 3, 455, 246, 14.1326, 0.0564603, 0, 0, 1, 1, 113461
-10438.8, 468763, -124.618, 0.567021, -976.823, 0.0498638, 0.369102, 1.03299, 0.34851, 0.655882, 0.0001, 45.5, 246, 26.3557, 0.0684986, 0, 0, 1, 0, 113462
-10438.8, 468763, -124.618, 0.567021, -976.823, 0.0498638, 0.369102, 1.03299, 0.34851, 0.655882, 3, 45.5, 246, 26.3557, 0.0684986, 0, 0, 1, 0, 113462
-6035.01, 64196.4, -130.454, 2.7245, -980.816, 0.0148393, 0.292654, 0.993198, 0.349787, 0.651995, 0.0001, 91, 246, 41.6631, 0.162128, 0, 0, 1, 0, 113464
-6035.01, 64196.4, -130.454, 2.7245, -980.816, 0.0148393, 0.292654, 0.993198, 0.349787, 0.651995, 3, 91, 246, 41.6631, 0.162128, 0, 0, 1, 0, 113464
-10484.2, 437260, -369.207, 0.916024, -1084.72, 0.19237, 0.630317, 1.03299, 0.34851, 0.655882, 3, 45.5, 246, 45.7626, 0.214607, 0, 0, 0, 0, 113467
-8741.96, 78481.7, -17.8676, 0.266305, -840.983, -0.000149063, 0.345656, 1.03299, 0.34851, 0.655882, 0.0001, 45.5, 246, 12.8833, 0.0604585, 0, 0, 1, 0, 113474
-8741.96, 78481.7, -17.8676, 0.266305, -840.983, -0.000149063, 0.345656, 1.03299, 0.34851, 0.655882, 3, 45.5, 246, 12.8833, 0.0604585, 0, 0, 1, 0, 113474
-7366.49, 657413, -297.819, 0.296863, -1126.71, 0.00885179, 0.470824, 1.03299, 0.34851, 0.655882, 0.0001, 45.5, 246, 36.9536, 0.116686, 0, 0, 0, 0, 113477
-12540.9, 359592, -368.792, 1.86399, -1120.72, 0.240183, 0.623286, 1.03299, 0.34851, 0.655882, 3, 45.5, 246, 50.4411, 0.240099, 0, 0, 0, 0, 113483
-4252.82, 762477, -311.319, 0.00913199, -1151.29, 0.0079371, 0.460518, 1.03299, 0.34851, 0.655882, 0.0001, 45.5, 246, 36.8704, 0.10366, 0, 0, 0, 0, 113499
-3458.23, 787858, -320.796, 0.00941111, -1152.81, 0.00794744, 0.433674, 0.993198, 0.349787, 0.651995, 0.0001, 91, 246, 36.8704, 0.10366, 0, 0, 1, 0, 113499
-8706.68, 27638.1, -13.5643, 1.76456, -1043.77, 0.26541, 0.31346, 1.03299, 0.34851, 0.655882, 0.0001, 45.5, 246, 17.1278, 0.0751972, 0, 0, 1, 1, 113500
-8706.68, 27638.1, -13.5643, 1.76456, -1043.77, 0.26541, 0.31346, 1.03299, 0.34851, 0.655882, 3, 45.5, 246, 17.1278, 0.0751972, 0, 0, 1, 1, 113500
