-10165.2, 92046.1, -51.1095, 3.06082, -694.471, 0.41644, 0.205505, 1.03299, 0.34851, 0.655882, 0.0001, 45.5, 246, 20.6264, 0.0660236, 0, 0, 1, 0, 167502
-10165.2, 92046.1, -51.1095, 3.06082, -694.471, 0.41644, 0.205505, 1.03299, 0.34851, 0.655882, 3, 45.5, 246, 20.6264, 0.0660236, 0, 0, 1, 0, 167502
-8973.2, 103058, -76.6056, 3.39511, -751.689, 0.494704, 0.2074, 0.993198, 0.349787, 0.651995, 0.0001, 91, 246, 20.6264, 0.0660236, 0, 0, 1, 0, 167502
-8973.2, 103058, -76.6056, 3.39511, -751.689, 0.494704, 0.2074, 0.993198, 0.349787, 0.651995, 3, 91, 246, 20.6264, 0.0660236, 0, 0, 1, 0, 167502
-7344.58, 116751, -109.298, 3.80239, -828.279, 0.598276, 0.227862, 0.958125, 0.351078, 0.648177, 0.0001, 182, 246, 20.6264, 0.0660236, 0, 0, 1, 0, 167502
-7344.58, 116751, -109.298, 3.80239, -828.279, 0.598276, 0.227862, 0.958125, 0.351078, 0.648177, 3, 182, 246, 20.6264, 0.0660236, 0, 0, 1, 0, 167502
-9912.85, 363857, -493.889, 3.91212, -1010.04, 0.158037, 0.525726, 0.993198, 0.349787, 0.651995, 0.0001, 91, 246, 53.1113, 0.235569, 1.42659, 1, 1, 0, 167506
-9912.85, 363857, -493.889, 3.91212, -1010.04, 0.158037, 0.525726, 0.993198, 0.349787, 0.651995, 3, 91, 246, 53.1113, 0.235569, 1.36661, 1, 1, 0, 167506
-8076.3, 303971, -195.451, 0.903363, -1189.04, 0.637777, 0.411081, 0.993198, 0.349787, 0.651995, 0.0001, 91, 246, 35.0686, 0.153709, 0, 0, 1, 0, 167508
-6568.91, 343803, -214.611, 0.977093, -1328.07, 0.713573, 0.390611, 0.958125, 0.351078, 0.648177, 0.0001, 182, 246, 35.0686, 0.153709, 0, 0, 0, 0, 167508
-10178.5, 472432, -122.375, 0.438397, -764.766, 0.194905, 0.368318, 1.03299, 0.34851, 0.655882, 0.0001, 45.5, 246, 22.4645, 0.0651802, 0, 0, 1, 0, 167511
-10178.5, 472432, -122.375, 0.438397, -764.766, 0.194905, 0.368318, 1.03299, 0.34851, 0.655882, 3, 45.5, 246, 22.4645, 0.0651802, 0, 0, 1, 0, 167511
-9566.87, 442184, -198.531, 0.644804, -1123.36, 0.381562, 0.418259, 1.03299, 0.34851, 0.655882, 0.0001, 45.5, 246, 33.5794, 0.108803, 0, 0, 0, 0, 167514
-9566.87, 442184, -198.531, 0.644804, -1123.36, 0.381562, 0.418259, 1.03299, 0.34851, 0.655882, 3, 45.5, 246, 33.5794, 0.108803, 0, 0, 0, 0, 167514
-9107.33, 110819, -130.649, 3.54307, -788.042, -0.0591501, 0.193584, 1.03299, 0.34851, 0.655882, 0.0001, 45.5, 246, 34.2215, 0.121844, 0, 0, 0, 0, 167515
-9107.33, 110819, -130.649, 3.54307, -788.042, -0.0591501, 0.193584, 1.03299, 0.34851, 0.655882, 3, 45.5, 246, 34.2215, 0.121844, 0, 0, 0, 0, 167515
-7213.09, 121528, -169.548, 3.86278, -798.908, 0.00111503, 0.209634, 0.993198, 0.349787, 0.651995, 0.0001, 91, 246, 34.2215, 0.121844, 0, 0, 1, 0, 167515
-7213.09, 121528, -169.548, 3.86278, -798.908, 0.00111503, 0.209634, 0.993198, 0.349787, 0.651995, 3, 91, 246, 34.2215, 0.121844, 0, 0, 1, 0, 167515
-293.338, 152963, -295.567, 4.90256, -888.196, 0.198052, 0.331969, 0.9175, 0.352806, 0.64323, 0.0001, 455, 246, 34.2215, 0.121844, 1.34827, 1, 0, 0, 167515
-293.338, 152963, -295.567, 4.90256, -888.196, 0.198052, 0.331969, 0.9175, 0.352806, 0.64323, 3, 455, 246, 34.2215, 0.121844, 1.34921, 1, 0, 0, 167515
-8135.59, 755185, -370.536, 0.0135045, -623.249, 0.0747787, 0.513241, 1.03299, 0.34851, 0.655882, 0.0001, 45.5, 246, 28.9318, 0.126139, 0, 0, 0, 0, 167525
-8135.59, 755185, -370.536, 0.0135045, -623.249, 0.0747787, 0.513241, 1.03299, 0.34851, 0.655882, 3, 45.5, 246, 28.9318, 0.126139, 0, 0, 0, 0, 167525
-7081.39, 767592, -382.362, 0.0139881, -630.838, 0.0756737, 0.491104, 0.993198, 0.349787, 0.651995, 3, 91, 246, 28.9318, 0.126139, 0, 0, 1, 0, 167525
-11312.3, 295540, -154.458, 1.34096, -1078.45, 0.320285, 0.388137, 1.03299, 0.34851, 0.655882, 0.0001, 45.5, 246, 32.551, 0.12247, 0, 0, 0, 0, 167526
-11312.3, 295540, -154.458, 1.34096, -1078.45, 0.320285, 0.388137, 1.03299, 0.34851, 0.655882, 3, 45.5, 246, 32.551, 0.12247, 0, 0, 0, 0, 167526
-7606.67, 72604.9, -91.5528, 2.83149, -976.87, 0.00838392, 0.265468, 0.993198, 0.349787, 0.651995, 0.0001, 91, 246, 28.8276, 0.10902, 0, 0, 1, 0, 167528
-7606.67, 72604.9, -91.5528, 2.83149, -976.87, 0.00838392, 0.265468, 0.993198, 0.349787, 0.651995, 3, 91, 246, 28.8276, 0.10902, 0, 0, 1, 0, 167528
-6208.92, -61014.8, 17.1213, 3.38849, -965.698, -0.0522418, 0.22103, 1.03299, 0.34851, 0.655882, 0.0001, 45.5, 246, 9.87245, 0.0498891, 1.50059, 1, 1, 0, 167529
-6208.92, -61014.8, 17.1213, 3.38849, -965.698, -0.0522418, 0.22103, 1.03299, 0.34851, 0.655882, 3, 45.5, 246, 9.87245, 0.0498891, 1.3255, 1, 1, 0, 167529
-6646.45, 72055.2, -119.684, 3.52993, -770.275, 0.685338, 0.24778, 0.958125, 0.351078, 0.648177, 0.0001, 182, 246, 25.495, 0.0796594, 0, 0, 1, 0, 167530
-6646.45, 72055.2, -119.684, 3.52993, -770.275, 0.685338, 0.24778, 0.958125, 0.351078, 0.648177, 3, 182, 246, 25.495, 0.0796594, 0, 0, 1, 0, 167530
-4729.93, 93086, -174.465, 4.19162, -928.604, 0.900598, 0.297701, 0.9175, 0.352806, 0.64323, 0.0001, 455, 246, 25.495, 0.0796594, 0, 0, 1, 0, 167530
-4729.93, 93086, -174.465, 4.19162, -928.604, 0.900598, 0.297701, 0.9175, 0.352806, 0.64323, 3, 455, 246, 25.495, 0.0796594, 0, 0, 1, 0, 167530
-8419.65, 108822, -145.651, 3.11841, -758.225, 0.0631422, 0.254128, 1.03299, 0.34851, 0.655882, 0.0001, 45.5, 246, 37.3134, 0.145486, 0, 0, 1, 0, 167534
-8419.65, 108822, -145.651, 3.11841, -758.225, 0.0631422, 0.254128, 1.03299, 0.34851, 0.655882, 3, 45.5, 246, 37.3134, 0.145486, 0, 0, 1, 0, 167534
-558.277, 152687, -294.199, 4.27835, -894.084, 0.272355, 0.342231, 0.9175, 0.352806, 0.64323, 0.0001, 455, 246, 37.3134, 0.145486, 1.44472, 1, 0, 0, 167534
-558.277, 152687, -294.199, 4.27835, -894.084, 0.272355, 0.342231, 0.9175, 0.352806, 0.64323, 3, 455, 246, 37.3134, 0.145486, 1.44496, 1, 0, 0, 167534
-8095.98, 354282, -215.441, 0.79239, -1070.45, 0.108953, 0.423959, 0.993198, 0.349787, 0.651995, 0.0001, 91, 246, 35.1989, 0.151401, 0, 0, 1, 0, 167542
-11975.1, 168576, -33.4437, 2.22066, -1155.94, -0.00993827, 0.279221, 1.03299, 0.34851, 0.655882, 0.0001, 45.5, 246, 22.3764, 0.0607998, 0, 0, 1, 0, 167546
-11975.1, 168576, -33.4437, 2.22066, -1155.94, -0.00993827, 0.279221, 1.03299, 0.34851, 0.655882, 3, 45.5, 246, 22.3764, 0.0607998, 0, 0, 1, 0, 167546
-10578.3, 355420, -260.73, 1.1178, -1081.42, 0.377294, 0.498124, 1.03299, 0.34851, 0.655882, 0.0001, 45.5, 246, 40.0876, 0.175885, 0, 0, 0, 0, 167550
-10578.3, 355420, -260.73, 1.1178, -1081.42, 0.377294, 0.498124, 1.03299, 0.34851, 0.655882, 3, 45.5, 246, 40.0876, 0.175885, 0, 0, 0, 0, 167550
-10071.6, 91692.5, -44.2572, 3.1377, -968.444, 0.105727, 0.208108, 1.03299, 0.34851, 0.655882, 0.0001, 45.5, 246, 23.237, 0.0748197, 0, 0, 1, 0, 167552
-10071.6, 91692.5, -44.2572, 3.1377, -968.444, 0.105727, 0.208108, 1.03299, 0.34851, 0.655882, 3, 45.5, 246, 23.237, 0.0748197, 0, 0, 1, 0, 167552
-9466.86, 203389, -328.096, 3.0488, -707.588, 0.346479, 0.43842, 1.03299, 0.34851, 0.655882, 0.0001, 45.5, 246, 51.8665, 0.244469, 1.26524, 1, 0, 0, 167553
-9466.86, 203389, -328.096, 3.0488, -707.588, 0.346479, 0.43842, 1.03299, 0.34851, 0.655882, 3, 45.5, 246, 51.8665, 0.244469, 1.17551, 1, 0, 0, 167553
-5619.76, 219072, -379.431, 3.38941, -782.081, 0.41463, 0.456897, 0.993198, 0.349787, 0.651995, 0.0001, 91, 246, 51.8665, 0.244469, 1.47176, 1, 1, 0, 167553
-5619.76, 219072, -379.431, 3.38941, -782.081, 0.41463, 0.456897, 0.993198, 0.349787, 0.651995, 3, 91, 246, 51.8665, 0.244469, 1.36247, 1, 1, 0, 167553
-625.123, 239431, -443.103, 3.80439, -880.935, 0.504407, 0.494892, 0.958125, 0.351078, 0.648177, 0.0001, 182, 246, 51.8665, 0.244469, 0, 0, 0, 0, 167553
-625.123, 239431, -443.103, 3.80439, -880.935, 0.504407, 0.494892, 0.958125, 0.351078, 0.648177, 3, 182, 246, 51.8665, 0.244469, 5.35896, 1, 0, 0, 167553
-10205.2, 336745, -266.666, 0.580213, -619.264, 0.320718, 0.531996, 1.03299, 0.34851, 0.655882, 0.0001, 45.5, 246, 34.6148, 0.196725, 0, 0, 0, 0, 167557
-10205.2, 336745, -266.666, 0.580213, -619.264, 0.320718, 0.531996, 1.03299, 0.34851, 0.655882, 3, 45.5, 246, 34.6148, 0.196725, 0, 0, 0, 0, 167557
-8946.01, 351080, -281.525, 0.615715, -656.835, 0.339492, 0.513252, 0.993198, 0.349787, 0.651995, 0.0001, 91, 246, 34.6148, 0.196725, 0, 0, 1, 0, 167557
-11967.6, 638488, -66.3904, 0.409952, -630.444, 0.502844, 0.343914, 1.03299, 0.34851, 0.655882, 0.0001, 45.5, 246, 16.6087, 0.0252618, 0, 0, 1, 0, 167564
-11967.6, 638488, -66.3904, 0.409952, -630.444, 0.502844, 0.343914, 1.03299, 0.34851, 0.655882, 3, 45.5, 246, 16.6087, 0.0252618, 0, 0, 1, 0, 167564
-7626.94, 48625.2, -71.4749, 3.63087, -964.454, 1.01511, 0.281265, 0.9175, 0.352806, 0.64323, 3, 455, 246, 8.97391, 0.0345042, 0, 0, 1, 0, 167569
-4302.09, 92192.1, -239.847, 3.4105, -562.006, 0.731007, 0.232832, 1.03299, 0.34851, 0.655882, 0.0001, 45.5, 246, 50.3449, 0.169855, 1.57174, 1, 0, 0, 167572
-4302.09, 92192.1, -239.847, 3.4105, -562.006, 0.731007, 0.232832, 1.03299, 0.34851, 0.655882, 3, 45.5, 246, 50.3449, 0.169855, 1.48853, 1, 0, 0, 167572
-2224.41, 103894, -282.281, 3.88572, -665.052, 0.892455, 0.249282, 0.993198, 0.349787, 0.651995, 0.0001, 91, 246, 50.3449, 0.169855, 1.66371, 1, 1, 0, 167572
-2224.41, 103894, -282.281, 3.88572, -665.052, 0.892455, 0.249282, 0.993198, 0.349787, 0.651995, 3, 91, 246, 50.3449, 0.169855, 1.56616, 1, 1, 0, 167572
654.633, 120969, -339.213, 4.51102, -816.161, 1.12895, 0.293012, 0.958125, 0.351078, 0.648177, 0.0001, 182, 246, 50.3449, 0.169855, 2.28652, 1, 1, 1, 167572
654.633, 120969, -339.213, 4.51102, -816.161, 1.12895, 0.293012, 0.958125, 0.351078, 0.648177, 3, 182, 246, 50.3449, 0.169855, 2.15732, 1, 1, 1, 167572
-10127.8, 331556, -163.952, 0.886598, -1082.64, 0.497839, 0.403652, 1.03299, 0.34851, 0.655882, 0.0001, 45.5, 246, 32.2125, 0.116522, 0, 0, 0, 0, 167574
-10127.8, 331556, -163.952, 0.886598, -1082.64, 0.497839, 0.403652, 1.03299, 0.34851, 0.655882, 3, 45.5, 246, 32.2125, 0.116522, 0, 0, 0, 0, 167574
-8731.16, 363875, -180.67, 0.952372, -1179.78, 0.544375, 0.375954, 0.993198, 0.349787, 0.651995, 3, 91, 246, 32.2125, 0.116522, 0, 0, 1, 0, 167574
-9034.23, 195905, -34.6484, 3.21452, -1250.51, 0.787306, 0.224931, 0.958125, 0.351078, 0.648177, 0.0001, 182, 246, 14.1987, 0.0181352, 0, 0, 1, 0, 167575
-9034.23, 195905, -34.6484, 3.21452, -1250.51, 0.787306, 0.224931, 0.958125, 0.351078, 0.648177, 3, 182, 246, 14.1987, 0.0181352, 0, 0, 1, 0, 167575
-4640.77, 253339, -97.4746, 3.81255, -1517.09, 1.02789, 0.25787, 0.9175, 0.352806, 0.64323, 0.0001, 455, 246, 14.1987, 0.0181352, 0, 0, 0, 0, 167575
-4640.77, 253339, -97.4746, 3.81255, -1517.09, 1.02789, 0.25787, 0.9175, 0.352806, 0.64323, 3, 455, 246, 14.1987, 0.0181352, 0, 0, 0, 0, 167575
-5631.31, 64075.2, -158.678, 3.19753, -588.42, 0.729497, 0.217951, 1.03299, 0.34851, 0.655882, 0.0001, 45.5, 246, 42.0292, 0.124231, 1.18322, 1, 1, 0, 167577
-4451.54, 74292.5, -192.212, 3.6252, -684.58, 0.882232, 0.225989, 0.993198, 0.349787, 0.651995, 0.0001, 91, 246, 42.0292, 0.124231, 1.10937, 1, 1, 0, 167577
-2742.77, 88963.2, -237.214, 4.17995, -823.584, 1.10276, 0.257601, 0.958125, 0.351078, 0.648177, 0.0001, 182, 246, 42.0292, 0.124231, 1.27216, 1, 1, 0, 167577
-2742.77, 88963.2, -237.214, 4.17995, -823.584, 1.10276, 0.257601, 0.958125, 0.351078, 0.648177, 3, 182, 246, 42.0292, 0.124231, 1.13791, 1, 1, 0, 167577
965.008, 122049, -328.335, 5.25941, -1138.32, 1.60054, 0.351321, 0.9175, 0.352806, 0.64323, 0.0001, 455, 246, 42.0292, 0.124231, 2.4459, 1, 0, 0, 167577
965.008, 122049, -328.335, 5.25941, -1138.32, 1.60054, 0.351321, 0.9175, 0.352806, 0.64323, 3, 455, 246, 42.0292, 0.124231, 2.44556, 1, 0, 0, 167577
-6452.38, -31551.8, 3.04595, 3.39526, -998.382, 0.515209, 0.198667, 1.03299, 0.34851, 0.655882, 3, 45.5, 246, 16.2257, 0.0467151, 0, 0, 1, 0, 167579
-8663.14, 26725.9, -22.3056, 1.44014, -1021.56, 0.185841, 0.300363, 0.993198, 0.349787, 0.651995, 0.0001, 91, 246, 14.982, 0.0812267, 0, 0, 1, 1, 167582
-8663.14, 26725.9, -22.3056, 1.44014, -1021.56, 0.185841, 0.300363, 0.993198, 0.349787, 0.651995, 3, 91, 246, 14.982, 0.0812267, 0, 0, 1, 1, 167582
-5484.04, 187086, -229.245, 3.70386, -949.668, 0.463406, 0.284778, 0.958125, 0.351078, 0.648177, 0.0001, 182, 246, 34.1019, 0.134979, 0, 0, 1, 0, 167583
-13.5371, 220256, -309.587, 4.34538, -1101.44, 0.616964, 0.345528, 0.9175, 0.352806, 0.64323, 0.0001, 455, 246, 34.1019, 0.134979, 1.2055, 1, 0, 0, 167583
-13.5371, 220256, -309.587, 4.34538, -1101.44, 0.616964, 0.345528, 0.9175, 0.352806, 0.64323, 3, 455, 246, 34.1019, 0.134979, 1.27845, 1, 0, 0, 167583
-10105.7, 593938, -133.848, 0.309799, -654.221, 0.260077, 0.36748, 1.03299, 0.34851, 0.655882, 0.0001, 45.5, 246, 20.335, 0.0558706, 0, 0, 1, 0, 167584
-10105.7, 593938, -133.848, 0.309799, -654.221, 0.260077, 0.36748, 1.03299, 0.34851, 0.655882, 3, 45.5, 246, 20.335, 0.0558706, 0, 0, 1, 0, 167584
-9365.67, 610495, -140.168, 0.324562, -683.453, 0.271684, 0.333599, 0.993198, 0.349787, 0.651995, 0.0001, 91, 246, 20.335, 0.0558706, 0, 0, 1, 0, 167584
-8500.05, 628456, -146.522, 0.339417, -715.42, 0.284377, 0.304029, 0.958125, 0.351078, 0.648177, 0.0001, 182, 246, 20.335, 0.0558706, 0, 0, 1, 0, 167584
-11680.7, 145766, -96.6651, 3.55497, -955.669, -0.0608585, 0.175783, 1.03299, 0.34851, 0.655882, 0.0001, 45.5, 246, 29.488, 0.0991658, 0, 0, 0, 0, 167590
-11680.7, 145766, -96.6651, 3.55497, -955.669, -0.0608585, 0.175783, 1.03299, 0.34851, 0.655882, 3, 45.5, 246, 29.488, 0.0991658, 0, 0, 0, 0, 167590
-9297.85, 161182, -138.122, 3.87439, -962.373, -0.000195796, 0.191207, 0.993198, 0.349787, 0.651995, 0.0001, 91, 246, 29.488, 0.0991658, 0, 0, 1, 0, 167590
-9297.85, 161182, -138.122, 3.87439, -962.373, -0.000195796, 0.191207, 0.993198, 0.349787, 0.651995, 3, 91, 246, 29.488, 0.0991658, 0, 0, 1, 0, 167590
-11149.7, 168077, -83.4922, 1.91145, -641.374, -0.0130635, 0.31592, 1.03299, 0.34851, 0.655882, 0.0001, 45.5, 246, 22.6704, 0.0974727, 0, 0, 1, 0, 167596
-11149.7, 168077, -83.4922, 1.91145, -641.374, -0.0130635, 0.31592, 1.03299, 0.34851, 0.655882, 3, 45.5, 246, 22.6704, 0.0974727, 0, 0, 1, 0, 167596
-9237.77, 125743, -128.882, 2.50156, -867.299, -0.0118755, 0.316141, 1.03299, 0.34851, 0.655882, 0.0001, 45.5, 246, 35.3155, 0.155071, 0, 0, 1, 0, 167597
-9237.77, 125743, -128.882, 2.50156, -867.299, -0.0118755, 0.316141, 1.03299, 0.34851, 0.655882, 3, 45.5, 246, 35.3155, 0.155071, 0, 0, 1, 0, 167597
-5873.57, 153331, -193.535, 2.89612, -895.226, 0.0520309, 0.312119, 0.958125, 0.351078, 0.648177, 3, 182, 246, 35.3155, 0.155071, 0, 0, 1, 0, 167597
-12908.2, 317059, -27.7852, 1.12901, -965.922, 0.489762, 0.323248, 1.03299, 0.34851, 0.655882, 3, 45.5, 246, 19.4944, 0.028219, 0, 0, 1, 0, 167603
-13507.3, 427445, -108.351, 4.07792, -1042.19, 0.144084, 0.165203, 0.958125, 0.351078, 0.648177, 0.0001, 182, 246, 22.4318, 0.0348301, 0, 0, 0, 0, 167613
-13507.3, 427445, -108.351, 4.07792, -1042.19, 0.144084, 0.165203, 0.958125, 0.351078, 0.648177, 3, 182, 246, 22.4318, 0.0348301, 0, 0, 0, 0, 167613
-6028.02, -614.466, -67.8682, 3.29613, -617.706, -0.0518566, 0.208579, 1.03299, 0.34851, 0.655882, 3, 45.5, 246, 33.2969, 0.00361216, 0, 0, 1, 1, 167618
-7750.81, 308781, -246.729, 0.976056, -1119.7, 0.0111613, 0.484491, 0.993198, 0.349787, 0.651995, 0.0001, 91, 246, 40.8632, 0.2012, 0, 0, 1, 0, 167622
-8965.61, 122273, -102.785, 1.51094, -1142.39, -0.00842963, 0.379026, 1.03299, 0.34851, 0.655882, 3, 45.5, 246, 33.9957, 0.172342, 0, 0, 1, 0, 167626
-7557.05, 38563.2, -59.7544, 3.64406, -667.022, -0.0602371, 0.157268, 1.03299, 0.34851, 0.655882, 0.0001, 45.5, 246, 24.5242, 0.061798, 1.06825, 1, 1, 0, 167635
-7036.56, 1271.04, -22.0515, 3.31111, -1051.29, 0.331825, 0.203842, 1.03299, 0.34851, 0.655882, 3, 45.5, 246, 22.7972, 0.0634556, 0, 0, 1, 1, 167640
-12741.4, 346046, -328.337, 2.04129, -1138.64, 0.00236997, 0.557385, 1.03299, 0.34851, 0.655882, 3, 45.5, 246, 48.4213, 0.223236, 0, 0, 0, 0, 167644
-10474.1, 653744, -219.77, 0.494692, -961.768, 0.0847584, 0.409192, 1.03299, 0.34851, 0.655882, 3, 45.5, 246, 30.4018, 0.0860421, 0, 0, 0, 0, 167646
-7500.98, 524874, -463.297, 0.283529, -1149.55, 0.200438, 0.740841, 1.03299, 0.34851, 0.655882, 3, 45.5, 246, 49.049, 0.231383, 0, 0, 0, 0, 167654
-11501.8, 238788, -11.6453, 1.03264, -944.837, 0.546251, 0.32535, 1.03299, 0.34851, 0.655882, 0.0001, 45.5, 246, 16.7028, 0.021691, 0, 0, 1, 0, 167655
-10605.8, 263335, -21.6914, 1.11301, -1035.01, 0.603386, 0.293168, 0.993198, 0.349787, 0.651995, 0.0001, 91, 246, 16.7028, 0.021691, 0, 0, 1, 0, 167655
-6801.16, 29247, -140.05, 4.10512, -932.862, 0.148086, 0.309957, 0.9175, 0.352806, 0.64323, 3, 455, 246, 24.2325, 0.0152975, 0, 0, 1, 1, 167656
-10570.2, 256176, -110.2, 0.954844, -738.186, 0.32009, 0.369862, 1.03299, 0.34851, 0.655882, 0.0001, 45.5, 246, 24.1774, 0.101549, 0, 0, 1, 0, 167658
-9586.66, 270946, -121.913, 1.01572, -780.867, 0.34163, 0.340115, 0.993198, 0.349787, 0.651995, 0.0001, 91, 246, 24.1774, 0.101549, 0, 0, 1, 0, 167658
1.05328, 526164, -377.648, 2.27386, -1348.54, 0.961129, 0.414572, 0.9175, 0.352806, 0.64323, 3, 455, 246, 34.7814, 0.143681, 0, 0, 0, 0, 167659
-10190.5, 644610, -268.066, 0.28876, -603.362, 0.0352491, 0.447597, 1.03299, 0.34851, 0.655882, 0.0001, 45.5, 246, 25.7867, 0.107635, 0, 0, 0, 0, 167660
-10190.5, 644610, -268.066, 0.28876, -603.362, 0.0352491, 0.447597, 1.03299, 0.34851, 0.655882, 3, 45.5, 246, 25.7867, 0.107635, 0, 0, 0, 0, 167660
-8162.08, 499695, -298.245, 0.298982, -923.329, 0.0761233, 0.513905, 1.03299, 0.34851, 0.655882, 0.0001, 45.5, 246, 36.0012, 0.155075, 0, 0, 0, 0, 167661
-8162.08, 499695, -298.245, 0.298982, -923.329, 0.0761233, 0.513905, 1.03299, 0.34851, 0.655882, 3, 45.5, 246, 36.0012, 0.155075, 0, 0, 0, 0, 167661
-6897.29, 518538, -311.825, 0.311309, -937.067, 0.0774638, 0.492255, 0.993198, 0.349787, 0.651995, 3, 91, 246, 36.0012, 0.155075, 0, 0, 1, 0, 167661
-6729.49, 46033.9, -92.9367, 3.17581, -890.212, 0.578579, 0.218083, 1.03299, 0.34851, 0.655882, 0.0001, 45.5, 246, 35.0876, 0.103785, 1.02349, 1, 1, 0, 167673
-1337.08, 132355, -275.363, 4.96657, -1440.14, 1.1739, 0.335934, 0.9175, 0.352806, 0.64323, 0.0001, 455, 246, 35.0876, 0.103785, 1.72434, 1, 0, 0, 167673
-1337.08, 132355, -275.363, 4.96657, -1440.14, 1.1739, 0.335934, 0.9175, 0.352806, 0.64323, 3, 455, 246, 35.0876, 0.103785, 1.72469, 1, 0, 0, 167673
-11033.8, 699478, -34.4299, 0.358327, -713.619, 0.245967, 0.304104, 0.993198, 0.349787, 0.651995, 3, 91, 246, 16.2566, 0.0122651, 0, 0, 1, 0, 167676
-10132, 718117, -37.8509, 0.374126, -742.867, 0.256527, 0.272701, 0.958125, 0.351078, 0.648177, 0.0001, 182, 246, 16.2566, 0.0122651, 0, 0, 1, 0, 167676
-11064.2, 314783, -406.286, 3.50084, -689.409, 0.120123, 0.451239, 0.993198, 0.349787, 0.651995, 0.0001, 91, 246, 44.8614, 0.213365, 1.01593, 1, 1, 0, 167677
-4407.31, 329239, -470.127, 3.87219, -748.944, 0.183264, 0.491774, 0.958125, 0.351078, 0.648177, 0.0001, 182, 246, 44.8614, 0.213365, 2.42687, 1, 0, 0, 167677
-4407.31, 329239, -470.127, 3.87219, -748.944, 0.183264, 0.491774, 0.958125, 0.351078, 0.648177, 3, 182, 246, 44.8614, 0.213365, 2.25978, 1, 0, 0, 167677
-9860.13, 563605, -106.826, 0.365145, -967.23, -0.000488033, 0.358987, 1.03299, 0.34851, 0.655882, 0.0001, 45.5, 246, 24.9125, 0.0491805, 0, 0, 1, 0, 167684
-9860.13, 563605, -106.826, 0.365145, -967.23, -0.000488033, 0.358987, 1.03299, 0.34851, 0.655882, 3, 45.5, 246, 24.9125, 0.0491805, 0, 0, 1, 0, 167684
-8171.65, 596872, -120.511, 0.389303, -969.529, 0.000762844, 0.294638, 0.958125, 0.351078, 0.648177, 0.0001, 182, 246, 24.9125, 0.0491805, 0, 0, 1, 0, 167684
-22.8514, 194753, -308.231, 5.12325, -784.469, 0.285936, 0.331078, 0.9175, 0.352806, 0.64323, 0.0001, 455, 246, 31.1386, 0.116308, 1.02089, 1, 0, 0, 167690
-22.8514, 194753, -308.231, 5.12325, -784.469, 0.285936, 0.331078, 0.9175, 0.352806, 0.64323, 3, 455, 246, 31.1386, 0.116308, 1.02996, 1, 0, 0, 167690
-10184.4, 184655, -166.737, 1.99281, -921.615, 0.30257, 0.385368, 1.03299, 0.34851, 0.655882, 0.0001, 45.5, 246, 37.1198, 0.174477, 0, 0, 1, 0, 167691
-10184.4, 184655, -166.737, 1.99281, -921.615, 0.30257, 0.385368, 1.03299, 0.34851, 0.655882, 3, 45.5, 246, 37.1198, 0.174477, 0, 0, 1, 0, 167691
-8187.29, 137692, -198.415, 3.51891, -927.684, -0.0460757, 0.254876, 1.03299, 0.34851, 0.655882, 3, 45.5, 246, 44.587, 0.17608, 0, 0, 0, 0, 167694
-5573.1, 153373, -248.524, 3.84389, -946.761, 0.0133947, 0.273988, 0.993198, 0.349787, 0.651995, 3, 91, 246, 44.587, 0.17608, 0, 0, 1, 0, 167694
-2115, 171174, -308.893, 4.23514, -983.666, 0.0852779, 0.313672, 0.958125, 0.351078, 0.648177, 0.0001, 182, 246, 44.587, 0.17608, 1.6, 1, 0, 0, 167694
-2115, 171174, -308.893, 4.23514, -983.666, 0.0852779, 0.313672, 0.958125, 0.351078, 0.648177, 3, 182, 246, 44.587, 0.17608, 1.43369, 1, 0, 0, 167694
-10270.8, 159692, -162.379, 2.83874, -920.129, 0.484442, 0.29522, 1.03299, 0.34851, 0.655882, 0.0001, 45.5, 246, 37.2322, 0.152063, 0, 0, 0, 0, 167698
-7982.02, 180857, -201.926, 3.15508, -1014.48, 0.567258, 0.296347, 0.993198, 0.349787, 0.651995, 0.0001, 91, 246, 37.2322, 0.152063, 0, 0, 1, 0, 167698
-7982.02, 180857, -201.926, 3.15508, -1014.48, 0.567258, 0.296347, 0.993198, 0.349787, 0.651995, 3, 91, 246, 37.2322, 0.152063, 0, 0, 1, 0, 167698
-11180.1, 181609, -124.835, 2.08519, -703.978, 0.00108116, 0.332944, 1.03299, 0.34851, 0.655882, 0.0001, 45.5, 246, 28.8722, 0.130854, 0, 0, 1, 0, 167703
-11180.1, 181609, -124.835, 2.08519, -703.978, 0.00108116, 0.332944, 1.03299, 0.34851, 0.655882, 3, 45.5, 246, 28.8722, 0.130854, 0, 0, 1, 0, 167703
-12454.2, 328344, -81.6135, 1.13613, -970.472, 0.739847, 0.339018, 1.03299, 0.34851, 0.655882, 0.0001, 45.5, 246, 24.0568, 0.0590035, 0, 0, 1, 0, 167705
-12454.2, 328344, -81.6135, 1.13613, -970.472, 0.739847, 0.339018, 1.03299, 0.34851, 0.655882, 3, 45.5, 246, 24.0568, 0.0590035, 0, 0, 1, 0, 167705
-11820.6, 209390, -98.6538, 1.80931, -904.048, 0.771519, 0.324592, 1.03299, 0.34851, 0.655882, 3, 45.5, 246, 26.4754, 0.0950597, 0, 0, 1, 0, 167711
-13130.9, 261680, -11.3709, 2.36554, -864.101, 0.254578, 0.241875, 0.993198, 0.349787, 0.651995, 0.0001, 91, 246, 14.3906, 0.0150837, 0, 0, 1, 0, 167713
-13130.9, 261680, -11.3709, 2.36554, -864.101, 0.254578, 0.241875, 0.993198, 0.349787, 0.651995, 3, 91, 246, 14.3906, 0.0150837, 0, 0, 1, 0, 167713
-9481.16, 232236, -70.2921, 1.97511, -625.987, 0.0193528, 0.259986, 0.958125, 0.351078, 0.648177, 0.0001, 182, 246, 15.8092, 0.0495207, 0, 0, 1, 0, 167716
-12034.6, 495602, -63.5208, 0.584795, -647.148, 0.0228788, 0.343398, 1.03299, 0.34851, 0.655882, 0.0001, 45.5, 246, 16.712, 0.0342943, 0, 0, 1, 0, 167718
-12034.6, 495602, -63.5208, 0.584795, -647.148, 0.0228788, 0.343398, 1.03299, 0.34851, 0.655882, 3, 45.5, 246, 16.712, 0.0342943, 0, 0, 1, 0, 167718
-10175.1, 415117, -44.1795, 1.25028, -1128.33, 0.580006, 0.264639, 0.958125, 0.351078, 0.648177, 3, 182, 246, 19.0431, 0.0208434, 0, 0, 1, 0, 167722
-11511.7, 229082, -191.008, 2.49752, -1162.93, -0.0282633, 0.370843, 1.03299, 0.34851, 0.655882, 0.0001, 45.5, 246, 40.5616, 0.17025, 0, 0, 0, 0, 167734
-11511.7, 229082, -191.008, 2.49752, -1162.93, -0.0282633, 0.370843, 1.03299, 0.34851, 0.655882, 3, 45.5, 246, 40.5616, 0.17025, 0, 0, 0, 0, 167734
-9725.5, 577127, -254.991, 0.23475, -555.674, 0.740531, 0.435247, 1.03299, 0.34851, 0.655882, 0.0001, 45.5, 246, 23.9109, 0.10024, 0, 0, 1, 0, 167736
-9725.5, 577127, -254.991, 0.23475, -555.674, 0.740531, 0.435247, 1.03299, 0.34851, 0.655882, 3, 45.5, 246, 23.9109, 0.10024, 0, 0, 1, 0, 167736
-8765.53, 609032, -264.864, 0.252934, -631.106, 0.838966, 0.406537, 0.993198, 0.349787, 0.651995, 3, 91, 246, 23.9109, 0.10024, 0, 0, 1, 0, 167736
-11478.5, 242079, -220.019, 2.1268, -919.792, 0.080451, 0.423832, 1.03299, 0.34851, 0.655882, 3, 45.5, 246, 40.2702, 0.189763, 0, 0, 0, 0, 167737
-6186.53, 97516.4, -130.444, 3.36533, -1195.5, 0.935198, 0.283059, 0.9175, 0.352806, 0.64323, 3, 455, 246, 20.9845, 0.0736781, 0, 0, 1, 0, 167743
-9078.75, 582717, -151.058, 0.382165, -1151.5, 0.166441, 0.37623, 1.03299, 0.34851, 0.655882, 0.0001, 45.5, 246, 30.4406, 0.0646506, 0, 0, 0, 0, 167744
-9078.75, 582717, -151.058, 0.382165, -1151.5, 0.166441, 0.37623, 1.03299, 0.34851, 0.655882, 3, 45.5, 246, 30.4406, 0.0646506, 0, 0, 0, 0, 167744
-8075.71, 612345, -160.367, 0.39895, -1184.29, 0.171625, 0.343246, 0.993198, 0.349787, 0.651995, 3, 91, 246, 30.4406, 0.0646506, 0, 0, 1, 0, 167744
-6331.56, 125797, -231.679, 3.26175, -808.194, 0.155799, 0.308414, 1.03299, 0.34851, 0.655882, 0.0001, 45.5, 246, 50.4197, 0.209251, 1.26181, 1, 1, 0, 167748
-6331.56, 125797, -231.679, 3.26175, -808.194, 0.155799, 0.308414, 1.03299, 0.34851, 0.655882, 3, 45.5, 246, 50.4197, 0.209251, 1.13921, 1, 1, 0, 167748
-3902.52, 140022, -278.548, 3.58948, -855.205, 0.212547, 0.322943, 0.993198, 0.349787, 0.651995, 0.0001, 91, 246, 50.4197, 0.209251, 1.44228, 1, 1, 0, 167748
-3902.52, 140022, -278.548, 3.58948, -855.205, 0.212547, 0.322943, 0.993198, 0.349787, 0.651995, 3, 91, 246, 50.4197, 0.209251, 1.30775, 1, 1, 0, 167748
-672.311, 157244, -335.915, 3.98368, -920.415, 0.285051, 0.356956, 0.958125, 0.351078, 0.648177, 0.0001, 182, 246, 50.4197, 0.209251, 2.24521, 1, 0, 0, 167748
-672.311, 157244, -335.915, 3.98368, -920.415, 0.285051, 0.356956, 0.958125, 0.351078, 0.648177, 3, 182, 246, 50.4197, 0.209251, 2.1008, 1, 0, 0, 167748
-11564.3, 641597, -102.3, 0.425784, -810.519, 0.83948, 0.351331, 1.03299, 0.34851, 0.655882, 0.0001, 45.5, 246, 21.8727, 0.0358491, 0, 0, 1, 0, 167755
-11564.3, 641597, -102.3, 0.425784, -810.519, 0.83948, 0.351331, 1.03299, 0.34851, 0.655882, 3, 45.5, 246, 21.8727, 0.0358491, 0, 0, 1, 0, 167755
-6506.5, 609011, -309.686, 0.139986, -1014.77, 0.286047, 0.486336, 1.03299, 0.34851, 0.655882, 0.0001, 45.5, 246, 35.6026, 0.125889, 0, 0, 0, 0, 167756
-5063.1, 362768, -402.409, 4.35742, -1074.44, 0.077964, 0.355858, 0.958125, 0.351078, 0.648177, 0.0001, 182, 246, 42.0768, 0.163059, 1.17252, 1, 0, 0, 167760
-5063.1, 362768, -402.409, 4.35742, -1074.44, 0.077964, 0.355858, 0.958125, 0.351078, 0.648177, 3, 182, 246, 42.0768, 0.163059, 1.14402, 1, 0, 0, 167760
-8443.74, 144064, -66.3468, 0.220819, -1055.93, 0.00279409, 0.37279, 1.03299, 0.34851, 0.655882, 0.0001, 45.5, 246, 24.1302, 0.119195, 0, 0, 1, 0, 167766
-8443.74, 144064, -66.3468, 0.220819, -1055.93, 0.00279409, 0.37279, 1.03299, 0.34851, 0.655882, 3, 45.5, 246, 24.1302, 0.119195, 0, 0, 1, 0, 167766
-10136.3, 254270, -51.7306, 1.03721, -848.954, 0.619593, 0.30221, 0.993198, 0.349787, 0.651995, 0.0001, 91, 246, 17.4383, 0.0454131, 0, 0, 1, 0, 167772
-9298.57, 98276.6, -70.4971, 2.19096, -1074.82, 0.000838772, 0.309374, 1.03299, 0.34851, 0.655882, 0.0001, 45.5, 246, 28.5758, 0.118781, 0, 0, 1, 0, 167777
-9298.57, 98276.6, -70.4971, 2.19096, -1074.82, 0.000838772, 0.309374, 1.03299, 0.34851, 0.655882, 3, 45.5, 246, 28.5758, 0.118781, 0, 0, 1, 0, 167777
-10652.3, 969477, -88.6097, 0.202872, -703.641, 0.20066, 0.347454, 1.03299, 0.34851, 0.655882, 0.0001, 45.5, 246, 19.4504, 0.0228345, 0, 0, 1, 0, 167778
-10652.3, 969477, -88.6097, 0.202872, -703.641, 0.20066, 0.347454, 1.03299, 0.34851, 0.655882, 3, 45.5, 246, 19.4504, 0.0228345, 0, 0, 1, 0, 167778
-9962.79, 989090, -92.6344, 0.211324, -727.196, 0.207425, 0.31183, 0.993198, 0.349787, 0.651995, 3, 91, 246, 19.4504, 0.0228345, 0, 0, 1, 0, 167778
-9983.85, 235278, -217.526, 1.72411, -1156.92, -0.00753778, 0.471797, 1.03299, 0.34851, 0.655882, 3, 45.5, 246, 43.4882, 0.210721, 0, 0, 0, 0, 167782
349.333, 474598, -348.171, 3.78672, -1235.92, 1.42647, 0.349474, 0.9175, 0.352806, 0.64323, 3, 455, 246, 28.346, 0.110631, 0, 0, 0, 0, 167785
-10749.7, 191268, -156.887, 2.35983, -1062.07, 0.0158942, 0.351272, 1.03299, 0.34851, 0.655882, 0.0001, 45.5, 246, 37.1208, 0.159348, 0, 0, 0, 0, 167786
-10749.7, 191268, -156.887, 2.35983, -1062.07, 0.0158942, 0.351272, 1.03299, 0.34851, 0.655882, 3, 45.5, 246, 37.1208, 0.159348, 0, 0, 0, 0, 167786
-8580.77, 211775, -192.006, 2.53432, -1078.16, 0.0422978, 0.342916, 0.993198, 0.349787, 0.651995, 0.0001, 91, 246, 37.1208, 0.159348, 0, 0, 1, 0, 167786
-8580.77, 211775, -192.006, 2.53432, -1078.16, 0.0422978, 0.342916, 0.993198, 0.349787, 0.651995, 3, 91, 246, 37.1208, 0.159348, 0, 0, 1, 0, 167786
-8203.76, 39039.7, -7.73724, 3.60256, -1162.45, 0.00150777, 0.200468, 0.993198, 0.349787, 0.651995, 0.0001, 91, 246, 12.168, 0.0465313, 1.27993, 1, 1, 0, 167795
-8602.75, 517777, -243.101, 0.360467, -939.086, -0.000104045, 0.451453, 1.03299, 0.34851, 0.655882, 0.0001, 45.5, 246, 32.5889, 0.122013, 0, 0, 0, 0, 167802
-8602.75, 517777, -243.101, 0.360467, -939.086, -0.000104045, 0.451453, 1.03299, 0.34851, 0.655882, 3, 45.5, 246, 32.5889, 0.122013, 0, 0, 0, 0, 167802
-7446.07, 534343, -255.027, 0.373583, -941.522, 0.000487433, 0.42445, 0.993198, 0.349787, 0.651995, 3, 91, 246, 32.5889, 0.122013, 0, 0, 1, 0, 167802
-8782.06, 62279, -36.2852, 0.851561, -1189.67, 0.119164, 0.318102, 0.993198, 0.349787, 0.651995, 0.0001, 91, 246, 20.0698, 0.134336, 0, 0, 1, 1, 167809
-8782.06, 62279, -36.2852, 0.851561, -1189.67, 0.119164, 0.318102, 0.993198, 0.349787, 0.651995, 3, 91, 246, 20.0698, 0.134336, 0, 0, 1, 1, 167809
-8417.84, 49298.7, -48.862, 3.01126, -692.215, -0.0431787, 0.224574, 1.03299, 0.34851, 0.655882, 0.0001, 45.5, 246, 22.4379, 0.0703623, 0, 0, 1, 0, 167813
-8417.84, 49298.7, -48.862, 3.01126, -692.215, -0.0431787, 0.224574, 1.03299, 0.34851, 0.655882, 3, 45.5, 246, 22.4379, 0.0703623, 0, 0, 1, 0, 167813
-7845.6, 57285.3, -72.6573, 3.25369, -694.787, -5.99827e-05, 0.224929, 0.993198, 0.349787, 0.651995, 3, 91, 246, 22.4379, 0.0703623, 0, 0, 1, 0, 167813
-10698.8, 107319, -17.605, 2.50836, -1169.7, -0.0250064, 0.25976, 1.03299, 0.34851, 0.655882, 0.0001, 45.5, 246, 20.3186, 0.059965, 0, 0, 1, 0, 167822
-10698.8, 107319, -17.605, 2.50836, -1169.7, -0.0250064, 0.25976, 1.03299, 0.34851, 0.655882, 3, 45.5, 246, 20.3186, 0.059965, 0, 0, 1, 0, 167822
-9579.55, 130812, -46.4843, 2.68883, -1169.93, 0.00463916, 0.248519, 0.993198, 0.349787, 0.651995, 0.0001, 91, 246, 20.3186, 0.059965, 0, 0, 1, 0, 167822
-9579.55, 130812, -46.4843, 2.68883, -1169.93, 0.00463916, 0.248519, 0.993198, 0.349787, 0.651995, 3, 91, 246, 20.3186, 0.059965, 0, 0, 1, 0, 167822
-11720.1, 334101, -194.543, 1.2885, -1027.35, 0.753933, 0.411339, 1.03299, 0.34851, 0.655882, 0.0001, 45.5, 246, 33.9918, 0.128969, 0, 0, 0, 0, 167823
-7294.33, -1734.76, -2.87734, 3.42572, -1027.38, -0.0228807, 0.192001, 1.03299, 0.34851, 0.655882, 3, 45.5, 246, 17.2849, 0.0563142, 0, 0, 1, 0, 167829
-9481.57, 93422.7, -84.226, 3.42321, -775.822, 0.05736, 0.184827, 1.03299, 0.34851, 0.655882, 0.0001, 45.5, 246, 27.4229, 0.0910849, 0, 0, 1, 0, 167830
-9481.57, 93422.7, -84.226, 3.42321, -775.822, 0.05736, 0.184827, 1.03299, 0.34851, 0.655882, 3, 45.5, 246, 27.4229, 0.0910849, 0, 0, 1, 0, 167830
-7990.66, 144029, -227.384, 3.06205, -761.847, 0.378847, 0.322028, 1.03299, 0.34851, 0.655882, 0.0001, 45.5, 246, 46.1513, 0.198539, 1.06818, 1, 0, 0, 167846
-7990.66, 144029, -227.384, 3.06205, -761.847, 0.378847, 0.322028, 1.03299, 0.34851, 0.655882, 3, 45.5, 246, 46.1513, 0.198539, 0, 0, 0, 0, 167846
-5483.03, 159187, -270.581, 3.40024, -835.127, 0.451681, 0.331649, 0.993198, 0.349787, 0.651995, 0.0001, 91, 246, 46.1513, 0.198539, 1.10703, 1, 1, 0, 167846
-2142.53, 178569, -324.627, 3.81217, -932.686, 0.547812, 0.360207, 0.958125, 0.351078, 0.648177, 0.0001, 182, 246, 46.1513, 0.198539, 1.6585, 1, 0, 0, 167846
-2142.53, 178569, -324.627, 3.81217, -932.686, 0.547812, 0.360207, 0.958125, 0.351078, 0.648177, 3, 182, 246, 46.1513, 0.198539, 1.45958, 1, 0, 0, 167846
-10479.5, 408570, -63.742, 1.20612, -646.234, 0.00814235, 0.268739, 0.958125, 0.351078, 0.648177, 3, 182, 246, 15.6497, 0.0328687, 0, 0, 1, 0, 167848
-7774.42, 142876, -100.583, 4.01314, -884.538, 0.786323, 0.213959, 0.958125, 0.351078, 0.648177, 3, 182, 246, 18.5086, 0.0541974, 0, 0, 1, 0, 167851
-11041, 164290, -117.291, 2.48941, -922.783, 0.390814, 0.296613, 1.03299, 0.34851, 0.655882, 0.0001, 45.5, 246, 31.0336, 0.122457, 0, 0, 0, 0, 167861
-8872.77, 234477, -146.152, 1.2482, -1021.72, 0.603228, 0.362037, 0.993198, 0.349787, 0.651995, 0.0001, 91, 246, 30.3761, 0.135785, 0, 0, 1, 0, 167867
-6016.74, 868865, -203.563, 0.128222, -1182.84, 0.461199, 0.348337, 0.993198, 0.349787, 0.651995, 0.0001, 91, 246, 31.2632, 0.055626, 0, 0, 1, 0, 167870
-5263.68, 918655, -210.571, 0.135095, -1276.57, 0.497534, 0.319354, 0.958125, 0.351078, 0.648177, 0.0001, 182, 246, 31.2632, 0.055626, 0, 0, 1, 0, 167870
-10865, 223247, -187.263, 1.76391, -853.837, 0.309441, 0.412596, 1.03299, 0.34851, 0.655882, 0.0001, 45.5, 246, 36.3837, 0.174999, 0, 0, 0, 0, 167874
-10865, 223247, -187.263, 1.76391, -853.837, 0.309441, 0.412596, 1.03299, 0.34851, 0.655882, 3, 45.5, 246, 36.3837, 0.174999, 0, 0, 0, 0, 167874
-2265.29, 295964, -292.068, 2.30834, -1082.03, 0.441184, 0.391182, 0.9175, 0.352806, 0.64323, 0.0001, 455, 246, 36.3837, 0.174999, 0, 0, 0, 0, 167874
-2265.29, 295964, -292.068, 2.30834, -1082.03, 0.441184, 0.391182, 0.9175, 0.352806, 0.64323, 3, 455, 246, 36.3837, 0.174999, 0, 0, 0, 0, 167874
-7220.5, 565430, -363.342, 0.159322, -954.145, 0.106217, 0.566909, 1.03299, 0.34851, 0.655882, 0.0001, 45.5, 246, 38.6421, 0.166835, 0, 0, 0, 0, 167876
-7220.5, 565430, -363.342, 0.159322, -954.145, 0.106217, 0.566909, 1.03299, 0.34851, 0.655882, 3, 45.5, 246, 38.6421, 0.166835, 0, 0, 0, 0, 167876
-5815.49, 587361, -377.802, 0.165983, -972.043, 0.108148, 0.550026, 0.993198, 0.349787, 0.651995, 3, 91, 246, 38.6421, 0.166835, 0, 0, 1, 0, 167876
-5893.38, -51938.8, -6.04088, 3.43032, -532.728, 0.783375, 0.202057, 1.03299, 0.34851, 0.655882, 0.0001, 45.5, 246, 14.3899, 0.0536374, 2.43595, 1, 1, 0, 167877
-5893.38, -51938.8, -6.04088, 3.43032, -532.728, 0.783375, 0.202057, 1.03299, 0.34851, 0.655882, 3, 45.5, 246, 14.3899, 0.0536374, 2.32984, 1, 1, 0, 167877
-8256.92, 425292, -296.702, 0.336584, -919.554, 0.375325, 0.53496, 1.03299, 0.34851, 0.655882, 0.0001, 45.5, 246, 37.4887, 0.174908, 0, 0, 0, 0, 167880
-7021.57, 451636, -311.034, 0.356705, -980.431, 0.399549, 0.515408, 0.993198, 0.349787, 0.651995, 0.0001, 91, 246, 37.4887, 0.174908, 0, 0, 1, 0, 167880
-9639.69, 640381, -172.363, 0.361469, -932.515, 0.178202, 0.383005, 1.03299, 0.34851, 0.655882, 3, 45.5, 246, 27.4868, 0.0675076, 0, 0, 0, 0, 167883
-9349.59, 516298, -342.689, 0.480664, -945.834, 0.150213, 0.55815, 1.03299, 0.34851, 0.655882, 0.0001, 45.5, 246, 38.7688, 0.170556, 0, 0, 0, 0, 167888
-9349.59, 516298, -342.689, 0.480664, -945.834, 0.150213, 0.55815, 1.03299, 0.34851, 0.655882, 3, 45.5, 246, 38.7688, 0.170556, 0, 0, 0, 0, 167888
-10510.8, 213958, -159.896, 1.70525, -989.184, 0.0801638, 0.39665, 1.03299, 0.34851, 0.655882, 0.0001, 45.5, 246, 35.4892, 0.163324, 0, 0, 0, 0, 167889
-10510.8, 213958, -159.896, 1.70525, -989.184, 0.0801638, 0.39665, 1.03299, 0.34851, 0.655882, 3, 45.5, 246, 35.4892, 0.163324, 0, 0, 0, 0, 167889
-9719.64, 478510, -313.6, 0.762409, -1145.55, 0.0427743, 0.535983, 1.03299, 0.34851, 0.655882, 0.0001, 45.5, 246, 41.4705, 0.16908, 0, 0, 0, 0, 167890
-9719.64, 478510, -313.6, 0.762409, -1145.55, 0.0427743, 0.535983, 1.03299, 0.34851, 0.655882, 3, 45.5, 246, 41.4705, 0.16908, 0, 0, 0, 0, 167890
-10257.1, 766648, -224.729, 0.288234, -677.078, 0.0200467, 0.403364, 1.03299, 0.34851, 0.655882, 0.0001, 45.5, 246, 24.1787, 0.0757682, 0, 0, 0, 0, 167891
-10257.1, 766648, -224.729, 0.288234, -677.078, 0.0200467, 0.403364, 1.03299, 0.34851, 0.655882, 3, 45.5, 246, 24.1787, 0.0757682, 0, 0, 0, 0, 167891
-7746.56, 786442, -243.205, 0.307878, -685.167, 0.0209604, 0.345226, 0.958125, 0.351078, 0.648177, 3, 182, 246, 24.1787, 0.0757682, 0, 0, 1, 0, 167891
-9506.97, 586715, -334.942, 0.416248, -894.388, 0.0385107, 0.525899, 1.03299, 0.34851, 0.655882, 0.0001, 45.5, 246, 35.9183, 0.148628, 0, 0, 0, 0, 167893
-9506.97, 586715, -334.942, 0.416248, -894.388, 0.0385107, 0.525899, 1.03299, 0.34851, 0.655882, 3, 45.5, 246, 35.9183, 0.148628, 0, 0, 0, 0, 167893
-8301.7, 650818, -403.516, 0.0350607, -694.351, 0.024699, 0.583641, 1.03299, 0.34851, 0.655882, 3, 45.5, 246, 34.0431, 0.162817, 0, 0, 0, 0, 167898
-6971.07, 663132, -417.504, 0.0363041, -697.458, 0.0248014, 0.568314, 0.993198, 0.349787, 0.651995, 3, 91, 246, 34.0431, 0.162817, 0, 0, 1, 0, 167898
-5798.35, 962941, -289.148, 0.547765, -741.431, 0.464639, 0.316131, 0.9175, 0.352806, 0.64323, 3, 455, 246, 22.2428, 0.0697364, 0, 0, 0, 0, 167901
-9116.9, 44372.4, 1.85587, 2.7684, -650.83, -0.00771136, 0.235592, 1.03299, 0.34851, 0.655882, 0.0001, 45.5, 246, 10.0229, 0.0314012, 0, 0, 1, 0, 167904
-9116.9, 44372.4, 1.85587, 2.7684, -650.83, -0.00771136, 0.235592, 1.03299, 0.34851, 0.655882, 3, 45.5, 246, 10.0229, 0.0314012, 0, 0, 1, 0, 167904
-7849.46, 175133, -100.594, 3.58859, -1179.45, 0.770736, 0.229588, 0.958125, 0.351078, 0.648177, 0.0001, 182, 246, 20.5557, 0.057568, 0, 0, 1, 0, 167905
-7849.46, 175133, -100.594, 3.58859, -1179.45, 0.770736, 0.229588, 0.958125, 0.351078, 0.648177, 3, 182, 246, 20.5557, 0.057568, 0, 0, 1, 0, 167905
-3243.09, 226718, -176.026, 4.29733, -1440.13, 1.02597, 0.281853, 0.9175, 0.352806, 0.64323, 0.0001, 455, 246, 20.5557, 0.057568, 0, 0, 0, 0, 167905
-3243.09, 226718, -176.026, 4.29733, -1440.13, 1.02597, 0.281853, 0.9175, 0.352806, 0.64323, 3, 455, 246, 20.5557, 0.057568, 0, 0, 0, 0, 167905
-9160.65, 657710, -186.529, 0.2852, -859.965, 0.310631, 0.38837, 1.03299, 0.34851, 0.655882, 0.0001, 45.5, 246, 26.5549, 0.0693473, 0, 0, 1, 0, 167921
-9160.65, 657710, -186.529, 0.2852, -859.965, 0.310631, 0.38837, 1.03299, 0.34851, 0.655882, 3, 45.5, 246, 26.5549, 0.0693473, 0, 0, 1, 0, 167921
-8220.67, 683237, -195.029, 0.299665, -905.89, 0.32706, 0.356015, 0.993198, 0.349787, 0.651995, 3, 91, 246, 26.5549, 0.0693473, 0, 0, 1, 0, 167921
-12212.7, 488438, -68.3311, 0.659837, -892.619, 0.34768, 0.343108, 1.03299, 0.34851, 0.655882, 0.0001, 45.5, 246, 21.5734, 0.0360669, 0, 0, 1, 0, 167925
-12212.7, 488438, -68.3311, 0.659837, -892.619, 0.34768, 0.343108, 1.03299, 0.34851, 0.655882, 3, 45.5, 246, 21.5734, 0.0360669, 0, 0, 1, 0, 167925
-6393.16, 74899.7, -132.953, 3.39048, -928.188, 0.963648, 0.234607, 0.993198, 0.349787, 0.651995, 0.0001, 91, 246, 33.9008, 0.108498, 0, 0, 1, 0, 167931
-1337.18, 151408, -274.919, 4.93028, -1551.7, 1.76324, 0.335694, 0.9175, 0.352806, 0.64323, 0.0001, 455, 246, 33.9008, 0.108498, 1.74652, 1, 0, 0, 167931
-1337.18, 151408, -274.919, 4.93028, -1551.7, 1.76324, 0.335694, 0.9175, 0.352806, 0.64323, 3, 455, 246, 33.9008, 0.108498, 1.74936, 1, 0, 0, 167931
-11594.6, 216623, -47.2269, 1.40544, -983.615, 0.563351, 0.321817, 1.03299, 0.34851, 0.655882, 0.0001, 45.5, 246, 21.3338, 0.0556473, 0, 0, 1, 0, 167932
-11594.6, 216623, -47.2269, 1.40544, -983.615, 0.563351, 0.321817, 1.03299, 0.34851, 0.655882, 3, 45.5, 246, 21.3338, 0.0556473, 0, 0, 1, 0, 167932
-10379.2, 242271, -63.3383, 1.52694, -1082.79, 0.628757, 0.29391, 0.993198, 0.349787, 0.651995, 0.0001, 91, 246, 21.3338, 0.0556473, 0, 0, 1, 0, 167932
-8752.6, 274103, -83.0797, 1.66494, -1206.57, 0.710531, 0.272751, 0.958125, 0.351078, 0.648177, 0.0001, 182, 246, 21.3338, 0.0556473, 0, 0, 1, 0, 167932
-9185.24, 352254, -297.459, 0.331177, -688.827, 0.7146, 0.565066, 1.03299, 0.34851, 0.655882, 0.0001, 45.5, 246, 36.347, 0.202629, 0, 0, 0, 0, 167933
-8101.2, 377835, -311.38, 0.358192, -779.479, 0.806153, 0.548424, 0.993198, 0.349787, 0.651995, 0.0001, 91, 246, 36.347, 0.202629, 0, 0, 1, 0, 167933
-11568.2, 430151, -339.652, 1.25619, -1163.86, 0.0841461, 0.578403, 1.03299, 0.34851, 0.655882, 3, 45.5, 246, 45.4251, 0.19912, 0, 0, 0, 0, 167935
-9187.11, 285528, -26.6827, 0.643996, -1055.46, 0.42738, 0.272422, 0.958125, 0.351078, 0.648177, 0.0001, 182, 246, 16.0185, 0.0202184, 0, 0, 1, 0, 167936
-9187.11, 285528, -26.6827, 0.643996, -1055.46, 0.42738, 0.272422, 0.958125, 0.351078, 0.648177, 3, 182, 246, 16.0185, 0.0202184, 0, 0, 1, 0, 167936
-5316.09, 90709.7, -183.216, 3.36547, -1072.96, 0.310613, 0.266205, 1.03299, 0.34851, 0.655882, 0.0001, 45.5, 246, 49.8889, 0.19018, 1.21554, 1, 1, 0, 167937
-3446.1, 114762, -236.05, 3.73969, -1153.34, 0.384879, 0.281811, 0.993198, 0.349787, 0.651995, 0.0001, 91, 246, 49.8889, 0.19018, 1.34787, 1, 1, 0, 167937
-3446.1, 114762, -236.05, 3.73969, -1153.34, 0.384879, 0.281811, 0.993198, 0.349787, 0.651995, 3, 91, 246, 49.8889, 0.19018, 1.15823, 1, 1, 0, 167937
-614.464, 144364, -303.071, 4.19987, -1263.75, 0.483405, 0.319413, 0.958125, 0.351078, 0.648177, 0.0001, 182, 246, 49.8889, 0.19018, 2.16789, 1, 0, 0, 167937
-614.464, 144364, -303.071, 4.19987, -1263.75, 0.483405, 0.319413, 0.958125, 0.351078, 0.648177, 3, 182, 246, 49.8889, 0.19018, 2.02748, 1, 0, 0, 167937
-12592.9, 320023, -31.6778, 1.09483, -1036.38, 0.229164, 0.326277, 1.03299, 0.34851, 0.655882, 0.0001, 45.5, 246, 20.6551, 0.0317956, 0, 0, 1, 0, 167938
-12592.9, 320023, -31.6778, 1.09483, -1036.38, 0.229164, 0.326277, 1.03299, 0.34851, 0.655882, 3, 45.5, 246, 20.6551, 0.0317956, 0, 0, 1, 0, 167938
-8341.74, 71137.8, -81.2016, 2.50767, -827.399, -0.00553946, 0.285788, 1.03299, 0.34851, 0.655882, 0.0001, 45.5, 246, 30.6164, 0.122278, 0, 0, 1, 0, 167950
-8341.74, 71137.8, -81.2016, 2.50767, -827.399, -0.00553946, 0.285788, 1.03299, 0.34851, 0.655882, 3, 45.5, 246, 30.6164, 0.122278, 0, 0, 1, 0, 167950
-4533.22, 113778, -182.663, 3.22351, -881.773, 0.114569, 0.297448, 0.9175, 0.352806, 0.64323, 3, 455, 246, 30.6164, 0.122278, 0, 0, 1, 0, 167950
-1701.49, 96830, -254.341, 3.56618, -745.825, 0.109903, 0.328797, 0.9175, 0.352806, 0.64323, 0.0001, 455, 246, 44.1737, 0.166089, 1.32277, 1, 1, 0, 167955
-1701.49, 96830, -254.341, 3.56618, -745.825, 0.109903, 0.328797, 0.9175, 0.352806, 0.64323, 3, 455, 246, 44.1737, 0.166089, 1.28498, 1, 1, 0, 167955
-10068.7, 507276, -194.73, 0.563807, -970.35, -0.000565767, 0.410352, 1.03299, 0.34851, 0.655882, 0.0001, 45.5, 246, 30.4423, 0.0993162, 0, 0, 0, 0, 167956
-10068.7, 507276, -194.73, 0.563807, -970.35, -0.000565767, 0.410352, 1.03299, 0.34851, 0.655882, 3, 45.5, 246, 30.4423, 0.0993162, 0, 0, 0, 0, 167956
-7081.8, 541940, -220.135, 0.607367, -977.031, 0.00244795, 0.355714, 0.958125, 0.351078, 0.648177, 3, 182, 246, 30.4423, 0.0993162, 0, 0, 0, 0, 167956
-10302.3, 228779, -249.451, 2.04122, -976.636, 0.0995742, 0.485026, 1.03299, 0.34851, 0.655882, 0.0001, 45.5, 246, 45.756, 0.22985, 0, 0, 0, 0, 167963
-10302.3, 228779, -249.451, 2.04122, -976.636, 0.0995742, 0.485026, 1.03299, 0.34851, 0.655882, 3, 45.5, 246, 45.756, 0.22985, 0, 0, 0, 0, 167963
-5744.57, -1770.05, -71.2639, 3.33008, -728.702, 0.2672, 0.205599, 1.03299, 0.34851, 0.655882, 3, 45.5, 246, 36.1175, 0.00750518, 0, 0, 1, 0, 167973
-9676.78, 592500, -170.235, 0.444844, -1073.82, 0.281219, 0.383996, 1.03299, 0.34851, 0.655882, 3, 45.5, 246, 30.1057, 0.0707541, 0, 0, 0, 0, 167975
-9914.89, 405350, -315.787, 0.546663, -794.621, 0.00713222, 0.581344, 1.03299, 0.34851, 0.655882, 0.0001, 45.5, 246, 38.9344, 0.205666, 0, 0, 0, 0, 167978
-9914.89, 405350, -315.787, 0.546663, -794.621, 0.00713222, 0.581344, 1.03299, 0.34851, 0.655882, 3, 45.5, 246, 38.9344, 0.205666, 0, 0, 0, 0, 167978
-8279.35, 418447, -333.553, 0.570737, -800.384, 0.00851225, 0.567216, 0.993198, 0.349787, 0.651995, 3, 91, 246, 38.9344, 0.205666, 0, 0, 1, 0, 167978
-7908.3, -4416.69, -12.9274, 2.31362, -695.433, -0.0207196, 0.285357, 1.03299, 0.34851, 0.655882, 3, 45.5, 246, 16.2032, 0.0388919, 0, 0, 1, 1, 167979
-9465.58, 225991, -50.353, 2.56941, -936.123, 0.391713, 0.240415, 0.958125, 0.351078, 0.648177, 0.0001, 182, 246, 15.5374, 0.02973, 0, 0, 1, 0, 167984
-9465.58, 225991, -50.353, 2.56941, -936.123, 0.391713, 0.240415, 0.958125, 0.351078, 0.648177, 3, 182, 246, 15.5374, 0.02973, 0, 0, 1, 0, 167984
-7114.17, 565144, -404.561, 0.0104427, -817.364, 0.782991, 0.588295, 1.03299, 0.34851, 0.655882, 3, 45.5, 246, 36.5023, 0.165734, 0, 0, 0, 0, 167986
-10979.1, 226466, -44.9389, 1.04906, -669.932, 0.0123524, 0.333898, 1.03299, 0.34851, 0.655882, 0.0001, 45.5, 246, 16.2464, 0.0516279, 0, 0, 1, 0, 167993
-10148.4, 234403, -53.4758, 1.09818, -672.899, 0.0174477, 0.302336, 0.993198, 0.349787, 0.651995, 0.0001, 91, 246, 16.2464, 0.0516279, 0, 0, 1, 0, 167993
-18927.4, -189618, -22.4959, 0.708021, -1174.75, -0.001314, 0.442995, 1.03299, 0.34851, 0.655882, 3, 45.5, 246, -103.964, 0.228196, 0, 0, 1, 0, 167997
