-7752.29, 93095.3, -138.774, 3.04766, -739.992, -0.0443368, 0.259962, 1.03299, 0.34851, 0.655882, 0.0001, 45.5, 246, 38.1125, 0.146996, 0, 0, 1, 0, 151505
-7752.29, 93095.3, -138.774, 3.04766, -739.992, -0.0443368, 0.259962, 1.03299, 0.34851, 0.655882, 3, 45.5, 246, 38.1125, 0.146996, 0, 0, 1, 0, 151505
-1245.48, 129786, -274.44, 4.06591, -818.297, 0.138672, 0.334253, 0.9175, 0.352806, 0.64323, 0.0001, 455, 246, 38.1125, 0.146996, 1.26239, 1, 1, 0, 151505
-1245.48, 129786, -274.44, 4.06591, -818.297, 0.138672, 0.334253, 0.9175, 0.352806, 0.64323, 3, 455, 246, 38.1125, 0.146996, 1.25396, 1, 1, 0, 151505
-2937.5, 377674, -455.118, 3.89572, -1349.84, 1.21276, 0.458327, 0.958125, 0.351078, 0.648177, 0.0001, 182, 246, 45.0818, 0.192291, 0, 0, 0, 0, 151507
-2937.5, 377674, -455.118, 3.89572, -1349.84, 1.21276, 0.458327, 0.958125, 0.351078, 0.648177, 3, 182, 246, 45.0818, 0.192291, 1.37196, 1, 0, 0, 151507
-10859.7, 333680, -94.1708, 0.698366, -605.208, 0.00438519, 0.359426, 1.03299, 0.34851, 0.655882, 0.0001, 45.5, 246, 19.1393, 0.0723254, 0, 0, 1, 0, 151512
-10859.7, 333680, -94.1708, 0.698366, -605.208, 0.00438519, 0.359426, 1.03299, 0.34851, 0.655882, 3, 45.5, 246, 19.1393, 0.0723254, 0, 0, 1, 0, 151512
-10001.4, 340271, -101.812, 0.726565, -607.573, 0.00661866, 0.326794, 0.993198, 0.349787, 0.651995, 0.0001, 91, 246, 19.1393, 0.0723254, 0, 0, 1, 0, 151512
-9825.82, 78154.1, -14.7581, 2.34938, -986.326, 0.022092, 0.271319, 1.03299, 0.34851, 0.655882, 0.0001, 45.5, 246, 17.4152, 0.0568967, 0, 0, 1, 0, 151517
-9825.82, 78154.1, -14.7581, 2.34938, -986.326, 0.022092, 0.271319, 1.03299, 0.34851, 0.655882, 3, 45.5, 246, 17.4152, 0.0568967, 0, 0, 1, 0, 151517
-10584.1, 241491, -366.377, 3.31778, -998.679, 0.775471, 0.442293, 1.03299, 0.34851, 0.655882, 0.0001, 45.5, 246, 54.5104, 0.238652, 1.19558, 1, 0, 0, 151518
-10584.1, 241491, -366.377, 3.31778, -998.679, 0.775471, 0.442293, 1.03299, 0.34851, 0.655882, 3, 45.5, 246, 54.5104, 0.238652, 1.1057, 1, 0, 0, 151518
-5392.13, 276200, -437.179, 3.80565, -1183.46, 0.947134, 0.471555, 0.993198, 0.349787, 0.651995, 0.0001, 91, 246, 54.5104, 0.238652, 1.57627, 1, 1, 0, 151518
-5392.13, 276200, -437.179, 3.80565, -1183.46, 0.947134, 0.471555, 0.993198, 0.349787, 0.651995, 3, 91, 246, 54.5104, 0.238652, 1.49116, 1, 1, 0, 151518
-10992.9, 437757, -143.208, 0.777644, -1074.6, 0.166835, 0.37803, 1.03299, 0.34851, 0.655882, 0.0001, 45.5, 246, 29.4236, 0.0824837, 0, 0, 0, 0, 151522
-10992.9, 437757, -143.208, 0.777644, -1074.6, 0.166835, 0.37803, 1.03299, 0.34851, 0.655882, 3, 45.5, 246, 29.4236, 0.0824837, 0, 0, 0, 0, 151522
-8213.15, 60301.2, -75.8681, 1.63686, -958.125, 0.494215, 0.35219, 1.03299, 0.34851, 0.655882, 3, 45.5, 246, 33.9023, 0.182177, 0, 0, 1, 0, 151525
-6308, 160332, -326.159, 3.32871, -659.621, 0.429073, 0.37627, 1.03299, 0.34851, 0.655882, 0.0001, 45.5, 246, 55.6359, 0.242816, 1.59163, 1, 0, 0, 151528
-6308, 160332, -326.159, 3.32871, -659.621, 0.429073, 0.37627, 1.03299, 0.34851, 0.655882, 3, 45.5, 246, 55.6359, 0.242816, 1.53069, 1, 0, 0, 151528
-2758.13, 175005, -379.459, 3.73309, -744.616, 0.518929, 0.399154, 0.993198, 0.349787, 0.651995, 0.0001, 91, 246, 55.6359, 0.242816, 2.00349, 1, 1, 1, 151528
-2758.13, 175005, -379.459, 3.73309, -744.616, 0.518929, 0.399154, 0.993198, 0.349787, 0.651995, 3, 91, 246, 55.6359, 0.242816, 1.91558, 1, 1, 1, 151528
-12719.3, 327907, -438.16, 3.82816, -619.16, 0.361117, 0.437094, 0.993198, 0.349787, 0.651995, 0.0001, 91, 246, 43.674, 0.206795, 1.17076, 1, 1, 0, 151531
-12719.3, 327907, -438.16, 3.82816, -619.16, 0.361117, 0.437094, 0.993198, 0.349787, 0.651995, 3, 91, 246, 43.674, 0.206795, 1.07303, 1, 1, 0, 151531
-5004.73, 346172, -508.845, 4.32017, -712.676, 0.460172, 0.490039, 0.958125, 0.351078, 0.648177, 0.0001, 182, 246, 43.674, 0.206795, 4.19466, 1, 0, 0, 151531
-5004.73, 346172, -508.845, 4.32017, -712.676, 0.460172, 0.490039, 0.958125, 0.351078, 0.648177, 3, 182, 246, 43.674, 0.206795, 3.52988, 1, 0, 0, 151531
-11674.6, 410381, -85.8606, 0.713364, -701.948, 0.049442, 0.350787, 1.03299, 0.34851, 0.655882, 0.0001, 45.5, 246, 19.4223, 0.0545061, 0, 0, 1, 0, 151539
-11674.6, 410381, -85.8606, 0.713364, -701.948, 0.049442, 0.350787, 1.03299, 0.34851, 0.655882, 3, 45.5, 246, 19.4223, 0.0545061, 0, 0, 1, 0, 151539
-10571.2, 420233, -93.9084, 0.74398, -709.336, 0.0521809, 0.317624, 0.993198, 0.349787, 0.651995, 3, 91, 246, 19.4223, 0.0545061, 0, 0, 1, 0, 151539
-9307.31, 430405, -102.31, 0.774369, -717.345, 0.0551661, 0.289101, 0.958125, 0.351078, 0.648177, 0.0001, 182, 246, 19.4223, 0.0545061, 0, 0, 1, 0, 151539
-11615, 727825, -120.047, 0.374077, -695.993, 0.560864, 0.355705, 1.03299, 0.34851, 0.655882, 0.0001, 45.5, 246, 20.2133, 0.038777, 0, 0, 1, 0, 151541
-11158.8, 137047, -85.3382, 2.91857, -764.605, -0.0115734, 0.238121, 1.03299, 0.34851, 0.655882, 0.0001, 45.5, 246, 25.6649, 0.0944706, 0, 0, 1, 0, 151549
-11158.8, 137047, -85.3382, 2.91857, -764.605, -0.0115734, 0.238121, 1.03299, 0.34851, 0.655882, 3, 45.5, 246, 25.6649, 0.0944706, 0, 0, 1, 0, 151549
-7265.98, 158059, -146.38, 3.42633, -791.198, 0.0767862, 0.249313, 0.958125, 0.351078, 0.648177, 3, 182, 246, 25.6649, 0.0944706, 0, 0, 1, 0, 151549
-7947.22, 89728.2, -123.642, 1.736, -938.065, -0.0138671, 0.396349, 1.03299, 0.34851, 0.655882, 0.0001, 45.5, 246, 42.6347, 0.244752, 0, 0, 1, 0, 151550
-7947.22, 89728.2, -123.642, 1.736, -938.065, -0.0138671, 0.396349, 1.03299, 0.34851, 0.655882, 3, 45.5, 246, 42.6347, 0.244752, 0, 0, 1, 0, 151550
-7709.59, 144723, -245.032, 3.4044, -676.357, -0.0207056, 0.294246, 1.03299, 0.34851, 0.655882, 0.0001, 45.5, 246, 47.6437, 0.199686, 1.24837, 1, 0, 0, 151555
-7709.59, 144723, -245.032, 3.4044, -676.357, -0.0207056, 0.294246, 1.03299, 0.34851, 0.655882, 3, 45.5, 246, 47.6437, 0.199686, 1.13408, 1, 0, 0, 151555
-4915.8, 153948, -290.079, 3.71942, -702.097, 0.0349303, 0.312103, 0.993198, 0.349787, 0.651995, 0.0001, 91, 246, 47.6437, 0.199686, 1.38624, 1, 1, 0, 151555
-4915.8, 153948, -290.079, 3.71942, -702.097, 0.0349303, 0.312103, 0.993198, 0.349787, 0.651995, 3, 91, 246, 47.6437, 0.199686, 1.23605, 1, 1, 0, 151555
-1383.83, 165186, -344.246, 4.09678, -742.376, 0.102595, 0.349615, 0.958125, 0.351078, 0.648177, 0.0001, 182, 246, 47.6437, 0.199686, 1.98818, 1, 1, 0, 151555
-1383.83, 165186, -344.246, 4.09678, -742.376, 0.102595, 0.349615, 0.958125, 0.351078, 0.648177, 3, 182, 246, 47.6437, 0.199686, 1.84497, 1, 1, 0, 151555
-6324.18, 70751.6, -116.363, 4.58653, -1071.82, 1.31458, 0.299876, 0.9175, 0.352806, 0.64323, 0.0001, 455, 246, 13.978, 0.0402461, 0, 0, 1, 0, 151566
-6324.18, 70751.6, -116.363, 4.58653, -1071.82, 1.31458, 0.299876, 0.9175, 0.352806, 0.64323, 3, 455, 246, 13.978, 0.0402461, 0, 0, 1, 0, 151566
-6733.43, 3739.07, -61.7489, 3.64654, -1051.67, 0.00909605, 0.223522, 0.993198, 0.349787, 0.651995, 3, 91, 246, 25.4085, 0.0404717, 0, 0, 1, 1, 151569
-9103.58, 441025, -148.934, 0.429406, -685.942, 0.00562233, 0.351542, 0.993198, 0.349787, 0.651995, 0.0001, 91, 246, 22.8059, 0.0847163, 0, 0, 1, 0, 151573
404.854, 438561, -326.876, 3.03606, -1286.33, 0.231832, 0.345727, 0.9175, 0.352806, 0.64323, 3, 455, 246, 34.9612, 0.11984, 0, 0, 0, 0, 151574
-10163.8, 225025, -236.856, 1.74387, -961.181, 0.822547, 0.472479, 1.03299, 0.34851, 0.655882, 0.0001, 45.5, 246, 42.6453, 0.20998, 0, 0, 0, 0, 151575
-10163.8, 225025, -236.856, 1.74387, -961.181, 0.822547, 0.472479, 1.03299, 0.34851, 0.655882, 3, 45.5, 246, 42.6453, 0.20998, 0, 0, 0, 0, 151575
-9603.85, 216692, -231.014, 1.82262, -1127.62, 0.288978, 0.487786, 1.03299, 0.34851, 0.655882, 3, 45.5, 246, 45.8424, 0.229601, 0, 0, 0, 0, 151580
-9749.63, 190164, -254.115, 2.68818, -809.323, 0.390739, 0.404452, 1.03299, 0.34851, 0.655882, 3, 45.5, 246, 46.0763, 0.216908, 0, 0, 0, 0, 151582
-3067.12, 230625, -348.687, 3.31028, -985.578, 0.535561, 0.429543, 0.958125, 0.351078, 0.648177, 0.0001, 182, 246, 46.0763, 0.216908, 1.19983, 1, 0, 0, 151582
-9751.79, 171700, -204.794, 2.8585, -867.334, -0.0274032, 0.344137, 1.03299, 0.34851, 0.655882, 0.0001, 45.5, 246, 42.6452, 0.191046, 0, 0, 0, 0, 151585
-9751.79, 171700, -204.794, 2.8585, -867.334, -0.0274032, 0.344137, 1.03299, 0.34851, 0.655882, 3, 45.5, 246, 42.6452, 0.191046, 0, 0, 0, 0, 151585
-10766, 795359, -120.98, 0.25095, -575.354, 0.458358, 0.355899, 1.03299, 0.34851, 0.655882, 0.0001, 45.5, 246, 17.5319, 0.0361185, 0, 0, 1, 0, 151593
-10766, 795359, -120.98, 0.25095, -575.354, 0.458358, 0.355899, 1.03299, 0.34851, 0.655882, 3, 45.5, 246, 17.5319, 0.0361185, 0, 0, 1, 0, 151593
-6404.55, -32449.2, -22.4979, 3.33649, -636.76, 0.0355044, 0.215633, 1.03299, 0.34851, 0.655882, 0.0001, 45.5, 246, 21.4687, 0.0434056, 0, 0, 1, 1, 151596
-6404.55, -32449.2, -22.4979, 3.33649, -636.76, 0.0355044, 0.215633, 1.03299, 0.34851, 0.655882, 3, 45.5, 246, 21.4687, 0.0434056, 0, 0, 1, 1, 151596
-7708.97, -18836.9, 24.8162, 2.84028, -1046.11, -0.0250156, 0.246672, 1.03299, 0.34851, 0.655882, 3, 45.5, 246, 7.48891, 0.0533852, 0, 0, 1, 0, 151598
-9911.94, 153192, -163.732, 2.50514, -763.39, 0.451727, 0.327736, 1.03299, 0.34851, 0.655882, 0.0001, 45.5, 246, 36.3386, 0.161504, 0, 0, 1, 0, 151599
-9299.28, 485577, -91.2872, 0.509668, -1164.67, 0.0629635, 0.318381, 0.993198, 0.349787, 0.651995, 0.0001, 91, 246, 26.3715, 0.0468121, 0, 0, 1, 0, 151601
-8293.79, 511418, -99.7747, 0.52854, -1177.8, 0.0647912, 0.288518, 0.958125, 0.351078, 0.648177, 0.0001, 182, 246, 26.3715, 0.0468121, 0, 0, 1, 0, 151601
-1069.65, 118851, -279.786, 4.64063, -1304.93, 0.395333, 0.337235, 0.9175, 0.352806, 0.64323, 0.0001, 455, 246, 39.259, 0.113027, 1.83551, 1, 0, 0, 151602
-1069.65, 118851, -279.786, 4.64063, -1304.93, 0.395333, 0.337235, 0.9175, 0.352806, 0.64323, 3, 455, 246, 39.259, 0.113027, 1.83532, 1, 0, 0, 151602
-6677.49, 305936, -433.427, 3.4345, -1167.54, 0.397287, 0.53302, 0.993198, 0.349787, 0.651995, 0.0001, 91, 246, 54.4953, 0.247593, 1.19371, 1, 1, 0, 151606
-6677.49, 305936, -433.427, 3.4345, -1167.54, 0.397287, 0.53302, 0.993198, 0.349787, 0.651995, 3, 91, 246, 54.4953, 0.247593, 1.06704, 1, 1, 0, 151606
-9623.52, 104439, -90.5604, 2.53483, -602.975, 0.0727119, 0.276025, 1.03299, 0.34851, 0.655882, 0.0001, 45.5, 246, 26.4652, 0.108194, 0, 0, 1, 0, 151609
-9623.52, 104439, -90.5604, 2.53483, -602.975, 0.0727119, 0.276025, 1.03299, 0.34851, 0.655882, 3, 45.5, 246, 26.4652, 0.108194, 0, 0, 1, 0, 151609
-9343.64, 558640, -256.507, 0.500253, -1036.24, 0.275545, 0.448381, 1.03299, 0.34851, 0.655882, 0.0001, 45.5, 246, 34.2325, 0.113806, 0, 0, 0, 0, 151614
-9343.64, 558640, -256.507, 0.500253, -1036.24, 0.275545, 0.448381, 1.03299, 0.34851, 0.655882, 3, 45.5, 246, 34.2325, 0.113806, 0, 0, 0, 0, 151614
-7963.33, -17968.9, 14.3152, 2.33937, -977.393, 0.697917, 0.280472, 1.03299, 0.34851, 0.655882, 0.0001, 45.5, 246, 8.90114, 0.056804, 0, 0, 1, 0, 151616
-7963.33, -17968.9, 14.3152, 2.33937, -977.393, 0.697917, 0.280472, 1.03299, 0.34851, 0.655882, 3, 45.5, 246, 8.90114, 0.056804, 0, 0, 1, 0, 151616
-10834.5, 88945.6, 1.23416, 3.18013, -673.949, 0.0506414, 0.185882, 1.03299, 0.34851, 0.655882, 0.0001, 45.5, 246, 11.4301, 0.0282686, 0, 0, 1, 0, 151619
-10834.5, 88945.6, 1.23416, 3.18013, -673.949, 0.0506414, 0.185882, 1.03299, 0.34851, 0.655882, 3, 45.5, 246, 11.4301, 0.0282686, 0, 0, 1, 0, 151619
-8532.66, 328127, -482.628, 3.43055, -973.506, 0.908732, 0.559225, 0.993198, 0.349787, 0.651995, 0.0001, 91, 246, 51.8306, 0.242219, 1.35936, 1, 1, 0, 151625
-8532.66, 328127, -482.628, 3.43055, -973.506, 0.908732, 0.559225, 0.993198, 0.349787, 0.651995, 3, 91, 246, 51.8306, 0.242219, 1.27053, 1, 1, 0, 151625
-8205.64, -3187.87, 4.3971, 2.2388, -1027.22, 0.608429, 0.286179, 1.03299, 0.34851, 0.655882, 0.0001, 45.5, 246, 12.8538, 0.0594385, 0, 0, 1, 0, 151626
-8205.64, -3187.87, 4.3971, 2.2388, -1027.22, 0.608429, 0.286179, 1.03299, 0.34851, 0.655882, 3, 45.5, 246, 12.8538, 0.0594385, 0, 0, 1, 0, 151626
-7304.08, 611196, -450.124, 0.238799, -1097.72, 0.041323, 0.665967, 1.03299, 0.34851, 0.655882, 3, 45.5, 246, 44.9968, 0.194094, 0, 0, 0, 0, 151629
-7165.6, 138722, -222.757, 3.32985, -974.082, -0.0518882, 0.312745, 1.03299, 0.34851, 0.655882, 0.0001, 45.5, 246, 49.5768, 0.208653, 1.07939, 1, 0, 0, 151630
-4530.48, 156186, -274.35, 3.62824, -992.773, 0.0012948, 0.329274, 0.993198, 0.349787, 0.651995, 0.0001, 91, 246, 49.5768, 0.208653, 1.2729, 1, 1, 0, 151630
-4530.48, 156186, -274.35, 3.62824, -992.773, 0.0012948, 0.329274, 0.993198, 0.349787, 0.651995, 3, 91, 246, 49.5768, 0.208653, 1.087, 1, 1, 0, 151630
-1019.51, 175789, -335.947, 3.98347, -1028.41, 0.0649499, 0.364425, 0.958125, 0.351078, 0.648177, 0.0001, 182, 246, 49.5768, 0.208653, 2.21427, 1, 0, 0, 151630
-1019.51, 175789, -335.947, 3.98347, -1028.41, 0.0649499, 0.364425, 0.958125, 0.351078, 0.648177, 3, 182, 246, 49.5768, 0.208653, 2.05461, 1, 0, 0, 151630
-5630.43, 227147, -87.8771, 3.4988, -786.519, 0.154886, 0.244929, 0.9175, 0.352806, 0.64323, 3, 455, 246, 14.2277, 0.0283214, 0, 0, 1, 0, 151632
-11476.5, 300275, -74.7695, 1.01272, -1019.28, 0.701434, 0.34275, 1.03299, 0.34851, 0.655882, 0.0001, 45.5, 246, 24.1238, 0.059568, 0, 0, 1, 0, 151633
-11476.5, 300275, -74.7695, 1.01272, -1019.28, 0.701434, 0.34275, 1.03299, 0.34851, 0.655882, 3, 45.5, 246, 24.1238, 0.059568, 0, 0, 1, 0, 151633
-11869.9, 128334, 4.56449, 2.62672, -1152.28, -0.00940822, 0.239853, 1.03299, 0.34851, 0.655882, 0.0001, 45.5, 246, 17.4193, 0.0376828, 0, 0, 1, 0, 151635
-11869.9, 128334, 4.56449, 2.62672, -1152.28, -0.00940822, 0.239853, 1.03299, 0.34851, 0.655882, 3, 45.5, 246, 17.4193, 0.0376828, 0, 0, 1, 0, 151635
-8134.41, 379962, -259.434, 0.314332, -911.689, 0.21151, 0.512653, 1.03299, 0.34851, 0.655882, 0.0001, 45.5, 246, 36.5058, 0.176293, 0, 0, 0, 0, 151636
-3055.17, 117832, -238.806, 3.58554, -1022.3, 0.141247, 0.30935, 0.958125, 0.351078, 0.648177, 0.0001, 182, 246, 45.1456, 0.178302, 1.18778, 1, 1, 0, 151644
740.472, 147225, -318.896, 4.0913, -1100.34, 0.233661, 0.363629, 0.9175, 0.352806, 0.64323, 0.0001, 455, 246, 45.1456, 0.178302, 3.57725, 1, 0, 0, 151644
740.472, 147225, -318.896, 4.0913, -1100.34, 0.233661, 0.363629, 0.9175, 0.352806, 0.64323, 3, 455, 246, 45.1456, 0.178302, 3.58858, 1, 0, 0, 151644
-5382.57, 352788, -457.207, 4.1956, -805.446, 0.188934, 0.433587, 0.958125, 0.351078, 0.648177, 0.0001, 182, 246, 42.4685, 0.190288, 2.08481, 1, 0, 0, 151653
-5382.57, 352788, -457.207, 4.1956, -805.446, 0.188934, 0.433587, 0.958125, 0.351078, 0.648177, 3, 182, 246, 42.4685, 0.190288, 1.95559, 1, 0, 0, 151653
-8823.14, 122803, -141, 3.35121, -1128.26, -0.0486745, 0.246409, 1.03299, 0.34851, 0.655882, 0.0001, 45.5, 246, 39.3833, 0.150537, 0, 0, 0, 0, 151657
-8823.14, 122803, -141, 3.35121, -1128.26, -0.0486745, 0.246409, 1.03299, 0.34851, 0.655882, 3, 45.5, 246, 39.3833, 0.150537, 0, 0, 0, 0, 151657
-6717.74, 145172, -189.896, 3.64691, -1139.44, 0.00509626, 0.259075, 0.993198, 0.349787, 0.651995, 0.0001, 91, 246, 39.3833, 0.150537, 0, 0, 1, 0, 151657
-6717.74, 145172, -189.896, 3.64691, -1139.44, 0.00509626, 0.259075, 0.993198, 0.349787, 0.651995, 3, 91, 246, 39.3833, 0.150537, 0, 0, 1, 0, 151657
-11232.8, 327930, -197.889, 1.37148, -1163.22, 0.0510363, 0.427758, 1.03299, 0.34851, 0.655882, 0.0001, 45.5, 246, 37.1026, 0.147305, 0, 0, 0, 0, 151670
-11232.8, 327930, -197.889, 1.37148, -1163.22, 0.0510363, 0.427758, 1.03299, 0.34851, 0.655882, 3, 45.5, 246, 37.1026, 0.147305, 0, 0, 0, 0, 151670
-5228.48, 400562, -522.58, 3.82197, -873.073, 0.672035, 0.540008, 0.958125, 0.351078, 0.648177, 0.0001, 182, 246, 44.0984, 0.209358, 0, 0, 0, 0, 151673
-5228.48, 400562, -522.58, 3.82197, -873.073, 0.672035, 0.540008, 0.958125, 0.351078, 0.648177, 3, 182, 246, 44.0984, 0.209358, 3.01458, 1, 0, 0, 151673
-6671.41, -7579.08, -43.7035, 2.92786, -819.995, 0.520181, 0.243305, 1.03299, 0.34851, 0.655882, 0.0001, 45.5, 246, 30.2819, 0.00278633, 0, 0, 1, 0, 151674
-10627.7, 169403, -99.3686, 2.00638, -1068.02, 0.09928, 0.330009, 1.03299, 0.34851, 0.655882, 0.0001, 45.5, 246, 30.1256, 0.120077, 0, 0, 1, 0, 151681
-10627.7, 169403, -99.3686, 2.00638, -1068.02, 0.09928, 0.330009, 1.03299, 0.34851, 0.655882, 3, 45.5, 246, 30.1256, 0.120077, 0, 0, 1, 0, 151681
-9134.84, 190782, -126.103, 2.14847, -1092.85, 0.12011, 0.312511, 0.993198, 0.349787, 0.651995, 3, 91, 246, 30.1256, 0.120077, 0, 0, 1, 0, 151681
-6097.94, 112980, -227.499, 3.0183, -662.826, 0.696702, 0.304967, 1.03299, 0.34851, 0.655882, 0.0001, 45.5, 246, 48.4472, 0.195826, 1.32162, 1, 1, 0, 151687
-6097.94, 112980, -227.499, 3.0183, -662.826, 0.696702, 0.304967, 1.03299, 0.34851, 0.655882, 3, 45.5, 246, 48.4472, 0.195826, 1.20556, 1, 1, 0, 151687
-4004.26, 127538, -267.919, 3.4109, -769.765, 0.833812, 0.312831, 0.993198, 0.349787, 0.651995, 0.0001, 91, 246, 48.4472, 0.195826, 1.40462, 1, 1, 0, 151687
-4004.26, 127538, -267.919, 3.4109, -769.765, 0.833812, 0.312831, 0.993198, 0.349787, 0.651995, 3, 91, 246, 48.4472, 0.195826, 1.26634, 1, 1, 0, 151687
-1111.27, 148027, -320.914, 3.9128, -921.268, 1.02806, 0.3418, 0.958125, 0.351078, 0.648177, 0.0001, 182, 246, 48.4472, 0.195826, 1.95444, 1, 1, 0, 151687
-1111.27, 148027, -320.914, 3.9128, -921.268, 1.02806, 0.3418, 0.958125, 0.351078, 0.648177, 3, 182, 246, 48.4472, 0.195826, 1.82063, 1, 1, 0, 151687
-8604.24, 76133.4, -74.7987, 1.42726, -924.172, 0.00716094, 0.362223, 1.03299, 0.34851, 0.655882, 0.0001, 45.5, 246, 31.4806, 0.176699, 0, 0, 1, 0, 151694
-8604.24, 76133.4, -74.7987, 1.42726, -924.172, 0.00716094, 0.362223, 1.03299, 0.34851, 0.655882, 3, 45.5, 246, 31.4806, 0.176699, 0, 0, 1, 0, 151694
-11653, 326956, -116.96, 1.18788, -1109.07, 0.0553045, 0.362493, 1.03299, 0.34851, 0.655882, 0.0001, 45.5, 246, 29.0322, 0.0903159, 0, 0, 0, 0, 151695
-11653, 326956, -116.96, 1.18788, -1109.07, 0.0553045, 0.362493, 1.03299, 0.34851, 0.655882, 3, 45.5, 246, 29.0322, 0.0903159, 0, 0, 0, 0, 151695
-7994.33, 373835, -154.513, 1.31522, -1140.22, 0.070294, 0.31199, 0.958125, 0.351078, 0.648177, 3, 182, 246, 29.0322, 0.0903159, 0, 0, 1, 0, 151695
-4850.08, 69012.9, -157.74, 3.17883, -1116.34, 0.181346, 0.277493, 0.993198, 0.349787, 0.651995, 3, 91, 246, 45.9173, 0.161315, 0, 0, 1, 0, 151698
-3475.67, 93125, -205.951, 3.48794, -1169.83, 0.236909, 0.293937, 0.958125, 0.351078, 0.648177, 0.0001, 182, 246, 45.9173, 0.161315, 1.06387, 1, 1, 0, 151698
-417.13, 131020, -287.231, 3.99567, -1273.9, 0.334681, 0.342473, 0.9175, 0.352806, 0.64323, 0.0001, 455, 246, 45.9173, 0.161315, 2.58436, 1, 0, 0, 151698
-417.13, 131020, -287.231, 3.99567, -1273.9, 0.334681, 0.342473, 0.9175, 0.352806, 0.64323, 3, 455, 246, 45.9173, 0.161315, 2.58574, 1, 0, 0, 151698
-9969.73, 778305, -211.962, 0.242283, -644.775, 0.233283, 0.393369, 1.03299, 0.34851, 0.655882, 0.0001, 45.5, 246, 22.6631, 0.0675198, 0, 0, 1, 0, 151704
-9969.73, 778305, -211.962, 0.242283, -644.775, 0.233283, 0.393369, 1.03299, 0.34851, 0.655882, 3, 45.5, 246, 22.6631, 0.0675198, 0, 0, 1, 0, 151704
-12935.7, 347784, -23.1616, 1.05804, -1122.73, 0.10569, 0.325701, 1.03299, 0.34851, 0.655882, 3, 45.5, 246, 21.3979, 0.0252278, 0, 0, 1, 0, 151705
-12517.8, 211271, -37.6113, 1.7713, -1000.36, 0.580505, 0.29961, 1.03299, 0.34851, 0.655882, 3, 45.5, 246, 20.9254, 0.0498132, 0, 0, 1, 0, 151708
-8422.18, 242678, -131.827, 0.150826, -640.486, 0.177183, 0.414073, 1.03299, 0.34851, 0.655882, 0.0001, 45.5, 246, 25.982, 0.143925, 0, 0, 1, 0, 151714
-7705.38, -15170.5, 24.7635, 3.00196, -1156.79, 0.123353, 0.23165, 1.03299, 0.34851, 0.655882, 0.0001, 45.5, 246, 10.1793, 0.0564703, 0, 0, 1, 0, 151717
-10747, 208542, -233.94, 2.94724, -1057.86, 0.299752, 0.361201, 1.03299, 0.34851, 0.655882, 3, 45.5, 246, 45.0119, 0.193199, 0, 0, 0, 0, 151718
-8519.32, 519315, -382.757, 0.026106, -666.408, 0.00265352, 0.622077, 1.03299, 0.34851, 0.655882, 0.0001, 45.5, 246, 36.4074, 0.197589, 0, 0, 0, 0, 151724
-7946.91, 509036, -381.22, 0.0850533, -798.99, 0.234365, 0.615482, 1.03299, 0.34851, 0.655882, 0.0001, 45.5, 246, 38.3846, 0.193538, 0, 0, 0, 0, 151726
-6671.45, 529860, -395.564, 0.0892275, -830.629, 0.243413, 0.60346, 0.993198, 0.349787, 0.651995, 0.0001, 91, 246, 38.3846, 0.193538, 3.38429, 1, 1, 0, 151726
-6671.45, 529860, -395.564, 0.0892275, -830.629, 0.243413, 0.60346, 0.993198, 0.349787, 0.651995, 3, 91, 246, 38.3846, 0.193538, 3.38449, 1, 1, 0, 151726
-5220.39, 552385, -409.644, 0.0934617, -864.846, 0.253188, 0.595943, 0.958125, 0.351078, 0.648177, 0.0001, 182, 246, 38.3846, 0.193538, 4.29747, 1, 0, 0, 151726
-5220.39, 552385, -409.644, 0.0934617, -864.846, 0.253188, 0.595943, 0.958125, 0.351078, 0.648177, 3, 182, 246, 38.3846, 0.193538, 4.29711, 1, 0, 0, 151726
-11062.3, 250537, -265.768, 2.47769, -1126.13, -0.000419549, 0.463372, 1.03299, 0.34851, 0.655882, 3, 45.5, 246, 47.6135, 0.219906, 0, 0, 0, 0, 151730
-11378.7, 470860, -328.986, 1.94682, -1127.03, 0.278146, 0.457305, 0.993198, 0.349787, 0.651995, 0.0001, 91, 246, 40.1358, 0.157355, 0, 0, 1, 0, 151735
-11378.7, 470860, -328.986, 1.94682, -1127.03, 0.278146, 0.457305, 0.993198, 0.349787, 0.651995, 3, 91, 246, 40.1358, 0.157355, 0, 0, 1, 0, 151735
-12632.7, 343106, 1.84841, 0.874737, -900.135, 0.312022, 0.32775, 1.03299, 0.34851, 0.655882, 3, 45.5, 246, 15.9517, 0.00656884, 0, 0, 1, 0, 151736
-10228.8, 387102, -14.0757, 0.983119, -1000.14, 0.354558, 0.265692, 0.958125, 0.351078, 0.648177, 0.0001, 182, 246, 15.9517, 0.00656884, 0, 0, 1, 0, 151736
-7197.65, -5468.46, -30.707, 2.78782, -738.429, -0.033143, 0.254395, 1.03299, 0.34851, 0.655882, 0.0001, 45.5, 246, 23.8433, 0.0260927, 0, 0, 1, 1, 151738
-8361.71, 118147, -161.619, 3.44351, -852.853, -0.0408806, 0.230785, 1.03299, 0.34851, 0.655882, 0.0001, 45.5, 246, 39.8084, 0.150895, 0, 0, 0, 0, 151741
-8361.71, 118147, -161.619, 3.44351, -852.853, -0.0408806, 0.230785, 1.03299, 0.34851, 0.655882, 3, 45.5, 246, 39.8084, 0.150895, 0, 0, 0, 0, 151741
-6278.24, 131158, -204.659, 3.75429, -868.372, 0.0159417, 0.245657, 0.993198, 0.349787, 0.651995, 3, 91, 246, 39.8084, 0.150895, 0, 0, 1, 0, 151741
1505.44, 169455, -343.686, 4.75625, -972.539, 0.202535, 0.361608, 0.9175, 0.352806, 0.64323, 0.0001, 455, 246, 39.8084, 0.150895, 3.11157, 1, 0, 0, 151741
1505.44, 169455, -343.686, 4.75625, -972.539, 0.202535, 0.361608, 0.9175, 0.352806, 0.64323, 3, 455, 246, 39.8084, 0.150895, 3.12936, 1, 0, 0, 151741
-10872.5, 425138, -72.9327, 0.522379, -682.113, 0.00508094, 0.349231, 1.03299, 0.34851, 0.655882, 0.0001, 45.5, 246, 17.9727, 0.0452131, 0, 0, 1, 0, 151751
-10872.5, 425138, -72.9327, 0.522379, -682.113, 0.00508094, 0.349231, 1.03299, 0.34851, 0.655882, 3, 45.5, 246, 17.9727, 0.0452131, 0, 0, 1, 0, 151751
-10097.6, 433459, -78.8403, 0.541602, -683.791, 0.00632874, 0.314828, 0.993198, 0.349787, 0.651995, 0.0001, 91, 246, 17.9727, 0.0452131, 0, 0, 1, 0, 151751
-5955.82, 92695.9, -154.38, 3.76354, -1121.35, 0.246343, 0.227387, 0.993198, 0.349787, 0.651995, 0.0001, 91, 246, 37.2969, 0.127934, 0, 0, 1, 0, 151753
434.921, 160068, -312.771, 4.92641, -1339.34, 0.482029, 0.348043, 0.9175, 0.352806, 0.64323, 0.0001, 455, 246, 37.2969, 0.127934, 2.80855, 1, 0, 0, 151753
434.921, 160068, -312.771, 4.92641, -1339.34, 0.482029, 0.348043, 0.9175, 0.352806, 0.64323, 3, 455, 246, 37.2969, 0.127934, 2.82708, 1, 0, 0, 151753
-14730.3, 295528, -400.966, 3.29216, -770.794, 0.240373, 0.49004, 1.03299, 0.34851, 0.655882, 0.0001, 45.5, 246, 51.5763, 0.241395, 1.00227, 1, 0, 0, 151761
-8819.58, 313860, -465.312, 3.66124, -844.959, 0.304988, 0.520994, 0.993198, 0.349787, 0.651995, 0.0001, 91, 246, 51.5763, 0.241395, 1.46493, 1, 1, 0, 151761
-8819.58, 313860, -465.312, 3.66124, -844.959, 0.304988, 0.520994, 0.993198, 0.349787, 0.651995, 3, 91, 246, 51.5763, 0.241395, 1.38774, 1, 1, 0, 151761
-8260.64, 61915.7, -80.2064, 1.49507, -859.256, 0.269798, 0.366249, 1.03299, 0.34851, 0.655882, 3, 45.5, 246, 35.5474, 0.205987, 0, 0, 1, 0, 151762
-11674.4, 470752, -26.6837, 0.507991, -840.302, 0.443274, 0.337914, 1.03299, 0.34851, 0.655882, 0.0001, 45.5, 246, 18.0248, 0.0159267, 0, 0, 1, 0, 151765
-11674.4, 470752, -26.6837, 0.507991, -840.302, 0.443274, 0.337914, 1.03299, 0.34851, 0.655882, 3, 45.5, 246, 18.0248, 0.0159267, 0, 0, 1, 0, 151765
-10852.6, 495712, -31.7198, 0.539196, -904.1, 0.477956, 0.302651, 0.993198, 0.349787, 0.651995, 0.0001, 91, 246, 18.0248, 0.0159267, 0, 0, 1, 0, 151765
-9842, 524533, -37.4532, 0.572208, -978.595, 0.518469, 0.271945, 0.958125, 0.351078, 0.648177, 0.0001, 182, 246, 18.0248, 0.0159267, 0, 0, 1, 0, 151765
-1600.28, 303350, -305.792, 3.45916, -772.129, 0.195416, 0.34823, 0.9175, 0.352806, 0.64323, 0.0001, 455, 246, 30.7231, 0.133267, 0, 0, 0, 0, 151766
-1600.28, 303350, -305.792, 3.45916, -772.129, 0.195416, 0.34823, 0.9175, 0.352806, 0.64323, 3, 455, 246, 30.7231, 0.133267, 0, 0, 0, 0, 151766
-9180.13, 40797.1, 15.6902, 2.35271, -850.611, -0.0255563, 0.268248, 1.03299, 0.34851, 0.655882, 0.0001, 45.5, 246, 8.50501, 0.0277434, 1.09085, 1, 1, 0, 151769
-9180.13, 40797.1, 15.6902, 2.35271, -850.611, -0.0255563, 0.268248, 1.03299, 0.34851, 0.655882, 3, 45.5, 246, 8.50501, 0.0277434, 1.0256, 1, 1, 0, 151769
-6966.83, -16172.7, -5.84861, 3.21205, -938.147, 0.23525, 0.215248, 1.03299, 0.34851, 0.655882, 0.0001, 45.5, 246, 17.3898, 0.0471285, 0, 0, 1, 1, 151771
-6966.83, -16172.7, -5.84861, 3.21205, -938.147, 0.23525, 0.215248, 1.03299, 0.34851, 0.655882, 3, 45.5, 246, 17.3898, 0.0471285, 0, 0, 1, 1, 151771
-10703.8, 201288, -157.654, 1.88458, -870.347, 0.0199705, 0.381809, 1.03299, 0.34851, 0.655882, 0.0001, 45.5, 246, 34.5753, 0.16266, 0, 0, 1, 0, 151773
-10703.8, 201288, -157.654, 1.88458, -870.347, 0.0199705, 0.381809, 1.03299, 0.34851, 0.655882, 3, 45.5, 246, 34.5753, 0.16266, 0, 0, 1, 0, 151773
-11165.7, 330228, -436.639, 3.95935, -784.361, 0.015654, 0.434452, 0.993198, 0.349787, 0.651995, 0.0001, 91, 246, 47.5372, 0.214583, 1.28183, 1, 1, 0, 151783
-11165.7, 330228, -436.639, 3.95935, -784.361, 0.015654, 0.434452, 0.993198, 0.349787, 0.651995, 3, 91, 246, 47.5372, 0.214583, 1.19958, 1, 1, 0, 151783
-9171.66, 209958, -160.635, 1.10006, -1151.41, 0.0182832, 0.439225, 1.03299, 0.34851, 0.655882, 0.0001, 45.5, 246, 37.459, 0.184984, 0, 0, 0, 0, 151791
-9171.66, 209958, -160.635, 1.10006, -1151.41, 0.0182832, 0.439225, 1.03299, 0.34851, 0.655882, 3, 45.5, 246, 37.459, 0.184984, 0, 0, 0, 0, 151791
-8864.19, 61456.1, -22.1103, 0.867535, -1140.14, 0.0712904, 0.307819, 0.993198, 0.349787, 0.651995, 0.0001, 91, 246, 14.451, 0.0744627, 0, 0, 1, 0, 151793
-8864.19, 61456.1, -22.1103, 0.867535, -1140.14, 0.0712904, 0.307819, 0.993198, 0.349787, 0.651995, 3, 91, 246, 14.451, 0.0744627, 0, 0, 1, 0, 151793
-8283.79, 372530, -202.542, 0.575035, -894.346, 0.00417062, 0.409381, 0.993198, 0.349787, 0.651995, 0.0001, 91, 246, 31.5138, 0.137781, 0, 0, 1, 0, 151808
-5513.38, 669475, -330.191, 0.0692021, -1058.13, 0.310055, 0.489119, 1.03299, 0.34851, 0.655882, 0.0001, 45.5, 246, 36.4716, 0.120839, 5.32161, 1, 0, 0, 151812
-5513.38, 669475, -330.191, 0.0692021, -1058.13, 0.310055, 0.489119, 1.03299, 0.34851, 0.655882, 3, 45.5, 246, 36.4716, 0.120839, 5.29132, 1, 0, 0, 151812
-8876.52, 56934.5, -16.7128, 0.647886, -1147.75, 0.308754, 0.307847, 0.993198, 0.349787, 0.651995, 3, 91, 246, 12.4396, 0.0670269, 0, 0, 1, 1, 151814
-8699.41, 176573, -285.56, 3.32865, -681.256, -0.0520933, 0.354402, 1.03299, 0.34851, 0.655882, 0.0001, 45.5, 246, 49.9296, 0.223567, 1.27145, 1, 0, 0, 151818
-8699.41, 176573, -285.56, 3.32865, -681.256, -0.0520933, 0.354402, 1.03299, 0.34851, 0.655882, 3, 45.5, 246, 49.9296, 0.223567, 1.17545, 1, 0, 0, 151818
-5287.36, 186009, -334.032, 3.63107, -706.732, 0.00111397, 0.374039, 0.993198, 0.349787, 0.651995, 0.0001, 91, 246, 49.9296, 0.223567, 1.48897, 1, 1, 0, 151818
-5287.36, 186009, -334.032, 3.63107, -706.732, 0.00111397, 0.374039, 0.993198, 0.349787, 0.651995, 3, 91, 246, 49.9296, 0.223567, 1.32337, 1, 1, 0, 151818
-1016.49, 197668, -391.99, 3.99181, -746.768, 0.0649512, 0.412654, 0.958125, 0.351078, 0.648177, 0.0001, 182, 246, 49.9296, 0.223567, 2.6204, 1, 0, 0, 151818
-1016.49, 197668, -391.99, 3.99181, -746.768, 0.0649512, 0.412654, 0.958125, 0.351078, 0.648177, 3, 182, 246, 49.9296, 0.223567, 2.44446, 1, 0, 0, 151818
-7342.51, 421157, -312.835, 0.391051, -911.387, 0.127376, 0.539766, 0.993198, 0.349787, 0.651995, 0.0001, 91, 246, 38.6676, 0.193862, 0, 0, 1, 0, 151819
-5883.92, 440780, -327.908, 0.408539, -933.567, 0.130708, 0.526846, 0.958125, 0.351078, 0.648177, 0.0001, 182, 246, 38.6676, 0.193862, 0, 0, 0, 0, 151819
-6277.31, -18555.9, -27.8564, 3.39802, -804.292, 0.366605, 0.197142, 1.03299, 0.34851, 0.655882, 0.0001, 45.5, 246, 23.6389, 0.011741, 0, 0, 1, 0, 151830
-6277.31, -18555.9, -27.8564, 3.39802, -804.292, 0.366605, 0.197142, 1.03299, 0.34851, 0.655882, 3, 45.5, 246, 23.6389, 0.011741, 0, 0, 1, 0, 151830
-3924.53, 87696, -211.671, 3.13968, -875.26, 0.255619, 0.302415, 1.03299, 0.34851, 0.655882, 0.0001, 45.5, 246, 56.039, 0.218709, 1.45076, 1, 1, 0, 151840
-3924.53, 87696, -211.671, 3.13968, -875.26, 0.255619, 0.302415, 1.03299, 0.34851, 0.655882, 3, 45.5, 246, 56.039, 0.218709, 1.29809, 1, 1, 0, 151840
-2134.96, 104286, -257.459, 3.46546, -936.333, 0.316254, 0.312767, 0.993198, 0.349787, 0.651995, 0.0001, 91, 246, 56.039, 0.218709, 1.65003, 1, 1, 0, 151840
-2134.96, 104286, -257.459, 3.46546, -936.333, 0.316254, 0.312767, 0.993198, 0.349787, 0.651995, 3, 91, 246, 56.039, 0.218709, 1.51569, 1, 1, 0, 151840
387.868, 124496, -314.042, 3.85792, -1018.39, 0.394807, 0.341863, 0.958125, 0.351078, 0.648177, 0.0001, 182, 246, 56.039, 0.218709, 2.52643, 1, 1, 0, 151840
387.868, 124496, -314.042, 3.85792, -1018.39, 0.394807, 0.341863, 0.958125, 0.351078, 0.648177, 3, 182, 246, 56.039, 0.218709, 2.38576, 1, 1, 0, 151840
-8258.47, 191442, -328.648, 3.41826, -743.974, -0.0555199, 0.402242, 1.03299, 0.34851, 0.655882, 0.0001, 45.5, 246, 54.8391, 0.248822, 1.39839, 1, 0, 0, 151842
-8258.47, 191442, -328.648, 3.41826, -743.974, -0.0555199, 0.402242, 1.03299, 0.34851, 0.655882, 3, 45.5, 246, 54.8391, 0.248822, 1.33184, 1, 0, 0, 151842
-4231.83, 203072, -385.004, 3.73994, -774.177, 0.00076926, 0.428853, 0.993198, 0.349787, 0.651995, 0.0001, 91, 246, 54.8391, 0.248822, 1.82946, 1, 1, 0, 151842
-4231.83, 203072, -385.004, 3.73994, -774.177, 0.00076926, 0.428853, 0.993198, 0.349787, 0.651995, 3, 91, 246, 54.8391, 0.248822, 1.74144, 1, 1, 0, 151842
-2922.52, 138103, -230.568, 2.8738, -1306.32, 1.30578, 0.341179, 0.9175, 0.352806, 0.64323, 3, 455, 246, 45.87, 0.221535, 1.02597, 1, 0, 0, 151843
-10539.8, 635444, -277.916, 0.417146, -748.171, 0.0205331, 0.457154, 1.03299, 0.34851, 0.655882, 3, 45.5, 246, 29.3894, 0.113594, 0, 0, 0, 0, 151846
-8904.17, 126491, -118.681, 1.55712, -1019.88, 0.0586333, 0.390007, 1.03299, 0.34851, 0.655882, 3, 45.5, 246, 36.006, 0.189669, 0, 0, 1, 0, 151848
-9961.6, 94259.6, -1.74786, 1.63068, -1045.42, -0.0115156, 0.308169, 1.03299, 0.34851, 0.655882, 3, 45.5, 246, 14.2573, 0.0374746, 0, 0, 1, 0, 151850
-9037.55, 120111, -139.38, 2.74115, -841.489, 0.7174, 0.283812, 1.03299, 0.34851, 0.655882, 3, 45.5, 246, 35.7581, 0.143815, 0, 0, 1, 0, 151852
110.619, 224418, -311.096, 4.31114, -1507.54, 1.43935, 0.353339, 0.9175, 0.352806, 0.64323, 0.0001, 455, 246, 35.7581, 0.143815, 1.97969, 1, 0, 0, 151852
110.619, 224418, -311.096, 4.31114, -1507.54, 1.43935, 0.353339, 0.9175, 0.352806, 0.64323, 3, 455, 246, 35.7581, 0.143815, 2.32834, 1, 0, 0, 151852
-10572.4, 569481, -57.0352, 0.716647, -641.454, 0.168574, 0.272679, 0.958125, 0.351078, 0.648177, 3, 182, 246, 15.042, 0.0227392, 0, 0, 1, 0, 151853
-9626.97, 429218, -282.707, 0.793252, -1134.35, 0.125418, 0.513498, 1.03299, 0.34851, 0.655882, 0.0001, 45.5, 246, 40.3303, 0.167209, 0, 0, 0, 0, 151854
-9626.97, 429218, -282.707, 0.793252, -1134.35, 0.125418, 0.513498, 1.03299, 0.34851, 0.655882, 3, 45.5, 246, 40.3303, 0.167209, 0, 0, 0, 0, 151854
-7549.02, 439274, -202.505, 0.406351, -1033.44, 0.116661, 0.395278, 0.993198, 0.349787, 0.651995, 0.0001, 91, 246, 31.8046, 0.116708, 0, 0, 1, 0, 151856
-8201.47, 555978, -412.437, 0.230896, -940.268, 0.00038741, 0.644712, 1.03299, 0.34851, 0.655882, 0.0001, 45.5, 246, 41.9293, 0.197722, 0, 0, 0, 0, 151861
-9017.7, 167981, -209.766, 2.77196, -1093.01, 0.409483, 0.366833, 1.03299, 0.34851, 0.655882, 3, 45.5, 246, 45.6902, 0.202233, 0, 0, 0, 0, 151865
-5915.02, 497080, -400.066, 0.0590047, -1111.02, 0.405785, 0.645031, 1.03299, 0.34851, 0.655882, 0.0001, 45.5, 246, 44.604, 0.203956, 0, 0, 0, 0, 151866
-8147.88, 822665, -224.746, 0.128866, -624.606, 0.245438, 0.362884, 0.993198, 0.349787, 0.651995, 0.0001, 91, 246, 21.6876, 0.0666322, 0, 0, 1, 0, 151868
-7405.38, 841671, -231.733, 0.134202, -650.619, 0.25542, 0.33492, 0.958125, 0.351078, 0.648177, 0.0001, 182, 246, 21.6876, 0.0666322, 0, 0, 1, 0, 151868
-8738.89, 87395.6, -87.8644, 3.53824, -1097.04, -0.0518612, 0.190955, 1.03299, 0.34851, 0.655882, 0.0001, 45.5, 246, 32.3801, 0.110067, 0, 0, 0, 0, 151869
-8738.89, 87395.6, -87.8644, 3.53824, -1097.04, -0.0518612, 0.190955, 1.03299, 0.34851, 0.655882, 3, 45.5, 246, 32.3801, 0.110067, 0, 0, 0, 0, 151869
-7229.1, 108190, -133.171, 3.85837, -1103.83, 0.00819426, 0.206698, 0.993198, 0.349787, 0.651995, 0.0001, 91, 246, 32.3801, 0.110067, 0, 0, 1, 0, 151869
-7229.1, 108190, -133.171, 3.85837, -1103.83, 0.00819426, 0.206698, 0.993198, 0.349787, 0.651995, 3, 91, 246, 32.3801, 0.110067, 0, 0, 1, 0, 151869
-593.548, 163899, -280.058, 4.89945, -1199.25, 0.205288, 0.32826, 0.9175, 0.352806, 0.64323, 0.0001, 455, 246, 32.3801, 0.110067, 1.32294, 1, 0, 0, 151869
-593.548, 163899, -280.058, 4.89945, -1199.25, 0.205288, 0.32826, 0.9175, 0.352806, 0.64323, 3, 455, 246, 32.3801, 0.110067, 1.33397, 1, 0, 0, 151869
-3308.46, 105132, -254.423, 3.27753, -826.872, -0.0516778, 0.336884, 1.03299, 0.34851, 0.655882, 0.0001, 45.5, 246, 60.275, 0.249572, 1.60409, 1, 1, 0, 151870
-3308.46, 105132, -254.423, 3.27753, -826.872, -0.0516778, 0.336884, 1.03299, 0.34851, 0.655882, 3, 45.5, 246, 60.275, 0.249572, 1.47882, 1, 1, 0, 151870
-1007.85, 118499, -303.74, 3.56994, -848.475, -0.000163339, 0.353445, 0.993198, 0.349787, 0.651995, 0.0001, 91, 246, 60.275, 0.249572, 1.9374, 1, 1, 1, 151870
-1007.85, 118499, -303.74, 3.56994, -848.475, -0.000163339, 0.353445, 0.993198, 0.349787, 0.651995, 3, 91, 246, 60.275, 0.249572, 1.83699, 1, 1, 1, 151870
2043.45, 133826, -362.492, 3.91715, -885.306, 0.0614073, 0.388207, 0.958125, 0.351078, 0.648177, 0.0001, 182, 246, 60.275, 0.249572, 4.25176, 1, 1, 1, 151870
2043.45, 133826, -362.492, 3.91715, -885.306, 0.0614073, 0.388207, 0.958125, 0.351078, 0.648177, 3, 182, 246, 60.275, 0.249572, 3.96663, 1, 1, 1, 151870
-10189.4, 296092, -209.287, 0.803319, -698.858, 0.00151848, 0.472289, 1.03299, 0.34851, 0.655882, 0.0001, 45.5, 246, 33.2514, 0.179447, 0, 0, 1, 0, 151878
-10189.4, 296092, -209.287, 0.803319, -698.858, 0.00151848, 0.472289, 1.03299, 0.34851, 0.655882, 3, 45.5, 246, 33.2514, 0.179447, 0, 0, 1, 0, 151878
-7815.05, 653211, -398.539, 0.190889, -928.312, 0.110105, 0.573913, 1.03299, 0.34851, 0.655882, 0.0001, 45.5, 246, 38.1311, 0.157424, 0, 0, 0, 0, 151881
-7815.05, 653211, -398.539, 0.190889, -928.312, 0.110105, 0.573913, 1.03299, 0.34851, 0.655882, 3, 45.5, 246, 38.1311, 0.157424, 0, 0, 0, 0, 151881
-11599.5, 252538, -34.8653, 1.1019, -850.243, 0.309537, 0.327893, 1.03299, 0.34851, 0.655882, 0.0001, 45.5, 246, 17.7994, 0.0390353, 0, 0, 1, 0, 151898
-11599.5, 252538, -34.8653, 1.1019, -850.243, 0.309537, 0.327893, 1.03299, 0.34851, 0.655882, 3, 45.5, 246, 17.7994, 0.0390353, 0, 0, 1, 0, 151898
-10569.8, 270119, -45.4154, 1.17333, -895.605, 0.331428, 0.296544, 0.993198, 0.349787, 0.651995, 0.0001, 91, 246, 17.7994, 0.0390353, 0, 0, 1, 0, 151898
-8970.58, 131933, -58.7897, 0.919655, -820.348, 0.552776, 0.318517, 0.993198, 0.349787, 0.651995, 0.0001, 91, 246, 20.0638, 0.0946647, 0, 0, 1, 0, 151899
-8970.58, 131933, -58.7897, 0.919655, -820.348, 0.552776, 0.318517, 0.993198, 0.349787, 0.651995, 3, 91, 246, 20.0638, 0.0946647, 0, 0, 1, 0, 151899
-8564.38, 82317.5, -75.9332, 1.04192, -820.019, 0.851792, 0.343636, 0.993198, 0.349787, 0.651995, 0.0001, 91, 246, 29.3131, 0.191032, 0, 0, 1, 0, 151900
-8564.38, 82317.5, -75.9332, 1.04192, -820.019, 0.851792, 0.343636, 0.993198, 0.349787, 0.651995, 3, 91, 246, 29.3131, 0.191032, 0, 0, 1, 0, 151900
-8277.6, 100361, -87.9667, 1.14245, -950.505, 0.990331, 0.319647, 0.958125, 0.351078, 0.648177, 0.0001, 182, 246, 29.3131, 0.191032, 1.50772, 1, 1, 0, 151900
-8277.6, 100361, -87.9667, 1.14245, -950.505, 0.990331, 0.319647, 0.958125, 0.351078, 0.648177, 3, 182, 246, 29.3131, 0.191032, 1.31744, 1, 1, 0, 151900
-6913.14, 526483, -348.053, 0.290623, -1156.45, 0.0182463, 0.566962, 1.03299, 0.34851, 0.655882, 0.0001, 45.5, 246, 42.2261, 0.173109, 0, 0, 0, 0, 151902
-6913.14, 526483, -348.053, 0.290623, -1156.45, 0.0182463, 0.566962, 1.03299, 0.34851, 0.655882, 3, 45.5, 246, 42.2261, 0.173109, 0, 0, 0, 0, 151902
-9085.44, 87720.8, -39.7316, 1.0775, -1133.09, -0.00221104, 0.346334, 1.03299, 0.34851, 0.655882, 0.0001, 45.5, 246, 21.8313, 0.0991539, 0, 0, 1, 0, 151903
-9085.44, 87720.8, -39.7316, 1.0775, -1133.09, -0.00221104, 0.346334, 1.03299, 0.34851, 0.655882, 3, 45.5, 246, 21.8313, 0.0991539, 0, 0, 1, 0, 151903
-8555.72, 25891.6, -22.4979, 1.5165, -819.298, 0.15525, 0.324836, 1.03299, 0.34851, 0.655882, 0.0001, 45.5, 246, 18.8727, 0.0891618, 0, 0, 1, 1, 151910
-8555.72, 25891.6, -22.4979, 1.5165, -819.298, 0.15525, 0.324836, 1.03299, 0.34851, 0.655882, 3, 45.5, 246, 18.8727, 0.0891618, 0, 0, 1, 1, 151910
-11706.2, 148858, -109.258, 3.45397, -799.264, -0.0557532, 0.188437, 1.03299, 0.34851, 0.655882, 0.0001, 45.5, 246, 28.9217, 0.102566, 0, 0, 0, 0, 151911
-11706.2, 148858, -109.258, 3.45397, -799.264, -0.0557532, 0.188437, 1.03299, 0.34851, 0.655882, 3, 45.5, 246, 28.9217, 0.102566, 0, 0, 0, 0, 151911
-10480.7, 351028, -35.9745, 0.664271, -646.075, 0.965819, 0.302525, 0.993198, 0.349787, 0.651995, 0.0001, 91, 246, 12.8914, 0.0232678, 0, 0, 1, 0, 151917
-11681, 309501, -382.676, 3.90946, -708.1, 0.0126506, 0.370233, 0.993198, 0.349787, 0.651995, 0.0001, 91, 246, 43.1464, 0.193496, 1.01605, 1, 1, 0, 151919
-4689.31, 322155, -449.985, 4.32481, -758.772, 0.0873047, 0.419523, 0.958125, 0.351078, 0.648177, 0.0001, 182, 246, 43.1464, 0.193496, 2.40942, 1, 0, 0, 151919
-4689.31, 322155, -449.985, 4.32481, -758.772, 0.0873047, 0.419523, 0.958125, 0.351078, 0.648177, 3, 182, 246, 43.1464, 0.193496, 2.24778, 1, 0, 0, 151919
-3274.09, 73860.9, -206.136, 2.49682, -716.868, 0.786943, 0.348489, 1.03299, 0.34851, 0.655882, 0.0001, 45.5, 246, 60.3274, 0.244987, 1.56186, 1, 1, 0, 151922
-3274.09, 73860.9, -206.136, 2.49682, -716.868, 0.786943, 0.348489, 1.03299, 0.34851, 0.655882, 3, 45.5, 246, 60.3274, 0.244987, 1.43037, 1, 1, 0, 151922
-1967.3, 88808.1, -240.497, 2.81085, -837.403, 0.933979, 0.344627, 0.993198, 0.349787, 0.651995, 0.0001, 91, 246, 60.3274, 0.244987, 1.70247, 1, 1, 0, 151922
-1967.3, 88808.1, -240.497, 2.81085, -837.403, 0.933979, 0.344627, 0.993198, 0.349787, 0.651995, 3, 91, 246, 60.3274, 0.244987, 1.57101, 1, 1, 0, 151922
-87.3958, 110166, -285.094, 3.20786, -1008.15, 1.1423, 0.356186, 0.958125, 0.351078, 0.648177, 0.0001, 182, 246, 60.3274, 0.244987, 2.34249, 1, 1, 1, 151922
-87.3958, 110166, -285.094, 3.20786, -1008.15, 1.1423, 0.356186, 0.958125, 0.351078, 0.648177, 3, 182, 246, 60.3274, 0.244987, 2.20099, 1, 1, 1, 151922
-1867.2, 79570.8, -235.5, 4.09343, -1055, 0.0687242, 0.268748, 0.958125, 0.351078, 0.648177, 0.0001, 182, 246, 49.2357, 0.128826, 1.46556, 1, 1, 0, 151936
-1867.2, 79570.8, -235.5, 4.09343, -1055, 0.0687242, 0.268748, 0.958125, 0.351078, 0.648177, 3, 182, 246, 49.2357, 0.128826, 1.30874, 1, 1, 0, 151936
1437.49, 109596, -327.51, 4.70653, -1125.88, 0.183859, 0.347254, 0.9175, 0.352806, 0.64323, 0.0001, 455, 246, 49.2357, 0.128826, 3.22312, 1, 0, 0, 151936
1437.49, 109596, -327.51, 4.70653, -1125.88, 0.183859, 0.347254, 0.9175, 0.352806, 0.64323, 3, 455, 246, 49.2357, 0.128826, 3.22326, 1, 0, 0, 151936
-11147.3, 352295, -218.228, 1.02365, -848.207, -0.00477426, 0.454886, 1.03299, 0.34851, 0.655882, 0.0001, 45.5, 246, 33.8094, 0.156116, 0, 0, 0, 0, 151939
-11147.3, 352295, -218.228, 1.02365, -848.207, -0.00477426, 0.454886, 1.03299, 0.34851, 0.655882, 3, 45.5, 246, 33.8094, 0.156116, 0, 0, 0, 0, 151939
-7235.86, 379568, -256.656, 1.12478, -861.676, 0.00535953, 0.415276, 0.958125, 0.351078, 0.648177, 3, 182, 246, 33.8094, 0.156116, 0, 0, 0, 0, 151939
-5960.1, 279035, -398.618, 3.63792, -1191.69, -7.72085e-05, 0.477588, 0.993198, 0.349787, 0.651995, 0.0001, 91, 246, 54.5524, 0.241006, 1.23029, 1, 1, 0, 151940
-5960.1, 279035, -398.618, 3.63792, -1191.69, -7.72085e-05, 0.477588, 0.993198, 0.349787, 0.651995, 3, 91, 246, 54.5524, 0.241006, 1.10259, 1, 1, 0, 151940
-8811.55, 22064.9, -4.7676, 1.33777, -1148.75, 0.373255, 0.298317, 0.993198, 0.349787, 0.651995, 0.0001, 91, 246, 7.10539, 0.0474767, 0, 0, 1, 1, 151942
-8811.55, 22064.9, -4.7676, 1.33777, -1148.75, 0.373255, 0.298317, 0.993198, 0.349787, 0.651995, 3, 91, 246, 7.10539, 0.0474767, 0, 0, 1, 1, 151942
-7652.11, -1311.56, -27.0585, 3.21986, -1116.56, -0.000132366, 0.244485, 0.993198, 0.349787, 0.651995, 0.0001, 91, 246, 15.543, 0.0595162, 0, 0, 1, 1, 151945
-7652.11, -1311.56, -27.0585, 3.21986, -1116.56, -0.000132366, 0.244485, 0.993198, 0.349787, 0.651995, 3, 91, 246, 15.543, 0.0595162, 0, 0, 1, 1, 151945
383.675, 523618, -399.526, 4.58062, -779.439, 0.289279, 0.338675, 0.9175, 0.352806, 0.64323, 3, 455, 246, 27.8656, 0.106034, 0, 0, 0, 0, 151946
-3879.41, 231122, -332.001, 3.85708, -935.111, 0.877507, 0.354085, 0.958125, 0.351078, 0.648177, 0.0001, 182, 246, 40.4335, 0.175638, 1.06112, 1, 0, 0, 151964
-197.024, 171442, -326.409, 3.10563, -896.612, 0.699366, 0.428381, 0.9175, 0.352806, 0.64323, 0.0001, 455, 246, 47.2814, 0.237452, 2.19474, 1, 0, 0, 151972
-197.024, 171442, -326.409, 3.10563, -896.612, 0.699366, 0.428381, 0.9175, 0.352806, 0.64323, 3, 455, 246, 47.2814, 0.237452, 2.19752, 1, 0, 0, 151972
-13900.3, 245046, -360.455, 3.38885, -553.451, 0.662446, 0.37262, 1.03299, 0.34851, 0.655882, 0.0001, 45.5, 246, 45.5438, 0.208024, 1.1881, 1, 0, 0, 151973
-13900.3, 245046, -360.455, 3.38885, -553.451, 0.662446, 0.37262, 1.03299, 0.34851, 0.655882, 3, 45.5, 246, 45.5438, 0.208024, 1.11329, 1, 0, 0, 151973
-8880.86, 263119, -414.982, 3.85829, -660.091, 0.804185, 0.398157, 0.993198, 0.349787, 0.651995, 0.0001, 91, 246, 45.5438, 0.208024, 1.44098, 1, 1, 0, 151973
-8880.86, 263119, -414.982, 3.85829, -660.091, 0.804185, 0.398157, 0.993198, 0.349787, 0.651995, 3, 91, 246, 45.5438, 0.208024, 1.35066, 1, 1, 0, 151973
-11302.7, 261747, -71.2257, 1.01071, -626.121, 0.335509, 0.342721, 1.03299, 0.34851, 0.655882, 0.0001, 45.5, 246, 18.1899, 0.0649981, 0, 0, 1, 0, 151975
-11302.7, 261747, -71.2257, 1.01071, -626.121, 0.335509, 0.342721, 1.03299, 0.34851, 0.655882, 3, 45.5, 246, 18.1899, 0.0649981, 0, 0, 1, 0, 151975
-10311.8, 273840, -80.5144, 1.07639, -663.568, 0.35934, 0.311502, 0.993198, 0.349787, 0.651995, 0.0001, 91, 246, 18.1899, 0.0649981, 0, 0, 1, 0, 151975
-7587.47, 54272, -57.1779, 3.96467, -1109.69, 4.41286e-05, 0.180926, 0.993198, 0.349787, 0.651995, 0.0001, 91, 246, 21.3031, 0.0665916, 1.11409, 1, 1, 0, 151978
-7587.47, 54272, -57.1779, 3.96467, -1109.69, 4.41286e-05, 0.180926, 0.993198, 0.349787, 0.651995, 3, 91, 246, 21.3031, 0.0665916, 1.07143, 1, 1, 0, 151978
-7215.04, 167003, -118.231, 4.10601, -1298.35, 0.981122, 0.219332, 0.958125, 0.351078, 0.648177, 0.0001, 182, 246, 21.9828, 0.0620397, 0, 0, 1, 0, 151980
-7215.04, 167003, -118.231, 4.10601, -1298.35, 0.981122, 0.219332, 0.958125, 0.351078, 0.648177, 3, 182, 246, 21.9828, 0.0620397, 0, 0, 1, 0, 151980
-1775.78, 233847, -218.522, 5.08787, -1685.15, 1.388, 0.303535, 0.9175, 0.352806, 0.64323, 0.0001, 455, 246, 21.9828, 0.0620397, 0, 0, 0, 0, 151980
-1775.78, 233847, -218.522, 5.08787, -1685.15, 1.388, 0.303535, 0.9175, 0.352806, 0.64323, 3, 455, 246, 21.9828, 0.0620397, 0, 0, 0, 0, 151980
-11248.7, 263448, -246.238, 2.18973, -1155.36, -0.0219235, 0.460189, 1.03299, 0.34851, 0.655882, 0.0001, 45.5, 246, 45.0021, 0.205042, 0, 0, 0, 0, 151981
-11248.7, 263448, -246.238, 2.18973, -1155.36, -0.0219235, 0.460189, 1.03299, 0.34851, 0.655882, 3, 45.5, 246, 45.0021, 0.205042, 0, 0, 0, 0, 151981
-12118, 197290, -13.1839, 1.69989, -1095.3, -0.010459, 0.301177, 1.03299, 0.34851, 0.655882, 0.0001, 45.5, 246, 18.6536, 0.035567, 0, 0, 1, 0, 151984
-12118, 197290, -13.1839, 1.69989, -1095.3, -0.010459, 0.301177, 1.03299, 0.34851, 0.655882, 3, 45.5, 246, 18.6536, 0.035567, 0, 0, 1, 0, 151984
-10811.1, 217966, -31.2269, 1.79751, -1095.65, 0.00296543, 0.27597, 0.993198, 0.349787, 0.651995, 3, 91, 246, 18.6536, 0.035567, 0, 0, 1, 0, 151984
-10937.3, 255194, -181.66, 1.27825, -700.792, -0.0058037, 0.42902, 1.03299, 0.34851, 0.655882, 0.0001, 45.5, 246, 32.3992, 0.16768, 0, 0, 1, 0, 151998
-9416.18, 264267, -199.634, 1.34606, -707.147, 0.00175478, 0.407379, 0.993198, 0.349787, 0.651995, 3, 91, 246, 32.3992, 0.16768, 0, 0, 1, 0, 151998
-11302.5, 253371, -62.8585, 1.22118, -1094.78, 0.0124288, 0.336935, 1.03299, 0.34851, 0.655882, 0.0001, 45.5, 246, 24.001, 0.0658478, 0, 0, 1, 0, 152000
-11302.5, 253371, -62.8585, 1.22118, -1094.78, 0.0124288, 0.336935, 1.03299, 0.34851, 0.655882, 3, 45.5, 246, 24.001, 0.0658478, 0, 0, 1, 0, 152000
-10089.5, 274579, -78.3112, 1.28257, -1099.85, 0.0193483, 0.307472, 0.993198, 0.349787, 0.651995, 0.0001, 91, 246, 24.001, 0.0658478, 0, 0, 1, 0, 152000
-8599.29, 296212, -95.0814, 1.34557, -1106.88, 0.0270126, 0.283493, 0.958125, 0.351078, 0.648177, 0.0001, 182, 246, 24.001, 0.0658478, 0, 0, 1, 0, 152000
