-13008.7, 337491, -111.412, 1.35071, -920.39, 0.175984, 0.348274, 1.03299, 0.34851, 0.655882, 3, 45.5, 246, 25.8954, 0.0818075, 1.49652, 136001
-15338.5, 253396, -215.953, 3.05735, -687.678, 0.476607, 0.283194, 1.03299, 0.34851, 0.655882, 0.0001, 45.5, 246, 34.0704, 0.142136, 1.63731, 136004
-15338.5, 253396, -215.953, 3.05735, -687.678, 0.476607, 0.283194, 1.03299, 0.34851, 0.655882, 3, 45.5, 246, 34.0704, 0.142136, 1.30928, 136004
-11487.8, 270009, -255.824, 3.41039, -767.279, 0.565026, 0.290161, 0.993198, 0.349787, 0.651995, 0.0001, 91, 246, 34.0704, 0.142136, 1.52386, 136004
-11487.8, 270009, -255.824, 3.41039, -767.279, 0.565026, 0.290161, 0.993198, 0.349787, 0.651995, 3, 91, 246, 34.0704, 0.142136, 1.51264, 136004
-23533.9, 520216, -389.134, 2.59493, -946.899, 0.0584961, 0.501451, 1.03299, 0.34851, 0.655882, 3, 45.5, 246, 43.2663, 0.178651, 1.36779, 136006
-16339.7, 540798, -444.793, 2.81803, -987.966, 0.0915008, 0.511745, 0.993198, 0.349787, 0.651995, 0.0001, 91, 246, 43.2663, 0.178651, 1.12704, 136006
-16339.7, 540798, -444.793, 2.81803, -987.966, 0.0915008, 0.511745, 0.993198, 0.349787, 0.651995, 3, 91, 246, 43.2663, 0.178651, 1.47459, 136006
-19784.7, 765790, -225.446, 1.06947, -618.159, -0.00527957, 0.388666, 1.03299, 0.34851, 0.655882, 3, 45.5, 246, 23.5242, 0.0774609, 1.43358, 136008
-10336.5, 192711, -27.4486, 0.937456, -912.2, 0.215727, 0.333691, 1.03299, 0.34851, 0.655882, 0.0001, 45.5, 246, 17.1608, 0.0412184, 1.31629, 136009
-10612.2, 93688.7, -17.2743, 2.97041, -911.058, 0.130912, 0.213903, 1.03299, 0.34851, 0.655882, 3, 45.5, 246, 17.8466, 0.0518468, 1.73135, 136010
-9459.97, 108926, -44.7783, 3.23667, -935.91, 0.176861, 0.212789, 0.993198, 0.349787, 0.651995, 3, 91, 246, 17.8466, 0.0518468, 1.45677, 136010
-4962.43, 131074, -270.658, 3.59329, -835.692, -0.0312118, 0.304248, 1.03299, 0.34851, 0.655882, 0.0001, 45.5, 246, 55.968, 0.226857, 1.78295, 136011
-4962.43, 131074, -270.658, 3.59329, -835.692, -0.0312118, 0.304248, 1.03299, 0.34851, 0.655882, 3, 45.5, 246, 55.968, 0.226857, 1.78502, 136011
-1997.36, 145054, -326.127, 3.93974, -865.091, 0.0309833, 0.329581, 0.993198, 0.349787, 0.651995, 0.0001, 91, 246, 55.968, 0.226857, 1.93246, 136011
-1997.36, 145054, -326.127, 3.93974, -865.091, 0.0309833, 0.329581, 0.993198, 0.349787, 0.651995, 3, 91, 246, 55.968, 0.226857, 1.93409, 136011
1918.39, 161698, -393.57, 4.36042, -913.826, 0.10718, 0.377112, 0.958125, 0.351078, 0.648177, 0.0001, 182, 246, 55.968, 0.226857, 3.613, 136011
1918.39, 161698, -393.57, 4.36042, -913.826, 0.10718, 0.377112, 0.958125, 0.351078, 0.648177, 3, 182, 246, 55.968, 0.226857, 3.61434, 136011
-18586.8, 326209, -192.112, 3.24388, -1014.9, -0.0504754, 0.257847, 1.03299, 0.34851, 0.655882, 0.0001, 45.5, 246, 35.5384, 0.125503, 1.34595, 136013
-18586.8, 326209, -192.112, 3.24388, -1014.9, -0.0504754, 0.257847, 1.03299, 0.34851, 0.655882, 3, 45.5, 246, 35.5384, 0.125503, 1.35012, 136013
-13605.6, 343930, -240.547, 3.52328, -1029.95, -0.000159739, 0.267669, 0.993198, 0.349787, 0.651995, 0.0001, 91, 246, 35.5384, 0.125503, 1.30713, 136013
-13605.6, 343930, -240.547, 3.52328, -1029.95, -0.000159739, 0.267669, 0.993198, 0.349787, 0.651995, 3, 91, 246, 35.5384, 0.125503, 1.80826, 136013
-21978.5, 490326, -235.667, 2.17753, -722.003, 0.289784, 0.359767, 1.03299, 0.34851, 0.655882, 3, 45.5, 246, 29.468, 0.111717, 1.48553, 136014
-20518.6, 335039, -210.518, 3.30507, -677.856, -0.0161844, 0.246646, 1.03299, 0.34851, 0.655882, 0.0001, 45.5, 246, 31.1291, 0.124479, 1.69604, 136020
-15359.3, 343358, -250.904, 3.59972, -699.801, 0.0360967, 0.257862, 0.993198, 0.349787, 0.651995, 3, 91, 246, 31.1291, 0.124479, 1.42762, 136020
-11076.6, 178653, -90.014, 3.41541, -760.048, 0.024622, 0.199978, 0.993198, 0.349787, 0.651995, 3, 91, 246, 21.3555, 0.0679327, 1.657, 136023
-37620.4, 822595, -160.577, 2.35282, -794.836, 0.0706524, 0.266797, 1.03299, 0.34851, 0.655882, 0.0001, 45.5, 246, 25.1358, 0.0540572, 1.54138, 136024
-29297, 836751, -189.602, 2.52801, -816.758, 0.0978958, 0.252406, 0.993198, 0.349787, 0.651995, 3, 91, 246, 25.1358, 0.0540572, 1.70748, 136024
-19747.1, 853537, -222.853, 2.7236, -845.915, 0.130181, 0.248318, 0.958125, 0.351078, 0.648177, 3, 182, 246, 25.1358, 0.0540572, 1.03289, 136024
-12465.4, 234604, -294.133, 3.2892, -726.709, -0.0216306, 0.364512, 1.03299, 0.34851, 0.655882, 0.0001, 45.5, 246, 45.6302, 0.207135, 1.58699, 136025
-12465.4, 234604, -294.133, 3.2892, -726.709, -0.0216306, 0.364512, 1.03299, 0.34851, 0.655882, 3, 45.5, 246, 45.6302, 0.207135, 1.2948, 136025
-8241.52, 245433, -344.498, 3.59212, -756.015, 0.0302792, 0.383695, 0.993198, 0.349787, 0.651995, 0.0001, 91, 246, 45.6302, 0.207135, 1.23865, 136025
-8241.52, 245433, -344.498, 3.59212, -756.015, 0.0302792, 0.383695, 0.993198, 0.349787, 0.651995, 3, 91, 246, 45.6302, 0.207135, 1.23905, 136025
-2997.35, 258923, -404.832, 3.95325, -800.621, 0.0932475, 0.421712, 0.958125, 0.351078, 0.648177, 0.0001, 182, 246, 45.6302, 0.207135, 1.58333, 136025
-2997.35, 258923, -404.832, 3.95325, -800.621, 0.0932475, 0.421712, 0.958125, 0.351078, 0.648177, 3, 182, 246, 45.6302, 0.207135, 1.58008, 136025
-17697.6, 451043, -122.468, 1.63329, -648.477, -0.00107562, 0.32861, 1.03299, 0.34851, 0.655882, 3, 45.5, 246, 21.3234, 0.0692369, 1.50349, 136026
-27366.7, 749086, -392.088, 1.65595, -664.805, 0.376401, 0.490059, 1.03299, 0.34851, 0.655882, 3, 45.5, 246, 31.5322, 0.126265, 1.35932, 136027
-9300.82, 243528, -242.28, 0.511939, -673.92, 0.682457, 0.55742, 1.03299, 0.34851, 0.655882, 3, 45.5, 246, 39.1853, 0.243508, 1.35552, 136028
-8450.81, 263158, -255.977, 0.554375, -759.161, 0.766349, 0.540786, 0.993198, 0.349787, 0.651995, 0.0001, 91, 246, 39.1853, 0.243508, 1.12373, 136028
-18935, 403076, -177.61, 2.34806, -949.669, 0.226477, 0.319526, 1.03299, 0.34851, 0.655882, 3, 45.5, 246, 31.308, 0.103209, 1.53472, 136030
-9751.12, 117983, -25.3708, 2.70615, -1036.42, 0.0730241, 0.240626, 0.993198, 0.349787, 0.651995, 0.0001, 91, 246, 15.9308, 0.0414246, 1.33935, 136032
-9751.12, 117983, -25.3708, 2.70615, -1036.42, 0.0730241, 0.240626, 0.993198, 0.349787, 0.651995, 3, 91, 246, 15.9308, 0.0414246, 1.33981, 136032
-31040.7, 725639, -235.26, 2.24676, -1044.96, 0.536989, 0.31984, 1.03299, 0.34851, 0.655882, 0.0001, 45.5, 246, 33.4036, 0.0797814, 1.50344, 136034
-31040.7, 725639, -235.26, 2.24676, -1044.96, 0.536989, 0.31984, 1.03299, 0.34851, 0.655882, 3, 45.5, 246, 33.4036, 0.0797814, 1.5026, 136034
-23447.4, 769514, -275.239, 2.47718, -1160.68, 0.613521, 0.307309, 0.993198, 0.349787, 0.651995, 3, 91, 246, 33.4036, 0.0797814, 1.65179, 136034
-23809.8, 619900, -34.3505, 1.6738, -782.497, 0.0603658, 0.292866, 1.03299, 0.34851, 0.655882, 3, 45.5, 246, 18.6866, 0.0197789, 1.51627, 136037
-17026.6, 310763, -213.339, 3.30963, -1144.87, -0.0522167, 0.279533, 1.03299, 0.34851, 0.655882, 0.0001, 45.5, 246, 39.7323, 0.143283, 1.62478, 136039
-17026.6, 310763, -213.339, 3.30963, -1144.87, -0.0522167, 0.279533, 1.03299, 0.34851, 0.655882, 3, 45.5, 246, 39.7323, 0.143283, 1.22283, 136039
-12004.9, 333754, -268.906, 3.60131, -1161.91, 0.000257421, 0.293011, 0.993198, 0.349787, 0.651995, 0.0001, 91, 246, 39.7323, 0.143283, 1.18802, 136039
-12004.9, 333754, -268.906, 3.60131, -1161.91, 0.000257421, 0.293011, 0.993198, 0.349787, 0.651995, 3, 91, 246, 39.7323, 0.143283, 1.79193, 136039
-14680.3, 357501, -67.7161, 1.60437, -1193.26, -0.010611, 0.31674, 1.03299, 0.34851, 0.655882, 3, 45.5, 246, 26.5281, 0.0553227, 1.52242, 136041
-14356.6, 298827, -311.867, 3.33485, -1131.79, -0.0498701, 0.39908, 1.03299, 0.34851, 0.655882, 0.0001, 45.5, 246, 49.1951, 0.205774, 1.53145, 136043
-14356.6, 298827, -311.867, 3.33485, -1131.79, -0.0498701, 0.39908, 1.03299, 0.34851, 0.655882, 3, 45.5, 246, 49.1951, 0.205774, 1.53112, 136043
-8898, 322785, -377.745, 3.64332, -1159.1, 0.00359768, 0.422542, 0.993198, 0.349787, 0.651995, 0.0001, 91, 246, 49.1951, 0.205774, 1.5338, 136043
-8898, 322785, -377.745, 3.64332, -1159.1, 0.00359768, 0.422542, 0.993198, 0.349787, 0.651995, 3, 91, 246, 49.1951, 0.205774, 1.11762, 136043
-1881.85, 350592, -456.806, 4.01234, -1207.56, 0.0680084, 0.465535, 0.958125, 0.351078, 0.648177, 0.0001, 182, 246, 49.1951, 0.205774, 1.88953, 136043
-1881.85, 350592, -456.806, 4.01234, -1207.56, 0.0680084, 0.465535, 0.958125, 0.351078, 0.648177, 3, 182, 246, 49.1951, 0.205774, 1.89137, 136043
-16522.5, 349328, -397.522, 2.67373, -773.77, 0.181878, 0.561774, 1.03299, 0.34851, 0.655882, 0.0001, 45.5, 246, 48.1125, 0.235581, 1.37839, 136047
-16522.5, 349328, -397.522, 2.67373, -773.77, 0.181878, 0.561774, 1.03299, 0.34851, 0.655882, 3, 45.5, 246, 48.1125, 0.235581, 1.38115, 136047
-10997.6, 366883, -451.978, 2.933, -830.615, 0.222762, 0.580321, 0.993198, 0.349787, 0.651995, 0.0001, 91, 246, 48.1125, 0.235581, 1.34041, 136047
-10997.6, 366883, -451.978, 2.933, -830.615, 0.222762, 0.580321, 0.993198, 0.349787, 0.651995, 3, 91, 246, 48.1125, 0.235581, 1.31548, 136047
-4080.38, 388667, -516.85, 3.23731, -903.776, 0.274167, 0.614125, 0.958125, 0.351078, 0.648177, 0.0001, 182, 246, 48.1125, 0.235581, 1.25959, 136047
-4080.38, 388667, -516.85, 3.23731, -903.776, 0.274167, 0.614125, 0.958125, 0.351078, 0.648177, 3, 182, 246, 48.1125, 0.235581, 1.26257, 136047
-9868.84, 238442, -191.411, 1.44348, -1153.57, 0.0476889, 0.449637, 1.03299, 0.34851, 0.655882, 3, 45.5, 246, 39.8865, 0.188012, 1.43574, 136050
-29385.4, 581997, -258.394, 2.59043, -738.184, 0.417228, 0.316707, 1.03299, 0.34851, 0.655882, 3, 45.5, 246, 29.6608, 0.102493, 1.52246, 136051
-22294.5, 606665, -297.348, 2.85533, -812.935, 0.481494, 0.312263, 0.993198, 0.349787, 0.651995, 0.0001, 91, 246, 29.6608, 0.102493, 1.50921, 136051
-22294.5, 606665, -297.348, 2.85533, -812.935, 0.481494, 0.312263, 0.993198, 0.349787, 0.651995, 3, 91, 246, 29.6608, 0.102493, 1.20502, 136051
-12440.8, 565601, -400.92, 0.707704, -825.319, 0.185061, 0.60565, 1.03299, 0.34851, 0.655882, 3, 45.5, 246, 38.8359, 0.180288, 1.32131, 136054
-14738.7, 483545, -359.303, 1.03367, -619.038, 0.247711, 0.568717, 1.03299, 0.34851, 0.655882, 3, 45.5, 246, 35.1846, 0.181746, 1.33522, 136056
-29407.6, 656851, -15.47, 2.04248, -765.47, 0.188966, 0.261827, 1.03299, 0.34851, 0.655882, 0.0001, 45.5, 246, 17.8252, 0.0126723, 1.54813, 136057
-29407.6, 656851, -15.47, 2.04248, -765.47, 0.188966, 0.261827, 1.03299, 0.34851, 0.655882, 3, 45.5, 246, 17.8252, 0.0126723, 1.54811, 136057
-9709.16, 96775.9, -69.2353, 3.08278, -950.257, 0.0659445, 0.224169, 1.03299, 0.34851, 0.655882, 3, 45.5, 246, 27.1076, 0.0941676, 1.73069, 136058
-16184.4, 396099, -225.503, 1.76509, -686.821, 0.161456, 0.402514, 1.03299, 0.34851, 0.655882, 3, 45.5, 246, 30.3122, 0.132778, 1.45367, 136059
-16269.2, 321520, -130.824, 2.13612, -655.687, 0.195963, 0.308467, 1.03299, 0.34851, 0.655882, 3, 45.5, 246, 23.8503, 0.0900767, 1.54968, 136060
-21291.6, 420365, -94.3751, 2.40008, -791.832, 0.0093155, 0.263346, 1.03299, 0.34851, 0.655882, 3, 45.5, 246, 22.5784, 0.0589411, 1.58472, 136063
-17351, 887564, -468.217, 0.673005, -727.863, 0.119046, 0.573666, 1.03299, 0.34851, 0.655882, 3, 45.5, 246, 33.7106, 0.135688, 1.28254, 136065
-19685.3, 452203, -203.748, 2.28956, -1004.06, -0.0244365, 0.344892, 1.03299, 0.34851, 0.655882, 3, 45.5, 246, 33.5723, 0.11189, 1.50534, 136066
-19025.1, 429182, -212.843, 3.81935, -973.925, 0.181675, 0.191489, 0.993198, 0.349787, 0.651995, 0.0001, 91, 246, 30.673, 0.0917687, 1.11443, 136069
-19025.1, 429182, -212.843, 3.81935, -973.925, 0.181675, 0.191489, 0.993198, 0.349787, 0.651995, 3, 91, 246, 30.673, 0.0917687, 1.11976, 136069
-17773.9, 430476, -357.035, 1.78428, -603.156, 0.26836, 0.53974, 1.03299, 0.34851, 0.655882, 3, 45.5, 246, 37.0493, 0.189444, 1.35463, 136072
-13477.6, 445797, -391.355, 1.93163, -649.322, 0.296058, 0.535922, 0.993198, 0.349787, 0.651995, 3, 91, 246, 37.0493, 0.189444, 1.45295, 136072
-19477.4, 739212, -423.155, 1.02917, -663.755, 0.013171, 0.564326, 1.03299, 0.34851, 0.655882, 3, 45.5, 246, 33.4618, 0.14914, 1.2963, 136073
-30023, 914554, -27.5075, 2.09777, -852.382, 0.000974175, 0.236366, 0.993198, 0.349787, 0.651995, 3, 91, 246, 20.5797, 0.00912188, 1.71166, 136081
-21903.3, 429479, -268.336, 2.81807, -998.009, 0.536028, 0.341601, 1.03299, 0.34851, 0.655882, 3, 45.5, 246, 37.7313, 0.133429, 1.52711, 136082
-15832.9, 463196, -319.087, 3.14443, -1117.85, 0.628215, 0.34561, 0.993198, 0.349787, 0.651995, 0.0001, 91, 246, 37.7313, 0.133429, 1.13692, 136082
-15832.9, 463196, -319.087, 3.14443, -1117.85, 0.628215, 0.34561, 0.993198, 0.349787, 0.651995, 3, 91, 246, 37.7313, 0.133429, 1.23723, 136082
-28963.4, 696470, -84.3742, 2.00269, -784.104, -0.0187813, 0.280205, 1.03299, 0.34851, 0.655882, 3, 45.5, 246, 21.4885, 0.036108, 1.52692, 136083
-26116.8, 697219, -341.021, 1.87078, -771.728, 0.0247026, 0.453225, 1.03299, 0.34851, 0.655882, 3, 45.5, 246, 33.2207, 0.125626, 1.3808, 136086
-8533.56, 445033, -423.158, 0.121272, -819.715, 0.775925, 0.701334, 1.03299, 0.34851, 0.655882, 3, 45.5, 246, 42.5754, 0.229233, 1.36566, 136088
-28312.3, 492995, -275.08, 3.27534, -784.058, -0.0486355, 0.28195, 1.03299, 0.34851, 0.655882, 0.0001, 45.5, 246, 34.0744, 0.12858, 1.58097, 136089
-28312.3, 492995, -275.08, 3.27534, -784.058, -0.0486355, 0.28195, 1.03299, 0.34851, 0.655882, 3, 45.5, 246, 34.0744, 0.12858, 1.578, 136089
-12147.7, 180242, -97.2853, 2.47703, -741.678, 0.0224274, 0.280869, 1.03299, 0.34851, 0.655882, 3, 45.5, 246, 25.4685, 0.0996448, 1.61414, 136090
-24746.6, 566980, -115.898, 1.9827, -701.867, 0.465092, 0.292091, 1.03299, 0.34851, 0.655882, 3, 45.5, 246, 21.3025, 0.0506867, 1.52848, 136091
-16741.3, 460038, -419.506, 1.3862, -598.456, 0.0532955, 0.662055, 1.03299, 0.34851, 0.655882, 3, 45.5, 246, 40.8289, 0.224629, 1.25544, 136092
-12666.3, 470948, -453.485, 1.47692, -620.487, 0.0628196, 0.664479, 0.993198, 0.349787, 0.651995, 3, 91, 246, 40.8289, 0.224629, 1.33789, 136092
-10383.4, 251567, -240.127, 2.64675, -646.264, 0.00574509, 0.359084, 0.993198, 0.349787, 0.651995, 0.0001, 91, 246, 34.6056, 0.164854, 1.3307, 136094
-16215.2, 319814, -221.576, 2.48968, -726.384, 0.00754943, 0.359215, 1.03299, 0.34851, 0.655882, 0.0001, 45.5, 246, 33.571, 0.147451, 1.1054, 136095
-14991.9, 343214, -264.027, 3.90813, -850.042, 0.217366, 0.233887, 0.993198, 0.349787, 0.651995, 0.0001, 91, 246, 33.6932, 0.125592, 1.13546, 136096
-14991.9, 343214, -264.027, 3.90813, -850.042, 0.217366, 0.233887, 0.993198, 0.349787, 0.651995, 3, 91, 246, 33.6932, 0.125592, 1.8801, 136096
-14140.7, 561180, -124.154, 0.865164, -972.533, 0.838476, 0.352258, 1.03299, 0.34851, 0.655882, 3, 45.5, 246, 26.3041, 0.0510026, 1.48049, 136097
-11148.9, 544010, -388.708, 0.671268, -931.12, 0.411052, 0.591379, 1.03299, 0.34851, 0.655882, 3, 45.5, 246, 40.0164, 0.175417, 1.3196, 136098
-23010.7, 627075, -154.012, 1.66596, -850.395, 0.566066, 0.327009, 1.03299, 0.34851, 0.655882, 3, 45.5, 246, 25.8195, 0.0598616, 1.4911, 136099
-8460.85, 110813, -134.95, 1.62496, -694.723, -0.00665169, 0.399163, 1.03299, 0.34851, 0.655882, 3, 45.5, 246, 39.0806, 0.220804, 1.51432, 136100
-13038.7, 231666, -85.171, 3.82516, -996.877, 0.0279949, 0.159641, 0.993198, 0.349787, 0.651995, 0.0001, 91, 246, 23.1309, 0.0585142, 1.62703, 136103
-14580.5, 474117, -371.603, 1.39579, -918.459, 0.03321, 0.591439, 1.03299, 0.34851, 0.655882, 3, 45.5, 246, 42.5823, 0.197872, 1.31191, 136104
-27384.5, 862212, -215.663, 2.42539, -1152.79, 0.91792, 0.266977, 0.993198, 0.349787, 0.651995, 3, 91, 246, 29.9293, 0.0548962, 1.69208, 136107
-11739.4, 324015, -181.897, 1.41387, -1083.94, 0.137794, 0.407025, 1.03299, 0.34851, 0.655882, 3, 45.5, 246, 34.6919, 0.135053, 1.45676, 136108
-9537.78, 121956, -119.428, 3.20865, -1027.93, 0.137809, 0.237541, 1.03299, 0.34851, 0.655882, 0.0001, 45.5, 246, 34.8575, 0.129633, 1.7294, 136111
-9537.78, 121956, -119.428, 3.20865, -1027.93, 0.137809, 0.237541, 1.03299, 0.34851, 0.655882, 3, 45.5, 246, 34.8575, 0.129633, 1.72847, 136111
-10246.4, 115413, -4.21271, 2.91779, -626.496, 0.0186488, 0.220693, 0.993198, 0.349787, 0.651995, 0.0001, 91, 246, 8.70277, 0.015728, 1.30354, 136112
-27440.4, 815528, -72.2194, 1.47603, -942.455, 0.549481, 0.308448, 1.03299, 0.34851, 0.655882, 3, 45.5, 246, 24.5005, 0.0250389, 1.4859, 136114
-9241.16, 144683, -123.121, 3.88302, -881.252, 0.117747, 0.182101, 0.993198, 0.349787, 0.651995, 3, 91, 246, 27.0658, 0.0891251, 2.03179, 136115
-10375.4, 378786, -303.015, 1.10611, -1138.55, 0.00873454, 0.560706, 1.03299, 0.34851, 0.655882, 3, 45.5, 246, 44.2342, 0.203952, 1.3305, 136116
-7380.33, -39214, 9.84097, 2.601, -957.232, 0.490286, 0.272974, 1.03299, 0.34851, 0.655882, 0.0001, 45.5, 246, 10.9621, 0.0507185, 1.69767, 136117
-7380.33, -39214, 9.84097, 2.601, -957.232, 0.490286, 0.272974, 1.03299, 0.34851, 0.655882, 3, 45.5, 246, 10.9621, 0.0507185, 1.69871, 136117
-9299.74, 190320, -169.518, 1.26135, -988.125, -0.00637555, 0.451197, 1.03299, 0.34851, 0.655882, 3, 45.5, 246, 38.9195, 0.209891, 1.43141, 136119
-26849.9, 518414, -286.646, 2.85227, -858.682, 0.243848, 0.335508, 1.03299, 0.34851, 0.655882, 0.0001, 45.5, 246, 35.061, 0.127266, 1.51582, 136120
-26849.9, 518414, -286.646, 2.85227, -858.682, 0.243848, 0.335508, 1.03299, 0.34851, 0.655882, 3, 45.5, 246, 35.061, 0.127266, 1.51934, 136120
-19689.4, 540219, -334.478, 3.1309, -920.787, 0.294466, 0.339387, 0.993198, 0.349787, 0.651995, 3, 91, 246, 35.061, 0.127266, 1.65209, 136120
-14368.1, 248047, -25.0774, 2.09489, -1033.58, 0.00803327, 0.276604, 1.03299, 0.34851, 0.655882, 3, 45.5, 246, 20.2898, 0.040044, 1.58311, 136121
-15876.1, 317400, -2.10305, 1.80201, -969.227, 0.0358547, 0.287218, 1.03299, 0.34851, 0.655882, 3, 45.5, 246, 17.6942, 0.0173712, 1.55538, 136124
-15425.9, 350463, -203.189, 3.37127, -797.452, 0.0642284, 0.245115, 0.993198, 0.349787, 0.651995, 3, 91, 246, 28.9794, 0.103752, 1.82406, 136126
-13520.8, 193067, -83.8518, 2.67933, -671.336, 0.34976, 0.245527, 1.03299, 0.34851, 0.655882, 3, 45.5, 246, 22.0695, 0.0777807, 1.65853, 136129
-26735.1, 906130, -5.58873, 1.24886, -1070.21, 0.0280862, 0.312362, 1.03299, 0.34851, 0.655882, 3, 45.5, 246, 25.003, 0.00664645, 1.47715, 136130
-28606.9, 707878, -243.005, 2.97513, -621.846, -6.87362e-05, 0.252712, 0.993198, 0.349787, 0.651995, 3, 91, 246, 23.965, 0.0776712, 1.73136, 136131
-7772.82, 160528, -237.053, 2.93865, -1094.66, 0.0514185, 0.394536, 1.03299, 0.34851, 0.655882, 0.0001, 45.5, 246, 51.2908, 0.235513, 1.61606, 136132
-7772.82, 160528, -237.053, 2.93865, -1094.66, 0.0514185, 0.394536, 1.03299, 0.34851, 0.655882, 3, 45.5, 246, 51.2908, 0.235513, 1.60985, 136132
-5034.52, 183696, -288.491, 3.20222, -1128.48, 0.093578, 0.405146, 0.993198, 0.349787, 0.651995, 0.0001, 91, 246, 51.2908, 0.235513, 1.30033, 136132
-5034.52, 183696, -288.491, 3.20222, -1128.48, 0.093578, 0.405146, 0.993198, 0.349787, 0.651995, 3, 91, 246, 51.2908, 0.235513, 1.69904, 136132
-1337.99, 209817, -349.696, 3.51071, -1178.21, 0.145188, 0.431374, 0.958125, 0.351078, 0.648177, 0.0001, 182, 246, 51.2908, 0.235513, 2.02931, 136132
-1337.99, 209817, -349.696, 3.51071, -1178.21, 0.145188, 0.431374, 0.958125, 0.351078, 0.648177, 3, 182, 246, 51.2908, 0.235513, 2.03113, 136132
-30640.2, 598305, -298.462, 2.49651, -550.904, 0.454186, 0.349163, 1.03299, 0.34851, 0.655882, 0.0001, 45.5, 246, 27.3953, 0.112107, 1.48452, 136133
-30640.2, 598305, -298.462, 2.49651, -550.904, 0.454186, 0.349163, 1.03299, 0.34851, 0.655882, 3, 45.5, 246, 27.3953, 0.112107, 1.49176, 136133
-23481.5, 620403, -334.956, 2.75507, -617.652, 0.521883, 0.344727, 0.993198, 0.349787, 0.651995, 3, 91, 246, 27.3953, 0.112107, 1.61823, 136133
-23823.7, 550877, -325.79, 2.29179, -919.717, 0.383764, 0.428347, 1.03299, 0.34851, 0.655882, 3, 45.5, 246, 37.3295, 0.137932, 1.42451, 136136
-17405.2, 580504, -370.771, 2.51427, -1003.79, 0.435501, 0.425096, 0.993198, 0.349787, 0.651995, 3, 91, 246, 37.3295, 0.137932, 1.34342, 136136
-27569.4, 594127, -363.892, 2.80394, -1127.86, 0.162883, 0.421372, 1.03299, 0.34851, 0.655882, 0.0001, 45.5, 246, 43.2833, 0.149233, 1.42181, 136138
-27569.4, 594127, -363.892, 2.80394, -1127.86, 0.162883, 0.421372, 1.03299, 0.34851, 0.655882, 3, 45.5, 246, 43.2833, 0.149233, 1.42852, 136138
-19040.3, 625119, -425.425, 3.06836, -1191.97, 0.206022, 0.430507, 0.993198, 0.349787, 0.651995, 0.0001, 91, 246, 43.2833, 0.149233, 1.1241, 136138
-19040.3, 625119, -425.425, 3.06836, -1191.97, 0.206022, 0.430507, 0.993198, 0.349787, 0.651995, 3, 91, 246, 43.2833, 0.149233, 1.55166, 136138
-12546.6, 276170, -236.154, 2.52232, -1180.25, -0.0298465, 0.409153, 1.03299, 0.34851, 0.655882, 3, 45.5, 246, 43.5, 0.183217, 1.36541, 136141
-21956.1, 455807, -337.794, 2.43258, -754.825, 0.575709, 0.437981, 1.03299, 0.34851, 0.655882, 3, 45.5, 246, 36.8424, 0.157067, 1.43564, 136143
-16093.5, 483885, -382.66, 2.70706, -857.85, 0.665181, 0.439295, 0.993198, 0.349787, 0.651995, 0.0001, 91, 246, 36.8424, 0.157067, 1.13359, 136143
-16093.5, 483885, -382.66, 2.70706, -857.85, 0.665181, 0.439295, 0.993198, 0.349787, 0.651995, 3, 91, 246, 36.8424, 0.157067, 1.54668, 136143
-10302.8, 130327, -102.543, 3.02703, -1051.58, 0.378754, 0.242221, 1.03299, 0.34851, 0.655882, 3, 45.5, 246, 31.997, 0.11548, 1.70399, 136144
-8413.52, 154046, -142.821, 3.35144, -1133.07, 0.450327, 0.245237, 0.993198, 0.349787, 0.651995, 0.0001, 91, 246, 31.997, 0.11548, 1.26873, 136144
-8413.52, 154046, -142.821, 3.35144, -1133.07, 0.450327, 0.245237, 0.993198, 0.349787, 0.651995, 3, 91, 246, 31.997, 0.11548, 1.88409, 136144
-20140.2, 633139, -312.874, 1.4282, -842.818, 0.760387, 0.440283, 1.03299, 0.34851, 0.655882, 3, 45.5, 246, 32.4944, 0.111506, 1.41373, 136145
-30108.1, 812191, -353.197, 1.81692, -720.862, 0.134037, 0.4372, 1.03299, 0.34851, 0.655882, 3, 45.5, 246, 30.9968, 0.111488, 1.38766, 136147
-9419.3, 146455, -145.306, 2.65436, -1171.07, -0.0100476, 0.328197, 1.03299, 0.34851, 0.655882, 3, 45.5, 246, 39.2789, 0.167319, 1.21597, 136148
-11343.3, 190379, -112.617, 2.0243, -872.03, 0.228071, 0.328309, 1.03299, 0.34851, 0.655882, 0.0001, 45.5, 246, 28.7891, 0.117982, 1.01042, 136150
-11343.3, 190379, -112.617, 2.0243, -872.03, 0.228071, 0.328309, 1.03299, 0.34851, 0.655882, 3, 45.5, 246, 28.7891, 0.117982, 1.54933, 136150
-35629.5, 785042, -268.432, 2.26964, -576.046, 0.0732966, 0.334565, 1.03299, 0.34851, 0.655882, 0.0001, 45.5, 246, 24.8673, 0.0879616, 1.47817, 136151
-35629.5, 785042, -268.432, 2.26964, -576.046, 0.0732966, 0.334565, 1.03299, 0.34851, 0.655882, 3, 45.5, 246, 24.8673, 0.0879616, 1.47814, 136151
-27602.4, 794793, -299.809, 2.43964, -601.622, 0.098783, 0.322966, 0.993198, 0.349787, 0.651995, 3, 91, 246, 24.8673, 0.0879616, 1.61427, 136151
-18290.8, 439922, -46.4919, 1.75656, -1092.11, 0.0168704, 0.29618, 1.03299, 0.34851, 0.655882, 3, 45.5, 246, 24.1457, 0.0361315, 1.53313, 136154
-7445.22, 183672, -296.581, 3.43748, -1087.59, -0.043928, 0.395928, 1.03299, 0.34851, 0.655882, 0.0001, 45.5, 246, 56.253, 0.248526, 1.65519, 136155
-7445.22, 183672, -296.581, 3.43748, -1087.59, -0.043928, 0.395928, 1.03299, 0.34851, 0.655882, 3, 45.5, 246, 56.253, 0.248526, 1.45716, 136155
-3580.53, 206307, -361.405, 3.76413, -1115.89, 0.0129597, 0.422728, 0.993198, 0.349787, 0.651995, 0.0001, 91, 246, 56.253, 0.248526, 1.95049, 136155
-3580.53, 206307, -361.405, 3.76413, -1115.89, 0.0129597, 0.422728, 0.993198, 0.349787, 0.651995, 3, 91, 246, 56.253, 0.248526, 1.97727, 136155
-19283.5, 402832, -237.271, 3.8353, -629.611, 0.045269, 0.203961, 0.993198, 0.349787, 0.651995, 0.0001, 91, 246, 27.2628, 0.103673, 1.8982, 136157
-19283.5, 402832, -237.271, 3.8353, -629.611, 0.045269, 0.203961, 0.993198, 0.349787, 0.651995, 3, 91, 246, 27.2628, 0.103673, 1.89865, 136157
-12562, 211449, 1.17657, 1.62129, -836.497, 0.0180746, 0.300336, 1.03299, 0.34851, 0.655882, 3, 45.5, 246, 13.5591, 0.0166818, 1.55228, 136158
-7424.42, 290758, -172.579, 0.0449556, -992.617, 0.160099, 0.3991, 0.958125, 0.351078, 0.648177, 3, 182, 246, 32.8622, 0.174203, 1.11934, 136161
-37575.5, 924150, -181.809, 2.02871, -685.545, 0.0579337, 0.29844, 1.03299, 0.34851, 0.655882, 3, 45.5, 246, 23.1411, 0.0538227, 1.49701, 136162
-19367.1, 446570, -402.653, 2.52195, -942.066, -0.0175723, 0.563328, 1.03299, 0.34851, 0.655882, 3, 45.5, 246, 46.8937, 0.21158, 1.33954, 136163
-13030.2, 465048, -458.563, 2.72834, -971.375, 0.0126565, 0.577611, 0.993198, 0.349787, 0.651995, 0.0001, 91, 246, 46.8937, 0.21158, 1.1043, 136163
-13030.2, 465048, -458.563, 2.72834, -971.375, 0.0126565, 0.577611, 0.993198, 0.349787, 0.651995, 3, 91, 246, 46.8937, 0.21158, 1.15002, 136163
-27940.7, 654882, -9.13092, 1.95271, -1027.51, -0.0164677, 0.275805, 1.03299, 0.34851, 0.655882, 3, 45.5, 246, 22.7068, 0.0130616, 1.52962, 136164
-13502.7, 269033, -8.19684, 1.46277, -851.45, 0.407899, 0.306243, 1.03299, 0.34851, 0.655882, 3, 45.5, 246, 15.7647, 0.0192642, 1.53695, 136165
-29829.1, 884198, -421.091, 1.52525, -683.731, 0.385535, 0.490217, 1.03299, 0.34851, 0.655882, 3, 45.5, 246, 31.197, 0.116765, 1.3508, 136166
-11452.9, 206745, -171.89, 2.35876, -906.087, 0.250249, 0.350968, 1.03299, 0.34851, 0.655882, 0.0001, 45.5, 246, 35.9658, 0.156564, 1.07172, 136167
-11452.9, 206745, -171.89, 2.35876, -906.087, 0.250249, 0.350968, 1.03299, 0.34851, 0.655882, 3, 45.5, 246, 35.9658, 0.156564, 1.55069, 136167
-22338.6, 673641, -180.429, 2.53408, -1090.84, 0.00296147, 0.264619, 0.993198, 0.349787, 0.651995, 3, 91, 246, 30.6324, 0.0634232, 1.71311, 136169
-16790.6, 739063, -455.744, 0.769134, -697.9, 0.163696, 0.6013, 1.03299, 0.34851, 0.655882, 3, 45.5, 246, 34.9799, 0.156997, 1.30713, 136170
-20182.7, 878567, -280.425, 1.15547, -1094.34, 0.100545, 0.412188, 1.03299, 0.34851, 0.655882, 3, 45.5, 246, 35.1783, 0.0837807, 1.41379, 136173
-24283, 664669, -295.797, 1.85238, -904.395, 0.27897, 0.412405, 1.03299, 0.34851, 0.655882, 3, 45.5, 246, 33.7042, 0.110235, 1.42146, 136175
-28805.5, 651068, -437.622, 2.41302, -937.717, 0.36135, 0.512833, 1.03299, 0.34851, 0.655882, 0.0001, 45.5, 246, 41.6878, 0.16021, 1.35314, 136176
-28805.5, 651068, -437.622, 2.41302, -937.717, 0.36135, 0.512833, 1.03299, 0.34851, 0.655882, 3, 45.5, 246, 41.6878, 0.16021, 1.34853, 136176
-20260.3, 684288, -494.734, 2.6565, -1028.75, 0.413117, 0.520052, 0.993198, 0.349787, 0.651995, 0.0001, 91, 246, 41.6878, 0.16021, 1.13857, 136176
-20260.3, 684288, -494.734, 2.6565, -1028.75, 0.413117, 0.520052, 0.993198, 0.349787, 0.651995, 3, 91, 246, 41.6878, 0.16021, 1.43419, 136176
-26390.9, 865394, -303.079, 1.52032, -946.438, 0.253411, 0.41498, 1.03299, 0.34851, 0.655882, 3, 45.5, 246, 33.1072, 0.0891604, 1.40131, 136177
-19657.6, 382183, -217.917, 2.63517, -725.848, -0.0326543, 0.328553, 1.03299, 0.34851, 0.655882, 3, 45.5, 246, 31.3097, 0.127605, 1.53485, 136179
-18020.1, 610871, -345.784, 1.28642, -792.23, 0.28877, 0.498324, 1.03299, 0.34851, 0.655882, 3, 45.5, 246, 34.3048, 0.139092, 1.36414, 136180
-12715.1, 410184, -393.447, 1.00401, -738.977, 0.011379, 0.688473, 1.03299, 0.34851, 0.655882, 3, 45.5, 246, 44.3138, 0.246267, 1.24806, 136181
-22392.9, 555633, -280.537, 1.91632, -824.772, 0.749079, 0.397126, 1.03299, 0.34851, 0.655882, 3, 45.5, 246, 32.0256, 0.111696, 1.45201, 136183
-14827.2, 218485, 14.8597, 2.32699, -1103.75, 0.277737, 0.250951, 1.03299, 0.34851, 0.655882, 0.0001, 45.5, 246, 17.4417, 0.0181235, 1.14909, 136184
-14827.2, 218485, 14.8597, 2.32699, -1103.75, 0.277737, 0.250951, 1.03299, 0.34851, 0.655882, 3, 45.5, 246, 17.4417, 0.0181235, 1.62501, 136184
-12700.5, 243909, -8.96581, 2.52674, -1156.56, 0.317517, 0.235239, 0.993198, 0.349787, 0.651995, 0.0001, 91, 246, 17.4417, 0.0181235, 1.07795, 136184
-28537.1, 682391, -362.977, 2.16831, -778.98, 0.026552, 0.453878, 1.03299, 0.34851, 0.655882, 3, 45.5, 246, 34.8685, 0.135325, 1.38052, 136186
-21187, 696373, -405.111, 2.328, -806.394, 0.0489493, 0.449541, 0.993198, 0.349787, 0.651995, 3, 91, 246, 34.8685, 0.135325, 1.48, 136186
-24391.3, 704589, -168.591, 1.44963, -581.274, 0.762091, 0.336956, 1.03299, 0.34851, 0.655882, 3, 45.5, 246, 20.1394, 0.0545679, 1.4801, 136188
-7441.91, 471561, -219.815, 0.160238, -719.201, 0.565558, 0.375672, 0.958125, 0.351078, 0.648177, 3, 182, 246, 25.3209, 0.115869, 1.1292, 136190
-16102.1, 349786, -307.425, 2.72924, -997.221, -0.0289575, 0.443817, 1.03299, 0.34851, 0.655882, 0.0001, 45.5, 246, 44.4229, 0.192333, 1.45345, 136191
-16102.1, 349786, -307.425, 2.72924, -997.221, -0.0289575, 0.443817, 1.03299, 0.34851, 0.655882, 3, 45.5, 246, 44.4229, 0.192333, 1.45372, 136191
-11058.5, 368667, -358.95, 2.95287, -1020.26, 0.00646834, 0.45237, 0.993198, 0.349787, 0.651995, 0.0001, 91, 246, 44.4229, 0.192333, 1.21136, 136191
-11058.5, 368667, -358.95, 2.95287, -1020.26, 0.00646834, 0.45237, 0.993198, 0.349787, 0.651995, 3, 91, 246, 44.4229, 0.192333, 1.58804, 136191
-11622.2, 164409, -133.948, 3.11377, -878.97, 0.499377, 0.23527, 1.03299, 0.34851, 0.655882, 0.0001, 45.5, 246, 32.2847, 0.119041, 1.71644, 136192
-11622.2, 164409, -133.948, 3.11377, -878.97, 0.499377, 0.23527, 1.03299, 0.34851, 0.655882, 3, 45.5, 246, 32.2847, 0.119041, 1.26652, 136192
-7282.35, 408789, -296.776, 2.9637, -1236.66, 0.926955, 0.345298, 0.958125, 0.351078, 0.648177, 0.0001, 182, 246, 34.3691, 0.128156, 1.0088, 136194
-26863, 883072, -422.368, 1.37239, -755.901, 0.354637, 0.50583, 1.03299, 0.34851, 0.655882, 3, 45.5, 246, 32.8337, 0.117938, 1.33883, 136196
-5830.44, 769358, -321.881, 0.0198262, -912.511, 0.0343576, 0.468576, 1.03299, 0.34851, 0.655882, 3, 45.5, 246, 32.7006, 0.107133, 1.38843, 136197
-8483.05, 112883, -156.447, 2.95409, -731.952, 0.774941, 0.261956, 1.03299, 0.34851, 0.655882, 0.0001, 45.5, 246, 37.1916, 0.144093, 1.72577, 136198
-8483.05, 112883, -156.447, 2.95409, -731.952, 0.774941, 0.261956, 1.03299, 0.34851, 0.655882, 3, 45.5, 246, 37.1916, 0.144093, 1.31758, 136198
-6740.34, 129348, -192.106, 3.34599, -852.463, 0.932672, 0.265042, 0.993198, 0.349787, 0.651995, 0.0001, 91, 246, 37.1916, 0.144093, 1.66697, 136198
-6740.34, 129348, -192.106, 3.34599, -852.463, 0.932672, 0.265042, 0.993198, 0.349787, 0.651995, 3, 91, 246, 37.1916, 0.144093, 1.92197, 136198
-4248.5, 152869, -240.108, 3.85209, -1026.64, 1.16053, 0.288805, 0.958125, 0.351078, 0.648177, 0.0001, 182, 246, 37.1916, 0.144093, 1.11712, 136198
-4248.5, 152869, -240.108, 3.85209, -1026.64, 1.16053, 0.288805, 0.958125, 0.351078, 0.648177, 3, 182, 246, 37.1916, 0.144093, 1.1214, 136198
-18826.4, 654700, -61.1827, 1.0951, -859.619, 0.409542, 0.325024, 1.03299, 0.34851, 0.655882, 3, 45.5, 246, 21.4871, 0.025919, 1.48687, 136199
-9277.84, 178709, -217.678, 2.94738, -1131.66, 0.018336, 0.365519, 1.03299, 0.34851, 0.655882, 0.0001, 45.5, 246, 46.7658, 0.20568, 1.01864, 136200
-9277.84, 178709, -217.678, 2.94738, -1131.66, 0.018336, 0.365519, 1.03299, 0.34851, 0.655882, 3, 45.5, 246, 46.7658, 0.20568, 1.6062, 136200
-6406.53, 202683, -268.276, 3.20388, -1158.28, 0.0600577, 0.373989, 0.993198, 0.349787, 0.651995, 0.0001, 91, 246, 46.7658, 0.20568, 1.36004, 136200
-6406.53, 202683, -268.276, 3.20388, -1158.28, 0.0600577, 0.373989, 0.993198, 0.349787, 0.651995, 3, 91, 246, 46.7658, 0.20568, 1.57666, 136200
-2573.03, 229298, -328.161, 3.50308, -1200.29, 0.110491, 0.397738, 0.958125, 0.351078, 0.648177, 0.0001, 182, 246, 46.7658, 0.20568, 1.37718, 136200
-2573.03, 229298, -328.161, 3.50308, -1200.29, 0.110491, 0.397738, 0.958125, 0.351078, 0.648177, 3, 182, 246, 46.7658, 0.20568, 1.38121, 136200
-30830, 718211, -242.163, 2.31259, -966.599, 0.118348, 0.328927, 1.03299, 0.34851, 0.655882, 3, 45.5, 246, 32.5682, 0.0882491, 1.49154, 136201
-23258.7, 740353, -280.785, 2.49363, -1003.67, 0.146438, 0.317963, 0.993198, 0.349787, 0.651995, 3, 91, 246, 32.5682, 0.0882491, 1.63294, 136201
-16759.6, 325401, -109.037, 3.55241, -668.407, 0.232323, 0.172791, 0.993198, 0.349787, 0.651995, 3, 91, 246, 19.6853, 0.0567381, 1.96566, 136204
-20171.2, 480666, -293.861, 3.6092, -833.033, 0.177862, 0.263392, 0.993198, 0.349787, 0.651995, 3, 91, 246, 32.5469, 0.117581, 1.77951, 136205
-30685.3, 540516, -338.034, 3.15262, -682.298, -0.02135, 0.346801, 1.03299, 0.34851, 0.655882, 0.0001, 45.5, 246, 34.8743, 0.145214, 1.49989, 136207
-30685.3, 540516, -338.034, 3.15262, -682.298, -0.02135, 0.346801, 1.03299, 0.34851, 0.655882, 3, 45.5, 246, 34.8743, 0.145214, 1.50343, 136207
-18826.6, 444011, -418.319, 2.28778, -890.255, 0.297799, 0.592115, 1.03299, 0.34851, 0.655882, 0.0001, 45.5, 246, 46.1595, 0.213294, 1.32546, 136209
-12826.1, 469521, -471.378, 2.50896, -964.84, 0.338979, 0.604078, 0.993198, 0.349787, 0.651995, 0.0001, 91, 246, 46.1595, 0.213294, 1.09989, 136209
-12826.1, 469521, -471.378, 2.50896, -964.84, 0.338979, 0.604078, 0.993198, 0.349787, 0.651995, 3, 91, 246, 46.1595, 0.213294, 1.40535, 136209
-5303.49, 500722, -534.073, 2.76592, -1057.77, 0.390393, 0.628513, 0.958125, 0.351078, 0.648177, 0.0001, 182, 246, 46.1595, 0.213294, 1.20498, 136209
-5303.49, 500722, -534.073, 2.76592, -1057.77, 0.390393, 0.628513, 0.958125, 0.351078, 0.648177, 3, 182, 246, 46.1595, 0.213294, 1.55425, 136209
-9334.81, 334813, -339.697, 2.80715, -1122.98, 0.00498499, 0.460826, 0.993198, 0.349787, 0.651995, 0.0001, 91, 246, 46.0634, 0.201129, 1.26253, 136210
-9334.81, 334813, -339.697, 2.80715, -1122.98, 0.00498499, 0.460826, 0.993198, 0.349787, 0.651995, 3, 91, 246, 46.0634, 0.201129, 1.51098, 136210
-30700.5, 600959, -394.086, 2.43878, -613.1, 0.754364, 0.434152, 1.03299, 0.34851, 0.655882, 0.0001, 45.5, 246, 32.6533, 0.139249, 1.42154, 136212
-30700.5, 600959, -394.086, 2.43878, -613.1, 0.754364, 0.434152, 1.03299, 0.34851, 0.655882, 3, 45.5, 246, 32.6533, 0.139249, 1.42828, 136212
-22942.6, 637315, -440.34, 2.74342, -728.057, 0.889886, 0.435616, 0.993198, 0.349787, 0.651995, 0.0001, 91, 246, 32.6533, 0.139249, 1.15805, 136212
-22942.6, 637315, -440.34, 2.74342, -728.057, 0.889886, 0.435616, 0.993198, 0.349787, 0.651995, 3, 91, 246, 32.6533, 0.139249, 1.53395, 136212
-18905.5, 368951, -358.073, 2.43101, -555.307, 0.526938, 0.484482, 1.03299, 0.34851, 0.655882, 3, 45.5, 246, 38.179, 0.191266, 1.42119, 136213
-13896.9, 388170, -400.024, 2.70097, -633.88, 0.606292, 0.489794, 0.993198, 0.349787, 0.651995, 0.0001, 91, 246, 38.179, 0.191266, 1.21631, 136213
-13896.9, 388170, -400.024, 2.70097, -633.88, 0.606292, 0.489794, 0.993198, 0.349787, 0.651995, 3, 91, 246, 38.179, 0.191266, 1.5256, 136213
-6142.59, -54478, 11.0295, 3.44395, -911.372, -0.0532756, 0.211813, 1.03299, 0.34851, 0.655882, 0.0001, 45.5, 246, 11.9786, 0.032932, 2.07624, 136217
-6142.59, -54478, 11.0295, 3.44395, -911.372, -0.0532756, 0.211813, 1.03299, 0.34851, 0.655882, 3, 45.5, 246, 11.9786, 0.032932, 2.0681, 136217
-7042.38, -40326, -17.9056, 3.75029, -907.997, 0.00356864, 0.225468, 0.993198, 0.349787, 0.651995, 0.0001, 91, 246, 11.9786, 0.032932, 1.90329, 136217
-7042.38, -40326, -17.9056, 3.75029, -907.997, 0.00356864, 0.225468, 0.993198, 0.349787, 0.651995, 3, 91, 246, 11.9786, 0.032932, 1.91886, 136217
-28769.6, 579898, -162.64, 2.62943, -910.899, 0.0471105, 0.262462, 1.03299, 0.34851, 0.655882, 0.0001, 45.5, 246, 28.4638, 0.0737732, 1.57426, 136219
-28769.6, 579898, -162.64, 2.62943, -910.899, 0.0471105, 0.262462, 1.03299, 0.34851, 0.655882, 3, 45.5, 246, 28.4638, 0.0737732, 1.57416, 136219
-22064.5, 596113, -197.768, 2.83657, -933.077, 0.0805119, 0.254624, 0.993198, 0.349787, 0.651995, 0.0001, 91, 246, 28.4638, 0.0737732, 1.12086, 136219
-22064.5, 596113, -197.768, 2.83657, -933.077, 0.0805119, 0.254624, 0.993198, 0.349787, 0.651995, 3, 91, 246, 28.4638, 0.0737732, 1.74604, 136219
-8005.14, 94879.8, -136.15, 1.49609, -635.992, 0.499221, 0.407836, 1.03299, 0.34851, 0.655882, 3, 45.5, 246, 41.6036, 0.242239, 1.51984, 136220
-39699.9, 777517, -334.14, 2.6477, -704.187, 0.284297, 0.342354, 1.03299, 0.34851, 0.655882, 0.0001, 45.5, 246, 30.4385, 0.105807, 1.47771, 136221
-39699.9, 777517, -334.14, 2.6477, -704.187, 0.284297, 0.342354, 1.03299, 0.34851, 0.655882, 3, 45.5, 246, 30.4385, 0.105807, 1.47888, 136221
-29928.1, 800294, -378.848, 2.9017, -765.918, 0.333037, 0.341071, 0.993198, 0.349787, 0.651995, 0.0001, 91, 246, 30.4385, 0.105807, 1.20451, 136221
-29928.1, 800294, -378.848, 2.9017, -765.918, 0.333037, 0.341071, 0.993198, 0.349787, 0.651995, 3, 91, 246, 30.4385, 0.105807, 1.38562, 136221
-10625.2, 170663, -105.313, 1.74293, -765.153, 0.406455, 0.340779, 1.03299, 0.34851, 0.655882, 3, 45.5, 246, 27.1427, 0.119516, 1.29448, 136222
-16547.9, 269004, -30.555, 2.61144, -1105.44, -0.011963, 0.236234, 1.03299, 0.34851, 0.655882, 0.0001, 45.5, 246, 22.5975, 0.0447789, 1.43985, 136223
-16547.9, 269004, -30.555, 2.61144, -1105.44, -0.011963, 0.236234, 1.03299, 0.34851, 0.655882, 3, 45.5, 246, 22.5975, 0.0447789, 1.64346, 136223
-16368.8, 337279, -332.803, 3.20942, -1046.2, -0.0491769, 0.425953, 1.03299, 0.34851, 0.655882, 0.0001, 45.5, 246, 47.9657, 0.203999, 1.00232, 136226
-16368.8, 337279, -332.803, 3.20942, -1046.2, -0.0491769, 0.425953, 1.03299, 0.34851, 0.655882, 3, 45.5, 246, 47.9657, 0.203999, 1.49104, 136226
-10490.1, 358039, -395.988, 3.50023, -1074.13, 0.00027478, 0.447475, 0.993198, 0.349787, 0.651995, 0.0001, 91, 246, 47.9657, 0.203999, 1.27494, 136226
-10490.1, 358039, -395.988, 3.50023, -1074.13, 0.00027478, 0.447475, 0.993198, 0.349787, 0.651995, 3, 91, 246, 47.9657, 0.203999, 1.63852, 136226
-3081.43, 382544, -471.344, 3.84552, -1121.01, 0.0595388, 0.487255, 0.958125, 0.351078, 0.648177, 0.0001, 182, 246, 47.9657, 0.203999, 1.50148, 136226
-3081.43, 382544, -471.344, 3.84552, -1121.01, 0.0595388, 0.487255, 0.958125, 0.351078, 0.648177, 3, 182, 246, 47.9657, 0.203999, 1.50391, 136226
-13061.2, 775174, -461.409, 0.732774, -1076.04, 0.00416395, 0.60779, 1.03299, 0.34851, 0.655882, 3, 45.5, 246, 42.5621, 0.156505, 1.31731, 136227
-11321.9, 187076, -53.7758, 1.56739, -693.217, 0.0210231, 0.318685, 1.03299, 0.34851, 0.655882, 3, 45.5, 246, 18.4838, 0.0670645, 1.53868, 136228
-12655.4, 187017, -72.2613, 2.654, -1136.68, 0.0615137, 0.260058, 1.03299, 0.34851, 0.655882, 0.0001, 45.5, 246, 27.425, 0.0863482, 1.0812, 136229
-12655.4, 187017, -72.2613, 2.654, -1136.68, 0.0615137, 0.260058, 1.03299, 0.34851, 0.655882, 3, 45.5, 246, 27.425, 0.0863482, 1.59428, 136229
-23867.7, 432780, -224.008, 3.29743, -1093.2, -0.0415868, 0.259793, 1.03299, 0.34851, 0.655882, 0.0001, 45.5, 246, 37.2777, 0.121112, 1.61617, 136230
-17137, 453586, -278.61, 3.58723, -1113.1, 0.01042, 0.271549, 0.993198, 0.349787, 0.651995, 3, 91, 246, 37.2777, 0.121112, 1.23684, 136230
-7727.57, 513971, -329.286, 0.1632, -853.829, 0.23853, 0.541664, 1.03299, 0.34851, 0.655882, 0.0001, 45.5, 246, 35.9599, 0.163319, 7.50032, 136231
-7727.57, 513971, -329.286, 0.1632, -853.829, 0.23853, 0.541664, 1.03299, 0.34851, 0.655882, 3, 45.5, 246, 35.9599, 0.163319, 7.50109, 136231
-14400.9, 873653, -251.19, 0.495251, -625.728, 0.767068, 0.397059, 1.03299, 0.34851, 0.655882, 3, 45.5, 246, 22.7205, 0.064288, 1.44654, 136232
-29243.5, 583573, -383.969, 3.18165, -1147.74, -0.00588193, 0.411374, 1.03299, 0.34851, 0.655882, 0.0001, 45.5, 246, 45.5129, 0.161163, 1.43915, 136233
-29243.5, 583573, -383.969, 3.18165, -1147.74, -0.00588193, 0.411374, 1.03299, 0.34851, 0.655882, 3, 45.5, 246, 45.5129, 0.161163, 1.44354, 136233
-19712.7, 609659, -454.496, 3.47472, -1187.69, 0.0427378, 0.430859, 0.993198, 0.349787, 0.651995, 0.0001, 91, 246, 45.5129, 0.161163, 1.29736, 136233
-19712.7, 609659, -454.496, 3.47472, -1187.69, 0.0427378, 0.430859, 0.993198, 0.349787, 0.651995, 3, 91, 246, 45.5129, 0.161163, 1.55461, 136233
-27347.1, 811665, -344.963, 1.74314, -962.373, 0.261127, 0.437718, 1.03299, 0.34851, 0.655882, 3, 45.5, 246, 35.5825, 0.10766, 1.397, 136235
-19970.8, 807315, -420.721, 0.977529, -681.257, 0.0370777, 0.5437, 1.03299, 0.34851, 0.655882, 3, 45.5, 246, 32.4844, 0.135769, 1.30126, 136236
-21345.1, 777682, -389.317, 1.19635, -722.02, 0.0111022, 0.514249, 1.03299, 0.34851, 0.655882, 3, 45.5, 246, 32.7242, 0.130871, 1.33019, 136237
-21564.9, 560936, -149.756, 3.07478, -1192.6, 0.0262391, 0.216844, 0.993198, 0.349787, 0.651995, 0.0001, 91, 246, 30.7497, 0.0603347, 1.21162, 136239
-21564.9, 560936, -149.756, 3.07478, -1192.6, 0.0262391, 0.216844, 0.993198, 0.349787, 0.651995, 3, 91, 246, 30.7497, 0.0603347, 1.81933, 136239
-23032.4, 441744, -215.276, 2.49651, -594.339, 0.408728, 0.315031, 1.03299, 0.34851, 0.655882, 3, 45.5, 246, 26.4694, 0.104969, 1.53835, 136240
-17927.9, 458928, -246.158, 2.7452, -653.354, 0.46916, 0.308005, 0.993198, 0.349787, 0.651995, 0.0001, 91, 246, 26.4694, 0.104969, 1.16897, 136240
-17927.9, 458928, -246.158, 2.7452, -653.354, 0.46916, 0.308005, 0.993198, 0.349787, 0.651995, 3, 91, 246, 26.4694, 0.104969, 1.67906, 136240
-11425.5, 601484, -445.334, 0.444042, -785.836, 0.252959, 0.64948, 1.03299, 0.34851, 0.655882, 3, 45.5, 246, 39.0473, 0.18753, 1.3071, 136241
-7985.51, 120303, -169.895, 3.48308, -976.581, 0.0178018, 0.238987, 1.03299, 0.34851, 0.655882, 0.0001, 45.5, 246, 42.3675, 0.161652, 1.63691, 136246
-7985.51, 120303, -169.895, 3.48308, -976.581, 0.0178018, 0.238987, 1.03299, 0.34851, 0.655882, 3, 45.5, 246, 42.3675, 0.161652, 1.63661, 136246
-5758.08, 137987, -218.596, 3.81354, -1002.42, 0.076497, 0.255979, 0.993198, 0.349787, 0.651995, 0.0001, 91, 246, 42.3675, 0.161652, 1.99976, 136246
-5758.08, 137987, -218.596, 3.81354, -1002.42, 0.076497, 0.255979, 0.993198, 0.349787, 0.651995, 3, 91, 246, 42.3675, 0.161652, 1.99966, 136246
-2718.35, 158003, -277.693, 4.21162, -1046.59, 0.149023, 0.293536, 0.958125, 0.351078, 0.648177, 0.0001, 182, 246, 42.3675, 0.161652, 1.55871, 136246
-2718.35, 158003, -277.693, 4.21162, -1046.59, 0.149023, 0.293536, 0.958125, 0.351078, 0.648177, 3, 182, 246, 42.3675, 0.161652, 1.56062, 136246
-25278.1, 641891, -73.8938, 2.83156, -1112.16, 0.0752229, 0.203099, 0.993198, 0.349787, 0.651995, 3, 91, 246, 25.9412, 0.0289923, 1.81617, 136248
-11251.2, 318133, -250.857, 1.26258, -867, 0.0761503, 0.498271, 1.03299, 0.34851, 0.655882, 3, 45.5, 246, 38.5847, 0.191988, 1.3927, 136250
-17534.2, 488666, -327.223, 2.05351, -1161.82, 0.0853373, 0.486452, 1.03299, 0.34851, 0.655882, 3, 45.5, 246, 43.3831, 0.164594, 1.38298, 136251
-27205.3, 633271, -74.2399, 3.1687, -1072.3, 0.206528, 0.173993, 0.993198, 0.349787, 0.651995, 3, 91, 246, 24.8437, 0.0283673, 1.88636, 136252
-18181.9, 661146, -113.491, 3.47099, -1120.99, 0.263506, 0.184059, 0.958125, 0.351078, 0.648177, 0.0001, 182, 246, 24.8437, 0.0283673, 1.19832, 136252
-10732.2, 128135, -35.6326, 1.76383, -523.597, 0.82386, 0.298735, 1.03299, 0.34851, 0.655882, 3, 45.5, 246, 14.3658, 0.0506732, 1.5728, 136253
-24660.6, 749062, -169.365, 1.60976, -936.104, 0.0191293, 0.338742, 1.03299, 0.34851, 0.655882, 3, 45.5, 246, 28.2201, 0.0617429, 1.47441, 136254
-11733, 966903, -416.315, 0.333827, -797.537, 0.00448462, 0.513702, 1.03299, 0.34851, 0.655882, 3, 45.5, 246, 32.4429, 0.112261, 1.36309, 136255
-27113.3, 926171, -389.587, 1.40299, -949.646, 0.744278, 0.453785, 1.03299, 0.34851, 0.655882, 3, 45.5, 246, 34.9196, 0.0972142, 1.38842, 136256
-12292, 173964, -70.4361, 2.45105, -965.73, 0.68836, 0.265902, 1.03299, 0.34851, 0.655882, 0.0001, 45.5, 246, 25.0786, 0.0793969, 1.57536, 136257
-12292, 173964, -70.4361, 2.45105, -965.73, 0.68836, 0.265902, 1.03299, 0.34851, 0.655882, 3, 45.5, 246, 25.0786, 0.0793969, 1.5764, 136257
-32771.7, 919677, -29.2465, 1.56939, -871.213, 0.464979, 0.292581, 1.03299, 0.34851, 0.655882, 3, 45.5, 246, 21.873, 0.0119946, 1.49268, 136258
-13173.6, 542777, -451.804, 0.824205, -856.692, 0.0685302, 0.698901, 1.03299, 0.34851, 0.655882, 3, 45.5, 246, 43.7104, 0.216403, 1.28052, 136259
-11028.3, 152327, -1.74785, 3.07274, -1078.64, 0.22015, 0.208937, 0.993198, 0.349787, 0.651995, 3, 91, 246, 13.9875, 0.0201877, 1.39219, 136260
-10429.7, 102828, -27.0616, 2.43163, -978.379, 0.195607, 0.264278, 1.03299, 0.34851, 0.655882, 0.0001, 45.5, 246, 19.7221, 0.0626369, 1.32062, 136263
-9416.58, 121079, -51.8923, 2.63462, -1014.48, 0.230907, 0.251798, 0.993198, 0.349787, 0.651995, 0.0001, 91, 246, 19.7221, 0.0626369, 1.18645, 136263
-9416.58, 121079, -51.8923, 2.63462, -1014.48, 0.230907, 0.251798, 0.993198, 0.349787, 0.651995, 3, 91, 246, 19.7221, 0.0626369, 1.12255, 136263
-10519.5, 456373, -309.426, 0.791584, -987.197, 0.105704, 0.536229, 1.03299, 0.34851, 0.655882, 3, 45.5, 246, 39.3389, 0.173456, 1.35325, 136264
-9714.48, 143068, -114.235, 1.72643, -724.698, -0.0139074, 0.35886, 1.03299, 0.34851, 0.655882, 3, 45.5, 246, 30.4957, 0.152014, 1.52764, 136266
-5287.45, 175434, -183.392, 2.09659, -753.653, 0.0393132, 0.316159, 0.9175, 0.352806, 0.64323, 0.0001, 455, 246, 30.4957, 0.152014, 1.1859, 136266
-5287.45, 175434, -183.392, 2.09659, -753.653, 0.0393132, 0.316159, 0.9175, 0.352806, 0.64323, 3, 455, 246, 30.4957, 0.152014, 1.11513, 136266
-18545.1, 392720, -90.1204, 2.19571, -1071.56, 0.0664107, 0.284115, 1.03299, 0.34851, 0.655882, 3, 45.5, 246, 27.0317, 0.0631082, 1.56046, 136267
-27966.9, 761562, -286.722, 1.83086, -849.115, 0.329527, 0.388824, 1.03299, 0.34851, 0.655882, 3, 45.5, 246, 31.1826, 0.0937449, 1.43151, 136268
-12220.2, 264654, -99.8714, 1.49152, -978.008, 0.738736, 0.33845, 1.03299, 0.34851, 0.655882, 3, 45.5, 246, 26.4626, 0.0838047, 1.52069, 136269
-19800.4, 665778, -398.151, 1.59549, -1063.48, 0.00854382, 0.543954, 1.03299, 0.34851, 0.655882, 3, 45.5, 246, 42.0352, 0.155451, 1.32199, 136271
-14114.3, 785269, -175.421, 0.754209, -1180.74, 0.0430169, 0.372038, 1.03299, 0.34851, 0.655882, 3, 45.5, 246, 32.6469, 0.0588429, 1.45974, 136273
-19738.7, 375919, -401.913, 2.74337, -563.398, 0.0875972, 0.53344, 1.03299, 0.34851, 0.655882, 0.0001, 45.5, 246, 43.14, 0.22061, 1.36949, 136274
-19738.7, 375919, -401.913, 2.74337, -563.398, 0.0875972, 0.53344, 1.03299, 0.34851, 0.655882, 3, 45.5, 246, 43.14, 0.22061, 1.37345, 136274
-13890.8, 386370, -451.704, 2.99547, -605.382, 0.125476, 0.550921, 0.993198, 0.349787, 0.651995, 0.0001, 91, 246, 43.14, 0.22061, 1.28158, 136274
-13890.8, 386370, -451.704, 2.99547, -605.382, 0.125476, 0.550921, 0.993198, 0.349787, 0.651995, 3, 91, 246, 43.14, 0.22061, 1.47513, 136274
-6772.98, 399921, -510.387, 3.28973, -659.912, 0.172235, 0.58351, 0.958125, 0.351078, 0.648177, 0.0001, 182, 246, 43.14, 0.22061, 1.04383, 136274
-6772.98, 399921, -510.387, 3.28973, -659.912, 0.172235, 0.58351, 0.958125, 0.351078, 0.648177, 3, 182, 246, 43.14, 0.22061, 1.0471, 136274
-26380.6, 600538, -302.498, 2.28588, -806.492, 0.0593736, 0.407215, 1.03299, 0.34851, 0.655882, 3, 45.5, 246, 33.6118, 0.12494, 1.42751, 136275
-22488.6, 502462, -108.769, 2.11579, -861.42, 0.171829, 0.287221, 1.03299, 0.34851, 0.655882, 3, 45.5, 246, 24.381, 0.0573513, 1.54267, 136276
-8223.15, -16628.1, 9.04189, 2.02284, -1102.56, 0.00866266, 0.303599, 1.03299, 0.34851, 0.655882, 3, 45.5, 246, 9.97939, 0.0618809, 1.02134, 136277
-20339.6, 397730, -105.416, 2.57404, -1088.59, -0.0284283, 0.260848, 1.03299, 0.34851, 0.655882, 0.0001, 45.5, 246, 28.6845, 0.0714449, 1.59511, 136278
-20339.6, 397730, -105.416, 2.57404, -1088.59, -0.0284283, 0.260848, 1.03299, 0.34851, 0.655882, 3, 45.5, 246, 28.6845, 0.0714449, 1.59571, 136278
-26108.7, 709717, -427.893, 2.07511, -1096.16, 0.112521, 0.541046, 1.03299, 0.34851, 0.655882, 3, 45.5, 246, 43.6141, 0.153536, 1.31132, 136281
-18158.1, 739208, -480.791, 2.23982, -1143.82, 0.135356, 0.542872, 0.993198, 0.349787, 0.651995, 3, 91, 246, 43.6141, 0.153536, 1.39303, 136281
-8547.7, 773286, -541.137, 2.4241, -1202.71, 0.1627, 0.554404, 0.958125, 0.351078, 0.648177, 0.0001, 182, 246, 43.6141, 0.153536, 1.04358, 136281
-19006.5, 653688, -97.0439, 1.16219, -862.303, 0.437288, 0.331096, 1.03299, 0.34851, 0.655882, 3, 45.5, 246, 23.1791, 0.0384802, 1.48379, 136283
-7882.53, 240537, -233.427, 1.96742, -1191.14, 0.393585, 0.429428, 0.993198, 0.349787, 0.651995, 0.0001, 91, 246, 41.8623, 0.199482, 1.02089, 136285
-15556.3, 496591, -255.352, 1.55236, -1081.77, -0.00470464, 0.434998, 1.03299, 0.34851, 0.655882, 3, 45.5, 246, 37.0683, 0.131107, 1.42498, 136286
-17732.1, 330856, -236.845, 3.11938, -1043.76, 0.224525, 0.308288, 1.03299, 0.34851, 0.655882, 0.0001, 45.5, 246, 39.2842, 0.146399, 1.58699, 136295
-17732.1, 330856, -236.845, 3.11938, -1043.76, 0.224525, 0.308288, 1.03299, 0.34851, 0.655882, 3, 45.5, 246, 39.2842, 0.146399, 1.09937, 136295
-12590.7, 356047, -289.663, 3.43616, -1109.27, 0.281668, 0.31832, 0.993198, 0.349787, 0.651995, 0.0001, 91, 246, 39.2842, 0.146399, 1.41934, 136295
-12590.7, 356047, -289.663, 3.43616, -1109.27, 0.281668, 0.31832, 0.993198, 0.349787, 0.651995, 3, 91, 246, 39.2842, 0.146399, 1.74688, 136295
-22919.7, 622093, -193.226, 1.60369, -701.645, 0.774804, 0.345996, 1.03299, 0.34851, 0.655882, 3, 45.5, 246, 24.3433, 0.0702141, 1.47925, 136297
-13361, 444376, -325.523, 1.08085, -765.721, 0.537936, 0.531481, 1.03299, 0.34851, 0.655882, 3, 45.5, 246, 36.2643, 0.17081, 1.36839, 136298
-13719.6, 294278, -231.567, 2.29164, -967.697, 0.403523, 0.396651, 1.03299, 0.34851, 0.655882, 3, 45.5, 246, 38.6439, 0.162918, 1.49936, 136299
-5157.34, 129173, -273.619, 3.0766, -692.823, 0.163426, 0.373511, 1.03299, 0.34851, 0.655882, 0.0001, 45.5, 246, 56.3961, 0.248707, 1.63536, 136304
-5157.34, 129173, -273.619, 3.0766, -692.823, 0.163426, 0.373511, 1.03299, 0.34851, 0.655882, 3, 45.5, 246, 56.3961, 0.248707, 1.63669, 136304
-2589.14, 140803, -318.811, 3.38072, -739.233, 0.214726, 0.386963, 0.993198, 0.349787, 0.651995, 0.0001, 91, 246, 56.3961, 0.248707, 2.05543, 136304
-2589.14, 140803, -318.811, 3.38072, -739.233, 0.214726, 0.386963, 0.993198, 0.349787, 0.651995, 3, 91, 246, 56.3961, 0.248707, 2.047, 136304
740.315, 155141, -373.547, 3.7432, -801.545, 0.279901, 0.418203, 0.958125, 0.351078, 0.648177, 0.0001, 182, 246, 56.3961, 0.248707, 2.77767, 136304
740.315, 155141, -373.547, 3.7432, -801.545, 0.279901, 0.418203, 0.958125, 0.351078, 0.648177, 3, 182, 246, 56.3961, 0.248707, 2.77877, 136304
-6765.14, 138280, -238.175, 3.01957, -877.485, 0.135536, 0.362349, 1.03299, 0.34851, 0.655882, 0.0001, 45.5, 246, 51.6214, 0.230926, 1.42119, 136305
-6765.14, 138280, -238.175, 3.01957, -877.485, 0.135536, 0.362349, 1.03299, 0.34851, 0.655882, 3, 45.5, 246, 51.6214, 0.230926, 1.42306, 136305
-4290.12, 154570, -284.739, 3.30806, -921.763, 0.183405, 0.373059, 0.993198, 0.349787, 0.651995, 0.0001, 91, 246, 51.6214, 0.230926, 1.87147, 136305
-4290.12, 154570, -284.739, 3.30806, -921.763, 0.183405, 0.373059, 0.993198, 0.349787, 0.651995, 3, 91, 246, 51.6214, 0.230926, 1.6752, 136305
-1003.69, 173821, -340.906, 3.64946, -982.269, 0.243578, 0.400597, 0.958125, 0.351078, 0.648177, 0.0001, 182, 246, 51.6214, 0.230926, 2.19652, 136305
-1003.69, 173821, -340.906, 3.64946, -982.269, 0.243578, 0.400597, 0.958125, 0.351078, 0.648177, 3, 182, 246, 51.6214, 0.230926, 2.19477, 136305
-13142.4, 442438, -308.388, 0.865116, -601.614, 0.858298, 0.504055, 1.03299, 0.34851, 0.655882, 3, 45.5, 246, 31.1053, 0.152818, 1.40423, 136306
-33819, 917274, -431.252, 1.8831, -1015.42, 0.789365, 0.456494, 1.03299, 0.34851, 0.655882, 0.0001, 45.5, 246, 38.1257, 0.108691, 1.39044, 136307
-33819, 917274, -431.252, 1.8831, -1015.42, 0.789365, 0.456494, 1.03299, 0.34851, 0.655882, 3, 45.5, 246, 38.1257, 0.108691, 1.39453, 136307
-24585, 983704, -479.798, 2.10091, -1187.31, 0.921749, 0.447382, 0.993198, 0.349787, 0.651995, 3, 91, 246, 38.1257, 0.108691, 1.13737, 136307
-9918.74, 213840, -195.518, 3.66698, -981.392, 0.710912, 0.231645, 0.993198, 0.349787, 0.651995, 0.0001, 91, 246, 32.9593, 0.119733, 1.65171, 136311
-9918.74, 213840, -195.518, 3.66698, -981.392, 0.710912, 0.231645, 0.993198, 0.349787, 0.651995, 3, 91, 246, 32.9593, 0.119733, 1.66552, 136311
-10470.6, 158826, -101.357, 2.07872, -969.932, 0.0172272, 0.326501, 1.03299, 0.34851, 0.655882, 3, 45.5, 246, 29.8646, 0.124487, 1.55649, 136313
-25491.4, 837411, -189.044, 1.40698, -1011.53, 0.776576, 0.34646, 1.03299, 0.34851, 0.655882, 3, 45.5, 246, 30.0155, 0.0535089, 1.4606, 136314
-7116.55, 587865, -249.28, 0.0662444, -772.076, 0.953122, 0.399783, 0.993198, 0.349787, 0.651995, 3, 91, 246, 25.68, 0.0980857, 1.04123, 136315
-33900, 693055, -320.561, 2.80847, -972.427, -0.0119629, 0.350192, 1.03299, 0.34851, 0.655882, 0.0001, 45.5, 246, 37.0609, 0.119586, 1.47866, 136318
-33900, 693055, -320.561, 2.80847, -972.427, -0.0119629, 0.350192, 1.03299, 0.34851, 0.655882, 3, 45.5, 246, 37.0609, 0.119586, 1.47866, 136318
-24643.5, 710937, -372.932, 3.03816, -1000.07, 0.025528, 0.353356, 0.993198, 0.349787, 0.651995, 0.0001, 91, 246, 37.0609, 0.119586, 1.19074, 136318
-11459.5, 211357, -201.746, 2.45983, -791.657, -0.00371177, 0.372352, 1.03299, 0.34851, 0.655882, 3, 45.5, 246, 38.302, 0.178623, 1.54191, 136319
-7742.47, 192721, -217.578, 2.67447, -1018.67, 0.393919, 0.357395, 0.993198, 0.349787, 0.651995, 0.0001, 91, 246, 40.0411, 0.180929, 1.30066, 136321
-22068.6, 434071, -182.084, 2.51901, -855.156, 0.530037, 0.293395, 1.03299, 0.34851, 0.655882, 3, 45.5, 246, 29.3034, 0.0931086, 1.56158, 136322
-9467.8, 172900, -210.064, 2.78211, -1021.61, 0.542664, 0.354106, 1.03299, 0.34851, 0.655882, 0.0001, 45.5, 246, 44.0961, 0.192064, 1.04928, 136324
-9467.8, 172900, -210.064, 2.78211, -1021.61, 0.542664, 0.354106, 1.03299, 0.34851, 0.655882, 3, 45.5, 246, 44.0961, 0.192064, 1.60789, 136324
-6817.83, 199600, -256.187, 3.10436, -1139.71, 0.635113, 0.358031, 0.993198, 0.349787, 0.651995, 0.0001, 91, 246, 44.0961, 0.192064, 1.53032, 136324
-6817.83, 199600, -256.187, 3.10436, -1139.71, 0.635113, 0.358031, 0.993198, 0.349787, 0.651995, 3, 91, 246, 44.0961, 0.192064, 1.79038, 136324
-3102.68, 234600, -315.117, 3.50003, -1297.88, 0.759108, 0.378962, 0.958125, 0.351078, 0.648177, 0.0001, 182, 246, 44.0961, 0.192064, 1.16759, 136324
-3102.68, 234600, -315.117, 3.50003, -1297.88, 0.759108, 0.378962, 0.958125, 0.351078, 0.648177, 3, 182, 246, 44.0961, 0.192064, 1.17413, 136324
-10459.9, 112665, 0.352686, 1.6977, -1020.17, 0.289394, 0.301713, 1.03299, 0.34851, 0.655882, 0.0001, 45.5, 246, 14.5461, 0.0318598, 1.16311, 136325
-10459.9, 112665, 0.352686, 1.6977, -1020.17, 0.289394, 0.301713, 1.03299, 0.34851, 0.655882, 3, 45.5, 246, 14.5461, 0.0318598, 1.16311, 136325
-9766, 133485, -16.2297, 1.82486, -1070.59, 0.317526, 0.276734, 0.993198, 0.349787, 0.651995, 0.0001, 91, 246, 14.5461, 0.0318598, 1.08381, 136325
-9766, 133485, -16.2297, 1.82486, -1070.59, 0.317526, 0.276734, 0.993198, 0.349787, 0.651995, 3, 91, 246, 14.5461, 0.0318598, 1.08333, 136325
-12952.4, 224721, -82.4426, 3.46046, -731.535, 0.357893, 0.185278, 0.993198, 0.349787, 0.651995, 0.0001, 91, 246, 19.0322, 0.054195, 1.27744, 136326
-12952.4, 224721, -82.4426, 3.46046, -731.535, 0.357893, 0.185278, 0.993198, 0.349787, 0.651995, 3, 91, 246, 19.0322, 0.054195, 1.35576, 136326
-14490.9, 437528, -136.753, 1.24655, -930.873, 0.590662, 0.35436, 1.03299, 0.34851, 0.655882, 3, 45.5, 246, 26.9251, 0.0739767, 1.48445, 136327
-24074.4, 501168, -391.062, 2.4382, -631.474, -0.0115995, 0.514086, 1.03299, 0.34851, 0.655882, 3, 45.5, 246, 38.1725, 0.183484, 1.3486, 136330
-17608, 510600, -436.759, 2.6306, -659.296, 0.0165779, 0.521442, 0.993198, 0.349787, 0.651995, 0.0001, 91, 246, 38.1725, 0.183484, 1.08829, 136330
-17608, 510600, -436.759, 2.6306, -659.296, 0.0165779, 0.521442, 0.993198, 0.349787, 0.651995, 3, 91, 246, 38.1725, 0.183484, 1.43814, 136330
-5485.89, 893985, -404.51, 0.169415, -1097.52, 0.973129, 0.464765, 0.993198, 0.349787, 0.651995, 3, 91, 246, 34.2307, 0.103005, 1.1605, 136331
-14933.1, 317092, -275.569, 2.28241, -700.848, -0.0244889, 0.445217, 1.03299, 0.34851, 0.655882, 0.0001, 45.5, 246, 38.504, 0.187669, 1.02093, 136334
-7463.69, 102461, -130.288, 3.94181, -896.677, 0.196771, 0.187668, 0.993198, 0.349787, 0.651995, 0.0001, 91, 246, 29.9936, 0.097315, 1.71513, 136335
-7463.69, 102461, -130.288, 3.94181, -896.677, 0.196771, 0.187668, 0.993198, 0.349787, 0.651995, 3, 91, 246, 29.9936, 0.097315, 2.05722, 136335
-1276.38, 145856, -263.883, 5.16266, -1058.82, 0.439752, 0.322181, 0.9175, 0.352806, 0.64323, 0.0001, 455, 246, 29.9936, 0.097315, 1.30384, 136335
-1276.38, 145856, -263.883, 5.16266, -1058.82, 0.439752, 0.322181, 0.9175, 0.352806, 0.64323, 3, 455, 246, 29.9936, 0.097315, 1.30943, 136335
-10061.7, 123578, -79.665, 2.35739, -999.777, 0.226259, 0.293907, 1.03299, 0.34851, 0.655882, 3, 45.5, 246, 28.229, 0.109783, 1.603, 136337
-8786.32, 143368, -108.091, 2.55694, -1045.18, 0.262127, 0.281676, 0.993198, 0.349787, 0.651995, 3, 91, 246, 28.229, 0.109783, 1.34881, 136337
-20544.7, 704779, -441.88, 1.34486, -876.643, 0.28489, 0.577613, 1.03299, 0.34851, 0.655882, 3, 45.5, 246, 38.9289, 0.155779, 1.30549, 136339
-28355.2, 641862, -20.797, 3.05668, -937.613, 0.112797, 0.174098, 0.993198, 0.349787, 0.651995, 3, 91, 246, 20.2647, 0.0105691, 1.87532, 136340
-18775.9, 311842, -272.511, 3.50719, -807.444, 0.393223, 0.271078, 1.03299, 0.34851, 0.655882, 0.0001, 45.5, 246, 38.6726, 0.154394, 1.65962, 136341
-18775.9, 311842, -272.511, 3.50719, -807.444, 0.393223, 0.271078, 1.03299, 0.34851, 0.655882, 3, 45.5, 246, 38.6726, 0.154394, 1.66524, 136341
-13152.7, 332444, -327.197, 3.92779, -895.35, 0.483911, 0.292392, 0.993198, 0.349787, 0.651995, 0.0001, 91, 246, 38.6726, 0.154394, 1.1812, 136341
-13152.7, 332444, -327.197, 3.92779, -895.35, 0.483911, 0.292392, 0.993198, 0.349787, 0.651995, 3, 91, 246, 38.6726, 0.154394, 1.18151, 136341
-5895.81, 359870, -397.455, 4.45575, -1016.99, 0.607408, 0.33881, 0.958125, 0.351078, 0.648177, 0.0001, 182, 246, 38.6726, 0.154394, 1.27967, 136341
-5895.81, 359870, -397.455, 4.45575, -1016.99, 0.607408, 0.33881, 0.958125, 0.351078, 0.648177, 3, 182, 246, 38.6726, 0.154394, 1.28215, 136341
-35337.5, 969157, -45.6422, 1.7145, -928.094, 0.115391, 0.285133, 1.03299, 0.34851, 0.655882, 3, 45.5, 246, 23.8389, 0.016929, 1.49939, 136343
-9003.15, 128259, -144.553, 3.01896, -1015.01, -0.0424577, 0.28206, 1.03299, 0.34851, 0.655882, 3, 45.5, 246, 38.7396, 0.157413, 1.67639, 136346
-17710.6, 478229, -276.176, 1.78492, -908.717, 0.405221, 0.431758, 1.03299, 0.34851, 0.655882, 3, 45.5, 246, 35.3238, 0.134944, 1.43185, 136348
-20689.8, 556386, -374.322, 1.44514, -546.62, 0.810472, 0.508515, 1.03299, 0.34851, 0.655882, 3, 45.5, 246, 30.6638, 0.145161, 1.39359, 136349
-5527.87, 48965.2, -121.718, 3.22005, -1021.21, 0.16825, 0.239933, 1.03299, 0.34851, 0.655882, 0.0001, 45.5, 246, 44.1056, 0.139489, 1.7795, 136350
-5527.87, 48965.2, -121.718, 3.22005, -1021.21, 0.16825, 0.239933, 1.03299, 0.34851, 0.655882, 3, 45.5, 246, 44.1056, 0.139489, 1.77972, 136350
-4601.18, 68708.8, -164.49, 3.53626, -1066.08, 0.224312, 0.248419, 0.993198, 0.349787, 0.651995, 0.0001, 91, 246, 44.1056, 0.139489, 1.2404, 136350
-4601.18, 68708.8, -164.49, 3.53626, -1066.08, 0.224312, 0.248419, 0.993198, 0.349787, 0.651995, 3, 91, 246, 44.1056, 0.139489, 1.24279, 136350
-3067.24, 91280, -217.032, 3.91471, -1129.55, 0.295712, 0.275499, 0.958125, 0.351078, 0.648177, 0.0001, 182, 246, 44.1056, 0.139489, 1.38209, 136350
-3067.24, 91280, -217.032, 3.91471, -1129.55, 0.295712, 0.275499, 0.958125, 0.351078, 0.648177, 3, 182, 246, 44.1056, 0.139489, 1.38401, 136350
360.111, 128247, -308.518, 4.55776, -1256.75, 0.426095, 0.346004, 0.9175, 0.352806, 0.64323, 0.0001, 455, 246, 44.1056, 0.139489, 3.28428, 136350
360.111, 128247, -308.518, 4.55776, -1256.75, 0.426095, 0.346004, 0.9175, 0.352806, 0.64323, 3, 455, 246, 44.1056, 0.139489, 3.28627, 136350
-8076.21, 5216.4, 1.42075, 2.61517, -731.207, 0.161878, 0.256903, 1.03299, 0.34851, 0.655882, 3, 45.5, 246, 10.9582, 0.0411042, 1.30422, 136351
-7187.32, 111061, -175.867, 3.03961, -965.617, 0.442427, 0.29324, 1.03299, 0.34851, 0.655882, 0.0001, 45.5, 246, 44.7485, 0.182459, 1.71578, 136352
-7187.32, 111061, -175.867, 3.03961, -965.617, 0.442427, 0.29324, 1.03299, 0.34851, 0.655882, 3, 45.5, 246, 44.7485, 0.182459, 1.71445, 136352
-5294.81, 132414, -220.491, 3.38354, -1059.29, 0.52432, 0.300251, 0.993198, 0.349787, 0.651995, 0.0001, 91, 246, 44.7485, 0.182459, 1.26209, 136352
-5294.81, 132414, -220.491, 3.38354, -1059.29, 0.52432, 0.300251, 0.993198, 0.349787, 0.651995, 3, 91, 246, 44.7485, 0.182459, 1.93952, 136352
-2556.84, 159671, -277.355, 3.80511, -1184.77, 0.633455, 0.326256, 0.958125, 0.351078, 0.648177, 0.0001, 182, 246, 44.7485, 0.182459, 1.55967, 136352
-2556.84, 159671, -277.355, 3.80511, -1184.77, 0.633455, 0.326256, 0.958125, 0.351078, 0.648177, 3, 182, 246, 44.7485, 0.182459, 1.56178, 136352
-30746.8, 940090, -271.794, 1.77877, -1104.18, 0.000490945, 0.372097, 1.03299, 0.34851, 0.655882, 3, 45.5, 246, 35.5456, 0.0794533, 1.43356, 136353
-22661.1, 486932, -167.043, 2.36404, -853.908, -0.0261168, 0.303053, 1.03299, 0.34851, 0.655882, 3, 45.5, 246, 28.1518, 0.0869256, 1.53553, 136355
-33162.1, 699000, -210.301, 2.71868, -1167.04, -0.0350775, 0.277136, 1.03299, 0.34851, 0.655882, 0.0001, 45.5, 246, 35.5237, 0.0831206, 1.54996, 136358
-33162.1, 699000, -210.301, 2.71868, -1167.04, -0.0350775, 0.277136, 1.03299, 0.34851, 0.655882, 3, 45.5, 246, 35.5237, 0.0831206, 1.55004, 136358
-24614.9, 722016, -256.709, 2.92616, -1181.04, -7.91523e-05, 0.272508, 0.993198, 0.349787, 0.651995, 0.0001, 91, 246, 35.5237, 0.0831206, 1.14609, 136358
-24614.9, 722016, -256.709, 2.92616, -1181.04, -7.91523e-05, 0.272508, 0.993198, 0.349787, 0.651995, 3, 91, 246, 35.5237, 0.0831206, 1.70875, 136358
-9292.6, 108697, -40.6585, 2.28654, -984.167, 0.434307, 0.266459, 0.993198, 0.349787, 0.651995, 0.0001, 91, 246, 17.6038, 0.0569183, 1.01749, 136359
-9019.65, 94517.5, -79.6867, 1.9092, -828.173, 0.0292414, 0.328393, 1.03299, 0.34851, 0.655882, 3, 45.5, 246, 28.7575, 0.133378, 1.56153, 136361
-14028.9, 413658, -253.027, 1.6988, -1139.12, -0.00400875, 0.447437, 1.03299, 0.34851, 0.655882, 3, 45.5, 246, 39.4932, 0.151617, 1.42461, 136362
-11666.5, 181714, -82.0685, 2.13792, -1006.57, 0.453792, 0.300993, 1.03299, 0.34851, 0.655882, 3, 45.5, 246, 26.7322, 0.0926359, 1.57608, 136364
-26295.4, 685019, -452.755, 1.71744, -669.381, 0.326096, 0.574209, 1.03299, 0.34851, 0.655882, 0.0001, 45.5, 246, 35.7176, 0.159158, 1.0238, 136365
-26295.4, 685019, -452.755, 1.71744, -669.381, 0.326096, 0.574209, 1.03299, 0.34851, 0.655882, 3, 45.5, 246, 35.7176, 0.159158, 1.29879, 136365
-9248.21, 98627.9, -43.0011, 2.47047, -769.137, 0.00266493, 0.257444, 0.993198, 0.349787, 0.651995, 0.0001, 91, 246, 16.6254, 0.056687, 1.03983, 136367
-9248.21, 98627.9, -43.0011, 2.47047, -769.137, 0.00266493, 0.257444, 0.993198, 0.349787, 0.651995, 3, 91, 246, 16.6254, 0.056687, 1.23633, 136367
-7542.25, -1436.19, -31.8878, 3.2313, -703.819, 0.113165, 0.2339, 0.993198, 0.349787, 0.651995, 0.0001, 91, 246, 15.5536, 0.0330599, 1.66817, 136368
-7542.25, -1436.19, -31.8878, 3.2313, -703.819, 0.113165, 0.2339, 0.993198, 0.349787, 0.651995, 3, 91, 246, 15.5536, 0.0330599, 1.66573, 136368
-19987.8, 342114, -213.608, 3.05075, -660.121, 0.0415525, 0.279554, 1.03299, 0.34851, 0.655882, 0.0001, 45.5, 246, 30.7844, 0.126522, 1.60513, 136372
-19987.8, 342114, -213.608, 3.05075, -660.121, 0.0415525, 0.279554, 1.03299, 0.34851, 0.655882, 3, 45.5, 246, 30.7844, 0.126522, 1.21144, 136372
-15119, 351176, -251.193, 3.3193, -686.329, 0.0866775, 0.284918, 0.993198, 0.349787, 0.651995, 0.0001, 91, 246, 30.7844, 0.126522, 1.26124, 136372
-15119, 351176, -251.193, 3.3193, -686.329, 0.0866775, 0.284918, 0.993198, 0.349787, 0.651995, 3, 91, 246, 30.7844, 0.126522, 1.367, 136372
-21816.8, 653447, -443.461, 1.89223, -1099.84, -0.0118512, 0.592415, 1.03299, 0.34851, 0.655882, 3, 45.5, 246, 45.5785, 0.17569, 1.28341, 136373
-14784.1, 678220, -494.294, 2.0245, -1123.38, 0.00497892, 0.595618, 0.993198, 0.349787, 0.651995, 0.0001, 91, 246, 45.5785, 0.17569, 1.01808, 136373
-25069.6, 533939, -172.847, 2.33204, -809.636, 0.237081, 0.301772, 1.03299, 0.34851, 0.655882, 3, 45.5, 246, 27.044, 0.0795385, 1.53087, 136376
-28152.1, 616584, -61.4523, 2.22744, -1095.7, 0.172634, 0.258309, 1.03299, 0.34851, 0.655882, 3, 45.5, 246, 26.6031, 0.0338481, 1.56099, 136377
-9736.28, 402418, -356.912, 0.812041, -1080.1, 0.0294515, 0.647515, 1.03299, 0.34851, 0.655882, 3, 45.5, 246, 46.7556, 0.232788, 1.2735, 136378
-11942.2, 286465, -295.163, 1.28593, -559.262, 0.630951, 0.548303, 1.03299, 0.34851, 0.655882, 3, 45.5, 246, 38.5415, 0.219911, 1.40438, 136379
-6953.3, 326895, -346.702, 1.54996, -727.361, 0.810117, 0.533967, 0.958125, 0.351078, 0.648177, 0.0001, 182, 246, 38.5415, 0.219911, 1.15852, 136379
-27791.9, 732006, -210.159, 2.85423, -812.059, 0.016787, 0.244489, 0.993198, 0.349787, 0.651995, 3, 91, 246, 26.3498, 0.0665398, 1.74102, 136381
-2573.94, 116993, -235.922, 3.10082, -1001.34, 0.0830808, 0.334291, 0.9175, 0.352806, 0.64323, 0.0001, 455, 246, 44.2029, 0.193194, 1.22562, 136382
-2573.94, 116993, -235.922, 3.10082, -1001.34, 0.0830808, 0.334291, 0.9175, 0.352806, 0.64323, 3, 455, 246, 44.2029, 0.193194, 1.22978, 136382
-17294.2, 334279, -425.753, 3.32475, -717.965, -0.0532823, 0.525083, 1.03299, 0.34851, 0.655882, 0.0001, 45.5, 246, 51.1586, 0.245701, 1.40824, 136384
-17294.2, 334279, -425.753, 3.32475, -717.965, -0.0532823, 0.525083, 1.03299, 0.34851, 0.655882, 3, 45.5, 246, 51.1586, 0.245701, 1.43142, 136384
-10713.9, 346124, -490.85, 3.64388, -756.766, 6.10869e-05, 0.55964, 0.993198, 0.349787, 0.651995, 0.0001, 91, 246, 51.1586, 0.245701, 1.14878, 136384
-10713.9, 346124, -490.85, 3.64388, -756.766, 6.10869e-05, 0.55964, 0.993198, 0.349787, 0.651995, 3, 91, 246, 51.1586, 0.245701, 1.14981, 136384
-2520.02, 361965, -569.37, 4.02793, -814.084, 0.0646966, 0.615203, 0.958125, 0.351078, 0.648177, 0.0001, 182, 246, 51.1586, 0.245701, 1.81896, 136384
-2520.02, 361965, -569.37, 4.02793, -814.084, 0.0646966, 0.615203, 0.958125, 0.351078, 0.648177, 3, 182, 246, 51.1586, 0.245701, 1.82118, 136384
-4449.88, 400098, -429.708, 2.09171, -1230.45, 1.0672, 0.591355, 0.958125, 0.351078, 0.648177, 0.0001, 182, 246, 45.5133, 0.227048, 1.08847, 136386
-4449.88, 400098, -429.708, 2.09171, -1230.45, 1.0672, 0.591355, 0.958125, 0.351078, 0.648177, 3, 182, 246, 45.5133, 0.227048, 1.00638, 136386
-18403.2, 460027, -204.229, 2.06665, -1061.24, 0.014411, 0.362062, 1.03299, 0.34851, 0.655882, 3, 45.5, 246, 34.2747, 0.111378, 1.48306, 136387
-21444.4, 452827, -67.327, 3.45445, -978.264, 0.00674404, 0.158961, 0.993198, 0.349787, 0.651995, 0.0001, 91, 246, 22.356, 0.0335551, 1.30607, 136389
-18853.9, 368312, -188.118, 2.78073, -1025.29, -0.010988, 0.299808, 1.03299, 0.34851, 0.655882, 3, 45.5, 246, 34.3207, 0.117862, 1.56927, 136390
-14130.8, 265913, -255.702, 2.58893, -736.401, 0.690733, 0.376962, 1.03299, 0.34851, 0.655882, 3, 45.5, 246, 37.9311, 0.169838, 1.54008, 136392
-10476.7, 288557, -295.603, 2.90513, -849.953, 0.81251, 0.377564, 0.993198, 0.349787, 0.651995, 0.0001, 91, 246, 37.9311, 0.169838, 1.47496, 136392
-10476.7, 288557, -295.603, 2.90513, -849.953, 0.81251, 0.377564, 0.993198, 0.349787, 0.651995, 3, 91, 246, 37.9311, 0.169838, 1.68654, 136392
-23504.2, 570088, -124.641, 1.88764, -678.018, 0.192455, 0.304822, 1.03299, 0.34851, 0.655882, 3, 45.5, 246, 21.3362, 0.0561741, 1.51741, 136393
-12048.9, 356812, -328.232, 1.30488, -845.198, -0.00793928, 0.597787, 1.03299, 0.34851, 0.655882, 3, 45.5, 246, 43.6879, 0.229397, 1.27486, 136394
-7530.74, 129225, -200.766, 2.50992, -848.241, 0.421779, 0.379311, 1.03299, 0.34851, 0.655882, 0.0001, 45.5, 246, 47.0109, 0.222638, 1.11261, 136395
-7530.74, 129225, -200.766, 2.50992, -848.241, 0.421779, 0.379311, 1.03299, 0.34851, 0.655882, 3, 45.5, 246, 47.0109, 0.222638, 1.61617, 136395
-5700.56, 146832, -237.451, 2.76773, -926.767, 0.48462, 0.377491, 0.993198, 0.349787, 0.651995, 0.0001, 91, 246, 47.0109, 0.222638, 1.59483, 136395
-5700.56, 146832, -237.451, 2.76773, -926.767, 0.48462, 0.377491, 0.993198, 0.349787, 0.651995, 3, 91, 246, 47.0109, 0.222638, 1.07657, 136395
-3210.26, 168831, -282.437, 3.07328, -1027.4, 0.565316, 0.389149, 0.958125, 0.351078, 0.648177, 0.0001, 182, 246, 47.0109, 0.222638, 1.28574, 136395
-3210.26, 168831, -282.437, 3.07328, -1027.4, 0.565316, 0.389149, 0.958125, 0.351078, 0.648177, 3, 182, 246, 47.0109, 0.222638, 1.28937, 136395
-16127.6, 743327, -298.989, 1.07194, -1140.71, 0.184618, 0.442938, 1.03299, 0.34851, 0.655882, 3, 45.5, 246, 37.2403, 0.102673, 1.40477, 136397
-8831.78, 122510, -127.341, 1.78122, -865.797, -0.0148434, 0.37994, 1.03299, 0.34851, 0.655882, 3, 45.5, 246, 36.7473, 0.191421, 1.46707, 136400
-4398.34, 168801, -210.997, 2.17667, -900.274, 0.0421729, 0.346723, 0.9175, 0.352806, 0.64323, 0.0001, 455, 246, 36.7473, 0.191421, 1.17621, 136400
-10906.8, 142923, -30.3626, 3.46978, -735.221, 0.0061958, 0.18313, 0.993198, 0.349787, 0.651995, 0.0001, 91, 246, 13.9793, 0.0328534, 1.79547, 136403
-10906.8, 142923, -30.3626, 3.46978, -735.221, 0.0061958, 0.18313, 0.993198, 0.349787, 0.651995, 3, 91, 246, 13.9793, 0.0328534, 1.41835, 136403
-35629.7, 602049, -366.904, 3.18285, -816.605, 0.717203, 0.321038, 1.03299, 0.34851, 0.655882, 0.0001, 45.5, 246, 36.1098, 0.129444, 1.52593, 136405
-35629.7, 602049, -366.904, 3.18285, -816.605, 0.717203, 0.321038, 1.03299, 0.34851, 0.655882, 3, 45.5, 246, 36.1098, 0.129444, 1.5258, 136405
-8054.37, 94683.4, -123.933, 2.96617, -941.647, 0.0595385, 0.269422, 1.03299, 0.34851, 0.655882, 3, 45.5, 246, 37.4648, 0.147271, 1.69648, 136406
-1029.16, 156982, -278.472, 4.01604, -1075.91, 0.24555, 0.338306, 0.9175, 0.352806, 0.64323, 0.0001, 455, 246, 37.4648, 0.147271, 1.64951, 136406
-1029.16, 156982, -278.472, 4.01604, -1075.91, 0.24555, 0.338306, 0.9175, 0.352806, 0.64323, 3, 455, 246, 37.4648, 0.147271, 1.65353, 136406
-14430.9, 260835, -312.862, 2.83856, -592.421, 0.713991, 0.400714, 1.03299, 0.34851, 0.655882, 0.0001, 45.5, 246, 40.9092, 0.193414, 1.54041, 136407
-14430.9, 260835, -312.862, 2.83856, -592.421, 0.713991, 0.400714, 1.03299, 0.34851, 0.655882, 3, 45.5, 246, 40.9092, 0.193414, 1.21438, 136407
-10222.5, 280497, -357.112, 3.20805, -698.221, 0.849965, 0.410424, 0.993198, 0.349787, 0.651995, 0.0001, 91, 246, 40.9092, 0.193414, 1.11407, 136407
-10222.5, 280497, -357.112, 3.20805, -698.221, 0.849965, 0.410424, 0.993198, 0.349787, 0.651995, 3, 91, 246, 40.9092, 0.193414, 1.69381, 136407
-4706.38, 307577, -413.9, 3.67846, -847.507, 1.04188, 0.439582, 0.958125, 0.351078, 0.648177, 0.0001, 182, 246, 40.9092, 0.193414, 1.31999, 136407
-4706.38, 307577, -413.9, 3.67846, -847.507, 1.04188, 0.439582, 0.958125, 0.351078, 0.648177, 3, 182, 246, 40.9092, 0.193414, 1.32219, 136407
-14890.9, 264927, -161.919, 2.80832, -1017.62, 0.286494, 0.286328, 1.03299, 0.34851, 0.655882, 3, 45.5, 246, 33.9353, 0.122345, 1.61294, 136408
-20532, 403842, -165.316, 2.61803, -925.906, 0.091399, 0.287286, 1.03299, 0.34851, 0.655882, 3, 45.5, 246, 30.2475, 0.0970972, 1.57275, 136409
-10656, 187564, -193.589, 3.07717, -1099.71, 0.194746, 0.309837, 1.03299, 0.34851, 0.655882, 0.0001, 45.5, 246, 41.9955, 0.170989, 1.06747, 136410
-10656, 187564, -193.589, 3.07717, -1099.71, 0.194746, 0.309837, 1.03299, 0.34851, 0.655882, 3, 45.5, 246, 41.9955, 0.170989, 1.63546, 136410
-7647.93, 212516, -243.522, 3.38125, -1157.54, 0.24815, 0.318555, 0.993198, 0.349787, 0.651995, 0.0001, 91, 246, 41.9955, 0.170989, 1.50905, 136410
-7647.93, 212516, -243.522, 3.38125, -1157.54, 0.24815, 0.318555, 0.993198, 0.349787, 0.651995, 3, 91, 246, 41.9955, 0.170989, 1.30001, 136410
-3587.75, 241912, -304.639, 3.7437, -1236.23, 0.316243, 0.344828, 0.958125, 0.351078, 0.648177, 0.0001, 182, 246, 41.9955, 0.170989, 1.08861, 136410
-3587.75, 241912, -304.639, 3.7437, -1236.23, 0.316243, 0.344828, 0.958125, 0.351078, 0.648177, 3, 182, 246, 41.9955, 0.170989, 1.09598, 136410
-21940.4, 514118, -249.85, 3.93378, -1116.72, 0.25298, 0.191728, 0.993198, 0.349787, 0.651995, 0.0001, 91, 246, 34.0273, 0.0947082, 1.32364, 136411
-21940.4, 514118, -249.85, 3.93378, -1116.72, 0.25298, 0.191728, 0.993198, 0.349787, 0.651995, 3, 91, 246, 34.0273, 0.0947082, 1.32692, 136411
-14689.6, 466857, -67.331, 1.04372, -665.885, -0.0036737, 0.332801, 1.03299, 0.34851, 0.655882, 3, 45.5, 246, 17.5696, 0.0394298, 1.49531, 136412
-25845.6, 589523, -231.552, 3.61444, -870.054, 0.00346162, 0.200636, 0.993198, 0.349787, 0.651995, 0.0001, 91, 246, 29.134, 0.0828412, 1.86163, 136415
-25845.6, 589523, -231.552, 3.61444, -870.054, 0.00346162, 0.200636, 0.993198, 0.349787, 0.651995, 3, 91, 246, 29.134, 0.0828412, 1.86156, 136415
-39962.9, 710506, -292.493, 3.00872, -699.469, 0.200143, 0.275858, 1.03299, 0.34851, 0.655882, 0.0001, 45.5, 246, 29.5272, 0.100816, 1.55627, 136416
-39962.9, 710506, -292.493, 3.00872, -699.469, 0.200143, 0.275858, 1.03299, 0.34851, 0.655882, 3, 45.5, 246, 29.5272, 0.100816, 1.5544, 136416
-12725.8, 396611, -253.413, 1.43663, -1063.43, 0.0808281, 0.464279, 1.03299, 0.34851, 0.655882, 3, 45.5, 246, 38.5729, 0.157501, 1.40357, 136417
-28814.7, 767263, -340.054, 1.81696, -657.959, -0.00587739, 0.43977, 1.03299, 0.34851, 0.655882, 3, 45.5, 246, 29.8577, 0.115232, 1.3861, 136418
-17499.8, 642840, -338.909, 1.053, -727.004, 0.786095, 0.47415, 1.03299, 0.34851, 0.655882, 3, 45.5, 246, 30.7868, 0.118173, 1.3978, 136420
-13005.5, 662887, -336.45, 0.775033, -951.288, 0.273317, 0.494179, 1.03299, 0.34851, 0.655882, 3, 45.5, 246, 35.6658, 0.126594, 1.37944, 136422
-26552.5, 672119, -187.188, 1.83807, -712.853, 0.446564, 0.332167, 1.03299, 0.34851, 0.655882, 3, 45.5, 246, 24.4448, 0.0676812, 1.48263, 136423
-21285, 391485, -330.661, 3.60132, -1069.08, -0.0589298, 0.350147, 1.03299, 0.34851, 0.655882, 0.0001, 45.5, 246, 45.8343, 0.178559, 1.53591, 136425
-21285, 391485, -330.661, 3.60132, -1069.08, -0.0589298, 0.350147, 1.03299, 0.34851, 0.655882, 3, 45.5, 246, 45.8343, 0.178559, 1.20678, 136425
-13949.9, 412653, -400.629, 3.94837, -1100.47, 0.00366851, 0.379153, 0.993198, 0.349787, 0.651995, 0.0001, 91, 246, 45.8343, 0.178559, 1.05406, 136425
-13949.9, 412653, -400.629, 3.94837, -1100.47, 0.00366851, 0.379153, 0.993198, 0.349787, 0.651995, 3, 91, 246, 45.8343, 0.178559, 1.50246, 136425
-4733.27, 438575, -485.639, 4.37031, -1156.08, 0.0797342, 0.430707, 0.958125, 0.351078, 0.648177, 0.0001, 182, 246, 45.8343, 0.178559, 1.40574, 136425
-4733.27, 438575, -485.639, 4.37031, -1156.08, 0.0797342, 0.430707, 0.958125, 0.351078, 0.648177, 3, 182, 246, 45.8343, 0.178559, 1.4078, 136425
-8915.13, 134834, -141.195, 3.78887, -649.746, 0.213419, 0.192767, 0.993198, 0.349787, 0.651995, 3, 91, 246, 27.1924, 0.0964121, 1.75296, 136427
-7252.45, 538277, -455.382, 0.13449, -1051.51, 0.00271902, 0.728546, 1.03299, 0.34851, 0.655882, 3, 45.5, 246, 46.9591, 0.228667, 1.17941, 136431
-15237.2, 609553, -468.194, 2.11555, -1036.25, 0.549514, 0.55849, 0.993198, 0.349787, 0.651995, 3, 91, 246, 41.7812, 0.170725, 1.4244, 136432
-7266.86, 654151, -524.262, 2.33956, -1167.22, 0.625594, 0.569291, 0.958125, 0.351078, 0.648177, 3, 182, 246, 41.7812, 0.170725, 1.07028, 136432
-20142.4, 690003, -360.204, 1.31575, -795.347, 0.232182, 0.493972, 1.03299, 0.34851, 0.655882, 3, 45.5, 246, 33.8587, 0.130497, 1.35951, 136433
-21417.6, 553184, -329.765, 1.6804, -656.983, 0.759037, 0.454188, 1.03299, 0.34851, 0.655882, 3, 45.5, 246, 31.0359, 0.130094, 1.40975, 136434
-29779.9, 508877, -255.596, 3.18934, -659.318, 0.0198552, 0.263874, 1.03299, 0.34851, 0.655882, 3, 45.5, 246, 29.9188, 0.115013, 1.59475, 136436
-25794.3, 507406, -347.905, 3.16088, -1085.81, 0.0735802, 0.387407, 1.03299, 0.34851, 0.655882, 3, 45.5, 246, 43.6732, 0.160027, 1.47513, 136437
-17592.8, 532965, -412.874, 3.46329, -1136.04, 0.123182, 0.404446, 0.993198, 0.349787, 0.651995, 0.0001, 91, 246, 43.6732, 0.160027, 1.28631, 136437
-10802.6, 210127, -186.534, 1.85863, -743.506, -0.0159405, 0.410906, 1.03299, 0.34851, 0.655882, 3, 45.5, 246, 36.3541, 0.184176, 1.48365, 136438
-22904.9, 574715, 7.98271, 1.59463, -806.983, 0.404329, 0.292346, 1.03299, 0.34851, 0.655882, 3, 45.5, 246, 16.9725, 0.00407957, 1.51872, 136441
-11539.4, 233301, -315.198, 2.87239, -774.083, 0.570751, 0.433803, 1.03299, 0.34851, 0.655882, 0.0001, 45.5, 246, 47.512, 0.22185, 1.54475, 136442
-11539.4, 233301, -315.198, 2.87239, -774.083, 0.570751, 0.433803, 1.03299, 0.34851, 0.655882, 3, 45.5, 246, 47.512, 0.22185, 1.54622, 136442
-7555.05, 254747, -365.368, 3.22355, -882.205, 0.672097, 0.446971, 0.993198, 0.349787, 0.651995, 0.0001, 91, 246, 47.512, 0.22185, 1.35035, 136442
-7555.05, 254747, -365.368, 3.22355, -882.205, 0.672097, 0.446971, 0.993198, 0.349787, 0.651995, 3, 91, 246, 47.512, 0.22185, 1.71977, 136442
-2268.44, 283579, -429.105, 3.66069, -1029.21, 0.810064, 0.479123, 0.958125, 0.351078, 0.648177, 0.0001, 182, 246, 47.512, 0.22185, 1.79284, 136442
-2268.44, 283579, -429.105, 3.66069, -1029.21, 0.810064, 0.479123, 0.958125, 0.351078, 0.648177, 3, 182, 246, 47.512, 0.22185, 1.79435, 136442
-22297.6, 414375, -109.213, 2.60816, -1046.13, 0.633016, 0.246598, 1.03299, 0.34851, 0.655882, 0.0001, 45.5, 246, 28.2316, 0.0644314, 1.6119, 136448
-22297.6, 414375, -109.213, 2.60816, -1046.13, 0.633016, 0.246598, 1.03299, 0.34851, 0.655882, 3, 45.5, 246, 28.2316, 0.0644314, 1.61176, 136448
-3717.91, 38721.1, -152.694, 2.87938, -643.167, 0.643954, 0.246891, 1.03299, 0.34851, 0.655882, 0.0001, 45.5, 246, 52.915, 0.110457, 1.51788, 136450
-3717.91, 38721.1, -152.694, 2.87938, -643.167, 0.643954, 0.246891, 1.03299, 0.34851, 0.655882, 3, 45.5, 246, 52.915, 0.110457, 1.51828, 136450
-2967.58, 48915.6, -184.12, 3.22908, -732.671, 0.762451, 0.246365, 0.993198, 0.349787, 0.651995, 0.0001, 91, 246, 52.915, 0.110457, 1.88517, 136450
-2967.58, 48915.6, -184.12, 3.22908, -732.671, 0.762451, 0.246365, 0.993198, 0.349787, 0.651995, 3, 91, 246, 52.915, 0.110457, 1.45052, 136450
-1816.97, 62971.7, -224.949, 3.66703, -856.349, 0.926178, 0.264264, 0.958125, 0.351078, 0.648177, 0.0001, 182, 246, 52.915, 0.110457, 1.58531, 136450
-1816.97, 62971.7, -224.949, 3.66703, -856.349, 0.926178, 0.264264, 0.958125, 0.351078, 0.648177, 3, 182, 246, 52.915, 0.110457, 1.58703, 136450
760.242, 92419.3, -302.881, 4.46899, -1114.49, 1.26722, 0.324993, 0.9175, 0.352806, 0.64323, 0.0001, 455, 246, 52.915, 0.110457, 2.36271, 136450
760.242, 92419.3, -302.881, 4.46899, -1114.49, 1.26722, 0.324993, 0.9175, 0.352806, 0.64323, 3, 455, 246, 52.915, 0.110457, 2.36403, 136450
-22629.6, 470866, 14.1191, 2.05059, -1053.78, 0.107439, 0.264398, 1.03299, 0.34851, 0.655882, 3, 45.5, 246, 20.3047, 0.00765708, 1.56499, 136451
-18943.3, 456928, -144.586, 1.9499, -999.334, 0.315138, 0.321499, 1.03299, 0.34851, 0.655882, 3, 45.5, 246, 29.111, 0.0785894, 1.51573, 136452
-10308.5, 148249, -131.987, 2.26321, -729.754, 0.83524, 0.316215, 1.03299, 0.34851, 0.655882, 0.0001, 45.5, 246, 31.0534, 0.133192, 1.13169, 136455
-10308.5, 148249, -131.987, 2.26321, -729.754, 0.83524, 0.316215, 1.03299, 0.34851, 0.655882, 3, 45.5, 246, 31.0534, 0.133192, 1.59999, 136455
-10312.3, 639313, -479.651, 0.0385666, -588.472, 0.486679, 0.660636, 1.03299, 0.34851, 0.655882, 3, 45.5, 246, 34.4866, 0.1818, 1.37914, 136456
-12576, 712720, -362.869, 0.788416, -1107.25, 0.224662, 0.510072, 1.03299, 0.34851, 0.655882, 3, 45.5, 246, 39.2862, 0.128247, 1.34899, 136457
-39374.5, 730522, -404.608, 3.32272, -1116.55, -0.0532175, 0.372676, 1.03299, 0.34851, 0.655882, 0.0001, 45.5, 246, 43.9183, 0.143461, 1.45484, 136461
-39374.5, 730522, -404.608, 3.32272, -1116.55, -0.0532175, 0.372676, 1.03299, 0.34851, 0.655882, 3, 45.5, 246, 43.9183, 0.143461, 1.4545, 136461
-27304.9, 753357, -478.223, 3.62581, -1151.96, -0.000171494, 0.393553, 0.993198, 0.349787, 0.651995, 0.0001, 91, 246, 43.9183, 0.143461, 1.31447, 136461
-19128.2, 419952, -133.83, 2.05364, -809.616, 0.382641, 0.306747, 1.03299, 0.34851, 0.655882, 3, 45.5, 246, 25.3219, 0.0755561, 1.53555, 136462
-7977.9, -42267.9, 6.24112, 1.90391, -610.336, 0.301731, 0.314698, 1.03299, 0.34851, 0.655882, 0.0001, 45.5, 246, 5.51517, 0.0190908, 1.41009, 136463
-7977.9, -42267.9, 6.24112, 1.90391, -610.336, 0.301731, 0.314698, 1.03299, 0.34851, 0.655882, 3, 45.5, 246, 5.51517, 0.0190908, 1.75927, 136463
-4122.17, 44331.9, -155.156, 3.21087, -620.65, -0.0182437, 0.228632, 1.03299, 0.34851, 0.655882, 0.0001, 45.5, 246, 49.8208, 0.120957, 1.59666, 136464
-4122.17, 44331.9, -155.156, 3.21087, -620.65, -0.0182437, 0.228632, 1.03299, 0.34851, 0.655882, 3, 45.5, 246, 49.8208, 0.120957, 1.59849, 136464
-3249.12, 51564, -187.73, 3.48835, -636.313, 0.0309678, 0.23557, 0.993198, 0.349787, 0.651995, 0.0001, 91, 246, 49.8208, 0.120957, 2.05785, 136464
-3249.12, 51564, -187.73, 3.48835, -636.313, 0.0309678, 0.23557, 0.993198, 0.349787, 0.651995, 3, 91, 246, 49.8208, 0.120957, 1.90953, 136464
-2043.86, 59700.6, -226.348, 3.81513, -662.288, 0.0899923, 0.25946, 0.958125, 0.351078, 0.648177, 0.0001, 182, 246, 49.8208, 0.120957, 1.52514, 136464
-2043.86, 59700.6, -226.348, 3.81513, -662.288, 0.0899923, 0.25946, 0.958125, 0.351078, 0.648177, 3, 182, 246, 49.8208, 0.120957, 1.52604, 136464
261.13, 72784.1, -290.618, 4.35677, -718.714, 0.190547, 0.32131, 0.9175, 0.352806, 0.64323, 0.0001, 455, 246, 49.8208, 0.120957, 1.90878, 136464
261.13, 72784.1, -290.618, 4.35677, -718.714, 0.190547, 0.32131, 0.9175, 0.352806, 0.64323, 3, 455, 246, 49.8208, 0.120957, 1.9099, 136464
-7225.04, 54224.2, -89.0509, 3.25576, -948.699, 0.0797254, 0.219834, 1.03299, 0.34851, 0.655882, 0.0001, 45.5, 246, 34.0455, 0.110299, 1.06627, 136465
-7225.04, 54224.2, -89.0509, 3.25576, -948.699, 0.0797254, 0.219834, 1.03299, 0.34851, 0.655882, 3, 45.5, 246, 34.0455, 0.110299, 1.07275, 136465
-2067.01, 116894, -250.346, 4.52436, -1101.32, 0.314299, 0.322373, 0.9175, 0.352806, 0.64323, 0.0001, 455, 246, 34.0455, 0.110299, 1.28015, 136465
-2067.01, 116894, -250.346, 4.52436, -1101.32, 0.314299, 0.322373, 0.9175, 0.352806, 0.64323, 3, 455, 246, 34.0455, 0.110299, 1.28333, 136465
-12565.8, 802016, -376.872, 0.555107, -885.43, 0.0539888, 0.509907, 1.03299, 0.34851, 0.655882, 3, 45.5, 246, 34.6063, 0.121884, 1.36645, 136468
-9573.26, 820857, -397.128, 0.579938, -898.957, 0.0558795, 0.488937, 0.993198, 0.349787, 0.651995, 3, 91, 246, 34.6063, 0.121884, 1.097, 136468
-22224.7, 471726, -45.1244, 3.37951, -1082.03, 0.600661, 0.159297, 0.993198, 0.349787, 0.651995, 3, 91, 246, 21.6056, 0.0228008, 1.95294, 136469
-6906.06, 4483.04, -56.4366, 3.6291, -711.682, 0.148958, 0.209825, 0.993198, 0.349787, 0.651995, 0.0001, 91, 246, 21.7047, 0.0308258, 1.80973, 136470
-6906.06, 4483.04, -56.4366, 3.6291, -711.682, 0.148958, 0.209825, 0.993198, 0.349787, 0.651995, 3, 91, 246, 21.7047, 0.0308258, 1.80948, 136470
-12822.5, 442549, -442.159, 0.734023, -689.137, 0.627852, 0.719311, 1.03299, 0.34851, 0.655882, 3, 45.5, 246, 42.5415, 0.235563, 1.25306, 136471
-9881.02, 471366, -469.944, 0.799198, -774.897, 0.699866, 0.721521, 0.993198, 0.349787, 0.651995, 0.0001, 91, 246, 42.5415, 0.235563, 1.01254, 136471
-9881.02, 471366, -469.944, 0.799198, -774.897, 0.699866, 0.721521, 0.993198, 0.349787, 0.651995, 3, 91, 246, 42.5415, 0.235563, 1.01502, 136471
-32863.1, 592791, -327.347, 2.99058, -657.141, 0.0495465, 0.339733, 1.03299, 0.34851, 0.655882, 0.0001, 45.5, 246, 32.4048, 0.131164, 1.22894, 136476
-32863.1, 592791, -327.347, 2.99058, -657.141, 0.0495465, 0.339733, 1.03299, 0.34851, 0.655882, 3, 45.5, 246, 32.4048, 0.131164, 1.49825, 136476
-24364.2, 603592, -374.409, 3.25684, -693.503, 0.0931275, 0.347602, 0.993198, 0.349787, 0.651995, 0.0001, 91, 246, 32.4048, 0.131164, 1.30649, 136476
-4054.37, 43026.5, -161.309, 3.83569, -775.809, 0.00160569, 0.206357, 0.993198, 0.349787, 0.651995, 0.0001, 91, 246, 43.9519, 0.0872992, 1.86957, 136477
-4054.37, 43026.5, -161.309, 3.83569, -775.809, 0.00160569, 0.206357, 0.993198, 0.349787, 0.651995, 3, 91, 246, 43.9519, 0.0872992, 1.26651, 136477
-2978.07, 54323.2, -205.971, 4.21462, -799.708, 0.0728278, 0.241428, 0.958125, 0.351078, 0.648177, 0.0001, 182, 246, 43.9519, 0.0872992, 1.28123, 136477
-2978.07, 54323.2, -205.971, 4.21462, -799.708, 0.0728278, 0.241428, 0.958125, 0.351078, 0.648177, 3, 182, 246, 43.9519, 0.0872992, 1.282, 136477
-695.595, 71950.8, -281.72, 4.85947, -860.633, 0.195428, 0.325021, 0.9175, 0.352806, 0.64323, 0.0001, 455, 246, 43.9519, 0.0872992, 1.63031, 136477
-695.595, 71950.8, -281.72, 4.85947, -860.633, 0.195428, 0.325021, 0.9175, 0.352806, 0.64323, 3, 455, 246, 43.9519, 0.0872992, 1.71212, 136477
-32802.9, 849919, -88.3645, 1.83779, -1089.89, 0.509299, 0.284447, 1.03299, 0.34851, 0.655882, 3, 45.5, 246, 28.5641, 0.0304079, 1.51065, 136478
-14737.9, 627405, -208.336, 0.87653, -748.677, -0.00351535, 0.397691, 1.03299, 0.34851, 0.655882, 3, 45.5, 246, 26.3391, 0.0867442, 1.44076, 136480
-6877.53, 79094.2, -138.16, 3.20737, -812.871, 0.00800409, 0.242838, 1.03299, 0.34851, 0.655882, 0.0001, 45.5, 246, 40.3366, 0.144751, 1.77124, 136481
-6877.53, 79094.2, -138.16, 3.20737, -812.871, 0.00800409, 0.242838, 1.03299, 0.34851, 0.655882, 3, 45.5, 246, 40.3366, 0.144751, 1.35224, 136481
-5564.23, 91136.3, -175.241, 3.49068, -830.81, 0.0573522, 0.250643, 0.993198, 0.349787, 0.651995, 0.0001, 91, 246, 40.3366, 0.144751, 1.82036, 136481
-5564.23, 91136.3, -175.241, 3.49068, -830.81, 0.0573522, 0.250643, 0.993198, 0.349787, 0.651995, 3, 91, 246, 40.3366, 0.144751, 1.1672, 136481
-3762.97, 104498, -219.454, 3.82502, -861.3, 0.117185, 0.275638, 0.958125, 0.351078, 0.648177, 0.0001, 182, 246, 40.3366, 0.144751, 1.2443, 136481
-3762.97, 104498, -219.454, 3.82502, -861.3, 0.117185, 0.275638, 0.958125, 0.351078, 0.648177, 3, 182, 246, 40.3366, 0.144751, 1.24686, 136481
-341.944, 125623, -293.525, 4.38097, -928.73, 0.220335, 0.339625, 0.9175, 0.352806, 0.64323, 0.0001, 455, 246, 40.3366, 0.144751, 2.34352, 136481
-341.944, 125623, -293.525, 4.38097, -928.73, 0.220335, 0.339625, 0.9175, 0.352806, 0.64323, 3, 455, 246, 40.3366, 0.144751, 2.34496, 136481
-13194.2, 702382, -343.925, 0.684993, -908.528, 0.830196, 0.476138, 1.03299, 0.34851, 0.655882, 3, 45.5, 246, 33.5493, 0.109635, 1.4102, 136483
-20660.7, 704209, -127.399, 1.39148, -1167.42, -0.00604555, 0.334804, 1.03299, 0.34851, 0.655882, 3, 45.5, 246, 30.739, 0.0512399, 1.47713, 136486
-41192.8, 664262, -401.015, 3.48474, -691.917, -0.0543467, 0.338549, 1.03299, 0.34851, 0.655882, 0.0001, 45.5, 246, 36.1622, 0.146459, 1.2929, 136487
-41192.8, 664262, -401.015, 3.48474, -691.917, -0.0543467, 0.338549, 1.03299, 0.34851, 0.655882, 3, 45.5, 246, 36.1622, 0.146459, 1.48831, 136487
-29832, 673192, -462.943, 3.8112, -730.443, 0.00410649, 0.362414, 0.993198, 0.349787, 0.651995, 0.0001, 91, 246, 36.1622, 0.146459, 1.59565, 136487
-29832, 673192, -462.943, 3.8112, -730.443, 0.00410649, 0.362414, 0.993198, 0.349787, 0.651995, 3, 91, 246, 36.1622, 0.146459, 1.59374, 136487
-12975.8, 388250, -397.904, 1.23347, -812.003, 0.63193, 0.663887, 1.03299, 0.34851, 0.655882, 3, 45.5, 246, 44.8681, 0.234483, 1.29781, 136489
-9581.35, 418310, -431.712, 1.35395, -917.507, 0.710189, 0.664767, 0.993198, 0.349787, 0.651995, 0.0001, 91, 246, 44.8681, 0.234483, 1.06291, 136489
-33551.4, 969274, -109.112, 1.62998, -623.54, 0.00123557, 0.303325, 1.03299, 0.34851, 0.655882, 3, 45.5, 246, 18.9236, 0.0320832, 1.48332, 136490
-26402.8, 595921, -132.651, 2.14107, -980.954, 0.568527, 0.287869, 1.03299, 0.34851, 0.655882, 3, 45.5, 246, 27.7864, 0.0562916, 1.53339, 136493
-29742, 557766, -367.182, 3.23396, -1086.03, 0.376111, 0.364439, 1.03299, 0.34851, 0.655882, 0.0001, 45.5, 246, 43.1557, 0.14956, 1.49552, 136494
-29742, 557766, -367.182, 3.23396, -1086.03, 0.376111, 0.364439, 1.03299, 0.34851, 0.655882, 3, 45.5, 246, 43.1557, 0.14956, 1.48573, 136494
-15386.7, 777984, -450.722, 0.765278, -892.397, 0.325091, 0.577472, 1.03299, 0.34851, 0.655882, 3, 45.5, 246, 37.6926, 0.143726, 1.3352, 136495
-16952.6, 314184, -64.4329, 2.20641, -860.893, 0.492967, 0.269933, 1.03299, 0.34851, 0.655882, 3, 45.5, 246, 21.7296, 0.0519847, 1.58816, 136497
-10447.2, 766720, -429.85, 0.233101, -722.05, 0.0655179, 0.571551, 1.03299, 0.34851, 0.655882, 3, 45.5, 246, 33.5686, 0.145206, 1.32326, 136498
-25091, 457640, -303.696, 3.03534, -707.507, -0.0415999, 0.351085, 1.03299, 0.34851, 0.655882, 0.0001, 45.5, 246, 35.3116, 0.149027, 1.51355, 136500
-25091, 457640, -303.696, 3.03534, -707.507, -0.0415999, 0.351085, 1.03299, 0.34851, 0.655882, 3, 45.5, 246, 35.3116, 0.149027, 1.5086, 136500
-18332.9, 466897, -350.645, 3.29323, -732.443, 0.00237837, 0.360967, 0.993198, 0.349787, 0.651995, 3, 91, 246, 35.3116, 0.149027, 1.63432, 136500
