-19069.5, 431745, -43.1939, 2.94169, -1116.24, 0.94792, 0.200755, 0.993198, 0.349787, 0.651995, 3, 91, 246, 20.994, 0.0232545, 1.85247, 13501
-28590.5, 702532, -131.476, 3.09093, -1012.65, 0.128558, 0.192882, 0.993198, 0.349787, 0.651995, 3, 91, 246, 26.694, 0.0435592, 1.8396, 13502
-11024.5, 405822, -368.436, 0.554871, -664.747, 0.455329, 0.642398, 1.03299, 0.34851, 0.655882, 3, 45.5, 246, 39.4849, 0.222768, 1.28365, 13505
-25344.4, 803360, -388.201, 1.79397, -1166.66, -0.0139981, 0.496006, 1.03299, 0.34851, 0.655882, 3, 45.5, 246, 42.0459, 0.1281, 1.34573, 13506
-22773.9, 561929, -293.591, 1.92995, -800.189, 0.696039, 0.407476, 1.03299, 0.34851, 0.655882, 3, 45.5, 246, 32.2111, 0.116391, 1.44368, 13507
-26269, 528184, -388.015, 3.0716, -1027.51, -0.0419703, 0.448403, 1.03299, 0.34851, 0.655882, 3, 45.5, 246, 44.8871, 0.175265, 1.41171, 13508
-17809.8, 548554, -453.49, 3.34409, -1059.71, 0.0032183, 0.467462, 0.993198, 0.349787, 0.651995, 0.0001, 91, 246, 44.8871, 0.175265, 1.22054, 13508
-17809.8, 548554, -453.49, 3.34409, -1059.71, 0.0032183, 0.467462, 0.993198, 0.349787, 0.651995, 3, 91, 246, 44.8871, 0.175265, 1.51906, 13508
-9015.4, 92445.1, -62.0977, 3.67749, -683.129, 0.395137, 0.182036, 0.993198, 0.349787, 0.651995, 3, 91, 246, 17.7444, 0.052453, 1.64781, 13509
-30708.6, 690518, -140.63, 2.27328, -879.321, 0.0543608, 0.276477, 1.03299, 0.34851, 0.655882, 0.0001, 45.5, 246, 26.2261, 0.0563967, 1.53995, 13511
-30708.6, 690518, -140.63, 2.27328, -879.321, 0.0543608, 0.276477, 1.03299, 0.34851, 0.655882, 3, 45.5, 246, 26.2261, 0.0563967, 1.54024, 13511
-23965.3, 706111, -169.217, 2.43726, -898.265, 0.0794014, 0.260874, 0.993198, 0.349787, 0.651995, 3, 91, 246, 26.2261, 0.0563967, 1.70868, 13511
-15602.2, 439999, -317.95, 1.45206, -724.024, 0.496486, 0.503522, 1.03299, 0.34851, 0.655882, 3, 45.5, 246, 35.4078, 0.165059, 1.3834, 13512
-26102.1, 856090, -13.1836, 1.17075, -705.037, 0.851084, 0.313664, 1.03299, 0.34851, 0.655882, 3, 45.5, 246, 17.3052, 0.00628007, 1.47702, 13514
-12048.4, 130974, -8.082, 2.83621, -894.66, -0.0371992, 0.220536, 1.03299, 0.34851, 0.655882, 3, 45.5, 246, 16.0777, 0.0393129, 1.70342, 13516
-10531.7, 144282, -32.6805, 3.05456, -893.603, 0.000913105, 0.215527, 0.993198, 0.349787, 0.651995, 0.0001, 91, 246, 16.0777, 0.0393129, 1.18848, 13516
-10531.7, 144282, -32.6805, 3.05456, -893.603, 0.000913105, 0.215527, 0.993198, 0.349787, 0.651995, 3, 91, 246, 16.0777, 0.0393129, 1.18032, 13516
-9955.19, 392385, -351.051, 0.967671, -1138.59, 0.0655794, 0.637335, 1.03299, 0.34851, 0.655882, 3, 45.5, 246, 47.5258, 0.231178, 1.28478, 13517
-27065.6, 721892, -59.5931, 2.63401, -1142.25, 0.012742, 0.21221, 0.993198, 0.349787, 0.651995, 3, 91, 246, 26.5844, 0.0223794, 1.78289, 13520
-20819.2, 842549, -159.705, 1.08563, -983.981, 0.419874, 0.350207, 1.03299, 0.34851, 0.655882, 3, 45.5, 246, 28.324, 0.0480017, 1.4599, 13524
-22267.4, 799011, -232.749, 1.39568, -1026.4, 0.022685, 0.381142, 1.03299, 0.34851, 0.655882, 3, 45.5, 246, 32.4506, 0.0780579, 1.43495, 13525
-23164.3, 420008, -336.934, 2.94019, -599.616, -0.0114596, 0.410529, 1.03299, 0.34851, 0.655882, 3, 45.5, 246, 36.8148, 0.172401, 1.45967, 13529
-16905.8, 428006, -383.113, 3.19449, -629.5, 0.029815, 0.422362, 0.993198, 0.349787, 0.651995, 0.0001, 91, 246, 36.8148, 0.172401, 1.29486, 13529
-16905.8, 428006, -383.113, 3.19449, -629.5, 0.029815, 0.422362, 0.993198, 0.349787, 0.651995, 3, 91, 246, 36.8148, 0.172401, 1.5394, 13529
-15010.8, 301029, -368.645, 2.77531, -629.218, -0.0035876, 0.521997, 1.03299, 0.34851, 0.655882, 3, 45.5, 246, 47.0894, 0.239263, 1.42029, 13530
-10177.6, 310611, -417.393, 3.01625, -660.612, 0.0332206, 0.53908, 0.993198, 0.349787, 0.651995, 0.0001, 91, 246, 47.0894, 0.239263, 1.54574, 13530
-4279.78, 322748, -474.472, 3.29603, -703.502, 0.0773659, 0.570944, 0.958125, 0.351078, 0.648177, 0.0001, 182, 246, 47.0894, 0.239263, 1.34363, 13530
-4279.78, 322748, -474.472, 3.29603, -703.502, 0.0773659, 0.570944, 0.958125, 0.351078, 0.648177, 3, 182, 246, 47.0894, 0.239263, 1.3456, 13530
-12575.4, 218155, -170.209, 2.34767, -669.382, 0.352137, 0.334522, 1.03299, 0.34851, 0.655882, 0.0001, 45.5, 246, 31.431, 0.140965, 1.11695, 13531
-12575.4, 218155, -170.209, 2.34767, -669.382, 0.352137, 0.334522, 1.03299, 0.34851, 0.655882, 3, 45.5, 246, 31.431, 0.140965, 1.16977, 13531
-9738.76, 71796.6, -12.8876, 2.26884, -772.785, 0.727261, 0.26858, 1.03299, 0.34851, 0.655882, 0.0001, 45.5, 246, 14.8155, 0.0459926, 1.36911, 13532
-9738.76, 71796.6, -12.8876, 2.26884, -772.785, 0.727261, 0.26858, 1.03299, 0.34851, 0.655882, 3, 45.5, 246, 14.8155, 0.0459926, 1.63093, 13532
-9137.39, 86560.2, -31.6436, 2.52768, -876.41, 0.850202, 0.253331, 0.993198, 0.349787, 0.651995, 0.0001, 91, 246, 14.8155, 0.0459926, 1.34724, 13532
-9137.39, 86560.2, -31.6436, 2.52768, -876.41, 0.850202, 0.253331, 0.993198, 0.349787, 0.651995, 3, 91, 246, 14.8155, 0.0459926, 1.34727, 13532
-6036.36, 147477, -106.683, 3.41305, -1311.97, 1.36637, 0.270234, 0.9175, 0.352806, 0.64323, 0.0001, 455, 246, 14.8155, 0.0459926, 1.05441, 13532
-36260, 926601, -145.714, 1.96977, -945.934, 0.192753, 0.290116, 1.03299, 0.34851, 0.655882, 3, 45.5, 246, 27.6737, 0.044243, 1.50411, 13533
-28434.5, 952383, -172.708, 2.11629, -985.75, 0.217703, 0.269206, 0.993198, 0.349787, 0.651995, 3, 91, 246, 27.6737, 0.044243, 1.66808, 13533
-39118.4, 760426, -419.034, 2.69688, -722.708, 0.207794, 0.425562, 1.03299, 0.34851, 0.655882, 0.0001, 45.5, 246, 34.9387, 0.1359, 1.40389, 13534
-39118.4, 760426, -419.034, 2.69688, -722.708, 0.207794, 0.425562, 1.03299, 0.34851, 0.655882, 3, 45.5, 246, 34.9387, 0.1359, 1.40389, 13534
-28823.7, 781431, -472.649, 2.95266, -783.007, 0.25105, 0.432125, 0.993198, 0.349787, 0.651995, 3, 91, 246, 34.9387, 0.1359, 1.50131, 13534
-20973.2, 607032, -131.594, 1.48289, -737.475, 0.392533, 0.329304, 1.03299, 0.34851, 0.655882, 3, 45.5, 246, 22.4791, 0.0543098, 1.49011, 13536
-12245.8, 446342, -228.48, 1.05004, -973.072, 0.197714, 0.435998, 1.03299, 0.34851, 0.655882, 3, 45.5, 246, 33.7595, 0.12708, 1.428, 13541
-18349.6, 426056, -232.873, 2.10778, -799.916, 0.0478834, 0.383412, 1.03299, 0.34851, 0.655882, 3, 45.5, 246, 32.4028, 0.129902, 1.47393, 13543
-15295.3, 443682, -324.597, 2.84595, -865.411, 0.154788, 0.385168, 0.993198, 0.349787, 0.651995, 0.0001, 91, 246, 36.358, 0.148561, 1.13564, 13544
-15295.3, 443682, -324.597, 2.84595, -865.411, 0.154788, 0.385168, 0.993198, 0.349787, 0.651995, 3, 91, 246, 36.358, 0.148561, 1.60293, 13544
-36327.1, 965056, -49.3657, 1.80968, -924.585, -0.00634684, 0.279331, 1.03299, 0.34851, 0.655882, 3, 45.5, 246, 23.8671, 0.018524, 1.5066, 13545
-30110.7, 759473, -226.663, 2.1087, -952.701, -0.0162647, 0.335204, 1.03299, 0.34851, 0.655882, 3, 45.5, 246, 31.3849, 0.0808937, 1.47784, 13550
-16569.8, 297208, -227.267, 3.21086, -1021.74, 0.344979, 0.288696, 1.03299, 0.34851, 0.655882, 0.0001, 45.5, 246, 39.0218, 0.146168, 1.62359, 13551
-16569.8, 297208, -227.267, 3.21086, -1021.74, 0.344979, 0.288696, 1.03299, 0.34851, 0.655882, 3, 45.5, 246, 39.0218, 0.146168, 1.26663, 13551
-11765.6, 323548, -280.337, 3.56595, -1108.2, 0.418141, 0.300675, 0.993198, 0.349787, 0.651995, 0.0001, 91, 246, 39.0218, 0.146168, 1.46972, 13551
-11765.6, 323548, -280.337, 3.56595, -1108.2, 0.418141, 0.300675, 0.993198, 0.349787, 0.651995, 3, 91, 246, 39.0218, 0.146168, 1.78934, 13551
-14948.3, 369457, -224.214, 3.5382, -1093.78, 0.30478, 0.247376, 0.993198, 0.349787, 0.651995, 0.0001, 91, 246, 33.809, 0.109222, 1.56623, 13552
-14948.3, 369457, -224.214, 3.5382, -1093.78, 0.30478, 0.247376, 0.993198, 0.349787, 0.651995, 3, 91, 246, 33.809, 0.109222, 1.83275, 13552
-12744.8, 401341, -309.758, 1.3027, -906.357, 0.258888, 0.533776, 1.03299, 0.34851, 0.655882, 3, 45.5, 246, 40.0238, 0.186483, 1.3569, 13554
-19140.7, 335418, -32.105, 2.48231, -721.123, -0.0245817, 0.23918, 1.03299, 0.34851, 0.655882, 0.0001, 45.5, 246, 16.6495, 0.0322073, 1.62444, 13555
-19140.7, 335418, -32.105, 2.48231, -721.123, -0.0245817, 0.23918, 1.03299, 0.34851, 0.655882, 3, 45.5, 246, 16.6495, 0.0322073, 1.62435, 13555
-14733.5, 359978, -17.1778, 1.36523, -1122.82, 0.151647, 0.312081, 1.03299, 0.34851, 0.655882, 3, 45.5, 246, 21.5124, 0.0231558, 1.52133, 13559
-17579.2, 703417, -211.498, 1.10951, -909.088, -0.00432545, 0.386464, 1.03299, 0.34851, 0.655882, 3, 45.5, 246, 29.3329, 0.0796572, 1.44076, 13560
-16329.7, 279672, -242.159, 3.02911, -583.207, -0.000505411, 0.319049, 1.03299, 0.34851, 0.655882, 0.0001, 45.5, 246, 34.6856, 0.158525, 1.58748, 13561
-16329.7, 279672, -242.159, 3.02911, -583.207, -0.000505411, 0.319049, 1.03299, 0.34851, 0.655882, 3, 45.5, 246, 34.6856, 0.158525, 1.58704, 13561
-12187.2, 286587, -279.915, 3.29042, -606.856, 0.0433505, 0.326438, 0.993198, 0.349787, 0.651995, 0.0001, 91, 246, 34.6856, 0.158525, 1.64904, 13561
-12187.2, 286587, -279.915, 3.29042, -606.856, 0.0433505, 0.326438, 0.993198, 0.349787, 0.651995, 3, 91, 246, 34.6856, 0.158525, 1.50514, 13561
-12831.8, 504028, -277.841, 0.958464, -861.761, 0.0857409, 0.475657, 1.03299, 0.34851, 0.655882, 3, 45.5, 246, 34.0751, 0.140244, 1.39038, 13562
-14560.1, 786112, -468.84, 0.7008, -906.221, 0.0123217, 0.611502, 1.03299, 0.34851, 0.655882, 3, 45.5, 246, 39.3269, 0.15671, 1.29516, 13563
-18916.7, 742252, -400.418, 0.919121, -586.139, 0.154321, 0.534584, 1.03299, 0.34851, 0.655882, 3, 45.5, 246, 30.2599, 0.136732, 1.31672, 13567
-10614.9, 400120, -311.316, 0.805319, -888.385, 0.774174, 0.540066, 1.03299, 0.34851, 0.655882, 3, 45.5, 246, 38.3265, 0.178444, 1.34616, 13568
-21977.6, 483810, -402.584, 2.48467, -839.225, 0.117362, 0.536272, 1.03299, 0.34851, 0.655882, 3, 45.5, 246, 43.1512, 0.193406, 1.34835, 13570
-15356.8, 502688, -455.415, 2.70379, -886.624, 0.149675, 0.547142, 0.993198, 0.349787, 0.651995, 0.0001, 91, 246, 43.1512, 0.193406, 1.1053, 13570
-15356.8, 502688, -455.415, 2.70379, -886.624, 0.149675, 0.547142, 0.993198, 0.349787, 0.651995, 3, 91, 246, 43.1512, 0.193406, 1.43744, 13570
-28232, 643717, -2.08569, 2.02235, -1118.48, -0.0169866, 0.268052, 1.03299, 0.34851, 0.655882, 3, 45.5, 246, 24.0959, 0.0119347, 1.5411, 13571
-10563.1, 317813, -277.386, 1.20447, -987.267, 0.264726, 0.540356, 1.03299, 0.34851, 0.655882, 3, 45.5, 246, 42.4539, 0.21089, 1.36378, 13573
-29149.4, 843461, -422.38, 1.96402, -1101.06, -0.015136, 0.502333, 1.03299, 0.34851, 0.655882, 3, 45.5, 246, 41.9617, 0.133764, 1.33812, 13575
-9213.87, 139891, -166.838, 2.81537, -841.46, 0.283029, 0.305787, 1.03299, 0.34851, 0.655882, 0.0001, 45.5, 246, 39.0059, 0.166181, 1.0141, 13576
-9213.87, 139891, -166.838, 2.81537, -841.46, 0.283029, 0.305787, 1.03299, 0.34851, 0.655882, 3, 45.5, 246, 39.0059, 0.166181, 1.65568, 13576
-7214.09, 155720, -203.687, 3.09239, -898.24, 0.336357, 0.306517, 0.993198, 0.349787, 0.651995, 0.0001, 91, 246, 39.0059, 0.166181, 1.70596, 13576
-7214.09, 155720, -203.687, 3.09239, -898.24, 0.336357, 0.306517, 0.993198, 0.349787, 0.651995, 3, 91, 246, 39.0059, 0.166181, 1.44907, 13576
-11600.9, 142928, 5.10074, 1.90548, -851.218, 0.593257, 0.284109, 1.03299, 0.34851, 0.655882, 0.0001, 45.5, 246, 13.0737, 0.020738, 1.05569, 13577
-11600.9, 142928, 5.10074, 1.90548, -851.218, 0.593257, 0.284109, 1.03299, 0.34851, 0.655882, 3, 45.5, 246, 13.0737, 0.020738, 1.58675, 13577
-30877.9, 906567, -186.498, 1.80173, -1137.91, -0.00865177, 0.327039, 1.03299, 0.34851, 0.655882, 3, 45.5, 246, 33.2125, 0.0584798, 1.47229, 13578
-32634, 805187, -394.346, 2.15654, -902.368, 0.193744, 0.451435, 1.03299, 0.34851, 0.655882, 3, 45.5, 246, 36.8396, 0.124845, 1.38224, 13579
-23884.4, 831246, -441.455, 2.33597, -957.584, 0.222703, 0.446839, 0.993198, 0.349787, 0.651995, 3, 91, 246, 36.8396, 0.124845, 1.48484, 13579
-35846.9, 890517, -397.245, 2.1597, -983.665, 0.344064, 0.430992, 1.03299, 0.34851, 0.655882, 3, 45.5, 246, 37.5855, 0.112585, 1.39569, 13580
-26187.9, 928319, -446.467, 2.35804, -1067.86, 0.387515, 0.424907, 0.993198, 0.349787, 0.651995, 3, 91, 246, 37.5855, 0.112585, 1.50514, 13580
-23712.1, 738604, -31.5559, 1.28588, -572.2, 0.371393, 0.310896, 1.03299, 0.34851, 0.655882, 3, 45.5, 246, 14.4257, 0.0131212, 1.48877, 13583
-29804, 576956, -401.999, 3.00192, -872.421, -0.0176498, 0.445015, 1.03299, 0.34851, 0.655882, 0.0001, 45.5, 246, 41.5234, 0.167915, 1.40538, 13585
-29804, 576956, -401.999, 3.00192, -872.421, -0.0176498, 0.445015, 1.03299, 0.34851, 0.655882, 3, 45.5, 246, 41.5234, 0.167915, 1.40378, 13585
-20885.4, 592828, -463.014, 3.26766, -908.544, 0.0254466, 0.461668, 0.993198, 0.349787, 0.651995, 0.0001, 91, 246, 41.5234, 0.167915, 1.20584, 13585
-20885.4, 592828, -463.014, 3.26766, -908.544, 0.0254466, 0.461668, 0.993198, 0.349787, 0.651995, 3, 91, 246, 41.5234, 0.167915, 1.33025, 13585
-11850.5, 567726, -305.893, 0.566781, -675.501, 0.151599, 0.493469, 1.03299, 0.34851, 0.655882, 3, 45.5, 246, 30.5336, 0.13685, 1.37625, 13586
-34404.8, 672581, -441.913, 2.51265, -565.616, 0.221692, 0.48893, 1.03299, 0.34851, 0.655882, 0.0001, 45.5, 246, 34.0538, 0.156368, 1.35509, 13587
-34404.8, 672581, -441.913, 2.51265, -565.616, 0.221692, 0.48893, 1.03299, 0.34851, 0.655882, 3, 45.5, 246, 34.0538, 0.156368, 1.35527, 13587
-25568.2, 689807, -491.399, 2.74796, -620.442, 0.261196, 0.496202, 0.993198, 0.349787, 0.651995, 0.0001, 91, 246, 34.0538, 0.156368, 1.05769, 13587
-10779.5, 221503, -262.778, 3.03758, -1058.34, 0.121113, 0.388829, 1.03299, 0.34851, 0.655882, 0.0001, 45.5, 246, 47.8594, 0.210249, 1.43001, 13588
-10779.5, 221503, -262.778, 3.03758, -1058.34, 0.121113, 0.388829, 1.03299, 0.34851, 0.655882, 3, 45.5, 246, 47.8594, 0.210249, 1.56762, 13588
-7044.46, 244786, -317.274, 3.32882, -1107.25, 0.168827, 0.402177, 0.993198, 0.349787, 0.651995, 0.0001, 91, 246, 47.8594, 0.210249, 1.51226, 13588
-7044.46, 244786, -317.274, 3.32882, -1107.25, 0.168827, 0.402177, 0.993198, 0.349787, 0.651995, 3, 91, 246, 47.8594, 0.210249, 1.76674, 13588
-2134.63, 272136, -383.088, 3.67392, -1175.07, 0.228737, 0.432666, 0.958125, 0.351078, 0.648177, 0.0001, 182, 246, 47.8594, 0.210249, 1.66988, 13588
-2134.63, 272136, -383.088, 3.67392, -1175.07, 0.228737, 0.432666, 0.958125, 0.351078, 0.648177, 3, 182, 246, 47.8594, 0.210249, 1.6723, 13588
-10779, 365845, -321.862, 0.603523, -627.779, -0.00160918, 0.613774, 1.03299, 0.34851, 0.655882, 3, 45.5, 246, 39.0882, 0.23089, 1.29035, 13589
-10018.4, 95099.6, -43.8485, 2.64969, -888.633, -0.0324366, 0.254416, 1.03299, 0.34851, 0.655882, 0.0001, 45.5, 246, 21.8429, 0.0763138, 1.14412, 13590
-10018.4, 95099.6, -43.8485, 2.64969, -888.633, -0.0324366, 0.254416, 1.03299, 0.34851, 0.655882, 3, 45.5, 246, 21.8429, 0.0763138, 1.60632, 13590
-8994.48, 108487, -69.3696, 2.84663, -890.438, 0.000739482, 0.246442, 0.993198, 0.349787, 0.651995, 0.0001, 91, 246, 21.8429, 0.0763138, 1.21381, 13590
-5143.59, 142137, -145.568, 3.4182, -926.598, 0.101124, 0.274661, 0.9175, 0.352806, 0.64323, 3, 455, 246, 21.8429, 0.0763138, 1.17776, 13590
-10186.7, 748609, -470.294, 0.0879032, -631.219, 0.559177, 0.596294, 1.03299, 0.34851, 0.655882, 3, 45.5, 246, 32.0873, 0.148145, 1.34935, 13591
-17568.2, 561592, -91.0641, 1.26219, -891.74, 0.100539, 0.329688, 1.03299, 0.34851, 0.655882, 3, 45.5, 246, 23.3826, 0.044595, 1.49011, 13592
-16593.8, 377180, -413.024, 2.14814, -669.772, -0.0218053, 0.644457, 1.03299, 0.34851, 0.655882, 0.0001, 45.5, 246, 46.85, 0.249367, 1.2887, 13594
-16593.8, 377180, -413.024, 2.14814, -669.772, -0.0218053, 0.644457, 1.03299, 0.34851, 0.655882, 3, 45.5, 246, 46.85, 0.249367, 1.31325, 13594
-11684, 387885, -458.589, 2.31183, -694.147, 3.002e-05, 0.658429, 0.993198, 0.349787, 0.651995, 0.0001, 91, 246, 46.85, 0.249367, 1.14801, 13594
-11684, 387885, -458.589, 2.31183, -694.147, 3.002e-05, 0.658429, 0.993198, 0.349787, 0.651995, 3, 91, 246, 46.85, 0.249367, 1.3481, 13594
-17574.1, 429202, -421.839, 1.85423, -673.063, 0.0875313, 0.649543, 1.03299, 0.34851, 0.655882, 3, 45.5, 246, 43.9823, 0.231837, 1.27222, 13595
-12705.6, 442674, -463.902, 1.99627, -705.975, 0.105254, 0.658232, 0.993198, 0.349787, 0.651995, 0.0001, 91, 246, 43.9823, 0.231837, 1.0256, 13595
-12705.6, 442674, -463.902, 1.99627, -705.975, 0.105254, 0.658232, 0.993198, 0.349787, 0.651995, 3, 91, 246, 43.9823, 0.231837, 1.36706, 13595
-6852.43, 458461, -511.138, 2.15376, -745.83, 0.126248, 0.676158, 0.958125, 0.351078, 0.648177, 3, 182, 246, 43.9823, 0.231837, 1.01178, 13595
-14000.1, 379683, -371.116, 2.19978, -1150.72, -0.0179818, 0.595575, 1.03299, 0.34851, 0.655882, 3, 45.5, 246, 50.6827, 0.231506, 1.35436, 13596
-9074.59, 405527, -423.6, 2.36699, -1173.34, 0.00489885, 0.605442, 0.993198, 0.349787, 0.651995, 3, 91, 246, 50.6827, 0.231506, 1.40844, 13596
-10181.1, 141412, -41.9445, 1.37948, -1013.67, 0.825458, 0.326078, 1.03299, 0.34851, 0.655882, 0.0001, 45.5, 246, 21.2126, 0.0677079, 1.08509, 13597
-10181.1, 141412, -41.9445, 1.37948, -1013.67, 0.825458, 0.326078, 1.03299, 0.34851, 0.655882, 3, 45.5, 246, 21.2126, 0.0677079, 1.08493, 13597
-14105.5, 410417, -36.7217, 1.00224, -639.975, 0.509301, 0.326504, 1.03299, 0.34851, 0.655882, 3, 45.5, 246, 15.0575, 0.0243165, 1.50311, 13598
-28472.9, 610346, -303.996, 3.86064, -712.35, 0.0213969, 0.217346, 0.993198, 0.349787, 0.651995, 0.0001, 91, 246, 29.3041, 0.102492, 1.82574, 13599
-28472.9, 610346, -303.996, 3.86064, -712.35, 0.0213969, 0.217346, 0.993198, 0.349787, 0.651995, 3, 91, 246, 29.3041, 0.102492, 1.23463, 13599
-21894.9, 538304, -140.882, 1.9598, -984.462, 0.283555, 0.312183, 1.03299, 0.34851, 0.655882, 3, 45.5, 246, 28.3182, 0.0674605, 1.51734, 13601
-20458.5, 436358, -106.209, 3.63532, -1038.4, 0.0592439, 0.156253, 0.993198, 0.349787, 0.651995, 0.0001, 91, 246, 25.4671, 0.050064, 1.9849, 13602
-20458.5, 436358, -106.209, 3.63532, -1038.4, 0.0592439, 0.156253, 0.993198, 0.349787, 0.651995, 3, 91, 246, 25.4671, 0.050064, 1.98479, 13602
-6669.58, 97310.8, -170.981, 2.92757, -822.83, 0.145292, 0.300091, 1.03299, 0.34851, 0.655882, 0.0001, 45.5, 246, 45.3637, 0.1866, 1.71424, 13603
-6669.58, 97310.8, -170.981, 2.92757, -822.83, 0.145292, 0.300091, 1.03299, 0.34851, 0.655882, 3, 45.5, 246, 45.3637, 0.1866, 1.30904, 13603
-5108.98, 110952, -208.597, 3.1975, -860.341, 0.190847, 0.303392, 0.993198, 0.349787, 0.651995, 0.0001, 91, 246, 45.3637, 0.1866, 1.86429, 13603
-5108.98, 110952, -208.597, 3.1975, -860.341, 0.190847, 0.303392, 0.993198, 0.349787, 0.651995, 3, 91, 246, 45.3637, 0.1866, 1.25354, 13603
-2993.37, 126754, -253.762, 3.51418, -911.246, 0.247748, 0.322199, 0.958125, 0.351078, 0.648177, 0.0001, 182, 246, 45.3637, 0.1866, 1.44707, 13603
-2993.37, 126754, -253.762, 3.51418, -911.246, 0.247748, 0.322199, 0.958125, 0.351078, 0.648177, 3, 182, 246, 45.3637, 0.1866, 1.44909, 13603
-21717.4, 544039, -147.748, 1.87166, -745.745, -0.0149078, 0.321932, 1.03299, 0.34851, 0.655882, 3, 45.5, 246, 24.2199, 0.071029, 1.5023, 13604
-10130.9, 258198, -252.04, 0.849938, -637.755, 0.00148881, 0.561583, 1.03299, 0.34851, 0.655882, 3, 45.5, 246, 40.3333, 0.248037, 1.34605, 13605
-33348.9, 782063, -244.453, 2.19062, -713.926, -0.0225967, 0.33189, 1.03299, 0.34851, 0.655882, 3, 45.5, 246, 27.0178, 0.0831968, 1.48076, 13607
-25723.2, 790713, -275.941, 2.33876, -728.118, -6.9637e-05, 0.318217, 0.993198, 0.349787, 0.651995, 3, 91, 246, 27.0178, 0.0831968, 1.62114, 13607
-3124.66, 101133, -225.242, 3.13916, -663.61, 0.147687, 0.32448, 0.9175, 0.352806, 0.64323, 0.0001, 455, 246, 40.1326, 0.169863, 1.11175, 13608
-3124.66, 101133, -225.242, 3.13916, -663.61, 0.147687, 0.32448, 0.9175, 0.352806, 0.64323, 3, 455, 246, 40.1326, 0.169863, 1.1156, 13608
-26390.8, 619658, -432.95, 2.50886, -1075.79, -0.0217216, 0.551624, 1.03299, 0.34851, 0.655882, 3, 45.5, 246, 45.8404, 0.175891, 1.30801, 13609
-18006.1, 643036, -494.133, 2.71197, -1106.39, 0.00817658, 0.56439, 0.993198, 0.349787, 0.651995, 0.0001, 91, 246, 45.8404, 0.175891, 1.02571, 13609
-7815.46, 670487, -564.75, 2.94373, -1150.27, 0.0433465, 0.58969, 0.958125, 0.351078, 0.648177, 0.0001, 182, 246, 45.8404, 0.175891, 1.13234, 13609
-26990.2, 614813, -174.953, 3.52132, -945.26, 0.00035526, 0.176946, 0.993198, 0.349787, 0.651995, 0.0001, 91, 246, 27.7133, 0.0622243, 1.90043, 13610
-26990.2, 614813, -174.953, 3.52132, -945.26, 0.00035526, 0.176946, 0.993198, 0.349787, 0.651995, 3, 91, 246, 27.7133, 0.0622243, 1.90161, 13610
-6169.43, 19950.6, -95.1286, 3.7417, -626.37, 0.0111868, 0.199453, 0.993198, 0.349787, 0.651995, 0.0001, 91, 246, 29.6517, 0.0438013, 1.80751, 13613
-16491.7, 682811, -455.492, 1.24238, -1127.66, 0.142662, 0.618906, 1.03299, 0.34851, 0.655882, 3, 45.5, 246, 45.0717, 0.170926, 1.28782, 13614
-23800.3, 875189, -387.896, 1.21627, -722.372, -0.00263383, 0.493571, 1.03299, 0.34851, 0.655882, 3, 45.5, 246, 31.521, 0.116898, 1.34346, 13615
-15952.5, 642106, -110.008, 0.938041, -880.887, 0.0777952, 0.345582, 1.03299, 0.34851, 0.655882, 3, 45.5, 246, 23.994, 0.0459677, 1.48012, 13616
-37304, 764163, -357.274, 2.50603, -658.808, 0.160538, 0.384596, 1.03299, 0.34851, 0.655882, 0.0001, 45.5, 246, 30.7542, 0.116893, 1.44017, 13618
-37304, 764163, -357.274, 2.50603, -658.808, 0.160538, 0.384596, 1.03299, 0.34851, 0.655882, 3, 45.5, 246, 30.7542, 0.116893, 1.43653, 13618
-28106.6, 780531, -400.792, 2.72304, -703.972, 0.195499, 0.382635, 0.993198, 0.349787, 0.651995, 0.0001, 91, 246, 30.7542, 0.116893, 1.1236, 13618
-28106.6, 780531, -400.792, 2.72304, -703.972, 0.195499, 0.382635, 0.993198, 0.349787, 0.651995, 3, 91, 246, 30.7542, 0.116893, 1.56065, 13618
-13519.6, 277140, -91.3488, 1.75103, -881.846, 0.397063, 0.319087, 1.03299, 0.34851, 0.655882, 3, 45.5, 246, 24.3553, 0.0766363, 1.53385, 13620
-16527.9, 354469, -80.7117, 1.88918, -923.638, 0.474027, 0.298473, 1.03299, 0.34851, 0.655882, 3, 45.5, 246, 23.7687, 0.0573517, 1.54516, 13621
-15493.2, 252877, -204.92, 3.33577, -743.416, -0.052586, 0.256678, 1.03299, 0.34851, 0.655882, 0.0001, 45.5, 246, 34.874, 0.142623, 1.49693, 13624
-15493.2, 252877, -204.92, 3.33577, -743.416, -0.052586, 0.256678, 1.03299, 0.34851, 0.655882, 3, 45.5, 246, 34.874, 0.142623, 1.4997, 13624
-11446.1, 262496, -247.207, 3.62926, -760.951, 0.000710775, 0.269486, 0.993198, 0.349787, 0.651995, 0.0001, 91, 246, 34.874, 0.142623, 1.41464, 13624
-36368.6, 865906, -255.843, 2.08399, -773.759, 0.470337, 0.327918, 1.03299, 0.34851, 0.655882, 3, 45.5, 246, 27.6779, 0.073061, 1.48155, 13625
-28114.6, 900792, -288.935, 2.28199, -853.55, 0.530684, 0.312288, 0.993198, 0.349787, 0.651995, 3, 91, 246, 27.6779, 0.073061, 1.62741, 13625
-16369.8, 502712, -490.235, 2.46479, -699.985, 0.397026, 0.603756, 0.993198, 0.349787, 0.651995, 0.0001, 91, 246, 40.8892, 0.203441, 1.10123, 13626
-16369.8, 502712, -490.235, 2.46479, -699.985, 0.397026, 0.603756, 0.993198, 0.349787, 0.651995, 3, 91, 246, 40.8892, 0.203441, 1.38885, 13626
-13304.5, 242065, -261.877, 3.05464, -698.762, -0.0421617, 0.356131, 1.03299, 0.34851, 0.655882, 0.0001, 45.5, 246, 41.2619, 0.189202, 1.1378, 13627
-13304.5, 242065, -261.877, 3.05464, -698.762, -0.0421617, 0.356131, 1.03299, 0.34851, 0.655882, 3, 45.5, 246, 41.2619, 0.189202, 1.5773, 13627
-9467.59, 251389, -305.209, 3.31582, -720.224, 0.00240081, 0.366999, 0.993198, 0.349787, 0.651995, 0.0001, 91, 246, 41.2619, 0.189202, 1.5359, 13627
-9467.59, 251389, -305.209, 3.31582, -720.224, 0.00240081, 0.366999, 0.993198, 0.349787, 0.651995, 3, 91, 246, 41.2619, 0.189202, 1.52852, 13627
-4789.35, 262758, -356.224, 3.6215, -753.647, 0.0552762, 0.393791, 0.958125, 0.351078, 0.648177, 0.0001, 182, 246, 41.2619, 0.189202, 1.19404, 13627
-4789.35, 262758, -356.224, 3.6215, -753.647, 0.0552762, 0.393791, 0.958125, 0.351078, 0.648177, 3, 182, 246, 41.2619, 0.189202, 1.19724, 13627
-9745.5, 341460, -259.945, 0.706365, -856.864, 0.63363, 0.509581, 1.03299, 0.34851, 0.655882, 3, 45.5, 246, 36.6756, 0.179904, 1.38447, 13628
-3564.19, 81983.8, -238.182, 5.43242, -1455.93, 1.37959, 0.344077, 0.9175, 0.352806, 0.64323, 0.0001, 455, 246, 30.8618, 0.0426027, 1.00165, 13632
-3564.19, 81983.8, -238.182, 5.43242, -1455.93, 1.37959, 0.344077, 0.9175, 0.352806, 0.64323, 3, 455, 246, 30.8618, 0.0426027, 1.0041, 13632
-12903.8, 287173, -238.652, 1.80359, -649.048, -0.0150825, 0.450143, 1.03299, 0.34851, 0.655882, 3, 45.5, 246, 35.879, 0.184856, 1.43591, 13633
-14419.7, 400089, -251.781, 1.43653, -751.567, 0.445272, 0.444163, 1.03299, 0.34851, 0.655882, 3, 45.5, 246, 32.662, 0.144248, 1.43098, 13634
-25294.8, 530720, -258.7, 2.638, -1071.93, 0.242143, 0.35579, 1.03299, 0.34851, 0.655882, 3, 45.5, 246, 37.1022, 0.116977, 1.48329, 13636
-18592.7, 560026, -306.754, 2.88472, -1138.46, 0.286566, 0.355181, 0.993198, 0.349787, 0.651995, 3, 91, 246, 37.1022, 0.116977, 1.60924, 13636
-16131.4, 793520, -202.055, 0.909363, -1083.78, 0.00101712, 0.381109, 1.03299, 0.34851, 0.655882, 3, 45.5, 246, 31.9761, 0.0677851, 1.44509, 13637
-20181, 648932, -220.19, 1.53972, -996.844, 0.00178614, 0.380303, 1.03299, 0.34851, 0.655882, 3, 45.5, 246, 32.0604, 0.0897316, 1.44529, 13638
-32851.4, 835672, -190.332, 1.99207, -891.147, 0.212882, 0.311434, 1.03299, 0.34851, 0.655882, 3, 45.5, 246, 28.131, 0.060748, 1.49218, 13639
-29695.2, 619081, -265.864, 3.84016, -692.756, 0.477216, 0.183939, 0.993198, 0.349787, 0.651995, 0.0001, 91, 246, 25.5992, 0.0839756, 1.8905, 13640
-29695.2, 619081, -265.864, 3.84016, -692.756, 0.477216, 0.183939, 0.993198, 0.349787, 0.651995, 3, 91, 246, 25.5992, 0.0839756, 1.57257, 13640
-14916.1, 532849, -214.624, 1.17403, -991.993, 0.583386, 0.397204, 1.03299, 0.34851, 0.655882, 3, 45.5, 246, 31.7396, 0.0948574, 1.45596, 13641
-19122.7, 703052, -294.328, 1.13999, -750.303, 0.515214, 0.431275, 1.03299, 0.34851, 0.655882, 3, 45.5, 246, 29.141, 0.0995207, 1.41204, 13643
-26504.3, 918416, -492.395, 2.51048, -1067.7, 0.128655, 0.468113, 0.993198, 0.349787, 0.651995, 0.0001, 91, 246, 40.4534, 0.129037, 1.03363, 13644
-26504.3, 918416, -492.395, 2.51048, -1067.7, 0.128655, 0.468113, 0.993198, 0.349787, 0.651995, 3, 91, 246, 40.4534, 0.129037, 1.45493, 13644
-8926.3, 606368, -438.841, 0.0530712, -679.09, 0.698824, 0.613472, 1.03299, 0.34851, 0.655882, 3, 45.5, 246, 34.6228, 0.168851, 1.3417, 13645
-31533.9, 818446, -420.857, 1.92952, -767.091, 0.0997899, 0.493842, 1.03299, 0.34851, 0.655882, 3, 45.5, 246, 34.8864, 0.132592, 1.34465, 13646
-23402.6, 836493, -463.716, 2.07263, -803.941, 0.119246, 0.488255, 0.993198, 0.349787, 0.651995, 3, 91, 246, 34.8864, 0.132592, 1.43532, 13646
-19844.6, 514416, -102.146, 1.79762, -1054.53, -0.0131061, 0.31011, 1.03299, 0.34851, 0.655882, 3, 45.5, 246, 27.2905, 0.0563007, 1.51488, 13649
-15570.8, 369908, -369.063, 2.19541, -825.866, 0.027539, 0.575733, 1.03299, 0.34851, 0.655882, 3, 45.5, 246, 45.9885, 0.227468, 1.35235, 13651
-10888.2, 385217, -414.445, 2.36655, -854.524, 0.0506011, 0.583515, 0.993198, 0.349787, 0.651995, 0.0001, 91, 246, 45.9885, 0.227468, 1.1456, 13651
-15882.4, 297614, -292.928, 2.72206, -659.859, 0.463772, 0.399016, 1.03299, 0.34851, 0.655882, 3, 45.5, 246, 38.8032, 0.180818, 1.51541, 13652
-11554.8, 315268, -335.177, 3.02345, -738.757, 0.539499, 0.404606, 0.993198, 0.349787, 0.651995, 0.0001, 91, 246, 38.8032, 0.180818, 1.40497, 13652
-11554.8, 315268, -335.177, 3.02345, -738.757, 0.539499, 0.404606, 0.993198, 0.349787, 0.651995, 3, 91, 246, 38.8032, 0.180818, 1.64732, 13652
-7919.03, 33701.6, -52.8432, 2.27619, -624.558, 0.820511, 0.280121, 1.03299, 0.34851, 0.655882, 0.0001, 45.5, 246, 25.2222, 0.0790975, 1.28899, 13653
-7919.03, 33701.6, -52.8432, 2.27619, -624.558, 0.820511, 0.280121, 1.03299, 0.34851, 0.655882, 3, 45.5, 246, 25.2222, 0.0790975, 1.29133, 13653
-8990.11, 153024, -163.079, 3.86164, -703.202, -0.000190063, 0.198034, 0.993198, 0.349787, 0.651995, 0.0001, 91, 246, 30.0259, 0.109733, 1.70549, 13654
-8990.11, 153024, -163.079, 3.86164, -703.202, -0.000190063, 0.198034, 0.993198, 0.349787, 0.651995, 3, 91, 246, 30.0259, 0.109733, 2.01266, 13654
-998.936, 178002, -277.424, 4.89579, -785.541, 0.196319, 0.318402, 0.9175, 0.352806, 0.64323, 0.0001, 455, 246, 30.0259, 0.109733, 1.22693, 13654
-998.936, 178002, -277.424, 4.89579, -785.541, 0.196319, 0.318402, 0.9175, 0.352806, 0.64323, 3, 455, 246, 30.0259, 0.109733, 1.23817, 13654
-18916.8, 545382, -107.222, 1.50812, -868.161, -0.00519232, 0.325273, 1.03299, 0.34851, 0.655882, 3, 45.5, 246, 23.9997, 0.0539563, 1.49618, 13655
-27078, 604035, -2.88604, 2.99355, -759.7, -0.00010883, 0.179484, 0.993198, 0.349787, 0.651995, 3, 91, 246, 15.968, 0.00428187, 1.86562, 13656
-12825.7, 218520, -113.439, 2.32941, -880.322, 0.121803, 0.301709, 1.03299, 0.34851, 0.655882, 3, 45.5, 246, 28.1628, 0.106355, 1.57825, 13657
-7804.72, 251089, -173.099, 2.71517, -942.788, 0.184779, 0.287091, 0.958125, 0.351078, 0.648177, 0.0001, 182, 246, 28.1628, 0.106355, 1.07274, 13657
-15845.7, 338873, -86.2267, 1.93958, -954.553, 0.130489, 0.302497, 1.03299, 0.34851, 0.655882, 3, 45.5, 246, 24.7581, 0.0658862, 1.54416, 13658
-11694.5, 226500, -129.115, 1.68048, -777.221, 0.468425, 0.353216, 1.03299, 0.34851, 0.655882, 3, 45.5, 246, 27.8764, 0.118256, 1.51452, 13659
-24555.2, 837202, -360.34, 1.31003, -798.968, 0.655852, 0.454055, 1.03299, 0.34851, 0.655882, 3, 45.5, 246, 31.3413, 0.0999418, 1.38415, 13660
-7495.55, -23.436, -24.5585, 3.47063, -688.927, 0.178372, 0.21675, 0.993198, 0.349787, 0.651995, 0.0001, 91, 246, 12.6508, 0.0343476, 1.72356, 13661
-7495.55, -23.436, -24.5585, 3.47063, -688.927, 0.178372, 0.21675, 0.993198, 0.349787, 0.651995, 3, 91, 246, 12.6508, 0.0343476, 1.72153, 13661
-36295.6, 815770, -341.854, 2.42281, -859.606, -0.0278078, 0.384228, 1.03299, 0.34851, 0.655882, 0.0001, 45.5, 246, 34.2392, 0.111464, 1.43319, 13663
-36295.6, 815770, -341.854, 2.42281, -859.606, -0.0278078, 0.384228, 1.03299, 0.34851, 0.655882, 3, 45.5, 246, 34.2392, 0.111464, 1.43422, 13663
-26951.6, 829376, -387.203, 2.60141, -881.743, -8.82686e-05, 0.379863, 0.993198, 0.349787, 0.651995, 0.0001, 91, 246, 34.2392, 0.111464, 1.00622, 13663
-26951.6, 829376, -387.203, 2.60141, -881.743, -8.82686e-05, 0.379863, 0.993198, 0.349787, 0.651995, 3, 91, 246, 34.2392, 0.111464, 1.5491, 13663
-28786.6, 768914, -106.821, 2.78409, -1166.15, 0.177364, 0.208847, 0.993198, 0.349787, 0.651995, 3, 91, 246, 28.6648, 0.0341864, 1.79218, 13664
-17076.3, 431083, -254.781, 3.4882, -994.783, 0.0202555, 0.262779, 0.993198, 0.349787, 0.651995, 0.0001, 91, 246, 34.2958, 0.114655, 1.37669, 13669
-17076.3, 431083, -254.781, 3.4882, -994.783, 0.0202555, 0.262779, 0.993198, 0.349787, 0.651995, 3, 91, 246, 34.2958, 0.114655, 1.25626, 13669
-11718.3, 152331, 9.01864, 1.81394, -561.764, 0.428402, 0.288627, 1.03299, 0.34851, 0.655882, 3, 45.5, 246, 8.03647, 0.0075697, 1.57822, 13670
-29512.2, 453889, -367.359, 3.44543, -565.555, 0.621863, 0.30977, 1.03299, 0.34851, 0.655882, 0.0001, 45.5, 246, 34.8154, 0.151943, 1.53842, 13671
-29512.2, 453889, -367.359, 3.44543, -565.555, 0.621863, 0.30977, 1.03299, 0.34851, 0.655882, 3, 45.5, 246, 34.8154, 0.151943, 1.55732, 13671
-21315.9, 478448, -422.929, 3.91069, -670.449, 0.755404, 0.332393, 0.993198, 0.349787, 0.651995, 0.0001, 91, 246, 34.8154, 0.151943, 1.12218, 13671
-21315.9, 478448, -422.929, 3.91069, -670.449, 0.755404, 0.332393, 0.993198, 0.349787, 0.651995, 3, 91, 246, 34.8154, 0.151943, 1.68534, 13671
-10765.6, 512634, -495.619, 4.51385, -820.351, 0.946108, 0.382249, 0.958125, 0.351078, 0.648177, 0.0001, 182, 246, 34.8154, 0.151943, 1.12288, 13671
-10765.6, 512634, -495.619, 4.51385, -820.351, 0.946108, 0.382249, 0.958125, 0.351078, 0.648177, 3, 182, 246, 34.8154, 0.151943, 1.82523, 13671
-22188.5, 835592, -269.73, 1.15125, -639.934, 0.0150761, 0.407199, 1.03299, 0.34851, 0.655882, 3, 45.5, 246, 25.3582, 0.0848679, 1.41471, 13672
-16111.4, 520932, -282.909, 1.2827, -782.918, 0.454295, 0.452312, 1.03299, 0.34851, 0.655882, 3, 45.5, 246, 32.1194, 0.128335, 1.40431, 13673
-20395.1, 557093, -441.174, 1.77474, -803.012, -0.0148357, 0.628211, 1.03299, 0.34851, 0.655882, 3, 45.5, 246, 42.4761, 0.199817, 1.2706, 13675
-10149.8, 291139, -271.823, 1.04812, -885.146, 0.383459, 0.552394, 1.03299, 0.34851, 0.655882, 3, 45.5, 246, 41.977, 0.224273, 1.36874, 13676
-16870.6, 449992, -392.725, 1.64351, -752.163, 0.475103, 0.589264, 1.03299, 0.34851, 0.655882, 3, 45.5, 246, 40.786, 0.198745, 1.3317, 13678
-12383, 475727, -430.771, 1.79791, -833.45, 0.527706, 0.588106, 0.993198, 0.349787, 0.651995, 3, 91, 246, 40.786, 0.198745, 1.42705, 13678
-8191.41, 54999, -61.9301, 2.57949, -1147.72, -0.0206679, 0.2838, 1.03299, 0.34851, 0.655882, 0.0001, 45.5, 246, 30.2177, 0.120084, 1.19395, 13679
-22572.3, 432833, -133.626, 2.48539, -673.765, 0.234597, 0.268567, 1.03299, 0.34851, 0.655882, 0.0001, 45.5, 246, 22.9213, 0.0723612, 1.58223, 13680
-22572.3, 432833, -133.626, 2.48539, -673.765, 0.234597, 0.268567, 1.03299, 0.34851, 0.655882, 3, 45.5, 246, 22.9213, 0.0723612, 1.58093, 13680
-8061.23, 107372, -142.592, 2.69975, -927.827, 0.133445, 0.310833, 1.03299, 0.34851, 0.655882, 3, 45.5, 246, 40.0241, 0.17201, 1.64631, 13681
-812.806, 172501, -289.336, 3.64077, -1095.58, 0.300956, 0.356237, 0.9175, 0.352806, 0.64323, 0.0001, 455, 246, 40.0241, 0.17201, 1.7009, 13681
-812.806, 172501, -289.336, 3.64077, -1095.58, 0.300956, 0.356237, 0.9175, 0.352806, 0.64323, 3, 455, 246, 40.0241, 0.17201, 1.70644, 13681
-28640.6, 613666, -304.216, 2.69994, -1056.18, 0.10626, 0.362839, 1.03299, 0.34851, 0.655882, 0.0001, 45.5, 246, 38.5164, 0.123945, 1.47437, 13686
-28640.6, 613666, -304.216, 2.69994, -1056.18, 0.10626, 0.362839, 1.03299, 0.34851, 0.655882, 3, 45.5, 246, 38.5164, 0.123945, 1.47562, 13686
-20627.8, 638860, -356.148, 2.93439, -1101.82, 0.143512, 0.364188, 0.993198, 0.349787, 0.651995, 0.0001, 91, 246, 38.5164, 0.123945, 1.15109, 13686
-20627.8, 638860, -356.148, 2.93439, -1101.82, 0.143512, 0.364188, 0.993198, 0.349787, 0.651995, 3, 91, 246, 38.5164, 0.123945, 1.3079, 13686
-19957.6, 502571, -159.601, 2.05666, -1188.09, 0.000762183, 0.326741, 1.03299, 0.34851, 0.655882, 3, 45.5, 246, 33.2108, 0.0845324, 1.51174, 13687
-32563.2, 691063, -434.657, 2.04745, -502.734, 0.813028, 0.48178, 1.03299, 0.34851, 0.655882, 0.0001, 45.5, 246, 29.7111, 0.135168, 1.37411, 13689
-32563.2, 691063, -434.657, 2.04745, -502.734, 0.813028, 0.48178, 1.03299, 0.34851, 0.655882, 3, 45.5, 246, 29.7111, 0.135168, 1.37791, 13689
-24857.1, 731968, -476.315, 2.29664, -605.715, 0.956627, 0.478308, 0.993198, 0.349787, 0.651995, 0.0001, 91, 246, 29.7111, 0.135168, 1.09774, 13689
-24857.1, 731968, -476.315, 2.29664, -605.715, 0.956627, 0.478308, 0.993198, 0.349787, 0.651995, 3, 91, 246, 29.7111, 0.135168, 1.46867, 13689
-17144.3, 872375, -257.206, 0.786713, -811.166, 0.36084, 0.402056, 1.03299, 0.34851, 0.655882, 3, 45.5, 246, 27.7748, 0.0726673, 1.42957, 13691
-24450.4, 721029, -371.476, 1.62562, -748.566, 0.0132308, 0.491425, 1.03299, 0.34851, 0.655882, 3, 45.5, 246, 33.6695, 0.13339, 1.35002, 13692
-9983.7, 140005, -114.608, 1.98624, -699.898, 0.473467, 0.33313, 1.03299, 0.34851, 0.655882, 0.0001, 45.5, 246, 29.4606, 0.134942, 1.35431, 13693
-4221.93, 197805, -204.575, 2.73043, -989.772, 0.73723, 0.313039, 0.9175, 0.352806, 0.64323, 3, 455, 246, 29.4606, 0.134942, 1.08689, 13693
-4881.76, 55375.3, -148.436, 3.96114, -984.557, 0.559048, 0.198218, 0.993198, 0.349787, 0.651995, 0.0001, 91, 246, 38.5463, 0.0956459, 2.08193, 13695
-4881.76, 55375.3, -148.436, 3.96114, -984.557, 0.559048, 0.198218, 0.993198, 0.349787, 0.651995, 3, 91, 246, 38.5463, 0.0956459, 2.08216, 13695
-3482.97, 76871.4, -203.885, 4.50504, -1107.26, 0.699412, 0.240387, 0.958125, 0.351078, 0.648177, 0.0001, 182, 246, 38.5463, 0.0956459, 1.25246, 13695
-3482.97, 76871.4, -203.885, 4.50504, -1107.26, 0.699412, 0.240387, 0.958125, 0.351078, 0.648177, 3, 182, 246, 38.5463, 0.0956459, 1.25456, 13695
11.1978, 118701, -311.542, 5.51347, -1365.25, 0.989167, 0.350013, 0.9175, 0.352806, 0.64323, 0.0001, 455, 246, 38.5463, 0.0956459, 2.39085, 13695
11.1978, 118701, -311.542, 5.51347, -1365.25, 0.989167, 0.350013, 0.9175, 0.352806, 0.64323, 3, 455, 246, 38.5463, 0.0956459, 2.39225, 13695
-10537.6, 292624, -280.353, 0.700934, -552.695, 0.588308, 0.565482, 1.03299, 0.34851, 0.655882, 3, 45.5, 246, 37.0423, 0.224205, 1.35163, 13696
-4802.74, 69166.3, -174.458, 2.97077, -693.449, 0.423004, 0.271396, 1.03299, 0.34851, 0.655882, 0.0001, 45.5, 246, 49.4175, 0.170755, 1.80117, 13699
-4802.74, 69166.3, -174.458, 2.97077, -693.449, 0.423004, 0.271396, 1.03299, 0.34851, 0.655882, 3, 45.5, 246, 49.4175, 0.170755, 1.58208, 13699
-3558.04, 80659.7, -209.721, 3.29656, -762.058, 0.499462, 0.274706, 0.993198, 0.349787, 0.651995, 0.0001, 91, 246, 49.4175, 0.170755, 2.034, 13699
-3558.04, 80659.7, -209.721, 3.29656, -762.058, 0.499462, 0.274706, 0.993198, 0.349787, 0.651995, 3, 91, 246, 49.4175, 0.170755, 2.00315, 13699
-1807.91, 95366.6, -253.965, 3.69256, -853.099, 0.600405, 0.295872, 0.958125, 0.351078, 0.648177, 0.0001, 182, 246, 49.4175, 0.170755, 1.71991, 13699
-1807.91, 95366.6, -253.965, 3.69256, -853.099, 0.600405, 0.295872, 0.958125, 0.351078, 0.648177, 3, 182, 246, 49.4175, 0.170755, 1.72275, 13699
-26761.9, 624733, -26.8744, 1.94102, -709.645, 0.00903862, 0.275509, 1.03299, 0.34851, 0.655882, 3, 45.5, 246, 16.9269, 0.0169931, 1.53406, 13701
-6001.26, -41235.9, 4.65482, 3.51632, -731.694, 0.490181, 0.185143, 1.03299, 0.34851, 0.655882, 3, 45.5, 246, 12.1955, 0.0261048, 2.0714, 13702
-6749.44, -32475, -21.0041, 3.95171, -797.802, 0.597627, 0.201649, 0.993198, 0.349787, 0.651995, 3, 91, 246, 12.1955, 0.0261048, 1.86471, 13702
-21142.4, 844313, -410.643, 1.12029, -826.487, 0.124468, 0.520099, 1.03299, 0.34851, 0.655882, 3, 45.5, 246, 34.6554, 0.125378, 1.3159, 13703
-20905.7, 387318, -375.933, 3.28828, -961.085, 0.53228, 0.422571, 1.03299, 0.34851, 0.655882, 0.0001, 45.5, 246, 46.0713, 0.188837, 1.47905, 13704
-20905.7, 387318, -375.933, 3.28828, -961.085, 0.53228, 0.422571, 1.03299, 0.34851, 0.655882, 3, 45.5, 246, 46.0713, 0.188837, 1.47965, 13704
-13765.4, 420014, -444.394, 3.71206, -1093.31, 0.639802, 0.448238, 0.993198, 0.349787, 0.651995, 0.0001, 91, 246, 46.0713, 0.188837, 1.45301, 13704
-13765.4, 420014, -444.394, 3.71206, -1093.31, 0.639802, 0.448238, 0.993198, 0.349787, 0.651995, 3, 91, 246, 46.0713, 0.188837, 1.04168, 13704
-4247.85, 464561, -533.351, 4.2503, -1277.04, 0.789037, 0.498639, 0.958125, 0.351078, 0.648177, 0.0001, 182, 246, 46.0713, 0.188837, 1.4632, 13704
-4247.85, 464561, -533.351, 4.2503, -1277.04, 0.789037, 0.498639, 0.958125, 0.351078, 0.648177, 3, 182, 246, 46.0713, 0.188837, 1.46507, 13704
-13950.6, 331705, 4.53637, 1.25284, -1185.68, 0.0192272, 0.31519, 1.03299, 0.34851, 0.655882, 3, 45.5, 246, 20.0054, 0.0114234, 1.51991, 13705
-22326.8, 494877, -121.396, 3.14419, -638.684, 0.956993, 0.193886, 0.993198, 0.349787, 0.651995, 3, 91, 246, 17.6534, 0.0455324, 1.86737, 13706
-7291.72, 11344.4, -31.9822, 3.15077, -891.431, 0.189973, 0.216948, 1.03299, 0.34851, 0.655882, 3, 45.5, 246, 23.1756, 0.0605583, 1.76514, 13707
-13818.4, 672111, -299.977, 0.725362, -799.988, 0.572565, 0.451723, 1.03299, 0.34851, 0.655882, 3, 45.5, 246, 30.3393, 0.104954, 1.36486, 13708
-10465.3, 363530, -433.564, 3.29787, -970.458, 0.0550277, 0.520248, 0.993198, 0.349787, 0.651995, 0.0001, 91, 246, 49.2478, 0.224138, 1.55546, 13710
-10465.3, 363530, -433.564, 3.29787, -970.458, 0.0550277, 0.520248, 0.993198, 0.349787, 0.651995, 3, 91, 246, 49.2478, 0.224138, 1.57712, 13710
-3055.23, 386024, -506.419, 3.62668, -1025.98, 0.108607, 0.559603, 0.958125, 0.351078, 0.648177, 0.0001, 182, 246, 49.2478, 0.224138, 1.51964, 13710
-3055.23, 386024, -506.419, 3.62668, -1025.98, 0.108607, 0.559603, 0.958125, 0.351078, 0.648177, 3, 182, 246, 49.2478, 0.224138, 1.52178, 13710
-8697.84, 77472.9, -71.3837, 2.40768, -1134.43, 0.181875, 0.297576, 1.03299, 0.34851, 0.655882, 3, 45.5, 246, 30.4994, 0.125216, 1.61219, 13712
-20519.6, 485368, -72.9042, 1.90475, -989.274, 0.131894, 0.291284, 1.03299, 0.34851, 0.655882, 3, 45.5, 246, 24.436, 0.0442305, 1.53568, 13713
-16810.6, 390096, -68.6605, 1.83729, -1109.77, -0.0153254, 0.301231, 1.03299, 0.34851, 0.655882, 3, 45.5, 246, 25.7351, 0.0523247, 1.53567, 13715
-14867.7, 424025, -66.2686, 1.32387, -1151.8, 0.0147534, 0.325601, 1.03299, 0.34851, 0.655882, 3, 45.5, 246, 25.9074, 0.0459843, 1.50604, 13716
-15356.4, 260534, -83.7506, 2.38293, -902.467, 0.704384, 0.265889, 1.03299, 0.34851, 0.655882, 3, 45.5, 246, 24.4751, 0.069667, 1.6088, 13717
-8050.87, 11202.2, -2.66752, 3.17591, -1068.78, 0.408655, 0.233409, 0.993198, 0.349787, 0.651995, 0.0001, 91, 246, 8.68181, 0.0479502, 1.11418, 13718
-8050.87, 11202.2, -2.66752, 3.17591, -1068.78, 0.408655, 0.233409, 0.993198, 0.349787, 0.651995, 3, 91, 246, 8.68181, 0.0479502, 1.37899, 13718
-24861.5, 693136, -113.395, 1.5836, -614.413, 0.246408, 0.31433, 1.03299, 0.34851, 0.655882, 3, 45.5, 246, 18.9432, 0.0426793, 1.49191, 13719
-6728.4, 10578.9, -69.361, 3.5707, -737.765, 0.0298192, 0.214827, 0.993198, 0.349787, 0.651995, 0.0001, 91, 246, 25.4594, 0.0370111, 1.79061, 13720
-6728.4, 10578.9, -69.361, 3.5707, -737.765, 0.0298192, 0.214827, 0.993198, 0.349787, 0.651995, 3, 91, 246, 25.4594, 0.0370111, 1.25693, 13720
-13796.7, 607011, -335.591, 0.823524, -775.874, -0.00100387, 0.513966, 1.03299, 0.34851, 0.655882, 3, 45.5, 246, 33.8009, 0.143991, 1.3702, 13721
-22965.7, 728503, -418.691, 1.75174, -1102.94, 0.0513635, 0.541498, 1.03299, 0.34851, 0.655882, 3, 45.5, 246, 42.8541, 0.14929, 1.31578, 13722
-12556.9, 183293, -109.148, 2.51729, -665.177, 0.623916, 0.271757, 1.03299, 0.34851, 0.655882, 3, 45.5, 246, 25.1505, 0.0971449, 1.37274, 13728
-28972.4, 527683, -418.242, 3.09453, -808.203, 0.339879, 0.442287, 1.03299, 0.34851, 0.655882, 0.0001, 45.5, 246, 41.5278, 0.173687, 1.4204, 13731
-28972.4, 527683, -418.242, 3.09453, -808.203, 0.339879, 0.442287, 1.03299, 0.34851, 0.655882, 3, 45.5, 246, 41.5278, 0.173687, 1.43012, 13731
-10778.4, 563136, -331.459, 0.671214, -998.034, 0.548716, 0.510328, 1.03299, 0.34851, 0.655882, 3, 45.5, 246, 37.2685, 0.140078, 1.40664, 13732
-30041.5, 661837, -63.5469, 1.99651, -646.803, 0.810192, 0.265375, 1.03299, 0.34851, 0.655882, 0.0001, 45.5, 246, 17.5724, 0.0250798, 1.54506, 13733
-30041.5, 661837, -63.5469, 1.99651, -646.803, 0.810192, 0.265375, 1.03299, 0.34851, 0.655882, 3, 45.5, 246, 17.5724, 0.0250798, 1.54506, 13733
-17222, 522778, -212.537, 1.39512, -801.147, 0.493023, 0.386263, 1.03299, 0.34851, 0.655882, 3, 45.5, 246, 28.4416, 0.095925, 1.45467, 13734
-9617.85, 76970.4, -38.3543, 2.94233, -965.346, 0.775806, 0.218653, 1.03299, 0.34851, 0.655882, 3, 45.5, 246, 22.5776, 0.0710132, 1.73514, 13736
-18029.7, 944502, -153.248, 0.830957, -1132.09, 0.140414, 0.354958, 1.03299, 0.34851, 0.655882, 3, 45.5, 246, 31.2759, 0.0430671, 1.45968, 13740
-28571.8, 680511, -381.947, 3.7463, -952.112, 0.352977, 0.281868, 0.993198, 0.349787, 0.651995, 0.0001, 91, 246, 35.3854, 0.116666, 1.7176, 13741
-28571.8, 680511, -381.947, 3.7463, -952.112, 0.352977, 0.281868, 0.993198, 0.349787, 0.651995, 3, 91, 246, 35.3854, 0.116666, 1.7205, 13741
-8726.03, 549235, -442.259, 0.334801, -987.52, 0.441851, 0.669589, 1.03299, 0.34851, 0.655882, 3, 45.5, 246, 43.5269, 0.200109, 1.33557, 13742
-15768.9, 253328, -10.4672, 2.33954, -712.713, 0.0796126, 0.250685, 1.03299, 0.34851, 0.655882, 0.0001, 45.5, 246, 14.1114, 0.0234711, 1.01215, 13743
-15768.9, 253328, -10.4672, 2.33954, -712.713, 0.0796126, 0.250685, 1.03299, 0.34851, 0.655882, 3, 45.5, 246, 14.1114, 0.0234711, 1.6196, 13743
-19077.7, 431923, -429.582, 2.58693, -949.497, 0.198982, 0.594117, 1.03299, 0.34851, 0.655882, 3, 45.5, 246, 48.9757, 0.223357, 1.33538, 13745
-12477.6, 456902, -490.235, 2.8382, -1016.16, 0.23877, 0.613668, 0.993198, 0.349787, 0.651995, 0.0001, 91, 246, 48.9757, 0.223357, 1.15358, 13745
-12477.6, 456902, -490.235, 2.8382, -1016.16, 0.23877, 0.613668, 0.993198, 0.349787, 0.651995, 3, 91, 246, 48.9757, 0.223357, 1.0943, 13745
-8830.17, 280054, -253.713, 0.202636, -633.763, 0.673124, 0.558225, 1.03299, 0.34851, 0.655882, 3, 45.5, 246, 36.6474, 0.227385, 1.34853, 13746
-30899.4, 613619, -225.559, 2.75182, -875.109, 0.0283244, 0.28543, 1.03299, 0.34851, 0.655882, 0.0001, 45.5, 246, 30.9893, 0.093824, 1.5507, 13747
-30899.4, 613619, -225.559, 2.75182, -875.109, 0.0283244, 0.28543, 1.03299, 0.34851, 0.655882, 3, 45.5, 246, 30.9893, 0.093824, 1.05223, 13747
-23257.5, 628630, -266.36, 2.97465, -900.076, 0.0646199, 0.282401, 0.993198, 0.349787, 0.651995, 0.0001, 91, 246, 30.9893, 0.093824, 1.1993, 13747
-23257.5, 628630, -266.36, 2.97465, -900.076, 0.0646199, 0.282401, 0.993198, 0.349787, 0.651995, 3, 91, 246, 30.9893, 0.093824, 1.70267, 13747
-18311.9, 386032, -61.3565, 3.08031, -757.603, 0.660877, 0.194201, 0.993198, 0.349787, 0.651995, 0.0001, 91, 246, 16.9181, 0.0310613, 1.23278, 13748
-20138.2, 422064, -249.181, 3.89745, -703.675, 0.723551, 0.194707, 0.993198, 0.349787, 0.651995, 0.0001, 91, 246, 26.9827, 0.0978657, 1.71387, 13751
-20138.2, 422064, -249.181, 3.89745, -703.675, 0.723551, 0.194707, 0.993198, 0.349787, 0.651995, 3, 91, 246, 26.9827, 0.0978657, 1.71386, 13751
-21627.2, 425759, -23.4149, 2.11957, -683.849, 0.526704, 0.259034, 1.03299, 0.34851, 0.655882, 3, 45.5, 246, 15.6892, 0.0201974, 1.57832, 13752
-11640.2, 122392, -8.82691, 2.53838, -814.29, 0.719011, 0.238983, 1.03299, 0.34851, 0.655882, 0.0001, 45.5, 246, 15.2252, 0.0360892, 1.2791, 13753
-11640.2, 122392, -8.82691, 2.53838, -814.29, 0.719011, 0.238983, 1.03299, 0.34851, 0.655882, 3, 45.5, 246, 15.2252, 0.0360892, 1.67025, 13753
-12905.1, 278804, -194.216, 2.24641, -1102.38, 0.0382545, 0.378573, 1.03299, 0.34851, 0.655882, 3, 45.5, 246, 37.9938, 0.153521, 1.5041, 13756
-15241.4, 510240, -114.81, 1.13356, -845.551, -0.00589602, 0.346761, 1.03299, 0.34851, 0.655882, 3, 45.5, 246, 23.8369, 0.0600459, 1.48183, 13757
-14573.4, 274924, -100.281, 2.18626, -912.956, 0.147854, 0.297525, 1.03299, 0.34851, 0.655882, 3, 45.5, 246, 26.035, 0.0844616, 1.56554, 13759
-18222, 341125, -352.827, 3.4378, -867.372, -0.00236652, 0.401057, 1.03299, 0.34851, 0.655882, 0.0001, 45.5, 246, 46.4535, 0.202501, 1.50464, 13762
-18222, 341125, -352.827, 3.4378, -867.372, -0.00236652, 0.401057, 1.03299, 0.34851, 0.655882, 3, 45.5, 246, 46.4535, 0.202501, 1.15756, 13762
-11848, 357008, -416.095, 3.77358, -907.353, 0.0547306, 0.428433, 0.993198, 0.349787, 0.651995, 0.0001, 91, 246, 46.4535, 0.202501, 1.11006, 13762
-11848, 357008, -416.095, 3.77358, -907.353, 0.0547306, 0.428433, 0.993198, 0.349787, 0.651995, 3, 91, 246, 46.4535, 0.202501, 1.65197, 13762
-3871.94, 377164, -492.933, 4.17939, -967.963, 0.125265, 0.477163, 0.958125, 0.351078, 0.648177, 0.0001, 182, 246, 46.4535, 0.202501, 1.54882, 13762
-3871.94, 377164, -492.933, 4.17939, -967.963, 0.125265, 0.477163, 0.958125, 0.351078, 0.648177, 3, 182, 246, 46.4535, 0.202501, 2.01754, 13762
-26024.6, 633765, -160.607, 2.0099, -1009.32, 0.519485, 0.312494, 1.03299, 0.34851, 0.655882, 3, 45.5, 246, 29.5459, 0.0634431, 1.5047, 13763
-17420.4, 355525, -408.74, 3.05719, -818.906, -0.0283901, 0.539251, 1.03299, 0.34851, 0.655882, 3, 45.5, 246, 50.0615, 0.237529, 1.39097, 13764
-11104.6, 370253, -470.996, 3.33848, -855.024, 0.0164563, 0.566429, 0.993198, 0.349787, 0.651995, 0.0001, 91, 246, 50.0615, 0.237529, 1.50819, 13764
-11104.6, 370253, -470.996, 3.33848, -855.024, 0.0164563, 0.566429, 0.993198, 0.349787, 0.651995, 3, 91, 246, 50.0615, 0.237529, 1.45764, 13764
-3248.01, 388777, -545.125, 3.67142, -907.764, 0.0705902, 0.611548, 0.958125, 0.351078, 0.648177, 0.0001, 182, 246, 50.0615, 0.237529, 1.57921, 13764
-3248.01, 388777, -545.125, 3.67142, -907.764, 0.0705902, 0.611548, 0.958125, 0.351078, 0.648177, 3, 182, 246, 50.0615, 0.237529, 1.95006, 13764
-15252.8, 294335, -300.704, 2.83116, -708.639, 0.0918473, 0.416684, 1.03299, 0.34851, 0.655882, 3, 45.5, 246, 41.7643, 0.196875, 1.49918, 13765
-10819.6, 306523, -345.622, 3.08725, -746.586, 0.132211, 0.426054, 0.993198, 0.349787, 0.651995, 0.0001, 91, 246, 41.7643, 0.196875, 1.10462, 13765
-10819.6, 306523, -345.622, 3.08725, -746.586, 0.132211, 0.426054, 0.993198, 0.349787, 0.651995, 3, 91, 246, 41.7643, 0.196875, 1.62822, 13765
-5378.31, 321504, -398.781, 3.38607, -797.295, 0.181997, 0.450358, 0.958125, 0.351078, 0.648177, 0.0001, 182, 246, 41.7643, 0.196875, 1.03052, 13765
-5378.31, 321504, -398.781, 3.38607, -797.295, 0.181997, 0.450358, 0.958125, 0.351078, 0.648177, 3, 182, 246, 41.7643, 0.196875, 1.0358, 13765
-6643.5, 706965, -247.418, 0.204403, -975.3, 0.0200473, 0.389432, 0.993198, 0.349787, 0.651995, 3, 91, 246, 30.9916, 0.0885554, 1.203, 13766
-28685.5, 518456, -343.426, 3.12521, -792.882, 0.161851, 0.359327, 1.03299, 0.34851, 0.655882, 0.0001, 45.5, 246, 37.4773, 0.149438, 1.49496, 13767
-28685.5, 518456, -343.426, 3.12521, -792.882, 0.161851, 0.359327, 1.03299, 0.34851, 0.655882, 3, 45.5, 246, 37.4773, 0.149438, 1.4954, 13767
-8874.23, 846451, -400.35, 0.178036, -813.609, 0.592681, 0.503247, 1.03299, 0.34851, 0.655882, 3, 45.5, 246, 32.0366, 0.109701, 1.40082, 13768
-36908.2, 658021, -395.434, 3.03992, -695.418, 0.104212, 0.388583, 1.03299, 0.34851, 0.655882, 0.0001, 45.5, 246, 35.4599, 0.144454, 1.44181, 13770
-36908.2, 658021, -395.434, 3.03992, -695.418, 0.104212, 0.388583, 1.03299, 0.34851, 0.655882, 3, 45.5, 246, 35.4599, 0.144454, 1.4419, 13770
-12395.4, 360481, -226.904, 1.47011, -1057.32, 0.225028, 0.439882, 1.03299, 0.34851, 0.655882, 3, 45.5, 246, 37.1835, 0.150294, 1.4393, 13773
-10216.1, 509417, -346.236, 0.699072, -1033.26, 0.2612, 0.558357, 1.03299, 0.34851, 0.655882, 3, 45.5, 246, 40.5657, 0.170695, 1.35192, 13774
-23089.9, 644899, -159.577, 1.56312, -641.983, 0.441815, 0.333881, 1.03299, 0.34851, 0.655882, 3, 45.5, 246, 21.6766, 0.0602514, 1.48339, 13775
-9569.16, 69688.7, -28.0072, 3.08634, -788.12, -0.00534936, 0.209106, 1.03299, 0.34851, 0.655882, 3, 45.5, 246, 18.3702, 0.0575939, 1.75411, 13777
-22771.8, 502777, -384.507, 2.42897, -784.45, -0.0264291, 0.513836, 1.03299, 0.34851, 0.655882, 3, 45.5, 246, 40.6851, 0.183208, 1.35787, 13778
-16288.4, 515637, -433.029, 2.61805, -809.984, 0.00153237, 0.520917, 0.993198, 0.349787, 0.651995, 3, 91, 246, 40.6851, 0.183208, 1.27395, 13778
-13012.8, 412635, -425.435, 2.08479, -671.954, 0.981398, 0.564324, 0.993198, 0.349787, 0.651995, 0.0001, 91, 246, 38.5745, 0.201027, 1.1701, 13781
-13012.8, 412635, -425.435, 2.08479, -671.954, 0.981398, 0.564324, 0.993198, 0.349787, 0.651995, 3, 91, 246, 38.5745, 0.201027, 1.44099, 13781
-7375.11, 449976, -471.244, 2.36627, -825.289, 1.18725, 0.575592, 0.958125, 0.351078, 0.648177, 3, 182, 246, 38.5745, 0.201027, 1.34516, 13781
-18279.4, 422884, -336.096, 2.40797, -1019.5, 0.493352, 0.467162, 1.03299, 0.34851, 0.655882, 0.0001, 45.5, 246, 42.8452, 0.173673, 1.03171, 13782
-18279.4, 422884, -336.096, 2.40797, -1019.5, 0.493352, 0.467162, 1.03299, 0.34851, 0.655882, 3, 45.5, 246, 42.8452, 0.173673, 1.4288, 13782
-12716.1, 456984, -386.924, 2.66758, -1133.34, 0.565694, 0.470272, 0.993198, 0.349787, 0.651995, 0.0001, 91, 246, 42.8452, 0.173673, 1.20352, 13782
-6412.59, 58791, -126.397, 2.65145, -650.493, 0.533383, 0.277292, 1.03299, 0.34851, 0.655882, 0.0001, 45.5, 246, 40.6733, 0.141093, 1.71612, 13789
-6412.59, 58791, -126.397, 2.65145, -650.493, 0.533383, 0.277292, 1.03299, 0.34851, 0.655882, 3, 45.5, 246, 40.6733, 0.141093, 1.71678, 13789
-5610.14, 69021.3, -153.54, 2.94286, -723.084, 0.619952, 0.27198, 0.993198, 0.349787, 0.651995, 0.0001, 91, 246, 40.6733, 0.141093, 1.75132, 13789
-5610.14, 69021.3, -153.54, 2.94286, -723.084, 0.619952, 0.27198, 0.993198, 0.349787, 0.651995, 3, 91, 246, 40.6733, 0.141093, 1.5456, 13789
-4441.44, 82326.8, -187.815, 3.29605, -819.116, 0.734592, 0.281793, 0.958125, 0.351078, 0.648177, 0.0001, 182, 246, 40.6733, 0.141093, 1.07459, 13789
-4441.44, 82326.8, -187.815, 3.29605, -819.116, 0.734592, 0.281793, 0.958125, 0.351078, 0.648177, 3, 182, 246, 40.6733, 0.141093, 1.07795, 13789
-2024.32, 107740, -249.995, 3.90894, -1005.23, 0.956547, 0.322931, 0.9175, 0.352806, 0.64323, 0.0001, 455, 246, 40.6733, 0.141093, 1.42306, 13789
-2024.32, 107740, -249.995, 3.90894, -1005.23, 0.956547, 0.322931, 0.9175, 0.352806, 0.64323, 3, 455, 246, 40.6733, 0.141093, 1.42535, 13789
-25568.3, 537594, -287.773, 2.65697, -984.983, 0.239989, 0.362706, 1.03299, 0.34851, 0.655882, 3, 45.5, 246, 37.1035, 0.127026, 1.48486, 13790
-18607.1, 563940, -336.27, 2.90678, -1049.83, 0.284745, 0.363138, 0.993198, 0.349787, 0.651995, 0.0001, 91, 246, 37.1035, 0.127026, 1.11111, 13790
-26791.6, 937515, -143.293, 1.2469, -725.83, 0.434227, 0.33529, 1.03299, 0.34851, 0.655882, 3, 45.5, 246, 22.1326, 0.0387145, 1.45892, 13791
-27274.6, 450697, -402.172, 3.59119, -674.416, -0.0549988, 0.387306, 1.03299, 0.34851, 0.655882, 0.0001, 45.5, 246, 41.8442, 0.18761, 1.47839, 13797
-27274.6, 450697, -402.172, 3.59119, -674.416, -0.0549988, 0.387306, 1.03299, 0.34851, 0.655882, 3, 45.5, 246, 41.8442, 0.18761, 1.47917, 13797
-18766, 460317, -465.964, 3.94143, -714.683, 0.00728323, 0.418942, 0.993198, 0.349787, 0.651995, 0.0001, 91, 246, 41.8442, 0.18761, 1.02959, 13797
-18766, 460317, -465.964, 3.94143, -714.683, 0.00728323, 0.418942, 0.993198, 0.349787, 0.651995, 3, 91, 246, 41.8442, 0.18761, 1.59297, 13797
-8414.02, 474558, -543.623, 4.36782, -774.95, 0.0832206, 0.473471, 0.958125, 0.351078, 0.648177, 0.0001, 182, 246, 41.8442, 0.18761, 1.21811, 13797
-8414.02, 474558, -543.623, 4.36782, -774.95, 0.0832206, 0.473471, 0.958125, 0.351078, 0.648177, 3, 182, 246, 41.8442, 0.18761, 1.21972, 13797
-14727, 271443, -258.652, 3.29809, -971.532, 0.210527, 0.319214, 1.03299, 0.34851, 0.655882, 0.0001, 45.5, 246, 42.5477, 0.172874, 1.60765, 13798
-14727, 271443, -258.652, 3.29809, -971.532, 0.210527, 0.319214, 1.03299, 0.34851, 0.655882, 3, 45.5, 246, 42.5477, 0.172874, 1.2652, 13798
-10045.3, 293328, -314.069, 3.64443, -1035.72, 0.272476, 0.33593, 0.993198, 0.349787, 0.651995, 0.0001, 91, 246, 42.5477, 0.172874, 1.5972, 13798
-10045.3, 293328, -314.069, 3.64443, -1035.72, 0.272476, 0.33593, 0.993198, 0.349787, 0.651995, 3, 91, 246, 42.5477, 0.172874, 1.59607, 13798
-3987.52, 320389, -382.71, 4.06457, -1123.96, 0.352859, 0.373188, 0.958125, 0.351078, 0.648177, 0.0001, 182, 246, 42.5477, 0.172874, 1.34098, 13798
-3987.52, 320389, -382.71, 4.06457, -1123.96, 0.352859, 0.373188, 0.958125, 0.351078, 0.648177, 3, 182, 246, 42.5477, 0.172874, 1.34397, 13798
-34025.5, 723187, -377.558, 2.49208, -734.736, 0.00158396, 0.42535, 1.03299, 0.34851, 0.655882, 0.0001, 45.5, 246, 34.2644, 0.133381, 1.3966, 13799
-34025.5, 723187, -377.558, 2.49208, -734.736, 0.00158396, 0.42535, 1.03299, 0.34851, 0.655882, 3, 45.5, 246, 34.2644, 0.133381, 1.40219, 13799
-25198.5, 735111, -424.359, 2.68676, -763.942, 0.0310385, 0.426112, 0.993198, 0.349787, 0.651995, 0.0001, 91, 246, 34.2644, 0.133381, 1.0393, 13799
-25198.5, 735111, -424.359, 2.68676, -763.942, 0.0310385, 0.426112, 0.993198, 0.349787, 0.651995, 3, 91, 246, 34.2644, 0.133381, 1.5091, 13799
-14322.7, 453535, -424.838, 1.66372, -1094.94, 0.0781097, 0.678441, 1.03299, 0.34851, 0.655882, 3, 45.5, 246, 50.1146, 0.233332, 1.24361, 13802
-9458.01, 480501, -471.204, 1.78518, -1130.22, 0.0922997, 0.686973, 0.993198, 0.349787, 0.651995, 3, 91, 246, 50.1146, 0.233332, 1.32691, 13802
-12370.5, 225053, -187.045, 2.8341, -1025.49, -0.0380543, 0.324718, 1.03299, 0.34851, 0.655882, 3, 45.5, 246, 38.6091, 0.158342, 1.58779, 13803
-31446.9, 535655, -267.955, 3.09736, -601.641, 0.211122, 0.27175, 1.03299, 0.34851, 0.655882, 0.0001, 45.5, 246, 28.6033, 0.11209, 1.58231, 13804
-31446.9, 535655, -267.955, 3.09736, -601.641, 0.211122, 0.27175, 1.03299, 0.34851, 0.655882, 3, 45.5, 246, 28.6033, 0.11209, 1.6119, 13804
-34227.3, 871706, -70.4771, 1.87347, -891.183, 0.20872, 0.278338, 1.03299, 0.34851, 0.655882, 3, 45.5, 246, 23.6119, 0.0253113, 1.51439, 13807
-11649.4, 186523, -220.964, 3.44939, -740.725, 0.532716, 0.242959, 1.03299, 0.34851, 0.655882, 0.0001, 45.5, 246, 39.1319, 0.156033, 1.76359, 13808
-11649.4, 186523, -220.964, 3.44939, -740.725, 0.532716, 0.242959, 1.03299, 0.34851, 0.655882, 3, 45.5, 246, 39.1319, 0.156033, 1.75704, 13808
-8240.05, 203824, -267.861, 3.88724, -837.267, 0.646117, 0.260767, 0.993198, 0.349787, 0.651995, 0.0001, 91, 246, 39.1319, 0.156033, 1.33931, 13808
-8240.05, 203824, -267.861, 3.88724, -837.267, 0.646117, 0.260767, 0.993198, 0.349787, 0.651995, 3, 91, 246, 39.1319, 0.156033, 1.93535, 13808
-3679.72, 227391, -329.403, 4.44536, -972.704, 0.804338, 0.304118, 0.958125, 0.351078, 0.648177, 0.0001, 182, 246, 39.1319, 0.156033, 1.49707, 13808
-3679.72, 227391, -329.403, 4.44536, -972.704, 0.804338, 0.304118, 0.958125, 0.351078, 0.648177, 3, 182, 246, 39.1319, 0.156033, 1.49895, 13808
-16704.2, 777237, -405.554, 0.93512, -909.87, 0.0680252, 0.538199, 1.03299, 0.34851, 0.655882, 3, 45.5, 246, 36.9582, 0.135587, 1.33145, 13812
-20205.9, 565457, -379.668, 1.61491, -754.366, 0.466151, 0.52465, 1.03299, 0.34851, 0.655882, 3, 45.5, 246, 36.1428, 0.156795, 1.35634, 13814
-35533.2, 589114, -334.01, 3.12585, -566.722, 0.378872, 0.306995, 1.03299, 0.34851, 0.655882, 0.0001, 45.5, 246, 30.1372, 0.124553, 1.43757, 13815
-35533.2, 589114, -334.01, 3.12585, -566.722, 0.378872, 0.306995, 1.03299, 0.34851, 0.655882, 3, 45.5, 246, 30.1372, 0.124553, 1.43939, 13815
-22260.4, 505931, -119.736, 1.98595, -883.49, 0.718137, 0.295059, 1.03299, 0.34851, 0.655882, 3, 45.5, 246, 25.2316, 0.0566705, 1.53421, 13816
-9097.15, 175773, -231.533, 2.75993, -918.487, 0.0463014, 0.391252, 1.03299, 0.34851, 0.655882, 0.0001, 45.5, 246, 46.91, 0.218708, 1.04713, 13817
-9097.15, 175773, -231.533, 2.75993, -918.487, 0.0463014, 0.391252, 1.03299, 0.34851, 0.655882, 3, 45.5, 246, 46.91, 0.218708, 1.58007, 13817
-6432.94, 192377, -274.925, 2.99569, -947.116, 0.0832779, 0.396395, 0.993198, 0.349787, 0.651995, 0.0001, 91, 246, 46.91, 0.218708, 1.4179, 13817
-6432.94, 192377, -274.925, 2.99569, -947.116, 0.0832779, 0.396395, 0.993198, 0.349787, 0.651995, 3, 91, 246, 46.91, 0.218708, 1.76749, 13817
-3000.29, 211212, -325.907, 3.26802, -987.881, 0.128027, 0.415333, 0.958125, 0.351078, 0.648177, 0.0001, 182, 246, 46.91, 0.218708, 1.35442, 13817
-3000.29, 211212, -325.907, 3.26802, -987.881, 0.128027, 0.415333, 0.958125, 0.351078, 0.648177, 3, 182, 246, 46.91, 0.218708, 1.35771, 13817
-13757.8, 374594, -241.518, 1.53556, -920.002, 0.765067, 0.430659, 1.03299, 0.34851, 0.655882, 3, 45.5, 246, 34.966, 0.140146, 1.45213, 13819
-28623, 672837, -200.512, 2.33723, -1104.53, -0.00236559, 0.310919, 1.03299, 0.34851, 0.655882, 3, 45.5, 246, 33.649, 0.0810686, 1.5099, 13820
-21590.2, 694687, -239.099, 2.50365, -1120.32, 0.0233566, 0.299062, 0.993198, 0.349787, 0.651995, 3, 91, 246, 33.649, 0.0810686, 1.66358, 13820
-32579.9, 624136, -325.18, 2.69715, -622.507, 0.184542, 0.359416, 1.03299, 0.34851, 0.655882, 3, 45.5, 246, 30.5612, 0.123681, 1.47576, 13821
-24501.3, 638933, -367.669, 2.94366, -669.066, 0.226045, 0.360581, 0.993198, 0.349787, 0.651995, 0.0001, 91, 246, 30.5612, 0.123681, 1.22248, 13821
-24501.3, 638933, -367.669, 2.94366, -669.066, 0.226045, 0.360581, 0.993198, 0.349787, 0.651995, 3, 91, 246, 30.5612, 0.123681, 1.59851, 13821
-14544.1, 373901, -115.715, 1.45132, -814.335, 0.298226, 0.340194, 1.03299, 0.34851, 0.655882, 3, 45.5, 246, 24.2204, 0.0753105, 1.50091, 13824
-13447.2, 304591, -172.701, 3.34269, -943.874, 0.0519766, 0.236118, 0.993198, 0.349787, 0.651995, 3, 91, 246, 29.6627, 0.0987853, 1.59565, 13825
-17121.6, 890003, -272.141, 0.6784, -588.042, 0.223609, 0.412259, 1.03299, 0.34851, 0.655882, 3, 45.5, 246, 23.297, 0.0767982, 1.42192, 13826
-9890.37, 150044, -116.505, 1.75876, -733.015, -0.00756738, 0.357381, 1.03299, 0.34851, 0.655882, 3, 45.5, 246, 30.3643, 0.14915, 1.52618, 13827
-21008.8, 481160, -93.1363, 2.01262, -830.657, -0.00487312, 0.290978, 1.03299, 0.34851, 0.655882, 3, 45.5, 246, 22.8415, 0.053323, 1.53912, 13829
-5597.39, 59472.8, -143.202, 2.21087, -641.181, 0.374658, 0.335723, 1.03299, 0.34851, 0.655882, 0.0001, 45.5, 246, 50.2771, 0.21074, 1.22581, 13831
-5597.39, 59472.8, -143.202, 2.21087, -641.181, 0.374658, 0.335723, 1.03299, 0.34851, 0.655882, 3, 45.5, 246, 50.2771, 0.21074, 1.68776, 13831
-4875.87, 68816.4, -167.088, 2.41411, -692.535, 0.423171, 0.323298, 0.993198, 0.349787, 0.651995, 0.0001, 91, 246, 50.2771, 0.21074, 1.17041, 13831
-4875.87, 68816.4, -167.088, 2.41411, -692.535, 0.423171, 0.323298, 0.993198, 0.349787, 0.651995, 3, 91, 246, 50.2771, 0.21074, 1.17314, 13831
-3869.92, 80159.4, -195.594, 2.64827, -756.328, 0.483613, 0.321506, 0.958125, 0.351078, 0.648177, 0.0001, 182, 246, 50.2771, 0.21074, 1.23161, 13831
-3869.92, 80159.4, -195.594, 2.64827, -756.328, 0.483613, 0.321506, 0.958125, 0.351078, 0.648177, 3, 182, 246, 50.2771, 0.21074, 1.23407, 13831
-1933.78, 99629.4, -243.107, 3.02452, -868.291, 0.589814, 0.336647, 0.9175, 0.352806, 0.64323, 0.0001, 455, 246, 50.2771, 0.21074, 1.57238, 13831
-1933.78, 99629.4, -243.107, 3.02452, -868.291, 0.589814, 0.336647, 0.9175, 0.352806, 0.64323, 3, 455, 246, 50.2771, 0.21074, 1.57427, 13831
-27615.8, 699509, -88.4841, 2.65127, -601.762, 0.280829, 0.21436, 0.993198, 0.349787, 0.651995, 3, 91, 246, 16.3826, 0.0288766, 1.78046, 13833
-14638.7, 517665, -174.247, 1.27228, -1184.56, 0.0371078, 0.376792, 1.03299, 0.34851, 0.655882, 3, 45.5, 246, 33.2627, 0.0877691, 1.46174, 13834
-9341.78, 106763, -115.646, 3.25163, -702.758, -0.0415644, 0.218564, 1.03299, 0.34851, 0.655882, 0.0001, 45.5, 246, 31.2572, 0.114837, 1.76474, 13836
-9341.78, 106763, -115.646, 3.25163, -702.758, -0.0415644, 0.218564, 1.03299, 0.34851, 0.655882, 3, 45.5, 246, 31.2572, 0.114837, 1.34236, 13836
-7742.07, 115234, -147.573, 3.53007, -712.589, 0.00890722, 0.226141, 0.993198, 0.349787, 0.651995, 0.0001, 91, 246, 31.2572, 0.114837, 1.70437, 13836
-7742.07, 115234, -147.573, 3.53007, -712.589, 0.00890722, 0.226141, 0.993198, 0.349787, 0.651995, 3, 91, 246, 31.2572, 0.114837, 1.95863, 13836
-2123.86, 139709, -248.272, 4.40319, -782.639, 0.170561, 0.314252, 0.9175, 0.352806, 0.64323, 0.0001, 455, 246, 31.2572, 0.114837, 1.03674, 13836
-2123.86, 139709, -248.272, 4.40319, -782.639, 0.170561, 0.314252, 0.9175, 0.352806, 0.64323, 3, 455, 246, 31.2572, 0.114837, 1.04454, 13836
-28785.7, 700470, -253.242, 2.31402, -1142.48, 0.0888917, 0.345102, 1.03299, 0.34851, 0.655882, 3, 45.5, 246, 36.6698, 0.0954652, 1.47763, 13837
-21266.5, 728193, -296.6, 2.49234, -1178.56, 0.115874, 0.33532, 0.993198, 0.349787, 0.651995, 3, 91, 246, 36.6698, 0.0954652, 1.62525, 13837
-16472.1, 298739, -280.593, 3.46101, -1029.89, 0.463611, 0.305228, 1.03299, 0.34851, 0.655882, 0.0001, 45.5, 246, 43.551, 0.168823, 1.41922, 13839
-16472.1, 298739, -280.593, 3.46101, -1029.89, 0.463611, 0.305228, 1.03299, 0.34851, 0.655882, 3, 45.5, 246, 43.551, 0.168823, 1.42082, 13839
-10935.2, 328722, -343.759, 3.89213, -1147.89, 0.564223, 0.327519, 0.993198, 0.349787, 0.651995, 0.0001, 91, 246, 43.551, 0.168823, 1.79867, 13839
-10935.2, 328722, -343.759, 3.89213, -1147.89, 0.564223, 0.327519, 0.993198, 0.349787, 0.651995, 3, 91, 246, 43.551, 0.168823, 1.19913, 13839
-3482.34, 368723, -426.094, 4.43769, -1312.07, 0.702943, 0.375318, 0.958125, 0.351078, 0.648177, 0.0001, 182, 246, 43.551, 0.168823, 1.57367, 13839
-3482.34, 368723, -426.094, 4.43769, -1312.07, 0.702943, 0.375318, 0.958125, 0.351078, 0.648177, 3, 182, 246, 43.551, 0.168823, 1.57566, 13839
-16428.7, 407933, -54.2026, 1.5281, -730.42, -0.00774837, 0.309862, 1.03299, 0.34851, 0.655882, 3, 45.5, 246, 18.1098, 0.0382125, 1.52063, 13841
-14007.6, 277250, -263.83, 2.6552, -801.933, 0.156229, 0.400707, 1.03299, 0.34851, 0.655882, 0.0001, 45.5, 246, 40.6202, 0.185786, 1.51359, 13842
-14007.6, 277250, -263.83, 2.6552, -801.933, 0.156229, 0.400707, 1.03299, 0.34851, 0.655882, 3, 45.5, 246, 40.6202, 0.185786, 1.51544, 13842
-15992.9, 401655, -87.2786, 1.56613, -1054.2, 0.644072, 0.318212, 1.03299, 0.34851, 0.655882, 3, 45.5, 246, 26.165, 0.0547557, 1.51751, 13843
-27798.5, 566113, -350.317, 2.64228, -734.023, -0.0224309, 0.423475, 1.03299, 0.34851, 0.655882, 0.0001, 45.5, 246, 35.8942, 0.150091, 1.40455, 13844
-27798.5, 566113, -350.317, 2.64228, -734.023, -0.0224309, 0.423475, 1.03299, 0.34851, 0.655882, 3, 45.5, 246, 35.8942, 0.150091, 1.42147, 13844
-20389.5, 576991, -397.11, 2.85327, -760.3, 0.0106951, 0.427929, 0.993198, 0.349787, 0.651995, 0.0001, 91, 246, 35.8942, 0.150091, 1.10141, 13844
-20389.5, 576991, -397.11, 2.85327, -760.3, 0.0106951, 0.427929, 0.993198, 0.349787, 0.651995, 3, 91, 246, 35.8942, 0.150091, 1.52478, 13844
-15758.3, 376543, -171.303, 3.37208, -1086.23, 0.014066, 0.226851, 0.993198, 0.349787, 0.651995, 0.0001, 91, 246, 30.7524, 0.0875862, 1.53753, 13845
-15758.3, 376543, -171.303, 3.37208, -1086.23, 0.014066, 0.226851, 0.993198, 0.349787, 0.651995, 3, 91, 246, 30.7524, 0.0875862, 1.63858, 13845
-8023.21, 29468, -34.0808, 2.95255, -703.923, 0.24085, 0.226873, 1.03299, 0.34851, 0.655882, 3, 45.5, 246, 20.2298, 0.0576981, 1.73526, 13846
-10493.8, 326991, -243.808, 0.904603, -819.701, 0.638902, 0.485845, 1.03299, 0.34851, 0.655882, 3, 45.5, 246, 35.4076, 0.172074, 1.4057, 13847
-12598.2, 157623, -42.6868, 2.97301, -1077.71, -0.016778, 0.218361, 1.03299, 0.34851, 0.655882, 0.0001, 45.5, 246, 23.4867, 0.067567, 1.70715, 13850
-12598.2, 157623, -42.6868, 2.97301, -1077.71, -0.016778, 0.218361, 1.03299, 0.34851, 0.655882, 3, 45.5, 246, 23.4867, 0.067567, 1.70709, 13850
-10565.2, 177555, -76.5889, 3.21395, -1083.17, 0.0252003, 0.217246, 0.993198, 0.349787, 0.651995, 0.0001, 91, 246, 23.4867, 0.067567, 1.30131, 13850
-10565.2, 177555, -76.5889, 3.21395, -1083.17, 0.0252003, 0.217246, 0.993198, 0.349787, 0.651995, 3, 91, 246, 23.4867, 0.067567, 1.29281, 13850
-11090.1, 140999, -74.1633, 2.36204, -597.581, -0.0263202, 0.279313, 1.03299, 0.34851, 0.655882, 0.0001, 45.5, 246, 21.5792, 0.0872831, 1.06256, 13851
-29812.9, 576421, -290.84, 2.99285, -939.055, -0.0427685, 0.324145, 1.03299, 0.34851, 0.655882, 0.0001, 45.5, 246, 36.4601, 0.125148, 1.51968, 13853
-29812.9, 576421, -290.84, 2.99285, -939.055, -0.0427685, 0.324145, 1.03299, 0.34851, 0.655882, 3, 45.5, 246, 36.4601, 0.125148, 1.02937, 13853
-21632.8, 591919, -342.416, 3.24172, -961.72, -7.08005e-05, 0.330698, 0.993198, 0.349787, 0.651995, 0.0001, 91, 246, 36.4601, 0.125148, 1.27485, 13853
-21632.8, 591919, -342.416, 3.24172, -961.72, -7.08005e-05, 0.330698, 0.993198, 0.349787, 0.651995, 3, 91, 246, 36.4601, 0.125148, 1.65392, 13853
-25959.1, 473241, -437.584, 3.03824, -670.54, 0.0230633, 0.51783, 1.03299, 0.34851, 0.655882, 3, 45.5, 246, 43.1224, 0.204038, 1.36083, 13856
-18064, 485366, -497.732, 3.32379, -714.55, 0.0677469, 0.542439, 0.993198, 0.349787, 0.651995, 0.0001, 91, 246, 43.1224, 0.204038, 1.26996, 13856
-18064, 485366, -497.732, 3.32379, -714.55, 0.0677469, 0.542439, 0.993198, 0.349787, 0.651995, 3, 91, 246, 43.1224, 0.204038, 1.44579, 13856
-8432.12, 501685, -569.484, 3.66198, -774.617, 0.122625, 0.584847, 0.958125, 0.351078, 0.648177, 3, 182, 246, 43.1224, 0.204038, 1.00276, 13856
-16032.7, 476152, -349.905, 1.20163, -559.144, 0.321146, 0.545776, 1.03299, 0.34851, 0.655882, 3, 45.5, 246, 33.5151, 0.174623, 1.34566, 13858
-5543.96, 62055.8, -137.764, 3.92394, -1001.53, 0.00433927, 0.204698, 0.993198, 0.349787, 0.651995, 0.0001, 91, 246, 36.2846, 0.105293, 1.90395, 13859
-5543.96, 62055.8, -137.764, 3.92394, -1001.53, 0.00433927, 0.204698, 0.993198, 0.349787, 0.651995, 3, 91, 246, 36.2846, 0.105293, 1.08613, 13859
-4129.42, 80312.8, -189.667, 4.31988, -1025.71, 0.0790639, 0.24321, 0.958125, 0.351078, 0.648177, 0.0001, 182, 246, 36.2846, 0.105293, 1.11376, 13859
-4129.42, 80312.8, -189.667, 4.31988, -1025.71, 0.0790639, 0.24321, 0.958125, 0.351078, 0.648177, 3, 182, 246, 36.2846, 0.105293, 1.11674, 13859
-1043.31, 108104, -278.265, 4.99899, -1094.39, 0.20868, 0.333636, 0.9175, 0.352806, 0.64323, 0.0001, 455, 246, 36.2846, 0.105293, 1.72104, 13859
-1043.31, 108104, -278.265, 4.99899, -1094.39, 0.20868, 0.333636, 0.9175, 0.352806, 0.64323, 3, 455, 246, 36.2846, 0.105293, 1.72228, 13859
-17282.6, 353578, -100.086, 2.18197, -1069.58, 0.470242, 0.288406, 1.03299, 0.34851, 0.655882, 3, 45.5, 246, 27.8298, 0.069888, 1.56515, 13860
-14660.3, 357717, -189.023, 3.35345, -1065.53, 0.00133073, 0.241661, 0.993198, 0.349787, 0.651995, 0.0001, 91, 246, 31.976, 0.0993775, 1.48956, 13861
-40078.2, 681062, -430.242, 3.38365, -806.297, -0.0491793, 0.390596, 1.03299, 0.34851, 0.655882, 0.0001, 45.5, 246, 39.7161, 0.156068, 1.4367, 13864
-40078.2, 681062, -430.242, 3.38365, -806.297, -0.0491793, 0.390596, 1.03299, 0.34851, 0.655882, 3, 45.5, 246, 39.7161, 0.156068, 1.43931, 13864
-24860.8, 952570, -68.4002, 1.10183, -794.749, 0.134229, 0.324361, 1.03299, 0.34851, 0.655882, 3, 45.5, 246, 21.2527, 0.020854, 1.46807, 13867
-12720.1, 340210, -138.386, 1.19468, -739.103, 0.585793, 0.36611, 1.03299, 0.34851, 0.655882, 3, 45.5, 246, 24.8704, 0.0923317, 1.48632, 13868
-29874.7, 779043, -158.616, 2.95233, -1050.89, 0.026637, 0.210981, 0.993198, 0.349787, 0.651995, 3, 91, 246, 28.9934, 0.0488099, 1.79464, 13870
-7878.47, 129277, -202.02, 3.1001, -700.772, -0.0411444, 0.30115, 1.03299, 0.34851, 0.655882, 0.0001, 45.5, 246, 44.2316, 0.188115, 1.58256, 13875
-7878.47, 129277, -202.02, 3.1001, -700.772, -0.0411444, 0.30115, 1.03299, 0.34851, 0.655882, 3, 45.5, 246, 44.2316, 0.188115, 1.38715, 13875
-5730.27, 138425, -240.301, 3.3632, -717.461, 0.00471507, 0.309352, 0.993198, 0.349787, 0.651995, 0.0001, 91, 246, 44.2316, 0.188115, 1.92251, 13875
-5730.27, 138425, -240.301, 3.3632, -717.461, 0.00471507, 0.309352, 0.993198, 0.349787, 0.651995, 3, 91, 246, 44.2316, 0.188115, 1.79043, 13875
-3018.5, 148967, -285.397, 3.67127, -745.355, 0.0591078, 0.333587, 0.958125, 0.351078, 0.648177, 0.0001, 182, 246, 44.2316, 0.188115, 1.49967, 13875
-3018.5, 148967, -285.397, 3.67127, -745.355, 0.0591078, 0.333587, 0.958125, 0.351078, 0.648177, 3, 182, 246, 44.2316, 0.188115, 1.50146, 13875
-5055.65, 88678.6, -198.951, 3.81859, -613.971, 0.154931, 0.218969, 0.993198, 0.349787, 0.651995, 0.0001, 91, 246, 40.448, 0.133565, 1.40808, 13876
-5055.65, 88678.6, -198.951, 3.81859, -613.971, 0.154931, 0.218969, 0.993198, 0.349787, 0.651995, 3, 91, 246, 40.448, 0.133565, 2.06779, 13876
-3084.06, 97236.7, -241.686, 4.23175, -656.493, 0.231749, 0.254739, 0.958125, 0.351078, 0.648177, 0.0001, 182, 246, 40.448, 0.133565, 1.42761, 13876
-3084.06, 97236.7, -241.686, 4.23175, -656.493, 0.231749, 0.254739, 0.958125, 0.351078, 0.648177, 3, 182, 246, 40.448, 0.133565, 1.42934, 13876
541.377, 112333, -316.126, 4.94419, -744.137, 0.371893, 0.34206, 0.9175, 0.352806, 0.64323, 0.0001, 455, 246, 40.448, 0.133565, 2.94695, 13876
541.377, 112333, -316.126, 4.94419, -744.137, 0.371893, 0.34206, 0.9175, 0.352806, 0.64323, 3, 455, 246, 40.448, 0.133565, 2.94869, 13876
-25813.6, 575024, -195.814, 3.59901, -873.701, 0.331328, 0.180142, 0.993198, 0.349787, 0.651995, 0.0001, 91, 246, 26.5273, 0.0689728, 1.90416, 13878
-25813.6, 575024, -195.814, 3.59901, -873.701, 0.331328, 0.180142, 0.993198, 0.349787, 0.651995, 3, 91, 246, 26.5273, 0.0689728, 1.90384, 13878
-12729, 283479, -162.646, 3.51071, -1068.62, 0.114571, 0.220442, 0.993198, 0.349787, 0.651995, 0.0001, 91, 246, 30.5459, 0.0962994, 1.26442, 13879
-17392.5, 364065, -127.356, 3.72085, -986.627, 0.035329, 0.165354, 0.993198, 0.349787, 0.651995, 3, 91, 246, 26.1123, 0.0649647, 1.98776, 13880
-23342.8, 395523, -265.514, 3.56575, -895.716, -0.0542309, 0.258802, 1.03299, 0.34851, 0.655882, 0.0001, 45.5, 246, 37.7776, 0.142182, 1.6671, 13882
-16502.6, 409653, -321.633, 3.89747, -920.997, 0.00691824, 0.27985, 0.993198, 0.349787, 0.651995, 0.0001, 91, 246, 37.7776, 0.142182, 1.06995, 13882
-16502.6, 409653, -321.633, 3.89747, -920.997, 0.00691824, 0.27985, 0.993198, 0.349787, 0.651995, 3, 91, 246, 37.7776, 0.142182, 1.07363, 13882
-8181.89, 427481, -389.372, 4.2981, -965.614, 0.0807975, 0.322051, 0.958125, 0.351078, 0.648177, 0.0001, 182, 246, 37.7776, 0.142182, 1.01788, 13882
-8181.89, 427481, -389.372, 4.2981, -965.614, 0.0807975, 0.322051, 0.958125, 0.351078, 0.648177, 3, 182, 246, 37.7776, 0.142182, 1.02299, 13882
-11719.7, 201023, -152.309, 3.88532, -625.508, 0.931403, 0.174015, 0.993198, 0.349787, 0.651995, 0.0001, 91, 246, 23.6456, 0.0839257, 1.71566, 13885
-11719.7, 201023, -152.309, 3.88532, -625.508, 0.931403, 0.174015, 0.993198, 0.349787, 0.651995, 3, 91, 246, 23.6456, 0.0839257, 1.97076, 13885
-25332.4, 573244, -447.287, 2.13568, -773.86, 0.629661, 0.562955, 1.03299, 0.34851, 0.655882, 3, 45.5, 246, 39.7647, 0.17268, 1.3276, 13887
-18247.8, 609401, -497.799, 2.37866, -890.493, 0.724041, 0.568913, 0.993198, 0.349787, 0.651995, 0.0001, 91, 246, 39.7647, 0.17268, 1.02364, 13887
-18247.8, 609401, -497.799, 2.37866, -890.493, 0.724041, 0.568913, 0.993198, 0.349787, 0.651995, 3, 91, 246, 39.7647, 0.17268, 1.39215, 13887
-16061.8, 504931, -235.658, 1.49462, -973.484, -0.00816058, 0.415581, 1.03299, 0.34851, 0.655882, 3, 45.5, 246, 33.853, 0.119431, 1.43488, 13888
-18187.4, 982155, -276.734, 0.753435, -753.44, 0.0123335, 0.410312, 1.03299, 0.34851, 0.655882, 3, 45.5, 246, 27.0635, 0.0742454, 1.41639, 13890
-12302, 193655, -203.764, 3.1874, -589.453, 0.00643943, 0.274908, 1.03299, 0.34851, 0.655882, 0.0001, 45.5, 246, 35.7046, 0.155684, 1.36684, 13891
-12302, 193655, -203.764, 3.1874, -589.453, 0.00643943, 0.274908, 1.03299, 0.34851, 0.655882, 3, 45.5, 246, 35.7046, 0.155684, 1.66799, 13891
-9267.74, 200516, -239.757, 3.47037, -611.719, 0.0551789, 0.284194, 0.993198, 0.349787, 0.651995, 0.0001, 91, 246, 35.7046, 0.155684, 1.47042, 13891
-9267.74, 200516, -239.757, 3.47037, -611.719, 0.0551789, 0.284194, 0.993198, 0.349787, 0.651995, 3, 91, 246, 35.7046, 0.155684, 1.64356, 13891
-5584.88, 209049, -282.572, 3.80433, -644.995, 0.114288, 0.31063, 0.958125, 0.351078, 0.648177, 0.0001, 182, 246, 35.7046, 0.155684, 1.03872, 13891
-5584.88, 209049, -282.572, 3.80433, -644.995, 0.114288, 0.31063, 0.958125, 0.351078, 0.648177, 3, 182, 246, 35.7046, 0.155684, 1.04343, 13891
-18907.7, 401623, -387.191, 3.12403, -1077.56, -0.0153506, 0.494147, 1.03299, 0.34851, 0.655882, 3, 45.5, 246, 49.9085, 0.211927, 1.4094, 13893
-11913.4, 425061, -455.778, 3.41409, -1115.06, 0.0315163, 0.519126, 0.993198, 0.349787, 0.651995, 0.0001, 91, 246, 49.9085, 0.211927, 1.36592, 13893
-3086.3, 453171, -537.791, 3.75838, -1172.54, 0.0884382, 0.562367, 0.958125, 0.351078, 0.648177, 0.0001, 182, 246, 49.9085, 0.211927, 1.44684, 13893
-3086.3, 453171, -537.791, 3.75838, -1172.54, 0.0884382, 0.562367, 0.958125, 0.351078, 0.648177, 3, 182, 246, 49.9085, 0.211927, 1.44966, 13893
-21789.2, 501069, -175.324, 2.11153, -755.037, 0.011502, 0.32483, 1.03299, 0.34851, 0.655882, 3, 45.5, 246, 26.5228, 0.087899, 1.51093, 13895
-19217.2, 459889, -180.161, 3.11836, -796.304, 0.00362057, 0.235379, 0.993198, 0.349787, 0.651995, 0.0001, 91, 246, 26.1265, 0.079903, 1.29298, 13896
-19217.2, 459889, -180.161, 3.11836, -796.304, 0.00362057, 0.235379, 0.993198, 0.349787, 0.651995, 3, 91, 246, 26.1265, 0.079903, 1.80293, 13896
-14464.4, 793161, -473.314, 0.612439, -826.576, 0.000330717, 0.614935, 1.03299, 0.34851, 0.655882, 3, 45.5, 246, 37.7073, 0.157039, 1.28728, 13898
-17949.2, 538157, -366.43, 1.79384, -1036.07, -0.0150988, 0.537276, 1.03299, 0.34851, 0.655882, 3, 45.5, 246, 42.632, 0.172835, 1.33799, 13900
-6369.28, 582325, -454.677, 2.04095, -1077.55, 0.0171336, 0.536779, 0.958125, 0.351078, 0.648177, 3, 182, 246, 42.632, 0.172835, 1.00889, 13900
-28495.3, 645880, -142.849, 3.38086, -873.434, 0.00666816, 0.173102, 0.993198, 0.349787, 0.651995, 0.0001, 91, 246, 24.8225, 0.0496307, 1.89541, 13901
-28495.3, 645880, -142.849, 3.38086, -873.434, 0.00666816, 0.173102, 0.993198, 0.349787, 0.651995, 3, 91, 246, 24.8225, 0.0496307, 1.89602, 13901
-11470.9, 415108, -331.422, 1.13991, -1054.84, 0.436345, 0.563517, 1.03299, 0.34851, 0.655882, 3, 45.5, 246, 42.9094, 0.191687, 1.34643, 13902
-16774.4, 774850, -349.422, 0.785871, -711.869, 0.608179, 0.469819, 1.03299, 0.34851, 0.655882, 3, 45.5, 246, 29.2943, 0.105112, 1.39663, 13904
-19922.6, 519863, -386.624, 1.72883, -780.653, 0.835426, 0.52422, 1.03299, 0.34851, 0.655882, 3, 45.5, 246, 37.2654, 0.160122, 1.38272, 13906
-7977.07, 614994, -473.82, 2.18321, -1118.4, 1.18076, 0.522134, 0.958125, 0.351078, 0.648177, 0.0001, 182, 246, 37.2654, 0.160122, 1.00856, 13906
-18256.1, 906750, -31.6414, 0.669118, -742.655, 0.386997, 0.333059, 1.03299, 0.34851, 0.655882, 3, 45.5, 246, 18.5943, 0.0100803, 1.47385, 13907
-6839.32, 9962.46, -71.7808, 3.33399, -613.495, 0.57649, 0.225502, 0.993198, 0.349787, 0.651995, 0.0001, 91, 246, 26.0625, 0.024321, 1.17031, 13908
-29801.5, 816748, -35.2922, 1.65742, -1125.7, 0.282244, 0.293763, 1.03299, 0.34851, 0.655882, 3, 45.5, 246, 27.0324, 0.0173514, 1.4983, 13909
-37122.7, 741201, -331.907, 2.68786, -727.531, -0.00931212, 0.355921, 1.03299, 0.34851, 0.655882, 3, 45.5, 246, 31.8634, 0.115232, 1.46448, 13915
-27757.9, 751723, -377.015, 2.90164, -754.459, 0.0249589, 0.356183, 0.993198, 0.349787, 0.651995, 0.0001, 91, 246, 31.8634, 0.115232, 1.16507, 13915
-27757.9, 751723, -377.015, 2.90164, -754.459, 0.0249589, 0.356183, 0.993198, 0.349787, 0.651995, 3, 91, 246, 31.8634, 0.115232, 1.59495, 13915
-18679.4, 695032, -104.075, 1.15153, -1044.29, 0.00399574, 0.335822, 1.03299, 0.34851, 0.655882, 3, 45.5, 246, 27.1391, 0.0422984, 1.47728, 13917
-13526.6, 481299, -126.926, 0.980809, -856.232, 0.00126867, 0.359675, 1.03299, 0.34851, 0.655882, 3, 45.5, 246, 24.7771, 0.0691837, 1.47929, 13918
-30535.5, 890388, -268.965, 1.80164, -949.901, -0.0130216, 0.372031, 1.03299, 0.34851, 0.655882, 3, 45.5, 246, 32.3192, 0.0822169, 1.43458, 13919
-22632.6, 582691, -305.394, 2.14142, -1031.99, 0.0720006, 0.425765, 1.03299, 0.34851, 0.655882, 3, 45.5, 246, 38.2147, 0.131964, 1.41867, 13920
-9116, 70354, -47.3801, 2.52116, -895.264, 0.467869, 0.265413, 1.03299, 0.34851, 0.655882, 0.0001, 45.5, 246, 23.486, 0.0845557, 1.01482, 13921
-9116, 70354, -47.3801, 2.52116, -895.264, 0.467869, 0.265413, 1.03299, 0.34851, 0.655882, 3, 45.5, 246, 23.486, 0.0845557, 1.65103, 13921
-16491.1, 403896, -429.016, 2.39234, -967.618, -0.025259, 0.650497, 1.03299, 0.34851, 0.655882, 0.0001, 45.5, 246, 51.5489, 0.247666, 1.29919, 13922
-16491.1, 403896, -429.016, 2.39234, -967.618, -0.025259, 0.650497, 1.03299, 0.34851, 0.655882, 3, 45.5, 246, 51.5489, 0.247666, 1.27685, 13922
-10618.2, 423608, -486.473, 2.58687, -995.74, 0.00195062, 0.670782, 0.993198, 0.349787, 0.651995, 0.0001, 91, 246, 51.5489, 0.247666, 1.15714, 13922
-10618.2, 423608, -486.473, 2.58687, -995.74, 0.00195062, 0.670782, 0.993198, 0.349787, 0.651995, 3, 91, 246, 51.5489, 0.247666, 1.40912, 13922
-8743.67, 171580, -242.631, 3.32533, -1026.95, 0.35498, 0.321015, 1.03299, 0.34851, 0.655882, 0.0001, 45.5, 246, 48.3331, 0.202002, 1.39575, 13925
-8743.67, 171580, -242.631, 3.32533, -1026.95, 0.35498, 0.321015, 1.03299, 0.34851, 0.655882, 3, 45.5, 246, 48.3331, 0.202002, 1.54226, 13925
-5460.86, 196357, -299.434, 3.70722, -1118.43, 0.433535, 0.339259, 0.993198, 0.349787, 0.651995, 0.0001, 91, 246, 48.3331, 0.202002, 1.93346, 13925
-5460.86, 196357, -299.434, 3.70722, -1118.43, 0.433535, 0.339259, 0.993198, 0.349787, 0.651995, 3, 91, 246, 48.3331, 0.202002, 1.91792, 13925
-905.177, 227859, -371.718, 4.17925, -1243.23, 0.538623, 0.379838, 0.958125, 0.351078, 0.648177, 0.0001, 182, 246, 48.3331, 0.202002, 2.34579, 13925
-905.177, 227859, -371.718, 4.17925, -1243.23, 0.538623, 0.379838, 0.958125, 0.351078, 0.648177, 3, 182, 246, 48.3331, 0.202002, 2.34946, 13925
-15003.8, 281043, -3.89294, 2.92959, -775.192, 0.82695, 0.20407, 0.993198, 0.349787, 0.651995, 0.0001, 91, 246, 12.2376, 0.00852987, 1.19507, 13927
-15003.8, 281043, -3.89294, 2.92959, -775.192, 0.82695, 0.20407, 0.993198, 0.349787, 0.651995, 3, 91, 246, 12.2376, 0.00852987, 1.19513, 13927
-6808.71, -16796.3, -1.41716, 3.4354, -1128.52, 0.329135, 0.194214, 1.03299, 0.34851, 0.655882, 0.0001, 45.5, 246, 18.6682, 0.0602727, 1.83062, 13931
-7048.19, 6358.64, -40.0988, 3.8192, -1197.85, 0.408092, 0.207755, 0.993198, 0.349787, 0.651995, 0.0001, 91, 246, 18.6682, 0.0602727, 1.47632, 13931
-7048.19, 6358.64, -40.0988, 3.8192, -1197.85, 0.408092, 0.207755, 0.993198, 0.349787, 0.651995, 3, 91, 246, 18.6682, 0.0602727, 1.47473, 13931
-20091.3, 449181, -76.4219, 1.89257, -913.223, 0.73155, 0.288516, 1.03299, 0.34851, 0.655882, 3, 45.5, 246, 23.3341, 0.0437419, 1.54282, 13932
-26114.9, 586679, -236.48, 3.47555, -730.621, 0.551783, 0.210049, 0.993198, 0.349787, 0.651995, 3, 91, 246, 25.1507, 0.0792538, 1.83917, 13934
-19403.1, 438224, -100.587, 3.37426, -1125.94, 0.0121558, 0.180689, 0.993198, 0.349787, 0.651995, 0.0001, 91, 246, 26.619, 0.0495637, 1.33212, 13935
-19403.1, 438224, -100.587, 3.37426, -1125.94, 0.0121558, 0.180689, 0.993198, 0.349787, 0.651995, 3, 91, 246, 26.619, 0.0495637, 1.91827, 13935
-24414.6, 497166, -99.52, 2.315, -798.954, 0.339337, 0.265483, 1.03299, 0.34851, 0.655882, 3, 45.5, 246, 22.7253, 0.0516947, 1.56987, 13937
-13653, 275501, -37.4382, 1.67909, -1080.27, 0.118863, 0.304328, 1.03299, 0.34851, 0.655882, 3, 45.5, 246, 21.9904, 0.0441385, 1.54226, 13940
-28514.8, 675705, -279.195, 3.3978, -796.027, 0.0800126, 0.240887, 0.993198, 0.349787, 0.651995, 3, 91, 246, 29.0438, 0.0900347, 1.77296, 13941
-27428.8, 771623, -448.554, 1.58499, -675.872, 0.277087, 0.552137, 1.03299, 0.34851, 0.655882, 3, 45.5, 246, 34.0106, 0.143322, 1.30563, 13944
-9943.4, 84907.4, -31.51, 2.77783, -918.582, 0.0559125, 0.239644, 1.03299, 0.34851, 0.655882, 0.0001, 45.5, 246, 20.2646, 0.0666643, 1.11616, 13945
-9943.4, 84907.4, -31.51, 2.77783, -918.582, 0.0559125, 0.239644, 1.03299, 0.34851, 0.655882, 3, 45.5, 246, 20.2646, 0.0666643, 1.63675, 13945
-10095.7, 247287, -186.767, 1.4106, -1108.48, -0.00898055, 0.441114, 1.03299, 0.34851, 0.655882, 3, 45.5, 246, 38.4593, 0.17906, 1.44086, 13946
-23848.1, 614684, -267.135, 1.92158, -866.838, 0.425106, 0.386592, 1.03299, 0.34851, 0.655882, 3, 45.5, 246, 31.9456, 0.104, 1.45091, 13947
-26127.3, 968466, -263.04, 1.41701, -1120.08, -0.00930357, 0.39027, 1.03299, 0.34851, 0.655882, 3, 45.5, 246, 35.2444, 0.073924, 1.41535, 13948
-5941.61, 81504.2, -166.273, 2.44443, -769.439, 0.561558, 0.340337, 1.03299, 0.34851, 0.655882, 0.0001, 45.5, 246, 48.7545, 0.213974, 1.69127, 13949
-5941.61, 81504.2, -166.273, 2.44443, -769.439, 0.561558, 0.340337, 1.03299, 0.34851, 0.655882, 3, 45.5, 246, 48.7545, 0.213974, 1.68127, 13949
-4793.71, 96259.5, -197.683, 2.71118, -859.272, 0.648224, 0.334105, 0.993198, 0.349787, 0.651995, 0.0001, 91, 246, 48.7545, 0.213974, 1.23663, 13949
-4793.71, 96259.5, -197.683, 2.71118, -859.272, 0.648224, 0.334105, 0.993198, 0.349787, 0.651995, 3, 91, 246, 48.7545, 0.213974, 1.23922, 13949
-3151.7, 115531, -237.026, 3.03279, -977.466, 0.762502, 0.34134, 0.958125, 0.351078, 0.648177, 0.0001, 182, 246, 48.7545, 0.213974, 1.39025, 13949
-3151.7, 115531, -237.026, 3.03279, -977.466, 0.762502, 0.34134, 0.958125, 0.351078, 0.648177, 3, 182, 246, 48.7545, 0.213974, 1.39252, 13949
-21610.2, 665983, -116.729, 1.44155, -861.204, 0.172707, 0.326158, 1.03299, 0.34851, 0.655882, 3, 45.5, 246, 24.2461, 0.047294, 1.4857, 13950
-12786.9, 375138, -275.083, 2.87732, -992.501, -0.000105797, 0.354, 0.993198, 0.349787, 0.651995, 3, 91, 246, 37.3463, 0.145618, 1.66556, 13951
-5825.51, 41421.1, -112.93, 2.82851, -753.301, 0.0685748, 0.262775, 1.03299, 0.34851, 0.655882, 0.0001, 45.5, 246, 43.0023, 0.125023, 1.14363, 13952
-5825.51, 41421.1, -112.93, 2.82851, -753.301, 0.0685748, 0.262775, 1.03299, 0.34851, 0.655882, 3, 45.5, 246, 43.0023, 0.125023, 1.72865, 13952
-5216.37, 51855.3, -142.377, 3.06699, -773.763, 0.107902, 0.260461, 0.993198, 0.349787, 0.651995, 0.0001, 91, 246, 43.0023, 0.125023, 1.07207, 13952
-5216.37, 51855.3, -142.377, 3.06699, -773.763, 0.107902, 0.260461, 0.993198, 0.349787, 0.651995, 3, 91, 246, 43.0023, 0.125023, 1.07511, 13952
-4293.53, 63329.7, -177.124, 3.34237, -803.53, 0.155649, 0.272058, 0.958125, 0.351078, 0.648177, 0.0001, 182, 246, 43.0023, 0.125023, 1.1108, 13952
-4293.53, 63329.7, -177.124, 3.34237, -803.53, 0.155649, 0.272058, 0.958125, 0.351078, 0.648177, 3, 182, 246, 43.0023, 0.125023, 1.11334, 13952
-2417.23, 81035.9, -234.211, 3.78643, -862.714, 0.237093, 0.311075, 0.9175, 0.352806, 0.64323, 0.0001, 455, 246, 43.0023, 0.125023, 1.29921, 13952
-2417.23, 81035.9, -234.211, 3.78643, -862.714, 0.237093, 0.311075, 0.9175, 0.352806, 0.64323, 3, 455, 246, 43.0023, 0.125023, 1.34372, 13952
-17357.5, 407995, -428.613, 2.1573, -753.849, -0.00289109, 0.656137, 1.03299, 0.34851, 0.655882, 0.0001, 45.5, 246, 47.5887, 0.244693, 1.27222, 13953
-17357.5, 407995, -428.613, 2.1573, -753.849, -0.00289109, 0.656137, 1.03299, 0.34851, 0.655882, 3, 45.5, 246, 47.5887, 0.244693, 1.29144, 13953
-12002.2, 421519, -477.438, 2.32523, -781.52, 0.0191548, 0.671629, 0.993198, 0.349787, 0.651995, 0.0001, 91, 246, 47.5887, 0.244693, 1.0872, 13953
-12002.2, 421519, -477.438, 2.32523, -781.52, 0.0191548, 0.671629, 0.993198, 0.349787, 0.651995, 3, 91, 246, 47.5887, 0.244693, 1.34999, 13953
-18453.5, 348821, -351.161, 3.16741, -759.632, -0.0481261, 0.431319, 1.03299, 0.34851, 0.655882, 0.0001, 45.5, 246, 44.3242, 0.203295, 1.47134, 13955
-18453.5, 348821, -351.161, 3.16741, -759.632, -0.0481261, 0.431319, 1.03299, 0.34851, 0.655882, 3, 45.5, 246, 44.3242, 0.203295, 1.46986, 13955
-12509.2, 360481, -406.687, 3.45222, -789.593, 8.21912e-06, 0.451932, 0.993198, 0.349787, 0.651995, 3, 91, 246, 44.3242, 0.203295, 1.59973, 13955
-5235.07, 375389, -472.713, 3.7895, -835.021, 0.0576017, 0.490363, 0.958125, 0.351078, 0.648177, 0.0001, 182, 246, 44.3242, 0.203295, 1.26416, 13955
-5235.07, 375389, -472.713, 3.7895, -835.021, 0.0576017, 0.490363, 0.958125, 0.351078, 0.648177, 3, 182, 246, 44.3242, 0.203295, 1.26646, 13955
-26195.2, 921859, -308.32, 1.38306, -871.047, 0.126473, 0.418752, 1.03299, 0.34851, 0.655882, 3, 45.5, 246, 31.4157, 0.0871955, 1.39909, 13956
-23234.6, 442458, -301.662, 2.63459, -578.069, 0.174174, 0.388769, 1.03299, 0.34851, 0.655882, 3, 45.5, 246, 32.5142, 0.148477, 1.47339, 13957
-17493.1, 454119, -340.58, 2.87252, -619.584, 0.213321, 0.390526, 0.993198, 0.349787, 0.651995, 3, 91, 246, 32.5142, 0.148477, 1.2249, 13957
-9381.82, 82072.2, -55.5343, 2.22252, -595.004, 0.139642, 0.286449, 1.03299, 0.34851, 0.655882, 3, 45.5, 246, 21.1669, 0.084742, 1.239, 13958
-14131, 438383, -348.181, 1.20682, -704.668, 0.061226, 0.577725, 1.03299, 0.34851, 0.655882, 3, 45.5, 246, 38.4978, 0.198292, 1.32441, 13960
-12136.3, 450598, -427.51, 2.00328, -818.286, 0.0437023, 0.599462, 0.993198, 0.349787, 0.651995, 0.0001, 91, 246, 43.3236, 0.213535, 1.05091, 13963
-26445.8, 581868, -61.7599, 2.21735, -1088, -0.0208129, 0.267785, 1.03299, 0.34851, 0.655882, 3, 45.5, 246, 26.1807, 0.0363985, 1.55137, 13964
-18399.6, 432380, -351.634, 2.5197, -1032.41, -0.026222, 0.498548, 1.03299, 0.34851, 0.655882, 3, 45.5, 246, 45.1715, 0.191421, 1.38884, 13965
-12543.4, 453030, -404.672, 2.71954, -1056.57, 0.00390188, 0.506465, 0.993198, 0.349787, 0.651995, 0.0001, 91, 246, 45.1715, 0.191421, 1.18818, 13965
-12543.4, 453030, -404.672, 2.71954, -1056.57, 0.00390188, 0.506465, 0.993198, 0.349787, 0.651995, 3, 91, 246, 45.1715, 0.191421, 1.48602, 13965
-32453.7, 765616, -131.718, 2.068, -771.117, 0.262326, 0.281863, 1.03299, 0.34851, 0.655882, 0.0001, 45.5, 246, 23.2791, 0.0462323, 1.52407, 13966
-32453.7, 765616, -131.718, 2.068, -771.117, 0.262326, 0.281863, 1.03299, 0.34851, 0.655882, 3, 45.5, 246, 23.2791, 0.0462323, 1.52429, 13966
-10324.5, 125693, -46.9527, 1.89072, -886.449, 0.118563, 0.305819, 1.03299, 0.34851, 0.655882, 3, 45.5, 246, 21.1949, 0.0780786, 1.56808, 13967
-6071.77, 179319, -120.567, 2.37308, -977.064, 0.197098, 0.264586, 0.9175, 0.352806, 0.64323, 3, 455, 246, 21.1949, 0.0780786, 1.01261, 13967
-9531.45, 126622, -133.982, 2.74351, -714.878, 0.00808249, 0.286964, 1.03299, 0.34851, 0.655882, 3, 45.5, 246, 33.7335, 0.142609, 1.65247, 13968
-15223, 348731, -69.1484, 1.60652, -847.846, 0.379364, 0.311685, 1.03299, 0.34851, 0.655882, 3, 45.5, 246, 21.4032, 0.051191, 1.52959, 13969
-12186.7, 235659, -244.066, 2.79409, -855.938, -0.026444, 0.381975, 1.03299, 0.34851, 0.655882, 3, 45.5, 246, 42.3872, 0.192925, 1.55455, 13971
-8770.33, 249382, -287.038, 3.02207, -875.107, 0.010662, 0.387183, 0.993198, 0.349787, 0.651995, 3, 91, 246, 42.3872, 0.192925, 1.72316, 13971
-7523.08, 2092.41, -41.7015, 3.07178, -708.344, 0.0369575, 0.243758, 0.993198, 0.349787, 0.651995, 0.0001, 91, 246, 19.2941, 0.0321317, 1.62748, 13972
-28594.1, 702332, -267.877, 1.90062, -587.611, 0.367188, 0.371046, 1.03299, 0.34851, 0.655882, 3, 45.5, 246, 25.2233, 0.0917536, 1.44941, 13973
-12435.3, 518623, -317.963, 1.12666, -1157.15, 0.111931, 0.513737, 1.03299, 0.34851, 0.655882, 3, 45.5, 246, 41.2502, 0.155459, 1.33219, 13975
-29775.6, 536562, -313.654, 3.0004, -629.311, -0.0403106, 0.340676, 1.03299, 0.34851, 0.655882, 0.0001, 45.5, 246, 32.4106, 0.136738, 1.50874, 13976
-29775.6, 536562, -313.654, 3.0004, -629.311, -0.0403106, 0.340676, 1.03299, 0.34851, 0.655882, 3, 45.5, 246, 32.4106, 0.136738, 1.50875, 13976
-15683.5, 364745, -125.136, 1.75268, -793.951, 0.226188, 0.32991, 1.03299, 0.34851, 0.655882, 3, 45.5, 246, 24.9128, 0.0822228, 1.51422, 13977
-26521.5, 647585, -116.838, 2.86031, -661.16, 0.0330509, 0.208981, 0.993198, 0.349787, 0.651995, 3, 91, 246, 19.3818, 0.0411512, 1.80444, 13978
-15377.9, 286278, -44.3223, 3.20367, -646.221, 0.00736539, 0.188961, 0.993198, 0.349787, 0.651995, 0.0001, 91, 246, 14.7121, 0.0299237, 1.29687, 13979
-12477.9, 217964, -9.94076, 1.50812, -708.97, 0.39885, 0.305346, 1.03299, 0.34851, 0.655882, 3, 45.5, 246, 13.2131, 0.0217441, 1.54477, 13980
-26089.6, 573101, -23.373, 3.08882, -732.183, 0.0253743, 0.174127, 0.993198, 0.349787, 0.651995, 3, 91, 246, 16.1867, 0.0116181, 1.88582, 13981
-6183.27, 152158, -139.794, 1.91089, -1009.02, 0.10356, 0.290243, 0.9175, 0.352806, 0.64323, 0.0001, 455, 246, 28.1949, 0.13792, 1.00174, 13982
-29166.3, 747728, -158.679, 1.80691, -881.675, 0.835172, 0.308608, 1.03299, 0.34851, 0.655882, 3, 45.5, 246, 26.4053, 0.0502767, 1.50072, 13983
-14714.2, 300144, -356.506, 3.17122, -842.951, -0.0484536, 0.464701, 1.03299, 0.34851, 0.655882, 0.0001, 45.5, 246, 49.3524, 0.228886, 1.47352, 13984
-14714.2, 300144, -356.506, 3.17122, -842.951, -0.0484536, 0.464701, 1.03299, 0.34851, 0.655882, 3, 45.5, 246, 49.3524, 0.228886, 1.47744, 13984
-9310.42, 314544, -415.502, 3.45983, -873.223, -0.000153263, 0.4884, 0.993198, 0.349787, 0.651995, 0.0001, 91, 246, 49.3524, 0.228886, 1.1291, 13984
-9310.42, 314544, -415.502, 3.45983, -873.223, -0.000153263, 0.4884, 0.993198, 0.349787, 0.651995, 3, 91, 246, 49.3524, 0.228886, 1.66076, 13984
-2566.4, 332266, -485.815, 3.80235, -920.18, 0.0577627, 0.530332, 0.958125, 0.351078, 0.648177, 0.0001, 182, 246, 49.3524, 0.228886, 1.73744, 13984
-2566.4, 332266, -485.815, 3.80235, -920.18, 0.0577627, 0.530332, 0.958125, 0.351078, 0.648177, 3, 182, 246, 49.3524, 0.228886, 1.73886, 13984
-18349.1, 321128, -179.912, 3.05085, -870.321, -0.0347669, 0.265052, 1.03299, 0.34851, 0.655882, 0.0001, 45.5, 246, 32.232, 0.118471, 1.62523, 13985
-18349.1, 321128, -179.912, 3.05085, -870.321, -0.0347669, 0.265052, 1.03299, 0.34851, 0.655882, 3, 45.5, 246, 32.232, 0.118471, 1.12817, 13985
-13833.7, 334207, -220.435, 3.30432, -885.219, 0.00954702, 0.269247, 0.993198, 0.349787, 0.651995, 0.0001, 91, 246, 32.232, 0.118471, 1.47608, 13985
-13833.7, 334207, -220.435, 3.30432, -885.219, 0.00954702, 0.269247, 0.993198, 0.349787, 0.651995, 3, 91, 246, 32.232, 0.118471, 1.79861, 13985
-22273.3, 723284, -334.518, 2.42544, -901.747, 0.000395703, 0.369532, 0.993198, 0.349787, 0.651995, 0.0001, 91, 246, 33.5278, 0.108854, 1.2439, 13986
-22273.3, 723284, -334.518, 2.42544, -901.747, 0.000395703, 0.369532, 0.993198, 0.349787, 0.651995, 3, 91, 246, 33.5278, 0.108854, 1.57412, 13986
-6882.93, -69022.4, 18.6764, 2.80408, -877.856, 0.753868, 0.270761, 1.03299, 0.34851, 0.655882, 0.0001, 45.5, 246, 5.60219, 0.0765184, 2.25689, 13987
-6882.93, -69022.4, 18.6764, 2.80408, -877.856, 0.753868, 0.270761, 1.03299, 0.34851, 0.655882, 3, 45.5, 246, 5.60219, 0.0765184, 2.25636, 13987
-16491, 852819, -202.342, 0.814206, -1056.4, 0.55974, 0.374132, 1.03299, 0.34851, 0.655882, 3, 45.5, 246, 31.0797, 0.0569375, 1.45528, 13988
-18336, 363714, -6.10004, 3.11183, -731.33, 0.095908, 0.184802, 0.993198, 0.349787, 0.651995, 0.0001, 91, 246, 13.4902, 0.00845221, 1.26456, 13989
-18336, 363714, -6.10004, 3.11183, -731.33, 0.095908, 0.184802, 0.993198, 0.349787, 0.651995, 3, 91, 246, 13.4902, 0.00845221, 1.89994, 13989
-13408, 374709, -28.4611, 3.38487, -746.729, 0.144434, 0.19334, 0.958125, 0.351078, 0.648177, 3, 182, 246, 13.4902, 0.00845221, 1.07902, 13989
-17550.3, 345571, -283.629, 2.88537, -963.04, 0.4606, 0.371936, 1.03299, 0.34851, 0.655882, 3, 45.5, 246, 40.8884, 0.164148, 1.52595, 13990
-12325.5, 373932, -335.775, 3.21235, -1067.81, 0.54072, 0.380108, 0.993198, 0.349787, 0.651995, 0.0001, 91, 246, 40.8884, 0.164148, 1.37497, 13990
-12325.5, 373932, -335.775, 3.21235, -1067.81, 0.54072, 0.380108, 0.993198, 0.349787, 0.651995, 3, 91, 246, 40.8884, 0.164148, 1.53433, 13990
-11254, 153012, 8.87822, 1.48506, -668.148, 0.678793, 0.305735, 1.03299, 0.34851, 0.655882, 3, 45.5, 246, 9.53003, 0.0081272, 1.55238, 13991
-10082, 208519, -187.985, 3.78217, -914.448, 0.238916, 0.218435, 0.993198, 0.349787, 0.651995, 0.0001, 91, 246, 32.506, 0.118078, 1.89953, 13992
-10082, 208519, -187.985, 3.78217, -914.448, 0.238916, 0.218435, 0.993198, 0.349787, 0.651995, 3, 91, 246, 32.506, 0.118078, 1.8995, 13992
-16693.3, 301670, -51.9979, 2.1599, -591.679, 0.307159, 0.268782, 1.03299, 0.34851, 0.655882, 3, 45.5, 246, 15.9575, 0.0424902, 1.58836, 13993
-37961.9, 707385, -421.708, 2.68237, -603.549, 0.382311, 0.42766, 1.03299, 0.34851, 0.655882, 3, 45.5, 246, 32.8092, 0.138932, 1.41479, 13994
-28274.2, 732046, -472.655, 2.96535, -678.426, 0.444114, 0.434356, 0.993198, 0.349787, 0.651995, 0.0001, 91, 246, 32.8092, 0.138932, 1.16895, 13994
-28274.2, 732046, -472.655, 2.96535, -678.426, 0.444114, 0.434356, 0.993198, 0.349787, 0.651995, 3, 91, 246, 32.8092, 0.138932, 1.50479, 13994
-14504.4, 284123, -308.732, 3.07801, -852.133, 0.174846, 0.403397, 1.03299, 0.34851, 0.655882, 0.0001, 45.5, 246, 45.1733, 0.202044, 1.52573, 13996
-14504.4, 284123, -308.732, 3.07801, -852.133, 0.174846, 0.403397, 1.03299, 0.34851, 0.655882, 3, 45.5, 246, 45.1733, 0.202044, 1.52777, 13996
-9717.19, 302058, -362.198, 3.38737, -908.427, 0.226982, 0.419358, 0.993198, 0.349787, 0.651995, 0.0001, 91, 246, 45.1733, 0.202044, 1.50558, 13996
-9717.19, 302058, -362.198, 3.38737, -908.427, 0.226982, 0.419358, 0.993198, 0.349787, 0.651995, 3, 91, 246, 45.1733, 0.202044, 1.27285, 13996
-3641.82, 324299, -427.225, 3.75712, -984.137, 0.293504, 0.453478, 0.958125, 0.351078, 0.648177, 0.0001, 182, 246, 45.1733, 0.202044, 1.43223, 13996
-3641.82, 324299, -427.225, 3.75712, -984.137, 0.293504, 0.453478, 0.958125, 0.351078, 0.648177, 3, 182, 246, 45.1733, 0.202044, 1.43447, 13996
-12223.1, 328238, -265.225, 1.28064, -667.613, -0.000933137, 0.508772, 1.03299, 0.34851, 0.655882, 3, 45.5, 246, 36.5881, 0.196099, 1.38403, 13998
-7348.69, 347075, -312.218, 1.42663, -689.645, 0.0151634, 0.485265, 0.958125, 0.351078, 0.648177, 0.0001, 182, 246, 36.5881, 0.196099, 1.05311, 13998
-26330, 786764, -321.433, 1.5558, -641.246, 0.00354389, 0.435645, 1.03299, 0.34851, 0.655882, 3, 45.5, 246, 28.2521, 0.106613, 1.3928, 13999
-20532.6, 479082, -294.257, 2.43954, -1031.56, -0.0282177, 0.417018, 1.03299, 0.34851, 0.655882, 3, 45.5, 246, 39.7482, 0.14975, 1.42744, 14000
-7766.09, 520810, -393.37, 2.82854, -1079.29, 0.0325455, 0.42538, 0.958125, 0.351078, 0.648177, 3, 182, 246, 39.7482, 0.14975, 1.10978, 14000
