-24818.4, 499047, -386.292, 2.70565, -749.612, -0.00137178, 0.487361, 1.03299, 0.34851, 0.655882, 0.0001, 45.5, 246, 40.2697, 0.180309, 1.37254, 26502
-17739.4, 511663, -438.236, 2.93396, -782.082, 0.033541, 0.499224, 0.993198, 0.349787, 0.651995, 0.0001, 91, 246, 40.2697, 0.180309, 1.14205, 26502
-17739.4, 511663, -438.236, 2.93396, -782.082, 0.033541, 0.499224, 0.993198, 0.349787, 0.651995, 3, 91, 246, 40.2697, 0.180309, 1.44554, 26502
-9454.4, 192771, -305.703, 3.55116, -723.68, 0.0779006, 0.336241, 1.03299, 0.34851, 0.655882, 0.0001, 45.5, 246, 50.2337, 0.218737, 1.54675, 26504
-9454.4, 192771, -305.703, 3.55116, -723.68, 0.0779006, 0.336241, 1.03299, 0.34851, 0.655882, 3, 45.5, 246, 50.2337, 0.218737, 1.54823, 26504
-5431.56, 205109, -360.831, 3.91713, -769.139, 0.140873, 0.362794, 0.993198, 0.349787, 0.651995, 0.0001, 91, 246, 50.2337, 0.218737, 1.89581, 26504
-5431.56, 205109, -360.831, 3.91713, -769.139, 0.140873, 0.362794, 0.993198, 0.349787, 0.651995, 3, 91, 246, 50.2337, 0.218737, 1.8987, 26504
-286.393, 220878, -428.72, 4.36409, -834.761, 0.221071, 0.412374, 0.958125, 0.351078, 0.648177, 0.0001, 182, 246, 50.2337, 0.218737, 2.35075, 26504
-286.393, 220878, -428.72, 4.36409, -834.761, 0.221071, 0.412374, 0.958125, 0.351078, 0.648177, 3, 182, 246, 50.2337, 0.218737, 2.35267, 26504
-8514.83, 87100.6, -92.7272, 1.83198, -905.861, 0.319214, 0.346339, 1.03299, 0.34851, 0.655882, 3, 45.5, 246, 33.3291, 0.164174, 1.55014, 26506
-39912.6, 801981, -433.303, 2.79549, -1012.57, 0.366013, 0.421896, 1.03299, 0.34851, 0.655882, 0.0001, 45.5, 246, 40.9269, 0.13312, 1.40977, 26510
-39912.6, 801981, -433.303, 2.79549, -1012.57, 0.366013, 0.421896, 1.03299, 0.34851, 0.655882, 3, 45.5, 246, 40.9269, 0.13312, 1.40787, 26510
-28413, 840952, -498.205, 3.094, -1115.14, 0.428849, 0.431281, 0.993198, 0.349787, 0.651995, 0.0001, 91, 246, 40.9269, 0.13312, 1.18236, 26510
-28413, 840952, -498.205, 3.094, -1115.14, 0.428849, 0.431281, 0.993198, 0.349787, 0.651995, 3, 91, 246, 40.9269, 0.13312, 1.51178, 26510
-14515.6, 319893, -423.865, 2.88859, -957.711, 0.769196, 0.566548, 1.03299, 0.34851, 0.655882, 0.0001, 45.5, 246, 53.1539, 0.244399, 1.17909, 26511
-14515.6, 319893, -423.865, 2.88859, -957.711, 0.769196, 0.566548, 1.03299, 0.34851, 0.655882, 3, 45.5, 246, 53.1539, 0.244399, 1.38885, 26511
-8495.98, 356982, -491.893, 3.29446, -1133.66, 0.923312, 0.593254, 0.993198, 0.349787, 0.651995, 0.0001, 91, 246, 53.1539, 0.244399, 1.28787, 26511
-8495.98, 356982, -491.893, 3.29446, -1133.66, 0.923312, 0.593254, 0.993198, 0.349787, 0.651995, 3, 91, 246, 53.1539, 0.244399, 1.64047, 26511
-177.601, 410068, -581.467, 3.82179, -1387.68, 1.146, 0.642544, 0.958125, 0.351078, 0.648177, 0.0001, 182, 246, 53.1539, 0.244399, 3.42123, 26511
-177.601, 410068, -581.467, 3.82179, -1387.68, 1.146, 0.642544, 0.958125, 0.351078, 0.648177, 3, 182, 246, 53.1539, 0.244399, 3.42295, 26511
-38973.4, 815893, -243.083, 2.62868, -1110.04, 0.340263, 0.282118, 1.03299, 0.34851, 0.655882, 0.0001, 45.5, 246, 35.1981, 0.0779098, 1.26249, 26512
-38973.4, 815893, -243.083, 2.62868, -1110.04, 0.340263, 0.282118, 1.03299, 0.34851, 0.655882, 3, 45.5, 246, 35.1981, 0.0779098, 1.53781, 26512
-29118.3, 854901, -290.471, 2.88409, -1196.1, 0.394824, 0.276129, 0.993198, 0.349787, 0.651995, 3, 91, 246, 35.1981, 0.0779098, 1.69447, 26512
-31309.1, 575383, -438.08, 2.96955, -708.259, 0.102107, 0.478611, 1.03299, 0.34851, 0.655882, 0.0001, 45.5, 246, 39.9998, 0.177039, 1.37493, 26513
-31309.1, 575383, -438.08, 2.96955, -708.259, 0.102107, 0.478611, 1.03299, 0.34851, 0.655882, 3, 45.5, 246, 39.9998, 0.177039, 1.38086, 26513
-22261.4, 591004, -497.902, 3.25465, -760.912, 0.146995, 0.497583, 0.993198, 0.349787, 0.651995, 3, 91, 246, 39.9998, 0.177039, 1.46805, 26513
-16259, 353326, -165.492, 3.76974, -999.72, 0.0434766, 0.182675, 0.993198, 0.349787, 0.651995, 0.0001, 91, 246, 29.0577, 0.0834712, 1.61215, 26514
-14062.6, 246574, -4.23128, 2.99793, -700.518, 0.44298, 0.201641, 0.993198, 0.349787, 0.651995, 0.0001, 91, 246, 11.209, 0.00955564, 1.24221, 26518
-10137.1, 96712.9, -9.56653, 1.91278, -1116.08, 0.163141, 0.295869, 1.03299, 0.34851, 0.655882, 3, 45.5, 246, 17.2971, 0.0500478, 1.57777, 26519
-36394.1, 886851, -380.755, 1.98139, -706.935, 0.495408, 0.418218, 1.03299, 0.34851, 0.655882, 0.0001, 45.5, 246, 30.3621, 0.103586, 1.39367, 26520
-36394.1, 886851, -380.755, 1.98139, -706.935, 0.495408, 0.418218, 1.03299, 0.34851, 0.655882, 3, 45.5, 246, 30.3621, 0.103586, 1.40682, 26520
-27667.2, 923362, -420.415, 2.17392, -790.96, 0.558026, 0.407487, 0.993198, 0.349787, 0.651995, 0.0001, 91, 246, 30.3621, 0.103586, 1.01681, 26520
-27667.2, 923362, -420.415, 2.17392, -790.96, 0.558026, 0.407487, 0.993198, 0.349787, 0.651995, 3, 91, 246, 30.3621, 0.103586, 1.51447, 26520
-11675.6, 257110, -189.085, 1.61981, -731.827, -0.00529156, 0.416061, 1.03299, 0.34851, 0.655882, 3, 45.5, 246, 33.4854, 0.165753, 1.46388, 26523
-7386.26, 277612, -235.781, 1.81858, -752.715, 0.0206574, 0.386924, 0.958125, 0.351078, 0.648177, 0.0001, 182, 246, 33.4854, 0.165753, 1.01693, 26523
-11243.7, 210210, -161.659, 2.23294, -1003.32, 0.00643537, 0.360278, 1.03299, 0.34851, 0.655882, 3, 45.5, 246, 36.0894, 0.156136, 1.53031, 26524
-17654.7, 508074, -287.771, 3.02919, -1114.96, 0.668895, 0.314413, 0.993198, 0.349787, 0.651995, 0.0001, 91, 246, 35.0225, 0.11267, 1.23307, 26526
-17654.7, 508074, -287.771, 3.02919, -1114.96, 0.668895, 0.314413, 0.993198, 0.349787, 0.651995, 3, 91, 246, 35.0225, 0.11267, 1.46079, 26526
-30711.1, 885155, -240.864, 1.86916, -1081.84, 0.0040557, 0.35175, 1.03299, 0.34851, 0.655882, 3, 45.5, 246, 34.106, 0.0749972, 1.45656, 26527
-17195.9, 505100, -332.015, 1.79994, -1033.12, 0.0400321, 0.502259, 1.03299, 0.34851, 0.655882, 3, 45.5, 246, 41.1229, 0.164269, 1.36809, 26530
-14833, 376181, -17.7745, 1.34472, -1197.64, 0.000534362, 0.313561, 1.03299, 0.34851, 0.655882, 3, 45.5, 246, 22.7207, 0.0235606, 1.5184, 26532
-34284.9, 731926, -197.701, 2.32985, -904.112, 0.759731, 0.280411, 1.03299, 0.34851, 0.655882, 0.0001, 45.5, 246, 28.7618, 0.064059, 1.54099, 26534
-34284.9, 731926, -197.701, 2.32985, -904.112, 0.759731, 0.280411, 1.03299, 0.34851, 0.655882, 3, 45.5, 246, 28.7618, 0.064059, 1.54102, 26534
-26472.1, 780781, -233.376, 2.60482, -1044.62, 0.893736, 0.267448, 0.993198, 0.349787, 0.651995, 3, 91, 246, 28.7618, 0.064059, 1.70419, 26534
-22889.9, 464091, -25.7428, 2.30513, -1192.98, -0.0250177, 0.25212, 1.03299, 0.34851, 0.655882, 3, 45.5, 246, 25.176, 0.0288534, 1.5853, 26535
-9957.87, 540925, -420.737, 0.393367, -859.058, 0.0495601, 0.662034, 1.03299, 0.34851, 0.655882, 3, 45.5, 246, 41.5804, 0.205373, 1.28289, 26537
-21247.1, 470233, -33.2269, 3.04493, -995.062, 0.730712, 0.186222, 0.993198, 0.349787, 0.651995, 3, 91, 246, 19.3039, 0.0176722, 1.87841, 26538
-15900.5, 284001, -78.8938, 2.45657, -983.898, -0.0275585, 0.266433, 1.03299, 0.34851, 0.655882, 3, 45.5, 246, 25.1675, 0.0706997, 1.15902, 26539
-13063.1, 310930, -372.718, 2.26854, -947.897, 0.749768, 0.577242, 1.03299, 0.34851, 0.655882, 0.0001, 45.5, 246, 49.6247, 0.238336, 1.40198, 26541
-13063.1, 310930, -372.718, 2.26854, -947.897, 0.749768, 0.577242, 1.03299, 0.34851, 0.655882, 3, 45.5, 246, 49.6247, 0.238336, 1.4066, 26541
-8574.03, 345645, -424.3, 2.5528, -1104.44, 0.879443, 0.587904, 0.993198, 0.349787, 0.651995, 0.0001, 91, 246, 49.6247, 0.238336, 1.35834, 26541
-8574.03, 345645, -424.3, 2.5528, -1104.44, 0.879443, 0.587904, 0.993198, 0.349787, 0.651995, 3, 91, 246, 49.6247, 0.238336, 1.52014, 26541
-15253, 390446, -313.034, 1.69045, -752.01, 0.498601, 0.501693, 1.03299, 0.34851, 0.655882, 3, 45.5, 246, 37.5678, 0.177927, 1.40151, 26542
-11598.8, 414079, -345.682, 1.84892, -833.212, 0.556157, 0.492818, 0.993198, 0.349787, 0.651995, 3, 91, 246, 37.5678, 0.177927, 1.12505, 26542
-25750.8, 565578, -85.6999, 2.14937, -850.712, 0.232215, 0.274115, 1.03299, 0.34851, 0.655882, 3, 45.5, 246, 22.858, 0.0425701, 1.54686, 26543
-9545.49, 326393, -346.905, 2.34884, -899.046, -4.06105e-05, 0.513847, 0.993198, 0.349787, 0.651995, 3, 91, 246, 44.7812, 0.21858, 1.49954, 26544
-15055.9, 255973, -196.317, 3.2178, -1028.96, 0.562064, 0.260153, 1.03299, 0.34851, 0.655882, 0.0001, 45.5, 246, 37.4017, 0.135752, 1.41101, 26546
-15055.9, 255973, -196.317, 3.2178, -1028.96, 0.562064, 0.260153, 1.03299, 0.34851, 0.655882, 3, 45.5, 246, 37.4017, 0.135752, 1.41353, 26546
-10901.1, 285648, -247.656, 3.61709, -1154.79, 0.673058, 0.27107, 0.993198, 0.349787, 0.651995, 3, 91, 246, 37.4017, 0.135752, 1.63011, 26546
-10186.7, 210696, -325.861, 3.53784, -726.18, -0.0205509, 0.368726, 1.03299, 0.34851, 0.655882, 0.0001, 45.5, 246, 51.2703, 0.229018, 1.6296, 26547
-10186.7, 210696, -325.861, 3.53784, -726.18, -0.0205509, 0.368726, 1.03299, 0.34851, 0.655882, 3, 45.5, 246, 51.2703, 0.229018, 1.62714, 26547
-5793.86, 222159, -382.879, 3.88389, -761.771, 0.0398292, 0.396997, 0.993198, 0.349787, 0.651995, 0.0001, 91, 246, 51.2703, 0.229018, 1.84696, 26547
-5793.86, 222159, -382.879, 3.88389, -761.771, 0.0398292, 0.396997, 0.993198, 0.349787, 0.651995, 3, 91, 246, 51.2703, 0.229018, 1.84789, 26547
-240.282, 236788, -452.276, 4.30396, -816.102, 0.114174, 0.44749, 0.958125, 0.351078, 0.648177, 0.0001, 182, 246, 51.2703, 0.229018, 2.31301, 26547
-240.282, 236788, -452.276, 4.30396, -816.102, 0.114174, 0.44749, 0.958125, 0.351078, 0.648177, 3, 182, 246, 51.2703, 0.229018, 2.37291, 26547
-10382.7, 221247, -217.89, 1.35152, -628.795, 0.202869, 0.482334, 1.03299, 0.34851, 0.655882, 3, 45.5, 246, 38.0788, 0.217592, 1.42255, 26548
-22341.3, 566204, -115.842, 2.97845, -1114.01, -0.000107667, 0.209234, 0.993198, 0.349787, 0.651995, 3, 91, 246, 27.8139, 0.0475133, 1.82415, 26550
-13164.3, 204678, -136.001, 3.18419, -1032.69, 0.00628475, 0.240864, 1.03299, 0.34851, 0.655882, 0.0001, 45.5, 246, 33.4821, 0.120698, 1.68966, 26551
-13164.3, 204678, -136.001, 3.18419, -1032.69, 0.00628475, 0.240864, 1.03299, 0.34851, 0.655882, 3, 45.5, 246, 33.4821, 0.120698, 1.13706, 26551
-10107.2, 223800, -179.308, 3.46332, -1051.38, 0.0548742, 0.247785, 0.993198, 0.349787, 0.651995, 3, 91, 246, 33.4821, 0.120698, 1.4961, 26551
-26098.7, 626156, -133.621, 3.19514, -1031.4, 0.418038, 0.18873, 0.993198, 0.349787, 0.651995, 3, 91, 246, 26.1561, 0.0465027, 1.86325, 26552
-12559.4, 378127, -359.859, 1.23667, -822.574, 0.542003, 0.612617, 1.03299, 0.34851, 0.655882, 3, 45.5, 246, 42.9478, 0.220233, 1.32742, 26554
-9479.67, 405306, -390.878, 1.34845, -913.511, 0.600787, 0.607947, 0.993198, 0.349787, 0.651995, 0.0001, 91, 246, 42.9478, 0.220233, 1.01461, 26554
-14310.5, 290849, -19.3246, 1.67539, -1059.64, 0.0330272, 0.299154, 1.03299, 0.34851, 0.655882, 3, 45.5, 246, 20.1032, 0.0304572, 1.54471, 26555
-29160.2, 866109, -283.298, 1.68603, -957.557, 0.495532, 0.379498, 1.03299, 0.34851, 0.655882, 3, 45.5, 246, 32.4624, 0.0804922, 1.43571, 26556
-23228.1, 715761, -202.762, 1.51151, -978.226, 0.73965, 0.35353, 1.03299, 0.34851, 0.655882, 3, 45.5, 246, 30.0755, 0.0666516, 1.46701, 26558
-10630.9, 139985, -77.5205, 1.97926, -581.732, 0.207171, 0.307671, 1.03299, 0.34851, 0.655882, 3, 45.5, 246, 21.953, 0.0951471, 1.57429, 26559
-21359.8, 382728, -18.4924, 2.30677, -559.198, 0.622467, 0.241924, 1.03299, 0.34851, 0.655882, 3, 45.5, 246, 12.8677, 0.0176914, 1.60862, 26560
-33645.9, 835445, -71.7888, 1.94099, -909.629, 0.164519, 0.274767, 1.03299, 0.34851, 0.655882, 3, 45.5, 246, 23.9746, 0.0271281, 1.52151, 26561
-29056.6, 632381, -334.428, 3.85118, -734.182, 0.0320392, 0.239496, 0.993198, 0.349787, 0.651995, 0.0001, 91, 246, 30.8609, 0.10999, 1.78449, 26563
-29056.6, 632381, -334.428, 3.85118, -734.182, 0.0320392, 0.239496, 0.993198, 0.349787, 0.651995, 3, 91, 246, 30.8609, 0.10999, 1.78689, 26563
-10425.6, 256207, -191.218, 1.20233, -818.253, -0.00670092, 0.44831, 1.03299, 0.34851, 0.655882, 3, 45.5, 246, 35.1213, 0.179926, 1.41683, 26564
-7161.61, 281261, -230.716, 1.32966, -832.338, 0.00737064, 0.411815, 0.958125, 0.351078, 0.648177, 3, 182, 246, 35.1213, 0.179926, 1.14583, 26564
-27070.1, 594051, -387.867, 3.96643, -766.768, 0.390581, 0.273372, 0.993198, 0.349787, 0.651995, 0.0001, 91, 246, 33.2535, 0.12652, 1.74152, 26565
-27070.1, 594051, -387.867, 3.96643, -766.768, 0.390581, 0.273372, 0.993198, 0.349787, 0.651995, 3, 91, 246, 33.2535, 0.12652, 1.74009, 26565
-21457.8, 754035, -34.7553, 1.14107, -781.394, 0.00269933, 0.319126, 1.03299, 0.34851, 0.655882, 3, 45.5, 246, 18.9935, 0.0154868, 1.48361, 26566
-27814.8, 720371, -243.882, 3.27403, -1134.36, 0.263793, 0.227924, 0.993198, 0.349787, 0.651995, 3, 91, 246, 33.1208, 0.0753412, 1.79112, 26567
-20963.3, 812857, -438.021, 0.987986, -690.201, 0.56214, 0.536733, 1.03299, 0.34851, 0.655882, 3, 45.5, 246, 31.9445, 0.126822, 1.3471, 26569
-8043.9, 8809.34, -0.85361, 3.16757, -1029.3, 0.0249561, 0.233948, 0.993198, 0.349787, 0.651995, 0.0001, 91, 246, 7.99666, 0.047974, 1.11929, 26571
-8043.9, 8809.34, -0.85361, 3.16757, -1029.3, 0.0249561, 0.233948, 0.993198, 0.349787, 0.651995, 3, 91, 246, 7.99666, 0.047974, 1.40024, 26571
-7776.4, 49138.6, -63.0321, 3.2098, -1130.72, 0.0119836, 0.224666, 1.03299, 0.34851, 0.655882, 0.0001, 45.5, 246, 30.4565, 0.103842, 1.17245, 26572
-7776.4, 49138.6, -63.0321, 3.2098, -1130.72, 0.0119836, 0.224666, 1.03299, 0.34851, 0.655882, 3, 45.5, 246, 30.4565, 0.103842, 1.75014, 26572
-20289.5, 432543, -266.43, 3.85976, -701.755, 0.669269, 0.210127, 0.993198, 0.349787, 0.651995, 0.0001, 91, 246, 27.9403, 0.104013, 1.23909, 26573
-20289.5, 432543, -266.43, 3.85976, -701.755, 0.669269, 0.210127, 0.993198, 0.349787, 0.651995, 3, 91, 246, 27.9403, 0.104013, 1.2421, 26573
-13301.8, 272428, -237.613, 3.94985, -650.535, 0.526074, 0.210529, 0.993198, 0.349787, 0.651995, 0.0001, 91, 246, 29.9629, 0.118777, 1.2086, 26575
-13301.8, 272428, -237.613, 3.94985, -650.535, 0.526074, 0.210529, 0.993198, 0.349787, 0.651995, 3, 91, 246, 29.9629, 0.118777, 1.94311, 26575
-36760.5, 781097, -186.319, 2.29012, -810.86, 0.764359, 0.273054, 1.03299, 0.34851, 0.655882, 3, 45.5, 246, 26.1068, 0.0567023, 1.54065, 26576
-18040.7, 696278, -289.811, 1.15064, -868.709, 0.29931, 0.435113, 1.03299, 0.34851, 0.655882, 3, 45.5, 246, 31.8087, 0.10349, 1.41216, 26579
-13989, 269103, -299.772, 3.00443, -729.16, -0.042159, 0.407341, 1.03299, 0.34851, 0.655882, 0.0001, 45.5, 246, 44.0281, 0.206527, 1.06713, 26582
-13989, 269103, -299.772, 3.00443, -729.16, -0.042159, 0.407341, 1.03299, 0.34851, 0.655882, 3, 45.5, 246, 44.0281, 0.206527, 1.52196, 26582
-9644.73, 279605, -347.122, 3.26275, -753.343, 0.000976186, 0.420782, 0.993198, 0.349787, 0.651995, 0.0001, 91, 246, 44.0281, 0.206527, 1.01827, 26582
-9644.73, 279605, -347.122, 3.26275, -753.343, 0.000976186, 0.420782, 0.993198, 0.349787, 0.651995, 3, 91, 246, 44.0281, 0.206527, 1.49165, 26582
-4328.46, 292464, -402.84, 3.56485, -790.144, 0.0521764, 0.450025, 0.958125, 0.351078, 0.648177, 0.0001, 182, 246, 44.0281, 0.206527, 1.29617, 26582
-4328.46, 292464, -402.84, 3.56485, -790.144, 0.0521764, 0.450025, 0.958125, 0.351078, 0.648177, 3, 182, 246, 44.0281, 0.206527, 1.29869, 26582
-13711.2, 195911, -52.8054, 2.55291, -608.524, 0.0354367, 0.247247, 1.03299, 0.34851, 0.655882, 3, 45.5, 246, 17.3209, 0.0564218, 1.64514, 26584
-17540.2, 279824, -164.404, 2.99732, -700.111, 0.60263, 0.241102, 1.03299, 0.34851, 0.655882, 3, 45.5, 246, 28.1793, 0.104467, 1.50172, 26585
-13599.8, 299266, -199.635, 3.36049, -792.559, 0.715039, 0.243714, 0.993198, 0.349787, 0.651995, 0.0001, 91, 246, 28.1793, 0.104467, 1.49214, 26585
-13599.8, 299266, -199.635, 3.36049, -792.559, 0.715039, 0.243714, 0.993198, 0.349787, 0.651995, 3, 91, 246, 28.1793, 0.104467, 1.84782, 26585
-12522.3, 275289, -286.659, 2.2315, -793.138, -0.0208433, 0.490078, 1.03299, 0.34851, 0.655882, 0.0001, 45.5, 246, 43.9197, 0.220596, 1.03602, 26588
-12522.3, 275289, -286.659, 2.2315, -793.138, -0.0208433, 0.490078, 1.03299, 0.34851, 0.655882, 3, 45.5, 246, 43.9197, 0.220596, 1.4372, 26588
-32610.5, 823649, -84.1816, 1.95334, -975.038, 0.0276656, 0.279224, 1.03299, 0.34851, 0.655882, 3, 45.5, 246, 25.8102, 0.0322244, 1.51846, 26589
-32631.5, 623705, -324.438, 2.95291, -831.457, -0.0394581, 0.346961, 1.03299, 0.34851, 0.655882, 0.0001, 45.5, 246, 35.4693, 0.129564, 1.48893, 26591
-23829.7, 636178, -375.469, 3.19853, -857.209, 0.00209266, 0.354028, 0.993198, 0.349787, 0.651995, 0.0001, 91, 246, 35.4693, 0.129564, 1.2582, 26591
-23829.7, 636178, -375.469, 3.19853, -857.209, 0.00209266, 0.354028, 0.993198, 0.349787, 0.651995, 3, 91, 246, 35.4693, 0.129564, 1.61632, 26591
-15461.9, 321466, -426.401, 3.19115, -912.784, 0.590054, 0.527506, 1.03299, 0.34851, 0.655882, 0.0001, 45.5, 246, 52.9793, 0.240389, 1.44228, 26592
-15461.9, 321466, -426.401, 3.19115, -912.784, 0.590054, 0.527506, 1.03299, 0.34851, 0.655882, 3, 45.5, 246, 52.9793, 0.240389, 1.44193, 26592
-8972, 352801, -497.935, 3.61844, -1054.21, 0.706759, 0.55968, 0.993198, 0.349787, 0.651995, 0.0001, 91, 246, 52.9793, 0.240389, 1.63806, 26592
-8972, 352801, -497.935, 3.61844, -1054.21, 0.706759, 0.55968, 0.993198, 0.349787, 0.651995, 3, 91, 246, 52.9793, 0.240389, 1.63974, 26592
-169.721, 396261, -591.09, 4.1652, -1252.21, 0.870316, 0.617034, 0.958125, 0.351078, 0.648177, 0.0001, 182, 246, 52.9793, 0.240389, 2.87431, 26592
-169.721, 396261, -591.09, 4.1652, -1252.21, 0.870316, 0.617034, 0.958125, 0.351078, 0.648177, 3, 182, 246, 52.9793, 0.240389, 2.8749, 26592
-10455.7, 220218, -245.083, 1.61436, -669.642, 0.381305, 0.497957, 1.03299, 0.34851, 0.655882, 3, 45.5, 246, 41.4844, 0.229905, 1.42947, 26593
-6036.69, 251320, -300.376, 1.90445, -791.606, 0.464368, 0.484316, 0.958125, 0.351078, 0.648177, 3, 182, 246, 41.4844, 0.229905, 1.20911, 26593
-26320.6, 646230, -230.213, 3.45252, -1160.34, 0.946412, 0.204398, 0.993198, 0.349787, 0.651995, 0.0001, 91, 246, 30.9058, 0.0710205, 1.85109, 26595
-26320.6, 646230, -230.213, 3.45252, -1160.34, 0.946412, 0.204398, 0.993198, 0.349787, 0.651995, 3, 91, 246, 30.9058, 0.0710205, 1.8511, 26595
-6239.19, 258259, -254.267, 2.00065, -949.958, 0.151818, 0.410398, 0.958125, 0.351078, 0.648177, 3, 182, 246, 38.4124, 0.18973, 1.08084, 26596
-23049.2, 501459, -355.946, 2.42352, -753.949, 0.019977, 0.473181, 1.03299, 0.34851, 0.655882, 3, 45.5, 246, 38.1403, 0.168584, 1.39011, 26597
-16787.8, 514341, -401.069, 2.61546, -783.122, 0.0480021, 0.476442, 0.993198, 0.349787, 0.651995, 3, 91, 246, 38.1403, 0.168584, 1.35822, 26597
-33665.1, 845939, -313.362, 1.95349, -787.351, 0.558832, 0.375762, 1.03299, 0.34851, 0.655882, 3, 45.5, 246, 29.9775, 0.0888258, 1.44296, 26599
-25740.9, 886121, -349.347, 2.14758, -883.627, 0.633191, 0.36114, 0.993198, 0.349787, 0.651995, 3, 91, 246, 29.9775, 0.0888258, 1.56849, 26599
-14438.8, 478802, -238.653, 1.4909, -1180.39, -0.0103433, 0.427286, 1.03299, 0.34851, 0.655882, 3, 45.5, 246, 37.7491, 0.127286, 1.43413, 26601
-8941.49, 132139, -155.836, 1.77788, -623.215, 0.479079, 0.390546, 1.03299, 0.34851, 0.655882, 0.0001, 45.5, 246, 37.1293, 0.196115, 1.03267, 26602
-8941.49, 132139, -155.836, 1.77788, -623.215, 0.479079, 0.390546, 1.03299, 0.34851, 0.655882, 3, 45.5, 246, 37.1293, 0.196115, 1.53025, 26602
-29953, 655376, -254.907, 2.47044, -872.944, 0.0125616, 0.332708, 1.03299, 0.34851, 0.655882, 0.0001, 45.5, 246, 31.9537, 0.100437, 1.49688, 26603
-29953, 655376, -254.907, 2.47044, -872.944, 0.0125616, 0.332708, 1.03299, 0.34851, 0.655882, 3, 45.5, 246, 31.9537, 0.100437, 1.49328, 26603
-22536.7, 670151, -294.359, 2.65698, -895.193, 0.0415096, 0.325637, 0.993198, 0.349787, 0.651995, 0.0001, 91, 246, 31.9537, 0.100437, 1.01712, 26603
-22536.7, 670151, -294.359, 2.65698, -895.193, 0.0415096, 0.325637, 0.993198, 0.349787, 0.651995, 3, 91, 246, 31.9537, 0.100437, 1.63131, 26603
-22964.9, 465621, -359.998, 2.49991, -679.867, 0.337209, 0.463045, 1.03299, 0.34851, 0.655882, 3, 45.5, 246, 37.2221, 0.169016, 1.40806, 26604
-16813.9, 485236, -405.455, 2.74924, -747.021, 0.388103, 0.467849, 0.993198, 0.349787, 0.651995, 0.0001, 91, 246, 37.2221, 0.169016, 1.21078, 26604
-16813.9, 485236, -405.455, 2.74924, -747.021, 0.388103, 0.467849, 0.993198, 0.349787, 0.651995, 3, 91, 246, 37.2221, 0.169016, 1.51063, 26604
-27898.3, 792088, -146.405, 1.62589, -657.041, 0.130782, 0.324806, 1.03299, 0.34851, 0.655882, 3, 45.5, 246, 21.169, 0.0490584, 1.47526, 26605
-14201.8, 293644, -346.899, 3.11936, -880.998, 0.025656, 0.459999, 1.03299, 0.34851, 0.655882, 0.0001, 45.5, 246, 49.2742, 0.226534, 1.07824, 26607
-14201.8, 293644, -346.899, 3.11936, -880.998, 0.025656, 0.459999, 1.03299, 0.34851, 0.655882, 3, 45.5, 246, 49.2742, 0.226534, 1.48419, 26607
-8992.13, 310433, -405.49, 3.41298, -920.199, 0.0728023, 0.481792, 0.993198, 0.349787, 0.651995, 0.0001, 91, 246, 49.2742, 0.226534, 1.12418, 26607
-8992.13, 310433, -405.49, 3.41298, -920.199, 0.0728023, 0.481792, 0.993198, 0.349787, 0.651995, 3, 91, 246, 49.2742, 0.226534, 1.63854, 26607
-2424.38, 330917, -475.724, 3.76163, -976.826, 0.130812, 0.52169, 0.958125, 0.351078, 0.648177, 0.0001, 182, 246, 49.2742, 0.226534, 1.75406, 26607
-2424.38, 330917, -475.724, 3.76163, -976.826, 0.130812, 0.52169, 0.958125, 0.351078, 0.648177, 3, 182, 246, 49.2742, 0.226534, 1.75558, 26607
-20954.5, 432624, -30.8758, 2.16072, -977.348, -0.00852682, 0.263836, 1.03299, 0.34851, 0.655882, 3, 45.5, 246, 21.3989, 0.0292316, 1.5733, 26610
-5606.69, 114816, -216.39, 3.22149, -1083.04, 0.423552, 0.318309, 1.03299, 0.34851, 0.655882, 0.0001, 45.5, 246, 52.6081, 0.219725, 1.5551, 26611
-5606.69, 114816, -216.39, 3.22149, -1083.04, 0.423552, 0.318309, 1.03299, 0.34851, 0.655882, 3, 45.5, 246, 52.6081, 0.219725, 1.55678, 26611
-3297.59, 141269, -271.181, 3.59788, -1188.05, 0.50858, 0.333009, 0.993198, 0.349787, 0.651995, 0.0001, 91, 246, 52.6081, 0.219725, 2.05325, 26611
-3297.59, 141269, -271.181, 3.59788, -1188.05, 0.50858, 0.333009, 0.993198, 0.349787, 0.651995, 3, 91, 246, 52.6081, 0.219725, 1.72814, 26611
126.021, 175186, -341.499, 4.06407, -1330.67, 0.622999, 0.369187, 0.958125, 0.351078, 0.648177, 0.0001, 182, 246, 52.6081, 0.219725, 3.09644, 26611
126.021, 175186, -341.499, 4.06407, -1330.67, 0.622999, 0.369187, 0.958125, 0.351078, 0.648177, 3, 182, 246, 52.6081, 0.219725, 3.09784, 26611
-5521.73, 167024, -138.075, 2.67676, -1114.69, 0.120409, 0.272987, 0.9175, 0.352806, 0.64323, 0.0001, 455, 246, 23.2196, 0.0869265, 1.08166, 26612
-20321.4, 920854, -432.812, 0.802444, -618.928, 0.0757672, 0.530872, 1.03299, 0.34851, 0.655882, 3, 45.5, 246, 29.799, 0.121756, 1.33733, 26613
-14490.8, 611371, -405.083, 1.14822, -1079.76, 0.005167, 0.590696, 1.03299, 0.34851, 0.655882, 3, 45.5, 246, 43.3083, 0.172614, 1.31794, 26614
-16486.2, 314296, -19.973, 3.40798, -1097.24, 0.194329, 0.168406, 0.993198, 0.349787, 0.651995, 0.0001, 91, 246, 19.3096, 0.0204662, 1.40443, 26615
-16486.2, 314296, -19.973, 3.40798, -1097.24, 0.194329, 0.168406, 0.993198, 0.349787, 0.651995, 3, 91, 246, 19.3096, 0.0204662, 1.31281, 26615
-23267.7, 504045, -95.8815, 2.1072, -611.623, 0.13613, 0.27992, 1.03299, 0.34851, 0.655882, 3, 45.5, 246, 18.7278, 0.0491294, 1.54885, 26616
-14416.7, 772134, -468.862, 0.582382, -799.976, 0.589315, 0.586503, 1.03299, 0.34851, 0.655882, 3, 45.5, 246, 35.6662, 0.142817, 1.35563, 26617
-12543.2, 618774, -468.306, 0.740892, -981.211, 0.378164, 0.663559, 1.03299, 0.34851, 0.655882, 3, 45.5, 246, 43.3316, 0.187379, 1.26515, 26618
-39450.2, 844284, -372.02, 2.52499, -962.341, 0.422914, 0.378514, 1.03299, 0.34851, 0.655882, 3, 45.5, 246, 36.6878, 0.109006, 1.44973, 26619
-28958.9, 884043, -425.103, 2.7853, -1062.63, 0.486335, 0.377023, 0.993198, 0.349787, 0.651995, 0.0001, 91, 246, 36.6878, 0.109006, 1.12994, 26619
-28958.9, 884043, -425.103, 2.7853, -1062.63, 0.486335, 0.377023, 0.993198, 0.349787, 0.651995, 3, 91, 246, 36.6878, 0.109006, 1.56349, 26619
-16576, 469299, -9.38092, 1.21051, -908.047, 0.249593, 0.315202, 1.03299, 0.34851, 0.655882, 3, 45.5, 246, 18.578, 0.0121262, 1.50716, 26620
-13843.2, 299631, -332.078, 2.81731, -915.904, -0.0379023, 0.485462, 1.03299, 0.34851, 0.655882, 3, 45.5, 246, 48.3752, 0.226347, 1.44802, 26621
-9107.8, 316080, -385.419, 3.0556, -940.761, -2.42704e-05, 0.500221, 0.993198, 0.349787, 0.651995, 0.0001, 91, 246, 48.3752, 0.226347, 1.25177, 26621
-9107.8, 316080, -385.419, 3.0556, -940.761, -2.42704e-05, 0.500221, 0.993198, 0.349787, 0.651995, 3, 91, 246, 48.3752, 0.226347, 1.58775, 26621
-3213.91, 335285, -447.815, 3.33194, -979.039, 0.0447746, 0.529607, 0.958125, 0.351078, 0.648177, 0.0001, 182, 246, 48.3752, 0.226347, 1.31912, 26621
-3213.91, 335285, -447.815, 3.33194, -979.039, 0.0447746, 0.529607, 0.958125, 0.351078, 0.648177, 3, 182, 246, 48.3752, 0.226347, 1.32268, 26621
-6496.6, 69510.9, -132.54, 2.4653, -850.612, -0.0191079, 0.325686, 1.03299, 0.34851, 0.655882, 3, 45.5, 246, 45.3441, 0.197825, 1.6536, 26622
-4379.24, 96079.2, -196.022, 2.84895, -876.297, 0.0427732, 0.320961, 0.958125, 0.351078, 0.648177, 0.0001, 182, 246, 45.3441, 0.197825, 1.02856, 26622
-4379.24, 96079.2, -196.022, 2.84895, -876.297, 0.0427732, 0.320961, 0.958125, 0.351078, 0.648177, 3, 182, 246, 45.3441, 0.197825, 1.03337, 26622
-2059.86, 116009, -249.267, 3.16285, -912.299, 0.0960996, 0.342107, 0.9175, 0.352806, 0.64323, 0.0001, 455, 246, 45.3441, 0.197825, 1.45603, 26622
-2059.86, 116009, -249.267, 3.16285, -912.299, 0.0960996, 0.342107, 0.9175, 0.352806, 0.64323, 3, 455, 246, 45.3441, 0.197825, 1.45867, 26622
-14663.6, 523297, -351.888, 1.2849, -968.786, 0.106005, 0.545157, 1.03299, 0.34851, 0.655882, 3, 45.5, 246, 40.3098, 0.169887, 1.33961, 26623
-13238, 206119, -166.655, 3.09003, -692.345, -0.0453755, 0.260946, 1.03299, 0.34851, 0.655882, 0.0001, 45.5, 246, 32.2018, 0.133341, 1.67182, 26627
-13238, 206119, -166.655, 3.09003, -692.345, -0.0453755, 0.260946, 1.03299, 0.34851, 0.655882, 3, 45.5, 246, 32.2018, 0.133341, 1.18619, 26627
-13414.2, 469913, -491.87, 2.93027, -984.065, 0.123743, 0.601715, 0.993198, 0.349787, 0.651995, 0.0001, 91, 246, 48.3851, 0.218945, 1.1526, 26628
-13414.2, 469913, -491.87, 2.93027, -984.065, 0.123743, 0.601715, 0.993198, 0.349787, 0.651995, 3, 91, 246, 48.3851, 0.218945, 1.44612, 26628
-31101.8, 877918, 12.631, 1.5477, -1105.49, 0.0182727, 0.305354, 1.03299, 0.34851, 0.655882, 3, 45.5, 246, 25.0292, 0.00320713, 1.4771, 26629
-9285.77, 342711, -256.946, 0.772055, -1046.31, 0.691356, 0.503866, 1.03299, 0.34851, 0.655882, 3, 45.5, 246, 38.9951, 0.175644, 1.37061, 26630
-4017.92, 73027.7, -180.777, 3.07554, -1113.45, -0.000924847, 0.312259, 1.03299, 0.34851, 0.655882, 0.0001, 45.5, 246, 57.1005, 0.233247, 1.57356, 26631
-2548.24, 95811.5, -229.224, 3.34324, -1134.48, 0.0443178, 0.320593, 0.993198, 0.349787, 0.651995, 0.0001, 91, 246, 57.1005, 0.233247, 2.07475, 26631
-2548.24, 95811.5, -229.224, 3.34324, -1134.48, 0.0443178, 0.320593, 0.993198, 0.349787, 0.651995, 3, 91, 246, 57.1005, 0.233247, 2.07542, 26631
-343.43, 120567, -286.696, 3.65708, -1171.07, 0.0988197, 0.34505, 0.958125, 0.351078, 0.648177, 0.0001, 182, 246, 57.1005, 0.233247, 2.42701, 26631
-343.43, 120567, -286.696, 3.65708, -1171.07, 0.0988197, 0.34505, 0.958125, 0.351078, 0.648177, 3, 182, 246, 57.1005, 0.233247, 2.42537, 26631
-21075, 434634, -405.387, 2.60728, -732.217, 0.123128, 0.540787, 1.03299, 0.34851, 0.655882, 3, 45.5, 246, 43.3953, 0.206929, 1.35337, 26632
-14734.5, 450327, -457.934, 2.84536, -779.931, 0.158839, 0.555313, 0.993198, 0.349787, 0.651995, 0.0001, 91, 246, 43.3953, 0.206929, 1.14532, 26632
-14734.5, 450327, -457.934, 2.84536, -779.931, 0.158839, 0.555313, 0.993198, 0.349787, 0.651995, 3, 91, 246, 43.3953, 0.206929, 1.44679, 26632
-6508.25, 36149.6, -94.9107, 2.62517, -647.591, 0.727657, 0.261464, 1.03299, 0.34851, 0.655882, 3, 45.5, 246, 36.8611, 0.0979301, 1.70943, 26633
-3452.24, 90370.9, -216.265, 4.08455, -1155.49, 1.44151, 0.308568, 0.9175, 0.352806, 0.64323, 0.0001, 455, 246, 36.8611, 0.0979301, 1.03736, 26633
-3452.24, 90370.9, -216.265, 4.08455, -1155.49, 1.44151, 0.308568, 0.9175, 0.352806, 0.64323, 3, 455, 246, 36.8611, 0.0979301, 1.04087, 26633
-35582.5, 682689, -400.467, 2.8584, -849.1, 0.306955, 0.40664, 1.03299, 0.34851, 0.655882, 3, 45.5, 246, 37.8995, 0.140032, 1.43041, 26634
-6827.37, 8617.38, -55.2146, 3.79022, -948.097, 0.00355544, 0.20474, 0.993198, 0.349787, 0.651995, 0.0001, 91, 246, 21.9393, 0.0492669, 1.77923, 26635
-6827.37, 8617.38, -55.2146, 3.79022, -948.097, 0.00355544, 0.20474, 0.993198, 0.349787, 0.651995, 3, 91, 246, 21.9393, 0.0492669, 1.77936, 26635
-20156.1, 370630, -299.011, 3.00491, -801.276, 0.388764, 0.360886, 1.03299, 0.34851, 0.655882, 0.0001, 45.5, 246, 38.4975, 0.160513, 1.06324, 26638
-20156.1, 370630, -299.011, 3.00491, -801.276, 0.388764, 0.360886, 1.03299, 0.34851, 0.655882, 3, 45.5, 246, 38.4975, 0.160513, 1.52516, 26638
-14413.9, 392442, -349.253, 3.33849, -884.628, 0.46122, 0.371677, 0.993198, 0.349787, 0.651995, 0.0001, 91, 246, 38.4975, 0.160513, 1.3966, 26638
-6949.86, 119149, -212.317, 2.81124, -682.299, 0.50092, 0.332445, 1.03299, 0.34851, 0.655882, 0.0001, 45.5, 246, 46.7463, 0.202754, 1.6968, 26640
-6949.86, 119149, -212.317, 2.81124, -682.299, 0.50092, 0.332445, 1.03299, 0.34851, 0.655882, 3, 45.5, 246, 46.7463, 0.202754, 1.41736, 26640
-5008.71, 132475, -249.182, 3.12907, -762.031, 0.585992, 0.335488, 0.993198, 0.349787, 0.651995, 0.0001, 91, 246, 46.7463, 0.202754, 1.9298, 26640
-5008.71, 132475, -249.182, 3.12907, -762.031, 0.585992, 0.335488, 0.993198, 0.349787, 0.651995, 3, 91, 246, 46.7463, 0.202754, 1.92729, 26640
-2403.46, 149908, -295.456, 3.51701, -868.051, 0.699151, 0.355437, 0.958125, 0.351078, 0.648177, 0.0001, 182, 246, 46.7463, 0.202754, 1.65541, 26640
-2403.46, 149908, -295.456, 3.51701, -868.051, 0.699151, 0.355437, 0.958125, 0.351078, 0.648177, 3, 182, 246, 46.7463, 0.202754, 1.65699, 26640
-19393, 553829, -202.141, 1.78156, -1072.06, -0.0144558, 0.36655, 1.03299, 0.34851, 0.655882, 3, 45.5, 246, 33.2688, 0.0956736, 1.46714, 26641
-13845.5, 326550, -22.3131, 1.26002, -968.977, 0.673143, 0.316045, 1.03299, 0.34851, 0.655882, 3, 45.5, 246, 19.4986, 0.024453, 1.52023, 26642
-27336.9, 577456, -270.101, 2.51984, -773.225, -0.0301102, 0.353474, 1.03299, 0.34851, 0.655882, 0.0001, 45.5, 246, 31.7847, 0.116589, 1.48145, 26643
-27336.9, 577456, -270.101, 2.51984, -773.225, -0.0301102, 0.353474, 1.03299, 0.34851, 0.655882, 3, 45.5, 246, 31.7847, 0.116589, 1.48312, 26643
-8721.01, 107260, -91.3738, 3.97985, -833.875, 0.0597213, 0.166563, 0.993198, 0.349787, 0.651995, 0.0001, 91, 246, 23.4027, 0.0718086, 1.74677, 26644
-8721.01, 107260, -91.3738, 3.97985, -833.875, 0.0597213, 0.166563, 0.993198, 0.349787, 0.651995, 3, 91, 246, 23.4027, 0.0718086, 1.75801, 26644
-13270, 345301, -290.28, 1.7047, -903.43, 0.551121, 0.495074, 1.03299, 0.34851, 0.655882, 3, 45.5, 246, 40.2308, 0.184815, 1.42291, 26645
-5807.88, 409036, -364.4, 2.06283, -1135.22, 0.704974, 0.485084, 0.958125, 0.351078, 0.648177, 3, 182, 246, 40.2308, 0.184815, 1.01049, 26645
-12888.6, 211899, 13.108, 1.69089, -1100.32, 0.0516848, 0.296066, 1.03299, 0.34851, 0.655882, 3, 45.5, 246, 16.0763, 0.0132265, 1.55778, 26646
-24179.3, 564133, -183.463, 3.31472, -815.785, 0.025549, 0.205242, 0.993198, 0.349787, 0.651995, 0.0001, 91, 246, 25.8387, 0.0692483, 1.4158, 26647
-24179.3, 564133, -183.463, 3.31472, -815.785, 0.025549, 0.205242, 0.993198, 0.349787, 0.651995, 3, 91, 246, 25.8387, 0.0692483, 1.84494, 26647
-6792.33, 442503, -290.506, 0.360082, -782.091, 0.157941, 0.466194, 0.958125, 0.351078, 0.648177, 3, 182, 246, 33.2928, 0.166767, 1.07581, 26651
-19455.3, 427499, -257.377, 2.11387, -587.143, 0.110102, 0.398181, 1.03299, 0.34851, 0.655882, 3, 45.5, 246, 30.11, 0.137892, 1.4612, 26652
-15133.4, 437226, -287.044, 2.27394, -614.389, 0.133554, 0.388108, 0.993198, 0.349787, 0.651995, 0.0001, 91, 246, 30.11, 0.137892, 1.04463, 26652
-19799.2, 410422, -55.066, 2.08934, -657.07, -0.0196714, 0.273571, 1.03299, 0.34851, 0.655882, 3, 45.5, 246, 17.1334, 0.0382333, 1.56496, 26653
-14810, 575458, -261.421, 0.893324, -597.636, -0.00331037, 0.444221, 1.03299, 0.34851, 0.655882, 3, 45.5, 246, 26.8965, 0.117263, 1.4037, 26655
-12569.4, 275933, -300.566, 3.00347, -1125.12, -0.032822, 0.438625, 1.03299, 0.34851, 0.655882, 0.0001, 45.5, 246, 49.47, 0.216967, 1.3105, 26656
-7964.7, 299775, -359.648, 3.26617, -1150.2, 0.0102966, 0.454729, 0.993198, 0.349787, 0.651995, 0.0001, 91, 246, 49.47, 0.216967, 1.52684, 26656
-7964.7, 299775, -359.648, 3.26617, -1150.2, 0.0102966, 0.454729, 0.993198, 0.349787, 0.651995, 3, 91, 246, 49.47, 0.216967, 1.48376, 26656
-2051.71, 326803, -429.479, 3.57408, -1192.19, 0.0617748, 0.486969, 0.958125, 0.351078, 0.648177, 0.0001, 182, 246, 49.47, 0.216967, 1.5815, 26656
-2051.71, 326803, -429.479, 3.57408, -1192.19, 0.0617748, 0.486969, 0.958125, 0.351078, 0.648177, 3, 182, 246, 49.47, 0.216967, 1.5848, 26656
-29196.6, 699045, -42.8442, 2.02574, -1179.12, -0.00898931, 0.271064, 1.03299, 0.34851, 0.655882, 3, 45.5, 246, 27.6213, 0.0251489, 1.53542, 26657
-29867.4, 730758, -314.283, 3.25047, -771.983, 0.124647, 0.272118, 0.993198, 0.349787, 0.651995, 0.0001, 91, 246, 29.4385, 0.0954645, 1.36682, 26659
-29867.4, 730758, -314.283, 3.25047, -771.983, 0.124647, 0.272118, 0.993198, 0.349787, 0.651995, 3, 91, 246, 29.4385, 0.0954645, 1.71313, 26659
-10629.2, 250186, -334.571, 3.1839, -1119.82, -0.00506176, 0.475967, 1.03299, 0.34851, 0.655882, 0.0001, 45.5, 246, 54.9095, 0.249114, 1.51379, 26660
-10629.2, 250186, -334.571, 3.1839, -1119.82, -0.00506176, 0.475967, 1.03299, 0.34851, 0.655882, 3, 45.5, 246, 54.9095, 0.249114, 1.51454, 26660
-5865.69, 274992, -400.456, 3.48385, -1155.37, 0.0437256, 0.501231, 0.993198, 0.349787, 0.651995, 0.0001, 91, 246, 54.9095, 0.249114, 1.6063, 26660
-5865.69, 274992, -400.456, 3.48385, -1155.37, 0.0437256, 0.501231, 0.993198, 0.349787, 0.651995, 3, 91, 246, 54.9095, 0.249114, 1.73933, 26660
-16790.3, 349810, -147.636, 2.28646, -964.874, 0.101171, 0.313042, 1.03299, 0.34851, 0.655882, 3, 45.5, 246, 30.0839, 0.0996301, 1.54386, 26661
-18501.9, 658675, -29.078, 1.04057, -789.343, 0.00274929, 0.322926, 1.03299, 0.34851, 0.655882, 3, 45.5, 246, 18.4045, 0.0151284, 1.4884, 26662
-15699.5, 375314, -380.053, 2.47932, -1004.78, 0.0943573, 0.567386, 1.03299, 0.34851, 0.655882, 3, 45.5, 246, 49.2278, 0.227201, 1.35942, 26663
-10285.3, 398371, -435.219, 2.69665, -1050.3, 0.125627, 0.581181, 0.993198, 0.349787, 0.651995, 0.0001, 91, 246, 49.2278, 0.227201, 1.17163, 26663
-10285.3, 398371, -435.219, 2.69665, -1050.3, 0.125627, 0.581181, 0.993198, 0.349787, 0.651995, 3, 91, 246, 49.2278, 0.227201, 1.45426, 26663
-19412.5, 587100, -439.785, 1.63578, -900.111, -0.006562, 0.623858, 1.03299, 0.34851, 0.655882, 3, 45.5, 246, 43.14, 0.19186, 1.26949, 26664
-13697.9, 604865, -482.711, 1.7436, -920.566, 0.0059666, 0.625844, 0.993198, 0.349787, 0.651995, 0.0001, 91, 246, 43.14, 0.19186, 1.00516, 26664
-13697.9, 604865, -482.711, 1.7436, -920.566, 0.0059666, 0.625844, 0.993198, 0.349787, 0.651995, 3, 91, 246, 43.14, 0.19186, 1.00345, 26664
-6928.46, 624740, -529.906, 1.86032, -946.49, 0.0202402, 0.635493, 0.958125, 0.351078, 0.648177, 0.0001, 182, 246, 43.14, 0.19186, 1.01263, 26664
-8493.63, 626116, -389.451, 0.377169, -1041.89, 0.363392, 0.563336, 1.03299, 0.34851, 0.655882, 3, 45.5, 246, 39.905, 0.153551, 1.3782, 26667
-36783.2, 873772, -376.167, 2.39, -1029.91, -0.0266394, 0.41273, 1.03299, 0.34851, 0.655882, 0.0001, 45.5, 246, 38.7572, 0.116316, 1.4041, 26670
-36783.2, 873772, -376.167, 2.39, -1029.91, -0.0266394, 0.41273, 1.03299, 0.34851, 0.655882, 3, 45.5, 246, 38.7572, 0.116316, 1.40431, 26670
-26672.9, 893630, -427.739, 2.56675, -1053.91, 0.000337766, 0.409887, 0.993198, 0.349787, 0.651995, 3, 91, 246, 38.7572, 0.116316, 1.50973, 26670
-4116.22, 108042, -240.479, 3.36799, -926.566, 0.179345, 0.308334, 1.03299, 0.34851, 0.655882, 0.0001, 45.5, 246, 56.7918, 0.228233, 1.7674, 26671
-4116.22, 108042, -240.479, 3.36799, -926.566, 0.179345, 0.308334, 1.03299, 0.34851, 0.655882, 3, 45.5, 246, 56.7918, 0.228233, 1.76911, 26671
-1752.18, 126355, -293.6, 3.71929, -982.948, 0.241305, 0.326569, 0.993198, 0.349787, 0.651995, 0.0001, 91, 246, 56.7918, 0.228233, 1.96303, 26671
-1752.18, 126355, -293.6, 3.71929, -982.948, 0.241305, 0.326569, 0.993198, 0.349787, 0.651995, 3, 91, 246, 56.7918, 0.228233, 1.96411, 26671
1539.01, 148513, -359.348, 4.14599, -1061.78, 0.321432, 0.365916, 0.958125, 0.351078, 0.648177, 0.0001, 182, 246, 56.7918, 0.228233, 3.76884, 26671
1539.01, 148513, -359.348, 4.14599, -1061.78, 0.321432, 0.365916, 0.958125, 0.351078, 0.648177, 3, 182, 246, 56.7918, 0.228233, 3.77031, 26671
-5120.9, 80975.7, -188.971, 3.2768, -720.05, 0.72981, 0.233896, 1.03299, 0.34851, 0.655882, 0.0001, 45.5, 246, 46.9827, 0.156823, 1.83481, 26672
-5120.9, 80975.7, -188.971, 3.2768, -720.05, 0.72981, 0.233896, 1.03299, 0.34851, 0.655882, 3, 45.5, 246, 46.9827, 0.156823, 1.83897, 26672
-3491.2, 95794.4, -230.62, 3.72289, -837.992, 0.885662, 0.245657, 0.993198, 0.349787, 0.651995, 0.0001, 91, 246, 46.9827, 0.156823, 2.10828, 26672
-3491.2, 95794.4, -230.62, 3.72289, -837.992, 0.885662, 0.245657, 0.993198, 0.349787, 0.651995, 3, 91, 246, 46.9827, 0.156823, 2.09568, 26672
-1100.81, 117176, -286.893, 4.30477, -1009.44, 1.11192, 0.282385, 0.958125, 0.351078, 0.648177, 0.0001, 182, 246, 46.9827, 0.156823, 1.96849, 26672
-1100.81, 117176, -286.893, 4.30477, -1009.44, 1.11192, 0.282385, 0.958125, 0.351078, 0.648177, 3, 182, 246, 46.9827, 0.156823, 1.96986, 26672
-30779.6, 725754, -259.363, 2.13796, -657.709, -0.0213957, 0.35293, 1.03299, 0.34851, 0.655882, 3, 45.5, 246, 26.8744, 0.0931735, 1.46257, 26673
-23781.1, 733359, -290.276, 2.2817, -672.549, 5.19813e-05, 0.339688, 0.993198, 0.349787, 0.651995, 3, 91, 246, 26.8744, 0.0931735, 1.59773, 26673
-25138.2, 769033, -118.145, 2.35535, -1148.68, 0.0113667, 0.245764, 0.993198, 0.349787, 0.651995, 3, 91, 246, 29.2958, 0.0385925, 1.72247, 26676
-27393.2, 619846, -87.8484, 1.9074, -536.942, 0.685191, 0.288509, 1.03299, 0.34851, 0.655882, 3, 45.5, 246, 16.201, 0.0341035, 1.51925, 26677
-17900.4, 863687, -292.043, 0.916156, -897.138, 0.118849, 0.426059, 1.03299, 0.34851, 0.655882, 3, 45.5, 246, 31.3125, 0.0874785, 1.40748, 26678
-16056.2, 397711, -308.383, 3.9815, -970.12, 0.0172229, 0.260974, 0.993198, 0.349787, 0.651995, 0.0001, 91, 246, 37.8608, 0.138038, 1.13055, 26681
-16056.2, 397711, -308.383, 3.9815, -970.12, 0.0172229, 0.260974, 0.993198, 0.349787, 0.651995, 3, 91, 246, 37.8608, 0.138038, 1.82527, 26681
-7830.41, 417321, -377.918, 4.39856, -1016.44, 0.0946309, 0.3054, 0.958125, 0.351078, 0.648177, 0.0001, 182, 246, 37.8608, 0.138038, 1.05627, 26681
-7830.41, 417321, -377.918, 4.39856, -1016.44, 0.0946309, 0.3054, 0.958125, 0.351078, 0.648177, 3, 182, 246, 37.8608, 0.138038, 1.06109, 26681
-12099, 188946, -6.86932, 3.14912, -1032.78, 0.131561, 0.199359, 0.993198, 0.349787, 0.651995, 0.0001, 91, 246, 15.1276, 0.0199144, 1.37861, 26682
-12099, 188946, -6.86932, 3.14912, -1032.78, 0.131561, 0.199359, 0.993198, 0.349787, 0.651995, 3, 91, 246, 15.1276, 0.0199144, 1.14606, 26682
-21171.6, 439516, -344.781, 2.92, -989.855, -0.0337321, 0.43932, 1.03299, 0.34851, 0.655882, 3, 45.5, 246, 43.8431, 0.179739, 1.4327, 26683
-14485.3, 458331, -402.485, 3.17003, -1017.57, 0.00696366, 0.452956, 0.993198, 0.349787, 0.651995, 0.0001, 91, 246, 43.8431, 0.179739, 1.24633, 26683
-14485.3, 458331, -402.485, 3.17003, -1017.57, 0.00696366, 0.452956, 0.993198, 0.349787, 0.651995, 3, 91, 246, 43.8431, 0.179739, 1.55238, 26683
-22534.8, 407176, -264.443, 3.46116, -1133.17, 0.104365, 0.279391, 1.03299, 0.34851, 0.655882, 0.0001, 45.5, 246, 41.137, 0.141934, 1.60639, 26685
-22534.8, 407176, -264.443, 3.46116, -1133.17, 0.104365, 0.279391, 1.03299, 0.34851, 0.655882, 3, 45.5, 246, 41.137, 0.141934, 1.60575, 26685
-15554.6, 433995, -327.662, 3.81033, -1185.92, 0.165136, 0.29861, 0.993198, 0.349787, 0.651995, 0.0001, 91, 246, 41.137, 0.141934, 1.51938, 26685
-24786.9, 510110, -270.873, 2.91616, -1139.21, -0.0370474, 0.340791, 1.03299, 0.34851, 0.655882, 3, 45.5, 246, 39.7918, 0.130724, 1.51888, 26686
-17635.4, 533218, -325.274, 3.15628, -1159.86, 0.00343469, 0.346304, 0.993198, 0.349787, 0.651995, 0.0001, 91, 246, 39.7918, 0.130724, 1.23265, 26686
-17635.4, 533218, -325.274, 3.15628, -1159.86, 0.00343469, 0.346304, 0.993198, 0.349787, 0.651995, 3, 91, 246, 39.7918, 0.130724, 1.26331, 26686
-13272.7, 263917, -49.7294, 1.59428, -658.993, 0.0393253, 0.310199, 1.03299, 0.34851, 0.655882, 3, 45.5, 246, 16.7663, 0.048829, 1.53688, 26687
-7070.21, 59512.5, -109.623, 1.95171, -955.368, 0.591536, 0.358147, 1.03299, 0.34851, 0.655882, 0.0001, 45.5, 246, 44.6616, 0.233742, 1.29564, 26688
-7070.21, 59512.5, -109.623, 1.95171, -955.368, 0.591536, 0.358147, 1.03299, 0.34851, 0.655882, 3, 45.5, 246, 44.6616, 0.233742, 1.58563, 26688
-23435.4, 779959, -406.207, 1.43821, -977.694, 0.777498, 0.498542, 1.03299, 0.34851, 0.655882, 3, 45.5, 246, 37.3342, 0.118262, 1.36337, 26690
-17176.6, 654679, -349.32, 1.19875, -905.781, 0.136161, 0.501341, 1.03299, 0.34851, 0.655882, 3, 45.5, 246, 36.1847, 0.135914, 1.35897, 26691
-17131.3, 613395, -210.111, 1.3926, -1186.8, 0.00149077, 0.386226, 1.03299, 0.34851, 0.655882, 3, 45.5, 246, 35.0389, 0.0905924, 1.44793, 26693
-36940.5, 633022, -403.431, 3.40607, -1030.26, 0.57182, 0.339787, 1.03299, 0.34851, 0.655882, 0.0001, 45.5, 246, 42.2387, 0.142128, 1.3537, 26694
-36940.5, 633022, -403.431, 3.40607, -1030.26, 0.57182, 0.339787, 1.03299, 0.34851, 0.655882, 3, 45.5, 246, 42.2387, 0.142128, 1.50421, 26694
-25687.6, 677469, -478.345, 3.85448, -1181.98, 0.69214, 0.363045, 0.993198, 0.349787, 0.651995, 0.0001, 91, 246, 42.2387, 0.142128, 1.02117, 26694
-25687.6, 677469, -478.345, 3.85448, -1181.98, 0.69214, 0.363045, 0.993198, 0.349787, 0.651995, 3, 91, 246, 42.2387, 0.142128, 1.63378, 26694
-10931.4, 738682, -576.752, 4.43013, -1396.07, 0.861577, 0.41254, 0.958125, 0.351078, 0.648177, 0.0001, 182, 246, 42.2387, 0.142128, 1.08813, 26694
-10931.4, 738682, -576.752, 4.43013, -1396.07, 0.861577, 0.41254, 0.958125, 0.351078, 0.648177, 3, 182, 246, 42.2387, 0.142128, 1.09133, 26694
-12872, 226091, -227.897, 3.54865, -988.058, -0.0480761, 0.27028, 1.03299, 0.34851, 0.655882, 0.0001, 45.5, 246, 42.3648, 0.168735, 1.50359, 26695
-12872, 226091, -227.897, 3.54865, -988.058, -0.0480761, 0.27028, 1.03299, 0.34851, 0.655882, 3, 45.5, 246, 42.3648, 0.168735, 1.50645, 26695
-8749.25, 243777, -283.41, 3.87998, -1010.07, 0.0124681, 0.291508, 0.993198, 0.349787, 0.651995, 0.0001, 91, 246, 42.3648, 0.168735, 1.53189, 26695
-8749.25, 243777, -283.41, 3.87998, -1010.07, 0.0124681, 0.291508, 0.993198, 0.349787, 0.651995, 3, 91, 246, 42.3648, 0.168735, 1.87502, 26695
-3480.74, 264334, -350.445, 4.27999, -1051.82, 0.0857842, 0.33382, 0.958125, 0.351078, 0.648177, 0.0001, 182, 246, 42.3648, 0.168735, 1.49138, 26695
-3480.74, 264334, -350.445, 4.27999, -1051.82, 0.0857842, 0.33382, 0.958125, 0.351078, 0.648177, 3, 182, 246, 42.3648, 0.168735, 1.49355, 26695
-9669.19, 543874, -377.431, 0.326666, -776.085, 0.545493, 0.574297, 1.03299, 0.34851, 0.655882, 3, 45.5, 246, 35.8702, 0.166947, 1.33716, 26699
-2693.35, 72660.6, -216.738, 3.03561, -645.864, -0.043669, 0.299304, 1.03299, 0.34851, 0.655882, 0.0001, 45.5, 246, 60.2215, 0.215857, 1.85438, 26700
-2693.35, 72660.6, -216.738, 3.03561, -645.864, -0.043669, 0.299304, 1.03299, 0.34851, 0.655882, 3, 45.5, 246, 60.2215, 0.215857, 1.89429, 26700
-1194.47, 80937.9, -253.941, 3.28838, -663.136, 0.000261915, 0.305366, 0.993198, 0.349787, 0.651995, 0.0001, 91, 246, 60.2215, 0.215857, 1.94673, 26700
-1194.47, 80937.9, -253.941, 3.28838, -663.136, 0.000261915, 0.305366, 0.993198, 0.349787, 0.651995, 3, 91, 246, 60.2215, 0.215857, 2.22527, 26700
754.519, 90395.4, -297.557, 3.5829, -690.763, 0.0521203, 0.326772, 0.958125, 0.351078, 0.648177, 0.0001, 182, 246, 60.2215, 0.215857, 2.35308, 26700
754.519, 90395.4, -297.557, 3.5829, -690.763, 0.0521203, 0.326772, 0.958125, 0.351078, 0.648177, 3, 182, 246, 60.2215, 0.215857, 2.3541, 26700
-17854.9, 305200, -75.1616, 2.40708, -623.407, 0.625215, 0.251546, 1.03299, 0.34851, 0.655882, 0.0001, 45.5, 246, 18.5462, 0.0532569, 1.03909, 26702
-17854.9, 305200, -75.1616, 2.40708, -623.407, 0.625215, 0.251546, 1.03299, 0.34851, 0.655882, 3, 45.5, 246, 18.5462, 0.0532569, 1.61673, 26702
-33856.1, 976102, -13.2525, 1.57383, -743.184, -0.00925851, 0.292563, 1.03299, 0.34851, 0.655882, 3, 45.5, 246, 18.4271, 0.00745225, 1.48992, 26703
-10032.4, 111990, -25.4182, 3.89774, -839.126, 0.0167034, 0.154693, 0.993198, 0.349787, 0.651995, 0.0001, 91, 246, 14.2301, 0.0337045, 1.61764, 26704
-9781.03, 627749, -463.043, 0.34179, -907.511, 0.690092, 0.636325, 1.03299, 0.34851, 0.655882, 3, 45.5, 246, 40.047, 0.172745, 1.36643, 26705
-12863.2, 267413, -284.766, 2.42493, -829.694, 0.5743, 0.44504, 1.03299, 0.34851, 0.655882, 3, 45.5, 246, 42.8334, 0.200336, 1.48868, 26707
-9239.46, 291256, -327.28, 2.69845, -936.247, 0.663267, 0.446768, 0.993198, 0.349787, 0.651995, 0.0001, 91, 246, 42.8334, 0.200336, 1.34063, 26707
-9239.46, 291256, -327.28, 2.69845, -936.247, 0.663267, 0.446768, 0.993198, 0.349787, 0.651995, 3, 91, 246, 42.8334, 0.200336, 1.34226, 26707
-19913.1, 922032, -268.482, 0.960361, -829.089, -0.00186739, 0.406341, 1.03299, 0.34851, 0.655882, 3, 45.5, 246, 28.8891, 0.0773707, 1.42117, 26709
-19949.1, 702917, -389.26, 1.34726, -870.112, -0.00440728, 0.530396, 1.03299, 0.34851, 0.655882, 3, 45.5, 246, 37.0806, 0.144688, 1.3275, 26710
-7141.41, -16573.5, 17.9913, 3.2675, -759.642, 0.347561, 0.199976, 1.03299, 0.34851, 0.655882, 3, 45.5, 246, 7.65709, 0.041213, 1.81173, 26712
-7484.4, -6509.98, -5.06522, 3.62454, -806.467, 0.422889, 0.208094, 0.993198, 0.349787, 0.651995, 0.0001, 91, 246, 7.65709, 0.041213, 1.71727, 26712
-7484.4, -6509.98, -5.06522, 3.62454, -806.467, 0.422889, 0.208094, 0.993198, 0.349787, 0.651995, 3, 91, 246, 7.65709, 0.041213, 1.71861, 26712
-25263.2, 848961, -109.345, 1.25146, -841.788, 0.783165, 0.324886, 1.03299, 0.34851, 0.655882, 3, 45.5, 246, 23.5345, 0.0314548, 1.47293, 26713
-25487.1, 758599, -60.4949, 1.40767, -821.116, 0.639628, 0.308441, 1.03299, 0.34851, 0.655882, 3, 45.5, 246, 21.2264, 0.0221306, 1.48947, 26717
-25669.6, 843342, -176.116, 1.43491, -805.45, 0.0290932, 0.34543, 1.03299, 0.34851, 0.655882, 3, 45.5, 246, 25.4724, 0.0565973, 1.45658, 26718
-16398.8, 531525, -360.05, 2.10574, -739.972, 0.946621, 0.436816, 0.993198, 0.349787, 0.651995, 0.0001, 91, 246, 31.5165, 0.137788, 1.02879, 26720
-16398.8, 531525, -360.05, 2.10574, -739.972, 0.946621, 0.436816, 0.993198, 0.349787, 0.651995, 3, 91, 246, 31.5165, 0.137788, 1.5314, 26720
-19180.6, 668360, -399.537, 1.2289, -770.684, 0.265276, 0.543279, 1.03299, 0.34851, 0.655882, 3, 45.5, 246, 35.4404, 0.148285, 1.32949, 26722
-21120.3, 490891, -130.744, 3.37518, -1116.39, 0.503503, 0.184241, 0.993198, 0.349787, 0.651995, 3, 91, 246, 27.0735, 0.0541695, 1.90427, 26724
-20474.9, 928345, -261.826, 1.01408, -933.127, 0.210069, 0.39784, 1.03299, 0.34851, 0.655882, 3, 45.5, 246, 30.7424, 0.0723984, 1.42882, 26725
-25310.4, 661007, -79.6047, 2.6964, -1009.43, 0.0140919, 0.213674, 0.993198, 0.349787, 0.651995, 3, 91, 246, 24.5861, 0.030039, 1.78979, 26730
-10393.1, 735257, -389.7, 0.20606, -630.577, 0.0963243, 0.537188, 1.03299, 0.34851, 0.655882, 3, 45.5, 246, 30.3678, 0.136249, 1.37705, 26734
-6448.44, 876563, -274.255, 0.595062, -1141.09, 0.00149822, 0.352589, 0.958125, 0.351078, 0.648177, 0.0001, 182, 246, 34.2103, 0.0765689, 1.04633, 26735
-12274.2, 905911, -405.366, 0.456659, -901.42, 0.40155, 0.502886, 1.03299, 0.34851, 0.655882, 3, 45.5, 246, 34.2307, 0.108441, 1.35025, 26736
-13936.1, 387782, -51.7595, 1.10519, -619.424, 0.144342, 0.327578, 1.03299, 0.34851, 0.655882, 3, 45.5, 246, 15.7152, 0.0359511, 1.50502, 26737
-17391.7, 333276, -29.5459, 3.53069, -1036.64, 0.000344778, 0.156142, 0.993198, 0.349787, 0.651995, 0.0001, 91, 246, 19.774, 0.0238854, 1.27174, 26739
-17391.7, 333276, -29.5459, 3.53069, -1036.64, 0.000344778, 0.156142, 0.993198, 0.349787, 0.651995, 3, 91, 246, 19.774, 0.0238854, 1.99791, 26739
-15192.8, 473327, -233.387, 1.31537, -885.838, 0.805364, 0.40961, 1.03299, 0.34851, 0.655882, 3, 45.5, 246, 31.4537, 0.109527, 1.45452, 26740
-7789.1, 132849, -214.97, 3.28723, -732.474, 0.24743, 0.278116, 1.03299, 0.34851, 0.655882, 0.0001, 45.5, 246, 44.8735, 0.182522, 1.57556, 26742
-7789.1, 132849, -214.97, 3.28723, -732.474, 0.24743, 0.278116, 1.03299, 0.34851, 0.655882, 3, 45.5, 246, 44.8735, 0.182522, 1.74337, 26742
-5356.56, 145578, -258.278, 3.63501, -787.404, 0.312208, 0.291638, 0.993198, 0.349787, 0.651995, 0.0001, 91, 246, 44.8735, 0.182522, 1.95939, 26742
-5356.56, 145578, -258.278, 3.63501, -787.404, 0.312208, 0.291638, 0.993198, 0.349787, 0.651995, 3, 91, 246, 44.8735, 0.182522, 1.88513, 26742
-2153.74, 161488, -312.021, 4.05746, -862.088, 0.396684, 0.325558, 0.958125, 0.351078, 0.648177, 0.0001, 182, 246, 44.8735, 0.182522, 1.74638, 26742
-2153.74, 161488, -312.021, 4.05746, -862.088, 0.396684, 0.325558, 0.958125, 0.351078, 0.648177, 3, 182, 246, 44.8735, 0.182522, 1.7478, 26742
-12793.2, 865041, -349.898, 0.467826, -787.382, 0.347218, 0.467647, 1.03299, 0.34851, 0.655882, 3, 45.5, 246, 30.2939, 0.098967, 1.40563, 26746
-14965.5, 594697, -193.977, 0.979318, -805.82, -0.00249934, 0.38913, 1.03299, 0.34851, 0.655882, 3, 45.5, 246, 27.0332, 0.0852362, 1.44652, 26747
-21663.2, 463089, -151.683, 3.53224, -729.845, 0.0196606, 0.178091, 0.993198, 0.349787, 0.651995, 0.0001, 91, 246, 23.0605, 0.0645792, 1.54221, 26751
-21663.2, 463089, -151.683, 3.53224, -729.845, 0.0196606, 0.178091, 0.993198, 0.349787, 0.651995, 3, 91, 246, 23.0605, 0.0645792, 1.92371, 26751
-15845.8, 275430, -373.288, 3.32396, -532.514, 0.464507, 0.406738, 1.03299, 0.34851, 0.655882, 0.0001, 45.5, 246, 44.8117, 0.212402, 1.31003, 26754
-15845.8, 275430, -373.288, 3.32396, -532.514, 0.464507, 0.406738, 1.03299, 0.34851, 0.655882, 3, 45.5, 246, 44.8117, 0.212402, 1.31133, 26754
-10450.7, 290775, -427.224, 3.73838, -615.833, 0.560307, 0.432087, 0.993198, 0.349787, 0.651995, 0.0001, 91, 246, 44.8117, 0.212402, 1.6834, 26754
-10450.7, 290775, -427.224, 3.73838, -615.833, 0.560307, 0.432087, 0.993198, 0.349787, 0.651995, 3, 91, 246, 44.8117, 0.212402, 1.26044, 26754
-3520.35, 311768, -495.809, 4.26027, -730.301, 0.691653, 0.481818, 0.958125, 0.351078, 0.648177, 0.0001, 182, 246, 44.8117, 0.212402, 1.64718, 26754
-3520.35, 311768, -495.809, 4.26027, -730.301, 0.691653, 0.481818, 0.958125, 0.351078, 0.648177, 3, 182, 246, 44.8117, 0.212402, 1.64482, 26754
-33805.9, 705375, -253.933, 2.69474, -984.384, -0.0233792, 0.304688, 1.03299, 0.34851, 0.655882, 3, 45.5, 246, 33.9401, 0.0956679, 1.51993, 26755
-25136.1, 722338, -298.974, 2.90309, -1003.7, 0.0109945, 0.301336, 0.993198, 0.349787, 0.651995, 3, 91, 246, 33.9401, 0.0956679, 1.66791, 26755
-25800.9, 759798, -114.08, 1.60796, -1067.93, 0.292732, 0.314834, 1.03299, 0.34851, 0.655882, 3, 45.5, 246, 28.5794, 0.0417777, 1.48746, 26757
-19586.8, 547720, -243.007, 1.74475, -868.464, 0.0318238, 0.39772, 1.03299, 0.34851, 0.655882, 3, 45.5, 246, 31.9455, 0.112675, 1.4403, 26758
-9606.22, 209026, -209.36, 3.9126, -920.551, 0.0890979, 0.222232, 0.993198, 0.349787, 0.651995, 0.0001, 91, 246, 35.0204, 0.129849, 1.6308, 26759
-9606.22, 209026, -209.36, 3.9126, -920.551, 0.0890979, 0.222232, 0.993198, 0.349787, 0.651995, 3, 91, 246, 35.0204, 0.129849, 1.94337, 26759
-5351.53, 226470, -265.727, 4.32878, -965.018, 0.166023, 0.261696, 0.958125, 0.351078, 0.648177, 0.0001, 182, 246, 35.0204, 0.129849, 1.03313, 26759
-5351.53, 226470, -265.727, 4.32878, -965.018, 0.166023, 0.261696, 0.958125, 0.351078, 0.648177, 3, 182, 246, 35.0204, 0.129849, 1.03917, 26759
-9920.31, 196556, -162.19, 3.68902, -982.602, 0.148189, 0.216126, 0.993198, 0.349787, 0.651995, 0.0001, 91, 246, 31.2764, 0.109523, 1.62244, 26760
-9920.31, 196556, -162.19, 3.68902, -982.602, 0.148189, 0.216126, 0.993198, 0.349787, 0.651995, 3, 91, 246, 31.2764, 0.109523, 1.6185, 26760
-19635, 452084, -85.4251, 1.90531, -789.343, 0.111052, 0.295329, 1.03299, 0.34851, 0.655882, 3, 45.5, 246, 21.5554, 0.0508466, 1.53591, 26761
-20251.1, 553499, -440.511, 1.54894, -632.566, 0.0357545, 0.633725, 1.03299, 0.34851, 0.655882, 3, 45.5, 246, 38.947, 0.198923, 1.2519, 26762
-15083.5, 565207, -478.278, 1.65252, -656.137, 0.0472691, 0.635418, 0.993198, 0.349787, 0.651995, 3, 91, 246, 38.947, 0.198923, 1.35527, 26762
-6895.41, 3892.16, -41.4708, 3.92962, -1028.51, 0.568276, 0.194338, 0.993198, 0.349787, 0.651995, 0.0001, 91, 246, 18.2388, 0.0484198, 1.7893, 26763
-6895.41, 3892.16, -41.4708, 3.92962, -1028.51, 0.568276, 0.194338, 0.993198, 0.349787, 0.651995, 3, 91, 246, 18.2388, 0.0484198, 1.79431, 26763
-32912.8, 952699, -267.107, 1.78023, -882.662, 0.0286542, 0.363521, 1.03299, 0.34851, 0.655882, 3, 45.5, 246, 30.4964, 0.0761174, 1.43747, 26765
-13241.7, 212491, -42.0553, 3.79792, -943.799, 0.625791, 0.150215, 0.993198, 0.349787, 0.651995, 0.0001, 91, 246, 17.4626, 0.0336022, 1.45569, 26766
-13241.7, 212491, -42.0553, 3.79792, -943.799, 0.625791, 0.150215, 0.993198, 0.349787, 0.651995, 3, 91, 246, 17.4626, 0.0336022, 2.01371, 26766
-18737.8, 346916, -299.871, 3.43275, -1048.05, 0.227034, 0.332546, 1.03299, 0.34851, 0.655882, 0.0001, 45.5, 246, 44.0325, 0.171098, 1.56865, 26767
-18737.8, 346916, -299.871, 3.43275, -1048.05, 0.227034, 0.332546, 1.03299, 0.34851, 0.655882, 3, 45.5, 246, 44.0325, 0.171098, 1.26007, 26767
-12484.7, 373418, -364.181, 3.80865, -1124.15, 0.295154, 0.355026, 0.993198, 0.349787, 0.651995, 0.0001, 91, 246, 44.0325, 0.171098, 1.54814, 26767
-12484.7, 373418, -364.181, 3.80865, -1124.15, 0.295154, 0.355026, 0.993198, 0.349787, 0.651995, 3, 91, 246, 44.0325, 0.171098, 1.57907, 26767
-4382.21, 406830, -444.709, 4.27006, -1229.78, 0.384682, 0.400252, 0.958125, 0.351078, 0.648177, 0.0001, 182, 246, 44.0325, 0.171098, 1.37741, 26767
-4382.21, 406830, -444.709, 4.27006, -1229.78, 0.384682, 0.400252, 0.958125, 0.351078, 0.648177, 3, 182, 246, 44.0325, 0.171098, 1.38, 26767
-19782.1, 435987, -241.224, 2.42699, -921.033, -0.0275248, 0.367799, 1.03299, 0.34851, 0.655882, 3, 45.5, 246, 35.1359, 0.132414, 1.48678, 26770
-14765.8, 451211, -280.33, 2.60496, -936.252, 0.000278782, 0.362248, 0.993198, 0.349787, 0.651995, 0.0001, 91, 246, 35.1359, 0.132414, 1.0608, 26770
-14771.1, 375105, -378.956, 2.14081, -960.041, 0.103499, 0.600052, 1.03299, 0.34851, 0.655882, 3, 45.5, 246, 48.4671, 0.23298, 1.33977, 26771
-9995.29, 396674, -427.425, 2.31639, -1001.51, 0.12738, 0.609243, 0.993198, 0.349787, 0.651995, 0.0001, 91, 246, 48.4671, 0.23298, 1.09365, 26771
-7908.47, 5281.49, -1.5321, 2.77653, -617.9, 0.497748, 0.239152, 1.03299, 0.34851, 0.655882, 3, 45.5, 246, 10.809, 0.0345818, 1.65252, 26772
-11075.5, 405434, -483.043, 2.70709, -955.282, 0.54197, 0.631473, 0.993198, 0.349787, 0.651995, 0.0001, 91, 246, 49.034, 0.236693, 1.24667, 26774
-11075.5, 405434, -483.043, 2.70709, -955.282, 0.54197, 0.631473, 0.993198, 0.349787, 0.651995, 3, 91, 246, 49.034, 0.236693, 1.45152, 26774
-3664.55, 441029, -551.695, 3.03413, -1088.63, 0.632234, 0.664597, 0.958125, 0.351078, 0.648177, 0.0001, 182, 246, 49.034, 0.236693, 1.06778, 26774
-3664.55, 441029, -551.695, 3.03413, -1088.63, 0.632234, 0.664597, 0.958125, 0.351078, 0.648177, 3, 182, 246, 49.034, 0.236693, 1.0752, 26774
-34070.3, 681455, -379.429, 2.74319, -841.834, 0.186558, 0.404802, 1.03299, 0.34851, 0.655882, 0.0001, 45.5, 246, 36.9819, 0.136364, 1.43057, 26776
-34070.3, 681455, -379.429, 2.74319, -841.834, 0.186558, 0.404802, 1.03299, 0.34851, 0.655882, 3, 45.5, 246, 36.9819, 0.136364, 1.42927, 26776
-24747.7, 703726, -433.353, 3.00081, -901.049, 0.229523, 0.410874, 0.993198, 0.349787, 0.651995, 3, 91, 246, 36.9819, 0.136364, 1.53974, 26776
-12138.6, 281721, -197.639, 1.92748, -1068.56, -0.00757726, 0.406913, 1.03299, 0.34851, 0.655882, 3, 45.5, 246, 37.7844, 0.160285, 1.46755, 26778
-24282.2, 601744, -22.7177, 1.7906, -891.255, -0.012813, 0.284907, 1.03299, 0.34851, 0.655882, 3, 45.5, 246, 20.2054, 0.017295, 1.52654, 26780
-13751.4, 277626, -249.35, 2.72433, -997.634, 0.310721, 0.380945, 1.03299, 0.34851, 0.655882, 3, 45.5, 246, 41.7201, 0.175958, 1.54001, 26783
-9795.28, 302252, -296.542, 2.99798, -1073.19, 0.364531, 0.384812, 0.993198, 0.349787, 0.651995, 0.0001, 91, 246, 41.7201, 0.175958, 1.29229, 26783
-9795.28, 302252, -296.542, 2.99798, -1073.19, 0.364531, 0.384812, 0.993198, 0.349787, 0.651995, 3, 91, 246, 41.7201, 0.175958, 1.6362, 26783
-7365.14, -11842.2, -18.308, 3.54633, -827.784, 0.00283953, 0.219273, 0.993198, 0.349787, 0.651995, 0.0001, 91, 246, 11.6605, 0.0427129, 1.75374, 26785
-31978.9, 572675, -402.821, 3.13428, -772.971, 0.168478, 0.410152, 1.03299, 0.34851, 0.655882, 0.0001, 45.5, 246, 39.2197, 0.161553, 1.44167, 26786
-31978.9, 572675, -402.821, 3.13428, -772.971, 0.168478, 0.410152, 1.03299, 0.34851, 0.655882, 3, 45.5, 246, 39.2197, 0.161553, 1.43653, 26786
-7426, -39867.7, 7.25987, 2.54367, -831.054, 0.0645756, 0.279146, 1.03299, 0.34851, 0.655882, 0.0001, 45.5, 246, 10.0145, 0.0340172, 1.73137, 26787
-7426, -39867.7, 7.25987, 2.54367, -831.054, 0.0645756, 0.279146, 1.03299, 0.34851, 0.655882, 3, 45.5, 246, 10.0145, 0.0340172, 1.73195, 26787
-26235.3, 631288, -223.585, 2.0718, -752.913, 0.0558104, 0.349248, 1.03299, 0.34851, 0.655882, 3, 45.5, 246, 27.8643, 0.0904259, 1.47386, 26788
-4644.86, 96674.4, -229.399, 3.17119, -648.906, 0.570884, 0.281189, 1.03299, 0.34851, 0.655882, 0.0001, 45.5, 246, 51.6854, 0.193428, 1.82457, 26791
-4644.86, 96674.4, -229.399, 3.17119, -648.906, 0.570884, 0.281189, 1.03299, 0.34851, 0.655882, 3, 45.5, 246, 51.6854, 0.193428, 1.82552, 26791
-2674.81, 109347, -270.871, 3.56528, -739.334, 0.682172, 0.291999, 0.993198, 0.349787, 0.651995, 0.0001, 91, 246, 51.6854, 0.193428, 2.12428, 26791
-2674.81, 109347, -270.871, 3.56528, -739.334, 0.682172, 0.291999, 0.993198, 0.349787, 0.651995, 3, 91, 246, 51.6854, 0.193428, 1.77467, 26791
30.4157, 126699, -324.507, 4.06225, -864.54, 0.836065, 0.324725, 0.958125, 0.351078, 0.648177, 0.0001, 182, 246, 51.6854, 0.193428, 2.31547, 26791
30.4157, 126699, -324.507, 4.06225, -864.54, 0.836065, 0.324725, 0.958125, 0.351078, 0.648177, 3, 182, 246, 51.6854, 0.193428, 2.31706, 26791
-9205.82, 612089, -373.811, 0.570037, -1166.85, 0.134536, 0.55999, 1.03299, 0.34851, 0.655882, 3, 45.5, 246, 42.1926, 0.156165, 1.32303, 26795
-28043.4, 580069, -188.374, 2.50136, -1042.72, 0.668713, 0.279525, 1.03299, 0.34851, 0.655882, 0.0001, 45.5, 246, 31.9231, 0.0770412, 1.5607, 26796
-28043.4, 580069, -188.374, 2.50136, -1042.72, 0.668713, 0.279525, 1.03299, 0.34851, 0.655882, 3, 45.5, 246, 31.9231, 0.0770412, 1.56055, 26796
-21308.4, 624256, -228.987, 2.79059, -1184.19, 0.782064, 0.270632, 0.993198, 0.349787, 0.651995, 0.0001, 91, 246, 31.9231, 0.0770412, 1.47683, 26796
-19024.7, 405285, -393.981, 2.54372, -737.802, -0.0257631, 0.554051, 1.03299, 0.34851, 0.655882, 3, 45.5, 246, 44.6421, 0.21825, 1.34037, 26797
-13238.1, 417286, -444.489, 2.75114, -765.725, 0.0049984, 0.56795, 0.993198, 0.349787, 0.651995, 0.0001, 91, 246, 44.6421, 0.21825, 1.18755, 26797
-13238.1, 417286, -444.489, 2.75114, -765.725, 0.0049984, 0.56795, 0.993198, 0.349787, 0.651995, 3, 91, 246, 44.6421, 0.21825, 1.44835, 26797
-29687.4, 841652, -429.411, 1.80563, -862.593, 0.0411152, 0.511938, 1.03299, 0.34851, 0.655882, 3, 45.5, 246, 37.0421, 0.133854, 1.3296, 26798
-30857.8, 571682, -306.912, 3.02481, -782.135, -0.0291166, 0.329181, 1.03299, 0.34851, 0.655882, 0.0001, 45.5, 246, 34.3796, 0.129842, 1.08316, 26799
-30857.8, 571682, -306.912, 3.02481, -782.135, -0.0291166, 0.329181, 1.03299, 0.34851, 0.655882, 3, 45.5, 246, 34.3796, 0.129842, 1.51265, 26799
-14191.5, 520680, -112.691, 0.964856, -854.727, -0.0038553, 0.351031, 1.03299, 0.34851, 0.655882, 3, 45.5, 246, 23.7309, 0.0576955, 1.48049, 26800
-9864.81, 215010, -192.773, 1.17605, -753.571, 0.349713, 0.463063, 1.03299, 0.34851, 0.655882, 3, 45.5, 246, 36.8038, 0.203229, 1.4304, 26802
-21726.4, 735154, -280.486, 1.45595, -927.214, 0.101809, 0.415351, 1.03299, 0.34851, 0.655882, 3, 45.5, 246, 32.7585, 0.0990082, 1.42034, 26803
-15398.7, 293127, -12.8442, 3.08438, -924.475, 0.0680163, 0.194105, 0.993198, 0.349787, 0.651995, 0.0001, 91, 246, 16.191, 0.0160304, 1.25403, 26804
-15398.7, 293127, -12.8442, 3.08438, -924.475, 0.0680163, 0.194105, 0.993198, 0.349787, 0.651995, 3, 91, 246, 16.191, 0.0160304, 1.8954, 26804
-16347.6, 471085, -384.633, 1.59636, -824.192, 0.0869405, 0.593993, 1.03299, 0.34851, 0.655882, 3, 45.5, 246, 41.9299, 0.201009, 1.30521, 26805
-17398.4, 364035, -91.9055, 3.16023, -750.662, 0.892307, 0.197991, 0.993198, 0.349787, 0.651995, 0.0001, 91, 246, 18.4421, 0.0444968, 1.30132, 26806
-17398.4, 364035, -91.9055, 3.16023, -750.662, 0.892307, 0.197991, 0.993198, 0.349787, 0.651995, 3, 91, 246, 18.4421, 0.0444968, 1.84699, 26806
-25325.9, 803464, -93.4295, 1.35235, -761.426, 0.466831, 0.31827, 1.03299, 0.34851, 0.655882, 3, 45.5, 246, 21.1945, 0.0305796, 1.48022, 26807
-8276.93, 190259, -186.505, 2.78255, -1086.89, 0.323078, 0.319667, 0.993198, 0.349787, 0.651995, 3, 91, 246, 36.7151, 0.153867, 1.25444, 26809
-15747.4, 658355, -405.312, 0.781016, -679.128, 0.685318, 0.546122, 1.03299, 0.34851, 0.655882, 3, 45.5, 246, 32.4894, 0.141294, 1.35701, 26810
-36733.6, 676719, -413.304, 2.96897, -876.441, 0.507055, 0.396825, 1.03299, 0.34851, 0.655882, 0.0001, 45.5, 246, 38.7274, 0.140026, 1.03676, 26813
-36733.6, 676719, -413.304, 2.96897, -876.441, 0.507055, 0.396825, 1.03299, 0.34851, 0.655882, 3, 45.5, 246, 38.7274, 0.140026, 1.4423, 26813
-26699.3, 679972, -38.2301, 1.8014, -915.083, -0.00915593, 0.286609, 1.03299, 0.34851, 0.655882, 3, 45.5, 246, 21.9033, 0.0211893, 1.51776, 26814
-13402.4, 248764, -43.4853, 1.89397, -1132.59, -0.0135628, 0.297154, 1.03299, 0.34851, 0.655882, 3, 45.5, 246, 23.2663, 0.0540963, 1.55662, 26818
-12718.1, 372269, -308.649, 1.61652, -1022.4, 0.0139514, 0.540011, 1.03299, 0.34851, 0.655882, 3, 45.5, 246, 43.6602, 0.202608, 1.35878, 26819
-24846.9, 923769, -415.236, 2.35879, -1146.72, -7.19618e-05, 0.410488, 0.993198, 0.349787, 0.651995, 3, 91, 246, 40.0012, 0.110618, 1.51603, 26820
-31057.9, 806579, -107.282, 1.82729, -625.281, 0.00774056, 0.294109, 1.03299, 0.34851, 0.655882, 3, 45.5, 246, 18.986, 0.037424, 1.50353, 26822
-25575.8, 682542, -269.417, 1.89732, -813.416, -0.0167894, 0.391379, 1.03299, 0.34851, 0.655882, 3, 45.5, 246, 30.8837, 0.102985, 1.42977, 26823
-7546.09, 588446, -449.842, 0.0662739, -884.549, 0.519188, 0.650975, 1.03299, 0.34851, 0.655882, 3, 45.5, 246, 40.3084, 0.186761, 1.30679, 26827
-13709.3, 289935, -47.1342, 1.59716, -903.335, 0.0477845, 0.309938, 1.03299, 0.34851, 0.655882, 3, 45.5, 246, 20.274, 0.0469482, 1.53432, 26828
-9217.82, 327338, -263.2, 0.865838, -1118.42, 0.196488, 0.534128, 1.03299, 0.34851, 0.655882, 3, 45.5, 246, 42.2361, 0.202374, 1.35554, 26830
-15342.2, 630280, -131.582, 0.830172, -629.173, 0.220862, 0.355393, 1.03299, 0.34851, 0.655882, 3, 45.5, 246, 19.9031, 0.0529505, 1.47122, 26831
-32793.3, 852692, -257.748, 1.67971, -518.575, 0.847621, 0.349837, 1.03299, 0.34851, 0.655882, 3, 45.5, 246, 21.1538, 0.0671808, 1.46108, 26832
-21032.7, 411546, -218.269, 2.73728, -846.216, -0.0251573, 0.317268, 1.03299, 0.34851, 0.655882, 0.0001, 45.5, 246, 32.79, 0.122377, 1.5476, 26833
-21032.7, 411546, -218.269, 2.73728, -846.216, -0.0251573, 0.317268, 1.03299, 0.34851, 0.655882, 3, 45.5, 246, 32.79, 0.122377, 1.54411, 26833
-22958.8, 463797, -199.736, 2.39599, -731.945, 0.500194, 0.311553, 1.03299, 0.34851, 0.655882, 0.0001, 45.5, 246, 27.6419, 0.0955112, 1.5369, 26835
-22958.8, 463797, -199.736, 2.39599, -731.945, 0.500194, 0.311553, 1.03299, 0.34851, 0.655882, 3, 45.5, 246, 27.6419, 0.0955112, 1.53715, 26835
-17114.6, 869730, -266.494, 0.778893, -802.383, 0.44232, 0.406298, 1.03299, 0.34851, 0.655882, 3, 45.5, 246, 27.8177, 0.0742364, 1.42708, 26836
-19793.2, 358037, -285.019, 3.03969, -679.957, -0.0442327, 0.354918, 1.03299, 0.34851, 0.655882, 0.0001, 45.5, 246, 36.7913, 0.16397, 1.52793, 26837
-19793.2, 358037, -285.019, 3.03969, -679.957, -0.0442327, 0.354918, 1.03299, 0.34851, 0.655882, 3, 45.5, 246, 36.7913, 0.16397, 1.52895, 26837
-26373, 566699, -185.698, 3.56504, -667.941, 0.00288189, 0.178909, 0.993198, 0.349787, 0.651995, 0.0001, 91, 246, 23.1344, 0.0679824, 1.10318, 26838
-26373, 566699, -185.698, 3.56504, -667.941, 0.00288189, 0.178909, 0.993198, 0.349787, 0.651995, 3, 91, 246, 23.1344, 0.0679824, 1.90224, 26838
-25657.3, 947794, -306.174, 1.1413, -614.681, 0.452221, 0.412312, 1.03299, 0.34851, 0.655882, 3, 45.5, 246, 24.6925, 0.0781028, 1.41156, 26839
-14691.8, 464896, -136.805, 1.33796, -1128.42, 0.0101333, 0.355511, 1.03299, 0.34851, 0.655882, 3, 45.5, 246, 30.2954, 0.0776429, 1.48174, 26840
-15514.1, 349157, -283.88, 3.73342, -697.252, 0.370859, 0.262403, 0.993198, 0.349787, 0.651995, 0.0001, 91, 246, 32.224, 0.131858, 1.05277, 26841
-15514.1, 349157, -283.88, 3.73342, -697.252, 0.370859, 0.262403, 0.993198, 0.349787, 0.651995, 3, 91, 246, 32.224, 0.131858, 1.05614, 26841
-24533.2, 568902, -7.72088, 2.90118, -1085.04, 0.090921, 0.19041, 0.993198, 0.349787, 0.651995, 3, 91, 246, 21.7059, 0.00814978, 1.84759, 26843
-4348.77, 42885.1, -153.153, 3.94783, -887.033, 0.948365, 0.191618, 0.993198, 0.349787, 0.651995, 0.0001, 91, 246, 40.477, 0.0715024, 1.23928, 26844
-4348.77, 42885.1, -153.153, 3.94783, -887.033, 0.948365, 0.191618, 0.993198, 0.349787, 0.651995, 3, 91, 246, 40.477, 0.0715024, 1.24139, 26844
-3170.87, 62792, -206.79, 4.59825, -1072.18, 1.20973, 0.234768, 0.958125, 0.351078, 0.648177, 0.0001, 182, 246, 40.477, 0.0715024, 1.26495, 26844
-3170.87, 62792, -206.79, 4.59825, -1072.18, 1.20973, 0.234768, 0.958125, 0.351078, 0.648177, 3, 182, 246, 40.477, 0.0715024, 1.26673, 26844
122.75, 110579, -322.705, 5.91946, -1516.48, 1.83331, 0.357961, 0.9175, 0.352806, 0.64323, 0.0001, 455, 246, 40.477, 0.0715024, 2.18286, 26844
122.75, 110579, -322.705, 5.91946, -1516.48, 1.83331, 0.357961, 0.9175, 0.352806, 0.64323, 3, 455, 246, 40.477, 0.0715024, 2.18419, 26844
-31474.6, 661836, -349.355, 2.48713, -677.067, -0.0293537, 0.410758, 1.03299, 0.34851, 0.655882, 0.0001, 45.5, 246, 32.713, 0.132962, 1.42218, 26845
-31474.6, 661836, -349.355, 2.48713, -677.067, -0.0293537, 0.410758, 1.03299, 0.34851, 0.655882, 3, 45.5, 246, 32.713, 0.132962, 1.42024, 26845
-23515.1, 670789, -392.296, 2.6756, -700.619, -8.47707e-05, 0.410125, 0.993198, 0.349787, 0.651995, 3, 91, 246, 32.713, 0.132962, 1.52477, 26845
-16975, 355971, -109.489, 3.20351, -738.527, 0.523158, 0.203274, 0.993198, 0.349787, 0.651995, 3, 91, 246, 20.1558, 0.0549202, 1.65317, 26846
-4484.75, 61541.1, -154.664, 3.57418, -1156.89, 0.0846215, 0.226104, 1.03299, 0.34851, 0.655882, 0.0001, 45.5, 246, 49.5633, 0.164395, 1.61692, 26848
-4484.75, 61541.1, -154.664, 3.57418, -1156.89, 0.0846215, 0.226104, 1.03299, 0.34851, 0.655882, 3, 45.5, 246, 49.5633, 0.164395, 1.61935, 26848
-3067.8, 86566.6, -209.626, 3.93361, -1196.28, 0.148502, 0.245797, 0.993198, 0.349787, 0.651995, 0.0001, 91, 246, 49.5633, 0.164395, 2.09458, 26848
-3067.8, 86566.6, -209.626, 3.93361, -1196.28, 0.148502, 0.245797, 0.993198, 0.349787, 0.651995, 3, 91, 246, 49.5633, 0.164395, 2.09374, 26848
-764.889, 114830, -277.444, 4.37134, -1259.13, 0.229607, 0.287843, 0.958125, 0.351078, 0.648177, 0.0001, 182, 246, 49.5633, 0.164395, 2.11009, 26848
-764.889, 114830, -277.444, 4.37134, -1259.13, 0.229607, 0.287843, 0.958125, 0.351078, 0.648177, 3, 182, 246, 49.5633, 0.164395, 2.11143, 26848
-38231.6, 887359, -376.056, 2.2178, -770.11, 0.180647, 0.409233, 1.03299, 0.34851, 0.655882, 0.0001, 45.5, 246, 32.4457, 0.10913, 1.40694, 26850
-38231.6, 887359, -376.056, 2.2178, -770.11, 0.180647, 0.409233, 1.03299, 0.34851, 0.655882, 3, 45.5, 246, 32.4457, 0.10913, 1.40693, 26850
-28705.5, 909056, -419.535, 2.40061, -818.732, 0.210044, 0.402409, 0.993198, 0.349787, 0.651995, 0.0001, 91, 246, 32.4457, 0.10913, 1.01822, 26850
-28705.5, 909056, -419.535, 2.40061, -818.732, 0.210044, 0.402409, 0.993198, 0.349787, 0.651995, 3, 91, 246, 32.4457, 0.10913, 1.51996, 26850
-7118.83, 408635, -250.048, 0.155052, -840.715, 0.0162882, 0.464012, 0.993198, 0.349787, 0.651995, 3, 91, 246, 33.5907, 0.162236, 1.26029, 26852
-13789.8, 732149, -170.829, 0.551322, -637.386, 0.78581, 0.368915, 1.03299, 0.34851, 0.655882, 3, 45.5, 246, 20.8581, 0.0523752, 1.4662, 26853
-33249.6, 729853, -395.649, 2.02289, -523.842, 0.780542, 0.43937, 1.03299, 0.34851, 0.655882, 0.0001, 45.5, 246, 27.9755, 0.118642, 1.40602, 26854
-33249.6, 729853, -395.649, 2.02289, -523.842, 0.780542, 0.43937, 1.03299, 0.34851, 0.655882, 3, 45.5, 246, 27.9755, 0.118642, 1.40483, 26854
-25568.6, 770834, -434.046, 2.26077, -623.506, 0.913317, 0.43161, 0.993198, 0.349787, 0.651995, 3, 91, 246, 27.9755, 0.118642, 1.48518, 26854
-17892, 400698, -337.009, 3.87952, -674.048, 0.554248, 0.275666, 0.993198, 0.349787, 0.651995, 0.0001, 91, 246, 33.0237, 0.138637, 1.15092, 26855
-17892, 400698, -337.009, 3.87952, -674.048, 0.554248, 0.275666, 0.993198, 0.349787, 0.651995, 3, 91, 246, 33.0237, 0.138637, 1.78841, 26855
-9555.02, 424779, -398.751, 4.41299, -785.21, 0.690062, 0.319255, 0.958125, 0.351078, 0.648177, 0.0001, 182, 246, 33.0237, 0.138637, 1.04627, 26855
-9555.02, 424779, -398.751, 4.41299, -785.21, 0.690062, 0.319255, 0.958125, 0.351078, 0.648177, 3, 182, 246, 33.0237, 0.138637, 1.05, 26855
-25574.3, 455242, -285.452, 3.45003, -998.813, -0.0542071, 0.288708, 1.03299, 0.34851, 0.655882, 0.0001, 45.5, 246, 39.5616, 0.142414, 1.58486, 26858
-25574.3, 455242, -285.452, 3.45003, -998.813, -0.0542071, 0.288708, 1.03299, 0.34851, 0.655882, 3, 45.5, 246, 39.5616, 0.142414, 1.44611, 26858
-17926, 472882, -345.379, 3.76531, -1024.51, 0.00297232, 0.307666, 0.993198, 0.349787, 0.651995, 0.0001, 91, 246, 39.5616, 0.142414, 1.69549, 26858
-17926, 472882, -345.379, 3.76531, -1024.51, 0.00297232, 0.307666, 0.993198, 0.349787, 0.651995, 3, 91, 246, 39.5616, 0.142414, 1.47478, 26858
-8315.8, 233338, -78.6706, 0.220028, -1150.16, 0.631749, 0.334123, 0.993198, 0.349787, 0.651995, 0.0001, 91, 246, 23.8256, 0.0844575, 1.27426, 26859
-8315.8, 233338, -78.6706, 0.220028, -1150.16, 0.631749, 0.334123, 0.993198, 0.349787, 0.651995, 3, 91, 246, 23.8256, 0.0844575, 1.58279, 26859
-7426.18, -3365.27, -30.2414, 3.39727, -999.434, 0.255518, 0.231694, 0.993198, 0.349787, 0.651995, 0.0001, 91, 246, 16.0312, 0.0491024, 1.21748, 26861
-7426.18, -3365.27, -30.2414, 3.39727, -999.434, 0.255518, 0.231694, 0.993198, 0.349787, 0.651995, 3, 91, 246, 16.0312, 0.0491024, 1.61289, 26861
-21220, 530220, -40.2111, 1.59966, -601.852, 0.500278, 0.296244, 1.03299, 0.34851, 0.655882, 3, 45.5, 246, 15.1009, 0.0217298, 1.52033, 26863
-26887.9, 485019, -254.755, 3.16037, -893.478, 0.0815842, 0.280429, 1.03299, 0.34851, 0.655882, 0.0001, 45.5, 246, 34.739, 0.121341, 1.58143, 26865
-26887.9, 485019, -254.755, 3.16037, -893.478, 0.0815842, 0.280429, 1.03299, 0.34851, 0.655882, 3, 45.5, 246, 34.739, 0.121341, 1.58126, 26865
-11054.6, 216109, -309.161, 3.22384, -650.139, -0.0465025, 0.393776, 1.03299, 0.34851, 0.655882, 0.0001, 45.5, 246, 48.1449, 0.225488, 1.49569, 26866
-11054.6, 216109, -309.161, 3.22384, -650.139, -0.0465025, 0.393776, 1.03299, 0.34851, 0.655882, 3, 45.5, 246, 48.1449, 0.225488, 1.53641, 26866
-7083.54, 224976, -357.863, 3.51428, -677.356, 0.00334829, 0.413068, 0.993198, 0.349787, 0.651995, 0.0001, 91, 246, 48.1449, 0.225488, 1.74151, 26866
-7083.54, 224976, -357.863, 3.51428, -677.356, 0.00334829, 0.413068, 0.993198, 0.349787, 0.651995, 3, 91, 246, 48.1449, 0.225488, 1.42022, 26866
-2178.39, 236209, -415.866, 3.85895, -718.401, 0.0630888, 0.450482, 0.958125, 0.351078, 0.648177, 0.0001, 182, 246, 48.1449, 0.225488, 1.81685, 26866
-2178.39, 236209, -415.866, 3.85895, -718.401, 0.0630888, 0.450482, 0.958125, 0.351078, 0.648177, 3, 182, 246, 48.1449, 0.225488, 1.8236, 26866
-14647.8, 493183, -40.4148, 0.994394, -1081.03, -0.00455174, 0.328772, 1.03299, 0.34851, 0.655882, 3, 45.5, 246, 23.3007, 0.0264626, 1.49792, 26867
-7981.92, 33829.8, -51.8611, 2.30777, -567.673, 0.374016, 0.280329, 1.03299, 0.34851, 0.655882, 3, 45.5, 246, 24.4747, 0.0772154, 1.63676, 26869
-22011.1, 406663, -117.381, 2.61542, -965.045, 0.593377, 0.249338, 1.03299, 0.34851, 0.655882, 0.0001, 45.5, 246, 27.3502, 0.0681378, 1.61162, 26872
-13253.2, 873005, -298.586, 0.510361, -771.96, 0.053707, 0.436653, 1.03299, 0.34851, 0.655882, 3, 45.5, 246, 28.5453, 0.0885205, 1.41285, 26873
-12935, 533902, -273.408, 0.799299, -762.206, 0.670129, 0.452393, 1.03299, 0.34851, 0.655882, 3, 45.5, 246, 30.2066, 0.117873, 1.41707, 26874
-8797.42, 105483, -108.068, 1.66883, -754.514, 0.590128, 0.359976, 1.03299, 0.34851, 0.655882, 0.0001, 45.5, 246, 32.8837, 0.167095, 4.31064, 26875
-8797.42, 105483, -108.068, 1.66883, -754.514, 0.590128, 0.359976, 1.03299, 0.34851, 0.655882, 3, 45.5, 246, 32.8837, 0.167095, 4.31087, 26875
-4870.4, 173750, -189.54, 2.30971, -1142.18, 0.938296, 0.321075, 0.9175, 0.352806, 0.64323, 3, 455, 246, 32.8837, 0.167095, 1.24752, 26875
-10474.8, 304189, -292.928, 1.4822, -1116.08, -0.0092013, 0.571448, 1.03299, 0.34851, 0.655882, 3, 45.5, 246, 47.1903, 0.236067, 1.34107, 26876
-19609.6, 973731, -332.969, 0.812372, -689.716, -0.000781458, 0.445249, 1.03299, 0.34851, 0.655882, 3, 45.5, 246, 27.6124, 0.0901935, 1.37248, 26878
-15280.3, 284986, -75.2818, 2.15536, -806.401, 0.0312504, 0.284986, 1.03299, 0.34851, 0.655882, 3, 45.5, 246, 21.8691, 0.0652621, 1.57331, 26879
-11393.4, 170600, -85.9818, 2.45735, -1188.84, -0.0278278, 0.290961, 1.03299, 0.34851, 0.655882, 3, 45.5, 246, 29.8163, 0.105332, 1.59762, 26880
-9523.57, 195063, -119.734, 2.63341, -1193.11, 0.000630074, 0.28054, 0.993198, 0.349787, 0.651995, 0.0001, 91, 246, 29.8163, 0.105332, 1.22594, 26880
-14181, 404930, -383.954, 1.17693, -596.765, 0.0453073, 0.654724, 1.03299, 0.34851, 0.655882, 3, 45.5, 246, 41.2034, 0.235087, 1.25631, 26882
-7376.28, 426013, -443.701, 1.32369, -634.152, 0.0598861, 0.658889, 0.958125, 0.351078, 0.648177, 3, 182, 246, 41.2034, 0.235087, 1.13523, 26882
-6994.66, 596858, -472.011, 0.00235257, -910.837, 0.630472, 0.67016, 1.03299, 0.34851, 0.655882, 0.0001, 45.5, 246, 41.2513, 0.189733, 4.57975, 26883
-6994.66, 596858, -472.011, 0.00235257, -910.837, 0.630472, 0.67016, 1.03299, 0.34851, 0.655882, 3, 45.5, 246, 41.2513, 0.189733, 4.57457, 26883
-11027.2, 233471, -218.522, 1.95038, -963.23, 0.816988, 0.423371, 1.03299, 0.34851, 0.655882, 3, 45.5, 246, 39.733, 0.18086, 1.49018, 26884
-5202.51, 307955, -296.029, 2.46572, -1342.68, 1.15903, 0.412914, 0.958125, 0.351078, 0.648177, 0.0001, 182, 246, 39.733, 0.18086, 1.02938, 26884
-5202.51, 307955, -296.029, 2.46572, -1342.68, 1.15903, 0.412914, 0.958125, 0.351078, 0.648177, 3, 182, 246, 39.733, 0.18086, 1.04563, 26884
-14646.1, 214973, -41.0376, 2.58078, -617.421, 0.0200463, 0.239362, 1.03299, 0.34851, 0.655882, 3, 45.5, 246, 15.896, 0.04563, 1.65085, 26886
-8660.7, 33003.2, -5.28577, 2.90666, -1076.11, 0.37306, 0.230004, 1.03299, 0.34851, 0.655882, 0.0001, 45.5, 246, 17.6842, 0.0601706, 1.39187, 26887
-8660.7, 33003.2, -5.28577, 2.90666, -1076.11, 0.37306, 0.230004, 1.03299, 0.34851, 0.655882, 3, 45.5, 246, 17.6842, 0.0601706, 1.6294, 26887
-18601.3, 478356, -201.428, 2.03602, -1117.51, -0.0180987, 0.360911, 1.03299, 0.34851, 0.655882, 3, 45.5, 246, 34.8113, 0.107592, 1.48251, 26889
-13584.4, 275050, -201.382, 3.84588, -717.943, 0.264816, 0.202643, 0.993198, 0.349787, 0.651995, 0.0001, 91, 246, 28.5945, 0.106453, 1.05659, 26890
-13584.4, 275050, -201.382, 3.84588, -717.943, 0.264816, 0.202643, 0.993198, 0.349787, 0.651995, 3, 91, 246, 28.5945, 0.106453, 1.95047, 26890
-38322.3, 871478, -299.012, 2.25169, -829.6, 0.424586, 0.341503, 1.03299, 0.34851, 0.655882, 3, 45.5, 246, 30.6418, 0.0853901, 1.47373, 26891
-29139.5, 906284, -338.652, 2.46813, -911.499, 0.481308, 0.330499, 0.993198, 0.349787, 0.651995, 3, 91, 246, 30.6418, 0.0853901, 1.60467, 26891
-19106.4, 432439, -208.349, 3.67248, -896.437, 0.0246127, 0.203791, 0.993198, 0.349787, 0.651995, 3, 91, 246, 29.6221, 0.0916599, 1.89276, 26893
-22447.5, 539861, -390.226, 2.28828, -922.349, 0.0579918, 0.52334, 1.03299, 0.34851, 0.655882, 3, 45.5, 246, 42.1791, 0.176465, 1.34654, 26896
-15806.8, 559633, -440.272, 2.47156, -958.817, 0.0836228, 0.528093, 0.993198, 0.349787, 0.651995, 0.0001, 91, 246, 42.1791, 0.176465, 1.07908, 26896
-7789.04, 582828, -497.649, 2.67833, -1005.86, 0.114235, 0.543708, 0.958125, 0.351078, 0.648177, 0.0001, 182, 246, 42.1791, 0.176465, 1.10948, 26896
-9658.64, 430815, -361.846, 0.616679, -968.057, 0.150449, 0.633642, 1.03299, 0.34851, 0.655882, 3, 45.5, 246, 43.6951, 0.218102, 1.31412, 26897
-15052.7, 552591, -136.861, 1.03699, -873.691, 0.123221, 0.357402, 1.03299, 0.34851, 0.655882, 3, 45.5, 246, 25.3999, 0.0643235, 1.47254, 26898
-32900.8, 618886, -294.921, 2.93455, -941.76, 0.460054, 0.304333, 1.03299, 0.34851, 0.655882, 0.0001, 45.5, 246, 35.3254, 0.110986, 1.53877, 26899
-32900.8, 618886, -294.921, 2.93455, -941.76, 0.460054, 0.304333, 1.03299, 0.34851, 0.655882, 3, 45.5, 246, 35.3254, 0.110986, 1.53819, 26899
-24105.9, 653130, -347.567, 3.26404, -1046.2, 0.541552, 0.308913, 0.993198, 0.349787, 0.651995, 0.0001, 91, 246, 35.3254, 0.110986, 1.31657, 26899
-24105.9, 653130, -347.567, 3.26404, -1046.2, 0.541552, 0.308913, 0.993198, 0.349787, 0.651995, 3, 91, 246, 35.3254, 0.110986, 1.68661, 26899
-15325.8, 544286, -450.548, 0.904325, -663.44, -0.00102557, 0.691487, 1.03299, 0.34851, 0.655882, 3, 45.5, 246, 40.2936, 0.214957, 1.21995, 26900
-12212.3, 336014, -281.07, 1.58428, -970.69, 0.310839, 0.50758, 1.03299, 0.34851, 0.655882, 3, 45.5, 246, 41.4986, 0.193556, 1.39685, 26902
-16859.2, 924562, -189.188, 0.638061, -628.484, 0.392751, 0.369312, 1.03299, 0.34851, 0.655882, 3, 45.5, 246, 21.0769, 0.0499556, 1.45392, 26903
-13515.2, 260487, -83.3076, 3.59876, -1133.71, 0.113773, 0.177053, 0.993198, 0.349787, 0.651995, 0.0001, 91, 246, 24.5348, 0.0571216, 1.2846, 26904
-6683.22, -15426.6, -9.03702, 3.36659, -921.675, 0.575379, 0.193732, 1.03299, 0.34851, 0.655882, 3, 45.5, 246, 18.5351, 0.0449954, 1.83405, 26906
-6954.64, 392.693, -41.5523, 3.7919, -1020.9, 0.694728, 0.205639, 0.993198, 0.349787, 0.651995, 0.0001, 91, 246, 18.5351, 0.0449954, 1.75152, 26906
-6954.64, 392.693, -41.5523, 3.7919, -1020.9, 0.694728, 0.205639, 0.993198, 0.349787, 0.651995, 3, 91, 246, 18.5351, 0.0449954, 1.75354, 26906
-16091.2, 270645, -215.931, 3.25144, -926.586, 0.64368, 0.260697, 1.03299, 0.34851, 0.655882, 0.0001, 45.5, 246, 36.9349, 0.137627, 1.53843, 26907
-16091.2, 270645, -215.931, 3.25144, -926.586, 0.64368, 0.260697, 1.03299, 0.34851, 0.655882, 3, 45.5, 246, 36.9349, 0.137627, 1.54122, 26907
-11618.3, 298599, -266.514, 3.67552, -1059.06, 0.775121, 0.273055, 0.993198, 0.349787, 0.651995, 0.0001, 91, 246, 36.9349, 0.137627, 1.57069, 26907
-11618.3, 298599, -266.514, 3.67552, -1059.06, 0.775121, 0.273055, 0.993198, 0.349787, 0.651995, 3, 91, 246, 36.9349, 0.137627, 1.40171, 26907
-19880.5, 350498, -426.82, 3.56402, -715.56, 0.154224, 0.466734, 1.03299, 0.34851, 0.655882, 0.0001, 45.5, 246, 48.8969, 0.225217, 1.38333, 26910
-19880.5, 350498, -426.82, 3.56402, -715.56, 0.154224, 0.466734, 1.03299, 0.34851, 0.655882, 3, 45.5, 246, 48.8969, 0.225217, 1.44219, 26910
-12610.1, 366491, -495.932, 3.96377, -783.261, 0.221812, 0.505048, 0.993198, 0.349787, 0.651995, 0.0001, 91, 246, 48.8969, 0.225217, 1.15016, 26910
-12610.1, 366491, -495.932, 3.96377, -783.261, 0.221812, 0.505048, 0.993198, 0.349787, 0.651995, 3, 91, 246, 48.8969, 0.225217, 1.51611, 26910
-3361.42, 388265, -582.315, 4.45869, -877.464, 0.310512, 0.569154, 0.958125, 0.351078, 0.648177, 0.0001, 182, 246, 48.8969, 0.225217, 1.70468, 26910
-3361.42, 388265, -582.315, 4.45869, -877.464, 0.310512, 0.569154, 0.958125, 0.351078, 0.648177, 3, 182, 246, 48.8969, 0.225217, 1.70311, 26910
-13144.3, 751644, -320.438, 0.715304, -1012.88, 0.446528, 0.459033, 1.03299, 0.34851, 0.655882, 3, 45.5, 246, 34.9003, 0.103001, 1.41448, 26912
-11040.9, 317548, -313.385, 1.51594, -1066.84, 0.52826, 0.570961, 1.03299, 0.34851, 0.655882, 3, 45.5, 246, 46.3573, 0.224996, 1.36124, 26913
-8069.96, 351100, -349.037, 1.65855, -1179.5, 0.58843, 0.565922, 0.993198, 0.349787, 0.651995, 0.0001, 91, 246, 46.3573, 0.224996, 1.00073, 26913
-8069.96, 351100, -349.037, 1.65855, -1179.5, 0.58843, 0.565922, 0.993198, 0.349787, 0.651995, 3, 91, 246, 46.3573, 0.224996, 1.00395, 26913
-12595.4, 396542, -141.885, 1.19274, -1095.29, 0.0963334, 0.370408, 1.03299, 0.34851, 0.655882, 3, 45.5, 246, 30.3111, 0.0907426, 1.47906, 26914
-9274.73, 40530.6, 22.0477, 2.90557, -1038.8, 0.242409, 0.221724, 1.03299, 0.34851, 0.655882, 0.0001, 45.5, 246, 11.6134, 0.0360482, 1.16949, 26915
-9274.73, 40530.6, 22.0477, 2.90557, -1038.8, 0.242409, 0.221724, 1.03299, 0.34851, 0.655882, 3, 45.5, 246, 11.6134, 0.0360482, 1.72982, 26915
-7765.52, 505562, -212.176, 0.29677, -682.974, 0.361184, 0.359047, 0.958125, 0.351078, 0.648177, 3, 182, 246, 24.1658, 0.1025, 1.18264, 26917
-13267.8, 192498, 6.50717, 2.09032, -674.653, 0.130311, 0.27058, 1.03299, 0.34851, 0.655882, 0.0001, 45.5, 246, 10.8052, 0.0126003, 1.00921, 26919
-15319.7, 628212, -445.152, 0.987413, -887.5, 0.136987, 0.632509, 1.03299, 0.34851, 0.655882, 3, 45.5, 246, 41.0867, 0.18126, 1.29035, 26920
-29767.8, 886019, -354.834, 1.7973, -998.774, 0.0950674, 0.434268, 1.03299, 0.34851, 0.655882, 3, 45.5, 246, 36.4941, 0.105699, 1.3902, 26921
-6412.84, 15231.8, -71.8792, 3.91373, -1197.38, 0.197027, 0.206987, 0.993198, 0.349787, 0.651995, 0.0001, 91, 246, 26.6008, 0.0610917, 1.7632, 26922
-6412.84, 15231.8, -71.8792, 3.91373, -1197.38, 0.197027, 0.206987, 0.993198, 0.349787, 0.651995, 3, 91, 246, 26.6008, 0.0610917, 1.76279, 26922
-17943.5, 394188, -233.625, 2.57719, -1118.84, -0.0252013, 0.362446, 1.03299, 0.34851, 0.655882, 0.0001, 45.5, 246, 38.7184, 0.1397, 1.05937, 26923
-17652.9, 616966, -301.789, 1.14319, -731.646, 0.716135, 0.446182, 1.03299, 0.34851, 0.655882, 3, 45.5, 246, 29.8066, 0.111015, 1.41186, 26925
-2464.63, 132351, -251.879, 2.71061, -912.285, 0.555987, 0.372691, 0.9175, 0.352806, 0.64323, 0.0001, 455, 246, 46.8128, 0.237566, 1.15246, 26928
-2464.63, 132351, -251.879, 2.71061, -912.285, 0.555987, 0.372691, 0.9175, 0.352806, 0.64323, 3, 455, 246, 46.8128, 0.237566, 1.15883, 26928
-14433.9, 282307, -374.728, 3.37343, -706.905, -0.0544148, 0.452097, 1.03299, 0.34851, 0.655882, 0.0001, 45.5, 246, 50.0476, 0.235971, 1.50322, 26929
-14433.9, 282307, -374.728, 3.37343, -706.905, -0.0544148, 0.452097, 1.03299, 0.34851, 0.655882, 3, 45.5, 246, 50.0476, 0.235971, 1.20899, 26929
-8900.04, 293204, -434.271, 3.69299, -741.311, 0.000438708, 0.481471, 0.993198, 0.349787, 0.651995, 0.0001, 91, 246, 50.0476, 0.235971, 1.67315, 26929
-8900.04, 293204, -434.271, 3.69299, -741.311, 0.000438708, 0.481471, 0.993198, 0.349787, 0.651995, 3, 91, 246, 50.0476, 0.235971, 1.60569, 26929
-2019.04, 307508, -506.018, 4.0773, -793.247, 0.0667557, 0.531482, 0.958125, 0.351078, 0.648177, 0.0001, 182, 246, 50.0476, 0.235971, 1.91792, 26929
-2019.04, 307508, -506.018, 4.0773, -793.247, 0.0667557, 0.531482, 0.958125, 0.351078, 0.648177, 3, 182, 246, 50.0476, 0.235971, 1.91456, 26929
-27029.3, 587352, -270.764, 3.72068, -699.589, 0.0658321, 0.211512, 0.993198, 0.349787, 0.651995, 0.0001, 91, 246, 27.6033, 0.0942025, 1.83929, 26930
-27029.3, 587352, -270.764, 3.72068, -699.589, 0.0658321, 0.211512, 0.993198, 0.349787, 0.651995, 3, 91, 246, 27.6033, 0.0942025, 1.83986, 26930
-17457.3, 331007, -71.143, 2.34087, -950.951, 0.00791808, 0.267351, 1.03299, 0.34851, 0.655882, 3, 45.5, 246, 23.7473, 0.058798, 1.58982, 26931
-14754.3, 542262, -199.415, 0.972057, -629.409, -0.00273708, 0.397525, 1.03299, 0.34851, 0.655882, 3, 45.5, 246, 24.5021, 0.0948347, 1.44356, 26932
-27886, 525541, -313.117, 3.03166, -839.957, -0.0197271, 0.348847, 1.03299, 0.34851, 0.655882, 0.0001, 45.5, 246, 36.7561, 0.141082, 1.50237, 26934
-27886, 525541, -313.117, 3.03166, -839.957, -0.0197271, 0.348847, 1.03299, 0.34851, 0.655882, 3, 45.5, 246, 36.7561, 0.141082, 1.50298, 26934
-20154.7, 539046, -364.701, 3.29269, -868.36, 0.0241275, 0.358498, 0.993198, 0.349787, 0.651995, 0.0001, 91, 246, 36.7561, 0.141082, 1.55399, 26934
-20154.7, 539046, -364.701, 3.29269, -868.36, 0.0241275, 0.358498, 0.993198, 0.349787, 0.651995, 3, 91, 246, 36.7561, 0.141082, 1.59676, 26934
-27877.5, 502871, -295.593, 3.34112, -979.609, -0.0169057, 0.300089, 1.03299, 0.34851, 0.655882, 0.0001, 45.5, 246, 38.8241, 0.137565, 1.55938, 26935
-27877.5, 502871, -295.593, 3.34112, -979.609, -0.0169057, 0.300089, 1.03299, 0.34851, 0.655882, 3, 45.5, 246, 38.8241, 0.137565, 1.55941, 26935
-19733.8, 520850, -354.303, 3.64697, -1010.89, 0.0366395, 0.31619, 0.993198, 0.349787, 0.651995, 0.0001, 91, 246, 38.8241, 0.137565, 1.44694, 26935
-19733.8, 520850, -354.303, 3.64697, -1010.89, 0.0366395, 0.31619, 0.993198, 0.349787, 0.651995, 3, 91, 246, 38.8241, 0.137565, 1.38266, 26935
-9559.45, 210731, -265.453, 2.47831, -1055.71, 0.101574, 0.475254, 1.03299, 0.34851, 0.655882, 0.0001, 45.5, 246, 50.0242, 0.243697, 1.49151, 26936
-9559.45, 210731, -265.453, 2.47831, -1055.71, 0.101574, 0.475254, 1.03299, 0.34851, 0.655882, 3, 45.5, 246, 50.0242, 0.243697, 1.4933, 26936
-24922.3, 664651, -105.767, 2.69092, -1012.93, 0.166719, 0.220721, 0.993198, 0.349787, 0.651995, 3, 91, 246, 25.386, 0.0377533, 1.77892, 26937
-31139.7, 505664, -314.934, 3.44362, -614.599, -0.054911, 0.285187, 1.03299, 0.34851, 0.655882, 0.0001, 45.5, 246, 33.0229, 0.138858, 1.60543, 26938
-31139.7, 505664, -314.934, 3.44362, -614.599, -0.054911, 0.285187, 1.03299, 0.34851, 0.655882, 3, 45.5, 246, 33.0229, 0.138858, 1.61559, 26938
-22788.9, 512186, -364.848, 3.75731, -644.077, 0.00204802, 0.303669, 0.993198, 0.349787, 0.651995, 0.0001, 91, 246, 33.0229, 0.138858, 1.7035, 26938
-22788.9, 512186, -364.848, 3.75731, -644.077, 0.00204802, 0.303669, 0.993198, 0.349787, 0.651995, 3, 91, 246, 33.0229, 0.138858, 1.70483, 26938
-12277.1, 217552, -283.766, 3.02125, -588.346, 0.524312, 0.358203, 1.03299, 0.34851, 0.655882, 0.0001, 45.5, 246, 41.9305, 0.193356, 1.49786, 26941
-12277.1, 217552, -283.766, 3.02125, -588.346, 0.524312, 0.358203, 1.03299, 0.34851, 0.655882, 3, 45.5, 246, 41.9305, 0.193356, 1.49684, 26941
-8596.12, 232271, -326.822, 3.38427, -670.668, 0.620718, 0.369661, 0.993198, 0.349787, 0.651995, 0.0001, 91, 246, 41.9305, 0.193356, 1.21974, 26941
-8596.12, 232271, -326.822, 3.38427, -670.668, 0.620718, 0.369661, 0.993198, 0.349787, 0.651995, 3, 91, 246, 41.9305, 0.193356, 1.66906, 26941
-3843.24, 251973, -381.25, 3.83557, -782.423, 0.751565, 0.401057, 0.958125, 0.351078, 0.648177, 0.0001, 182, 246, 41.9305, 0.193356, 1.47189, 26941
-3843.24, 251973, -381.25, 3.83557, -782.423, 0.751565, 0.401057, 0.958125, 0.351078, 0.648177, 3, 182, 246, 41.9305, 0.193356, 1.47359, 26941
-10967, 546664, -379.488, 0.322933, -597.503, 0.00184556, 0.59826, 1.03299, 0.34851, 0.655882, 3, 45.5, 246, 34.1434, 0.183004, 1.27197, 26942
-9320.35, 257415, -243.536, 0.525408, -700.715, 0.455842, 0.554793, 1.03299, 0.34851, 0.655882, 3, 45.5, 246, 39.0778, 0.238747, 1.34862, 26943
-14153.6, 279483, -359.416, 3.53345, -818.118, -0.0603424, 0.413372, 1.03299, 0.34851, 0.655882, 0.0001, 45.5, 246, 50.3957, 0.227154, 1.53198, 26944
-14153.6, 279483, -359.416, 3.53345, -818.118, -0.0603424, 0.413372, 1.03299, 0.34851, 0.655882, 3, 45.5, 246, 50.3957, 0.227154, 1.27008, 26944
-8498.44, 293164, -423.205, 3.87525, -852.131, -3.24518e-05, 0.445052, 0.993198, 0.349787, 0.651995, 0.0001, 91, 246, 50.3957, 0.227154, 1.30475, 26944
-8498.44, 293164, -423.205, 3.87525, -852.131, -3.24518e-05, 0.445052, 0.993198, 0.349787, 0.651995, 3, 91, 246, 50.3957, 0.227154, 1.71148, 26944
-1379.25, 310624, -500.638, 4.29006, -906.58, 0.0732027, 0.499064, 0.958125, 0.351078, 0.648177, 0.0001, 182, 246, 50.3957, 0.227154, 2.11131, 26944
-1379.25, 310624, -500.638, 4.29006, -906.58, 0.0732027, 0.499064, 0.958125, 0.351078, 0.648177, 3, 182, 246, 50.3957, 0.227154, 2.11403, 26944
-29100.7, 739470, -299.849, 2.14739, -1000.65, 0.0978661, 0.386965, 1.03299, 0.34851, 0.655882, 3, 45.5, 246, 35.6136, 0.105555, 1.4439, 26945
-11650.7, 517954, -423.76, 0.881937, -1042.37, 0.319732, 0.657837, 1.03299, 0.34851, 0.655882, 3, 45.5, 246, 45.3125, 0.204432, 1.27001, 26947
-13532.6, 232543, -101.818, 3.6644, -608.85, 0.322112, 0.17202, 0.993198, 0.349787, 0.651995, 0.0001, 91, 246, 19.0177, 0.0606456, 1.62117, 26948
-13532.6, 232543, -101.818, 3.6644, -608.85, 0.322112, 0.17202, 0.993198, 0.349787, 0.651995, 3, 91, 246, 19.0177, 0.0606456, 1.61812, 26948
-15240.1, 554088, -406.811, 0.935011, -692.459, 0.485249, 0.593796, 1.03299, 0.34851, 0.655882, 3, 45.5, 246, 36.2278, 0.174667, 1.31644, 26949
-29776.1, 561616, -232.136, 2.68136, -742.049, 0.614858, 0.282818, 1.03299, 0.34851, 0.655882, 0.0001, 45.5, 246, 28.3591, 0.0917922, 1.56234, 26950
-29776.1, 561616, -232.136, 2.68136, -742.049, 0.614858, 0.282818, 1.03299, 0.34851, 0.655882, 3, 45.5, 246, 28.3591, 0.0917922, 1.56231, 26950
-22717.6, 592610, -270.589, 2.99278, -843.994, 0.720127, 0.278877, 0.993198, 0.349787, 0.651995, 3, 91, 246, 28.3591, 0.0917922, 1.28692, 26950
-23894.8, 812475, -335.154, 1.24642, -686.519, 0.674865, 0.437528, 1.03299, 0.34851, 0.655882, 3, 45.5, 246, 28.0566, 0.0949608, 1.40527, 26951
-30024, 820290, -16.7882, 2.42943, -959.419, 0.0142457, 0.21173, 0.993198, 0.349787, 0.651995, 3, 91, 246, 21.9683, 0.00746554, 1.76974, 26952
-9317.48, 123609, -94.8931, 1.74077, -1069.51, 0.546543, 0.349343, 1.03299, 0.34851, 0.655882, 3, 45.5, 246, 31.3549, 0.140847, 1.53464, 26953
-30256, 612652, -260.278, 2.74932, -890.735, -0.0346053, 0.316103, 1.03299, 0.34851, 0.655882, 0.0001, 45.5, 246, 33.2353, 0.10823, 1.51868, 26954
-22487.5, 626369, -304.285, 2.96423, -909.517, 0.00124205, 0.315035, 0.993198, 0.349787, 0.651995, 0.0001, 91, 246, 33.2353, 0.10823, 1.54357, 26954
-22487.5, 626369, -304.285, 2.96423, -909.517, 0.00124205, 0.315035, 0.993198, 0.349787, 0.651995, 3, 91, 246, 33.2353, 0.10823, 1.20318, 26954
-20199.3, 551622, -318.88, 1.60635, -699.048, 0.614322, 0.455198, 1.03299, 0.34851, 0.655882, 3, 45.5, 246, 31.6773, 0.130701, 1.41007, 26955
-19920.4, 919930, -404.668, 0.941145, -823.855, 0.0101997, 0.507768, 1.03299, 0.34851, 0.655882, 3, 45.5, 246, 33.6507, 0.115971, 1.34098, 26956
-33322.2, 539172, -426.115, 3.02827, -511.5, 0.744561, 0.40506, 1.03299, 0.34851, 0.655882, 0.0001, 45.5, 246, 33.8789, 0.156269, 1.45119, 26957
-33322.2, 539172, -426.115, 3.02827, -511.5, 0.744561, 0.40506, 1.03299, 0.34851, 0.655882, 3, 45.5, 246, 33.8789, 0.156269, 1.45197, 26957
-22808.5, 750018, -445.56, 1.70898, -1129.22, -0.0135113, 0.57296, 1.03299, 0.34851, 0.655882, 3, 45.5, 246, 44.3722, 0.156368, 1.29014, 26958
-35399.2, 777018, -386.159, 2.5603, -1046.69, 0.356442, 0.408136, 1.03299, 0.34851, 0.655882, 0.0001, 45.5, 246, 39.8148, 0.123206, 1.42435, 26959
-35399.2, 777018, -386.159, 2.5603, -1046.69, 0.356442, 0.408136, 1.03299, 0.34851, 0.655882, 3, 45.5, 246, 39.8148, 0.123206, 1.42647, 26959
-25382.4, 815618, -443.263, 2.81778, -1142.16, 0.411327, 0.409839, 0.993198, 0.349787, 0.651995, 0.0001, 91, 246, 39.8148, 0.123206, 1.07986, 26959
-25382.4, 815618, -443.263, 2.81778, -1142.16, 0.411327, 0.409839, 0.993198, 0.349787, 0.651995, 3, 91, 246, 39.8148, 0.123206, 1.53756, 26959
-13891.8, 421136, -128.425, 1.31017, -1091.87, 0.103287, 0.354517, 1.03299, 0.34851, 0.655882, 3, 45.5, 246, 29.2636, 0.0786687, 1.48472, 26960
-13035.9, 291404, -334.147, 3.08708, -1103.1, -0.0290527, 0.46974, 1.03299, 0.34851, 0.655882, 0.0001, 45.5, 246, 51.5923, 0.229243, 1.00583, 26961
-13035.9, 291404, -334.147, 3.08708, -1103.1, -0.0290527, 0.46974, 1.03299, 0.34851, 0.655882, 3, 45.5, 246, 51.5923, 0.229243, 1.47631, 26961
-7897.3, 314943, -397.509, 3.36637, -1132.92, 0.0166105, 0.491239, 0.993198, 0.349787, 0.651995, 0.0001, 91, 246, 51.5923, 0.229243, 1.42108, 26961
-7897.3, 314943, -397.509, 3.36637, -1132.92, 0.0166105, 0.491239, 0.993198, 0.349787, 0.651995, 3, 91, 246, 51.5923, 0.229243, 1.11355, 26961
-1295.3, 342160, -472.914, 3.6963, -1181.21, 0.0715693, 0.530167, 0.958125, 0.351078, 0.648177, 0.0001, 182, 246, 51.5923, 0.229243, 2.08331, 26961
-1295.3, 342160, -472.914, 3.6963, -1181.21, 0.0715693, 0.530167, 0.958125, 0.351078, 0.648177, 3, 182, 246, 51.5923, 0.229243, 2.0852, 26961
-14621.7, 345338, -77.7203, 1.47024, -647.67, 0.232353, 0.321596, 1.03299, 0.34851, 0.655882, 3, 45.5, 246, 18.6067, 0.0557417, 1.51839, 26962
-34378.5, 686525, -264.505, 2.6683, -728.083, 0.0173218, 0.309441, 1.03299, 0.34851, 0.655882, 0.0001, 45.5, 246, 29.2248, 0.0983998, 1.51619, 26963
-34378.5, 686525, -264.505, 2.6683, -728.083, 0.0173218, 0.309441, 1.03299, 0.34851, 0.655882, 3, 45.5, 246, 29.2248, 0.0983998, 1.51537, 26963
-26039, 697310, -303.647, 2.87982, -752.772, 0.0512607, 0.305792, 0.993198, 0.349787, 0.651995, 0.0001, 91, 246, 29.2248, 0.0983998, 1.1581, 26963
-26039, 697310, -303.647, 2.87982, -752.772, 0.0512607, 0.305792, 0.993198, 0.349787, 0.651995, 3, 91, 246, 29.2248, 0.0983998, 1.65879, 26963
-17929.1, 732310, -201.994, 1.03135, -796.372, 0.0472429, 0.379704, 1.03299, 0.34851, 0.655882, 3, 45.5, 246, 26.3962, 0.072406, 1.44361, 26964
-2796.87, 49506.2, -238.295, 5.06769, -785.989, 0.231297, 0.320304, 0.9175, 0.352806, 0.64323, 0.0001, 455, 246, 37.2269, 0.0510252, 1.12445, 26965
-2796.87, 49506.2, -238.295, 5.06769, -785.989, 0.231297, 0.320304, 0.9175, 0.352806, 0.64323, 3, 455, 246, 37.2269, 0.0510252, 1.12462, 26965
-27938.9, 522889, -340.496, 3.46136, -1157.38, -0.0576345, 0.340626, 1.03299, 0.34851, 0.655882, 0.0001, 45.5, 246, 44.5045, 0.15505, 1.51764, 26966
-27938.9, 522889, -340.496, 3.46136, -1157.38, -0.0576345, 0.340626, 1.03299, 0.34851, 0.655882, 3, 45.5, 246, 44.5045, 0.15505, 1.51931, 26966
-7598.51, 576619, -497.354, 4.17081, -1241.66, 0.0695371, 0.407486, 0.958125, 0.351078, 0.648177, 0.0001, 182, 246, 44.5045, 0.15505, 1.0267, 26966
-7598.51, 576619, -497.354, 4.17081, -1241.66, 0.0695371, 0.407486, 0.958125, 0.351078, 0.648177, 3, 182, 246, 44.5045, 0.15505, 1.03214, 26966
-37611.5, 715415, -355.004, 2.58556, -645.997, 0.69279, 0.357254, 1.03299, 0.34851, 0.655882, 0.0001, 45.5, 246, 29.8403, 0.11041, 1.47169, 26969
-37611.5, 715415, -355.004, 2.58556, -645.997, 0.69279, 0.357254, 1.03299, 0.34851, 0.655882, 3, 45.5, 246, 29.8403, 0.11041, 1.47164, 26969
-19136.1, 373747, -6.45925, 2.11457, -793.579, -0.0145295, 0.263884, 1.03299, 0.34851, 0.655882, 3, 45.5, 246, 15.8888, 0.0164659, 1.57948, 26971
-18557.1, 622247, -388.955, 1.41735, -911.693, 0.237468, 0.54214, 1.03299, 0.34851, 0.655882, 3, 45.5, 246, 38.8576, 0.155462, 1.33547, 26972
-13526.4, 648418, -424.485, 1.52116, -963.983, 0.256567, 0.532626, 0.993198, 0.349787, 0.651995, 0.0001, 91, 246, 38.8576, 0.155462, 1.04114, 26972
-14761.1, 281761, -380.185, 3.28185, -647.254, 0.138202, 0.457353, 1.03299, 0.34851, 0.655882, 0.0001, 45.5, 246, 48.8567, 0.233266, 1.49262, 26973
-14761.1, 281761, -380.185, 3.28185, -647.254, 0.138202, 0.457353, 1.03299, 0.34851, 0.655882, 3, 45.5, 246, 48.8567, 0.233266, 1.21556, 26973
-9305.61, 294430, -437.593, 3.62475, -701.985, 0.194801, 0.484625, 0.993198, 0.349787, 0.651995, 0.0001, 91, 246, 48.8567, 0.233266, 1.64707, 26973
-9305.61, 294430, -437.593, 3.62475, -701.985, 0.194801, 0.484625, 0.993198, 0.349787, 0.651995, 3, 91, 246, 48.8567, 0.233266, 1.24362, 26973
-2446.89, 311152, -507.867, 4.04017, -776.358, 0.26749, 0.53303, 0.958125, 0.351078, 0.648177, 0.0001, 182, 246, 48.8567, 0.233266, 1.81883, 26973
-2446.89, 311152, -507.867, 4.04017, -776.358, 0.26749, 0.53303, 0.958125, 0.351078, 0.648177, 3, 182, 246, 48.8567, 0.233266, 1.82371, 26973
-7982.88, 69058.1, -89.9891, 2.30156, -888.201, 0.0787949, 0.31066, 1.03299, 0.34851, 0.655882, 0.0001, 45.5, 246, 34.2023, 0.147834, 1.17447, 26974
-7982.88, 69058.1, -89.9891, 2.30156, -888.201, 0.0787949, 0.31066, 1.03299, 0.34851, 0.655882, 3, 45.5, 246, 34.2023, 0.147834, 1.61158, 26974
-15759.5, 245756, 14.6325, 2.35511, -959.014, 0.0183644, 0.248511, 1.03299, 0.34851, 0.655882, 3, 45.5, 246, 15.4826, 0.0133577, 1.62385, 26975
-13396.2, 261758, -5.60881, 2.52212, -963.45, 0.0446117, 0.232917, 0.993198, 0.349787, 0.651995, 3, 91, 246, 15.4826, 0.0133577, 1.06016, 26975
-14615.9, 327533, -105.119, 1.54489, -670.781, 0.832202, 0.326554, 1.03299, 0.34851, 0.655882, 3, 45.5, 246, 21.1858, 0.0689063, 1.51925, 26976
-20540, 593435, -218.205, 1.6146, -789.563, 0.116398, 0.376283, 1.03299, 0.34851, 0.655882, 3, 45.5, 246, 28.3322, 0.0933624, 1.45236, 26979
-8003.4, 254155, -328.285, 2.39796, -862.551, 0.709232, 0.496041, 0.993198, 0.349787, 0.651995, 3, 91, 246, 45.4786, 0.23138, 1.59796, 26981
-13265.2, 390568, -221.793, 1.52274, -1088.71, 0.242825, 0.423129, 1.03299, 0.34851, 0.655882, 3, 45.5, 246, 36.4809, 0.136368, 1.44462, 26982
-18355.7, 521605, -92.5302, 1.48358, -880.202, 0.0718537, 0.321346, 1.03299, 0.34851, 0.655882, 3, 45.5, 246, 23.3671, 0.0488611, 1.50193, 26986
-30232.3, 653576, -395.075, 2.29429, -693.086, 0.413438, 0.459479, 1.03299, 0.34851, 0.655882, 0.0001, 45.5, 246, 34.2542, 0.141022, 1.38818, 26987
-30232.3, 653576, -395.075, 2.29429, -693.086, 0.413438, 0.459479, 1.03299, 0.34851, 0.655882, 3, 45.5, 246, 34.2542, 0.141022, 1.37091, 26987
-22451.9, 680363, -440.595, 2.52363, -770.435, 0.469565, 0.459018, 0.993198, 0.349787, 0.651995, 0.0001, 91, 246, 34.2542, 0.141022, 1.12025, 26987
-22451.9, 680363, -440.595, 2.52363, -770.435, 0.469565, 0.459018, 0.993198, 0.349787, 0.651995, 3, 91, 246, 34.2542, 0.141022, 1.47883, 26987
-23242.4, 530047, -225.588, 2.05267, -583.768, 0.195023, 0.354868, 1.03299, 0.34851, 0.655882, 3, 45.5, 246, 25.5522, 0.101299, 1.48201, 26988
-12324.9, 147038, -0.811095, 2.52717, -1099.94, 0.0265315, 0.24629, 1.03299, 0.34851, 0.655882, 0.0001, 45.5, 246, 17.7084, 0.0371893, 1.29091, 26989
-22869.2, 441624, -290.603, 2.88084, -866.313, 0.169229, 0.363817, 1.03299, 0.34851, 0.655882, 3, 45.5, 246, 37.3115, 0.146202, 1.4983, 26990
-16577.7, 460807, -339.446, 3.15336, -918.252, 0.21493, 0.370526, 0.993198, 0.349787, 0.651995, 0.0001, 91, 246, 37.3115, 0.146202, 1.41041, 26990
-16577.7, 460807, -339.446, 3.15336, -918.252, 0.21493, 0.370526, 0.993198, 0.349787, 0.651995, 3, 91, 246, 37.3115, 0.146202, 1.31551, 26990
-26391.7, 728160, -285.68, 2.64527, -673.007, 0.149091, 0.30559, 0.993198, 0.349787, 0.651995, 0.0001, 91, 246, 26.2241, 0.0890275, 1.10115, 26991
-26391.7, 728160, -285.68, 2.64527, -673.007, 0.149091, 0.30559, 0.993198, 0.349787, 0.651995, 3, 91, 246, 26.2241, 0.0890275, 1.64821, 26991
-12274.7, 297263, -272.977, 3.93686, -931.416, 0.243979, 0.254833, 0.993198, 0.349787, 0.651995, 0.0001, 91, 246, 37.0269, 0.140907, 1.14976, 26993
-12274.7, 297263, -272.977, 3.93686, -931.416, 0.243979, 0.254833, 0.993198, 0.349787, 0.651995, 3, 91, 246, 37.0269, 0.140907, 1.87212, 26993
-6050.55, 319323, -337.62, 4.40013, -1008.68, 0.333087, 0.298017, 0.958125, 0.351078, 0.648177, 0.0001, 182, 246, 37.0269, 0.140907, 1.12459, 26993
-6050.55, 319323, -337.62, 4.40013, -1008.68, 0.333087, 0.298017, 0.958125, 0.351078, 0.648177, 3, 182, 246, 37.0269, 0.140907, 1.12882, 26993
-33258.1, 743661, -306.241, 2.35812, -750.294, -0.0246573, 0.368938, 1.03299, 0.34851, 0.655882, 0.0001, 45.5, 246, 30.9829, 0.107528, 1.45182, 26995
-33258.1, 743661, -306.241, 2.35812, -750.294, -0.0246573, 0.368938, 1.03299, 0.34851, 0.655882, 3, 45.5, 246, 30.9829, 0.107528, 1.45162, 26995
-25106, 753931, -345.381, 2.52812, -769.82, 0.00155363, 0.361833, 0.993198, 0.349787, 0.651995, 3, 91, 246, 30.9829, 0.107528, 1.44635, 26995
-19080.4, 431643, -151.073, 3.59765, -1115.29, 0.512452, 0.179066, 0.993198, 0.349787, 0.651995, 3, 91, 246, 28.2141, 0.0663458, 1.94189, 26996
-10736.9, 300354, -282.977, 1.06565, -779.72, 0.671773, 0.54688, 1.03299, 0.34851, 0.655882, 3, 45.5, 246, 39.9784, 0.213484, 1.37591, 26998
-8247.73, 104675, -138.01, 1.47999, -722.718, 0.841535, 0.406806, 1.03299, 0.34851, 0.655882, 3, 45.5, 246, 39.8299, 0.22644, 1.51676, 26999
