-22156.5, 494176, -144.63, 2.33977, -1106.99, -0.0213337, 0.295387, 1.03299, 0.34851, 0.655882, 3, 45.5, 246, 31.1887, 0.0784873, 1.54324, 194001
-12307.7, 336099, -181.954, 1.20981, -692.037, 0.021064, 0.408993, 1.03299, 0.34851, 0.655882, 3, 45.5, 246, 28.6818, 0.13227, 1.44876, 194002
-10454.2, 345440, -199.063, 1.27348, -700.955, 0.0279259, 0.384898, 0.993198, 0.349787, 0.651995, 0.0001, 91, 246, 28.6818, 0.13227, 1.18041, 194002
-9580.52, 85192.9, -58.1811, 2.30908, -543.296, 0.681709, 0.273587, 1.03299, 0.34851, 0.655882, 0.0001, 45.5, 246, 20.3138, 0.0766225, 1.02074, 194003
-10515.5, 191184, -210.634, 3.41204, -1158.33, -0.0423101, 0.293537, 1.03299, 0.34851, 0.655882, 0.0001, 45.5, 246, 44.7153, 0.179351, 1.66984, 194004
-10515.5, 191184, -210.634, 3.41204, -1158.33, -0.0423101, 0.293537, 1.03299, 0.34851, 0.655882, 3, 45.5, 246, 44.7153, 0.179351, 1.2979, 194004
-7061.79, 215377, -268.216, 3.72389, -1177.98, 0.0135467, 0.311542, 0.993198, 0.349787, 0.651995, 0.0001, 91, 246, 44.7153, 0.179351, 1.17748, 194004
-7061.79, 215377, -268.216, 3.72389, -1177.98, 0.0135467, 0.311542, 0.993198, 0.349787, 0.651995, 3, 91, 246, 44.7153, 0.179351, 1.82191, 194004
-2458.51, 242329, -337.34, 4.09719, -1217.8, 0.0809104, 0.349104, 0.958125, 0.351078, 0.648177, 0.0001, 182, 246, 44.7153, 0.179351, 1.61513, 194004
-2458.51, 242329, -337.34, 4.09719, -1217.8, 0.0809104, 0.349104, 0.958125, 0.351078, 0.648177, 3, 182, 246, 44.7153, 0.179351, 1.61746, 194004
-18112.1, 498359, -211.954, 1.55665, -615.344, -0.0112641, 0.386862, 1.03299, 0.34851, 0.655882, 3, 45.5, 246, 25.9773, 0.106631, 1.4506, 194006
-22204.8, 525755, -292.699, 3.87887, -1050.2, 0.610852, 0.220345, 0.993198, 0.349787, 0.651995, 0.0001, 91, 246, 33.8899, 0.10437, 1.8572, 194008
-22204.8, 525755, -292.699, 3.87887, -1050.2, 0.610852, 0.220345, 0.993198, 0.349787, 0.651995, 3, 91, 246, 33.8899, 0.10437, 1.22118, 194008
-14646.1, 310043, -162.181, 3.35379, -738.21, 0.0238722, 0.223432, 0.993198, 0.349787, 0.651995, 0.0001, 91, 246, 25.7279, 0.0897128, 1.30728, 194009
-14646.1, 310043, -162.181, 3.35379, -738.21, 0.0238722, 0.223432, 0.993198, 0.349787, 0.651995, 3, 91, 246, 25.7279, 0.0897128, 1.29746, 194009
-14636.7, 240284, -170.434, 2.85374, -782.474, 0.614292, 0.273262, 1.03299, 0.34851, 0.655882, 0.0001, 45.5, 246, 31.5315, 0.121883, 1.64187, 194010
-14636.7, 240284, -170.434, 2.85374, -782.474, 0.614292, 0.273262, 1.03299, 0.34851, 0.655882, 3, 45.5, 246, 31.5315, 0.121883, 1.01998, 194010
-11332.4, 261167, -207.16, 3.19531, -885.203, 0.724763, 0.273635, 0.993198, 0.349787, 0.651995, 0.0001, 91, 246, 31.5315, 0.121883, 1.37843, 194010
-11332.4, 261167, -207.16, 3.19531, -885.203, 0.724763, 0.273635, 0.993198, 0.349787, 0.651995, 3, 91, 246, 31.5315, 0.121883, 1.75269, 194010
-8149.79, 533640, -471.963, 0.358876, -1139.63, 0.0614147, 0.75697, 1.03299, 0.34851, 0.655882, 3, 45.5, 246, 49.6233, 0.236207, 1.20202, 194011
-21474.2, 542075, -330.075, 2.13303, -963.358, 0.174068, 0.457107, 1.03299, 0.34851, 0.655882, 3, 45.5, 246, 38.8981, 0.148083, 1.40538, 194012
-15549, 566108, -373.438, 2.3073, -1013.13, 0.201234, 0.452472, 0.993198, 0.349787, 0.651995, 0.0001, 91, 246, 38.8981, 0.148083, 1.03164, 194012
-9222.64, 70962.7, -47.9913, 2.32424, -597.072, 0.359714, 0.275071, 1.03299, 0.34851, 0.655882, 0.0001, 45.5, 246, 20.0031, 0.0745474, 1.25578, 194014
-9222.64, 70962.7, -47.9913, 2.32424, -597.072, 0.359714, 0.275071, 1.03299, 0.34851, 0.655882, 3, 45.5, 246, 20.0031, 0.0745474, 1.63225, 194014
-8618.64, 78833.1, -64.9387, 2.5371, -638.074, 0.408876, 0.260987, 0.993198, 0.349787, 0.651995, 0.0001, 91, 246, 20.0031, 0.0745474, 1.24877, 194014
-8618.64, 78833.1, -64.9387, 2.5371, -638.074, 0.408876, 0.260987, 0.993198, 0.349787, 0.651995, 3, 91, 246, 20.0031, 0.0745474, 1.26025, 194014
-19644.8, 455533, -254.021, 2.15642, -774.374, -0.0158506, 0.394925, 1.03299, 0.34851, 0.655882, 3, 45.5, 246, 32.8869, 0.134457, 1.45233, 194015
-27549.1, 610138, -351.596, 3.61105, -603.905, 0.00300288, 0.284703, 0.993198, 0.349787, 0.651995, 0.0001, 91, 246, 29.5831, 0.120005, 1.35747, 194017
-27549.1, 610138, -351.596, 3.61105, -603.905, 0.00300288, 0.284703, 0.993198, 0.349787, 0.651995, 3, 91, 246, 29.5831, 0.120005, 1.70767, 194017
-19723.9, 382683, -344.362, 2.72641, -793.275, 0.747335, 0.428952, 1.03299, 0.34851, 0.655882, 0.0001, 45.5, 246, 40.2359, 0.173633, 1.4659, 194019
-19723.9, 382683, -344.362, 2.72641, -793.275, 0.747335, 0.428952, 1.03299, 0.34851, 0.655882, 3, 45.5, 246, 40.2359, 0.173633, 1.46553, 194019
-13958, 414287, -395.811, 3.08303, -932.322, 0.889358, 0.437804, 0.993198, 0.349787, 0.651995, 0.0001, 91, 246, 40.2359, 0.173633, 1.35125, 194019
-13958, 414287, -395.811, 3.08303, -932.322, 0.889358, 0.437804, 0.993198, 0.349787, 0.651995, 3, 91, 246, 40.2359, 0.173633, 1.47062, 194019
-35774.6, 958897, -110.035, 1.73474, -662.201, 0.357679, 0.292544, 1.03299, 0.34851, 0.655882, 3, 45.5, 246, 19.8058, 0.0308892, 1.49455, 194021
-37385, 626158, -358.288, 3.54018, -901.919, -0.00345226, 0.300779, 1.03299, 0.34851, 0.655882, 0.0001, 45.5, 246, 38.8517, 0.138571, 1.53403, 194022
-37385, 626158, -358.288, 3.54018, -901.919, -0.00345226, 0.300779, 1.03299, 0.34851, 0.655882, 3, 45.5, 246, 38.8517, 0.138571, 1.53885, 194022
-14414.6, 276907, -370.618, 3.08359, -594.923, 0.0819894, 0.476784, 1.03299, 0.34851, 0.655882, 0.0001, 45.5, 246, 47.898, 0.23638, 1.4744, 194023
-14414.6, 276907, -370.618, 3.08359, -594.923, 0.0819894, 0.476784, 1.03299, 0.34851, 0.655882, 3, 45.5, 246, 47.898, 0.23638, 1.47553, 194023
-9407.83, 287206, -422.656, 3.38346, -638.868, 0.129572, 0.499106, 0.993198, 0.349787, 0.651995, 0.0001, 91, 246, 47.898, 0.23638, 1.17783, 194023
-9407.83, 287206, -422.656, 3.38346, -638.868, 0.129572, 0.499106, 0.993198, 0.349787, 0.651995, 3, 91, 246, 47.898, 0.23638, 1.17818, 194023
-3208.83, 300681, -485.18, 3.74045, -698.054, 0.189135, 0.539713, 0.958125, 0.351078, 0.648177, 0.0001, 182, 246, 47.898, 0.23638, 2.00064, 194023
-3208.83, 300681, -485.18, 3.74045, -698.054, 0.189135, 0.539713, 0.958125, 0.351078, 0.648177, 3, 182, 246, 47.898, 0.23638, 1.63619, 194023
-33332.5, 794360, -447.23, 2.03448, -827.133, 0.815873, 0.479923, 1.03299, 0.34851, 0.655882, 0.0001, 45.5, 246, 35.834, 0.126275, 1.37972, 194024
-33332.5, 794360, -447.23, 2.03448, -827.133, 0.815873, 0.479923, 1.03299, 0.34851, 0.655882, 3, 45.5, 246, 35.834, 0.126275, 1.3821, 194024
-24501.4, 849666, -496.375, 2.28179, -979.857, 0.960084, 0.47601, 0.993198, 0.349787, 0.651995, 0.0001, 91, 246, 35.834, 0.126275, 1.05052, 194024
-24501.4, 849666, -496.375, 2.28179, -979.857, 0.960084, 0.47601, 0.993198, 0.349787, 0.651995, 3, 91, 246, 35.834, 0.126275, 1.47121, 194024
-10733, 218396, -133.609, 1.67873, -1127.74, 0.232224, 0.37079, 1.03299, 0.34851, 0.655882, 3, 45.5, 246, 33.316, 0.134902, 1.49953, 194026
-16140.7, 543310, -150.545, 1.1703, -774.509, 0.139644, 0.359334, 1.03299, 0.34851, 0.655882, 3, 45.5, 246, 24.4326, 0.0709679, 1.47169, 194028
-12121.3, 290262, -246.95, 1.51819, -662.163, 0.00241989, 0.483472, 1.03299, 0.34851, 0.655882, 3, 45.5, 246, 36.8928, 0.197019, 1.40501, 194029
-7167.88, 308692, -297.216, 1.70563, -688.089, 0.0252724, 0.462571, 0.958125, 0.351078, 0.648177, 3, 182, 246, 36.8928, 0.197019, 1.12896, 194029
-13584.7, 411448, -414.894, 0.962899, -618.59, 0.203967, 0.711279, 1.03299, 0.34851, 0.655882, 3, 45.5, 246, 43.0519, 0.249568, 1.22885, 194030
-10708.2, 94409.5, -6.69225, 2.72059, -882.782, 0.367545, 0.231289, 1.03299, 0.34851, 0.655882, 0.0001, 45.5, 246, 15.5942, 0.0418403, 1.4447, 194031
-10708.2, 94409.5, -6.69225, 2.72059, -882.782, 0.367545, 0.231289, 1.03299, 0.34851, 0.655882, 3, 45.5, 246, 15.5942, 0.0418403, 1.60992, 194031
-9665.21, 110618, -30.8685, 2.99084, -941.313, 0.428192, 0.224554, 0.993198, 0.349787, 0.651995, 0.0001, 91, 246, 15.5942, 0.0418403, 1.39767, 194031
-9665.21, 110618, -30.8685, 2.99084, -941.313, 0.428192, 0.224554, 0.993198, 0.349787, 0.651995, 3, 91, 246, 15.5942, 0.0418403, 1.39775, 194031
-6486.6, -25559.9, -22.0719, 3.22259, -879.502, 0.440489, 0.221451, 1.03299, 0.34851, 0.655882, 0.0001, 45.5, 246, 23.9571, 0.00629943, 1.77415, 194032
-36777.1, 897063, -341.399, 1.95828, -613.423, 0.369032, 0.390902, 1.03299, 0.34851, 0.655882, 0.0001, 45.5, 246, 26.9309, 0.0939613, 1.42267, 194033
-36777.1, 897063, -341.399, 1.95828, -613.423, 0.369032, 0.390902, 1.03299, 0.34851, 0.655882, 3, 45.5, 246, 26.9309, 0.0939613, 1.42292, 194033
-28400.4, 924064, -375.744, 2.13039, -672.246, 0.411353, 0.377357, 0.993198, 0.349787, 0.651995, 3, 91, 246, 26.9309, 0.0939613, 1.53935, 194033
-11771.1, 394617, -333.152, 1.07372, -885.886, 0.52399, 0.572807, 1.03299, 0.34851, 0.655882, 3, 45.5, 246, 41.0121, 0.199089, 1.34345, 194035
-16523, 336986, -299.406, 3.0869, -1046.84, -0.0457337, 0.396304, 1.03299, 0.34851, 0.655882, 3, 45.5, 246, 45.026, 0.186865, 1.50571, 194036
-11071.3, 357302, -357.096, 3.35615, -1070.71, -0.00013272, 0.411385, 0.993198, 0.349787, 0.651995, 0.0001, 91, 246, 45.026, 0.186865, 1.1053, 194036
-11071.3, 357302, -357.096, 3.35615, -1070.71, -0.00013272, 0.411385, 0.993198, 0.349787, 0.651995, 3, 91, 246, 45.026, 0.186865, 1.21281, 194036
-4259.33, 380859, -425.324, 3.67263, -1111.36, 0.0541226, 0.443038, 0.958125, 0.351078, 0.648177, 0.0001, 182, 246, 45.026, 0.186865, 1.08045, 194036
-4259.33, 380859, -425.324, 3.67263, -1111.36, 0.0541226, 0.443038, 0.958125, 0.351078, 0.648177, 3, 182, 246, 45.026, 0.186865, 1.08713, 194036
-17220.4, 654421, -106.346, 3.20747, -1026.54, 0.799298, 0.202507, 0.958125, 0.351078, 0.648177, 0.0001, 182, 246, 20.6425, 0.026769, 1.04575, 194037
-6722.14, -45140.8, 11.6076, 3.08643, -675.269, -0.0450239, 0.237365, 1.03299, 0.34851, 0.655882, 0.0001, 45.5, 246, 6.80148, 0.0411414, 1.99194, 194039
-6722.14, -45140.8, 11.6076, 3.08643, -675.269, -0.0450239, 0.237365, 1.03299, 0.34851, 0.655882, 3, 45.5, 246, 6.80148, 0.0411414, 1.98655, 194039
-31289.5, 864714, -162.768, 1.72208, -840.295, 0.454063, 0.314783, 1.03299, 0.34851, 0.655882, 3, 45.5, 246, 25.6709, 0.0482796, 1.48701, 194040
-33938.8, 703018, -225.161, 2.64281, -916.494, 0.000680142, 0.287307, 1.03299, 0.34851, 0.655882, 0.0001, 45.5, 246, 31.1581, 0.085222, 1.5396, 194041
-25612.4, 718317, -265.426, 2.84655, -936.664, 0.0337732, 0.281403, 0.993198, 0.349787, 0.651995, 0.0001, 91, 246, 31.1581, 0.085222, 1.11714, 194041
-25612.4, 718317, -265.426, 2.84655, -936.664, 0.0337732, 0.281403, 0.993198, 0.349787, 0.651995, 3, 91, 246, 31.1581, 0.085222, 1.68968, 194041
-10041.2, 425732, -365.249, 0.264849, -598.673, 0.748689, 0.61356, 1.03299, 0.34851, 0.655882, 3, 45.5, 246, 35.7139, 0.201526, 1.34894, 194042
-14194.9, 435907, -120.824, 1.1751, -783.965, -0.00519391, 0.352468, 1.03299, 0.34851, 0.655882, 3, 45.5, 246, 23.5215, 0.0720274, 1.48297, 194046
-32108.4, 677484, -415.813, 2.17096, -570.267, 0.697949, 0.464567, 1.03299, 0.34851, 0.655882, 0.0001, 45.5, 246, 31.1392, 0.135166, 1.38703, 194047
-32108.4, 677484, -415.813, 2.17096, -570.267, 0.697949, 0.464567, 1.03299, 0.34851, 0.655882, 3, 45.5, 246, 31.1392, 0.135166, 1.39006, 194047
-24283.8, 713946, -458.938, 2.42288, -670.193, 0.810475, 0.462121, 0.993198, 0.349787, 0.651995, 0.0001, 91, 246, 31.1392, 0.135166, 1.12372, 194047
-24283.8, 713946, -458.938, 2.42288, -670.193, 0.810475, 0.462121, 0.993198, 0.349787, 0.651995, 3, 91, 246, 31.1392, 0.135166, 1.48189, 194047
-9769.53, 273591, -222.473, 1.0346, -960.111, 0.000951042, 0.497436, 1.03299, 0.34851, 0.655882, 3, 45.5, 246, 39.5277, 0.204075, 1.38982, 194048
-9523.44, 77678.9, -42.3427, 2.30282, -620.576, 0.502035, 0.273111, 1.03299, 0.34851, 0.655882, 0.0001, 45.5, 246, 18.6655, 0.0678948, 1.21814, 194049
-9523.44, 77678.9, -42.3427, 2.30282, -620.576, 0.502035, 0.273111, 1.03299, 0.34851, 0.655882, 3, 45.5, 246, 18.6655, 0.0678948, 1.34128, 194049
-24228.8, 432037, -338.598, 3.40684, -853.494, -0.0515997, 0.35563, 1.03299, 0.34851, 0.655882, 0.0001, 45.5, 246, 41.3525, 0.169869, 1.517, 194050
-24228.8, 432037, -338.598, 3.40684, -853.494, -0.0515997, 0.35563, 1.03299, 0.34851, 0.655882, 3, 45.5, 246, 41.3525, 0.169869, 1.16524, 194050
-7626.44, 463622, -471.177, 4.10112, -934.683, 0.071489, 0.420496, 0.958125, 0.351078, 0.648177, 0.0001, 182, 246, 41.3525, 0.169869, 1.08729, 194050
-7626.44, 463622, -471.177, 4.10112, -934.683, 0.071489, 0.420496, 0.958125, 0.351078, 0.648177, 3, 182, 246, 41.3525, 0.169869, 1.09075, 194050
-13857.5, 641913, -391.08, 0.547366, -568.023, 0.293441, 0.55648, 1.03299, 0.34851, 0.655882, 3, 45.5, 246, 30.7883, 0.150839, 1.33664, 194051
-15338.7, 712849, -236.667, 0.854185, -929.296, 0.713404, 0.398012, 1.03299, 0.34851, 0.655882, 3, 45.5, 246, 29.9428, 0.076507, 1.44399, 194053
-20598.9, 443158, -203.895, 2.29719, -770.244, 0.122189, 0.336008, 1.03299, 0.34851, 0.655882, 3, 45.5, 246, 29.4349, 0.108452, 1.51297, 194055
-32607.4, 562474, -384.304, 3.04733, -632.467, 0.384152, 0.38066, 1.03299, 0.34851, 0.655882, 0.0001, 45.5, 246, 34.8315, 0.149048, 1.46742, 194056
-32607.4, 562474, -384.304, 3.04733, -632.467, 0.384152, 0.38066, 1.03299, 0.34851, 0.655882, 3, 45.5, 246, 34.8315, 0.149048, 1.46735, 194056
-22288, 532962, -229.097, 2.05624, -816.44, 0.299422, 0.359867, 1.03299, 0.34851, 0.655882, 3, 45.5, 246, 30.181, 0.103015, 1.47742, 194057
-12994.3, 404008, -328.616, 2.19507, -697.855, 0.0375065, 0.456621, 0.993198, 0.349787, 0.651995, 0.0001, 91, 246, 36.0412, 0.172949, 1.03522, 194061
-15720.2, 306795, -238.784, 2.52743, -708.539, 0.0898975, 0.373681, 1.03299, 0.34851, 0.655882, 3, 45.5, 246, 35.2485, 0.159687, 1.51379, 194063
-9419.62, 507607, -379.227, 0.485521, -954.926, 0.449733, 0.599615, 1.03299, 0.34851, 0.655882, 3, 45.5, 246, 40.7124, 0.183886, 1.33944, 194064
-23788.5, 872585, -484.253, 1.86545, -735.741, 0.44375, 0.499981, 0.993198, 0.349787, 0.651995, 3, 91, 246, 32.3209, 0.12834, 1.42196, 194067
-30327.5, 884234, -425.674, 1.80989, -969.772, 0.1742, 0.493299, 1.03299, 0.34851, 0.655882, 3, 45.5, 246, 38.4367, 0.124547, 1.35081, 194068
-24501.8, 609716, -285.337, 2.2429, -1057.87, 0.0121175, 0.396572, 1.03299, 0.34851, 0.655882, 3, 45.5, 246, 37.4102, 0.120147, 1.43646, 194069
-12905.9, 361372, -289.504, 1.50651, -852, -0.00973719, 0.519452, 1.03299, 0.34851, 0.655882, 3, 45.5, 246, 40.0039, 0.195428, 1.38538, 194070
-31971.5, 801342, -41.9392, 1.87538, -826.519, 0.0574809, 0.276328, 1.03299, 0.34851, 0.655882, 3, 45.5, 246, 20.8048, 0.0188653, 1.52007, 194072
-14926.9, 302079, -23.8828, 2.80355, -899.773, 0.095472, 0.214603, 0.993198, 0.349787, 0.651995, 3, 91, 246, 16.7655, 0.0211622, 1.04061, 194073
-16715.2, 440194, -258.923, 1.73224, -794.423, 0.207941, 0.429781, 1.03299, 0.34851, 0.655882, 3, 45.5, 246, 33.3803, 0.139679, 1.42958, 194075
-11876.2, 518314, -267.51, 0.805847, -881.331, 0.0101502, 0.467503, 1.03299, 0.34851, 0.655882, 3, 45.5, 246, 33.4836, 0.133514, 1.39736, 194076
-24028.9, 944009, -96.8471, 1.09901, -865.892, 0.139811, 0.330182, 1.03299, 0.34851, 0.655882, 3, 45.5, 246, 23.7857, 0.0286707, 1.46551, 194078
-4143.98, 48213.1, -153.406, 2.59828, -664.825, 0.377549, 0.290492, 1.03299, 0.34851, 0.655882, 0.0001, 45.5, 246, 54.6519, 0.1679, 1.47679, 194079
-4143.98, 48213.1, -153.406, 2.59828, -664.825, 0.377549, 0.290492, 1.03299, 0.34851, 0.655882, 3, 45.5, 246, 54.6519, 0.1679, 1.77515, 194079
-3358.82, 58071.4, -182.206, 2.85578, -721.252, 0.436196, 0.284337, 0.993198, 0.349787, 0.651995, 0.0001, 91, 246, 54.6519, 0.1679, 1.53304, 194079
-3358.82, 58071.4, -182.206, 2.85578, -721.252, 0.436196, 0.284337, 0.993198, 0.349787, 0.651995, 3, 91, 246, 54.6519, 0.1679, 1.99349, 194079
-2232.12, 70251.8, -217.331, 3.15943, -793.476, 0.511102, 0.291878, 0.958125, 0.351078, 0.648177, 0.0001, 182, 246, 54.6519, 0.1679, 1.5586, 194079
-2232.12, 70251.8, -217.331, 3.15943, -793.476, 0.511102, 0.291878, 0.958125, 0.351078, 0.648177, 3, 182, 246, 54.6519, 0.1679, 1.56582, 194079
29.5855, 91819.1, -277.81, 3.66431, -925.722, 0.647689, 0.326012, 0.9175, 0.352806, 0.64323, 0.0001, 455, 246, 54.6519, 0.1679, 2.23702, 194079
29.5855, 91819.1, -277.81, 3.66431, -925.722, 0.647689, 0.326012, 0.9175, 0.352806, 0.64323, 3, 455, 246, 54.6519, 0.1679, 2.23824, 194079
-20681.5, 429813, -428.176, 2.93455, -897.406, -0.0322486, 0.560007, 1.03299, 0.34851, 0.655882, 3, 45.5, 246, 48.8774, 0.223228, 1.34649, 194081
-13498.5, 446991, -492.564, 3.19792, -932.769, 0.00900295, 0.585469, 0.993198, 0.349787, 0.651995, 0.0001, 91, 246, 48.8774, 0.223228, 1.27255, 194081
-13498.5, 446991, -492.564, 3.19792, -932.769, 0.00900295, 0.585469, 0.993198, 0.349787, 0.651995, 3, 91, 246, 48.8774, 0.223228, 1.43946, 194081
-4604.48, 468269, -568.723, 3.50734, -984.526, 0.0584478, 0.627696, 0.958125, 0.351078, 0.648177, 0.0001, 182, 246, 48.8774, 0.223228, 1.19877, 194081
-4604.48, 468269, -568.723, 3.50734, -984.526, 0.0584478, 0.627696, 0.958125, 0.351078, 0.648177, 3, 182, 246, 48.8774, 0.223228, 1.20206, 194081
-15994.8, 314924, -155.589, 3.9612, -800.662, 0.0824666, 0.157478, 0.993198, 0.349787, 0.651995, 0.0001, 91, 246, 25.5868, 0.0793732, 1.27835, 194082
-15994.8, 314924, -155.589, 3.9612, -800.662, 0.0824666, 0.157478, 0.993198, 0.349787, 0.651995, 3, 91, 246, 25.5868, 0.0793732, 1.28555, 194082
-19166.6, 934301, -460.227, 0.977282, -1028.64, 0.185446, 0.551191, 1.03299, 0.34851, 0.655882, 3, 45.5, 246, 39.5905, 0.126061, 1.31679, 194083
-18671.4, 306781, -212.346, 3.37736, -762.883, -0.0500122, 0.249822, 1.03299, 0.34851, 0.655882, 0.0001, 45.5, 246, 33.7555, 0.133477, 1.65928, 194084
-18671.4, 306781, -212.346, 3.37736, -762.883, -0.0500122, 0.249822, 1.03299, 0.34851, 0.655882, 3, 45.5, 246, 33.7555, 0.133477, 1.65547, 194084
-10576.3, 136811, -113.083, 3.12749, -990.925, 0.615417, 0.227551, 1.03299, 0.34851, 0.655882, 0.0001, 45.5, 246, 32.2616, 0.114178, 1.73259, 194085
-10576.3, 136811, -113.083, 3.12749, -990.925, 0.615417, 0.227551, 1.03299, 0.34851, 0.655882, 3, 45.5, 246, 32.2616, 0.114178, 1.15898, 194085
-8484.76, 161195, -154.576, 3.51712, -1114.25, 0.735333, 0.233508, 0.993198, 0.349787, 0.651995, 0.0001, 91, 246, 32.2616, 0.114178, 1.58017, 194085
-8484.76, 161195, -154.576, 3.51712, -1114.25, 0.735333, 0.233508, 0.993198, 0.349787, 0.651995, 3, 91, 246, 32.2616, 0.114178, 1.92571, 194085
-15131.9, 576104, -224.913, 1.2363, -1121.07, -0.00149487, 0.407533, 1.03299, 0.34851, 0.655882, 3, 45.5, 246, 34.7536, 0.101918, 1.43577, 194088
-16752.1, 397318, -206.147, 3.85546, -1189.39, 0.272173, 0.194334, 0.993198, 0.349787, 0.651995, 0.0001, 91, 246, 33.4997, 0.094476, 1.03953, 194089
-16752.1, 397318, -206.147, 3.85546, -1189.39, 0.272173, 0.194334, 0.993198, 0.349787, 0.651995, 3, 91, 246, 33.4997, 0.094476, 1.93732, 194089
-25434.2, 532342, -303.538, 2.60382, -923.905, 0.360947, 0.378184, 1.03299, 0.34851, 0.655882, 3, 45.5, 246, 36.7119, 0.131431, 1.4731, 194090
-18559.2, 560646, -351.396, 2.86649, -1006.61, 0.417579, 0.37863, 0.993198, 0.349787, 0.651995, 0.0001, 91, 246, 36.7119, 0.131431, 1.25384, 194090
-18559.2, 560646, -351.396, 2.86649, -1006.61, 0.417579, 0.37863, 0.993198, 0.349787, 0.651995, 3, 91, 246, 36.7119, 0.131431, 1.20281, 194090
-20348.5, 42826.5, -72.7267, 0.454274, -811.354, 0.787582, 0.396886, 1.03299, 0.34851, 0.655882, 3, 45.5, 246, 410.099, 0.11572, 1.03411, 194092
-9807.8, 580406, -361.297, 0.540072, -1001.26, -0.00111628, 0.559903, 1.03299, 0.34851, 0.655882, 3, 45.5, 246, 39.5999, 0.163217, 1.32641, 194093
-17127.8, 646513, -439.21, 0.953604, -684.03, 0.130233, 0.61343, 1.03299, 0.34851, 0.655882, 3, 45.5, 246, 36.2944, 0.172949, 1.29442, 194094
-20063.6, 361917, -167.949, 2.82468, -919.832, 0.44332, 0.264785, 1.03299, 0.34851, 0.655882, 0.0001, 45.5, 246, 30.7214, 0.0994066, 1.61284, 194095
-15311.2, 387313, -207.445, 3.12835, -1007.42, 0.518505, 0.26333, 0.993198, 0.349787, 0.651995, 0.0001, 91, 246, 30.7214, 0.0994066, 1.41236, 194095
-15311.2, 387313, -207.445, 3.12835, -1007.42, 0.518505, 0.26333, 0.993198, 0.349787, 0.651995, 3, 91, 246, 30.7214, 0.0994066, 1.56479, 194095
-27590.5, 727219, -283.507, 2.80459, -659.896, 0.0667218, 0.29162, 0.993198, 0.349787, 0.651995, 0.0001, 91, 246, 26.125, 0.0886795, 1.12722, 194098
-27590.5, 727219, -283.507, 2.80459, -659.896, 0.0667218, 0.29162, 0.993198, 0.349787, 0.651995, 3, 91, 246, 26.125, 0.0886795, 1.66733, 194098
-27362.8, 835490, -331.027, 1.57246, -800.563, 0.240782, 0.435842, 1.03299, 0.34851, 0.655882, 3, 45.5, 246, 31.264, 0.0999324, 1.39207, 194099
-24913.6, 630375, -91.4408, 1.88276, -911.451, -0.0156351, 0.294881, 1.03299, 0.34851, 0.655882, 3, 45.5, 246, 24.2702, 0.0427219, 1.51716, 194101
-7648.27, 139974, -160.06, 3.89495, -1085.77, 0.246481, 0.208937, 0.993198, 0.349787, 0.651995, 3, 91, 246, 33.9765, 0.118019, 1.45941, 194102
-38066, 680316, -342.672, 3.1467, -879.973, 0.218113, 0.316236, 1.03299, 0.34851, 0.655882, 0.0001, 45.5, 246, 36.1689, 0.122234, 1.51754, 194103
-38066, 680316, -342.672, 3.1467, -879.973, 0.218113, 0.316236, 1.03299, 0.34851, 0.655882, 3, 45.5, 246, 36.1689, 0.122234, 1.51596, 194103
-27692.3, 704400, -400.358, 3.46769, -947.722, 0.275614, 0.327711, 0.993198, 0.349787, 0.651995, 3, 91, 246, 36.1689, 0.122234, 1.64624, 194103
-11866, 235186, -164.395, 1.919, -790.557, 0.00533173, 0.37461, 1.03299, 0.34851, 0.655882, 3, 45.5, 246, 32.4586, 0.149176, 1.50412, 194106
-13971.8, 300063, -134.077, 1.71419, -617.289, 0.146699, 0.343675, 1.03299, 0.34851, 0.655882, 3, 45.5, 246, 23.9494, 0.100737, 1.51065, 194107
-14846.2, 249656, -184.52, 3.30107, -1049.63, 0.271972, 0.250655, 1.03299, 0.34851, 0.655882, 0.0001, 45.5, 246, 37.154, 0.134891, 1.44025, 194108
-14846.2, 249656, -184.52, 3.30107, -1049.63, 0.271972, 0.250655, 1.03299, 0.34851, 0.655882, 3, 45.5, 246, 37.154, 0.134891, 1.44309, 194108
-10785.8, 274465, -235.447, 3.65363, -1120.96, 0.33963, 0.262871, 0.993198, 0.349787, 0.651995, 3, 91, 246, 37.154, 0.134891, 1.62958, 194108
-19180.6, 419921, -331.573, 2.36487, -730.694, -0.0253875, 0.47554, 1.03299, 0.34851, 0.655882, 0.0001, 45.5, 246, 38.9482, 0.182002, 1.01864, 194110
-19180.6, 419921, -331.573, 2.36487, -730.694, -0.0253875, 0.47554, 1.03299, 0.34851, 0.655882, 3, 45.5, 246, 38.9482, 0.182002, 1.39317, 194110
-14019.7, 430739, -373.348, 2.54317, -751.995, 0.00105743, 0.477528, 0.993198, 0.349787, 0.651995, 0.0001, 91, 246, 38.9482, 0.182002, 1.1483, 194110
-29726.3, 744164, -323.158, 3.628, -1125.85, -0.000137317, 0.245981, 0.993198, 0.349787, 0.651995, 0.0001, 91, 246, 37.1169, 0.0979991, 1.76583, 194111
-29726.3, 744164, -323.158, 3.628, -1125.85, -0.000137317, 0.245981, 0.993198, 0.349787, 0.651995, 3, 91, 246, 37.1169, 0.0979991, 1.76782, 194111
-12294.1, 456387, -350.841, 0.925027, -811.179, 0.0120874, 0.591036, 1.03299, 0.34851, 0.655882, 3, 45.5, 246, 39.7979, 0.198417, 1.27588, 194114
-14604.8, 964270, -279.239, 0.60853, -932.629, 0.174551, 0.413395, 1.03299, 0.34851, 0.655882, 3, 45.5, 246, 30.9061, 0.0736212, 1.42665, 194115
-13541.4, 415956, -193.403, 1.07493, -678.139, 0.798408, 0.39589, 1.03299, 0.34851, 0.655882, 3, 45.5, 246, 26.0504, 0.102347, 1.46127, 194116
-22005.8, 455493, -394.207, 3.037, -1015.3, -0.0433644, 0.491458, 1.03299, 0.34851, 0.655882, 3, 45.5, 246, 47.3283, 0.198339, 1.39027, 194117
-14503.7, 475765, -459.789, 3.30791, -1047.36, 0.000845467, 0.51335, 0.993198, 0.349787, 0.651995, 0.0001, 91, 246, 47.3283, 0.198339, 1.28582, 194117
-14503.7, 475765, -459.789, 3.30791, -1047.36, 0.000845467, 0.51335, 0.993198, 0.349787, 0.651995, 3, 91, 246, 47.3283, 0.198339, 1.50054, 194117
-5212.55, 500327, -537.494, 3.62696, -1097.29, 0.0536618, 0.55224, 0.958125, 0.351078, 0.648177, 0.0001, 182, 246, 47.3283, 0.198339, 1.01289, 194117
-5212.55, 500327, -537.494, 3.62696, -1097.29, 0.0536618, 0.55224, 0.958125, 0.351078, 0.648177, 3, 182, 246, 47.3283, 0.198339, 1.01936, 194117
-31454.8, 865489, -334.315, 1.87917, -932.715, 0.342932, 0.404823, 1.03299, 0.34851, 0.655882, 3, 45.5, 246, 34.1235, 0.097322, 1.41406, 194118
-10785.8, 202851, -325.217, 3.53096, -594.949, 0.439517, 0.327067, 1.03299, 0.34851, 0.655882, 0.0001, 45.5, 246, 47.5752, 0.208109, 1.58773, 194119
-10785.8, 202851, -325.217, 3.53096, -594.949, 0.439517, 0.327067, 1.03299, 0.34851, 0.655882, 3, 45.5, 246, 47.5752, 0.208109, 1.58925, 194119
-6490.52, 216903, -378.553, 3.97335, -678.502, 0.53867, 0.353478, 0.993198, 0.349787, 0.651995, 0.0001, 91, 246, 47.5752, 0.208109, 1.8582, 194119
-6490.52, 216903, -378.553, 3.97335, -678.502, 0.53867, 0.353478, 0.993198, 0.349787, 0.651995, 3, 91, 246, 47.5752, 0.208109, 1.85918, 194119
-888.285, 236251, -447.22, 4.53442, -794.626, 0.675498, 0.406541, 0.958125, 0.351078, 0.648177, 0.0001, 182, 246, 47.5752, 0.208109, 2.11785, 194119
-888.285, 236251, -447.22, 4.53442, -794.626, 0.675498, 0.406541, 0.958125, 0.351078, 0.648177, 3, 182, 246, 47.5752, 0.208109, 2.11858, 194119
-13509.3, 696771, -330.637, 0.466972, -525.214, 0.858557, 0.46557, 1.03299, 0.34851, 0.655882, 3, 45.5, 246, 24.6767, 0.104251, 1.41734, 194121
-20615.7, 503124, -80.1572, 2.74564, -828.401, 0.006018, 0.218926, 0.993198, 0.349787, 0.651995, 3, 91, 246, 20.7228, 0.0364509, 1.80053, 194122
-15822.3, 339918, -346.568, 3.10987, -1104.81, 0.108769, 0.456189, 1.03299, 0.34851, 0.655882, 3, 45.5, 246, 49.5384, 0.210551, 1.46362, 194130
-9901.62, 366646, -411.978, 3.41716, -1161.07, 0.158244, 0.477556, 0.993198, 0.349787, 0.651995, 0.0001, 91, 246, 49.5384, 0.210551, 1.61596, 194130
-9901.62, 366646, -411.978, 3.41716, -1161.07, 0.158244, 0.477556, 0.993198, 0.349787, 0.651995, 3, 91, 246, 49.5384, 0.210551, 1.50804, 194130
-2263.45, 398833, -491.306, 3.78406, -1239.45, 0.220662, 0.517504, 0.958125, 0.351078, 0.648177, 0.0001, 182, 246, 49.5384, 0.210551, 1.64608, 194130
-2263.45, 398833, -491.306, 3.78406, -1239.45, 0.220662, 0.517504, 0.958125, 0.351078, 0.648177, 3, 182, 246, 49.5384, 0.210551, 1.6486, 194130
-17347.2, 629847, -219.834, 1.38173, -1172.98, -0.00304473, 0.391565, 1.03299, 0.34851, 0.655882, 3, 45.5, 246, 35.2194, 0.0923344, 1.44336, 194131
-25622.9, 536429, -262.148, 3.91963, -745.919, 0.727093, 0.182499, 0.993198, 0.349787, 0.651995, 0.0001, 91, 246, 26.6006, 0.0884552, 1.56722, 194132
-25622.9, 536429, -262.148, 3.91963, -745.919, 0.727093, 0.182499, 0.993198, 0.349787, 0.651995, 3, 91, 246, 26.6006, 0.0884552, 1.91397, 194132
-19967.7, 392400, -93.4858, 2.34021, -714.028, -0.023888, 0.269157, 1.03299, 0.34851, 0.655882, 3, 45.5, 246, 21.2078, 0.0606711, 1.58035, 194133
-29738.8, 639615, -286.141, 3.8086, -738.908, 0.0955531, 0.204631, 0.993198, 0.349787, 0.651995, 0.0001, 91, 246, 28.4203, 0.0930736, 1.84413, 194134
-29738.8, 639615, -286.141, 3.8086, -738.908, 0.0955531, 0.204631, 0.993198, 0.349787, 0.651995, 3, 91, 246, 28.4203, 0.0930736, 1.84429, 194134
-7317.18, 121038, -196.696, 2.56224, -794.733, 0.577616, 0.358832, 1.03299, 0.34851, 0.655882, 0.0001, 45.5, 246, 46.1651, 0.211209, 1.91816, 194135
-7317.18, 121038, -196.696, 2.56224, -794.733, 0.577616, 0.358832, 1.03299, 0.34851, 0.655882, 3, 45.5, 246, 46.1651, 0.211209, 1.91853, 194135
-5554.88, 138231, -232.668, 2.85273, -892.861, 0.67101, 0.35708, 0.993198, 0.349787, 0.651995, 0.0001, 91, 246, 46.1651, 0.211209, 1.16131, 194135
-5554.88, 138231, -232.668, 2.85273, -892.861, 0.67101, 0.35708, 0.993198, 0.349787, 0.651995, 3, 91, 246, 46.1651, 0.211209, 1.83996, 194135
-3116.95, 160915, -278.043, 3.20675, -1023.54, 0.795623, 0.370144, 0.958125, 0.351078, 0.648177, 0.0001, 182, 246, 46.1651, 0.211209, 1.373, 194135
-3116.95, 160915, -278.043, 3.20675, -1023.54, 0.795623, 0.370144, 0.958125, 0.351078, 0.648177, 3, 182, 246, 46.1651, 0.211209, 1.37575, 194135
-25272.1, 821568, -343.005, 1.72858, -1169.25, -0.0139859, 0.45162, 1.03299, 0.34851, 0.655882, 3, 45.5, 246, 40.0192, 0.111489, 1.37446, 194138
-17400.7, 593307, -199.66, 1.27198, -818.267, 0.0206347, 0.382206, 1.03299, 0.34851, 0.655882, 3, 45.5, 246, 27.7719, 0.0875686, 1.44794, 194139
-8989.47, 167217, -200.698, 1.66937, -881.656, 0.80462, 0.456283, 1.03299, 0.34851, 0.655882, 3, 45.5, 246, 42.9677, 0.229026, 1.48094, 194140
-5301.97, 225639, -262.756, 2.08462, -1215.06, 1.12048, 0.438906, 0.958125, 0.351078, 0.648177, 0.0001, 182, 246, 42.9677, 0.229026, 1.13844, 194140
-19407.5, 392368, -156.256, 3.76857, -716.724, 0.307166, 0.163021, 0.993198, 0.349787, 0.651995, 0.0001, 91, 246, 22.9367, 0.0694224, 1.98542, 194142
-19407.5, 392368, -156.256, 3.76857, -716.724, 0.307166, 0.163021, 0.993198, 0.349787, 0.651995, 3, 91, 246, 22.9367, 0.0694224, 1.18909, 194142
-15314.1, 615325, -323.857, 1.26525, -1140.63, 0.0649872, 0.488015, 1.03299, 0.34851, 0.655882, 3, 45.5, 246, 39.9368, 0.135519, 1.37277, 194144
-28772.2, 676573, -14.9242, 1.96639, -1066.33, 0.0698654, 0.271348, 1.03299, 0.34851, 0.655882, 3, 45.5, 246, 24.0007, 0.0149282, 1.53461, 194145
-6419.03, 52435.9, -116.399, 2.0762, -642.357, 0.55264, 0.326692, 1.03299, 0.34851, 0.655882, 3, 45.5, 246, 44.3645, 0.182287, 1.64577, 194147
-3475.48, 98373.4, -208.375, 2.93475, -969.937, 0.906536, 0.315691, 0.9175, 0.352806, 0.64323, 0.0001, 455, 246, 44.3645, 0.182287, 1.02909, 194147
-3475.48, 98373.4, -208.375, 2.93475, -969.937, 0.906536, 0.315691, 0.9175, 0.352806, 0.64323, 3, 455, 246, 44.3645, 0.182287, 1.03442, 194147
-6418.01, 391169, -318.887, 0.22976, -1062.32, -6.80999e-07, 0.588293, 0.993198, 0.349787, 0.651995, 0.0001, 91, 246, 43.4244, 0.225645, 1.10602, 194149
-31212.9, 876159, -350.127, 1.76476, -723.583, -0.0145364, 0.432317, 1.03299, 0.34851, 0.655882, 3, 45.5, 246, 30.5492, 0.106219, 1.38816, 194150
-14087.9, 292768, -160.124, 2.24647, -1033.89, -0.0220374, 0.340171, 1.03299, 0.34851, 0.655882, 0.0001, 45.5, 246, 33.3585, 0.124554, 1.01117, 194152
-14087.9, 292768, -160.124, 2.24647, -1033.89, -0.0220374, 0.340171, 1.03299, 0.34851, 0.655882, 3, 45.5, 246, 33.3585, 0.124554, 1.52788, 194152
-19485.7, 811417, -174.662, 1.09424, -1108.79, 0.379467, 0.358124, 1.03299, 0.34851, 0.655882, 3, 45.5, 246, 31.4533, 0.054767, 1.45828, 194153
-17072.1, 472693, -423.81, 2.83934, -646.904, 0.00432699, 0.497731, 0.993198, 0.349787, 0.651995, 0.0001, 91, 246, 38.4538, 0.185314, 1.14811, 194154
-17072.1, 472693, -423.81, 2.83934, -646.904, 0.00432699, 0.497731, 0.993198, 0.349787, 0.651995, 3, 91, 246, 38.4538, 0.185314, 1.46618, 194154
-15307, 295563, -0.643887, 1.82143, -989.916, -0.00906129, 0.286889, 1.03299, 0.34851, 0.655882, 3, 45.5, 246, 17.5592, 0.0179457, 1.55886, 194155
-13910.8, 324041, -87.0323, 1.46803, -645.101, 0.0450229, 0.328415, 1.03299, 0.34851, 0.655882, 3, 45.5, 246, 19.6084, 0.0665576, 1.51172, 194156
-12269.5, 230887, -18.4897, 1.359, -657.421, 0.361125, 0.313377, 1.03299, 0.34851, 0.655882, 3, 45.5, 246, 13.3017, 0.0262652, 1.53349, 194157
-9844.47, 498391, -422.008, 0.546397, -987.566, 0.158242, 0.686596, 1.03299, 0.34851, 0.655882, 3, 45.5, 246, 45.2697, 0.220393, 1.24553, 194158
-29353, 648589, -368.206, 2.59222, -1074.23, 0.391796, 0.418712, 1.03299, 0.34851, 0.655882, 0.0001, 45.5, 246, 41.0635, 0.135959, 1.42773, 194159
-29353, 648589, -368.206, 2.59222, -1074.23, 0.391796, 0.418712, 1.03299, 0.34851, 0.655882, 3, 45.5, 246, 41.0635, 0.135959, 1.42803, 194159
-20722.8, 687136, -425.442, 2.86137, -1177.48, 0.452416, 0.42221, 0.993198, 0.349787, 0.651995, 0.0001, 91, 246, 41.0635, 0.135959, 1.12672, 194159
-20722.8, 687136, -425.442, 2.86137, -1177.48, 0.452416, 0.42221, 0.993198, 0.349787, 0.651995, 3, 91, 246, 41.0635, 0.135959, 1.54385, 194159
-29111, 640435, -415.67, 2.37399, -739.354, -0.0078399, 0.507492, 1.03299, 0.34851, 0.655882, 3, 45.5, 246, 37.7851, 0.162305, 1.34186, 194160
-21207.7, 652881, -464.704, 2.55815, -768.535, 0.0188433, 0.512667, 0.993198, 0.349787, 0.651995, 0.0001, 91, 246, 37.7851, 0.162305, 1.05399, 194160
-21207.7, 652881, -464.704, 2.55815, -768.535, 0.0188433, 0.512667, 0.993198, 0.349787, 0.651995, 3, 91, 246, 37.7851, 0.162305, 1.42153, 194160
-16417.5, 280352, -257.423, 3.34055, -705.054, -0.033168, 0.300613, 1.03299, 0.34851, 0.655882, 0.0001, 45.5, 246, 38.1744, 0.165276, 1.34158, 194161
-16417.5, 280352, -257.423, 3.34055, -705.054, -0.033168, 0.300613, 1.03299, 0.34851, 0.655882, 3, 45.5, 246, 38.1744, 0.165276, 1.34374, 194161
-11731.9, 289775, -303.761, 3.64313, -730.002, 0.020306, 0.316683, 0.993198, 0.349787, 0.651995, 0.0001, 91, 246, 38.1744, 0.165276, 1.04914, 194161
-11731.9, 289775, -303.761, 3.64313, -730.002, 0.020306, 0.316683, 0.993198, 0.349787, 0.651995, 3, 91, 246, 38.1744, 0.165276, 1.05268, 194161
-6038.42, 301738, -359.187, 4.00379, -769.404, 0.0848043, 0.35156, 0.958125, 0.351078, 0.648177, 0.0001, 182, 246, 38.1744, 0.165276, 1.12294, 194161
-6038.42, 301738, -359.187, 4.00379, -769.404, 0.0848043, 0.35156, 0.958125, 0.351078, 0.648177, 3, 182, 246, 38.1744, 0.165276, 1.12652, 194161
-20300.5, 938678, -227.856, 0.922032, -739.149, -0.00355258, 0.3835, 1.03299, 0.34851, 0.655882, 3, 45.5, 246, 25.3711, 0.0646353, 1.43118, 194164
-15015.3, 299149, -48.8432, 3.32703, -1198.75, 0.302424, 0.184398, 0.993198, 0.349787, 0.651995, 0.0001, 91, 246, 22.4324, 0.0364174, 1.43503, 194165
-15015.3, 299149, -48.8432, 3.32703, -1198.75, 0.302424, 0.184398, 0.993198, 0.349787, 0.651995, 3, 91, 246, 22.4324, 0.0364174, 1.93285, 194165
-13638, 421264, -435.282, 1.25237, -859.858, 0.670715, 0.700667, 1.03299, 0.34851, 0.655882, 3, 45.5, 246, 46.3976, 0.23671, 1.27791, 194166
-9729.15, 455852, -472.799, 1.3798, -979.022, 0.758727, 0.705989, 0.993198, 0.349787, 0.651995, 0.0001, 91, 246, 46.3976, 0.23671, 1.09, 194166
-9729.15, 455852, -472.799, 1.3798, -979.022, 0.758727, 0.705989, 0.993198, 0.349787, 0.651995, 3, 91, 246, 46.3976, 0.23671, 1.3217, 194166
-4799.47, 499888, -515.946, 1.52946, -1133.41, 0.872632, 0.719047, 0.958125, 0.351078, 0.648177, 0.0001, 182, 246, 46.3976, 0.23671, 1.01541, 194166
-24180.9, 618096, -128.176, 2.67813, -699.108, 0.673363, 0.227683, 0.993198, 0.349787, 0.651995, 3, 91, 246, 19.2416, 0.0434945, 1.77152, 194167
-23118.6, 474712, -229.426, 2.35901, -644.434, 0.322997, 0.33823, 1.03299, 0.34851, 0.655882, 0.0001, 45.5, 246, 27.8508, 0.108915, 1.03471, 194168
-17913, 491532, -261.021, 2.57596, -696.88, 0.368518, 0.329347, 0.993198, 0.349787, 0.651995, 0.0001, 91, 246, 27.8508, 0.108915, 1.03604, 194168
-18810.5, 467011, -98.9012, 1.81982, -1015.19, 0.0915093, 0.308538, 1.03299, 0.34851, 0.655882, 3, 45.5, 246, 26.4017, 0.0581654, 1.52005, 194169
-14249.7, 233211, -239.682, 3.44472, -699.348, 0.212876, 0.264554, 1.03299, 0.34851, 0.655882, 0.0001, 45.5, 246, 38.2029, 0.15993, 1.62244, 194170
-14249.7, 233211, -239.682, 3.44472, -699.348, 0.212876, 0.264554, 1.03299, 0.34851, 0.655882, 3, 45.5, 246, 38.2029, 0.15993, 1.6259, 194170
-10144, 245955, -285.957, 3.81249, -752.493, 0.28009, 0.282526, 0.993198, 0.349787, 0.651995, 0.0001, 91, 246, 38.2029, 0.15993, 1.21367, 194170
-10144, 245955, -285.957, 3.81249, -752.493, 0.28009, 0.282526, 0.993198, 0.349787, 0.651995, 3, 91, 246, 38.2029, 0.15993, 1.85671, 194170
-4969.73, 262346, -343.515, 4.26225, -825.958, 0.367902, 0.322635, 0.958125, 0.351078, 0.648177, 0.0001, 182, 246, 38.2029, 0.15993, 1.3061, 194170
-4969.73, 262346, -343.515, 4.26225, -825.958, 0.367902, 0.322635, 0.958125, 0.351078, 0.648177, 3, 182, 246, 38.2029, 0.15993, 1.30848, 194170
-26394.1, 579352, -54.8058, 2.11625, -722.358, 0.0394012, 0.269143, 1.03299, 0.34851, 0.655882, 3, 45.5, 246, 18.5941, 0.0295084, 1.54795, 194171
-5636.65, 122222, -234.461, 3.2438, -916.622, 0.159512, 0.325325, 1.03299, 0.34851, 0.655882, 0.0001, 45.5, 246, 53.269, 0.224195, 1.59382, 194172
-5636.65, 122222, -234.461, 3.2438, -916.622, 0.159512, 0.325325, 1.03299, 0.34851, 0.655882, 3, 45.5, 246, 53.269, 0.224195, 1.59541, 194172
-3208.95, 139968, -284.917, 3.57087, -967.639, 0.215919, 0.340505, 0.993198, 0.349787, 0.651995, 0.0001, 91, 246, 53.269, 0.224195, 2.02832, 194172
-3208.95, 139968, -284.917, 3.57087, -967.639, 0.215919, 0.340505, 0.993198, 0.349787, 0.651995, 3, 91, 246, 53.269, 0.224195, 2.02181, 194172
104.939, 161200, -346.761, 3.96422, -1038.55, 0.288043, 0.375109, 0.958125, 0.351078, 0.648177, 0.0001, 182, 246, 53.269, 0.224195, 2.70825, 194172
104.939, 161200, -346.761, 3.96422, -1038.55, 0.288043, 0.375109, 0.958125, 0.351078, 0.648177, 3, 182, 246, 53.269, 0.224195, 2.70943, 194172
-24961.2, 579785, -400.714, 2.09487, -731.471, 0.391786, 0.515718, 1.03299, 0.34851, 0.655882, 3, 45.5, 246, 36.9577, 0.160143, 1.34991, 194173
-18374.8, 605389, -444.999, 2.29605, -806.283, 0.440176, 0.515869, 0.993198, 0.349787, 0.651995, 0.0001, 91, 246, 36.9577, 0.160143, 1.03867, 194173
-18374.8, 605389, -444.999, 2.29605, -806.283, 0.440176, 0.515869, 0.993198, 0.349787, 0.651995, 3, 91, 246, 36.9577, 0.160143, 1.43731, 194173
-17419.4, 469016, -396.089, 2.1726, -1095.86, 0.00854642, 0.583449, 1.03299, 0.34851, 0.655882, 3, 45.5, 246, 47.85, 0.206222, 1.32368, 194174
-11578.2, 493673, -448.762, 2.33904, -1124.35, 0.0309306, 0.591493, 0.993198, 0.349787, 0.651995, 0.0001, 91, 246, 47.85, 0.206222, 1.1068, 194174
-11578.2, 493673, -448.762, 2.33904, -1124.35, 0.0309306, 0.591493, 0.993198, 0.349787, 0.651995, 3, 91, 246, 47.85, 0.206222, 1.41426, 194174
-6371.48, -3041.13, -54.2478, 3.19164, -687.975, 0.00717993, 0.219207, 1.03299, 0.34851, 0.655882, 0.0001, 45.5, 246, 30.3766, 0.00991416, 1.68509, 194175
-6371.48, -3041.13, -54.2478, 3.19164, -687.975, 0.00717993, 0.219207, 1.03299, 0.34851, 0.655882, 3, 45.5, 246, 30.3766, 0.00991416, 1.68453, 194175
-6468.21, 5071.44, -79.9394, 3.47001, -697.22, 0.0559861, 0.225003, 0.993198, 0.349787, 0.651995, 0.0001, 91, 246, 30.3766, 0.00991416, 1.72794, 194175
-6468.21, 5071.44, -79.9394, 3.47001, -697.22, 0.0559861, 0.225003, 0.993198, 0.349787, 0.651995, 3, 91, 246, 30.3766, 0.00991416, 1.71612, 194175
-23521.8, 617024, -66.7728, 2.65297, -1087.44, 0.000279122, 0.217096, 0.993198, 0.349787, 0.651995, 3, 91, 246, 25.2072, 0.0278129, 1.78739, 194176
-6686.03, 544317, -354.106, 0.135019, -1016.78, -6.40997e-05, 0.568301, 1.03299, 0.34851, 0.655882, 0.0001, 45.5, 246, 39.8699, 0.171872, 1.00644, 194177
-39392.6, 938733, -296.403, 2.15015, -827.847, 0.374987, 0.338295, 1.03299, 0.34851, 0.655882, 0.0001, 45.5, 246, 30.1319, 0.0800498, 1.47154, 194180
-39392.6, 938733, -296.403, 2.15015, -827.847, 0.374987, 0.338295, 1.03299, 0.34851, 0.655882, 3, 45.5, 246, 30.1319, 0.0800498, 1.4741, 194180
-30030.4, 972205, -334.177, 2.34524, -900.775, 0.422166, 0.324719, 0.993198, 0.349787, 0.651995, 3, 91, 246, 30.1319, 0.0800498, 1.61086, 194180
-8798.94, 54955.5, -36.6867, 2.72982, -1008.1, 0.232072, 0.251692, 1.03299, 0.34851, 0.655882, 0.0001, 45.5, 246, 23.1117, 0.0812, 1.19586, 194181
-8798.94, 54955.5, -36.6867, 2.72982, -1008.1, 0.232072, 0.251692, 1.03299, 0.34851, 0.655882, 3, 45.5, 246, 23.1117, 0.0812, 1.36778, 194181
-33504.3, 883687, -32.8318, 1.74537, -885.317, 0.210843, 0.282177, 1.03299, 0.34851, 0.655882, 3, 45.5, 246, 22.1146, 0.0144835, 1.50712, 194182
-8681.59, 108551, -108.399, 3.48305, -602.543, 0.000356787, 0.209188, 0.993198, 0.349787, 0.651995, 0.0001, 91, 246, 24.3257, 0.0856398, 1.71636, 194184
-8681.59, 108551, -108.399, 3.48305, -602.543, 0.000356787, 0.209188, 0.993198, 0.349787, 0.651995, 3, 91, 246, 24.3257, 0.0856398, 1.9574, 194184
-11022.2, 581768, -444.841, 0.483022, -856.71, 0.44938, 0.648933, 1.03299, 0.34851, 0.655882, 3, 45.5, 246, 40.3715, 0.187499, 1.28847, 194185
-17882.6, 286202, -215.712, 3.0265, -585.8, 0.686732, 0.268045, 1.03299, 0.34851, 0.655882, 0.0001, 45.5, 246, 30.2029, 0.125718, 1.4469, 194188
-17882.6, 286202, -215.712, 3.0265, -585.8, 0.686732, 0.268045, 1.03299, 0.34851, 0.655882, 3, 45.5, 246, 30.2029, 0.125718, 1.44947, 194188
-13632.3, 304942, -252.513, 3.41512, -680.539, 0.821354, 0.273578, 0.993198, 0.349787, 0.651995, 3, 91, 246, 30.2029, 0.125718, 1.60698, 194188
-32434.7, 648475, -429.321, 2.66888, -903.536, 0.725148, 0.448125, 1.03299, 0.34851, 0.655882, 3, 45.5, 246, 39.7812, 0.146061, 1.40856, 194189
-23063.5, 695497, -490.123, 3.01199, -1059.91, 0.858948, 0.456943, 0.993198, 0.349787, 0.651995, 0.0001, 91, 246, 39.7812, 0.146061, 1.24603, 194189
-23063.5, 695497, -490.123, 3.01199, -1059.91, 0.858948, 0.456943, 0.993198, 0.349787, 0.651995, 3, 91, 246, 39.7812, 0.146061, 1.5233, 194189
-12077.2, 400154, -149.594, 0.95353, -918.166, 0.797928, 0.374723, 1.03299, 0.34851, 0.655882, 3, 45.5, 246, 27.5265, 0.0843928, 1.47695, 194190
-25856.6, 524800, -174.153, 2.70753, -1071.12, 0.00368485, 0.274174, 1.03299, 0.34851, 0.655882, 0.0001, 45.5, 246, 32.4539, 0.086572, 1.56971, 194191
-25856.6, 524800, -174.153, 2.70753, -1071.12, 0.00368485, 0.274174, 1.03299, 0.34851, 0.655882, 3, 45.5, 246, 32.4539, 0.086572, 1.56969, 194191
-9425.55, 462474, -367.129, 0.360366, -814.31, -0.000595915, 0.631632, 1.03299, 0.34851, 0.655882, 3, 45.5, 246, 40.5009, 0.212276, 1.28283, 194192
-19529, 652975, -350.688, 1.42271, -913.513, 0.38471, 0.485387, 1.03299, 0.34851, 0.655882, 3, 45.5, 246, 36.1211, 0.13063, 1.37442, 194193
-17291.5, 523375, -448.466, 1.82404, -1085.51, 0.0623304, 0.661759, 1.03299, 0.34851, 0.655882, 3, 45.5, 246, 48.905, 0.214812, 1.2536, 194194
-11377.4, 550181, -499.208, 1.96062, -1121.38, 0.0788236, 0.671221, 0.993198, 0.349787, 0.651995, 3, 91, 246, 48.905, 0.214812, 1.30668, 194194
-4155.31, 580343, -556.283, 2.11158, -1165.59, 0.0982411, 0.689816, 0.958125, 0.351078, 0.648177, 0.0001, 182, 246, 48.905, 0.214812, 1.08238, 194194
-23569, 542162, -247.353, 3.91879, -1101.9, 0.465378, 0.183515, 0.993198, 0.349787, 0.651995, 0.0001, 91, 246, 32.7392, 0.0882806, 1.92233, 194195
-23569, 542162, -247.353, 3.91879, -1101.9, 0.465378, 0.183515, 0.993198, 0.349787, 0.651995, 3, 91, 246, 32.7392, 0.0882806, 1.9227, 194195
-10455, 244044, -253.409, 1.16362, -645.251, 0.615476, 0.527334, 1.03299, 0.34851, 0.655882, 3, 45.5, 246, 39.4855, 0.226965, 1.40327, 194196
-6908.23, 470846, -344.222, 0.0260548, -874.15, 0.417858, 0.577423, 1.03299, 0.34851, 0.655882, 0.0001, 45.5, 246, 38.087, 0.184151, 3.74923, 194198
-6908.23, 470846, -344.222, 0.0260548, -874.15, 0.417858, 0.577423, 1.03299, 0.34851, 0.655882, 3, 45.5, 246, 38.087, 0.184151, 3.74919, 194198
-28695.1, 693825, -209.589, 2.26222, -1090.14, 0.0107712, 0.320703, 1.03299, 0.34851, 0.655882, 3, 45.5, 246, 33.6803, 0.0818824, 1.499, 194199
-17420.6, 935602, -150.877, 0.713408, -851.761, 0.333415, 0.355237, 1.03299, 0.34851, 0.655882, 3, 45.5, 246, 24.982, 0.0405995, 1.46054, 194201
-12528, 297590, -205.96, 1.66193, -831.734, 0.242294, 0.417647, 1.03299, 0.34851, 0.655882, 3, 45.5, 246, 34.2851, 0.155607, 1.45736, 194202
-16227.5, 314690, -381.437, 2.80563, -654.392, 0.47618, 0.50209, 1.03299, 0.34851, 0.655882, 0.0001, 45.5, 246, 45.5421, 0.222754, 1.42149, 194204
-16227.5, 314690, -381.437, 2.80563, -654.392, 0.47618, 0.50209, 1.03299, 0.34851, 0.655882, 3, 45.5, 246, 45.5421, 0.222754, 1.43687, 194204
-10984.1, 334210, -433.44, 3.13289, -742.921, 0.556725, 0.519207, 0.993198, 0.349787, 0.651995, 0.0001, 91, 246, 45.5421, 0.222754, 1.05833, 194204
-10984.1, 334210, -433.44, 3.13289, -742.921, 0.556725, 0.519207, 0.993198, 0.349787, 0.651995, 3, 91, 246, 45.5421, 0.222754, 1.06049, 194204
-4259.76, 359874, -497.881, 3.5337, -860.514, 0.663825, 0.554382, 0.958125, 0.351078, 0.648177, 0.0001, 182, 246, 45.5421, 0.222754, 1.41358, 194204
-4259.76, 359874, -497.881, 3.5337, -860.514, 0.663825, 0.554382, 0.958125, 0.351078, 0.648177, 3, 182, 246, 45.5421, 0.222754, 1.41532, 194204
-17136.4, 318292, -16.9392, 3.28294, -605.275, 0.416544, 0.174539, 0.993198, 0.349787, 0.651995, 0.0001, 91, 246, 11.4928, 0.0129268, 1.30538, 194205
-17136.4, 318292, -16.9392, 3.28294, -605.275, 0.416544, 0.174539, 0.993198, 0.349787, 0.651995, 3, 91, 246, 11.4928, 0.0129268, 1.94047, 194205
-6572.04, -7716.78, -62.9496, 3.7511, -659.344, 0.00366726, 0.207859, 0.993198, 0.349787, 0.651995, 0.0001, 91, 246, 24.6774, 0.000199248, 1.73877, 194206
-6572.04, -7716.78, -62.9496, 3.7511, -659.344, 0.00366726, 0.207859, 0.993198, 0.349787, 0.651995, 3, 91, 246, 24.6774, 0.000199248, 1.62443, 194206
-17473, 546946, -222.541, 1.54924, -1103.33, 0.428176, 0.388243, 1.03299, 0.34851, 0.655882, 3, 45.5, 246, 34.4755, 0.0988547, 1.45057, 194208
-10512.8, 383258, -410.484, 2.64232, -1037.96, 0.634714, 0.535113, 0.993198, 0.349787, 0.651995, 0.0001, 91, 246, 45.9327, 0.210831, 1.19343, 194211
-10512.8, 383258, -410.484, 2.64232, -1037.96, 0.634714, 0.535113, 0.993198, 0.349787, 0.651995, 3, 91, 246, 45.9327, 0.210831, 1.21604, 194211
-32004.3, 654453, -341.921, 2.57825, -845.419, 0.528306, 0.375345, 1.03299, 0.34851, 0.655882, 0.0001, 45.5, 246, 34.8201, 0.120574, 1.4665, 194212
-32004.3, 654453, -341.921, 2.57825, -845.419, 0.528306, 0.375345, 1.03299, 0.34851, 0.655882, 3, 45.5, 246, 34.8201, 0.120574, 1.46865, 194212
-23591.3, 689712, -390.878, 2.86441, -952.233, 0.611862, 0.375208, 0.993198, 0.349787, 0.651995, 0.0001, 91, 246, 34.8201, 0.120574, 1.19107, 194212
-23591.3, 689712, -390.878, 2.86441, -952.233, 0.611862, 0.375208, 0.993198, 0.349787, 0.651995, 3, 91, 246, 34.8201, 0.120574, 1.58536, 194212
-26013.5, 935271, -419.36, 1.47478, -1046.58, -0.00750016, 0.508759, 1.03299, 0.34851, 0.655882, 3, 45.5, 246, 39.4211, 0.119742, 1.32681, 194213
-16811.1, 323006, -385.896, 3.32635, -750.681, -0.049714, 0.467243, 1.03299, 0.34851, 0.655882, 0.0001, 45.5, 246, 48.8241, 0.22858, 1.45976, 194217
-16811.1, 323006, -385.896, 3.32635, -750.681, -0.049714, 0.467243, 1.03299, 0.34851, 0.655882, 3, 45.5, 246, 48.8241, 0.22858, 1.45929, 194217
-10690.3, 335124, -447.392, 3.64047, -785.953, 0.00357611, 0.496373, 0.993198, 0.349787, 0.651995, 0.0001, 91, 246, 48.8241, 0.22858, 1.60261, 194217
-10690.3, 335124, -447.392, 3.64047, -785.953, 0.00357611, 0.496373, 0.993198, 0.349787, 0.651995, 3, 91, 246, 48.8241, 0.22858, 1.14331, 194217
-3093.13, 350941, -521.373, 4.01739, -839.148, 0.0680178, 0.545741, 0.958125, 0.351078, 0.648177, 0.0001, 182, 246, 48.8241, 0.22858, 1.6791, 194217
-3093.13, 350941, -521.373, 4.01739, -839.148, 0.0680178, 0.545741, 0.958125, 0.351078, 0.648177, 3, 182, 246, 48.8241, 0.22858, 1.68685, 194217
-15206.1, 675812, -115.767, 0.844812, -983.703, 0.0908805, 0.349501, 1.03299, 0.34851, 0.655882, 3, 45.5, 246, 26.2325, 0.0457629, 1.47705, 194219
-16138.6, 536057, -372.252, 1.45674, -962.407, 0.060679, 0.560172, 1.03299, 0.34851, 0.655882, 3, 45.5, 246, 41.353, 0.175953, 1.32144, 194220
-14731.8, 312030, -161.869, 3.34668, -732.972, 0.0171015, 0.223579, 0.993198, 0.349787, 0.651995, 0.0001, 91, 246, 25.6045, 0.089309, 1.30603, 194221
-14731.8, 312030, -161.869, 3.34668, -732.972, 0.0171015, 0.223579, 0.993198, 0.349787, 0.651995, 3, 91, 246, 25.6045, 0.089309, 1.86294, 194221
-12787.1, 428252, -181.868, 1.2141, -1091.6, 0.0622495, 0.395513, 1.03299, 0.34851, 0.655882, 3, 45.5, 246, 32.8878, 0.107551, 1.45617, 194223
-14245.6, 367679, -391.113, 2.082, -951.284, 0.0557879, 0.635436, 1.03299, 0.34851, 0.655882, 3, 45.5, 246, 50.0386, 0.247675, 1.31356, 194225
-9562.44, 388003, -439.611, 2.24659, -985.049, 0.0770274, 0.647091, 0.993198, 0.349787, 0.651995, 3, 91, 246, 50.0386, 0.247675, 1.41137, 194225
-3776.3, 411194, -494.901, 2.43113, -1027.99, 0.10228, 0.669189, 0.958125, 0.351078, 0.648177, 3, 182, 246, 50.0386, 0.247675, 1.3092, 194225
-16645.7, 474719, -450.309, 1.53257, -824.647, 0.457524, 0.678121, 1.03299, 0.34851, 0.655882, 3, 45.5, 246, 44.9434, 0.221424, 1.26377, 194226
-11768, 503779, -492.567, 1.67546, -910.377, 0.505342, 0.684752, 0.993198, 0.349787, 0.651995, 0.0001, 91, 246, 44.9434, 0.221424, 1.06, 194226
-11768, 503779, -492.567, 1.67546, -910.377, 0.505342, 0.684752, 0.993198, 0.349787, 0.651995, 3, 91, 246, 44.9434, 0.221424, 1.31428, 194226
-5715.35, 539067, -540.909, 1.83882, -1015.37, 0.56391, 0.699933, 0.958125, 0.351078, 0.648177, 3, 182, 246, 44.9434, 0.221424, 1.01277, 194226
-10278, 250851, -197.869, 1.44295, -1039.52, 0.0184998, 0.450512, 1.03299, 0.34851, 0.655882, 3, 45.5, 246, 38.8367, 0.185865, 1.43227, 194230
-19907.1, 446454, -151.194, 1.95632, -647.963, 0.437596, 0.317814, 1.03299, 0.34851, 0.655882, 3, 45.5, 246, 23.0682, 0.0778114, 1.52172, 194231
-27790.2, 571493, -248.736, 2.59411, -772.742, -0.0275667, 0.32723, 1.03299, 0.34851, 0.655882, 0.0001, 45.5, 246, 30.6737, 0.10851, 1.50784, 194232
-27790.2, 571493, -248.736, 2.59411, -772.742, -0.0275667, 0.32723, 1.03299, 0.34851, 0.655882, 3, 45.5, 246, 30.6737, 0.10851, 1.50793, 194232
-20997.3, 581937, -286.845, 2.79028, -790.226, 0.00425368, 0.322823, 0.993198, 0.349787, 0.651995, 0.0001, 91, 246, 30.6737, 0.10851, 1.14716, 194232
-20997.3, 581937, -286.845, 2.79028, -790.226, 0.00425368, 0.322823, 0.993198, 0.349787, 0.651995, 3, 91, 246, 30.6737, 0.10851, 1.58077, 194232
-10387.8, 406819, -294.679, 0.735475, -861.635, 0.0848742, 0.540584, 1.03299, 0.34851, 0.655882, 0.0001, 45.5, 246, 38.0734, 0.186166, 1.25848, 194234
-10387.8, 406819, -294.679, 0.735475, -861.635, 0.0848742, 0.540584, 1.03299, 0.34851, 0.655882, 3, 45.5, 246, 38.0734, 0.186166, 1.34759, 194234
-9335.67, 137168, -175.953, 3.31262, -839.089, 0.788156, 0.230987, 1.03299, 0.34851, 0.655882, 0.0001, 45.5, 246, 38.5334, 0.144118, 1.73165, 194235
-9335.67, 137168, -175.953, 3.31262, -839.089, 0.788156, 0.230987, 1.03299, 0.34851, 0.655882, 3, 45.5, 246, 38.5334, 0.144118, 1.7361, 194235
-6898.96, 158577, -221.162, 3.77971, -982.552, 0.963273, 0.244015, 0.993198, 0.349787, 0.651995, 0.0001, 91, 246, 38.5334, 0.144118, 1.99, 194235
-6898.96, 158577, -221.162, 3.77971, -982.552, 0.963273, 0.244015, 0.993198, 0.349787, 0.651995, 3, 91, 246, 38.5334, 0.144118, 1.98885, 194235
-3362.8, 189827, -283.596, 4.3974, -1195.42, 1.22269, 0.283316, 0.958125, 0.351078, 0.648177, 0.0001, 182, 246, 38.5334, 0.144118, 1.4269, 194235
-3362.8, 189827, -283.596, 4.3974, -1195.42, 1.22269, 0.283316, 0.958125, 0.351078, 0.648177, 3, 182, 246, 38.5334, 0.144118, 1.42932, 194235
-25943.4, 657954, -45.8737, 1.7996, -833.412, -0.00372312, 0.287547, 1.03299, 0.34851, 0.655882, 3, 45.5, 246, 20.493, 0.0238626, 1.51942, 194236
-22593.7, 491112, -225.159, 3.70881, -789.971, 0.665271, 0.191685, 0.993198, 0.349787, 0.651995, 0.0001, 91, 246, 26.2732, 0.0832359, 1.15638, 194237
-22593.7, 491112, -225.159, 3.70881, -789.971, 0.665271, 0.191685, 0.993198, 0.349787, 0.651995, 3, 91, 246, 26.2732, 0.0832359, 1.15664, 194237
-16767.3, 403592, -372.65, 2.04183, -868.799, 0.792814, 0.537626, 1.03299, 0.34851, 0.655882, 0.0001, 45.5, 246, 42.5916, 0.19236, 1.39121, 194240
-16767.3, 403592, -372.65, 2.04183, -868.799, 0.792814, 0.537626, 1.03299, 0.34851, 0.655882, 3, 45.5, 246, 42.5916, 0.19236, 1.40482, 194240
-11859.7, 440384, -418.108, 2.29083, -1019, 0.929896, 0.539244, 0.993198, 0.349787, 0.651995, 0.0001, 91, 246, 42.5916, 0.19236, 1.34432, 194240
-27999.3, 950504, -385.368, 2.0891, -783.2, 0.75203, 0.377634, 0.993198, 0.349787, 0.651995, 0.0001, 91, 246, 28.1778, 0.090343, 1.22142, 194241
-27999.3, 950504, -385.368, 2.0891, -783.2, 0.75203, 0.377634, 0.993198, 0.349787, 0.651995, 3, 91, 246, 28.1778, 0.090343, 1.54891, 194241
-26803.9, 611599, -311.142, 2.07547, -604.393, 0.268085, 0.417153, 1.03299, 0.34851, 0.655882, 3, 45.5, 246, 29.1983, 0.120702, 1.41481, 194244
-17050.4, 564312, -40.1103, 1.03863, -897.624, 0.691126, 0.323826, 1.03299, 0.34851, 0.655882, 3, 45.5, 246, 20.9507, 0.0203686, 1.49364, 194246
-27070.6, 786305, -53.8176, 1.47711, -951.377, 0.629999, 0.304477, 1.03299, 0.34851, 0.655882, 3, 45.5, 246, 23.944, 0.0204798, 1.49105, 194247
-13766.1, 796803, -458.315, 0.502928, -753.769, 0.00234049, 0.596303, 1.03299, 0.34851, 0.655882, 3, 45.5, 246, 35.3736, 0.151044, 1.29735, 194249
-21216.4, 729831, -275.605, 1.52463, -1098.21, 0.0698802, 0.412092, 1.03299, 0.34851, 0.655882, 3, 45.5, 246, 36.0425, 0.0991064, 1.42183, 194253
-7672.45, 41870.4, -73.5726, 1.62459, -910.352, 0.00461431, 0.353479, 1.03299, 0.34851, 0.655882, 0.0001, 45.5, 246, 40.224, 0.245429, 1.02195, 194256
-7672.45, 41870.4, -73.5726, 1.62459, -910.352, 0.00461431, 0.353479, 1.03299, 0.34851, 0.655882, 3, 45.5, 246, 40.224, 0.245429, 1.55836, 194256
-29883.8, 676761, -129.109, 3.16327, -616.432, 0.333238, 0.182906, 0.993198, 0.349787, 0.651995, 3, 91, 246, 18.2752, 0.0411614, 1.85957, 194257
-18503.7, 447269, -239.599, 2.04392, -839.209, 0.0437381, 0.3918, 1.03299, 0.34851, 0.655882, 3, 45.5, 246, 33.0797, 0.129451, 1.45988, 194261
-13935, 674307, -240.707, 0.642582, -646.935, 0.676724, 0.408049, 1.03299, 0.34851, 0.655882, 3, 45.5, 246, 24.365, 0.0818348, 1.44004, 194262
-33418.1, 586942, -331.366, 3.38766, -980.149, 0.12895, 0.301933, 1.03299, 0.34851, 0.655882, 0.0001, 45.5, 246, 39.2356, 0.134008, 1.54501, 194263
-33418.1, 586942, -331.366, 3.38766, -980.149, 0.12895, 0.301933, 1.03299, 0.34851, 0.655882, 3, 45.5, 246, 39.2356, 0.134008, 1.54556, 194263
-23674, 610278, -394.838, 3.7313, -1039.23, 0.188418, 0.320231, 0.993198, 0.349787, 0.651995, 3, 91, 246, 39.2356, 0.134008, 1.68141, 194263
-13805.1, 236617, -204.017, 3.08971, -910.635, 0.453646, 0.28559, 1.03299, 0.34851, 0.655882, 0.0001, 45.5, 246, 37.4025, 0.147348, 1.64304, 194264
-13805.1, 236617, -204.017, 3.08971, -910.635, 0.453646, 0.28559, 1.03299, 0.34851, 0.655882, 3, 45.5, 246, 37.4025, 0.147348, 1.22559, 194264
-10113.8, 259330, -250.103, 3.44434, -1004.86, 0.539105, 0.293695, 0.993198, 0.349787, 0.651995, 0.0001, 91, 246, 37.4025, 0.147348, 1.55401, 194264
-10113.8, 259330, -250.103, 3.44434, -1004.86, 0.539105, 0.293695, 0.993198, 0.349787, 0.651995, 3, 91, 246, 37.4025, 0.147348, 1.69183, 194264
-30028.8, 666313, -216.491, 3.40297, -624.125, 0.430797, 0.195763, 0.993198, 0.349787, 0.651995, 0.0001, 91, 246, 21.9087, 0.0670202, 1.84738, 194265
-30028.8, 666313, -216.491, 3.40297, -624.125, 0.430797, 0.195763, 0.993198, 0.349787, 0.651995, 3, 91, 246, 21.9087, 0.0670202, 1.84825, 194265
-31027.9, 741579, -362.829, 2.34223, -1077.92, 0.378214, 0.415892, 1.03299, 0.34851, 0.655882, 0.0001, 45.5, 246, 39.6172, 0.120704, 1.41896, 194266
-31027.9, 741579, -362.829, 2.34223, -1077.92, 0.378214, 0.415892, 1.03299, 0.34851, 0.655882, 3, 45.5, 246, 39.6172, 0.120704, 1.41949, 194266
-22275, 781469, -414.917, 2.57043, -1174.77, 0.430401, 0.412786, 0.993198, 0.349787, 0.651995, 0.0001, 91, 246, 39.6172, 0.120704, 1.07915, 194266
-22275, 781469, -414.917, 2.57043, -1174.77, 0.430401, 0.412786, 0.993198, 0.349787, 0.651995, 3, 91, 246, 39.6172, 0.120704, 1.53289, 194266
-13802.6, 555670, -393.865, 0.639761, -588.895, 0.78657, 0.568068, 1.03299, 0.34851, 0.655882, 3, 45.5, 246, 32.1883, 0.15948, 1.37079, 194267
-14281.6, 482169, -276.663, 1.47864, -1145.71, 0.0538871, 0.46455, 1.03299, 0.34851, 0.655882, 3, 45.5, 246, 39.5655, 0.14472, 1.40883, 194269
-11208.4, 162000, -19.2431, 1.57562, -910.189, 0.565862, 0.307195, 1.03299, 0.34851, 0.655882, 0.0001, 45.5, 246, 16.945, 0.0398506, 1.96081, 194270
-11208.4, 162000, -19.2431, 1.57562, -910.189, 0.565862, 0.307195, 1.03299, 0.34851, 0.655882, 3, 45.5, 246, 16.945, 0.0398506, 1.95238, 194270
-8782.83, 385920, -346.682, 0.59282, -1073.3, 0.31613, 0.638496, 1.03299, 0.34851, 0.655882, 3, 45.5, 246, 45.7721, 0.230291, 1.29142, 194272
-18171.2, 343741, -252.326, 3.07569, -942.345, -0.0365071, 0.331251, 1.03299, 0.34851, 0.655882, 3, 45.5, 246, 39.0252, 0.15523, 1.55617, 194273
-12968.5, 359852, -302.022, 3.33875, -963.535, 0.008639, 0.340895, 0.993198, 0.349787, 0.651995, 0.0001, 91, 246, 39.0252, 0.15523, 1.42921, 194273
-12968.5, 359852, -302.022, 3.33875, -963.535, 0.008639, 0.340895, 0.993198, 0.349787, 0.651995, 3, 91, 246, 39.0252, 0.15523, 1.43318, 194273
-14634.9, 395317, -51.699, 1.34314, -1137.82, -0.00808994, 0.32108, 1.03299, 0.34851, 0.655882, 3, 45.5, 246, 24.4805, 0.0407195, 1.51134, 194274
-21120.4, 559746, -288.447, 1.95691, -1040.49, 0.577152, 0.411437, 1.03299, 0.34851, 0.655882, 3, 45.5, 246, 36.8555, 0.119606, 1.43608, 194275
-32303.7, 756847, -372.694, 2.16146, -693.69, 0.0495059, 0.440874, 1.03299, 0.34851, 0.655882, 3, 45.5, 246, 32.3404, 0.126239, 1.37255, 194276
-24275.7, 769681, -413.578, 2.32237, -723.662, 0.0721372, 0.435292, 0.993198, 0.349787, 0.651995, 3, 91, 246, 32.3404, 0.126239, 1.48838, 194276
-30054.1, 759668, -99.4485, 1.95404, -974.19, 0.0432789, 0.286612, 1.03299, 0.34851, 0.655882, 3, 45.5, 246, 26.2349, 0.0392679, 1.51608, 194277
-11204.5, 241374, -132.082, 1.4934, -887.91, -0.00783682, 0.372273, 1.03299, 0.34851, 0.655882, 3, 45.5, 246, 29.6392, 0.127164, 1.49624, 194280
-13621.9, 217412, -78.4251, 2.45306, -864.187, 0.0524309, 0.270184, 1.03299, 0.34851, 0.655882, 0.0001, 45.5, 246, 23.9731, 0.0790953, 1.0487, 194281
-8630.25, 27160.7, 15.3877, 3.07937, -723.273, 0.148857, 0.207198, 1.03299, 0.34851, 0.655882, 3, 45.5, 246, 8.36934, 0.0288764, 1.76885, 194282
-11958.2, 225898, -70.6093, 1.45499, -674.168, 0.585115, 0.325401, 1.03299, 0.34851, 0.655882, 3, 45.5, 246, 19.5151, 0.0684117, 1.52966, 194284
-8271.45, -89998.2, -0.726183, 3.69702, -1117.98, 0.236046, 0.285941, 0.993198, 0.349787, 0.651995, 0.0001, 91, 246, 0.601175, 0.222595, 3.22492, 194285
-8271.45, -89998.2, -0.726183, 3.69702, -1117.98, 0.236046, 0.285941, 0.993198, 0.349787, 0.651995, 3, 91, 246, 0.601175, 0.222595, 3.22643, 194285
-14532.1, 418401, -310.96, 2.28462, -640.902, 0.746244, 0.405464, 0.993198, 0.349787, 0.651995, 0.0001, 91, 246, 30.8213, 0.144595, 1.10619, 194288
-14532.1, 418401, -310.96, 2.28462, -640.902, 0.746244, 0.405464, 0.993198, 0.349787, 0.651995, 3, 91, 246, 30.8213, 0.144595, 1.57525, 194288
-29556.4, 949484, -401.379, 1.67027, -1103.16, 0.390563, 0.460229, 1.03299, 0.34851, 0.655882, 3, 45.5, 246, 39.3913, 0.106165, 1.37602, 194289
-21321.6, 996015, -444.388, 1.81271, -1196.99, 0.430432, 0.447205, 0.993198, 0.349787, 0.651995, 0.0001, 91, 246, 39.3913, 0.106165, 1.29696, 194289
-7118.97, 6987.47, -58.1064, 3.22701, -870.631, 0.699157, 0.23875, 0.993198, 0.349787, 0.651995, 0.0001, 91, 246, 24.4576, 0.0305728, 1.62863, 194290
-7118.97, 6987.47, -58.1064, 3.22701, -870.631, 0.699157, 0.23875, 0.993198, 0.349787, 0.651995, 3, 91, 246, 24.4576, 0.0305728, 1.63294, 194290
-10467.5, 615859, -376.694, 0.68204, -1110.45, -0.00211939, 0.563937, 1.03299, 0.34851, 0.655882, 3, 45.5, 246, 41.7238, 0.159984, 1.33601, 194291
-12800.8, 286303, -269.75, 1.89857, -758.678, 0.591624, 0.468559, 1.03299, 0.34851, 0.655882, 3, 45.5, 246, 39.1545, 0.191537, 1.44856, 194293
-9824.06, 308579, -302.409, 2.09442, -853.888, 0.671924, 0.460598, 0.993198, 0.349787, 0.651995, 3, 91, 246, 39.1545, 0.191537, 1.55576, 194293
-27531.9, 713983, -410.791, 2.22234, -1113.02, 0.161548, 0.497981, 1.03299, 0.34851, 0.655882, 3, 45.5, 246, 43.0934, 0.145973, 1.35177, 194295
-19163.9, 746004, -465.257, 2.40918, -1171.33, 0.18993, 0.49898, 0.993198, 0.349787, 0.651995, 3, 91, 246, 43.0934, 0.145973, 1.4488, 194295
-18408.9, 387348, 13.0173, 1.83571, -814.278, -0.0157381, 0.281742, 1.03299, 0.34851, 0.655882, 3, 45.5, 246, 14.7287, 0.00469394, 1.55282, 194296
-6380.65, 51431.9, -110.444, 3.2632, -828.461, -0.0510497, 0.223335, 1.03299, 0.34851, 0.655882, 0.0001, 45.5, 246, 38.4472, 0.117142, 1.7923, 194297
-6380.65, 51431.9, -110.444, 3.2632, -828.461, -0.0510497, 0.223335, 1.03299, 0.34851, 0.655882, 3, 45.5, 246, 38.4472, 0.117142, 1.24359, 194297
-5521.11, 63428.1, -145.92, 3.5421, -836.47, -0.000163288, 0.231564, 0.993198, 0.349787, 0.651995, 0.0001, 91, 246, 38.4472, 0.117142, 1.84117, 194297
-5521.11, 63428.1, -145.92, 3.5421, -836.47, -0.000163288, 0.231564, 0.993198, 0.349787, 0.651995, 3, 91, 246, 38.4472, 0.117142, 1.83908, 194297
-4252.14, 76256, -187.93, 3.8711, -856.613, 0.0602047, 0.257035, 0.958125, 0.351078, 0.648177, 0.0001, 182, 246, 38.4472, 0.117142, 1.10618, 194297
-4252.14, 76256, -187.93, 3.8711, -856.613, 0.0602047, 0.257035, 0.958125, 0.351078, 0.648177, 3, 182, 246, 38.4472, 0.117142, 1.10907, 194297
-1708.4, 95736.8, -257.747, 4.41751, -908.584, 0.162038, 0.321567, 0.9175, 0.352806, 0.64323, 0.0001, 455, 246, 38.4472, 0.117142, 1.4755, 194297
-1708.4, 95736.8, -257.747, 4.41751, -908.584, 0.162038, 0.321567, 0.9175, 0.352806, 0.64323, 3, 455, 246, 38.4472, 0.117142, 1.46834, 194297
-16689.9, 665236, -164.478, 1.08996, -1012.64, 0.0083569, 0.364208, 1.03299, 0.34851, 0.655882, 3, 45.5, 246, 29.2426, 0.0661073, 1.4624, 194298
-32241.4, 552895, -320.106, 3.07687, -597.081, 0.238335, 0.317448, 1.03299, 0.34851, 0.655882, 0.0001, 45.5, 246, 31.106, 0.129161, 1.52814, 194299
-32241.4, 552895, -320.106, 3.07687, -597.081, 0.238335, 0.317448, 1.03299, 0.34851, 0.655882, 3, 45.5, 246, 31.106, 0.129161, 1.28726, 194299
-12329.3, 385957, -205.603, 0.954003, -635.077, 0.503481, 0.421571, 1.03299, 0.34851, 0.655882, 3, 45.5, 246, 27.2883, 0.123599, 1.44609, 194302
-9750.29, 94665.9, -73.0699, 2.83314, -597.008, -0.0128385, 0.241192, 1.03299, 0.34851, 0.655882, 3, 45.5, 246, 23.4227, 0.0865184, 1.70002, 194303
-9341.31, 126101, -128.588, 3.33546, -1166.99, 0.013489, 0.239097, 1.03299, 0.34851, 0.655882, 0.0001, 45.5, 246, 37.5471, 0.14041, 1.73186, 194304
-9341.31, 126101, -128.588, 3.33546, -1166.99, 0.013489, 0.239097, 1.03299, 0.34851, 0.655882, 3, 45.5, 246, 37.5471, 0.14041, 1.16813, 194304
-12248.5, 347409, -357.984, 1.57022, -971.426, 0.617824, 0.610482, 1.03299, 0.34851, 0.655882, 3, 45.5, 246, 46.8445, 0.230832, 1.33982, 194305
-8726.86, 380850, -396.565, 1.73073, -1094.82, 0.697907, 0.610427, 0.993198, 0.349787, 0.651995, 3, 91, 246, 46.8445, 0.230832, 1.10704, 194305
-28793.5, 611951, -363.492, 2.64834, -1019.47, 0.487571, 0.410153, 1.03299, 0.34851, 0.655882, 0.0001, 45.5, 246, 40.1676, 0.137694, 1.4404, 194309
-28793.5, 611951, -363.492, 2.64834, -1019.47, 0.487571, 0.410153, 1.03299, 0.34851, 0.655882, 3, 45.5, 246, 40.1676, 0.137694, 1.44194, 194309
-20426.9, 651229, -420.229, 2.94224, -1137.59, 0.565397, 0.414653, 0.993198, 0.349787, 0.651995, 0.0001, 91, 246, 40.1676, 0.137694, 1.13516, 194309
-20426.9, 651229, -420.229, 2.94224, -1137.59, 0.565397, 0.414653, 0.993198, 0.349787, 0.651995, 3, 91, 246, 40.1676, 0.137694, 1.32862, 194309
-15774.4, 295291, -356.937, 3.21067, -690.632, 0.21607, 0.429544, 1.03299, 0.34851, 0.655882, 0.0001, 45.5, 246, 46.0371, 0.215255, 1.50083, 194310
-15774.4, 295291, -356.937, 3.21067, -690.632, 0.21607, 0.429544, 1.03299, 0.34851, 0.655882, 3, 45.5, 246, 46.0371, 0.215255, 1.18619, 194310
-10382.2, 310115, -412.335, 3.5537, -752.695, 0.275677, 0.452176, 0.993198, 0.349787, 0.651995, 0.0001, 91, 246, 46.0371, 0.215255, 1.16762, 194310
-10382.2, 310115, -412.335, 3.5537, -752.695, 0.275677, 0.452176, 0.993198, 0.349787, 0.651995, 3, 91, 246, 46.0371, 0.215255, 1.55865, 194310
-3575.74, 329431, -480.464, 3.96975, -835.995, 0.353138, 0.495306, 0.958125, 0.351078, 0.648177, 0.0001, 182, 246, 46.0371, 0.215255, 1.54591, 194310
-3575.74, 329431, -480.464, 3.96975, -835.995, 0.353138, 0.495306, 0.958125, 0.351078, 0.648177, 3, 182, 246, 46.0371, 0.215255, 1.58784, 194310
-23592, 760239, -298.94, 1.42828, -851.174, 0.693202, 0.412275, 1.03299, 0.34851, 0.655882, 3, 45.5, 246, 30.8935, 0.0910049, 1.42036, 194311
-13574.8, 219396, -165.305, 2.76511, -592.118, -0.0346344, 0.29133, 1.03299, 0.34851, 0.655882, 3, 45.5, 246, 29.9444, 0.132173, 1.61571, 194312
-10801, 225419, -193.955, 2.98011, -604.092, 0.00161046, 0.288948, 0.993198, 0.349787, 0.651995, 0.0001, 91, 246, 29.9444, 0.132173, 1.2709, 194312
-10801, 225419, -193.955, 2.98011, -604.092, 0.00161046, 0.288948, 0.993198, 0.349787, 0.651995, 3, 91, 246, 29.9444, 0.132173, 1.77582, 194312
-11459.5, 274762, -255.559, 3.92415, -930.122, 0.0676946, 0.247352, 0.993198, 0.349787, 0.651995, 0.0001, 91, 246, 36.9165, 0.140086, 1.69171, 194316
-11459.5, 274762, -255.559, 3.92415, -930.122, 0.0676946, 0.247352, 0.993198, 0.349787, 0.651995, 3, 91, 246, 36.9165, 0.140086, 1.82503, 194316
-5804.76, 293040, -317.274, 4.3405, -976.941, 0.144254, 0.28876, 0.958125, 0.351078, 0.648177, 0.0001, 182, 246, 36.9165, 0.140086, 1.09968, 194316
-5804.76, 293040, -317.274, 4.3405, -976.941, 0.144254, 0.28876, 0.958125, 0.351078, 0.648177, 3, 182, 246, 36.9165, 0.140086, 1.10441, 194316
-15952.5, 286576, -268.624, 3.3168, -835.833, 0.0230183, 0.322155, 1.03299, 0.34851, 0.655882, 0.0001, 45.5, 246, 41.0311, 0.173537, 1.38966, 194317
-15952.5, 286576, -268.624, 3.3168, -835.833, 0.0230183, 0.322155, 1.03299, 0.34851, 0.655882, 3, 45.5, 246, 41.0311, 0.173537, 1.41684, 194317
-11084.4, 300752, -320.218, 3.62879, -869.282, 0.0762745, 0.339158, 0.993198, 0.349787, 0.651995, 0.0001, 91, 246, 41.0311, 0.173537, 1.05236, 194317
-11084.4, 300752, -320.218, 3.62879, -869.282, 0.0762745, 0.339158, 0.993198, 0.349787, 0.651995, 3, 91, 246, 41.0311, 0.173537, 1.45683, 194317
-5040.35, 318131, -382.395, 4.00172, -919.736, 0.141914, 0.375324, 0.958125, 0.351078, 0.648177, 0.0001, 182, 246, 41.0311, 0.173537, 1.22983, 194317
-5040.35, 318131, -382.395, 4.00172, -919.736, 0.141914, 0.375324, 0.958125, 0.351078, 0.648177, 3, 182, 246, 41.0311, 0.173537, 1.23289, 194317
-7881.93, 72235.5, -112.057, 2.77413, -556.037, 0.670419, 0.252232, 1.03299, 0.34851, 0.655882, 0.0001, 45.5, 246, 32.0394, 0.112126, 1.04577, 194318
-7881.93, 72235.5, -112.057, 2.77413, -556.037, 0.670419, 0.252232, 1.03299, 0.34851, 0.655882, 3, 45.5, 246, 32.0394, 0.112126, 1.72391, 194318
-6940.37, 81248.2, -136.774, 3.10987, -634.017, 0.792319, 0.249012, 0.993198, 0.349787, 0.651995, 0.0001, 91, 246, 32.0394, 0.112126, 1.6595, 194318
-26254.4, 479707, -362.37, 3.1511, -949.55, 0.675865, 0.368658, 1.03299, 0.34851, 0.655882, 0.0001, 45.5, 246, 41.3334, 0.154974, 1.50554, 194319
-26254.4, 479707, -362.37, 3.1511, -949.55, 0.675865, 0.368658, 1.03299, 0.34851, 0.655882, 3, 45.5, 246, 41.3334, 0.154974, 1.49976, 194319
-18172.5, 518969, -426.578, 3.57255, -1104.25, 0.81215, 0.385613, 0.993198, 0.349787, 0.651995, 3, 91, 246, 41.3334, 0.154974, 1.62876, 194319
-7432.08, 573546, -511.114, 4.115, -1324.27, 1.00602, 0.426025, 0.958125, 0.351078, 0.648177, 0.0001, 182, 246, 41.3334, 0.154974, 1.06828, 194319
-7432.08, 573546, -511.114, 4.115, -1324.27, 1.00602, 0.426025, 0.958125, 0.351078, 0.648177, 3, 182, 246, 41.3334, 0.154974, 1.07287, 194319
-11404.1, 232140, -261.234, 2.50236, -932.359, 0.796158, 0.416752, 1.03299, 0.34851, 0.655882, 3, 45.5, 246, 43.8304, 0.197568, 1.53635, 194320
-8106.35, 262210, -306.1, 2.82441, -1090.51, 0.946325, 0.41848, 0.993198, 0.349787, 0.651995, 0.0001, 91, 246, 43.8304, 0.197568, 1.28777, 194320
-24180.9, 445255, -295.126, 3.41002, -1068.65, -0.0522385, 0.313278, 1.03299, 0.34851, 0.655882, 0.0001, 45.5, 246, 41.6344, 0.150449, 1.5588, 194321
-24180.9, 445255, -295.126, 3.41002, -1068.65, -0.0522385, 0.313278, 1.03299, 0.34851, 0.655882, 3, 45.5, 246, 41.6344, 0.150449, 1.25647, 194321
-16668.7, 465736, -357.828, 3.72161, -1094.97, 0.00361392, 0.332608, 0.993198, 0.349787, 0.651995, 3, 91, 246, 41.6344, 0.150449, 1.31253, 194321
-17789.3, 465049, -88.1191, 1.6196, -886.932, -0.00365082, 0.315465, 1.03299, 0.34851, 0.655882, 3, 45.5, 246, 23.3078, 0.052513, 1.51244, 194322
-15706.2, 298794, -16.8575, 3.23385, -1027.47, -0.00012711, 0.184004, 0.993198, 0.349787, 0.651995, 0.0001, 91, 246, 18.1636, 0.019374, 1.22994, 194323
-15706.2, 298794, -16.8575, 3.23385, -1027.47, -0.00012711, 0.184004, 0.993198, 0.349787, 0.651995, 3, 91, 246, 18.1636, 0.019374, 1.92343, 194323
-18433.1, 401723, -28.3606, 2.95333, -1083.56, 0.884876, 0.200721, 0.993198, 0.349787, 0.651995, 3, 91, 246, 19.5018, 0.0184077, 1.85472, 194325
-10099.5, 795929, -457.618, 0.330011, -919.588, 0.00422168, 0.596436, 1.03299, 0.34851, 0.655882, 3, 45.5, 246, 38.5505, 0.150707, 1.30329, 194328
-24026, 895318, -381.853, 1.24715, -801.698, 0.0527189, 0.483302, 1.03299, 0.34851, 0.655882, 3, 45.5, 246, 32.7583, 0.11175, 1.32508, 194332
-18832.8, 503421, -265.783, 1.94878, -1087.31, 0.478866, 0.406924, 1.03299, 0.34851, 0.655882, 3, 45.5, 246, 37.3738, 0.123716, 1.4485, 194335
-10985, 142078, -14.5052, 3.2681, -704.771, 0.000294054, 0.19529, 0.993198, 0.349787, 0.651995, 0.0001, 91, 246, 11.5546, 0.0224738, 1.73711, 194338
-10985, 142078, -14.5052, 3.2681, -704.771, 0.000294054, 0.19529, 0.993198, 0.349787, 0.651995, 3, 91, 246, 11.5546, 0.0224738, 1.37468, 194338
-17079.3, 277293, -50.0663, 2.58119, -966.882, 0.561561, 0.234983, 1.03299, 0.34851, 0.655882, 0.0001, 45.5, 246, 22.5764, 0.0496102, 1.64559, 194339
-17079.3, 277293, -50.0663, 2.58119, -966.882, 0.561561, 0.234983, 1.03299, 0.34851, 0.655882, 3, 45.5, 246, 22.5764, 0.0496102, 1.64534, 194339
-27475.2, 962079, -261.731, 1.32575, -693.648, 0.00633396, 0.388849, 1.03299, 0.34851, 0.655882, 3, 45.5, 246, 25.6967, 0.0725478, 1.41456, 194340
-5389.93, 276902, -320.467, 2.68237, -884.597, 0.130302, 0.433646, 0.958125, 0.351078, 0.648177, 0.0001, 182, 246, 41.1897, 0.19846, 1.41148, 194341
-5389.93, 276902, -320.467, 2.68237, -884.597, 0.130302, 0.433646, 0.958125, 0.351078, 0.648177, 3, 182, 246, 41.1897, 0.19846, 1.22147, 194341
-14280.3, 479082, -94.4673, 1.09803, -1055.29, 0.0865407, 0.341619, 1.03299, 0.34851, 0.655882, 3, 45.5, 246, 26.2192, 0.0533027, 1.49012, 194342
-16907.1, 589830, -261.453, 1.25855, -824.931, 0.0571266, 0.430081, 1.03299, 0.34851, 0.655882, 3, 45.5, 246, 31.2237, 0.113625, 1.41945, 194344
-16593.1, 420859, -88.3012, 1.68909, -1100.35, 0.0351452, 0.315923, 1.03299, 0.34851, 0.655882, 3, 45.5, 246, 26.9531, 0.0586548, 1.51936, 194346
-5102.73, 71508.2, -156.406, 3.58705, -1157.58, -0.0471024, 0.23099, 1.03299, 0.34851, 0.655882, 0.0001, 45.5, 246, 48.1313, 0.168813, 1.59542, 194347
-5102.73, 71508.2, -156.406, 3.58705, -1157.58, -0.0471024, 0.23099, 1.03299, 0.34851, 0.655882, 3, 45.5, 246, 48.1313, 0.168813, 1.59799, 194347
-3536.76, 95514.6, -211.174, 3.9209, -1172.56, 0.0147318, 0.251007, 0.993198, 0.349787, 0.651995, 0.0001, 91, 246, 48.1313, 0.168813, 2.03581, 194347
-3536.76, 95514.6, -211.174, 3.9209, -1172.56, 0.0147318, 0.251007, 0.993198, 0.349787, 0.651995, 3, 91, 246, 48.1313, 0.168813, 2.03521, 194347
-1110.18, 121490, -277.327, 4.32437, -1208.56, 0.0896287, 0.292291, 0.958125, 0.351078, 0.648177, 0.0001, 182, 246, 48.1313, 0.168813, 2.00733, 194347
-1110.18, 121490, -277.327, 4.32437, -1208.56, 0.0896287, 0.292291, 0.958125, 0.351078, 0.648177, 3, 182, 246, 48.1313, 0.168813, 2.00852, 194347
-12238.4, 224519, -92.9262, 3.85173, -1157.14, 0.0426132, 0.164851, 0.993198, 0.349787, 0.651995, 0.0001, 91, 246, 25.6901, 0.0661483, 1.61954, 194348
-12238.4, 224519, -92.9262, 3.85173, -1157.14, 0.0426132, 0.164851, 0.993198, 0.349787, 0.651995, 3, 91, 246, 25.6901, 0.0661483, 1.73789, 194348
-6490, 52801.4, -105.857, 3.32825, -956.076, 0.130595, 0.217666, 1.03299, 0.34851, 0.655882, 0.0001, 45.5, 246, 38.0659, 0.119623, 1.79971, 194349
-6490, 52801.4, -105.857, 3.32825, -956.076, 0.130595, 0.217666, 1.03299, 0.34851, 0.655882, 3, 45.5, 246, 38.0659, 0.119623, 1.2604, 194349
-5555.74, 69841.4, -146.287, 3.65312, -991.969, 0.187978, 0.228261, 0.993198, 0.349787, 0.651995, 0.0001, 91, 246, 38.0659, 0.119623, 1.07103, 194349
-5555.74, 69841.4, -146.287, 3.65312, -991.969, 0.187978, 0.228261, 0.993198, 0.349787, 0.651995, 3, 91, 246, 38.0659, 0.119623, 1.07504, 194349
-4068.98, 89120.3, -195.889, 4.04318, -1045.09, 0.260732, 0.258312, 0.958125, 0.351078, 0.648177, 0.0001, 182, 246, 38.0659, 0.119623, 1.13337, 194349
-4068.98, 89120.3, -195.889, 4.04318, -1045.09, 0.260732, 0.258312, 0.958125, 0.351078, 0.648177, 3, 182, 246, 38.0659, 0.119623, 1.13642, 194349
-845.017, 120415, -282.242, 4.709, -1155.26, 0.393234, 0.334605, 0.9175, 0.352806, 0.64323, 0.0001, 455, 246, 38.0659, 0.119623, 1.89066, 194349
-845.017, 120415, -282.242, 4.709, -1155.26, 0.393234, 0.334605, 0.9175, 0.352806, 0.64323, 3, 455, 246, 38.0659, 0.119623, 1.89644, 194349
-26738.6, 955730, -328.817, 1.24307, -621.897, 0.0273623, 0.433313, 1.03299, 0.34851, 0.655882, 3, 45.5, 246, 26.332, 0.0905047, 1.3856, 194354
-17110.5, 654712, -332.634, 1.17733, -868.007, -0.00385995, 0.488992, 1.03299, 0.34851, 0.655882, 3, 45.5, 246, 34.8747, 0.132438, 1.36683, 194356
-12387.4, 225697, -131.058, 3.72973, -762.59, 0.00254303, 0.183927, 0.993198, 0.349787, 0.651995, 0.0001, 91, 246, 24.7134, 0.0820229, 1.64011, 194357
-12387.4, 225697, -131.058, 3.72973, -762.59, 0.00254303, 0.183927, 0.993198, 0.349787, 0.651995, 3, 91, 246, 24.7134, 0.0820229, 1.64347, 194357
-11701, 600917, -396.098, 0.790641, -1046.56, 0.00154634, 0.592326, 1.03299, 0.34851, 0.655882, 3, 45.5, 246, 42.12, 0.172629, 1.26768, 194358
-15484.6, 267391, -19.488, 2.17901, -828.064, -0.0171799, 0.266101, 1.03299, 0.34851, 0.655882, 3, 45.5, 246, 16.8141, 0.0307729, 1.59459, 194360
-9956.82, 312444, -236.52, 1.12077, -1119.65, 0.110556, 0.492951, 1.03299, 0.34851, 0.655882, 3, 45.5, 246, 40.5993, 0.186987, 1.39421, 194361
-5961.56, 49278, -115.069, 3.99531, -959.379, 0.00306466, 0.191047, 0.993198, 0.349787, 0.651995, 0.0001, 91, 246, 32.2298, 0.0854688, 1.90507, 194365
-2315.84, 90830.2, -247.645, 5.10597, -1045.23, 0.215612, 0.326508, 0.9175, 0.352806, 0.64323, 0.0001, 455, 246, 32.2298, 0.0854688, 1.21962, 194365
-2315.84, 90830.2, -247.645, 5.10597, -1045.23, 0.215612, 0.326508, 0.9175, 0.352806, 0.64323, 3, 455, 246, 32.2298, 0.0854688, 1.22194, 194365
-14889.1, 899729, -410.842, 0.49959, -717.772, 0.774069, 0.49415, 1.03299, 0.34851, 0.655882, 3, 45.5, 246, 29.6516, 0.102253, 1.3899, 194366
-27086.7, 590412, -110.879, 2.15255, -842.138, 0.583337, 0.274503, 1.03299, 0.34851, 0.655882, 3, 45.5, 246, 23.9473, 0.0476079, 1.54736, 194368
-13049.2, 329575, -145.292, 1.54157, -955.39, -0.0068971, 0.366111, 1.03299, 0.34851, 0.655882, 3, 45.5, 246, 29.6995, 0.108327, 1.48808, 194369
-20097.4, 797779, -346.859, 1.0397, -671.923, 0.0824238, 0.472632, 1.03299, 0.34851, 0.655882, 3, 45.5, 246, 29.3173, 0.112285, 1.3747, 194370
-12648, 531168, -382.876, 0.593118, -617.734, 0.0573591, 0.602922, 1.03299, 0.34851, 0.655882, 3, 45.5, 246, 35.2867, 0.18664, 1.28818, 194371
-23819.4, 503872, -238.577, 3.7851, -675.022, 0.190708, 0.19282, 0.993198, 0.349787, 0.651995, 0.0001, 91, 246, 26.0911, 0.0901124, 1.89389, 194372
-23819.4, 503872, -238.577, 3.7851, -675.022, 0.190708, 0.19282, 0.993198, 0.349787, 0.651995, 3, 91, 246, 26.0911, 0.0901124, 1.89488, 194372
-7830.64, 3427.76, -1.64539, 3.36709, -784.071, 0.470732, 0.219753, 0.993198, 0.349787, 0.651995, 0.0001, 91, 246, 6.73124, 0.0370475, 1.4878, 194373
-7830.64, 3427.76, -1.64539, 3.36709, -784.071, 0.470732, 0.219753, 0.993198, 0.349787, 0.651995, 3, 91, 246, 6.73124, 0.0370475, 1.57145, 194373
-14035.6, 487719, -439.28, 1.02663, -790.617, -0.00481383, 0.711147, 1.03299, 0.34851, 0.655882, 3, 45.5, 246, 44.5026, 0.233676, 1.24486, 194374
-10038.9, 116674, -74.2215, 2.22288, -834.627, 0.621659, 0.292772, 1.03299, 0.34851, 0.655882, 0.0001, 45.5, 246, 25.5539, 0.0991737, 1.0103, 194377
-8927.97, 134481, -98.0188, 2.46018, -932.932, 0.716052, 0.277924, 0.993198, 0.349787, 0.651995, 0.0001, 91, 246, 25.5539, 0.0991737, 1.7833, 194377
-8927.97, 134481, -98.0188, 2.46018, -932.932, 0.716052, 0.277924, 0.993198, 0.349787, 0.651995, 3, 91, 246, 25.5539, 0.0991737, 1.78422, 194377
-34597.9, 940054, -70.825, 1.72082, -664.407, 0.0992407, 0.288278, 1.03299, 0.34851, 0.655882, 3, 45.5, 246, 18.5417, 0.0226123, 1.49821, 194378
-10275.3, 159943, -121.945, 1.98208, -793.084, 0.0817784, 0.344639, 1.03299, 0.34851, 0.655882, 3, 45.5, 246, 30.9377, 0.142575, 1.54653, 194379
-9546.91, 181322, -279.949, 3.44566, -658.948, 0.0674416, 0.31875, 1.03299, 0.34851, 0.655882, 0.0001, 45.5, 246, 47.3328, 0.206376, 1.54265, 194380
-9546.91, 181322, -279.949, 3.44566, -658.948, 0.0674416, 0.31875, 1.03299, 0.34851, 0.655882, 3, 45.5, 246, 47.3328, 0.206376, 1.54431, 194380
-5989.95, 191448, -328.722, 3.78852, -698.148, 0.126249, 0.340126, 0.993198, 0.349787, 0.651995, 0.0001, 91, 246, 47.3328, 0.206376, 1.89073, 194380
-5989.95, 191448, -328.722, 3.78852, -698.148, 0.126249, 0.340126, 0.993198, 0.349787, 0.651995, 3, 91, 246, 47.3328, 0.206376, 1.89442, 194380
-1501.39, 204341, -388.244, 4.20342, -754.328, 0.200359, 0.382727, 0.958125, 0.351078, 0.648177, 0.0001, 182, 246, 47.3328, 0.206376, 1.98705, 194380
-1501.39, 204341, -388.244, 4.20342, -754.328, 0.200359, 0.382727, 0.958125, 0.351078, 0.648177, 3, 182, 246, 47.3328, 0.206376, 1.98804, 194380
-12648, 217323, -75.4251, 1.97375, -766.527, 0.0173593, 0.303754, 1.03299, 0.34851, 0.655882, 3, 45.5, 246, 21.9931, 0.0782386, 1.36028, 194381
-8544.29, 59880, -52.9173, 3.01472, -1071.84, 0.0352644, 0.235417, 1.03299, 0.34851, 0.655882, 3, 45.5, 246, 27.0769, 0.0946625, 1.71677, 194383
-9360.7, 510352, -407.808, 0.568468, -1071.34, -0.00148542, 0.663241, 1.03299, 0.34851, 0.655882, 3, 45.5, 246, 45.6435, 0.212048, 1.29564, 194385
-25316.2, 746218, -198.974, 1.72129, -1048.23, 0.180943, 0.347846, 1.03299, 0.34851, 0.655882, 3, 45.5, 246, 31.7645, 0.0704884, 1.46336, 194387
-18266.9, 573728, -192.74, 1.21118, -574.296, 0.704178, 0.369938, 1.03299, 0.34851, 0.655882, 3, 45.5, 246, 21.917, 0.0759371, 1.46164, 194389
-6641.45, 974.036, -58.5355, 3.80825, -1068.32, 0.0118014, 0.21313, 0.993198, 0.349787, 0.651995, 0.0001, 91, 246, 24.064, 0.0426639, 1.75717, 194391
-6641.45, 974.036, -58.5355, 3.80825, -1068.32, 0.0118014, 0.21313, 0.993198, 0.349787, 0.651995, 3, 91, 246, 24.064, 0.0426639, 1.75843, 194391
-8318.13, 470876, -381.662, 0.479938, -1122.78, -0.00105501, 0.6497, 1.03299, 0.34851, 0.655882, 3, 45.5, 246, 45.995, 0.215953, 1.27694, 194394
-15219.3, 363835, -50.6135, 1.5116, -793.09, 0.0136407, 0.311543, 1.03299, 0.34851, 0.655882, 3, 45.5, 246, 18.8672, 0.0402769, 1.52354, 194395
-22006.3, 760852, -3.82, 1.05716, -675.271, 0.609512, 0.318596, 1.03299, 0.34851, 0.655882, 3, 45.5, 246, 15.7422, 0.00418908, 1.48151, 194398
-6608.65, -46011.4, 13.961, 3.31723, -1182.55, -0.0405919, 0.222519, 1.03299, 0.34851, 0.655882, 0.0001, 45.5, 246, 13.9758, 0.0587909, 1.83414, 194402
-6608.65, -46011.4, 13.961, 3.31723, -1182.55, -0.0405919, 0.222519, 1.03299, 0.34851, 0.655882, 3, 45.5, 246, 13.9758, 0.0587909, 1.39103, 194402
-24090.7, 662866, -252.407, 3.15513, -1154.6, 0.0349848, 0.255721, 0.993198, 0.349787, 0.651995, 0.0001, 91, 246, 34.8838, 0.0860602, 1.2437, 194404
-15944.6, 775521, -356.207, 0.770848, -786.261, 0.526005, 0.478761, 1.03299, 0.34851, 0.655882, 3, 45.5, 246, 31.3059, 0.109083, 1.40159, 194407
-12973.1, 206277, -32.9626, 1.92216, -582.737, 0.239237, 0.286897, 1.03299, 0.34851, 0.655882, 3, 45.5, 246, 14.1374, 0.0400853, 1.57509, 194408
-28511.3, 742097, -298.723, 3.4522, -1196.91, 0.270399, 0.243802, 0.993198, 0.349787, 0.651995, 3, 91, 246, 36.3548, 0.0891, 1.77319, 194409
-18792.5, 923532, -334.397, 0.934132, -921.148, 0.0104081, 0.451037, 1.03299, 0.34851, 0.655882, 3, 45.5, 246, 33.1964, 0.0956706, 1.38968, 194411
-14060.9, 292629, -289.36, 3.06081, -1074.25, -0.0248511, 0.403275, 1.03299, 0.34851, 0.655882, 3, 45.5, 246, 46.6029, 0.198528, 1.51765, 194412
-9258.99, 314411, -346.654, 3.33046, -1100.44, 0.0199344, 0.418165, 0.993198, 0.349787, 0.651995, 3, 91, 246, 46.6029, 0.198528, 1.67748, 194412
-3166.45, 339400, -414.539, 3.64731, -1143.48, 0.0736312, 0.449548, 0.958125, 0.351078, 0.648177, 0.0001, 182, 246, 46.6029, 0.198528, 1.29277, 194412
-3166.45, 339400, -414.539, 3.64731, -1143.48, 0.0736312, 0.449548, 0.958125, 0.351078, 0.648177, 3, 182, 246, 46.6029, 0.198528, 1.2972, 194412
-20572.6, 442261, -3.86363, 2.90139, -673.738, 0.230065, 0.195795, 0.993198, 0.349787, 0.651995, 3, 91, 246, 12.8341, 0.00547543, 1.85392, 194416
-14975.9, 455632, -23.1442, 3.16729, -702.459, 0.280679, 0.198875, 0.958125, 0.351078, 0.648177, 3, 182, 246, 12.8341, 0.00547543, 1.01711, 194416
-14802, 241612, -77.9251, 2.58963, -902.053, -0.0317481, 0.256938, 1.03299, 0.34851, 0.655882, 3, 45.5, 246, 24.2512, 0.075003, 1.62651, 194417
-17311.5, 651307, -267.424, 1.23445, -973.14, 0.234947, 0.423877, 1.03299, 0.34851, 0.655882, 3, 45.5, 246, 33.4076, 0.103351, 1.41778, 194418
-8676.59, 708453, -320.701, 1.40247, -1074.94, 0.270259, 0.384544, 0.958125, 0.351078, 0.648177, 3, 182, 246, 33.4076, 0.103351, 1.08729, 194418
-17553.3, 643392, -209.605, 1.26596, -1018.56, 0.127495, 0.384298, 1.03299, 0.34851, 0.655882, 3, 45.5, 246, 31.6657, 0.0843607, 1.4471, 194420
-20872, 391758, -201.137, 2.51908, -642.891, 0.56165, 0.305513, 1.03299, 0.34851, 0.655882, 3, 45.5, 246, 27.2528, 0.105398, 1.5578, 194421
-16258.5, 412665, -232.667, 2.79542, -723.151, 0.650338, 0.298671, 0.993198, 0.349787, 0.651995, 0.0001, 91, 246, 27.2528, 0.105398, 1.16324, 194421
-16258.5, 412665, -232.667, 2.79542, -723.151, 0.650338, 0.298671, 0.993198, 0.349787, 0.651995, 3, 91, 246, 27.2528, 0.105398, 1.70871, 194421
-14453.8, 374472, -104.768, 1.57539, -1119.42, -0.00867828, 0.334121, 1.03299, 0.34851, 0.655882, 3, 45.5, 246, 28.3284, 0.0742235, 1.50765, 194423
-10769.2, 160632, -148.895, 3.29717, -1003.79, -0.0502621, 0.245163, 1.03299, 0.34851, 0.655882, 0.0001, 45.5, 246, 36.703, 0.140588, 1.71406, 194425
-10769.2, 160632, -148.895, 3.29717, -1003.79, -0.0502621, 0.245163, 1.03299, 0.34851, 0.655882, 3, 45.5, 246, 36.703, 0.140588, 1.71316, 194425
-8188.04, 178209, -193.79, 3.58377, -1015.31, 0.00174635, 0.255918, 0.993198, 0.349787, 0.651995, 0.0001, 91, 246, 36.703, 0.140588, 1.62329, 194425
-8188.04, 178209, -193.79, 3.58377, -1015.31, 0.00174635, 0.255918, 0.993198, 0.349787, 0.651995, 3, 91, 246, 36.703, 0.140588, 1.90232, 194425
-29644.5, 654034, -315.82, 3.99822, -954.887, 0.347422, 0.201856, 0.993198, 0.349787, 0.651995, 0.0001, 91, 246, 32.8169, 0.0979546, 1.86036, 194426
-29644.5, 654034, -315.82, 3.99822, -954.887, 0.347422, 0.201856, 0.993198, 0.349787, 0.651995, 3, 91, 246, 32.8169, 0.0979546, 1.86036, 194426
-31863.1, 636224, -231.396, 2.73449, -854.356, -0.00421479, 0.288804, 1.03299, 0.34851, 0.655882, 0.0001, 45.5, 246, 30.7137, 0.0937109, 1.54391, 194429
-31863.1, 636224, -231.396, 2.73449, -854.356, -0.00421479, 0.288804, 1.03299, 0.34851, 0.655882, 3, 45.5, 246, 30.7137, 0.0937109, 1.03194, 194429
-24006.5, 649486, -271.818, 2.94996, -874.951, 0.0312495, 0.285464, 0.993198, 0.349787, 0.651995, 0.0001, 91, 246, 30.7137, 0.0937109, 1.20064, 194429
-24006.5, 649486, -271.818, 2.94996, -874.951, 0.0312495, 0.285464, 0.993198, 0.349787, 0.651995, 3, 91, 246, 30.7137, 0.0937109, 1.69549, 194429
-13258.8, 430158, -189.545, 1.02007, -743.753, 0.832274, 0.393215, 1.03299, 0.34851, 0.655882, 3, 45.5, 246, 26.6747, 0.0973105, 1.46074, 194430
-8710.74, 35899.2, -8.16323, 2.8501, -720.735, 0.783785, 0.222923, 1.03299, 0.34851, 0.655882, 3, 45.5, 246, 14.0092, 0.0422301, 1.73328, 194431
-34081.4, 600599, -370.648, 3.32614, -859.689, -0.0213796, 0.352566, 1.03299, 0.34851, 0.655882, 0.0001, 45.5, 246, 39.1013, 0.148554, 1.48853, 194432
-34081.4, 600599, -370.648, 3.32614, -859.689, -0.0213796, 0.352566, 1.03299, 0.34851, 0.655882, 3, 45.5, 246, 39.1013, 0.148554, 1.48698, 194432
-16529.7, 697333, -255.428, 0.946608, -771.437, 0.287132, 0.41524, 1.03299, 0.34851, 0.655882, 3, 45.5, 246, 28.144, 0.0911183, 1.42416, 194433
-26321.7, 702934, -90.4405, 2.66894, -1029.97, 0.0045968, 0.216566, 0.993198, 0.349787, 0.651995, 3, 91, 246, 25.6663, 0.0321019, 1.77993, 194437
-8776.21, 122687, -153.103, 2.41495, -683.127, 0.257785, 0.332347, 1.03299, 0.34851, 0.655882, 3, 45.5, 246, 37.4463, 0.17189, 1.61036, 194439
-23892.3, 574673, -366.837, 2.07895, -730.051, 0.0656291, 0.491647, 1.03299, 0.34851, 0.655882, 3, 45.5, 246, 36.0755, 0.15684, 1.36292, 194441
-17716.5, 588586, -407.435, 2.23529, -760.979, 0.0869575, 0.488828, 0.993198, 0.349787, 0.651995, 3, 91, 246, 36.0755, 0.15684, 1.45825, 194441
-16396.6, 368668, -71.5361, 1.64881, -768.609, 0.749757, 0.305431, 1.03299, 0.34851, 0.655882, 3, 45.5, 246, 20.2301, 0.0466501, 1.53316, 194443
-16061.9, 323918, -98.2834, 3.49473, -894.375, 0.00464236, 0.179531, 0.993198, 0.349787, 0.651995, 0.0001, 91, 246, 22.8269, 0.0560151, 1.17197, 194444
-16061.9, 323918, -98.2834, 3.49473, -894.375, 0.00464236, 0.179531, 0.993198, 0.349787, 0.651995, 3, 91, 246, 22.8269, 0.0560151, 1.94877, 194444
-24170.4, 496735, -251.37, 2.74779, -1077.58, 0.222508, 0.335575, 1.03299, 0.34851, 0.655882, 3, 45.5, 246, 37.2981, 0.120015, 1.51357, 194445
-17619.9, 525158, -300.554, 3.00632, -1141.3, 0.268264, 0.336418, 0.993198, 0.349787, 0.651995, 0.0001, 91, 246, 37.2981, 0.120015, 1.15191, 194445
-17619.9, 525158, -300.554, 3.00632, -1141.3, 0.268264, 0.336418, 0.993198, 0.349787, 0.651995, 3, 91, 246, 37.2981, 0.120015, 1.65325, 194445
-11696.3, 138594, -49.2406, 2.87812, -1020.1, 0.222532, 0.228733, 1.03299, 0.34851, 0.655882, 3, 45.5, 246, 23.7573, 0.0732371, 1.69574, 194446
-13479, 264089, -2.96588, 1.44537, -707.867, 0.468528, 0.305882, 1.03299, 0.34851, 0.655882, 3, 45.5, 246, 12.9294, 0.01347, 1.53755, 194447
-19060.6, 909190, -72.6391, 0.737716, -648.694, 0.485633, 0.33578, 1.03299, 0.34851, 0.655882, 3, 45.5, 246, 17.8142, 0.0202147, 1.4702, 194449
-27771.4, 928225, -316.106, 1.41645, -737.112, -0.00525442, 0.426244, 1.03299, 0.34851, 0.655882, 3, 45.5, 246, 28.8857, 0.0903436, 1.38495, 194450
-14692.2, 276778, -25.1121, 3.10008, -918.465, 0.137788, 0.195877, 0.993198, 0.349787, 0.651995, 0.0001, 91, 246, 16.8315, 0.0230771, 1.37483, 194451
-14692.2, 276778, -25.1121, 3.10008, -918.465, 0.137788, 0.195877, 0.993198, 0.349787, 0.651995, 3, 91, 246, 16.8315, 0.0230771, 1.89623, 194451
-11258.8, 573992, -323.298, 0.552842, -770.291, 0.0853207, 0.513186, 1.03299, 0.34851, 0.655882, 3, 45.5, 246, 33.2996, 0.145124, 1.32661, 194452
-24682.5, 736725, -117.188, 1.41378, -554.302, 0.464983, 0.321604, 1.03299, 0.34851, 0.655882, 3, 45.5, 246, 17.539, 0.0394662, 1.48097, 194453
-29207.2, 915202, -19.9825, 1.28092, -849.526, 0.845864, 0.310871, 1.03299, 0.34851, 0.655882, 3, 45.5, 246, 21.133, 0.00832609, 1.4736, 194455
-5829.36, 4620.93, -90.728, 3.97588, -991.728, 0.00526094, 0.206464, 0.993198, 0.349787, 0.651995, 3, 91, 246, 32.9555, 0.00677623, 1.81172, 194456
-22932, 886346, -13.8061, 0.954303, -744.378, 0.617471, 0.322938, 1.03299, 0.34851, 0.655882, 3, 45.5, 246, 18.1761, 0.00611838, 1.47241, 194457
-6458.06, -60493.2, 15.6309, 3.20212, -994.155, 0.229705, 0.236956, 1.03299, 0.34851, 0.655882, 0.0001, 45.5, 246, 10.7692, 0.0435952, 2.04362, 194460
-6458.06, -60493.2, 15.6309, 3.20212, -994.155, 0.229705, 0.236956, 1.03299, 0.34851, 0.655882, 3, 45.5, 246, 10.7692, 0.0435952, 2.03346, 194460
-7391.35, -43564, -14.1835, 3.52717, -1035.52, 0.289915, 0.244838, 0.993198, 0.349787, 0.651995, 0.0001, 91, 246, 10.7692, 0.0435952, 1.84621, 194460
-12663.4, 400508, -202.682, 1.17724, -865.915, 0.0319513, 0.418438, 1.03299, 0.34851, 0.655882, 3, 45.5, 246, 31.4145, 0.126955, 1.44216, 194461
-30441.3, 613356, -399.095, 2.86455, -991.683, 0.329994, 0.43157, 1.03299, 0.34851, 0.655882, 0.0001, 45.5, 246, 41.9162, 0.152895, 1.41889, 194466
-30441.3, 613356, -399.095, 2.86455, -991.683, 0.329994, 0.43157, 1.03299, 0.34851, 0.655882, 3, 45.5, 246, 41.9162, 0.152895, 1.42007, 194466
-21259.8, 645992, -461.818, 3.16914, -1084.64, 0.390266, 0.443729, 0.993198, 0.349787, 0.651995, 0.0001, 91, 246, 41.9162, 0.152895, 1.2025, 194466
-21259.8, 645992, -461.818, 3.16914, -1084.64, 0.390266, 0.443729, 0.993198, 0.349787, 0.651995, 3, 91, 246, 41.9162, 0.152895, 1.32244, 194466
-20226.9, 947400, -419.775, 0.770468, -606.165, 0.0978738, 0.513607, 1.03299, 0.34851, 0.655882, 3, 45.5, 246, 28.6689, 0.114277, 1.34669, 194467
-14900.4, 311840, -52.4256, 1.75615, -814.859, 0.0277099, 0.301011, 1.03299, 0.34851, 0.655882, 3, 45.5, 246, 19.5218, 0.0471419, 1.54333, 194471
-13404.9, 453493, -431.097, 1.05798, -817.175, 0.0586801, 0.718996, 1.03299, 0.34851, 0.655882, 3, 45.5, 246, 45.9174, 0.243807, 1.23708, 194472
-33222.1, 821318, 12.372, 1.71498, -869.298, 0.721645, 0.27848, 1.03299, 0.34851, 0.655882, 3, 45.5, 246, 20.1367, 0.0023571, 1.51257, 194473
-31850.4, 921578, -345.971, 1.84255, -1003.27, 0.188044, 0.414679, 1.03299, 0.34851, 0.655882, 3, 45.5, 246, 35.9448, 0.0981031, 1.40072, 194475
-21663.8, 534148, -59.113, 1.8027, -840.926, -0.0131273, 0.292151, 1.03299, 0.34851, 0.655882, 3, 45.5, 246, 20.8959, 0.0342629, 1.52843, 194477
-24957, 658931, -422.069, 1.79138, -703.921, 0.0749222, 0.552365, 1.03299, 0.34851, 0.655882, 3, 45.5, 246, 36.3455, 0.161209, 1.32703, 194478
-18523.4, 673636, -462.423, 1.9197, -734.932, 0.0911135, 0.54974, 0.993198, 0.349787, 0.651995, 3, 91, 246, 36.3455, 0.161209, 1.38542, 194478
-36206.7, 672678, -432.753, 2.79426, -672.28, 0.282331, 0.446394, 1.03299, 0.34851, 0.655882, 0.0001, 45.5, 246, 35.8944, 0.151361, 1.40071, 194480
-36206.7, 672678, -432.753, 2.79426, -672.28, 0.282331, 0.446394, 1.03299, 0.34851, 0.655882, 3, 45.5, 246, 35.8944, 0.151361, 1.40064, 194480
-25281.4, 753250, -9.55635, 1.36244, -696.281, 0.394971, 0.305521, 1.03299, 0.34851, 0.655882, 3, 45.5, 246, 16.387, 0.00700427, 1.49131, 194481
-12695, 180187, -49.9382, 2.32182, -732.647, 0.290116, 0.266804, 1.03299, 0.34851, 0.655882, 0.0001, 45.5, 246, 19.0053, 0.0596958, 1.5474, 194483
-12695, 180187, -49.9382, 2.32182, -732.647, 0.290116, 0.266804, 1.03299, 0.34851, 0.655882, 3, 45.5, 246, 19.0053, 0.0596958, 1.61625, 194483
-9786.84, 74014.3, -20.0579, 2.37665, -584.128, 0.614, 0.260007, 1.03299, 0.34851, 0.655882, 0.0001, 45.5, 246, 13.6497, 0.043646, 1.29585, 194484
-9786.84, 74014.3, -20.0579, 2.37665, -584.128, 0.614, 0.260007, 1.03299, 0.34851, 0.655882, 3, 45.5, 246, 13.6497, 0.043646, 1.35074, 194484
-9695.2, 373258, -248.878, 0.69303, -931.097, 0.836352, 0.476351, 1.03299, 0.34851, 0.655882, 3, 45.5, 246, 35.1612, 0.151468, 1.39587, 194487
-33100.5, 641905, -396.425, 2.7424, -707.47, 0.130215, 0.431391, 1.03299, 0.34851, 0.655882, 0.0001, 45.5, 246, 35.8828, 0.148821, 1.40997, 194488
-33100.5, 641905, -396.425, 2.7424, -707.47, 0.130215, 0.431391, 1.03299, 0.34851, 0.655882, 3, 45.5, 246, 35.8828, 0.148821, 1.41897, 194488
-24208.6, 658085, -448.353, 2.99276, -756.589, 0.169803, 0.439561, 0.993198, 0.349787, 0.651995, 0.0001, 91, 246, 35.8828, 0.148821, 1.19694, 194488
-24208.6, 658085, -448.353, 2.99276, -756.589, 0.169803, 0.439561, 0.993198, 0.349787, 0.651995, 3, 91, 246, 35.8828, 0.148821, 1.51376, 194488
-27216.5, 675587, -10.0683, 1.80131, -1157.46, 0.195713, 0.282673, 1.03299, 0.34851, 0.655882, 3, 45.5, 246, 25.5831, 0.0132606, 1.52089, 194489
-6511.25, -8905.76, -59.2164, 3.86984, -919.782, 0.00359254, 0.209151, 0.993198, 0.349787, 0.651995, 3, 91, 246, 24.6105, 0.0126942, 1.8456, 194490
-15849.9, 311797, -66.4325, 2.11332, -1092.69, 0.21178, 0.284727, 1.03299, 0.34851, 0.655882, 0.0001, 45.5, 246, 25.4259, 0.0590778, 1.17734, 194491
-15849.9, 311797, -66.4325, 2.11332, -1092.69, 0.21178, 0.284727, 1.03299, 0.34851, 0.655882, 3, 45.5, 246, 25.4259, 0.0590778, 1.56802, 194491
-7633.08, 7297.4, -25.3076, 2.71552, -993.484, 0.0734193, 0.260247, 1.03299, 0.34851, 0.655882, 3, 45.5, 246, 22.7349, 0.0696658, 1.05151, 194494
-10117, 207959, -280.887, 2.37409, -737.226, 0.391523, 0.47399, 1.03299, 0.34851, 0.655882, 3, 45.5, 246, 47.1953, 0.23904, 1.50476, 194496
-7229.63, 224367, -319.955, 2.6133, -807.9, 0.446414, 0.476706, 0.993198, 0.349787, 0.651995, 0.0001, 91, 246, 47.1953, 0.23904, 1.43518, 194496
-7229.63, 224367, -319.955, 2.6133, -807.9, 0.446414, 0.476706, 0.993198, 0.349787, 0.651995, 3, 91, 246, 47.1953, 0.23904, 1.64976, 194496
-3525.01, 244814, -366.878, 2.89444, -897.33, 0.516073, 0.492055, 0.958125, 0.351078, 0.648177, 0.0001, 182, 246, 47.1953, 0.23904, 1.19281, 194496
-3525.01, 244814, -366.878, 2.89444, -897.33, 0.516073, 0.492055, 0.958125, 0.351078, 0.648177, 3, 182, 246, 47.1953, 0.23904, 1.1973, 194496
-22968.2, 618213, -74.8018, 2.37892, -706.307, 0.577906, 0.236207, 0.993198, 0.349787, 0.651995, 3, 91, 246, 17.1981, 0.0269581, 1.74493, 194498
-24097.2, 526696, -97.1511, 2.22877, -993.82, 0.154509, 0.274614, 1.03299, 0.34851, 0.655882, 3, 45.5, 246, 26.246, 0.0520123, 1.55476, 194499
-4808.33, 189057, -201.537, 2.28477, -724.335, 0.0827671, 0.323018, 0.9175, 0.352806, 0.64323, 3, 455, 246, 30.5961, 0.150499, 1.24788, 194500
