-5339.89, 49691.4, -140.156, 3.07761, -611.255, 0.389767, 0.232835, 1.03299, 0.34851, 0.655882, 0.0001, 45.5, 246, 43.4115, 0.118789, 1.47795, 124005
-5339.89, 49691.4, -140.156, 3.07761, -611.255, 0.389767, 0.232835, 1.03299, 0.34851, 0.655882, 3, 45.5, 246, 43.4115, 0.118789, 1.48003, 124005
-4480.57, 58195.6, -170.848, 3.41221, -667.462, 0.464572, 0.236875, 0.993198, 0.349787, 0.651995, 0.0001, 91, 246, 43.4115, 0.118789, 2.01303, 124005
-4480.57, 58195.6, -170.848, 3.41221, -667.462, 0.464572, 0.236875, 0.993198, 0.349787, 0.651995, 3, 91, 246, 43.4115, 0.118789, 2.01347, 124005
-3247.09, 68979, -209.397, 3.81925, -742.414, 0.563262, 0.259594, 0.958125, 0.351078, 0.648177, 0.0001, 182, 246, 43.4115, 0.118789, 1.31416, 124005
-3247.09, 68979, -209.397, 3.81925, -742.414, 0.563262, 0.259594, 0.958125, 0.351078, 0.648177, 3, 182, 246, 43.4115, 0.118789, 1.31596, 124005
-729.724, 88971.8, -278.881, 4.5288, -888.095, 0.752729, 0.325491, 0.9175, 0.352806, 0.64323, 0.0001, 455, 246, 43.4115, 0.118789, 1.80302, 124005
-729.724, 88971.8, -278.881, 4.5288, -888.095, 0.752729, 0.325491, 0.9175, 0.352806, 0.64323, 3, 455, 246, 43.4115, 0.118789, 1.79667, 124005
-12074.8, 470828, -325.045, 0.645657, -608.257, 0.465965, 0.535391, 1.03299, 0.34851, 0.655882, 3, 45.5, 246, 32.3617, 0.165456, 1.33793, 124006
-35547.7, 632384, -432.639, 3.19417, -777.561, -0.0258014, 0.433164, 1.03299, 0.34851, 0.655882, 0.0001, 45.5, 246, 40.1281, 0.165881, 1.40417, 124008
-35547.7, 632384, -432.639, 3.19417, -777.561, -0.0258014, 0.433164, 1.03299, 0.34851, 0.655882, 3, 45.5, 246, 40.1281, 0.165881, 1.40362, 124008
-37839.6, 870383, -229.935, 2.21117, -769.871, 0.237912, 0.307089, 1.03299, 0.34851, 0.655882, 0.0001, 45.5, 246, 26.9468, 0.068883, 1.5008, 124009
-37839.6, 870383, -229.935, 2.21117, -769.871, 0.237912, 0.307089, 1.03299, 0.34851, 0.655882, 3, 45.5, 246, 26.9468, 0.068883, 1.50068, 124009
-29271.3, 892916, -262.173, 2.39394, -816.613, 0.27138, 0.292434, 0.993198, 0.349787, 0.651995, 3, 91, 246, 26.9468, 0.068883, 1.64661, 124009
-11278.6, 206115, -183.572, 2.17611, -727.32, 0.0527806, 0.377339, 1.03299, 0.34851, 0.655882, 0.0001, 45.5, 246, 35.55, 0.170977, 1.02279, 124012
-11278.6, 206115, -183.572, 2.17611, -727.32, 0.0527806, 0.377339, 1.03299, 0.34851, 0.655882, 3, 45.5, 246, 35.55, 0.170977, 1.53052, 124012
-27238, 655599, -273.038, 1.96773, -607.361, 0.189084, 0.387681, 1.03299, 0.34851, 0.655882, 3, 45.5, 246, 26.7793, 0.102121, 1.43714, 124013
-19805.8, 466168, -201.662, 1.99542, -829.057, 0.501259, 0.348638, 1.03299, 0.34851, 0.655882, 3, 45.5, 246, 29.4039, 0.0990511, 1.49966, 124014
-7658.37, 120298, -183.021, 2.60855, -772.794, 0.0926863, 0.350101, 1.03299, 0.34851, 0.655882, 0.0001, 45.5, 246, 44.6288, 0.205629, 1.07808, 124015
-7658.37, 120298, -183.021, 2.60855, -772.794, 0.0926863, 0.350101, 1.03299, 0.34851, 0.655882, 3, 45.5, 246, 44.6288, 0.205629, 1.63363, 124015
-5988.79, 132248, -216.645, 2.82682, -800.66, 0.126972, 0.347991, 0.993198, 0.349787, 0.651995, 0.0001, 91, 246, 44.6288, 0.205629, 1.02003, 124015
-5988.79, 132248, -216.645, 2.82682, -800.66, 0.126972, 0.347991, 0.993198, 0.349787, 0.651995, 3, 91, 246, 44.6288, 0.205629, 1.02492, 124015
-3825.91, 145812, -255.99, 3.07666, -838.034, 0.168602, 0.358368, 0.958125, 0.351078, 0.648177, 0.0001, 182, 246, 44.6288, 0.205629, 1.17704, 124015
-3825.91, 145812, -255.99, 3.07666, -838.034, 0.168602, 0.358368, 0.958125, 0.351078, 0.648177, 3, 182, 246, 44.6288, 0.205629, 1.18078, 124015
-27177.5, 604616, -222.214, 2.30484, -742.366, -0.0248177, 0.330892, 1.03299, 0.34851, 0.655882, 3, 45.5, 246, 28.0582, 0.093943, 1.49429, 124016
-24768.3, 811776, -176.517, 1.51347, -1058.44, 0.0963048, 0.344437, 1.03299, 0.34851, 0.655882, 3, 45.5, 246, 30.8906, 0.0591762, 1.46126, 124017
-8571.34, 449296, -325.74, 0.707429, -847.254, 0.0640302, 0.529452, 0.993198, 0.349787, 0.651995, 3, 91, 246, 37.5115, 0.182934, 1.00133, 124018
-25335, 604431, -406.797, 1.72679, -516.397, 0.728215, 0.516621, 1.03299, 0.34851, 0.655882, 3, 45.5, 246, 30.8013, 0.146175, 1.35602, 124019
-19502, 637928, -442.552, 1.91671, -605.887, 0.839362, 0.509969, 0.993198, 0.349787, 0.651995, 0.0001, 91, 246, 30.8013, 0.146175, 1.01352, 124019
-19502, 637928, -442.552, 1.91671, -605.887, 0.839362, 0.509969, 0.993198, 0.349787, 0.651995, 3, 91, 246, 30.8013, 0.146175, 1.44724, 124019
-26370.1, 531605, -311.139, 2.54446, -633.07, 0.0305132, 0.395154, 1.03299, 0.34851, 0.655882, 3, 45.5, 246, 32.1534, 0.138494, 1.44922, 124023
-19839.9, 541074, -350.796, 2.74803, -660.774, 0.0615605, 0.394797, 0.993198, 0.349787, 0.651995, 0.0001, 91, 246, 32.1534, 0.138494, 1.08976, 124023
-19839.9, 541074, -350.796, 2.74803, -660.774, 0.0615605, 0.394797, 0.993198, 0.349787, 0.651995, 3, 91, 246, 32.1534, 0.138494, 1.56181, 124023
-40038.4, 798607, -372.81, 3.00973, -1140.72, 0.00453329, 0.360634, 1.03299, 0.34851, 0.655882, 0.0001, 45.5, 246, 41.9214, 0.123877, 1.45993, 124024
-40038.4, 798607, -372.81, 3.00973, -1140.72, 0.00453329, 0.360634, 1.03299, 0.34851, 0.655882, 3, 45.5, 246, 41.9214, 0.123877, 1.45984, 124024
-21510.8, 488678, -57.5463, 1.94419, -692.061, -0.0176001, 0.282397, 1.03299, 0.34851, 0.655882, 3, 45.5, 246, 17.9184, 0.0348126, 1.5443, 124025
-28014.1, 801488, -88.5784, 1.59625, -648.489, -0.0118096, 0.308092, 1.03299, 0.34851, 0.655882, 3, 45.5, 246, 18.646, 0.0317097, 1.48675, 124026
-6188.8, 217601, -246.112, 2.27028, -855.826, 0.710116, 0.39013, 0.958125, 0.351078, 0.648177, 3, 182, 246, 37.1042, 0.189314, 1.2285, 124027
-17807.3, 400383, -286.892, 2.19969, -729.351, 0.00563151, 0.439735, 1.03299, 0.34851, 0.655882, 3, 45.5, 246, 36.1191, 0.165337, 1.43072, 124029
-13393.4, 411335, -322.764, 2.35952, -749.598, 0.0284765, 0.434835, 0.993198, 0.349787, 0.651995, 0.0001, 91, 246, 36.1191, 0.165337, 1.01274, 124029
-17770, 486390, -360.036, 1.51636, -650.249, 0.39458, 0.535719, 1.03299, 0.34851, 0.655882, 3, 45.5, 246, 35.4637, 0.172015, 1.3514, 124030
-23775.1, 661096, -76.0442, 2.43956, -1008.75, 0.212811, 0.232117, 0.993198, 0.349787, 0.651995, 3, 91, 246, 23.8565, 0.0282885, 1.75021, 124031
-29914.6, 673248, -202.856, 3.52478, -885.159, 0.465851, 0.17964, 0.993198, 0.349787, 0.651995, 0.0001, 91, 246, 26.2433, 0.0628596, 1.88544, 124033
-29914.6, 673248, -202.856, 3.52478, -885.159, 0.465851, 0.17964, 0.993198, 0.349787, 0.651995, 3, 91, 246, 26.2433, 0.0628596, 1.23935, 124033
-14451.7, 296331, -141.639, 3.83393, -1015.45, 0.101762, 0.173057, 0.993198, 0.349787, 0.651995, 3, 91, 246, 27.7946, 0.0790476, 2.00028, 124034
-25683.2, 596075, -386.454, 3.90971, -853.011, 0.0425481, 0.291271, 0.993198, 0.349787, 0.651995, 0.0001, 91, 246, 36.1718, 0.132469, 1.04841, 124038
-25683.2, 596075, -386.454, 3.90971, -853.011, 0.0425481, 0.291271, 0.993198, 0.349787, 0.651995, 3, 91, 246, 36.1718, 0.132469, 1.71469, 124038
-32047.4, 976002, -75.4979, 1.56625, -1017.36, 0.00389995, 0.302724, 1.03299, 0.34851, 0.655882, 3, 45.5, 246, 26.767, 0.0248406, 1.4828, 124039
-6466.17, -74976.6, 18.5332, 3.14194, -861.391, -0.0465194, 0.253129, 1.03299, 0.34851, 0.655882, 0.0001, 45.5, 246, 5.82683, 0.0612255, 4.26366, 124040
-6466.17, -74976.6, 18.5332, 3.14194, -861.391, -0.0465194, 0.253129, 1.03299, 0.34851, 0.655882, 3, 45.5, 246, 5.82683, 0.0612255, 4.26393, 124040
-13975.6, 294316, -248.491, 2.32811, -799.893, -0.0115868, 0.418149, 1.03299, 0.34851, 0.655882, 0.0001, 45.5, 246, 38.6329, 0.179956, 1.01826, 124043
-13975.6, 294316, -248.491, 2.32811, -799.893, -0.0115868, 0.418149, 1.03299, 0.34851, 0.655882, 3, 45.5, 246, 38.6329, 0.179956, 1.47507, 124043
-22973, 766897, 3.95046, 1.18579, -693.289, -0.00437033, 0.314405, 1.03299, 0.34851, 0.655882, 3, 45.5, 246, 15.5548, 0.00243398, 1.48472, 124044
-22279.2, 435637, -405.597, 2.63175, -585.473, -0.0002598, 0.535195, 1.03299, 0.34851, 0.655882, 3, 45.5, 246, 40.9898, 0.20658, 1.35213, 124045
-15982.1, 444666, -454.483, 2.85369, -618.006, 0.0327733, 0.549597, 0.993198, 0.349787, 0.651995, 0.0001, 91, 246, 40.9898, 0.20658, 1.21415, 124045
-15982.1, 444666, -454.483, 2.85369, -618.006, 0.0327733, 0.549597, 0.993198, 0.349787, 0.651995, 3, 91, 246, 40.9898, 0.20658, 1.44332, 124045
-5619.15, 388460, -432.905, 2.46603, -877.417, 0.165377, 0.563158, 0.958125, 0.351078, 0.648177, 3, 182, 246, 43.9423, 0.217977, 1.1146, 124046
-22456, 648757, -324.906, 1.61188, -820.087, 0.642245, 0.4415, 1.03299, 0.34851, 0.655882, 3, 45.5, 246, 32.7232, 0.115224, 1.41398, 124049
-16370.4, 385130, -236.881, 3.02581, -620.303, 0.424595, 0.28817, 0.993198, 0.349787, 0.651995, 0.0001, 91, 246, 26.9307, 0.111348, 1.13781, 124051
-16370.4, 385130, -236.881, 3.02581, -620.303, 0.424595, 0.28817, 0.993198, 0.349787, 0.651995, 3, 91, 246, 26.9307, 0.111348, 1.31567, 124051
-25438.4, 581549, -58.9814, 2.02739, -728.022, -0.0183487, 0.275434, 1.03299, 0.34851, 0.655882, 3, 45.5, 246, 18.8879, 0.0312712, 1.5413, 124053
-8298.78, 117437, -146.57, 2.44797, -976.311, 0.0777548, 0.344785, 1.03299, 0.34851, 0.655882, 3, 45.5, 246, 40.7468, 0.187691, 1.5982, 124054
-7513.64, -426.939, -11.5008, 3.62455, -735.406, 0.607239, 0.204984, 0.993198, 0.349787, 0.651995, 0.0001, 91, 246, 9.04026, 0.0350585, 1.72255, 124055
-7513.64, -426.939, -11.5008, 3.62455, -735.406, 0.607239, 0.204984, 0.993198, 0.349787, 0.651995, 3, 91, 246, 9.04026, 0.0350585, 1.51546, 124055
-13905.3, 577794, -401.23, 0.777047, -724.939, 0.194484, 0.596281, 1.03299, 0.34851, 0.655882, 3, 45.5, 246, 36.627, 0.175348, 1.30218, 124056
-28709.5, 483043, -410.056, 3.21104, -564.577, 0.124312, 0.427311, 1.03299, 0.34851, 0.655882, 0.0001, 45.5, 246, 38.3092, 0.180886, 1.43097, 124060
-28709.5, 483043, -410.056, 3.21104, -564.577, 0.124312, 0.427311, 1.03299, 0.34851, 0.655882, 3, 45.5, 246, 38.3092, 0.180886, 1.4328, 124060
-22932.4, 532451, -241.761, 3.97796, -1171.66, 0.374927, 0.177569, 0.993198, 0.349787, 0.651995, 0.0001, 91, 246, 33.9345, 0.0885053, 1.94122, 124061
-22932.4, 532451, -241.761, 3.97796, -1171.66, 0.374927, 0.177569, 0.993198, 0.349787, 0.651995, 3, 91, 246, 33.9345, 0.0885053, 1.94108, 124061
-9472.61, 105611, -82.2044, 2.30445, -832.168, -0.022756, 0.299822, 1.03299, 0.34851, 0.655882, 0.0001, 45.5, 246, 28.0362, 0.117704, 1.09121, 124062
-9472.61, 105611, -82.2044, 2.30445, -832.168, -0.022756, 0.299822, 1.03299, 0.34851, 0.655882, 3, 45.5, 246, 28.0362, 0.117704, 1.60266, 124062
-10250.6, 201498, -219.701, 1.50332, -584.325, 0.589962, 0.46786, 1.03299, 0.34851, 0.655882, 3, 45.5, 246, 38.1907, 0.214283, 1.45364, 124063
-11256.9, 211311, -208.554, 2.09999, -619.946, -0.0207291, 0.409491, 1.03299, 0.34851, 0.655882, 0.0001, 45.5, 246, 37.1418, 0.191251, 1.00542, 124064
-11256.9, 211311, -208.554, 2.09999, -619.946, -0.0207291, 0.409491, 1.03299, 0.34851, 0.655882, 3, 45.5, 246, 37.1418, 0.191251, 1.50393, 124064
-10307.1, 79055.7, -0.58452, 2.91557, -670.355, 0.0618887, 0.215191, 1.03299, 0.34851, 0.655882, 3, 45.5, 246, 11.3291, 0.0302657, 1.73104, 124065
-9431.45, 86881.4, -19.3108, 3.16151, -679.889, 0.103449, 0.212364, 0.993198, 0.349787, 0.651995, 0.0001, 91, 246, 11.3291, 0.0302657, 1.52536, 124065
-9821.31, 389699, -204.561, 0.896598, -734.821, 0.0967244, 0.394175, 0.993198, 0.349787, 0.651995, 3, 91, 246, 28.374, 0.126261, 1.2237, 124066
-18011.2, 311904, -289.215, 3.56593, -833.692, 0.00311676, 0.303686, 1.03299, 0.34851, 0.655882, 0.0001, 45.5, 246, 41.5783, 0.172562, 1.41459, 124067
-18011.2, 311904, -289.215, 3.56593, -833.692, 0.00311676, 0.303686, 1.03299, 0.34851, 0.655882, 3, 45.5, 246, 41.5783, 0.172562, 1.41686, 124067
-12299.3, 325919, -346.146, 3.91483, -869.343, 0.0646208, 0.328089, 0.993198, 0.349787, 0.651995, 0.0001, 91, 246, 41.5783, 0.172562, 1.14935, 124067
-12299.3, 325919, -346.146, 3.91483, -869.343, 0.0646208, 0.328089, 0.993198, 0.349787, 0.651995, 3, 91, 246, 41.5783, 0.172562, 1.76697, 124067
-5204.45, 343683, -415.561, 4.3385, -924.973, 0.140864, 0.374633, 0.958125, 0.351078, 0.648177, 0.0001, 182, 246, 41.5783, 0.172562, 1.35188, 124067
-5204.45, 343683, -415.561, 4.3385, -924.973, 0.140864, 0.374633, 0.958125, 0.351078, 0.648177, 3, 182, 246, 41.5783, 0.172562, 1.35391, 124067
-9167.81, 575543, -398.258, 0.494161, -1058.32, 0.0813698, 0.607918, 1.03299, 0.34851, 0.655882, 3, 45.5, 246, 42.5551, 0.180004, 1.26947, 124068
-18989.2, 848190, -410.838, 0.857748, -713.443, 0.293439, 0.517457, 1.03299, 0.34851, 0.655882, 3, 45.5, 246, 31.5248, 0.120443, 1.35748, 124070
-10476.1, 416201, -361.157, 2.37868, -1171.11, 0.184587, 0.492338, 0.993198, 0.349787, 0.651995, 0.0001, 91, 246, 44.736, 0.187596, 1.1064, 124072
-15526.8, 271159, -19.0146, 3.55841, -887.016, 0.468462, 0.157485, 0.993198, 0.349787, 0.651995, 0.0001, 91, 246, 15.4314, 0.018518, 1.43913, 124074
-15526.8, 271159, -19.0146, 3.55841, -887.016, 0.468462, 0.157485, 0.993198, 0.349787, 0.651995, 3, 91, 246, 15.4314, 0.018518, 1.43932, 124074
-25951.6, -566996, -340.661, 0.856407, -1750.95, 1.45093, 0.295599, 0.9175, 0.352806, 0.64323, 3, 455, 246, 840.468, 0.0350842, 1.42389, 124075
-24861.1, 654463, -180.678, 2.01418, -1130.84, -0.0182473, 0.329402, 1.03299, 0.34851, 0.655882, 3, 45.5, 246, 32.9926, 0.0756756, 1.48816, 124076
-21843.6, 438350, -118.301, 2.24162, -607.393, 0.408328, 0.278124, 1.03299, 0.34851, 0.655882, 3, 45.5, 246, 20.3514, 0.0624492, 1.56385, 124078
-28289.3, 582927, -236.011, 2.40135, -577.803, 0.160992, 0.323587, 1.03299, 0.34851, 0.655882, 0.0001, 45.5, 246, 25.4407, 0.0971132, 1.50763, 124079
-28289.3, 582927, -236.011, 2.40135, -577.803, 0.160992, 0.323587, 1.03299, 0.34851, 0.655882, 3, 45.5, 246, 25.4407, 0.0971132, 1.50757, 124079
-21939.7, 594600, -266.612, 2.59956, -610.919, 0.193354, 0.314399, 0.993198, 0.349787, 0.651995, 0.0001, 91, 246, 25.4407, 0.0971132, 1.04736, 124079
-21939.7, 594600, -266.612, 2.59956, -610.919, 0.193354, 0.314399, 0.993198, 0.349787, 0.651995, 3, 91, 246, 25.4407, 0.0971132, 1.57404, 124079
-15772, 570505, -241.697, 1.12993, -764.98, -0.0054488, 0.422167, 1.03299, 0.34851, 0.655882, 3, 45.5, 246, 29.2544, 0.109582, 1.43094, 124080
-16351.6, 277286, -34.7838, 2.47135, -1087.09, -0.00517972, 0.249017, 1.03299, 0.34851, 0.655882, 0.0001, 45.5, 246, 22.6367, 0.0457172, 1.00835, 124081
-16351.6, 277286, -34.7838, 2.47135, -1087.09, -0.00517972, 0.249017, 1.03299, 0.34851, 0.655882, 3, 45.5, 246, 22.6367, 0.0457172, 1.62146, 124081
-19225.5, 369530, -421.371, 2.92726, -720.975, 0.417388, 0.531479, 1.03299, 0.34851, 0.655882, 0.0001, 45.5, 246, 46.6574, 0.222453, 1.40172, 124082
-19225.5, 369530, -421.371, 2.92726, -720.975, 0.417388, 0.531479, 1.03299, 0.34851, 0.655882, 3, 45.5, 246, 46.6574, 0.222453, 1.39265, 124082
-12799.4, 391576, -481.041, 3.26824, -812.514, 0.491905, 0.554959, 0.993198, 0.349787, 0.651995, 0.0001, 91, 246, 46.6574, 0.222453, 1.30849, 124082
-12799.4, 391576, -481.041, 3.26824, -812.514, 0.491905, 0.554959, 0.993198, 0.349787, 0.651995, 3, 91, 246, 46.6574, 0.222453, 1.00971, 124082
-4549.18, 420575, -555.133, 3.68617, -934.057, 0.590827, 0.597991, 0.958125, 0.351078, 0.648177, 0.0001, 182, 246, 46.6574, 0.222453, 1.40718, 124082
-4549.18, 420575, -555.133, 3.68617, -934.057, 0.590827, 0.597991, 0.958125, 0.351078, 0.648177, 3, 182, 246, 46.6574, 0.222453, 1.40882, 124082
-10808.6, 681168, -430.361, 0.70171, -1174.05, 0.00316272, 0.60533, 1.03299, 0.34851, 0.655882, 3, 45.5, 246, 44.388, 0.165576, 1.31749, 124083
-27184.6, 644252, -154.668, 3.43137, -1198.3, 0.619364, 0.173709, 0.993198, 0.349787, 0.651995, 3, 91, 246, 29.3835, 0.0510576, 1.90367, 124084
-22176.8, 510814, -117.33, 3.07224, -718.413, 1.17022e-05, 0.201754, 0.993198, 0.349787, 0.651995, 3, 91, 246, 20.7952, 0.0492411, 1.84637, 124085
-12111.8, 542628, -369.035, 0.979846, -1087.33, 0.130766, 0.572096, 1.03299, 0.34851, 0.655882, 3, 45.5, 246, 42.5254, 0.17342, 1.32459, 124086
-6896.88, 157311, -283.874, 3.08096, -768.363, 0.195177, 0.394511, 1.03299, 0.34851, 0.655882, 0.0001, 45.5, 246, 53.9435, 0.245923, 1.49124, 124088
-6896.88, 157311, -283.874, 3.08096, -768.363, 0.195177, 0.394511, 1.03299, 0.34851, 0.655882, 3, 45.5, 246, 53.9435, 0.245923, 1.49265, 124088
-3887.53, 171657, -332.601, 3.39384, -822.342, 0.248847, 0.409886, 0.993198, 0.349787, 0.651995, 0.0001, 91, 246, 53.9435, 0.245923, 1.92844, 124088
-3887.53, 171657, -332.601, 3.39384, -822.342, 0.248847, 0.409886, 0.993198, 0.349787, 0.651995, 3, 91, 246, 53.9435, 0.245923, 1.92869, 124088
35.9748, 189401, -392, 3.76845, -894.609, 0.317606, 0.443532, 0.958125, 0.351078, 0.648177, 0.0001, 182, 246, 53.9435, 0.245923, 2.64631, 124088
35.9748, 189401, -392, 3.76845, -894.609, 0.317606, 0.443532, 0.958125, 0.351078, 0.648177, 3, 182, 246, 53.9435, 0.245923, 2.64719, 124088
-6789.46, -41159.4, 6.96484, 3.09322, -1005.44, 0.292909, 0.2371, 1.03299, 0.34851, 0.655882, 0.0001, 45.5, 246, 14.2671, 0.0421841, 1.80146, 124089
-6789.46, -41159.4, 6.96484, 3.09322, -1005.44, 0.292909, 0.2371, 1.03299, 0.34851, 0.655882, 3, 45.5, 246, 14.2671, 0.0421841, 1.33964, 124089
-12509.6, 134146, 16.5054, 2.75849, -1081.53, 0.244763, 0.220907, 1.03299, 0.34851, 0.655882, 0.0001, 45.5, 246, 15.6199, 0.0266876, 1.43705, 124090
-12509.6, 134146, 16.5054, 2.75849, -1081.53, 0.244763, 0.220907, 1.03299, 0.34851, 0.655882, 3, 45.5, 246, 15.6199, 0.0266876, 1.69928, 124090
-10944, 157000, -11.2087, 3.01278, -1128.04, 0.292625, 0.214329, 0.993198, 0.349787, 0.651995, 0.0001, 91, 246, 15.6199, 0.0266876, 1.36902, 124090
-10944, 157000, -11.2087, 3.01278, -1128.04, 0.292625, 0.214329, 0.993198, 0.349787, 0.651995, 3, 91, 246, 15.6199, 0.0266876, 1.36935, 124090
-22166.7, 391914, -212.281, 3.17096, -901.762, 0.0165334, 0.265217, 1.03299, 0.34851, 0.655882, 0.0001, 45.5, 246, 33.7785, 0.119771, 1.37654, 124091
-22166.7, 391914, -212.281, 3.17096, -901.762, 0.0165334, 0.265217, 1.03299, 0.34851, 0.655882, 3, 45.5, 246, 33.7785, 0.119771, 1.37962, 124091
-16362.2, 407269, -258.289, 3.45229, -928.023, 0.0648803, 0.273342, 0.993198, 0.349787, 0.651995, 0.0001, 91, 246, 33.7785, 0.119771, 1.40263, 124091
-16362.2, 407269, -258.289, 3.45229, -928.023, 0.0648803, 0.273342, 0.993198, 0.349787, 0.651995, 3, 91, 246, 33.7785, 0.119771, 1.69727, 124091
-10751.8, 216613, -235.862, 1.57725, -578.031, 0.749719, 0.46983, 1.03299, 0.34851, 0.655882, 3, 45.5, 246, 37.849, 0.207543, 1.46249, 124093
-6451.57, 256110, -287.731, 1.94776, -788.808, 1.01824, 0.450994, 0.958125, 0.351078, 0.648177, 3, 182, 246, 37.849, 0.207543, 1.2609, 124093
-33502.2, 616034, -328.866, 3.2001, -1085.35, 0.391204, 0.310797, 1.03299, 0.34851, 0.655882, 0.0001, 45.5, 246, 40.1523, 0.125361, 1.53621, 124096
-33502.2, 616034, -328.866, 3.2001, -1085.35, 0.391204, 0.310797, 1.03299, 0.34851, 0.655882, 3, 45.5, 246, 40.1523, 0.125361, 1.53621, 124096
-23710.5, 653688, -393.366, 3.56494, -1194.64, 0.470472, 0.324132, 0.993198, 0.349787, 0.651995, 3, 91, 246, 40.1523, 0.125361, 1.67753, 124096
-7366.1, 60326.1, -101.599, 2.37388, -718.095, 0.621391, 0.295814, 1.03299, 0.34851, 0.655882, 3, 45.5, 246, 35.9058, 0.138904, 1.41048, 124097
-13604.7, 272635, -216.834, 2.33182, -779.341, 0.0464431, 0.383628, 1.03299, 0.34851, 0.655882, 0.0001, 45.5, 246, 36.0528, 0.164421, 1.02752, 124098
-6756.89, 298811, -287.89, 2.7081, -831.378, 0.103772, 0.381025, 0.958125, 0.351078, 0.648177, 0.0001, 182, 246, 36.0528, 0.164421, 1.37941, 124098
-9143.8, 188341, -224.917, 1.93214, -1001, 0.0905794, 0.483418, 1.03299, 0.34851, 0.655882, 3, 45.5, 246, 46.9979, 0.247898, 1.45551, 124099
-6506.93, -26649.4, -17.6303, 3.23216, -972.385, 0.438132, 0.221575, 1.03299, 0.34851, 0.655882, 0.0001, 45.5, 246, 23.2857, 0.0112512, 1.77893, 124101
-32959.8, 837771, -157.154, 1.98895, -1096.08, 0.450037, 0.295576, 1.03299, 0.34851, 0.655882, 0.0001, 45.5, 246, 31.1977, 0.0501752, 1.50593, 124104
-32959.8, 837771, -157.154, 1.98895, -1096.08, 0.450037, 0.295576, 1.03299, 0.34851, 0.655882, 3, 45.5, 246, 31.1977, 0.0501752, 1.5068, 124104
-7928.68, 133112, -185.994, 3.11487, -1052.88, -0.0464946, 0.31183, 1.03299, 0.34851, 0.655882, 0.0001, 45.5, 246, 45.5087, 0.192745, 1.67293, 124105
-7928.68, 133112, -185.994, 3.11487, -1052.88, -0.0464946, 0.31183, 1.03299, 0.34851, 0.655882, 3, 45.5, 246, 45.5087, 0.192745, 1.16841, 124105
-5684.69, 152998, -233.527, 3.38026, -1066.78, -0.000148994, 0.321252, 0.993198, 0.349787, 0.651995, 0.0001, 91, 246, 45.5087, 0.192745, 1.71628, 124105
-5684.69, 152998, -233.527, 3.38026, -1066.78, -0.000148994, 0.321252, 0.993198, 0.349787, 0.651995, 3, 91, 246, 45.5087, 0.192745, 1.75821, 124105
-2651.53, 174640, -289.627, 3.69142, -1095.61, 0.0547762, 0.346892, 0.958125, 0.351078, 0.648177, 0.0001, 182, 246, 45.5087, 0.192745, 1.50837, 124105
-2651.53, 174640, -289.627, 3.69142, -1095.61, 0.0547762, 0.346892, 0.958125, 0.351078, 0.648177, 3, 182, 246, 45.5087, 0.192745, 1.51076, 124105
-23737, 894814, -144.758, 1.05478, -572.528, 0.676181, 0.341065, 1.03299, 0.34851, 0.655882, 3, 45.5, 246, 18.4308, 0.0380464, 1.46082, 124106
-23546, 617111, -93.5656, 2.57283, -813.475, 0.564586, 0.226731, 0.993198, 0.349787, 0.651995, 3, 91, 246, 20.0547, 0.0334287, 1.76803, 124107
-16592.9, 380490, -316.848, 1.82269, -554.374, 0.385136, 0.495377, 1.03299, 0.34851, 0.655882, 3, 45.5, 246, 35.0147, 0.180919, 1.39962, 124108
-11779.2, 240289, -281.084, 3.16602, -989.008, -0.0318507, 0.388925, 1.03299, 0.34851, 0.655882, 0.0001, 45.5, 246, 47.875, 0.211098, 1.56433, 124109
-11779.2, 240289, -281.084, 3.16602, -989.008, -0.0318507, 0.388925, 1.03299, 0.34851, 0.655882, 3, 45.5, 246, 47.875, 0.211098, 1.5631, 124109
-7600.77, 258865, -336.689, 3.4495, -1014.52, 0.01614, 0.405966, 0.993198, 0.349787, 0.651995, 0.0001, 91, 246, 47.875, 0.211098, 1.58197, 124109
-7600.77, 258865, -336.689, 3.4495, -1014.52, 0.01614, 0.405966, 0.993198, 0.349787, 0.651995, 3, 91, 246, 47.875, 0.211098, 1.58731, 124109
-2267.88, 280349, -402.863, 3.78472, -1056.88, 0.0737999, 0.440511, 0.958125, 0.351078, 0.648177, 0.0001, 182, 246, 47.875, 0.211098, 1.72744, 124109
-2267.88, 280349, -402.863, 3.78472, -1056.88, 0.0737999, 0.440511, 0.958125, 0.351078, 0.648177, 3, 182, 246, 47.875, 0.211098, 1.72931, 124109
-14632.4, 373787, -229.131, 1.62931, -727.283, 0.0934292, 0.423674, 1.03299, 0.34851, 0.655882, 3, 45.5, 246, 32.0887, 0.145063, 1.43969, 124110
-8625.22, 115803, -139.378, 2.7547, -906.146, 0.211754, 0.297897, 1.03299, 0.34851, 0.655882, 3, 45.5, 246, 37.8903, 0.158687, 1.65417, 124111
-794.856, 183654, -289.501, 3.79281, -1124.09, 0.413361, 0.350078, 0.9175, 0.352806, 0.64323, 0.0001, 455, 246, 37.8903, 0.158687, 1.42792, 124111
-794.856, 183654, -289.501, 3.79281, -1124.09, 0.413361, 0.350078, 0.9175, 0.352806, 0.64323, 3, 455, 246, 37.8903, 0.158687, 1.43921, 124111
-22998.1, 882622, -406.503, 1.28499, -1013.41, 0.428599, 0.496695, 1.03299, 0.34851, 0.655882, 3, 45.5, 246, 37.6721, 0.112788, 1.3519, 124114
-16595.2, 498935, -203.099, 1.35722, -692.138, 0.178118, 0.388323, 1.03299, 0.34851, 0.655882, 3, 45.5, 246, 26.512, 0.100416, 1.45092, 124116
-15038.9, 445566, -124.007, 1.27977, -860.751, 0.351755, 0.346906, 1.03299, 0.34851, 0.655882, 3, 45.5, 246, 24.9488, 0.0688458, 1.4884, 124119
-4924.57, 535156, -189.828, 1.61709, -1086.36, 0.468809, 0.276271, 0.9175, 0.352806, 0.64323, 3, 455, 246, 24.9488, 0.0688458, 1.11141, 124119
-7964.08, 2801.66, -1.14255, 2.63723, -623.707, 0.193029, 0.254749, 1.03299, 0.34851, 0.655882, 3, 45.5, 246, 10.4196, 0.0354983, 1.15812, 124121
-6592.27, 53272.5, -110.923, 2.5987, -762.591, 0.554833, 0.280601, 1.03299, 0.34851, 0.655882, 0.0001, 45.5, 246, 39.7014, 0.139116, 1.01383, 124123
-6592.27, 53272.5, -110.923, 2.5987, -762.591, 0.554833, 0.280601, 1.03299, 0.34851, 0.655882, 3, 45.5, 246, 39.7014, 0.139116, 1.69877, 124123
-2382.25, 116591, -241.949, 3.83622, -1179.07, 0.99378, 0.320662, 0.9175, 0.352806, 0.64323, 0.0001, 455, 246, 39.7014, 0.139116, 1.27127, 124123
-2382.25, 116591, -241.949, 3.83622, -1179.07, 0.99378, 0.320662, 0.9175, 0.352806, 0.64323, 3, 455, 246, 39.7014, 0.139116, 1.27457, 124123
-11741, 268563, -236.307, 1.5486, -644.232, -0.000622928, 0.475338, 1.03299, 0.34851, 0.655882, 3, 45.5, 246, 36.9282, 0.199858, 1.41861, 124125
-24197.1, 454168, -113.976, 2.55037, -761.925, 0.389247, 0.250173, 1.03299, 0.34851, 0.655882, 0.0001, 45.5, 246, 23.1304, 0.0605791, 1.59923, 124127
-24197.1, 454168, -113.976, 2.55037, -761.925, 0.389247, 0.250173, 1.03299, 0.34851, 0.655882, 3, 45.5, 246, 23.1304, 0.0605791, 1.59938, 124127
-14284.9, 232292, 9.8253, 2.02645, -937.497, 0.0152588, 0.274454, 1.03299, 0.34851, 0.655882, 3, 45.5, 246, 14.9814, 0.0142576, 1.58612, 124129
-8767.53, 57643.3, -42.4399, 2.37868, -1046.27, -0.0262491, 0.285364, 1.03299, 0.34851, 0.655882, 0.0001, 45.5, 246, 24.4772, 0.0957599, 1.1054, 124130
-19703.6, 369021, -204.409, 2.74425, -727.571, -0.0222646, 0.30687, 1.03299, 0.34851, 0.655882, 3, 45.5, 246, 30.5963, 0.121875, 1.56159, 124131
-17105.1, 778984, -392.825, 1.15111, -1149.7, 0.0594427, 0.522471, 1.03299, 0.34851, 0.655882, 3, 45.5, 246, 41.3489, 0.131558, 1.33162, 124132
-6966.76, 922570, -310.034, 0.261518, -723.375, 0.0351957, 0.374265, 0.958125, 0.351078, 0.648177, 3, 182, 246, 26.4813, 0.082553, 1.21399, 124134
-8873.43, 230754, -270.217, 2.02569, -613.039, 0.192663, 0.459416, 0.993198, 0.349787, 0.651995, 0.0001, 91, 246, 39.9825, 0.21806, 1.10755, 124137
-8873.43, 230754, -270.217, 2.02569, -613.039, 0.192663, 0.459416, 0.993198, 0.349787, 0.651995, 3, 91, 246, 39.9825, 0.21806, 1.57546, 124137
-7369.89, 59751.5, -95.3278, 3.35706, -837.24, 0.00439576, 0.20576, 1.03299, 0.34851, 0.655882, 0.0001, 45.5, 246, 33.3418, 0.105347, 1.80687, 124139
-7369.89, 59751.5, -95.3278, 3.35706, -837.24, 0.00439576, 0.20576, 1.03299, 0.34851, 0.655882, 3, 45.5, 246, 33.3418, 0.105347, 1.28146, 124139
-6404.04, 72153.4, -130.841, 3.66009, -851.748, 0.0585253, 0.21622, 0.993198, 0.349787, 0.651995, 3, 91, 246, 33.3418, 0.105347, 1.63726, 124139
-2196.48, 106699, -245.731, 4.62875, -944.79, 0.239319, 0.318011, 0.9175, 0.352806, 0.64323, 0.0001, 455, 246, 33.3418, 0.105347, 1.24303, 124139
-2196.48, 106699, -245.731, 4.62875, -944.79, 0.239319, 0.318011, 0.9175, 0.352806, 0.64323, 3, 455, 246, 33.3418, 0.105347, 1.246, 124139
-11745.5, 249140, -215.29, 3.97086, -823.784, 0.0156749, 0.210504, 0.993198, 0.349787, 0.651995, 0.0001, 91, 246, 32.7829, 0.121751, 1.66401, 124144
-11745.5, 249140, -215.29, 3.97086, -823.784, 0.0156749, 0.210504, 0.993198, 0.349787, 0.651995, 3, 91, 246, 32.7829, 0.121751, 1.75384, 124144
-12572.1, 216318, -109.438, 3.98206, -844.104, 0.282943, 0.152185, 0.993198, 0.349787, 0.651995, 3, 91, 246, 23.1094, 0.0675809, 2.07912, 124145
-10024.4, 183278, -240.676, 2.48223, -653.67, 0.480381, 0.400198, 1.03299, 0.34851, 0.655882, 0.0001, 45.5, 246, 42.628, 0.207314, 1.56523, 124146
-10024.4, 183278, -240.676, 2.48223, -653.67, 0.480381, 0.400198, 1.03299, 0.34851, 0.655882, 3, 45.5, 246, 42.628, 0.207314, 1.33274, 124146
-4270.38, 215790, -318.24, 3.06265, -823.214, 0.64562, 0.412344, 0.958125, 0.351078, 0.648177, 0.0001, 182, 246, 42.628, 0.207314, 1.09437, 124146
-4270.38, 215790, -318.24, 3.06265, -823.214, 0.64562, 0.412344, 0.958125, 0.351078, 0.648177, 3, 182, 246, 42.628, 0.207314, 1.09936, 124146
-18050, 473176, -373.459, 2.16922, -1053.51, 0.0759451, 0.542166, 1.03299, 0.34851, 0.655882, 3, 45.5, 246, 45.2719, 0.190774, 1.34839, 124147
-12349.3, 497767, -423.172, 2.34107, -1091.95, 0.0994621, 0.546078, 0.993198, 0.349787, 0.651995, 3, 91, 246, 45.2719, 0.190774, 1.437, 124147
-30835.7, 603030, -277.089, 2.56809, -671.616, 0.510947, 0.32454, 1.03299, 0.34851, 0.655882, 0.0001, 45.5, 246, 28.756, 0.103899, 1.51401, 124149
-30835.7, 603030, -277.089, 2.56809, -671.616, 0.510947, 0.32454, 1.03299, 0.34851, 0.655882, 3, 45.5, 246, 28.756, 0.103899, 1.51358, 124149
-23471.9, 629999, -315.788, 2.84558, -754.51, 0.590781, 0.32025, 0.993198, 0.349787, 0.651995, 0.0001, 91, 246, 28.756, 0.103899, 1.20776, 124149
-23471.9, 629999, -315.788, 2.84558, -754.51, 0.590781, 0.32025, 0.993198, 0.349787, 0.651995, 3, 91, 246, 28.756, 0.103899, 1.58288, 124149
-10803, 523638, -390.17, 0.320045, -620.039, 0.659652, 0.592716, 1.03299, 0.34851, 0.655882, 3, 45.5, 246, 33.8676, 0.17494, 1.23851, 124150
-20266.3, 680359, -271.833, 1.23072, -663.75, 0.578992, 0.411616, 1.03299, 0.34851, 0.655882, 3, 45.5, 246, 26.5324, 0.0933066, 1.43009, 124152
-13080.6, 565581, -324.58, 1.06014, -1105.04, 0.257355, 0.503116, 1.03299, 0.34851, 0.655882, 3, 45.5, 246, 39.6136, 0.142927, 1.36136, 124153
-10026.2, 125287, -62.8988, 1.61368, -629.248, 0.41518, 0.323609, 1.03299, 0.34851, 0.655882, 3, 45.5, 246, 20.7945, 0.0910771, 1.54676, 124155
-31790.8, 646999, -398.776, 2.52969, -623.954, -0.0304086, 0.462607, 1.03299, 0.34851, 0.655882, 0.0001, 45.5, 246, 34.4767, 0.153039, 1.37498, 124156
-31790.8, 646999, -398.776, 2.52969, -623.954, -0.0304086, 0.462607, 1.03299, 0.34851, 0.655882, 3, 45.5, 246, 34.4767, 0.153039, 1.36138, 124156
-23556.3, 655438, -445.566, 2.72748, -651.585, -5.99343e-05, 0.467498, 0.993198, 0.349787, 0.651995, 3, 91, 246, 34.4767, 0.153039, 1.4805, 124156
-16583.9, 357003, -358.042, 2.644, -920.003, 0.488747, 0.492625, 1.03299, 0.34851, 0.655882, 3, 45.5, 246, 45.6855, 0.20403, 1.43113, 124159
-11173.3, 385819, -412.581, 2.9442, -1029.21, 0.566747, 0.504261, 0.993198, 0.349787, 0.651995, 0.0001, 91, 246, 45.6855, 0.20403, 1.44665, 124159
-11173.3, 385819, -412.581, 2.9442, -1029.21, 0.566747, 0.504261, 0.993198, 0.349787, 0.651995, 3, 91, 246, 45.6855, 0.20403, 1.55388, 124159
-7648.34, 57478.5, -86.8359, 2.24098, -865.664, -0.0225686, 0.314121, 1.03299, 0.34851, 0.655882, 0.0001, 45.5, 246, 35.5434, 0.153435, 1.2374, 124160
-7648.34, 57478.5, -86.8359, 2.24098, -865.664, -0.0225686, 0.314121, 1.03299, 0.34851, 0.655882, 3, 45.5, 246, 35.5434, 0.153435, 1.31825, 124160
-19919.7, 647780, -365.237, 1.22238, -671.47, 0.78348, 0.489631, 1.03299, 0.34851, 0.655882, 3, 45.5, 246, 30.8254, 0.125637, 1.38437, 124162
-16268.9, 489838, -333.694, 2.64598, -829.163, 0.00078345, 0.40312, 0.993198, 0.349787, 0.651995, 0.0001, 91, 246, 35.7702, 0.14635, 1.02786, 124163
-20528.4, 389177, -250.66, 3.01177, -975.958, 0.176955, 0.320982, 1.03299, 0.34851, 0.655882, 0.0001, 45.5, 246, 37.7229, 0.139616, 1.55622, 124164
-14791.7, 411400, -300.878, 3.30278, -1030.7, 0.227058, 0.328421, 0.993198, 0.349787, 0.651995, 0.0001, 91, 246, 37.7229, 0.139616, 1.5958, 124164
-14791.7, 411400, -300.878, 3.30278, -1030.7, 0.227058, 0.328421, 0.993198, 0.349787, 0.651995, 3, 91, 246, 37.7229, 0.139616, 1.60714, 124164
-13774.2, 526507, -431.485, 2.03883, -871.866, 0.00867864, 0.565399, 0.993198, 0.349787, 0.651995, 0.0001, 91, 246, 41.6563, 0.188976, 1.00433, 124165
-19567, 473931, -30.0571, 1.61615, -712.988, 0.429797, 0.295478, 1.03299, 0.34851, 0.655882, 3, 45.5, 246, 16.5658, 0.0208109, 1.52686, 124167
-22235.5, 586384, 8.29452, 1.47159, -834.474, 0.495568, 0.299071, 1.03299, 0.34851, 0.655882, 3, 45.5, 246, 17.6269, 0.00364601, 1.51049, 124168
-14944.6, 299273, -257.568, 2.41614, -663.714, 0.00661413, 0.410605, 1.03299, 0.34851, 0.655882, 0.0001, 45.5, 246, 36.956, 0.178033, 1.03546, 124170
-10536.2, 378891, -299.118, 1.10423, -1114.36, 0.310717, 0.543955, 1.03299, 0.34851, 0.655882, 3, 45.5, 246, 42.9479, 0.192894, 1.34031, 124171
-14504.7, 473786, -190.742, 1.24221, -867.233, 0.0069139, 0.392648, 1.03299, 0.34851, 0.655882, 3, 45.5, 246, 29.3713, 0.103052, 1.44824, 124173
-27647.6, 634066, -328.834, 3.49357, -739.533, 0.814436, 0.260384, 0.993198, 0.349787, 0.651995, 0.0001, 91, 246, 28.1351, 0.100406, 1.75246, 124174
-27647.6, 634066, -328.834, 3.49357, -739.533, 0.814436, 0.260384, 0.993198, 0.349787, 0.651995, 3, 91, 246, 28.1351, 0.100406, 1.747, 124174
-15580.6, 338442, -396.016, 3.52083, -1149.38, -0.038146, 0.484542, 1.03299, 0.34851, 0.655882, 0.0001, 45.5, 246, 54.9348, 0.235342, 1.436, 124175
-15580.6, 338442, -396.016, 3.52083, -1149.38, -0.038146, 0.484542, 1.03299, 0.34851, 0.655882, 3, 45.5, 246, 54.9348, 0.235342, 1.45131, 124175
-8603.37, 364762, -475.529, 3.8729, -1190.03, 0.0217754, 0.522233, 0.993198, 0.349787, 0.651995, 0.0001, 91, 246, 54.9348, 0.235342, 1.24345, 124175
-8603.37, 364762, -475.529, 3.8729, -1190.03, 0.0217754, 0.522233, 0.993198, 0.349787, 0.651995, 3, 91, 246, 54.9348, 0.235342, 1.45367, 124175
481.107, 396610, -572.641, 4.30187, -1257.36, 0.095492, 0.583301, 0.958125, 0.351078, 0.648177, 0.0001, 182, 246, 54.9348, 0.235342, 5.01829, 124175
481.107, 396610, -572.641, 4.30187, -1257.36, 0.095492, 0.583301, 0.958125, 0.351078, 0.648177, 3, 182, 246, 54.9348, 0.235342, 5.0204, 124175
-10600.6, 205836, -304.112, 3.03268, -582.549, 0.0259787, 0.410361, 1.03299, 0.34851, 0.655882, 0.0001, 45.5, 246, 47.6286, 0.229356, 1.57842, 124177
-10600.6, 205836, -304.112, 3.03268, -582.549, 0.0259787, 0.410361, 1.03299, 0.34851, 0.655882, 3, 45.5, 246, 47.6286, 0.229356, 1.28801, 124177
-7007.26, 214005, -348.196, 3.30778, -614.231, 0.070408, 0.425094, 0.993198, 0.349787, 0.651995, 0.0001, 91, 246, 47.6286, 0.229356, 1.29137, 124177
-7007.26, 214005, -348.196, 3.30778, -614.231, 0.070408, 0.425094, 0.993198, 0.349787, 0.651995, 3, 91, 246, 47.6286, 0.229356, 1.7555, 124177
-2582.8, 224363, -400.53, 3.63159, -658.08, 0.124658, 0.456424, 0.958125, 0.351078, 0.648177, 0.0001, 182, 246, 47.6286, 0.229356, 1.69674, 124177
-2582.8, 224363, -400.53, 3.63159, -658.08, 0.124658, 0.456424, 0.958125, 0.351078, 0.648177, 3, 182, 246, 47.6286, 0.229356, 1.69801, 124177
-6551.04, 28115.3, -81.9522, 3.01178, -690.652, 0.294741, 0.229575, 1.03299, 0.34851, 0.655882, 3, 45.5, 246, 33.7339, 0.0763485, 1.75672, 124179
-6169.33, 37379.9, -109.258, 3.31633, -735.04, 0.355214, 0.231097, 0.993198, 0.349787, 0.651995, 3, 91, 246, 33.7339, 0.0763485, 1.92516, 124179
-14307, 274530, -202.498, 2.47932, -879.134, 0.538876, 0.343697, 1.03299, 0.34851, 0.655882, 3, 45.5, 246, 35.0855, 0.142554, 1.55268, 124180
-18389.3, 451416, -255.014, 3.03337, -663.943, 0.0121793, 0.297844, 0.993198, 0.349787, 0.651995, 0.0001, 91, 246, 28.5654, 0.113056, 1.25999, 124181
-18389.3, 451416, -255.014, 3.03337, -663.943, 0.0121793, 0.297844, 0.993198, 0.349787, 0.651995, 3, 91, 246, 28.5654, 0.113056, 1.287, 124181
-19239.9, 575828, -283.08, 1.37382, -596.909, 0.372779, 0.434691, 1.03299, 0.34851, 0.655882, 3, 45.5, 246, 27.6122, 0.117045, 1.41498, 124183
-20408, 705791, -8.62405, 1.12838, -1196.38, 0.00429929, 0.318009, 1.03299, 0.34851, 0.655882, 3, 45.5, 246, 25.9122, 0.0095819, 1.48776, 124184
-17452.2, 412327, -232.737, 2.3146, -1116.13, 0.0195595, 0.379912, 1.03299, 0.34851, 0.655882, 3, 45.5, 246, 38.0438, 0.135767, 1.4738, 124185
-10018.5, 181298, -170.193, 1.69523, -724.104, 0.231166, 0.40877, 1.03299, 0.34851, 0.655882, 3, 45.5, 246, 35.8969, 0.186967, 1.49027, 124186
-3621.17, 229632, -256.348, 2.16792, -873.998, 0.32474, 0.379875, 0.9175, 0.352806, 0.64323, 0.0001, 455, 246, 35.8969, 0.186967, 1.09866, 124186
-8316.66, 18571.4, -11.9504, 2.68314, -1002.31, 0.15975, 0.257979, 0.993198, 0.349787, 0.651995, 3, 91, 246, 10.7387, 0.050076, 1.25122, 124188
-5311.21, 114663, -226.62, 3.52763, -963.851, 0.207032, 0.273284, 1.03299, 0.34851, 0.655882, 0.0001, 45.5, 246, 52.3398, 0.203912, 1.81559, 124189
-5311.21, 114663, -226.62, 3.52763, -963.851, 0.207032, 0.273284, 1.03299, 0.34851, 0.655882, 3, 45.5, 246, 52.3398, 0.203912, 1.81753, 124189
-2822.32, 134437, -281.938, 3.91055, -1026.47, 0.2768, 0.294837, 0.993198, 0.349787, 0.651995, 0.0001, 91, 246, 52.3398, 0.203912, 1.87726, 124189
-2822.32, 134437, -281.938, 3.91055, -1026.47, 0.2768, 0.294837, 0.993198, 0.349787, 0.651995, 3, 91, 246, 52.3398, 0.203912, 2.12039, 124189
682.027, 158625, -351.336, 4.38151, -1115.07, 0.368342, 0.339763, 0.958125, 0.351078, 0.648177, 0.0001, 182, 246, 52.3398, 0.203912, 2.98039, 124189
682.027, 158625, -351.336, 4.38151, -1115.07, 0.368342, 0.339763, 0.958125, 0.351078, 0.648177, 3, 182, 246, 52.3398, 0.203912, 2.98165, 124189
-7694.08, 15241.5, -16.1457, 3.62069, -1165.13, 0.0372791, 0.210549, 0.993198, 0.349787, 0.651995, 3, 91, 246, 13.0149, 0.0569796, 1.0969, 124191
-6830.09, 141093, -183.388, 2.95568, -1113.13, 0.769718, 0.308327, 0.993198, 0.349787, 0.651995, 0.0001, 91, 246, 39.2235, 0.165424, 1.46167, 124192
-6830.09, 141093, -183.388, 2.95568, -1113.13, 0.769718, 0.308327, 0.993198, 0.349787, 0.651995, 3, 91, 246, 39.2235, 0.165424, 1.82779, 124192
-16722.8, 483465, -166.351, 1.55009, -934.64, 0.00691604, 0.360181, 1.03299, 0.34851, 0.655882, 3, 45.5, 246, 29.061, 0.0888921, 1.4766, 124193
-20491.5, 381373, -227.166, 3.21432, -1115.16, -0.0232482, 0.288114, 1.03299, 0.34851, 0.655882, 0.0001, 45.5, 246, 38.7095, 0.133671, 1.59339, 124194
-20491.5, 381373, -227.166, 3.21432, -1115.16, -0.0232482, 0.288114, 1.03299, 0.34851, 0.655882, 3, 45.5, 246, 38.7095, 0.133671, 1.15622, 124194
-14599.5, 403720, -281.686, 3.49722, -1137.74, 0.0261367, 0.299108, 0.993198, 0.349787, 0.651995, 0.0001, 91, 246, 38.7095, 0.133671, 1.62507, 124194
-14599.5, 403720, -281.686, 3.49722, -1137.74, 0.0261367, 0.299108, 0.993198, 0.349787, 0.651995, 3, 91, 246, 38.7095, 0.133671, 1.62435, 124194
-28504.8, 767128, -245.897, 1.8561, -807.413, 0.131875, 0.362251, 1.03299, 0.34851, 0.655882, 3, 45.5, 246, 28.8124, 0.0832168, 1.45365, 124195
-36735, 868441, -1.31897, 1.9494, -648.823, 0.176792, 0.262477, 1.03299, 0.34851, 0.655882, 0.0001, 45.5, 246, 15.5646, 0.0049348, 1.52958, 124196
-36735, 868441, -1.31897, 1.9494, -648.823, 0.176792, 0.262477, 1.03299, 0.34851, 0.655882, 3, 45.5, 246, 15.5646, 0.0049348, 1.52966, 124196
-29786, 883560, -13.4224, 2.09013, -668.802, 0.200294, 0.239332, 0.993198, 0.349787, 0.651995, 3, 91, 246, 15.5646, 0.0049348, 1.70505, 124196
-17127.3, 472847, -417.251, 1.59874, -733.36, -0.0100954, 0.645663, 1.03299, 0.34851, 0.655882, 3, 45.5, 246, 42.8575, 0.219452, 1.26175, 124197
-11320, 297760, -293.915, 1.49186, -892.17, 0.54015, 0.544924, 1.03299, 0.34851, 0.655882, 3, 45.5, 246, 43.2639, 0.219685, 1.40553, 124198
-20874.4, 890773, -194.266, 1.06205, -973.278, 0.270427, 0.364368, 1.03299, 0.34851, 0.655882, 3, 45.5, 246, 29.3495, 0.0561371, 1.44795, 124200
-17731, 343046, -40.0773, 3.38913, -792.207, 0.109875, 0.167389, 0.993198, 0.349787, 0.651995, 0.0001, 91, 246, 16.7452, 0.0253947, 1.38481, 124203
-17731, 343046, -40.0773, 3.38913, -792.207, 0.109875, 0.167389, 0.993198, 0.349787, 0.651995, 3, 91, 246, 16.7452, 0.0253947, 1.95993, 124203
-36972.9, 829830, -373.247, 2.33277, -820.747, 0.253372, 0.404975, 1.03299, 0.34851, 0.655882, 0.0001, 45.5, 246, 33.9556, 0.113513, 1.41892, 124204
-36972.9, 829830, -373.247, 2.33277, -820.747, 0.253372, 0.404975, 1.03299, 0.34851, 0.655882, 3, 45.5, 246, 33.9556, 0.113513, 1.41885, 124204
-27510.1, 855970, -419.584, 2.54073, -882.686, 0.291079, 0.400554, 0.993198, 0.349787, 0.651995, 3, 91, 246, 33.9556, 0.113513, 1.52981, 124204
-13917.9, 436946, -254.776, 1.32221, -933.906, 0.658996, 0.441645, 1.03299, 0.34851, 0.655882, 3, 45.5, 246, 34.5752, 0.132418, 1.42907, 124205
-12800.7, 267817, -207.618, 3.97102, -843.75, 0.016934, 0.205213, 0.993198, 0.349787, 0.651995, 0.0001, 91, 246, 31.7253, 0.114291, 1.0892, 124207
-12800.7, 267817, -207.618, 3.97102, -843.75, 0.016934, 0.205213, 0.993198, 0.349787, 0.651995, 3, 91, 246, 31.7253, 0.114291, 1.95411, 124207
-12982.4, 213552, -134.494, 2.82273, -996.062, -0.0370428, 0.278415, 1.03299, 0.34851, 0.655882, 3, 45.5, 246, 32.5444, 0.122126, 1.62743, 124208
-24868, 872254, -84.4974, 1.22515, -676.842, 0.0684207, 0.322815, 1.03299, 0.34851, 0.655882, 3, 45.5, 246, 19.0247, 0.0273354, 1.47305, 124209
-10937.3, 300215, -302.57, 1.0526, -715.649, 0.37249, 0.591506, 1.03299, 0.34851, 0.655882, 3, 45.5, 246, 42.0381, 0.239388, 1.33135, 124210
-27284.1, 746712, -82.0433, 2.44512, -751.827, 0.0675964, 0.227772, 0.993198, 0.349787, 0.651995, 3, 91, 246, 19.736, 0.02694, 1.74746, 124211
-8731.9, 634037, -429.977, 0.199325, -857.643, 0.0020495, 0.627022, 1.03299, 0.34851, 0.655882, 3, 45.5, 246, 39.166, 0.179406, 1.31597, 124214
-25992.8, 554455, -92.361, 2.33006, -1031.94, 0.0980333, 0.26536, 1.03299, 0.34851, 0.655882, 0.0001, 45.5, 246, 26.7923, 0.0489869, 1.5621, 124217
-25992.8, 554455, -92.361, 2.33006, -1031.94, 0.0980333, 0.26536, 1.03299, 0.34851, 0.655882, 3, 45.5, 246, 26.7923, 0.0489869, 1.5614, 124217
-22526.3, 499249, -174.63, 3.63026, -904.993, 0.0934384, 0.177611, 0.993198, 0.349787, 0.651995, 0.0001, 91, 246, 27.0487, 0.0702805, 1.92442, 124218
-22526.3, 499249, -174.63, 3.63026, -904.993, 0.0934384, 0.177611, 0.993198, 0.349787, 0.651995, 3, 91, 246, 27.0487, 0.0702805, 1.02106, 124218
-16498.8, 311824, -313.165, 3.58989, -1045.96, 0.107737, 0.340787, 1.03299, 0.34851, 0.655882, 0.0001, 45.5, 246, 46.9069, 0.189323, 1.31559, 124219
-16498.8, 311824, -313.165, 3.58989, -1045.96, 0.107737, 0.340787, 1.03299, 0.34851, 0.655882, 3, 45.5, 246, 46.9069, 0.189323, 1.31724, 124219
-10453.7, 335638, -381.053, 3.97008, -1104.08, 0.173431, 0.369235, 0.993198, 0.349787, 0.651995, 0.0001, 91, 246, 46.9069, 0.189323, 1.21753, 124219
-10453.7, 335638, -381.053, 3.97008, -1104.08, 0.173431, 0.369235, 0.993198, 0.349787, 0.651995, 3, 91, 246, 46.9069, 0.189323, 1.74901, 124219
-2617.94, 365224, -465.388, 4.4369, -1189.49, 0.258071, 0.421665, 0.958125, 0.351078, 0.648177, 0.0001, 182, 246, 46.9069, 0.189323, 1.80625, 124219
-2617.94, 365224, -465.388, 4.4369, -1189.49, 0.258071, 0.421665, 0.958125, 0.351078, 0.648177, 3, 182, 246, 46.9069, 0.189323, 1.80768, 124219
-5902.56, 118119, -226.538, 2.93691, -791.724, 0.0622333, 0.355167, 1.03299, 0.34851, 0.655882, 0.0001, 45.5, 246, 52.6101, 0.233596, 1.47471, 124220
-5902.56, 118119, -226.538, 2.93691, -791.724, 0.0622333, 0.355167, 1.03299, 0.34851, 0.655882, 3, 45.5, 246, 52.6101, 0.233596, 1.7139, 124220
-3826.15, 130881, -268.229, 3.19857, -822.224, 0.104588, 0.362623, 0.993198, 0.349787, 0.651995, 0.0001, 91, 246, 52.6101, 0.233596, 1.90908, 124220
-3826.15, 130881, -268.229, 3.19857, -822.224, 0.104588, 0.362623, 0.993198, 0.349787, 0.651995, 3, 91, 246, 52.6101, 0.233596, 1.90699, 124220
-1109.86, 145650, -317.702, 3.50438, -865.303, 0.15649, 0.385462, 0.958125, 0.351078, 0.648177, 0.0001, 182, 246, 52.6101, 0.233596, 2.08533, 124220
-1109.86, 145650, -317.702, 3.50438, -865.303, 0.15649, 0.385462, 0.958125, 0.351078, 0.648177, 3, 182, 246, 52.6101, 0.233596, 2.08759, 124220
-20362, 392350, -84.66, 2.36291, -703.451, 0.0928481, 0.26177, 1.03299, 0.34851, 0.655882, 3, 45.5, 246, 20.3357, 0.0548863, 1.58865, 124225
-13580, 378472, -108.321, 1.30537, -1039.61, 0.431396, 0.343995, 1.03299, 0.34851, 0.655882, 3, 45.5, 246, 27.1493, 0.0705167, 1.49953, 124226
-8215.98, 96968.5, -101.058, 3.8523, -791.873, 0.257648, 0.181217, 0.993198, 0.349787, 0.651995, 0.0001, 91, 246, 24.747, 0.0774958, 1.70059, 124229
-8215.98, 96968.5, -101.058, 3.8523, -791.873, 0.257648, 0.181217, 0.993198, 0.349787, 0.651995, 3, 91, 246, 24.747, 0.0774958, 1.71592, 124229
-13331.7, 286991, -386.255, 2.38388, -706.162, 0.675587, 0.579936, 1.03299, 0.34851, 0.655882, 0.0001, 45.5, 246, 48.9159, 0.249609, 1.02693, 124233
-13331.7, 286991, -386.255, 2.38388, -706.162, 0.675587, 0.579936, 1.03299, 0.34851, 0.655882, 3, 45.5, 246, 48.9159, 0.249609, 1.40999, 124233
-8917.05, 311107, -434.935, 2.67689, -821.276, 0.787755, 0.59359, 0.993198, 0.349787, 0.651995, 0.0001, 91, 246, 48.9159, 0.249609, 1.53758, 124233
-8917.05, 311107, -434.935, 2.67689, -821.276, 0.787755, 0.59359, 0.993198, 0.349787, 0.651995, 3, 91, 246, 48.9159, 0.249609, 1.54241, 124233
-3130.85, 343509, -495.438, 3.04011, -978.164, 0.940667, 0.622461, 0.958125, 0.351078, 0.648177, 0.0001, 182, 246, 48.9159, 0.249609, 1.46023, 124233
-3130.85, 343509, -495.438, 3.04011, -978.164, 0.940667, 0.622461, 0.958125, 0.351078, 0.648177, 3, 182, 246, 48.9159, 0.249609, 1.46253, 124233
-14877.3, 302616, -52.7216, 1.78303, -680.332, -0.0148285, 0.298943, 1.03299, 0.34851, 0.655882, 3, 45.5, 246, 17.362, 0.0466908, 1.54697, 124235
-24242.9, 506818, -254.222, 2.41672, -646.89, -0.0268478, 0.359653, 1.03299, 0.34851, 0.655882, 3, 45.5, 246, 29.4961, 0.120591, 1.48028, 124236
-18573.2, 514329, -287.853, 2.59292, -663.372, 0.000707999, 0.353227, 0.993198, 0.349787, 0.651995, 3, 91, 246, 29.4961, 0.120591, 1.60828, 124236
-22231.2, 572679, -179.452, 2.97411, -923.739, -0.000108305, 0.235598, 0.993198, 0.349787, 0.651995, 0.0001, 91, 246, 27.7064, 0.0693689, 1.20734, 124240
-22231.2, 572679, -179.452, 2.97411, -923.739, -0.000108305, 0.235598, 0.993198, 0.349787, 0.651995, 3, 91, 246, 27.7064, 0.0693689, 1.77927, 124240
-17459.2, 499841, -273.909, 1.51701, -798.114, 0.682684, 0.430099, 1.03299, 0.34851, 0.655882, 3, 45.5, 246, 32.011, 0.122928, 1.43037, 124241
-18556.3, 720814, -409.137, 1.30974, -1036.8, -0.00772747, 0.552055, 1.03299, 0.34851, 0.655882, 3, 45.5, 246, 40.9486, 0.149123, 1.32808, 124242
-27984.1, 523987, -239.259, 2.78339, -600.569, -0.0341653, 0.299715, 1.03299, 0.34851, 0.655882, 0.0001, 45.5, 246, 27.445, 0.108527, 1.54627, 124244
-27984.1, 523987, -239.259, 2.78339, -600.569, -0.0341653, 0.299715, 1.03299, 0.34851, 0.655882, 3, 45.5, 246, 27.445, 0.108527, 1.54743, 124244
-21357.3, 529950, -274.294, 3.00167, -618.547, 0.00257904, 0.298429, 0.993198, 0.349787, 0.651995, 0.0001, 91, 246, 27.445, 0.108527, 1.58044, 124244
-21357.3, 529950, -274.294, 3.00167, -618.547, 0.00257904, 0.298429, 0.993198, 0.349787, 0.651995, 3, 91, 246, 27.445, 0.108527, 1.38993, 124244
-26138.9, 585512, -83.3935, 3.24078, -856.851, 0.0688096, 0.171231, 0.993198, 0.349787, 0.651995, 3, 91, 246, 21.4756, 0.0326174, 1.90095, 124245
-21986.5, 464889, -273.857, 2.29774, -797.357, 0.837779, 0.37319, 1.03299, 0.34851, 0.655882, 0.0001, 45.5, 246, 32.787, 0.122131, 1.50198, 124247
-21986.5, 464889, -273.857, 2.29774, -797.357, 0.837779, 0.37319, 1.03299, 0.34851, 0.655882, 3, 45.5, 246, 32.787, 0.122131, 1.48806, 124247
-16602.2, 501962, -312.973, 2.58635, -941.24, 0.995769, 0.366311, 0.993198, 0.349787, 0.651995, 0.0001, 91, 246, 32.787, 0.122131, 1.12152, 124247
-16602.2, 501962, -312.973, 2.58635, -941.24, 0.995769, 0.366311, 0.993198, 0.349787, 0.651995, 3, 91, 246, 32.787, 0.122131, 1.61798, 124247
-6999.29, 34653.1, -78.5466, 2.09743, -892.515, 0.278569, 0.316213, 1.03299, 0.34851, 0.655882, 0.0001, 45.5, 246, 40.0319, 0.158775, 1.28059, 124250
-6999.29, 34653.1, -78.5466, 2.09743, -892.515, 0.278569, 0.316213, 1.03299, 0.34851, 0.655882, 3, 45.5, 246, 40.0319, 0.158775, 1.60329, 124250
-18867.2, 375515, -235.587, 2.44589, -823.822, 0.813553, 0.343841, 1.03299, 0.34851, 0.655882, 3, 45.5, 246, 33.0378, 0.124869, 1.53117, 124251
-14287.9, 408148, -274.301, 2.75487, -966.337, 0.967612, 0.338361, 0.993198, 0.349787, 0.651995, 0.0001, 91, 246, 33.0378, 0.124869, 1.53858, 124251
-8545.95, 104020, -118.824, 1.9684, -773.452, 0.0572513, 0.354186, 1.03299, 0.34851, 0.655882, 0.0001, 45.5, 246, 35.8913, 0.178546, 1.06763, 124252
-23685.4, 479459, -146.998, 2.17149, -542.313, 0.765671, 0.288829, 1.03299, 0.34851, 0.655882, 3, 45.5, 246, 20.0895, 0.0655723, 1.54765, 124253
-34072, 834355, -188.548, 2.17649, -1024.38, 0.0233236, 0.300371, 1.03299, 0.34851, 0.655882, 3, 45.5, 246, 31.1349, 0.0634272, 1.50517, 124254
-26132.5, 854155, -222.274, 2.32675, -1042.15, 0.0457559, 0.284214, 0.993198, 0.349787, 0.651995, 3, 91, 246, 31.1349, 0.0634272, 1.65995, 124254
-19831.1, 474256, -207.812, 2.03226, -1021.64, 0.809895, 0.346903, 1.03299, 0.34851, 0.655882, 3, 45.5, 246, 32.8978, 0.0970784, 1.50105, 124257
-7375.78, 42104.7, -71.1947, 2.81484, -1107.15, 0.134486, 0.266064, 1.03299, 0.34851, 0.655882, 3, 45.5, 246, 33.4634, 0.121057, 1.36503, 124258
-18777.1, 369801, -291.053, 2.76184, -921.253, 0.686102, 0.376002, 1.03299, 0.34851, 0.655882, 3, 45.5, 246, 39.3251, 0.155581, 1.51646, 124259
-13389.6, 403061, -341.467, 3.10903, -1062.3, 0.811911, 0.381378, 0.993198, 0.349787, 0.651995, 0.0001, 91, 246, 39.3251, 0.155581, 1.33688, 124259
-13389.6, 403061, -341.467, 3.10903, -1062.3, 0.811911, 0.381378, 0.993198, 0.349787, 0.651995, 3, 91, 246, 39.3251, 0.155581, 1.31787, 124259
-8729.63, 151152, -147.236, 3.58002, -898.723, 0.124014, 0.222357, 0.993198, 0.349787, 0.651995, 0.0001, 91, 246, 30.6221, 0.110551, 1.63131, 124260
-8729.63, 151152, -147.236, 3.58002, -898.723, 0.124014, 0.222357, 0.993198, 0.349787, 0.651995, 3, 91, 246, 30.6221, 0.110551, 1.94224, 124260
-6085.44, -40964.6, 3.40145, 3.4831, -584.228, 0.254617, 0.190631, 1.03299, 0.34851, 0.655882, 0.0001, 45.5, 246, 9.93417, 0.0181504, 2.34747, 124261
-6085.44, -40964.6, 3.40145, 3.4831, -584.228, 0.254617, 0.190631, 1.03299, 0.34851, 0.655882, 3, 45.5, 246, 9.93417, 0.0181504, 2.34712, 124261
-6849.59, -35696.6, -16.3673, 3.85912, -612.159, 0.326921, 0.205413, 0.993198, 0.349787, 0.651995, 0.0001, 91, 246, 9.93417, 0.0181504, 1.92217, 124261
-6849.59, -35696.6, -16.3673, 3.85912, -612.159, 0.326921, 0.205413, 0.993198, 0.349787, 0.651995, 3, 91, 246, 9.93417, 0.0181504, 1.92257, 124261
-14547.2, 536845, -337.133, 1.11742, -848.301, 0.0913408, 0.52678, 1.03299, 0.34851, 0.655882, 3, 45.5, 246, 36.8398, 0.159503, 1.31892, 124262
-8535, 75651.4, -78.5932, 2.44311, -894.059, 0.0282895, 0.291646, 1.03299, 0.34851, 0.655882, 0.0001, 45.5, 246, 30.2751, 0.123622, 1.21319, 124263
-8535, 75651.4, -78.5932, 2.44311, -894.059, 0.0282895, 0.291646, 1.03299, 0.34851, 0.655882, 3, 45.5, 246, 30.2751, 0.123622, 1.62455, 124263
-7125.63, 472100, -449.448, 0.0903165, -1050.59, 0.533484, 0.745819, 1.03299, 0.34851, 0.655882, 3, 45.5, 246, 47.7126, 0.241934, 1.26414, 124264
-5309.16, 511401, -468.273, 0.0967126, -1148.49, 0.58264, 0.748512, 0.993198, 0.349787, 0.651995, 0.0001, 91, 246, 47.7126, 0.241934, 2.7662, 124264
-5309.16, 511401, -468.273, 0.0967126, -1148.49, 0.58264, 0.748512, 0.993198, 0.349787, 0.651995, 3, 91, 246, 47.7126, 0.241934, 2.76625, 124264
-3223.88, 558143, -487.23, 0.10369, -1266.28, 0.64177, 0.756738, 0.958125, 0.351078, 0.648177, 0.0001, 182, 246, 47.7126, 0.241934, 4.36418, 124264
-3223.88, 558143, -487.23, 0.10369, -1266.28, 0.64177, 0.756738, 0.958125, 0.351078, 0.648177, 3, 182, 246, 47.7126, 0.241934, 4.36089, 124264
-23605, 730072, -443.336, 1.49819, -909.053, 0.787004, 0.544253, 1.03299, 0.34851, 0.655882, 3, 45.5, 246, 38.0256, 0.136522, 1.33513, 124267
-11995.1, 955713, -478.203, 0.333506, -840.014, 0.332843, 0.557574, 1.03299, 0.34851, 0.655882, 3, 45.5, 246, 34.8254, 0.122766, 1.35336, 124269
-8659.65, 40206.4, -24.5789, 2.59591, -671.409, 0.00234711, 0.256307, 1.03299, 0.34851, 0.655882, 0.0001, 45.5, 246, 16.8367, 0.0559084, 1.26256, 124270
-10762.6, 418292, -258.384, 0.626582, -679.424, 0.195199, 0.48594, 1.03299, 0.34851, 0.655882, 3, 45.5, 246, 31.5269, 0.155278, 1.39024, 124271
-9255.77, 152948, -178.75, 3.22637, -1109.7, 0.0154749, 0.288642, 1.03299, 0.34851, 0.655882, 0.0001, 45.5, 246, 42.7145, 0.173217, 1.6853, 124274
-9255.77, 152948, -178.75, 3.22637, -1109.7, 0.0154749, 0.288642, 1.03299, 0.34851, 0.655882, 3, 45.5, 246, 42.7145, 0.173217, 1.18565, 124274
-6667.07, 175617, -229.119, 3.51865, -1134.82, 0.0656006, 0.300176, 0.993198, 0.349787, 0.651995, 0.0001, 91, 246, 42.7145, 0.173217, 1.06074, 124274
-6667.07, 175617, -229.119, 3.51865, -1134.82, 0.0656006, 0.300176, 0.993198, 0.349787, 0.651995, 3, 91, 246, 42.7145, 0.173217, 1.06557, 124274
-3154.95, 200821, -289.475, 3.865, -1177.33, 0.126778, 0.329464, 0.958125, 0.351078, 0.648177, 0.0001, 182, 246, 42.7145, 0.173217, 1.32094, 124274
-3154.95, 200821, -289.475, 3.865, -1177.33, 0.126778, 0.329464, 0.958125, 0.351078, 0.648177, 3, 182, 246, 42.7145, 0.173217, 1.32449, 124274
-9986.88, 126457, -37.5134, 3.32191, -1036.72, 0.829875, 0.201952, 0.993198, 0.349787, 0.651995, 0.0001, 91, 246, 17.1303, 0.0428458, 1.38787, 124275
-9986.88, 126457, -37.5134, 3.32191, -1036.72, 0.829875, 0.201952, 0.993198, 0.349787, 0.651995, 3, 91, 246, 17.1303, 0.0428458, 1.39798, 124275
-29356.3, 841019, -356.319, 1.61683, -592.33, -0.0120271, 0.452626, 1.03299, 0.34851, 0.655882, 3, 45.5, 246, 28.0924, 0.11106, 1.37531, 124276
-22972, 531475, -58.5501, 1.93133, -671.026, 0.0215516, 0.281984, 1.03299, 0.34851, 0.655882, 3, 45.5, 246, 17.6032, 0.0325403, 1.53975, 124277
-19277.5, 975925, -310.99, 0.901183, -917.461, 0.0557428, 0.428815, 1.03299, 0.34851, 0.655882, 3, 45.5, 246, 31.9652, 0.0836801, 1.40178, 124278
-24340.3, 624079, -245.848, 1.7444, -622.9, 0.585868, 0.372236, 1.03299, 0.34851, 0.655882, 3, 45.5, 246, 25.4001, 0.0903999, 1.45534, 124280
-17515.7, 406330, -114.521, 1.97763, -1011.95, 0.00411621, 0.311176, 1.03299, 0.34851, 0.655882, 3, 45.5, 246, 27.631, 0.0740913, 1.53044, 124284
-18308.5, 376995, -254.857, 2.1494, -544.477, 0.482891, 0.390833, 1.03299, 0.34851, 0.655882, 3, 45.5, 246, 29.8526, 0.139928, 1.48604, 124286
-14318.7, 393852, -284.404, 2.3625, -607.168, 0.546949, 0.381407, 0.993198, 0.349787, 0.651995, 3, 91, 246, 29.8526, 0.139928, 1.60559, 124286
-10101.8, 144732, -79.4403, 3.75775, -897.709, 0.0990725, 0.17585, 0.993198, 0.349787, 0.651995, 0.0001, 91, 246, 21.8179, 0.0644428, 1.46279, 124287
-10101.8, 144732, -79.4403, 3.75775, -897.709, 0.0990725, 0.17585, 0.993198, 0.349787, 0.651995, 3, 91, 246, 21.8179, 0.0644428, 2.02685, 124287
-31380.2, 699573, -433.931, 2.16638, -638.703, 0.265344, 0.507587, 1.03299, 0.34851, 0.655882, 0.0001, 45.5, 246, 34.3579, 0.150025, 1.34553, 124289
-31380.2, 699573, -433.931, 2.16638, -638.703, 0.265344, 0.507587, 1.03299, 0.34851, 0.655882, 3, 45.5, 246, 34.3579, 0.150025, 1.34365, 124289
-23362.8, 720495, -479.478, 2.3602, -695.636, 0.300411, 0.508369, 0.993198, 0.349787, 0.651995, 0.0001, 91, 246, 34.3579, 0.150025, 1.0363, 124289
-23362.8, 720495, -479.478, 2.3602, -695.636, 0.300411, 0.508369, 0.993198, 0.349787, 0.651995, 3, 91, 246, 34.3579, 0.150025, 1.42662, 124289
-6892.5, 169525, -336.501, 3.21969, -658.602, 0.590578, 0.400537, 1.03299, 0.34851, 0.655882, 0.0001, 45.5, 246, 55.1214, 0.245549, 1.58928, 124291
-6892.5, 169525, -336.501, 3.21969, -658.602, 0.590578, 0.400537, 1.03299, 0.34851, 0.655882, 3, 45.5, 246, 55.1214, 0.245549, 1.59039, 124291
-3216.79, 186408, -389.943, 3.63992, -763.816, 0.708243, 0.422148, 0.993198, 0.349787, 0.651995, 0.0001, 91, 246, 55.1214, 0.245549, 1.7603, 124291
-3216.79, 186408, -389.943, 3.63992, -763.816, 0.708243, 0.422148, 0.993198, 0.349787, 0.651995, 3, 91, 246, 55.1214, 0.245549, 1.76343, 124291
1713.93, 209902, -459.127, 4.17579, -911.022, 0.872859, 0.467737, 0.958125, 0.351078, 0.648177, 0.0001, 182, 246, 55.1214, 0.245549, 3.27301, 124291
1713.93, 209902, -459.127, 4.17579, -911.022, 0.872859, 0.467737, 0.958125, 0.351078, 0.648177, 3, 182, 246, 55.1214, 0.245549, 3.27404, 124291
-12425.6, 527177, -337.336, 0.580359, -586.225, 0.459868, 0.529192, 1.03299, 0.34851, 0.655882, 3, 45.5, 246, 30.8546, 0.153587, 1.35787, 124292
-11664.1, 493330, -437.595, 1.05888, -1145.42, 0.0582474, 0.709166, 1.03299, 0.34851, 0.655882, 3, 45.5, 246, 49.7121, 0.230277, 1.22366, 124293
-10441, 131595, -43.8441, 3.3331, -623.648, 0.155173, 0.196588, 0.993198, 0.349787, 0.651995, 0.0001, 91, 246, 14.3189, 0.0404275, 1.34294, 124294
-19978.3, 391826, -426.408, 2.71119, -601.108, -0.024501, 0.581177, 1.03299, 0.34851, 0.655882, 3, 45.5, 246, 45.4258, 0.233587, 1.3323, 124295
-13833.9, 401105, -479.215, 2.94443, -634.07, 0.0105778, 0.602341, 0.993198, 0.349787, 0.651995, 3, 91, 246, 45.4258, 0.233587, 1.42423, 124295
-6389.48, 413316, -540.834, 3.21473, -678.569, 0.0523094, 0.638224, 0.958125, 0.351078, 0.648177, 0.0001, 182, 246, 45.4258, 0.233587, 1.06028, 124295
-6389.48, 413316, -540.834, 3.21473, -678.569, 0.0523094, 0.638224, 0.958125, 0.351078, 0.648177, 3, 182, 246, 45.4258, 0.233587, 1.06345, 124295
-29778.1, 752714, -195.728, 3.18494, -1100.33, 0.324868, 0.206395, 0.993198, 0.349787, 0.651995, 3, 91, 246, 30.3254, 0.0585726, 1.81717, 124296
-35187.1, 669775, -372.187, 3.24562, -1114.13, -0.0453903, 0.362232, 1.03299, 0.34851, 0.655882, 0.0001, 45.5, 246, 43.003, 0.141665, 1.47494, 124300
-35187.1, 669775, -372.187, 3.24562, -1114.13, -0.0453903, 0.362232, 1.03299, 0.34851, 0.655882, 3, 45.5, 246, 43.003, 0.141665, 1.47008, 124300
-17118.8, 366534, -377.088, 2.64042, -830.521, 0.183527, 0.528654, 1.03299, 0.34851, 0.655882, 3, 45.5, 246, 46.2608, 0.218359, 1.39425, 124303
-11592.8, 385633, -430.302, 2.89209, -887.4, 0.223587, 0.543003, 0.993198, 0.349787, 0.651995, 0.0001, 91, 246, 46.2608, 0.218359, 1.28243, 124303
-11592.8, 385633, -430.302, 2.89209, -887.4, 0.223587, 0.543003, 0.993198, 0.349787, 0.651995, 3, 91, 246, 46.2608, 0.218359, 1.503, 124303
-10871.7, 480122, -280.377, 0.620463, -782.213, 0.530782, 0.481892, 1.03299, 0.34851, 0.655882, 3, 45.5, 246, 32.2854, 0.138997, 1.3858, 124306
-5702.01, 209337, -218.021, 2.18469, -1319.12, 0.748132, 0.380091, 0.958125, 0.351078, 0.648177, 3, 182, 246, 39.6277, 0.197087, 1.04049, 124308
-14064.4, 451063, -206.193, 1.09976, -668.898, 0.333656, 0.406771, 1.03299, 0.34851, 0.655882, 3, 45.5, 246, 26.7452, 0.109647, 1.44673, 124309
-39872, 837752, -225.637, 2.63428, -1025.15, 0.0308844, 0.274095, 1.03299, 0.34851, 0.655882, 0.0001, 45.5, 246, 32.9093, 0.0746229, 1.33479, 124310
-39872, 837752, -225.637, 2.63428, -1025.15, 0.0308844, 0.274095, 1.03299, 0.34851, 0.655882, 3, 45.5, 246, 32.9093, 0.0746229, 1.53981, 124310
-30031.6, 858128, -268.522, 2.84049, -1050.65, 0.0641068, 0.267127, 0.993198, 0.349787, 0.651995, 3, 91, 246, 32.9093, 0.0746229, 1.7013, 124310
-16091.6, 472968, -308.366, 1.75459, -1077.14, 0.333065, 0.478012, 1.03299, 0.34851, 0.655882, 3, 45.5, 246, 40.5016, 0.155311, 1.39616, 124311
-27327.9, 626226, -210.616, 2.09579, -580.763, 0.0986797, 0.333771, 1.03299, 0.34851, 0.655882, 3, 45.5, 246, 23.6185, 0.0839237, 1.48598, 124312
-31200, 832018, -101.584, 1.7212, -733.238, 0.416083, 0.296232, 1.03299, 0.34851, 0.655882, 3, 45.5, 246, 21.0671, 0.0327225, 1.49898, 124313
-8669.03, 140495, -31.5113, 2.16892, -1205.54, 0.509324, 0.256484, 0.958125, 0.351078, 0.648177, 0.0001, 182, 246, 13.2386, 0.0282516, 1.08121, 124314
-13529.7, 375314, -328.077, 1.54743, -809.397, -0.0109223, 0.56643, 1.03299, 0.34851, 0.655882, 3, 45.5, 246, 42.0295, 0.213255, 1.34217, 124315
-29096.2, 662409, -298.589, 3.32593, -619.318, 0.798502, 0.249808, 0.993198, 0.349787, 0.651995, 3, 91, 246, 24.3181, 0.0886645, 1.75677, 124317
-25354.2, 662784, -49.9217, 2.47491, -686.686, 0.282399, 0.22252, 0.993198, 0.349787, 0.651995, 3, 91, 246, 16.3954, 0.0182615, 1.76333, 124318
-13709, 299638, -42.8543, 1.53273, -961.284, 0.0450562, 0.311848, 1.03299, 0.34851, 0.655882, 3, 45.5, 246, 20.7173, 0.0434207, 1.53039, 124319
-23290, 849278, -387.653, 1.34261, -995.123, 0.51649, 0.48083, 1.03299, 0.34851, 0.655882, 3, 45.5, 246, 36.778, 0.109826, 1.36656, 124321
-9674.95, 422208, -283.239, 0.358522, -637.277, 0.68603, 0.505555, 1.03299, 0.34851, 0.655882, 3, 45.5, 246, 31.1166, 0.157318, 1.39568, 124324
-16827.9, 328493, -306.913, 3.01192, -990.968, 0.674361, 0.380496, 1.03299, 0.34851, 0.655882, 0.0001, 45.5, 246, 43.4295, 0.175452, 1.53323, 124325
-16827.9, 328493, -306.913, 3.01192, -990.968, 0.674361, 0.380496, 1.03299, 0.34851, 0.655882, 3, 45.5, 246, 43.4295, 0.175452, 1.53343, 124325
-11388.6, 362941, -365.024, 3.40585, -1143.21, 0.805322, 0.393834, 0.993198, 0.349787, 0.651995, 0.0001, 91, 246, 43.4295, 0.175452, 1.60681, 124325
-11388.6, 362941, -365.024, 3.40585, -1143.21, 0.805322, 0.393834, 0.993198, 0.349787, 0.651995, 3, 91, 246, 43.4295, 0.175452, 1.34314, 124325
-4004.88, 410654, -441.363, 3.90855, -1357.66, 0.989928, 0.428568, 0.958125, 0.351078, 0.648177, 0.0001, 182, 246, 43.4295, 0.175452, 1.23093, 124325
-4004.88, 410654, -441.363, 3.90855, -1357.66, 0.989928, 0.428568, 0.958125, 0.351078, 0.648177, 3, 182, 246, 43.4295, 0.175452, 1.23554, 124325
-14516, 235614, -207.793, 2.80645, -532.881, 0.54933, 0.300857, 1.03299, 0.34851, 0.655882, 0.0001, 45.5, 246, 31.4148, 0.14084, 1.6165, 124327
-14516, 235614, -207.793, 2.80645, -532.881, 0.54933, 0.300857, 1.03299, 0.34851, 0.655882, 3, 45.5, 246, 31.4148, 0.14084, 1.13207, 124327
-11260.8, 249048, -239.904, 3.12963, -603.638, 0.643853, 0.301585, 0.993198, 0.349787, 0.651995, 0.0001, 91, 246, 31.4148, 0.14084, 1.49036, 124327
-11260.8, 249048, -239.904, 3.12963, -603.638, 0.643853, 0.301585, 0.993198, 0.349787, 0.651995, 3, 91, 246, 31.4148, 0.14084, 1.67796, 124327
-17310.4, 745221, -465.315, 0.625914, -550.826, 0.749356, 0.578511, 1.03299, 0.34851, 0.655882, 0.0001, 45.5, 246, 30.1103, 0.140725, 1.26743, 124329
-17310.4, 745221, -465.315, 0.625914, -550.826, 0.749356, 0.578511, 1.03299, 0.34851, 0.655882, 3, 45.5, 246, 30.1103, 0.140725, 1.35282, 124329
-15128.7, 358546, -292.39, 3.96966, -861.529, 0.00683568, 0.252929, 0.993198, 0.349787, 0.651995, 0.0001, 91, 246, 36.1557, 0.137838, 1.14647, 124331
-15128.7, 358546, -292.39, 3.96966, -861.529, 0.00683568, 0.252929, 0.993198, 0.349787, 0.651995, 3, 91, 246, 36.1557, 0.137838, 1.84446, 124331
-7779.8, 374008, -355.752, 4.38089, -903.185, 0.0835391, 0.296297, 0.958125, 0.351078, 0.648177, 0.0001, 182, 246, 36.1557, 0.137838, 1.04461, 124331
-7779.8, 374008, -355.752, 4.38089, -903.185, 0.0835391, 0.296297, 0.958125, 0.351078, 0.648177, 3, 182, 246, 36.1557, 0.137838, 1.04939, 124331
-37977, 649426, -354.43, 3.13178, -654.006, 0.194354, 0.3272, 1.03299, 0.34851, 0.655882, 0.0001, 45.5, 246, 32.4493, 0.128255, 1.28186, 124333
-37977, 649426, -354.43, 3.13178, -654.006, 0.194354, 0.3272, 1.03299, 0.34851, 0.655882, 3, 45.5, 246, 32.4493, 0.128255, 1.28333, 124333
-28113.2, 665846, -406.038, 3.44666, -710.678, 0.249501, 0.338934, 0.993198, 0.349787, 0.651995, 0.0001, 91, 246, 32.4493, 0.128255, 1.38892, 124333
-28113.2, 665846, -406.038, 3.44666, -710.678, 0.249501, 0.338934, 0.993198, 0.349787, 0.651995, 3, 91, 246, 32.4493, 0.128255, 1.62313, 124333
-18186.8, 491882, -356.489, 3.27065, -882.243, 0.172102, 0.363127, 0.993198, 0.349787, 0.651995, 0.0001, 91, 246, 37.0365, 0.14526, 1.17565, 124334
-18186.8, 491882, -356.489, 3.27065, -882.243, 0.172102, 0.363127, 0.993198, 0.349787, 0.651995, 3, 91, 246, 37.0365, 0.14526, 1.51671, 124334
-5931.81, -44071.8, -0.843977, 3.56844, -672.992, 0.0902444, 0.188303, 1.03299, 0.34851, 0.655882, 0.0001, 45.5, 246, 13.266, 0.00704212, 2.40494, 124336
-5931.81, -44071.8, -0.843977, 3.56844, -672.992, 0.0902444, 0.188303, 1.03299, 0.34851, 0.655882, 3, 45.5, 246, 13.266, 0.00704212, 2.40464, 124336
-6737.08, -36638.1, -24.2415, 3.92388, -687.206, 0.154082, 0.205475, 0.993198, 0.349787, 0.651995, 0.0001, 91, 246, 13.266, 0.00704212, 2.12642, 124336
-6737.08, -36638.1, -24.2415, 3.92388, -687.206, 0.154082, 0.205475, 0.993198, 0.349787, 0.651995, 3, 91, 246, 13.266, 0.00704212, 2.12296, 124336
-23951.9, 476161, -178.953, 2.49371, -652.366, 0.0304322, 0.295731, 1.03299, 0.34851, 0.655882, 0.0001, 45.5, 246, 25.209, 0.0900116, 1.54608, 124338
-23951.9, 476161, -178.953, 2.49371, -652.366, 0.0304322, 0.295731, 1.03299, 0.34851, 0.655882, 3, 45.5, 246, 25.209, 0.0900116, 1.54886, 124338
-18715.4, 484649, -207.63, 2.68306, -670.219, 0.0601442, 0.286629, 0.993198, 0.349787, 0.651995, 0.0001, 91, 246, 25.209, 0.0900116, 1.08027, 124338
-13132.5, 369523, -171.321, 1.47554, -1062.85, 0.0883803, 0.384729, 1.03299, 0.34851, 0.655882, 3, 45.5, 246, 32.6682, 0.114331, 1.4724, 124339
-21794.8, 545499, -431.967, 1.99263, -806.4, 0.202877, 0.590865, 1.03299, 0.34851, 0.655882, 3, 45.5, 246, 41.7718, 0.190243, 1.30391, 124341
-15538.1, 566934, -478.898, 2.16111, -859.654, 0.229146, 0.596098, 0.993198, 0.349787, 0.651995, 0.0001, 91, 246, 41.7718, 0.190243, 1.05829, 124341
-15538.1, 566934, -478.898, 2.16111, -859.654, 0.229146, 0.596098, 0.993198, 0.349787, 0.651995, 3, 91, 246, 41.7718, 0.190243, 1.3824, 124341
-7941.05, 592354, -532.583, 2.35102, -924.108, 0.260922, 0.611181, 0.958125, 0.351078, 0.648177, 3, 182, 246, 41.7718, 0.190243, 1.05267, 124341
-20400.6, 433797, -193.475, 2.44523, -1038.61, 0.382977, 0.317401, 1.03299, 0.34851, 0.655882, 0.0001, 45.5, 246, 33.4289, 0.103618, 1.01972, 124344
-20400.6, 433797, -193.475, 2.44523, -1038.61, 0.382977, 0.317401, 1.03299, 0.34851, 0.655882, 3, 45.5, 246, 33.4289, 0.103618, 1.54003, 124344
-15262.9, 916912, -304.536, 0.617215, -801.594, 0.379136, 0.428307, 1.03299, 0.34851, 0.655882, 3, 45.5, 246, 28.7977, 0.0810347, 1.38708, 124345
-17058.8, 465289, -219.7, 1.84812, -1055.63, 0.00805707, 0.38965, 1.03299, 0.34851, 0.655882, 3, 45.5, 246, 34.9976, 0.118856, 1.4565, 124346
-15989.2, 332834, -333.539, 2.46465, -663.734, 0.00232304, 0.49695, 1.03299, 0.34851, 0.655882, 0.0001, 45.5, 246, 42.2362, 0.212136, 1.41307, 124348
-11518.9, 342733, -375.613, 2.66122, -689.395, 0.0311797, 0.503375, 0.993198, 0.349787, 0.651995, 0.0001, 91, 246, 42.2362, 0.212136, 1.24588, 124348
-11518.9, 342733, -375.613, 2.66122, -689.395, 0.0311797, 0.503375, 0.993198, 0.349787, 0.651995, 3, 91, 246, 42.2362, 0.212136, 1.52404, 124348
-9075.64, 117874, -80.7518, 3.688, -963.129, 0.00407631, 0.190049, 0.993198, 0.349787, 0.651995, 3, 91, 246, 23.2389, 0.0722941, 1.97514, 124349
-14533.5, 256961, -294.619, 3.02229, -584.627, 0.355855, 0.369915, 1.03299, 0.34851, 0.655882, 0.0001, 45.5, 246, 40.3886, 0.189543, 1.56943, 124352
-14533.5, 256961, -294.619, 3.02229, -584.627, 0.355855, 0.369915, 1.03299, 0.34851, 0.655882, 3, 45.5, 246, 40.3886, 0.189543, 1.22629, 124352
-10323.9, 270063, -338.209, 3.35346, -648.97, 0.42429, 0.381874, 0.993198, 0.349787, 0.651995, 0.0001, 91, 246, 40.3886, 0.189543, 1.10029, 124352
-10323.9, 270063, -338.209, 3.35346, -648.97, 0.42429, 0.381874, 0.993198, 0.349787, 0.651995, 3, 91, 246, 40.3886, 0.189543, 1.10279, 124352
-5028.81, 287120, -391.989, 3.7554, -734.017, 0.514166, 0.412443, 0.958125, 0.351078, 0.648177, 0.0001, 182, 246, 40.3886, 0.189543, 1.27862, 124352
-5028.81, 287120, -391.989, 3.7554, -734.017, 0.514166, 0.412443, 0.958125, 0.351078, 0.648177, 3, 182, 246, 40.3886, 0.189543, 1.28087, 124352
-22962.4, 458081, -288.075, 2.65332, -931.89, 0.705351, 0.366237, 1.03299, 0.34851, 0.655882, 3, 45.5, 246, 36.7823, 0.132088, 1.49566, 124353
-16777.5, 495630, -336.739, 2.983, -1076.32, 0.833028, 0.367799, 0.993198, 0.349787, 0.651995, 0.0001, 91, 246, 36.7823, 0.132088, 1.22534, 124353
-16777.5, 495630, -336.739, 2.983, -1076.32, 0.833028, 0.367799, 0.993198, 0.349787, 0.651995, 3, 91, 246, 36.7823, 0.132088, 1.43013, 124353
-8843.63, 156538, -174.696, 3.98054, -722.864, 0.000963027, 0.192756, 0.993198, 0.349787, 0.651995, 0.0001, 91, 246, 31.3155, 0.113973, 2.0359, 124354
-8843.63, 156538, -174.696, 3.98054, -722.864, 0.000963027, 0.192756, 0.993198, 0.349787, 0.651995, 3, 91, 246, 31.3155, 0.113973, 2.03581, 124354
-234.251, 183489, -298.443, 5.08167, -814.427, 0.211529, 0.326603, 0.9175, 0.352806, 0.64323, 0.0001, 455, 246, 31.3155, 0.113973, 2.40436, 124354
-234.251, 183489, -298.443, 5.08167, -814.427, 0.211529, 0.326603, 0.9175, 0.352806, 0.64323, 3, 455, 246, 31.3155, 0.113973, 2.41003, 124354
-18231.7, 856435, -281.878, 0.907966, -809.047, 0.0658958, 0.420703, 1.03299, 0.34851, 0.655882, 3, 45.5, 246, 29.1428, 0.0858689, 1.40982, 124357
-4455.28, 88796.4, -182.706, 3.54704, -1175.71, 0.228141, 0.280985, 0.958125, 0.351078, 0.648177, 0.0001, 182, 246, 40.0445, 0.136833, 1.00652, 124358
-4455.28, 88796.4, -182.706, 3.54704, -1175.71, 0.228141, 0.280985, 0.958125, 0.351078, 0.648177, 3, 182, 246, 40.0445, 0.136833, 1.01114, 124358
-1613.39, 126395, -262.503, 4.06547, -1275.36, 0.327803, 0.331351, 0.9175, 0.352806, 0.64323, 0.0001, 455, 246, 40.0445, 0.136833, 1.55896, 124358
-1613.39, 126395, -262.503, 4.06547, -1275.36, 0.327803, 0.331351, 0.9175, 0.352806, 0.64323, 3, 455, 246, 40.0445, 0.136833, 1.56145, 124358
-20246.7, 400728, -64.6717, 2.24699, -714.223, 0.0754381, 0.264169, 1.03299, 0.34851, 0.655882, 3, 45.5, 246, 18.9902, 0.0442177, 1.58041, 124360
-14451.6, 238812, -115.679, 2.51332, -880.513, 0.799958, 0.271664, 1.03299, 0.34851, 0.655882, 0.0001, 45.5, 246, 27.4948, 0.091599, 1.1134, 124363
-10284.5, 322011, -245.934, 0.812246, -757.134, 0.119903, 0.508977, 1.03299, 0.34851, 0.655882, 3, 45.5, 246, 36.1721, 0.192448, 1.37749, 124364
-7066.28, 349878, -281.184, 0.900148, -799.862, 0.131313, 0.475046, 0.958125, 0.351078, 0.648177, 3, 182, 246, 36.1721, 0.192448, 1.07205, 124364
-19862.1, 867837, -180.253, 0.938645, -735.499, 0.240915, 0.362314, 1.03299, 0.34851, 0.655882, 3, 45.5, 246, 23.6078, 0.0530788, 1.44971, 124365
-14889.1, 699363, -299.309, 0.869528, -878.535, 0.142574, 0.454367, 1.03299, 0.34851, 0.655882, 3, 45.5, 246, 32.3978, 0.109279, 1.39308, 124366
-13923.7, 406363, -182.355, 1.36114, -845.493, 0.00262445, 0.391029, 1.03299, 0.34851, 0.655882, 3, 45.5, 246, 29.5428, 0.112536, 1.45664, 124368
-21067.6, 560968, -91.2889, 1.6301, -997.989, 0.610493, 0.308179, 1.03299, 0.34851, 0.655882, 3, 45.5, 246, 25.7393, 0.0427212, 1.51019, 124370
-18785.3, 425875, -354.889, 2.6955, -1052.56, -0.0343131, 0.488311, 1.03299, 0.34851, 0.655882, 0.0001, 45.5, 246, 46.0404, 0.193392, 1.39689, 124371
-18785.3, 425875, -354.889, 2.6955, -1052.56, -0.0343131, 0.488311, 1.03299, 0.34851, 0.655882, 3, 45.5, 246, 46.0404, 0.193392, 1.40408, 124371
-12613.1, 447162, -411.701, 2.91725, -1077.92, 0.000279548, 0.499918, 0.993198, 0.349787, 0.651995, 3, 91, 246, 46.0404, 0.193392, 1.50529, 124371
-7917.67, 10466.6, -16.1759, 3.19333, -746.159, 0.0338293, 0.230082, 0.993198, 0.349787, 0.651995, 0.0001, 91, 246, 10.701, 0.0396502, 1.54174, 124373
-7917.67, 10466.6, -16.1759, 3.19333, -746.159, 0.0338293, 0.230082, 0.993198, 0.349787, 0.651995, 3, 91, 246, 10.701, 0.0396502, 1.53664, 124373
-7640.71, 236456, -148.298, 0.416293, -1040.95, 0.367108, 0.350593, 0.9175, 0.352806, 0.64323, 3, 455, 246, 31.8741, 0.192597, 1.23458, 124374
-21475.1, 610022, -393.543, 1.57328, -697.103, 0.253406, 0.536975, 1.03299, 0.34851, 0.655882, 3, 45.5, 246, 35.2027, 0.157275, 1.34216, 124376
-15826, 833274, -353.581, 0.875396, -1012.96, 0.0326826, 0.480608, 1.03299, 0.34851, 0.655882, 3, 45.5, 246, 36.3422, 0.111088, 1.38845, 124377
-4614.11, 27335.2, -121.406, 3.07682, -745.688, 0.807428, 0.220265, 1.03299, 0.34851, 0.655882, 0.0001, 45.5, 246, 46.0946, 0.0689862, 1.24619, 124379
-4614.11, 27335.2, -121.406, 3.07682, -745.688, 0.807428, 0.220265, 1.03299, 0.34851, 0.655882, 3, 45.5, 246, 46.0946, 0.0689862, 1.24891, 124379
-4066.04, 40385.5, -155.794, 3.49676, -870.876, 0.979827, 0.224679, 0.993198, 0.349787, 0.651995, 0.0001, 91, 246, 46.0946, 0.0689862, 2.00289, 124379
-4066.04, 40385.5, -155.794, 3.49676, -870.876, 0.979827, 0.224679, 0.993198, 0.349787, 0.651995, 3, 91, 246, 46.0946, 0.0689862, 2.00276, 124379
-3047.9, 59696.9, -203.147, 4.04608, -1055.08, 1.23316, 0.251675, 0.958125, 0.351078, 0.648177, 0.0001, 182, 246, 46.0946, 0.0689862, 1.29503, 124379
-3047.9, 59696.9, -203.147, 4.04608, -1055.08, 1.23316, 0.251675, 0.958125, 0.351078, 0.648177, 3, 182, 246, 46.0946, 0.0689862, 1.2966, 124379
-247.375, 105767, -302.743, 5.13408, -1487.64, 1.82573, 0.337565, 0.9175, 0.352806, 0.64323, 0.0001, 455, 246, 46.0946, 0.0689862, 2.02231, 124379
-247.375, 105767, -302.743, 5.13408, -1487.64, 1.82573, 0.337565, 0.9175, 0.352806, 0.64323, 3, 455, 246, 46.0946, 0.0689862, 2.02206, 124379
-20968.2, 408076, -251.038, 2.52932, -711.453, 0.562886, 0.346533, 1.03299, 0.34851, 0.655882, 3, 45.5, 246, 31.6654, 0.127148, 1.52353, 124380
-15917.6, 431898, -288.553, 2.81079, -802.735, 0.65216, 0.342949, 0.993198, 0.349787, 0.651995, 0.0001, 91, 246, 31.6654, 0.127148, 1.18199, 124380
-15917.6, 431898, -288.553, 2.81079, -802.735, 0.65216, 0.342949, 0.993198, 0.349787, 0.651995, 3, 91, 246, 31.6654, 0.127148, 1.6595, 124380
-14315.9, 762210, -348.269, 0.895642, -1104.78, 0.0173332, 0.489744, 1.03299, 0.34851, 0.655882, 3, 45.5, 246, 38.5501, 0.119549, 1.38527, 124381
-16585.8, 312486, -114.408, 2.27035, -706.106, 0.257964, 0.288596, 1.03299, 0.34851, 0.655882, 3, 45.5, 246, 23.429, 0.0809367, 1.57601, 124383
-18835.3, 428770, -319.554, 1.83112, -536.203, 0.681381, 0.466403, 1.03299, 0.34851, 0.655882, 3, 45.5, 246, 31.8087, 0.1561, 1.41849, 124384
-33903.4, 917029, -7.08475, 1.67463, -612.382, 0.0349254, 0.285262, 1.03299, 0.34851, 0.655882, 3, 45.5, 246, 14.9806, 0.00560115, 1.50068, 124385
-9359, 184018, -152.082, 1.31644, -1060.52, 0.600738, 0.41791, 1.03299, 0.34851, 0.655882, 3, 45.5, 246, 36.4139, 0.177937, 1.47039, 124386
-15663.4, 415318, -288.912, 2.64225, -609.255, 0.118259, 0.366252, 0.993198, 0.349787, 0.651995, 0.0001, 91, 246, 30.6231, 0.139076, 1.1161, 124387
-15663.4, 415318, -288.912, 2.64225, -609.255, 0.118259, 0.366252, 0.993198, 0.349787, 0.651995, 3, 91, 246, 30.6231, 0.139076, 1.29963, 124387
-13754, 329985, -285.614, 2.14056, -1053.26, 0.66143, 0.460469, 1.03299, 0.34851, 0.655882, 3, 45.5, 246, 42.636, 0.180783, 1.45296, 124390
-9836.6, 366323, -329.189, 2.38199, -1197.66, 0.763674, 0.456928, 0.993198, 0.349787, 0.651995, 0.0001, 91, 246, 42.636, 0.180783, 1.02878, 124390
-5580.54, 142009, -271.201, 3.42063, -976.942, 0.319324, 0.338184, 1.03299, 0.34851, 0.655882, 0.0001, 45.5, 246, 55.7791, 0.234943, 1.66795, 124391
-5580.54, 142009, -271.201, 3.42063, -976.942, 0.319324, 0.338184, 1.03299, 0.34851, 0.655882, 3, 45.5, 246, 55.7791, 0.234943, 1.66943, 124391
-2474.73, 164405, -330.598, 3.81492, -1062.89, 0.396762, 0.360971, 0.993198, 0.349787, 0.651995, 0.0001, 91, 246, 55.7791, 0.234943, 2.11035, 124391
-2474.73, 164405, -330.598, 3.81492, -1062.89, 0.396762, 0.360971, 0.993198, 0.349787, 0.651995, 3, 91, 246, 55.7791, 0.234943, 2.10671, 124391
-26578.2, 730373, -271.01, 2.7105, -750.846, 0.283619, 0.28907, 0.993198, 0.349787, 0.651995, 0.0001, 91, 246, 26.7542, 0.0829053, 1.11767, 124393
-26578.2, 730373, -271.01, 2.7105, -750.846, 0.283619, 0.28907, 0.993198, 0.349787, 0.651995, 3, 91, 246, 26.7542, 0.0829053, 1.67312, 124393
-28306.5, 629470, -116.765, 2.00356, -602.666, 0.764299, 0.281305, 1.03299, 0.34851, 0.655882, 3, 45.5, 246, 18.9369, 0.0433337, 1.53513, 124394
-8609.23, 369550, -328.143, 0.539008, -1060.86, 0.0831457, 0.631373, 1.03299, 0.34851, 0.655882, 3, 45.5, 246, 45.5181, 0.236317, 1.28207, 124395
-18960, 586751, -407.647, 1.42495, -741.459, -0.00872459, 0.5856, 1.03299, 0.34851, 0.655882, 3, 45.5, 246, 38.1361, 0.177971, 1.29574, 124396
-18397.1, 398625, -130.145, 3.21364, -670.339, 0.000954442, 0.205757, 0.993198, 0.349787, 0.651995, 0.0001, 91, 246, 21.2198, 0.0631303, 1.40675, 124397
-18397.1, 398625, -130.145, 3.21364, -670.339, 0.000954442, 0.205757, 0.993198, 0.349787, 0.651995, 3, 91, 246, 21.2198, 0.0631303, 1.3652, 124397
-8092.51, 9447.51, -3.00592, 3.07512, -1058.31, 0.0380393, 0.239912, 0.993198, 0.349787, 0.651995, 0.0001, 91, 246, 8.58057, 0.050025, 1.35543, 124398
-8092.51, 9447.51, -3.00592, 3.07512, -1058.31, 0.0380393, 0.239912, 0.993198, 0.349787, 0.651995, 3, 91, 246, 8.58057, 0.050025, 1.10823, 124398
-6466.53, 134689, -237.567, 3.56187, -928.742, -0.005516, 0.28474, 1.03299, 0.34851, 0.655882, 0.0001, 45.5, 246, 51.1208, 0.20624, 1.67828, 124399
-6466.53, 134689, -237.567, 3.56187, -928.742, -0.005516, 0.28474, 1.03299, 0.34851, 0.655882, 3, 45.5, 246, 51.1208, 0.20624, 1.68024, 124399
-3642.52, 151357, -292.474, 3.90611, -958.342, 0.0557021, 0.307605, 0.993198, 0.349787, 0.651995, 0.0001, 91, 246, 51.1208, 0.20624, 2.05202, 124399
-3642.52, 151357, -292.474, 3.90611, -958.342, 0.0557021, 0.307605, 0.993198, 0.349787, 0.651995, 3, 91, 246, 51.1208, 0.20624, 1.67844, 124399
142.709, 170775, -359.293, 4.32341, -1007.85, 0.131237, 0.352281, 0.958125, 0.351078, 0.648177, 0.0001, 182, 246, 51.1208, 0.20624, 2.64202, 124399
142.709, 170775, -359.293, 4.32341, -1007.85, 0.131237, 0.352281, 0.958125, 0.351078, 0.648177, 3, 182, 246, 51.1208, 0.20624, 2.64321, 124399
-12373.3, 330922, -271.752, 1.47292, -794.138, -0.010124, 0.508754, 1.03299, 0.34851, 0.655882, 3, 45.5, 246, 39.0559, 0.197927, 1.37892, 124400
-20629.5, 490061, -111.715, 2.93615, -787.118, 0.000207868, 0.214185, 0.993198, 0.349787, 0.651995, 0.0001, 91, 246, 21.7815, 0.0493596, 1.18306, 124403
-20629.5, 490061, -111.715, 2.93615, -787.118, 0.000207868, 0.214185, 0.993198, 0.349787, 0.651995, 3, 91, 246, 21.7815, 0.0493596, 1.82267, 124403
-12639.8, 179234, -40.3172, 2.39612, -942.447, -0.0144446, 0.264055, 1.03299, 0.34851, 0.655882, 3, 45.5, 246, 20.7759, 0.0593843, 1.61973, 124405
-16437.9, 472274, -372.642, 1.63147, -844.16, 0.10394, 0.573089, 1.03299, 0.34851, 0.655882, 3, 45.5, 246, 41.363, 0.193544, 1.3206, 124410
-9009.61, 64067.1, -14.3596, 2.29253, -739.97, 0.467438, 0.262912, 0.993198, 0.349787, 0.651995, 0.0001, 91, 246, 10.4174, 0.033118, 1.47836, 124411
-9009.61, 64067.1, -14.3596, 2.29253, -739.97, 0.467438, 0.262912, 0.993198, 0.349787, 0.651995, 3, 91, 246, 10.4174, 0.033118, 1.47871, 124411
-12687.3, 182590, -1.23043, 3.68551, -823.446, 0.0821782, 0.155872, 0.993198, 0.349787, 0.651995, 0.0001, 91, 246, 12.1362, 0.0137187, 1.93256, 124412
-12687.3, 182590, -1.23043, 3.68551, -823.446, 0.0821782, 0.155872, 0.993198, 0.349787, 0.651995, 3, 91, 246, 12.1362, 0.0137187, 2.04726, 124412
-22970.5, 401275, -230.542, 3.11399, -716.729, -0.0375558, 0.279842, 1.03299, 0.34851, 0.655882, 0.0001, 45.5, 246, 31.6881, 0.124929, 1.28331, 124413
-22970.5, 401275, -230.542, 3.11399, -716.729, -0.0375558, 0.279842, 1.03299, 0.34851, 0.655882, 3, 45.5, 246, 31.6881, 0.124929, 1.28667, 124413
-17152.9, 410164, -271.799, 3.37785, -736.445, 0.00868906, 0.287001, 0.993198, 0.349787, 0.651995, 0.0001, 91, 246, 31.6881, 0.124929, 1.38036, 124413
-17152.9, 410164, -271.799, 3.37785, -736.445, 0.00868906, 0.287001, 0.993198, 0.349787, 0.651995, 3, 91, 246, 31.6881, 0.124929, 1.41986, 124413
-23822.7, 804548, -344.37, 1.52226, -961.293, 0.00747742, 0.458538, 1.03299, 0.34851, 0.655882, 3, 45.5, 246, 35.8105, 0.113141, 1.37316, 124415
-18300.7, 530370, -313.796, 2.53997, -806.445, 0.948936, 0.364874, 0.993198, 0.349787, 0.651995, 0.0001, 91, 246, 30.156, 0.116507, 1.1359, 124416
-35900.3, 642217, -398.447, 3.22636, -953.138, 0.350007, 0.369174, 1.03299, 0.34851, 0.655882, 0.0001, 45.5, 246, 40.7303, 0.144409, 1.4724, 124417
-35900.3, 642217, -398.447, 3.22636, -953.138, 0.350007, 0.369174, 1.03299, 0.34851, 0.655882, 3, 45.5, 246, 40.7303, 0.144409, 1.47075, 124417
-25287.2, 674616, -466.107, 3.59347, -1052.91, 0.424486, 0.387713, 0.993198, 0.349787, 0.651995, 0.0001, 91, 246, 40.7303, 0.144409, 1.36234, 124417
-18490.9, 344703, -362.649, 3.44853, -842.439, -0.0242364, 0.411433, 1.03299, 0.34851, 0.655882, 0.0001, 45.5, 246, 46.7594, 0.206263, 1.49405, 124418
-18490.9, 344703, -362.649, 3.44853, -842.439, -0.0242364, 0.411433, 1.03299, 0.34851, 0.655882, 3, 45.5, 246, 46.7594, 0.206263, 1.14658, 124418
-11995.6, 359514, -426.275, 3.78279, -880.415, 0.0330779, 0.439997, 0.993198, 0.349787, 0.651995, 0.0001, 91, 246, 46.7594, 0.206263, 1.11038, 124418
-11995.6, 359514, -426.275, 3.78279, -880.415, 0.0330779, 0.439997, 0.993198, 0.349787, 0.651995, 3, 91, 246, 46.7594, 0.206263, 1.11228, 124418
-3894.29, 378506, -503.424, 4.18674, -938.695, 0.103367, 0.489992, 0.958125, 0.351078, 0.648177, 0.0001, 182, 246, 46.7594, 0.206263, 1.47299, 124418
-3894.29, 378506, -503.424, 4.18674, -938.695, 0.103367, 0.489992, 0.958125, 0.351078, 0.648177, 3, 182, 246, 46.7594, 0.206263, 1.55657, 124418
-9290.73, 178756, -223.024, 1.64719, -716.928, 0.412405, 0.487693, 1.03299, 0.34851, 0.655882, 3, 45.5, 246, 44.0549, 0.247782, 1.4534, 124420
-16579.7, 268549, -56.1893, 2.47753, -885.629, 0.810117, 0.242821, 1.03299, 0.34851, 0.655882, 3, 45.5, 246, 21.7798, 0.0507761, 1.6357, 124422
-11078.8, 532769, -403.439, 0.486124, -763.574, 0.0953709, 0.63513, 1.03299, 0.34851, 0.655882, 3, 45.5, 246, 39.0312, 0.197096, 1.28234, 124425
-20257.7, 884249, -241.927, 1.01949, -885.085, 0.302433, 0.388222, 1.03299, 0.34851, 0.655882, 3, 45.5, 246, 29.0534, 0.0689758, 1.43204, 124427
-15184.6, 380428, -356.031, 2.08058, -924.735, 0.22442, 0.556275, 1.03299, 0.34851, 0.655882, 3, 45.5, 246, 45.2842, 0.212797, 1.37192, 124429
-10621.9, 403311, -400.831, 2.26086, -982.307, 0.254104, 0.559848, 0.993198, 0.349787, 0.651995, 0.0001, 91, 246, 45.2842, 0.212797, 1.14558, 124429
-10621.9, 403311, -400.831, 2.26086, -982.307, 0.254104, 0.559848, 0.993198, 0.349787, 0.651995, 3, 91, 246, 45.2842, 0.212797, 1.45041, 124429
-13605.5, 575021, -239.254, 0.923028, -888.197, 0.056064, 0.426195, 1.03299, 0.34851, 0.655882, 3, 45.5, 246, 31.1182, 0.107146, 1.42433, 124432
-27813.1, 479567, -288.972, 3.32713, -839.375, 0.175505, 0.283669, 1.03299, 0.34851, 0.655882, 0.0001, 45.5, 246, 35.8865, 0.132871, 1.53926, 124433
-27813.1, 479567, -288.972, 3.32713, -839.375, 0.175505, 0.283669, 1.03299, 0.34851, 0.655882, 3, 45.5, 246, 35.8865, 0.132871, 1.54213, 124433
-19024.6, 344865, -424.642, 3.44928, -788.536, 0.469999, 0.468002, 1.03299, 0.34851, 0.655882, 0.0001, 45.5, 246, 49.1814, 0.220823, 1.37353, 124434
-19024.6, 344865, -424.642, 3.44928, -788.536, 0.469999, 0.468002, 1.03299, 0.34851, 0.655882, 3, 45.5, 246, 49.1814, 0.220823, 1.20421, 124434
-11909.4, 369788, -495.317, 3.8974, -902, 0.571606, 0.503296, 0.993198, 0.349787, 0.651995, 0.0001, 91, 246, 49.1814, 0.220823, 1.1902, 124434
-11909.4, 369788, -495.317, 3.8974, -902, 0.571606, 0.503296, 0.993198, 0.349787, 0.651995, 3, 91, 246, 49.1814, 0.220823, 1.58611, 124434
-2503.23, 404130, -586.786, 4.46849, -1060.03, 0.712652, 0.566049, 0.958125, 0.351078, 0.648177, 0.0001, 182, 246, 49.1814, 0.220823, 1.87597, 124434
-2503.23, 404130, -586.786, 4.46849, -1060.03, 0.712652, 0.566049, 0.958125, 0.351078, 0.648177, 3, 182, 246, 49.1814, 0.220823, 1.87246, 124434
-9836.82, 67735, -5.3579, 2.87836, -1063.53, 0.517399, 0.222422, 1.03299, 0.34851, 0.655882, 3, 45.5, 246, 17.8893, 0.052905, 1.72096, 124437
-4337.05, 231771, -219.908, 2.26263, -862.964, 0.373139, 0.332353, 0.9175, 0.352806, 0.64323, 0.0001, 455, 246, 30.6619, 0.148299, 1.01465, 124441
-4337.05, 231771, -219.908, 2.26263, -862.964, 0.373139, 0.332353, 0.9175, 0.352806, 0.64323, 3, 455, 246, 30.6619, 0.148299, 1.03164, 124441
-18470.2, 895249, -328.705, 0.740007, -624.368, 0.556247, 0.439099, 1.03299, 0.34851, 0.655882, 3, 45.5, 246, 25.5437, 0.0862853, 1.40465, 124442
-8862.29, 146981, -196.531, 2.68698, -822.881, 0.689256, 0.336918, 1.03299, 0.34851, 0.655882, 0.0001, 45.5, 246, 41.9597, 0.184537, 1.10644, 124443
-8862.29, 146981, -196.531, 2.68698, -822.881, 0.689256, 0.336918, 1.03299, 0.34851, 0.655882, 3, 45.5, 246, 41.9597, 0.184537, 1.63808, 124443
-6705.22, 167206, -235.03, 3.01746, -943.282, 0.81354, 0.337154, 0.993198, 0.349787, 0.651995, 0.0001, 91, 246, 41.9597, 0.184537, 1.01956, 124443
-6705.22, 167206, -235.03, 3.01746, -943.282, 0.81354, 0.337154, 0.993198, 0.349787, 0.651995, 3, 91, 246, 41.9597, 0.184537, 1.02469, 124443
-3698.09, 194980, -285.032, 3.43139, -1110.09, 0.985874, 0.354257, 0.958125, 0.351078, 0.648177, 0.0001, 182, 246, 41.9597, 0.184537, 1.16136, 124443
-3698.09, 194980, -285.032, 3.43139, -1110.09, 0.985874, 0.354257, 0.958125, 0.351078, 0.648177, 3, 182, 246, 41.9597, 0.184537, 1.16622, 124443
-7037.44, 906935, -280.178, 0.559628, -1067.34, 0.241505, 0.352311, 0.958125, 0.351078, 0.648177, 3, 182, 246, 31.2702, 0.0743932, 1.05149, 124444
-11962.2, 190408, -90.7459, 2.31421, -1043.15, 0.147738, 0.296132, 1.03299, 0.34851, 0.655882, 3, 45.5, 246, 28.2482, 0.0997723, 1.58602, 124446
-7875.75, 145750, -163.173, 3.92421, -1032.22, 0.0165266, 0.206809, 0.993198, 0.349787, 0.651995, 0.0001, 91, 246, 33.9573, 0.119049, 1.67661, 124448
-7875.75, 145750, -163.173, 3.92421, -1032.22, 0.0165266, 0.206809, 0.993198, 0.349787, 0.651995, 3, 91, 246, 33.9573, 0.119049, 2.01066, 124448
-19617.9, 440280, -87.2132, 2.96431, -678.055, 4.92616e-05, 0.206691, 0.993198, 0.349787, 0.651995, 0.0001, 91, 246, 18.4174, 0.0417283, 1.19672, 124449
-19617.9, 440280, -87.2132, 2.96431, -678.055, 4.92616e-05, 0.206691, 0.993198, 0.349787, 0.651995, 3, 91, 246, 18.4174, 0.0417283, 1.84062, 124449
-16884.9, 643954, -53.4756, 0.915576, -623.5, 0.012645, 0.330585, 1.03299, 0.34851, 0.655882, 3, 45.5, 246, 16.0646, 0.0236236, 1.48509, 124450
-10052.9, 576129, -376.562, 0.284266, -693.888, 0.0271875, 0.580914, 1.03299, 0.34851, 0.655882, 3, 45.5, 246, 34.7656, 0.171699, 1.33711, 124452
-20847, 387758, -325.493, 2.98875, -737.978, 0.155753, 0.397378, 1.03299, 0.34851, 0.655882, 0.0001, 45.5, 246, 39.3625, 0.173952, 2.69161, 124453
-20847, 387758, -325.493, 2.98875, -737.978, 0.155753, 0.397378, 1.03299, 0.34851, 0.655882, 3, 45.5, 246, 39.3625, 0.173952, 2.69167, 124453
-14851.7, 402852, -375.604, 3.27919, -788.426, 0.203881, 0.409998, 0.993198, 0.349787, 0.651995, 0.0001, 91, 246, 39.3625, 0.173952, 1.4489, 124453
-14851.7, 402852, -375.604, 3.27919, -788.426, 0.203881, 0.409998, 0.993198, 0.349787, 0.651995, 3, 91, 246, 39.3625, 0.173952, 1.20297, 124453
-18186.2, 944921, -319.623, 0.821678, -825.713, -0.00289057, 0.439957, 1.03299, 0.34851, 0.655882, 3, 45.5, 246, 30.3924, 0.0893783, 1.38869, 124454
-11123.8, 345418, -341.678, 0.716113, -630.815, 0.638204, 0.626791, 1.03299, 0.34851, 0.655882, 3, 45.5, 246, 39.9084, 0.231884, 1.32095, 124455
-22670.8, 703057, -119.863, 1.46793, -1043.21, 0.427495, 0.324084, 1.03299, 0.34851, 0.655882, 3, 45.5, 246, 28.0962, 0.0450952, 1.48511, 124456
-14032.5, 195884, 15.6295, 2.31553, -788.71, 0.238756, 0.252005, 1.03299, 0.34851, 0.655882, 3, 45.5, 246, 11.9815, 0.0102141, 1.62815, 124457
-11962.4, 165459, -100.522, 2.73219, -701.697, 0.0185382, 0.259328, 1.03299, 0.34851, 0.655882, 3, 45.5, 246, 25.8338, 0.100721, 1.65351, 124459
-24925.7, 721690, -105.323, 2.46179, -1185.94, 0.845644, 0.234337, 0.993198, 0.349787, 0.651995, 3, 91, 246, 26.7184, 0.0330506, 1.74654, 124460
-33008.1, 860266, -28.234, 1.76034, -787.124, 0.150668, 0.281173, 1.03299, 0.34851, 0.655882, 3, 45.5, 246, 19.6239, 0.0131008, 1.5095, 124461
-10848.1, 248748, -303.468, 2.57263, -1064.29, 0.373416, 0.492646, 1.03299, 0.34851, 0.655882, 3, 45.5, 246, 50.3432, 0.23645, 1.47691, 124466
-7058.09, 277396, -355.564, 2.84156, -1158.1, 0.430986, 0.502114, 0.993198, 0.349787, 0.651995, 0.0001, 91, 246, 50.3432, 0.23645, 1.34152, 124466
-7058.09, 277396, -355.564, 2.84156, -1158.1, 0.430986, 0.502114, 0.993198, 0.349787, 0.651995, 3, 91, 246, 50.3432, 0.23645, 1.58823, 124466
-2004.83, 312990, -419.274, 3.16113, -1278.32, 0.504867, 0.526183, 0.958125, 0.351078, 0.648177, 0.0001, 182, 246, 50.3432, 0.23645, 1.23236, 124466
-2004.83, 312990, -419.274, 3.16113, -1278.32, 0.504867, 0.526183, 0.958125, 0.351078, 0.648177, 3, 182, 246, 50.3432, 0.23645, 1.24183, 124466
-25941, 645295, -408.743, 1.85762, -700.499, 0.476308, 0.519445, 1.03299, 0.34851, 0.655882, 3, 45.5, 246, 34.7944, 0.14714, 1.34054, 124469
-23227.1, 465367, -98.0879, 2.35796, -707.482, 0.106804, 0.263704, 1.03299, 0.34851, 0.655882, 3, 45.5, 246, 21.021, 0.0545193, 1.57586, 124472
-24155.2, 652310, -356.757, 1.95889, -973.341, 0.267947, 0.468516, 1.03299, 0.34851, 0.655882, 3, 45.5, 246, 38.2669, 0.134768, 1.38225, 124474
-12318.2, 261152, -66.8775, 1.32193, -800.592, 0.835336, 0.327324, 1.03299, 0.34851, 0.655882, 3, 45.5, 246, 20.5794, 0.0581685, 1.52071, 124475
-10269.4, 337994, -298.546, 0.784533, -800.316, 0.477483, 0.570907, 1.03299, 0.34851, 0.655882, 3, 45.5, 246, 39.9273, 0.213945, 1.34224, 124477
-27223.2, 525273, -334.04, 2.70541, -711.862, 0.377501, 0.387149, 1.03299, 0.34851, 0.655882, 3, 45.5, 246, 34.461, 0.141147, 1.46779, 124479
-20080.5, 547652, -380.503, 2.98796, -786.755, 0.439246, 0.391124, 0.993198, 0.349787, 0.651995, 0.0001, 91, 246, 34.461, 0.141147, 1.50585, 124479
-20080.5, 547652, -380.503, 2.98796, -786.755, 0.439246, 0.391124, 0.993198, 0.349787, 0.651995, 3, 91, 246, 34.461, 0.141147, 1.54879, 124479
-24140.2, 415805, -279.494, 3.2395, -795.03, 0.359657, 0.291857, 1.03299, 0.34851, 0.655882, 0.0001, 45.5, 246, 35.5501, 0.13732, 1.58599, 124481
-24140.2, 415805, -279.494, 3.2395, -795.03, 0.359657, 0.291857, 1.03299, 0.34851, 0.655882, 3, 45.5, 246, 35.5501, 0.13732, 1.58722, 124481
-17471.6, 437267, -330.529, 3.60322, -874.631, 0.435773, 0.305064, 0.993198, 0.349787, 0.651995, 0.0001, 91, 246, 35.5501, 0.13732, 1.64538, 124481
-17471.6, 437267, -330.529, 3.60322, -874.631, 0.435773, 0.305064, 0.993198, 0.349787, 0.651995, 3, 91, 246, 35.5501, 0.13732, 1.23996, 124481
-19571.8, 803877, -185.147, 0.99712, -749.846, 0.381551, 0.364171, 1.03299, 0.34851, 0.655882, 3, 45.5, 246, 24.1927, 0.0571844, 1.45193, 124482
-9187.57, 142517, -29.3041, 0.519829, -855.119, 0.567373, 0.345171, 1.03299, 0.34851, 0.655882, 0.0001, 45.5, 246, 16.1488, 0.0508575, 2.29229, 124484
-9187.57, 142517, -29.3041, 0.519829, -855.119, 0.567373, 0.345171, 1.03299, 0.34851, 0.655882, 3, 45.5, 246, 16.1488, 0.0508575, 2.29208, 124484
-35190.9, 660629, -307.846, 3.16905, -1040.52, -0.0473187, 0.304189, 1.03299, 0.34851, 0.655882, 0.0001, 45.5, 246, 38.3883, 0.119794, 1.53456, 124486
-35190.9, 660629, -307.846, 3.16905, -1040.52, -0.0473187, 0.304189, 1.03299, 0.34851, 0.655882, 3, 45.5, 246, 38.3883, 0.119794, 1.30773, 124486
-12137.2, 226824, -284.582, 3.31784, -740.458, -0.0218753, 0.350669, 1.03299, 0.34851, 0.655882, 0.0001, 45.5, 246, 45.3583, 0.203427, 1.60924, 124487
-12137.2, 226824, -284.582, 3.31784, -740.458, -0.0218753, 0.350669, 1.03299, 0.34851, 0.655882, 3, 45.5, 246, 45.3583, 0.203427, 1.32515, 124487
-8039.89, 237910, -334.754, 3.62404, -769.167, 0.030952, 0.369737, 0.993198, 0.349787, 0.651995, 0.0001, 91, 246, 45.3583, 0.203427, 1.24987, 124487
-8039.89, 237910, -334.754, 3.62404, -769.167, 0.030952, 0.369737, 0.993198, 0.349787, 0.651995, 3, 91, 246, 45.3583, 0.203427, 1.25023, 124487
-2939.8, 251626, -394.926, 3.98955, -813.402, 0.0950762, 0.407863, 0.958125, 0.351078, 0.648177, 0.0001, 182, 246, 45.3583, 0.203427, 1.59071, 124487
-2939.8, 251626, -394.926, 3.98955, -813.402, 0.0950762, 0.407863, 0.958125, 0.351078, 0.648177, 3, 182, 246, 45.3583, 0.203427, 1.58564, 124487
-36389.4, 653254, -273.051, 2.83908, -744.163, 0.716185, 0.274485, 1.03299, 0.34851, 0.655882, 0.0001, 45.5, 246, 29.2813, 0.0925887, 1.60272, 124490
-36389.4, 653254, -273.051, 2.83908, -744.163, 0.716185, 0.274485, 1.03299, 0.34851, 0.655882, 3, 45.5, 246, 29.2813, 0.0925887, 1.56441, 124490
-27544.9, 692055, -317.217, 3.19775, -866.741, 0.852637, 0.274754, 0.993198, 0.349787, 0.651995, 0.0001, 91, 246, 29.2813, 0.0925887, 1.35214, 124490
-27544.9, 692055, -317.217, 3.19775, -866.741, 0.852637, 0.274754, 0.993198, 0.349787, 0.651995, 3, 91, 246, 29.2813, 0.0925887, 1.71858, 124490
-28652, 711779, -398.685, 2.33348, -1098.02, 0.112399, 0.476328, 1.03299, 0.34851, 0.655882, 3, 45.5, 246, 42.4644, 0.143097, 1.36705, 124491
-20064.1, 740850, -453.65, 2.52677, -1147.64, 0.140821, 0.477846, 0.993198, 0.349787, 0.651995, 3, 91, 246, 42.4644, 0.143097, 1.48143, 124491
-9671.65, 774939, -517.191, 2.74589, -1210.62, 0.175222, 0.490438, 0.958125, 0.351078, 0.648177, 3, 182, 246, 42.4644, 0.143097, 1.06267, 124491
-7801.18, 682580, -438.347, 0.245057, -1028.84, 0.0774985, 0.612309, 1.03299, 0.34851, 0.655882, 3, 45.5, 246, 41.4659, 0.16673, 1.32071, 124492
-15771, 699783, -257.215, 0.822313, -638.369, 0.00219893, 0.423674, 1.03299, 0.34851, 0.655882, 3, 45.5, 246, 25.7519, 0.0958516, 1.41449, 124496
-24519.3, 412101, -259.069, 3.24494, -637.412, 0.0409482, 0.277485, 1.03299, 0.34851, 0.655882, 0.0001, 45.5, 246, 31.8665, 0.132004, 1.49075, 124497
-24519.3, 412101, -259.069, 3.24494, -637.412, 0.0409482, 0.277485, 1.03299, 0.34851, 0.655882, 3, 45.5, 246, 31.8665, 0.132004, 1.59765, 124497
-18172.2, 421124, -302.229, 3.54405, -669.242, 0.0921574, 0.28893, 0.993198, 0.349787, 0.651995, 0.0001, 91, 246, 31.8665, 0.132004, 1.70876, 124497
-18172.2, 421124, -302.229, 3.54405, -669.242, 0.0921574, 0.28893, 0.993198, 0.349787, 0.651995, 3, 91, 246, 31.8665, 0.132004, 1.70778, 124497
-25710.6, 615385, -127.302, 1.98499, -663.915, -0.0173744, 0.300119, 1.03299, 0.34851, 0.655882, 3, 45.5, 246, 21.1638, 0.0554553, 1.51591, 124498
-14639.1, 286503, -369.7, 3.4573, -781.252, 0.0186926, 0.431219, 1.03299, 0.34851, 0.655882, 0.0001, 45.5, 246, 50.0725, 0.228999, 1.51409, 124499
-14639.1, 286503, -369.7, 3.4573, -781.252, 0.0186926, 0.431219, 1.03299, 0.34851, 0.655882, 3, 45.5, 246, 50.0725, 0.228999, 1.23966, 124499
-8912.73, 300586, -432.527, 3.80412, -825.467, 0.0768237, 0.461948, 0.993198, 0.349787, 0.651995, 0.0001, 91, 246, 50.0725, 0.228999, 1.69286, 124499
-8912.73, 300586, -432.527, 3.80412, -825.467, 0.0768237, 0.461948, 0.993198, 0.349787, 0.651995, 3, 91, 246, 50.0725, 0.228999, 1.68167, 124499
-1687.07, 318777, -509.212, 4.22506, -890.252, 0.149414, 0.514887, 0.958125, 0.351078, 0.648177, 0.0001, 182, 246, 50.0725, 0.228999, 2.02491, 124499
-1687.07, 318777, -509.212, 4.22506, -890.252, 0.149414, 0.514887, 0.958125, 0.351078, 0.648177, 3, 182, 246, 50.0725, 0.228999, 2.02131, 124499
-25708, 597907, -368.289, 2.29752, -953.767, 0.507679, 0.455902, 1.03299, 0.34851, 0.655882, 3, 45.5, 246, 39.107, 0.142252, 1.404, 124500
-18482.9, 635107, -417.995, 2.54098, -1065.18, 0.579863, 0.455346, 0.993198, 0.349787, 0.651995, 0.0001, 91, 246, 39.107, 0.142252, 1.06529, 124500
-18482.9, 635107, -417.995, 2.54098, -1065.18, 0.579863, 0.455346, 0.993198, 0.349787, 0.651995, 3, 91, 246, 39.107, 0.142252, 1.51222, 124500
