-6167.86, 61365, -123.453, 3.12759, -1010.9, 0.548352, 0.257472, 0.993198, 0.349787, 0.651995, 3, 91, 246, 36.6678, 0.120326, 0, 0, 1, 0, 71003
-2417.44, 124547, -244.093, 4.14442, -1342.94, 0.854237, 0.322113, 0.9175, 0.352806, 0.64323, 0.0001, 455, 246, 36.6678, 0.120326, 1.31245, 1, 0, 0, 71003
-2417.44, 124547, -244.093, 4.14442, -1342.94, 0.854237, 0.322113, 0.9175, 0.352806, 0.64323, 3, 455, 246, 36.6678, 0.120326, 1.3123, 1, 0, 0, 71003
-5538.28, 73881, -161.205, 2.82547, -785.111, -0.0380288, 0.302242, 1.03299, 0.34851, 0.655882, 0.0001, 45.5, 246, 48.9102, 0.193086, 1.07772, 1, 1, 0, 71004
-4363.99, 85062, -195.303, 3.04918, -796.442, -0.000121253, 0.302312, 0.993198, 0.349787, 0.651995, 0.0001, 91, 246, 48.9102, 0.193086, 1.08832, 1, 1, 0, 71004
-2776.02, 97181.7, -234.887, 3.30602, -817.145, 0.0442329, 0.315813, 0.958125, 0.351078, 0.648177, 0.0001, 182, 246, 48.9102, 0.193086, 1.31326, 1, 1, 0, 71004
-2776.02, 97181.7, -234.887, 3.30602, -817.145, 0.0442329, 0.315813, 0.958125, 0.351078, 0.648177, 3, 182, 246, 48.9102, 0.193086, 1.1475, 1, 1, 0, 71004
164.089, 115618, -298.649, 3.71658, -863.493, 0.116926, 0.356281, 0.9175, 0.352806, 0.64323, 0.0001, 455, 246, 48.9102, 0.193086, 2.20214, 1, 0, 0, 71004
164.089, 115618, -298.649, 3.71658, -863.493, 0.116926, 0.356281, 0.9175, 0.352806, 0.64323, 3, 455, 246, 48.9102, 0.193086, 2.14101, 1, 0, 0, 71004
-10043.8, 265824, -18.152, 0.783267, -1100, 0.493565, 0.299689, 0.993198, 0.349787, 0.651995, 0.0001, 91, 246, 17.0969, 0.0187602, 0, 0, 1, 0, 71005
-10043.8, 265824, -18.152, 0.783267, -1100, 0.493565, 0.299689, 0.993198, 0.349787, 0.651995, 3, 91, 246, 17.0969, 0.0187602, 0, 0, 1, 0, 71005
-9270.63, 266531, -127.572, 1.01648, -874.783, 0.00166785, 0.347932, 0.993198, 0.349787, 0.651995, 0.0001, 91, 246, 26.7844, 0.111993, 0, 0, 1, 0, 71006
-14930.3, 292300, -371.448, 3.46269, -826.202, 0.14618, 0.427352, 1.03299, 0.34851, 0.655882, 0.0001, 45.5, 246, 50.0704, 0.225176, 2.80917, 1, 0, 0, 71008
-14930.3, 292300, -371.448, 3.46269, -826.202, 0.14618, 0.427352, 1.03299, 0.34851, 0.655882, 3, 45.5, 246, 50.0704, 0.225176, 2.86116, 1, 0, 0, 71008
-9044.48, 310052, -436.484, 3.83705, -888.848, 0.209496, 0.458364, 0.993198, 0.349787, 0.651995, 0.0001, 91, 246, 50.0704, 0.225176, 1.3648, 1, 1, 0, 71008
-9044.48, 310052, -436.484, 3.83705, -888.848, 0.209496, 0.458364, 0.993198, 0.349787, 0.651995, 3, 91, 246, 50.0704, 0.225176, 1.27941, 1, 1, 0, 71008
-6007.39, 82592.3, -171.038, 3.36836, -735.517, 0.549202, 0.219137, 1.03299, 0.34851, 0.655882, 0.0001, 45.5, 246, 43.4236, 0.145253, 1.19014, 1, 1, 0, 71010
-4411.23, 96420.3, -211.99, 3.79078, -827.903, 0.662926, 0.232568, 0.993198, 0.349787, 0.651995, 0.0001, 91, 246, 43.4236, 0.145253, 1.15818, 1, 1, 0, 71010
-2114.51, 115172, -265.876, 4.32726, -957.11, 0.821186, 0.270227, 0.958125, 0.351078, 0.648177, 0.0001, 182, 246, 43.4236, 0.145253, 1.48137, 1, 1, 0, 71010
-2114.51, 115172, -265.876, 4.32726, -957.11, 0.821186, 0.270227, 0.958125, 0.351078, 0.648177, 3, 182, 246, 43.4236, 0.145253, 1.34088, 1, 1, 0, 71010
-5501.72, 93725, -202.497, 2.77319, -596.823, -0.0298682, 0.334407, 1.03299, 0.34851, 0.655882, 0.0001, 45.5, 246, 51.1373, 0.217913, 1.30095, 1, 1, 0, 71012
-5501.72, 93725, -202.497, 2.77319, -596.823, -0.0298682, 0.334407, 1.03299, 0.34851, 0.655882, 3, 45.5, 246, 51.1373, 0.217913, 1.10598, 1, 1, 0, 71012
-3981.12, 100665, -234.61, 2.99367, -612.249, 0.00662585, 0.335352, 0.993198, 0.349787, 0.651995, 0.0001, 91, 246, 51.1373, 0.217913, 1.32132, 1, 1, 0, 71012
-3981.12, 100665, -234.61, 2.99367, -612.249, 0.00662585, 0.335352, 0.993198, 0.349787, 0.651995, 3, 91, 246, 51.1373, 0.217913, 1.13435, 1, 1, 0, 71012
-2064.88, 108595, -271.798, 3.24644, -635.73, 0.0494371, 0.349468, 0.958125, 0.351078, 0.648177, 0.0001, 182, 246, 51.1373, 0.217913, 1.55217, 1, 1, 0, 71012
-2064.88, 108595, -271.798, 3.24644, -635.73, 0.0494371, 0.349468, 0.958125, 0.351078, 0.648177, 3, 182, 246, 51.1373, 0.217913, 1.40191, 1, 1, 0, 71012
1263.42, 121373, -331.554, 3.6496, -683.257, 0.119718, 0.390311, 0.9175, 0.352806, 0.64323, 0.0001, 455, 246, 51.1373, 0.217913, 2.44895, 1, 1, 1, 71012
1263.42, 121373, -331.554, 3.6496, -683.257, 0.119718, 0.390311, 0.9175, 0.352806, 0.64323, 3, 455, 246, 51.1373, 0.217913, 2.37476, 1, 1, 1, 71012
-8304.78, 62660.9, -76.8979, 3.33834, -652.546, 0.0655732, 0.191945, 1.03299, 0.34851, 0.655882, 0.0001, 45.5, 246, 26.5213, 0.0810626, 0, 0, 1, 0, 71013
-8304.78, 62660.9, -76.8979, 3.33834, -652.546, 0.0655732, 0.191945, 1.03299, 0.34851, 0.655882, 3, 45.5, 246, 26.5213, 0.0810626, 0, 0, 1, 0, 71013
-9459.53, 301700, -117.39, 3.6026, -1203.98, 0.466097, 0.214578, 0.958125, 0.351078, 0.648177, 0.0001, 182, 246, 23.206, 0.0511914, 0, 0, 0, 0, 71014
-9459.53, 301700, -117.39, 3.6026, -1203.98, 0.466097, 0.214578, 0.958125, 0.351078, 0.648177, 3, 182, 246, 23.206, 0.0511914, 0, 0, 0, 0, 71014
-5084.67, 17037.2, -98.9406, 3.38042, -821.684, 0.241567, 0.20038, 1.03299, 0.34851, 0.655882, 0.0001, 45.5, 246, 41.7175, 0.0506583, 0, 0, 1, 0, 71015
-5084.67, 17037.2, -98.9406, 3.38042, -821.684, 0.241567, 0.20038, 1.03299, 0.34851, 0.655882, 3, 45.5, 246, 41.7175, 0.0506583, 0, 0, 1, 0, 71015
-1961.97, 70710.2, -262.61, 4.92352, -1069.33, 0.563304, 0.328907, 0.9175, 0.352806, 0.64323, 0.0001, 455, 246, 41.7175, 0.0506583, 1.33434, 1, 1, 0, 71015
-1961.97, 70710.2, -262.61, 4.92352, -1069.33, 0.563304, 0.328907, 0.9175, 0.352806, 0.64323, 3, 455, 246, 41.7175, 0.0506583, 1.24408, 1, 1, 0, 71015
-4765.26, 290405, -93.0408, 3.61061, -1257.65, 0.610294, 0.246838, 0.9175, 0.352806, 0.64323, 0.0001, 455, 246, 15.7794, 0.0185173, 0, 0, 0, 0, 71016
-4765.26, 290405, -93.0408, 3.61061, -1257.65, 0.610294, 0.246838, 0.9175, 0.352806, 0.64323, 3, 455, 246, 15.7794, 0.0185173, 0, 0, 0, 0, 71016
-10643.7, 224929, -175.565, 1.39574, -684.014, -0.0080945, 0.424722, 1.03299, 0.34851, 0.655882, 0.0001, 45.5, 246, 33.3146, 0.176848, 0, 0, 1, 0, 71018
-10643.7, 224929, -175.565, 1.39574, -684.014, -0.0080945, 0.424722, 1.03299, 0.34851, 0.655882, 3, 45.5, 246, 33.3146, 0.176848, 0, 0, 1, 0, 71018
-9186.1, 233525, -194.161, 1.47267, -690.597, 0.000936377, 0.404254, 0.993198, 0.349787, 0.651995, 3, 91, 246, 33.3146, 0.176848, 0, 0, 1, 0, 71018
-11791.7, 313394, -68.8189, 0.988598, -767.455, 0.12062, 0.341059, 1.03299, 0.34851, 0.655882, 3, 45.5, 246, 19.7067, 0.0566675, 0, 0, 1, 0, 71020
-9232.93, 339257, -89.9938, 1.09255, -803.49, 0.135285, 0.282928, 0.958125, 0.351078, 0.648177, 0.0001, 182, 246, 19.7067, 0.0566675, 0, 0, 1, 0, 71020
-2906.84, 225276, -181.548, 4.78798, -999.852, 0.455883, 0.275339, 0.9175, 0.352806, 0.64323, 0.0001, 455, 246, 20.3392, 0.0559989, 0, 0, 0, 0, 71021
-2906.84, 225276, -181.548, 4.78798, -999.852, 0.455883, 0.275339, 0.9175, 0.352806, 0.64323, 3, 455, 246, 20.3392, 0.0559989, 0, 0, 0, 0, 71021
-11911.3, 185551, -125.483, 2.90267, -1110.33, 0.0554552, 0.271292, 1.03299, 0.34851, 0.655882, 0.0001, 45.5, 246, 33.7825, 0.124556, 0, 0, 0, 0, 71022
-11911.3, 185551, -125.483, 2.90267, -1110.33, 0.0554552, 0.271292, 1.03299, 0.34851, 0.655882, 3, 45.5, 246, 33.7825, 0.124556, 0, 0, 0, 0, 71022
-9377.6, 208240, -166.62, 3.15054, -1135.31, 0.0965308, 0.271663, 0.993198, 0.349787, 0.651995, 0.0001, 91, 246, 33.7825, 0.124556, 0, 0, 1, 0, 71022
-9377.6, 208240, -166.62, 3.15054, -1135.31, 0.0965308, 0.271663, 0.993198, 0.349787, 0.651995, 3, 91, 246, 33.7825, 0.124556, 0, 0, 1, 0, 71022
-10841.6, 183886, -149.89, 2.58641, -1118.9, 0.0694382, 0.326032, 1.03299, 0.34851, 0.655882, 0.0001, 45.5, 246, 37.087, 0.151622, 0, 0, 0, 0, 71024
-10841.6, 183886, -149.89, 2.58641, -1118.9, 0.0694382, 0.326032, 1.03299, 0.34851, 0.655882, 3, 45.5, 246, 37.087, 0.151622, 0, 0, 0, 0, 71024
-10708, 197759, -292.825, 3.53659, -612.497, -0.0245255, 0.316558, 1.03299, 0.34851, 0.655882, 0.0001, 45.5, 246, 46.4771, 0.205142, 1.14541, 1, 0, 0, 71025
-10708, 197759, -292.825, 3.53659, -612.497, -0.0245255, 0.316558, 1.03299, 0.34851, 0.655882, 3, 45.5, 246, 46.4771, 0.205142, 1.04732, 1, 0, 0, 71025
-6781.05, 205910, -342.165, 3.87586, -643.897, 0.0356993, 0.340738, 0.993198, 0.349787, 0.651995, 0.0001, 91, 246, 46.4771, 0.205142, 1.37881, 1, 1, 0, 71025
-6781.05, 205910, -342.165, 3.87586, -643.897, 0.0356993, 0.340738, 0.993198, 0.349787, 0.651995, 3, 91, 246, 46.4771, 0.205142, 1.26663, 1, 1, 0, 71025
-1907.72, 216606, -402.01, 4.28652, -691.308, 0.109493, 0.386508, 0.958125, 0.351078, 0.648177, 0.0001, 182, 246, 46.4771, 0.205142, 2.38973, 1, 0, 0, 71025
-1907.72, 216606, -402.01, 4.28652, -691.308, 0.109493, 0.386508, 0.958125, 0.351078, 0.648177, 3, 182, 246, 46.4771, 0.205142, 2.2236, 1, 0, 0, 71025
-10818.3, 264388, -92.5433, 0.949141, -687.664, 0.01569, 0.358373, 1.03299, 0.34851, 0.655882, 0.0001, 45.5, 246, 21.4973, 0.0869276, 0, 0, 1, 0, 71029
-10818.3, 264388, -92.5433, 0.949141, -687.664, 0.01569, 0.358373, 1.03299, 0.34851, 0.655882, 3, 45.5, 246, 21.4973, 0.0869276, 0, 0, 1, 0, 71029
-9867.16, 272984, -102.698, 0.992594, -692.095, 0.0198779, 0.32764, 0.993198, 0.349787, 0.651995, 0.0001, 91, 246, 21.4973, 0.0869276, 0, 0, 1, 0, 71029
-8725.67, 239475, -337.586, 3.86906, -700.528, 0.153918, 0.331464, 0.993198, 0.349787, 0.651995, 0.0001, 91, 246, 43.3378, 0.19043, 1.10784, 1, 1, 0, 71030
-3284.36, 253255, -399.327, 4.30557, -762.219, 0.232931, 0.376771, 0.958125, 0.351078, 0.648177, 0.0001, 182, 246, 43.3378, 0.19043, 2.01056, 1, 0, 0, 71030
-3284.36, 253255, -399.327, 4.30557, -762.219, 0.232931, 0.376771, 0.958125, 0.351078, 0.648177, 3, 182, 246, 43.3378, 0.19043, 1.85339, 1, 0, 0, 71030
-10773.3, 155888, -121.02, 2.3244, -675.922, 0.202535, 0.309666, 1.03299, 0.34851, 0.655882, 0.0001, 45.5, 246, 29.0255, 0.127341, 0, 0, 1, 0, 71031
-7757.09, 38548.9, -59.9111, 2.7826, -710.758, 0.103601, 0.249542, 1.03299, 0.34851, 0.655882, 0.0001, 45.5, 246, 26.8832, 0.0825704, 1.0479, 1, 1, 0, 71032
-9286.5, 68459.5, -25.8642, 1.82942, -744.18, -0.0138131, 0.305358, 1.03299, 0.34851, 0.655882, 3, 45.5, 246, 16.7256, 0.0666906, 0, 0, 1, 0, 71033
-3328.3, 310274, -403.531, 3.67666, -1052.14, 0.203882, 0.439311, 0.958125, 0.351078, 0.648177, 0.0001, 182, 246, 45.6051, 0.200475, 1.45436, 1, 0, 0, 71034
-3328.3, 310274, -403.531, 3.67666, -1052.14, 0.203882, 0.439311, 0.958125, 0.351078, 0.648177, 3, 182, 246, 45.6051, 0.200475, 1.277, 1, 0, 0, 71034
-10706.2, 221468, -270.267, 2.62439, -897.403, 0.295286, 0.43617, 1.03299, 0.34851, 0.655882, 0.0001, 45.5, 246, 46.6944, 0.220724, 0, 0, 0, 0, 71036
-10706.2, 221468, -270.267, 2.62439, -897.403, 0.295286, 0.43617, 1.03299, 0.34851, 0.655882, 3, 45.5, 246, 46.6944, 0.220724, 0, 0, 0, 0, 71036
4550.16, 308972, -462.659, 3.69577, -1210.79, 0.52019, 0.513572, 0.9175, 0.352806, 0.64323, 0.0001, 455, 246, 46.6944, 0.220724, 0, 0, 0, 0, 71036
4550.16, 308972, -462.659, 3.69577, -1210.79, 0.52019, 0.513572, 0.9175, 0.352806, 0.64323, 3, 455, 246, 46.6944, 0.220724, 0, 0, 0, 0, 71036
-8380.52, -186.33, -11.4646, 2.39956, -1042.39, 0.138918, 0.277665, 0.993198, 0.349787, 0.651995, 0.0001, 91, 246, 9.98809, 0.0591144, 0, 0, 1, 1, 71038
-8380.52, -186.33, -11.4646, 2.39956, -1042.39, 0.138918, 0.277665, 0.993198, 0.349787, 0.651995, 3, 91, 246, 9.98809, 0.0591144, 0, 0, 1, 1, 71038
-8274.59, 49736.3, -43.4647, 3.53848, -995.239, 0.338036, 0.166964, 1.03299, 0.34851, 0.655882, 0.0001, 45.5, 246, 24.848, 0.0745312, 1.08124, 1, 0, 0, 71041
-8274.59, 49736.3, -43.4647, 3.53848, -995.239, 0.338036, 0.166964, 1.03299, 0.34851, 0.655882, 3, 45.5, 246, 24.848, 0.0745312, 1.01201, 1, 0, 0, 71041
-14415.6, 252778, -332.334, 3.50681, -671.504, 0.567295, 0.332987, 1.03299, 0.34851, 0.655882, 0.0001, 45.5, 246, 44.6494, 0.195075, 1.0336, 1, 0, 0, 71043
-9305.79, 272085, -389.27, 3.97493, -778.466, 0.690552, 0.35942, 0.993198, 0.349787, 0.651995, 0.0001, 91, 246, 44.6494, 0.195075, 1.26379, 1, 1, 0, 71043
-9305.79, 272085, -389.27, 3.97493, -778.466, 0.690552, 0.35942, 0.993198, 0.349787, 0.651995, 3, 91, 246, 44.6494, 0.195075, 1.15656, 1, 1, 0, 71043
-7708.41, 128159, -195.291, 3.17096, -857.738, 0.0388996, 0.294993, 1.03299, 0.34851, 0.655882, 3, 45.5, 246, 45.0428, 0.187375, 0, 0, 1, 0, 71044
-2594.91, 158621, -290.768, 3.80054, -927.194, 0.147624, 0.332813, 0.958125, 0.351078, 0.648177, 0.0001, 182, 246, 45.0428, 0.187375, 1.39258, 1, 1, 0, 71044
-2594.91, 158621, -290.768, 3.80054, -927.194, 0.147624, 0.332813, 0.958125, 0.351078, 0.648177, 3, 182, 246, 45.0428, 0.187375, 1.18821, 1, 1, 0, 71044
-9619.62, 247439, -83.6726, 1.14715, -1007.6, 0.0029422, 0.316172, 0.993198, 0.349787, 0.651995, 0.0001, 91, 246, 23.6942, 0.0775115, 0, 0, 1, 0, 71045
-11353.3, 248924, -133.562, 1.42646, -897.475, 0.642966, 0.368052, 1.03299, 0.34851, 0.655882, 0.0001, 45.5, 246, 29.0632, 0.115668, 0, 0, 1, 0, 71051
-9678.41, 176341, -236.944, 3.12146, -885.82, 0.681834, 0.317771, 1.03299, 0.34851, 0.655882, 3, 45.5, 246, 44.5462, 0.186809, 0, 0, 0, 0, 71052
-2181.13, 233911, -352.846, 4.0613, -1212.87, 1.01278, 0.364564, 0.958125, 0.351078, 0.648177, 0.0001, 182, 246, 44.5462, 0.186809, 1.73876, 1, 0, 0, 71052
-2181.13, 233911, -352.846, 4.0613, -1212.87, 1.01278, 0.364564, 0.958125, 0.351078, 0.648177, 3, 182, 246, 44.5462, 0.186809, 1.5642, 1, 0, 0, 71052
-7667.38, -7289.52, -20.055, 3.27207, -1161.49, 0.0837528, 0.24321, 0.993198, 0.349787, 0.651995, 0.0001, 91, 246, 13.3459, 0.0622128, 0, 0, 1, 1, 71053
-7667.38, -7289.52, -20.055, 3.27207, -1161.49, 0.0837528, 0.24321, 0.993198, 0.349787, 0.651995, 3, 91, 246, 13.3459, 0.0622128, 0, 0, 1, 1, 71053
-8916.68, 159416, -190.805, 2.25276, -965.075, 0.0525928, 0.407753, 1.03299, 0.34851, 0.655882, 0.0001, 45.5, 246, 43.9753, 0.217155, 0, 0, 1, 0, 71055
-8916.68, 159416, -190.805, 2.25276, -965.075, 0.0525928, 0.407753, 1.03299, 0.34851, 0.655882, 3, 45.5, 246, 43.9753, 0.217155, 0, 0, 1, 0, 71055
-311.112, 225597, -326.683, 2.90493, -1075.08, 0.15395, 0.425378, 0.9175, 0.352806, 0.64323, 3, 455, 246, 43.9753, 0.217155, 1.14245, 1, 0, 0, 71055
-6744.72, -10199.5, -22.0527, 3.34833, -765.124, -0.0172195, 0.201645, 1.03299, 0.34851, 0.655882, 3, 45.5, 246, 20.1323, 0.0321456, 0, 0, 1, 1, 71057
-11287.5, 178474, -119.363, 2.00177, -610.431, 0.31448, 0.328255, 1.03299, 0.34851, 0.655882, 3, 45.5, 246, 26.536, 0.120814, 0, 0, 1, 0, 71058
-10040.6, 66134.1, 9.04368, 2.97731, -737.226, 0.81117, 0.199504, 1.03299, 0.34851, 0.655882, 0.0001, 45.5, 246, 11.283, 0.0277281, 3.54915, 1, 0, 0, 71061
-10040.6, 66134.1, 9.04368, 2.97731, -737.226, 0.81117, 0.199504, 1.03299, 0.34851, 0.655882, 3, 45.5, 246, 11.283, 0.0277281, 3.46636, 1, 0, 0, 71061
-9206.55, 172279, -224.869, 2.97624, -940.427, 0.11114, 0.353271, 1.03299, 0.34851, 0.655882, 0.0001, 45.5, 246, 45.9468, 0.203842, 0, 0, 0, 0, 71062
-9206.55, 172279, -224.869, 2.97624, -940.427, 0.11114, 0.353271, 1.03299, 0.34851, 0.655882, 3, 45.5, 246, 45.9468, 0.203842, 0, 0, 0, 0, 71062
-2737.69, 211430, -327.056, 3.57762, -1037.03, 0.212929, 0.38661, 0.958125, 0.351078, 0.648177, 0.0001, 182, 246, 45.9468, 0.203842, 1.31462, 1, 0, 0, 71062
-2737.69, 211430, -327.056, 3.57762, -1037.03, 0.212929, 0.38661, 0.958125, 0.351078, 0.648177, 3, 182, 246, 45.9468, 0.203842, 1.05196, 1, 0, 0, 71062
-3843.73, 85503.5, -195.344, 3.88707, -1138.67, 0.0354723, 0.241176, 0.993198, 0.349787, 0.651995, 0.0001, 91, 246, 46.4678, 0.155497, 1.13079, 1, 1, 0, 71063
-1708.07, 110015, -258.072, 4.28778, -1176, 0.109494, 0.280553, 0.958125, 0.351078, 0.648177, 0.0001, 182, 246, 46.4678, 0.155497, 1.60229, 1, 1, 0, 71063
-1708.07, 110015, -258.072, 4.28778, -1176, 0.109494, 0.280553, 0.958125, 0.351078, 0.648177, 3, 182, 246, 46.4678, 0.155497, 1.45019, 1, 1, 0, 71063
-2833.48, 124125, -239.842, 3.78168, -1253.97, 0.25157, 0.30511, 0.958125, 0.351078, 0.648177, 0.0001, 182, 246, 44.9228, 0.173019, 1.22178, 1, 1, 0, 71067
-2833.48, 124125, -239.842, 3.78168, -1253.97, 0.25157, 0.30511, 0.958125, 0.351078, 0.648177, 3, 182, 246, 44.9228, 0.173019, 1.02049, 1, 1, 0, 71067
-9570.12, 143599, -152.257, 3.26996, -1112.06, -0.0112226, 0.260687, 1.03299, 0.34851, 0.655882, 0.0001, 45.5, 246, 39.492, 0.153736, 0, 0, 0, 0, 71071
-9570.12, 143599, -152.257, 3.26996, -1112.06, -0.0112226, 0.260687, 1.03299, 0.34851, 0.655882, 3, 45.5, 246, 39.492, 0.153736, 0, 0, 0, 0, 71071
-7189.19, 165779, -200.698, 3.56133, -1130.31, 0.0399679, 0.271673, 0.993198, 0.349787, 0.651995, 0.0001, 91, 246, 39.492, 0.153736, 0, 0, 1, 0, 71071
-7189.19, 165779, -200.698, 3.56133, -1130.31, 0.0399679, 0.271673, 0.993198, 0.349787, 0.651995, 3, 91, 246, 39.492, 0.153736, 0, 0, 1, 0, 71071
-8752.18, 30761.6, -13.8641, 1.10619, -824.42, 0.0961984, 0.334503, 1.03299, 0.34851, 0.655882, 0.0001, 45.5, 246, 14.418, 0.0780944, 0, 0, 1, 1, 71075
-8752.18, 30761.6, -13.8641, 1.10619, -824.42, 0.0961984, 0.334503, 1.03299, 0.34851, 0.655882, 3, 45.5, 246, 14.418, 0.0780944, 0, 0, 1, 1, 71075
-10908.8, 321912, -186.855, 0.999805, -812.877, 0.097498, 0.427568, 1.03299, 0.34851, 0.655882, 3, 45.5, 246, 31.2998, 0.143238, 0, 0, 0, 0, 71078
-2851.83, 130116, -237.365, 4.09546, -1606.86, 1.13789, 0.321458, 0.9175, 0.352806, 0.64323, 0.0001, 455, 246, 37.1154, 0.107087, 1.31902, 1, 0, 0, 71079
-2851.83, 130116, -237.365, 4.09546, -1606.86, 1.13789, 0.321458, 0.9175, 0.352806, 0.64323, 3, 455, 246, 37.1154, 0.107087, 1.33286, 1, 0, 0, 71079
-9384.43, 215098, -112.79, 1.68876, -1128.9, 0.684288, 0.318818, 0.993198, 0.349787, 0.651995, 0.0001, 91, 246, 27.5265, 0.103515, 0, 0, 1, 0, 71084
-7653.13, 249271, -138.316, 1.85455, -1273.39, 0.782696, 0.301947, 0.958125, 0.351078, 0.648177, 3, 182, 246, 27.5265, 0.103515, 0, 0, 1, 0, 71084
-8821.85, 35064.9, 3.2123, 2.98487, -926.069, -0.0406394, 0.221843, 1.03299, 0.34851, 0.655882, 0.0001, 45.5, 246, 13.7487, 0.0456941, 1.25457, 1, 1, 0, 71085
-8821.85, 35064.9, 3.2123, 2.98487, -926.069, -0.0406394, 0.221843, 1.03299, 0.34851, 0.655882, 3, 45.5, 246, 13.7487, 0.0456941, 1.18509, 1, 1, 0, 71085
-11047.3, 301146, -199.795, 0.875852, -551.206, 0.592832, 0.439446, 1.03299, 0.34851, 0.655882, 0.0001, 45.5, 246, 28.3304, 0.149909, 0, 0, 1, 0, 71086
-11047.3, 301146, -199.795, 0.875852, -551.206, 0.592832, 0.439446, 1.03299, 0.34851, 0.655882, 3, 45.5, 246, 28.3304, 0.149909, 0, 0, 1, 0, 71086
-9737.87, 317843, -213.741, 0.946782, -613.572, 0.65813, 0.414601, 0.993198, 0.349787, 0.651995, 3, 91, 246, 28.3304, 0.149909, 0, 0, 1, 0, 71086
-8128.04, 338032, -229.08, 1.02623, -691.103, 0.739286, 0.394807, 0.958125, 0.351078, 0.648177, 0.0001, 182, 246, 28.3304, 0.149909, 0, 0, 1, 0, 71086
-11364.2, 230662, -197.809, 1.99229, -838.403, 0.109842, 0.407432, 1.03299, 0.34851, 0.655882, 0.0001, 45.5, 246, 37.255, 0.17792, 0, 0, 0, 0, 71087
-8512.2, 41653.4, -20.7801, 3.35425, -994.988, 0.568755, 0.179981, 1.03299, 0.34851, 0.655882, 0.0001, 45.5, 246, 20.6473, 0.0624148, 1.12484, 1, 0, 0, 71089
-12644.2, 192963, -0.674792, 3.60867, -1170.04, 0.622542, 0.163672, 0.993198, 0.349787, 0.651995, 0.0001, 91, 246, 15.7618, 0.0177856, 0, 0, 1, 0, 71092
-12644.2, 192963, -0.674792, 3.60867, -1170.04, 0.622542, 0.163672, 0.993198, 0.349787, 0.651995, 3, 91, 246, 15.7618, 0.0177856, 0, 0, 1, 0, 71092
-9339.1, 226619, -44.2111, 4.0857, -1306.83, 0.762456, 0.190028, 0.958125, 0.351078, 0.648177, 0.0001, 182, 246, 15.7618, 0.0177856, 0, 0, 0, 0, 71092
-9339.1, 226619, -44.2111, 4.0857, -1306.83, 0.762456, 0.190028, 0.958125, 0.351078, 0.648177, 3, 182, 246, 15.7618, 0.0177856, 0, 0, 0, 0, 71092
-10289.7, 162793, -93.4151, 1.91091, -1192.41, -0.00975215, 0.336963, 1.03299, 0.34851, 0.655882, 0.0001, 45.5, 246, 30.6575, 0.12145, 0, 0, 1, 0, 71094
-10289.7, 162793, -93.4151, 1.91091, -1192.41, -0.00975215, 0.336963, 1.03299, 0.34851, 0.655882, 3, 45.5, 246, 30.6575, 0.12145, 0, 0, 1, 0, 71094
-7116.21, 213304, -150.949, 2.16027, -1208.36, 0.0266103, 0.306782, 0.958125, 0.351078, 0.648177, 3, 182, 246, 30.6575, 0.12145, 0, 0, 1, 0, 71094
-11185.6, 105079, -4.9954, 3.00171, -1181.38, -0.0426946, 0.212755, 1.03299, 0.34851, 0.655882, 0.0001, 45.5, 246, 19.3657, 0.0515657, 0, 0, 0, 0, 71095
-11185.6, 105079, -4.9954, 3.00171, -1181.38, -0.0426946, 0.212755, 1.03299, 0.34851, 0.655882, 3, 45.5, 246, 19.3657, 0.0515657, 0, 0, 0, 0, 71095
-9824.12, 128801, -38.9765, 3.24177, -1179.1, 0.000127934, 0.212097, 0.993198, 0.349787, 0.651995, 0.0001, 91, 246, 19.3657, 0.0515657, 0, 0, 1, 0, 71095
-9824.12, 128801, -38.9765, 3.24177, -1179.1, 0.000127934, 0.212097, 0.993198, 0.349787, 0.651995, 3, 91, 246, 19.3657, 0.0515657, 0, 0, 1, 0, 71095
-7895.59, 153090, -78.7788, 3.51957, -1188.9, 0.0503425, 0.22607, 0.958125, 0.351078, 0.648177, 3, 182, 246, 19.3657, 0.0515657, 0, 0, 1, 0, 71095
-8041.21, 250252, -228.964, 1.10871, -1040.12, 0.546112, 0.476957, 0.993198, 0.349787, 0.651995, 0.0001, 91, 246, 40.2744, 0.217998, 0, 0, 1, 0, 71100
-7704.95, 201964, -106.286, 0.0288683, -1045.53, 0.730125, 0.394627, 1.03299, 0.34851, 0.655882, 0.0001, 45.5, 246, 28.0057, 0.127686, 3.03224, 1, 1, 0, 71105
-7704.95, 201964, -106.286, 0.0288683, -1045.53, 0.730125, 0.394627, 1.03299, 0.34851, 0.655882, 3, 45.5, 246, 28.0057, 0.127686, 3.03285, 1, 1, 0, 71105
-7788.95, 232731, -109.626, 0.0309338, -1181.98, 0.825353, 0.362373, 0.993198, 0.349787, 0.651995, 0.0001, 91, 246, 28.0057, 0.127686, 4.8402, 1, 1, 0, 71105
-7788.95, 232731, -109.626, 0.0309338, -1181.98, 0.825353, 0.362373, 0.993198, 0.349787, 0.651995, 3, 91, 246, 28.0057, 0.127686, 4.9583, 1, 1, 0, 71105
-8859.97, 33437.4, 17.4859, 3.46847, -1132.66, 0.103875, 0.169856, 1.03299, 0.34851, 0.655882, 0.0001, 45.5, 246, 14.7837, 0.0475602, 1.3435, 1, 0, 0, 71112
-8859.97, 33437.4, 17.4859, 3.46847, -1132.66, 0.103875, 0.169856, 1.03299, 0.34851, 0.655882, 3, 45.5, 246, 14.7837, 0.0475602, 1.2781, 1, 0, 0, 71112
-8343.67, 316926, -257.877, 3.48522, -790.826, 0.14551, 0.293453, 0.958125, 0.351078, 0.648177, 0.0001, 182, 246, 30.6025, 0.121736, 0, 0, 0, 0, 71113
-8343.67, 316926, -257.877, 3.48522, -790.826, 0.14551, 0.293453, 0.958125, 0.351078, 0.648177, 3, 182, 246, 30.6025, 0.121736, 0, 0, 0, 0, 71113
-11789.7, 187120, -1.16144, 1.56597, -1122.83, 0.00484707, 0.305843, 1.03299, 0.34851, 0.655882, 0.0001, 45.5, 246, 17.1388, 0.0256249, 0, 0, 1, 0, 71115
-11789.7, 187120, -1.16144, 1.56597, -1122.83, 0.00484707, 0.305843, 1.03299, 0.34851, 0.655882, 3, 45.5, 246, 17.1388, 0.0256249, 0, 0, 1, 0, 71115
-7758.07, -38987.1, -2.27922, 3.25018, -1027.25, 0.320009, 0.254259, 0.993198, 0.349787, 0.651995, 0.0001, 91, 246, 5.3987, 0.0799362, 0, 0, 1, 1, 71118
-8717.42, 9025.88, -94.5191, 4.18077, -1204.84, 0.52149, 0.325325, 0.9175, 0.352806, 0.64323, 3, 455, 246, 5.3987, 0.0799362, 0, 0, 1, 1, 71118
-9001.29, 290020, -181.945, 0.613951, -943.343, 0.315416, 0.443601, 1.03299, 0.34851, 0.655882, 0.0001, 45.5, 246, 33.3303, 0.155423, 0, 0, 0, 0, 71119
-8691.75, 110817, -130.142, 2.97453, -908.548, -0.0293895, 0.271202, 1.03299, 0.34851, 0.655882, 0.0001, 45.5, 246, 36.6787, 0.146739, 0, 0, 1, 0, 71120
-8691.75, 110817, -130.142, 2.97453, -908.548, -0.0293895, 0.271202, 1.03299, 0.34851, 0.655882, 3, 45.5, 246, 36.6787, 0.146739, 0, 0, 1, 0, 71120
-1066.61, 164865, -279.352, 3.95865, -993.502, 0.145072, 0.338272, 0.9175, 0.352806, 0.64323, 0.0001, 455, 246, 36.6787, 0.146739, 1.1791, 1, 0, 0, 71120
-1066.61, 164865, -279.352, 3.95865, -993.502, 0.145072, 0.338272, 0.9175, 0.352806, 0.64323, 3, 455, 246, 36.6787, 0.146739, 1.18059, 1, 0, 0, 71120
-9983.38, 62265.2, 18.4799, 2.93048, -1175.19, -0.0144135, 0.220389, 1.03299, 0.34851, 0.655882, 0.0001, 45.5, 246, 14.4634, 0.0399547, 1.0357, 1, 1, 0, 71122
-9216.3, 86006.9, -12.6799, 3.16588, -1175.95, 0.026348, 0.218143, 0.993198, 0.349787, 0.651995, 0.0001, 91, 246, 14.4634, 0.0399547, 0, 0, 1, 0, 71122
-9216.3, 86006.9, -12.6799, 3.16588, -1175.95, 0.026348, 0.218143, 0.993198, 0.349787, 0.651995, 3, 91, 246, 14.4634, 0.0399547, 0, 0, 1, 0, 71122
-12447.3, 279237, -34.6928, 1.22561, -770.536, 0.0599263, 0.322637, 1.03299, 0.34851, 0.655882, 3, 45.5, 246, 16.6928, 0.0365698, 0, 0, 1, 0, 71123
-9665.3, 302243, -56.636, 1.3566, -790.316, 0.0760113, 0.267381, 0.958125, 0.351078, 0.648177, 0.0001, 182, 246, 16.6928, 0.0365698, 0, 0, 1, 0, 71123
-6944.88, -8744.5, -34.9807, 2.89601, -884.481, 0.0130221, 0.251791, 1.03299, 0.34851, 0.655882, 3, 45.5, 246, 27.7366, 0.0173042, 0, 0, 1, 1, 71125
-5986, 116419, -131.294, 3.23287, -1259.05, 0.581761, 0.280446, 0.9175, 0.352806, 0.64323, 3, 455, 246, 20.3913, 0.0757539, 0, 0, 1, 0, 71128
-8435.55, 85218.1, -95.9123, 2.18207, -834.948, 0.10141, 0.32087, 1.03299, 0.34851, 0.655882, 0.0001, 45.5, 246, 33.1412, 0.149449, 0, 0, 1, 0, 71131
-8435.55, 85218.1, -95.9123, 2.18207, -834.948, 0.10141, 0.32087, 1.03299, 0.34851, 0.655882, 3, 45.5, 246, 33.1412, 0.149449, 0, 0, 1, 0, 71131
-12343.4, 155249, 15.5179, 2.02005, -935.665, 0.797128, 0.273243, 1.03299, 0.34851, 0.655882, 3, 45.5, 246, 13.6885, 0.0148331, 0, 0, 1, 0, 71133
-9263.7, 97702.5, -60.1308, 1.66335, -1021.53, 0.112009, 0.332843, 1.03299, 0.34851, 0.655882, 3, 45.5, 246, 25.8805, 0.114893, 0, 0, 1, 0, 71134
-3448.98, 279505, -404.276, 2.96083, -911.724, 0.426302, 0.526483, 0.958125, 0.351078, 0.648177, 0.0001, 182, 246, 47.732, 0.240228, 1.06636, 1, 0, 0, 71135
-8742.01, 89212.7, -15.8926, 0.248542, -991.844, 0.0118152, 0.34447, 1.03299, 0.34851, 0.655882, 0.0001, 45.5, 246, 13.1381, 0.0458019, 0, 0, 1, 0, 71136
-8742.01, 89212.7, -15.8926, 0.248542, -991.844, 0.0118152, 0.34447, 1.03299, 0.34851, 0.655882, 3, 45.5, 246, 13.1381, 0.0458019, 0, 0, 1, 0, 71136
-10747.1, 101747, 14.6607, 2.13718, -1181.26, 0.0374916, 0.276926, 1.03299, 0.34851, 0.655882, 0.0001, 45.5, 246, 14.5199, 0.0288147, 0, 0, 1, 0, 71139
-10747.1, 101747, 14.6607, 2.13718, -1181.26, 0.0374916, 0.276926, 1.03299, 0.34851, 0.655882, 3, 45.5, 246, 14.5199, 0.0288147, 0, 0, 1, 0, 71139
-3789.52, 167068, -289.776, 3.57572, -737.543, 0.965695, 0.340142, 0.958125, 0.351078, 0.648177, 0.0001, 182, 246, 40.6486, 0.178592, 1.00622, 1, 1, 0, 71141
1602.61, 200684, -369.162, 4.3743, -984.187, 1.3244, 0.402937, 0.9175, 0.352806, 0.64323, 0.0001, 455, 246, 40.6486, 0.178592, 0, 0, 0, 0, 71141
1602.61, 200684, -369.162, 4.3743, -984.187, 1.3244, 0.402937, 0.9175, 0.352806, 0.64323, 3, 455, 246, 40.6486, 0.178592, 0, 0, 0, 0, 71141
-7854.59, -1512.43, -16.172, 2.37247, -814.27, 0.079057, 0.282303, 1.03299, 0.34851, 0.655882, 0.0001, 45.5, 246, 18.6152, 0.0504748, 0, 0, 1, 1, 71143
-10353.8, 295138, -252.628, 1.05882, -847.241, 0.0295168, 0.527243, 1.03299, 0.34851, 0.655882, 0.0001, 45.5, 246, 40.0287, 0.214021, 0, 0, 0, 0, 71145
-10353.8, 295138, -252.628, 1.05882, -847.241, 0.0295168, 0.527243, 1.03299, 0.34851, 0.655882, 3, 45.5, 246, 40.0287, 0.214021, 0, 0, 0, 0, 71145
-8601.82, 309462, -274.065, 1.11557, -859.114, 0.0348685, 0.511832, 0.993198, 0.349787, 0.651995, 3, 91, 246, 40.0287, 0.214021, 0, 0, 1, 0, 71145
-4431.29, 99826.4, -169.716, 5.09751, -959.457, 0.842661, 0.305206, 0.9175, 0.352806, 0.64323, 0.0001, 455, 246, 20.0963, 0.0571798, 0, 0, 1, 0, 71148
-4431.29, 99826.4, -169.716, 5.09751, -959.457, 0.842661, 0.305206, 0.9175, 0.352806, 0.64323, 3, 455, 246, 20.0963, 0.0571798, 0, 0, 1, 0, 71148
-12380.9, 161540, 10.9995, 1.99268, -899.786, 0.679422, 0.275929, 1.03299, 0.34851, 0.655882, 3, 45.5, 246, 13.6556, 0.0164972, 0, 0, 1, 0, 71150
-11087.6, 183663, -6.35933, 2.20202, -1009.45, 0.782762, 0.255065, 0.993198, 0.349787, 0.651995, 3, 91, 246, 13.6556, 0.0164972, 0, 0, 1, 0, 71150
-7877.25, -11463.3, -13.2991, 2.09925, -763.876, 0.276505, 0.298611, 1.03299, 0.34851, 0.655882, 3, 45.5, 246, 18.6832, 0.0206993, 0, 0, 1, 1, 71153
-14970.4, 312880, -41.2452, 2.95582, -1127.22, 0.366883, 0.208165, 0.993198, 0.349787, 0.651995, 0.0001, 91, 246, 20.945, 0.0310305, 0, 0, 1, 0, 71157
-14970.4, 312880, -41.2452, 2.95582, -1127.22, 0.366883, 0.208165, 0.993198, 0.349787, 0.651995, 3, 91, 246, 20.945, 0.0310305, 0, 0, 1, 0, 71157
-11760.7, 158136, -32.5735, 2.16553, -876.294, 0.0461975, 0.278994, 1.03299, 0.34851, 0.655882, 0.0001, 45.5, 246, 18.7121, 0.0548136, 0, 0, 1, 0, 71162
-11760.7, 158136, -32.5735, 2.16553, -876.294, 0.0461975, 0.278994, 1.03299, 0.34851, 0.655882, 3, 45.5, 246, 18.7121, 0.0548136, 0, 0, 1, 0, 71162
-9921.39, 82018.5, -39.684, 3.03569, -632.689, -0.0246793, 0.212142, 1.03299, 0.34851, 0.655882, 0.0001, 45.5, 246, 18.073, 0.058482, 0, 0, 1, 0, 71165
-9921.39, 82018.5, -39.684, 3.03569, -632.689, -0.0246793, 0.212142, 1.03299, 0.34851, 0.655882, 3, 45.5, 246, 18.073, 0.058482, 0, 0, 1, 0, 71165
-11845.5, 253142, -359.052, 3.26803, -806.945, -0.00494235, 0.464681, 1.03299, 0.34851, 0.655882, 0.0001, 45.5, 246, 52.7394, 0.247167, 1.01008, 1, 0, 0, 71169
-6902.52, 267440, -418.908, 3.58086, -844.573, 0.0465346, 0.491719, 0.993198, 0.349787, 0.651995, 0.0001, 91, 246, 52.7394, 0.247167, 1.46456, 1, 1, 0, 71169
-6902.52, 267440, -418.908, 3.58086, -844.573, 0.0465346, 0.491719, 0.993198, 0.349787, 0.651995, 3, 91, 246, 52.7394, 0.247167, 1.37028, 1, 1, 0, 71169
-8514.16, 38503.1, -30.5955, 2.33587, -1137.43, -0.0257302, 0.288577, 1.03299, 0.34851, 0.655882, 0.0001, 45.5, 246, 23.1309, 0.0921112, 0, 0, 1, 0, 71171
-8514.16, 38503.1, -30.5955, 2.33587, -1137.43, -0.0257302, 0.288577, 1.03299, 0.34851, 0.655882, 3, 45.5, 246, 23.1309, 0.0921112, 0, 0, 1, 0, 71171
-2194.91, 135617, -256.906, 2.95387, -869.42, 0.0808146, 0.360829, 0.9175, 0.352806, 0.64323, 0.0001, 455, 246, 43.8035, 0.208889, 1.02681, 1, 0, 0, 71174
-2194.91, 135617, -256.906, 2.95387, -869.42, 0.0808146, 0.360829, 0.9175, 0.352806, 0.64323, 3, 455, 246, 43.8035, 0.208889, 1.05939, 1, 0, 0, 71174
-10708, 164937, -163.734, 3.30251, -971.965, 0.0479654, 0.251498, 1.03299, 0.34851, 0.655882, 0.0001, 45.5, 246, 37.9493, 0.147623, 0, 0, 0, 0, 71175
-10708, 164937, -163.734, 3.30251, -971.965, 0.0479654, 0.251498, 1.03299, 0.34851, 0.655882, 3, 45.5, 246, 37.9493, 0.147623, 0, 0, 0, 0, 71175
-625.631, 163206, -287.291, 4.91193, -1318.46, 0.971937, 0.336348, 0.9175, 0.352806, 0.64323, 0.0001, 455, 246, 33.5795, 0.115325, 1.62915, 1, 0, 0, 71177
-625.631, 163206, -287.291, 4.91193, -1318.46, 0.971937, 0.336348, 0.9175, 0.352806, 0.64323, 3, 455, 246, 33.5795, 0.115325, 1.63589, 1, 0, 0, 71177
-6156.83, 54807.8, -119.026, 2.546, -973.125, 0.489093, 0.304673, 1.03299, 0.34851, 0.655882, 3, 45.5, 246, 45.0484, 0.17937, 0, 0, 1, 0, 71178
-1139.5, 146790, -271.764, 3.68274, -1420.37, 0.846457, 0.341031, 0.9175, 0.352806, 0.64323, 0.0001, 455, 246, 45.0484, 0.17937, 2.23466, 1, 0, 0, 71178
-1139.5, 146790, -271.764, 3.68274, -1420.37, 0.846457, 0.341031, 0.9175, 0.352806, 0.64323, 3, 455, 246, 45.0484, 0.17937, 2.2406, 1, 0, 0, 71178
-8932.35, 67364.4, -49.7969, 3.40786, -989.643, 0.117654, 0.185183, 1.03299, 0.34851, 0.655882, 0.0001, 45.5, 246, 25.2729, 0.0801457, 0, 0, 0, 0, 71180
-8932.35, 67364.4, -49.7969, 3.40786, -989.643, 0.117654, 0.185183, 1.03299, 0.34851, 0.655882, 3, 45.5, 246, 25.2729, 0.0801457, 0, 0, 0, 0, 71180
-6294.01, 104998, -132.908, 4.14103, -1065.69, 0.252286, 0.227996, 0.958125, 0.351078, 0.648177, 3, 182, 246, 25.2729, 0.0801457, 0, 0, 1, 0, 71180
-12798.1, 291140, -53.1054, 1.33438, -1000.66, 0.496556, 0.32319, 1.03299, 0.34851, 0.655882, 3, 45.5, 246, 22.2204, 0.0486162, 0, 0, 1, 0, 71182
-11549.9, 245412, -132.218, 1.43556, -676.692, -0.00577462, 0.370489, 1.03299, 0.34851, 0.655882, 0.0001, 45.5, 246, 26.6022, 0.123617, 0, 0, 1, 0, 71183
-11549.9, 245412, -132.218, 1.43556, -676.692, -0.00577462, 0.370489, 1.03299, 0.34851, 0.655882, 3, 45.5, 246, 26.6022, 0.123617, 0, 0, 1, 0, 71183
-8309.46, 262120, -165.981, 1.59536, -689.432, 0.0143904, 0.328017, 0.958125, 0.351078, 0.648177, 0.0001, 182, 246, 26.6022, 0.123617, 0, 0, 1, 0, 71183
-8940.79, 56717.6, -1.1965, 2.22133, -1178.04, 0.186289, 0.268553, 0.993198, 0.349787, 0.651995, 0.0001, 91, 246, 10.027, 0.0341947, 1.01672, 1, 1, 0, 71187
-10588.4, 114777, -53.7412, 2.51409, -660.742, -0.0224487, 0.261839, 1.03299, 0.34851, 0.655882, 0.0001, 45.5, 246, 20.0212, 0.0739292, 0, 0, 1, 0, 71189
-10588.4, 114777, -53.7412, 2.51409, -660.742, -0.0224487, 0.261839, 1.03299, 0.34851, 0.655882, 3, 45.5, 246, 20.0212, 0.0739292, 0, 0, 1, 0, 71189
-9445.75, 122038, -73.3198, 2.6958, -664.267, 0.00733397, 0.25088, 0.993198, 0.349787, 0.651995, 0.0001, 91, 246, 20.0212, 0.0739292, 0, 0, 1, 0, 71189
-9445.75, 122038, -73.3198, 2.6958, -664.267, 0.00733397, 0.25088, 0.993198, 0.349787, 0.651995, 3, 91, 246, 20.0212, 0.0739292, 0, 0, 1, 0, 71189
-5681.06, 141012, -131.064, 3.21467, -694.805, 0.0968826, 0.268219, 0.9175, 0.352806, 0.64323, 3, 455, 246, 20.0212, 0.0739292, 0, 0, 1, 0, 71189
-8174.92, 285628, -261.586, 0.860445, -886.664, 6.16503e-05, 0.529379, 0.993198, 0.349787, 0.651995, 0.0001, 91, 246, 41.3658, 0.233493, 0, 0, 1, 0, 71190
-8674.75, 141253, -160.753, 1.50989, -1008.01, -0.00293206, 0.450938, 1.03299, 0.34851, 0.655882, 3, 45.5, 246, 43.0557, 0.248478, 0, 0, 1, 0, 71193
-11214.1, 147700, -113.274, 3.54261, -1112.89, 0.28814, 0.186341, 1.03299, 0.34851, 0.655882, 0.0001, 45.5, 246, 33.5042, 0.113039, 0, 0, 0, 0, 71196
-11214.1, 147700, -113.274, 3.54261, -1112.89, 0.28814, 0.186341, 1.03299, 0.34851, 0.655882, 3, 45.5, 246, 33.5042, 0.113039, 0, 0, 0, 0, 71196
-3582.79, 337922, -445.145, 3.64856, -955.703, 0.0547542, 0.486584, 0.958125, 0.351078, 0.648177, 0.0001, 182, 246, 46.6817, 0.211344, 2.01166, 1, 0, 0, 71197
-3582.79, 337922, -445.145, 3.64856, -955.703, 0.0547542, 0.486584, 0.958125, 0.351078, 0.648177, 3, 182, 246, 46.6817, 0.211344, 1.88418, 1, 0, 0, 71197
-6839.22, 103007, -150.122, 3.59886, -941.474, 0.765668, 0.224931, 0.993198, 0.349787, 0.651995, 0.0001, 91, 246, 33.606, 0.115223, 0, 0, 1, 0, 71200
-182.71, 175362, -299.682, 5.09298, -1428.23, 1.3309, 0.342446, 0.9175, 0.352806, 0.64323, 0.0001, 455, 246, 33.606, 0.115223, 1.98989, 1, 0, 0, 71200
-182.71, 175362, -299.682, 5.09298, -1428.23, 1.3309, 0.342446, 0.9175, 0.352806, 0.64323, 3, 455, 246, 33.606, 0.115223, 2.00523, 1, 0, 0, 71200
-9048.76, 258726, -129.404, 2.47403, -746.409, 0.393815, 0.26839, 0.958125, 0.351078, 0.648177, 3, 182, 246, 21.3208, 0.0780379, 0, 0, 1, 0, 71201
-9752.24, 180915, -219.047, 3.05934, -997.477, 0.0139734, 0.340556, 1.03299, 0.34851, 0.655882, 0.0001, 45.5, 246, 45.066, 0.1955, 0, 0, 0, 0, 71202
-9752.24, 180915, -219.047, 3.05934, -997.477, 0.0139734, 0.340556, 1.03299, 0.34851, 0.655882, 3, 45.5, 246, 45.066, 0.1955, 0, 0, 0, 0, 71202
-6792.35, 199740, -267.446, 3.3299, -1023.62, 0.0589322, 0.350518, 0.993198, 0.349787, 0.651995, 3, 91, 246, 45.066, 0.1955, 0, 0, 1, 0, 71202
-2934.45, 221019, -324.951, 3.64751, -1064.83, 0.113441, 0.376726, 0.958125, 0.351078, 0.648177, 0.0001, 182, 246, 45.066, 0.1955, 1.20454, 1, 0, 0, 71202
-12153, 185789, 6.66058, 1.67607, -863.225, 0.0765638, 0.297698, 1.03299, 0.34851, 0.655882, 0.0001, 45.5, 246, 12.9509, 0.0145311, 0, 0, 1, 0, 71207
-12153, 185789, 6.66058, 1.67607, -863.225, 0.0765638, 0.297698, 1.03299, 0.34851, 0.655882, 3, 45.5, 246, 12.9509, 0.0145311, 0, 0, 1, 0, 71207
-11532.8, 165322, -107.573, 3.03003, -1135.05, -0.0402057, 0.250774, 1.03299, 0.34851, 0.655882, 0.0001, 45.5, 246, 32.5131, 0.11664, 0, 0, 0, 0, 71210
-11532.8, 165322, -107.573, 3.03003, -1135.05, -0.0402057, 0.250774, 1.03299, 0.34851, 0.655882, 3, 45.5, 246, 32.5131, 0.11664, 0, 0, 0, 0, 71210
-9200.66, 187589, -149.247, 3.27812, -1142.29, 0.00348587, 0.253374, 0.993198, 0.349787, 0.651995, 0.0001, 91, 246, 32.5131, 0.11664, 0, 0, 1, 0, 71210
-9200.66, 187589, -149.247, 3.27812, -1142.29, 0.00348587, 0.253374, 0.993198, 0.349787, 0.651995, 3, 91, 246, 32.5131, 0.11664, 0, 0, 1, 0, 71210
-12227.3, 258704, -2.47446, 1.10787, -754.484, 0.477309, 0.32079, 1.03299, 0.34851, 0.655882, 0.0001, 45.5, 246, 13.2439, 0.0119215, 0, 0, 1, 0, 71212
-12227.3, 258704, -2.47446, 1.10787, -754.484, 0.477309, 0.32079, 1.03299, 0.34851, 0.655882, 3, 45.5, 246, 13.2439, 0.0119215, 0, 0, 1, 0, 71212
-11181.1, 276316, -10.6868, 1.19087, -816.62, 0.522517, 0.28906, 0.993198, 0.349787, 0.651995, 0.0001, 91, 246, 13.2439, 0.0119215, 0, 0, 1, 0, 71212
-1365.51, 245146, -376.427, 3.84097, -1303.12, 0.987589, 0.414073, 0.958125, 0.351078, 0.648177, 0.0001, 182, 246, 48.152, 0.211511, 2.27463, 1, 0, 0, 71213
-1365.51, 245146, -376.427, 3.84097, -1303.12, 0.987589, 0.414073, 0.958125, 0.351078, 0.648177, 3, 182, 246, 48.152, 0.211511, 2.09445, 1, 0, 0, 71213
-7004.71, 270895, -417.033, 3.53175, -864.296, 0.0541416, 0.496456, 0.993198, 0.349787, 0.651995, 0.0001, 91, 246, 52.6394, 0.247046, 1.40898, 1, 1, 0, 71218
-7004.71, 270895, -417.033, 3.53175, -864.296, 0.0541416, 0.496456, 0.993198, 0.349787, 0.651995, 3, 91, 246, 52.6394, 0.247046, 1.3091, 1, 1, 0, 71218
-8126.91, 199655, -218.175, 1.52928, -820.528, 0.379377, 0.452329, 0.993198, 0.349787, 0.651995, 0.0001, 91, 246, 40.4215, 0.227443, 0, 0, 1, 0, 71219
-9354.65, 221928, -189.359, 1.13182, -1029.72, 0.0155331, 0.472264, 1.03299, 0.34851, 0.655882, 0.0001, 45.5, 246, 39.6332, 0.208593, 0, 0, 0, 0, 71222
-8085.42, 241452, -209.942, 1.19139, -1038.85, 0.02151, 0.452611, 0.993198, 0.349787, 0.651995, 0.0001, 91, 246, 39.6332, 0.208593, 0, 0, 1, 0, 71222
-8500.3, 310824, -172.624, 0.824162, -1009.98, 0.022679, 0.388398, 0.993198, 0.349787, 0.651995, 0.0001, 91, 246, 31.9653, 0.136804, 0, 0, 1, 0, 71223
-10101, 129772, -30.2882, 1.4262, -913.568, -0.00890424, 0.322247, 1.03299, 0.34851, 0.655882, 0.0001, 45.5, 246, 18.0323, 0.0608525, 0, 0, 1, 0, 71225
-10101, 129772, -30.2882, 1.4262, -913.568, -0.00890424, 0.322247, 1.03299, 0.34851, 0.655882, 3, 45.5, 246, 18.0323, 0.0608525, 0, 0, 1, 0, 71225
-10712.3, 132890, -17.6916, 1.76019, -931.815, 0.0106357, 0.302051, 1.03299, 0.34851, 0.655882, 0.0001, 45.5, 246, 16.6128, 0.0462741, 0, 0, 1, 0, 71226
-10712.3, 132890, -17.6916, 1.76019, -931.815, 0.0106357, 0.302051, 1.03299, 0.34851, 0.655882, 3, 45.5, 246, 16.6128, 0.0462741, 0, 0, 1, 0, 71226
-7425.01, 265810, -242.584, 0.0506067, -1035.22, 0.83389, 0.562314, 1.03299, 0.34851, 0.655882, 0.0001, 45.5, 246, 41.4851, 0.238223, 3.48192, 1, 0, 0, 71227
-7425.01, 265810, -242.584, 0.0506067, -1035.22, 0.83389, 0.562314, 1.03299, 0.34851, 0.655882, 3, 45.5, 246, 41.4851, 0.238223, 3.4829, 1, 0, 0, 71227
-6864.58, 60516.9, -93.0706, 3.5793, -648.055, 0.12129, 0.272662, 0.9175, 0.352806, 0.64323, 3, 455, 246, 15.4253, 0.048656, 0, 0, 1, 0, 71228
-8337.24, 130911, -175.221, 3.03975, -931.207, -0.0402282, 0.301385, 1.03299, 0.34851, 0.655882, 0.0001, 45.5, 246, 42.6971, 0.180092, 0, 0, 1, 0, 71230
-8337.24, 130911, -175.221, 3.03975, -931.207, -0.0402282, 0.301385, 1.03299, 0.34851, 0.655882, 3, 45.5, 246, 42.6971, 0.180092, 0, 0, 1, 0, 71230
-11764.2, 127739, 0.275711, 2.58515, -1091.84, 0.070686, 0.242938, 1.03299, 0.34851, 0.655882, 0.0001, 45.5, 246, 17.2546, 0.0389056, 0, 0, 1, 0, 71231
-11764.2, 127739, 0.275711, 2.58515, -1091.84, 0.070686, 0.242938, 1.03299, 0.34851, 0.655882, 3, 45.5, 246, 17.2546, 0.0389056, 0, 0, 1, 0, 71231
-8375.46, 304787, -252.583, 0.721032, -826.8, 0.344073, 0.497944, 0.993198, 0.349787, 0.651995, 0.0001, 91, 246, 37.2498, 0.205894, 0, 0, 1, 0, 71232
-8751.26, 35298.4, -2.04705, 2.9695, -736.482, 0.156376, 0.219019, 1.03299, 0.34851, 0.655882, 0.0001, 45.5, 246, 12.5302, 0.0394454, 1.04762, 1, 1, 0, 71235
-8404.72, 45009.8, -23.358, 3.24067, -758.67, 0.203738, 0.218252, 0.993198, 0.349787, 0.651995, 3, 91, 246, 12.5302, 0.0394454, 0, 0, 1, 0, 71235
-8734.32, 71148.2, -11.7692, 0.238093, -892.011, 0.000879106, 0.343581, 1.03299, 0.34851, 0.655882, 0.0001, 45.5, 246, 11.0676, 0.0445326, 0, 0, 1, 0, 71240
-8734.32, 71148.2, -11.7692, 0.238093, -892.011, 0.000879106, 0.343581, 1.03299, 0.34851, 0.655882, 3, 45.5, 246, 11.0676, 0.0445326, 0, 0, 1, 0, 71240
-8988.97, 237019, -176.557, 0.900451, -1134.79, -0.00362159, 0.457376, 1.03299, 0.34851, 0.655882, 0.0001, 45.5, 246, 37.8577, 0.187064, 0, 0, 0, 0, 71244
-8988.97, 237019, -176.557, 0.900451, -1134.79, -0.00362159, 0.457376, 1.03299, 0.34851, 0.655882, 3, 45.5, 246, 37.8577, 0.187064, 0, 0, 0, 0, 71244
-10732.6, 93441.4, 3.54179, 2.48546, -811.488, 0.713509, 0.245108, 1.03299, 0.34851, 0.655882, 0.0001, 45.5, 246, 12.8931, 0.0298604, 0, 0, 1, 0, 71245
-10732.6, 93441.4, 3.54179, 2.48546, -811.488, 0.713509, 0.245108, 1.03299, 0.34851, 0.655882, 3, 45.5, 246, 12.8931, 0.0298604, 0, 0, 1, 0, 71245
-8503.61, -592.773, -4.96978, 2.20449, -1110.24, 0.180076, 0.282791, 0.993198, 0.349787, 0.651995, 0.0001, 91, 246, 7.29278, 0.0601441, 0, 0, 1, 1, 71246
-8503.61, -592.773, -4.96978, 2.20449, -1110.24, 0.180076, 0.282791, 0.993198, 0.349787, 0.651995, 3, 91, 246, 7.29278, 0.0601441, 0, 0, 1, 1, 71246
-18859.6, 321939, -448.101, 3.34951, -543.833, 0.612953, 0.483203, 1.03299, 0.34851, 0.655882, 0.0001, 45.5, 246, 47.2028, 0.227252, 1.15252, 1, 0, 0, 71247
-18859.6, 321939, -448.101, 3.34951, -543.833, 0.612953, 0.483203, 1.03299, 0.34851, 0.655882, 3, 45.5, 246, 47.2028, 0.227252, 1.10273, 1, 0, 0, 71247
-12122.7, 343014, -511.621, 3.81089, -652.431, 0.740892, 0.51677, 0.993198, 0.349787, 0.651995, 0.0001, 91, 246, 47.2028, 0.227252, 1.54502, 1, 1, 0, 71247
-12122.7, 343014, -511.621, 3.81089, -652.431, 0.740892, 0.51677, 0.993198, 0.349787, 0.651995, 3, 91, 246, 47.2028, 0.227252, 1.49003, 1, 1, 0, 71247
-6027.87, 107257, -165.632, 3.61191, -1176.7, 0.0536673, 0.251853, 0.993198, 0.349787, 0.651995, 0.0001, 91, 246, 39.0938, 0.145169, 0, 0, 1, 0, 71251
742.843, 172731, -318.744, 4.56345, -1296.45, 0.229026, 0.353894, 0.9175, 0.352806, 0.64323, 0.0001, 455, 246, 39.0938, 0.145169, 4.52976, 1, 0, 0, 71251
742.843, 172731, -318.744, 4.56345, -1296.45, 0.229026, 0.353894, 0.9175, 0.352806, 0.64323, 3, 455, 246, 39.0938, 0.145169, 4.66452, 1, 0, 0, 71251
-9946.96, 282668, -248.608, 1.05496, -933.174, 0.440024, 0.519196, 1.03299, 0.34851, 0.655882, 0.0001, 45.5, 246, 40.5543, 0.208762, 0, 0, 0, 0, 71253
-9946.96, 282668, -248.608, 1.05496, -933.174, 0.440024, 0.519196, 1.03299, 0.34851, 0.655882, 3, 45.5, 246, 40.5543, 0.208762, 0, 0, 0, 0, 71253
-9109.5, 238857, -134.226, 1.13364, -876.546, 0.0242279, 0.355577, 0.993198, 0.349787, 0.651995, 0.0001, 91, 246, 28.3515, 0.128077, 0, 0, 1, 0, 71255
-10686.4, 341517, -448.065, 3.43134, -801.622, 0.0962695, 0.522087, 0.993198, 0.349787, 0.651995, 0.0001, 91, 246, 48.696, 0.231269, 1.10492, 1, 1, 0, 71257
-9829.37, 69171.3, -8.33689, 3.10632, -1032.47, -0.0460952, 0.207383, 1.03299, 0.34851, 0.655882, 0.0001, 45.5, 246, 17.8753, 0.0541117, 0, 0, 1, 0, 71260
-8932.31, 87206.7, -39.4513, 3.36063, -1030.62, -0.000147067, 0.209602, 0.993198, 0.349787, 0.651995, 0.0001, 91, 246, 17.8753, 0.0541117, 0, 0, 1, 0, 71260
-8932.31, 87206.7, -39.4513, 3.36063, -1030.62, -0.000147067, 0.209602, 0.993198, 0.349787, 0.651995, 3, 91, 246, 17.8753, 0.0541117, 0, 0, 1, 0, 71260
-7565.67, 313671, -254.578, 0.966329, -1163.57, 0.00377985, 0.496028, 0.993198, 0.349787, 0.651995, 0.0001, 91, 246, 41.9564, 0.206089, 0, 0, 1, 0, 71261
-3303.96, 262668, -403.383, 3.57902, -811.946, 0.399709, 0.45672, 0.958125, 0.351078, 0.648177, 0.0001, 182, 246, 45.5296, 0.216682, 1.69774, 1, 0, 0, 71263
-3303.96, 262668, -403.383, 3.57902, -811.946, 0.399709, 0.45672, 0.958125, 0.351078, 0.648177, 3, 182, 246, 45.5296, 0.216682, 1.52262, 1, 0, 0, 71263
-8639.21, 126682, -166.421, 2.48704, -682.665, 0.188597, 0.338052, 1.03299, 0.34851, 0.655882, 3, 45.5, 246, 39.3368, 0.181593, 0, 0, 1, 0, 71264
-1506.67, 168379, -285.14, 3.34064, -841.603, 0.34626, 0.365741, 0.9175, 0.352806, 0.64323, 0.0001, 455, 246, 39.3368, 0.181593, 1.03821, 1, 0, 0, 71264
-1506.67, 168379, -285.14, 3.34064, -841.603, 0.34626, 0.365741, 0.9175, 0.352806, 0.64323, 3, 455, 246, 39.3368, 0.181593, 1.07149, 1, 0, 0, 71264
-10977.6, 98897.6, -3.06887, 2.86595, -920.068, 0.189573, 0.218784, 1.03299, 0.34851, 0.655882, 0.0001, 45.5, 246, 15.613, 0.0402848, 0, 0, 1, 0, 71272
-10977.6, 98897.6, -3.06887, 2.86595, -920.068, 0.189573, 0.218784, 1.03299, 0.34851, 0.655882, 3, 45.5, 246, 15.613, 0.0402848, 0, 0, 1, 0, 71272
-8978.87, 106458, -122.045, 2.8554, -693.656, -0.00246023, 0.267305, 1.03299, 0.34851, 0.655882, 0.0001, 45.5, 246, 33.0461, 0.13277, 0, 0, 1, 0, 71273
-8978.87, 106458, -122.045, 2.8554, -693.656, -0.00246023, 0.267305, 1.03299, 0.34851, 0.655882, 3, 45.5, 246, 33.0461, 0.13277, 0, 0, 1, 0, 71273
-4865.9, 296454, -409.888, 3.64889, -709.107, 0.0747317, 0.446312, 0.958125, 0.351078, 0.648177, 0.0001, 182, 246, 42.7607, 0.203401, 1.32495, 1, 0, 0, 71274
-4865.9, 296454, -409.888, 3.64889, -709.107, 0.0747317, 0.446312, 0.958125, 0.351078, 0.648177, 3, 182, 246, 42.7607, 0.203401, 1.11482, 1, 0, 0, 71274
-9700.39, 165062, -181.364, 2.88545, -1103.03, 0.402296, 0.321388, 1.03299, 0.34851, 0.655882, 3, 45.5, 246, 41.8344, 0.173919, 0, 0, 0, 0, 71276
-11724.6, 274012, -68.2597, 1.28172, -1137.62, 0.0264586, 0.336082, 1.03299, 0.34851, 0.655882, 0.0001, 45.5, 246, 25.1735, 0.0663924, 0, 0, 1, 0, 71278
-11724.6, 274012, -68.2597, 1.28172, -1137.62, 0.0264586, 0.336082, 1.03299, 0.34851, 0.655882, 3, 45.5, 246, 25.1735, 0.0663924, 0, 0, 1, 0, 71278
-10313.9, 297195, -85.2135, 1.34866, -1145.73, 0.0341964, 0.307296, 0.993198, 0.349787, 0.651995, 3, 91, 246, 25.1735, 0.0663924, 0, 0, 1, 0, 71278
-15796.6, 218908, -15.021, 3.01774, -1160.25, -0.0432865, 0.19741, 1.03299, 0.34851, 0.655882, 0.0001, 45.5, 246, 21.8272, 0.0430523, 0, 0, 0, 0, 71284
-15796.6, 218908, -15.021, 3.01774, -1160.25, -0.0432865, 0.19741, 1.03299, 0.34851, 0.655882, 3, 45.5, 246, 21.8272, 0.0430523, 0, 0, 0, 0, 71284
-8583.07, 268233, -246.03, 0.989496, -771.632, 0.00569349, 0.500446, 0.993198, 0.349787, 0.651995, 0.0001, 91, 246, 39.0659, 0.223636, 0, 0, 1, 0, 71286
1555.54, 369124, -337.037, 5.44599, -1216.62, 1.66694, 0.336242, 0.9175, 0.352806, 0.64323, 3, 455, 246, 26.18, 0.0949724, 0, 0, 0, 0, 71295
-1338.28, 106158, -280.447, 5.26558, -1404.44, 1.63998, 0.338355, 0.9175, 0.352806, 0.64323, 0.0001, 455, 246, 38.0728, 0.0818225, 1.83157, 1, 1, 0, 71296
-1338.28, 106158, -280.447, 5.26558, -1404.44, 1.63998, 0.338355, 0.9175, 0.352806, 0.64323, 3, 455, 246, 38.0728, 0.0818225, 1.83116, 1, 1, 0, 71296
-8396.73, 3504.5, 7.91176, 2.21171, -1025.02, -0.0228362, 0.288217, 1.03299, 0.34851, 0.655882, 0.0001, 45.5, 246, 10.9758, 0.0528913, 0, 0, 1, 0, 71297
-8396.73, 3504.5, 7.91176, 2.21171, -1025.02, -0.0228362, 0.288217, 1.03299, 0.34851, 0.655882, 3, 45.5, 246, 10.9758, 0.0528913, 0, 0, 1, 1, 71297
-12262.4, 337689, -106.671, 1.25129, -1087.3, 0.00319296, 0.352544, 1.03299, 0.34851, 0.655882, 0.0001, 45.5, 246, 27.8441, 0.0814334, 0, 0, 0, 0, 71299
-10038.3, 99687.7, -38.7583, 2.38808, -1100.01, -0.00272423, 0.277336, 1.03299, 0.34851, 0.655882, 0.0001, 45.5, 246, 22.9579, 0.0801778, 0, 0, 1, 0, 71303
-10038.3, 99687.7, -38.7583, 2.38808, -1100.01, -0.00272423, 0.277336, 1.03299, 0.34851, 0.655882, 3, 45.5, 246, 22.9579, 0.0801778, 0, 0, 1, 0, 71303
-4277.5, 35107.2, -144.159, 3.19158, -571.4, 0.284305, 0.215858, 1.03299, 0.34851, 0.655882, 0.0001, 45.5, 246, 47.5418, 0.0900741, 1.13441, 1, 1, 0, 71307
-3580.57, 42121.4, -174.698, 3.52364, -615.019, 0.349477, 0.222225, 0.993198, 0.349787, 0.651995, 0.0001, 91, 246, 47.5418, 0.0900741, 1.04811, 1, 1, 0, 71307
-2564.78, 50788.9, -212.555, 3.92491, -673.612, 0.434315, 0.247683, 0.958125, 0.351078, 0.648177, 0.0001, 182, 246, 47.5418, 0.0900741, 1.13539, 1, 1, 0, 71307
-476.67, 66357.1, -279.552, 4.6171, -787.31, 0.593895, 0.317602, 0.9175, 0.352806, 0.64323, 0.0001, 455, 246, 47.5418, 0.0900741, 1.48937, 1, 1, 0, 71307
-476.67, 66357.1, -279.552, 4.6171, -787.31, 0.593895, 0.317602, 0.9175, 0.352806, 0.64323, 3, 455, 246, 47.5418, 0.0900741, 1.37437, 1, 1, 0, 71307
-8830.7, 69670.7, -16.0512, 0.452378, -947.977, 0.180481, 0.344282, 1.03299, 0.34851, 0.655882, 3, 45.5, 246, 13.4405, 0.0589835, 0, 0, 1, 0, 71310
-7411.78, -39350.2, 22.1629, 2.66087, -906.832, 0.405654, 0.266011, 1.03299, 0.34851, 0.655882, 0.0001, 45.5, 246, 4.71853, 0.0679559, 0, 0, 1, 0, 71311
-11795.6, 319035, -32.5434, 0.848414, -649.346, 0.152809, 0.333013, 1.03299, 0.34851, 0.655882, 0.0001, 45.5, 246, 14.4199, 0.028754, 0, 0, 1, 0, 71312
-11795.6, 319035, -32.5434, 0.848414, -649.346, 0.152809, 0.333013, 1.03299, 0.34851, 0.655882, 3, 45.5, 246, 14.4199, 0.028754, 0, 0, 1, 0, 71312
-10842.6, 329151, -39.0444, 0.891546, -666.418, 0.159995, 0.299591, 0.993198, 0.349787, 0.651995, 0.0001, 91, 246, 14.4199, 0.028754, 0, 0, 1, 0, 71312
-12990.7, -180424, -28.1892, 0.0912062, -1161.95, 0.00804668, 0.353237, 1.03299, 0.34851, 0.655882, 0.0001, 45.5, 246, -114.893, 0.0724182, 0, 0, 1, 0, 71314
-12990.7, -180424, -28.1892, 0.0912062, -1161.95, 0.00804668, 0.353237, 1.03299, 0.34851, 0.655882, 3, 45.5, 246, -114.893, 0.0724182, 0, 0, 1, 0, 71314
-2762.91, 286221, -198.332, 3.54257, -1652.81, 1.07626, 0.283605, 0.9175, 0.352806, 0.64323, 0.0001, 455, 246, 24.8278, 0.0768885, 0, 0, 0, 0, 71315
-2762.91, 286221, -198.332, 3.54257, -1652.81, 1.07626, 0.283605, 0.9175, 0.352806, 0.64323, 3, 455, 246, 24.8278, 0.0768885, 0, 0, 0, 0, 71315
-5695.39, 116003, -161.124, 3.33242, -1260.77, 0.61635, 0.279609, 0.958125, 0.351078, 0.648177, 3, 182, 246, 33.006, 0.126311, 0, 0, 1, 0, 71318
-12660.6, 155857, -74.9293, 3.39987, -860.954, -0.0541521, 0.178758, 1.03299, 0.34851, 0.655882, 0.0001, 45.5, 246, 24.9554, 0.0806796, 0, 0, 0, 0, 71319
-12660.6, 155857, -74.9293, 3.39987, -860.954, -0.0541521, 0.178758, 1.03299, 0.34851, 0.655882, 3, 45.5, 246, 24.9554, 0.0806796, 0, 0, 0, 0, 71319
-7533.85, 143313, -226.385, 3.07552, -889.971, 0.151333, 0.339823, 1.03299, 0.34851, 0.655882, 0.0001, 45.5, 246, 48.7068, 0.213094, 1.04234, 1, 0, 0, 71320
-7533.85, 143313, -226.385, 3.07552, -889.971, 0.151333, 0.339823, 1.03299, 0.34851, 0.655882, 3, 45.5, 246, 48.7068, 0.213094, 0, 0, 0, 0, 71320
-5015.12, 160059, -272.951, 3.37397, -936.462, 0.201807, 0.350592, 0.993198, 0.349787, 0.651995, 0.0001, 91, 246, 48.7068, 0.213094, 1.16382, 1, 1, 0, 71320
-1665.38, 179928, -329.416, 3.72867, -1000.09, 0.265629, 0.378777, 0.958125, 0.351078, 0.648177, 0.0001, 182, 246, 48.7068, 0.213094, 1.86513, 1, 0, 0, 71320
-1665.38, 179928, -329.416, 3.72867, -1000.09, 0.265629, 0.378777, 0.958125, 0.351078, 0.648177, 3, 182, 246, 48.7068, 0.213094, 1.69567, 1, 0, 0, 71320
-8358.12, 196805, -187.321, 1.63138, -898.772, 0.599099, 0.399164, 0.993198, 0.349787, 0.651995, 0.0001, 91, 246, 36.2911, 0.188562, 0, 0, 1, 0, 71323
-8294.6, 154586, -218.461, 2.73255, -892.257, -0.0355603, 0.383972, 1.03299, 0.34851, 0.655882, 0.0001, 45.5, 246, 47.4422, 0.223021, 0, 0, 1, 0, 71326
-3002.97, 185464, -306.911, 3.20055, -933.346, 0.0414598, 0.404289, 0.958125, 0.351078, 0.648177, 0.0001, 182, 246, 47.4422, 0.223021, 1.12894, 1, 0, 0, 71326
-4120.57, 79083.6, -186.637, 3.55768, -1127.49, 0.0775882, 0.250192, 1.03299, 0.34851, 0.655882, 0.0001, 45.5, 246, 53.2265, 0.192605, 1.29127, 1, 1, 0, 71329
-4120.57, 79083.6, -186.637, 3.55768, -1127.49, 0.0775882, 0.250192, 1.03299, 0.34851, 0.655882, 3, 45.5, 246, 53.2265, 0.192605, 1.06951, 1, 1, 0, 71329
-2303.57, 103272, -243.504, 3.91525, -1168.16, 0.140634, 0.270825, 0.993198, 0.349787, 0.651995, 0.0001, 91, 246, 53.2265, 0.192605, 1.54294, 1, 1, 0, 71329
-2303.57, 103272, -243.504, 3.91525, -1168.16, 0.140634, 0.270825, 0.993198, 0.349787, 0.651995, 3, 91, 246, 53.2265, 0.192605, 1.39202, 1, 1, 0, 71329
468.418, 130868, -313.553, 4.35043, -1232.28, 0.220538, 0.313714, 0.958125, 0.351078, 0.648177, 0.0001, 182, 246, 53.2265, 0.192605, 2.63886, 1, 0, 0, 71329
468.418, 130868, -313.553, 4.35043, -1232.28, 0.220538, 0.313714, 0.958125, 0.351078, 0.648177, 3, 182, 246, 53.2265, 0.192605, 2.49218, 1, 0, 0, 71329
-7905.38, 94985.4, -93.7507, 3.09809, -1170.3, 0.0288718, 0.251777, 0.993198, 0.349787, 0.651995, 0.0001, 91, 246, 28.2552, 0.103823, 0, 0, 1, 0, 71330
-7905.38, 94985.4, -93.7507, 3.09809, -1170.3, 0.0288718, 0.251777, 0.993198, 0.349787, 0.651995, 3, 91, 246, 28.2552, 0.103823, 0, 0, 1, 0, 71330
-10439.4, 231072, -270.502, 1.65055, -759.364, 0.697842, 0.522243, 1.03299, 0.34851, 0.655882, 0.0001, 45.5, 246, 43.7804, 0.235541, 0, 0, 0, 0, 71331
-10439.4, 231072, -270.502, 1.65055, -759.364, 0.697842, 0.522243, 1.03299, 0.34851, 0.655882, 3, 45.5, 246, 43.7804, 0.235541, 0, 0, 0, 0, 71331
-11497.1, 309695, -295.268, 1.10643, -633.794, -0.00517754, 0.579283, 1.03299, 0.34851, 0.655882, 0.0001, 45.5, 246, 40.479, 0.235561, 0, 0, 0, 0, 71332
-11497.1, 309695, -295.268, 1.10643, -633.794, -0.00517754, 0.579283, 1.03299, 0.34851, 0.655882, 3, 45.5, 246, 40.479, 0.235561, 0, 0, 0, 0, 71332
-11758.9, 285862, -108.296, 1.34841, -1047.16, 0.177828, 0.353751, 1.03299, 0.34851, 0.655882, 0.0001, 45.5, 246, 27.9555, 0.092319, 0, 0, 1, 0, 71333
-11758.9, 285862, -108.296, 1.34841, -1047.16, 0.177828, 0.353751, 1.03299, 0.34851, 0.655882, 3, 45.5, 246, 27.9555, 0.092319, 0, 0, 1, 0, 71333
-7862.57, 275160, -410.511, 3.03345, -806.119, 0.60208, 0.530103, 0.993198, 0.349787, 0.651995, 0.0001, 91, 246, 49.6718, 0.24531, 1.10869, 1, 1, 0, 71336
-2239.65, 301451, -473.357, 3.42494, -933.61, 0.715896, 0.563166, 0.958125, 0.351078, 0.648177, 0.0001, 182, 246, 49.6718, 0.24531, 3.44721, 1, 0, 0, 71336
-2239.65, 301451, -473.357, 3.42494, -933.61, 0.715896, 0.563166, 0.958125, 0.351078, 0.648177, 3, 182, 246, 49.6718, 0.24531, 3.14077, 1, 0, 0, 71336
-8807.6, 50938, -25.1104, 1.08758, -1025.69, 2.06178e-05, 0.306401, 0.993198, 0.349787, 0.651995, 0.0001, 91, 246, 15.496, 0.0849129, 0, 0, 1, 0, 71338
-8807.6, 50938, -25.1104, 1.08758, -1025.69, 2.06178e-05, 0.306401, 0.993198, 0.349787, 0.651995, 3, 91, 246, 15.496, 0.0849129, 0, 0, 1, 0, 71338
-11068, 341751, -156.59, 1.00591, -938.179, 0.00631738, 0.395992, 1.03299, 0.34851, 0.655882, 0.0001, 45.5, 246, 29.8643, 0.115468, 0, 0, 0, 0, 71339
-11068, 341751, -156.59, 1.00591, -938.179, 0.00631738, 0.395992, 1.03299, 0.34851, 0.655882, 3, 45.5, 246, 29.8643, 0.115468, 0, 0, 0, 0, 71339
-8287.68, -16386.1, 9.83611, 1.70167, -822.554, 0.817425, 0.313354, 1.03299, 0.34851, 0.655882, 0.0001, 45.5, 246, 5.72102, 0.0549392, 0, 0, 1, 0, 71344
-8287.68, -16386.1, 9.83611, 1.70167, -822.554, 0.817425, 0.313354, 1.03299, 0.34851, 0.655882, 3, 45.5, 246, 5.72102, 0.0549392, 0, 0, 1, 0, 71344
-11404, 171704, -51.2706, 1.99227, -1129.63, -0.00962362, 0.301597, 1.03299, 0.34851, 0.655882, 0.0001, 45.5, 246, 24.1015, 0.0751981, 0, 0, 1, 0, 71347
-11404, 171704, -51.2706, 1.99227, -1129.63, -0.00962362, 0.301597, 1.03299, 0.34851, 0.655882, 3, 45.5, 246, 24.1015, 0.0751981, 0, 0, 1, 0, 71347
-9992.53, 193840, -75.5544, 2.11858, -1132.96, 0.00891744, 0.2817, 0.993198, 0.349787, 0.651995, 3, 91, 246, 24.1015, 0.0751981, 0, 0, 1, 0, 71347
-7499.11, -9775.85, -7.53368, 2.81073, -855.265, 0.0209107, 0.250733, 1.03299, 0.34851, 0.655882, 0.0001, 45.5, 246, 16.1969, 0.0460264, 0, 0, 1, 1, 71350
-7499.11, -9775.85, -7.53368, 2.81073, -855.265, 0.0209107, 0.250733, 1.03299, 0.34851, 0.655882, 3, 45.5, 246, 16.1969, 0.0460264, 0, 0, 1, 1, 71350
-11646.1, 229747, -50.6288, 1.43396, -1143.14, 0.204854, 0.324236, 1.03299, 0.34851, 0.655882, 0.0001, 45.5, 246, 23.5903, 0.0600798, 0, 0, 1, 0, 71352
-11646.1, 229747, -50.6288, 1.43396, -1143.14, 0.204854, 0.324236, 1.03299, 0.34851, 0.655882, 3, 45.5, 246, 23.5903, 0.0600798, 0, 0, 1, 0, 71352
-10322.8, 256017, -68.8391, 1.52741, -1184.64, 0.221651, 0.296702, 0.993198, 0.349787, 0.651995, 3, 91, 246, 23.5903, 0.0600798, 0, 0, 1, 0, 71352
-8619.86, 284772, -89.5961, 1.62718, -1232.04, 0.241011, 0.275467, 0.958125, 0.351078, 0.648177, 0.0001, 182, 246, 23.5903, 0.0600798, 0, 0, 1, 0, 71352
-4851.48, 18563.6, -104.1, 3.64287, -808.235, 0.0215349, 0.17391, 1.03299, 0.34851, 0.655882, 0.0001, 45.5, 246, 41.122, 0.0555979, 0, 0, 1, 1, 71354
-4851.48, 18563.6, -104.1, 3.64287, -808.235, 0.0215349, 0.17391, 1.03299, 0.34851, 0.655882, 3, 45.5, 246, 41.122, 0.0555979, 0, 0, 1, 1, 71354
-1572.27, 63798.4, -270.99, 5.16648, -944.421, 0.310253, 0.331054, 0.9175, 0.352806, 0.64323, 0.0001, 455, 246, 41.122, 0.0555979, 1.23628, 1, 1, 0, 71354
-1572.27, 63798.4, -270.99, 5.16648, -944.421, 0.310253, 0.331054, 0.9175, 0.352806, 0.64323, 3, 455, 246, 41.122, 0.0555979, 1.13835, 1, 1, 0, 71354
-7401.15, 58658.6, -101.993, 3.53368, -608.974, 0.0227941, 0.174982, 1.03299, 0.34851, 0.655882, 0.0001, 45.5, 246, 31.1502, 0.0886509, 0, 0, 1, 0, 71356
-7401.15, 58658.6, -101.993, 3.53368, -608.974, 0.0227941, 0.174982, 1.03299, 0.34851, 0.655882, 3, 45.5, 246, 31.1502, 0.0886509, 0, 0, 1, 0, 71356
-8271.66, 58024.2, -63.1796, 1.48989, -1058.91, 0.123695, 0.320606, 0.993198, 0.349787, 0.651995, 0.0001, 91, 246, 29.0306, 0.174716, 0, 0, 1, 1, 71357
-8271.66, 58024.2, -63.1796, 1.48989, -1058.91, 0.123695, 0.320606, 0.993198, 0.349787, 0.651995, 3, 91, 246, 29.0306, 0.174716, 0, 0, 1, 1, 71357
-6671.63, 268547, -412.112, 3.52195, -907.467, -0.000158671, 0.497318, 0.993198, 0.349787, 0.651995, 0.0001, 91, 246, 53.2973, 0.248923, 1.38896, 1, 1, 0, 71358
-6671.63, 268547, -412.112, 3.52195, -907.467, -0.000158671, 0.497318, 0.993198, 0.349787, 0.651995, 3, 91, 246, 53.2973, 0.248923, 1.28499, 1, 1, 0, 71358
-11140.6, 127621, -30.3438, 2.45543, -1000.71, 0.00634322, 0.262447, 1.03299, 0.34851, 0.655882, 0.0001, 45.5, 246, 20.3439, 0.0619111, 0, 0, 1, 0, 71365
-11140.6, 127621, -30.3438, 2.45543, -1000.71, 0.00634322, 0.262447, 1.03299, 0.34851, 0.655882, 3, 45.5, 246, 20.3439, 0.0619111, 0, 0, 1, 0, 71365
-6493.81, 275546, -423.317, 3.67033, -973.92, 0.132667, 0.488846, 0.993198, 0.349787, 0.651995, 0.0001, 91, 246, 53.802, 0.245565, 1.46266, 1, 1, 0, 71366
-6493.81, 275546, -423.317, 3.67033, -973.92, 0.132667, 0.488846, 0.993198, 0.349787, 0.651995, 3, 91, 246, 53.802, 0.245565, 1.36987, 1, 1, 0, 71366
-13612.9, 231068, -191.725, 3.58405, -1168.9, -0.040694, 0.239947, 1.03299, 0.34851, 0.655882, 0.0001, 45.5, 246, 40.526, 0.148568, 0, 0, 0, 0, 71367
-13612.9, 231068, -191.725, 3.58405, -1168.9, -0.040694, 0.239947, 1.03299, 0.34851, 0.655882, 3, 45.5, 246, 40.526, 0.148568, 0, 0, 0, 0, 71367
-10323.5, 227272, -258.878, 1.91663, -841.485, 0.00799131, 0.509596, 1.03299, 0.34851, 0.655882, 0.0001, 45.5, 246, 45.8539, 0.24369, 0, 0, 0, 0, 71368
-10323.5, 227272, -258.878, 1.91663, -841.485, 0.00799131, 0.509596, 1.03299, 0.34851, 0.655882, 3, 45.5, 246, 45.8539, 0.24369, 0, 0, 0, 0, 71368
8.55796, 279007, -384.57, 2.41048, -920.067, 0.0767057, 0.526439, 0.9175, 0.352806, 0.64323, 3, 455, 246, 45.8539, 0.24369, 1.06853, 1, 0, 0, 71368
-9994.93, 160553, -141.476, 2.4612, -1128.1, 0.16289, 0.33448, 1.03299, 0.34851, 0.655882, 3, 45.5, 246, 37.2579, 0.157383, 0, 0, 0, 0, 71369
-9413.17, 163807, -206.86, 2.71296, -849.752, 0.535249, 0.348284, 1.03299, 0.34851, 0.655882, 3, 45.5, 246, 42.3815, 0.188665, 0, 0, 0, 0, 71374
-12343.2, 199630, -139.588, 3.04103, -1152.4, -0.00199819, 0.267854, 1.03299, 0.34851, 0.655882, 0.0001, 45.5, 246, 35.5712, 0.130515, 0, 0, 0, 0, 71376
-12343.2, 199630, -139.588, 3.04103, -1152.4, -0.00199819, 0.267854, 1.03299, 0.34851, 0.655882, 3, 45.5, 246, 35.5712, 0.130515, 0, 0, 0, 0, 71376
-5783.66, 89964.4, -177.183, 2.64712, -944.016, 0.253806, 0.349999, 1.03299, 0.34851, 0.655882, 0.0001, 45.5, 246, 51.3817, 0.233093, 1.06209, 1, 1, 0, 71380
-4379.9, 108399, -215.604, 2.89665, -1000.68, 0.299532, 0.349218, 0.993198, 0.349787, 0.651995, 0.0001, 91, 246, 51.3817, 0.233093, 1.09359, 1, 1, 0, 71380
-2379.59, 130101, -261.956, 3.18791, -1073.34, 0.357036, 0.362118, 0.958125, 0.351078, 0.648177, 0.0001, 182, 246, 51.3817, 0.233093, 1.44649, 1, 1, 0, 71380
-2379.59, 130101, -261.956, 3.18791, -1073.34, 0.357036, 0.362118, 0.958125, 0.351078, 0.648177, 3, 182, 246, 51.3817, 0.233093, 1.25904, 1, 1, 0, 71380
-11308.8, 98720.5, 0.066148, 3.48959, -1192.65, -0.0162513, 0.158876, 1.03299, 0.34851, 0.655882, 0.0001, 45.5, 246, 19.5639, 0.0506951, 0, 0, 0, 0, 71384
-11308.8, 98720.5, 0.066148, 3.48959, -1192.65, -0.0162513, 0.158876, 1.03299, 0.34851, 0.655882, 3, 45.5, 246, 19.5639, 0.0506951, 0, 0, 0, 0, 71384
-9762.25, 123139, -39.7768, 3.80552, -1196.81, 0.0421122, 0.171146, 0.993198, 0.349787, 0.651995, 0.0001, 91, 246, 19.5639, 0.0506951, 0, 0, 1, 0, 71384
-9762.25, 123139, -39.7768, 3.80552, -1196.81, 0.0421122, 0.171146, 0.993198, 0.349787, 0.651995, 3, 91, 246, 19.5639, 0.0506951, 0, 0, 1, 0, 71384
-7911.04, 159811, -81.0312, 3.93197, -1224.71, 0.881162, 0.21483, 0.958125, 0.351078, 0.648177, 0.0001, 182, 246, 17.7865, 0.0437862, 0, 0, 1, 0, 71385
-7911.04, 159811, -81.0312, 3.93197, -1224.71, 0.881162, 0.21483, 0.958125, 0.351078, 0.648177, 3, 182, 246, 17.7865, 0.0437862, 0, 0, 1, 0, 71385
-3196.31, 216631, -165.55, 4.80129, -1539.74, 1.2153, 0.28668, 0.9175, 0.352806, 0.64323, 0.0001, 455, 246, 17.7865, 0.0437862, 0, 0, 0, 0, 71385
-3196.31, 216631, -165.55, 4.80129, -1539.74, 1.2153, 0.28668, 0.9175, 0.352806, 0.64323, 3, 455, 246, 17.7865, 0.0437862, 0, 0, 0, 0, 71385
-8836.06, 67930.5, -20.7233, 0.539722, -1032.53, 0.113761, 0.34604, 1.03299, 0.34851, 0.655882, 0.0001, 45.5, 246, 15.5317, 0.0736441, 0, 0, 1, 0, 71387
-8836.06, 67930.5, -20.7233, 0.539722, -1032.53, 0.113761, 0.34604, 1.03299, 0.34851, 0.655882, 3, 45.5, 246, 15.5317, 0.0736441, 0, 0, 1, 0, 71387
3548.3, 321216, -412.395, 4.90554, -1080.68, 0.368189, 0.383458, 0.9175, 0.352806, 0.64323, 0.0001, 455, 246, 36.3386, 0.140483, 0, 0, 0, 0, 71388
3548.3, 321216, -412.395, 4.90554, -1080.68, 0.368189, 0.383458, 0.9175, 0.352806, 0.64323, 3, 455, 246, 36.3386, 0.140483, 0, 0, 0, 0, 71388
-9935.17, 100431, -29.8689, 1.91079, -982.348, 0.0187509, 0.302014, 1.03299, 0.34851, 0.655882, 0.0001, 45.5, 246, 19.5425, 0.0691275, 0, 0, 1, 0, 71389
-9935.17, 100431, -29.8689, 1.91079, -982.348, 0.0187509, 0.302014, 1.03299, 0.34851, 0.655882, 3, 45.5, 246, 19.5425, 0.0691275, 0, 0, 1, 0, 71389
-4139.5, 270982, -365.151, 4.16745, -945.227, 0.710739, 0.352541, 0.958125, 0.351078, 0.648177, 0.0001, 182, 246, 40.2274, 0.170722, 1.26472, 1, 0, 0, 71398
-4139.5, 270982, -365.151, 4.16745, -945.227, 0.710739, 0.352541, 0.958125, 0.351078, 0.648177, 3, 182, 246, 40.2274, 0.170722, 1.04476, 1, 0, 0, 71398
-11224.1, 137659, -90.7371, 3.21651, -861.208, -0.0479099, 0.211978, 1.03299, 0.34851, 0.655882, 0.0001, 45.5, 246, 27.7181, 0.0977995, 0, 0, 0, 0, 71400
-11224.1, 137659, -90.7371, 3.21651, -861.208, -0.0479099, 0.211978, 1.03299, 0.34851, 0.655882, 3, 45.5, 246, 27.7181, 0.0977995, 0, 0, 0, 0, 71400
-9246.89, 150171, -124.957, 3.48764, -867.449, 0.00146135, 0.217983, 0.993198, 0.349787, 0.651995, 0.0001, 91, 246, 27.7181, 0.0977995, 0, 0, 1, 0, 71400
-9246.89, 150171, -124.957, 3.48764, -867.449, 0.00146135, 0.217983, 0.993198, 0.349787, 0.651995, 3, 91, 246, 27.7181, 0.0977995, 0, 0, 1, 0, 71400
967.54, 260098, -339.437, 4.94454, -881.189, 0.199754, 0.339501, 0.9175, 0.352806, 0.64323, 0.0001, 455, 246, 32.1344, 0.121283, 1.06376, 1, 0, 0, 71402
967.54, 260098, -339.437, 4.94454, -881.189, 0.199754, 0.339501, 0.9175, 0.352806, 0.64323, 3, 455, 246, 32.1344, 0.121283, 1.23386, 1, 0, 0, 71402
-5935.64, 152257, -113.183, 3.07531, -1320.16, 0.513952, 0.267714, 0.9175, 0.352806, 0.64323, 3, 455, 246, 17.1867, 0.0565576, 0, 0, 1, 0, 71403
-8712.99, 72437.1, -63.6534, 1.78481, -898.551, -0.0132677, 0.330539, 1.03299, 0.34851, 0.655882, 0.0001, 45.5, 246, 27.85, 0.132532, 0, 0, 1, 0, 71406
-8712.99, 72437.1, -63.6534, 1.78481, -898.551, -0.0132677, 0.330539, 1.03299, 0.34851, 0.655882, 3, 45.5, 246, 27.85, 0.132532, 0, 0, 1, 0, 71406
-9212.17, 77659, -63.8249, 3.61624, -799.615, -0.0588164, 0.158602, 1.03299, 0.34851, 0.655882, 0.0001, 45.5, 246, 24.8987, 0.0767786, 0, 0, 1, 0, 71408
-9212.17, 77659, -63.8249, 3.61624, -799.615, -0.0588164, 0.158602, 1.03299, 0.34851, 0.655882, 3, 45.5, 246, 24.8987, 0.0767786, 0, 0, 0, 0, 71408
-7757.33, 35376.8, -74.1617, 3.79183, -987.758, 0.293725, 0.289135, 0.9175, 0.352806, 0.64323, 3, 455, 246, 7.06639, 0.046675, 0, 0, 1, 1, 71409
-7699.1, 49745.9, -74.712, 3.59852, -660.323, 0.173353, 0.158855, 1.03299, 0.34851, 0.655882, 0.0001, 45.5, 246, 26.6718, 0.0710723, 0, 0, 1, 0, 71410
-7699.1, 49745.9, -74.712, 3.59852, -660.323, 0.173353, 0.158855, 1.03299, 0.34851, 0.655882, 3, 45.5, 246, 26.6718, 0.0710723, 0, 0, 1, 0, 71410
-10717.8, 98169.1, -49.2632, 3.55322, -602.591, -0.0605978, 0.151891, 1.03299, 0.34851, 0.655882, 0.0001, 45.5, 246, 18.7082, 0.0572396, 0, 0, 1, 0, 71413
-10717.8, 98169.1, -49.2632, 3.55322, -602.591, -0.0605978, 0.151891, 1.03299, 0.34851, 0.655882, 3, 45.5, 246, 18.7082, 0.0572396, 0, 0, 1, 0, 71413
-11833.2, 264775, -203.15, 1.90209, -977.848, 0.194498, 0.413451, 1.03299, 0.34851, 0.655882, 0.0001, 45.5, 246, 37.6561, 0.167653, 0, 0, 0, 0, 71414
-12127.3, 171126, -111.765, 3.4275, -1181.53, -0.0540571, 0.208171, 1.03299, 0.34851, 0.655882, 0.0001, 45.5, 246, 33.5216, 0.114256, 0, 0, 0, 0, 71415
-12127.3, 171126, -111.765, 3.4275, -1181.53, -0.0540571, 0.208171, 1.03299, 0.34851, 0.655882, 3, 45.5, 246, 33.5216, 0.114256, 0, 0, 0, 0, 71415
-9342.39, 195141, -160.616, 3.7306, -1189.34, 0.00222819, 0.221025, 0.993198, 0.349787, 0.651995, 0.0001, 91, 246, 33.5216, 0.114256, 0, 0, 1, 0, 71415
-9342.39, 195141, -160.616, 3.7306, -1189.34, 0.00222819, 0.221025, 0.993198, 0.349787, 0.651995, 3, 91, 246, 33.5216, 0.114256, 0, 0, 1, 0, 71415
-5627.83, 220955, -218.94, 4.09214, -1215.43, 0.0694828, 0.252885, 0.958125, 0.351078, 0.648177, 0.0001, 182, 246, 33.5216, 0.114256, 0, 0, 0, 0, 71415
-5627.83, 220955, -218.94, 4.09214, -1215.43, 0.0694828, 0.252885, 0.958125, 0.351078, 0.648177, 3, 182, 246, 33.5216, 0.114256, 0, 0, 0, 0, 71415
1247.51, 260611, -317.17, 4.70228, -1288.57, 0.184518, 0.329955, 0.9175, 0.352806, 0.64323, 3, 455, 246, 33.5216, 0.114256, 0, 0, 0, 0, 71415
-9052.76, 84632.2, -82.0153, 2.75528, -710.851, 0.499112, 0.24993, 1.03299, 0.34851, 0.655882, 0.0001, 45.5, 246, 27.1081, 0.0982958, 0, 0, 1, 0, 71417
-9052.76, 84632.2, -82.0153, 2.75528, -710.851, 0.499112, 0.24993, 1.03299, 0.34851, 0.655882, 3, 45.5, 246, 27.1081, 0.0982958, 0, 0, 1, 0, 71417
-8028.95, 96668.1, -108.114, 3.05595, -781.568, 0.582049, 0.245634, 0.993198, 0.349787, 0.651995, 0.0001, 91, 246, 27.1081, 0.0982958, 0, 0, 1, 0, 71417
-8028.95, 96668.1, -108.114, 3.05595, -781.568, 0.582049, 0.245634, 0.993198, 0.349787, 0.651995, 3, 91, 246, 27.1081, 0.0982958, 0, 0, 1, 0, 71417
-6581.05, 111997, -141.416, 3.42027, -875.061, 0.691648, 0.257232, 0.958125, 0.351078, 0.648177, 0.0001, 182, 246, 27.1081, 0.0982958, 0, 0, 1, 0, 71417
-6581.05, 111997, -141.416, 3.42027, -875.061, 0.691648, 0.257232, 0.958125, 0.351078, 0.648177, 3, 182, 246, 27.1081, 0.0982958, 0, 0, 1, 0, 71417
-3679.69, 140529, -202.422, 4.0521, -1055.85, 0.902959, 0.302264, 0.9175, 0.352806, 0.64323, 0.0001, 455, 246, 27.1081, 0.0982958, 0, 0, 1, 0, 71417
-3679.69, 140529, -202.422, 4.0521, -1055.85, 0.902959, 0.302264, 0.9175, 0.352806, 0.64323, 3, 455, 246, 27.1081, 0.0982958, 0, 0, 1, 0, 71417
-12635.7, 251738, -3.11238, 1.27241, -745.247, 0.501828, 0.314271, 1.03299, 0.34851, 0.655882, 0.0001, 45.5, 246, 13.2669, 0.0136304, 0, 0, 1, 0, 71419
-12635.7, 251738, -3.11238, 1.27241, -745.247, 0.501828, 0.314271, 1.03299, 0.34851, 0.655882, 3, 45.5, 246, 13.2669, 0.0136304, 0, 0, 1, 0, 71419
-11433.3, 269284, -12.5059, 1.37369, -810.217, 0.553393, 0.284031, 0.993198, 0.349787, 0.651995, 3, 91, 246, 13.2669, 0.0136304, 0, 0, 1, 0, 71419
-9923.74, 290266, -24.0244, 1.48645, -889.22, 0.616258, 0.259989, 0.958125, 0.351078, 0.648177, 0.0001, 182, 246, 13.2669, 0.0136304, 0, 0, 1, 0, 71419
-11450.4, 297083, -66.9178, 1.09732, -1182.21, -0.00555017, 0.340728, 1.03299, 0.34851, 0.655882, 0.0001, 45.5, 246, 25.416, 0.0610315, 0, 0, 1, 0, 71420
-11450.4, 297083, -66.9178, 1.09732, -1182.21, -0.00555017, 0.340728, 1.03299, 0.34851, 0.655882, 3, 45.5, 246, 25.416, 0.0610315, 0, 0, 1, 0, 71420
-10162, 321490, -82.0015, 1.14885, -1183.88, -1.15034e-05, 0.310151, 0.993198, 0.349787, 0.651995, 3, 91, 246, 25.416, 0.0610315, 0, 0, 1, 0, 71420
-8432.98, 142857, -185.532, 2.44217, -929.669, -0.0272464, 0.384055, 1.03299, 0.34851, 0.655882, 0.0001, 45.5, 246, 44.5111, 0.214819, 0, 0, 1, 0, 71423
-8432.98, 142857, -185.532, 2.44217, -929.669, -0.0272464, 0.384055, 1.03299, 0.34851, 0.655882, 3, 45.5, 246, 44.5111, 0.214819, 0, 0, 1, 0, 71423
-82.2768, 200176, -325.094, 3.14188, -1003.45, 0.0858548, 0.413488, 0.9175, 0.352806, 0.64323, 0.0001, 455, 246, 44.5111, 0.214819, 1.71295, 1, 0, 0, 71423
-82.2768, 200176, -325.094, 3.14188, -1003.45, 0.0858548, 0.413488, 0.9175, 0.352806, 0.64323, 3, 455, 246, 44.5111, 0.214819, 1.81823, 1, 0, 0, 71423
-8882.67, 205776, -106.853, 2.44003, -622.982, 0.181403, 0.26315, 0.958125, 0.351078, 0.648177, 0.0001, 182, 246, 19.3023, 0.0744516, 0, 0, 1, 0, 71424
-7921.19, 321078, -283.874, 0.646249, -951.88, 0.683412, 0.541783, 0.993198, 0.349787, 0.651995, 0.0001, 91, 246, 40.1911, 0.221263, 0, 0, 1, 0, 71427
-6468.28, -20704.9, -17.4315, 3.28775, -1039.96, 0.671722, 0.209536, 1.03299, 0.34851, 0.655882, 0.0001, 45.5, 246, 23.1683, 0.0395762, 0, 0, 1, 0, 71428
-11449.2, 335932, -215.882, 1.26636, -983.076, 0.263167, 0.443484, 1.03299, 0.34851, 0.655882, 0.0001, 45.5, 246, 35.7936, 0.153304, 0, 0, 0, 0, 71429
-9872.05, 122869, -57.9826, 1.78782, -1099.12, -0.00950967, 0.322945, 1.03299, 0.34851, 0.655882, 0.0001, 45.5, 246, 25.2234, 0.098984, 0, 0, 1, 0, 71430
-9872.05, 122869, -57.9826, 1.78782, -1099.12, -0.00950967, 0.322945, 1.03299, 0.34851, 0.655882, 3, 45.5, 246, 25.2234, 0.098984, 0, 0, 1, 0, 71430
-7495.28, 149232, -253.055, 3.30363, -823.697, 0.578182, 0.307335, 1.03299, 0.34851, 0.655882, 0.0001, 45.5, 246, 48.8805, 0.202184, 1.24863, 1, 0, 0, 71433
-7495.28, 149232, -253.055, 3.30363, -823.697, 0.578182, 0.307335, 1.03299, 0.34851, 0.655882, 3, 45.5, 246, 48.8805, 0.202184, 1.13383, 1, 0, 0, 71433
-4528.86, 169069, -304.481, 3.72866, -937.507, 0.695977, 0.324544, 0.993198, 0.349787, 0.651995, 0.0001, 91, 246, 48.8805, 0.202184, 1.42382, 1, 1, 0, 71433
-4528.86, 169069, -304.481, 3.72866, -937.507, 0.695977, 0.324544, 0.993198, 0.349787, 0.651995, 3, 91, 246, 48.8805, 0.202184, 1.28803, 1, 1, 0, 71433
-405.93, 196353, -371.994, 4.27051, -1097.02, 0.860765, 0.366011, 0.958125, 0.351078, 0.648177, 0.0001, 182, 246, 48.8805, 0.202184, 2.96615, 1, 0, 0, 71433
-405.93, 196353, -371.994, 4.27051, -1097.02, 0.860765, 0.366011, 0.958125, 0.351078, 0.648177, 3, 182, 246, 48.8805, 0.202184, 2.76217, 1, 0, 0, 71433
-11120.7, 229993, -169.473, 2.0311, -1129.26, -0.0193852, 0.385035, 1.03299, 0.34851, 0.655882, 0.0001, 45.5, 246, 37.5503, 0.160278, 0, 0, 0, 0, 71434
-11120.7, 229993, -169.473, 2.0311, -1129.26, -0.0193852, 0.385035, 1.03299, 0.34851, 0.655882, 3, 45.5, 246, 37.5503, 0.160278, 0, 0, 0, 0, 71434
-8094.39, -3007.33, -23.4619, 2.5971, -917.919, 0.0971041, 0.271055, 0.993198, 0.349787, 0.651995, 3, 91, 246, 14.7073, 0.0470336, 0, 0, 1, 1, 71436
-10431.1, 148483, -85.9209, 1.84598, -690.47, -0.0158927, 0.325569, 1.03299, 0.34851, 0.655882, 0.0001, 45.5, 246, 24.6484, 0.110249, 0, 0, 1, 0, 71438
-10431.1, 148483, -85.9209, 1.84598, -690.47, -0.0158927, 0.325569, 1.03299, 0.34851, 0.655882, 3, 45.5, 246, 24.6484, 0.110249, 0, 0, 1, 0, 71438
-9337.33, 156656, -103.082, 1.95817, -694.315, -3.81223e-06, 0.304595, 0.993198, 0.349787, 0.651995, 0.0001, 91, 246, 24.6484, 0.110249, 0, 0, 1, 0, 71438
-9307.62, 91241.9, -76.4612, 3.06592, -911.608, -0.0387742, 0.230666, 1.03299, 0.34851, 0.655882, 0.0001, 45.5, 246, 28.2603, 0.100757, 0, 0, 1, 0, 71440
-9307.62, 91241.9, -76.4612, 3.06592, -911.608, -0.0387742, 0.230666, 1.03299, 0.34851, 0.655882, 3, 45.5, 246, 28.2603, 0.100757, 0, 0, 1, 0, 71440
-10403.2, 234053, -301.313, 3.10335, -1101.28, -0.0395697, 0.441881, 1.03299, 0.34851, 0.655882, 3, 45.5, 246, 52.3657, 0.236707, 0, 0, 0, 0, 71441
-6200.36, 257021, -361.558, 3.38062, -1126.52, 0.00656695, 0.461377, 0.993198, 0.349787, 0.651995, 0.0001, 91, 246, 52.3657, 0.236707, 1.00322, 1, 1, 0, 71441
-14094.9, 184273, -35.211, 3.06004, -1012.27, 0.00358392, 0.200367, 1.03299, 0.34851, 0.655882, 0.0001, 45.5, 246, 21.7531, 0.0558956, 0, 0, 0, 0, 71442
-14094.9, 184273, -35.211, 3.06004, -1012.27, 0.00358392, 0.200367, 1.03299, 0.34851, 0.655882, 3, 45.5, 246, 21.7531, 0.0558956, 0, 0, 0, 0, 71442
-4579.03, 73100.4, -178.785, 3.35399, -819.983, -0.0531515, 0.247437, 1.03299, 0.34851, 0.655882, 0.0001, 45.5, 246, 50.4222, 0.172278, 1.2903, 1, 1, 0, 71443
-4579.03, 73100.4, -178.785, 3.35399, -819.983, -0.0531515, 0.247437, 1.03299, 0.34851, 0.655882, 3, 45.5, 246, 50.4222, 0.172278, 1.08724, 1, 1, 0, 71443
-3106.31, 85445.2, -221.294, 3.64936, -834.878, 0.000734318, 0.260252, 0.993198, 0.349787, 0.651995, 0.0001, 91, 246, 50.4222, 0.172278, 1.37906, 1, 1, 0, 71443
-3106.31, 85445.2, -221.294, 3.64936, -834.878, 0.000734318, 0.260252, 0.993198, 0.349787, 0.651995, 3, 91, 246, 50.4222, 0.172278, 1.21579, 1, 1, 0, 71443
-1076.96, 99154.5, -271.928, 4.00047, -863.937, 0.0650282, 0.291472, 0.958125, 0.351078, 0.648177, 0.0001, 182, 246, 50.4222, 0.172278, 1.75056, 1, 1, 0, 71443
-1076.96, 99154.5, -271.928, 4.00047, -863.937, 0.0650282, 0.291472, 0.958125, 0.351078, 0.648177, 3, 182, 246, 50.4222, 0.172278, 1.61225, 1, 1, 0, 71443
2813.39, 121011, -356.91, 4.58994, -932.62, 0.174592, 0.366455, 0.9175, 0.352806, 0.64323, 0.0001, 455, 246, 50.4222, 0.172278, 6.11966, 1, 0, 0, 71443
2813.39, 121011, -356.91, 4.58994, -932.62, 0.174592, 0.366455, 0.9175, 0.352806, 0.64323, 3, 455, 246, 50.4222, 0.172278, 6.15323, 1, 0, 0, 71443
-4203.07, 72094.8, -181.141, 2.64742, -897.647, 0.542593, 0.33376, 1.03299, 0.34851, 0.655882, 0.0001, 45.5, 246, 56.9463, 0.238917, 1.329, 1, 1, 0, 71444
-4203.07, 72094.8, -181.141, 2.64742, -897.647, 0.542593, 0.33376, 1.03299, 0.34851, 0.655882, 3, 45.5, 246, 56.9463, 0.238917, 1.15311, 1, 1, 0, 71444
-2952.8, 90870.4, -219.44, 2.94439, -999.935, 0.630976, 0.332349, 0.993198, 0.349787, 0.651995, 0.0001, 91, 246, 56.9463, 0.238917, 1.45064, 1, 1, 0, 71444
-2952.8, 90870.4, -219.44, 2.94439, -999.935, 0.630976, 0.332349, 0.993198, 0.349787, 0.651995, 3, 91, 246, 56.9463, 0.238917, 1.28193, 1, 1, 0, 71444
-1078.63, 115436, -267.943, 3.30564, -1135.62, 0.748421, 0.34631, 0.958125, 0.351078, 0.648177, 0.0001, 182, 246, 56.9463, 0.238917, 1.98679, 1, 1, 0, 71444
-1078.63, 115436, -267.943, 3.30564, -1135.62, 0.748421, 0.34631, 0.958125, 0.351078, 0.648177, 3, 182, 246, 56.9463, 0.238917, 1.83865, 1, 1, 0, 71444
-9751.33, 100878, -43.564, 1.94022, -1010.77, 0.0482152, 0.307018, 1.03299, 0.34851, 0.655882, 0.0001, 45.5, 246, 22.4804, 0.0860596, 0, 0, 1, 0, 71446
-9751.33, 100878, -43.564, 1.94022, -1010.77, 0.0482152, 0.307018, 1.03299, 0.34851, 0.655882, 3, 45.5, 246, 22.4804, 0.0860596, 0, 0, 1, 0, 71446
-4227.04, 255886, -341.564, 4.10425, -983.698, 0.965046, 0.338489, 0.958125, 0.351078, 0.648177, 0.0001, 182, 246, 39.0272, 0.164043, 1.01158, 1, 0, 0, 71449
-8028.38, 65795.9, -86.8071, 2.37429, -743.587, 0.0313238, 0.296916, 1.03299, 0.34851, 0.655882, 0.0001, 45.5, 246, 32.1666, 0.131253, 0, 0, 1, 0, 71450
-8028.38, 65795.9, -86.8071, 2.37429, -743.587, 0.0313238, 0.296916, 1.03299, 0.34851, 0.655882, 3, 45.5, 246, 32.1666, 0.131253, 0, 0, 1, 0, 71450
-9938.17, 321455, -291.782, 0.687847, -767.539, 0.600959, 0.571104, 1.03299, 0.34851, 0.655882, 0.0001, 45.5, 246, 39.4861, 0.217551, 0, 0, 0, 0, 71451
-9938.17, 321455, -291.782, 0.687847, -767.539, 0.600959, 0.571104, 1.03299, 0.34851, 0.655882, 3, 45.5, 246, 39.4861, 0.217551, 0, 0, 0, 0, 71451
-8395.97, 345550, -310.461, 0.744008, -854.197, 0.666502, 0.556869, 0.993198, 0.349787, 0.651995, 3, 91, 246, 39.4861, 0.217551, 0, 0, 1, 0, 71451
-12663.6, 247509, -358.677, 3.30422, -599.702, -0.0527041, 0.438601, 1.03299, 0.34851, 0.655882, 0.0001, 45.5, 246, 49.701, 0.238712, 1.14582, 1, 0, 0, 71456
-12663.6, 247509, -358.677, 3.30422, -599.702, -0.0527041, 0.438601, 1.03299, 0.34851, 0.655882, 3, 45.5, 246, 49.701, 0.238712, 1.07054, 1, 0, 0, 71456
-7857.29, 255766, -412.052, 3.61112, -632.101, -0.000167551, 0.464393, 0.993198, 0.349787, 0.651995, 0.0001, 91, 246, 49.701, 0.238712, 1.49644, 1, 1, 0, 71456
-7857.29, 255766, -412.052, 3.61112, -632.101, -0.000167551, 0.464393, 0.993198, 0.349787, 0.651995, 3, 91, 246, 49.701, 0.238712, 1.40547, 1, 1, 0, 71456
-1932.72, 266830, -476.036, 3.97816, -679.539, 0.0630887, 0.509749, 0.958125, 0.351078, 0.648177, 0.0001, 182, 246, 49.701, 0.238712, 5.44749, 1, 0, 0, 71456
-1932.72, 266830, -476.036, 3.97816, -679.539, 0.0630887, 0.509749, 0.958125, 0.351078, 0.648177, 3, 182, 246, 49.701, 0.238712, 4.4241, 1, 0, 0, 71456
-10377, 298168, -265.051, 1.13279, -904.013, 0.100475, 0.540697, 1.03299, 0.34851, 0.655882, 0.0001, 45.5, 246, 41.7454, 0.219691, 0, 0, 0, 0, 71460
-10377, 298168, -265.051, 1.13279, -904.013, 0.100475, 0.540697, 1.03299, 0.34851, 0.655882, 3, 45.5, 246, 41.7454, 0.219691, 0, 0, 0, 0, 71460
-8321.92, 80002.3, -89.2201, 2.23327, -1151.16, -0.0228577, 0.327123, 1.03299, 0.34851, 0.655882, 3, 45.5, 246, 34.7174, 0.158392, 0, 0, 1, 0, 71462
-7505.52, 103151, -119.525, 2.38592, -1155.43, 0.000569565, 0.314039, 0.993198, 0.349787, 0.651995, 0.0001, 91, 246, 34.7174, 0.158392, 0, 0, 1, 0, 71462
-7505.52, 103151, -119.525, 2.38592, -1155.43, 0.000569565, 0.314039, 0.993198, 0.349787, 0.651995, 3, 91, 246, 34.7174, 0.158392, 0, 0, 1, 0, 71462
-3766.86, 96507.2, -214.664, 2.67525, -768.76, 0.0340312, 0.348011, 0.958125, 0.351078, 0.648177, 0.0001, 182, 246, 50.3555, 0.235039, 1.00607, 1, 1, 0, 71464
-1487.36, 112329, -263.191, 2.95715, -801.389, 0.080656, 0.364911, 0.9175, 0.352806, 0.64323, 0.0001, 455, 246, 50.3555, 0.235039, 1.55092, 1, 1, 0, 71464
-1487.36, 112329, -263.191, 2.95715, -801.389, 0.080656, 0.364911, 0.9175, 0.352806, 0.64323, 3, 455, 246, 50.3555, 0.235039, 1.51831, 1, 0, 0, 71464
-1304.68, 239432, -381.793, 3.34321, -1146.58, 0.0450228, 0.485979, 0.958125, 0.351078, 0.648177, 0.0001, 182, 246, 52.5545, 0.248867, 2.17736, 1, 0, 0, 71465
-1304.68, 239432, -381.793, 3.34321, -1146.58, 0.0450228, 0.485979, 0.958125, 0.351078, 0.648177, 3, 182, 246, 52.5545, 0.248867, 1.98735, 1, 0, 0, 71465
-7342.95, 82311.7, -106.298, 3.4459, -1013.4, 0.0963931, 0.228596, 0.993198, 0.349787, 0.651995, 0.0001, 91, 246, 29.5258, 0.101024, 0, 0, 1, 0, 71466
-5893.2, 101356, -149.776, 3.77834, -1045.89, 0.15607, 0.250774, 0.958125, 0.351078, 0.648177, 3, 182, 246, 29.5258, 0.101024, 0, 0, 1, 0, 71466
-8335.78, 2208.52, -2.19193, 2.59832, -1188.69, -8.67888e-05, 0.267463, 0.993198, 0.349787, 0.651995, 0.0001, 91, 246, 7.49333, 0.0590901, 0, 0, 1, 1, 71467
-8991.04, 100015, -118.688, 3.0742, -619.366, 0.062536, 0.235923, 1.03299, 0.34851, 0.655882, 0.0001, 45.5, 246, 31.3689, 0.117884, 0, 0, 1, 0, 71471
-8991.04, 100015, -118.688, 3.0742, -619.366, 0.062536, 0.235923, 1.03299, 0.34851, 0.655882, 3, 45.5, 246, 31.3689, 0.117884, 0, 0, 1, 0, 71471
-7577.53, 107258, -147.028, 3.34614, -639.021, 0.108872, 0.239187, 0.993198, 0.349787, 0.651995, 0.0001, 91, 246, 31.3689, 0.117884, 0, 0, 1, 0, 71471
-7577.53, 107258, -147.028, 3.34614, -639.021, 0.108872, 0.239187, 0.993198, 0.349787, 0.651995, 3, 91, 246, 31.3689, 0.117884, 0, 0, 1, 0, 71471
-4079.85, 90175, -218.411, 3.26839, -795.914, 0.464213, 0.273142, 1.03299, 0.34851, 0.655882, 0.0001, 45.5, 246, 53.6893, 0.197045, 1.49495, 1, 1, 0, 71475
-4079.85, 90175, -218.411, 3.26839, -795.914, 0.464213, 0.273142, 1.03299, 0.34851, 0.655882, 3, 45.5, 246, 53.6893, 0.197045, 1.35987, 1, 1, 0, 71475
-2164.93, 105983, -264.534, 3.65782, -885.366, 0.557724, 0.286352, 0.993198, 0.349787, 0.651995, 0.0001, 91, 246, 53.6893, 0.197045, 1.655, 1, 1, 0, 71475
-2164.93, 105983, -264.534, 3.65782, -885.366, 0.557724, 0.286352, 0.993198, 0.349787, 0.651995, 3, 91, 246, 53.6893, 0.197045, 1.53968, 1, 1, 0, 71475
552.307, 126858, -323.824, 4.14365, -1007.72, 0.684791, 0.321761, 0.958125, 0.351078, 0.648177, 0.0001, 182, 246, 53.6893, 0.197045, 2.53057, 1, 1, 0, 71475
552.307, 126858, -323.824, 4.14365, -1007.72, 0.684791, 0.321761, 0.958125, 0.351078, 0.648177, 3, 182, 246, 53.6893, 0.197045, 2.39114, 1, 1, 0, 71475
-8640.59, 42146.9, -25.1116, 2.82344, -808.712, -0.0362255, 0.239917, 1.03299, 0.34851, 0.655882, 0.0001, 45.5, 246, 18.6422, 0.0614511, 1.07751, 1, 1, 0, 71478
-8640.59, 42146.9, -25.1116, 2.82344, -808.712, -0.0362255, 0.239917, 1.03299, 0.34851, 0.655882, 3, 45.5, 246, 18.6422, 0.0614511, 1.00849, 1, 1, 0, 71478
-8653.08, 16211.6, -14.8671, 1.63887, -946.046, 0.0257131, 0.294739, 0.993198, 0.349787, 0.651995, 3, 91, 246, 11.4462, 0.0619218, 0, 0, 1, 1, 71482
-8351.74, 74171.5, -89.3693, 3.14354, -761.319, -0.0464648, 0.224244, 1.03299, 0.34851, 0.655882, 0.0001, 45.5, 246, 30.1085, 0.103733, 0, 0, 1, 0, 71483
-8351.74, 74171.5, -89.3693, 3.14354, -761.319, -0.0464648, 0.224244, 1.03299, 0.34851, 0.655882, 3, 45.5, 246, 30.1085, 0.103733, 0, 0, 1, 0, 71483
-4655.5, 50772, -150.141, 2.80828, -647.04, 0.00352615, 0.27645, 1.03299, 0.34851, 0.655882, 0.0001, 45.5, 246, 50.7709, 0.157946, 1.12471, 1, 1, 0, 71484
-3823.53, 58601.5, -179.439, 3.03421, -661.953, 0.0410345, 0.274337, 0.993198, 0.349787, 0.651995, 0.0001, 91, 246, 50.7709, 0.157946, 1.13356, 1, 1, 0, 71484
-2689.09, 67251.1, -213.553, 3.29362, -684.961, 0.085555, 0.285635, 0.958125, 0.351078, 0.648177, 0.0001, 182, 246, 50.7709, 0.157946, 1.26219, 1, 1, 0, 71484
-2689.09, 67251.1, -213.553, 3.29362, -684.961, 0.085555, 0.285635, 0.958125, 0.351078, 0.648177, 3, 182, 246, 50.7709, 0.157946, 1.10193, 1, 1, 0, 71484
-570.256, 80679.5, -268.71, 3.70846, -732.116, 0.15958, 0.323102, 0.9175, 0.352806, 0.64323, 0.0001, 455, 246, 50.7709, 0.157946, 1.66205, 1, 1, 0, 71484
-570.256, 80679.5, -268.71, 3.70846, -732.116, 0.15958, 0.323102, 0.9175, 0.352806, 0.64323, 3, 455, 246, 50.7709, 0.157946, 1.55469, 1, 1, 1, 71484
-3830.08, 79103.9, -204.674, 2.9736, -746.911, 0.307343, 0.30252, 1.03299, 0.34851, 0.655882, 0.0001, 45.5, 246, 55.7643, 0.210956, 1.46902, 1, 1, 0, 71486
-3830.08, 79103.9, -204.674, 2.9736, -746.911, 0.307343, 0.30252, 1.03299, 0.34851, 0.655882, 3, 45.5, 246, 55.7643, 0.210956, 1.32263, 1, 1, 0, 71486
-2299.34, 91893.4, -243.986, 3.28081, -806.616, 0.368127, 0.307779, 0.993198, 0.349787, 0.651995, 0.0001, 91, 246, 55.7643, 0.210956, 1.60342, 1, 1, 0, 71486
-2299.34, 91893.4, -243.986, 3.28081, -806.616, 0.368127, 0.307779, 0.993198, 0.349787, 0.651995, 3, 91, 246, 55.7643, 0.210956, 1.4676, 1, 1, 0, 71486
-189.346, 107722, -292.375, 3.64898, -885.192, 0.446779, 0.330207, 0.958125, 0.351078, 0.648177, 0.0001, 182, 246, 55.7643, 0.210956, 2.12946, 1, 1, 0, 71486
-189.346, 107722, -292.375, 3.64898, -885.192, 0.446779, 0.330207, 0.958125, 0.351078, 0.648177, 3, 182, 246, 55.7643, 0.210956, 1.99177, 1, 1, 0, 71486
-8204.2, 158144, -98.1497, 0.0815301, -1075.46, 0.00164859, 0.408731, 1.03299, 0.34851, 0.655882, 0.0001, 45.5, 246, 29.7746, 0.174604, 0, 0, 1, 0, 71490
-8204.2, 158144, -98.1497, 0.0815301, -1075.46, 0.00164859, 0.408731, 1.03299, 0.34851, 0.655882, 3, 45.5, 246, 29.7746, 0.174604, 0, 0, 1, 0, 71490
-12449.1, 327652, -68.8222, 1.20518, -1087.13, -0.00275263, 0.335447, 1.03299, 0.34851, 0.655882, 3, 45.5, 246, 24.5656, 0.0576685, 0, 0, 1, 0, 71492
-10767.1, 120918, -22.66, 2.18374, -1097.57, 0.0515048, 0.281485, 1.03299, 0.34851, 0.655882, 0.0001, 45.5, 246, 19.9265, 0.0589458, 0, 0, 1, 0, 71495
-10767.1, 120918, -22.66, 2.18374, -1097.57, 0.0515048, 0.281485, 1.03299, 0.34851, 0.655882, 3, 45.5, 246, 19.9265, 0.0589458, 0, 0, 1, 0, 71495
-9506.47, 166342, -81.3508, 2.19514, -1123.26, 0.578158, 0.282631, 0.993198, 0.349787, 0.651995, 0.0001, 91, 246, 24.2565, 0.0833396, 0, 0, 1, 0, 71500
