-10840.9, 164970, -82.3625, 2.0854, -1111.97, -0.0159791, 0.314934, 1.03299, 0.34851, 0.655882, 0.0001, 45.5, 246, 28.3663, 0.105937, 0, 0, 1, 0, 42502
-10840.9, 164970, -82.3625, 2.0854, -1111.97, -0.0159791, 0.314934, 1.03299, 0.34851, 0.655882, 3, 45.5, 246, 28.3663, 0.105937, 0, 0, 1, 0, 42502
-9360.92, 186472, -109.494, 2.22165, -1116.35, 0.00437848, 0.29783, 0.993198, 0.349787, 0.651995, 3, 91, 246, 28.3663, 0.105937, 0, 0, 1, 0, 42502
-10568.1, 141638, -32.8396, 1.69454, -1092.04, 0.0320973, 0.311864, 1.03299, 0.34851, 0.655882, 0.0001, 45.5, 246, 20.725, 0.0637129, 0, 0, 1, 0, 42505
-10568.1, 141638, -32.8396, 1.69454, -1092.04, 0.0320973, 0.311864, 1.03299, 0.34851, 0.655882, 3, 45.5, 246, 20.725, 0.0637129, 0, 0, 1, 0, 42505
-11223.6, 159966, -112.441, 3.06053, -1134.06, -0.00883707, 0.251369, 1.03299, 0.34851, 0.655882, 0.0001, 45.5, 246, 33.3247, 0.121242, 0, 0, 0, 0, 42508
-11223.6, 159966, -112.441, 3.06053, -1134.06, -0.00883707, 0.251369, 1.03299, 0.34851, 0.655882, 3, 45.5, 246, 33.3247, 0.121242, 0, 0, 0, 0, 42508
-8917.25, 182644, -155.038, 3.31883, -1147.58, 0.0358123, 0.255022, 0.993198, 0.349787, 0.651995, 0.0001, 91, 246, 33.3247, 0.121242, 0, 0, 1, 0, 42508
-8917.25, 182644, -155.038, 3.31883, -1147.58, 0.0358123, 0.255022, 0.993198, 0.349787, 0.651995, 3, 91, 246, 33.3247, 0.121242, 0, 0, 1, 0, 42508
-8487.6, 326429, -314.255, 0.701643, -767.632, 0.0559032, 0.598751, 0.993198, 0.349787, 0.651995, 0.0001, 91, 246, 42.1242, 0.247481, 0, 0, 1, 0, 42509
-4735.57, 60130.7, -152.177, 3.34737, -1123.89, 0.0462635, 0.26195, 0.993198, 0.349787, 0.651995, 0.0001, 91, 246, 45.4406, 0.139021, 0, 0, 1, 0, 42510
-3454.31, 83413.9, -202.009, 3.65627, -1153.25, 0.100864, 0.282617, 0.958125, 0.351078, 0.648177, 0.0001, 182, 246, 45.4406, 0.139021, 1.05795, 1, 1, 0, 42510
-556.688, 118182, -284.628, 4.16347, -1222.1, 0.193719, 0.337947, 0.9175, 0.352806, 0.64323, 0.0001, 455, 246, 45.4406, 0.139021, 2.23665, 1, 0, 0, 42510
-556.688, 118182, -284.628, 4.16347, -1222.1, 0.193719, 0.337947, 0.9175, 0.352806, 0.64323, 3, 455, 246, 45.4406, 0.139021, 2.23645, 1, 0, 0, 42510
-8732.79, 86508, -41.9652, 0.388947, -971.993, 0.0221696, 0.361196, 1.03299, 0.34851, 0.655882, 0.0001, 45.5, 246, 20.9276, 0.12549, 0, 0, 1, 0, 42512
-8732.79, 86508, -41.9652, 0.388947, -971.993, 0.0221696, 0.361196, 1.03299, 0.34851, 0.655882, 3, 45.5, 246, 20.9276, 0.12549, 0, 0, 1, 0, 42512
-7522.28, 58833.5, -87.3022, 1.88103, -1136.72, 0.450149, 0.32109, 0.993198, 0.349787, 0.651995, 3, 91, 246, 36.8939, 0.208283, 0, 0, 1, 1, 42513
-9948.02, 326496, -181.5, 0.849452, -1001.75, 0.27515, 0.425271, 1.03299, 0.34851, 0.655882, 0.0001, 45.5, 246, 32.98, 0.135725, 0, 0, 0, 0, 42514
-9948.02, 326496, -181.5, 0.849452, -1001.75, 0.27515, 0.425271, 1.03299, 0.34851, 0.655882, 3, 45.5, 246, 32.98, 0.135725, 0, 0, 0, 0, 42514
-8599, 350530, -197.716, 0.900964, -1052.03, 0.291171, 0.39896, 0.993198, 0.349787, 0.651995, 3, 91, 246, 32.98, 0.135725, 0, 0, 1, 0, 42514
-6856.55, 69024.1, -113.385, 2.47772, -1069.09, 0.0177439, 0.303956, 0.993198, 0.349787, 0.651995, 3, 91, 246, 37.7139, 0.164729, 0, 0, 1, 0, 42515
-11904.7, 321737, -331.15, 1.60278, -890.777, -0.0110758, 0.607374, 1.03299, 0.34851, 0.655882, 0.0001, 45.5, 246, 47.005, 0.247813, 0, 0, 0, 0, 42517
-11904.7, 321737, -331.15, 1.60278, -890.777, -0.0110758, 0.607374, 1.03299, 0.34851, 0.655882, 3, 45.5, 246, 47.005, 0.247813, 0, 0, 0, 0, 42517
-10565.7, 218767, -222.338, 2.38683, -1065.59, -0.0136201, 0.420614, 1.03299, 0.34851, 0.655882, 0.0001, 45.5, 246, 44.0222, 0.203937, 0, 0, 0, 0, 42518
-10565.7, 218767, -222.338, 2.38683, -1065.59, -0.0136201, 0.420614, 1.03299, 0.34851, 0.655882, 3, 45.5, 246, 44.0222, 0.203937, 0, 0, 0, 0, 42518
-8794.69, 53628.7, -38.1123, 2.04069, -742.287, -0.0195355, 0.299512, 1.03299, 0.34851, 0.655882, 0.0001, 45.5, 246, 20.7898, 0.0843059, 0, 0, 1, 0, 42519
-9167.46, 101817, -43.934, 1.00793, -975.761, -0.00265497, 0.347588, 1.03299, 0.34851, 0.655882, 0.0001, 45.5, 246, 21.2978, 0.097925, 0, 0, 1, 0, 42524
-9167.46, 101817, -43.934, 1.00793, -975.761, -0.00265497, 0.347588, 1.03299, 0.34851, 0.655882, 3, 45.5, 246, 21.2978, 0.097925, 0, 0, 1, 0, 42524
-10675.2, 80383.6, 14.1581, 3.18498, -1036.28, 0.246964, 0.186339, 1.03299, 0.34851, 0.655882, 0.0001, 45.5, 246, 14.8152, 0.0362388, 0, 0, 0, 0, 42526
-10675.2, 80383.6, 14.1581, 3.18498, -1036.28, 0.246964, 0.186339, 1.03299, 0.34851, 0.655882, 3, 45.5, 246, 14.8152, 0.0362388, 0, 0, 0, 0, 42526
-9322.83, 302805, -206.514, 0.479108, -680.299, 0.0952764, 0.475407, 1.03299, 0.34851, 0.655882, 0.0001, 45.5, 246, 32.1257, 0.176948, 0, 0, 1, 0, 42530
-10705.4, 141602, -117.809, 3.172, -882.379, -0.0295068, 0.233633, 1.03299, 0.34851, 0.655882, 0.0001, 45.5, 246, 31.8239, 0.119463, 0, 0, 0, 0, 42531
-10705.4, 141602, -117.809, 3.172, -882.379, -0.0295068, 0.233633, 1.03299, 0.34851, 0.655882, 3, 45.5, 246, 31.8239, 0.119463, 0, 0, 0, 0, 42531
-8158.52, 199307, -335.377, 3.42146, -936.461, 0.399448, 0.407314, 1.03299, 0.34851, 0.655882, 0.0001, 45.5, 246, 55.9409, 0.246737, 1.33245, 1, 0, 0, 42532
-8158.52, 199307, -335.377, 3.42146, -936.461, 0.399448, 0.407314, 1.03299, 0.34851, 0.655882, 3, 45.5, 246, 55.9409, 0.246737, 1.25746, 1, 0, 0, 42532
-3793.7, 223283, -400.713, 3.84116, -1040.45, 0.488082, 0.435978, 0.993198, 0.349787, 0.651995, 0.0001, 91, 246, 55.9409, 0.246737, 1.82115, 1, 1, 0, 42532
-3793.7, 223283, -400.713, 3.84116, -1040.45, 0.488082, 0.435978, 0.993198, 0.349787, 0.651995, 3, 91, 246, 55.9409, 0.246737, 1.73479, 1, 1, 0, 42532
-10467.9, 251520, -282.546, 1.96307, -1004.08, 0.0470469, 0.539337, 1.03299, 0.34851, 0.655882, 0.0001, 45.5, 246, 48.4509, 0.248436, 0, 0, 0, 0, 42534
-10467.9, 251520, -282.546, 1.96307, -1004.08, 0.0470469, 0.539337, 1.03299, 0.34851, 0.655882, 3, 45.5, 246, 48.4509, 0.248436, 0, 0, 0, 0, 42534
-7718.46, 18750.9, -47.4534, 2.1505, -741.952, 0.0807415, 0.300555, 1.03299, 0.34851, 0.655882, 0.0001, 45.5, 246, 29.0466, 0.0841216, 0, 0, 1, 1, 42535
-8410.74, 80831.5, -92.2504, 3.34846, -961.363, 0.207462, 0.205249, 1.03299, 0.34851, 0.655882, 0.0001, 45.5, 246, 32.0754, 0.10885, 0, 0, 0, 0, 42538
-8410.74, 80831.5, -92.2504, 3.34846, -961.363, 0.207462, 0.205249, 1.03299, 0.34851, 0.655882, 3, 45.5, 246, 32.0754, 0.10885, 0, 0, 0, 0, 42538
-1143.16, 154463, -270.106, 4.82478, -1211.54, 0.505348, 0.327144, 0.9175, 0.352806, 0.64323, 0.0001, 455, 246, 32.0754, 0.10885, 1.21997, 1, 0, 0, 42538
-1143.16, 154463, -270.106, 4.82478, -1211.54, 0.505348, 0.327144, 0.9175, 0.352806, 0.64323, 3, 455, 246, 32.0754, 0.10885, 1.22337, 1, 0, 0, 42538
-5639.91, 59891.6, -132.115, 3.28984, -1175.4, 0.00205522, 0.262061, 0.993198, 0.349787, 0.651995, 0.0001, 91, 246, 40.2608, 0.132926, 0, 0, 1, 0, 42539
-5639.91, 59891.6, -132.115, 3.28984, -1175.4, 0.00205522, 0.262061, 0.993198, 0.349787, 0.651995, 3, 91, 246, 40.2608, 0.132926, 0, 0, 1, 0, 42539
-1716.22, 120713, -260.403, 4.05398, -1247.99, 0.140147, 0.331569, 0.9175, 0.352806, 0.64323, 0.0001, 455, 246, 40.2608, 0.132926, 1.55101, 1, 0, 0, 42539
-1716.22, 120713, -260.403, 4.05398, -1247.99, 0.140147, 0.331569, 0.9175, 0.352806, 0.64323, 3, 455, 246, 40.2608, 0.132926, 1.54404, 1, 0, 0, 42539
-1765.16, 147313, -259.399, 4.09627, -1380.6, 0.58513, 0.330174, 0.9175, 0.352806, 0.64323, 0.0001, 455, 246, 36.5973, 0.13413, 1.36443, 1, 0, 0, 42540
-1765.16, 147313, -259.399, 4.09627, -1380.6, 0.58513, 0.330174, 0.9175, 0.352806, 0.64323, 3, 455, 246, 36.5973, 0.13413, 1.36625, 1, 0, 0, 42540
-7637.46, 157243, -277.646, 3.10151, -601.316, -0.0451767, 0.37568, 1.03299, 0.34851, 0.655882, 0.0001, 45.5, 246, 50.9356, 0.233868, 1.34105, 1, 1, 0, 42547
-7637.46, 157243, -277.646, 3.10151, -601.316, -0.0451767, 0.37568, 1.03299, 0.34851, 0.655882, 3, 45.5, 246, 50.9356, 0.233868, 1.24958, 1, 1, 0, 42547
-4744, 164843, -320.269, 3.37116, -624.56, 0.000838431, 0.389549, 0.993198, 0.349787, 0.651995, 0.0001, 91, 246, 50.9356, 0.233868, 1.52109, 1, 1, 0, 42547
-4744, 164843, -320.269, 3.37116, -624.56, 0.000838431, 0.389549, 0.993198, 0.349787, 0.651995, 3, 91, 246, 50.9356, 0.233868, 1.40004, 1, 1, 0, 42547
-1157.96, 174207, -370.604, 3.68809, -659.39, 0.0555749, 0.419979, 0.958125, 0.351078, 0.648177, 0.0001, 182, 246, 50.9356, 0.233868, 2.20008, 1, 1, 1, 42547
-1157.96, 174207, -370.604, 3.68809, -659.39, 0.0555749, 0.419979, 0.958125, 0.351078, 0.648177, 3, 182, 246, 50.9356, 0.233868, 2.05044, 1, 1, 1, 42547
-11570.2, 217411, -29.5102, 1.36545, -1026.62, -0.00803811, 0.319813, 1.03299, 0.34851, 0.655882, 0.0001, 45.5, 246, 19.4718, 0.0437884, 0, 0, 1, 0, 42548
-11570.2, 217411, -29.5102, 1.36545, -1026.62, -0.00803811, 0.319813, 1.03299, 0.34851, 0.655882, 3, 45.5, 246, 19.4718, 0.0437884, 0, 0, 1, 0, 42548
-6011.36, 82893.3, -177.364, 3.00636, -582.056, 0.312831, 0.26912, 1.03299, 0.34851, 0.655882, 0.0001, 45.5, 246, 44.7425, 0.164632, 1.18462, 1, 1, 0, 42549
-4610.95, 91264.2, -209.664, 3.31708, -630.957, 0.37524, 0.273091, 0.993198, 0.349787, 0.651995, 0.0001, 91, 246, 44.7425, 0.164632, 1.12998, 1, 1, 0, 42549
-2757.65, 101753, -249.401, 3.68998, -695.401, 0.456132, 0.294462, 0.958125, 0.351078, 0.648177, 0.0001, 182, 246, 44.7425, 0.164632, 1.31006, 1, 1, 0, 42549
-2757.65, 101753, -249.401, 3.68998, -695.401, 0.456132, 0.294462, 0.958125, 0.351078, 0.648177, 3, 182, 246, 44.7425, 0.164632, 1.15891, 1, 1, 0, 42549
705.161, 120740, -318.958, 4.32638, -817.766, 0.607042, 0.355248, 0.9175, 0.352806, 0.64323, 0.0001, 455, 246, 44.7425, 0.164632, 2.08373, 1, 1, 0, 42549
705.161, 120740, -318.958, 4.32638, -817.766, 0.607042, 0.355248, 0.9175, 0.352806, 0.64323, 3, 455, 246, 44.7425, 0.164632, 2.0402, 1, 1, 0, 42549
-3268.76, 150270, -256.654, 3.60328, -1101.05, 0.503395, 0.322602, 0.958125, 0.351078, 0.648177, 0.0001, 182, 246, 43.2808, 0.179013, 1.03393, 1, 1, 0, 42550
-12103.9, 248977, -61.9582, 1.46767, -926.547, -0.00679976, 0.325254, 1.03299, 0.34851, 0.655882, 0.0001, 45.5, 246, 22.0073, 0.0649496, 0, 0, 1, 0, 42551
-12103.9, 248977, -61.9582, 1.46767, -926.547, -0.00679976, 0.325254, 1.03299, 0.34851, 0.655882, 3, 45.5, 246, 22.0073, 0.0649496, 0, 0, 1, 0, 42551
-8934.61, 279053, -95.2998, 1.62869, -933.927, 0.0142454, 0.277162, 0.958125, 0.351078, 0.648177, 0.0001, 182, 246, 22.0073, 0.0649496, 0, 0, 1, 0, 42551
-2141.11, 320934, -423.368, 3.93027, -1205.62, 0.208059, 0.440167, 0.958125, 0.351078, 0.648177, 0.0001, 182, 246, 47.7936, 0.201937, 0, 0, 0, 0, 42555
-2141.11, 320934, -423.368, 3.93027, -1205.62, 0.208059, 0.440167, 0.958125, 0.351078, 0.648177, 3, 182, 246, 47.7936, 0.201937, 3.14669, 1, 0, 0, 42555
-10168.7, 268659, -241.225, 1.15521, -870.021, 0.164431, 0.516528, 1.03299, 0.34851, 0.655882, 0.0001, 45.5, 246, 40.564, 0.217113, 0, 0, 0, 0, 42557
-10168.7, 268659, -241.225, 1.15521, -870.021, 0.164431, 0.516528, 1.03299, 0.34851, 0.655882, 3, 45.5, 246, 40.564, 0.217113, 0, 0, 0, 0, 42557
-11442.5, 248801, -133.156, 1.59946, -1046.17, 0.358026, 0.364756, 1.03299, 0.34851, 0.655882, 3, 45.5, 246, 31.2848, 0.119811, 0, 0, 0, 0, 42558
-7313.51, 304567, -184.892, 1.86558, -1200, 0.433366, 0.327925, 0.958125, 0.351078, 0.648177, 3, 182, 246, 31.2848, 0.119811, 0, 0, 0, 0, 42558
-11321.9, 203840, -121.621, 1.92972, -896.174, -0.0150415, 0.343776, 1.03299, 0.34851, 0.655882, 3, 45.5, 246, 29.9412, 0.126594, 0, 0, 1, 0, 42560
-7676.57, -395.04, -34.558, 3.04471, -1126.07, 0.579261, 0.255507, 0.993198, 0.349787, 0.651995, 3, 91, 246, 18.327, 0.0510563, 0, 0, 1, 0, 42566
-9220.57, 120253, -136.953, 3.50321, -905.935, -0.0412928, 0.208587, 1.03299, 0.34851, 0.655882, 0.0001, 45.5, 246, 36.1463, 0.132103, 0, 0, 0, 0, 42567
-9220.57, 120253, -136.953, 3.50321, -905.935, -0.0412928, 0.208587, 1.03299, 0.34851, 0.655882, 3, 45.5, 246, 36.1463, 0.132103, 0, 0, 0, 0, 42567
-7146.73, 134671, -180.079, 3.82154, -919.357, 0.017547, 0.224177, 0.993198, 0.349787, 0.651995, 0.0001, 91, 246, 36.1463, 0.132103, 0, 0, 1, 0, 42567
-7146.73, 134671, -180.079, 3.82154, -919.357, 0.017547, 0.224177, 0.993198, 0.349787, 0.651995, 3, 91, 246, 36.1463, 0.132103, 0, 0, 1, 0, 42567
694.892, 176265, -320.055, 4.85444, -1022.09, 0.211638, 0.344449, 0.9175, 0.352806, 0.64323, 0.0001, 455, 246, 36.1463, 0.132103, 2.01311, 1, 0, 0, 42567
694.892, 176265, -320.055, 4.85444, -1022.09, 0.211638, 0.344449, 0.9175, 0.352806, 0.64323, 3, 455, 246, 36.1463, 0.132103, 2.02604, 1, 0, 0, 42567
-7075.43, 156048, -265.932, 3.2793, -964.12, 0.600065, 0.340667, 1.03299, 0.34851, 0.655882, 0.0001, 45.5, 246, 52.0832, 0.220667, 1.25361, 1, 0, 0, 42568
-7075.43, 156048, -265.932, 3.2793, -964.12, 0.600065, 0.340667, 1.03299, 0.34851, 0.655882, 3, 45.5, 246, 52.0832, 0.220667, 1.14196, 1, 0, 0, 42568
-3890.4, 181634, -323.303, 3.70771, -1098.14, 0.722038, 0.359584, 0.993198, 0.349787, 0.651995, 0.0001, 91, 246, 52.0832, 0.220667, 1.52221, 1, 1, 0, 42568
-3890.4, 181634, -323.303, 3.70771, -1098.14, 0.722038, 0.359584, 0.993198, 0.349787, 0.651995, 3, 91, 246, 52.0832, 0.220667, 1.40221, 1, 1, 0, 42568
-10439.4, 252171, -177.374, 1.1582, -799.23, 0.288939, 0.428797, 1.03299, 0.34851, 0.655882, 0.0001, 45.5, 246, 32.9168, 0.163039, 0, 0, 1, 0, 42569
-10439.4, 252171, -177.374, 1.1582, -799.23, 0.288939, 0.428797, 1.03299, 0.34851, 0.655882, 3, 45.5, 246, 32.9168, 0.163039, 0, 0, 1, 0, 42569
-9048.45, 268513, -195.266, 1.23661, -843.898, 0.309355, 0.405821, 0.993198, 0.349787, 0.651995, 0.0001, 91, 246, 32.9168, 0.163039, 0, 0, 1, 0, 42569
-7338.56, 287015, -215.016, 1.32056, -894.858, 0.332796, 0.388365, 0.958125, 0.351078, 0.648177, 3, 182, 246, 32.9168, 0.163039, 0, 0, 1, 0, 42569
-10619.6, 148386, -119.951, 2.74864, -871.402, 0.104865, 0.27836, 1.03299, 0.34851, 0.655882, 0.0001, 45.5, 246, 31.7717, 0.127024, 0, 0, 1, 0, 42571
-10619.6, 148386, -119.951, 2.74864, -871.402, 0.104865, 0.27836, 1.03299, 0.34851, 0.655882, 3, 45.5, 246, 31.7717, 0.127024, 0, 0, 1, 0, 42571
-8958.12, 250766, -162.966, 1.44383, -1081.6, 0.675023, 0.36571, 0.993198, 0.349787, 0.651995, 0.0001, 91, 246, 31.9573, 0.138096, 0, 0, 1, 0, 42572
1040.67, 254012, -369.635, 4.58774, -720.386, 0.181587, 0.375227, 0.9175, 0.352806, 0.64323, 0.0001, 455, 246, 34.445, 0.147625, 1.46601, 1, 0, 0, 42575
1040.67, 254012, -369.635, 4.58774, -720.386, 0.181587, 0.375227, 0.9175, 0.352806, 0.64323, 3, 455, 246, 34.445, 0.147625, 1.5072, 1, 0, 0, 42575
-1281.52, 91246.1, -289.499, 5.62986, -1418.49, 1.8471, 0.346535, 0.9175, 0.352806, 0.64323, 0.0001, 455, 246, 39.8129, 0.0530315, 1.82772, 1, 1, 0, 42577
-1281.52, 91246.1, -289.499, 5.62986, -1418.49, 1.8471, 0.346535, 0.9175, 0.352806, 0.64323, 3, 455, 246, 39.8129, 0.0530315, 1.77554, 1, 1, 0, 42577
-9103.92, 98561, -82.2286, 2.37306, -1124.25, 0.0415383, 0.305217, 1.03299, 0.34851, 0.655882, 0.0001, 45.5, 246, 31.2631, 0.129691, 0, 0, 1, 0, 42578
-9103.92, 98561, -82.2286, 2.37306, -1124.25, 0.0415383, 0.305217, 1.03299, 0.34851, 0.655882, 3, 45.5, 246, 31.2631, 0.129691, 0, 0, 1, 0, 42578
-8054.1, 121163, -113.376, 2.54945, -1140.37, 0.0685898, 0.293863, 0.993198, 0.349787, 0.651995, 0.0001, 91, 246, 31.2631, 0.129691, 0, 0, 1, 0, 42578
-11343.2, 253123, -90.1203, 1.20055, -749.956, 0.105342, 0.349052, 1.03299, 0.34851, 0.655882, 0.0001, 45.5, 246, 22.4179, 0.0857967, 0, 0, 1, 0, 42582
-11343.2, 253123, -90.1203, 1.20055, -749.956, 0.105342, 0.349052, 1.03299, 0.34851, 0.655882, 3, 45.5, 246, 22.4179, 0.0857967, 0, 0, 1, 0, 42582
-10145.8, 264634, -102.979, 1.26715, -766.214, 0.113921, 0.320264, 0.993198, 0.349787, 0.651995, 0.0001, 91, 246, 22.4179, 0.0857967, 0, 0, 1, 0, 42582
-10145.8, 264634, -102.979, 1.26715, -766.214, 0.113921, 0.320264, 0.993198, 0.349787, 0.651995, 3, 91, 246, 22.4179, 0.0857967, 0, 0, 1, 0, 42582
-3992.12, 253539, -350.116, 3.82449, -955.706, 0.907332, 0.371212, 0.958125, 0.351078, 0.648177, 0.0001, 182, 246, 40.7003, 0.179127, 1.06859, 1, 0, 0, 42583
-11987.4, 145643, -76.0191, 3.4828, -1041.11, -0.0343313, 0.177117, 1.03299, 0.34851, 0.655882, 0.0001, 45.5, 246, 27.8404, 0.088981, 0, 0, 0, 0, 42585
-11987.4, 145643, -76.0191, 3.4828, -1041.11, -0.0343313, 0.177117, 1.03299, 0.34851, 0.655882, 3, 45.5, 246, 27.8404, 0.088981, 0, 0, 0, 0, 42585
-9678, 164207, -117.664, 3.79579, -1049.35, 0.0237521, 0.190125, 0.993198, 0.349787, 0.651995, 0.0001, 91, 246, 27.8404, 0.088981, 0, 0, 1, 0, 42585
-9678, 164207, -117.664, 3.79579, -1049.35, 0.0237521, 0.190125, 0.993198, 0.349787, 0.651995, 3, 91, 246, 27.8404, 0.088981, 0, 0, 1, 0, 42585
-6633.5, 184257, -167.63, 4.17054, -1073.91, 0.0938208, 0.222781, 0.958125, 0.351078, 0.648177, 0.0001, 182, 246, 27.8404, 0.088981, 0, 0, 1, 0, 42585
-6633.5, 184257, -167.63, 4.17054, -1073.91, 0.0938208, 0.222781, 0.958125, 0.351078, 0.648177, 3, 182, 246, 27.8404, 0.088981, 0, 0, 1, 0, 42585
-10490.4, 98423, -39.0836, 3.21201, -951.598, 0.0199063, 0.197563, 1.03299, 0.34851, 0.655882, 0.0001, 45.5, 246, 22.0624, 0.0687997, 0, 0, 0, 0, 42588
-10490.4, 98423, -39.0836, 3.21201, -951.598, 0.0199063, 0.197563, 1.03299, 0.34851, 0.655882, 3, 45.5, 246, 22.0624, 0.0687997, 0, 0, 0, 0, 42588
-7261.98, 131124, -110.746, 3.82622, -987.061, 0.129782, 0.225011, 0.958125, 0.351078, 0.648177, 3, 182, 246, 22.0624, 0.0687997, 0, 0, 1, 0, 42588
-8495.08, 48033.9, -38.9314, 3.61385, -659.875, 0.00377307, 0.152707, 1.03299, 0.34851, 0.655882, 0.0001, 45.5, 246, 19.3773, 0.0528484, 0, 0, 1, 0, 42593
-8495.08, 48033.9, -38.9314, 3.61385, -659.875, 0.00377307, 0.152707, 1.03299, 0.34851, 0.655882, 3, 45.5, 246, 19.3773, 0.0528484, 0, 0, 1, 0, 42593
-1219.3, 327528, -281.61, 4.513, -822.949, 0.183797, 0.302222, 0.9175, 0.352806, 0.64323, 0.0001, 455, 246, 26.5314, 0.0929374, 1.45615, 1, 0, 0, 42594
-1219.3, 327528, -281.61, 4.513, -822.949, 0.183797, 0.302222, 0.9175, 0.352806, 0.64323, 3, 455, 246, 26.5314, 0.0929374, 1.45598, 1, 0, 0, 42594
-11508.9, 181016, -165.492, 3.24345, -940.287, -0.038281, 0.258305, 1.03299, 0.34851, 0.655882, 0.0001, 45.5, 246, 36.9642, 0.145428, 0, 0, 0, 0, 42595
-11508.9, 181016, -165.492, 3.24345, -940.287, -0.038281, 0.258305, 1.03299, 0.34851, 0.655882, 3, 45.5, 246, 36.9642, 0.145428, 0, 0, 0, 0, 42595
1452.06, 241862, -347.981, 4.41096, -1053.18, 0.173898, 0.362594, 0.9175, 0.352806, 0.64323, 0.0001, 455, 246, 36.9642, 0.145428, 0, 0, 0, 0, 42595
-2835.94, 65522.7, -211.401, 4.29933, -1086.3, 0.703639, 0.248385, 0.958125, 0.351078, 0.648177, 0.0001, 182, 246, 44.5035, 0.0832665, 1.19201, 1, 1, 0, 42596
-2835.94, 65522.7, -211.401, 4.29933, -1086.3, 0.703639, 0.248385, 0.958125, 0.351078, 0.648177, 3, 182, 246, 44.5035, 0.0832665, 1.03042, 1, 1, 0, 42596
229.078, 105434, -313.647, 5.23217, -1338.38, 0.979007, 0.344582, 0.9175, 0.352806, 0.64323, 0.0001, 455, 246, 44.5035, 0.0832665, 2.40518, 1, 1, 0, 42596
229.078, 105434, -313.647, 5.23217, -1338.38, 0.979007, 0.344582, 0.9175, 0.352806, 0.64323, 3, 455, 246, 44.5035, 0.0832665, 2.40437, 1, 1, 0, 42596
-10365.9, 236546, -350.693, 3.30732, -955.84, 0.287065, 0.450177, 1.03299, 0.34851, 0.655882, 0.0001, 45.5, 246, 54.6029, 0.246778, 1.15211, 1, 0, 0, 42597
-10365.9, 236546, -350.693, 3.30732, -955.84, 0.287065, 0.450177, 1.03299, 0.34851, 0.655882, 3, 45.5, 246, 54.6029, 0.246778, 1.04619, 1, 0, 0, 42597
-5519.95, 260269, -416.149, 3.68487, -1041.57, 0.35687, 0.478144, 0.993198, 0.349787, 0.651995, 0.0001, 91, 246, 54.6029, 0.246778, 1.52233, 1, 1, 0, 42597
-5519.95, 260269, -416.149, 3.68487, -1041.57, 0.35687, 0.478144, 0.993198, 0.349787, 0.651995, 3, 91, 246, 54.6029, 0.246778, 1.42869, 1, 1, 0, 42597
-11958.3, 306583, -62.5906, 1.00973, -642.189, 0.0545825, 0.337731, 1.03299, 0.34851, 0.655882, 0.0001, 45.5, 246, 17.204, 0.0527528, 0, 0, 1, 0, 42599
-11958.3, 306583, -62.5906, 1.00973, -642.189, 0.0545825, 0.337731, 1.03299, 0.34851, 0.655882, 3, 45.5, 246, 17.204, 0.0527528, 0, 0, 1, 0, 42599
-11546.7, 204220, -55.0161, 1.65293, -1152.98, 0.219856, 0.318106, 1.03299, 0.34851, 0.655882, 0.0001, 45.5, 246, 24.4413, 0.0696268, 0, 0, 1, 0, 42600
-11546.7, 204220, -55.0161, 1.65293, -1152.98, 0.219856, 0.318106, 1.03299, 0.34851, 0.655882, 3, 45.5, 246, 24.4413, 0.0696268, 0, 0, 1, 0, 42600
-10157.2, 230862, -76.3168, 1.76915, -1198.69, 0.24108, 0.293472, 0.993198, 0.349787, 0.651995, 3, 91, 246, 24.4413, 0.0696268, 0, 0, 1, 0, 42600
-8332.34, 260312, -100.914, 1.89529, -1251.97, 0.265943, 0.275957, 0.958125, 0.351078, 0.648177, 0.0001, 182, 246, 24.4413, 0.0696268, 0, 0, 1, 0, 42600
-8298.97, 71617.3, -81.2514, 2.11767, -945.642, 0.0665566, 0.321665, 1.03299, 0.34851, 0.655882, 0.0001, 45.5, 246, 32.4615, 0.147242, 0, 0, 1, 0, 42601
-8298.97, 71617.3, -81.2514, 2.11767, -945.642, 0.0665566, 0.321665, 1.03299, 0.34851, 0.655882, 3, 45.5, 246, 32.4615, 0.147242, 0, 0, 1, 0, 42601
-11350.6, 304608, -57.3101, 0.996864, -1189.25, 0.0127671, 0.339231, 1.03299, 0.34851, 0.655882, 0.0001, 45.5, 246, 24.5523, 0.0522922, 0, 0, 1, 0, 42604
-11350.6, 304608, -57.3101, 0.996864, -1189.25, 0.0127671, 0.339231, 1.03299, 0.34851, 0.655882, 3, 45.5, 246, 24.5523, 0.0522922, 0, 0, 1, 0, 42604
-10178.3, 329661, -70.7996, 1.04271, -1193.8, 0.0173685, 0.30754, 0.993198, 0.349787, 0.651995, 0.0001, 91, 246, 24.5523, 0.0522922, 0, 0, 1, 0, 42604
-10178.3, 329661, -70.7996, 1.04271, -1193.8, 0.0173685, 0.30754, 0.993198, 0.349787, 0.651995, 3, 91, 246, 24.5523, 0.0522922, 0, 0, 1, 0, 42604
-8747.28, 355091, -85.2957, 1.08895, -1199.74, 0.0224178, 0.280892, 0.958125, 0.351078, 0.648177, 0.0001, 182, 246, 24.5523, 0.0522922, 0, 0, 1, 0, 42604
-9519.62, 305953, -299.422, 1.00185, -1080.18, 0.310775, 0.603136, 1.03299, 0.34851, 0.655882, 0.0001, 45.5, 246, 46.5723, 0.243983, 0, 0, 0, 0, 42605
-7492.01, 334642, -325.705, 1.07304, -1145.15, 0.331791, 0.594748, 0.993198, 0.349787, 0.651995, 3, 91, 246, 46.5723, 0.243983, 0, 0, 1, 0, 42605
-696.821, 418598, -397.673, 1.26226, -1334.75, 0.393555, 0.596038, 0.9175, 0.352806, 0.64323, 3, 455, 246, 46.5723, 0.243983, 0, 0, 0, 0, 42605
-15323.4, 274130, -360.71, 3.48296, -563.91, -0.0354217, 0.397622, 1.03299, 0.34851, 0.655882, 0.0001, 45.5, 246, 46.3481, 0.219557, 1.0894, 1, 0, 0, 42606
-15323.4, 274130, -360.71, 3.48296, -563.91, -0.0354217, 0.397622, 1.03299, 0.34851, 0.655882, 3, 45.5, 246, 46.3481, 0.219557, 1.01668, 1, 0, 0, 42606
-9923.15, 281782, -415.182, 3.8194, -600.504, 0.0230303, 0.426218, 0.993198, 0.349787, 0.651995, 0.0001, 91, 246, 46.3481, 0.219557, 1.38505, 1, 1, 0, 42606
-9923.15, 281782, -415.182, 3.8194, -600.504, 0.0230303, 0.426218, 0.993198, 0.349787, 0.651995, 3, 91, 246, 46.3481, 0.219557, 1.29601, 1, 1, 0, 42606
-3293.75, 292571, -481.206, 4.22646, -653.574, 0.094472, 0.476458, 0.958125, 0.351078, 0.648177, 0.0001, 182, 246, 46.3481, 0.219557, 3.9202, 1, 0, 0, 42606
-3293.75, 292571, -481.206, 4.22646, -653.574, 0.094472, 0.476458, 0.958125, 0.351078, 0.648177, 3, 182, 246, 46.3481, 0.219557, 3.50377, 1, 0, 0, 42606
-6327.87, -105929, 31.9932, 3.38137, -1108.37, 0.101638, 0.260296, 1.03299, 0.34851, 0.655882, 0.0001, 45.5, 246, 1.85941, 0.177761, 0, 0, 1, 0, 42608
-6327.87, -105929, 31.9932, 3.38137, -1108.37, 0.101638, 0.260296, 1.03299, 0.34851, 0.655882, 3, 45.5, 246, 1.85941, 0.177761, 0, 0, 1, 0, 42608
-7985.52, -85071.9, -1.4158, 3.71389, -1129.81, 0.159468, 0.275386, 0.993198, 0.349787, 0.651995, 0.0001, 91, 246, 1.85941, 0.177761, 0, 0, 1, 0, 42608
-9832.86, 172183, -160.903, 1.60972, -675.927, 0.0345736, 0.409148, 1.03299, 0.34851, 0.655882, 3, 45.5, 246, 35.2691, 0.19038, 0, 0, 1, 0, 42609
-8552.35, 180962, -180.621, 1.70847, -687.76, 0.0469152, 0.390581, 0.993198, 0.349787, 0.651995, 0.0001, 91, 246, 35.2691, 0.19038, 0, 0, 1, 0, 42609
-8702.86, 57383.9, -48.3445, 2.18703, -742.088, 0.0333602, 0.293173, 1.03299, 0.34851, 0.655882, 3, 45.5, 246, 23.1803, 0.0922259, 0, 0, 1, 0, 42610
-8418.2, -1020.65, -10.7257, 2.24024, -908.333, 0.033595, 0.280738, 0.993198, 0.349787, 0.651995, 3, 91, 246, 9.36018, 0.0537493, 0, 0, 1, 1, 42612
-9127.37, 88656.7, -26.5633, 1.52625, -790.608, 0.698192, 0.290791, 0.993198, 0.349787, 0.651995, 0.0001, 91, 246, 13.5146, 0.04935, 0, 0, 1, 0, 42613
-9127.37, 88656.7, -26.5633, 1.52625, -790.608, 0.698192, 0.290791, 0.993198, 0.349787, 0.651995, 3, 91, 246, 13.5146, 0.04935, 0, 0, 1, 0, 42613
-8649.29, 104578, -40.0244, 1.67095, -890.949, 0.797383, 0.26947, 0.958125, 0.351078, 0.648177, 0.0001, 182, 246, 13.5146, 0.04935, 0, 0, 1, 0, 42613
-8649.29, 104578, -40.0244, 1.67095, -890.949, 0.797383, 0.26947, 0.958125, 0.351078, 0.648177, 3, 182, 246, 13.5146, 0.04935, 0, 0, 1, 0, 42613
-10606.8, 285734, -249.895, 1.14098, -805.253, 0.331946, 0.512778, 1.03299, 0.34851, 0.655882, 0.0001, 45.5, 246, 38.9667, 0.206226, 0, 0, 0, 0, 42619
-11221.6, 199450, -127.079, 1.85761, -755.237, -0.0151384, 0.350508, 1.03299, 0.34851, 0.655882, 3, 45.5, 246, 29.0549, 0.132092, 0, 0, 1, 0, 42621
-9720.06, 137881, -137.458, 2.36975, -679.7, -0.02336, 0.325797, 1.03299, 0.34851, 0.655882, 0.0001, 45.5, 246, 33.5397, 0.154676, 0, 0, 1, 0, 42622
-9720.06, 137881, -137.458, 2.36975, -679.7, -0.02336, 0.325797, 1.03299, 0.34851, 0.655882, 3, 45.5, 246, 33.5397, 0.154676, 0, 0, 1, 0, 42622
-7665.91, 154208, -231.272, 2.92984, -1035.48, -0.00629047, 0.385668, 1.03299, 0.34851, 0.655882, 3, 45.5, 246, 50.7179, 0.233013, 0, 0, 0, 0, 42623
-1622.92, 196692, -337.706, 3.47398, -1095.23, 0.0837761, 0.41974, 0.958125, 0.351078, 0.648177, 0.0001, 182, 246, 50.7179, 0.233013, 1.80924, 1, 0, 0, 42623
-1622.92, 196692, -337.706, 3.47398, -1095.23, 0.0837761, 0.41974, 0.958125, 0.351078, 0.648177, 3, 182, 246, 50.7179, 0.233013, 1.62965, 1, 0, 0, 42623
-8196.12, 80484.9, -97.5892, 3.54099, -1010.39, 0.478988, 0.179271, 1.03299, 0.34851, 0.655882, 0.0001, 45.5, 246, 33.2334, 0.107905, 0, 0, 0, 0, 42631
-8196.12, 80484.9, -97.5892, 3.54099, -1010.39, 0.478988, 0.179271, 1.03299, 0.34851, 0.655882, 3, 45.5, 246, 33.2334, 0.107905, 0, 0, 0, 0, 42631
877.142, 186740, -322.218, 5.56837, -1551.75, 1.03905, 0.35115, 0.9175, 0.352806, 0.64323, 0.0001, 455, 246, 33.2334, 0.107905, 4.53414, 1, 0, 0, 42631
877.142, 186740, -322.218, 5.56837, -1551.75, 1.03905, 0.35115, 0.9175, 0.352806, 0.64323, 3, 455, 246, 33.2334, 0.107905, 0, 0, 0, 0, 42631
-7153.69, 115440, -157.846, 2.96684, -849.458, 0.582136, 0.280814, 0.993198, 0.349787, 0.651995, 0.0001, 91, 246, 35.2402, 0.142758, 0, 0, 1, 0, 42632
-7153.69, 115440, -157.846, 2.96684, -849.458, 0.582136, 0.280814, 0.993198, 0.349787, 0.651995, 3, 91, 246, 35.2402, 0.142758, 0, 0, 1, 0, 42632
-5313.03, 134010, -196.488, 3.31781, -954.136, 0.688801, 0.291837, 0.958125, 0.351078, 0.648177, 0.0001, 182, 246, 35.2402, 0.142758, 0, 0, 1, 0, 42632
-5313.03, 134010, -196.488, 3.31781, -954.136, 0.688801, 0.291837, 0.958125, 0.351078, 0.648177, 3, 182, 246, 35.2402, 0.142758, 0, 0, 1, 0, 42632
-1656.35, 168689, -266.388, 3.92326, -1155.05, 0.893245, 0.334614, 0.9175, 0.352806, 0.64323, 0.0001, 455, 246, 35.2402, 0.142758, 1.05056, 1, 0, 0, 42632
-1656.35, 168689, -266.388, 3.92326, -1155.05, 0.893245, 0.334614, 0.9175, 0.352806, 0.64323, 3, 455, 246, 35.2402, 0.142758, 1.05139, 1, 0, 0, 42632
-4269.08, 365084, -488.328, 3.60321, -864.351, 0.183125, 0.537663, 0.958125, 0.351078, 0.648177, 0.0001, 182, 246, 46.3968, 0.219626, 2.49797, 1, 0, 0, 42637
-4269.08, 365084, -488.328, 3.60321, -864.351, 0.183125, 0.537663, 0.958125, 0.351078, 0.648177, 3, 182, 246, 46.3968, 0.219626, 2.40731, 1, 0, 0, 42637
-7525.97, -8142.69, -19.2725, 2.57605, -687.826, 0.117052, 0.267743, 1.03299, 0.34851, 0.655882, 3, 45.5, 246, 19.1429, 0.026687, 0, 0, 1, 1, 42638
-10968.5, 256264, -236.741, 1.21253, -594.386, 0.408432, 0.493815, 1.03299, 0.34851, 0.655882, 3, 45.5, 246, 36.2098, 0.205239, 0, 0, 1, 0, 42641
-14347.2, 208217, -37.8895, 2.78827, -1175.83, -0.0344459, 0.230216, 1.03299, 0.34851, 0.655882, 0.0001, 45.5, 246, 24.0747, 0.0590484, 0, 0, 0, 0, 42643
-14347.2, 208217, -37.8895, 2.78827, -1175.83, -0.0344459, 0.230216, 1.03299, 0.34851, 0.655882, 3, 45.5, 246, 24.0747, 0.0590484, 0, 0, 0, 0, 42643
-7188.95, 117467, -180.368, 3.26857, -1094.44, 0.0800049, 0.287, 1.03299, 0.34851, 0.655882, 3, 45.5, 246, 46.2404, 0.187786, 0, 0, 0, 0, 42644
-5041.33, 140260, -231.303, 3.5802, -1131.54, 0.133187, 0.300007, 0.993198, 0.349787, 0.651995, 3, 91, 246, 46.2404, 0.187786, 0, 0, 1, 0, 42644
-2000.56, 166102, -293.122, 3.95236, -1187.71, 0.19967, 0.331776, 0.958125, 0.351078, 0.648177, 0.0001, 182, 246, 46.2404, 0.187786, 1.5626, 1, 0, 0, 42644
-2000.56, 166102, -293.122, 3.95236, -1187.71, 0.19967, 0.331776, 0.958125, 0.351078, 0.648177, 3, 182, 246, 46.2404, 0.187786, 1.35896, 1, 0, 0, 42644
-7939.02, 280747, -405.283, 3.39868, -853.997, 0.170689, 0.487871, 0.993198, 0.349787, 0.651995, 0.0001, 91, 246, 50.2463, 0.236803, 1.19803, 1, 1, 0, 42647
-7939.02, 280747, -405.283, 3.39868, -853.997, 0.170689, 0.487871, 0.993198, 0.349787, 0.651995, 3, 91, 246, 50.2463, 0.236803, 1.06863, 1, 1, 0, 42647
-11220.5, 170169, -97.6554, 2.01017, -651.392, 0.173358, 0.316184, 1.03299, 0.34851, 0.655882, 3, 45.5, 246, 24.6274, 0.106712, 0, 0, 1, 0, 42648
-8912.34, 113948, -88.7208, 1.17549, -1071.86, -0.00502274, 0.381881, 1.03299, 0.34851, 0.655882, 0.0001, 45.5, 246, 31.4704, 0.170688, 0, 0, 1, 0, 42651
-8912.34, 113948, -88.7208, 1.17549, -1071.86, -0.00502274, 0.381881, 1.03299, 0.34851, 0.655882, 3, 45.5, 246, 31.4704, 0.170688, 0, 0, 1, 0, 42651
-6495.13, -48197.2, 3.02763, 3.10761, -739.419, 0.802605, 0.233102, 1.03299, 0.34851, 0.655882, 0.0001, 45.5, 246, 13.3175, 0.00344402, 0, 0, 1, 0, 42653
-11075.8, 154075, -23.3181, 1.75361, -1151.52, 0.170536, 0.304089, 1.03299, 0.34851, 0.655882, 0.0001, 45.5, 246, 20.2694, 0.0520887, 0, 0, 1, 0, 42656
-11075.8, 154075, -23.3181, 1.75361, -1151.52, 0.170536, 0.304089, 1.03299, 0.34851, 0.655882, 3, 45.5, 246, 20.2694, 0.0520887, 0, 0, 1, 0, 42656
-10008.2, 179314, -43.8306, 1.87468, -1186.37, 0.190104, 0.280132, 0.993198, 0.349787, 0.651995, 0.0001, 91, 246, 20.2694, 0.0520887, 0, 0, 1, 0, 42656
-7470.2, 70251.5, -109.234, 2.75662, -802.946, 0.103443, 0.275091, 1.03299, 0.34851, 0.655882, 0.0001, 45.5, 246, 36.4616, 0.138881, 0, 0, 1, 0, 42657
-7470.2, 70251.5, -109.234, 2.75662, -802.946, 0.103443, 0.275091, 1.03299, 0.34851, 0.655882, 3, 45.5, 246, 36.4616, 0.138881, 0, 0, 1, 0, 42657
-10194.5, 298240, -205.935, 1.01487, -940, 0.321479, 0.455238, 1.03299, 0.34851, 0.655882, 0.0001, 45.5, 246, 35.5414, 0.165509, 0, 0, 0, 0, 42658
-10194.5, 298240, -205.935, 1.01487, -940, 0.321479, 0.455238, 1.03299, 0.34851, 0.655882, 3, 45.5, 246, 35.5414, 0.165509, 0, 0, 0, 0, 42658
-8641.17, 320748, -225.156, 1.08342, -996.8, 0.343773, 0.432968, 0.993198, 0.349787, 0.651995, 3, 91, 246, 35.5414, 0.165509, 0, 0, 1, 0, 42658
-15136.5, 180812, -6.5582, 3.43981, -1022.8, -0.0374798, 0.148526, 1.03299, 0.34851, 0.655882, 0.0001, 45.5, 246, 18.9699, 0.0385917, 0, 0, 0, 0, 42660
-15136.5, 180812, -6.5582, 3.43981, -1022.8, -0.0374798, 0.148526, 1.03299, 0.34851, 0.655882, 3, 45.5, 246, 18.9699, 0.0385917, 0, 0, 0, 0, 42660
-6022.59, 187075, -294.331, 3.807, -873.693, 0.00436528, 0.315575, 0.993198, 0.349787, 0.651995, 0.0001, 91, 246, 46.4679, 0.194783, 1.13634, 1, 1, 0, 42661
-1777.57, 203016, -356.403, 4.19416, -913.305, 0.0747435, 0.35663, 0.958125, 0.351078, 0.648177, 0.0001, 182, 246, 46.4679, 0.194783, 2.07495, 1, 0, 0, 42661
-1777.57, 203016, -356.403, 4.19416, -913.305, 0.0747435, 0.35663, 0.958125, 0.351078, 0.648177, 3, 182, 246, 46.4679, 0.194783, 1.91713, 1, 0, 0, 42661
-6945.6, -6249.16, -19.5128, 3.28932, -1019.38, -0.0189546, 0.21223, 1.03299, 0.34851, 0.655882, 0.0001, 45.5, 246, 22.0619, 0.0560841, 0, 0, 1, 1, 42664
-6945.6, -6249.16, -19.5128, 3.28932, -1019.38, -0.0189546, 0.21223, 1.03299, 0.34851, 0.655882, 3, 45.5, 246, 22.0619, 0.0560841, 0, 0, 1, 1, 42664
-11832.7, 246957, -160.246, 2.07067, -1145.15, -0.0201523, 0.367842, 1.03299, 0.34851, 0.655882, 0.0001, 45.5, 246, 36.0058, 0.144162, 0, 0, 0, 0, 42667
-11832.7, 246957, -160.246, 2.07067, -1145.15, -0.0201523, 0.367842, 1.03299, 0.34851, 0.655882, 3, 45.5, 246, 36.0058, 0.144162, 0, 0, 0, 0, 42667
-885.485, 109278, -281.055, 4.61816, -1184.43, 0.512225, 0.332983, 0.9175, 0.352806, 0.64323, 0.0001, 455, 246, 41.06, 0.115171, 1.82836, 1, 1, 0, 42668
-885.485, 109278, -281.055, 4.61816, -1184.43, 0.512225, 0.332983, 0.9175, 0.352806, 0.64323, 3, 455, 246, 41.06, 0.115171, 1.79054, 1, 1, 0, 42668
-8467.52, 190628, -115.981, 0.0485847, -588.281, 0.223385, 0.418494, 1.03299, 0.34851, 0.655882, 0.0001, 45.5, 246, 26.4465, 0.16869, 2.12157, 1, 1, 0, 42669
-8467.52, 190628, -115.981, 0.0485847, -588.281, 0.223385, 0.418494, 1.03299, 0.34851, 0.655882, 3, 45.5, 246, 26.4465, 0.16869, 2.12123, 1, 1, 0, 42669
-8544.52, 199501, -119.687, 0.0506294, -609.964, 0.23157, 0.388149, 0.993198, 0.349787, 0.651995, 0.0001, 91, 246, 26.4465, 0.16869, 2.22679, 1, 1, 0, 42669
-8544.52, 199501, -119.687, 0.0506294, -609.964, 0.23157, 0.388149, 0.993198, 0.349787, 0.651995, 3, 91, 246, 26.4465, 0.16869, 2.22643, 1, 1, 0, 42669
-8589.51, 209073, -123.208, 0.0526483, -633.3, 0.240377, 0.361948, 0.958125, 0.351078, 0.648177, 0.0001, 182, 246, 26.4465, 0.16869, 2.40257, 1, 1, 0, 42669
-8589.51, 209073, -123.208, 0.0526483, -633.3, 0.240377, 0.361948, 0.958125, 0.351078, 0.648177, 3, 182, 246, 26.4465, 0.16869, 2.30336, 1, 1, 0, 42669
-8603.28, 222940, -127.622, 0.0552991, -667.024, 0.253103, 0.332255, 0.9175, 0.352806, 0.64323, 0.0001, 455, 246, 26.4465, 0.16869, 2.76793, 1, 1, 0, 42669
-8603.28, 222940, -127.622, 0.0552991, -667.024, 0.253103, 0.332255, 0.9175, 0.352806, 0.64323, 3, 455, 246, 26.4465, 0.16869, 2.63931, 1, 1, 0, 42669
-5932.46, 110315, -208.136, 3.49423, -906.327, 0.144907, 0.258295, 1.03299, 0.34851, 0.655882, 0.0001, 45.5, 246, 49.1793, 0.188341, 1.25652, 1, 0, 0, 42671
-5932.46, 110315, -208.136, 3.49423, -906.327, 0.144907, 0.258295, 1.03299, 0.34851, 0.655882, 3, 45.5, 246, 49.1793, 0.188341, 1.09839, 1, 0, 0, 42671
-3664.48, 127216, -258.849, 3.85575, -954.682, 0.208991, 0.277393, 0.993198, 0.349787, 0.651995, 0.0001, 91, 246, 49.1793, 0.188341, 1.40722, 1, 1, 0, 42671
-3664.48, 127216, -258.849, 3.85575, -954.682, 0.208991, 0.277393, 0.993198, 0.349787, 0.651995, 3, 91, 246, 49.1793, 0.188341, 1.26773, 1, 1, 0, 42671
-530.343, 147462, -321.672, 4.29638, -1024.55, 0.291549, 0.318596, 0.958125, 0.351078, 0.648177, 0.0001, 182, 246, 49.1793, 0.188341, 2.21139, 1, 0, 0, 42671
-530.343, 147462, -321.672, 4.29638, -1024.55, 0.291549, 0.318596, 0.958125, 0.351078, 0.648177, 3, 182, 246, 49.1793, 0.188341, 2.07236, 1, 0, 0, 42671
-6261.94, 194288, -307.664, 3.89687, -840.255, 0.22279, 0.308897, 0.993198, 0.349787, 0.651995, 0.0001, 91, 246, 45.8976, 0.191281, 1.20587, 1, 1, 0, 42672
-6261.94, 194288, -307.664, 3.89687, -840.255, 0.22279, 0.308897, 0.993198, 0.349787, 0.651995, 3, 91, 246, 45.8976, 0.191281, 1.05786, 1, 1, 0, 42672
-1682.78, 212283, -372.141, 4.3532, -913.555, 0.30833, 0.354008, 0.958125, 0.351078, 0.648177, 0.0001, 182, 246, 45.8976, 0.191281, 2.29765, 1, 0, 0, 42672
-1682.78, 212283, -372.141, 4.3532, -913.555, 0.30833, 0.354008, 0.958125, 0.351078, 0.648177, 3, 182, 246, 45.8976, 0.191281, 2.13373, 1, 0, 0, 42672
-6825.72, -7787, -30.0139, 3.08537, -845.792, 0.269261, 0.227268, 1.03299, 0.34851, 0.655882, 0.0001, 45.5, 246, 24.2365, 0.0334934, 0, 0, 1, 0, 42673
-6825.72, -7787, -30.0139, 3.08537, -845.792, 0.269261, 0.227268, 1.03299, 0.34851, 0.655882, 3, 45.5, 246, 24.2365, 0.0334934, 0, 0, 1, 0, 42673
-10000.4, 158446, -144.489, 2.42682, -960.632, -0.027864, 0.336481, 1.03299, 0.34851, 0.655882, 0.0001, 45.5, 246, 36.3534, 0.160542, 0, 0, 1, 0, 42674
-10000.4, 158446, -144.489, 2.42682, -960.632, -0.027864, 0.336481, 1.03299, 0.34851, 0.655882, 3, 45.5, 246, 36.3534, 0.160542, 0, 0, 1, 0, 42674
1270.9, 300447, -387.126, 4.45094, -759.287, 0.163806, 0.38422, 0.9175, 0.352806, 0.64323, 0.0001, 455, 246, 34.1826, 0.146858, 1.23055, 1, 0, 0, 42676
1270.9, 300447, -387.126, 4.45094, -759.287, 0.163806, 0.38422, 0.9175, 0.352806, 0.64323, 3, 455, 246, 34.1826, 0.146858, 1.52117, 1, 0, 0, 42676
-9048.88, 56725.6, -22.5592, 1.58699, -749.01, -0.00688257, 0.317617, 1.03299, 0.34851, 0.655882, 0.0001, 45.5, 246, 16.1475, 0.0694803, 0, 0, 1, 0, 42681
-9048.88, 56725.6, -22.5592, 1.58699, -749.01, -0.00688257, 0.317617, 1.03299, 0.34851, 0.655882, 3, 45.5, 246, 16.1475, 0.0694803, 0, 0, 1, 0, 42681
-12910, 124999, 23.7848, 3.45254, -1130.63, -0.0437752, 0.150918, 1.03299, 0.34851, 0.655882, 0.0001, 45.5, 246, 15.9781, 0.0292762, 0, 0, 0, 0, 42682
-12910, 124999, 23.7848, 3.45254, -1130.63, -0.0437752, 0.150918, 1.03299, 0.34851, 0.655882, 3, 45.5, 246, 15.9781, 0.0292762, 0, 0, 0, 0, 42682
-11024.4, 146464, -11.2949, 3.75583, -1127.15, 0.0132313, 0.161355, 0.993198, 0.349787, 0.651995, 0.0001, 91, 246, 15.9781, 0.0292762, 0, 0, 1, 0, 42682
-11024.4, 146464, -11.2949, 3.75583, -1127.15, 0.0132313, 0.161355, 0.993198, 0.349787, 0.651995, 3, 91, 246, 15.9781, 0.0292762, 0, 0, 1, 0, 42682
-10105.7, 278296, -376.299, 3.81671, -667.983, -0.00014829, 0.380391, 0.993198, 0.349787, 0.651995, 0.0001, 91, 246, 44.2795, 0.202616, 1.1424, 1, 1, 0, 42684
-10105.7, 278296, -376.299, 3.81671, -667.983, -0.00014829, 0.380391, 0.993198, 0.349787, 0.651995, 3, 91, 246, 44.2795, 0.202616, 1.01631, 1, 1, 0, 42684
-3844.01, 289586, -440.042, 4.21238, -714.763, 0.0706657, 0.426685, 0.958125, 0.351078, 0.648177, 0.0001, 182, 246, 44.2795, 0.202616, 2.39201, 1, 0, 0, 42684
-3844.01, 289586, -440.042, 4.21238, -714.763, 0.0706657, 0.426685, 0.958125, 0.351078, 0.648177, 3, 182, 246, 44.2795, 0.202616, 2.22333, 1, 0, 0, 42684
6909.82, 311485, -549.232, 4.89059, -813.232, 0.193868, 0.528379, 0.9175, 0.352806, 0.64323, 0.0001, 455, 246, 44.2795, 0.202616, 0, 0, 0, 0, 42684
6909.82, 311485, -549.232, 4.89059, -813.232, 0.193868, 0.528379, 0.9175, 0.352806, 0.64323, 3, 455, 246, 44.2795, 0.202616, 0, 0, 0, 0, 42684
-2310.25, 220851, -205.925, 5.17789, -880.177, 0.353444, 0.282281, 0.9175, 0.352806, 0.64323, 0.0001, 455, 246, 21.4621, 0.0634164, 0, 0, 0, 0, 42687
-2310.25, 220851, -205.925, 5.17789, -880.177, 0.353444, 0.282281, 0.9175, 0.352806, 0.64323, 3, 455, 246, 21.4621, 0.0634164, 0, 0, 0, 0, 42687
-8387.93, 169394, -248.783, 3.06793, -996.41, 0.49913, 0.360483, 1.03299, 0.34851, 0.655882, 0.0001, 45.5, 246, 49.2164, 0.214872, 1.00208, 1, 0, 0, 42690
-5325.06, 194935, -301.911, 3.43493, -1110.26, 0.592195, 0.373542, 0.993198, 0.349787, 0.651995, 0.0001, 91, 246, 49.2164, 0.214872, 1.04524, 1, 1, 0, 42690
-1037.46, 228576, -370.161, 3.89079, -1264.66, 0.718222, 0.406976, 0.958125, 0.351078, 0.648177, 0.0001, 182, 246, 49.2164, 0.214872, 2.54851, 1, 0, 0, 42690
-1037.46, 228576, -370.161, 3.89079, -1264.66, 0.718222, 0.406976, 0.958125, 0.351078, 0.648177, 3, 182, 246, 49.2164, 0.214872, 2.35972, 1, 0, 0, 42690
-10792, 260310, -245.233, 1.98361, -1153.36, 0.0657393, 0.476873, 1.03299, 0.34851, 0.655882, 3, 45.5, 246, 44.9405, 0.20965, 0, 0, 0, 0, 42691
-10897, 102944, -25.9211, 2.95735, -679.51, -0.0379792, 0.214011, 1.03299, 0.34851, 0.655882, 0.0001, 45.5, 246, 15.8535, 0.0481979, 0, 0, 1, 0, 42694
-10897, 102944, -25.9211, 2.95735, -679.51, -0.0379792, 0.214011, 1.03299, 0.34851, 0.655882, 3, 45.5, 246, 15.8535, 0.0481979, 0, 0, 1, 0, 42694
-9915.29, 283445, -176.28, 1.19549, -637.043, 0.445179, 0.376346, 0.993198, 0.349787, 0.651995, 3, 91, 246, 26.9635, 0.134827, 0, 0, 1, 0, 42699
-8267.89, 298708, -192.21, 1.28447, -691.858, 0.486123, 0.356246, 0.958125, 0.351078, 0.648177, 0.0001, 182, 246, 26.9635, 0.134827, 0, 0, 1, 0, 42699
-5234.27, 66925, -150.246, 3.61024, -1022.36, -0.0575366, 0.212014, 1.03299, 0.34851, 0.655882, 0.0001, 45.5, 246, 46.0986, 0.150824, 1.08346, 1, 1, 0, 42703
-3809.99, 85592.3, -199.949, 3.94378, -1035.33, 0.00512902, 0.231646, 0.993198, 0.349787, 0.651995, 0.0001, 91, 246, 46.0986, 0.150824, 1.17463, 1, 1, 0, 42703
-1671.96, 105871, -259.902, 4.34698, -1067.27, 0.0807159, 0.272597, 0.958125, 0.351078, 0.648177, 0.0001, 182, 246, 46.0986, 0.150824, 1.59038, 1, 1, 0, 42703
-1671.96, 105871, -259.902, 4.34698, -1067.27, 0.0807159, 0.272597, 0.958125, 0.351078, 0.648177, 3, 182, 246, 46.0986, 0.150824, 1.44326, 1, 1, 0, 42703
-8994.2, 142176, -109.467, 1.09635, -1050.55, 0.0237267, 0.399696, 1.03299, 0.34851, 0.655882, 0.0001, 45.5, 246, 33.1815, 0.177982, 0, 0, 1, 0, 42704
-8994.2, 142176, -109.467, 1.09635, -1050.55, 0.0237267, 0.399696, 1.03299, 0.34851, 0.655882, 3, 45.5, 246, 33.1815, 0.177982, 0, 0, 1, 0, 42704
-8743.58, 306326, -227.979, 0.826829, -766.335, 5.92539e-05, 0.457058, 0.993198, 0.349787, 0.651995, 0.0001, 91, 246, 34.5803, 0.184085, 0, 0, 1, 0, 42706
-9482.76, 169015, -166.29, 2.10352, -1093.75, 0.0778121, 0.393009, 1.03299, 0.34851, 0.655882, 0.0001, 45.5, 246, 40.4183, 0.191038, 0, 0, 0, 0, 42708
-9482.76, 169015, -166.29, 2.10352, -1093.75, 0.0778121, 0.393009, 1.03299, 0.34851, 0.655882, 3, 45.5, 246, 40.4183, 0.191038, 0, 0, 1, 0, 42708
-3984.44, 268649, -367.407, 3.47411, -923.704, 0.537765, 0.421099, 0.958125, 0.351078, 0.648177, 0.0001, 182, 246, 43.0225, 0.198766, 1.01933, 1, 0, 0, 42713
-8089.84, -17454.7, 9.33333, 2.20848, -702.155, -0.0224744, 0.294205, 1.03299, 0.34851, 0.655882, 3, 45.5, 246, 5.86099, 0.0450416, 0, 0, 1, 1, 42717
-11605.3, 205484, -151.429, 2.47944, -1036.41, -0.026753, 0.330727, 1.03299, 0.34851, 0.655882, 0.0001, 45.5, 246, 35.4164, 0.145295, 0, 0, 0, 0, 42719
-11605.3, 205484, -151.429, 2.47944, -1036.41, -0.026753, 0.330727, 1.03299, 0.34851, 0.655882, 3, 45.5, 246, 35.4164, 0.145295, 0, 0, 0, 0, 42719
-8468.81, 104603, -114.558, 2.02656, -1165.65, -0.0192962, 0.363856, 1.03299, 0.34851, 0.655882, 3, 45.5, 246, 38.0552, 0.187415, 0, 0, 1, 0, 42723
-7468.12, 128491, -144.252, 2.15907, -1170.95, -6.02181e-05, 0.349148, 0.993198, 0.349787, 0.651995, 0.0001, 91, 246, 38.0552, 0.187415, 0, 0, 1, 0, 42723
-7468.12, 128491, -144.252, 2.15907, -1170.95, -6.02181e-05, 0.349148, 0.993198, 0.349787, 0.651995, 3, 91, 246, 38.0552, 0.187415, 0, 0, 1, 0, 42723
-9883.32, 194459, -223.51, 2.85866, -1111.52, -0.0343035, 0.379509, 1.03299, 0.34851, 0.655882, 3, 45.5, 246, 46.2029, 0.205171, 0, 0, 0, 0, 42724
-6894.75, 216914, -272.533, 3.09434, -1128.22, 0.00459339, 0.386351, 0.993198, 0.349787, 0.651995, 0.0001, 91, 246, 46.2029, 0.205171, 0, 0, 1, 0, 42724
-6894.75, 216914, -272.533, 3.09434, -1128.22, 0.00459339, 0.386351, 0.993198, 0.349787, 0.651995, 3, 91, 246, 46.2029, 0.205171, 0, 0, 1, 0, 42724
-9016.57, 98709.9, -84.3236, 2.03107, -1000.03, 0.208529, 0.326743, 1.03299, 0.34851, 0.655882, 0.0001, 45.5, 246, 30.7028, 0.13697, 0, 0, 1, 0, 42728
-9016.57, 98709.9, -84.3236, 2.03107, -1000.03, 0.208529, 0.326743, 1.03299, 0.34851, 0.655882, 3, 45.5, 246, 30.7028, 0.13697, 0, 0, 1, 0, 42728
-8156.62, 118090, -109.304, 2.18888, -1041.16, 0.235839, 0.309625, 0.993198, 0.349787, 0.651995, 3, 91, 246, 30.7028, 0.13697, 0, 0, 1, 0, 42728
-9814.55, 85549.8, -34.2128, 2.63288, -1036.08, -0.025566, 0.256966, 1.03299, 0.34851, 0.655882, 0.0001, 45.5, 246, 21.9459, 0.0753844, 0, 0, 1, 0, 42729
-9814.55, 85549.8, -34.2128, 2.63288, -1036.08, -0.025566, 0.256966, 1.03299, 0.34851, 0.655882, 3, 45.5, 246, 21.9459, 0.0753844, 0, 0, 1, 0, 42729
-1740.06, 75869.9, -262.664, 5.11315, -927.605, 0.353172, 0.326505, 0.9175, 0.352806, 0.64323, 0.0001, 455, 246, 37.2826, 0.0811291, 1.22088, 1, 1, 0, 42732
-1740.06, 75869.9, -262.664, 5.11315, -927.605, 0.353172, 0.326505, 0.9175, 0.352806, 0.64323, 3, 455, 246, 37.2826, 0.0811291, 1.1602, 1, 1, 0, 42732
-9732.76, 216668, -150.789, 1.31428, -1139.04, 0.0972424, 0.411637, 1.03299, 0.34851, 0.655882, 0.0001, 45.5, 246, 35.6096, 0.161773, 0, 0, 0, 0, 42733
-9732.76, 216668, -150.789, 1.31428, -1139.04, 0.0972424, 0.411637, 1.03299, 0.34851, 0.655882, 3, 45.5, 246, 35.6096, 0.161773, 0, 0, 0, 0, 42733
-8400.54, 241400, -172.87, 1.39195, -1163.35, 0.106922, 0.389071, 0.993198, 0.349787, 0.651995, 0.0001, 91, 246, 35.6096, 0.161773, 0, 0, 1, 0, 42733
-10766.5, 91843.4, 19.0562, 2.54105, -929.834, 0.0159612, 0.246165, 1.03299, 0.34851, 0.655882, 0.0001, 45.5, 246, 11.1921, 0.0216107, 0, 0, 1, 0, 42734
-10766.5, 91843.4, 19.0562, 2.54105, -929.834, 0.0159612, 0.246165, 1.03299, 0.34851, 0.655882, 3, 45.5, 246, 11.1921, 0.0216107, 0, 0, 1, 0, 42734
-6428.23, 143919, -65.1434, 3.27578, -971.34, 0.141141, 0.253093, 0.9175, 0.352806, 0.64323, 3, 455, 246, 11.1921, 0.0216107, 0, 0, 1, 0, 42734
-8548.81, 306284, -448.72, 3.72871, -844.696, -0.000181367, 0.501825, 0.993198, 0.349787, 0.651995, 0.0001, 91, 246, 51.9373, 0.240898, 1.45237, 1, 1, 0, 42735
-8548.81, 306284, -448.72, 3.72871, -844.696, -0.000181367, 0.501825, 0.993198, 0.349787, 0.651995, 3, 91, 246, 51.9373, 0.240898, 1.37278, 1, 1, 0, 42735
-8161.93, 96150, -121.544, 2.40617, -873.958, -0.00925936, 0.323648, 1.03299, 0.34851, 0.655882, 0.0001, 45.5, 246, 37.5696, 0.1689, 0, 0, 1, 0, 42738
-8161.93, 96150, -121.544, 2.40617, -873.958, -0.00925936, 0.323648, 1.03299, 0.34851, 0.655882, 3, 45.5, 246, 37.5696, 0.1689, 0, 0, 1, 0, 42738
-8838.65, 299398, -164.62, 1.88759, -708.88, 0.129592, 0.307877, 0.958125, 0.351078, 0.648177, 3, 182, 246, 24.6919, 0.10308, 0, 0, 1, 0, 42740
-10687.2, 284010, -299.697, 1.71278, -1081.78, 0.392316, 0.562221, 1.03299, 0.34851, 0.655882, 0.0001, 45.5, 246, 47.8596, 0.237743, 0, 0, 0, 0, 42742
-10687.2, 284010, -299.697, 1.71278, -1081.78, 0.392316, 0.562221, 1.03299, 0.34851, 0.655882, 3, 45.5, 246, 47.8596, 0.237743, 0, 0, 0, 0, 42742
2815.66, 411516, -453.429, 2.31219, -1457.62, 0.567705, 0.585807, 0.9175, 0.352806, 0.64323, 0.0001, 455, 246, 47.8596, 0.237743, 0, 0, 0, 0, 42742
2815.66, 411516, -453.429, 2.31219, -1457.62, 0.567705, 0.585807, 0.9175, 0.352806, 0.64323, 3, 455, 246, 47.8596, 0.237743, 0, 0, 0, 0, 42742
-12284.8, 206618, -29.2215, 1.71933, -830.999, -0.0110572, 0.301837, 1.03299, 0.34851, 0.655882, 3, 45.5, 246, 17.1895, 0.0432655, 0, 0, 1, 0, 42747
-9876.91, 170744, -202.969, 2.24658, -619.271, 0.133861, 0.394905, 1.03299, 0.34851, 0.655882, 0.0001, 45.5, 246, 39.7506, 0.201176, 0, 0, 1, 0, 42748
-9876.91, 170744, -202.969, 2.24658, -619.271, 0.133861, 0.394905, 1.03299, 0.34851, 0.655882, 3, 45.5, 246, 39.7506, 0.201176, 0, 0, 1, 0, 42748
-10109.6, 295540, -289.266, 1.25475, -1038.16, 0.0344931, 0.584607, 1.03299, 0.34851, 0.655882, 0.0001, 45.5, 246, 46.4445, 0.244183, 0, 0, 0, 0, 42754
-10109.6, 295540, -289.266, 1.25475, -1038.16, 0.0344931, 0.584607, 1.03299, 0.34851, 0.655882, 3, 45.5, 246, 46.4445, 0.244183, 0, 0, 0, 0, 42754
-1587.15, 194568, -297.563, 3.03736, -1011.42, 1.29524, 0.396852, 0.9175, 0.352806, 0.64323, 3, 455, 246, 40.6261, 0.205052, 1.04965, 1, 0, 0, 42758
-10815, 300366, -231.182, 0.888002, -604.03, 0.238778, 0.488256, 1.03299, 0.34851, 0.655882, 0.0001, 45.5, 246, 33.2704, 0.185869, 0, 0, 1, 0, 42760
-10815, 300366, -231.182, 0.888002, -604.03, 0.238778, 0.488256, 1.03299, 0.34851, 0.655882, 3, 45.5, 246, 33.2704, 0.185869, 0, 0, 1, 0, 42760
-9391, 311883, -247.246, 0.942272, -633.774, 0.25196, 0.467679, 0.993198, 0.349787, 0.651995, 3, 91, 246, 33.2704, 0.185869, 0, 0, 1, 0, 42760
-7701.55, 324650, -264.3, 0.999231, -666.942, 0.266715, 0.452014, 0.958125, 0.351078, 0.648177, 0.0001, 182, 246, 33.2704, 0.185869, 0, 0, 1, 0, 42760
-9879.14, 159576, -158.771, 2.54423, -956.921, 0.112132, 0.335969, 1.03299, 0.34851, 0.655882, 0.0001, 45.5, 246, 38.1139, 0.167585, 0, 0, 1, 0, 42761
-9879.14, 159576, -158.771, 2.54423, -956.921, 0.112132, 0.335969, 1.03299, 0.34851, 0.655882, 3, 45.5, 246, 38.1139, 0.167585, 0, 0, 1, 0, 42761
-6608.67, -4561.94, -39.841, 3.12232, -865.105, 0.375876, 0.223595, 1.03299, 0.34851, 0.655882, 0.0001, 45.5, 246, 27.5375, 0.032528, 0, 0, 1, 0, 42762
-6608.67, -4561.94, -39.841, 3.12232, -865.105, 0.375876, 0.223595, 1.03299, 0.34851, 0.655882, 3, 45.5, 246, 27.5375, 0.032528, 0, 0, 1, 0, 42762
-6012.04, 97962.6, -157.184, 3.29884, -1184.98, 0.0432029, 0.275426, 0.993198, 0.349787, 0.651995, 0.0001, 91, 246, 39.8729, 0.155698, 0, 0, 1, 0, 42763
-319.11, 162553, -293.952, 4.09395, -1284.24, 0.18581, 0.3488, 0.9175, 0.352806, 0.64323, 0.0001, 455, 246, 39.8729, 0.155698, 2.1938, 1, 0, 0, 42763
-319.11, 162553, -293.952, 4.09395, -1284.24, 0.18581, 0.3488, 0.9175, 0.352806, 0.64323, 3, 455, 246, 39.8729, 0.155698, 2.20961, 1, 0, 0, 42763
-9272.23, 170352, -243.301, 2.89616, -711.364, 0.286877, 0.360648, 1.03299, 0.34851, 0.655882, 3, 45.5, 246, 45.1469, 0.206408, 0, 0, 0, 0, 42765
-2977.92, 200265, -334.275, 3.54453, -844.622, 0.415364, 0.391539, 0.958125, 0.351078, 0.648177, 0.0001, 182, 246, 45.1469, 0.206408, 1.37495, 1, 0, 0, 42765
-2977.92, 200265, -334.275, 3.54453, -844.622, 0.415364, 0.391539, 0.958125, 0.351078, 0.648177, 3, 182, 246, 45.1469, 0.206408, 1.15983, 1, 0, 0, 42765
-7983.64, 89380.5, -125.907, 2.16076, -650.567, 0.503757, 0.331374, 1.03299, 0.34851, 0.655882, 0.0001, 45.5, 246, 36.7543, 0.167982, 2.36721, 1, 1, 0, 42768
-7983.64, 89380.5, -125.907, 2.16076, -650.567, 0.503757, 0.331374, 1.03299, 0.34851, 0.655882, 3, 45.5, 246, 36.7543, 0.167982, 2.23911, 1, 1, 0, 42768
-9080.24, 90037.2, -17.9992, 1.14239, -1122.82, 0.00223498, 0.300373, 0.993198, 0.349787, 0.651995, 0.0001, 91, 246, 13.7795, 0.045871, 0, 0, 1, 0, 42771
-9080.24, 90037.2, -17.9992, 1.14239, -1122.82, 0.00223498, 0.300373, 0.993198, 0.349787, 0.651995, 3, 91, 246, 13.7795, 0.045871, 0, 0, 1, 0, 42771
-2151.88, 306287, -432.207, 4.00635, -1079.91, 0.157244, 0.445058, 0.958125, 0.351078, 0.648177, 3, 182, 246, 47.902, 0.207417, 0, 0, 0, 0, 42774
-8537.56, 355741, -291.384, 0.459163, -680.761, 0.189419, 0.539054, 0.993198, 0.349787, 0.651995, 0.0001, 91, 246, 36.2864, 0.209291, 0, 0, 1, 0, 42778
1153.82, 212314, -372.069, 3.92714, -735.007, 0.140642, 0.413649, 0.9175, 0.352806, 0.64323, 0.0001, 455, 246, 40.7399, 0.187181, 2.32503, 1, 0, 0, 42781
1153.82, 212314, -372.069, 3.92714, -735.007, 0.140642, 0.413649, 0.9175, 0.352806, 0.64323, 3, 455, 246, 40.7399, 0.187181, 2.33848, 1, 0, 0, 42781
-10338.3, 169837, -176.049, 2.62235, -773.164, -0.0321852, 0.335688, 1.03299, 0.34851, 0.655882, 0.0001, 45.5, 246, 37.6698, 0.171064, 0, 0, 1, 0, 42783
-8580.52, 28854.9, -21.7296, 1.81908, -933.069, 0.121355, 0.312544, 1.03299, 0.34851, 0.655882, 3, 45.5, 246, 19.1009, 0.0826751, 0, 0, 1, 1, 42785
-3037.55, 228731, -349.007, 3.6574, -911.089, 0.0648337, 0.396594, 0.958125, 0.351078, 0.648177, 0.0001, 182, 246, 45.3449, 0.2029, 1.4162, 1, 0, 0, 42786
-3037.55, 228731, -349.007, 3.6574, -911.089, 0.0648337, 0.396594, 0.958125, 0.351078, 0.648177, 3, 182, 246, 45.3449, 0.2029, 1.19901, 1, 0, 0, 42786
-9552.62, 62410.3, 12.1187, 1.775, -899.832, 0.0975415, 0.300051, 1.03299, 0.34851, 0.655882, 0.0001, 45.5, 246, 9.28035, 0.0231459, 0, 0, 1, 0, 42788
-9552.62, 62410.3, 12.1187, 1.775, -899.832, 0.0975415, 0.300051, 1.03299, 0.34851, 0.655882, 3, 45.5, 246, 9.28035, 0.0231459, 0, 0, 1, 0, 42788
-11206.5, 254025, -261.522, 1.46647, -608.981, 0.0763396, 0.525305, 1.03299, 0.34851, 0.655882, 0.0001, 45.5, 246, 40.4512, 0.231785, 0, 0, 1, 0, 42789
-11206.5, 254025, -261.522, 1.46647, -608.981, 0.0763396, 0.525305, 1.03299, 0.34851, 0.655882, 3, 45.5, 246, 40.4512, 0.231785, 0, 0, 1, 0, 42789
-10311.4, 195710, -212.374, 1.90384, -690.711, 0.438179, 0.431635, 1.03299, 0.34851, 0.655882, 0.0001, 45.5, 246, 39.2598, 0.203529, 0, 0, 1, 0, 42794
-10311.4, 195710, -212.374, 1.90384, -690.711, 0.438179, 0.431635, 1.03299, 0.34851, 0.655882, 3, 45.5, 246, 39.2598, 0.203529, 0, 0, 1, 0, 42794
-13869.1, 174254, -29.7626, 3.11004, -940.45, -0.0438186, 0.1936, 1.03299, 0.34851, 0.655882, 0.0001, 45.5, 246, 20.0676, 0.0513712, 0, 0, 0, 0, 42797
-13869.1, 174254, -29.7626, 3.11004, -940.45, -0.0438186, 0.1936, 1.03299, 0.34851, 0.655882, 3, 45.5, 246, 20.0676, 0.0513712, 0, 0, 0, 0, 42797
-7916.06, 202546, -211.094, 1.62454, -979.112, 0.160119, 0.441762, 0.993198, 0.349787, 0.651995, 0.0001, 91, 246, 41.2853, 0.222294, 0, 0, 1, 0, 42799
-10343.7, 267327, -31.2037, 2.3918, -808.945, 0.195533, 0.238419, 0.958125, 0.351078, 0.648177, 3, 182, 246, 13.4993, 0.0161765, 0, 0, 1, 0, 42802
-13823.1, 139489, 25.4031, 3.48302, -1046.72, 0.27569, 0.136576, 1.03299, 0.34851, 0.655882, 0.0001, 45.5, 246, 15.4247, 0.0241316, 0, 0, 0, 0, 42804
-13823.1, 139489, 25.4031, 3.48302, -1046.72, 0.27569, 0.136576, 1.03299, 0.34851, 0.655882, 3, 45.5, 246, 15.4247, 0.0241316, 0, 0, 0, 0, 42804
-10201.5, 196456, -193.785, 1.54454, -605.683, -0.0100512, 0.446966, 1.03299, 0.34851, 0.655882, 0.0001, 45.5, 246, 37.1508, 0.20954, 0, 0, 1, 0, 42808
-10201.5, 196456, -193.785, 1.54454, -605.683, -0.0100512, 0.446966, 1.03299, 0.34851, 0.655882, 3, 45.5, 246, 37.1508, 0.20954, 0, 0, 1, 0, 42808
-11252.1, 320433, -84.7059, 0.86129, -794.058, 0.359963, 0.350721, 1.03299, 0.34851, 0.655882, 0.0001, 45.5, 246, 21.3922, 0.0648642, 0, 0, 1, 0, 42809
-11252.1, 320433, -84.7059, 0.86129, -794.058, 0.359963, 0.350721, 1.03299, 0.34851, 0.655882, 3, 45.5, 246, 21.3922, 0.0648642, 0, 0, 1, 0, 42809
-10182, 338639, -94.8741, 0.916177, -844.345, 0.385349, 0.318727, 0.993198, 0.349787, 0.651995, 0.0001, 91, 246, 21.3922, 0.0648642, 0, 0, 1, 0, 42809
-10182, 338639, -94.8741, 0.916177, -844.345, 0.385349, 0.318727, 0.993198, 0.349787, 0.651995, 3, 91, 246, 21.3922, 0.0648642, 0, 0, 1, 0, 42809
-8875.07, 359372, -106.182, 0.974355, -901.958, 0.414511, 0.291711, 0.958125, 0.351078, 0.648177, 0.0001, 182, 246, 21.3922, 0.0648642, 0, 0, 1, 0, 42809
-9457.85, 77972.5, -22.1805, 1.70547, -1016.28, 0.120354, 0.312277, 1.03299, 0.34851, 0.655882, 0.0001, 45.5, 246, 18.2383, 0.0678609, 0, 0, 1, 0, 42811
-9457.85, 77972.5, -22.1805, 1.70547, -1016.28, 0.120354, 0.312277, 1.03299, 0.34851, 0.655882, 3, 45.5, 246, 18.2383, 0.0678609, 0, 0, 1, 0, 42811
-7896.05, -9142.29, 5.21357, 2.5381, -894.275, 0.127501, 0.268582, 1.03299, 0.34851, 0.655882, 3, 45.5, 246, 11.482, 0.0506324, 0, 0, 1, 1, 42813
-10193.3, 264608, -164.447, 1.11142, -964.968, 0.0382863, 0.418707, 1.03299, 0.34851, 0.655882, 3, 45.5, 246, 33.2978, 0.151512, 0, 0, 1, 0, 42815
-8832.6, 282079, -182.566, 1.16915, -976.5, 0.0442627, 0.394297, 0.993198, 0.349787, 0.651995, 0.0001, 91, 246, 33.2978, 0.151512, 0, 0, 1, 0, 42815
-7185.49, 300256, -201.953, 1.22857, -989.954, 0.0509286, 0.375075, 0.958125, 0.351078, 0.648177, 0.0001, 182, 246, 33.2978, 0.151512, 0, 0, 1, 0, 42815
-6347.05, 29902.2, -87.4856, 2.85328, -801.73, -0.0387511, 0.255578, 1.03299, 0.34851, 0.655882, 3, 45.5, 246, 38.2449, 0.0983616, 0, 0, 1, 1, 42816
-5698.33, 289289, -381.838, 4.18404, -676.935, 0.07176, 0.360864, 0.958125, 0.351078, 0.648177, 0.0001, 182, 246, 38.9938, 0.174062, 1.15263, 1, 0, 0, 42820
-7166.19, 162907, -287.718, 3.43161, -862.706, 0.471047, 0.333032, 1.03299, 0.34851, 0.655882, 0.0001, 45.5, 246, 52.7185, 0.221976, 1.35963, 1, 0, 0, 42821
-7166.19, 162907, -287.718, 3.43161, -862.706, 0.471047, 0.333032, 1.03299, 0.34851, 0.655882, 3, 45.5, 246, 52.7185, 0.221976, 1.27387, 1, 0, 0, 42821
-3674.48, 183683, -345.541, 3.86146, -967.975, 0.571928, 0.356347, 0.993198, 0.349787, 0.651995, 0.0001, 91, 246, 52.7185, 0.221976, 1.6919, 1, 1, 0, 42821
-3674.48, 183683, -345.541, 3.86146, -967.975, 0.571928, 0.356347, 0.993198, 0.349787, 0.651995, 3, 91, 246, 52.7185, 0.221976, 1.59206, 1, 1, 0, 42821
-6774.14, -10963.2, -42.1026, 2.9736, -776.876, -0.0395836, 0.247409, 1.03299, 0.34851, 0.655882, 3, 45.5, 246, 30.0501, 0.0207758, 0, 0, 1, 1, 42824
-10880.9, 208703, -321.755, 2.81953, -574.121, 0.792661, 0.424015, 1.03299, 0.34851, 0.655882, 0.0001, 45.5, 246, 46.2089, 0.220456, 1.06585, 1, 0, 0, 42825
-7241.66, 227181, -366.424, 3.20288, -687.606, 0.951615, 0.435301, 0.993198, 0.349787, 0.651995, 0.0001, 91, 246, 46.2089, 0.220456, 1.21072, 1, 1, 0, 42825
-7241.66, 227181, -366.424, 3.20288, -687.606, 0.951615, 0.435301, 0.993198, 0.349787, 0.651995, 3, 91, 246, 46.2089, 0.220456, 1.0625, 1, 1, 0, 42825
-2394.92, 253289, -424.307, 3.69852, -851.719, 1.18149, 0.466668, 0.958125, 0.351078, 0.648177, 0.0001, 182, 246, 46.2089, 0.220456, 2.26947, 1, 0, 0, 42825
-2394.92, 253289, -424.307, 3.69852, -851.719, 1.18149, 0.466668, 0.958125, 0.351078, 0.648177, 3, 182, 246, 46.2089, 0.220456, 2.09803, 1, 0, 0, 42825
-8389.39, 67700.5, -71.2211, 1.29697, -1082.43, 0.0642422, 0.339114, 0.993198, 0.349787, 0.651995, 0.0001, 91, 246, 31.9893, 0.227913, 0, 0, 1, 1, 42828
-8389.39, 67700.5, -71.2211, 1.29697, -1082.43, 0.0642422, 0.339114, 0.993198, 0.349787, 0.651995, 3, 91, 246, 31.9893, 0.227913, 0, 0, 1, 1, 42828
-6793.69, 134051, -197.819, 1.96287, -845.086, 0.547521, 0.414063, 0.993198, 0.349787, 0.651995, 0.0001, 91, 246, 45.2155, 0.249525, 0, 0, 1, 0, 42831
-6793.69, 134051, -197.819, 1.96287, -845.086, 0.547521, 0.414063, 0.993198, 0.349787, 0.651995, 3, 91, 246, 45.2155, 0.249525, 0, 0, 1, 0, 42831
-5267.09, 152940, -227.23, 2.15525, -938.562, 0.619737, 0.409064, 0.958125, 0.351078, 0.648177, 0.0001, 182, 246, 45.2155, 0.249525, 0, 0, 1, 0, 42831
-5267.09, 152940, -227.23, 2.15525, -938.562, 0.619737, 0.409064, 0.958125, 0.351078, 0.648177, 3, 182, 246, 45.2155, 0.249525, 0, 0, 1, 0, 42831
-10977.3, 195079, -125.109, 1.62171, -611.415, 0.088171, 0.360354, 1.03299, 0.34851, 0.655882, 0.0001, 45.5, 246, 26.9889, 0.132355, 0, 0, 1, 0, 42836
-10977.3, 195079, -125.109, 1.62171, -611.415, 0.088171, 0.360354, 1.03299, 0.34851, 0.655882, 3, 45.5, 246, 26.9889, 0.132355, 0, 0, 1, 0, 42836
-9639.46, 202805, -141.698, 1.72424, -626.568, 0.101877, 0.338201, 0.993198, 0.349787, 0.651995, 3, 91, 246, 26.9889, 0.132355, 0, 0, 1, 0, 42836
-8837, 49789.8, -31.7925, 2.59019, -643.036, 0.0252664, 0.256163, 1.03299, 0.34851, 0.655882, 0.0001, 45.5, 246, 17.8817, 0.0604456, 0, 0, 1, 0, 42838
-8837, 49789.8, -31.7925, 2.59019, -643.036, 0.0252664, 0.256163, 1.03299, 0.34851, 0.655882, 3, 45.5, 246, 17.8817, 0.0604456, 0, 0, 1, 0, 42838
-8403.42, 56858.5, -49.9478, 2.78828, -650.094, 0.0572578, 0.246851, 0.993198, 0.349787, 0.651995, 3, 91, 246, 17.8817, 0.0604456, 0, 0, 1, 0, 42838
708.998, 181639, -340.886, 4.10381, -807.539, 0.21842, 0.380421, 0.9175, 0.352806, 0.64323, 0.0001, 455, 246, 40.2927, 0.173587, 2.05215, 1, 0, 0, 42839
708.998, 181639, -340.886, 4.10381, -807.539, 0.21842, 0.380421, 0.9175, 0.352806, 0.64323, 3, 455, 246, 40.2927, 0.173587, 2.05647, 1, 0, 0, 42839
-8771.39, 43125.7, -22.2413, 1.33553, -1164.49, 0.00470278, 0.302195, 0.993198, 0.349787, 0.651995, 0.0001, 91, 246, 14.5612, 0.0762648, 0, 0, 1, 1, 42840
-8771.39, 43125.7, -22.2413, 1.33553, -1164.49, 0.00470278, 0.302195, 0.993198, 0.349787, 0.651995, 3, 91, 246, 14.5612, 0.0762648, 0, 0, 1, 1, 42840
-5153.69, 81842.5, -175.365, 2.78425, -1046.44, 0.0225949, 0.343914, 1.03299, 0.34851, 0.655882, 0.0001, 45.5, 246, 54.1888, 0.24336, 1.08408, 1, 1, 0, 42845
-3766.74, 102086, -217.465, 3.01563, -1068.2, 0.0597429, 0.345989, 0.993198, 0.349787, 0.651995, 0.0001, 91, 246, 54.1888, 0.24336, 1.20821, 1, 1, 0, 42845
-1763.46, 124080, -266.838, 3.28217, -1102.18, 0.104269, 0.36167, 0.958125, 0.351078, 0.648177, 0.0001, 182, 246, 54.1888, 0.24336, 1.68583, 1, 1, 0, 42845
-1763.46, 124080, -266.838, 3.28217, -1102.18, 0.104269, 0.36167, 0.958125, 0.351078, 0.648177, 3, 182, 246, 54.1888, 0.24336, 1.51752, 1, 1, 0, 42845
-10175.9, 231440, -181.027, 1.40232, -947.615, -0.00320901, 0.436639, 1.03299, 0.34851, 0.655882, 3, 45.5, 246, 36.9161, 0.182658, 0, 0, 0, 0, 42846
-8609.1, 247751, -203.49, 1.48066, -955.102, 0.00591187, 0.417257, 0.993198, 0.349787, 0.651995, 0.0001, 91, 246, 36.9161, 0.182658, 0, 0, 1, 0, 42846
-8609.1, 247751, -203.49, 1.48066, -955.102, 0.00591187, 0.417257, 0.993198, 0.349787, 0.651995, 3, 91, 246, 36.9161, 0.182658, 0, 0, 1, 0, 42846
-6695.33, 264691, -227.82, 1.56279, -965.397, 0.0160941, 0.403784, 0.958125, 0.351078, 0.648177, 0.0001, 182, 246, 36.9161, 0.182658, 0, 0, 1, 0, 42846
-1861.75, 268986, -410.04, 3.82738, -1046.45, 0.277968, 0.446907, 0.958125, 0.351078, 0.648177, 0.0001, 182, 246, 48.4559, 0.217011, 2.82726, 1, 0, 0, 42847
-1861.75, 268986, -410.04, 3.82738, -1046.45, 0.277968, 0.446907, 0.958125, 0.351078, 0.648177, 3, 182, 246, 48.4559, 0.217011, 2.61176, 1, 0, 0, 42847
-5404.47, 60428.8, -145.36, 3.2999, -797.39, 0.037585, 0.230125, 1.03299, 0.34851, 0.655882, 0.0001, 45.5, 246, 44.7899, 0.140607, 1.06988, 1, 1, 0, 42849
-4280.2, 72292.3, -183.672, 3.60263, -820.381, 0.0904467, 0.240262, 0.993198, 0.349787, 0.651995, 0.0001, 91, 246, 44.7899, 0.140607, 1.06037, 1, 1, 0, 42849
-2677.56, 85630.5, -229.774, 3.96281, -857.051, 0.155514, 0.268801, 0.958125, 0.351078, 0.648177, 0.0001, 182, 246, 44.7899, 0.140607, 1.27595, 1, 1, 0, 42849
-2677.56, 85630.5, -229.774, 3.96281, -857.051, 0.155514, 0.268801, 0.958125, 0.351078, 0.648177, 3, 182, 246, 44.7899, 0.140607, 1.11807, 1, 1, 0, 42849
491.769, 107113, -308.07, 4.56904, -935.909, 0.269931, 0.34034, 0.9175, 0.352806, 0.64323, 0.0001, 455, 246, 44.7899, 0.140607, 2.08809, 1, 1, 1, 42849
491.769, 107113, -308.07, 4.56904, -935.909, 0.269931, 0.34034, 0.9175, 0.352806, 0.64323, 3, 455, 246, 44.7899, 0.140607, 2.03844, 1, 1, 1, 42849
-6173.68, 121441, -234.415, 2.81743, -693.16, 0.316048, 0.363089, 1.03299, 0.34851, 0.655882, 0.0001, 45.5, 246, 51.427, 0.230421, 1.28922, 1, 1, 0, 42850
-6173.68, 121441, -234.415, 2.81743, -693.16, 0.316048, 0.363089, 1.03299, 0.34851, 0.655882, 3, 45.5, 246, 51.427, 0.230421, 1.13678, 1, 1, 0, 42850
-4096.68, 133751, -273.247, 3.10559, -752.107, 0.373159, 0.368219, 0.993198, 0.349787, 0.651995, 0.0001, 91, 246, 51.427, 0.230421, 1.38323, 1, 1, 0, 42850
-4096.68, 133751, -273.247, 3.10559, -752.107, 0.373159, 0.368219, 0.993198, 0.349787, 0.651995, 3, 91, 246, 51.427, 0.230421, 1.23056, 1, 1, 0, 42850
-1369.27, 149103, -320.594, 3.44866, -828.607, 0.446597, 0.389203, 0.958125, 0.351078, 0.648177, 0.0001, 182, 246, 51.427, 0.230421, 1.90332, 1, 1, 0, 42850
-1369.27, 149103, -320.594, 3.44866, -828.607, 0.446597, 0.389203, 0.958125, 0.351078, 0.648177, 3, 182, 246, 51.427, 0.230421, 1.76251, 1, 1, 0, 42850
3675.06, 176601, -402.354, 4.02674, -970.933, 0.581787, 0.446201, 0.9175, 0.352806, 0.64323, 0.0001, 455, 246, 51.427, 0.230421, 0, 0, 0, 0, 42850
3675.06, 176601, -402.354, 4.02674, -970.933, 0.581787, 0.446201, 0.9175, 0.352806, 0.64323, 3, 455, 246, 51.427, 0.230421, 0, 0, 0, 0, 42850
-9145.74, 126340, -147.477, 2.66973, -696.724, -0.0301145, 0.305796, 1.03299, 0.34851, 0.655882, 0.0001, 45.5, 246, 36.1272, 0.158679, 0, 0, 1, 0, 42851
-9145.74, 126340, -147.477, 2.66973, -696.724, -0.0301145, 0.305796, 1.03299, 0.34851, 0.655882, 3, 45.5, 246, 36.1272, 0.158679, 0, 0, 1, 0, 42851
-10095.9, 165900, -11.8051, 0.918287, -1075.9, 0.0445646, 0.332011, 1.03299, 0.34851, 0.655882, 3, 45.5, 246, 16.3209, 0.0302978, 0, 0, 1, 0, 42853
-10277.5, 221072, -278.88, 1.90393, -765.727, 0.653763, 0.516072, 1.03299, 0.34851, 0.655882, 0.0001, 45.5, 246, 45.7963, 0.242072, 0, 0, 0, 0, 42855
-12103.1, 281686, -127.651, 1.5402, -1051.8, 0.375088, 0.357373, 1.03299, 0.34851, 0.655882, 0.0001, 45.5, 246, 30.0369, 0.104653, 0, 0, 0, 0, 42862
-3391.05, 391235, -219.916, 1.99831, -1355.65, 0.523605, 0.305489, 0.9175, 0.352806, 0.64323, 0.0001, 455, 246, 30.0369, 0.104653, 0, 0, 0, 0, 42862
-3391.05, 391235, -219.916, 1.99831, -1355.65, 0.523605, 0.305489, 0.9175, 0.352806, 0.64323, 3, 455, 246, 30.0369, 0.104653, 0, 0, 0, 0, 42862
-7150.74, 348469, -405.876, 4.38668, -710.766, 0.0766228, 0.349893, 0.958125, 0.351078, 0.648177, 0.0001, 182, 246, 37.7002, 0.163862, 1.07791, 1, 0, 0, 42864
-8736.2, 44261.3, -29.8311, 0.900004, -844.423, 0.431102, 0.347341, 1.03299, 0.34851, 0.655882, 3, 45.5, 246, 20.2477, 0.127631, 0, 0, 1, 0, 42865
-11240.3, 121574, -57.123, 3.43317, -1061.28, 0.183995, 0.174949, 1.03299, 0.34851, 0.655882, 0.0001, 45.5, 246, 25.9862, 0.0799375, 0, 0, 0, 0, 42866
-11240.3, 121574, -57.123, 3.43317, -1061.28, 0.183995, 0.174949, 1.03299, 0.34851, 0.655882, 3, 45.5, 246, 25.9862, 0.0799375, 0, 0, 0, 0, 42866
-11314.9, 125616, -69.0046, 3.21487, -735.347, 0.0681469, 0.196756, 1.03299, 0.34851, 0.655882, 0.0001, 45.5, 246, 23.0607, 0.0773429, 0, 0, 1, 0, 42867
-11314.9, 125616, -69.0046, 3.21487, -735.347, 0.0681469, 0.196756, 1.03299, 0.34851, 0.655882, 3, 45.5, 246, 23.0607, 0.0773429, 0, 0, 1, 0, 42867
-7365.14, 146602, -132.332, 3.8514, -782.833, 0.18189, 0.224965, 0.958125, 0.351078, 0.648177, 3, 182, 246, 23.0607, 0.0773429, 0, 0, 1, 0, 42867
1204.51, 313971, -338.097, 4.35996, -1152.72, 0.375145, 0.342639, 0.9175, 0.352806, 0.64323, 3, 455, 246, 33.3256, 0.122463, 0, 0, 0, 0, 42868
-6742.38, 10930.8, -59.5993, 3.80237, -1189.36, 0.0111744, 0.214032, 0.993198, 0.349787, 0.651995, 0.0001, 91, 246, 23.9139, 0.0619492, 0, 0, 1, 1, 42869
-6742.38, 10930.8, -59.5993, 3.80237, -1189.36, 0.0111744, 0.214032, 0.993198, 0.349787, 0.651995, 3, 91, 246, 23.9139, 0.0619492, 0, 0, 1, 1, 42869
-11512.9, 132235, 8.90358, 2.03186, -728.216, 0.538905, 0.275809, 1.03299, 0.34851, 0.655882, 0.0001, 45.5, 246, 10.651, 0.0155334, 0, 0, 1, 0, 42870
-11512.9, 132235, 8.90358, 2.03186, -728.216, 0.538905, 0.275809, 1.03299, 0.34851, 0.655882, 3, 45.5, 246, 10.651, 0.0155334, 0, 0, 1, 0, 42870
-10486.5, 146211, -5.19633, 2.22834, -797.164, 0.610828, 0.255573, 0.993198, 0.349787, 0.651995, 0.0001, 91, 246, 10.651, 0.0155334, 0, 0, 1, 0, 42870
-5318.92, 279936, -358.979, 3.23822, -747.735, 0.173694, 0.427103, 0.958125, 0.351078, 0.648177, 3, 182, 246, 40.8646, 0.195972, 0, 0, 0, 0, 42871
-6688.71, -19570.4, -0.619502, 3.50101, -891.731, -0.0446482, 0.187864, 1.03299, 0.34851, 0.655882, 0.0001, 45.5, 246, 15.3225, 0.0433787, 0, 0, 1, 1, 42873
-6688.71, -19570.4, -0.619502, 3.50101, -891.731, -0.0446482, 0.187864, 1.03299, 0.34851, 0.655882, 3, 45.5, 246, 15.3225, 0.0433787, 0, 0, 1, 1, 42873
-9228.82, 172119, -203.932, 2.02996, -845.441, 0.0272746, 0.438627, 1.03299, 0.34851, 0.655882, 0.0001, 45.5, 246, 43.7763, 0.228291, 0, 0, 1, 0, 42875
-9228.82, 172119, -203.932, 2.02996, -845.441, 0.0272746, 0.438627, 1.03299, 0.34851, 0.655882, 3, 45.5, 246, 43.7763, 0.228291, 0, 0, 1, 0, 42875
-6442.13, -5591.23, -48.6259, 3.23918, -659.911, -0.0474211, 0.214361, 1.03299, 0.34851, 0.655882, 3, 45.5, 246, 28.0723, 0.00907538, 0, 0, 1, 1, 42876
-8623.49, 70201.7, -65.3135, 1.73693, -1078.75, 0.278554, 0.338707, 1.03299, 0.34851, 0.655882, 0.0001, 45.5, 246, 29.6043, 0.143988, 0, 0, 1, 0, 42881
-8623.49, 70201.7, -65.3135, 1.73693, -1078.75, 0.278554, 0.338707, 1.03299, 0.34851, 0.655882, 3, 45.5, 246, 29.6043, 0.143988, 0, 0, 1, 0, 42881
-9324.9, 61078.5, -12.1878, 1.95358, -834.486, -0.0114337, 0.296182, 1.03299, 0.34851, 0.655882, 0.0001, 45.5, 246, 14.5581, 0.0528477, 0, 0, 1, 0, 42882
-9324.9, 61078.5, -12.1878, 1.95358, -834.486, -0.0114337, 0.296182, 1.03299, 0.34851, 0.655882, 3, 45.5, 246, 14.5581, 0.0528477, 0, 0, 1, 0, 42882
-12340, 127412, -1.22822, 3.07581, -857.404, 0.148758, 0.191899, 1.03299, 0.34851, 0.655882, 0.0001, 45.5, 246, 14.9847, 0.0334648, 0, 0, 0, 0, 42883
-12340, 127412, -1.22822, 3.07581, -857.404, 0.148758, 0.191899, 1.03299, 0.34851, 0.655882, 3, 45.5, 246, 14.9847, 0.0334648, 0, 0, 0, 0, 42883
-2549.43, 298194, -187.481, 4.04682, -1377.34, 0.709926, 0.271123, 0.9175, 0.352806, 0.64323, 0.0001, 455, 246, 22.6883, 0.0577849, 0, 0, 0, 0, 42885
-2549.43, 298194, -187.481, 4.04682, -1377.34, 0.709926, 0.271123, 0.9175, 0.352806, 0.64323, 3, 455, 246, 22.6883, 0.0577849, 0, 0, 0, 0, 42885
-11753.7, 153125, -18.9053, 2.04425, -694.69, 0.249632, 0.279973, 1.03299, 0.34851, 0.655882, 0.0001, 45.5, 246, 14.2002, 0.0375356, 0, 0, 1, 0, 42888
-11753.7, 153125, -18.9053, 2.04425, -694.69, 0.249632, 0.279973, 1.03299, 0.34851, 0.655882, 3, 45.5, 246, 14.2002, 0.0375356, 0, 0, 1, 0, 42888
-6502.95, 194557, -80.2574, 2.66345, -826.946, 0.379907, 0.248333, 0.9175, 0.352806, 0.64323, 0.0001, 455, 246, 14.2002, 0.0375356, 0, 0, 1, 0, 42888
-6502.95, 194557, -80.2574, 2.66345, -826.946, 0.379907, 0.248333, 0.9175, 0.352806, 0.64323, 3, 455, 246, 14.2002, 0.0375356, 0, 0, 1, 0, 42888
-8862.38, 283617, -202.286, 0.911973, -798.696, 0.509863, 0.421904, 0.993198, 0.349787, 0.651995, 0.0001, 91, 246, 32.1294, 0.16594, 0, 0, 1, 0, 42891
-9343.56, -90854.2, -2.2971, 0.323464, -1157.05, 0.151429, 0.350143, 1.03299, 0.34851, 0.655882, 0.0001, 45.5, 246, -40.2632, 0.106284, 0, 0, 1, 0, 42892
-9343.56, -90854.2, -2.2971, 0.323464, -1157.05, 0.151429, 0.350143, 1.03299, 0.34851, 0.655882, 3, 45.5, 246, -40.2632, 0.106284, 0, 0, 1, 0, 42892
-9710.75, -67466.8, -5.82125, 0.336796, -1185.49, 0.155631, 0.315016, 0.993198, 0.349787, 0.651995, 0.0001, 91, 246, -40.2632, 0.106284, 0, 0, 1, 1, 42892
-9710.75, -67466.8, -5.82125, 0.336796, -1185.49, 0.155631, 0.315016, 0.993198, 0.349787, 0.651995, 3, 91, 246, -40.2632, 0.106284, 0, 0, 1, 1, 42892
-13704.3, 164278, -33.9472, 3.3367, -971.159, 0.0285049, 0.169766, 1.03299, 0.34851, 0.655882, 0.0001, 45.5, 246, 21.2603, 0.0557915, 0, 0, 0, 0, 42893
-13704.3, 164278, -33.9472, 3.3367, -971.159, 0.0285049, 0.169766, 1.03299, 0.34851, 0.655882, 3, 45.5, 246, 21.2603, 0.0557915, 0, 0, 0, 0, 42893
-9849.23, 224420, -240.967, 1.49423, -880.504, 0.0623491, 0.524533, 1.03299, 0.34851, 0.655882, 3, 45.5, 246, 44.6614, 0.247315, 0, 0, 0, 0, 42894
-7991.68, 240056, -267.884, 1.5899, -900.371, 0.0735118, 0.514349, 0.993198, 0.349787, 0.651995, 3, 91, 246, 44.6614, 0.247315, 0, 0, 1, 0, 42894
-8304.88, 315903, -196.727, 3.27412, -1073.88, 0.351533, 0.265313, 0.958125, 0.351078, 0.648177, 0.0001, 182, 246, 28.833, 0.0942435, 0, 0, 0, 0, 42900
-8304.88, 315903, -196.727, 3.27412, -1073.88, 0.351533, 0.265313, 0.958125, 0.351078, 0.648177, 3, 182, 246, 28.833, 0.0942435, 0, 0, 0, 0, 42900
-8886.57, 72534.1, -37.2849, 0.743913, -787.95, -0.00253772, 0.353116, 1.03299, 0.34851, 0.655882, 0.0001, 45.5, 246, 19.9012, 0.118286, 0, 0, 1, 0, 42902
-8886.57, 72534.1, -37.2849, 0.743913, -787.95, -0.00253772, 0.353116, 1.03299, 0.34851, 0.655882, 3, 45.5, 246, 19.9012, 0.118286, 0, 0, 1, 0, 42902
-12846, -163592, 1.97766, 0.633711, -1102.3, 0.289829, 0.380518, 1.03299, 0.34851, 0.655882, 0.0001, 45.5, 246, -89.229, 0.138597, 0, 0, 1, 0, 42903
-12846, -163592, 1.97766, 0.633711, -1102.3, 0.289829, 0.380518, 1.03299, 0.34851, 0.655882, 3, 45.5, 246, -89.229, 0.138597, 0, 0, 1, 0, 42903
-12153, 119822, 6.65336, 3.21706, -1201.98, -0.0488026, 0.184654, 1.03299, 0.34851, 0.655882, 0.0001, 45.5, 246, 18.6394, 0.0425833, 0, 0, 0, 0, 42904
-12153, 119822, 6.65336, 3.21706, -1201.98, -0.0488026, 0.184654, 1.03299, 0.34851, 0.655882, 3, 45.5, 246, 18.6394, 0.0425833, 0, 0, 0, 0, 42904
-10466.1, 144236, -29.4874, 3.48544, -1198.27, 0.000552458, 0.189047, 0.993198, 0.349787, 0.651995, 0.0001, 91, 246, 18.6394, 0.0425833, 0, 0, 1, 0, 42904
-10466.1, 144236, -29.4874, 3.48544, -1198.27, 0.000552458, 0.189047, 0.993198, 0.349787, 0.651995, 3, 91, 246, 18.6394, 0.0425833, 0, 0, 1, 0, 42904
-7411.2, 80783.8, -117.443, 3.46383, -1100.28, -0.025075, 0.218106, 1.03299, 0.34851, 0.655882, 0.0001, 45.5, 246, 38.421, 0.136326, 0, 0, 0, 0, 42907
-7411.2, 80783.8, -117.443, 3.46383, -1100.28, -0.025075, 0.218106, 1.03299, 0.34851, 0.655882, 3, 45.5, 246, 38.421, 0.136326, 0, 0, 0, 0, 42907
-5942.02, 102200, -164.827, 3.77991, -1114.2, 0.0324467, 0.232942, 0.993198, 0.349787, 0.651995, 0.0001, 91, 246, 38.421, 0.136326, 0, 0, 1, 0, 42907
-5942.02, 102200, -164.827, 3.77991, -1114.2, 0.0324467, 0.232942, 0.993198, 0.349787, 0.651995, 3, 91, 246, 38.421, 0.136326, 0, 0, 1, 0, 42907
746.098, 160855, -318.839, 4.80264, -1227.5, 0.223596, 0.35021, 0.9175, 0.352806, 0.64323, 0.0001, 455, 246, 38.421, 0.136326, 3.02038, 1, 0, 0, 42907
746.098, 160855, -318.839, 4.80264, -1227.5, 0.223596, 0.35021, 0.9175, 0.352806, 0.64323, 3, 455, 246, 38.421, 0.136326, 3.04254, 1, 0, 0, 42907
-5838.55, 83715.3, -167.908, 3.3685, -899.806, 0.521842, 0.231469, 1.03299, 0.34851, 0.655882, 0.0001, 45.5, 246, 45.2157, 0.157594, 1.17525, 1, 1, 0, 42908
-4184.91, 102679, -214.18, 3.78608, -1003.83, 0.629907, 0.245592, 0.993198, 0.349787, 0.651995, 0.0001, 91, 246, 45.2157, 0.157594, 1.18138, 1, 1, 0, 42908
-1694.8, 127963, -275.076, 4.31434, -1148.68, 0.779411, 0.283729, 0.958125, 0.351078, 0.648177, 0.0001, 182, 246, 45.2157, 0.157594, 1.64891, 1, 1, 0, 42908
-1694.8, 127963, -275.076, 4.31434, -1148.68, 0.779411, 0.283729, 0.958125, 0.351078, 0.648177, 3, 182, 246, 45.2157, 0.157594, 1.50792, 1, 1, 0, 42908
-6696.5, 128377, -213.316, 3.14102, -1021.86, -0.040588, 0.335941, 1.03299, 0.34851, 0.655882, 0.0001, 45.5, 246, 50.6037, 0.219782, 1.08039, 1, 0, 0, 42911
-6696.5, 128377, -213.316, 3.14102, -1021.86, -0.040588, 0.335941, 1.03299, 0.34851, 0.655882, 3, 45.5, 246, 50.6037, 0.219782, 0, 0, 0, 0, 42911
-4366.78, 147537, -262.921, 3.41383, -1039.5, 0.00656847, 0.347993, 0.993198, 0.349787, 0.651995, 0.0001, 91, 246, 50.6037, 0.219782, 1.20994, 1, 1, 0, 42911
-1215.41, 168670, -321.667, 3.73479, -1072.59, 0.0627591, 0.376758, 0.958125, 0.351078, 0.648177, 0.0001, 182, 246, 50.6037, 0.219782, 2.02166, 1, 0, 0, 42911
-1215.41, 168670, -321.667, 3.73479, -1072.59, 0.0627591, 0.376758, 0.958125, 0.351078, 0.648177, 3, 182, 246, 50.6037, 0.219782, 1.85968, 1, 0, 0, 42911
-9360.68, 85399.3, -4.8556, 0.972512, -1067.7, 0.160029, 0.332526, 1.03299, 0.34851, 0.655882, 0.0001, 45.5, 246, 13.2423, 0.0355551, 0, 0, 1, 0, 42914
-9360.68, 85399.3, -4.8556, 0.972512, -1067.7, 0.160029, 0.332526, 1.03299, 0.34851, 0.655882, 3, 45.5, 246, 13.2423, 0.0355551, 0, 0, 1, 0, 42914
-12184.2, 210723, -120.635, 2.43508, -1134.5, 0.0906211, 0.308146, 1.03299, 0.34851, 0.655882, 0.0001, 45.5, 246, 32.5432, 0.119066, 0, 0, 0, 0, 42917
-12184.2, 210723, -120.635, 2.43508, -1134.5, 0.0906211, 0.308146, 1.03299, 0.34851, 0.655882, 3, 45.5, 246, 32.5432, 0.119066, 0, 0, 0, 0, 42917
-10077.9, 204519, -192.688, 1.41432, -687.278, -0.00791136, 0.456171, 1.03299, 0.34851, 0.655882, 3, 45.5, 246, 37.5116, 0.210457, 0, 0, 1, 0, 42918
-8661.66, 213342, -212.656, 1.49411, -694.672, 0.00137257, 0.438616, 0.993198, 0.349787, 0.651995, 0.0001, 91, 246, 37.5116, 0.210457, 0, 0, 1, 0, 42918
-11409.6, 179949, -74.9115, 1.76832, -761.584, 0.686993, 0.314859, 1.03299, 0.34851, 0.655882, 0.0001, 45.5, 246, 22.3469, 0.0823032, 0, 0, 1, 0, 42919
-10085.9, 198534, -92.9762, 1.94853, -859.731, 0.787656, 0.292358, 0.993198, 0.349787, 0.651995, 3, 91, 246, 22.3469, 0.0823032, 0, 0, 1, 0, 42919
-7957.99, 47108.5, -63.2421, 2.06814, -1138.82, 0.19432, 0.298736, 0.993198, 0.349787, 0.651995, 0.0001, 91, 246, 27.7078, 0.124696, 0, 0, 1, 1, 42921
-7957.99, 47108.5, -63.2421, 2.06814, -1138.82, 0.19432, 0.298736, 0.993198, 0.349787, 0.651995, 3, 91, 246, 27.7078, 0.124696, 0, 0, 1, 1, 42921
-6351.63, 248883, -351.057, 3.49999, -1112.64, 0.239289, 0.423452, 0.993198, 0.349787, 0.651995, 0.0001, 91, 246, 50.6313, 0.223653, 1.03572, 1, 1, 0, 42923
-1111.83, 398275, -205.855, 4.60646, -1379.38, 0.49373, 0.258375, 0.9175, 0.352806, 0.64323, 0.0001, 455, 246, 24.1757, 0.045755, 0, 0, 0, 0, 42924
-1111.83, 398275, -205.855, 4.60646, -1379.38, 0.49373, 0.258375, 0.9175, 0.352806, 0.64323, 3, 455, 246, 24.1757, 0.045755, 0, 0, 0, 0, 42924
-9604.76, 124581, -135.854, 3.56391, -901.629, 0.169259, 0.192688, 1.03299, 0.34851, 0.655882, 0.0001, 45.5, 246, 35.2404, 0.12539, 0, 0, 0, 0, 42928
-9604.76, 124581, -135.854, 3.56391, -901.629, 0.169259, 0.192688, 1.03299, 0.34851, 0.655882, 3, 45.5, 246, 35.2404, 0.12539, 0, 0, 0, 0, 42928
1349.47, 193676, -334.675, 5.19407, -1150.59, 0.492417, 0.348944, 0.9175, 0.352806, 0.64323, 0.0001, 455, 246, 35.2404, 0.12539, 3.02717, 1, 0, 0, 42928
1349.47, 193676, -334.675, 5.19407, -1150.59, 0.492417, 0.348944, 0.9175, 0.352806, 0.64323, 3, 455, 246, 35.2404, 0.12539, 3.09238, 1, 0, 0, 42928
-8057.39, -14706.9, 13.2163, 2.25029, -782.72, -0.0214903, 0.287913, 1.03299, 0.34851, 0.655882, 3, 45.5, 246, 5.4962, 0.0463511, 0, 0, 1, 1, 42929
-8762.11, 36715.6, -19.0139, 1.42465, -1125.52, 0.0627741, 0.299615, 0.993198, 0.349787, 0.651995, 0.0001, 91, 246, 13.3047, 0.0695832, 0, 0, 1, 1, 42931
-8762.11, 36715.6, -19.0139, 1.42465, -1125.52, 0.0627741, 0.299615, 0.993198, 0.349787, 0.651995, 3, 91, 246, 13.3047, 0.0695832, 0, 0, 1, 1, 42931
-9515.42, 74319.3, -39.7696, 3.52957, -939.984, 0.154679, 0.162515, 1.03299, 0.34851, 0.655882, 0.0001, 45.5, 246, 22.6911, 0.0684443, 0, 0, 0, 0, 42932
-9515.42, 74319.3, -39.7696, 3.52957, -939.984, 0.154679, 0.162515, 1.03299, 0.34851, 0.655882, 3, 45.5, 246, 22.6911, 0.0684443, 0, 0, 0, 0, 42932
-6620.65, 109135, -120.88, 4.32727, -1025.53, 0.305214, 0.213445, 0.958125, 0.351078, 0.648177, 3, 182, 246, 22.6911, 0.0684443, 0, 0, 1, 0, 42932
-8926.45, 148780, -141.612, 1.56142, -1179.41, 0.0270016, 0.416534, 1.03299, 0.34851, 0.655882, 3, 45.5, 246, 39.2474, 0.203781, 0, 0, 1, 0, 42939
-7260.57, 285896, -394.528, 3.73689, -1087.19, 0.185391, 0.437484, 0.993198, 0.349787, 0.651995, 0.0001, 91, 246, 51.3168, 0.223328, 1.19838, 1, 1, 0, 42940
-7260.57, 285896, -394.528, 3.73689, -1087.19, 0.185391, 0.437484, 0.993198, 0.349787, 0.651995, 3, 91, 246, 51.3168, 0.223328, 1.07408, 1, 1, 0, 42940
-3828.06, 259198, -368.027, 3.53536, -921.279, 0.887098, 0.41608, 0.958125, 0.351078, 0.648177, 0.0001, 182, 246, 42.5566, 0.197598, 1.13208, 1, 0, 0, 42943
-6073.99, 84351.7, -148.693, 2.63529, -1018.9, 0.00325605, 0.316449, 0.993198, 0.349787, 0.651995, 0.0001, 91, 246, 43.0139, 0.191831, 0, 0, 1, 0, 42945
-6073.99, 84351.7, -148.693, 2.63529, -1018.9, 0.00325605, 0.316449, 0.993198, 0.349787, 0.651995, 3, 91, 246, 43.0139, 0.191831, 0, 0, 1, 0, 42945
-2399.04, 130062, -242.942, 3.14511, -1069.76, 0.0887373, 0.339511, 0.9175, 0.352806, 0.64323, 0.0001, 455, 246, 43.0139, 0.191831, 1.05078, 1, 0, 0, 42945
-2399.04, 130062, -242.942, 3.14511, -1069.76, 0.0887373, 0.339511, 0.9175, 0.352806, 0.64323, 3, 455, 246, 43.0139, 0.191831, 1.08645, 1, 0, 0, 42945
-4170.64, 346145, -474.109, 3.80682, -831.866, 0.0791327, 0.502251, 0.958125, 0.351078, 0.648177, 0.0001, 182, 246, 45.984, 0.214167, 2.78244, 1, 0, 0, 42946
-4170.64, 346145, -474.109, 3.80682, -831.866, 0.0791327, 0.502251, 0.958125, 0.351078, 0.648177, 3, 182, 246, 45.984, 0.214167, 2.61451, 1, 0, 0, 42946
-8927.75, 217732, -226.231, 3.34544, -988.85, 0.425535, 0.292479, 0.993198, 0.349787, 0.651995, 0.0001, 91, 246, 37.3992, 0.150258, 0, 0, 1, 0, 42948
-8927.75, 217732, -226.231, 3.34544, -988.85, 0.425535, 0.292479, 0.993198, 0.349787, 0.651995, 3, 91, 246, 37.3992, 0.150258, 0, 0, 1, 0, 42948
-7615.25, -18741.4, -21.3496, 3.2177, -1026.33, 0.357181, 0.24873, 0.993198, 0.349787, 0.651995, 3, 91, 246, 13.6293, 0.045611, 0, 0, 1, 1, 42949
-6215.34, 110500, -212.197, 2.48396, -743.504, 0.819209, 0.373928, 1.03299, 0.34851, 0.655882, 0.0001, 45.5, 246, 50.0534, 0.229239, 1.20345, 1, 1, 0, 42952
-4524.25, 128179, -247.811, 2.80324, -873.354, 0.97624, 0.371749, 0.993198, 0.349787, 0.651995, 0.0001, 91, 246, 50.0534, 0.229239, 1.17023, 1, 1, 0, 42952
-2124.8, 153528, -294.339, 3.20976, -1059.36, 1.2012, 0.385186, 0.958125, 0.351078, 0.648177, 0.0001, 182, 246, 50.0534, 0.229239, 1.56852, 1, 1, 0, 42952
-2124.8, 153528, -294.339, 3.20976, -1059.36, 1.2012, 0.385186, 0.958125, 0.351078, 0.648177, 3, 182, 246, 50.0534, 0.229239, 1.40424, 1, 1, 0, 42952
-9170.45, 292639, -85.3138, 2.12553, -1156.43, 0.374009, 0.259379, 0.958125, 0.351078, 0.648177, 3, 182, 246, 21.6931, 0.0493923, 0, 0, 1, 0, 42957
-12762.2, 294634, -14.0236, 1.14005, -1019.38, 0.559978, 0.32083, 1.03299, 0.34851, 0.655882, 3, 45.5, 246, 18.9737, 0.0213111, 0, 0, 1, 0, 42958
-5168.92, 32120.7, -121.202, 3.87958, -1157.73, 0.0144718, 0.216927, 0.993198, 0.349787, 0.651995, 0.0001, 91, 246, 38.6609, 0.0668307, 0, 0, 1, 1, 42960
-1829.34, 92140.9, -271.708, 4.94063, -1256.11, 0.214853, 0.342788, 0.9175, 0.352806, 0.64323, 0.0001, 455, 246, 38.6609, 0.0668307, 1.47711, 1, 1, 0, 42960
-1829.34, 92140.9, -271.708, 4.94063, -1256.11, 0.214853, 0.342788, 0.9175, 0.352806, 0.64323, 3, 455, 246, 38.6609, 0.0668307, 1.42573, 1, 1, 0, 42960
-7695.27, 100310, -156.989, 2.67026, -602.2, 0.0129279, 0.308404, 1.03299, 0.34851, 0.655882, 0.0001, 45.5, 246, 40.0916, 0.172721, 0, 0, 1, 0, 42963
-7695.27, 100310, -156.989, 2.67026, -602.2, 0.0129279, 0.308404, 1.03299, 0.34851, 0.655882, 3, 45.5, 246, 40.0916, 0.172721, 0, 0, 1, 0, 42963
-1784.59, 127120, -267.512, 3.50223, -684.146, 0.15355, 0.345569, 0.9175, 0.352806, 0.64323, 0.0001, 455, 246, 40.0916, 0.172721, 1.10457, 1, 1, 0, 42963
-1784.59, 127120, -267.512, 3.50223, -684.146, 0.15355, 0.345569, 0.9175, 0.352806, 0.64323, 3, 455, 246, 40.0916, 0.172721, 1.1031, 1, 1, 0, 42963
-9085.06, 128473, -116.689, 1.84953, -1066.45, 0.154734, 0.366421, 1.03299, 0.34851, 0.655882, 0.0001, 45.5, 246, 35.3218, 0.169654, 0, 0, 1, 0, 42965
-9085.06, 128473, -116.689, 1.84953, -1066.45, 0.154734, 0.366421, 1.03299, 0.34851, 0.655882, 3, 45.5, 246, 35.3218, 0.169654, 0, 0, 1, 0, 42965
-5881.55, 101363, -204.905, 2.53026, -684.155, 0.490025, 0.36429, 1.03299, 0.34851, 0.655882, 0.0001, 45.5, 246, 50.8542, 0.230225, 2.24457, 1, 1, 0, 42970
-5881.55, 101363, -204.905, 2.53026, -684.155, 0.490025, 0.36429, 1.03299, 0.34851, 0.655882, 3, 45.5, 246, 50.8542, 0.230225, 2.10544, 1, 1, 0, 42970
-4335.82, 114082, -238.12, 2.80122, -759.602, 0.564935, 0.361949, 0.993198, 0.349787, 0.651995, 0.0001, 91, 246, 50.8542, 0.230225, 1.23717, 1, 1, 0, 42970
-2251.92, 130443, -279.081, 3.12601, -857.767, 0.6626, 0.373595, 0.958125, 0.351078, 0.648177, 0.0001, 182, 246, 50.8542, 0.230225, 1.54955, 1, 1, 0, 42970
-2251.92, 130443, -279.081, 3.12601, -857.767, 0.6626, 0.373595, 0.958125, 0.351078, 0.648177, 3, 182, 246, 50.8542, 0.230225, 1.38672, 1, 1, 0, 42970
-10040.5, 305586, -53.8854, 0.805965, -886.416, 0.121744, 0.306516, 0.993198, 0.349787, 0.651995, 0.0001, 91, 246, 18.8722, 0.0427851, 0, 0, 1, 0, 42971
-7653.9, 140966, -235.264, 3.06219, -669.575, 0.0664192, 0.334182, 1.03299, 0.34851, 0.655882, 0.0001, 45.5, 246, 47.4814, 0.209473, 1.15485, 1, 1, 0, 42972
-7653.9, 140966, -235.264, 3.06219, -669.575, 0.0664192, 0.334182, 1.03299, 0.34851, 0.655882, 3, 45.5, 246, 47.4814, 0.209473, 1.0048, 1, 1, 0, 42972
-5209.22, 150650, -275.602, 3.34218, -700.687, 0.112631, 0.343887, 0.993198, 0.349787, 0.651995, 0.0001, 91, 246, 47.4814, 0.209473, 1.23995, 1, 1, 0, 42972
-2113.63, 162288, -323.741, 3.67208, -744.292, 0.169654, 0.370192, 0.958125, 0.351078, 0.648177, 0.0001, 182, 246, 47.4814, 0.209473, 1.67248, 1, 1, 0, 42972
-2113.63, 162288, -323.741, 3.67208, -744.292, 0.169654, 0.370192, 0.958125, 0.351078, 0.648177, 3, 182, 246, 47.4814, 0.209473, 1.51752, 1, 1, 0, 42972
-8328.18, 17470.1, -21.0711, 1.98132, -794.048, 0.0280466, 0.30354, 1.03299, 0.34851, 0.655882, 3, 45.5, 246, 18.7176, 0.0706745, 0, 0, 1, 1, 42973
-7240.72, -7019.78, -27.2801, 2.69844, -847.253, 0.410714, 0.260125, 1.03299, 0.34851, 0.655882, 0.0001, 45.5, 246, 24.1086, 0.0324891, 0, 0, 1, 0, 42975
-6668.26, 49943.5, -140.077, 3.86052, -1151.4, 0.721779, 0.303014, 0.9175, 0.352806, 0.64323, 3, 455, 246, 24.1086, 0.0324891, 0, 0, 1, 0, 42975
-9531.93, 299731, -106.349, 0.843171, -832.584, 0.0416458, 0.331593, 0.993198, 0.349787, 0.651995, 0.0001, 91, 246, 23.3369, 0.0847875, 0, 0, 1, 0, 42977
-10235.6, 171717, -121.54, 1.71439, -811.589, -0.0118501, 0.362777, 1.03299, 0.34851, 0.655882, 0.0001, 45.5, 246, 30.6043, 0.145404, 0, 0, 1, 0, 42978
-10235.6, 171717, -121.54, 1.71439, -811.589, -0.0118501, 0.362777, 1.03299, 0.34851, 0.655882, 3, 45.5, 246, 30.6043, 0.145404, 0, 0, 1, 0, 42978
-8968.64, 183311, -141.781, 1.8163, -817.046, 0.00183213, 0.34225, 0.993198, 0.349787, 0.651995, 0.0001, 91, 246, 30.6043, 0.145404, 0, 0, 1, 0, 42978
-12059.9, 106959, 23.3535, 3.39412, -805.597, 0.192256, 0.153033, 1.03299, 0.34851, 0.655882, 0.0001, 45.5, 246, 10.8524, 0.0181502, 0, 0, 0, 0, 42979
-12059.9, 106959, 23.3535, 3.39412, -805.597, 0.192256, 0.153033, 1.03299, 0.34851, 0.655882, 3, 45.5, 246, 10.8524, 0.0181502, 0, 0, 0, 0, 42979
-8549.12, 133430, -32.2222, 4.15094, -874.87, 0.337757, 0.192045, 0.958125, 0.351078, 0.648177, 3, 182, 246, 10.8524, 0.0181502, 0, 0, 1, 0, 42979
-11683.6, 157334, -71.3252, 2.78806, -1160.24, -0.0341659, 0.253843, 1.03299, 0.34851, 0.655882, 0.0001, 45.5, 246, 28.059, 0.0932981, 0, 0, 0, 0, 42980
-11683.6, 157334, -71.3252, 2.78806, -1160.24, -0.0341659, 0.253843, 1.03299, 0.34851, 0.655882, 3, 45.5, 246, 28.059, 0.0932981, 0, 0, 0, 0, 42980
-9729.25, 180468, -107.518, 3.00314, -1164.07, 0.00265741, 0.249586, 0.993198, 0.349787, 0.651995, 0.0001, 91, 246, 28.059, 0.0932981, 0, 0, 1, 0, 42980
-9729.25, 180468, -107.518, 3.00314, -1164.07, 0.00265741, 0.249586, 0.993198, 0.349787, 0.651995, 3, 91, 246, 28.059, 0.0932981, 0, 0, 1, 0, 42980
-7748.92, 18480.5, -42.9952, 2.93021, -1155.19, 0.291976, 0.257925, 0.993198, 0.349787, 0.651995, 0.0001, 91, 246, 20.3991, 0.0688653, 0, 0, 1, 1, 42981
-7748.92, 18480.5, -42.9952, 2.93021, -1155.19, 0.291976, 0.257925, 0.993198, 0.349787, 0.651995, 3, 91, 246, 20.3991, 0.0688653, 0, 0, 1, 1, 42981
-10628, 160367, -161.268, 3.05915, -796.714, -0.038865, 0.273114, 1.03299, 0.34851, 0.655882, 0.0001, 45.5, 246, 35.9593, 0.148344, 0, 0, 0, 0, 42982
-10628, 160367, -161.268, 3.05915, -796.714, -0.038865, 0.273114, 1.03299, 0.34851, 0.655882, 3, 45.5, 246, 35.9593, 0.148344, 0, 0, 0, 0, 42982
-177.429, 204112, -312.788, 4.0959, -888.729, 0.146478, 0.352614, 0.9175, 0.352806, 0.64323, 0.0001, 455, 246, 35.9593, 0.148344, 1.21574, 1, 0, 0, 42982
-177.429, 204112, -312.788, 4.0959, -888.729, 0.146478, 0.352614, 0.9175, 0.352806, 0.64323, 3, 455, 246, 35.9593, 0.148344, 1.23293, 1, 0, 0, 42982
-7626.56, -24511.6, -3.21378, 3.333, -962.032, 0.00407761, 0.238783, 0.993198, 0.349787, 0.651995, 3, 91, 246, 6.73337, 0.0626508, 0, 0, 1, 1, 42983
-10661.6, 212498, -203.329, 1.5473, -599.485, 0.321898, 0.44398, 1.03299, 0.34851, 0.655882, 0.0001, 45.5, 246, 35.8489, 0.196633, 0, 0, 1, 0, 42987
-2863.28, 64462.4, -189.902, 3.12971, -913.656, -0.040933, 0.284645, 1.03299, 0.34851, 0.655882, 0.0001, 45.5, 246, 60.0722, 0.209425, 1.03174, 1, 1, 0, 42991
-1493.45, 79930.8, -233.692, 3.3958, -929.18, 0.00580838, 0.292623, 0.993198, 0.349787, 0.651995, 0.0001, 91, 246, 60.0722, 0.209425, 1.65761, 1, 1, 0, 42991
-1493.45, 79930.8, -233.692, 3.3958, -929.18, 0.00580838, 0.292623, 0.993198, 0.349787, 0.651995, 3, 91, 246, 60.0722, 0.209425, 1.51706, 1, 1, 0, 42991
458.162, 96827.8, -285.365, 3.70777, -958.281, 0.0612879, 0.316844, 0.958125, 0.351078, 0.648177, 0.0001, 182, 246, 60.0722, 0.209425, 2.31895, 1, 1, 1, 42991
458.162, 96827.8, -285.365, 3.70777, -958.281, 0.0612879, 0.316844, 0.958125, 0.351078, 0.648177, 3, 182, 246, 60.0722, 0.209425, 2.17692, 1, 1, 1, 42991
-3124.11, 219001, -349.379, 3.74047, -819.855, 0.0836097, 0.387662, 0.958125, 0.351078, 0.648177, 0.0001, 182, 246, 44.7101, 0.200732, 1.46457, 1, 0, 0, 42992
-3124.11, 219001, -349.379, 3.74047, -819.855, 0.0836097, 0.387662, 0.958125, 0.351078, 0.648177, 3, 182, 246, 44.7101, 0.200732, 1.26891, 1, 0, 0, 42992
-10636.7, 95011.5, -23.0382, 3.19257, -952.667, -0.0231205, 0.195465, 1.03299, 0.34851, 0.655882, 0.0001, 45.5, 246, 19.4783, 0.0575874, 0, 0, 1, 0, 42993
-10636.7, 95011.5, -23.0382, 3.19257, -952.667, -0.0231205, 0.195465, 1.03299, 0.34851, 0.655882, 3, 45.5, 246, 19.4783, 0.0575874, 0, 0, 1, 0, 42993
484.416, 201573, -343.879, 3.81, -810.282, 0.142104, 0.392717, 0.9175, 0.352806, 0.64323, 0.0001, 455, 246, 40.2239, 0.18093, 1.88214, 1, 0, 0, 42994
484.416, 201573, -343.879, 3.81, -810.282, 0.142104, 0.392717, 0.9175, 0.352806, 0.64323, 3, 455, 246, 40.2239, 0.18093, 1.89337, 1, 0, 0, 42994
-6263.9, 85790.2, -154.505, 3.2286, -1080.61, -0.0499038, 0.272687, 1.03299, 0.34851, 0.655882, 3, 45.5, 246, 45.94, 0.179227, 0, 0, 1, 0, 42996
-2435.1, 128842, -257.173, 3.83577, -1119.08, 0.0591704, 0.310498, 0.958125, 0.351078, 0.648177, 0.0001, 182, 246, 45.94, 0.179227, 1.38635, 1, 1, 0, 42996
-2435.1, 128842, -257.173, 3.83577, -1119.08, 0.0591704, 0.310498, 0.958125, 0.351078, 0.648177, 3, 182, 246, 45.94, 0.179227, 1.20045, 1, 1, 0, 42996
-6545.02, -61801, 12.1997, 3.13602, -887.558, 0.0209162, 0.246102, 1.03299, 0.34851, 0.655882, 0.0001, 45.5, 246, 10.5, 0.0149663, 1.74257, 1, 1, 0, 42997
-6545.02, -61801, 12.1997, 3.13602, -887.558, 0.0209162, 0.246102, 1.03299, 0.34851, 0.655882, 3, 45.5, 246, 10.5, 0.0149663, 1.61548, 1, 1, 0, 42997
-12346.3, 234216, -379.471, 3.36068, -582.263, 0.712951, 0.404332, 1.03299, 0.34851, 0.655882, 0.0001, 45.5, 246, 48.9811, 0.223903, 1.29929, 1, 0, 0, 42998
-12346.3, 234216, -379.471, 3.36068, -582.263, 0.712951, 0.404332, 1.03299, 0.34851, 0.655882, 3, 45.5, 246, 48.9811, 0.223903, 1.23779, 1, 0, 0, 42998
-7336.21, 253759, -436.994, 3.83927, -700.246, 0.867488, 0.43164, 0.993198, 0.349787, 0.651995, 0.0001, 91, 246, 48.9811, 0.223903, 1.6646, 1, 1, 0, 42998
-7336.21, 253759, -436.994, 3.83927, -700.246, 0.867488, 0.43164, 0.993198, 0.349787, 0.651995, 3, 91, 246, 48.9811, 0.223903, 1.58685, 1, 1, 0, 42998
