-11101.2, 104058, -14.7922, 3.02355, -861.783, 0.0868481, 0.205623, 1.03299, 0.34851, 0.655882, 0.0001, 45.5, 246, 16.7936, 0.046422, 0, 0, 1, 0, 18010
-11101.2, 104058, -14.7922, 3.02355, -861.783, 0.0868481, 0.205623, 1.03299, 0.34851, 0.655882, 3, 45.5, 246, 16.7936, 0.046422, 0, 0, 1, 0, 18010
-10864.9, 230016, -159.064, 1.73353, -1044.56, 0.0503465, 0.39088, 1.03299, 0.34851, 0.655882, 0.0001, 45.5, 246, 35.2298, 0.154217, 0, 0, 0, 0, 18013
-10864.9, 230016, -159.064, 1.73353, -1044.56, 0.0503465, 0.39088, 1.03299, 0.34851, 0.655882, 3, 45.5, 246, 35.2298, 0.154217, 0, 0, 0, 0, 18013
-7820.13, 140428, -201.202, 2.45601, -990.516, -0.0285788, 0.409585, 1.03299, 0.34851, 0.655882, 0.0001, 45.5, 246, 48.4317, 0.239704, 0, 0, 1, 0, 18014
-7820.13, 140428, -201.202, 2.45601, -990.516, -0.0285788, 0.409585, 1.03299, 0.34851, 0.655882, 3, 45.5, 246, 48.4317, 0.239704, 0, 0, 1, 0, 18014
-5440.22, 64180.6, -141.205, 3.38184, -1112.6, -0.043304, 0.244025, 1.03299, 0.34851, 0.655882, 3, 45.5, 246, 46.4142, 0.162873, 0, 0, 1, 0, 18018
-4151.81, 86228.6, -190.072, 3.68335, -1125.03, 0.0114633, 0.257601, 0.993198, 0.349787, 0.651995, 0.0001, 91, 246, 46.4142, 0.162873, 1.04803, 1, 1, 0, 18018
-2145.23, 109838, -248.479, 4.04261, -1155.06, 0.0771725, 0.289971, 0.958125, 0.351078, 0.648177, 0.0001, 182, 246, 46.4142, 0.162873, 1.4746, 1, 1, 0, 18018
-2145.23, 109838, -248.479, 4.04261, -1155.06, 0.0771725, 0.289971, 0.958125, 0.351078, 0.648177, 3, 182, 246, 46.4142, 0.162873, 1.31076, 1, 1, 0, 18018
-10816.1, 183557, -114.313, 1.91397, -985.478, 0.416228, 0.339917, 1.03299, 0.34851, 0.655882, 0.0001, 45.5, 246, 30.5325, 0.124151, 0, 0, 1, 0, 18019
-10816.1, 183557, -114.313, 1.91397, -985.478, 0.416228, 0.339917, 1.03299, 0.34851, 0.655882, 3, 45.5, 246, 30.5325, 0.124151, 0, 0, 1, 0, 18019
-7626.06, -7669.42, -17.6518, 2.51904, -645.671, -0.0259682, 0.271997, 1.03299, 0.34851, 0.655882, 3, 45.5, 246, 17.9193, 0.0260946, 0, 0, 1, 1, 18023
-3275.12, 165572, -298.263, 3.25917, -739.289, 0.0717054, 0.383356, 0.958125, 0.351078, 0.648177, 0.0001, 182, 246, 45.8909, 0.213997, 1.18892, 1, 1, 0, 18025
1460.77, 182948, -366.463, 3.67599, -796.263, 0.14367, 0.428228, 0.9175, 0.352806, 0.64323, 0.0001, 455, 246, 45.8909, 0.213997, 4.02443, 1, 0, 0, 18025
1460.77, 182948, -366.463, 3.67599, -796.263, 0.14367, 0.428228, 0.9175, 0.352806, 0.64323, 3, 455, 246, 45.8909, 0.213997, 4.05111, 1, 0, 0, 18025
-9227.95, 163834, -89.7072, 0.894704, -1000.53, 0.660651, 0.373044, 1.03299, 0.34851, 0.655882, 3, 45.5, 246, 27.3945, 0.121803, 0, 0, 1, 0, 18028
-8391.68, -10817.1, -4.31393, 2.36409, -1090.46, 0.278873, 0.279978, 0.993198, 0.349787, 0.651995, 0.0001, 91, 246, 6.60534, 0.0652264, 0, 0, 1, 1, 18032
-8391.68, -10817.1, -4.31393, 2.36409, -1090.46, 0.278873, 0.279978, 0.993198, 0.349787, 0.651995, 3, 91, 246, 6.60534, 0.0652264, 0, 0, 1, 1, 18032
-9415.4, 298944, -90.8107, 2.00741, -957.698, 0.111294, 0.263075, 0.958125, 0.351078, 0.648177, 3, 182, 246, 21.1428, 0.053674, 0, 0, 1, 0, 18033
-7659.91, 27802, -57.0686, 1.7269, -664.529, 0.167419, 0.323021, 1.03299, 0.34851, 0.655882, 0.0001, 45.5, 246, 33.4085, 0.131838, 0, 0, 1, 1, 18034
-10916.4, 83085.4, 24.81, 3.30475, -968.641, -0.0523288, 0.174206, 1.03299, 0.34851, 0.655882, 0.0001, 45.5, 246, 12.0503, 0.0259239, 0, 0, 0, 0, 18035
-10916.4, 83085.4, 24.81, 3.30475, -968.641, -0.0523288, 0.174206, 1.03299, 0.34851, 0.655882, 3, 45.5, 246, 12.0503, 0.0259239, 0, 0, 0, 0, 18035
-10752.1, 138987, -60.0081, 2.11811, -841.824, 0.0688068, 0.29556, 1.03299, 0.34851, 0.655882, 0.0001, 45.5, 246, 22.6282, 0.0846522, 0, 0, 1, 0, 18036
-9566.97, 151943, -80.8156, 2.26706, -856.559, 0.0909029, 0.277887, 0.993198, 0.349787, 0.651995, 0.0001, 91, 246, 22.6282, 0.0846522, 0, 0, 1, 0, 18036
-3496.18, 201659, -296.188, 2.71445, -1202.14, 0.7686, 0.441747, 0.958125, 0.351078, 0.648177, 0.0001, 182, 246, 48.3283, 0.246395, 0, 0, 0, 0, 18037
-8215.22, 93805.4, -126.233, 1.7175, -573.993, 0.799846, 0.364237, 1.03299, 0.34851, 0.655882, 3, 45.5, 246, 36.0431, 0.184252, 0, 0, 1, 0, 18040
-11519.9, 259302, -102.726, 1.42163, -1021.1, -0.0087234, 0.351266, 1.03299, 0.34851, 0.655882, 0.0001, 45.5, 246, 27.5132, 0.097039, 0, 0, 1, 0, 18043
-13717.6, 145585, 28.8028, 3.25136, -1180.02, -0.0460257, 0.170895, 1.03299, 0.34851, 0.655882, 0.0001, 45.5, 246, 16.2449, 0.0243424, 0, 0, 0, 0, 18044
-13717.6, 145585, 28.8028, 3.25136, -1180.02, -0.0460257, 0.170895, 1.03299, 0.34851, 0.655882, 3, 45.5, 246, 16.2449, 0.0243424, 0, 0, 0, 0, 18044
-11661.3, 168961, -5.15505, 3.5242, -1174.95, 0.00438439, 0.175625, 0.993198, 0.349787, 0.651995, 0.0001, 91, 246, 16.2449, 0.0243424, 0, 0, 1, 0, 18044
-11661.3, 168961, -5.15505, 3.5242, -1174.95, 0.00438439, 0.175625, 0.993198, 0.349787, 0.651995, 3, 91, 246, 16.2449, 0.0243424, 0, 0, 1, 0, 18044
-9546.73, 123010, -129.273, 3.20799, -919.933, 0.453795, 0.230256, 1.03299, 0.34851, 0.655882, 0.0001, 45.5, 246, 34.6525, 0.127457, 0, 0, 0, 0, 18045
-9546.73, 123010, -129.273, 3.20799, -919.933, 0.453795, 0.230256, 1.03299, 0.34851, 0.655882, 3, 45.5, 246, 34.6525, 0.127457, 0, 0, 0, 0, 18045
877.915, 215421, -323.128, 4.86383, -1373.28, 0.903973, 0.348486, 0.9175, 0.352806, 0.64323, 0.0001, 455, 246, 34.6525, 0.127457, 3.39514, 1, 0, 0, 18045
877.915, 215421, -323.128, 4.86383, -1373.28, 0.903973, 0.348486, 0.9175, 0.352806, 0.64323, 3, 455, 246, 34.6525, 0.127457, 0, 0, 0, 0, 18045
-10499.8, 330264, -435.186, 3.63168, -810.727, 0.0580168, 0.480132, 0.993198, 0.349787, 0.651995, 0.0001, 91, 246, 48.3225, 0.22386, 1.17141, 1, 1, 0, 18046
-10499.8, 330264, -435.186, 3.63168, -810.727, 0.0580168, 0.480132, 0.993198, 0.349787, 0.651995, 3, 91, 246, 48.3225, 0.22386, 1.06687, 1, 1, 0, 18046
-8458.16, 106790, -49.9026, 0.113758, -1118.54, 0.000284887, 0.365423, 1.03299, 0.34851, 0.655882, 0.0001, 45.5, 246, 22.0571, 0.121917, 0, 0, 1, 0, 18048
-8458.16, 106790, -49.9026, 0.113758, -1118.54, 0.000284887, 0.365423, 1.03299, 0.34851, 0.655882, 3, 45.5, 246, 22.0571, 0.121917, 0, 0, 1, 0, 18048
-13584.6, 321290, -315.152, 3.77914, -705.128, 0.0273286, 0.306766, 0.993198, 0.349787, 0.651995, 0.0001, 91, 246, 36.9698, 0.158543, 0, 0, 1, 0, 18050
-13584.6, 321290, -315.152, 3.77914, -705.128, 0.0273286, 0.306766, 0.993198, 0.349787, 0.651995, 3, 91, 246, 36.9698, 0.158543, 0, 0, 1, 0, 18050
-7941.59, 92032.2, -97.4031, 1.86093, -1166.2, 0.0980395, 0.329216, 0.993198, 0.349787, 0.651995, 0.0001, 91, 246, 32.7995, 0.169629, 0, 0, 1, 0, 18051
-7941.59, 92032.2, -97.4031, 1.86093, -1166.2, 0.0980395, 0.329216, 0.993198, 0.349787, 0.651995, 3, 91, 246, 32.7995, 0.169629, 0, 0, 1, 0, 18051
-7071.99, -10851.4, -24.6559, 2.93969, -801.315, -0.0411833, 0.243655, 1.03299, 0.34851, 0.655882, 0.0001, 45.5, 246, 22.4157, 0.0267368, 0, 0, 1, 1, 18053
-11221.9, 330227, -103.756, 0.855985, -721.921, 0.0595532, 0.361426, 1.03299, 0.34851, 0.655882, 0.0001, 45.5, 246, 21.965, 0.0794816, 0, 0, 1, 0, 18056
-11221.9, 330227, -103.756, 0.855985, -721.921, 0.0595532, 0.361426, 1.03299, 0.34851, 0.655882, 3, 45.5, 246, 21.965, 0.0794816, 0, 0, 1, 0, 18056
-10115.5, 340628, -113.937, 0.895809, -731.494, 0.0635192, 0.330122, 0.993198, 0.349787, 0.651995, 3, 91, 246, 21.965, 0.0794816, 0, 0, 1, 0, 18056
-9622.03, 229563, -39.1371, 2.03788, -815.954, 0.0433836, 0.250958, 0.958125, 0.351078, 0.648177, 0.0001, 182, 246, 14.5034, 0.0260619, 0, 0, 1, 0, 18060
-8030.89, 294501, -413.571, 3.75536, -980.56, 0.307652, 0.445908, 0.993198, 0.349787, 0.651995, 0.0001, 91, 246, 50.3956, 0.223265, 1.28091, 1, 1, 0, 18069
-8030.89, 294501, -413.571, 3.75536, -980.56, 0.307652, 0.445908, 0.993198, 0.349787, 0.651995, 3, 91, 246, 50.3956, 0.223265, 1.17633, 1, 1, 0, 18069
-10994.4, 325993, -190.309, 1.29161, -1159.55, 0.00896437, 0.424243, 1.03299, 0.34851, 0.655882, 0.0001, 45.5, 246, 36.3939, 0.143892, 0, 0, 0, 0, 18071
-10994.4, 325993, -190.309, 1.29161, -1159.55, 0.00896437, 0.424243, 1.03299, 0.34851, 0.655882, 3, 45.5, 246, 36.3939, 0.143892, 0, 0, 0, 0, 18071
-7054.46, 215909, -334.586, 3.09854, -676.622, 0.0230654, 0.441066, 0.993198, 0.349787, 0.651995, 0.0001, 91, 246, 47.7651, 0.233583, 1.04523, 1, 1, 0, 18072
-2919.99, 226866, -384.683, 3.38028, -712.248, 0.0694047, 0.466691, 0.958125, 0.351078, 0.648177, 0.0001, 182, 246, 47.7651, 0.233583, 1.67216, 1, 0, 0, 18072
-2919.99, 226866, -384.683, 3.38028, -712.248, 0.0694047, 0.466691, 0.958125, 0.351078, 0.648177, 3, 182, 246, 47.7651, 0.233583, 1.49632, 1, 0, 0, 18072
-10232.7, 127935, -48.5227, 1.88071, -1120.94, 0.113881, 0.31117, 1.03299, 0.34851, 0.655882, 0.0001, 45.5, 246, 23.8556, 0.0846592, 0, 0, 1, 0, 18074
-10232.7, 127935, -48.5227, 1.88071, -1120.94, 0.113881, 0.31117, 1.03299, 0.34851, 0.655882, 3, 45.5, 246, 23.8556, 0.0846592, 0, 0, 1, 0, 18074
-11959.9, 113261, 6.60713, 3.28023, -918.707, -0.0400666, 0.173888, 1.03299, 0.34851, 0.655882, 0.0001, 45.5, 246, 14.6836, 0.0326323, 0, 0, 0, 0, 18076
-11959.9, 113261, 6.60713, 3.28023, -918.707, -0.0400666, 0.173888, 1.03299, 0.34851, 0.655882, 3, 45.5, 246, 14.6836, 0.0326323, 0, 0, 0, 0, 18076
-9222.7, 107750, -111.293, 3.03804, -842.281, 0.0897214, 0.245443, 1.03299, 0.34851, 0.655882, 0.0001, 45.5, 246, 32.4917, 0.12304, 0, 0, 1, 0, 18077
-9222.7, 107750, -111.293, 3.03804, -842.281, 0.0897214, 0.245443, 1.03299, 0.34851, 0.655882, 3, 45.5, 246, 32.4917, 0.12304, 0, 0, 1, 0, 18077
-11022.9, 301411, -283.224, 1.33851, -871.543, 0.112547, 0.553058, 1.03299, 0.34851, 0.655882, 0.0001, 45.5, 246, 42.9351, 0.226393, 0, 0, 0, 0, 18080
-11022.9, 301411, -283.224, 1.33851, -871.543, 0.112547, 0.553058, 1.03299, 0.34851, 0.655882, 3, 45.5, 246, 42.9351, 0.226393, 0, 0, 0, 0, 18080
-11736, 229458, -118.712, 1.60996, -821.834, 0.734774, 0.346671, 1.03299, 0.34851, 0.655882, 0.0001, 45.5, 246, 26.9589, 0.105886, 0, 0, 1, 0, 18082
-11736, 229458, -118.712, 1.60996, -821.834, 0.734774, 0.346671, 1.03299, 0.34851, 0.655882, 3, 45.5, 246, 26.9589, 0.105886, 0, 0, 1, 0, 18082
-5004.98, 45005.7, -135.846, 3.39632, -728.141, 0.332367, 0.199548, 1.03299, 0.34851, 0.655882, 0.0001, 45.5, 246, 43.3938, 0.106397, 1.08175, 1, 1, 0, 18083
-4109.7, 56159.8, -172.844, 3.77401, -786.87, 0.410314, 0.212035, 0.993198, 0.349787, 0.651995, 0.0001, 91, 246, 43.3938, 0.106397, 1.04342, 1, 1, 0, 18083
-2744.2, 70076, -219.841, 4.23942, -867.505, 0.514067, 0.246683, 0.958125, 0.351078, 0.648177, 0.0001, 182, 246, 43.3938, 0.106397, 1.20902, 1, 1, 0, 18083
-2744.2, 70076, -219.841, 4.23942, -867.505, 0.514067, 0.246683, 0.958125, 0.351078, 0.648177, 3, 182, 246, 43.3938, 0.106397, 1.05773, 1, 1, 0, 18083
219.335, 95646.4, -306.066, 5.06691, -1029.64, 0.716405, 0.336689, 0.9175, 0.352806, 0.64323, 0.0001, 455, 246, 43.3938, 0.106397, 1.92255, 1, 1, 0, 18083
219.335, 95646.4, -306.066, 5.06691, -1029.64, 0.716405, 0.336689, 0.9175, 0.352806, 0.64323, 3, 455, 246, 43.3938, 0.106397, 1.86322, 1, 1, 0, 18083
-10905.9, 114576, -44.8731, 2.72139, -641.675, -0.0345988, 0.239949, 1.03299, 0.34851, 0.655882, 0.0001, 45.5, 246, 18.2217, 0.0626933, 0, 0, 1, 0, 18084
-10905.9, 114576, -44.8731, 2.72139, -641.675, -0.0345988, 0.239949, 1.03299, 0.34851, 0.655882, 3, 45.5, 246, 18.2217, 0.0626933, 0, 0, 1, 0, 18084
-9035.12, 92716.8, -62.793, 1.40228, -965.092, 0.0264649, 0.348255, 1.03299, 0.34851, 0.655882, 0.0001, 45.5, 246, 26.4261, 0.130978, 0, 0, 1, 0, 18089
-9035.12, 92716.8, -62.793, 1.40228, -965.092, 0.0264649, 0.348255, 1.03299, 0.34851, 0.655882, 3, 45.5, 246, 26.4261, 0.130978, 0, 0, 1, 0, 18089
935.181, 310427, -383.015, 4.40885, -771.116, 0.459428, 0.385935, 0.9175, 0.352806, 0.64323, 3, 455, 246, 32.7104, 0.144617, 1.15683, 1, 0, 0, 18090
-8783.41, 37033.3, 0.221361, 0.487849, -758.629, 0.0848458, 0.339787, 1.03299, 0.34851, 0.655882, 0.0001, 45.5, 246, 5.64449, 0.0228772, 0, 0, 1, 0, 18096
-8783.41, 37033.3, 0.221361, 0.487849, -758.629, 0.0848458, 0.339787, 1.03299, 0.34851, 0.655882, 3, 45.5, 246, 5.64449, 0.0228772, 0, 0, 1, 0, 18096
-9233.27, 146668, -186.855, 2.7732, -718.413, 0.167904, 0.32399, 1.03299, 0.34851, 0.655882, 3, 45.5, 246, 40.1211, 0.178939, 0, 0, 1, 0, 18097
205.047, 193874, -330.833, 3.79843, -896.212, 0.356334, 0.383922, 0.9175, 0.352806, 0.64323, 0.0001, 455, 246, 40.1211, 0.178939, 1.85762, 1, 0, 0, 18097
205.047, 193874, -330.833, 3.79843, -896.212, 0.356334, 0.383922, 0.9175, 0.352806, 0.64323, 3, 455, 246, 40.1211, 0.178939, 1.86788, 1, 0, 0, 18097
-13575.3, 166747, -59.6856, 3.61745, -1063.48, -0.0630361, 0.148989, 1.03299, 0.34851, 0.655882, 0.0001, 45.5, 246, 25.8383, 0.0746388, 0, 0, 0, 0, 18101
-13575.3, 166747, -59.6856, 3.61745, -1063.48, -0.0630361, 0.148989, 1.03299, 0.34851, 0.655882, 3, 45.5, 246, 25.8383, 0.0746388, 0, 0, 0, 0, 18101
-10865, 185611, -102.029, 3.94408, -1066.04, -0.000191416, 0.165171, 0.993198, 0.349787, 0.651995, 0.0001, 91, 246, 25.8383, 0.0746388, 0, 0, 1, 0, 18101
-10865, 185611, -102.029, 3.94408, -1066.04, -0.000191416, 0.165171, 0.993198, 0.349787, 0.651995, 3, 91, 246, 25.8383, 0.0746388, 0, 0, 1, 0, 18101
-11373.7, 321990, -188.036, 0.941721, -597.773, 0.245424, 0.4252, 1.03299, 0.34851, 0.655882, 0.0001, 45.5, 246, 27.8018, 0.139765, 0, 0, 1, 0, 18102
-11373.7, 321990, -188.036, 0.941721, -597.773, 0.245424, 0.4252, 1.03299, 0.34851, 0.655882, 3, 45.5, 246, 27.8018, 0.139765, 0, 0, 1, 0, 18102
-1896.21, 75383.3, -246.424, 4.03193, -817.768, 0.208992, 0.312439, 0.9175, 0.352806, 0.64323, 0.0001, 455, 246, 44.023, 0.114564, 1.28352, 1, 1, 0, 18103
-1896.21, 75383.3, -246.424, 4.03193, -817.768, 0.208992, 0.312439, 0.9175, 0.352806, 0.64323, 3, 455, 246, 44.023, 0.114564, 1.20812, 1, 1, 0, 18103
-959.815, 137719, -285.224, 4.63191, -855.913, 0.96803, 0.337616, 0.9175, 0.352806, 0.64323, 0.0001, 455, 246, 35.2628, 0.130287, 1.29841, 1, 0, 0, 18104
-959.815, 137719, -285.224, 4.63191, -855.913, 0.96803, 0.337616, 0.9175, 0.352806, 0.64323, 3, 455, 246, 35.2628, 0.130287, 1.28576, 1, 0, 0, 18104
-11357.9, 148837, -111.547, 3.13135, -767.812, -0.0465407, 0.228457, 1.03299, 0.34851, 0.655882, 0.0001, 45.5, 246, 28.9814, 0.109141, 0, 0, 1, 0, 18105
-11357.9, 148837, -111.547, 3.13135, -767.812, -0.0465407, 0.228457, 1.03299, 0.34851, 0.655882, 3, 45.5, 246, 28.9814, 0.109141, 0, 0, 0, 0, 18105
-6454.44, 60627.2, -122.013, 2.61717, -769.455, 0.938154, 0.279564, 0.993198, 0.349787, 0.651995, 0.0001, 91, 246, 36.7961, 0.129587, 0, 0, 1, 0, 18106
-6454.44, 60627.2, -122.013, 2.61717, -769.455, 0.938154, 0.279564, 0.993198, 0.349787, 0.651995, 3, 91, 246, 36.7961, 0.129587, 0, 0, 1, 0, 18106
-5595.13, 76766.1, -152.427, 2.97045, -916.863, 1.14166, 0.281136, 0.958125, 0.351078, 0.648177, 0.0001, 182, 246, 36.7961, 0.129587, 0, 0, 1, 0, 18106
-5595.13, 76766.1, -152.427, 2.97045, -916.863, 1.14166, 0.281136, 0.958125, 0.351078, 0.648177, 3, 182, 246, 36.7961, 0.129587, 0, 0, 1, 0, 18106
-3582.8, 112179, -211.794, 3.62097, -1236.5, 1.58206, 0.309321, 0.9175, 0.352806, 0.64323, 0.0001, 455, 246, 36.7961, 0.129587, 1.04, 1, 1, 0, 18106
-3582.8, 112179, -211.794, 3.62097, -1236.5, 1.58206, 0.309321, 0.9175, 0.352806, 0.64323, 3, 455, 246, 36.7961, 0.129587, 1.04525, 1, 1, 0, 18106
-10202.4, 186431, -210.935, 3.14672, -1055.42, -0.047449, 0.324243, 1.03299, 0.34851, 0.655882, 0.0001, 45.5, 246, 44.1903, 0.186436, 0, 0, 0, 0, 18107
-10202.4, 186431, -210.935, 3.14672, -1055.42, -0.047449, 0.324243, 1.03299, 0.34851, 0.655882, 3, 45.5, 246, 44.1903, 0.186436, 0, 0, 0, 0, 18107
-7117.27, 206477, -261.309, 3.41803, -1071.7, -0.000104513, 0.335585, 0.993198, 0.349787, 0.651995, 0.0001, 91, 246, 44.1903, 0.186436, 0, 0, 1, 0, 18107
-7117.27, 206477, -261.309, 3.41803, -1071.7, -0.000104513, 0.335585, 0.993198, 0.349787, 0.651995, 3, 91, 246, 44.1903, 0.186436, 0, 0, 1, 0, 18107
-3094.62, 228670, -320.89, 3.73703, -1103.73, 0.056124, 0.363568, 0.958125, 0.351078, 0.648177, 0.0001, 182, 246, 44.1903, 0.186436, 1.09662, 1, 0, 0, 18107
-12535.5, 328621, -10.1879, 0.943411, -667.826, 0.0869436, 0.326735, 1.03299, 0.34851, 0.655882, 0.0001, 45.5, 246, 12.8324, 0.0133698, 0, 0, 1, 0, 18110
-12535.5, 328621, -10.1879, 0.943411, -667.826, 0.0869436, 0.326735, 1.03299, 0.34851, 0.655882, 3, 45.5, 246, 12.8324, 0.0133698, 0, 0, 1, 0, 18110
-11431.4, 337938, -16.4632, 0.989408, -677.688, 0.092312, 0.293673, 0.993198, 0.349787, 0.651995, 3, 91, 246, 12.8324, 0.0133698, 0, 0, 1, 0, 18110
-10155.8, 347664, -23.3492, 1.03604, -688.497, 0.0982475, 0.265639, 0.958125, 0.351078, 0.648177, 0.0001, 182, 246, 12.8324, 0.0133698, 0, 0, 1, 0, 18110
-12376.9, 164203, -32.2109, 2.53964, -1117.97, -0.0286381, 0.254307, 1.03299, 0.34851, 0.655882, 0.0001, 45.5, 246, 22.16, 0.0601286, 0, 0, 1, 0, 18111
-12376.9, 164203, -32.2109, 2.53964, -1117.97, -0.0286381, 0.254307, 1.03299, 0.34851, 0.655882, 3, 45.5, 246, 22.16, 0.0601286, 0, 0, 1, 0, 18111
-5207.78, 339995, -450.55, 3.72932, -777.929, 0.484505, 0.473301, 0.958125, 0.351078, 0.648177, 0.0001, 182, 246, 42.263, 0.201334, 1.51688, 1, 0, 0, 18112
-5207.78, 339995, -450.55, 3.72932, -777.929, 0.484505, 0.473301, 0.958125, 0.351078, 0.648177, 3, 182, 246, 42.263, 0.201334, 1.36053, 1, 0, 0, 18112
-4245.85, 264610, -360.984, 3.58672, -862.436, 0.320379, 0.403323, 0.958125, 0.351078, 0.648177, 0.0001, 182, 246, 42.256, 0.192593, 1.02357, 1, 0, 0, 18114
-5903.57, 48743.6, -133.655, 3.3744, -661.232, 0.263081, 0.254706, 0.958125, 0.351078, 0.648177, 3, 182, 246, 32.67, 0.0849481, 0, 0, 1, 0, 18115
-5479.77, 33882, -104.81, 3.0954, -1016.98, 0.547121, 0.237865, 1.03299, 0.34851, 0.655882, 0.0001, 45.5, 246, 42.9235, 0.114457, 0, 0, 1, 0, 18117
-5479.77, 33882, -104.81, 3.0954, -1016.98, 0.547121, 0.237865, 1.03299, 0.34851, 0.655882, 3, 45.5, 246, 42.9235, 0.114457, 0, 0, 1, 0, 18117
-3547.85, 83601.4, -199.688, 3.92743, -1281.84, 0.791884, 0.268935, 0.958125, 0.351078, 0.648177, 0.0001, 182, 246, 42.9235, 0.114457, 1.08796, 1, 1, 0, 18117
-129.051, 139247, -303.564, 4.7667, -1595.62, 1.07993, 0.344109, 0.9175, 0.352806, 0.64323, 0.0001, 455, 246, 42.9235, 0.114457, 3.57084, 1, 0, 0, 18117
-129.051, 139247, -303.564, 4.7667, -1595.62, 1.07993, 0.344109, 0.9175, 0.352806, 0.64323, 3, 455, 246, 42.9235, 0.114457, 3.58136, 1, 0, 0, 18117
-12567.8, 245505, -345.704, 3.20741, -611.48, -0.0445199, 0.437573, 1.03299, 0.34851, 0.655882, 0.0001, 45.5, 246, 48.8113, 0.235469, 1.06492, 1, 0, 0, 18121
-7996.95, 253923, -396.875, 3.49992, -642.197, 0.00486364, 0.460051, 0.993198, 0.349787, 0.651995, 0.0001, 91, 246, 48.8113, 0.235469, 1.36959, 1, 1, 0, 18121
-7996.95, 253923, -396.875, 3.49992, -642.197, 0.00486364, 0.460051, 0.993198, 0.349787, 0.651995, 3, 91, 246, 48.8113, 0.235469, 1.26329, 1, 1, 0, 18121
-2374.04, 264971, -457.895, 3.84751, -686.992, 0.0641991, 0.500926, 0.958125, 0.351078, 0.648177, 0.0001, 182, 246, 48.8113, 0.235469, 3.16856, 1, 0, 0, 18121
-2374.04, 264971, -457.895, 3.84751, -686.992, 0.0641991, 0.500926, 0.958125, 0.351078, 0.648177, 3, 182, 246, 48.8113, 0.235469, 2.93026, 1, 0, 0, 18121
-15035, 301915, -455.712, 3.36772, -794.04, 0.700853, 0.527225, 1.03299, 0.34851, 0.655882, 0.0001, 45.5, 246, 54.228, 0.249139, 1.15118, 1, 0, 0, 18125
-15035, 301915, -455.712, 3.36772, -794.04, 0.700853, 0.527225, 1.03299, 0.34851, 0.655882, 3, 45.5, 246, 54.228, 0.249139, 1.09468, 1, 0, 0, 18125
-8292.08, 331487, -530.05, 3.85848, -946.718, 0.852465, 0.566006, 0.993198, 0.349787, 0.651995, 0.0001, 91, 246, 54.228, 0.249139, 1.76603, 1, 1, 0, 18125
-8292.08, 331487, -530.05, 3.85848, -946.718, 0.852465, 0.566006, 0.993198, 0.349787, 0.651995, 3, 91, 246, 54.228, 0.249139, 1.71719, 1, 1, 0, 18125
-7861.74, 257350, -123.751, 1.88106, -1327.23, 0.680893, 0.290281, 0.958125, 0.351078, 0.648177, 0.0001, 182, 246, 26.3509, 0.0885757, 0, 0, 1, 0, 18127
-8635.98, 235254, -173.899, 1.7571, -1196.46, 0.531971, 0.368747, 0.993198, 0.349787, 0.651995, 3, 91, 246, 35.0262, 0.151736, 0, 0, 1, 0, 18130
-12573.1, 151444, -3.26433, 2.57701, -900.851, 0.0526079, 0.239504, 1.03299, 0.34851, 0.655882, 0.0001, 45.5, 246, 15.4665, 0.0325443, 0, 0, 1, 0, 18133
-12573.1, 151444, -3.26433, 2.57701, -900.851, 0.0526079, 0.239504, 1.03299, 0.34851, 0.655882, 3, 45.5, 246, 15.4665, 0.0325443, 0, 0, 1, 0, 18133
-3024.53, 264536, -390.952, 4.48959, -983.617, 0.826876, 0.351208, 0.958125, 0.351078, 0.648177, 0.0001, 182, 246, 42.1181, 0.175485, 2.08413, 1, 0, 0, 18135
-3024.53, 264536, -390.952, 4.48959, -983.617, 0.826876, 0.351208, 0.958125, 0.351078, 0.648177, 3, 182, 246, 42.1181, 0.175485, 1.92352, 1, 0, 0, 18135
-11484.5, 249701, -229.604, 1.63989, -634.559, -0.012185, 0.466783, 1.03299, 0.34851, 0.655882, 0.0001, 45.5, 246, 37.3849, 0.203092, 0, 0, 1, 0, 18136
-3860.12, 292678, -396.357, 3.43752, -889.016, 0.0484486, 0.458119, 0.958125, 0.351078, 0.648177, 0.0001, 182, 246, 45.2987, 0.210282, 1.23149, 1, 0, 0, 18138
-8220.12, 144140, -190.627, 2.63494, -1069.74, -0.0330146, 0.377684, 1.03299, 0.34851, 0.655882, 0.0001, 45.5, 246, 46.2411, 0.216081, 0, 0, 1, 0, 18140
-8220.12, 144140, -190.627, 2.63494, -1069.74, -0.0330146, 0.377684, 1.03299, 0.34851, 0.655882, 3, 45.5, 246, 46.2411, 0.216081, 0, 0, 1, 0, 18140
-5028.68, 268308, -345.468, 4.35707, -838.445, 0.235975, 0.315413, 0.958125, 0.351078, 0.648177, 0.0001, 182, 246, 38.3809, 0.15785, 1.02503, 1, 0, 0, 18141
-10358.2, 164735, -174.484, 3.39175, -1034.79, 0.0908371, 0.251866, 1.03299, 0.34851, 0.655882, 0.0001, 45.5, 246, 40.0766, 0.155295, 0, 0, 0, 0, 18143
-10358.2, 164735, -174.484, 3.39175, -1034.79, 0.0908371, 0.251866, 1.03299, 0.34851, 0.655882, 3, 45.5, 246, 40.0766, 0.155295, 0, 0, 0, 0, 18143
-7501.51, 185426, -224.616, 3.72297, -1073.19, 0.148546, 0.266721, 0.993198, 0.349787, 0.651995, 0.0001, 91, 246, 40.0766, 0.155295, 0, 0, 1, 0, 18143
-7501.51, 185426, -224.616, 3.72297, -1073.19, 0.148546, 0.266721, 0.993198, 0.349787, 0.651995, 3, 91, 246, 40.0766, 0.155295, 0, 0, 1, 0, 18143
-11241.7, 275566, -281.452, 2.00264, -1025.56, -0.0186058, 0.520761, 1.03299, 0.34851, 0.655882, 0.0001, 45.5, 246, 46.7225, 0.230056, 0, 0, 0, 0, 18144
-11241.7, 275566, -281.452, 2.00264, -1025.56, -0.0186058, 0.520761, 1.03299, 0.34851, 0.655882, 3, 45.5, 246, 46.7225, 0.230056, 0, 0, 0, 0, 18144
-9465.55, 143483, -153.76, 2.95965, -1019.79, 0.0127068, 0.293794, 1.03299, 0.34851, 0.655882, 0.0001, 45.5, 246, 39.0148, 0.160694, 0, 0, 0, 0, 18145
-9465.55, 143483, -153.76, 2.95965, -1019.79, 0.0127068, 0.293794, 1.03299, 0.34851, 0.655882, 3, 45.5, 246, 39.0148, 0.160694, 0, 0, 0, 0, 18145
656.995, 215180, -325.719, 3.97689, -1142.49, 0.190375, 0.366099, 0.9175, 0.352806, 0.64323, 0.0001, 455, 246, 39.0148, 0.160694, 2.43711, 1, 0, 0, 18145
656.995, 215180, -325.719, 3.97689, -1142.49, 0.190375, 0.366099, 0.9175, 0.352806, 0.64323, 3, 455, 246, 39.0148, 0.160694, 2.74049, 1, 0, 0, 18145
-7807.44, -19360.8, 18.0677, 2.5992, -995.847, 0.162212, 0.265299, 1.03299, 0.34851, 0.655882, 0.0001, 45.5, 246, 8.14724, 0.0549216, 0, 0, 1, 1, 18148
-6955.19, -67.7235, -48.0357, 3.68079, -1142.54, 0.0174014, 0.222449, 0.993198, 0.349787, 0.651995, 0.0001, 91, 246, 21.4603, 0.052224, 0, 0, 1, 1, 18150
-6955.19, -67.7235, -48.0357, 3.68079, -1142.54, 0.0174014, 0.222449, 0.993198, 0.349787, 0.651995, 3, 91, 246, 21.4603, 0.052224, 0, 0, 1, 1, 18150
-9594.44, 72405.8, 5.76453, 1.5946, -799.384, -0.0110829, 0.308649, 1.03299, 0.34851, 0.655882, 0.0001, 45.5, 246, 9.27877, 0.0236482, 0, 0, 1, 0, 18156
-9594.44, 72405.8, 5.76453, 1.5946, -799.384, -0.0110829, 0.308649, 1.03299, 0.34851, 0.655882, 3, 45.5, 246, 9.27877, 0.0236482, 0, 0, 1, 0, 18156
-7735.4, 290368, -274.954, 1.1507, -1083.97, 0.00572393, 0.535664, 0.993198, 0.349787, 0.651995, 0.0001, 91, 246, 44.5318, 0.236211, 0, 0, 1, 0, 18157
-7672.43, 8030.8, -17.2375, 2.97035, -1031.22, -0.0280404, 0.237983, 1.03299, 0.34851, 0.655882, 0.0001, 45.5, 246, 20.4903, 0.0663489, 0, 0, 1, 0, 18158
-7672.43, 8030.8, -17.2375, 2.97035, -1031.22, -0.0280404, 0.237983, 1.03299, 0.34851, 0.655882, 3, 45.5, 246, 20.4903, 0.0663489, 0, 0, 1, 0, 18158
-5239.25, 369262, -188.849, 1.911, -809.846, 0.193215, 0.287701, 0.9175, 0.352806, 0.64323, 0.0001, 455, 246, 24.0522, 0.0898795, 0, 0, 0, 0, 18159
-5239.25, 369262, -188.849, 1.911, -809.846, 0.193215, 0.287701, 0.9175, 0.352806, 0.64323, 3, 455, 246, 24.0522, 0.0898795, 0, 0, 0, 0, 18159
-9061.82, 47036.2, -1.22599, 3.55264, -1097.59, -0.0607525, 0.163437, 1.03299, 0.34851, 0.655882, 0.0001, 45.5, 246, 17.978, 0.0551023, 1.25712, 1, 0, 0, 18160
-9061.82, 47036.2, -1.22599, 3.55264, -1097.59, -0.0607525, 0.163437, 1.03299, 0.34851, 0.655882, 3, 45.5, 246, 17.978, 0.0551023, 1.19526, 1, 0, 0, 18160
-9997.79, 92592.9, -36.4916, 2.67546, -1113.17, -0.022906, 0.255112, 1.03299, 0.34851, 0.655882, 0.0001, 45.5, 246, 23.1174, 0.0784715, 0, 0, 1, 0, 18161
-9997.79, 92592.9, -36.4916, 2.67546, -1113.17, -0.022906, 0.255112, 1.03299, 0.34851, 0.655882, 3, 45.5, 246, 23.1174, 0.0784715, 0, 0, 1, 0, 18161
-8946.79, 113927, -67.3922, 2.87731, -1115.83, 0.0109181, 0.247885, 0.993198, 0.349787, 0.651995, 0.0001, 91, 246, 23.1174, 0.0784715, 0, 0, 1, 0, 18161
-8946.79, 113927, -67.3922, 2.87731, -1115.83, 0.0109181, 0.247885, 0.993198, 0.349787, 0.651995, 3, 91, 246, 23.1174, 0.0784715, 0, 0, 1, 0, 18161
-10701.6, 115120, -17.9634, 2.21382, -1104.25, 0.0229864, 0.278742, 1.03299, 0.34851, 0.655882, 0.0001, 45.5, 246, 19.248, 0.0559465, 0, 0, 1, 0, 18168
-10701.6, 115120, -17.9634, 2.21382, -1104.25, 0.0229864, 0.278742, 1.03299, 0.34851, 0.655882, 3, 45.5, 246, 19.248, 0.0559465, 0, 0, 1, 0, 18168
-6334.06, -30512, -14.113, 3.38649, -852.081, 0.153376, 0.206878, 1.03299, 0.34851, 0.655882, 0.0001, 45.5, 246, 20.4605, 0.006831, 0, 0, 1, 1, 18169
-1891.53, 372065, -208.075, 4.3027, -1179.65, 0.424103, 0.263854, 0.9175, 0.352806, 0.64323, 0.0001, 455, 246, 23.7637, 0.0556375, 0, 0, 0, 0, 18170
-1891.53, 372065, -208.075, 4.3027, -1179.65, 0.424103, 0.263854, 0.9175, 0.352806, 0.64323, 3, 455, 246, 23.7637, 0.0556375, 0, 0, 0, 0, 18170
-11700.9, 276290, -335.77, 2.55033, -1069.15, 0.519505, 0.52567, 1.03299, 0.34851, 0.655882, 0.0001, 45.5, 246, 51.2011, 0.238886, 0, 0, 0, 0, 18172
658.139, 300689, -311.168, 4.46573, -1200.15, 0.381624, 0.324119, 0.9175, 0.352806, 0.64323, 3, 455, 246, 31.6488, 0.10957, 1.02093, 1, 0, 0, 18173
-8031.44, 55791.6, -75.3057, 1.85986, -706.577, -0.015924, 0.329354, 1.03299, 0.34851, 0.655882, 0.0001, 45.5, 246, 32.3386, 0.15169, 0, 0, 1, 0, 18175
-11959.6, 155040, -66.6561, 2.82243, -1048.72, 0.330285, 0.23927, 1.03299, 0.34851, 0.655882, 0.0001, 45.5, 246, 26.2162, 0.0837052, 0, 0, 0, 0, 18176
-11959.6, 155040, -66.6561, 2.82243, -1048.72, 0.330285, 0.23927, 1.03299, 0.34851, 0.655882, 3, 45.5, 246, 26.2162, 0.0837052, 0, 0, 0, 0, 18176
-6919.65, -59677.2, 12.7364, 2.90896, -1039.75, 0.330836, 0.263622, 1.03299, 0.34851, 0.655882, 0.0001, 45.5, 246, 12.1984, 0.00724147, 1.06302, 1, 1, 0, 18178
331.871, 295355, -392.951, 3.45289, -709.324, 0.174503, 0.440955, 0.9175, 0.352806, 0.64323, 3, 455, 246, 37.3332, 0.182185, 1.01819, 1, 0, 0, 18181
-3002.94, 50045.3, -173.227, 2.14844, -560.819, 0.716759, 0.333829, 1.03299, 0.34851, 0.655882, 0.0001, 45.5, 246, 64.0032, 0.221256, 1.52226, 1, 1, 0, 18183
-3002.94, 50045.3, -173.227, 2.14844, -560.819, 0.716759, 0.333829, 1.03299, 0.34851, 0.655882, 3, 45.5, 246, 64.0032, 0.221256, 1.39175, 1, 1, 0, 18183
-2230.55, 59112.5, -197.432, 2.39065, -645.372, 0.833794, 0.320345, 0.993198, 0.349787, 0.651995, 0.0001, 91, 246, 64.0032, 0.221256, 1.56758, 1, 1, 0, 18183
-2230.55, 59112.5, -197.432, 2.39065, -645.372, 0.833794, 0.320345, 0.993198, 0.349787, 0.651995, 3, 91, 246, 64.0032, 0.221256, 1.43492, 1, 1, 0, 18183
-1153.71, 71560.7, -227.597, 2.68641, -760.268, 0.992888, 0.318472, 0.958125, 0.351078, 0.648177, 0.0001, 182, 246, 64.0032, 0.221256, 1.80198, 1, 1, 0, 18183
-1153.71, 71560.7, -227.597, 2.68641, -760.268, 0.992888, 0.318472, 0.958125, 0.351078, 0.648177, 3, 182, 246, 64.0032, 0.221256, 1.66744, 1, 1, 0, 18183
1009.3, 97241.8, -282.047, 3.20786, -993.942, 1.3163, 0.33695, 0.9175, 0.352806, 0.64323, 0.0001, 455, 246, 64.0032, 0.221256, 4.12935, 1, 1, 1, 18183
1009.3, 97241.8, -282.047, 3.20786, -993.942, 1.3163, 0.33695, 0.9175, 0.352806, 0.64323, 3, 455, 246, 64.0032, 0.221256, 3.95262, 1, 1, 1, 18183
-10603, 292308, -228.772, 1.21189, -929.544, 0.384918, 0.476261, 1.03299, 0.34851, 0.655882, 3, 45.5, 246, 37.9372, 0.182662, 0, 0, 0, 0, 18186
-5403.46, 100099, -203.992, 3.14037, -830.899, -0.0460388, 0.305921, 1.03299, 0.34851, 0.655882, 0.0001, 45.5, 246, 51.5319, 0.210173, 1.27736, 1, 1, 0, 18187
-5403.46, 100099, -203.992, 3.14037, -830.899, -0.0460388, 0.305921, 1.03299, 0.34851, 0.655882, 3, 45.5, 246, 51.5319, 0.210173, 1.07377, 1, 1, 0, 18187
-3546.23, 112937, -246.818, 3.40919, -847.248, 0.00107844, 0.315727, 0.993198, 0.349787, 0.651995, 0.0001, 91, 246, 51.5319, 0.210173, 1.37701, 1, 1, 0, 18187
-3546.23, 112937, -246.818, 3.40919, -847.248, 0.00107844, 0.315727, 0.993198, 0.349787, 0.651995, 3, 91, 246, 51.5319, 0.210173, 1.22171, 1, 1, 0, 18187
-1078.94, 127276, -297.389, 3.72486, -876.595, 0.0569884, 0.341988, 0.958125, 0.351078, 0.648177, 0.0001, 182, 246, 51.5319, 0.210173, 1.90747, 1, 1, 0, 18187
-1078.94, 127276, -297.389, 3.72486, -876.595, 0.0569884, 0.341988, 0.958125, 0.351078, 0.648177, 3, 182, 246, 51.5319, 0.210173, 1.76796, 1, 1, 0, 18187
-3728.06, 327632, -398.789, 2.9108, -1112.45, 0.399073, 0.505472, 0.958125, 0.351078, 0.648177, 0.0001, 182, 246, 46.3629, 0.218684, 0, 0, 0, 0, 18188
-3728.06, 327632, -398.789, 2.9108, -1112.45, 0.399073, 0.505472, 0.958125, 0.351078, 0.648177, 3, 182, 246, 46.3629, 0.218684, 0, 0, 0, 0, 18188
-12203.8, 132596, 12.1127, 2.67997, -1188.15, -0.00011249, 0.233229, 1.03299, 0.34851, 0.655882, 0.0001, 45.5, 246, 17.0768, 0.0328848, 0, 0, 0, 0, 18191
-12203.8, 132596, 12.1127, 2.67997, -1188.15, -0.00011249, 0.233229, 1.03299, 0.34851, 0.655882, 3, 45.5, 246, 17.0768, 0.0328848, 0, 0, 0, 0, 18191
-10708.4, 156990, -17.0651, 2.88421, -1191.41, 0.0338866, 0.224775, 0.993198, 0.349787, 0.651995, 0.0001, 91, 246, 17.0768, 0.0328848, 0, 0, 1, 0, 18191
-10708.4, 156990, -17.0651, 2.88421, -1191.41, 0.0338866, 0.224775, 0.993198, 0.349787, 0.651995, 3, 91, 246, 17.0768, 0.0328848, 0, 0, 1, 0, 18191
-11257.3, 130621, -84.8218, 3.47089, -891.202, 0.137386, 0.175686, 1.03299, 0.34851, 0.655882, 0.0001, 45.5, 246, 27.3907, 0.0902601, 0, 0, 0, 0, 18194
-11257.3, 130621, -84.8218, 3.47089, -891.202, 0.137386, 0.175686, 1.03299, 0.34851, 0.655882, 3, 45.5, 246, 27.3907, 0.0902601, 0, 0, 0, 0, 18194
-9187.06, 145821, -122.733, 3.81769, -925.153, 0.200048, 0.188756, 0.993198, 0.349787, 0.651995, 0.0001, 91, 246, 27.3907, 0.0902601, 0, 0, 1, 0, 18194
-9187.06, 145821, -122.733, 3.81769, -925.153, 0.200048, 0.188756, 0.993198, 0.349787, 0.651995, 3, 91, 246, 27.3907, 0.0902601, 0, 0, 1, 0, 18194
-300.24, 149288, -303.491, 3.7593, -917.365, 0.410554, 0.365229, 0.9175, 0.352806, 0.64323, 0.0001, 455, 246, 42.8101, 0.182815, 1.88088, 1, 0, 0, 18199
-300.24, 149288, -303.491, 3.7593, -917.365, 0.410554, 0.365229, 0.9175, 0.352806, 0.64323, 3, 455, 246, 42.8101, 0.182815, 1.88107, 1, 0, 0, 18199
-6165.99, 64709.8, -130.796, 2.78154, -967.5, -0.0367636, 0.297531, 1.03299, 0.34851, 0.655882, 3, 45.5, 246, 45.3381, 0.180369, 0, 0, 1, 0, 18200
-930.232, 124442, -275.356, 3.64364, -1039.64, 0.11276, 0.3446, 0.9175, 0.352806, 0.64323, 0.0001, 455, 246, 45.3381, 0.180369, 1.85169, 1, 0, 0, 18200
-930.232, 124442, -275.356, 3.64364, -1039.64, 0.11276, 0.3446, 0.9175, 0.352806, 0.64323, 3, 455, 246, 45.3381, 0.180369, 1.83773, 1, 0, 0, 18200
-15162.1, 301275, -409.128, 3.31712, -819.294, 0.527738, 0.479749, 1.03299, 0.34851, 0.655882, 0.0001, 45.5, 246, 51.4213, 0.23397, 1.0014, 1, 0, 0, 18203
-8963.69, 327053, -477.304, 3.75192, -940.781, 0.635494, 0.511544, 0.993198, 0.349787, 0.651995, 0.0001, 91, 246, 51.4213, 0.23397, 1.46118, 1, 1, 0, 18203
-8963.69, 327053, -477.304, 3.75192, -940.781, 0.635494, 0.511544, 0.993198, 0.349787, 0.651995, 3, 91, 246, 51.4213, 0.23397, 1.38829, 1, 1, 0, 18203
-9236.87, 311154, -437.418, 3.83088, -916.561, 0.623744, 0.44467, 0.993198, 0.349787, 0.651995, 0.0001, 91, 246, 48.7524, 0.216722, 1.33069, 1, 1, 0, 18205
-9236.87, 311154, -437.418, 3.83088, -916.561, 0.623744, 0.44467, 0.993198, 0.349787, 0.651995, 3, 91, 246, 48.7524, 0.216722, 1.24123, 1, 1, 0, 18205
-6638.42, 47309.5, -95.0309, 3.54164, -883.71, 0.154449, 0.182943, 1.03299, 0.34851, 0.655882, 0.0001, 45.5, 246, 34.6961, 0.0978261, 1.20287, 1, 1, 0, 18206
-1353.78, 106850, -271.417, 5.12663, -1097.43, 0.46622, 0.331614, 0.9175, 0.352806, 0.64323, 0.0001, 455, 246, 34.6961, 0.0978261, 1.38274, 1, 1, 0, 18206
-1353.78, 106850, -271.417, 5.12663, -1097.43, 0.46622, 0.331614, 0.9175, 0.352806, 0.64323, 3, 455, 246, 34.6961, 0.0978261, 1.35584, 1, 1, 0, 18206
-5852.84, 337068, -320.893, 0.870099, -1033.23, 0.0582046, 0.574686, 0.958125, 0.351078, 0.648177, 0.0001, 182, 246, 44.8115, 0.246906, 0, 0, 0, 0, 18210
-10283.8, 151437, -154.457, 3.23121, -893.101, -0.0469038, 0.252922, 1.03299, 0.34851, 0.655882, 0.0001, 45.5, 246, 36.7275, 0.14497, 0, 0, 0, 0, 18211
-10283.8, 151437, -154.457, 3.23121, -893.101, -0.0469038, 0.252922, 1.03299, 0.34851, 0.655882, 3, 45.5, 246, 36.7275, 0.14497, 0, 0, 0, 0, 18211
-7898.59, 165416, -195.607, 3.50882, -905.395, 0.00298461, 0.262011, 0.993198, 0.349787, 0.651995, 0.0001, 91, 246, 36.7275, 0.14497, 0, 0, 1, 0, 18211
-7898.59, 165416, -195.607, 3.50882, -905.395, 0.00298461, 0.262011, 0.993198, 0.349787, 0.651995, 3, 91, 246, 36.7275, 0.14497, 0, 0, 1, 0, 18211
615.939, 205425, -325.339, 4.37901, -993.801, 0.162407, 0.35348, 0.9175, 0.352806, 0.64323, 0.0001, 455, 246, 36.7275, 0.14497, 1.85679, 1, 0, 0, 18211
615.939, 205425, -325.339, 4.37901, -993.801, 0.162407, 0.35348, 0.9175, 0.352806, 0.64323, 3, 455, 246, 36.7275, 0.14497, 1.89601, 1, 0, 0, 18211
-8156.52, 29876, -42.7821, 1.91488, -791.035, -0.0171394, 0.313398, 1.03299, 0.34851, 0.655882, 0.0001, 45.5, 246, 26.0005, 0.105032, 0, 0, 1, 1, 18216
-8156.52, 29876, -42.7821, 1.91488, -791.035, -0.0171394, 0.313398, 1.03299, 0.34851, 0.655882, 3, 45.5, 246, 26.0005, 0.105032, 0, 0, 1, 1, 18216
-10295.9, 207709, -242.048, 2.6554, -971.592, 0.0826819, 0.411523, 1.03299, 0.34851, 0.655882, 0.0001, 45.5, 246, 45.8963, 0.213351, 0, 0, 0, 0, 18217
-10295.9, 207709, -242.048, 2.6554, -971.592, 0.0826819, 0.411523, 1.03299, 0.34851, 0.655882, 3, 45.5, 246, 45.8963, 0.213351, 0, 0, 0, 0, 18217
1223.69, 370698, -372.475, 4.18418, -949.67, 0.184881, 0.361444, 0.9175, 0.352806, 0.64323, 3, 455, 246, 33.3023, 0.128615, 0, 0, 0, 0, 18218
-11618.8, 205357, -57.3582, 3.10701, -1129.12, 0.582189, 0.212715, 0.993198, 0.349787, 0.651995, 0.0001, 91, 246, 21.1118, 0.0491003, 0, 0, 1, 0, 18219
-11618.8, 205357, -57.3582, 3.10701, -1129.12, 0.582189, 0.212715, 0.993198, 0.349787, 0.651995, 3, 91, 246, 21.1118, 0.0491003, 0, 0, 1, 0, 18219
-8600.7, 237118, -97.7887, 3.47787, -1255.31, 0.693535, 0.223996, 0.958125, 0.351078, 0.648177, 0.0001, 182, 246, 21.1118, 0.0491003, 0, 0, 0, 0, 18219
-8600.7, 237118, -97.7887, 3.47787, -1255.31, 0.693535, 0.223996, 0.958125, 0.351078, 0.648177, 3, 182, 246, 21.1118, 0.0491003, 0, 0, 0, 0, 18219
-7371.5, 133168, -235.539, 3.00572, -612.751, 0.340066, 0.326961, 1.03299, 0.34851, 0.655882, 0.0001, 45.5, 246, 46.9122, 0.203437, 1.21587, 1, 1, 0, 18221
-7371.5, 133168, -235.539, 3.00572, -612.751, 0.340066, 0.326961, 1.03299, 0.34851, 0.655882, 3, 45.5, 246, 46.9122, 0.203437, 1.0821, 1, 1, 0, 18221
-5047.97, 143886, -274.189, 3.32691, -671.629, 0.405855, 0.335071, 0.993198, 0.349787, 0.651995, 0.0001, 91, 246, 46.9122, 0.203437, 1.27412, 1, 1, 0, 18221
-5047.97, 143886, -274.189, 3.32691, -671.629, 0.405855, 0.335071, 0.993198, 0.349787, 0.651995, 3, 91, 246, 46.9122, 0.203437, 1.09367, 1, 1, 0, 18221
-2039.31, 157588, -321.863, 3.71472, -749.285, 0.491761, 0.361135, 0.958125, 0.351078, 0.648177, 0.0001, 182, 246, 46.9122, 0.203437, 1.67515, 1, 1, 0, 18221
-2039.31, 157588, -321.863, 3.71472, -749.285, 0.491761, 0.361135, 0.958125, 0.351078, 0.648177, 3, 182, 246, 46.9122, 0.203437, 1.52816, 1, 1, 0, 18221
-4055.55, 84853.5, -200.08, 3.16018, -1006.68, 0.144865, 0.306258, 1.03299, 0.34851, 0.655882, 0.0001, 45.5, 246, 56.1719, 0.22466, 1.35419, 1, 1, 0, 18223
-4055.55, 84853.5, -200.08, 3.16018, -1006.68, 0.144865, 0.306258, 1.03299, 0.34851, 0.655882, 3, 45.5, 246, 56.1719, 0.22466, 1.17262, 1, 1, 0, 18223
-2320.66, 104995, -248.807, 3.46824, -1053.93, 0.197608, 0.317243, 0.993198, 0.349787, 0.651995, 0.0001, 91, 246, 56.1719, 0.22466, 1.5799, 1, 1, 0, 18223
-2320.66, 104995, -248.807, 3.46824, -1053.93, 0.197608, 0.317243, 0.993198, 0.349787, 0.651995, 3, 91, 246, 56.1719, 0.22466, 1.4283, 1, 1, 0, 18223
194.872, 128375, -308.171, 3.83571, -1120.05, 0.264403, 0.346347, 0.958125, 0.351078, 0.648177, 0.0001, 182, 246, 56.1719, 0.22466, 2.53066, 1, 1, 1, 18223
194.872, 128375, -308.171, 3.83571, -1120.05, 0.264403, 0.346347, 0.958125, 0.351078, 0.648177, 3, 182, 246, 56.1719, 0.22466, 2.38678, 1, 1, 1, 18223
-10108.4, -135513, -5.25323, 0.143248, -1039.25, 0.000458952, 0.34624, 1.03299, 0.34851, 0.655882, 0.0001, 45.5, 246, -97.4924, 0.0533511, 0, 0, 1, 0, 18227
-10108.4, -135513, -5.25323, 0.143248, -1039.25, 0.000458952, 0.34624, 1.03299, 0.34851, 0.655882, 3, 45.5, 246, -97.4924, 0.0533511, 0, 0, 1, 0, 18227
-8164.41, 118015, -155.676, 2.15616, -838.199, 0.0320396, 0.378087, 1.03299, 0.34851, 0.655882, 0.0001, 45.5, 246, 42.059, 0.211151, 0, 0, 1, 0, 18233
-8164.41, 118015, -155.676, 2.15616, -838.199, 0.0320396, 0.378087, 1.03299, 0.34851, 0.655882, 3, 45.5, 246, 42.059, 0.211151, 0, 0, 1, 0, 18233
-3461.94, 75207.3, -217.485, 3.31529, -567.886, 0.137899, 0.249711, 1.03299, 0.34851, 0.655882, 0.0001, 45.5, 246, 53.9187, 0.177036, 1.57456, 1, 1, 0, 18234
-3461.94, 75207.3, -217.485, 3.31529, -567.886, 0.137899, 0.249711, 1.03299, 0.34851, 0.655882, 3, 45.5, 246, 53.9187, 0.177036, 1.4593, 1, 1, 0, 18234
-1834.79, 82731.5, -255.523, 3.6427, -604.839, 0.195297, 0.261937, 0.993198, 0.349787, 0.651995, 0.0001, 91, 246, 53.9187, 0.177036, 1.65315, 1, 1, 0, 18234
-1834.79, 82731.5, -255.523, 3.6427, -604.839, 0.195297, 0.261937, 0.993198, 0.349787, 0.651995, 3, 91, 246, 53.9187, 0.177036, 1.54184, 1, 1, 0, 18234
294.102, 92046.6, -301.864, 4.03626, -655.863, 0.268288, 0.293734, 0.958125, 0.351078, 0.648177, 0.0001, 182, 246, 53.9187, 0.177036, 1.98947, 1, 1, 0, 18234
294.102, 92046.6, -301.864, 4.03626, -655.863, 0.268288, 0.293734, 0.958125, 0.351078, 0.648177, 3, 182, 246, 53.9187, 0.177036, 1.86232, 1, 1, 0, 18234
4233.35, 108734, -382.09, 4.70916, -756.261, 0.401696, 0.372806, 0.9175, 0.352806, 0.64323, 0.0001, 455, 246, 53.9187, 0.177036, 4.42414, 1, 1, 0, 18234
4233.35, 108734, -382.09, 4.70916, -756.261, 0.401696, 0.372806, 0.9175, 0.352806, 0.64323, 3, 455, 246, 53.9187, 0.177036, 4.42801, 1, 1, 0, 18234
-9929.16, 191603, -198.343, 2.50985, -1144.92, -0.0298964, 0.390694, 1.03299, 0.34851, 0.655882, 3, 45.5, 246, 43.6409, 0.197177, 0, 0, 0, 0, 18235
-6255.46, 90927.3, -180.524, 3.09193, -638.57, 0.0569637, 0.272994, 1.03299, 0.34851, 0.655882, 0.0001, 45.5, 246, 45.2027, 0.173164, 1.14139, 1, 1, 0, 18239
-4705.32, 99125.8, -215.072, 3.3691, -663.555, 0.103733, 0.279235, 0.993198, 0.349787, 0.651995, 0.0001, 91, 246, 45.2027, 0.173164, 1.11333, 1, 1, 0, 18239
-2699.42, 108720, -256.251, 3.69512, -699.575, 0.161157, 0.301946, 0.958125, 0.351078, 0.648177, 0.0001, 182, 246, 45.2027, 0.173164, 1.33449, 1, 1, 0, 18239
-2699.42, 108720, -256.251, 3.69512, -699.575, 0.161157, 0.301946, 0.958125, 0.351078, 0.648177, 3, 182, 246, 45.2027, 0.173164, 1.17636, 1, 1, 0, 18239
917.091, 124750, -325.179, 4.23477, -771.482, 0.261192, 0.361481, 0.9175, 0.352806, 0.64323, 0.0001, 455, 246, 45.2027, 0.173164, 2.14953, 1, 0, 0, 18239
917.091, 124750, -325.179, 4.23477, -771.482, 0.261192, 0.361481, 0.9175, 0.352806, 0.64323, 3, 455, 246, 45.2027, 0.173164, 2.14924, 1, 0, 0, 18239
-10894.1, 119786, -55.8704, 2.88919, -847.77, -0.0397314, 0.232504, 1.03299, 0.34851, 0.655882, 0.0001, 45.5, 246, 22.803, 0.0775754, 0, 0, 1, 0, 18240
-10894.1, 119786, -55.8704, 2.88919, -847.77, -0.0397314, 0.232504, 1.03299, 0.34851, 0.655882, 3, 45.5, 246, 22.803, 0.0775754, 0, 0, 1, 0, 18240
-7571.86, 144547, -115.723, 3.37555, -862.05, 0.0461518, 0.240706, 0.958125, 0.351078, 0.648177, 3, 182, 246, 22.803, 0.0775754, 0, 0, 1, 0, 18240
-5612.25, 170540, -259.58, 3.61515, -1067.4, 0.0317018, 0.317815, 0.993198, 0.349787, 0.651995, 3, 91, 246, 46.4915, 0.193289, 0, 0, 1, 0, 18247
-1945.39, 193063, -322.158, 3.97338, -1107.12, 0.0954238, 0.351765, 0.958125, 0.351078, 0.648177, 0.0001, 182, 246, 46.4915, 0.193289, 1.69473, 1, 0, 0, 18247
-1945.39, 193063, -322.158, 3.97338, -1107.12, 0.0954238, 0.351765, 0.958125, 0.351078, 0.648177, 3, 182, 246, 46.4915, 0.193289, 1.52026, 1, 0, 0, 18247
-4311.2, 306179, -390.062, 3.98823, -995.456, 0.720228, 0.387819, 0.958125, 0.351078, 0.648177, 0.0001, 182, 246, 41.2019, 0.178285, 1.22438, 1, 0, 0, 18248
-4311.2, 306179, -390.062, 3.98823, -995.456, 0.720228, 0.387819, 0.958125, 0.351078, 0.648177, 3, 182, 246, 41.2019, 0.178285, 1.01565, 1, 0, 0, 18248
-675.854, 155917, -286.898, 4.16731, -1410.3, 0.894134, 0.342734, 0.9175, 0.352806, 0.64323, 0.0001, 455, 246, 40.4571, 0.151857, 2.28933, 1, 0, 0, 18251
-675.854, 155917, -286.898, 4.16731, -1410.3, 0.894134, 0.342734, 0.9175, 0.352806, 0.64323, 3, 455, 246, 40.4571, 0.151857, 2.29714, 1, 0, 0, 18251
-8134.99, 135834, -184.391, 3.21685, -1081.13, -0.0256619, 0.297662, 1.03299, 0.34851, 0.655882, 0.0001, 45.5, 246, 44.9704, 0.186136, 0, 0, 0, 0, 18252
-5775.45, 157004, -234.136, 3.50063, -1099.33, 0.0238104, 0.309405, 0.993198, 0.349787, 0.651995, 3, 91, 246, 44.9704, 0.186136, 0, 0, 1, 0, 18252
-2559.57, 180257, -293.345, 3.83596, -1134.01, 0.0832382, 0.338539, 0.958125, 0.351078, 0.648177, 0.0001, 182, 246, 44.9704, 0.186136, 1.28613, 1, 0, 0, 18252
-2559.57, 180257, -293.345, 3.83596, -1134.01, 0.0832382, 0.338539, 0.958125, 0.351078, 0.648177, 3, 182, 246, 44.9704, 0.186136, 1.02249, 1, 0, 0, 18252
-7915.83, 67725.5, -93.9962, 3.18933, -753.748, -0.0237529, 0.220833, 1.03299, 0.34851, 0.655882, 0.0001, 45.5, 246, 31.5232, 0.105312, 0, 0, 1, 0, 18256
-7915.83, 67725.5, -93.9962, 3.18933, -753.748, -0.0237529, 0.220833, 1.03299, 0.34851, 0.655882, 3, 45.5, 246, 31.5232, 0.105312, 0, 0, 1, 0, 18256
-7825.71, 36765.2, -45.1097, 3.52763, -717.271, 0.303414, 0.16303, 1.03299, 0.34851, 0.655882, 0.0001, 45.5, 246, 22.1012, 0.0572725, 1.0037, 1, 1, 0, 18257
-16003, 208827, -0.926119, 3.17316, -1174.81, 0.00367558, 0.176965, 1.03299, 0.34851, 0.655882, 0.0001, 45.5, 246, 20.717, 0.0363756, 0, 0, 0, 0, 18258
-16003, 208827, -0.926119, 3.17316, -1174.81, 0.00367558, 0.176965, 1.03299, 0.34851, 0.655882, 3, 45.5, 246, 20.717, 0.0363756, 0, 0, 0, 0, 18258
-8700.13, 86533.1, -84.5614, 1.40106, -700.318, 0.594506, 0.358904, 1.03299, 0.34851, 0.655882, 0.0001, 45.5, 246, 30.0959, 0.162387, 0, 0, 1, 0, 18259
-8700.13, 86533.1, -84.5614, 1.40106, -700.318, 0.594506, 0.358904, 1.03299, 0.34851, 0.655882, 3, 45.5, 246, 30.0959, 0.162387, 0, 0, 1, 0, 18259
-8259.98, 99089.3, -98.8417, 1.5264, -777.23, 0.666524, 0.333648, 0.993198, 0.349787, 0.651995, 0.0001, 91, 246, 30.0959, 0.162387, 3.25384, 1, 1, 0, 18259
-8259.98, 99089.3, -98.8417, 1.5264, -777.23, 0.666524, 0.333648, 0.993198, 0.349787, 0.651995, 3, 91, 246, 30.0959, 0.162387, 3.09935, 1, 1, 0, 18259
-8136.79, 93265.8, -116.102, 2.79948, -1063.15, 0.356353, 0.28428, 1.03299, 0.34851, 0.655882, 0.0001, 45.5, 246, 37.255, 0.149696, 0, 0, 1, 0, 18261
-8136.79, 93265.8, -116.102, 2.79948, -1063.15, 0.356353, 0.28428, 1.03299, 0.34851, 0.655882, 3, 45.5, 246, 37.255, 0.149696, 0, 0, 1, 0, 18261
-588.391, 193700, -288.546, 3.99898, -1430.82, 0.643844, 0.345057, 0.9175, 0.352806, 0.64323, 0.0001, 455, 246, 37.255, 0.149696, 1.52223, 1, 0, 0, 18261
-588.391, 193700, -288.546, 3.99898, -1430.82, 0.643844, 0.345057, 0.9175, 0.352806, 0.64323, 3, 455, 246, 37.255, 0.149696, 1.61323, 1, 0, 0, 18261
-8424.2, 134201, -71.056, 0.107654, -847.783, 0.637927, 0.380216, 1.03299, 0.34851, 0.655882, 0.0001, 45.5, 246, 24.0636, 0.139869, 2.34005, 1, 1, 0, 18262
-8424.2, 134201, -71.056, 0.107654, -847.783, 0.637927, 0.380216, 1.03299, 0.34851, 0.655882, 3, 45.5, 246, 24.0636, 0.139869, 2.33932, 1, 1, 0, 18262
-8539.75, 153401, -74.0524, 0.11485, -943.052, 0.709502, 0.346899, 0.993198, 0.349787, 0.651995, 0.0001, 91, 246, 24.0636, 0.139869, 3.66666, 1, 1, 0, 18262
-8539.75, 153401, -74.0524, 0.11485, -943.052, 0.709502, 0.346899, 0.993198, 0.349787, 0.651995, 3, 91, 246, 24.0636, 0.139869, 3.82721, 1, 1, 0, 18262
-11296.3, 95864.8, 16.0521, 3.22591, -694.691, -0.00839699, 0.178506, 1.03299, 0.34851, 0.655882, 0.0001, 45.5, 246, 9.42618, 0.0182621, 0, 0, 1, 0, 18263
-11296.3, 95864.8, 16.0521, 3.22591, -694.691, -0.00839699, 0.178506, 1.03299, 0.34851, 0.655882, 3, 45.5, 246, 9.42618, 0.0182621, 0, 0, 1, 0, 18263
-11655.8, 345410, -199.957, 1.1196, -804.817, -0.00539583, 0.431615, 1.03299, 0.34851, 0.655882, 0.0001, 45.5, 246, 31.7873, 0.144294, 0, 0, 0, 0, 18264
-14065.4, 213601, -100.279, 2.85661, -946.551, 0.385427, 0.240744, 1.03299, 0.34851, 0.655882, 0.0001, 45.5, 246, 27.7551, 0.090872, 0, 0, 0, 0, 18265
-14065.4, 213601, -100.279, 2.85661, -946.551, 0.385427, 0.240744, 1.03299, 0.34851, 0.655882, 3, 45.5, 246, 27.7551, 0.090872, 0, 0, 0, 0, 18265
-8983.09, 84912, -34.8212, 2.65085, -1017.71, 0.0019658, 0.251544, 0.993198, 0.349787, 0.651995, 0.0001, 91, 246, 17.0522, 0.0560785, 0, 0, 1, 0, 18267
-8983.09, 84912, -34.8212, 2.65085, -1017.71, 0.0019658, 0.251544, 0.993198, 0.349787, 0.651995, 3, 91, 246, 17.0522, 0.0560785, 0, 0, 1, 0, 18267
-10053, 132574, -52.267, 1.69266, -1153.14, -0.0122469, 0.323939, 1.03299, 0.34851, 0.655882, 0.0001, 45.5, 246, 24.4193, 0.0896887, 0, 0, 1, 0, 18269
-10053, 132574, -52.267, 1.69266, -1153.14, -0.0122469, 0.323939, 1.03299, 0.34851, 0.655882, 3, 45.5, 246, 24.4193, 0.0896887, 0, 0, 1, 0, 18269
-8564.66, 6319.56, -2.17219, 2.22412, -1158.68, 0.00350422, 0.280811, 0.993198, 0.349787, 0.651995, 0.0001, 91, 246, 6.92745, 0.0557252, 0, 0, 1, 1, 18270
-8564.66, 6319.56, -2.17219, 2.22412, -1158.68, 0.00350422, 0.280811, 0.993198, 0.349787, 0.651995, 3, 91, 246, 6.92745, 0.0557252, 0, 0, 1, 1, 18270
-11121.7, 127686, -74.5364, 3.57007, -1099.04, -0.0609412, 0.171791, 1.03299, 0.34851, 0.655882, 0.0001, 45.5, 246, 28.8092, 0.0927901, 0, 0, 0, 0, 18274
-11121.7, 127686, -74.5364, 3.57007, -1099.04, -0.0609412, 0.171791, 1.03299, 0.34851, 0.655882, 3, 45.5, 246, 28.8092, 0.0927901, 0, 0, 0, 0, 18274
-9009.07, 148204, -118.975, 3.89159, -1103.09, 0.000246469, 0.187532, 0.993198, 0.349787, 0.651995, 0.0001, 91, 246, 28.8092, 0.0927901, 0, 0, 1, 0, 18274
-9009.07, 148204, -118.975, 3.89159, -1103.09, 0.000246469, 0.187532, 0.993198, 0.349787, 0.651995, 3, 91, 246, 28.8092, 0.0927901, 0, 0, 1, 0, 18274
-9620.23, 111682, -110.251, 2.92573, -671.801, 0.0508628, 0.249789, 1.03299, 0.34851, 0.655882, 0.0001, 45.5, 246, 29.8834, 0.116344, 0, 0, 1, 0, 18275
-9620.23, 111682, -110.251, 2.92573, -671.801, 0.0508628, 0.249789, 1.03299, 0.34851, 0.655882, 3, 45.5, 246, 29.8834, 0.116344, 0, 0, 1, 0, 18275
1692.44, 180073, -352.119, 5.14098, -1104.83, 0.990108, 0.366026, 0.9175, 0.352806, 0.64323, 0.0001, 455, 246, 37.9858, 0.141261, 3.98801, 1, 0, 0, 18277
1692.44, 180073, -352.119, 5.14098, -1104.83, 0.990108, 0.366026, 0.9175, 0.352806, 0.64323, 3, 455, 246, 37.9858, 0.141261, 4.03962, 1, 0, 0, 18277
-9130.67, 47277.4, -3.36071, 3.02649, -1023.59, -0.0254409, 0.218272, 1.03299, 0.34851, 0.655882, 0.0001, 45.5, 246, 16.5759, 0.0534772, 1.16647, 1, 1, 0, 18278
-9130.67, 47277.4, -3.36071, 3.02649, -1023.59, -0.0254409, 0.218272, 1.03299, 0.34851, 0.655882, 3, 45.5, 246, 16.5759, 0.0534772, 1.09932, 1, 1, 0, 18278
-8557.6, 65166.6, -33.0396, 3.27371, -1024.4, 0.0180876, 0.218744, 0.993198, 0.349787, 0.651995, 0.0001, 91, 246, 16.5759, 0.0534772, 0, 0, 1, 0, 18278
-774.798, 132803, -289.608, 4.99318, -1459.21, 1.81453, 0.339225, 0.9175, 0.352806, 0.64323, 0.0001, 455, 246, 38.2016, 0.111534, 2.17445, 1, 0, 0, 18279
-774.798, 132803, -289.608, 4.99318, -1459.21, 1.81453, 0.339225, 0.9175, 0.352806, 0.64323, 3, 455, 246, 38.2016, 0.111534, 2.17473, 1, 0, 0, 18279
-10785.1, 102464, -19.1655, 2.75077, -882.641, 0.128788, 0.233529, 1.03299, 0.34851, 0.655882, 0.0001, 45.5, 246, 17.5214, 0.0513818, 0, 0, 1, 0, 18280
-10988.8, 129600, -65.9051, 2.87652, -1017.66, 0.202622, 0.238648, 1.03299, 0.34851, 0.655882, 0.0001, 45.5, 246, 26.2496, 0.0885335, 0, 0, 0, 0, 18281
-10988.8, 129600, -65.9051, 2.87652, -1017.66, 0.202622, 0.238648, 1.03299, 0.34851, 0.655882, 3, 45.5, 246, 26.2496, 0.0885335, 0, 0, 0, 0, 18281
-8373.91, 134155, -173.719, 2.82011, -993.715, -0.0375296, 0.331633, 1.03299, 0.34851, 0.655882, 0.0001, 45.5, 246, 43.2783, 0.190821, 0, 0, 1, 0, 18283
-8373.91, 134155, -173.719, 2.82011, -993.715, -0.0375296, 0.331633, 1.03299, 0.34851, 0.655882, 3, 45.5, 246, 43.2783, 0.190821, 0, 0, 1, 0, 18283
-7178.46, 347040, -241.781, 0.629427, -1183.2, 0.0574025, 0.471446, 0.993198, 0.349787, 0.651995, 0.0001, 91, 246, 39.4881, 0.181416, 0, 0, 1, 0, 18286
-10016.1, 92061.9, -55.4606, 3.30634, -795.127, -0.0473088, 0.190563, 1.03299, 0.34851, 0.655882, 0.0001, 45.5, 246, 22.8838, 0.0741024, 0, 0, 1, 0, 18287
-10016.1, 92061.9, -55.4606, 3.30634, -795.127, -0.0473088, 0.190563, 1.03299, 0.34851, 0.655882, 3, 45.5, 246, 22.8838, 0.0741024, 0, 0, 1, 0, 18287
-7009.01, 113848, -120.861, 3.92408, -813.368, 0.0669724, 0.223493, 0.958125, 0.351078, 0.648177, 3, 182, 246, 22.8838, 0.0741024, 0, 0, 1, 0, 18287
-6839.34, -15544, -17.8993, 3.13903, -893.686, 0.245059, 0.224154, 1.03299, 0.34851, 0.655882, 0.0001, 45.5, 246, 21.094, 0.0351076, 0, 0, 1, 1, 18288
-6839.34, -15544, -17.8993, 3.13903, -893.686, 0.245059, 0.224154, 1.03299, 0.34851, 0.655882, 3, 45.5, 246, 21.094, 0.0351076, 0, 0, 1, 1, 18288
-1124.03, 186237, -290.849, 3.36017, -1200.36, 1.0386, 0.372059, 0.9175, 0.352806, 0.64323, 0.0001, 455, 246, 41.0418, 0.191458, 1.35779, 1, 0, 0, 18292
-1124.03, 186237, -290.849, 3.36017, -1200.36, 1.0386, 0.372059, 0.9175, 0.352806, 0.64323, 3, 455, 246, 41.0418, 0.191458, 1.37767, 1, 0, 0, 18292
-5814.96, -273.157, -65.8548, 3.43293, -796.477, 0.0240873, 0.19796, 1.03299, 0.34851, 0.655882, 0.0001, 45.5, 246, 34.1853, 0.0174543, 0, 0, 1, 1, 18298
-5814.96, -273.157, -65.8548, 3.43293, -796.477, 0.0240873, 0.19796, 1.03299, 0.34851, 0.655882, 3, 45.5, 246, 34.1853, 0.0174543, 0, 0, 1, 1, 18298
-274.141, 156306, -298.365, 3.34553, -1137.68, 0.102028, 0.380636, 0.9175, 0.352806, 0.64323, 0.0001, 455, 246, 47.828, 0.222362, 2.68671, 1, 0, 0, 18299
-274.141, 156306, -298.365, 3.34553, -1137.68, 0.102028, 0.380636, 0.9175, 0.352806, 0.64323, 3, 455, 246, 47.828, 0.222362, 2.70497, 1, 0, 0, 18299
-8948.84, 122945, -116.299, 2.0152, -1162.45, 0.0169762, 0.360383, 1.03299, 0.34851, 0.655882, 0.0001, 45.5, 246, 36.4541, 0.171645, 0, 0, 1, 0, 18306
-8948.84, 122945, -116.299, 2.0152, -1162.45, 0.0169762, 0.360383, 1.03299, 0.34851, 0.655882, 3, 45.5, 246, 36.4541, 0.171645, 0, 0, 1, 0, 18306
-10899.8, 224054, -252.873, 2.03867, -772.712, 0.681574, 0.457432, 1.03299, 0.34851, 0.655882, 3, 45.5, 246, 42.0075, 0.209911, 0, 0, 0, 0, 18309
-9226.58, 183268, -55.1457, 2.89055, -719.143, 0.0341623, 0.232004, 0.958125, 0.351078, 0.648177, 0.0001, 182, 246, 14.4261, 0.0354543, 0, 0, 1, 0, 18310
-11052.7, 140290, 6.37682, 1.6659, -636.674, -0.0111108, 0.300101, 1.03299, 0.34851, 0.655882, 0.0001, 45.5, 246, 8.76628, 0.0115484, 0, 0, 1, 0, 18313
-9946.9, 202820, -273.797, 3.27947, -930.875, -0.0313398, 0.367254, 1.03299, 0.34851, 0.655882, 3, 45.5, 246, 49.2544, 0.217606, 0, 0, 0, 0, 18314
-6204.81, 219459, -328.539, 3.57919, -957.09, 0.0202338, 0.386298, 0.993198, 0.349787, 0.651995, 0.0001, 91, 246, 49.2544, 0.217606, 1.12237, 1, 1, 0, 18314
-1394.1, 238869, -394.056, 3.93609, -1000.54, 0.082525, 0.424003, 0.958125, 0.351078, 0.648177, 0.0001, 182, 246, 49.2544, 0.217606, 2.92387, 1, 0, 0, 18314
-1394.1, 238869, -394.056, 3.93609, -1000.54, 0.082525, 0.424003, 0.958125, 0.351078, 0.648177, 3, 182, 246, 49.2544, 0.217606, 2.7073, 1, 0, 0, 18314
-9554.81, -86862.6, -2.96, 0.387057, -1135.4, 0.00449941, 0.355592, 1.03299, 0.34851, 0.655882, 0.0001, 45.5, 246, -38.188, 0.151162, 0, 0, 1, 0, 18317
-9945.07, -64296.7, -7.05285, 0.400375, -1136.32, 0.00518376, 0.321073, 0.993198, 0.349787, 0.651995, 0.0001, 91, 246, -38.188, 0.151162, 0, 0, 1, 1, 18317
-9945.07, -64296.7, -7.05285, 0.400375, -1136.32, 0.00518376, 0.321073, 0.993198, 0.349787, 0.651995, 3, 91, 246, -38.188, 0.151162, 0, 0, 1, 1, 18317
-10092.9, 134829, -18.6565, 2.50551, -1082.53, 0.597367, 0.24739, 0.993198, 0.349787, 0.651995, 0.0001, 91, 246, 15.1527, 0.0327486, 0, 0, 1, 0, 18319
-11340.4, 311507, -280.619, 1.68245, -1081.76, -0.00927964, 0.528388, 1.03299, 0.34851, 0.655882, 0.0001, 45.5, 246, 45.0189, 0.215297, 0, 0, 0, 0, 18320
-11340.4, 311507, -280.619, 1.68245, -1081.76, -0.00927964, 0.528388, 1.03299, 0.34851, 0.655882, 3, 45.5, 246, 45.0189, 0.215297, 0, 0, 0, 0, 18320
-2074.84, 74044, -255.601, 5.07661, -950.713, 0.223488, 0.326528, 0.9175, 0.352806, 0.64323, 0.0001, 455, 246, 36.3411, 0.0776295, 1.13732, 1, 1, 0, 18325
-2074.84, 74044, -255.601, 5.07661, -950.713, 0.223488, 0.326528, 0.9175, 0.352806, 0.64323, 3, 455, 246, 36.3411, 0.0776295, 1.08313, 1, 1, 0, 18325
-6800.66, 206.006, -63.8428, 3.50315, -964.508, 0.00738122, 0.233174, 0.993198, 0.349787, 0.651995, 3, 91, 246, 27.1605, 0.0161379, 0, 0, 1, 1, 18326
1231.91, 293406, -406.18, 3.81807, -739.607, 0.161502, 0.434912, 0.9175, 0.352806, 0.64323, 0.0001, 455, 246, 37.721, 0.177442, 1.69331, 1, 0, 0, 18328
1231.91, 293406, -406.18, 3.81807, -739.607, 0.161502, 0.434912, 0.9175, 0.352806, 0.64323, 3, 455, 246, 37.721, 0.177442, 2.01468, 1, 0, 0, 18328
-11296.6, 330336, -438.01, 3.4261, -669.232, 0.0133776, 0.506406, 0.993198, 0.349787, 0.651995, 0.0001, 91, 246, 46.729, 0.228444, 1.11704, 1, 1, 0, 18331
-11296.6, 330336, -438.01, 3.4261, -669.232, 0.0133776, 0.506406, 0.993198, 0.349787, 0.651995, 3, 91, 246, 46.729, 0.228444, 1.00011, 1, 1, 0, 18331
-4289.17, 342867, -503.475, 3.76741, -718.223, 0.070347, 0.548827, 0.958125, 0.351078, 0.648177, 0.0001, 182, 246, 46.729, 0.228444, 3.5364, 1, 0, 0, 18331
-4289.17, 342867, -503.475, 3.76741, -718.223, 0.070347, 0.548827, 0.958125, 0.351078, 0.648177, 3, 182, 246, 46.729, 0.228444, 3.18403, 1, 0, 0, 18331
-10122.5, 66857.9, 15.434, 3.19526, -1037.88, -0.0190629, 0.191992, 1.03299, 0.34851, 0.655882, 0.0001, 45.5, 246, 13.9512, 0.037272, 0, 0, 1, 0, 18332
-9231.65, 85208.5, -14.8182, 3.4666, -1038.59, 0.0296016, 0.19619, 0.993198, 0.349787, 0.651995, 0.0001, 91, 246, 13.9512, 0.037272, 0, 0, 1, 0, 18332
-9231.65, 85208.5, -14.8182, 3.4666, -1038.59, 0.0296016, 0.19619, 0.993198, 0.349787, 0.651995, 3, 91, 246, 13.9512, 0.037272, 0, 0, 1, 0, 18332
-11356.6, 308303, -263.965, 1.71764, -1121.5, -0.00984928, 0.502702, 1.03299, 0.34851, 0.655882, 0.0001, 45.5, 246, 43.9822, 0.20352, 0, 0, 0, 0, 18333
-11356.6, 308303, -263.965, 1.71764, -1121.5, -0.00984928, 0.502702, 1.03299, 0.34851, 0.655882, 3, 45.5, 246, 43.9822, 0.20352, 0, 0, 0, 0, 18333
-3989.67, 344019, -437.299, 4.06368, -1070.95, 0.937024, 0.424973, 0.958125, 0.351078, 0.648177, 0.0001, 182, 246, 42.6804, 0.185947, 1.86165, 1, 0, 0, 18334
-3989.67, 344019, -437.299, 4.06368, -1070.95, 0.937024, 0.424973, 0.958125, 0.351078, 0.648177, 3, 182, 246, 42.6804, 0.185947, 1.76431, 1, 0, 0, 18334
-10487.2, 172925, -175.79, 2.98295, -984.558, 0.148675, 0.300417, 1.03299, 0.34851, 0.655882, 0.0001, 45.5, 246, 39.3829, 0.162262, 0, 0, 0, 0, 18337
-10487.2, 172925, -175.79, 2.98295, -984.558, 0.148675, 0.300417, 1.03299, 0.34851, 0.655882, 3, 45.5, 246, 39.3829, 0.162262, 0, 0, 0, 0, 18337
-12130.7, 216911, -17.5746, 1.52409, -1088.04, 0.102024, 0.309517, 1.03299, 0.34851, 0.655882, 0.0001, 45.5, 246, 19.2038, 0.0352723, 0, 0, 1, 0, 18343
-12130.7, 216911, -17.5746, 1.52409, -1088.04, 0.102024, 0.309517, 1.03299, 0.34851, 0.655882, 3, 45.5, 246, 19.2038, 0.0352723, 0, 0, 1, 0, 18343
-10848, 239061, -34.0641, 1.61639, -1107.88, 0.114697, 0.282197, 0.993198, 0.349787, 0.651995, 3, 91, 246, 19.2038, 0.0352723, 0, 0, 1, 0, 18343
-9231.5, 262406, -52.6796, 1.71409, -1131.32, 0.129212, 0.261338, 0.958125, 0.351078, 0.648177, 0.0001, 182, 246, 19.2038, 0.0352723, 0, 0, 1, 0, 18343
-9105.54, 302768, -111.113, 0.942721, -1179.41, 0.0133274, 0.333682, 0.993198, 0.349787, 0.651995, 0.0001, 91, 246, 28.006, 0.088008, 0, 0, 1, 0, 18346
354.53, 316791, -349.462, 3.38754, -1056.24, 0.33737, 0.388329, 0.9175, 0.352806, 0.64323, 3, 455, 246, 36.4167, 0.157116, 1.02161, 1, 0, 0, 18347
-13145.6, 142095, 23.0713, 2.92374, -1070.3, 0.24062, 0.202299, 1.03299, 0.34851, 0.655882, 0.0001, 45.5, 246, 15.1294, 0.0222619, 0, 0, 0, 0, 18351
-13145.6, 142095, 23.0713, 2.92374, -1070.3, 0.24062, 0.202299, 1.03299, 0.34851, 0.655882, 3, 45.5, 246, 15.1294, 0.0222619, 0, 0, 0, 0, 18351
-11369.8, 164518, -5.55362, 3.20141, -1115.46, 0.292922, 0.199356, 0.993198, 0.349787, 0.651995, 0.0001, 91, 246, 15.1294, 0.0222619, 0, 0, 1, 0, 18351
-11369.8, 164518, -5.55362, 3.20141, -1115.46, 0.292922, 0.199356, 0.993198, 0.349787, 0.651995, 3, 91, 246, 15.1294, 0.0222619, 0, 0, 1, 0, 18351
-8877.81, 34498.2, 11.6252, 2.90798, -652.053, 0.717875, 0.214232, 1.03299, 0.34851, 0.655882, 3, 45.5, 246, 8.61326, 0.0263744, 0, 0, 1, 0, 18354
-8551.23, 44078.4, -6.94138, 3.27477, -737.775, 0.85701, 0.212713, 0.993198, 0.349787, 0.651995, 0.0001, 91, 246, 8.61326, 0.0263744, 0, 0, 1, 0, 18354
-8551.23, 44078.4, -6.94138, 3.27477, -737.775, 0.85701, 0.212713, 0.993198, 0.349787, 0.651995, 3, 91, 246, 8.61326, 0.0263744, 0, 0, 1, 0, 18354
-7953.2, 57210.4, -32.9923, 3.74097, -859.076, 1.05368, 0.230486, 0.958125, 0.351078, 0.648177, 0.0001, 182, 246, 8.61326, 0.0263744, 0, 0, 1, 0, 18354
-7953.2, 57210.4, -32.9923, 3.74097, -859.076, 1.05368, 0.230486, 0.958125, 0.351078, 0.648177, 3, 182, 246, 8.61326, 0.0263744, 0, 0, 1, 0, 18354
-6423.05, 85029.1, -87.5009, 4.61772, -1123.81, 1.48091, 0.29384, 0.9175, 0.352806, 0.64323, 0.0001, 455, 246, 8.61326, 0.0263744, 0, 0, 1, 0, 18354
-6423.05, 85029.1, -87.5009, 4.61772, -1123.81, 1.48091, 0.29384, 0.9175, 0.352806, 0.64323, 3, 455, 246, 8.61326, 0.0263744, 0, 0, 1, 0, 18354
-12318.9, 306294, -65.5498, 1.12665, -698.029, 0.0756652, 0.335106, 1.03299, 0.34851, 0.655882, 0.0001, 45.5, 246, 18.4474, 0.0551945, 0, 0, 1, 0, 18355
-9472.08, 326463, -87.2579, 1.24524, -721.326, 0.0901761, 0.279157, 0.958125, 0.351078, 0.648177, 0.0001, 182, 246, 18.4474, 0.0551945, 0, 0, 1, 0, 18355
-3131.48, 269938, -409.706, 3.29726, -847.058, 0.222203, 0.499571, 0.958125, 0.351078, 0.648177, 0.0001, 182, 246, 47.686, 0.233035, 1.62352, 1, 0, 0, 18357
-3131.48, 269938, -409.706, 3.29726, -847.058, 0.222203, 0.499571, 0.958125, 0.351078, 0.648177, 3, 182, 246, 47.686, 0.233035, 1.43106, 1, 0, 0, 18357
-10712.8, 239843, -167.423, 1.67058, -1121.42, 0.0749326, 0.403036, 1.03299, 0.34851, 0.655882, 0.0001, 45.5, 246, 36.6008, 0.158272, 0, 0, 0, 0, 18361
-10712.8, 239843, -167.423, 1.67058, -1121.42, 0.0749326, 0.403036, 1.03299, 0.34851, 0.655882, 3, 45.5, 246, 36.6008, 0.158272, 0, 0, 0, 0, 18361
-6375.93, 289211, -226.019, 1.89477, -1172.22, 0.105335, 0.373863, 0.958125, 0.351078, 0.648177, 3, 182, 246, 36.6008, 0.158272, 0, 0, 0, 0, 18361
-12369.8, 166350, -62.2392, 2.72909, -970.752, 0.113531, 0.245385, 1.03299, 0.34851, 0.655882, 0.0001, 45.5, 246, 24.3762, 0.0777735, 0, 0, 0, 0, 18363
-12369.8, 166350, -62.2392, 2.72909, -970.752, 0.113531, 0.245385, 1.03299, 0.34851, 0.655882, 3, 45.5, 246, 24.3762, 0.0777735, 0, 0, 0, 0, 18363
-9991.45, 241539, -253.78, 1.72091, -1067.56, 0.172935, 0.519506, 1.03299, 0.34851, 0.655882, 3, 45.5, 246, 46.3504, 0.236623, 0, 0, 0, 0, 18367
-10289.4, 82506.1, -0.509251, 2.6418, -730.183, -0.0309674, 0.241224, 1.03299, 0.34851, 0.655882, 0.0001, 45.5, 246, 11.8089, 0.0322231, 0, 0, 1, 0, 18368
-10289.4, 82506.1, -0.509251, 2.6418, -730.183, -0.0309674, 0.241224, 1.03299, 0.34851, 0.655882, 3, 45.5, 246, 11.8089, 0.0322231, 0, 0, 1, 0, 18368
-7217.47, 145554, -264.943, 3.03693, -604.339, 0.137285, 0.362754, 1.03299, 0.34851, 0.655882, 0.0001, 45.5, 246, 50.3315, 0.227068, 1.33266, 1, 1, 0, 18370
-7217.47, 145554, -264.943, 3.03693, -604.339, 0.137285, 0.362754, 1.03299, 0.34851, 0.655882, 3, 45.5, 246, 50.3315, 0.227068, 1.23346, 1, 1, 0, 18370
-4573.1, 154744, -306.074, 3.3286, -644.066, 0.185784, 0.374041, 0.993198, 0.349787, 0.651995, 0.0001, 91, 246, 50.3315, 0.227068, 1.47848, 1, 1, 0, 18370
-4573.1, 154744, -306.074, 3.3286, -644.066, 0.185784, 0.374041, 0.993198, 0.349787, 0.651995, 3, 91, 246, 50.3315, 0.227068, 1.35044, 1, 1, 0, 18370
-1232.65, 166168, -355.516, 3.67425, -697.28, 0.246839, 0.402368, 0.958125, 0.351078, 0.648177, 0.0001, 182, 246, 50.3315, 0.227068, 2.07532, 1, 1, 0, 18370
-1232.65, 166168, -355.516, 3.67425, -697.28, 0.246839, 0.402368, 0.958125, 0.351078, 0.648177, 3, 182, 246, 50.3315, 0.227068, 1.93124, 1, 1, 0, 18370
-9168.39, 150700, -53.1747, 0.754294, -1174.76, 0.00292474, 0.354252, 1.03299, 0.34851, 0.655882, 0.0001, 45.5, 246, 23.106, 0.0858983, 0, 0, 1, 0, 18372
-9168.39, 150700, -53.1747, 0.754294, -1174.76, 0.00292474, 0.354252, 1.03299, 0.34851, 0.655882, 3, 45.5, 246, 23.106, 0.0858983, 0, 0, 1, 0, 18372
-10579.3, 157279, -99.5992, 2.18851, -1028.08, 0.257255, 0.316171, 1.03299, 0.34851, 0.655882, 0.0001, 45.5, 246, 30.1783, 0.11966, 0, 0, 1, 0, 18378
-10579.3, 157279, -99.5992, 2.18851, -1028.08, 0.257255, 0.316171, 1.03299, 0.34851, 0.655882, 3, 45.5, 246, 30.1783, 0.11966, 0, 0, 1, 0, 18378
-9040.04, 179029, -128.154, 2.37152, -1080.54, 0.291934, 0.301681, 0.993198, 0.349787, 0.651995, 3, 91, 246, 30.1783, 0.11966, 0, 0, 1, 0, 18378
-5653.41, 59953, -145.73, 3.34855, -653.303, -0.0440315, 0.217228, 1.03299, 0.34851, 0.655882, 0.0001, 45.5, 246, 42.6248, 0.127885, 1.08271, 1, 1, 0, 18380
-4564.94, 67669.7, -179.714, 3.64176, -666.385, 0.00959149, 0.227956, 0.993198, 0.349787, 0.651995, 0.0001, 91, 246, 42.6248, 0.127885, 1.00931, 1, 1, 0, 18380
-3097.47, 76327.9, -220.169, 3.98983, -690.785, 0.0736817, 0.256903, 0.958125, 0.351078, 0.648177, 0.0001, 182, 246, 42.6248, 0.127885, 1.12974, 1, 1, 0, 18380
-346.369, 90287.5, -287.995, 4.57324, -747.283, 0.183008, 0.328312, 0.9175, 0.352806, 0.64323, 0.0001, 455, 246, 42.6248, 0.127885, 1.53384, 1, 1, 0, 18380
-346.369, 90287.5, -287.995, 4.57324, -747.283, 0.183008, 0.328312, 0.9175, 0.352806, 0.64323, 3, 455, 246, 42.6248, 0.127885, 1.46471, 1, 1, 0, 18380
-7114.65, -25982.6, -4.66239, 2.92099, -763.364, -0.0120549, 0.246539, 1.03299, 0.34851, 0.655882, 0.0001, 45.5, 246, 14.9571, 0.0237088, 0, 0, 1, 1, 18382
-11385.4, 268033, -25.5803, 0.954122, -871.912, 0.00146307, 0.330582, 1.03299, 0.34851, 0.655882, 0.0001, 45.5, 246, 16.8958, 0.0305892, 0, 0, 1, 0, 18383
-11385.4, 268033, -25.5803, 0.954122, -871.912, 0.00146307, 0.330582, 1.03299, 0.34851, 0.655882, 3, 45.5, 246, 16.8958, 0.0305892, 0, 0, 1, 0, 18383
-10486.8, 281278, -34.3388, 0.996376, -873.166, 0.00564076, 0.29787, 0.993198, 0.349787, 0.651995, 0.0001, 91, 246, 16.8958, 0.0305892, 0, 0, 1, 0, 18383
-8159.64, 174590, -181.311, 1.88814, -832.073, 0.0459591, 0.385307, 0.993198, 0.349787, 0.651995, 0.0001, 91, 246, 37.3322, 0.193195, 0, 0, 1, 0, 18384
-12626.8, 123910, 1.81904, 3.6024, -1151.69, 0.0141472, 0.137193, 1.03299, 0.34851, 0.655882, 0.0001, 45.5, 246, 19.3826, 0.0447431, 0, 0, 0, 0, 18385
-12626.8, 123910, 1.81904, 3.6024, -1151.69, 0.0141472, 0.137193, 1.03299, 0.34851, 0.655882, 3, 45.5, 246, 19.3826, 0.0447431, 0, 0, 0, 0, 18385
-10634.3, 146905, -37.9353, 3.94172, -1161.58, 0.0768446, 0.152451, 0.993198, 0.349787, 0.651995, 0.0001, 91, 246, 19.3826, 0.0447431, 0, 0, 1, 0, 18385
-10634.3, 146905, -37.9353, 3.94172, -1161.58, 0.0768446, 0.152451, 0.993198, 0.349787, 0.651995, 3, 91, 246, 19.3826, 0.0447431, 0, 0, 1, 0, 18385
-7052.48, 127608, -129.265, 3.64582, -853.883, 0.300887, 0.238511, 0.958125, 0.351078, 0.648177, 3, 182, 246, 24.0931, 0.082648, 0, 0, 1, 0, 18389
-9814.49, 209324, -32.2522, 2.69672, -674.429, 0.213212, 0.232675, 0.958125, 0.351078, 0.648177, 3, 182, 246, 11.3583, 0.0187007, 0, 0, 1, 0, 18394
-8631.67, 316675, -263.252, 0.796698, -763.193, 0.0131213, 0.507232, 0.993198, 0.349787, 0.651995, 0.0001, 91, 246, 37.5365, 0.208309, 0, 0, 1, 0, 18396
127.934, 158048, -315.269, 4.8693, -848.781, 0.735269, 0.348577, 0.9175, 0.352806, 0.64323, 0.0001, 455, 246, 35.6384, 0.134843, 1.55073, 1, 0, 0, 18401
127.934, 158048, -315.269, 4.8693, -848.781, 0.735269, 0.348577, 0.9175, 0.352806, 0.64323, 3, 455, 246, 35.6384, 0.134843, 1.5513, 1, 0, 0, 18401
-8459.71, 158646, -105.005, 0.315239, -978.976, 0.683739, 0.409304, 1.03299, 0.34851, 0.655882, 0.0001, 45.5, 246, 29.9126, 0.166746, 1.70375, 1, 1, 0, 18402
-8459.71, 158646, -105.005, 0.315239, -978.976, 0.683739, 0.409304, 1.03299, 0.34851, 0.655882, 3, 45.5, 246, 29.9126, 0.166746, 1.62143, 1, 1, 0, 18402
-14743.6, 204238, -42.7015, 3.04943, -1087.05, -0.0180907, 0.203789, 1.03299, 0.34851, 0.655882, 0.0001, 45.5, 246, 23.6604, 0.0604324, 0, 0, 0, 0, 18403
-14743.6, 204238, -42.7015, 3.04943, -1087.05, -0.0180907, 0.203789, 1.03299, 0.34851, 0.655882, 3, 45.5, 246, 23.6604, 0.0604324, 0, 0, 0, 0, 18403
-6666.66, -939.671, -56.7219, 3.79691, -1007.95, -0.000186342, 0.211925, 0.993198, 0.349787, 0.651995, 3, 91, 246, 23.4944, 0.0382562, 0, 0, 1, 1, 18405
-4809.28, 75147.8, -174.569, 3.45854, -905.838, 0.0694017, 0.234812, 1.03299, 0.34851, 0.655882, 0.0001, 45.5, 246, 49.1683, 0.167564, 1.25965, 1, 1, 0, 18406
-4809.28, 75147.8, -174.569, 3.45854, -905.838, 0.0694017, 0.234812, 1.03299, 0.34851, 0.655882, 3, 45.5, 246, 49.1683, 0.167564, 1.04029, 1, 1, 0, 18406
-3245.46, 90905.3, -221.173, 3.79511, -938.961, 0.128589, 0.250831, 0.993198, 0.349787, 0.651995, 0.0001, 91, 246, 49.1683, 0.167564, 1.35381, 1, 1, 0, 18406
-3245.46, 90905.3, -221.173, 3.79511, -938.961, 0.128589, 0.250831, 0.993198, 0.349787, 0.651995, 3, 91, 246, 49.1683, 0.167564, 1.18423, 1, 1, 0, 18406
-1001.37, 108991, -278.08, 4.20124, -990.183, 0.20291, 0.287541, 0.958125, 0.351078, 0.648177, 0.0001, 182, 246, 49.1683, 0.167564, 1.81558, 1, 1, 0, 18406
-1001.37, 108991, -278.08, 4.20124, -990.183, 0.20291, 0.287541, 0.958125, 0.351078, 0.648177, 3, 182, 246, 49.1683, 0.167564, 1.67806, 1, 1, 0, 18406
-10502.2, 343688, -255.535, 0.628224, -589.916, 0.189417, 0.513384, 1.03299, 0.34851, 0.655882, 0.0001, 45.5, 246, 33.0675, 0.186773, 0, 0, 1, 0, 18411
-10502.2, 343688, -255.535, 0.628224, -589.916, 0.189417, 0.513384, 1.03299, 0.34851, 0.655882, 3, 45.5, 246, 33.0675, 0.186773, 0, 0, 1, 0, 18411
-9213.7, 354688, -270.061, 0.662093, -612.739, 0.197144, 0.493167, 0.993198, 0.349787, 0.651995, 0.0001, 91, 246, 33.0675, 0.186773, 0, 0, 1, 0, 18411
-9806.6, 345894, -66.2596, 0.764387, -1147.76, 0.410341, 0.310244, 0.993198, 0.349787, 0.651995, 0.0001, 91, 246, 22.9665, 0.0459354, 0, 0, 1, 0, 18415
-8729.69, 378742, -77.1587, 0.811598, -1229.15, 0.441708, 0.281438, 0.958125, 0.351078, 0.648177, 0.0001, 182, 246, 22.9665, 0.0459354, 0, 0, 1, 0, 18415
-8729.69, 378742, -77.1587, 0.811598, -1229.15, 0.441708, 0.281438, 0.958125, 0.351078, 0.648177, 3, 182, 246, 22.9665, 0.0459354, 0, 0, 1, 0, 18415
-16202.4, 207018, -40.2969, 3.66306, -1117.48, -0.064588, 0.129349, 1.03299, 0.34851, 0.655882, 0.0001, 45.5, 246, 24.3785, 0.0591101, 0, 0, 0, 0, 18416
-16202.4, 207018, -40.2969, 3.66306, -1117.48, -0.064588, 0.129349, 1.03299, 0.34851, 0.655882, 3, 45.5, 246, 24.3785, 0.0591101, 0, 0, 0, 0, 18416
-8493.53, 63999.4, -55.4746, 1.44228, -1030.51, 0.00012447, 0.315233, 0.993198, 0.349787, 0.651995, 0.0001, 91, 246, 24.8601, 0.136743, 0, 0, 1, 0, 18422
-8493.53, 63999.4, -55.4746, 1.44228, -1030.51, 0.00012447, 0.315233, 0.993198, 0.349787, 0.651995, 3, 91, 246, 24.8601, 0.136743, 0, 0, 1, 0, 18422
-9966.35, 64797.5, 8.23929, 3.59412, -771.3, -0.0605732, 0.144695, 1.03299, 0.34851, 0.655882, 0.0001, 45.5, 246, 11.901, 0.0310285, 0, 0, 1, 0, 18424
-9966.35, 64797.5, 8.23929, 3.59412, -771.3, -0.0605732, 0.144695, 1.03299, 0.34851, 0.655882, 3, 45.5, 246, 11.901, 0.0310285, 0, 0, 1, 0, 18424
-10207.4, 186302, -90.0584, 1.40456, -1066.76, -0.00907392, 0.35434, 1.03299, 0.34851, 0.655882, 0.0001, 45.5, 246, 27.9361, 0.111877, 0, 0, 1, 0, 18426
-10207.4, 186302, -90.0584, 1.40456, -1066.76, -0.00907392, 0.35434, 1.03299, 0.34851, 0.655882, 3, 45.5, 246, 27.9361, 0.111877, 0, 0, 1, 0, 18426
-10494.2, 222025, -135.419, 1.42104, -967.929, 0.132903, 0.383796, 1.03299, 0.34851, 0.655882, 0.0001, 45.5, 246, 31.6153, 0.139, 0, 0, 1, 0, 18431
-10494.2, 222025, -135.419, 1.42104, -967.929, 0.132903, 0.383796, 1.03299, 0.34851, 0.655882, 3, 45.5, 246, 31.6153, 0.139, 0, 0, 1, 0, 18431
-9091.2, 240744, -155.785, 1.5098, -995.101, 0.145383, 0.360467, 0.993198, 0.349787, 0.651995, 0.0001, 91, 246, 31.6153, 0.139, 0, 0, 1, 0, 18431
-10923.5, 263417, -66.7738, 0.847628, -655.149, 0.81181, 0.34401, 1.03299, 0.34851, 0.655882, 0.0001, 45.5, 246, 17.9551, 0.0572503, 0, 0, 1, 0, 18433
-10093.4, 284566, -75.2078, 0.925404, -753.55, 0.935236, 0.311504, 0.993198, 0.349787, 0.651995, 0.0001, 91, 246, 17.9551, 0.0572503, 0, 0, 1, 0, 18433
-7429.65, 8566.32, -50.2482, 3.0729, -1056.33, 0.12622, 0.253622, 0.993198, 0.349787, 0.651995, 0.0001, 91, 246, 23.2367, 0.0513095, 0, 0, 1, 1, 18434
-7429.65, 8566.32, -50.2482, 3.0729, -1056.33, 0.12622, 0.253622, 0.993198, 0.349787, 0.651995, 3, 91, 246, 23.2367, 0.0513095, 0, 0, 1, 1, 18434
-6445.6, 57870.2, -144.764, 3.80289, -1151.83, 0.258745, 0.304028, 0.9175, 0.352806, 0.64323, 3, 455, 246, 23.2367, 0.0513095, 0, 0, 1, 0, 18434
-7353.12, -17956.8, 4.94963, 3.01733, -1023.09, -0.01959, 0.236346, 1.03299, 0.34851, 0.655882, 0.0001, 45.5, 246, 14.2603, 0.0551275, 0, 0, 1, 0, 18436
-7654.13, 1.51139, -23.9609, 3.26589, -1024.1, 0.023701, 0.237681, 0.993198, 0.349787, 0.651995, 3, 91, 246, 14.2603, 0.0551275, 0, 0, 1, 1, 18436
-7512.31, 47542.1, -78.7033, 2.25391, -1038.48, 0.653312, 0.309953, 1.03299, 0.34851, 0.655882, 0.0001, 45.5, 246, 35.5022, 0.150546, 0, 0, 1, 0, 18437
-7512.31, 47542.1, -78.7033, 2.25391, -1038.48, 0.653312, 0.309953, 1.03299, 0.34851, 0.655882, 3, 45.5, 246, 35.5022, 0.150546, 0, 0, 1, 0, 18437
-10960, 246505, -184.194, 1.76291, -1064.94, 0.0213012, 0.413848, 1.03299, 0.34851, 0.655882, 0.0001, 45.5, 246, 37.7328, 0.168684, 0, 0, 0, 0, 18438
-10960, 246505, -184.194, 1.76291, -1064.94, 0.0213012, 0.413848, 1.03299, 0.34851, 0.655882, 3, 45.5, 246, 37.7328, 0.168684, 0, 0, 0, 0, 18438
-10978.6, 217173, -70.7876, 1.3813, -1077.3, 0.00204188, 0.338037, 1.03299, 0.34851, 0.655882, 0.0001, 45.5, 246, 25.0041, 0.0814831, 0, 0, 1, 0, 18440
-10978.6, 217173, -70.7876, 1.3813, -1077.3, 0.00204188, 0.338037, 1.03299, 0.34851, 0.655882, 3, 45.5, 246, 25.0041, 0.0814831, 0, 0, 1, 0, 18440
-7631.03, 93160.8, -137.998, 2.79387, -805.129, -0.0309206, 0.292714, 1.03299, 0.34851, 0.655882, 0.0001, 45.5, 246, 39.6512, 0.163658, 0, 0, 1, 0, 18443
-7631.03, 93160.8, -137.998, 2.79387, -805.129, -0.0309206, 0.292714, 1.03299, 0.34851, 0.655882, 3, 45.5, 246, 39.6512, 0.163658, 0, 0, 1, 0, 18443
-1537.8, 135802, -268.328, 3.66607, -877.933, 0.120433, 0.340369, 0.9175, 0.352806, 0.64323, 0.0001, 455, 246, 39.6512, 0.163658, 1.22946, 1, 0, 0, 18443
-1537.8, 135802, -268.328, 3.66607, -877.933, 0.120433, 0.340369, 0.9175, 0.352806, 0.64323, 3, 455, 246, 39.6512, 0.163658, 1.2345, 1, 0, 0, 18443
-11434.4, 224785, -322.261, 3.32533, -672.764, 0.000487496, 0.392298, 1.03299, 0.34851, 0.655882, 0.0001, 45.5, 246, 48.8148, 0.225938, 1.07044, 1, 0, 0, 18444
-7128.81, 234998, -374.417, 3.64147, -707.535, 0.0537976, 0.415023, 0.993198, 0.349787, 0.651995, 0.0001, 91, 246, 48.8148, 0.225938, 1.38015, 1, 1, 0, 18444
-7128.81, 234998, -374.417, 3.64147, -707.535, 0.0537976, 0.415023, 0.993198, 0.349787, 0.651995, 3, 91, 246, 48.8148, 0.225938, 1.27093, 1, 1, 0, 18444
-1760, 248061, -437.271, 4.02039, -758.267, 0.119269, 0.457506, 0.958125, 0.351078, 0.648177, 0.0001, 182, 246, 48.8148, 0.225938, 3.3731, 1, 0, 0, 18444
-1760, 248061, -437.271, 4.02039, -758.267, 0.119269, 0.457506, 0.958125, 0.351078, 0.648177, 3, 182, 246, 48.8148, 0.225938, 3.11017, 1, 0, 0, 18444
-12313.7, 210476, -8.58022, 1.58226, -837.346, -0.00393847, 0.303926, 1.03299, 0.34851, 0.655882, 0.0001, 45.5, 246, 14.6519, 0.0247237, 0, 0, 1, 0, 18446
-12313.7, 210476, -8.58022, 1.58226, -837.346, -0.00393847, 0.303926, 1.03299, 0.34851, 0.655882, 3, 45.5, 246, 14.6519, 0.0247237, 0, 0, 1, 0, 18446
-11064.1, 222484, -21.3352, 1.67011, -838.218, 0.00766975, 0.277034, 0.993198, 0.349787, 0.651995, 3, 91, 246, 14.6519, 0.0247237, 0, 0, 1, 0, 18446
-10854.8, 338640, -447.848, 3.93661, -844.471, 0.0191723, 0.454979, 0.993198, 0.349787, 0.651995, 0.0001, 91, 246, 48.9444, 0.219577, 1.30414, 1, 1, 0, 18447
-10854.8, 338640, -447.848, 3.93661, -844.471, 0.0191723, 0.454979, 0.993198, 0.349787, 0.651995, 3, 91, 246, 48.9444, 0.219577, 1.22629, 1, 1, 0, 18447
-8734.49, 23863.7, -16.9161, 1.2851, -993.796, 0.252908, 0.30152, 0.993198, 0.349787, 0.651995, 3, 91, 246, 12.6782, 0.0747997, 0, 0, 1, 1, 18450
-9040.95, 166048, -75.4392, 0.681287, -1032.4, 0.710141, 0.366322, 1.03299, 0.34851, 0.655882, 0.0001, 45.5, 246, 25.1853, 0.102868, 1.64088, 1, 1, 0, 18456
-9040.95, 166048, -75.4392, 0.681287, -1032.4, 0.710141, 0.366322, 1.03299, 0.34851, 0.655882, 3, 45.5, 246, 25.1853, 0.102868, 1.50911, 1, 1, 0, 18456
-7642.35, -8388.66, -9.62208, 2.61854, -731.032, 0.0459274, 0.263828, 1.03299, 0.34851, 0.655882, 3, 45.5, 246, 15.3875, 0.0380422, 0, 0, 1, 1, 18457
-1903.2, 118750, -261.289, 2.87478, -754.379, 0.185573, 0.369941, 0.9175, 0.352806, 0.64323, 0.0001, 455, 246, 47.7297, 0.229453, 1.30451, 1, 1, 0, 18463
-1903.2, 118750, -261.289, 2.87478, -754.379, 0.185573, 0.369941, 0.9175, 0.352806, 0.64323, 3, 455, 246, 47.7297, 0.229453, 1.3158, 1, 0, 0, 18463
-5257.2, 279437, -366.905, 4.17364, -746.311, 0.0741937, 0.349208, 0.958125, 0.351078, 0.648177, 0.0001, 182, 246, 39.3778, 0.170896, 1.1179, 1, 0, 0, 18464
-7152.18, 87490.3, -138.469, 2.4352, -1028.44, 0.0516616, 0.346673, 1.03299, 0.34851, 0.655882, 3, 45.5, 246, 44.4233, 0.209153, 0, 0, 1, 0, 18465
-1362.06, 158771, -274.875, 3.16726, -1137.79, 0.170981, 0.366958, 0.9175, 0.352806, 0.64323, 0.0001, 455, 246, 44.4233, 0.209153, 1.3477, 1, 0, 0, 18465
-1362.06, 158771, -274.875, 3.16726, -1137.79, 0.170981, 0.366958, 0.9175, 0.352806, 0.64323, 3, 455, 246, 44.4233, 0.209153, 1.35455, 1, 0, 0, 18465
-9864.01, 130672, -13.1532, 1.06067, -987.576, -0.00518267, 0.329624, 1.03299, 0.34851, 0.655882, 3, 45.5, 246, 15.1932, 0.0382548, 0, 0, 1, 0, 18466
-11085, 246868, -276.794, 2.21579, -935.204, 0.345618, 0.486698, 1.03299, 0.34851, 0.655882, 3, 45.5, 246, 46.1088, 0.225277, 0, 0, 0, 0, 18467
-7978.6, 269589, -317.723, 2.42594, -1009.75, 0.390574, 0.486763, 0.993198, 0.349787, 0.651995, 0.0001, 91, 246, 46.1088, 0.225277, 0, 0, 1, 0, 18467
-7978.6, 269589, -317.723, 2.42594, -1009.75, 0.390574, 0.486763, 0.993198, 0.349787, 0.651995, 3, 91, 246, 46.1088, 0.225277, 0, 0, 1, 0, 18467
-4674.03, 328851, -453.427, 3.31424, -739.893, 0.0449597, 0.534001, 0.958125, 0.351078, 0.648177, 0.0001, 182, 246, 45.5813, 0.225854, 1.44939, 1, 0, 0, 18469
-4674.03, 328851, -453.427, 3.31424, -739.893, 0.0449597, 0.534001, 0.958125, 0.351078, 0.648177, 3, 182, 246, 45.5813, 0.225854, 1.26193, 1, 0, 0, 18469
-5627.37, 65579.9, -140.886, 3.42543, -987.028, 0.150078, 0.244729, 0.993198, 0.349787, 0.651995, 0.0001, 91, 246, 38.8194, 0.124768, 0, 0, 1, 0, 18472
-1513.06, 113719, -264.478, 4.33758, -1121.91, 0.321399, 0.328149, 0.9175, 0.352806, 0.64323, 0.0001, 455, 246, 38.8194, 0.124768, 1.50067, 1, 1, 0, 18472
-1513.06, 113719, -264.478, 4.33758, -1121.91, 0.321399, 0.328149, 0.9175, 0.352806, 0.64323, 3, 455, 246, 38.8194, 0.124768, 1.47727, 1, 1, 0, 18472
-8372.45, 86841.6, -64.7421, 3.72243, -1081.95, 0.00936811, 0.19239, 0.993198, 0.349787, 0.651995, 0.0001, 91, 246, 22.2043, 0.0693271, 0, 0, 1, 0, 18473
-8372.45, 86841.6, -64.7421, 3.72243, -1081.95, 0.00936811, 0.19239, 0.993198, 0.349787, 0.651995, 3, 91, 246, 22.2043, 0.0693271, 0, 0, 1, 0, 18473
-14317.9, 196651, 22.5618, 2.46066, -1127.97, -0.0285911, 0.243515, 1.03299, 0.34851, 0.655882, 0.0001, 45.5, 246, 16.2179, 0.0158107, 0, 0, 1, 0, 18474
-14317.9, 196651, 22.5618, 2.46066, -1127.97, -0.0285911, 0.243515, 1.03299, 0.34851, 0.655882, 3, 45.5, 246, 16.2179, 0.0158107, 0, 0, 1, 0, 18474
-10223.8, 295892, -401.848, 3.22013, -618.884, 0.0195746, 0.490346, 0.993198, 0.349787, 0.651995, 0.0001, 91, 246, 45.7217, 0.22845, 1.00839, 1, 1, 0, 18478
-4367.07, 306570, -458.726, 3.52576, -661.479, 0.0697549, 0.524213, 0.958125, 0.351078, 0.648177, 0.0001, 182, 246, 45.7217, 0.22845, 1.88809, 1, 0, 0, 18478
-4367.07, 306570, -458.726, 3.52576, -661.479, 0.0697549, 0.524213, 0.958125, 0.351078, 0.648177, 3, 182, 246, 45.7217, 0.22845, 1.72603, 1, 0, 0, 18478
-7373.86, 98666.7, -170.373, 3.56138, -623.888, -0.0529503, 0.204178, 1.03299, 0.34851, 0.655882, 0.0001, 45.5, 246, 39.8982, 0.141139, 1.02285, 1, 1, 0, 18480
-7373.86, 98666.7, -170.373, 3.56138, -623.888, -0.0529503, 0.204178, 1.03299, 0.34851, 0.655882, 3, 45.5, 246, 39.8982, 0.141139, 0, 0, 1, 0, 18480
-5544.65, 105737, -207.701, 3.88664, -640.064, 0.00794486, 0.221553, 0.993198, 0.349787, 0.651995, 3, 91, 246, 39.8982, 0.141139, 0, 0, 1, 0, 18480
-3214.12, 114100, -252.62, 4.2784, -669.235, 0.0812927, 0.259585, 0.958125, 0.351078, 0.648177, 0.0001, 182, 246, 39.8982, 0.141139, 1.15271, 1, 1, 0, 18480
952.747, 128487, -329.3, 4.94888, -736.414, 0.208524, 0.348805, 0.9175, 0.352806, 0.64323, 0.0001, 455, 246, 39.8982, 0.141139, 1.82186, 1, 0, 0, 18480
952.747, 128487, -329.3, 4.94888, -736.414, 0.208524, 0.348805, 0.9175, 0.352806, 0.64323, 3, 455, 246, 39.8982, 0.141139, 1.82132, 1, 0, 0, 18480
-8317.95, 120819, -156.656, 2.21417, -866.405, 0.617277, 0.362022, 1.03299, 0.34851, 0.655882, 0.0001, 45.5, 246, 40.5744, 0.192612, 0, 0, 1, 0, 18482
-8317.95, 120819, -156.656, 2.21417, -866.405, 0.617277, 0.362022, 1.03299, 0.34851, 0.655882, 3, 45.5, 246, 40.5744, 0.192612, 0, 0, 1, 0, 18482
-6934.33, 140362, -187.113, 2.4542, -973.016, 0.710476, 0.351983, 0.993198, 0.349787, 0.651995, 0.0001, 91, 246, 40.5744, 0.192612, 0, 0, 1, 0, 18482
-6934.33, 140362, -187.113, 2.4542, -973.016, 0.710476, 0.351983, 0.993198, 0.349787, 0.651995, 3, 91, 246, 40.5744, 0.192612, 0, 0, 1, 0, 18482
-9805.24, 70299.5, -14.8978, 3.18198, -853.696, -0.0436049, 0.197349, 1.03299, 0.34851, 0.655882, 0.0001, 45.5, 246, 16.8284, 0.0503759, 0, 0, 1, 0, 18483
-9805.24, 70299.5, -14.8978, 3.18198, -853.696, -0.0436049, 0.197349, 1.03299, 0.34851, 0.655882, 3, 45.5, 246, 16.8284, 0.0503759, 0, 0, 1, 0, 18483
-11454.7, 303242, -244.488, 1.79131, -1174.45, -0.0150538, 0.472921, 1.03299, 0.34851, 0.655882, 0.0001, 45.5, 246, 42.9018, 0.189974, 0, 0, 0, 0, 18484
-11454.7, 303242, -244.488, 1.79131, -1174.45, -0.0150538, 0.472921, 1.03299, 0.34851, 0.655882, 3, 45.5, 246, 42.9018, 0.189974, 0, 0, 0, 0, 18484
-13909.4, 218893, -69.6023, 2.67268, -1157.58, -0.0252481, 0.254072, 1.03299, 0.34851, 0.655882, 0.0001, 45.5, 246, 27.1469, 0.0787534, 0, 0, 0, 0, 18485
-13909.4, 218893, -69.6023, 2.67268, -1157.58, -0.0252481, 0.254072, 1.03299, 0.34851, 0.655882, 3, 45.5, 246, 27.1469, 0.0787534, 0, 0, 0, 0, 18485
-4660.43, 59513.6, -155.642, 2.57385, -827.713, 0.449881, 0.313276, 1.03299, 0.34851, 0.655882, 0.0001, 45.5, 246, 53.7612, 0.206866, 1.1763, 1, 1, 0, 18486
-3715.78, 74692.9, -188.803, 2.84122, -906.07, 0.518925, 0.30821, 0.993198, 0.349787, 0.651995, 0.0001, 91, 246, 53.7612, 0.206866, 1.23361, 1, 1, 0, 18486
-3715.78, 74692.9, -188.803, 2.84122, -906.07, 0.518925, 0.30821, 0.993198, 0.349787, 0.651995, 3, 91, 246, 53.7612, 0.206866, 1.0358, 1, 1, 0, 18486
-2301.64, 93796.1, -229.937, 3.1598, -1007.37, 0.608289, 0.317106, 0.958125, 0.351078, 0.648177, 0.0001, 182, 246, 53.7612, 0.206866, 1.51714, 1, 1, 0, 18486
-2301.64, 93796.1, -229.937, 3.1598, -1007.37, 0.608289, 0.317106, 0.958125, 0.351078, 0.648177, 3, 182, 246, 53.7612, 0.206866, 1.36304, 1, 1, 0, 18486
-7927.51, 16723.5, -30.8975, 2.32295, -993.336, 0.632506, 0.285355, 1.03299, 0.34851, 0.655882, 0.0001, 45.5, 246, 23.9516, 0.0845515, 0, 0, 1, 0, 18487
-7927.51, 16723.5, -30.8975, 2.32295, -993.336, 0.632506, 0.285355, 1.03299, 0.34851, 0.655882, 3, 45.5, 246, 23.9516, 0.0845515, 0, 0, 1, 0, 18487
-8841.35, 120706, -93.2612, 2.40016, -795.151, 0.447846, 0.278995, 0.993198, 0.349787, 0.651995, 3, 91, 246, 24.6448, 0.0997283, 0, 0, 1, 0, 18489
-5053.54, 161509, -161.872, 3.007, -987.715, 0.624725, 0.284626, 0.9175, 0.352806, 0.64323, 0.0001, 455, 246, 24.6448, 0.0997283, 0, 0, 1, 0, 18489
-5053.54, 161509, -161.872, 3.007, -987.715, 0.624725, 0.284626, 0.9175, 0.352806, 0.64323, 3, 455, 246, 24.6448, 0.0997283, 0, 0, 1, 0, 18489
-6624.36, 2573.8, -42.2053, 3.33004, -833.06, 0.130408, 0.202089, 1.03299, 0.34851, 0.655882, 3, 45.5, 246, 26.2788, 0.0458129, 0, 0, 1, 1, 18490
-5885.66, 54709.3, -132.326, 3.82513, -912.514, 0.0709316, 0.246182, 0.958125, 0.351078, 0.648177, 3, 182, 246, 29.7673, 0.080035, 0, 0, 1, 0, 18491
-11384.5, 174730, -35.4571, 1.79761, -1174.19, -0.0150156, 0.305876, 1.03299, 0.34851, 0.655882, 0.0001, 45.5, 246, 22.2436, 0.0606108, 0, 0, 1, 0, 18494
-11384.5, 174730, -35.4571, 1.79761, -1174.19, -0.0150156, 0.305876, 1.03299, 0.34851, 0.655882, 3, 45.5, 246, 22.2436, 0.0606108, 0, 0, 1, 0, 18494
-8895.26, 100383, -75.1457, 0.789207, -766.339, 0.626722, 0.380281, 1.03299, 0.34851, 0.655882, 0.0001, 45.5, 246, 27.4954, 0.167734, 0, 0, 1, 0, 18496
-8895.26, 100383, -75.1457, 0.789207, -766.339, 0.626722, 0.380281, 1.03299, 0.34851, 0.655882, 3, 45.5, 246, 27.4954, 0.167734, 0, 0, 1, 0, 18496
-9989.03, 67064.7, 5.63, 3.21971, -614.922, -0.0428851, 0.186158, 1.03299, 0.34851, 0.655882, 0.0001, 45.5, 246, 9.46768, 0.0246304, 0, 0, 1, 0, 18498
-9989.03, 67064.7, 5.63, 3.21971, -614.922, -0.0428851, 0.186158, 1.03299, 0.34851, 0.655882, 3, 45.5, 246, 9.46768, 0.0246304, 0, 0, 1, 0, 18498
-9165.7, 58091.4, -26.4553, 2.45917, -649.969, -0.025494, 0.264483, 1.03299, 0.34851, 0.655882, 0.0001, 45.5, 246, 16.3176, 0.0570467, 0, 0, 1, 0, 18499
-9165.7, 58091.4, -26.4553, 2.45917, -649.969, -0.025494, 0.264483, 1.03299, 0.34851, 0.655882, 3, 45.5, 246, 16.3176, 0.0570467, 0, 0, 1, 0, 18499
