-10707.1, 355510, -143.532, 3.24887, -888.953, 0.173557, 0.231037, 0.958125, 0.351078, 0.648177, 0.0001, 182, 246, 22.9849, 0.062073, 0, 0, 0, 0, 69002
-10707.1, 355510, -143.532, 3.24887, -888.953, 0.173557, 0.231037, 0.958125, 0.351078, 0.648177, 3, 182, 246, 22.9849, 0.062073, 0, 0, 0, 0, 69002
-2995.94, 78465.1, -199.73, 3.48994, -1194.64, 0.319806, 0.27541, 0.993198, 0.349787, 0.651995, 0.0001, 91, 246, 53.3097, 0.180747, 1.30775, 1, 1, 0, 69008
-2995.94, 78465.1, -199.73, 3.48994, -1194.64, 0.319806, 0.27541, 0.993198, 0.349787, 0.651995, 3, 91, 246, 53.3097, 0.180747, 1.11778, 1, 1, 0, 69008
-1081.58, 107951, -259.94, 3.88383, -1286.99, 0.39964, 0.302871, 0.958125, 0.351078, 0.648177, 0.0001, 182, 246, 53.3097, 0.180747, 1.89333, 1, 1, 0, 69008
-1081.58, 107951, -259.94, 3.88383, -1286.99, 0.39964, 0.302871, 0.958125, 0.351078, 0.648177, 3, 182, 246, 53.3097, 0.180747, 1.74606, 1, 1, 0, 69008
-8917.56, 339329, -426.682, 3.63957, -1101.06, 0.0580307, 0.482674, 0.993198, 0.349787, 0.651995, 0.0001, 91, 246, 51.4719, 0.223999, 1.03919, 1, 1, 0, 69009
-7763.09, -241.811, -24.5651, 3.12338, -1135.21, 0.185565, 0.248798, 0.993198, 0.349787, 0.651995, 0.0001, 91, 246, 14.7801, 0.0603647, 0, 0, 1, 1, 69011
-7763.09, -241.811, -24.5651, 3.12338, -1135.21, 0.185565, 0.248798, 0.993198, 0.349787, 0.651995, 3, 91, 246, 14.7801, 0.0603647, 0, 0, 1, 1, 69011
-9128.04, 170459, -228.998, 3.24339, -931.325, -0.0480301, 0.324564, 1.03299, 0.34851, 0.655882, 0.0001, 45.5, 246, 46.4573, 0.199758, 0, 0, 0, 0, 69012
-9128.04, 170459, -228.998, 3.24339, -931.325, -0.0480301, 0.324564, 1.03299, 0.34851, 0.655882, 3, 45.5, 246, 46.4573, 0.199758, 0, 0, 0, 0, 69012
-6118.23, 186421, -278.659, 3.52979, -950.431, 0.00235214, 0.339074, 0.993198, 0.349787, 0.651995, 3, 91, 246, 46.4573, 0.199758, 0, 0, 1, 0, 69012
-2226.01, 204535, -337.709, 3.86889, -985.202, 0.0625011, 0.37131, 0.958125, 0.351078, 0.648177, 0.0001, 182, 246, 46.4573, 0.199758, 1.69342, 1, 0, 0, 69012
-2226.01, 204535, -337.709, 3.86889, -985.202, 0.0625011, 0.37131, 0.958125, 0.351078, 0.648177, 3, 182, 246, 46.4573, 0.199758, 1.51956, 1, 0, 0, 69012
-10781.5, 295348, -182.274, 2.02797, -879.768, 0.264372, 0.340447, 0.993198, 0.349787, 0.651995, 0.0001, 91, 246, 30.2571, 0.12377, 0, 0, 1, 0, 69015
-10781.5, 295348, -182.274, 2.02797, -879.768, 0.264372, 0.340447, 0.993198, 0.349787, 0.651995, 3, 91, 246, 30.2571, 0.12377, 0, 0, 1, 0, 69015
-11728.1, 167436, 2.1182, 1.71457, -1136.09, 0.204842, 0.298009, 1.03299, 0.34851, 0.655882, 0.0001, 45.5, 246, 16.9657, 0.0264374, 0, 0, 1, 0, 69016
-10609.3, 192569, -16.2624, 1.83474, -1175.7, 0.225979, 0.272995, 0.993198, 0.349787, 0.651995, 0.0001, 91, 246, 16.9657, 0.0264374, 0, 0, 1, 0, 69016
-10908.2, 159666, -65.0206, 2.05287, -1170.59, -0.0176493, 0.307869, 1.03299, 0.34851, 0.655882, 0.0001, 45.5, 246, 26.5813, 0.092146, 0, 0, 1, 0, 69018
-10908.2, 159666, -65.0206, 2.05287, -1170.59, -0.0176493, 0.307869, 1.03299, 0.34851, 0.655882, 3, 45.5, 246, 26.5813, 0.092146, 0, 0, 1, 0, 69018
-8257.63, 74502.4, -90.1201, 2.4808, -781.943, 0.0576819, 0.290343, 1.03299, 0.34851, 0.655882, 0.0001, 45.5, 246, 31.864, 0.129313, 0, 0, 1, 0, 69019
-8257.63, 74502.4, -90.1201, 2.4808, -781.943, 0.0576819, 0.290343, 1.03299, 0.34851, 0.655882, 3, 45.5, 246, 31.864, 0.129313, 0, 0, 1, 0, 69019
-4306.78, 115357, -190.619, 3.22354, -865.19, 0.182142, 0.301668, 0.9175, 0.352806, 0.64323, 3, 455, 246, 31.864, 0.129313, 0, 0, 1, 0, 69019
-4631.84, 167335, -160.369, 3.70524, -864.865, 0.48506, 0.278013, 0.9175, 0.352806, 0.64323, 0.0001, 455, 246, 21.367, 0.07575, 0, 0, 1, 0, 69020
-4631.84, 167335, -160.369, 3.70524, -864.865, 0.48506, 0.278013, 0.9175, 0.352806, 0.64323, 3, 455, 246, 21.367, 0.07575, 0, 0, 1, 0, 69020
-11701.5, 205456, -197.779, 3.20502, -1050.34, -0.0122506, 0.295756, 1.03299, 0.34851, 0.655882, 0.0001, 45.5, 246, 41.0447, 0.165394, 0, 0, 0, 0, 69025
-11701.5, 205456, -197.779, 3.20502, -1050.34, -0.0122506, 0.295756, 1.03299, 0.34851, 0.655882, 3, 45.5, 246, 41.0447, 0.165394, 0, 0, 0, 0, 69025
-9172.06, -67375.9, -2.68293, 0.308591, -1041.66, 0.314477, 0.351069, 1.03299, 0.34851, 0.655882, 0.0001, 45.5, 246, -28.1815, 0.152946, 0, 0, 1, 0, 69027
-9172.06, -67375.9, -2.68293, 0.308591, -1041.66, 0.314477, 0.351069, 1.03299, 0.34851, 0.655882, 3, 45.5, 246, -28.1815, 0.152946, 0, 0, 1, 0, 69027
-9038.42, 141261, -103.014, 2.51052, -908.807, 0.723576, 0.27611, 0.993198, 0.349787, 0.651995, 0.0001, 91, 246, 25.6875, 0.0994431, 0, 0, 1, 0, 69030
-9001.68, 59652.8, -26.0685, 1.25323, -806.55, 0.0229628, 0.333255, 1.03299, 0.34851, 0.655882, 0.0001, 45.5, 246, 17.3597, 0.0831654, 0, 0, 1, 0, 69032
-8464.52, 1770.87, -12.0642, 2.11571, -937.831, 0.128947, 0.28428, 0.993198, 0.349787, 0.651995, 3, 91, 246, 10.023, 0.0554007, 0, 0, 1, 1, 69033
-10618.2, 266052, -166.504, 1.19725, -874.479, -0.00385936, 0.415765, 1.03299, 0.34851, 0.655882, 0.0001, 45.5, 246, 32.4236, 0.151553, 0, 0, 1, 0, 69034
-10618.2, 266052, -166.504, 1.19725, -874.479, -0.00385936, 0.415765, 1.03299, 0.34851, 0.655882, 3, 45.5, 246, 32.4236, 0.151553, 0, 0, 1, 0, 69034
-9158.03, 279880, -184.721, 1.25852, -880.073, 0.00275919, 0.392062, 0.993198, 0.349787, 0.651995, 3, 91, 246, 32.4236, 0.151553, 0, 0, 1, 0, 69034
-7417.2, 294162, -204.175, 1.32167, -887.566, 0.0100711, 0.373704, 0.958125, 0.351078, 0.648177, 0.0001, 182, 246, 32.4236, 0.151553, 0, 0, 1, 0, 69034
-9905.28, 216197, -215.147, 3.86167, -892.547, 0.297496, 0.226803, 0.993198, 0.349787, 0.651995, 0.0001, 91, 246, 34.4949, 0.129295, 0, 0, 1, 0, 69035
-9905.28, 216197, -215.147, 3.86167, -892.547, 0.297496, 0.226803, 0.993198, 0.349787, 0.651995, 3, 91, 246, 34.4949, 0.129295, 0, 0, 1, 0, 69035
-12120.2, 150431, -89.4347, 3.54276, -937.467, -0.0532371, 0.17158, 1.03299, 0.34851, 0.655882, 0.0001, 45.5, 246, 28.1171, 0.0927489, 0, 0, 0, 0, 69037
-12120.2, 150431, -89.4347, 3.54276, -937.467, -0.0532371, 0.17158, 1.03299, 0.34851, 0.655882, 3, 45.5, 246, 28.1171, 0.0927489, 0, 0, 0, 0, 69037
-9699.05, 165245, -129.469, 3.86127, -944.545, 0.00694926, 0.186347, 0.993198, 0.349787, 0.651995, 0.0001, 91, 246, 28.1171, 0.0927489, 0, 0, 1, 0, 69037
-9699.05, 165245, -129.469, 3.86127, -944.545, 0.00694926, 0.186347, 0.993198, 0.349787, 0.651995, 3, 91, 246, 28.1171, 0.0927489, 0, 0, 1, 0, 69037
-9346.94, 264071, -218.123, 0.676635, -796.206, 0.0618082, 0.510474, 1.03299, 0.34851, 0.655882, 0.0001, 45.5, 246, 37.6356, 0.214445, 0, 0, 0, 0, 69042
-11640.8, 241298, -149.731, 1.9714, -1128.01, -0.0181451, 0.365322, 1.03299, 0.34851, 0.655882, 0.0001, 45.5, 246, 34.7716, 0.138909, 0, 0, 0, 0, 69043
-11640.8, 241298, -149.731, 1.9714, -1128.01, -0.0181451, 0.365322, 1.03299, 0.34851, 0.655882, 3, 45.5, 246, 34.7716, 0.138909, 0, 0, 0, 0, 69043
-5900.23, 128770, -264.401, 3.52871, -634.178, 0.0964563, 0.280812, 1.03299, 0.34851, 0.655882, 0.0001, 45.5, 246, 51.5323, 0.205622, 1.50032, 1, 0, 0, 69044
-5900.23, 128770, -264.401, 3.52871, -634.178, 0.0964563, 0.280812, 1.03299, 0.34851, 0.655882, 3, 45.5, 246, 51.5323, 0.205622, 1.4228, 1, 0, 0, 69044
-3121.28, 138321, -311.652, 3.8885, -675.349, 0.159286, 0.302542, 0.993198, 0.349787, 0.651995, 0.0001, 91, 246, 51.5323, 0.205622, 1.71801, 1, 1, 0, 69044
-3121.28, 138321, -311.652, 3.8885, -675.349, 0.159286, 0.302542, 0.993198, 0.349787, 0.651995, 3, 91, 246, 51.5323, 0.205622, 1.61759, 1, 1, 0, 69044
454.692, 150438, -369.738, 4.32671, -734.088, 0.23939, 0.346587, 0.958125, 0.351078, 0.648177, 0.0001, 182, 246, 51.5323, 0.205622, 2.69668, 1, 1, 0, 69044
454.692, 150438, -369.738, 4.32671, -734.088, 0.23939, 0.346587, 0.958125, 0.351078, 0.648177, 3, 182, 246, 51.5323, 0.205622, 2.53825, 1, 1, 0, 69044
-12022.2, 305472, -87.4917, 1.28994, -1149.91, 0.0538645, 0.343196, 1.03299, 0.34851, 0.655882, 0.0001, 45.5, 246, 27.1518, 0.0743586, 0, 0, 1, 0, 69046
-12022.2, 305472, -87.4917, 1.28994, -1149.91, 0.0538645, 0.343196, 1.03299, 0.34851, 0.655882, 3, 45.5, 246, 27.1518, 0.0743586, 0, 0, 1, 0, 69046
-2724.36, 334381, -151.223, 4.44626, -1331.61, 0.579169, 0.254434, 0.9175, 0.352806, 0.64323, 0.0001, 455, 246, 19.8186, 0.0317266, 0, 0, 0, 0, 69048
-2724.36, 334381, -151.223, 4.44626, -1331.61, 0.579169, 0.254434, 0.9175, 0.352806, 0.64323, 3, 455, 246, 19.8186, 0.0317266, 0, 0, 0, 0, 69048
-548.301, 208602, -318.794, 3.03559, -1234.97, 1.08944, 0.420709, 0.9175, 0.352806, 0.64323, 0.0001, 455, 246, 44.9932, 0.229286, 1.34339, 1, 0, 0, 69049
-548.301, 208602, -318.794, 3.03559, -1234.97, 1.08944, 0.420709, 0.9175, 0.352806, 0.64323, 3, 455, 246, 44.9932, 0.229286, 1.66135, 1, 0, 0, 69049
-5587.67, 78917.2, -164.618, 3.44085, -898.937, 0.0267204, 0.233166, 1.03299, 0.34851, 0.655882, 0.0001, 45.5, 246, 46.2626, 0.161145, 1.15141, 1, 1, 0, 69050
-4032.24, 94033.3, -209.671, 3.76531, -924.499, 0.0841112, 0.248314, 0.993198, 0.349787, 0.651995, 0.0001, 91, 246, 46.2626, 0.161145, 1.19149, 1, 1, 0, 69050
-1830.66, 111102, -264.257, 4.15508, -966.801, 0.155059, 0.283519, 0.958125, 0.351078, 0.648177, 0.0001, 182, 246, 46.2626, 0.161145, 1.56817, 1, 1, 0, 69050
-1830.66, 111102, -264.257, 4.15508, -966.801, 0.155059, 0.283519, 0.958125, 0.351078, 0.648177, 3, 182, 246, 46.2626, 0.161145, 1.42072, 1, 1, 0, 69050
-4418.68, 62883.8, -186.108, 3.09029, -516.737, 0.742901, 0.236806, 1.03299, 0.34851, 0.655882, 0.0001, 45.5, 246, 47.6981, 0.140064, 1.39094, 1, 1, 0, 69056
-4418.68, 62883.8, -186.108, 3.09029, -516.737, 0.742901, 0.236806, 1.03299, 0.34851, 0.655882, 3, 45.5, 246, 47.6981, 0.140064, 1.25113, 1, 1, 0, 69056
-3183.63, 71764.6, -218.778, 3.50063, -606.416, 0.895676, 0.24251, 0.993198, 0.349787, 0.651995, 0.0001, 91, 246, 47.6981, 0.140064, 1.36174, 1, 1, 0, 69056
-3183.63, 71764.6, -218.778, 3.50063, -606.416, 0.895676, 0.24251, 0.993198, 0.349787, 0.651995, 3, 91, 246, 47.6981, 0.140064, 1.22749, 1, 1, 0, 69056
-1450.04, 84549.5, -262.006, 4.03109, -735.701, 1.1158, 0.270407, 0.958125, 0.351078, 0.648177, 0.0001, 182, 246, 47.6981, 0.140064, 1.54424, 1, 1, 0, 69056
-1450.04, 84549.5, -262.006, 4.03109, -735.701, 1.1158, 0.270407, 0.958125, 0.351078, 0.648177, 3, 182, 246, 47.6981, 0.140064, 1.4186, 1, 1, 0, 69056
2174.45, 113373, -348.008, 5.05766, -1027.12, 1.611, 0.355593, 0.9175, 0.352806, 0.64323, 0.0001, 455, 246, 47.6981, 0.140064, 2.96782, 1, 1, 1, 69056
2174.45, 113373, -348.008, 5.05766, -1027.12, 1.611, 0.355593, 0.9175, 0.352806, 0.64323, 3, 455, 246, 47.6981, 0.140064, 2.9676, 1, 1, 1, 69056
-9215.73, 241291, -123.977, 1.33692, -1042.98, 0.00550343, 0.339762, 0.993198, 0.349787, 0.651995, 0.0001, 91, 246, 28.7543, 0.11435, 0, 0, 1, 0, 69057
-10853.9, 306153, -391.735, 3.7109, -720.499, -1.23737e-05, 0.411133, 0.993198, 0.349787, 0.651995, 0.0001, 91, 246, 44.7996, 0.205938, 1.05008, 1, 1, 0, 69059
-4143.47, 319012, -457.685, 4.0903, -767.832, 0.0668346, 0.455754, 0.958125, 0.351078, 0.648177, 0.0001, 182, 246, 44.7996, 0.205938, 2.66619, 1, 0, 0, 69059
-4143.47, 319012, -457.685, 4.0903, -767.832, 0.0668346, 0.455754, 0.958125, 0.351078, 0.648177, 3, 182, 246, 44.7996, 0.205938, 2.48279, 1, 0, 0, 69059
-8862.81, 90537.7, -72.8937, 0.633068, -869.773, 0.917228, 0.360792, 0.993198, 0.349787, 0.651995, 0.0001, 91, 246, 29.5566, 0.229453, 1.68397, 1, 1, 0, 69063
-8862.81, 90537.7, -72.8937, 0.633068, -869.773, 0.917228, 0.360792, 0.993198, 0.349787, 0.651995, 3, 91, 246, 29.5566, 0.229453, 1.57558, 1, 1, 0, 69063
-10965.8, 199158, -96.2138, 1.74652, -1140.5, 0.205358, 0.339217, 1.03299, 0.34851, 0.655882, 0.0001, 45.5, 246, 29.4343, 0.10778, 0, 0, 1, 0, 69065
-10965.8, 199158, -96.2138, 1.74652, -1140.5, 0.205358, 0.339217, 1.03299, 0.34851, 0.655882, 3, 45.5, 246, 29.4343, 0.10778, 0, 0, 1, 0, 69065
-9449.21, 225177, -120.969, 1.87226, -1185.34, 0.227096, 0.317658, 0.993198, 0.349787, 0.651995, 3, 91, 246, 29.4343, 0.10778, 0, 0, 1, 0, 69065
-16751.5, -170277, -13.4983, 0.71808, -1118.81, 0.0276917, 0.428143, 1.03299, 0.34851, 0.655882, 0.0001, 45.5, 246, -96.0175, 0.222619, 0, 0, 1, 0, 69069
-16751.5, -170277, -13.4983, 0.71808, -1118.81, 0.0276917, 0.428143, 1.03299, 0.34851, 0.655882, 3, 45.5, 246, -96.0175, 0.222619, 0, 0, 1, 0, 69069
-10150.8, 194358, -178.965, 1.45653, -653.423, 0.399256, 0.4276, 1.03299, 0.34851, 0.655882, 0.0001, 45.5, 246, 34.8954, 0.189104, 0, 0, 1, 0, 69076
-10150.8, 194358, -178.965, 1.45653, -653.423, 0.399256, 0.4276, 1.03299, 0.34851, 0.655882, 3, 45.5, 246, 34.8954, 0.189104, 0, 0, 1, 0, 69076
-12191.4, 317551, -141.222, 1.38172, -1027.62, 0.347489, 0.369778, 1.03299, 0.34851, 0.655882, 0.0001, 45.5, 246, 30.2443, 0.104981, 0, 0, 0, 0, 69077
-3152.43, 337460, -463.789, 3.64103, -1018.38, 0.668663, 0.508483, 0.958125, 0.351078, 0.648177, 0.0001, 182, 246, 46.5682, 0.216894, 2.52469, 1, 0, 0, 69084
-3152.43, 337460, -463.789, 3.64103, -1018.38, 0.668663, 0.508483, 0.958125, 0.351078, 0.648177, 3, 182, 246, 46.5682, 0.216894, 2.40759, 1, 0, 0, 69084
-8785.71, 43738.8, -27.5898, 1.15046, -1029.31, 0.768768, 0.340234, 1.03299, 0.34851, 0.655882, 0.0001, 45.5, 246, 20.0679, 0.104804, 0, 0, 1, 0, 69087
-8785.71, 43738.8, -27.5898, 1.15046, -1029.31, 0.768768, 0.340234, 1.03299, 0.34851, 0.655882, 3, 45.5, 246, 20.0679, 0.104804, 0, 0, 1, 0, 69087
-10309.2, 224883, -252.388, 2.18628, -965.264, 0.0392849, 0.477129, 1.03299, 0.34851, 0.655882, 0.0001, 45.5, 246, 46.3476, 0.231053, 0, 0, 0, 0, 69088
-10309.2, 224883, -252.388, 2.18628, -965.264, 0.0392849, 0.477129, 1.03299, 0.34851, 0.655882, 3, 45.5, 246, 46.3476, 0.231053, 0, 0, 0, 0, 69088
-6517.91, 73113.6, -129.748, 3.56667, -1060.2, -0.0519806, 0.210077, 1.03299, 0.34851, 0.655882, 3, 45.5, 246, 41.1842, 0.140668, 0, 0, 1, 0, 69090
-2945.99, 114323, -236.558, 4.28784, -1101.47, 0.0827679, 0.266726, 0.958125, 0.351078, 0.648177, 0.0001, 182, 246, 41.1842, 0.140668, 1.18511, 1, 1, 0, 69090
-2945.99, 114323, -236.558, 4.28784, -1101.47, 0.0827679, 0.266726, 0.958125, 0.351078, 0.648177, 3, 182, 246, 41.1842, 0.140668, 1.00056, 1, 1, 0, 69090
1464.64, 147447, -336.202, 4.96309, -1181.35, 0.210734, 0.357184, 0.9175, 0.352806, 0.64323, 0.0001, 455, 246, 41.1842, 0.140668, 4.5836, 1, 0, 0, 69090
1464.64, 147447, -336.202, 4.96309, -1181.35, 0.210734, 0.357184, 0.9175, 0.352806, 0.64323, 3, 455, 246, 41.1842, 0.140668, 4.62802, 1, 0, 0, 69090
-13291.4, 252857, 12.3419, 1.41774, -990.049, 0.487632, 0.306908, 1.03299, 0.34851, 0.655882, 3, 45.5, 246, 15.7231, 0.00762003, 0, 0, 1, 0, 69091
-10095.9, 114340, -103.088, 3.07936, -668.039, 0.313793, 0.222578, 1.03299, 0.34851, 0.655882, 0.0001, 45.5, 246, 27.8384, 0.101739, 0, 0, 1, 0, 69095
-10095.9, 114340, -103.088, 3.07936, -668.039, 0.313793, 0.222578, 1.03299, 0.34851, 0.655882, 3, 45.5, 246, 27.8384, 0.101739, 0, 0, 1, 0, 69095
-8500.66, 124605, -132.139, 3.39839, -715.718, 0.378595, 0.225825, 0.993198, 0.349787, 0.651995, 0.0001, 91, 246, 27.8384, 0.101739, 0, 0, 1, 0, 69095
-8500.66, 124605, -132.139, 3.39839, -715.718, 0.378595, 0.225825, 0.993198, 0.349787, 0.651995, 3, 91, 246, 27.8384, 0.101739, 0, 0, 1, 0, 69095
-8263.32, 129490, -72.0331, 4.18525, -643.223, 0.393401, 0.195455, 0.958125, 0.351078, 0.648177, 3, 182, 246, 13.9916, 0.0379833, 0, 0, 1, 0, 69096
-8489.73, 162086, -221.134, 3.409, -1121.35, -0.0510558, 0.309722, 1.03299, 0.34851, 0.655882, 3, 45.5, 246, 48.1165, 0.199775, 0, 0, 0, 0, 69099
-1262.02, 210351, -347.391, 4.09293, -1179.41, 0.0718623, 0.367383, 0.958125, 0.351078, 0.648177, 0.0001, 182, 246, 48.1165, 0.199775, 2.26943, 1, 0, 0, 69099
-1262.02, 210351, -347.391, 4.09293, -1179.41, 0.0718623, 0.367383, 0.958125, 0.351078, 0.648177, 3, 182, 246, 48.1165, 0.199775, 2.09811, 1, 0, 0, 69099
-13781.7, 166196, -13.9082, 3.17947, -1129.61, -0.048082, 0.185936, 1.03299, 0.34851, 0.655882, 0.0001, 45.5, 246, 20.8872, 0.0479092, 0, 0, 0, 0, 69100
-13781.7, 166196, -13.9082, 3.17947, -1129.61, -0.048082, 0.185936, 1.03299, 0.34851, 0.655882, 3, 45.5, 246, 20.8872, 0.0479092, 0, 0, 0, 0, 69100
-13105, 170969, -5.2833, 2.53835, -1113.24, 0.0270705, 0.244096, 1.03299, 0.34851, 0.655882, 0.0001, 45.5, 246, 18.8718, 0.0381765, 0, 0, 1, 0, 69104
-13105, 170969, -5.2833, 2.53835, -1113.24, 0.0270705, 0.244096, 1.03299, 0.34851, 0.655882, 3, 45.5, 246, 18.8718, 0.0381765, 0, 0, 0, 0, 69104
-7796.78, 180577, -193.45, 2.06267, -1027.82, 0.703908, 0.38362, 0.993198, 0.349787, 0.651995, 0.0001, 91, 246, 38.8472, 0.191403, 0, 0, 1, 0, 69107
-7853.39, 166669, -301.941, 3.40347, -580.129, -0.0557872, 0.351219, 1.03299, 0.34851, 0.655882, 0.0001, 45.5, 246, 51.6037, 0.229334, 1.463, 1, 0, 0, 69108
-7853.39, 166669, -301.941, 3.40347, -580.129, -0.0557872, 0.351219, 1.03299, 0.34851, 0.655882, 3, 45.5, 246, 51.6037, 0.229334, 1.39529, 1, 0, 0, 69108
-4435.67, 174062, -349.637, 3.71723, -607.94, -7.63845e-05, 0.373181, 0.993198, 0.349787, 0.651995, 0.0001, 91, 246, 51.6037, 0.229334, 1.72474, 1, 1, 0, 69108
-4435.67, 174062, -349.637, 3.71723, -607.94, -7.63845e-05, 0.373181, 0.993198, 0.349787, 0.651995, 3, 91, 246, 51.6037, 0.229334, 1.62764, 1, 1, 0, 69108
-187.718, 183630, -406.889, 4.09338, -649.976, 0.0669343, 0.415009, 0.958125, 0.351078, 0.648177, 0.0001, 182, 246, 51.6037, 0.229334, 2.98313, 1, 0, 0, 69108
-187.718, 183630, -406.889, 4.09338, -649.976, 0.0669343, 0.415009, 0.958125, 0.351078, 0.648177, 3, 182, 246, 51.6037, 0.229334, 2.78852, 1, 0, 0, 69108
-8786.29, 229049, -162.744, 1.49632, -1073.88, 0.919558, 0.367308, 0.993198, 0.349787, 0.651995, 0.0001, 91, 246, 32.2879, 0.145829, 0, 0, 1, 0, 69110
-7064.02, 43063.4, -81.6824, 3.23956, -809.815, 0.335515, 0.208339, 1.03299, 0.34851, 0.655882, 0.0001, 45.5, 246, 31.7976, 0.0900829, 1.05917, 1, 1, 0, 69111
-10112.1, 206835, -313.811, 3.5648, -749.763, -0.0571502, 0.352863, 1.03299, 0.34851, 0.655882, 0.0001, 45.5, 246, 50.6477, 0.223623, 1.23845, 1, 0, 0, 69113
-10112.1, 206835, -313.811, 3.5648, -749.763, -0.0571502, 0.352863, 1.03299, 0.34851, 0.655882, 3, 45.5, 246, 50.6477, 0.223623, 1.06817, 1, 0, 0, 69113
-5829.06, 218296, -370.548, 3.9061, -780.059, 0.00414251, 0.380737, 0.993198, 0.349787, 0.651995, 0.0001, 91, 246, 50.6477, 0.223623, 1.54525, 1, 1, 0, 69113
-5829.06, 218296, -370.548, 3.9061, -780.059, 0.00414251, 0.380737, 0.993198, 0.349787, 0.651995, 3, 91, 246, 50.6477, 0.223623, 1.44987, 1, 1, 0, 69113
-10061.9, 67970.4, 6.10845, 3.37066, -857.348, 0.0527161, 0.170433, 1.03299, 0.34851, 0.655882, 0.0001, 45.5, 246, 13.4227, 0.0358363, 0, 0, 1, 0, 69114
-10061.9, 67970.4, 6.10845, 3.37066, -857.348, 0.0527161, 0.170433, 1.03299, 0.34851, 0.655882, 3, 45.5, 246, 13.4227, 0.0358363, 0, 0, 1, 0, 69114
-9276.88, -53553.2, 2.15037, 0.348208, -736.683, 0.0420096, 0.352529, 1.03299, 0.34851, 0.655882, 0.0001, 45.5, 246, -42.8061, 0.174838, 0, 0, 1, 0, 69116
-9276.88, -53553.2, 2.15037, 0.348208, -736.683, 0.0420096, 0.352529, 1.03299, 0.34851, 0.655882, 3, 45.5, 246, -42.8061, 0.174838, 0, 0, 1, 0, 69116
-6847.13, -24905.5, 2.36416, 3.28853, -940.852, -0.0517839, 0.21319, 1.03299, 0.34851, 0.655882, 0.0001, 45.5, 246, 14.7875, 0.0459405, 0, 0, 1, 1, 69117
-6847.13, -24905.5, 2.36416, 3.28853, -940.852, -0.0517839, 0.21319, 1.03299, 0.34851, 0.655882, 3, 45.5, 246, 14.7875, 0.0459405, 0, 0, 1, 1, 69117
-7270.53, -9833.65, -26.8605, 3.57026, -937.992, -9.35254e-05, 0.221627, 0.993198, 0.349787, 0.651995, 3, 91, 246, 14.7875, 0.0459405, 0, 0, 1, 1, 69117
-11136.9, 191130, -168.956, 2.9933, -1158.96, -0.042159, 0.303865, 1.03299, 0.34851, 0.655882, 0.0001, 45.5, 246, 39.6564, 0.157972, 0, 0, 0, 0, 69124
-11136.9, 191130, -168.956, 2.9933, -1158.96, -0.042159, 0.303865, 1.03299, 0.34851, 0.655882, 3, 45.5, 246, 39.6564, 0.157972, 0, 0, 0, 0, 69124
-8289.41, 214804, -216.235, 3.2405, -1170.81, 0.000524747, 0.308964, 0.993198, 0.349787, 0.651995, 0.0001, 91, 246, 39.6564, 0.157972, 0, 0, 1, 0, 69124
-8289.41, 214804, -216.235, 3.2405, -1170.81, 0.000524747, 0.308964, 0.993198, 0.349787, 0.651995, 3, 91, 246, 39.6564, 0.157972, 0, 0, 1, 0, 69124
-5736.53, 303999, -388.601, 4.40641, -754.004, 0.113489, 0.347053, 0.958125, 0.351078, 0.648177, 0.0001, 182, 246, 39.1074, 0.167637, 1.23903, 1, 0, 0, 69126
-5736.53, 303999, -388.601, 4.40641, -754.004, 0.113489, 0.347053, 0.958125, 0.351078, 0.648177, 3, 182, 246, 39.1074, 0.167637, 1.04705, 1, 0, 0, 69126
-9522.07, 185429, -81.8062, 1.86329, -1178.48, 0.627796, 0.296414, 0.993198, 0.349787, 0.651995, 0.0001, 91, 246, 24.6121, 0.0832891, 0, 0, 1, 0, 69127
208.852, 183774, -319.206, 4.43401, -887.761, 0.29971, 0.352646, 0.9175, 0.352806, 0.64323, 0.0001, 455, 246, 36.4734, 0.146041, 1.59821, 1, 0, 0, 69128
208.852, 183774, -319.206, 4.43401, -887.761, 0.29971, 0.352646, 0.9175, 0.352806, 0.64323, 3, 455, 246, 36.4734, 0.146041, 1.60439, 1, 0, 0, 69128
-3838.62, 348492, -123.557, 4.17543, -1098.27, 0.345874, 0.243334, 0.9175, 0.352806, 0.64323, 0.0001, 455, 246, 18.3538, 0.0252017, 0, 0, 0, 0, 69129
-3838.62, 348492, -123.557, 4.17543, -1098.27, 0.345874, 0.243334, 0.9175, 0.352806, 0.64323, 3, 455, 246, 18.3538, 0.0252017, 0, 0, 0, 0, 69129
-11907.9, 131021, -17.3056, 2.81606, -889.604, 0.018756, 0.224132, 1.03299, 0.34851, 0.655882, 0.0001, 45.5, 246, 17.3583, 0.0461712, 0, 0, 1, 0, 69130
-11907.9, 131021, -17.3056, 2.81606, -889.604, 0.018756, 0.224132, 1.03299, 0.34851, 0.655882, 3, 45.5, 246, 17.3583, 0.0461712, 0, 0, 1, 0, 69130
-8456.03, 159251, -72.0085, 3.29933, -913.114, 0.101648, 0.227052, 0.958125, 0.351078, 0.648177, 3, 182, 246, 17.3583, 0.0461712, 0, 0, 1, 0, 69130
-10952.8, 248723, -92.5302, 1.05306, -742.11, 0.576346, 0.353586, 1.03299, 0.34851, 0.655882, 0.0001, 45.5, 246, 22.3507, 0.0843039, 0, 0, 1, 0, 69132
-10952.8, 248723, -92.5302, 1.05306, -742.11, 0.576346, 0.353586, 1.03299, 0.34851, 0.655882, 3, 45.5, 246, 22.3507, 0.0843039, 0, 0, 1, 0, 69132
-3468.41, 243086, -376.203, 3.52288, -770.405, 0.103324, 0.435188, 0.958125, 0.351078, 0.648177, 0.0001, 182, 246, 45.3087, 0.214212, 1.458, 1, 0, 0, 69133
-3468.41, 243086, -376.203, 3.52288, -770.405, 0.103324, 0.435188, 0.958125, 0.351078, 0.648177, 3, 182, 246, 45.3087, 0.214212, 1.25567, 1, 0, 0, 69133
-9127.43, 120078, -120.228, 2.77871, -1084.84, -0.0119502, 0.292953, 1.03299, 0.34851, 0.655882, 0.0001, 45.5, 246, 36.2089, 0.148143, 0, 0, 1, 0, 69139
-9127.43, 120078, -120.228, 2.77871, -1084.84, -0.0119502, 0.292953, 1.03299, 0.34851, 0.655882, 3, 45.5, 246, 36.2089, 0.148143, 0, 0, 1, 0, 69139
-7516.01, 140891, -158.422, 2.99938, -1096.44, 0.0246688, 0.291109, 0.993198, 0.349787, 0.651995, 0.0001, 91, 246, 36.2089, 0.148143, 0, 0, 1, 0, 69139
-7516.01, 140891, -158.422, 2.99938, -1096.44, 0.0246688, 0.291109, 0.993198, 0.349787, 0.651995, 3, 91, 246, 36.2089, 0.148143, 0, 0, 1, 0, 69139
-6928.21, -16886.8, -5.1202, 3.20812, -999.358, 0.480906, 0.213951, 1.03299, 0.34851, 0.655882, 0.0001, 45.5, 246, 18.0969, 0.0516516, 0, 0, 1, 0, 69140
-6928.21, -16886.8, -5.1202, 3.20812, -999.358, 0.480906, 0.213951, 1.03299, 0.34851, 0.655882, 3, 45.5, 246, 18.0969, 0.0516516, 0, 0, 1, 0, 69140
-11343.9, 285755, -250.356, 1.22212, -644.352, 0.185466, 0.506281, 1.03299, 0.34851, 0.655882, 0.0001, 45.5, 246, 36.9383, 0.204981, 0, 0, 0, 0, 69142
-11343.9, 285755, -250.356, 1.22212, -644.352, 0.185466, 0.506281, 1.03299, 0.34851, 0.655882, 3, 45.5, 246, 36.9383, 0.204981, 0, 0, 0, 0, 69142
-7054.29, 87400.8, -121.94, 2.99893, -1031.52, 0.0106886, 0.270563, 0.993198, 0.349787, 0.651995, 0.0001, 91, 246, 33.8942, 0.13162, 0, 0, 1, 0, 69147
-7054.29, 87400.8, -121.94, 2.99893, -1031.52, 0.0106886, 0.270563, 0.993198, 0.349787, 0.651995, 3, 91, 246, 33.8942, 0.13162, 0, 0, 1, 0, 69147
-6992.83, 54220.6, -99.5216, 3.38563, -829.595, 0.939116, 0.251813, 0.958125, 0.351078, 0.648177, 0.0001, 182, 246, 23.6486, 0.0665806, 0, 0, 1, 0, 69148
-6992.83, 54220.6, -99.5216, 3.38563, -829.595, 0.939116, 0.251813, 0.958125, 0.351078, 0.648177, 3, 182, 246, 23.6486, 0.0665806, 0, 0, 1, 0, 69148
-5562.72, 79421.5, -154.305, 4.09472, -1059.67, 1.26918, 0.296388, 0.9175, 0.352806, 0.64323, 0.0001, 455, 246, 23.6486, 0.0665806, 0, 0, 1, 0, 69148
-5562.72, 79421.5, -154.305, 4.09472, -1059.67, 1.26918, 0.296388, 0.9175, 0.352806, 0.64323, 3, 455, 246, 23.6486, 0.0665806, 0, 0, 1, 0, 69148
-5186.28, 334422, -439.912, 4.43101, -863.152, 0.687353, 0.397065, 0.958125, 0.351078, 0.648177, 0.0001, 182, 246, 40.6011, 0.177836, 1.87583, 1, 0, 0, 69152
-5186.28, 334422, -439.912, 4.43101, -863.152, 0.687353, 0.397065, 0.958125, 0.351078, 0.648177, 3, 182, 246, 40.6011, 0.177836, 1.74493, 1, 0, 0, 69152
-10801.5, 167271, -74.7518, 1.91374, -1096.56, -0.0141614, 0.320055, 1.03299, 0.34851, 0.655882, 0.0001, 45.5, 246, 26.9393, 0.0989041, 0, 0, 1, 0, 69153
-10801.5, 167271, -74.7518, 1.91374, -1096.56, -0.0141614, 0.320055, 1.03299, 0.34851, 0.655882, 3, 45.5, 246, 26.9393, 0.0989041, 0, 0, 1, 0, 69153
-11394.6, 234320, -211.429, 2.12955, -890.528, 0.0422469, 0.414805, 1.03299, 0.34851, 0.655882, 3, 45.5, 246, 39.4427, 0.186832, 0, 0, 0, 0, 69155
-6285.54, 78490, -145.203, 3.36478, -998.641, -0.01464, 0.240538, 1.03299, 0.34851, 0.655882, 3, 45.5, 246, 43.6705, 0.157429, 0, 0, 1, 0, 69158
-2704.37, 116125, -245.078, 4.03127, -1049.69, 0.105397, 0.285046, 0.958125, 0.351078, 0.648177, 0.0001, 182, 246, 43.6705, 0.157429, 1.29258, 1, 1, 0, 69158
-2704.37, 116125, -245.078, 4.03127, -1049.69, 0.105397, 0.285046, 0.958125, 0.351078, 0.648177, 3, 182, 246, 43.6705, 0.157429, 1.11473, 1, 1, 0, 69158
1541.37, 146845, -337.247, 4.64239, -1129.58, 0.219469, 0.361606, 0.9175, 0.352806, 0.64323, 0.0001, 455, 246, 43.6705, 0.157429, 0, 0, 0, 0, 69158
1541.37, 146845, -337.247, 4.64239, -1129.58, 0.219469, 0.361606, 0.9175, 0.352806, 0.64323, 3, 455, 246, 43.6705, 0.157429, 0, 0, 0, 0, 69158
-12648.5, 358805, -485.954, 3.44135, -670.094, 0.541921, 0.542024, 0.993198, 0.349787, 0.651995, 0.0001, 91, 246, 46.09, 0.226741, 1.19179, 1, 1, 0, 69162
-12648.5, 358805, -485.954, 3.44135, -670.094, 0.541921, 0.542024, 0.993198, 0.349787, 0.651995, 3, 91, 246, 46.09, 0.226741, 1.09977, 1, 1, 0, 69162
-8718.43, 331401, -183.291, 0.625215, -792.295, 0.206575, 0.396529, 0.993198, 0.349787, 0.651995, 0.0001, 91, 246, 29.0625, 0.136148, 0, 0, 1, 0, 69165
-7664.38, 347145, -194.875, 0.656206, -822.391, 0.215408, 0.372806, 0.958125, 0.351078, 0.648177, 0.0001, 182, 246, 29.0625, 0.136148, 0, 0, 1, 0, 69165
-7664.38, 347145, -194.875, 0.656206, -822.391, 0.215408, 0.372806, 0.958125, 0.351078, 0.648177, 3, 182, 246, 29.0625, 0.136148, 0, 0, 1, 0, 69165
-6681.25, 100810, -166.336, 3.47115, -1097.67, -0.05592, 0.251061, 1.03299, 0.34851, 0.655882, 3, 45.5, 246, 45.5144, 0.173933, 0, 0, 0, 0, 69167
-4723.47, 122298, -218.346, 3.78561, -1111.16, 0.00192975, 0.26818, 0.993198, 0.349787, 0.651995, 0.0001, 91, 246, 45.5144, 0.173933, 1.02945, 1, 1, 0, 69167
-4723.47, 122298, -218.346, 3.78561, -1111.16, 0.00192975, 0.26818, 0.993198, 0.349787, 0.651995, 3, 91, 246, 45.5144, 0.173933, 0, 0, 1, 0, 69167
-1925.24, 145654, -280.723, 4.16263, -1143.52, 0.0713548, 0.305136, 0.958125, 0.351078, 0.648177, 0.0001, 182, 246, 45.5144, 0.173933, 1.57811, 1, 0, 0, 69167
-1925.24, 145654, -280.723, 4.16263, -1143.52, 0.0713548, 0.305136, 0.958125, 0.351078, 0.648177, 3, 182, 246, 45.5144, 0.173933, 1.4169, 1, 0, 0, 69167
-10276.5, 240643, -162.517, 1.28161, -985.463, 0.474008, 0.410177, 1.03299, 0.34851, 0.655882, 0.0001, 45.5, 246, 33.8733, 0.151385, 0, 0, 1, 0, 69168
-10276.5, 240643, -162.517, 1.28161, -985.463, 0.474008, 0.410177, 1.03299, 0.34851, 0.655882, 3, 45.5, 246, 33.8733, 0.151385, 0, 0, 1, 0, 69168
-8804.05, 266118, -183.465, 1.38531, -1072.23, 0.520821, 0.387246, 0.993198, 0.349787, 0.651995, 3, 91, 246, 33.8733, 0.151385, 0, 0, 1, 0, 69168
732.586, 396817, -399.788, 3.16468, -928.231, 0.193105, 0.42688, 0.9175, 0.352806, 0.64323, 3, 455, 246, 36.3828, 0.16009, 0, 0, 0, 0, 69169
-8720.6, 60389.5, -51.0244, 1.18354, -820.385, 0.0179754, 0.353463, 1.03299, 0.34851, 0.655882, 3, 45.5, 246, 26.0382, 0.152728, 0, 0, 1, 0, 69170
-5768.35, 30755.5, -90.1959, 3.6379, -1066.51, 0.0591808, 0.183354, 1.03299, 0.34851, 0.655882, 0.0001, 45.5, 246, 37.7274, 0.0977138, 0, 0, 1, 0, 69172
-5768.35, 30755.5, -90.1959, 3.6379, -1066.51, 0.0591808, 0.183354, 1.03299, 0.34851, 0.655882, 3, 45.5, 246, 37.7274, 0.0977138, 0, 0, 1, 0, 69172
-642.669, 109507, -293.547, 5.20484, -1249.92, 0.356944, 0.344255, 0.9175, 0.352806, 0.64323, 0.0001, 455, 246, 37.7274, 0.0977138, 1.81001, 1, 1, 1, 69172
-642.669, 109507, -293.547, 5.20484, -1249.92, 0.356944, 0.344255, 0.9175, 0.352806, 0.64323, 3, 455, 246, 37.7274, 0.0977138, 1.80953, 1, 1, 1, 69172
-10038.5, 290191, -244.9, 1.06323, -935.468, 0.0579806, 0.519238, 1.03299, 0.34851, 0.655882, 0.0001, 45.5, 246, 40.5877, 0.210728, 0, 0, 0, 0, 69177
-10038.5, 290191, -244.9, 1.06323, -935.468, 0.0579806, 0.519238, 1.03299, 0.34851, 0.655882, 3, 45.5, 246, 40.5877, 0.210728, 0, 0, 0, 0, 69177
-9412.74, 181521, -276.423, 2.90742, -649.36, 0.366061, 0.38839, 1.03299, 0.34851, 0.655882, 0.0001, 45.5, 246, 47.0331, 0.219854, 1.09177, 1, 0, 0, 69181
-6334.99, 194745, -319.059, 3.2221, -716.214, 0.432263, 0.398313, 0.993198, 0.349787, 0.651995, 0.0001, 91, 246, 47.0331, 0.219854, 1.12572, 1, 1, 0, 69181
-2376.16, 211732, -371.556, 3.60195, -803.954, 0.518747, 0.425657, 0.958125, 0.351078, 0.648177, 0.0001, 182, 246, 47.0331, 0.219854, 1.79638, 1, 0, 0, 69181
-2376.16, 211732, -371.556, 3.60195, -803.954, 0.518747, 0.425657, 0.958125, 0.351078, 0.648177, 3, 182, 246, 47.0331, 0.219854, 1.63257, 1, 0, 0, 69181
-10315.1, 116094, -72.106, 2.95103, -1082.09, 0.265593, 0.238104, 1.03299, 0.34851, 0.655882, 0.0001, 45.5, 246, 28.3398, 0.0980765, 0, 0, 0, 0, 69183
-10315.1, 116094, -72.106, 2.95103, -1082.09, 0.265593, 0.238104, 1.03299, 0.34851, 0.655882, 3, 45.5, 246, 28.3398, 0.0980765, 0, 0, 0, 0, 69183
1586.08, 233423, -379.862, 4.64714, -761.326, 0.418397, 0.389362, 0.9175, 0.352806, 0.64323, 0.0001, 455, 246, 36.3346, 0.157414, 2.24102, 1, 0, 0, 69185
1586.08, 233423, -379.862, 4.64714, -761.326, 0.418397, 0.389362, 0.9175, 0.352806, 0.64323, 3, 455, 246, 36.3346, 0.157414, 2.27011, 1, 0, 0, 69185
-3701.96, 85770, -225.294, 3.50082, -684.291, 0.278051, 0.235748, 1.03299, 0.34851, 0.655882, 0.0001, 45.5, 246, 53.2421, 0.179473, 1.56805, 1, 1, 0, 69188
-3701.96, 85770, -225.294, 3.50082, -684.291, 0.278051, 0.235748, 1.03299, 0.34851, 0.655882, 3, 45.5, 246, 53.2421, 0.179473, 1.45567, 1, 1, 0, 69188
-1753.26, 97096.9, -270.377, 3.89028, -743.755, 0.353516, 0.254056, 0.993198, 0.349787, 0.651995, 0.0001, 91, 246, 53.2421, 0.179473, 1.70232, 1, 1, 0, 69188
-1753.26, 97096.9, -270.377, 3.89028, -743.755, 0.353516, 0.254056, 0.993198, 0.349787, 0.651995, 3, 91, 246, 53.2421, 0.179473, 1.60385, 1, 1, 0, 69188
899.373, 111587, -327.161, 4.37128, -825.824, 0.453721, 0.295758, 0.958125, 0.351078, 0.648177, 0.0001, 182, 246, 53.2421, 0.179473, 2.36015, 1, 1, 0, 69188
899.373, 111587, -327.161, 4.37128, -825.824, 0.453721, 0.295758, 0.958125, 0.351078, 0.648177, 3, 182, 246, 53.2421, 0.179473, 2.23103, 1, 1, 0, 69188
-6427.43, 130680, -222.756, 2.97726, -1114.73, 0.264847, 0.371964, 1.03299, 0.34851, 0.655882, 0.0001, 45.5, 246, 52.8112, 0.239065, 1.11524, 1, 0, 0, 69189
-6427.43, 130680, -222.756, 2.97726, -1114.73, 0.264847, 0.371964, 1.03299, 0.34851, 0.655882, 3, 45.5, 246, 52.8112, 0.239065, 0, 0, 0, 0, 69189
-4062.13, 156906, -274.81, 3.28356, -1188.27, 0.321289, 0.38245, 0.993198, 0.349787, 0.651995, 0.0001, 91, 246, 52.8112, 0.239065, 1.21901, 1, 1, 0, 69189
-684.745, 188420, -338.994, 3.65007, -1285.75, 0.394014, 0.4103, 0.958125, 0.351078, 0.648177, 0.0001, 182, 246, 52.8112, 0.239065, 2.39652, 1, 0, 0, 69189
-684.745, 188420, -338.994, 3.65007, -1285.75, 0.394014, 0.4103, 0.958125, 0.351078, 0.648177, 3, 182, 246, 52.8112, 0.239065, 2.21906, 1, 0, 0, 69189
-10602.9, 241365, -85.3412, 1.65304, -834.393, 0.803343, 0.296706, 0.993198, 0.349787, 0.651995, 3, 91, 246, 20.5119, 0.0687239, 0, 0, 1, 0, 69190
-8818.7, 266887, -104.093, 1.8261, -961.4, 0.935368, 0.277877, 0.958125, 0.351078, 0.648177, 0.0001, 182, 246, 20.5119, 0.0687239, 0, 0, 1, 0, 69190
-10161.3, 227240, -267.423, 1.76864, -877.271, 0.799495, 0.511694, 1.03299, 0.34851, 0.655882, 0.0001, 45.5, 246, 45.076, 0.232923, 0, 0, 0, 0, 69191
-10161.3, 227240, -267.423, 1.76864, -877.271, 0.799495, 0.511694, 1.03299, 0.34851, 0.655882, 3, 45.5, 246, 45.076, 0.232923, 0, 0, 0, 0, 69191
-5810.63, 63534.1, -137.914, 3.20614, -868.917, 0.0262203, 0.256129, 0.993198, 0.349787, 0.651995, 0.0001, 91, 246, 38.8996, 0.128751, 0, 0, 1, 0, 69192
-2400.76, 98090.5, -239.487, 3.94343, -938.457, 0.158425, 0.317249, 0.9175, 0.352806, 0.64323, 0.0001, 455, 246, 38.8996, 0.128751, 1.14009, 1, 1, 0, 69192
-2400.76, 98090.5, -239.487, 3.94343, -938.457, 0.158425, 0.317249, 0.9175, 0.352806, 0.64323, 3, 455, 246, 38.8996, 0.128751, 1.124, 1, 1, 0, 69192
-6111.41, -58815.9, 32.3282, 3.61467, -1173.27, -0.0626606, 0.193506, 1.03299, 0.34851, 0.655882, 0.0001, 45.5, 246, 8.27599, 0.0753022, 1.01501, 1, 1, 0, 69194
-7035.95, -35195.7, -5.14439, 3.94582, -1165.95, 0.000160669, 0.21215, 0.993198, 0.349787, 0.651995, 0.0001, 91, 246, 8.27599, 0.0753022, 0, 0, 1, 1, 69194
-7035.95, -35195.7, -5.14439, 3.94582, -1165.95, 0.000160669, 0.21215, 0.993198, 0.349787, 0.651995, 3, 91, 246, 8.27599, 0.0753022, 0, 0, 1, 1, 69194
-10665.3, 220686, -122.412, 1.26996, -793.54, 0.561109, 0.371439, 1.03299, 0.34851, 0.655882, 0.0001, 45.5, 246, 27.4023, 0.11998, 0, 0, 1, 0, 69195
-10665.3, 220686, -122.412, 1.26996, -793.54, 0.561109, 0.371439, 1.03299, 0.34851, 0.655882, 3, 45.5, 246, 27.4023, 0.11998, 0, 0, 1, 0, 69195
-11882.9, 151798, -46.4325, 2.58493, -929.288, -0.0312022, 0.254038, 1.03299, 0.34851, 0.655882, 0.0001, 45.5, 246, 21.7441, 0.0685589, 0, 0, 1, 0, 69199
-11882.9, 151798, -46.4325, 2.58493, -929.288, -0.0312022, 0.254038, 1.03299, 0.34851, 0.655882, 3, 45.5, 246, 21.7441, 0.0685589, 0, 0, 1, 0, 69199
-14452.5, -164352, -32.4742, 0.285394, -1169.26, 0.00848467, 0.380315, 1.03299, 0.34851, 0.655882, 0.0001, 45.5, 246, -93.5046, 0.148831, 0, 0, 1, 0, 69200
-14452.5, -164352, -32.4742, 0.285394, -1169.26, 0.00848467, 0.380315, 1.03299, 0.34851, 0.655882, 3, 45.5, 246, -93.5046, 0.148831, 0, 0, 1, 0, 69200
-5247.18, 232998, -180.896, 1.83356, -1124.88, 0.597055, 0.312734, 0.9175, 0.352806, 0.64323, 0.0001, 455, 246, 29.5793, 0.141288, 0, 0, 0, 0, 69201
-5247.18, 232998, -180.896, 1.83356, -1124.88, 0.597055, 0.312734, 0.9175, 0.352806, 0.64323, 3, 455, 246, 29.5793, 0.141288, 0, 0, 0, 0, 69201
-13301.6, 156440, -21.2872, 3.26629, -1186.2, -0.0228811, 0.18114, 1.03299, 0.34851, 0.655882, 0.0001, 45.5, 246, 22.5734, 0.0560729, 0, 0, 0, 0, 69202
-13301.6, 156440, -21.2872, 3.26629, -1186.2, -0.0228811, 0.18114, 1.03299, 0.34851, 0.655882, 3, 45.5, 246, 22.5734, 0.0560729, 0, 0, 0, 0, 69202
-11044.7, 180504, -60.0665, 3.5469, -1190.18, 0.0280146, 0.187012, 0.993198, 0.349787, 0.651995, 0.0001, 91, 246, 22.5734, 0.0560729, 0, 0, 1, 0, 69202
-11044.7, 180504, -60.0665, 3.5469, -1190.18, 0.0280146, 0.187012, 0.993198, 0.349787, 0.651995, 3, 91, 246, 22.5734, 0.0560729, 0, 0, 1, 0, 69202
-7516.03, 158688, -264.103, 3.18386, -837.002, 0.198344, 0.35881, 1.03299, 0.34851, 0.655882, 0.0001, 45.5, 246, 51.284, 0.226462, 1.21428, 1, 0, 0, 69203
-7516.03, 158688, -264.103, 3.18386, -837.002, 0.198344, 0.35881, 1.03299, 0.34851, 0.655882, 3, 45.5, 246, 51.284, 0.226462, 1.09524, 1, 0, 0, 69203
-4505.24, 174885, -314.308, 3.51158, -893.292, 0.255539, 0.374667, 0.993198, 0.349787, 0.651995, 0.0001, 91, 246, 51.284, 0.226462, 1.44143, 1, 1, 0, 69203
-4505.24, 174885, -314.308, 3.51158, -893.292, 0.255539, 0.374667, 0.993198, 0.349787, 0.651995, 3, 91, 246, 51.284, 0.226462, 1.30667, 1, 1, 0, 69203
-531.514, 194809, -375.94, 3.9062, -969.663, 0.329189, 0.409798, 0.958125, 0.351078, 0.648177, 0.0001, 182, 246, 51.284, 0.226462, 2.88264, 1, 0, 0, 69203
-531.514, 194809, -375.94, 3.9062, -969.663, 0.329189, 0.409798, 0.958125, 0.351078, 0.648177, 3, 182, 246, 51.284, 0.226462, 2.68928, 1, 0, 0, 69203
-7598.3, -1170.42, -5.56099, 3.05236, -1124.54, 0.00695841, 0.23192, 1.03299, 0.34851, 0.655882, 0.0001, 45.5, 246, 18.4737, 0.0652574, 0, 0, 1, 0, 69207
-7598.3, -1170.42, -5.56099, 3.05236, -1124.54, 0.00695841, 0.23192, 1.03299, 0.34851, 0.655882, 3, 45.5, 246, 18.4737, 0.0652574, 0, 0, 1, 0, 69207
-7140.68, 95287.5, -164.702, 3.21682, -663.344, -0.0490554, 0.25087, 1.03299, 0.34851, 0.655882, 3, 45.5, 246, 41.284, 0.155903, 0, 0, 1, 0, 69210
-3502.88, 112261, -240.697, 3.81505, -701.034, 0.0590318, 0.284737, 0.958125, 0.351078, 0.648177, 0.0001, 182, 246, 41.284, 0.155903, 1.07888, 1, 1, 0, 69210
136.474, 126964, -308.978, 4.35076, -756.028, 0.15783, 0.348525, 0.9175, 0.352806, 0.64323, 0.0001, 455, 246, 41.284, 0.155903, 1.71388, 1, 1, 0, 69210
136.474, 126964, -308.978, 4.35076, -756.028, 0.15783, 0.348525, 0.9175, 0.352806, 0.64323, 3, 455, 246, 41.284, 0.155903, 1.68399, 1, 1, 0, 69210
-5576.11, 305691, -387.909, 4.28718, -774.306, 0.12895, 0.355722, 0.958125, 0.351078, 0.648177, 0.0001, 182, 246, 39.4727, 0.170098, 1.21929, 1, 0, 0, 69211
-5576.11, 305691, -387.909, 4.28718, -774.306, 0.12895, 0.355722, 0.958125, 0.351078, 0.648177, 3, 182, 246, 39.4727, 0.170098, 1.01946, 1, 0, 0, 69211
-8687.99, 171890, -265.521, 3.41611, -773.719, -0.0562795, 0.32511, 1.03299, 0.34851, 0.655882, 0.0001, 45.5, 246, 48.9007, 0.211699, 1.17799, 1, 0, 0, 69215
-8687.99, 171890, -265.521, 3.41611, -773.719, -0.0562795, 0.32511, 1.03299, 0.34851, 0.655882, 3, 45.5, 246, 48.9007, 0.211699, 1.05065, 1, 0, 0, 69215
-5354.4, 183463, -315.987, 3.72913, -797.433, -0.000181133, 0.345518, 0.993198, 0.349787, 0.651995, 0.0001, 91, 246, 48.9007, 0.211699, 1.33465, 1, 1, 0, 69215
-5354.4, 183463, -315.987, 3.72913, -797.433, -0.000181133, 0.345518, 0.993198, 0.349787, 0.651995, 3, 91, 246, 48.9007, 0.211699, 1.20506, 1, 1, 0, 69215
-1123.84, 197352, -376.54, 4.10425, -837.254, 0.0672224, 0.385698, 0.958125, 0.351078, 0.648177, 0.0001, 182, 246, 48.9007, 0.211699, 2.49605, 1, 0, 0, 69215
-1123.84, 197352, -376.54, 4.10425, -837.254, 0.0672224, 0.385698, 0.958125, 0.351078, 0.648177, 3, 182, 246, 48.9007, 0.211699, 2.32145, 1, 0, 0, 69215
-7981.18, 85099.2, -112.979, 1.8704, -1019.62, 0.307954, 0.371223, 1.03299, 0.34851, 0.655882, 0.0001, 45.5, 246, 39.8836, 0.211522, 0, 0, 1, 0, 69218
-7981.18, 85099.2, -112.979, 1.8704, -1019.62, 0.307954, 0.371223, 1.03299, 0.34851, 0.655882, 3, 45.5, 246, 39.8836, 0.211522, 0, 0, 1, 0, 69218
-11654.7, 126101, -13.7866, 2.6926, -834.531, -0.00993507, 0.234728, 1.03299, 0.34851, 0.655882, 0.0001, 45.5, 246, 15.8867, 0.0421078, 0, 0, 1, 0, 69221
-11654.7, 126101, -13.7866, 2.6926, -834.531, -0.00993507, 0.234728, 1.03299, 0.34851, 0.655882, 3, 45.5, 246, 15.8867, 0.0421078, 0, 0, 1, 0, 69221
-10681, 182425, -200.238, 3.53668, -1060.5, -0.0362265, 0.258065, 1.03299, 0.34851, 0.655882, 0.0001, 45.5, 246, 42.6759, 0.167359, 0, 0, 0, 0, 69223
-10681, 182425, -200.238, 3.53668, -1060.5, -0.0362265, 0.258065, 1.03299, 0.34851, 0.655882, 3, 45.5, 246, 42.6759, 0.167359, 0, 0, 0, 0, 69223
-7326.74, 202764, -255.334, 3.86711, -1081.47, 0.0238666, 0.278066, 0.993198, 0.349787, 0.651995, 3, 91, 246, 42.6759, 0.167359, 0, 0, 1, 0, 69223
-2905.4, 225776, -321.897, 4.26571, -1122.57, 0.0968887, 0.318994, 0.958125, 0.351078, 0.648177, 0.0001, 182, 246, 42.6759, 0.167359, 1.37148, 1, 0, 0, 69223
-2905.4, 225776, -321.897, 4.26571, -1122.57, 0.0968887, 0.318994, 0.958125, 0.351078, 0.648177, 3, 182, 246, 42.6759, 0.167359, 1.15156, 1, 0, 0, 69223
-12789.3, 209480, -174.66, 3.5682, -1162.97, -0.0467697, 0.230865, 1.03299, 0.34851, 0.655882, 0.0001, 45.5, 246, 39.4284, 0.14394, 0, 0, 0, 0, 69224
-12789.3, 209480, -174.66, 3.5682, -1162.97, -0.0467697, 0.230865, 1.03299, 0.34851, 0.655882, 3, 45.5, 246, 39.4284, 0.14394, 0, 0, 0, 0, 69224
-9405.9, 319522, -235.963, 0.400137, -620.171, -0.000721227, 0.512982, 1.03299, 0.34851, 0.655882, 0.0001, 45.5, 246, 33.5807, 0.196229, 0, 0, 1, 0, 69226
-10742, 97198, -16.4706, 3.07384, -1095.76, -0.00140076, 0.208436, 1.03299, 0.34851, 0.655882, 0.0001, 45.5, 246, 20.137, 0.0584332, 0, 0, 0, 0, 69230
-10742, 97198, -16.4706, 3.07384, -1095.76, -0.00140076, 0.208436, 1.03299, 0.34851, 0.655882, 3, 45.5, 246, 20.137, 0.0584332, 0, 0, 0, 0, 69230
-9455.56, 117938, -49.9218, 3.3315, -1102.1, 0.0436538, 0.209822, 0.993198, 0.349787, 0.651995, 0.0001, 91, 246, 20.137, 0.0584332, 0, 0, 1, 0, 69230
-9455.56, 117938, -49.9218, 3.3315, -1102.1, 0.0436538, 0.209822, 0.993198, 0.349787, 0.651995, 3, 91, 246, 20.137, 0.0584332, 0, 0, 1, 0, 69230
-3596.78, 257203, -365.256, 3.60131, -907.041, 0.223435, 0.411846, 0.958125, 0.351078, 0.648177, 0.0001, 182, 246, 44.16, 0.200305, 1.25747, 1, 0, 0, 69233
-10723.8, 295410, -243.097, 1.49057, -1096.89, 0.0182091, 0.492373, 1.03299, 0.34851, 0.655882, 0.0001, 45.5, 246, 42.1262, 0.19795, 0, 0, 0, 0, 69234
-10723.8, 295410, -243.097, 1.49057, -1096.89, 0.0182091, 0.492373, 1.03299, 0.34851, 0.655882, 3, 45.5, 246, 42.1262, 0.19795, 0, 0, 0, 0, 69234
-13749, 173827, -34.6355, 3.10787, -969.534, -0.015645, 0.195753, 1.03299, 0.34851, 0.655882, 0.0001, 45.5, 246, 21.0967, 0.0555862, 0, 0, 0, 0, 69235
-13749, 173827, -34.6355, 3.10787, -969.534, -0.015645, 0.195753, 1.03299, 0.34851, 0.655882, 3, 45.5, 246, 21.0967, 0.0555862, 0, 0, 0, 0, 69235
-9721.39, 124338, -75.9363, 1.877, -1064.05, 0.161976, 0.328035, 1.03299, 0.34851, 0.655882, 0.0001, 45.5, 246, 28.0764, 0.116948, 0, 0, 1, 0, 69241
-9721.39, 124338, -75.9363, 1.877, -1064.05, 0.161976, 0.328035, 1.03299, 0.34851, 0.655882, 3, 45.5, 246, 28.0764, 0.116948, 0, 0, 1, 0, 69241
-9913.81, 161008, -164.282, 2.76795, -1021.12, 0.152134, 0.319548, 1.03299, 0.34851, 0.655882, 0.0001, 45.5, 246, 39.2698, 0.166102, 0, 0, 0, 0, 69243
-9913.81, 161008, -164.282, 2.76795, -1021.12, 0.152134, 0.319548, 1.03299, 0.34851, 0.655882, 3, 45.5, 246, 39.2698, 0.166102, 0, 0, 0, 0, 69243
-8461.78, 82700.2, -58.8395, 2.7128, -1163.05, 0.0727105, 0.260538, 0.993198, 0.349787, 0.651995, 0.0001, 91, 246, 22.4476, 0.0823508, 0, 0, 1, 0, 69245
-8461.78, 82700.2, -58.8395, 2.7128, -1163.05, 0.0727105, 0.260538, 0.993198, 0.349787, 0.651995, 3, 91, 246, 22.4476, 0.0823508, 0, 0, 1, 0, 69245
-5880.85, -15289.3, -50.4406, 3.46599, -821.222, 0.349269, 0.197444, 1.03299, 0.34851, 0.655882, 0.0001, 45.5, 246, 31.8738, 0.0267775, 0, 0, 1, 0, 69247
-9167.84, 179854, -282.195, 2.64453, -561.972, 0.158886, 0.439372, 1.03299, 0.34851, 0.655882, 0.0001, 45.5, 246, 48.2637, 0.241773, 1.10339, 1, 1, 0, 69250
-6371.17, 188700, -319.682, 2.88558, -600.143, 0.197396, 0.445589, 0.993198, 0.349787, 0.651995, 0.0001, 91, 246, 48.2637, 0.241773, 1.08279, 1, 1, 0, 69250
-2906.02, 199582, -363.851, 3.16532, -649.066, 0.24521, 0.465476, 0.958125, 0.351078, 0.648177, 0.0001, 182, 246, 48.2637, 0.241773, 1.5168, 1, 1, 0, 69250
-2906.02, 199582, -363.851, 3.16532, -649.066, 0.24521, 0.465476, 0.958125, 0.351078, 0.648177, 3, 182, 246, 48.2637, 0.241773, 1.33011, 1, 1, 0, 69250
-8411.65, 138829, -226.362, 3.30287, -650.993, 0.762844, 0.257413, 1.03299, 0.34851, 0.655882, 0.0001, 45.5, 246, 42.5477, 0.167798, 1.15368, 1, 0, 0, 69253
-5785.43, 154733, -269.653, 3.76469, -768.101, 0.929668, 0.271736, 0.993198, 0.349787, 0.651995, 0.0001, 91, 246, 42.5477, 0.167798, 1.11926, 1, 1, 0, 69253
-2153.7, 177800, -328.109, 4.37247, -940.36, 1.17484, 0.312057, 0.958125, 0.351078, 0.648177, 0.0001, 182, 246, 42.5477, 0.167798, 1.63836, 1, 0, 0, 69253
-2153.7, 177800, -328.109, 4.37247, -940.36, 1.17484, 0.312057, 0.958125, 0.351078, 0.648177, 3, 182, 246, 42.5477, 0.167798, 1.48331, 1, 0, 0, 69253
-5830.91, 122155, -155.333, 4.0084, -1301.76, 0.989399, 0.247303, 0.958125, 0.351078, 0.648177, 3, 182, 246, 28.3543, 0.0939052, 0, 0, 1, 0, 69254
-1526.83, 186311, -258.968, 4.96127, -1698.17, 1.39403, 0.327656, 0.9175, 0.352806, 0.64323, 3, 455, 246, 28.3543, 0.0939052, 1.00404, 1, 0, 0, 69254
-5897.04, 98207.6, -199.924, 2.55026, -664.467, 0.48112, 0.354164, 1.03299, 0.34851, 0.655882, 0.0001, 45.5, 246, 50.064, 0.222551, 1.22211, 1, 1, 0, 69257
-4403.1, 110205, -232.393, 2.82222, -736.854, 0.554959, 0.351553, 0.993198, 0.349787, 0.651995, 0.0001, 91, 246, 50.064, 0.222551, 1.21691, 1, 1, 0, 69257
-2393.81, 125609, -272.407, 3.14799, -830.969, 0.651136, 0.363027, 0.958125, 0.351078, 0.648177, 0.0001, 182, 246, 50.064, 0.222551, 1.49643, 1, 1, 0, 69257
-2393.81, 125609, -272.407, 3.14799, -830.969, 0.651136, 0.363027, 0.958125, 0.351078, 0.648177, 3, 182, 246, 50.064, 0.222551, 1.33411, 1, 1, 0, 69257
-10509.5, 167056, -60.8661, 1.60629, -1170.46, 0.0198368, 0.328948, 1.03299, 0.34851, 0.655882, 0.0001, 45.5, 246, 25.3833, 0.0871662, 0, 0, 1, 0, 69260
-10509.5, 167056, -60.8661, 1.60629, -1170.46, 0.0198368, 0.328948, 1.03299, 0.34851, 0.655882, 3, 45.5, 246, 25.3833, 0.0871662, 0, 0, 1, 0, 69260
-9425.47, 191304, -81.8192, 1.69958, -1178.34, 0.031934, 0.304198, 0.993198, 0.349787, 0.651995, 0.0001, 91, 246, 25.3833, 0.0871662, 0, 0, 1, 0, 69260
-6178.94, 122001, -245.581, 3.37027, -672.093, 0.612925, 0.269295, 1.03299, 0.34851, 0.655882, 0.0001, 45.5, 246, 48.7405, 0.188725, 1.4107, 1, 0, 0, 69262
-6178.94, 122001, -245.581, 3.37027, -672.093, 0.612925, 0.269295, 1.03299, 0.34851, 0.655882, 3, 45.5, 246, 48.7405, 0.188725, 1.31744, 1, 0, 0, 69262
-3642.33, 136664, -291.845, 3.813, -774.268, 0.741283, 0.286296, 0.993198, 0.349787, 0.651995, 0.0001, 91, 246, 48.7405, 0.188725, 1.54914, 1, 1, 0, 69262
-3642.33, 136664, -291.845, 3.813, -774.268, 0.741283, 0.286296, 0.993198, 0.349787, 0.651995, 3, 91, 246, 48.7405, 0.188725, 1.43597, 1, 1, 0, 69262
-156.484, 157206, -352.84, 4.38242, -919.193, 0.923011, 0.328713, 0.958125, 0.351078, 0.648177, 0.0001, 182, 246, 48.7405, 0.188725, 2.44003, 1, 0, 0, 69262
-156.484, 157206, -352.84, 4.38242, -919.193, 0.923011, 0.328713, 0.958125, 0.351078, 0.648177, 3, 182, 246, 48.7405, 0.188725, 2.29186, 1, 0, 0, 69262
-8478.3, 41438.4, -28.8809, 3.05045, -867.999, -0.0339695, 0.22124, 1.03299, 0.34851, 0.655882, 0.0001, 45.5, 246, 20.3593, 0.0651101, 1.16896, 1, 1, 0, 69264
-8478.3, 41438.4, -28.8809, 3.05045, -867.999, -0.0339695, 0.22124, 1.03299, 0.34851, 0.655882, 3, 45.5, 246, 20.3593, 0.0651101, 1.09521, 1, 1, 0, 69264
-3881.05, 341795, -496.927, 3.34631, -801.335, 0.375496, 0.58856, 0.958125, 0.351078, 0.648177, 0.0001, 182, 246, 47.5731, 0.239042, 2.3827, 1, 0, 0, 69270
-3881.05, 341795, -496.927, 3.34631, -801.335, 0.375496, 0.58856, 0.958125, 0.351078, 0.648177, 3, 182, 246, 47.5731, 0.239042, 2.21575, 1, 0, 0, 69270
-11108.4, 244525, -224.829, 1.40206, -601.587, 0.35332, 0.470006, 1.03299, 0.34851, 0.655882, 0.0001, 45.5, 246, 35.8761, 0.198399, 0, 0, 1, 0, 69271
-11108.4, 244525, -224.829, 1.40206, -601.587, 0.35332, 0.470006, 1.03299, 0.34851, 0.655882, 3, 45.5, 246, 35.8761, 0.198399, 0, 0, 1, 0, 69271
-10814.8, 161629, -70.592, 3.85483, -975.865, 0.521597, 0.16127, 0.993198, 0.349787, 0.651995, 0.0001, 91, 246, 20.8084, 0.0550328, 0, 0, 1, 0, 69273
-10814.8, 161629, -70.592, 3.85483, -975.865, 0.521597, 0.16127, 0.993198, 0.349787, 0.651995, 3, 91, 246, 20.8084, 0.0550328, 0, 0, 1, 0, 69273
-10416.2, 280039, -269.579, 1.29438, -908.377, -0.00496773, 0.554045, 1.03299, 0.34851, 0.655882, 0.0001, 45.5, 246, 43.887, 0.236372, 0, 0, 0, 0, 69277
-10416.2, 280039, -269.579, 1.29438, -908.377, -0.00496773, 0.554045, 1.03299, 0.34851, 0.655882, 3, 45.5, 246, 43.887, 0.236372, 0, 0, 0, 0, 69277
-9828.85, 127829, -130.534, 2.72137, -643.853, 0.174751, 0.2799, 1.03299, 0.34851, 0.655882, 0.0001, 45.5, 246, 31.75, 0.133174, 0, 0, 1, 0, 69278
-9942.22, 155128, -142.318, 1.81556, -618.656, 0.309971, 0.368711, 1.03299, 0.34851, 0.655882, 0.0001, 45.5, 246, 32.1582, 0.163134, 0, 0, 1, 0, 69279
-9942.22, 155128, -142.318, 1.81556, -618.656, 0.309971, 0.368711, 1.03299, 0.34851, 0.655882, 3, 45.5, 246, 32.1582, 0.163134, 0, 0, 1, 0, 69279
-8667.19, 165127, -162.072, 1.96189, -659.085, 0.342393, 0.35067, 0.993198, 0.349787, 0.651995, 0.0001, 91, 246, 32.1582, 0.163134, 0, 0, 1, 0, 69279
-11337.5, 232441, -25.0077, 1.11331, -908.946, 0.0998909, 0.326391, 1.03299, 0.34851, 0.655882, 0.0001, 45.5, 246, 17.2975, 0.0347561, 0, 0, 1, 0, 69282
-10406.4, 248307, -35.5919, 1.17209, -924.857, 0.107317, 0.29499, 0.993198, 0.349787, 0.651995, 0.0001, 91, 246, 17.2975, 0.0347561, 0, 0, 1, 0, 69282
-1700.2, 151552, -289.785, 2.77902, -696.883, 0.0826837, 0.407374, 0.9175, 0.352806, 0.64323, 0.0001, 455, 246, 45.2844, 0.232514, 1.10921, 1, 0, 0, 69284
-1700.2, 151552, -289.785, 2.77902, -696.883, 0.0826837, 0.407374, 0.9175, 0.352806, 0.64323, 3, 455, 246, 45.2844, 0.232514, 1.13762, 1, 0, 0, 69284
-11543.8, 114598, -6.05569, 2.93125, -868.945, -0.0408136, 0.21288, 1.03299, 0.34851, 0.655882, 0.0001, 45.5, 246, 15.3857, 0.0389291, 0, 0, 1, 0, 69286
-11543.8, 114598, -6.05569, 2.93125, -868.945, -0.0408136, 0.21288, 1.03299, 0.34851, 0.655882, 3, 45.5, 246, 15.3857, 0.0389291, 0, 0, 1, 0, 69286
-8262.93, 3699.4, -5.57575, 2.09554, -807.083, 0.214344, 0.295174, 1.03299, 0.34851, 0.655882, 3, 45.5, 246, 13.5644, 0.0531911, 0, 0, 1, 1, 69287
-5031.77, 335147, -394.742, 4.55765, -1104.64, 1.15086, 0.339963, 0.958125, 0.351078, 0.648177, 0.0001, 182, 246, 38.565, 0.154832, 1.11265, 1, 0, 0, 69292
-7779.99, -14872.1, 9.72125, 2.56824, -954.265, 0.646627, 0.264077, 1.03299, 0.34851, 0.655882, 3, 45.5, 246, 11.233, 0.0547919, 0, 0, 1, 0, 69293
-2864.47, 84152.1, -236.782, 3.12353, -691.795, 0.653099, 0.287698, 1.03299, 0.34851, 0.655882, 0.0001, 45.5, 246, 57.5297, 0.204961, 1.66799, 1, 1, 0, 69294
-2864.47, 84152.1, -236.782, 3.12353, -691.795, 0.653099, 0.287698, 1.03299, 0.34851, 0.655882, 3, 45.5, 246, 57.5297, 0.204961, 1.55886, 1, 1, 0, 69294
-1006.5, 98320.6, -279.995, 3.52634, -798.29, 0.782312, 0.297627, 0.993198, 0.349787, 0.651995, 0.0001, 91, 246, 57.5297, 0.204961, 1.86542, 1, 1, 1, 69294
-1006.5, 98320.6, -279.995, 3.52634, -798.29, 0.782312, 0.297627, 0.993198, 0.349787, 0.651995, 3, 91, 246, 57.5297, 0.204961, 1.7586, 1, 1, 1, 69294
1614.19, 118215, -336.578, 4.04021, -948.311, 0.964269, 0.329652, 0.958125, 0.351078, 0.648177, 0.0001, 182, 246, 57.5297, 0.204961, 2.92619, 1, 1, 1, 69294
1614.19, 118215, -336.578, 4.04021, -948.311, 0.964269, 0.329652, 0.958125, 0.351078, 0.648177, 3, 182, 246, 57.5297, 0.204961, 2.77193, 1, 1, 1, 69294
-8668.11, 59670.6, -52.6085, 2.86378, -802.814, -0.0260028, 0.241481, 1.03299, 0.34851, 0.655882, 0.0001, 45.5, 246, 24.1455, 0.0828401, 0, 0, 1, 0, 69296
-6361.66, 269368, -390.79, 3.27986, -1074.92, 0.269418, 0.502779, 0.993198, 0.349787, 0.651995, 0.0001, 91, 246, 53.0787, 0.24686, 1.09848, 1, 1, 0, 69298
-5070.84, 330775, -432.395, 4.33179, -864.772, 0.708363, 0.395117, 0.958125, 0.351078, 0.648177, 0.0001, 182, 246, 40.4509, 0.178035, 1.76787, 1, 0, 0, 69301
-5070.84, 330775, -432.395, 4.33179, -864.772, 0.708363, 0.395117, 0.958125, 0.351078, 0.648177, 3, 182, 246, 40.4509, 0.178035, 1.63378, 1, 0, 0, 69301
-11264.8, 122064, -25.9748, 2.67261, -923.577, -0.0286978, 0.2424, 1.03299, 0.34851, 0.655882, 0.0001, 45.5, 246, 18.9321, 0.0561658, 0, 0, 1, 0, 69302
-11264.8, 122064, -25.9748, 2.67261, -923.577, -0.0286978, 0.2424, 1.03299, 0.34851, 0.655882, 3, 45.5, 246, 18.9321, 0.0561658, 0, 0, 1, 0, 69302
-16763.8, 312575, -417.701, 3.23694, -564.185, -0.0494055, 0.518519, 1.03299, 0.34851, 0.655882, 0.0001, 45.5, 246, 49.2958, 0.246532, 1.07357, 1, 0, 0, 69303
-16763.8, 312575, -417.701, 3.23694, -564.185, -0.0494055, 0.518519, 1.03299, 0.34851, 0.655882, 3, 45.5, 246, 49.2958, 0.246532, 1.01321, 1, 0, 0, 69303
-10754.5, 320783, -475.691, 3.54144, -601.709, 0.00105457, 0.549454, 0.993198, 0.349787, 0.651995, 0.0001, 91, 246, 49.2958, 0.246532, 1.4598, 1, 1, 0, 69303
-10754.5, 320783, -475.691, 3.54144, -601.709, 0.00105457, 0.549454, 0.993198, 0.349787, 0.651995, 3, 91, 246, 49.2958, 0.246532, 1.38636, 1, 1, 0, 69303
-10220.5, 285691, -209.139, 1.25784, -1096.78, 0.0845991, 0.460799, 1.03299, 0.34851, 0.655882, 0.0001, 45.5, 246, 38.8271, 0.177339, 0, 0, 0, 0, 69304
-10220.5, 285691, -209.139, 1.25784, -1096.78, 0.0845991, 0.460799, 1.03299, 0.34851, 0.655882, 3, 45.5, 246, 38.8271, 0.177339, 0, 0, 0, 0, 69304
-6108.99, 334371, -259.586, 1.40916, -1146.31, 0.102964, 0.428106, 0.958125, 0.351078, 0.648177, 3, 182, 246, 38.8271, 0.177339, 0, 0, 0, 0, 69304
-11178.4, 294961, -63.146, 0.941892, -1079.22, 0.544348, 0.341327, 1.03299, 0.34851, 0.655882, 0.0001, 45.5, 246, 23.8065, 0.0536968, 0, 0, 1, 0, 69314
-11178.4, 294961, -63.146, 0.941892, -1079.22, 0.544348, 0.341327, 1.03299, 0.34851, 0.655882, 3, 45.5, 246, 23.8065, 0.0536968, 0, 0, 1, 0, 69314
-10084.9, 326624, -75.8544, 1.0138, -1183.06, 0.60017, 0.309402, 0.993198, 0.349787, 0.651995, 0.0001, 91, 246, 23.8065, 0.0536968, 0, 0, 1, 0, 69314
-8650.12, 365305, -90.8673, 1.09333, -1309.96, 0.668436, 0.282751, 0.958125, 0.351078, 0.648177, 0.0001, 182, 246, 23.8065, 0.0536968, 0, 0, 1, 0, 69314
-3899.47, 299182, -363.079, 4.06344, -1147.16, 0.514393, 0.358195, 0.958125, 0.351078, 0.648177, 0.0001, 182, 246, 41.7029, 0.169103, 1.02572, 1, 0, 0, 69319
-9943.66, 142859, -50.8636, 1.41331, -1181.91, 0.047757, 0.33438, 1.03299, 0.34851, 0.655882, 0.0001, 45.5, 246, 23.9423, 0.0849814, 0, 0, 1, 0, 69320
-9943.66, 142859, -50.8636, 1.41331, -1181.91, 0.047757, 0.33438, 1.03299, 0.34851, 0.655882, 3, 45.5, 246, 23.9423, 0.0849814, 0, 0, 1, 0, 69320
-6204.36, 31372.8, -95.7808, 2.26917, -663.832, 0.105051, 0.300551, 1.03299, 0.34851, 0.655882, 0.0001, 45.5, 246, 44.9151, 0.124208, 0, 0, 1, 1, 69321
-7164.9, 38344.3, -71.1478, 3.4363, -763.166, 0.452344, 0.178317, 1.03299, 0.34851, 0.655882, 0.0001, 45.5, 246, 28.5674, 0.0732228, 1.0517, 1, 1, 0, 69323
-8764.88, 88551.7, -61.4602, 0.458326, -1071.54, 0.287202, 0.383384, 1.03299, 0.34851, 0.655882, 0.0001, 45.5, 246, 27.0032, 0.183518, 0, 0, 1, 0, 69324
-8764.88, 88551.7, -61.4602, 0.458326, -1071.54, 0.287202, 0.383384, 1.03299, 0.34851, 0.655882, 3, 45.5, 246, 27.0032, 0.183518, 0, 0, 1, 0, 69324
-9147.2, 127762, -132.601, 2.61522, -984.498, -0.0318259, 0.314107, 1.03299, 0.34851, 0.655882, 0.0001, 45.5, 246, 36.942, 0.159131, 0, 0, 1, 0, 69325
-9147.2, 127762, -132.601, 2.61522, -984.498, -0.0318259, 0.314107, 1.03299, 0.34851, 0.655882, 3, 45.5, 246, 36.942, 0.159131, 0, 0, 1, 0, 69325
-5949.81, -7942.53, -52.2064, 3.52976, -778.597, -0.0594933, 0.188688, 1.03299, 0.34851, 0.655882, 0.0001, 45.5, 246, 30.1261, 0.0106504, 0, 0, 1, 1, 69328
-5949.81, -7942.53, -52.2064, 3.52976, -778.597, -0.0594933, 0.188688, 1.03299, 0.34851, 0.655882, 3, 45.5, 246, 30.1261, 0.0106504, 0, 0, 1, 1, 69328
-7329.71, 35081.9, -64.3683, 3.39044, -681.602, 0.273552, 0.183668, 1.03299, 0.34851, 0.655882, 0.0001, 45.5, 246, 26.389, 0.0655318, 1.06735, 1, 1, 0, 69329
-5990.19, 54692.3, -129.221, 4.19538, -780.797, 0.437529, 0.22734, 0.958125, 0.351078, 0.648177, 3, 182, 246, 26.389, 0.0655318, 0, 0, 1, 0, 69329
-8956.85, 248457, -102.917, 2.7436, -982.547, 0.450139, 0.248855, 0.958125, 0.351078, 0.648177, 3, 182, 246, 20.8951, 0.059249, 0, 0, 1, 0, 69332
-3279.35, 139155, -191.054, 5.26602, -834.117, 0.528049, 0.297332, 0.9175, 0.352806, 0.64323, 0.0001, 455, 246, 21.1229, 0.0643461, 0, 0, 1, 0, 69337
-3279.35, 139155, -191.054, 5.26602, -834.117, 0.528049, 0.297332, 0.9175, 0.352806, 0.64323, 3, 455, 246, 21.1229, 0.0643461, 0, 0, 1, 0, 69337
-12548.9, 221994, -302.624, 3.52726, -570.495, -0.0338923, 0.323495, 1.03299, 0.34851, 0.655882, 0.0001, 45.5, 246, 44.5621, 0.201374, 1.07888, 1, 0, 0, 69344
-8238.83, 229146, -351.414, 3.86368, -601.822, 0.0259846, 0.347821, 0.993198, 0.349787, 0.651995, 0.0001, 91, 246, 44.5621, 0.201374, 1.27954, 1, 1, 0, 69344
-8238.83, 229146, -351.414, 3.86368, -601.822, 0.0259846, 0.347821, 0.993198, 0.349787, 0.651995, 3, 91, 246, 44.5621, 0.201374, 1.16093, 1, 1, 0, 69344
-2947.49, 238873, -410.507, 4.27055, -648.579, 0.0990664, 0.39359, 0.958125, 0.351078, 0.648177, 0.0001, 182, 246, 44.5621, 0.201374, 2.14413, 1, 0, 0, 69344
-2947.49, 238873, -410.507, 4.27055, -648.579, 0.0990664, 0.39359, 0.958125, 0.351078, 0.648177, 3, 182, 246, 44.5621, 0.201374, 1.98647, 1, 0, 0, 69344
-3216.42, 314648, -407.538, 4.28308, -1077.62, 0.0973477, 0.38225, 0.958125, 0.351078, 0.648177, 0.0001, 182, 246, 44.7503, 0.182185, 2.4794, 1, 0, 0, 69350
-3216.42, 314648, -407.538, 4.28308, -1077.62, 0.0973477, 0.38225, 0.958125, 0.351078, 0.648177, 3, 182, 246, 44.7503, 0.182185, 2.34235, 1, 0, 0, 69350
-5725.73, 62386, -137.241, 4.08207, -1029.43, 0.0675386, 0.240902, 0.958125, 0.351078, 0.648177, 3, 182, 246, 28.8878, 0.0819115, 0, 0, 1, 0, 69351
-8589.23, 88897.4, -93.9828, 3.43541, -1137.36, -0.0157567, 0.208519, 1.03299, 0.34851, 0.655882, 0.0001, 45.5, 246, 33.8172, 0.118613, 0, 0, 0, 0, 69358
-8589.23, 88897.4, -93.9828, 3.43541, -1137.36, -0.0157567, 0.208519, 1.03299, 0.34851, 0.655882, 3, 45.5, 246, 33.8172, 0.118613, 0, 0, 0, 0, 69358
-7073.52, 111634, -140.033, 3.74763, -1150.51, 0.0408266, 0.221792, 0.993198, 0.349787, 0.651995, 0.0001, 91, 246, 33.8172, 0.118613, 0, 0, 1, 0, 69358
-7073.52, 111634, -140.033, 3.74763, -1150.51, 0.0408266, 0.221792, 0.993198, 0.349787, 0.651995, 3, 91, 246, 33.8172, 0.118613, 0, 0, 1, 0, 69358
-263.748, 173265, -289.553, 4.75422, -1260.93, 0.229175, 0.333807, 0.9175, 0.352806, 0.64323, 0.0001, 455, 246, 33.8172, 0.118613, 1.58146, 1, 0, 0, 69358
-263.748, 173265, -289.553, 4.75422, -1260.93, 0.229175, 0.333807, 0.9175, 0.352806, 0.64323, 3, 455, 246, 33.8172, 0.118613, 1.60237, 1, 0, 0, 69358
-6421.79, 84111.5, -153.865, 3.36087, -897.46, 0.0285476, 0.238105, 1.03299, 0.34851, 0.655882, 0.0001, 45.5, 246, 43.3773, 0.156165, 1.01271, 1, 1, 0, 69361
-6421.79, 84111.5, -153.865, 3.36087, -897.46, 0.0285476, 0.238105, 1.03299, 0.34851, 0.655882, 3, 45.5, 246, 43.3773, 0.156165, 0, 0, 1, 0, 69361
-2715.76, 115840, -248.819, 4.04529, -961.358, 0.150647, 0.282597, 0.958125, 0.351078, 0.648177, 0.0001, 182, 246, 43.3773, 0.156165, 1.29982, 1, 1, 0, 69361
-2715.76, 115840, -248.819, 4.04529, -961.358, 0.150647, 0.282597, 0.958125, 0.351078, 0.648177, 3, 182, 246, 43.3773, 0.156165, 1.12814, 1, 1, 0, 69361
1505.37, 142893, -337.416, 4.67608, -1048.89, 0.269529, 0.360164, 0.9175, 0.352806, 0.64323, 0.0001, 455, 246, 43.3773, 0.156165, 3.62665, 1, 0, 0, 69361
1505.37, 142893, -337.416, 4.67608, -1048.89, 0.269529, 0.360164, 0.9175, 0.352806, 0.64323, 3, 455, 246, 43.3773, 0.156165, 3.63732, 1, 0, 0, 69361
-3876.8, 81351.7, -190.013, 3.98324, -1150.93, 0.166872, 0.227205, 0.993198, 0.349787, 0.651995, 0.0001, 91, 246, 45.3658, 0.144354, 1.11817, 1, 1, 0, 69362
-1770.22, 107504, -254.857, 4.43332, -1214.18, 0.251259, 0.27022, 0.958125, 0.351078, 0.648177, 0.0001, 182, 246, 45.3658, 0.144354, 1.57004, 1, 1, 0, 69362
-1770.22, 107504, -254.857, 4.43332, -1214.18, 0.251259, 0.27022, 0.958125, 0.351078, 0.648177, 3, 182, 246, 45.3658, 0.144354, 1.41992, 1, 1, 0, 69362
-3884.95, 84523.9, -218.073, 3.37216, -662.405, -0.0531745, 0.261191, 1.03299, 0.34851, 0.655882, 0.0001, 45.5, 246, 53.9511, 0.191175, 1.52427, 1, 1, 0, 69363
-3884.95, 84523.9, -218.073, 3.37216, -662.405, -0.0531745, 0.261191, 1.03299, 0.34851, 0.655882, 3, 45.5, 246, 53.9511, 0.191175, 1.39634, 1, 1, 0, 69363
-2089.87, 93121.7, -259.432, 3.67189, -681.688, 0.00133435, 0.275542, 0.993198, 0.349787, 0.651995, 0.0001, 91, 246, 53.9511, 0.191175, 1.64505, 1, 1, 0, 69363
-2089.87, 93121.7, -259.432, 3.67189, -681.688, 0.00133435, 0.275542, 0.993198, 0.349787, 0.651995, 3, 91, 246, 53.9511, 0.191175, 1.53334, 1, 1, 0, 69363
248.66, 103165, -308.774, 4.02889, -714.06, 0.0664934, 0.308611, 0.958125, 0.351078, 0.648177, 0.0001, 182, 246, 53.9511, 0.191175, 2.10583, 1, 1, 1, 69363
248.66, 103165, -308.774, 4.02889, -714.06, 0.0664934, 0.308611, 0.958125, 0.351078, 0.648177, 3, 182, 246, 53.9511, 0.191175, 1.97572, 1, 1, 1, 69363
-11338.9, 188355, -32.1798, 1.49962, -912.933, 0.0851507, 0.31524, 1.03299, 0.34851, 0.655882, 0.0001, 45.5, 246, 18.4277, 0.0493804, 0, 0, 1, 0, 69369
-11338.9, 188355, -32.1798, 1.49962, -912.933, 0.0851507, 0.31524, 1.03299, 0.34851, 0.655882, 3, 45.5, 246, 18.4277, 0.0493804, 0, 0, 1, 0, 69369
-10274.5, 203894, -46.7244, 1.58851, -927.754, 0.0969215, 0.287947, 0.993198, 0.349787, 0.651995, 0.0001, 91, 246, 18.4277, 0.0493804, 0, 0, 1, 0, 69369
-10703, 262075, -250.368, 1.62997, -945.125, 0.0608056, 0.505544, 1.03299, 0.34851, 0.655882, 3, 45.5, 246, 43.1298, 0.220159, 0, 0, 0, 0, 69370
-6524.45, 163759, -289.105, 3.30165, -1012.59, 0.300829, 0.387157, 1.03299, 0.34851, 0.655882, 0.0001, 45.5, 246, 56.2181, 0.248169, 1.29979, 1, 0, 0, 69371
-6524.45, 163759, -289.105, 3.30165, -1012.59, 0.300829, 0.387157, 1.03299, 0.34851, 0.655882, 3, 45.5, 246, 56.2181, 0.248169, 1.20087, 1, 0, 0, 69371
-3086.84, 187826, -349.788, 3.67445, -1097.62, 0.37188, 0.409571, 0.993198, 0.349787, 0.651995, 0.0001, 91, 246, 56.2181, 0.248169, 1.70605, 1, 1, 0, 69371
-3086.84, 187826, -349.788, 3.67445, -1097.62, 0.37188, 0.409571, 0.993198, 0.349787, 0.651995, 3, 91, 246, 56.2181, 0.248169, 1.60194, 1, 1, 0, 69371
-5481.09, 107702, -215.349, 3.15089, -888.11, 0.47555, 0.303874, 1.03299, 0.34851, 0.655882, 0.0001, 45.5, 246, 51.3307, 0.20765, 1.32095, 1, 1, 0, 69372
-5481.09, 107702, -215.349, 3.15089, -888.11, 0.47555, 0.303874, 1.03299, 0.34851, 0.655882, 3, 45.5, 246, 51.3307, 0.20765, 1.1435, 1, 1, 0, 69372
-3385.55, 126996, -262.816, 3.52326, -985.826, 0.566995, 0.315326, 0.993198, 0.349787, 0.651995, 0.0001, 91, 246, 51.3307, 0.20765, 1.44625, 1, 1, 0, 69372
-3385.55, 126996, -262.816, 3.52326, -985.826, 0.566995, 0.315326, 0.993198, 0.349787, 0.651995, 3, 91, 246, 51.3307, 0.20765, 1.30764, 1, 1, 0, 69372
-393.721, 152295, -323.747, 3.98554, -1118.55, 0.690678, 0.347637, 0.958125, 0.351078, 0.648177, 0.0001, 182, 246, 51.3307, 0.20765, 2.34861, 1, 0, 0, 69372
-393.721, 152295, -323.747, 3.98554, -1118.55, 0.690678, 0.347637, 0.958125, 0.351078, 0.648177, 3, 182, 246, 51.3307, 0.20765, 2.20364, 1, 0, 0, 69372
-6653.27, 80680.4, -142.884, 3.48607, -900.726, -0.0583356, 0.217009, 1.03299, 0.34851, 0.655882, 3, 45.5, 246, 41.3444, 0.143033, 0, 0, 1, 0, 69376
-5153.4, 95031, -186.161, 3.79891, -912.184, -1.4705e-05, 0.232456, 0.993198, 0.349787, 0.651995, 3, 91, 246, 41.3444, 0.143033, 0, 0, 1, 0, 69376
-3056.38, 110716, -237.991, 4.17374, -939.324, 0.0698191, 0.267647, 0.958125, 0.351078, 0.648177, 0.0001, 182, 246, 41.3444, 0.143033, 1.17313, 1, 1, 0, 69376
1015.05, 135386, -325.774, 4.81032, -1008.86, 0.189846, 0.350941, 0.9175, 0.352806, 0.64323, 0.0001, 455, 246, 41.3444, 0.143033, 2.49988, 1, 0, 0, 69376
1015.05, 135386, -325.774, 4.81032, -1008.86, 0.189846, 0.350941, 0.9175, 0.352806, 0.64323, 3, 455, 246, 41.3444, 0.143033, 2.50142, 1, 0, 0, 69376
-4493.42, 51281.6, -151.369, 3.27737, -795.679, 0.61896, 0.216748, 1.03299, 0.34851, 0.655882, 0.0001, 45.5, 246, 47.0937, 0.126398, 1.22009, 1, 1, 0, 69377
-4493.42, 51281.6, -151.369, 3.27737, -795.679, 0.61896, 0.216748, 1.03299, 0.34851, 0.655882, 3, 45.5, 246, 47.0937, 0.126398, 1.02377, 1, 1, 0, 69377
-3437.04, 66234.7, -191.71, 3.69669, -902.283, 0.745166, 0.227082, 0.993198, 0.349787, 0.651995, 0.0001, 91, 246, 47.0937, 0.126398, 1.24884, 1, 1, 0, 69377
-3437.04, 66234.7, -191.71, 3.69669, -902.283, 0.745166, 0.227082, 0.993198, 0.349787, 0.651995, 3, 91, 246, 47.0937, 0.126398, 1.08046, 1, 1, 0, 69377
-1758.51, 86864.2, -245.474, 4.2323, -1052.67, 0.922732, 0.260991, 0.958125, 0.351078, 0.648177, 0.0001, 182, 246, 47.0937, 0.126398, 1.53841, 1, 1, 0, 69377
-1758.51, 86864.2, -245.474, 4.2323, -1052.67, 0.922732, 0.260991, 0.958125, 0.351078, 0.648177, 3, 182, 246, 47.0937, 0.126398, 1.40369, 1, 1, 0, 69377
-13128.7, 214331, -91.4943, 2.54993, -1096.95, -0.00793754, 0.276714, 1.03299, 0.34851, 0.655882, 0.0001, 45.5, 246, 28.7456, 0.0947507, 0, 0, 0, 0, 69379
-13128.7, 214331, -91.4943, 2.54993, -1096.95, -0.00793754, 0.276714, 1.03299, 0.34851, 0.655882, 3, 45.5, 246, 28.7456, 0.0947507, 0, 0, 0, 0, 69379
-10438.8, 72463.7, 22.7667, 3.21458, -959.568, 0.0644193, 0.1848, 1.03299, 0.34851, 0.655882, 0.0001, 45.5, 246, 11.9263, 0.0280241, 0, 0, 1, 0, 69382
-10438.8, 72463.7, 22.7667, 3.21458, -959.568, 0.0644193, 0.1848, 1.03299, 0.34851, 0.655882, 3, 45.5, 246, 11.9263, 0.0280241, 0, 0, 0, 0, 69382
-11733.4, 118397, -27.6286, 3.59712, -1172.48, -0.0249286, 0.15066, 1.03299, 0.34851, 0.655882, 0.0001, 45.5, 246, 23.4222, 0.0652211, 0, 0, 0, 0, 69386
-11733.4, 118397, -27.6286, 3.59712, -1172.48, -0.0249286, 0.15066, 1.03299, 0.34851, 0.655882, 3, 45.5, 246, 23.4222, 0.0652211, 0, 0, 0, 0, 69386
-9799.33, 141970, -70.6402, 3.9286, -1178.28, 0.0371591, 0.16632, 0.993198, 0.349787, 0.651995, 0.0001, 91, 246, 23.4222, 0.0652211, 0, 0, 1, 0, 69386
-9799.33, 141970, -70.6402, 3.9286, -1178.28, 0.0371591, 0.16632, 0.993198, 0.349787, 0.651995, 3, 91, 246, 23.4222, 0.0652211, 0, 0, 1, 0, 69386
-7999.8, 44573.9, -60.466, 2.25708, -1138.79, 0.0512199, 0.291829, 0.993198, 0.349787, 0.651995, 0.0001, 91, 246, 26.0858, 0.109131, 0, 0, 1, 1, 69387
-7999.8, 44573.9, -60.466, 2.25708, -1138.79, 0.0512199, 0.291829, 0.993198, 0.349787, 0.651995, 3, 91, 246, 26.0858, 0.109131, 0, 0, 1, 1, 69387
-6158.67, 127827, -238.847, 2.92411, -822.335, 0.349114, 0.364216, 1.03299, 0.34851, 0.655882, 0.0001, 45.5, 246, 52.4784, 0.23407, 1.27799, 1, 1, 0, 69388
-6158.67, 127827, -238.847, 2.92411, -822.335, 0.349114, 0.364216, 1.03299, 0.34851, 0.655882, 3, 45.5, 246, 52.4784, 0.23407, 1.11033, 1, 1, 0, 69388
-3866.4, 144375, -283.216, 3.23633, -894.975, 0.413545, 0.372678, 0.993198, 0.349787, 0.651995, 0.0001, 91, 246, 52.4784, 0.23407, 1.41764, 1, 1, 0, 69388
-3866.4, 144375, -283.216, 3.23633, -894.975, 0.413545, 0.372678, 0.993198, 0.349787, 0.651995, 3, 91, 246, 52.4784, 0.23407, 1.27118, 1, 1, 0, 69388
-766.65, 165157, -338.123, 3.61233, -990.4, 0.497479, 0.398449, 0.958125, 0.351078, 0.648177, 0.0001, 182, 246, 52.4784, 0.23407, 2.27086, 1, 0, 0, 69388
-766.65, 165157, -338.123, 3.61233, -990.4, 0.497479, 0.398449, 0.958125, 0.351078, 0.648177, 3, 182, 246, 52.4784, 0.23407, 2.11913, 1, 0, 0, 69388
1149.64, 190444, -346.099, 4.34375, -944.652, 0.397313, 0.375797, 0.9175, 0.352806, 0.64323, 0.0001, 455, 246, 39.7419, 0.164937, 2.80961, 1, 0, 0, 69395
1149.64, 190444, -346.099, 4.34375, -944.652, 0.397313, 0.375797, 0.9175, 0.352806, 0.64323, 3, 455, 246, 39.7419, 0.164937, 2.83104, 1, 0, 0, 69395
-10322.6, 90136.2, -2.68556, 2.26848, -1134.96, 0.303242, 0.27166, 1.03299, 0.34851, 0.655882, 0.0001, 45.5, 246, 17.1398, 0.0470535, 0, 0, 1, 0, 69396
-10322.6, 90136.2, -2.68556, 2.26848, -1134.96, 0.303242, 0.27166, 1.03299, 0.34851, 0.655882, 3, 45.5, 246, 17.1398, 0.0470535, 0, 0, 1, 0, 69396
-5564.33, 190010, -110.709, 3.04594, -1400, 0.482445, 0.261501, 0.9175, 0.352806, 0.64323, 3, 455, 246, 17.1398, 0.0470535, 0, 0, 0, 0, 69396
-10589.6, 208001, -199.536, 2.29306, -1042.86, 0.273777, 0.3954, 1.03299, 0.34851, 0.655882, 0.0001, 45.5, 246, 41.1254, 0.18574, 0, 0, 0, 0, 69399
-10589.6, 208001, -199.536, 2.29306, -1042.86, 0.273777, 0.3954, 1.03299, 0.34851, 0.655882, 3, 45.5, 246, 41.1254, 0.18574, 0, 0, 0, 0, 69399
-10691.9, 217812, -357.884, 3.48441, -634.153, 0.302637, 0.390139, 1.03299, 0.34851, 0.655882, 0.0001, 45.5, 246, 51.3342, 0.232473, 1.38418, 1, 0, 0, 69400
-10691.9, 217812, -357.884, 3.48441, -634.153, 0.302637, 0.390139, 1.03299, 0.34851, 0.655882, 3, 45.5, 246, 51.3342, 0.232473, 1.31854, 1, 0, 0, 69400
-5994.13, 231774, -415.43, 3.89313, -707.596, 0.380527, 0.419323, 0.993198, 0.349787, 0.651995, 0.0001, 91, 246, 51.3342, 0.232473, 1.74331, 1, 1, 0, 69400
-5994.13, 231774, -415.43, 3.89313, -707.596, 0.380527, 0.419323, 0.993198, 0.349787, 0.651995, 3, 91, 246, 51.3342, 0.232473, 1.66385, 1, 1, 0, 69400
-10366, 165051, -147.907, 1.99826, -589.2, 0.0138796, 0.360307, 1.03299, 0.34851, 0.655882, 0.0001, 45.5, 246, 32.0214, 0.160887, 0, 0, 1, 0, 69408
-11280.2, 115602, -43.246, 3.24588, -793.936, -0.0464518, 0.188867, 1.03299, 0.34851, 0.655882, 0.0001, 45.5, 246, 20.2625, 0.0627531, 0, 0, 1, 0, 69416
-11280.2, 115602, -43.246, 3.24588, -793.936, -0.0464518, 0.188867, 1.03299, 0.34851, 0.655882, 3, 45.5, 246, 20.2625, 0.0627531, 0, 0, 1, 0, 69416
-7694.51, 137063, -104.909, 3.84153, -808.934, 0.0633728, 0.216948, 0.958125, 0.351078, 0.648177, 0.0001, 182, 246, 20.2625, 0.0627531, 0, 0, 1, 0, 69416
-7694.51, 137063, -104.909, 3.84153, -808.934, 0.0633728, 0.216948, 0.958125, 0.351078, 0.648177, 3, 182, 246, 20.2625, 0.0627531, 0, 0, 1, 0, 69416
-11053.6, 221903, -231.568, 2.11118, -729.312, -0.019414, 0.441695, 1.03299, 0.34851, 0.655882, 0.0001, 45.5, 246, 40.909, 0.209539, 0, 0, 0, 0, 69417
-11333.2, 95264.3, 6.06077, 3.22358, -873.448, 0.77676, 0.168265, 1.03299, 0.34851, 0.655882, 0.0001, 45.5, 246, 14.6619, 0.0326667, 0, 0, 0, 0, 69418
-11333.2, 95264.3, 6.06077, 3.22358, -873.448, 0.77676, 0.168265, 1.03299, 0.34851, 0.655882, 3, 45.5, 246, 14.6619, 0.0326667, 0, 0, 0, 0, 69418
-5025, 111126, -169.365, 3.21308, -1144.77, 0.229536, 0.29497, 0.9175, 0.352806, 0.64323, 3, 455, 246, 28.9666, 0.11184, 0, 0, 1, 0, 69423
-11369.8, 186130, -42.073, 1.54823, -883.104, 0.427364, 0.314835, 1.03299, 0.34851, 0.655882, 0.0001, 45.5, 246, 19.5304, 0.0566993, 0, 0, 1, 0, 69424
-11369.8, 186130, -42.073, 1.54823, -883.104, 0.427364, 0.314835, 1.03299, 0.34851, 0.655882, 3, 45.5, 246, 19.5304, 0.0566993, 0, 0, 1, 0, 69424
-10245, 205212, -57.6955, 1.67309, -950.112, 0.470522, 0.288457, 0.993198, 0.349787, 0.651995, 0.0001, 91, 246, 19.5304, 0.0566993, 0, 0, 1, 0, 69424
-10245, 205212, -57.6955, 1.67309, -950.112, 0.470522, 0.288457, 0.993198, 0.349787, 0.651995, 3, 91, 246, 19.5304, 0.0566993, 0, 0, 1, 0, 69424
-7336.02, 32911.9, -61.4923, 3.50506, -618.96, 0.23512, 0.168349, 1.03299, 0.34851, 0.655882, 0.0001, 45.5, 246, 24.7418, 0.057423, 1.01745, 1, 1, 0, 69426
-6096.5, 48735.9, -122.692, 4.3363, -702.173, 0.39971, 0.219249, 0.958125, 0.351078, 0.648177, 3, 182, 246, 24.7418, 0.057423, 0, 0, 1, 0, 69426
-1200.89, 137175, -276.324, 3.59212, -979.246, 0.454566, 0.349376, 0.9175, 0.352806, 0.64323, 0.0001, 455, 246, 42.4738, 0.178932, 1.56835, 1, 0, 0, 69428
-1200.89, 137175, -276.324, 3.59212, -979.246, 0.454566, 0.349376, 0.9175, 0.352806, 0.64323, 3, 455, 246, 42.4738, 0.178932, 1.56554, 1, 0, 0, 69428
-10320.1, 201962, -193.925, 1.90244, -834.474, 0.0437377, 0.422723, 1.03299, 0.34851, 0.655882, 0.0001, 45.5, 246, 39.1061, 0.197135, 0, 0, 1, 0, 69429
-10320.1, 201962, -193.925, 1.90244, -834.474, 0.0437377, 0.422723, 1.03299, 0.34851, 0.655882, 3, 45.5, 246, 39.1061, 0.197135, 0, 0, 1, 0, 69429
-5466.87, 380389, -448.858, 4.01064, -960.529, 0.547997, 0.432503, 0.958125, 0.351078, 0.648177, 0.0001, 182, 246, 41.6439, 0.181764, 1.32405, 1, 0, 0, 69430
-5466.87, 380389, -448.858, 4.01064, -960.529, 0.547997, 0.432503, 0.958125, 0.351078, 0.648177, 3, 182, 246, 41.6439, 0.181764, 1.27818, 1, 0, 0, 69430
-7426.09, 10518.7, -44.1794, 2.43938, -716.574, 0.0451469, 0.278222, 1.03299, 0.34851, 0.655882, 0.0001, 45.5, 246, 27.718, 0.0562934, 0, 0, 1, 1, 69433
-10955.2, 279417, -136.141, 1.22573, -1058.13, 0.500724, 0.378115, 1.03299, 0.34851, 0.655882, 0.0001, 45.5, 246, 30.675, 0.111918, 0, 0, 0, 0, 69435
-10955.2, 279417, -136.141, 1.22573, -1058.13, 0.500724, 0.378115, 1.03299, 0.34851, 0.655882, 3, 45.5, 246, 30.675, 0.111918, 0, 0, 0, 0, 69435
-11817.2, 97756.5, 28.1148, 3.59708, -1132.42, 0.0198942, 0.136247, 1.03299, 0.34851, 0.655882, 0.0001, 45.5, 246, 15.0805, 0.0309041, 0, 0, 0, 0, 69440
-11817.2, 97756.5, 28.1148, 3.59708, -1132.42, 0.0198942, 0.136247, 1.03299, 0.34851, 0.655882, 3, 45.5, 246, 15.0805, 0.0309041, 0, 0, 0, 0, 69440
-10254.7, 119949, -8.48103, 3.93661, -1140.43, 0.0825043, 0.15128, 0.993198, 0.349787, 0.651995, 0.0001, 91, 246, 15.0805, 0.0309041, 0, 0, 1, 0, 69440
-10254.7, 119949, -8.48103, 3.93661, -1140.43, 0.0825043, 0.15128, 0.993198, 0.349787, 0.651995, 3, 91, 246, 15.0805, 0.0309041, 0, 0, 1, 0, 69440
-7816.41, 125109, -175.805, 2.54699, -983.965, 0.0356452, 0.366627, 1.03299, 0.34851, 0.655882, 0.0001, 45.5, 246, 45.3577, 0.213682, 0, 0, 1, 0, 69443
-7816.41, 125109, -175.805, 2.54699, -983.965, 0.0356452, 0.366627, 1.03299, 0.34851, 0.655882, 3, 45.5, 246, 45.3577, 0.213682, 0, 0, 1, 0, 69443
327.708, 192676, -326.26, 3.34109, -1098.54, 0.165497, 0.404947, 0.9175, 0.352806, 0.64323, 0.0001, 455, 246, 45.3577, 0.213682, 0, 0, 0, 0, 69443
327.708, 192676, -326.26, 3.34109, -1098.54, 0.165497, 0.404947, 0.9175, 0.352806, 0.64323, 3, 455, 246, 45.3577, 0.213682, 0, 0, 0, 0, 69443
-3381.48, 192377, -312.093, 4.08058, -842.301, 0.312955, 0.321441, 0.958125, 0.351078, 0.648177, 0.0001, 182, 246, 41.2992, 0.171302, 1.2404, 1, 0, 0, 69446
-3381.48, 192377, -312.093, 4.08058, -842.301, 0.312955, 0.321441, 0.958125, 0.351078, 0.648177, 3, 182, 246, 41.2992, 0.171302, 1.00312, 1, 0, 0, 69446
3359.7, 219638, -406.086, 4.78902, -969.082, 0.456842, 0.406202, 0.9175, 0.352806, 0.64323, 0.0001, 455, 246, 41.2992, 0.171302, 0, 0, 0, 0, 69446
3359.7, 219638, -406.086, 4.78902, -969.082, 0.456842, 0.406202, 0.9175, 0.352806, 0.64323, 3, 455, 246, 41.2992, 0.171302, 0, 0, 0, 0, 69446
-10534, 175004, -137.924, 2.26143, -1033.37, 0.296437, 0.339039, 1.03299, 0.34851, 0.655882, 0.0001, 45.5, 246, 34.8249, 0.146705, 0, 0, 0, 0, 69447
-7807.46, 92076.6, -124.786, 2.98486, -1056.8, 0.261854, 0.271442, 1.03299, 0.34851, 0.655882, 0.0001, 45.5, 246, 38.8237, 0.152311, 0, 0, 1, 0, 69452
-7807.46, 92076.6, -124.786, 2.98486, -1056.8, 0.261854, 0.271442, 1.03299, 0.34851, 0.655882, 3, 45.5, 246, 38.8237, 0.152311, 0, 0, 1, 0, 69452
152.337, 184707, -306.866, 4.23548, -1356.51, 0.522645, 0.352361, 0.9175, 0.352806, 0.64323, 0.0001, 455, 246, 38.8237, 0.152311, 2.82288, 1, 0, 0, 69452
152.337, 184707, -306.866, 4.23548, -1356.51, 0.522645, 0.352361, 0.9175, 0.352806, 0.64323, 3, 455, 246, 38.8237, 0.152311, 2.89559, 1, 0, 0, 69452
-8037.53, 248304, -234.505, 1.54197, -1051.38, 0.000137161, 0.462455, 0.993198, 0.349787, 0.651995, 3, 91, 246, 41.7621, 0.213925, 0, 0, 1, 0, 69456
-12460.9, 119284, -3.50939, 3.62464, -856.948, 0.132418, 0.127897, 1.03299, 0.34851, 0.655882, 0.0001, 45.5, 246, 15.817, 0.0364562, 0, 0, 0, 0, 69457
-12460.9, 119284, -3.50939, 3.62464, -856.948, 0.132418, 0.127897, 1.03299, 0.34851, 0.655882, 3, 45.5, 246, 15.817, 0.0364562, 0, 0, 0, 0, 69457
-12218.7, 278815, -137.859, 1.71538, -1091.11, 0.00174044, 0.361527, 1.03299, 0.34851, 0.655882, 0.0001, 45.5, 246, 31.9135, 0.117623, 0, 0, 0, 0, 69459
-3450.69, 83756, -205.319, 4.50315, -1240.21, 0.558666, 0.247175, 0.958125, 0.351078, 0.648177, 0.0001, 182, 246, 38.7, 0.102694, 1.04119, 1, 1, 0, 69460
358.719, 132308, -320.116, 5.44583, -1473.45, 0.794697, 0.355492, 0.9175, 0.352806, 0.64323, 0.0001, 455, 246, 38.7, 0.102694, 2.82911, 1, 0, 0, 69460
358.719, 132308, -320.116, 5.44583, -1473.45, 0.794697, 0.355492, 0.9175, 0.352806, 0.64323, 3, 455, 246, 38.7, 0.102694, 2.83389, 1, 0, 0, 69460
-4511.15, 86670.2, -196.196, 3.49873, -975.263, 0.382642, 0.242018, 1.03299, 0.34851, 0.655882, 0.0001, 45.5, 246, 51.3796, 0.182741, 1.37435, 1, 1, 0, 69462
-4511.15, 86670.2, -196.196, 3.49873, -975.263, 0.382642, 0.242018, 1.03299, 0.34851, 0.655882, 3, 45.5, 246, 51.3796, 0.182741, 1.20787, 1, 1, 0, 69462
-2591.9, 107684, -249.08, 3.91201, -1065.35, 0.471373, 0.261029, 0.993198, 0.349787, 0.651995, 0.0001, 91, 246, 51.3796, 0.182741, 1.53504, 1, 1, 0, 69462
-2591.9, 107684, -249.08, 3.91201, -1065.35, 0.471373, 0.261029, 0.993198, 0.349787, 0.651995, 3, 91, 246, 51.3796, 0.182741, 1.40154, 1, 1, 0, 69462
284.543, 134577, -317.367, 4.42914, -1190.34, 0.591728, 0.304617, 0.958125, 0.351078, 0.648177, 0.0001, 182, 246, 51.3796, 0.182741, 2.51304, 1, 0, 0, 69462
284.543, 134577, -317.367, 4.42914, -1190.34, 0.591728, 0.304617, 0.958125, 0.351078, 0.648177, 3, 182, 246, 51.3796, 0.182741, 2.37155, 1, 0, 0, 69462
-10399.4, 311709, -162.556, 0.910844, -890.005, 0.0833961, 0.409688, 1.03299, 0.34851, 0.655882, 0.0001, 45.5, 246, 30.356, 0.129787, 0, 0, 1, 0, 69470
-10399.4, 311709, -162.556, 0.910844, -890.005, 0.0833961, 0.409688, 1.03299, 0.34851, 0.655882, 3, 45.5, 246, 30.356, 0.129787, 0, 0, 1, 0, 69470
-9111.27, 327663, -177.491, 0.95668, -906.37, 0.0883886, 0.382596, 0.993198, 0.349787, 0.651995, 3, 91, 246, 30.356, 0.129787, 0, 0, 1, 0, 69470
-7579.19, 344442, -193.309, 1.0034, -924.331, 0.0939165, 0.360339, 0.958125, 0.351078, 0.648177, 0.0001, 182, 246, 30.356, 0.129787, 0, 0, 1, 0, 69470
-10890.4, 258083, -214.851, 1.67576, -988.465, 0.0104738, 0.453367, 1.03299, 0.34851, 0.655882, 3, 45.5, 246, 39.8262, 0.190956, 0, 0, 0, 0, 69474
-9190.19, 82143, -25.887, 1.05878, -870.803, 0.109863, 0.337097, 1.03299, 0.34851, 0.655882, 0.0001, 45.5, 246, 16.7879, 0.0727395, 0, 0, 1, 0, 69477
-9190.19, 82143, -25.887, 1.05878, -870.803, 0.109863, 0.337097, 1.03299, 0.34851, 0.655882, 3, 45.5, 246, 16.7879, 0.0727395, 0, 0, 1, 0, 69477
-6558.67, 41534.9, -99.1991, 1.85, -600.067, -0.00438973, 0.337195, 1.03299, 0.34851, 0.655882, 0.0001, 45.5, 246, 46.6288, 0.202547, 0, 0, 1, 1, 69478
-6558.67, 41534.9, -99.1991, 1.85, -600.067, -0.00438973, 0.337195, 1.03299, 0.34851, 0.655882, 3, 45.5, 246, 46.6288, 0.202547, 0, 0, 1, 1, 69478
-11588.4, 181905, -113.212, 2.57658, -1089.5, 0.118465, 0.293041, 1.03299, 0.34851, 0.655882, 0.0001, 45.5, 246, 32.0014, 0.119535, 0, 0, 0, 0, 69479
-11588.4, 181905, -113.212, 2.57658, -1089.5, 0.118465, 0.293041, 1.03299, 0.34851, 0.655882, 3, 45.5, 246, 32.0014, 0.119535, 0, 0, 0, 0, 69479
-9624.85, 161108, -141.868, 1.93027, -1017.65, 0.0722716, 0.377482, 1.03299, 0.34851, 0.655882, 0.0001, 45.5, 246, 36.5939, 0.172972, 0, 0, 1, 0, 69480
-9624.85, 161108, -141.868, 1.93027, -1017.65, 0.0722716, 0.377482, 1.03299, 0.34851, 0.655882, 3, 45.5, 246, 36.5939, 0.172972, 0, 0, 1, 0, 69480
-7955.06, 163983, -259.362, 3.45893, -879.301, -0.0577412, 0.322276, 1.03299, 0.34851, 0.655882, 0.0001, 45.5, 246, 50.446, 0.214872, 1.18464, 1, 0, 0, 69483
-7955.06, 163983, -259.362, 3.45893, -879.301, -0.0577412, 0.322276, 1.03299, 0.34851, 0.655882, 3, 45.5, 246, 50.446, 0.214872, 1.06274, 1, 0, 0, 69483
-4689.91, 178644, -313.295, 3.77856, -902.354, -0.000183223, 0.343978, 0.993198, 0.349787, 0.651995, 0.0001, 91, 246, 50.446, 0.214872, 1.4414, 1, 1, 0, 69483
-4689.91, 178644, -313.295, 3.77856, -902.354, -0.000183223, 0.343978, 0.993198, 0.349787, 0.651995, 3, 91, 246, 50.446, 0.214872, 1.30576, 1, 1, 0, 69483
-456.489, 195784, -378.161, 4.16269, -943.274, 0.0690909, 0.385967, 0.958125, 0.351078, 0.648177, 0.0001, 182, 246, 50.446, 0.214872, 3.09229, 1, 0, 0, 69483
-456.489, 195784, -378.161, 4.16269, -943.274, 0.0690909, 0.385967, 0.958125, 0.351078, 0.648177, 3, 182, 246, 50.446, 0.214872, 2.88078, 1, 0, 0, 69483
-11008.9, 156922, -107.595, 2.4554, -823.065, 0.259935, 0.292268, 1.03299, 0.34851, 0.655882, 0.0001, 45.5, 246, 28.8422, 0.115797, 0, 0, 1, 0, 69484
-8650.21, 188837, -27.8365, 0.170908, -1178.07, 0.017179, 0.346207, 1.03299, 0.34851, 0.655882, 0.0001, 45.5, 246, 18.4118, 0.0358667, 0, 0, 1, 0, 69486
-8650.21, 188837, -27.8365, 0.170908, -1178.07, 0.017179, 0.346207, 1.03299, 0.34851, 0.655882, 3, 45.5, 246, 18.4118, 0.0358667, 0, 0, 1, 0, 69486
-7726.04, 357311, -100.182, 0.208314, -1309.18, 0.589276, 0.303359, 0.958125, 0.351078, 0.648177, 3, 182, 246, 25.623, 0.0732752, 0, 0, 1, 0, 69487
-11282.6, 217515, -151.607, 1.57244, -618.51, 0.399824, 0.379163, 1.03299, 0.34851, 0.655882, 3, 45.5, 246, 28.8101, 0.142056, 0, 0, 1, 0, 69489
-6665.14, -32707.3, 8.87085, 3.31808, -889.346, 0.0977374, 0.209578, 1.03299, 0.34851, 0.655882, 0.0001, 45.5, 246, 12.1116, 0.0450502, 0, 0, 1, 1, 69490
-6665.14, -32707.3, 8.87085, 3.31808, -889.346, 0.0977374, 0.209578, 1.03299, 0.34851, 0.655882, 3, 45.5, 246, 12.1116, 0.0450502, 0, 0, 1, 1, 69490
-3332.02, 295384, -368.42, 4.08697, -1143.55, 0.0667554, 0.365103, 0.958125, 0.351078, 0.648177, 0.0001, 182, 246, 43.9042, 0.175897, 1.37031, 1, 0, 0, 69495
-3332.02, 295384, -368.42, 4.08697, -1143.55, 0.0667554, 0.365103, 0.958125, 0.351078, 0.648177, 3, 182, 246, 43.9042, 0.175897, 1.18509, 1, 0, 0, 69495
-8666.69, 74791.6, -72.3377, 3.51945, -1000.22, 0.146706, 0.178947, 1.03299, 0.34851, 0.655882, 0.0001, 45.5, 246, 29.1629, 0.0938577, 0, 0, 0, 0, 69496
-8666.69, 74791.6, -72.3377, 3.51945, -1000.22, 0.146706, 0.178947, 1.03299, 0.34851, 0.655882, 3, 45.5, 246, 29.1629, 0.0938577, 0, 0, 0, 0, 69496
-4670.33, 225865, -327.88, 4.38181, -703.815, 0.076856, 0.301802, 0.958125, 0.351078, 0.648177, 0.0001, 182, 246, 38.2012, 0.159124, 1.08643, 1, 0, 0, 69498
