-10208.7, 173275, -68.1755, 1.67261, -2091.13, 0.354349, 0.340165, 1.03299, 0.34851, 0.655882, 0.0001, 45.5, 246, 33.0112, 0.0892025, 0, 0, 0, 0, 1001
-10208.7, 173275, -68.1755, 1.67261, -2091.13, 0.354349, 0.340165, 1.03299, 0.34851, 0.655882, 3, 45.5, 246, 33.0112, 0.0892025, 0, 0, 0, 0, 1001
-8749.68, 258867, -105.986, 1.80556, -2221.6, 0.389424, 0.317538, 0.993198, 0.349787, 0.651995, 0.0001, 91, 246, 33.0112, 0.0892025, 0, 0, 1, 0, 1001
-8749.68, 258867, -105.986, 1.80556, -2221.6, 0.389424, 0.317538, 0.993198, 0.349787, 0.651995, 3, 91, 246, 33.0112, 0.0892025, 0, 0, 1, 0, 1001
-44423.1, 1.51196e+06, -1037.71, 2.10521, -2185.97, 0.827623, 0.946625, 1.03299, 0.34851, 0.655882, 3, 45.5, 246, 75.1721, 0.166996, 0, 0, 0, 0, 1003
-25505.5, 2.30635e+06, -1211.71, 0.409121, -1656.51, 0.194636, 0.914463, 1.03299, 0.34851, 0.655882, 3, 45.5, 246, 63.034, 0.13459, 0, 0, 0, 0, 1005
-26912.2, 2.58226e+06, -690.88, 1.18346, -2877.13, 0.152884, 0.508711, 1.03299, 0.34851, 0.655882, 3, 45.5, 246, 85.9597, 0.0704566, 0, 0, 0, 0, 1007
-8390.86, 273666, -36.2273, 0.264564, -2800.95, 0.0640988, 0.31012, 0.993198, 0.349787, 0.651995, 0.0001, 91, 246, 26.1052, 0.0262993, 0, 0, 1, 0, 1008
-8390.86, 273666, -36.2273, 0.264564, -2800.95, 0.0640988, 0.31012, 0.993198, 0.349787, 0.651995, 3, 91, 246, 26.1052, 0.0262993, 0, 0, 1, 0, 1008
-8167.05, 413995, -44.0081, 0.273103, -2829.97, 0.0650752, 0.278825, 0.958125, 0.351078, 0.648177, 0.0001, 182, 246, 26.1052, 0.0262993, 0, 0, 1, 0, 1008
-8167.05, 413995, -44.0081, 0.273103, -2829.97, 0.0650752, 0.278825, 0.958125, 0.351078, 0.648177, 3, 182, 246, 26.1052, 0.0262993, 0, 0, 1, 0, 1008
-8314.39, 492969, -462.417, 0.999247, -1612.03, -0.00442516, 0.765685, 1.03299, 0.34851, 0.655882, 3, 45.5, 246, 57.3885, 0.244745, 0, 0, 0, 0, 1009
-8530.42, 543467, -203.025, 3.20579, -2058.43, 0.828134, 0.253116, 0.958125, 0.351078, 0.648177, 0.0001, 182, 246, 35.9357, 0.0666807, 0, 0, 0, 0, 1017
-8530.42, 543467, -203.025, 3.20579, -2058.43, 0.828134, 0.253116, 0.958125, 0.351078, 0.648177, 3, 182, 246, 35.9357, 0.0666807, 0, 0, 0, 0, 1017
-8537.9, 90457.9, -51.513, 2.18524, -2122.14, 0.624828, 0.298339, 0.993198, 0.349787, 0.651995, 0.0001, 91, 246, 22.2087, 0.0924858, 0, 0, 1, 0, 1019
-8537.9, 90457.9, -51.513, 2.18524, -2122.14, 0.624828, 0.298339, 0.993198, 0.349787, 0.651995, 3, 91, 246, 22.2087, 0.0924858, 0, 0, 1, 0, 1019
-15678.4, 247302, -82.0337, 3.47545, -2420.31, 0.4478, 0.212851, 1.03299, 0.34851, 0.655882, 0.0001, 45.5, 246, 42.2253, 0.0993694, 0, 0, 0, 0, 1021
-15678.4, 247302, -82.0337, 3.47545, -2420.31, 0.4478, 0.212851, 1.03299, 0.34851, 0.655882, 3, 45.5, 246, 42.2253, 0.0993694, 0, 0, 0, 0, 1021
-10912.2, 366235, -174.626, 3.89576, -2629.77, 0.546018, 0.229384, 0.993198, 0.349787, 0.651995, 0.0001, 91, 246, 42.2253, 0.0993694, 0, 0, 1, 0, 1021
-10912.2, 366235, -174.626, 3.89576, -2629.77, 0.546018, 0.229384, 0.993198, 0.349787, 0.651995, 3, 91, 246, 42.2253, 0.0993694, 0, 0, 1, 0, 1021
-8629.46, 178509, -25.4096, 1.0257, -2474.48, 0.572379, 0.275063, 0.958125, 0.351078, 0.648177, 0.0001, 182, 246, 10.8403, 0.0295536, 0, 0, 1, 0, 1024
-8629.46, 178509, -25.4096, 1.0257, -2474.48, 0.572379, 0.275063, 0.958125, 0.351078, 0.648177, 3, 182, 246, 10.8403, 0.0295536, 0, 0, 1, 0, 1024
-7688.8, 231366, -128.041, 1.61742, -2714.73, 0.590182, 0.350513, 0.993198, 0.349787, 0.651995, 0.0001, 91, 246, 34.0853, 0.115143, 0, 0, 1, 0, 1026
-7688.8, 231366, -128.041, 1.61742, -2714.73, 0.590182, 0.350513, 0.993198, 0.349787, 0.651995, 3, 91, 246, 34.0853, 0.115143, 0, 0, 1, 0, 1026
-15663.5, 394942, -351.91, 3.45925, -2047.86, 0.451692, 0.446687, 1.03299, 0.34851, 0.655882, 3, 45.5, 246, 58.1883, 0.191322, 0, 0, 0, 0, 1027
-9889.77, 272876, 6.16582, 0.3436, -2719.23, -0.000536556, 0.340277, 1.03299, 0.34851, 0.655882, 0.0001, 45.5, 246, 30.9242, 0.00530204, 0, 0, 1, 0, 1031
-9889.77, 272876, 6.16582, 0.3436, -2719.23, -0.000536556, 0.340277, 1.03299, 0.34851, 0.655882, 3, 45.5, 246, 30.9242, 0.00530204, 0, 0, 1, 0, 1031
-9628, 402627, -2.1031, 0.354901, -2719.1, -9.40562e-07, 0.304494, 0.993198, 0.349787, 0.651995, 0.0001, 91, 246, 30.9242, 0.00530204, 0, 0, 1, 0, 1031
-9628, 402627, -2.1031, 0.354901, -2719.1, -9.40562e-07, 0.304494, 0.993198, 0.349787, 0.651995, 3, 91, 246, 30.9242, 0.00530204, 0, 0, 1, 0, 1031
-8228.59, 18788.3, 4.04928, 3.47995, -1498.63, 0.124064, 0.187605, 1.03299, 0.34851, 0.655882, 0.0001, 45.5, 246, 21.1251, 0.0758926, 0, 0, 0, 0, 1034
-8228.59, 18788.3, 4.04928, 3.47995, -1498.63, 0.124064, 0.187605, 1.03299, 0.34851, 0.655882, 3, 45.5, 246, 21.1251, 0.0758926, 0, 0, 0, 0, 1034
-17088.9, 310030, -140.826, 3.48583, -2267.68, 0.594293, 0.233004, 1.03299, 0.34851, 0.655882, 0.0001, 45.5, 246, 46.24, 0.112697, 0, 0, 0, 0, 1035
-17088.9, 310030, -140.826, 3.48583, -2267.68, 0.594293, 0.233004, 1.03299, 0.34851, 0.655882, 3, 45.5, 246, 46.24, 0.112697, 0, 0, 0, 0, 1035
-7120.01, 236839, -137.373, 0.973204, -3047.31, 0.392708, 0.38184, 0.958125, 0.351078, 0.648177, 3, 182, 246, 40.2956, 0.2265, 0, 0, 0, 0, 1038
-5683.43, -145570, 28.4822, 2.94307, -2228, 0.170587, 0.273803, 1.03299, 0.34851, 0.655882, 0.0001, 45.5, 246, 26.1424, 0.204869, 0, 0, 0, 0, 1044
-5683.43, -145570, 28.4822, 2.94307, -2228, 0.170587, 0.273803, 1.03299, 0.34851, 0.655882, 3, 45.5, 246, 26.1424, 0.204869, 0, 0, 0, 0, 1044
-7294.6, 327194, -82.4819, 1.8667, -2941.96, 0.0554505, 0.27849, 0.958125, 0.351078, 0.648177, 0.0001, 182, 246, 22.4988, 0.0511628, 0, 0, 0, 0, 1046
-7294.6, 327194, -82.4819, 1.8667, -2941.96, 0.0554505, 0.27849, 0.958125, 0.351078, 0.648177, 3, 182, 246, 22.4988, 0.0511628, 0, 0, 0, 0, 1046
-10631.8, 423583, -292.482, 1.44452, -1601.95, -0.00634708, 0.51354, 1.03299, 0.34851, 0.655882, 0.0001, 45.5, 246, 47.6255, 0.171482, 0, 0, 0, 0, 1049
-10631.8, 423583, -292.482, 1.44452, -1601.95, -0.00634708, 0.51354, 1.03299, 0.34851, 0.655882, 3, 45.5, 246, 47.6255, 0.171482, 0, 0, 0, 0, 1049
-56282.3, 1.58476e+06, -813.248, 2.95245, -2497.42, -0.0312017, 0.710339, 1.03299, 0.34851, 0.655882, 3, 45.5, 246, 78.9302, 0.149083, 0, 0, 0, 0, 1051
-46669.4, 1.92689e+06, -971.612, 1.56762, -1858.44, 0.0425538, 0.827713, 1.03299, 0.34851, 0.655882, 3, 45.5, 246, 67.2817, 0.14072, 0, 0, 0, 0, 1056
-10980.8, 475751, -489.133, 2.40359, -2201.26, 0.0140395, 0.763777, 1.03299, 0.34851, 0.655882, 0.0001, 45.5, 246, 66.0685, 0.24568, 0, 0, 0, 0, 1064
-10980.8, 475751, -489.133, 2.40359, -2201.26, 0.0140395, 0.763777, 1.03299, 0.34851, 0.655882, 3, 45.5, 246, 66.0685, 0.24568, 0, 0, 0, 0, 1064
-26033, 2.42223e+06, -1046.78, 0.517028, -1586.25, 0.00533626, 0.77271, 1.03299, 0.34851, 0.655882, 3, 45.5, 246, 59.5717, 0.115381, 0, 0, 0, 0, 1067
-8515.17, 269822, -44.3921, 0.51059, -2714.64, 0.131438, 0.312366, 0.993198, 0.349787, 0.651995, 0.0001, 91, 246, 26.9769, 0.0354007, 0, 0, 1, 0, 1070
-8515.17, 269822, -44.3921, 0.51059, -2714.64, 0.131438, 0.312366, 0.993198, 0.349787, 0.651995, 3, 91, 246, 26.9769, 0.0354007, 0, 0, 1, 0, 1070
-7916.97, 404333, -58.629, 0.531371, -2773.19, 0.135443, 0.282119, 0.958125, 0.351078, 0.648177, 0.0001, 182, 246, 26.9769, 0.0354007, 0, 0, 1, 0, 1070
-7916.97, 404333, -58.629, 0.531371, -2773.19, 0.135443, 0.282119, 0.958125, 0.351078, 0.648177, 3, 182, 246, 26.9769, 0.0354007, 0, 0, 1, 0, 1070
-35415.6, 1.66078e+06, -929.472, 1.97945, -2496.99, 0.256704, 0.83617, 1.03299, 0.34851, 0.655882, 3, 45.5, 246, 79.686, 0.149444, 0, 0, 0, 0, 1074
-16892, -272077, -1.80221, 0.865048, -1635.94, -0.00343003, 0.409328, 1.03299, 0.34851, 0.655882, 0.0001, 45.5, 246, -102.208, 0.153388, 0, 0, 0, 0, 1077
-16892, -272077, -1.80221, 0.865048, -1635.94, -0.00343003, 0.409328, 1.03299, 0.34851, 0.655882, 3, 45.5, 246, -102.208, 0.153388, 0, 0, 0, 0, 1077
-18352.4, -225349, -14.8585, 0.903601, -1635.69, 3.78284e-06, 0.381799, 0.993198, 0.349787, 0.651995, 0.0001, 91, 246, -102.208, 0.153388, 0, 0, 1, 0, 1077
-18352.4, -225349, -14.8585, 0.903601, -1635.69, 3.78284e-06, 0.381799, 0.993198, 0.349787, 0.651995, 3, 91, 246, -102.208, 0.153388, 0, 0, 1, 0, 1077
-24800.9, 2.02508e+06, -878.251, 1.49057, -2776.1, 0.133385, 0.707817, 1.03299, 0.34851, 0.655882, 3, 45.5, 246, 84.2286, 0.115192, 0, 0, 0, 0, 1078
-10749.7, 341798, -179.001, 1.49178, -1736.3, -0.00921139, 0.406664, 1.03299, 0.34851, 0.655882, 0.0001, 45.5, 246, 41.2835, 0.126588, 0, 0, 0, 0, 1079
-10749.7, 341798, -179.001, 1.49178, -1736.3, -0.00921139, 0.406664, 1.03299, 0.34851, 0.655882, 3, 45.5, 246, 41.2835, 0.126588, 0, 0, 0, 0, 1079
-46166.4, 1.42832e+06, -906.415, 2.08639, -1718.87, -0.0207922, 0.910476, 1.03299, 0.34851, 0.655882, 3, 45.5, 246, 65.6728, 0.179543, 0, 0, 0, 0, 1091
-8568.63, 500915, -279.067, 1.57047, -2847.85, -0.0101139, 0.465367, 1.03299, 0.34851, 0.655882, 0.0001, 45.5, 246, 56.0625, 0.122241, 0, 0, 0, 0, 1092
-8568.63, 500915, -279.067, 1.57047, -2847.85, -0.0101139, 0.465367, 1.03299, 0.34851, 0.655882, 3, 45.5, 246, 56.0625, 0.122241, 0, 0, 0, 0, 1092
-18914.2, 247460, 45.184, 3.21134, -1836.22, -0.00816254, 0.169001, 1.03299, 0.34851, 0.655882, 0.0001, 45.5, 246, 26.3987, 0.0267362, 0, 0, 0, 0, 1097
-18914.2, 247460, 45.184, 3.21134, -1836.22, -0.00816254, 0.169001, 1.03299, 0.34851, 0.655882, 3, 45.5, 246, 26.3987, 0.0267362, 0, 0, 0, 0, 1097
-15224.5, 305896, -7.14425, 3.48499, -1839.08, 0.0410425, 0.172427, 0.993198, 0.349787, 0.651995, 0.0001, 91, 246, 26.3987, 0.0267362, 0, 0, 1, 0, 1097
-15224.5, 305896, -7.14425, 3.48499, -1839.08, 0.0410425, 0.172427, 0.993198, 0.349787, 0.651995, 3, 91, 246, 26.3987, 0.0267362, 0, 0, 1, 0, 1097
-11296.4, 190265, -105.818, 2.42486, -1658.48, 0.57237, 0.312708, 1.03299, 0.34851, 0.655882, 3, 45.5, 246, 36.1735, 0.116604, 0, 0, 0, 0, 1098
-7716.7, 378101, -240.548, 1.40409, -2665.72, 0.0868947, 0.459517, 1.03299, 0.34851, 0.655882, 0.0001, 45.5, 246, 50.9838, 0.131516, 0, 0, 0, 0, 1100
-7716.7, 378101, -240.548, 1.40409, -2665.72, 0.0868947, 0.459517, 1.03299, 0.34851, 0.655882, 3, 45.5, 246, 50.9838, 0.131516, 0, 0, 0, 0, 1100
-4469.2, 508351, -289.268, 1.49073, -2714.93, 0.0974286, 0.442159, 0.993198, 0.349787, 0.651995, 0.0001, 91, 246, 50.9838, 0.131516, 0, 0, 1, 0, 1100
-4469.2, 508351, -289.268, 1.49073, -2714.93, 0.0974286, 0.442159, 0.993198, 0.349787, 0.651995, 3, 91, 246, 50.9838, 0.131516, 0, 0, 1, 0, 1100
-6902.34, 191147, -116.649, 2.61682, -2215.47, 0.045959, 0.290696, 0.958125, 0.351078, 0.648177, 0.0001, 182, 246, 24.341, 0.0961439, 0, 0, 1, 0, 1101
-6902.34, 191147, -116.649, 2.61682, -2215.47, 0.045959, 0.290696, 0.958125, 0.351078, 0.648177, 3, 182, 246, 24.341, 0.0961439, 0, 0, 1, 0, 1101
-38627.5, 1.38408e+06, -787.028, 2.28401, -2162.78, 0.010849, 0.766983, 1.03299, 0.34851, 0.655882, 3, 45.5, 246, 71.4144, 0.158763, 0, 0, 0, 0, 1109
-21914.3, 1.70588e+06, -790.378, 1.34604, -2351.65, 0.0313761, 0.699328, 1.03299, 0.34851, 0.655882, 3, 45.5, 246, 73.666, 0.124492, 0, 0, 0, 0, 1110
-47805.9, 1.68649e+06, -954.265, 1.64288, -1607.67, 0.0160129, 0.878491, 1.03299, 0.34851, 0.655882, 3, 45.5, 246, 62.183, 0.158678, 0, 0, 0, 0, 1114
-49893.8, 2.26153e+06, -1112.47, 1.40326, -1986.74, 0.0942511, 0.881727, 1.03299, 0.34851, 0.655882, 3, 45.5, 246, 71.786, 0.135847, 0, 0, 0, 0, 1115
-7669.9, 266414, -131.709, 1.53765, -2592.75, -3.05557e-05, 0.347426, 0.993198, 0.349787, 0.651995, 0.0001, 91, 246, 35.4817, 0.105031, 0, 0, 1, 0, 1116
-7669.9, 266414, -131.709, 1.53765, -2592.75, -3.05557e-05, 0.347426, 0.993198, 0.349787, 0.651995, 3, 91, 246, 35.4817, 0.105031, 0, 0, 1, 0, 1116
-5365.68, 385113, -175.754, 1.62103, -2601.33, 0.0109218, 0.329611, 0.958125, 0.351078, 0.648177, 0.0001, 182, 246, 35.4817, 0.105031, 0, 0, 0, 0, 1116
-5365.68, 385113, -175.754, 1.62103, -2601.33, 0.0109218, 0.329611, 0.958125, 0.351078, 0.648177, 3, 182, 246, 35.4817, 0.105031, 0, 0, 0, 0, 1116
-5677.33, 247717, -256.796, 2.65319, -2440.86, 0.24081, 0.4574, 0.993198, 0.349787, 0.651995, 0.0001, 91, 246, 48.4205, 0.215628, 0, 0, 1, 0, 1121
-5677.33, 247717, -256.796, 2.65319, -2440.86, 0.24081, 0.4574, 0.993198, 0.349787, 0.651995, 3, 91, 246, 48.4205, 0.215628, 0, 0, 1, 0, 1121
-1281.68, 363181, -340.643, 2.90499, -2566.41, 0.285561, 0.471765, 0.958125, 0.351078, 0.648177, 0.0001, 182, 246, 48.4205, 0.215628, 0, 0, 0, 0, 1121
-1281.68, 363181, -340.643, 2.90499, -2566.41, 0.285561, 0.471765, 0.958125, 0.351078, 0.648177, 3, 182, 246, 48.4205, 0.215628, 0, 0, 0, 0, 1121
-3294.96, 416001, -292.808, 0.496049, -2497.88, 0.243816, 0.505462, 1.03299, 0.34851, 0.655882, 0.0001, 45.5, 246, 51.8629, 0.143229, 0, 0, 0, 0, 1122
-3294.96, 416001, -292.808, 0.496049, -2497.88, 0.243816, 0.505462, 1.03299, 0.34851, 0.655882, 3, 45.5, 246, 51.8629, 0.143229, 0, 0, 0, 0, 1122
-7994.38, 467479, -183.448, 1.0312, -2827.82, 0.302233, 0.394988, 1.03299, 0.34851, 0.655882, 0.0001, 45.5, 246, 50.0215, 0.0804321, 0, 0, 0, 0, 1123
-7994.38, 467479, -183.448, 1.0312, -2827.82, 0.302233, 0.394988, 1.03299, 0.34851, 0.655882, 3, 45.5, 246, 50.0215, 0.0804321, 0, 0, 0, 0, 1123
-16637.5, 361507, -180.373, 3.1595, -2356.31, 0.337025, 0.301831, 1.03299, 0.34851, 0.655882, 0.0001, 45.5, 246, 49.2002, 0.121489, 0, 0, 0, 0, 1125
-16637.5, 361507, -180.373, 3.1595, -2356.31, 0.337025, 0.301831, 1.03299, 0.34851, 0.655882, 3, 45.5, 246, 49.2002, 0.121489, 0, 0, 0, 0, 1125
-22046.3, 514089, 33.4974, 1.83592, -2807.56, -0.00996142, 0.284663, 1.03299, 0.34851, 0.655882, 0.0001, 45.5, 246, 43.2571, 0.0177771, 0, 0, 0, 0, 1130
-22046.3, 514089, 33.4974, 1.83592, -2807.56, -0.00996142, 0.284663, 1.03299, 0.34851, 0.655882, 3, 45.5, 246, 43.2571, 0.0177771, 0, 0, 0, 0, 1130
-6055.18, 302222, -235.805, 1.25718, -2987.37, 0.0412204, 0.489979, 0.993198, 0.349787, 0.651995, 3, 91, 246, 45.0695, 0.208862, 0, 0, 1, 0, 1134
-3434.11, 462430, -283.142, 1.32654, -3017.52, 0.0488649, 0.479527, 0.958125, 0.351078, 0.648177, 0.0001, 182, 246, 45.0695, 0.208862, 0, 0, 0, 0, 1134
-3434.11, 462430, -283.142, 1.32654, -3017.52, 0.0488649, 0.479527, 0.958125, 0.351078, 0.648177, 3, 182, 246, 45.0695, 0.208862, 0, 0, 0, 0, 1134
-6019.8, 377977, -227.87, 0.890627, -2608.11, 0.198458, 0.448115, 1.03299, 0.34851, 0.655882, 0.0001, 45.5, 246, 48.874, 0.119282, 0, 0, 0, 0, 1136
-6019.8, 377977, -227.87, 0.890627, -2608.11, 0.198458, 0.448115, 1.03299, 0.34851, 0.655882, 3, 45.5, 246, 48.874, 0.119282, 0, 0, 0, 0, 1136
-3865.29, 507274, -260.256, 0.941961, -2699.32, 0.208687, 0.424046, 0.993198, 0.349787, 0.651995, 0.0001, 91, 246, 48.874, 0.119282, 0, 0, 1, 0, 1136
-3865.29, 507274, -260.256, 0.941961, -2699.32, 0.208687, 0.424046, 0.993198, 0.349787, 0.651995, 3, 91, 246, 48.874, 0.119282, 0, 0, 1, 0, 1136
-4745.75, 695562, -289.818, 0.448038, -1953.82, 0.466251, 0.444027, 1.03299, 0.34851, 0.655882, 0.0001, 45.5, 246, 49.0041, 0.0939792, 0, 0, 0, 0, 1145
-4745.75, 695562, -289.818, 0.448038, -1953.82, 0.466251, 0.444027, 1.03299, 0.34851, 0.655882, 3, 45.5, 246, 49.0041, 0.0939792, 0, 0, 0, 0, 1145
-49121.7, 1.37536e+06, -945.438, 2.84459, -2298.44, 0.331198, 0.927981, 1.03299, 0.34851, 0.655882, 3, 45.5, 246, 78.0864, 0.18539, 0, 0, 0, 0, 1148
-6918.44, -180133, -27.4628, 2.22493, -2858.73, 0.035293, 0.398193, 1.03299, 0.34851, 0.655882, 0.0001, 45.5, 246, 28.6439, 0.234729, 0, 0, 0, 0, 1151
-6918.44, -180133, -27.4628, 2.22493, -2858.73, 0.035293, 0.398193, 1.03299, 0.34851, 0.655882, 3, 45.5, 246, 28.6439, 0.234729, 0, 0, 0, 0, 1151
-7354.76, 910575, -205.081, 0.316565, -1585.4, 0.284279, 0.381487, 1.03299, 0.34851, 0.655882, 0.0001, 45.5, 246, 41.2276, 0.0538439, 0, 0, 0, 0, 1153
-7354.76, 910575, -205.081, 0.316565, -1585.4, 0.284279, 0.381487, 1.03299, 0.34851, 0.655882, 3, 45.5, 246, 41.2276, 0.0538439, 0, 0, 0, 0, 1153
-29179, 3.86796e+06, -1274.91, 0.251604, -1646.48, 0.113198, 0.717115, 1.03299, 0.34851, 0.655882, 3, 45.5, 246, 62.3797, 0.0845899, 0, 0, 0, 0, 1154
-9021.43, 193038, -232.722, 3.63892, -1827.13, -0.061108, 0.348304, 1.03299, 0.34851, 0.655882, 0.0001, 45.5, 246, 52.4637, 0.206968, 0, 0, 0, 0, 1158
-4814.95, 252636, -320.015, 3.99198, -1846.1, 0.00285392, 0.378565, 0.993198, 0.349787, 0.651995, 3, 91, 246, 52.4637, 0.206968, 0, 0, 1, 0, 1158
1604.29, 316930, -426.233, 4.42231, -1899.23, 0.0806693, 0.431882, 0.958125, 0.351078, 0.648177, 0.0001, 182, 246, 52.4637, 0.206968, 0, 0, 0, 0, 1158
1604.29, 316930, -426.233, 4.42231, -1899.23, 0.0806693, 0.431882, 0.958125, 0.351078, 0.648177, 3, 182, 246, 52.4637, 0.206968, 0, 0, 0, 0, 1158
-8305.58, 117901, -68.8637, 1.99859, -2898.7, 0.918716, 0.290421, 0.958125, 0.351078, 0.648177, 0.0001, 182, 246, 19.6592, 0.130323, 0, 0, 1, 0, 1167
-39701.6, 3.5541e+06, -903.044, 0.912769, -2334.01, 0.0854052, 0.557406, 1.03299, 0.34851, 0.655882, 3, 45.5, 246, 79.0596, 0.0681944, 0, 0, 0, 0, 1171
-10349.6, 207047, -132.935, 1.98466, -1633.14, 0.0705653, 0.368569, 1.03299, 0.34851, 0.655882, 0.0001, 45.5, 246, 38.086, 0.139725, 0, 0, 0, 0, 1172
-10349.6, 207047, -132.935, 1.98466, -1633.14, 0.0705653, 0.368569, 1.03299, 0.34851, 0.655882, 3, 45.5, 246, 38.086, 0.139725, 0, 0, 0, 0, 1172
-8315.84, 255726, -172.254, 2.12328, -1662.22, 0.0900914, 0.353486, 0.993198, 0.349787, 0.651995, 0.0001, 91, 246, 38.086, 0.139725, 0, 0, 1, 0, 1172
-8315.84, 255726, -172.254, 2.12328, -1662.22, 0.0900914, 0.353486, 0.993198, 0.349787, 0.651995, 3, 91, 246, 38.086, 0.139725, 0, 0, 1, 0, 1172
-34.3581, 381338, -286.637, 2.50218, -1768.53, 0.149564, 0.350074, 0.9175, 0.352806, 0.64323, 3, 455, 246, 38.086, 0.139725, 0, 0, 0, 0, 1172
-5715.6, 339869, -297.425, 3.16694, -2555.65, 0.00247289, 0.427051, 0.993198, 0.349787, 0.651995, 0.0001, 91, 246, 50.4316, 0.175705, 0, 0, 1, 0, 1173
-5715.6, 339869, -297.425, 3.16694, -2555.65, 0.00247289, 0.427051, 0.993198, 0.349787, 0.651995, 3, 91, 246, 50.4316, 0.175705, 0, 0, 1, 0, 1173
1085.81, 458719, -401.953, 3.4544, -2596.57, 0.0506362, 0.453652, 0.958125, 0.351078, 0.648177, 0.0001, 182, 246, 50.4316, 0.175705, 0, 0, 0, 0, 1173
1085.81, 458719, -401.953, 3.4544, -2596.57, 0.0506362, 0.453652, 0.958125, 0.351078, 0.648177, 3, 182, 246, 50.4316, 0.175705, 0, 0, 0, 0, 1173
-14338.3, 308579, -219.264, 3.14472, -1931.9, 0.657084, 0.331198, 1.03299, 0.34851, 0.655882, 0.0001, 45.5, 246, 48.464, 0.148766, 0, 0, 0, 0, 1183
-14598.2, 246908, -90.5155, 2.85868, -1741.61, 0.589026, 0.253536, 1.03299, 0.34851, 0.655882, 0.0001, 45.5, 246, 36.3335, 0.0924394, 0, 0, 0, 0, 1184
-14598.2, 246908, -90.5155, 2.85868, -1741.61, 0.589026, 0.253536, 1.03299, 0.34851, 0.655882, 3, 45.5, 246, 36.3335, 0.0924394, 0, 0, 0, 0, 1184
-22484, 2.42546e+06, -1211.49, 0.340951, -1671.48, -0.00044386, 0.905042, 1.03299, 0.34851, 0.655882, 3, 45.5, 246, 63.7172, 0.132618, 0, 0, 0, 0, 1185
-8989.41, 498046, -266.312, 1.22854, -2180.08, 0.668005, 0.452017, 1.03299, 0.34851, 0.655882, 0.0001, 45.5, 246, 50.5894, 0.117471, 0, 0, 0, 0, 1186
-8989.41, 498046, -266.312, 1.22854, -2180.08, 0.668005, 0.452017, 1.03299, 0.34851, 0.655882, 3, 45.5, 246, 50.5894, 0.117471, 0, 0, 0, 0, 1186
-14998.8, 483042, -345.299, 3.0259, -2651.22, 0.0438884, 0.484608, 1.03299, 0.34851, 0.655882, 0.0001, 45.5, 246, 60.9726, 0.166348, 0, 0, 0, 0, 1189
-14998.8, 483042, -345.299, 3.0259, -2651.22, 0.0438884, 0.484608, 1.03299, 0.34851, 0.655882, 3, 45.5, 246, 60.9726, 0.166348, 0, 0, 0, 0, 1189
-12237.8, 161316, -37.7365, 2.68704, -2176.83, 0.632664, 0.265081, 1.03299, 0.34851, 0.655882, 0.0001, 45.5, 246, 33.4653, 0.0821894, 0, 0, 0, 0, 1191
-12237.8, 161316, -37.7365, 2.68704, -2176.83, 0.632664, 0.265081, 1.03299, 0.34851, 0.655882, 3, 45.5, 246, 33.4653, 0.0821894, 0, 0, 0, 0, 1191
-9853.23, 261240, -100.108, 3.00118, -2430.97, 0.742359, 0.260145, 0.993198, 0.349787, 0.651995, 0.0001, 91, 246, 33.4653, 0.0821894, 0, 0, 1, 0, 1191
-9853.23, 261240, -100.108, 3.00118, -2430.97, 0.742359, 0.260145, 0.993198, 0.349787, 0.651995, 3, 91, 246, 33.4653, 0.0821894, 0, 0, 1, 0, 1191
-9484.8, 123076, -10.2778, 2.79044, -2061.59, 0.477801, 0.246392, 0.993198, 0.349787, 0.651995, 0.0001, 91, 246, 18.8204, 0.0480107, 0, 0, 1, 0, 1197
-21848.9, 1.27702e+06, -805.583, 1.57577, -2115.47, 0.00713878, 0.84379, 1.03299, 0.34851, 0.655882, 3, 45.5, 246, 70.2214, 0.170483, 0, 0, 0, 0, 1198
-7870.84, 390272, -411.377, 2.41133, -2855.26, 0.0623304, 0.676548, 1.03299, 0.34851, 0.655882, 0.0001, 45.5, 246, 64.2046, 0.218986, 1.11793, 1, 0, 0, 1201
-1025.28, 541933, -511.954, 2.62272, -2920.58, 0.0910343, 0.700386, 0.993198, 0.349787, 0.651995, 0.0001, 91, 246, 64.2046, 0.218986, 0, 0, 1, 0, 1201
-1025.28, 541933, -511.954, 2.62272, -2920.58, 0.0910343, 0.700386, 0.993198, 0.349787, 0.651995, 3, 91, 246, 64.2046, 0.218986, 0, 0, 1, 0, 1201
-31910.9, 2.00614e+06, -1008.89, 0.866264, -1628.38, 0.0046292, 0.838462, 1.03299, 0.34851, 0.655882, 3, 45.5, 246, 61.3765, 0.136839, 0, 0, 0, 0, 1202
-14833.3, -301007, -59.7068, 0.603181, -2450.83, 0.162433, 0.432546, 1.03299, 0.34851, 0.655882, 0.0001, 45.5, 246, -42.4713, 0.206591, 0, 0, 0, 0, 1203
-14833.3, -301007, -59.7068, 0.603181, -2450.83, 0.162433, 0.432546, 1.03299, 0.34851, 0.655882, 3, 45.5, 246, -42.4713, 0.206591, 0, 0, 0, 0, 1203
-4735.03, 233220, -222.021, 2.78192, -2361.77, 0.042538, 0.381166, 0.958125, 0.351078, 0.648177, 0.0001, 182, 246, 39.9296, 0.231846, 0, 0, 0, 0, 1204
-4735.03, 233220, -222.021, 2.78192, -2361.77, 0.042538, 0.381166, 0.958125, 0.351078, 0.648177, 3, 182, 246, 39.9296, 0.231846, 0, 0, 0, 0, 1204
-10044.4, 142920, -96.6971, 2.56807, -1698.18, -0.028135, 0.313695, 1.03299, 0.34851, 0.655882, 3, 45.5, 246, 35.8751, 0.132002, 0, 0, 0, 0, 1209
-8186.45, 193362, -145.17, 2.75972, -1703.17, 0.0030248, 0.307637, 0.993198, 0.349787, 0.651995, 0.0001, 91, 246, 35.8751, 0.132002, 0, 0, 1, 0, 1209
-8186.45, 193362, -145.17, 2.75972, -1703.17, 0.0030248, 0.307637, 0.993198, 0.349787, 0.651995, 3, 91, 246, 35.8751, 0.132002, 0, 0, 1, 0, 1209
-10833.6, 446124, -347.442, 1.50862, -1605.27, 0.319576, 0.567653, 1.03299, 0.34851, 0.655882, 0.0001, 45.5, 246, 50.7559, 0.187263, 0, 0, 0, 0, 1215
-19352.7, 2.01238e+06, -889.062, 0.907416, -2099.84, -0.000300434, 0.726047, 1.03299, 0.34851, 0.655882, 3, 45.5, 246, 70.2208, 0.118531, 0, 0, 0, 0, 1222
-45607.9, 2.29338e+06, -979.269, 1.84933, -2761.94, 0.231531, 0.738173, 1.03299, 0.34851, 0.655882, 3, 45.5, 246, 86.9707, 0.115711, 0, 0, 0, 0, 1223
-44034.9, 1.79073e+06, -726.854, 2.01182, -2437.58, 0.348223, 0.591796, 1.03299, 0.34851, 0.655882, 3, 45.5, 246, 74.8221, 0.108032, 0, 0, 0, 0, 1225
-29317.3, 922863, -601.41, 3.24284, -2639.26, -0.048852, 0.646081, 1.03299, 0.34851, 0.655882, 3, 45.5, 246, 73.8593, 0.173929, 0, 0, 0, 0, 1229
-9496.18, 56073.1, -8.51416, 3.4659, -1858.53, -0.0540438, 0.198351, 1.03299, 0.34851, 0.655882, 0.0001, 45.5, 246, 26.58, 0.0886821, 0, 0, 0, 0, 1230
-9496.18, 56073.1, -8.51416, 3.4659, -1858.53, -0.0540438, 0.198351, 1.03299, 0.34851, 0.655882, 3, 45.5, 246, 26.58, 0.0886821, 0, 0, 0, 0, 1230
-5827.98, 176791, -145.206, 4.14301, -1876.68, 0.0724381, 0.24496, 0.958125, 0.351078, 0.648177, 0.0001, 182, 246, 26.58, 0.0886821, 0, 0, 0, 0, 1230
-5827.98, 176791, -145.206, 4.14301, -1876.68, 0.0724381, 0.24496, 0.958125, 0.351078, 0.648177, 3, 182, 246, 26.58, 0.0886821, 0, 0, 0, 0, 1230
-4937.26, -203867, 35.5345, 3.41206, -2699.05, -0.055917, 0.286173, 1.03299, 0.34851, 0.655882, 0.0001, 45.5, 246, 22.9966, 0.21846, 0, 0, 0, 0, 1232
-4937.26, -203867, 35.5345, 3.41206, -2699.05, -0.055917, 0.286173, 1.03299, 0.34851, 0.655882, 3, 45.5, 246, 22.9966, 0.21846, 0, 0, 0, 0, 1232
-40221.6, 1.78987e+06, -1019.24, 1.64592, -2212.74, 0.76602, 0.837995, 1.03299, 0.34851, 0.655882, 3, 45.5, 246, 74.2214, 0.137621, 0, 0, 0, 0, 1234
-12005.9, 561151, -74.4729, 0.854144, -2548.6, 0.324017, 0.342997, 1.03299, 0.34851, 0.655882, 0.0001, 45.5, 246, 45.437, 0.035465, 0, 0, 0, 0, 1240
-12005.9, 561151, -74.4729, 0.854144, -2548.6, 0.324017, 0.342997, 1.03299, 0.34851, 0.655882, 3, 45.5, 246, 45.437, 0.035465, 0, 0, 0, 0, 1240
-7282.27, 307401, -166.149, 1.55849, -2395.97, 0.0103189, 0.367669, 0.993198, 0.349787, 0.651995, 0.0001, 91, 246, 39.4494, 0.119497, 0, 0, 1, 0, 1242
-7282.27, 307401, -166.149, 1.55849, -2395.97, 0.0103189, 0.367669, 0.993198, 0.349787, 0.651995, 3, 91, 246, 39.4494, 0.119497, 0, 0, 1, 0, 1242
-4602.95, 409491, -209.963, 1.64548, -2409.92, 0.0216225, 0.351616, 0.958125, 0.351078, 0.648177, 0.0001, 182, 246, 39.4494, 0.119497, 0, 0, 0, 0, 1242
-4602.95, 409491, -209.963, 1.64548, -2409.92, 0.0216225, 0.351616, 0.958125, 0.351078, 0.648177, 3, 182, 246, 39.4494, 0.119497, 0, 0, 0, 0, 1242
-46544.6, 1.86582e+06, -918.786, 2.30501, -2744.14, 0.232459, 0.763657, 1.03299, 0.34851, 0.655882, 3, 45.5, 246, 84.8308, 0.134686, 0, 0, 0, 0, 1246
-52597.8, 1.53155e+06, -635.296, 3.02022, -2836.26, -0.0283803, 0.525381, 1.03299, 0.34851, 0.655882, 3, 45.5, 246, 80.1091, 0.120779, 0, 0, 0, 0, 1247
-30424.4, 1.55281e+06, -840.69, 2.3095, -2941.38, -0.0247985, 0.784758, 1.03299, 0.34851, 0.655882, 3, 45.5, 246, 85.3528, 0.148855, 0, 0, 0, 0, 1248
-7808.98, 464487, -372.416, 1.6419, -2432.55, 0.197057, 0.592142, 1.03299, 0.34851, 0.655882, 0.0001, 45.5, 246, 58.765, 0.180556, 0, 0, 0, 0, 1249
-7808.98, 464487, -372.416, 1.6419, -2432.55, 0.197057, 0.592142, 1.03299, 0.34851, 0.655882, 3, 45.5, 246, 58.765, 0.180556, 0, 0, 0, 0, 1249
-7640.69, 212259, -108.733, 0.23515, -1520.55, 0.0510675, 0.39309, 1.03299, 0.34851, 0.655882, 0.0001, 45.5, 246, 31.6025, 0.118745, 0, 0, 1, 0, 1250
-7640.69, 212259, -108.733, 0.23515, -1520.55, 0.0510675, 0.39309, 1.03299, 0.34851, 0.655882, 3, 45.5, 246, 31.6025, 0.118745, 0, 0, 1, 0, 1250
-25340, 1.45398e+06, -893.84, 1.80399, -2454.03, 0.154564, 0.874333, 1.03299, 0.34851, 0.655882, 3, 45.5, 246, 77.9398, 0.163707, 0, 0, 0, 0, 1253
-9311.18, 514696, -308.519, 1.6042, -2495.72, -0.0105588, 0.49535, 1.03299, 0.34851, 0.655882, 0.0001, 45.5, 246, 55.7356, 0.139405, 0, 0, 0, 0, 1254
-9311.18, 514696, -308.519, 1.6042, -2495.72, -0.0105588, 0.49535, 1.03299, 0.34851, 0.655882, 3, 45.5, 246, 55.7356, 0.139405, 0, 0, 0, 0, 1254
-8779.87, -249774, -0.803338, 0.199197, -2725.76, 0.325138, 0.342675, 1.03299, 0.34851, 0.655882, 0.0001, 45.5, 246, -26.8408, 0.0203544, 0, 0, 1, 0, 1258
-8779.87, -249774, -0.803338, 0.199197, -2725.76, 0.325138, 0.342675, 1.03299, 0.34851, 0.655882, 3, 45.5, 246, -26.8408, 0.0203544, 0, 0, 1, 0, 1258
-8065.51, 155009, -116.274, 2.36835, -1754.86, 0.111228, 0.316717, 0.993198, 0.349787, 0.651995, 0.0001, 91, 246, 32.9556, 0.131661, 0, 0, 1, 0, 1260
-8065.51, 155009, -116.274, 2.36835, -1754.86, 0.111228, 0.316717, 0.993198, 0.349787, 0.651995, 3, 91, 246, 32.9556, 0.131661, 0, 0, 1, 0, 1260
-17481.9, 637449, -460.823, 2.9183, -2635.1, 0.130526, 0.588266, 1.03299, 0.34851, 0.655882, 0.0001, 45.5, 246, 66.9376, 0.174973, 0, 0, 0, 0, 1261
-17481.9, 637449, -460.823, 2.9183, -2635.1, 0.130526, 0.588266, 1.03299, 0.34851, 0.655882, 3, 45.5, 246, 66.9376, 0.174973, 0, 0, 0, 0, 1261
3245.2, 1.1783e+06, -618.54, 1.09319, -2067.06, 0.510849, 0.585714, 0.958125, 0.351078, 0.648177, 3, 182, 246, 55.0826, 0.129276, 0, 0, 0, 0, 1263
-29319.8, 1.21394e+06, -790.927, 2.0855, -2117.06, -0.0184507, 0.845073, 1.03299, 0.34851, 0.655882, 3, 45.5, 246, 70.9287, 0.179127, 0, 0, 0, 0, 1264
-35331.9, 1.56347e+06, -734.51, 1.84642, -2138.21, -0.0161012, 0.673168, 1.03299, 0.34851, 0.655882, 3, 45.5, 246, 69.05, 0.131041, 0, 0, 0, 0, 1270
-19623.6, 1.22877e+06, -660.494, 1.92941, -2680.16, -0.0176066, 0.680738, 1.03299, 0.34851, 0.655882, 3, 45.5, 246, 75.2556, 0.14255, 0, 0, 0, 0, 1272
-42027.3, 2.9693e+06, -1373.43, 0.814469, -2195.54, 0.561284, 0.887078, 1.03299, 0.34851, 0.655882, 3, 45.5, 246, 77.5106, 0.111934, 0, 0, 0, 0, 1273
-5606.81, 310586, -134.511, 4.12248, -2804.22, 0.0796976, 0.239594, 0.958125, 0.351078, 0.648177, 0.0001, 182, 246, 25.6861, 0.0678884, 0, 0, 0, 0, 1276
-5606.81, 310586, -134.511, 4.12248, -2804.22, 0.0796976, 0.239594, 0.958125, 0.351078, 0.648177, 3, 182, 246, 25.6861, 0.0678884, 0, 0, 0, 0, 1276
-4039.83, 521520, -203.67, 0.418899, -2807.83, -0.00065672, 0.401974, 1.03299, 0.34851, 0.655882, 0.0001, 45.5, 246, 50.381, 0.0760083, 0, 0, 0, 0, 1279
-4039.83, 521520, -203.67, 0.418899, -2807.83, -0.00065672, 0.401974, 1.03299, 0.34851, 0.655882, 3, 45.5, 246, 50.381, 0.0760083, 0, 0, 0, 0, 1279
-8249.57, 287729, -163.048, 2.72546, -2488.03, 0.00819274, 0.322272, 0.993198, 0.349787, 0.651995, 0.0001, 91, 246, 39.406, 0.115512, 0, 0, 1, 0, 1281
-8249.57, 287729, -163.048, 2.72546, -2488.03, 0.00819274, 0.322272, 0.993198, 0.349787, 0.651995, 3, 91, 246, 39.406, 0.115512, 0, 0, 1, 0, 1281
-3778.52, 398243, -240.012, 2.93907, -2513.05, 0.043481, 0.32774, 0.958125, 0.351078, 0.648177, 0.0001, 182, 246, 39.406, 0.115512, 0, 0, 0, 0, 1281
-3778.52, 398243, -240.012, 2.93907, -2513.05, 0.043481, 0.32774, 0.958125, 0.351078, 0.648177, 3, 182, 246, 39.406, 0.115512, 0, 0, 0, 0, 1281
-10257.1, -228963, -48.1984, 0.651649, -2592.17, 0.163285, 0.411034, 1.03299, 0.34851, 0.655882, 0.0001, 45.5, 246, -0.540381, 0.213256, 0, 0, 0, 0, 1284
-10257.1, -228963, -48.1984, 0.651649, -2592.17, 0.163285, 0.411034, 1.03299, 0.34851, 0.655882, 3, 45.5, 246, -0.540381, 0.213256, 0, 0, 0, 0, 1284
-29263.3, 2.74779e+06, -1014.02, 0.694599, -1846.48, 0.000656483, 0.703797, 1.03299, 0.34851, 0.655882, 3, 45.5, 246, 66.0865, 0.099446, 0, 0, 0, 0, 1286
-14593.4, 470985, -491.082, 3.22817, -2223.35, 0.433897, 0.675777, 1.03299, 0.34851, 0.655882, 3, 45.5, 246, 66.8946, 0.232504, 0, 0, 0, 0, 1288
-43099, 2.70045e+06, -919.971, 1.46176, -2651.09, 0.0712184, 0.643972, 1.03299, 0.34851, 0.655882, 3, 45.5, 246, 85.0441, 0.0938931, 0, 0, 0, 0, 1290
-3121.99, 648789, -242.732, 0.493647, -2913.88, 0.0912799, 0.412719, 1.03299, 0.34851, 0.655882, 0.0001, 45.5, 246, 55.5606, 0.0751819, 0, 0, 0, 0, 1291
-8154.86, 221077, -147.226, 2.93585, -2173.4, 0.141425, 0.304665, 0.993198, 0.349787, 0.651995, 0.0001, 91, 246, 36.8289, 0.123201, 0, 0, 1, 0, 1293
-8154.86, 221077, -147.226, 2.93585, -2173.4, 0.141425, 0.304665, 0.993198, 0.349787, 0.651995, 3, 91, 246, 36.8289, 0.123201, 0, 0, 1, 0, 1293
-4445.67, 309168, -220.892, 3.20095, -2245.24, 0.186933, 0.315232, 0.958125, 0.351078, 0.648177, 0.0001, 182, 246, 36.8289, 0.123201, 0, 0, 0, 0, 1293
-4445.67, 309168, -220.892, 3.20095, -2245.24, 0.186933, 0.315232, 0.958125, 0.351078, 0.648177, 3, 182, 246, 36.8289, 0.123201, 0, 0, 0, 0, 1293
-12908, 308817, -266.813, 2.82136, -1652.86, 0.496876, 0.414495, 1.03299, 0.34851, 0.655882, 0.0001, 45.5, 246, 49.5699, 0.179896, 0, 0, 0, 0, 1295
-12908, 308817, -266.813, 2.82136, -1652.86, 0.496876, 0.414495, 1.03299, 0.34851, 0.655882, 3, 45.5, 246, 49.5699, 0.179896, 0, 0, 0, 0, 1295
-13295.3, 656434, -603.612, 2.36643, -2411.53, 0.120837, 0.842908, 1.03299, 0.34851, 0.655882, 3, 45.5, 246, 71.0085, 0.224782, 0, 0, 0, 0, 1297
-12563.2, 302545, 2.56935, 0.999996, -1366.56, 0.606341, 0.32441, 1.03299, 0.34851, 0.655882, 0.0001, 45.5, 246, 22.5105, 0.0125529, 0, 0, 1, 0, 1298
-12563.2, 302545, 2.56935, 0.999996, -1366.56, 0.606341, 0.32441, 1.03299, 0.34851, 0.655882, 3, 45.5, 246, 22.5105, 0.0125529, 0, 0, 1, 0, 1298
-11388.1, 349576, -10.7209, 1.08093, -1512.07, 0.675849, 0.291851, 0.993198, 0.349787, 0.651995, 3, 91, 246, 22.5105, 0.0125529, 0, 0, 1, 0, 1298
-9762.8, 408653, -27.3397, 1.17186, -1694.23, 0.762895, 0.264793, 0.958125, 0.351078, 0.648177, 0.0001, 182, 246, 22.5105, 0.0125529, 0, 0, 1, 0, 1298
-9762.8, 408653, -27.3397, 1.17186, -1694.23, 0.762895, 0.264793, 0.958125, 0.351078, 0.648177, 3, 182, 246, 22.5105, 0.0125529, 0, 0, 1, 0, 1298
-11201.1, 174232, -79.2875, 2.47961, -1976.41, 0.124602, 0.305336, 1.03299, 0.34851, 0.655882, 0.0001, 45.5, 246, 35.3216, 0.106448, 0, 0, 0, 0, 1300
-11201.1, 174232, -79.2875, 2.47961, -1976.41, 0.124602, 0.305336, 1.03299, 0.34851, 0.655882, 3, 45.5, 246, 35.3216, 0.106448, 0, 0, 0, 0, 1300
-8986.27, 245823, -132.041, 2.68164, -2027.93, 0.156927, 0.296708, 0.993198, 0.349787, 0.651995, 0.0001, 91, 246, 35.3216, 0.106448, 0, 0, 1, 0, 1300
-8986.27, 245823, -132.041, 2.68164, -2027.93, 0.156927, 0.296708, 0.993198, 0.349787, 0.651995, 3, 91, 246, 35.3216, 0.106448, 0, 0, 1, 0, 1300
-9148.23, 64860.3, -16.9761, 1.11539, -1459.43, 0.720114, 0.336444, 1.03299, 0.34851, 0.655882, 0.0001, 45.5, 246, 18.8755, 0.0654004, 0, 0, 1, 0, 1301
-9148.23, 64860.3, -16.9761, 1.11539, -1459.43, 0.720114, 0.336444, 1.03299, 0.34851, 0.655882, 3, 45.5, 246, 18.8755, 0.0654004, 0, 0, 1, 0, 1301
-3213.44, 348403, -405.866, 3.39908, -2578.32, 0.386846, 0.573618, 0.993198, 0.349787, 0.651995, 0.0001, 91, 246, 58.9199, 0.241572, 0, 0, 1, 0, 1307
-3213.44, 348403, -405.866, 3.39908, -2578.32, 0.386846, 0.573618, 0.993198, 0.349787, 0.651995, 3, 91, 246, 58.9199, 0.241572, 0, 0, 1, 0, 1307
-6057.42, 280812, -252.203, 2.04975, -2339.51, 0.504202, 0.467509, 0.993198, 0.349787, 0.651995, 0.0001, 91, 246, 47.4983, 0.203764, 0, 0, 1, 0, 1312
-6057.42, 280812, -252.203, 2.04975, -2339.51, 0.504202, 0.467509, 0.993198, 0.349787, 0.651995, 3, 91, 246, 47.4983, 0.203764, 0, 0, 1, 0, 1312
-12070.5, 257168, -74.0704, 1.93531, -2535.31, 0.220381, 0.327633, 1.03299, 0.34851, 0.655882, 0.0001, 45.5, 246, 38.7562, 0.077235, 0, 0, 0, 0, 1313
-12070.5, 257168, -74.0704, 1.93531, -2535.31, 0.220381, 0.327633, 1.03299, 0.34851, 0.655882, 3, 45.5, 246, 38.7562, 0.077235, 0, 0, 0, 0, 1313
-9469.12, 378121, -125.726, 2.08324, -2635.81, 0.246689, 0.308699, 0.993198, 0.349787, 0.651995, 0.0001, 91, 246, 38.7562, 0.077235, 0, 0, 1, 0, 1313
-9469.12, 378121, -125.726, 2.08324, -2635.81, 0.246689, 0.308699, 0.993198, 0.349787, 0.651995, 3, 91, 246, 38.7562, 0.077235, 0, 0, 1, 0, 1313
-4284.28, 386337, -240.391, 0.746822, -2979.81, 0.126432, 0.444426, 0.993198, 0.349787, 0.651995, 0.0001, 91, 246, 45.5407, 0.145654, 0, 0, 1, 0, 1315
-4284.28, 386337, -240.391, 0.746822, -2979.81, 0.126432, 0.444426, 0.993198, 0.349787, 0.651995, 3, 91, 246, 45.5407, 0.145654, 0, 0, 1, 0, 1315
-2229.99, 549986, -271.038, 0.783204, -3046.37, 0.131631, 0.425225, 0.958125, 0.351078, 0.648177, 0.0001, 182, 246, 45.5407, 0.145654, 0, 0, 0, 0, 1315
-2229.99, 549986, -271.038, 0.783204, -3046.37, 0.131631, 0.425225, 0.958125, 0.351078, 0.648177, 3, 182, 246, 45.5407, 0.145654, 0, 0, 0, 0, 1315
-10999, -388421, 60.9438, 2.38224, -2875.79, 0.188886, 0.409144, 1.03299, 0.34851, 0.655882, 0.0001, 45.5, 246, -39.0303, 0.168389, 0, 0, 0, 0, 1316
-10999, -388421, 60.9438, 2.38224, -2875.79, 0.188886, 0.409144, 1.03299, 0.34851, 0.655882, 3, 45.5, 246, -39.0303, 0.168389, 0, 0, 0, 0, 1316
-14794.3, -242620, -0.486274, 2.58808, -2968.51, 0.222633, 0.406149, 0.993198, 0.349787, 0.651995, 3, 91, 246, -39.0303, 0.168389, 0, 0, 1, 0, 1316
-29071.7, 943850, -787.882, 3.17053, -2591.92, 0.627858, 0.869494, 1.03299, 0.34851, 0.655882, 3, 45.5, 246, 79.0772, 0.204542, 0, 0, 0, 0, 1319
-10063.1, -242848, -5.34113, 0.593901, -2287.42, 0.0961441, 0.357717, 1.03299, 0.34851, 0.655882, 0.0001, 45.5, 246, -41.0769, 0.0834057, 0, 0, 1, 0, 1322
-10063.1, -242848, -5.34113, 0.593901, -2287.42, 0.0961441, 0.357717, 1.03299, 0.34851, 0.655882, 3, 45.5, 246, -41.0769, 0.0834057, 0, 0, 1, 0, 1322
-10865.8, -150672, -18.0529, 0.619705, -2323.19, 0.0992687, 0.324324, 0.993198, 0.349787, 0.651995, 0.0001, 91, 246, -41.0769, 0.0834057, 0, 0, 1, 0, 1322
-10865.8, -150672, -18.0529, 0.619705, -2323.19, 0.0992687, 0.324324, 0.993198, 0.349787, 0.651995, 3, 91, 246, -41.0769, 0.0834057, 0, 0, 1, 0, 1322
-3155.5, 520220, -399.279, 0.291351, -1776.84, 0.659794, 0.608798, 1.03299, 0.34851, 0.655882, 3, 45.5, 246, 52.1977, 0.176839, 0, 0, 0, 0, 1325
-10550, 506016, -497.414, 2.38745, -2408.81, 0.141639, 0.750548, 1.03299, 0.34851, 0.655882, 3, 45.5, 246, 67.0116, 0.229705, 0, 0, 0, 0, 1330
-23647.5, 2.30231e+06, -1193.57, 0.508055, -1828.19, 0.392893, 0.879939, 1.03299, 0.34851, 0.655882, 3, 45.5, 246, 66.6053, 0.127616, 0, 0, 0, 0, 1332
-13260.3, 271505, -150.368, 2.82352, -1953.74, -0.0372672, 0.318925, 1.03299, 0.34851, 0.655882, 0.0001, 45.5, 246, 42.7856, 0.128894, 0, 0, 0, 0, 1334
-13260.3, 271505, -150.368, 2.82352, -1953.74, -0.0372672, 0.318925, 1.03299, 0.34851, 0.655882, 3, 45.5, 246, 42.7856, 0.128894, 0, 0, 0, 0, 1334
-9335.72, 338416, -214.885, 3.0485, -1962.01, 0.000601542, 0.320136, 0.993198, 0.349787, 0.651995, 0.0001, 91, 246, 42.7856, 0.128894, 0, 0, 1, 0, 1334
-9335.72, 338416, -214.885, 3.0485, -1962.01, 0.000601542, 0.320136, 0.993198, 0.349787, 0.651995, 3, 91, 246, 42.7856, 0.128894, 0, 0, 1, 0, 1334
-46806.6, 1.73809e+06, -993.602, 1.6009, -1780.64, 0.476385, 0.855074, 1.03299, 0.34851, 0.655882, 3, 45.5, 246, 65.1867, 0.14646, 0, 0, 0, 0, 1335
-4099.41, 745661, -159.883, 0.32164, -2864.27, 0.633051, 0.307806, 0.958125, 0.351078, 0.648177, 0.0001, 182, 246, 43.5892, 0.0557769, 0, 0, 0, 0, 1336
-7334.82, 158014, -75.8136, 3.26876, -2605.37, 0.240855, 0.271334, 0.958125, 0.351078, 0.648177, 0.0001, 182, 246, 12.7078, 0.0674838, 0, 0, 1, 0, 1339
-7334.82, 158014, -75.8136, 3.26876, -2605.37, 0.240855, 0.271334, 0.958125, 0.351078, 0.648177, 3, 182, 246, 12.7078, 0.0674838, 0, 0, 0, 0, 1339
-35736.2, 1.95323e+06, -1071.49, 1.58249, -2418.16, 0.29874, 0.90282, 1.03299, 0.34851, 0.655882, 3, 45.5, 246, 80.3522, 0.144712, 0, 0, 0, 0, 1340
-11570.8, 550393, -142.794, 1.07994, -2236.87, 0.0110752, 0.366347, 1.03299, 0.34851, 0.655882, 0.0001, 45.5, 246, 45.0593, 0.0659119, 0, 0, 0, 0, 1343
-11570.8, 550393, -142.794, 1.07994, -2236.87, 0.0110752, 0.366347, 1.03299, 0.34851, 0.655882, 3, 45.5, 246, 45.0593, 0.0659119, 0, 0, 0, 0, 1343
-4321.46, 485094, -199.042, 0.309066, -2415.36, -0.000393753, 0.406763, 1.03299, 0.34851, 0.655882, 3, 45.5, 246, 46.662, 0.0848733, 0, 0, 0, 0, 1344
-9390.93, 204878, -53.2349, 1.99478, -2293.05, 0.195363, 0.289465, 0.993198, 0.349787, 0.651995, 0.0001, 91, 246, 26.6803, 0.062846, 0, 0, 1, 0, 1350
-9390.93, 204878, -53.2349, 1.99478, -2293.05, 0.195363, 0.289465, 0.993198, 0.349787, 0.651995, 3, 91, 246, 26.6803, 0.062846, 0, 0, 1, 0, 1350
-7232.79, 302968, -100.089, 2.14061, -2373.81, 0.220947, 0.275843, 0.958125, 0.351078, 0.648177, 0.0001, 182, 246, 26.6803, 0.062846, 0, 0, 0, 0, 1350
-7232.79, 302968, -100.089, 2.14061, -2373.81, 0.220947, 0.275843, 0.958125, 0.351078, 0.648177, 3, 182, 246, 26.6803, 0.062846, 0, 0, 0, 0, 1350
-6616.78, 161626, -112.835, 3.66724, -2404.25, 0.0570539, 0.273961, 0.958125, 0.351078, 0.648177, 0.0001, 182, 246, 19.0319, 0.0853504, 0, 0, 0, 0, 1351
-6616.78, 161626, -112.835, 3.66724, -2404.25, 0.0570539, 0.273961, 0.958125, 0.351078, 0.648177, 3, 182, 246, 19.0319, 0.0853504, 0, 0, 0, 0, 1351
-12341.7, 366001, -206.617, 2.08994, -2181.83, 0.769583, 0.394407, 1.03299, 0.34851, 0.655882, 0.0001, 45.5, 246, 47.9305, 0.123386, 0, 0, 0, 0, 1353
-12341.7, 366001, -206.617, 2.08994, -2181.83, 0.769583, 0.394407, 1.03299, 0.34851, 0.655882, 3, 45.5, 246, 47.9305, 0.123386, 0, 0, 0, 0, 1353
-12954.3, 530858, -58.7675, 0.855124, -1894.04, 0.279505, 0.338024, 1.03299, 0.34851, 0.655882, 0.0001, 45.5, 246, 36.9089, 0.0323612, 0, 0, 0, 0, 1355
-12954.3, 530858, -58.7675, 0.855124, -1894.04, 0.279505, 0.338024, 1.03299, 0.34851, 0.655882, 3, 45.5, 246, 36.9089, 0.0323612, 0, 0, 0, 0, 1355
-6713.27, 279580, -222.496, 0.940081, -2607.73, 0.000325824, 0.506759, 0.993198, 0.349787, 0.651995, 3, 91, 246, 45.279, 0.236567, 0, 0, 1, 0, 1356
-4946.33, 400224, -255.524, 0.984421, -2614.74, 0.00439115, 0.494375, 0.958125, 0.351078, 0.648177, 0.0001, 182, 246, 45.279, 0.236567, 0, 0, 0, 0, 1356
-4946.33, 400224, -255.524, 0.984421, -2614.74, 0.00439115, 0.494375, 0.958125, 0.351078, 0.648177, 3, 182, 246, 45.279, 0.236567, 0, 0, 0, 0, 1356
-13214.1, 479102, -70.5696, 1.06796, -1881.43, 0.0604723, 0.33789, 1.03299, 0.34851, 0.655882, 0.0001, 45.5, 246, 36.4301, 0.0433667, 0, 0, 0, 0, 1359
-13214.1, 479102, -70.5696, 1.06796, -1881.43, 0.0604723, 0.33789, 1.03299, 0.34851, 0.655882, 3, 45.5, 246, 36.4301, 0.0433667, 0, 0, 0, 0, 1359
-11047.2, 352014, -339.808, 2.5511, -2010.55, 0.317161, 0.552133, 1.03299, 0.34851, 0.655882, 3, 45.5, 246, 56.9815, 0.211997, 0, 0, 0, 0, 1362
-41769.1, 3.13969e+06, -1360.34, 0.454136, -1695.07, 0.414691, 0.844305, 1.03299, 0.34851, 0.655882, 3, 45.5, 246, 63.8715, 0.10581, 0, 0, 0, 0, 1364
-3500.2, -142719, -28.7356, 3.56398, -2851.04, -0.0608647, 0.299423, 1.03299, 0.34851, 0.655882, 0.0001, 45.5, 246, 43.3983, 0.240328, 0, 0, 0, 0, 1365
-3500.2, -142719, -28.7356, 3.56398, -2851.04, -0.0608647, 0.299423, 1.03299, 0.34851, 0.655882, 3, 45.5, 246, 43.3983, 0.240328, 0, 0, 0, 0, 1365
-8532.29, 502895, -396.902, 1.99778, -2757.21, 0.153673, 0.596336, 1.03299, 0.34851, 0.655882, 0.0001, 45.5, 246, 62.3808, 0.174003, 0, 0, 0, 0, 1366
-8532.29, 502895, -396.902, 1.99778, -2757.21, 0.153673, 0.596336, 1.03299, 0.34851, 0.655882, 3, 45.5, 246, 62.3808, 0.174003, 0, 0, 0, 0, 1366
-29842.7, 878592, -625.976, 3.44281, -2566.69, -0.0237031, 0.681372, 1.03299, 0.34851, 0.655882, 3, 45.5, 246, 74.2295, 0.188202, 0, 0, 0, 0, 1370
-9825.71, -181890, -88.0777, 0.353448, -2552.29, 0.723028, 0.438288, 1.03299, 0.34851, 0.655882, 0.0001, 45.5, 246, 16.5421, 0.232629, 0, 0, 0, 0, 1371
-9825.71, -181890, -88.0777, 0.353448, -2552.29, 0.723028, 0.438288, 1.03299, 0.34851, 0.655882, 3, 45.5, 246, 16.5421, 0.232629, 0, 0, 0, 0, 1371
-6007.22, -104125, 44.3021, 3.46218, -1526.68, 0.676378, 0.234469, 1.03299, 0.34851, 0.655882, 0.0001, 45.5, 246, 6.97433, 0.114756, 1.96315, 1, 1, 0, 1374
-6007.22, -104125, 44.3021, 3.46218, -1526.68, 0.676378, 0.234469, 1.03299, 0.34851, 0.655882, 3, 45.5, 246, 6.97433, 0.114756, 1.76361, 1, 1, 0, 1374
-9248.99, 185063, -53.3208, 1.7604, -1969.8, 0.402505, 0.295368, 0.993198, 0.349787, 0.651995, 0.0001, 91, 246, 25.1686, 0.0651955, 0, 0, 1, 0, 1375
-9248.99, 185063, -53.3208, 1.7604, -1969.8, 0.402505, 0.295368, 0.993198, 0.349787, 0.651995, 3, 91, 246, 25.1686, 0.0651955, 0, 0, 1, 0, 1375
-5712.29, 362903, -312.623, 3.60847, -2777.26, 0.318265, 0.405322, 0.993198, 0.349787, 0.651995, 0.0001, 91, 246, 51.2961, 0.169067, 0, 0, 1, 0, 1377
-5712.29, 362903, -312.623, 3.60847, -2777.26, 0.318265, 0.405322, 0.993198, 0.349787, 0.651995, 3, 91, 246, 51.2961, 0.169067, 0, 0, 1, 0, 1377
-18415.2, 344212, -91.6029, 3.2944, -2799.69, -0.0514512, 0.24108, 1.03299, 0.34851, 0.655882, 0.0001, 45.5, 246, 46.6368, 0.0910588, 0, 0, 0, 0, 1381
-18415.2, 344212, -91.6029, 3.2944, -2799.69, -0.0514512, 0.24108, 1.03299, 0.34851, 0.655882, 3, 45.5, 246, 46.6368, 0.0910588, 0, 0, 0, 0, 1381
-12393.9, 480486, -187.637, 3.57991, -2800.69, 0.000467583, 0.251474, 0.993198, 0.349787, 0.651995, 0.0001, 91, 246, 46.6368, 0.0910588, 0, 0, 1, 0, 1381
-12393.9, 480486, -187.637, 3.57991, -2800.69, 0.000467583, 0.251474, 0.993198, 0.349787, 0.651995, 3, 91, 246, 46.6368, 0.0910588, 0, 0, 1, 0, 1381
-20343.4, 1.55178e+06, -993.496, 0.822911, -1771.96, 0.0250988, 0.961966, 1.03299, 0.34851, 0.655882, 3, 45.5, 246, 65.8626, 0.171993, 0, 0, 0, 0, 1383
-6171.43, 513057, -257.197, 1.02269, -2806.02, 0.260303, 0.443212, 1.03299, 0.34851, 0.655882, 0.0001, 45.5, 246, 54.099, 0.102949, 0, 0, 0, 0, 1384
-6171.43, 513057, -257.197, 1.02269, -2806.02, 0.260303, 0.443212, 1.03299, 0.34851, 0.655882, 3, 45.5, 246, 54.099, 0.102949, 0, 0, 0, 0, 1384
-14715.1, 536318, -35.5888, 1.12747, -2876.99, 0.0357475, 0.328926, 1.03299, 0.34851, 0.655882, 0.0001, 45.5, 246, 46.0195, 0.0284468, 0, 0, 0, 0, 1386
-14715.1, 536318, -35.5888, 1.12747, -2876.99, 0.0357475, 0.328926, 1.03299, 0.34851, 0.655882, 3, 45.5, 246, 46.0195, 0.0284468, 0, 0, 0, 0, 1386
-13668, 452800, -194.679, 2.18823, -2808.79, 0.0892606, 0.378954, 1.03299, 0.34851, 0.655882, 0.0001, 45.5, 246, 52.3325, 0.10357, 0, 0, 0, 0, 1388
-13668, 452800, -194.679, 2.18823, -2808.79, 0.0892606, 0.378954, 1.03299, 0.34851, 0.655882, 3, 45.5, 246, 52.3325, 0.10357, 0, 0, 0, 0, 1388
-15427.2, -412861, -9.38127, 0.604458, -2211.46, 0.129974, 0.37021, 1.03299, 0.34851, 0.655882, 0.0001, 45.5, 246, -107.761, 0.0762307, 0, 0, 0, 0, 1390
-15427.2, -412861, -9.38127, 0.604458, -2211.46, 0.129974, 0.37021, 1.03299, 0.34851, 0.655882, 3, 45.5, 246, -107.761, 0.0762307, 0, 0, 0, 0, 1390
-16867.6, -327928, -22.1035, 0.632211, -2258.39, 0.134413, 0.337815, 0.993198, 0.349787, 0.651995, 0.0001, 91, 246, -107.761, 0.0762307, 0, 0, 1, 0, 1390
-16867.6, -327928, -22.1035, 0.632211, -2258.39, 0.134413, 0.337815, 0.993198, 0.349787, 0.651995, 3, 91, 246, -107.761, 0.0762307, 0, 0, 1, 0, 1390
-18090.7, -238633, -36.088, 0.659968, -2308.23, 0.139202, 0.309924, 0.958125, 0.351078, 0.648177, 0.0001, 182, 246, -107.761, 0.0762307, 0, 0, 0, 0, 1390
-18090.7, -238633, -36.088, 0.659968, -2308.23, 0.139202, 0.309924, 0.958125, 0.351078, 0.648177, 3, 182, 246, -107.761, 0.0762307, 0, 0, 0, 0, 1390
-14415.6, 214173, -38.0633, 2.7711, -1457.88, 0.173659, 0.2349, 1.03299, 0.34851, 0.655882, 0.0001, 45.5, 246, 27.8046, 0.0639394, 0, 0, 0, 0, 1394
-14415.6, 214173, -38.0633, 2.7711, -1457.88, 0.173659, 0.2349, 1.03299, 0.34851, 0.655882, 3, 45.5, 246, 27.8046, 0.0639394, 0, 0, 0, 0, 1394
-11724.8, 254518, -80.0398, 3.01645, -1507.86, 0.216355, 0.229392, 0.993198, 0.349787, 0.651995, 0.0001, 91, 246, 27.8046, 0.0639394, 0, 0, 1, 0, 1394
-11724.8, 254518, -80.0398, 3.01645, -1507.86, 0.216355, 0.229392, 0.993198, 0.349787, 0.651995, 3, 91, 246, 27.8046, 0.0639394, 0, 0, 1, 0, 1394
-41718.2, 2.17472e+06, -989.715, 1.04789, -1603.87, 0.0194387, 0.785014, 1.03299, 0.34851, 0.655882, 3, 45.5, 246, 60.3371, 0.125009, 0, 0, 0, 0, 1395
-31742, 3.60991e+06, -892.359, 0.811867, -2386.29, -0.00301924, 0.552636, 1.03299, 0.34851, 0.655882, 3, 45.5, 246, 80.587, 0.0669195, 0, 0, 0, 0, 1398
-13203.1, 251623, 18.8719, 1.43699, -2669.14, 0.000950316, 0.312958, 1.03299, 0.34851, 0.655882, 0.0001, 45.5, 246, 31.8996, 0.023837, 0, 0, 0, 0, 1403
-13203.1, 251623, 18.8719, 1.43699, -2669.14, 0.000950316, 0.312958, 1.03299, 0.34851, 0.655882, 3, 45.5, 246, 31.8996, 0.023837, 0, 0, 0, 0, 1403
-11484.2, 376554, -15.595, 1.51341, -2671.45, 0.0105082, 0.284566, 0.993198, 0.349787, 0.651995, 0.0001, 91, 246, 31.8996, 0.023837, 0, 0, 1, 0, 1403
-11484.2, 376554, -15.595, 1.51341, -2671.45, 0.0105082, 0.284566, 0.993198, 0.349787, 0.651995, 3, 91, 246, 31.8996, 0.023837, 0, 0, 1, 0, 1403
-17389.2, -388129, -63.749, 0.426245, -2212.66, 0.587126, 0.38255, 1.03299, 0.34851, 0.655882, 0.0001, 45.5, 246, -82.0371, 0.0852787, 0, 0, 0, 0, 1407
-17389.2, -388129, -63.749, 0.426245, -2212.66, 0.587126, 0.38255, 1.03299, 0.34851, 0.655882, 3, 45.5, 246, -82.0371, 0.0852787, 0, 0, 0, 0, 1407
-18511.7, -304679, -75.1787, 0.456066, -2439.95, 0.64811, 0.350241, 0.993198, 0.349787, 0.651995, 0.0001, 91, 246, -82.0371, 0.0852787, 0, 0, 1, 0, 1407
-18511.7, -304679, -75.1787, 0.456066, -2439.95, 0.64811, 0.350241, 0.993198, 0.349787, 0.651995, 3, 91, 246, -82.0371, 0.0852787, 0, 0, 1, 0, 1407
-63786.9, 3.18244e+06, -1358.69, 1.33416, -2411.21, 0.17428, 0.907052, 1.03299, 0.34851, 0.655882, 0.0001, 45.5, 246, 85.1151, 0.116684, 0, 0, 0, 0, 1410
-11087, 216355, -144.911, 2.59085, -1900.86, -0.0318545, 0.345791, 1.03299, 0.34851, 0.655882, 0.0001, 45.5, 246, 41.7329, 0.142941, 0, 0, 0, 0, 1413
-11087, 216355, -144.911, 2.59085, -1900.86, -0.0318545, 0.345791, 1.03299, 0.34851, 0.655882, 3, 45.5, 246, 41.7329, 0.142941, 0, 0, 0, 0, 1413
-8152.94, 279829, -202.627, 2.78739, -1908.22, -8.77296e-05, 0.342668, 0.993198, 0.349787, 0.651995, 0.0001, 91, 246, 41.7329, 0.142941, 0, 0, 1, 0, 1413
-8152.94, 279829, -202.627, 2.78739, -1908.22, -8.77296e-05, 0.342668, 0.993198, 0.349787, 0.651995, 3, 91, 246, 41.7329, 0.142941, 0, 0, 1, 0, 1413
-3841.74, 345421, -269.256, 3.0099, -1931.62, 0.0368163, 0.351272, 0.958125, 0.351078, 0.648177, 0.0001, 182, 246, 41.7329, 0.142941, 0, 0, 0, 0, 1413
-3841.74, 345421, -269.256, 3.0099, -1931.62, 0.0368163, 0.351272, 0.958125, 0.351078, 0.648177, 3, 182, 246, 41.7329, 0.142941, 0, 0, 0, 0, 1413
-8662.45, 27723.3, -3.60586, 2.25126, -1645.57, 0.44187, 0.279633, 0.993198, 0.349787, 0.651995, 0.0001, 91, 246, 9.79698, 0.0565118, 0, 0, 1, 0, 1414
-8662.45, 27723.3, -3.60586, 2.25126, -1645.57, 0.44187, 0.279633, 0.993198, 0.349787, 0.651995, 3, 91, 246, 9.79698, 0.0565118, 0, 0, 1, 0, 1414
-9656.12, 228201, -122.448, 1.57117, -2279.78, 0.666806, 0.374637, 1.03299, 0.34851, 0.655882, 3, 45.5, 246, 39.7131, 0.106674, 0, 0, 0, 0, 1420
-7668.44, 341256, -165.403, 1.72546, -2557.36, 0.758668, 0.353173, 0.993198, 0.349787, 0.651995, 0.0001, 91, 246, 39.7131, 0.106674, 0, 0, 1, 0, 1420
-7668.44, 341256, -165.403, 1.72546, -2557.36, 0.758668, 0.353173, 0.993198, 0.349787, 0.651995, 3, 91, 246, 39.7131, 0.106674, 0, 0, 1, 0, 1420
-26430.6, 480030, 20.7859, 2.75338, -2522.61, -0.026252, 0.21402, 1.03299, 0.34851, 0.655882, 0.0001, 45.5, 246, 41.5439, 0.0315539, 0, 0, 0, 0, 1424
-26430.6, 480030, 20.7859, 2.75338, -2522.61, -0.026252, 0.21402, 1.03299, 0.34851, 0.655882, 3, 45.5, 246, 41.5439, 0.0315539, 0, 0, 0, 0, 1424
-13430.1, -388229, 18.4169, 1.70208, -2786.97, -0.0122935, 0.4229, 1.03299, 0.34851, 0.655882, 0.0001, 45.5, 246, -50.1076, 0.160987, 0, 0, 0, 0, 1427
-13430.1, -388229, 18.4169, 1.70208, -2786.97, -0.0122935, 0.4229, 1.03299, 0.34851, 0.655882, 3, 45.5, 246, -50.1076, 0.160987, 0, 0, 0, 0, 1427
-16316.3, -252390, -24.6113, 1.80582, -2784.61, 0.00121318, 0.406929, 0.993198, 0.349787, 0.651995, 3, 91, 246, -50.1076, 0.160987, 0, 0, 1, 0, 1427
-1951.91, 2.76635e+06, -140.342, 0.0561583, -2608.82, 0.24173, 0.314563, 0.993198, 0.349787, 0.651995, 3, 91, 246, 70.7169, 0.0118485, 0, 0, 1, 0, 1429
-6653.99, 143981, -124.468, 3.56121, -2345.89, 0.0546765, 0.288872, 0.958125, 0.351078, 0.648177, 0.0001, 182, 246, 20.6203, 0.0979046, 0, 0, 1, 0, 1434
-6653.99, 143981, -124.468, 3.56121, -2345.89, 0.0546765, 0.288872, 0.958125, 0.351078, 0.648177, 3, 182, 246, 20.6203, 0.0979046, 0, 0, 1, 0, 1434
-6656.55, 123228, -134.508, 3.81982, -2532.51, 0.68926, 0.298458, 0.958125, 0.351078, 0.648177, 0.0001, 182, 246, 21.3771, 0.087873, 0, 0, 1, 0, 1435
-6656.55, 123228, -134.508, 3.81982, -2532.51, 0.68926, 0.298458, 0.958125, 0.351078, 0.648177, 3, 182, 246, 21.3771, 0.087873, 0, 0, 1, 0, 1435
-7871.01, 210873, -112.201, 1.08411, -2312.63, 0.836194, 0.352712, 0.993198, 0.349787, 0.651995, 0.0001, 91, 246, 32.3382, 0.120477, 0, 0, 1, 0, 1437
-7871.01, 210873, -112.201, 1.08411, -2312.63, 0.836194, 0.352712, 0.993198, 0.349787, 0.651995, 3, 91, 246, 32.3382, 0.120477, 0, 0, 1, 0, 1437
-9968.06, -227610, -76.6672, 0.0770103, -2659.67, 0.64739, 0.382209, 1.03299, 0.34851, 0.655882, 0.0001, 45.5, 246, -0.338282, 0.131669, 0, 0, 0, 0, 1442
-9968.06, -227610, -76.6672, 0.0770103, -2659.67, 0.64739, 0.382209, 1.03299, 0.34851, 0.655882, 3, 45.5, 246, -0.338282, 0.131669, 0, 0, 0, 0, 1442
-5107.81, 288826, -270.139, 0.277031, -2184.84, 0.134916, 0.568251, 1.03299, 0.34851, 0.655882, 3, 45.5, 246, 49.7351, 0.215444, 0, 0, 0, 0, 1444
-4165.6, 378278, -286.054, 0.289686, -2234.6, 0.138215, 0.551748, 0.993198, 0.349787, 0.651995, 0.0001, 91, 246, 49.7351, 0.215444, 0, 0, 1, 0, 1444
-4165.6, 378278, -286.054, 0.289686, -2234.6, 0.138215, 0.551748, 0.993198, 0.349787, 0.651995, 3, 91, 246, 49.7351, 0.215444, 0, 0, 1, 0, 1444
-7236.26, 408824, -265.143, 1.3684, -2694.09, -0.00199341, 0.478691, 1.03299, 0.34851, 0.655882, 0.0001, 45.5, 246, 52.8247, 0.136375, 0, 0, 0, 0, 1445
-7236.26, 408824, -265.143, 1.3684, -2694.09, -0.00199341, 0.478691, 1.03299, 0.34851, 0.655882, 3, 45.5, 246, 52.8247, 0.136375, 0, 0, 0, 0, 1445
-3742.39, 538163, -314.346, 1.44572, -2705.79, 0.00669735, 0.462487, 0.993198, 0.349787, 0.651995, 0.0001, 91, 246, 52.8247, 0.136375, 0, 0, 1, 0, 1445
-3742.39, 538163, -314.346, 1.44572, -2705.79, 0.00669735, 0.462487, 0.993198, 0.349787, 0.651995, 3, 91, 246, 52.8247, 0.136375, 0, 0, 1, 0, 1445
-11636.9, 447061, -111.212, 1.18706, -2284.69, -0.00651516, 0.355236, 1.03299, 0.34851, 0.655882, 0.0001, 45.5, 246, 42.1473, 0.0641579, 0, 0, 0, 0, 1446
-11636.9, 447061, -111.212, 1.18706, -2284.69, -0.00651516, 0.355236, 1.03299, 0.34851, 0.655882, 3, 45.5, 246, 42.1473, 0.0641579, 0, 0, 0, 0, 1446
-9214.12, 564626, -265.788, 1.31713, -2502.43, -0.00798408, 0.446107, 1.03299, 0.34851, 0.655882, 0.0001, 45.5, 246, 53.6911, 0.110594, 0, 0, 0, 0, 1449
-9214.12, 564626, -265.788, 1.31713, -2502.43, -0.00798408, 0.446107, 1.03299, 0.34851, 0.655882, 3, 45.5, 246, 53.6911, 0.110594, 0, 0, 0, 0, 1449
-10465.8, 241918, -86.0779, 1.48568, -2180.47, 0.0525106, 0.350894, 1.03299, 0.34851, 0.655882, 0.0001, 45.5, 246, 35.9065, 0.0846211, 0, 0, 0, 0, 1453
-10465.8, 241918, -86.0779, 1.48568, -2180.47, 0.0525106, 0.350894, 1.03299, 0.34851, 0.655882, 3, 45.5, 246, 35.9065, 0.0846211, 0, 0, 0, 0, 1453
-8719.03, 327088, -121.014, 1.5721, -2204.66, 0.0632984, 0.325943, 0.993198, 0.349787, 0.651995, 0.0001, 91, 246, 35.9065, 0.0846211, 0, 0, 1, 0, 1453
-8719.03, 327088, -121.014, 1.5721, -2204.66, 0.0632984, 0.325943, 0.993198, 0.349787, 0.651995, 3, 91, 246, 35.9065, 0.0846211, 0, 0, 1, 0, 1453
-6092.32, 415055, -159.893, 1.6631, -2234.94, 0.0755414, 0.30721, 0.958125, 0.351078, 0.648177, 0.0001, 182, 246, 35.9065, 0.0846211, 0, 0, 0, 0, 1453
-6092.32, 415055, -159.893, 1.6631, -2234.94, 0.0755414, 0.30721, 0.958125, 0.351078, 0.648177, 3, 182, 246, 35.9065, 0.0846211, 0, 0, 0, 0, 1453
-17634.6, 1.68053e+06, -777.735, 1.1879, -2348.82, 0.178666, 0.682285, 1.03299, 0.34851, 0.655882, 3, 45.5, 246, 72.8636, 0.119905, 0, 0, 0, 0, 1454
-15833.7, 532786, -537.546, 2.88268, -2006.52, -0.00270377, 0.770909, 1.03299, 0.34851, 0.655882, 0.0001, 45.5, 246, 67.0027, 0.246067, 0, 0, 0, 0, 1455
-15833.7, 532786, -537.546, 2.88268, -2006.52, -0.00270377, 0.770909, 1.03299, 0.34851, 0.655882, 3, 45.5, 246, 67.0027, 0.246067, 0, 0, 0, 0, 1455
-6347.96, 375444, -220.946, 0.742158, -2217.75, 0.131983, 0.450079, 1.03299, 0.34851, 0.655882, 0.0001, 45.5, 246, 46.2806, 0.127187, 0, 0, 0, 0, 1456
-6347.96, 375444, -220.946, 0.742158, -2217.75, 0.131983, 0.450079, 1.03299, 0.34851, 0.655882, 3, 45.5, 246, 46.2806, 0.127187, 0, 0, 0, 0, 1456
-12121.1, -372184, 3.66959, 0.509256, -2193.53, 0.0736842, 0.355906, 1.03299, 0.34851, 0.655882, 0.0001, 45.5, 246, -98.2703, 0.0577323, 0, 0, 1, 0, 1458
-12121.1, -372184, 3.66959, 0.509256, -2193.53, 0.0736842, 0.355906, 1.03299, 0.34851, 0.655882, 3, 45.5, 246, -98.2703, 0.0577323, 0, 0, 1, 0, 1458
-13211.9, -288119, -6.44066, 0.529899, -2219.6, 0.0757514, 0.321933, 0.993198, 0.349787, 0.651995, 0.0001, 91, 246, -98.2703, 0.0577323, 0, 0, 1, 0, 1458
-13211.9, -288119, -6.44066, 0.529899, -2219.6, 0.0757514, 0.321933, 0.993198, 0.349787, 0.651995, 3, 91, 246, -98.2703, 0.0577323, 0, 0, 1, 0, 1458
-14118.8, -201678, -17.4233, 0.550153, -2246.88, 0.077965, 0.292406, 0.958125, 0.351078, 0.648177, 0.0001, 182, 246, -98.2703, 0.0577323, 0, 0, 1, 0, 1458
-14118.8, -201678, -17.4233, 0.550153, -2246.88, 0.077965, 0.292406, 0.958125, 0.351078, 0.648177, 3, 182, 246, -98.2703, 0.0577323, 0, 0, 1, 0, 1458
-24020.8, 1.34973e+06, -741.4, 1.6512, -2176.93, -0.00944109, 0.740939, 1.03299, 0.34851, 0.655882, 3, 45.5, 246, 69.582, 0.149277, 0, 0, 0, 0, 1463
-7289.37, 301138, -267.001, 1.06646, -1950.55, 0.125779, 0.549561, 1.03299, 0.34851, 0.655882, 0.0001, 45.5, 246, 49.9759, 0.205976, 0, 0, 0, 0, 1467
-7289.37, 301138, -267.001, 1.06646, -1950.55, 0.125779, 0.549561, 1.03299, 0.34851, 0.655882, 3, 45.5, 246, 49.9759, 0.205976, 0, 0, 0, 0, 1467
-5159.35, 373185, -300.589, 1.13032, -1999.22, 0.133732, 0.536398, 0.993198, 0.349787, 0.651995, 0.0001, 91, 246, 49.9759, 0.205976, 0, 0, 1, 0, 1467
-5159.35, 373185, -300.589, 1.13032, -1999.22, 0.133732, 0.536398, 0.993198, 0.349787, 0.651995, 3, 91, 246, 49.9759, 0.205976, 0, 0, 1, 0, 1467
-3583.4, 506798, -252.53, 0.580218, -2839.52, 0.0152878, 0.439121, 1.03299, 0.34851, 0.655882, 0.0001, 45.5, 246, 52.7646, 0.0981611, 0, 0, 0, 0, 1471
-3583.4, 506798, -252.53, 0.580218, -2839.52, 0.0152878, 0.439121, 1.03299, 0.34851, 0.655882, 3, 45.5, 246, 52.7646, 0.0981611, 0, 0, 0, 0, 1471
-6286.2, 425802, -391.986, 1.28721, -2273.41, -0.00136755, 0.666326, 1.03299, 0.34851, 0.655882, 0.0001, 45.5, 246, 59.1108, 0.216294, 0, 0, 0, 0, 1473
-6286.2, 425802, -391.986, 1.28721, -2273.41, -0.00136755, 0.666326, 1.03299, 0.34851, 0.655882, 3, 45.5, 246, 59.1108, 0.216294, 0, 0, 0, 0, 1473
-10402.3, 450284, -94.3324, 0.702661, -1615.09, -0.0022604, 0.355223, 1.03299, 0.34851, 0.655882, 0.0001, 45.5, 246, 33.5533, 0.0542556, 0, 0, 0, 0, 1476
-10402.3, 450284, -94.3324, 0.702661, -1615.09, -0.0022604, 0.355223, 1.03299, 0.34851, 0.655882, 3, 45.5, 246, 33.5533, 0.0542556, 0, 0, 0, 0, 1476
-9083.65, 496155, -108.475, 0.73075, -1616.71, -4.86929e-06, 0.322307, 0.993198, 0.349787, 0.651995, 3, 91, 246, 33.5533, 0.0542556, 0, 0, 1, 0, 1476
-7467.9, 542275, -123.344, 0.758401, -1619.29, 0.00242936, 0.293995, 0.958125, 0.351078, 0.648177, 3, 182, 246, 33.5533, 0.0542556, 0, 0, 0, 0, 1476
-8754.7, 271582, -23.1188, 0.3256, -3200.02, 0.715345, 0.275511, 0.958125, 0.351078, 0.648177, 0.0001, 182, 246, 12.2187, 0.0244231, 0, 0, 1, 0, 1477
-8754.7, 271582, -23.1188, 0.3256, -3200.02, 0.715345, 0.275511, 0.958125, 0.351078, 0.648177, 3, 182, 246, 12.2187, 0.0244231, 0, 0, 1, 0, 1477
-8197.26, 266101, -70.7391, 0.668078, -2858.52, 0.00525255, 0.296429, 0.958125, 0.351078, 0.648177, 0.0001, 182, 246, 20.2558, 0.0995546, 0, 0, 1, 0, 1479
-8197.26, 266101, -70.7391, 0.668078, -2858.52, 0.00525255, 0.296429, 0.958125, 0.351078, 0.648177, 3, 182, 246, 20.2558, 0.0995546, 0, 0, 1, 0, 1479
-19571.2, 933210, -587.683, 2.57801, -2878.29, -0.0312558, 0.668578, 1.03299, 0.34851, 0.655882, 3, 45.5, 246, 74.7339, 0.16206, 0, 0, 0, 0, 1483
-3750.59, -139372, -17.269, 3.58226, -2756.05, 0.282601, 0.278719, 1.03299, 0.34851, 0.655882, 0.0001, 45.5, 246, 41.2337, 0.227536, 0, 0, 0, 0, 1485
-3750.59, -139372, -17.269, 3.58226, -2756.05, 0.282601, 0.278719, 1.03299, 0.34851, 0.655882, 3, 45.5, 246, 41.2337, 0.227536, 0, 0, 0, 0, 1485
-34948.1, 3.64496e+06, -1329.51, 0.658763, -2266.93, 0.215001, 0.781591, 1.03299, 0.34851, 0.655882, 3, 45.5, 246, 80.5088, 0.0939825, 0, 0, 0, 0, 1486
-9189.04, 107142, -2.73315, 2.17538, -2611.39, 0.260514, 0.278498, 0.993198, 0.349787, 0.651995, 0.0001, 91, 246, 16.0203, 0.0447472, 0, 0, 1, 0, 1491
-9189.04, 107142, -2.73315, 2.17538, -2611.39, 0.260514, 0.278498, 0.993198, 0.349787, 0.651995, 3, 91, 246, 16.0203, 0.0447472, 0, 0, 1, 0, 1491
-7685.04, 234397, -57.5727, 2.3504, -2730.15, 0.295133, 0.267998, 0.958125, 0.351078, 0.648177, 0.0001, 182, 246, 16.0203, 0.0447472, 0, 0, 0, 0, 1491
-7685.04, 234397, -57.5727, 2.3504, -2730.15, 0.295133, 0.267998, 0.958125, 0.351078, 0.648177, 3, 182, 246, 16.0203, 0.0447472, 0, 0, 0, 0, 1491
-53917, 1.34455e+06, -630.793, 3.46233, -2716.66, -0.0563063, 0.522819, 1.03299, 0.34851, 0.655882, 3, 45.5, 246, 77.7339, 0.136707, 0, 0, 0, 0, 1493
-19934.5, -278063, -8.18435, 1.27396, -1543.52, 0.548956, 0.465292, 1.03299, 0.34851, 0.655882, 0.0001, 45.5, 246, -86.4026, 0.195854, 0, 0, 0, 0, 1494
-19934.5, -278063, -8.18435, 1.27396, -1543.52, 0.548956, 0.465292, 1.03299, 0.34851, 0.655882, 3, 45.5, 246, -86.4026, 0.195854, 0, 0, 0, 0, 1494
-22071.2, -240620, -27.972, 1.38496, -1691.85, 0.609591, 0.446929, 0.993198, 0.349787, 0.651995, 0.0001, 91, 246, -86.4026, 0.195854, 0, 0, 1, 0, 1494
-22071.2, -240620, -27.972, 1.38496, -1691.85, 0.609591, 0.446929, 0.993198, 0.349787, 0.651995, 3, 91, 246, -86.4026, 0.195854, 0, 0, 1, 0, 1494
-33673, 1.45082e+06, -859.982, 2.04886, -2328, 0.281049, 0.817769, 1.03299, 0.34851, 0.655882, 3, 45.5, 246, 75.1952, 0.157094, 0, 0, 0, 0, 1495
-14315.3, 239207, -15.767, 2.33836, -2281.63, -0.0248461, 0.274988, 1.03299, 0.34851, 0.655882, 0.0001, 45.5, 246, 33.1161, 0.0554695, 0, 0, 0, 0, 1498
-14315.3, 239207, -15.767, 2.33836, -2281.63, -0.0248461, 0.274988, 1.03299, 0.34851, 0.655882, 3, 45.5, 246, 33.1161, 0.0554695, 0, 0, 0, 0, 1498
-11599.4, 329758, -66.8938, 2.49938, -2279.82, 0.000851341, 0.260663, 0.993198, 0.349787, 0.651995, 0.0001, 91, 246, 33.1161, 0.0554695, 0, 0, 1, 0, 1498
-11599.4, 329758, -66.8938, 2.49938, -2279.82, 0.000851341, 0.260663, 0.993198, 0.349787, 0.651995, 3, 91, 246, 33.1161, 0.0554695, 0, 0, 1, 0, 1498
-7467.76, 421436, -125.283, 2.67767, -2291.85, 0.0302848, 0.256201, 0.958125, 0.351078, 0.648177, 0.0001, 182, 246, 33.1161, 0.0554695, 0, 0, 0, 0, 1498
-7467.76, 421436, -125.283, 2.67767, -2291.85, 0.0302848, 0.256201, 0.958125, 0.351078, 0.648177, 3, 182, 246, 33.1161, 0.0554695, 0, 0, 0, 0, 1498
-16508.3, -385688, -37.3816, 0.232232, -1951.28, 0.100148, 0.359794, 1.03299, 0.34851, 0.655882, 0.0001, 45.5, 246, -127.375, 0.0569438, 0, 0, 1, 0, 1499
-16508.3, -385688, -37.3816, 0.232232, -1951.28, 0.100148, 0.359794, 1.03299, 0.34851, 0.655882, 3, 45.5, 246, -127.375, 0.0569438, 0, 0, 1, 0, 1499
-17313.1, -319674, -42.7028, 0.240804, -1982.95, 0.102008, 0.325135, 0.993198, 0.349787, 0.651995, 0.0001, 91, 246, -127.375, 0.0569438, 0, 0, 1, 0, 1499
-17313.1, -319674, -42.7028, 0.240804, -1982.95, 0.102008, 0.325135, 0.993198, 0.349787, 0.651995, 3, 91, 246, -127.375, 0.0569438, 0, 0, 1, 0, 1499
