-11318.4, 244648, -355.3, 3.27685, -798.067, -0.0515122, 0.462053, 1.03299, 0.34851, 0.655882, 0.0001, 45.5, 246, 53.1915, 0.249831, 1.04297, 1, 0, 0, 70503
-6517.69, 257949, -414.468, 3.58184, -829.382, 0.000162283, 0.489015, 0.993198, 0.349787, 0.651995, 0.0001, 91, 246, 53.1915, 0.249831, 1.50571, 1, 1, 0, 70503
-6517.69, 257949, -414.468, 3.58184, -829.382, 0.000162283, 0.489015, 0.993198, 0.349787, 0.651995, 3, 91, 246, 53.1915, 0.249831, 1.4123, 1, 1, 0, 70503
-333.263, 167537, -297.858, 4.69867, -1440.12, 1.34852, 0.343747, 0.9175, 0.352806, 0.64323, 0.0001, 455, 246, 36.6895, 0.131024, 2.2719, 1, 0, 0, 70505
-333.263, 167537, -297.858, 4.69867, -1440.12, 1.34852, 0.343747, 0.9175, 0.352806, 0.64323, 3, 455, 246, 36.6895, 0.131024, 2.28307, 1, 0, 0, 70505
-2913.68, 94505, -223.625, 3.65876, -1106.48, 0.0186901, 0.280909, 0.993198, 0.349787, 0.651995, 0.0001, 91, 246, 52.3956, 0.192914, 1.38726, 1, 1, 0, 70507
-2913.68, 94505, -223.625, 3.65876, -1106.48, 0.0186901, 0.280909, 0.993198, 0.349787, 0.651995, 3, 91, 246, 52.3956, 0.192914, 1.20319, 1, 1, 0, 70507
-606.056, 117905, -284.438, 4.01783, -1140.99, 0.0836662, 0.313903, 0.958125, 0.351078, 0.648177, 0.0001, 182, 246, 52.3956, 0.192914, 2.05431, 1, 1, 1, 70507
-606.056, 117905, -284.438, 4.01783, -1140.99, 0.0836662, 0.313903, 0.958125, 0.351078, 0.648177, 3, 182, 246, 52.3956, 0.192914, 1.91018, 1, 1, 0, 70507
719.582, 264279, -338.449, 3.90623, -1026.97, 0.128728, 0.366826, 0.9175, 0.352806, 0.64323, 3, 455, 246, 36.7258, 0.15018, 1.50921, 1, 0, 0, 70509
-9568.46, 339801, -169.473, 1.01525, -855.892, 0.0826675, 0.369519, 0.993198, 0.349787, 0.651995, 3, 91, 246, 28.5841, 0.118216, 0, 0, 1, 0, 70513
-8379.79, -536.631, -11.5839, 2.40948, -1010.69, 0.00631022, 0.277387, 0.993198, 0.349787, 0.651995, 3, 91, 246, 9.99331, 0.0582686, 0, 0, 1, 1, 70516
-9898.4, 100015, -2.93678, 1.34093, -793.237, 0.630194, 0.316959, 1.03299, 0.34851, 0.655882, 3, 45.5, 246, 11.7718, 0.0280222, 0, 0, 1, 0, 70517
-9485.56, 115851, -13.6194, 1.4606, -881.904, 0.709456, 0.28786, 0.993198, 0.349787, 0.651995, 0.0001, 91, 246, 11.7718, 0.0280222, 0, 0, 1, 0, 70517
-9485.56, 115851, -13.6194, 1.4606, -881.904, 0.709456, 0.28786, 0.993198, 0.349787, 0.651995, 3, 91, 246, 11.7718, 0.0280222, 0, 0, 1, 0, 70517
-10600.5, 93635.4, -39.8094, 3.57923, -771.831, 0.298397, 0.143162, 1.03299, 0.34851, 0.655882, 0.0001, 45.5, 246, 19.9311, 0.0571988, 0, 0, 0, 0, 70518
-10600.5, 93635.4, -39.8094, 3.57923, -771.831, 0.298397, 0.143162, 1.03299, 0.34851, 0.655882, 3, 45.5, 246, 19.9311, 0.0571988, 0, 0, 0, 0, 70518
-8260.61, 134591, -174.604, 2.83105, -1127.08, 0.266455, 0.333928, 1.03299, 0.34851, 0.655882, 0.0001, 45.5, 246, 44.1638, 0.191824, 0, 0, 0, 0, 70519
-8260.61, 134591, -174.604, 2.83105, -1127.08, 0.266455, 0.333928, 1.03299, 0.34851, 0.655882, 3, 45.5, 246, 44.1638, 0.191824, 0, 0, 0, 0, 70519
-10663, 287507, -153.554, 1.2545, -1158.11, 0.0715102, 0.39708, 1.03299, 0.34851, 0.655882, 0.0001, 45.5, 246, 33.7105, 0.129577, 0, 0, 0, 0, 70521
-10663, 287507, -153.554, 1.2545, -1158.11, 0.0715102, 0.39708, 1.03299, 0.34851, 0.655882, 3, 45.5, 246, 33.7105, 0.129577, 0, 0, 0, 0, 70521
-8453.86, 10324.2, -12.8081, 1.47965, -653.002, -0.00824663, 0.322551, 1.03299, 0.34851, 0.655882, 0.0001, 45.5, 246, 14.7727, 0.0628331, 0, 0, 1, 1, 70523
-10183.9, 95181.5, -9.60134, 2.05301, -1177.24, 0.0764968, 0.289162, 1.03299, 0.34851, 0.655882, 0.0001, 45.5, 246, 18.1293, 0.0530889, 0, 0, 1, 0, 70524
-10183.9, 95181.5, -9.60134, 2.05301, -1177.24, 0.0764968, 0.289162, 1.03299, 0.34851, 0.655882, 3, 45.5, 246, 18.1293, 0.0530889, 0, 0, 1, 0, 70524
-5242.45, 108564, -163.561, 3.22895, -1145.84, 0.923621, 0.291768, 0.9175, 0.352806, 0.64323, 3, 455, 246, 28.5787, 0.108352, 0, 0, 1, 0, 70525
-8591.12, 294200, -273.336, 0.551728, -1017.78, 0.399227, 0.585329, 1.03299, 0.34851, 0.655882, 0.0001, 45.5, 246, 43.6769, 0.239621, 2.44047, 1, 0, 0, 70528
-8591.12, 294200, -273.336, 0.551728, -1017.78, 0.399227, 0.585329, 1.03299, 0.34851, 0.655882, 3, 45.5, 246, 43.6769, 0.239621, 2.44004, 1, 0, 0, 70528
-8994.06, 160621, -226.604, 2.19839, -617.577, 0.477154, 0.423378, 1.03299, 0.34851, 0.655882, 3, 45.5, 246, 43.7613, 0.224019, 0, 0, 1, 0, 70532
13.0128, 217567, -353.003, 3.11125, -924.052, 0.772305, 0.450002, 0.9175, 0.352806, 0.64323, 0.0001, 455, 246, 43.7613, 0.224019, 1.89601, 1, 0, 0, 70532
13.0128, 217567, -353.003, 3.11125, -924.052, 0.772305, 0.450002, 0.9175, 0.352806, 0.64323, 3, 455, 246, 43.7613, 0.224019, 1.93782, 1, 0, 0, 70532
-10098.7, 213772, -209.64, 1.70222, -880.779, -0.00829334, 0.461495, 1.03299, 0.34851, 0.655882, 3, 45.5, 246, 41.2035, 0.215303, 0, 0, 0, 0, 70533
-7689.74, 82218, -88.2117, 2.75188, -680.58, 0.510618, 0.260755, 0.958125, 0.351078, 0.648177, 0.0001, 182, 246, 20.9532, 0.0785898, 0, 0, 1, 0, 70535
-7689.74, 82218, -88.2117, 2.75188, -680.58, 0.510618, 0.260755, 0.958125, 0.351078, 0.648177, 3, 182, 246, 20.9532, 0.0785898, 0, 0, 1, 0, 70535
-6223.43, 97794.9, -123.154, 3.15154, -777.394, 0.628103, 0.274919, 0.9175, 0.352806, 0.64323, 0.0001, 455, 246, 20.9532, 0.0785898, 0, 0, 1, 0, 70535
-6223.43, 97794.9, -123.154, 3.15154, -777.394, 0.628103, 0.274919, 0.9175, 0.352806, 0.64323, 3, 455, 246, 20.9532, 0.0785898, 0, 0, 1, 0, 70535
-9146.26, 249804, -123.604, 1.12804, -1001.41, 0.314491, 0.343579, 0.993198, 0.349787, 0.651995, 0.0001, 91, 246, 27.6031, 0.111519, 0, 0, 1, 0, 70537
-566.94, 218090, -318.231, 3.94271, -948.965, 1.23294, 0.37206, 0.9175, 0.352806, 0.64323, 0.0001, 455, 246, 35.019, 0.158794, 1.13277, 1, 0, 0, 70538
-566.94, 218090, -318.231, 3.94271, -948.965, 1.23294, 0.37206, 0.9175, 0.352806, 0.64323, 3, 455, 246, 35.019, 0.158794, 1.14525, 1, 0, 0, 70538
-8010.81, -16106.6, 16.975, 2.41259, -999.19, -0.00890905, 0.278512, 1.03299, 0.34851, 0.655882, 0.0001, 45.5, 246, 7.60444, 0.0535153, 0, 0, 1, 1, 70540
-8830.75, 251612, -153.188, 1.48753, -1199.53, 0.1517, 0.359256, 0.993198, 0.349787, 0.651995, 0.0001, 91, 246, 33.0257, 0.134136, 0, 0, 1, 0, 70542
976.736, 291807, -382.513, 3.95063, -798.679, 0.1741, 0.402547, 0.9175, 0.352806, 0.64323, 0.0001, 455, 246, 36.2125, 0.16193, 1.13591, 1, 0, 0, 70545
976.736, 291807, -382.513, 3.95063, -798.679, 0.1741, 0.402547, 0.9175, 0.352806, 0.64323, 3, 455, 246, 36.2125, 0.16193, 1.49776, 1, 0, 0, 70545
-9686, 53795, 22.7739, 3.44916, -890.383, 0.0983096, 0.161117, 1.03299, 0.34851, 0.655882, 0.0001, 45.5, 246, 10.8957, 0.0290499, 0, 0, 0, 0, 70548
-7252.4, 96997, -128.399, 2.08392, -1131.18, -4.6745e-05, 0.345697, 0.993198, 0.349787, 0.651995, 0.0001, 91, 246, 39.3524, 0.207279, 0, 0, 1, 0, 70551
-7252.4, 96997, -128.399, 2.08392, -1131.18, -4.6745e-05, 0.345697, 0.993198, 0.349787, 0.651995, 3, 91, 246, 39.3524, 0.207279, 0, 0, 1, 0, 70551
-11760, 129428, -26.6287, 2.9941, -1097.42, -0.0416478, 0.215081, 1.03299, 0.34851, 0.655882, 0.0001, 45.5, 246, 21.6174, 0.061057, 0, 0, 0, 0, 70552
-11760, 129428, -26.6287, 2.9941, -1097.42, -0.0416478, 0.215081, 1.03299, 0.34851, 0.655882, 3, 45.5, 246, 21.6174, 0.061057, 0, 0, 0, 0, 70552
-10091.8, 149824, -59.926, 3.23346, -1097.34, 0.000950775, 0.214338, 0.993198, 0.349787, 0.651995, 0.0001, 91, 246, 21.6174, 0.061057, 0, 0, 1, 0, 70552
-10091.8, 149824, -59.926, 3.23346, -1097.34, 0.000950775, 0.214338, 0.993198, 0.349787, 0.651995, 3, 91, 246, 21.6174, 0.061057, 0, 0, 1, 0, 70552
-7860.09, 170942, -98.9005, 3.51034, -1108.76, 0.0509113, 0.228171, 0.958125, 0.351078, 0.648177, 3, 182, 246, 21.6174, 0.061057, 0, 0, 1, 0, 70552
-11832.7, 193055, 8.5156, 1.44377, -739.338, 0.00570919, 0.308788, 1.03299, 0.34851, 0.655882, 0.0001, 45.5, 246, 10.6576, 0.00768009, 0, 0, 1, 0, 70554
-11832.7, 193055, 8.5156, 1.44377, -739.338, 0.00570919, 0.308788, 1.03299, 0.34851, 0.655882, 3, 45.5, 246, 10.6576, 0.00768009, 0, 0, 1, 0, 70554
-10773.3, 342221, -476.283, 3.77899, -831.425, 0.453819, 0.499776, 0.993198, 0.349787, 0.651995, 0.0001, 91, 246, 49.1318, 0.226434, 1.36855, 1, 1, 0, 70556
-10773.3, 342221, -476.283, 3.77899, -831.425, 0.453819, 0.499776, 0.993198, 0.349787, 0.651995, 3, 91, 246, 49.1318, 0.226434, 1.29546, 1, 1, 0, 70556
-9013.43, 115999, -143.215, 3.06842, -669.895, -0.0450051, 0.255682, 1.03299, 0.34851, 0.655882, 0.0001, 45.5, 246, 35.1546, 0.140329, 0, 0, 1, 0, 70559
-9013.43, 115999, -143.215, 3.06842, -669.895, -0.0450051, 0.255682, 1.03299, 0.34851, 0.655882, 3, 45.5, 246, 35.1546, 0.140329, 0, 0, 1, 0, 70559
-7312.87, 123830, -174.912, 3.3218, -680.792, -0.000143832, 0.259771, 0.993198, 0.349787, 0.651995, 0.0001, 91, 246, 35.1546, 0.140329, 0, 0, 1, 0, 70559
-7312.87, 123830, -174.912, 3.3218, -680.792, -0.000143832, 0.259771, 0.993198, 0.349787, 0.651995, 3, 91, 246, 35.1546, 0.140329, 0, 0, 1, 0, 70559
-2334.86, 250914, -207.378, 5.02409, -826.987, 0.2601, 0.274723, 0.9175, 0.352806, 0.64323, 0.0001, 455, 246, 21.46, 0.0636774, 0, 0, 0, 0, 70562
-2334.86, 250914, -207.378, 5.02409, -826.987, 0.2601, 0.274723, 0.9175, 0.352806, 0.64323, 3, 455, 246, 21.46, 0.0636774, 0, 0, 0, 0, 70562
-5503.42, 45991.6, -123.932, 3.5844, -1137.59, 0.0266532, 0.235647, 0.993198, 0.349787, 0.651995, 0.0001, 91, 246, 38.4194, 0.100922, 0, 0, 1, 1, 70563
-5503.42, 45991.6, -123.932, 3.5844, -1137.59, 0.0266532, 0.235647, 0.993198, 0.349787, 0.651995, 3, 91, 246, 38.4194, 0.100922, 0, 0, 1, 1, 70563
-1909.13, 104020, -260.354, 4.49918, -1229.16, 0.195745, 0.331427, 0.9175, 0.352806, 0.64323, 0.0001, 455, 246, 38.4194, 0.100922, 1.45984, 1, 1, 0, 70563
-1909.13, 104020, -260.354, 4.49918, -1229.16, 0.195745, 0.331427, 0.9175, 0.352806, 0.64323, 3, 455, 246, 38.4194, 0.100922, 1.42928, 1, 1, 0, 70563
-8317.59, 288750, -195.416, 1.02229, -1064.32, 0.0140053, 0.41619, 0.993198, 0.349787, 0.651995, 0.0001, 91, 246, 35.6529, 0.164623, 0, 0, 1, 0, 70565
-14025.3, 265139, -369.929, 3.3582, -595.555, 0.0196888, 0.435626, 1.03299, 0.34851, 0.655882, 0.0001, 45.5, 246, 48.7014, 0.23303, 1.12157, 1, 0, 0, 70567
-14025.3, 265139, -369.929, 3.3582, -595.555, 0.0196888, 0.435626, 1.03299, 0.34851, 0.655882, 3, 45.5, 246, 48.7014, 0.23303, 1.04964, 1, 0, 0, 70567
-8817.35, 274500, -425.192, 3.68831, -636.874, 0.0744451, 0.463237, 0.993198, 0.349787, 0.651995, 0.0001, 91, 246, 48.7014, 0.23303, 1.47147, 1, 1, 0, 70567
-8817.35, 274500, -425.192, 3.68831, -636.874, 0.0744451, 0.463237, 0.993198, 0.349787, 0.651995, 3, 91, 246, 48.7014, 0.23303, 1.38537, 1, 1, 0, 70567
-2360.69, 287136, -492.175, 4.08627, -694.992, 0.142479, 0.511716, 0.958125, 0.351078, 0.648177, 3, 182, 246, 48.7014, 0.23303, 0, 0, 0, 0, 70567
-9983.48, 87194.2, -20.8042, 2.27236, -809.631, -0.00290332, 0.27487, 1.03299, 0.34851, 0.655882, 0.0001, 45.5, 246, 16.3709, 0.0547481, 0, 0, 1, 0, 70569
-9983.48, 87194.2, -20.8042, 2.27236, -809.631, -0.00290332, 0.27487, 1.03299, 0.34851, 0.655882, 3, 45.5, 246, 16.3709, 0.0547481, 0, 0, 1, 0, 70569
-1230.37, 140607, -277.17, 3.5368, -1069.86, 1.17357, 0.353893, 0.9175, 0.352806, 0.64323, 0.0001, 455, 246, 43.5171, 0.186742, 1.76556, 1, 0, 0, 70571
-1230.37, 140607, -277.17, 3.5368, -1069.86, 1.17357, 0.353893, 0.9175, 0.352806, 0.64323, 3, 455, 246, 43.5171, 0.186742, 1.75807, 1, 0, 0, 70571
-7614.67, -9441.76, -6.2025, 2.70132, -766.145, -0.0321975, 0.25823, 1.03299, 0.34851, 0.655882, 3, 45.5, 246, 14.4808, 0.040866, 0, 0, 1, 1, 70572
-8408.76, 62812.8, -68.8194, 2.56465, -755.204, -0.0301605, 0.273017, 1.03299, 0.34851, 0.655882, 0.0001, 45.5, 246, 27.5818, 0.103862, 0, 0, 1, 0, 70575
-8408.76, 62812.8, -68.8194, 2.56465, -755.204, -0.0301605, 0.273017, 1.03299, 0.34851, 0.655882, 3, 45.5, 246, 27.5818, 0.103862, 0, 0, 1, 0, 70575
-10652.2, 91465.2, -12.3352, 3.15828, -1053.16, 0.0713793, 0.1973, 1.03299, 0.34851, 0.655882, 0.0001, 45.5, 246, 19.1083, 0.0542817, 0, 0, 0, 0, 70576
-10652.2, 91465.2, -12.3352, 3.15828, -1053.16, 0.0713793, 0.1973, 1.03299, 0.34851, 0.655882, 3, 45.5, 246, 19.1083, 0.0542817, 0, 0, 0, 0, 70576
-12622.4, 178000, 2.9567, 2.08192, -1117.79, -0.0188191, 0.276294, 1.03299, 0.34851, 0.655882, 0.0001, 45.5, 246, 17.2635, 0.0279528, 0, 0, 1, 0, 70577
-12622.4, 178000, 2.9567, 2.08192, -1117.79, -0.0188191, 0.276294, 1.03299, 0.34851, 0.655882, 3, 45.5, 246, 17.2635, 0.0279528, 0, 0, 1, 0, 70577
-10224.4, 138038, -102.06, 2.03789, -591.697, 0.0385391, 0.321632, 1.03299, 0.34851, 0.655882, 0.0001, 45.5, 246, 26.5398, 0.12352, 0, 0, 1, 0, 70579
-10224.4, 138038, -102.06, 2.03789, -591.697, 0.0385391, 0.321632, 1.03299, 0.34851, 0.655882, 3, 45.5, 246, 26.5398, 0.12352, 0, 0, 1, 0, 70579
-9061.65, 144510, -120.075, 2.17583, -602.403, 0.0583856, 0.304098, 0.993198, 0.349787, 0.651995, 0.0001, 91, 246, 26.5398, 0.12352, 0, 0, 1, 0, 70579
-2699.58, 195403, -319.891, 3.16466, -1005.34, 0.184156, 0.424191, 0.958125, 0.351078, 0.648177, 0.0001, 182, 246, 48.7224, 0.232428, 1.21459, 1, 0, 0, 70588
-13355.9, 162891, 3.5587, 2.78995, -1106.01, -0.0223325, 0.220727, 1.03299, 0.34851, 0.655882, 0.0001, 45.5, 246, 17.895, 0.0339052, 0, 0, 0, 0, 70593
-13355.9, 162891, 3.5587, 2.78995, -1106.01, -0.0223325, 0.220727, 1.03299, 0.34851, 0.655882, 3, 45.5, 246, 17.895, 0.0339052, 0, 0, 0, 0, 70593
-11485.7, 199385, -109.74, 1.71696, -644.439, 0.414864, 0.337908, 1.03299, 0.34851, 0.655882, 3, 45.5, 246, 24.7087, 0.108991, 0, 0, 1, 0, 70595
-8664.69, 51912.8, -39.9632, 2.80094, -838.469, 0.206052, 0.242428, 1.03299, 0.34851, 0.655882, 0.0001, 45.5, 246, 22.1199, 0.0742524, 0, 0, 1, 0, 70596
1432.4, 329976, -401.767, 4.30007, -793.833, 0.266258, 0.397947, 0.9175, 0.352806, 0.64323, 3, 455, 246, 34.2614, 0.149732, 1.8869, 1, 0, 0, 70597
369.221, 256496, -331.125, 3.9999, -986.855, 0.232212, 0.360459, 0.9175, 0.352806, 0.64323, 3, 455, 246, 35.4391, 0.145656, 1.14969, 1, 0, 0, 70598
-3419.18, 125951, -234.979, 5.8753, -1907.7, 1.83248, 0.355057, 0.9175, 0.352806, 0.64323, 0.0001, 455, 246, 21.7744, 0.0599461, 1.07025, 1, 0, 0, 70599
-3419.18, 125951, -234.979, 5.8753, -1907.7, 1.83248, 0.355057, 0.9175, 0.352806, 0.64323, 3, 455, 246, 21.7744, 0.0599461, 1.0711, 1, 0, 0, 70599
-9129.87, 299514, -435.936, 3.37693, -717.059, 0.000381433, 0.528379, 0.993198, 0.349787, 0.651995, 0.0001, 91, 246, 50.0441, 0.245175, 1.28726, 1, 1, 0, 70601
-9129.87, 299514, -435.936, 3.37693, -717.059, 0.000381433, 0.528379, 0.993198, 0.349787, 0.651995, 3, 91, 246, 50.0441, 0.245175, 1.18237, 1, 1, 0, 70601
-6180.22, 217440, -336.291, 3.01946, -866.401, 0.10634, 0.466433, 0.993198, 0.349787, 0.651995, 0.0001, 91, 246, 50.7941, 0.246838, 1.00214, 1, 1, 0, 70602
-2005.36, 234955, -391.462, 3.30624, -914.767, 0.152821, 0.491953, 0.958125, 0.351078, 0.648177, 0.0001, 182, 246, 50.7941, 0.246838, 1.99112, 1, 0, 0, 70602
-2005.36, 234955, -391.462, 3.30624, -914.767, 0.152821, 0.491953, 0.958125, 0.351078, 0.648177, 3, 182, 246, 50.7941, 0.246838, 1.8149, 1, 0, 0, 70602
-10881.8, 237117, -221.321, 2.14937, -1071.17, -0.0109125, 0.435639, 1.03299, 0.34851, 0.655882, 3, 45.5, 246, 42.792, 0.198897, 0, 0, 0, 0, 70605
-8046.14, 345577, -269.284, 0.503684, -824.694, 0.143008, 0.512803, 0.993198, 0.349787, 0.651995, 0.0001, 91, 246, 37.2263, 0.201651, 0, 0, 1, 0, 70610
-11999.6, 294589, -314.304, 1.8995, -863.186, 0.00377492, 0.564935, 1.03299, 0.34851, 0.655882, 0.0001, 45.5, 246, 46.7055, 0.242631, 0, 0, 0, 0, 70612
-6983.78, -9292.74, -25.9109, 3.06309, -708.278, -0.0446341, 0.229814, 1.03299, 0.34851, 0.655882, 3, 45.5, 246, 21.1994, 0.0245711, 0, 0, 1, 1, 70613
-7073.99, 19702.2, -119.131, 4.07856, -744.642, 0.139872, 0.299128, 0.9175, 0.352806, 0.64323, 3, 455, 246, 21.1994, 0.0245711, 0, 0, 1, 1, 70613
-7592.11, 85718.2, -127.828, 2.96737, -822.906, -0.0309709, 0.266966, 1.03299, 0.34851, 0.655882, 0.0001, 45.5, 246, 38.1627, 0.147482, 0, 0, 1, 0, 70617
-7592.11, 85718.2, -127.828, 2.96737, -822.906, -0.0309709, 0.266966, 1.03299, 0.34851, 0.655882, 3, 45.5, 246, 38.1627, 0.147482, 0, 0, 1, 0, 70617
-1527.35, 130219, -265.741, 3.94348, -902.182, 0.1423, 0.331905, 0.9175, 0.352806, 0.64323, 0.0001, 455, 246, 38.1627, 0.147482, 1.23018, 1, 0, 0, 70617
-1527.35, 130219, -265.741, 3.94348, -902.182, 0.1423, 0.331905, 0.9175, 0.352806, 0.64323, 3, 455, 246, 38.1627, 0.147482, 1.22876, 1, 0, 0, 70617
-1780.59, 115203, -253.888, 3.14261, -938.244, 0.107093, 0.345963, 0.9175, 0.352806, 0.64323, 0.0001, 455, 246, 47.6077, 0.209146, 1.47613, 1, 0, 0, 70619
-1780.59, 115203, -253.888, 3.14261, -938.244, 0.107093, 0.345963, 0.9175, 0.352806, 0.64323, 3, 455, 246, 47.6077, 0.209146, 1.47827, 1, 0, 0, 70619
-9092.12, 342848, -192.006, 0.620899, -655.734, 0.100365, 0.402232, 0.993198, 0.349787, 0.651995, 0.0001, 91, 246, 27.6588, 0.138021, 0, 0, 1, 0, 70620
-19035.4, -230074, -19.146, 0.413086, -1126.69, -0.000769202, 0.388845, 1.03299, 0.34851, 0.655882, 0.0001, 45.5, 246, -156.098, 0.130216, 0, 0, 1, 0, 70623
-7999.91, 323057, -196.245, 0.715638, -1128.98, 0.726816, 0.410044, 0.993198, 0.349787, 0.651995, 0.0001, 91, 246, 33.6772, 0.146519, 0, 0, 1, 0, 70625
-3175.83, 74012, -194.959, 3.33563, -1144.54, -0.0101505, 0.290027, 1.03299, 0.34851, 0.655882, 0.0001, 45.5, 246, 58.9659, 0.225754, 1.02879, 1, 1, 0, 70629
-1487.01, 98223, -249.509, 3.64087, -1167.79, 0.0432437, 0.305245, 0.993198, 0.349787, 0.651995, 0.0001, 91, 246, 58.9659, 0.225754, 1.68849, 1, 1, 0, 70629
-1487.01, 98223, -249.509, 3.64087, -1167.79, 0.0432437, 0.305245, 0.993198, 0.349787, 0.651995, 3, 91, 246, 58.9659, 0.225754, 1.54326, 1, 1, 0, 70629
1070.56, 124790, -315.022, 4.00488, -1210.13, 0.108182, 0.339317, 0.958125, 0.351078, 0.648177, 0.0001, 182, 246, 58.9659, 0.225754, 3.11856, 1, 1, 1, 70629
1070.56, 124790, -315.022, 4.00488, -1210.13, 0.108182, 0.339317, 0.958125, 0.351078, 0.648177, 3, 182, 246, 58.9659, 0.225754, 2.95191, 1, 1, 1, 70629
-9445, -73220.6, -12.436, 0.0634043, -1002, 0.176062, 0.349011, 1.03299, 0.34851, 0.655882, 0.0001, 45.5, 246, -40.0261, 0.118505, 0, 0, 1, 0, 70633
-9445, -73220.6, -12.436, 0.0634043, -1002, 0.176062, 0.349011, 1.03299, 0.34851, 0.655882, 3, 45.5, 246, -40.0261, 0.118505, 0, 0, 1, 0, 70633
-9715.43, -55702.6, -13.3683, 0.065795, -1030.7, 0.181119, 0.313324, 0.993198, 0.349787, 0.651995, 0.0001, 91, 246, -40.0261, 0.118505, 0, 0, 1, 1, 70633
-9715.43, -55702.6, -13.3683, 0.065795, -1030.7, 0.181119, 0.313324, 0.993198, 0.349787, 0.651995, 3, 91, 246, -40.0261, 0.118505, 0, 0, 1, 1, 70633
-11179.5, 280536, -27.4584, 0.84384, -846.276, 0.0218392, 0.333636, 1.03299, 0.34851, 0.655882, 0.0001, 45.5, 246, 16.7121, 0.0300549, 0, 0, 1, 0, 70634
-10366.5, 293375, -35.1658, 0.880451, -850.135, 0.0251898, 0.300198, 0.993198, 0.349787, 0.651995, 0.0001, 91, 246, 16.7121, 0.0300549, 0, 0, 1, 0, 70634
-5849.21, 99710.1, -206.945, 3.60834, -658.351, -0.03716, 0.222105, 1.03299, 0.34851, 0.655882, 0.0001, 45.5, 246, 46.8692, 0.167463, 1.31825, 1, 1, 0, 70635
-5849.21, 99710.1, -206.945, 3.60834, -658.351, -0.03716, 0.222105, 1.03299, 0.34851, 0.655882, 3, 45.5, 246, 46.8692, 0.167463, 1.20442, 1, 1, 0, 70635
-3789.12, 108108, -249.603, 3.94703, -680.302, 0.0254167, 0.242373, 0.993198, 0.349787, 0.651995, 0.0001, 91, 246, 46.8692, 0.167463, 1.39431, 1, 1, 0, 70635
-3789.12, 108108, -249.603, 3.94703, -680.302, 0.0254167, 0.242373, 0.993198, 0.349787, 0.651995, 3, 91, 246, 46.8692, 0.167463, 1.26087, 1, 1, 0, 70635
-1126.12, 118166, -301.251, 4.35704, -717.202, 0.101579, 0.284217, 0.958125, 0.351078, 0.648177, 0.0001, 182, 246, 46.8692, 0.167463, 1.75375, 1, 1, 0, 70635
-1126.12, 118166, -301.251, 4.35704, -717.202, 0.101579, 0.284217, 0.958125, 0.351078, 0.648177, 3, 182, 246, 46.8692, 0.167463, 1.63, 1, 1, 0, 70635
3731.9, 135736, -390.211, 5.06415, -799.584, 0.235492, 0.38088, 0.9175, 0.352806, 0.64323, 0.0001, 455, 246, 46.8692, 0.167463, 5.94817, 1, 0, 0, 70635
3731.9, 135736, -390.211, 5.06415, -799.584, 0.235492, 0.38088, 0.9175, 0.352806, 0.64323, 3, 455, 246, 46.8692, 0.167463, 6.00376, 1, 0, 0, 70635
-11452.3, 228161, -358.34, 2.50945, -514.357, 0.738787, 0.518518, 1.03299, 0.34851, 0.655882, 0.0001, 45.5, 246, 47.923, 0.247011, 1.04887, 1, 0, 0, 70636
-7726.49, 245772, -401.177, 2.83094, -612.209, 0.871827, 0.529443, 0.993198, 0.349787, 0.651995, 0.0001, 91, 246, 47.923, 0.247011, 1.1912, 1, 1, 0, 70636
-7726.49, 245772, -401.177, 2.83094, -612.209, 0.871827, 0.529443, 0.993198, 0.349787, 0.651995, 3, 91, 246, 47.923, 0.247011, 1.03494, 1, 1, 0, 70636
-2870.84, 269765, -454.76, 3.23625, -749.156, 1.05792, 0.556803, 0.958125, 0.351078, 0.648177, 0.0001, 182, 246, 47.923, 0.247011, 2.10841, 1, 0, 0, 70636
-2870.84, 269765, -454.76, 3.23625, -749.156, 1.05792, 0.556803, 0.958125, 0.351078, 0.648177, 3, 182, 246, 47.923, 0.247011, 1.93739, 1, 0, 0, 70636
-11085.2, 178833, -111.106, 1.77917, -659.659, 0.726726, 0.334547, 1.03299, 0.34851, 0.655882, 0.0001, 45.5, 246, 25.6744, 0.112487, 0, 0, 1, 0, 70639
-11085.2, 178833, -111.106, 1.77917, -659.659, 0.726726, 0.334547, 1.03299, 0.34851, 0.655882, 3, 45.5, 246, 25.6744, 0.112487, 0, 0, 1, 0, 70639
-9699.19, 195134, -129.78, 1.96668, -752.487, 0.8384, 0.313684, 0.993198, 0.349787, 0.651995, 3, 91, 246, 25.6744, 0.112487, 0, 0, 1, 0, 70639
-7863.86, 216599, -153.108, 2.19169, -877.069, 0.988311, 0.301803, 0.958125, 0.351078, 0.648177, 3, 182, 246, 25.6744, 0.112487, 0, 0, 1, 0, 70639
-10688.6, 191335, -28.1225, 1.15472, -998.276, 0.0149424, 0.328215, 1.03299, 0.34851, 0.655882, 0.0001, 45.5, 246, 18.448, 0.0450157, 0, 0, 1, 0, 70640
-10688.6, 191335, -28.1225, 1.15472, -998.276, 0.0149424, 0.328215, 1.03299, 0.34851, 0.655882, 3, 45.5, 246, 18.448, 0.0450157, 0, 0, 1, 0, 70640
-5956.57, 81083.3, -155.694, 3.25728, -1030.98, -0.0498016, 0.265277, 1.03299, 0.34851, 0.655882, 3, 45.5, 246, 46.4244, 0.17613, 0, 0, 1, 0, 70641
-4457.3, 100051, -201.615, 3.53966, -1042.83, 0.000948761, 0.27604, 0.993198, 0.349787, 0.651995, 0.0001, 91, 246, 46.4244, 0.17613, 1.0498, 1, 1, 0, 70641
-2288.28, 120471, -256.105, 3.8733, -1070.15, 0.0613206, 0.304244, 0.958125, 0.351078, 0.648177, 0.0001, 182, 246, 46.4244, 0.17613, 1.44659, 1, 1, 0, 70641
-2288.28, 120471, -256.105, 3.8733, -1070.15, 0.0613206, 0.304244, 0.958125, 0.351078, 0.648177, 3, 182, 246, 46.4244, 0.17613, 1.27575, 1, 1, 0, 70641
-11862.8, 328588, -31.6022, 0.869009, -1015.26, 0.430341, 0.332604, 1.03299, 0.34851, 0.655882, 0.0001, 45.5, 246, 20.3285, 0.0287257, 0, 0, 1, 0, 70644
-11862.8, 328588, -31.6022, 0.869009, -1015.26, 0.430341, 0.332604, 1.03299, 0.34851, 0.655882, 3, 45.5, 246, 20.3285, 0.0287257, 0, 0, 1, 0, 70644
-10798.9, 355933, -41.4198, 0.927751, -1090.54, 0.465542, 0.299378, 0.993198, 0.349787, 0.651995, 3, 91, 246, 20.3285, 0.0287257, 0, 0, 1, 0, 70644
-9453.02, 387876, -52.8546, 0.990868, -1178.75, 0.506868, 0.271227, 0.958125, 0.351078, 0.648177, 0.0001, 182, 246, 20.3285, 0.0287257, 0, 0, 1, 0, 70644
-7423.36, -15583, 22.0428, 3.28217, -1132.2, -0.0372601, 0.207763, 1.03299, 0.34851, 0.655882, 0.0001, 45.5, 246, 11.4163, 0.0564888, 0, 0, 1, 0, 70645
-7715.06, 313424, -291.763, 1.04341, -1065.35, 0.00164253, 0.555118, 0.993198, 0.349787, 0.651995, 3, 91, 246, 44.6596, 0.235927, 0, 0, 1, 0, 70648
-3340.53, 126280, -228.923, 3.02098, -1278.96, 1.14492, 0.342465, 0.958125, 0.351078, 0.648177, 0.0001, 182, 246, 48.8725, 0.221962, 1.02919, 1, 1, 0, 70650
-12384.7, 209593, -20.3467, 1.73479, -1098.07, 0.00635687, 0.300503, 1.03299, 0.34851, 0.655882, 0.0001, 45.5, 246, 19.77, 0.0402535, 0, 0, 1, 0, 70659
-12384.7, 209593, -20.3467, 1.73479, -1098.07, 0.00635687, 0.300503, 1.03299, 0.34851, 0.655882, 3, 45.5, 246, 19.77, 0.0402535, 0, 0, 1, 0, 70659
-9153, 252140, -60.3945, 1.94618, -1109.16, 0.0362156, 0.258234, 0.958125, 0.351078, 0.648177, 0.0001, 182, 246, 19.77, 0.0402535, 0, 0, 1, 0, 70659
1550.75, 214228, -352.082, 4.99758, -1147.59, 1.08527, 0.36688, 0.9175, 0.352806, 0.64323, 0.0001, 455, 246, 35.8673, 0.139818, 0, 0, 0, 0, 70662
1550.75, 214228, -352.082, 4.99758, -1147.59, 1.08527, 0.36688, 0.9175, 0.352806, 0.64323, 3, 455, 246, 35.8673, 0.139818, 0, 0, 0, 0, 70662
-8347.36, 163082, -250.256, 2.85682, -733.645, -0.0192415, 0.391026, 1.03299, 0.34851, 0.655882, 0.0001, 45.5, 246, 48.7662, 0.230196, 1.03457, 1, 1, 0, 70664
-5706.79, 173703, -291.392, 3.09576, -754.808, 0.0196117, 0.398775, 0.993198, 0.349787, 0.651995, 0.0001, 91, 246, 48.7662, 0.230196, 1.04018, 1, 1, 0, 70664
-2396.01, 186018, -339.489, 3.37239, -786.743, 0.065753, 0.420854, 0.958125, 0.351078, 0.648177, 0.0001, 182, 246, 48.7662, 0.230196, 1.62061, 1, 0, 0, 70664
-2396.01, 186018, -339.489, 3.37239, -786.743, 0.065753, 0.420854, 0.958125, 0.351078, 0.648177, 3, 182, 246, 48.7662, 0.230196, 1.40493, 1, 0, 0, 70664
-2169.19, 361193, -459.341, 4.22783, -1271.09, 0.434537, 0.439101, 0.958125, 0.351078, 0.648177, 0.0001, 182, 246, 47.4377, 0.194402, 0, 0, 0, 0, 70667
-2169.19, 361193, -459.341, 4.22783, -1271.09, 0.434537, 0.439101, 0.958125, 0.351078, 0.648177, 3, 182, 246, 47.4377, 0.194402, 0, 0, 0, 0, 70667
-12629.7, 230612, -28.0863, 1.55475, -784.083, 0.349593, 0.30685, 1.03299, 0.34851, 0.655882, 3, 45.5, 246, 16.4793, 0.0366129, 0, 0, 1, 0, 70671
-9509.23, 264435, -57.1127, 1.80209, -888.939, 0.420781, 0.260068, 0.958125, 0.351078, 0.648177, 0.0001, 182, 246, 16.4793, 0.0366129, 0, 0, 1, 0, 70671
-11793.9, 131294, 14.5548, 2.34683, -1009.61, -0.00710022, 0.258358, 1.03299, 0.34851, 0.655882, 0.0001, 45.5, 246, 13.6846, 0.0221915, 0, 0, 1, 0, 70675
-11793.9, 131294, 14.5548, 2.34683, -1009.61, -0.00710022, 0.258358, 1.03299, 0.34851, 0.655882, 3, 45.5, 246, 13.6846, 0.0221915, 0, 0, 1, 0, 70675
-8887.83, 351887, -176.497, 0.613738, -760.916, 0.0475986, 0.385434, 0.993198, 0.349787, 0.651995, 0.0001, 91, 246, 27.7471, 0.124667, 0, 0, 1, 0, 70676
-10281.4, 223921, -187.453, 1.77836, -1102.84, -0.0146712, 0.427604, 1.03299, 0.34851, 0.655882, 3, 45.5, 246, 39.8322, 0.186323, 0, 0, 0, 0, 70679
-7257, -30949.4, -1.4149, 3.68131, -901.982, 0.0199306, 0.218999, 0.993198, 0.349787, 0.651995, 3, 91, 246, 6.07266, 0.0614919, 0, 0, 1, 1, 70687
-6816.17, 233432, -369.365, 3.16566, -760.253, 0.380825, 0.470363, 0.993198, 0.349787, 0.651995, 0.0001, 91, 246, 49.5451, 0.240151, 1.19883, 1, 1, 0, 70689
-6816.17, 233432, -369.365, 3.16566, -760.253, 0.380825, 0.470363, 0.993198, 0.349787, 0.651995, 3, 91, 246, 49.5451, 0.240151, 1.04566, 1, 1, 0, 70689
-1994.23, 252600, -427.674, 3.53141, -848.297, 0.457528, 0.501681, 0.958125, 0.351078, 0.648177, 0.0001, 182, 246, 49.5451, 0.240151, 2.54372, 1, 0, 0, 70689
-1994.23, 252600, -427.674, 3.53141, -848.297, 0.457528, 0.501681, 0.958125, 0.351078, 0.648177, 3, 182, 246, 49.5451, 0.240151, 2.35666, 1, 0, 0, 70689
-14064.1, -142551, -22.3676, 0.540693, -1153.57, -9.23051e-05, 0.407597, 1.03299, 0.34851, 0.655882, 0.0001, 45.5, 246, -71.6169, 0.228642, 0, 0, 1, 0, 70692
-14064.1, -142551, -22.3676, 0.540693, -1153.57, -9.23051e-05, 0.407597, 1.03299, 0.34851, 0.655882, 3, 45.5, 246, -71.6169, 0.228642, 0, 0, 1, 0, 70692
-8760.58, 178519, -133.531, 0.838058, -1173.7, 0.0898697, 0.427511, 1.03299, 0.34851, 0.655882, 0.0001, 45.5, 246, 35.4032, 0.184007, 0, 0, 1, 0, 70694
-8760.58, 178519, -133.531, 0.838058, -1173.7, 0.0898697, 0.427511, 1.03299, 0.34851, 0.655882, 3, 45.5, 246, 35.4032, 0.184007, 0, 0, 1, 0, 70694
-10472.1, 186952, -210.616, 3.4294, -1119.45, 0.152958, 0.282025, 1.03299, 0.34851, 0.655882, 0.0001, 45.5, 246, 44.2068, 0.175331, 0, 0, 0, 0, 70695
-10472.1, 186952, -210.616, 3.4294, -1119.45, 0.152958, 0.282025, 1.03299, 0.34851, 0.655882, 3, 45.5, 246, 44.2068, 0.175331, 0, 0, 0, 0, 70695
-2373.04, 242536, -339.072, 4.21373, -1255.77, 0.295492, 0.340368, 0.958125, 0.351078, 0.648177, 0.0001, 182, 246, 44.2068, 0.175331, 1.59388, 1, 0, 0, 70695
-2373.04, 242536, -339.072, 4.21373, -1255.77, 0.295492, 0.340368, 0.958125, 0.351078, 0.648177, 3, 182, 246, 44.2068, 0.175331, 1.40336, 1, 0, 0, 70695
-11694.4, 310578, -301.643, 1.61682, -909.334, 0.0239284, 0.560827, 1.03299, 0.34851, 0.655882, 0.0001, 45.5, 246, 44.9091, 0.230817, 0, 0, 0, 0, 70696
-11694.4, 310578, -301.643, 1.61682, -909.334, 0.0239284, 0.560827, 1.03299, 0.34851, 0.655882, 3, 45.5, 246, 44.9091, 0.230817, 0, 0, 0, 0, 70696
-12525.5, 138187, -5.86401, 2.93626, -945.491, 0.127496, 0.207648, 1.03299, 0.34851, 0.655882, 0.0001, 45.5, 246, 16.8446, 0.0385466, 0, 0, 0, 0, 70699
-12525.5, 138187, -5.86401, 2.93626, -945.491, 0.127496, 0.207648, 1.03299, 0.34851, 0.655882, 3, 45.5, 246, 16.8446, 0.0385466, 0, 0, 0, 0, 70699
-10823.7, 154790, -33.0674, 3.19612, -969.6, 0.172245, 0.205128, 0.993198, 0.349787, 0.651995, 0.0001, 91, 246, 16.8446, 0.0385466, 0, 0, 1, 0, 70699
-10823.7, 154790, -33.0674, 3.19612, -969.6, 0.172245, 0.205128, 0.993198, 0.349787, 0.651995, 3, 91, 246, 16.8446, 0.0385466, 0, 0, 1, 0, 70699
-2474.78, 197047, -232.715, 4.07799, -1044.23, 0.597495, 0.306023, 0.9175, 0.352806, 0.64323, 0.0001, 455, 246, 27.8365, 0.10369, 0, 0, 0, 0, 70700
-2474.78, 197047, -232.715, 4.07799, -1044.23, 0.597495, 0.306023, 0.9175, 0.352806, 0.64323, 3, 455, 246, 27.8365, 0.10369, 0, 0, 0, 0, 70700
-6861.81, 3861.88, -56.6062, 3.61445, -1038.35, 0.0804854, 0.223119, 0.993198, 0.349787, 0.651995, 3, 91, 246, 23.7225, 0.0446222, 0, 0, 1, 1, 70701
-11192.9, 198679, -97.2874, 1.54444, -596.344, -0.0110958, 0.342759, 1.03299, 0.34851, 0.655882, 0.0001, 45.5, 246, 22.8553, 0.105611, 0, 0, 1, 0, 70703
-11192.9, 198679, -97.2874, 1.54444, -596.344, -0.0110958, 0.342759, 1.03299, 0.34851, 0.655882, 3, 45.5, 246, 22.8553, 0.105611, 0, 0, 1, 0, 70703
-9972.72, 204795, -111.278, 1.63015, -600.167, -3.15684e-05, 0.318039, 0.993198, 0.349787, 0.651995, 0.0001, 91, 246, 22.8553, 0.105611, 0, 0, 1, 0, 70703
-9180.79, 135697, -57.091, 1.5005, -976.857, 0.748091, 0.300625, 0.993198, 0.349787, 0.651995, 3, 91, 246, 20.1567, 0.0769531, 0, 0, 1, 0, 70709
-10038.5, 68195.1, 8.00728, 2.81994, -1092.5, 0.373702, 0.226363, 1.03299, 0.34851, 0.655882, 0.0001, 45.5, 246, 15.6773, 0.0434568, 0, 0, 1, 0, 70710
-10038.5, 68195.1, 8.00728, 2.81994, -1092.5, 0.373702, 0.226363, 1.03299, 0.34851, 0.655882, 3, 45.5, 246, 15.6773, 0.0434568, 0, 0, 1, 0, 70710
-11415.8, 290717, -153.625, 1.40835, -1050.19, 0.00224057, 0.388836, 1.03299, 0.34851, 0.655882, 0.0001, 45.5, 246, 32.5124, 0.128057, 0, 0, 0, 0, 70711
-11415.8, 290717, -153.625, 1.40835, -1050.19, 0.00224057, 0.388836, 1.03299, 0.34851, 0.655882, 3, 45.5, 246, 32.5124, 0.128057, 0, 0, 0, 0, 70711
928.731, 184820, -343.033, 4.45125, -818.351, 0.23888, 0.36922, 0.9175, 0.352806, 0.64323, 0.0001, 455, 246, 38.4926, 0.158583, 2.03073, 1, 0, 0, 70716
928.731, 184820, -343.033, 4.45125, -818.351, 0.23888, 0.36922, 0.9175, 0.352806, 0.64323, 3, 455, 246, 38.4926, 0.158583, 2.03681, 1, 0, 0, 70716
-9481.04, 173545, -180.289, 1.72596, -818.565, -0.00895102, 0.432777, 1.03299, 0.34851, 0.655882, 0.0001, 45.5, 246, 40.0454, 0.214334, 0, 0, 1, 0, 70717
-9481.04, 173545, -180.289, 1.72596, -818.565, -0.00895102, 0.432777, 1.03299, 0.34851, 0.655882, 3, 45.5, 246, 40.0454, 0.214334, 0, 0, 1, 0, 70717
-8007.24, 185784, -204.708, 1.83281, -827.303, 0.00494538, 0.418035, 0.993198, 0.349787, 0.651995, 0.0001, 91, 246, 40.0454, 0.214334, 0, 0, 1, 0, 70717
-16303.3, 291815, -371.968, 3.55776, -625.942, -0.00912195, 0.400638, 1.03299, 0.34851, 0.655882, 0.0001, 45.5, 246, 47.022, 0.218967, 1.04653, 1, 0, 0, 70718
-10426, 301395, -430.855, 3.91332, -667.456, 0.0521142, 0.432308, 0.993198, 0.349787, 0.651995, 0.0001, 91, 246, 47.022, 0.218967, 1.39293, 1, 1, 0, 70718
-10426, 301395, -430.855, 3.91332, -667.456, 0.0521142, 0.432308, 0.993198, 0.349787, 0.651995, 3, 91, 246, 47.022, 0.218967, 1.31225, 1, 1, 0, 70718
-9660.64, 244577, -39.519, 2.08776, -861.684, 0.832189, 0.251479, 0.958125, 0.351078, 0.648177, 0.0001, 182, 246, 13.2348, 0.0233998, 0, 0, 1, 0, 70719
-9427.7, 254493, -347.036, 3.77843, -660.863, -0.000184479, 0.354162, 0.993198, 0.349787, 0.651995, 0.0001, 91, 246, 43.2553, 0.195664, 1.06535, 1, 1, 0, 70720
-3840.31, 265113, -406.613, 4.16374, -703.777, 0.069105, 0.396913, 0.958125, 0.351078, 0.648177, 0.0001, 182, 246, 43.2553, 0.195664, 1.86836, 1, 0, 0, 70720
-3840.31, 265113, -406.613, 4.16374, -703.777, 0.069105, 0.396913, 0.958125, 0.351078, 0.648177, 3, 182, 246, 43.2553, 0.195664, 1.7117, 1, 0, 0, 70720
-11802.4, 300306, -173.115, 1.28698, -773.493, 0.276876, 0.402545, 1.03299, 0.34851, 0.655882, 0.0001, 45.5, 246, 29.9687, 0.133855, 0, 0, 1, 0, 70724
-4602.98, 278865, -350.095, 4.24858, -975.3, 0.520914, 0.329657, 0.958125, 0.351078, 0.648177, 0.0001, 182, 246, 39.1852, 0.160033, 1.01079, 1, 0, 0, 70728
-11759.6, 155933, -1.57473, 1.93291, -745.716, 0.00652049, 0.285422, 1.03299, 0.34851, 0.655882, 3, 45.5, 246, 12.1698, 0.0230256, 0, 0, 1, 0, 70729
-5997.63, 168490, -279.2, 3.90871, -764.966, 0.00885718, 0.281473, 0.993198, 0.349787, 0.651995, 0.0001, 91, 246, 44.5807, 0.18181, 1.15034, 1, 1, 0, 70730
-2120.51, 181030, -336.882, 4.31215, -803.775, 0.08322, 0.324246, 0.958125, 0.351078, 0.648177, 0.0001, 182, 246, 44.5807, 0.18181, 1.75305, 1, 0, 0, 70730
-2120.51, 181030, -336.882, 4.31215, -803.775, 0.08322, 0.324246, 0.958125, 0.351078, 0.648177, 3, 182, 246, 44.5807, 0.18181, 1.60033, 1, 0, 0, 70730
-10803.7, 130701, -7.55301, 1.76415, -1140.35, 0.210734, 0.300141, 1.03299, 0.34851, 0.655882, 0.0001, 45.5, 246, 17.5957, 0.040756, 0, 0, 1, 0, 70732
-10803.7, 130701, -7.55301, 1.76415, -1140.35, 0.210734, 0.300141, 1.03299, 0.34851, 0.655882, 3, 45.5, 246, 17.5957, 0.040756, 0, 0, 1, 0, 70732
-5700.95, 130269, -264.929, 3.32942, -708.517, 0.258615, 0.316704, 1.03299, 0.34851, 0.655882, 0.0001, 45.5, 246, 53.0343, 0.219373, 1.46761, 1, 1, 0, 70733
-5700.95, 130269, -264.929, 3.32942, -708.517, 0.258615, 0.316704, 1.03299, 0.34851, 0.655882, 3, 45.5, 246, 53.0343, 0.219373, 1.38377, 1, 0, 0, 70733
-2985.86, 143105, -312.956, 3.69119, -769.093, 0.326008, 0.334463, 0.993198, 0.349787, 0.651995, 0.0001, 91, 246, 53.0343, 0.219373, 1.71662, 1, 1, 0, 70733
-2985.86, 143105, -312.956, 3.69119, -769.093, 0.326008, 0.334463, 0.993198, 0.349787, 0.651995, 3, 91, 246, 53.0343, 0.219373, 1.61312, 1, 1, 0, 70733
598.486, 159482, -372.736, 4.13323, -851.386, 0.414506, 0.373627, 0.958125, 0.351078, 0.648177, 0.0001, 182, 246, 53.0343, 0.219373, 3.0786, 1, 0, 0, 70733
598.486, 159482, -372.736, 4.13323, -851.386, 0.414506, 0.373627, 0.958125, 0.351078, 0.648177, 3, 182, 246, 53.0343, 0.219373, 2.89083, 1, 0, 0, 70733
7352.65, 189996, -479.51, 4.90806, -1013.62, 0.583397, 0.467872, 0.9175, 0.352806, 0.64323, 0.0001, 455, 246, 53.0343, 0.219373, 0, 0, 0, 0, 70733
7352.65, 189996, -479.51, 4.90806, -1013.62, 0.583397, 0.467872, 0.9175, 0.352806, 0.64323, 3, 455, 246, 53.0343, 0.219373, 0, 0, 0, 0, 70733
-11253.3, 221335, -145.22, 1.53773, -692.667, 0.544579, 0.374324, 1.03299, 0.34851, 0.655882, 3, 45.5, 246, 28.6958, 0.134014, 0, 0, 1, 0, 70738
-12421.8, 175197, -33.2797, 2.35611, -1132.93, -0.018946, 0.268231, 1.03299, 0.34851, 0.655882, 0.0001, 45.5, 246, 22.2946, 0.0591987, 0, 0, 1, 0, 70741
-12421.8, 175197, -33.2797, 2.35611, -1132.93, -0.018946, 0.268231, 1.03299, 0.34851, 0.655882, 3, 45.5, 246, 22.2946, 0.0591987, 0, 0, 1, 0, 70741
-4618.24, 251767, -140.746, 2.97705, -1169.92, 0.0845611, 0.259036, 0.9175, 0.352806, 0.64323, 3, 455, 246, 22.2946, 0.0591987, 0, 0, 0, 0, 70741
-9921.4, 210783, -238.072, 1.47356, -755.37, 0.82813, 0.496461, 1.03299, 0.34851, 0.655882, 0.0001, 45.5, 246, 41.5893, 0.226319, 0, 0, 1, 0, 70742
-9921.4, 210783, -238.072, 1.47356, -755.37, 0.82813, 0.496461, 1.03299, 0.34851, 0.655882, 3, 45.5, 246, 41.5893, 0.226319, 0, 0, 1, 0, 70742
-9772.68, 189489, -277.399, 3.29176, -743.916, 0.150326, 0.345422, 1.03299, 0.34851, 0.655882, 0.0001, 45.5, 246, 47.6348, 0.210857, 1.07627, 1, 0, 0, 70746
-6219.3, 202778, -327.141, 3.62738, -792.992, 0.207803, 0.363715, 0.993198, 0.349787, 0.651995, 0.0001, 91, 246, 47.6348, 0.210857, 1.24503, 1, 1, 0, 70746
-6219.3, 202778, -327.141, 3.62738, -792.992, 0.207803, 0.363715, 0.993198, 0.349787, 0.651995, 3, 91, 246, 47.6348, 0.210857, 1.10311, 1, 1, 0, 70746
-1666.73, 219406, -388.058, 4.03244, -860.686, 0.28142, 0.402158, 0.958125, 0.351078, 0.648177, 0.0001, 182, 246, 47.6348, 0.210857, 2.40004, 1, 0, 0, 70746
-1666.73, 219406, -388.058, 4.03244, -860.686, 0.28142, 0.402158, 0.958125, 0.351078, 0.648177, 3, 182, 246, 47.6348, 0.210857, 2.22956, 1, 0, 0, 70746
6566.92, 249519, -494.253, 4.72873, -994.163, 0.417194, 0.491933, 0.9175, 0.352806, 0.64323, 0.0001, 455, 246, 47.6348, 0.210857, 0, 0, 0, 0, 70746
6566.92, 249519, -494.253, 4.72873, -994.163, 0.417194, 0.491933, 0.9175, 0.352806, 0.64323, 3, 455, 246, 47.6348, 0.210857, 0, 0, 0, 0, 70746
-10876.9, 151360, -152.012, 3.59123, -807.46, -0.0567611, 0.196827, 1.03299, 0.34851, 0.655882, 0.0001, 45.5, 246, 34.7588, 0.129408, 0, 0, 0, 0, 70747
-10876.9, 151360, -152.012, 3.59123, -807.46, -0.0567611, 0.196827, 1.03299, 0.34851, 0.655882, 3, 45.5, 246, 34.7588, 0.129408, 0, 0, 0, 0, 70747
977.681, 197223, -331.642, 4.99702, -922.796, 0.209312, 0.344919, 0.9175, 0.352806, 0.64323, 0.0001, 455, 246, 34.7588, 0.129408, 1.82103, 1, 0, 0, 70747
977.681, 197223, -331.642, 4.99702, -922.796, 0.209312, 0.344919, 0.9175, 0.352806, 0.64323, 3, 455, 246, 34.7588, 0.129408, 1.84167, 1, 0, 0, 70747
-9194.68, 163093, -217.258, 2.8453, -785.856, 0.116495, 0.351271, 1.03299, 0.34851, 0.655882, 3, 45.5, 246, 43.9666, 0.199778, 0, 0, 0, 0, 70749
-3531.17, 191596, -304.148, 3.40152, -870.183, 0.20989, 0.375211, 0.958125, 0.351078, 0.648177, 0.0001, 182, 246, 43.9666, 0.199778, 1.01909, 1, 0, 0, 70749
-12125.1, 169869, -33.6947, 2.12246, -946.476, 0.4719, 0.278849, 1.03299, 0.34851, 0.655882, 0.0001, 45.5, 246, 19.963, 0.0534729, 0, 0, 1, 0, 70750
-8627.75, 217433, -83.2909, 2.55559, -1128.78, 0.610935, 0.252754, 0.958125, 0.351078, 0.648177, 0.0001, 182, 246, 19.963, 0.0534729, 0, 0, 1, 0, 70750
-8627.75, 217433, -83.2909, 2.55559, -1128.78, 0.610935, 0.252754, 0.958125, 0.351078, 0.648177, 3, 182, 246, 19.963, 0.0534729, 0, 0, 1, 0, 70750
-768.291, 159933, -285.612, 5.08121, -1406.02, 1.32332, 0.337829, 0.9175, 0.352806, 0.64323, 0.0001, 455, 246, 32.9842, 0.109198, 1.67878, 1, 0, 0, 70753
-768.291, 159933, -285.612, 5.08121, -1406.02, 1.32332, 0.337829, 0.9175, 0.352806, 0.64323, 3, 455, 246, 32.9842, 0.109198, 1.68432, 1, 0, 0, 70753
-7522.6, 286395, -243.438, 0.107953, -984.011, 0.535725, 0.549071, 1.03299, 0.34851, 0.655882, 0.0001, 45.5, 246, 40.1499, 0.224158, 2.49708, 1, 0, 0, 70754
-7522.6, 286395, -243.438, 0.107953, -984.011, 0.535725, 0.549071, 1.03299, 0.34851, 0.655882, 3, 45.5, 246, 40.1499, 0.224158, 2.49732, 1, 0, 0, 70754
-7068.52, 314907, -252.861, 0.11502, -1075.78, 0.58533, 0.530378, 0.993198, 0.349787, 0.651995, 0.0001, 91, 246, 40.1499, 0.224158, 2.96087, 1, 1, 0, 70754
-7068.52, 314907, -252.861, 0.11502, -1075.78, 0.58533, 0.530378, 0.993198, 0.349787, 0.651995, 3, 91, 246, 40.1499, 0.224158, 2.96029, 1, 1, 0, 70754
-6515.11, 349199, -262.216, 0.122635, -1186.28, 0.645055, 0.515933, 0.958125, 0.351078, 0.648177, 0.0001, 182, 246, 40.1499, 0.224158, 4.47066, 1, 0, 0, 70754
-6515.11, 349199, -262.216, 0.122635, -1186.28, 0.645055, 0.515933, 0.958125, 0.351078, 0.648177, 3, 182, 246, 40.1499, 0.224158, 4.47034, 1, 0, 0, 70754
-8050.31, 47296.6, -70.4094, 1.31278, -681.338, 0.119742, 0.362921, 1.03299, 0.34851, 0.655882, 3, 45.5, 246, 36.8452, 0.233351, 0, 0, 1, 1, 70755
-8696.11, 124918, -155.003, 3.53866, -1029.84, -0.0603559, 0.225147, 1.03299, 0.34851, 0.655882, 0.0001, 45.5, 246, 40.1562, 0.15056, 0, 0, 0, 0, 70757
-8696.11, 124918, -155.003, 3.53866, -1029.84, -0.0603559, 0.225147, 1.03299, 0.34851, 0.655882, 3, 45.5, 246, 40.1562, 0.15056, 0, 0, 0, 0, 70757
-6417.23, 143573, -204.479, 3.86079, -1042.22, -0.000184261, 0.242983, 0.993198, 0.349787, 0.651995, 3, 91, 246, 40.1562, 0.15056, 0, 0, 1, 0, 70757
-3317.52, 164046, -263.924, 4.24835, -1072.96, 0.0720607, 0.281274, 0.958125, 0.351078, 0.648177, 0.0001, 182, 246, 40.1562, 0.15056, 1.00564, 1, 0, 0, 70757
-8532.22, 151150, -204.192, 2.54125, -841.733, -0.030622, 0.387123, 1.03299, 0.34851, 0.655882, 0.0001, 45.5, 246, 45.3648, 0.218424, 0, 0, 1, 0, 70760
-8532.22, 151150, -204.192, 2.54125, -841.733, -0.030622, 0.387123, 1.03299, 0.34851, 0.655882, 3, 45.5, 246, 45.3648, 0.218424, 0, 0, 1, 0, 70760
616.663, 200114, -347.236, 3.29599, -922.882, 0.0928602, 0.428803, 0.9175, 0.352806, 0.64323, 0.0001, 455, 246, 45.3648, 0.218424, 3.14108, 1, 0, 0, 70760
616.663, 200114, -347.236, 3.29599, -922.882, 0.0928602, 0.428803, 0.9175, 0.352806, 0.64323, 3, 455, 246, 45.3648, 0.218424, 3.24097, 1, 0, 0, 70760
-8164.18, 181274, -344.996, 3.03491, -567.602, 0.646877, 0.431117, 1.03299, 0.34851, 0.655882, 0.0001, 45.5, 246, 52.8555, 0.245699, 1.51439, 1, 0, 0, 70762
-8164.18, 181274, -344.996, 3.03491, -567.602, 0.646877, 0.431117, 1.03299, 0.34851, 0.655882, 3, 45.5, 246, 52.8555, 0.245699, 1.45227, 1, 0, 0, 70762
-4482.49, 196986, -394.158, 3.43263, -667.749, 0.77159, 0.449342, 0.993198, 0.349787, 0.651995, 0.0001, 91, 246, 52.8555, 0.245699, 1.81081, 1, 1, 0, 70762
-4482.49, 196986, -394.158, 3.43263, -667.749, 0.77159, 0.449342, 0.993198, 0.349787, 0.651995, 3, 91, 246, 52.8555, 0.245699, 1.71839, 1, 1, 0, 70762
2700.39, 249893, -385.157, 4.92648, -1048.38, 0.482755, 0.378938, 0.9175, 0.352806, 0.64323, 0.0001, 455, 246, 37.0729, 0.146711, 0, 0, 0, 0, 70766
2700.39, 249893, -385.157, 4.92648, -1048.38, 0.482755, 0.378938, 0.9175, 0.352806, 0.64323, 3, 455, 246, 37.0729, 0.146711, 0, 0, 0, 0, 70766
-7715.59, 110320, -102.317, 1.883, -916.956, 0.76053, 0.295752, 0.958125, 0.351078, 0.648177, 0.0001, 182, 246, 26.5536, 0.129239, 0, 0, 1, 0, 70767
-7715.59, 110320, -102.317, 1.883, -916.956, 0.76053, 0.295752, 0.958125, 0.351078, 0.648177, 3, 182, 246, 26.5536, 0.129239, 0, 0, 1, 0, 70767
-6297.04, 141084, -134.68, 2.1529, -1102.04, 0.932265, 0.284877, 0.9175, 0.352806, 0.64323, 0.0001, 455, 246, 26.5536, 0.129239, 0, 0, 1, 0, 70767
-6297.04, 141084, -134.68, 2.1529, -1102.04, 0.932265, 0.284877, 0.9175, 0.352806, 0.64323, 3, 455, 246, 26.5536, 0.129239, 0, 0, 1, 0, 70767
-8288.72, 50794.3, -59.5871, 1.91236, -681.178, 0.0129611, 0.31578, 1.03299, 0.34851, 0.655882, 0.0001, 45.5, 246, 27.4004, 0.119563, 0, 0, 1, 0, 70770
-8288.72, 50794.3, -59.5871, 1.91236, -681.178, 0.0129611, 0.31578, 1.03299, 0.34851, 0.655882, 3, 45.5, 246, 27.4004, 0.119563, 0, 0, 1, 0, 70770
-9794.86, 106213, -88.3629, 2.9756, -878.31, 0.710625, 0.229139, 1.03299, 0.34851, 0.655882, 0.0001, 45.5, 246, 28.6585, 0.0997965, 0, 0, 0, 0, 70772
-9794.86, 106213, -88.3629, 2.9756, -878.31, 0.710625, 0.229139, 1.03299, 0.34851, 0.655882, 3, 45.5, 246, 28.6585, 0.0997965, 0, 0, 0, 0, 70772
-5869.35, 116966, -221.058, 3.10814, -899.36, 0.268482, 0.326255, 1.03299, 0.34851, 0.655882, 0.0001, 45.5, 246, 51.7364, 0.218996, 1.26798, 1, 1, 0, 70773
-5869.35, 116966, -221.058, 3.10814, -899.36, 0.268482, 0.326255, 1.03299, 0.34851, 0.655882, 3, 45.5, 246, 51.7364, 0.218996, 1.07632, 1, 1, 0, 70773
-3670.18, 134912, -268.196, 3.43326, -964.179, 0.329395, 0.337362, 0.993198, 0.349787, 0.651995, 0.0001, 91, 246, 51.7364, 0.218996, 1.40349, 1, 1, 0, 70773
-3670.18, 134912, -268.196, 3.43326, -964.179, 0.329395, 0.337362, 0.993198, 0.349787, 0.651995, 3, 91, 246, 51.7364, 0.218996, 1.25469, 1, 1, 0, 70773
-636.886, 156896, -326.511, 3.82509, -1050.91, 0.408432, 0.3671, 0.958125, 0.351078, 0.648177, 0.0001, 182, 246, 51.7364, 0.218996, 2.2698, 1, 0, 0, 70773
-636.886, 156896, -326.511, 3.82509, -1050.91, 0.408432, 0.3671, 0.958125, 0.351078, 0.648177, 3, 182, 246, 51.7364, 0.218996, 2.12267, 1, 0, 0, 70773
-6074.78, 19970.6, -88.4779, 3.87873, -1061.73, 0.0216998, 0.206623, 0.993198, 0.349787, 0.651995, 0.0001, 91, 246, 30.4135, 0.0579369, 0, 0, 1, 1, 70778
-6074.78, 19970.6, -88.4779, 3.87873, -1061.73, 0.0216998, 0.206623, 0.993198, 0.349787, 0.651995, 3, 91, 246, 30.4135, 0.0579369, 0, 0, 1, 1, 70778
12.719, 175833, -310.804, 3.84047, -1200.94, 0.768001, 0.368471, 0.9175, 0.352806, 0.64323, 0.0001, 455, 246, 42.1892, 0.181017, 2.68619, 1, 0, 0, 70780
12.719, 175833, -310.804, 3.84047, -1200.94, 0.768001, 0.368471, 0.9175, 0.352806, 0.64323, 3, 455, 246, 42.1892, 0.181017, 2.70794, 1, 0, 0, 70780
659.683, 227132, -336.216, 4.38365, -1023.22, 0.652623, 0.363932, 0.9175, 0.352806, 0.64323, 0.0001, 455, 246, 35.595, 0.146909, 1.78766, 1, 0, 0, 70783
659.683, 227132, -336.216, 4.38365, -1023.22, 0.652623, 0.363932, 0.9175, 0.352806, 0.64323, 3, 455, 246, 35.595, 0.146909, 1.85373, 1, 0, 0, 70783
-9406.3, 127784, -131.55, 2.41687, -727.124, 0.0282744, 0.318918, 1.03299, 0.34851, 0.655882, 3, 45.5, 246, 33.9512, 0.152919, 0, 0, 1, 0, 70785
-3091.15, 336980, -455.537, 3.66357, -1102.41, 1.07419, 0.492894, 0.958125, 0.351078, 0.648177, 0.0001, 182, 246, 45.5948, 0.210694, 2.08614, 1, 0, 0, 70786
-3091.15, 336980, -455.537, 3.66357, -1102.41, 1.07419, 0.492894, 0.958125, 0.351078, 0.648177, 3, 182, 246, 45.5948, 0.210694, 1.96631, 1, 0, 0, 70786
-5658.79, -64845.4, 16.263, 3.51354, -717.187, 0.512173, 0.19974, 1.03299, 0.34851, 0.655882, 0.0001, 45.5, 246, 7.18255, 0.0455215, 2.96186, 1, 1, 0, 70788
-5658.79, -64845.4, 16.263, 3.51354, -717.187, 0.512173, 0.19974, 1.03299, 0.34851, 0.655882, 3, 45.5, 246, 7.18255, 0.0455215, 2.96148, 1, 1, 0, 70788
744.968, 293437, -347.934, 4.48327, -1193.53, 1.79004, 0.372071, 0.9175, 0.352806, 0.64323, 3, 455, 246, 31.8805, 0.137542, 1.46425, 1, 0, 0, 70793
-3226.69, 281458, -399.633, 4.22429, -944.852, 0.225313, 0.383997, 0.958125, 0.351078, 0.648177, 0.0001, 182, 246, 44.0505, 0.187784, 2.10512, 1, 0, 0, 70797
-3226.69, 281458, -399.633, 4.22429, -944.852, 0.225313, 0.383997, 0.958125, 0.351078, 0.648177, 3, 182, 246, 44.0505, 0.187784, 1.94371, 1, 0, 0, 70797
-8291.79, 171099, -39.7986, 0.0464375, -1096.24, 0.0035634, 0.35041, 1.03299, 0.34851, 0.655882, 0.0001, 45.5, 246, 18.99, 0.0560593, 0, 0, 1, 0, 70804
-8291.79, 171099, -39.7986, 0.0464375, -1096.24, 0.0035634, 0.35041, 1.03299, 0.34851, 0.655882, 3, 45.5, 246, 18.99, 0.0560593, 0, 0, 1, 0, 70804
-4148.43, 115562, -246.608, 3.5791, -1057.48, 0.0622403, 0.301271, 1.03299, 0.34851, 0.655882, 0.0001, 45.5, 246, 57.4092, 0.230491, 1.47222, 1, 0, 0, 70808
-4148.43, 115562, -246.608, 3.5791, -1057.48, 0.0622403, 0.301271, 1.03299, 0.34851, 0.655882, 3, 45.5, 246, 57.4092, 0.230491, 1.33113, 1, 0, 0, 70808
-1465.26, 137724, -307.542, 3.94288, -1100.66, 0.125607, 0.326192, 0.993198, 0.349787, 0.651995, 0.0001, 91, 246, 57.4092, 0.230491, 1.84596, 1, 1, 0, 70808
-1465.26, 137724, -307.542, 3.94288, -1100.66, 0.125607, 0.326192, 0.993198, 0.349787, 0.651995, 3, 91, 246, 57.4092, 0.230491, 1.74183, 1, 1, 0, 70808
-11818.2, 257793, -155.134, 1.60527, -803.191, 0.0547053, 0.381217, 1.03299, 0.34851, 0.655882, 0.0001, 45.5, 246, 30.4886, 0.136616, 0, 0, 1, 0, 70811
-6035.42, 87057.5, -169.937, 3.20829, -820.634, -0.0230191, 0.26502, 1.03299, 0.34851, 0.655882, 0.0001, 45.5, 246, 46.1181, 0.173821, 1.106, 1, 1, 0, 70812
-6035.42, 87057.5, -169.937, 3.20829, -820.634, -0.0230191, 0.26502, 1.03299, 0.34851, 0.655882, 3, 45.5, 246, 46.1181, 0.173821, 0, 0, 1, 0, 70812
-4482, 99427.4, -210.096, 3.48802, -837.475, 0.0261433, 0.274233, 0.993198, 0.349787, 0.651995, 0.0001, 91, 246, 46.1181, 0.173821, 1.09875, 1, 1, 0, 70812
-2383.03, 113194, -257.782, 3.81787, -867.291, 0.0851169, 0.300544, 0.958125, 0.351078, 0.648177, 0.0001, 182, 246, 46.1181, 0.173821, 1.42371, 1, 1, 0, 70812
-2383.03, 113194, -257.782, 3.81787, -867.291, 0.0851169, 0.300544, 0.958125, 0.351078, 0.648177, 3, 182, 246, 46.1181, 0.173821, 1.26326, 1, 1, 0, 70812
1554.12, 135057, -337.291, 4.36548, -934.417, 0.185659, 0.366098, 0.9175, 0.352806, 0.64323, 0.0001, 455, 246, 46.1181, 0.173821, 3.27027, 1, 0, 0, 70812
1554.12, 135057, -337.291, 4.36548, -934.417, 0.185659, 0.366098, 0.9175, 0.352806, 0.64323, 3, 455, 246, 46.1181, 0.173821, 3.27306, 1, 0, 0, 70812
-11031.7, 280699, -67.943, 0.859554, -627.681, 0.101962, 0.345641, 1.03299, 0.34851, 0.655882, 0.0001, 45.5, 246, 17.6285, 0.0610677, 0, 0, 1, 0, 70814
-11031.7, 280699, -67.943, 0.859554, -627.681, 0.101962, 0.345641, 1.03299, 0.34851, 0.655882, 3, 45.5, 246, 17.6285, 0.0610677, 0, 0, 1, 0, 70814
-10165.7, 289245, -75.8488, 0.901266, -639.81, 0.10709, 0.313211, 0.993198, 0.349787, 0.651995, 0.0001, 91, 246, 17.6285, 0.0610677, 0, 0, 1, 0, 70814
-8698.54, 12333.8, 4.99809, 1.06679, -747.409, -0.00524629, 0.331212, 1.03299, 0.34851, 0.655882, 0.0001, 45.5, 246, 4.66563, 0.0325475, 0, 0, 1, 1, 70818
-8698.54, 12333.8, 4.99809, 1.06679, -747.409, -0.00524629, 0.331212, 1.03299, 0.34851, 0.655882, 3, 45.5, 246, 4.66563, 0.0325475, 0, 0, 1, 1, 70818
-5683.1, 47081.4, -134.572, 2.86905, -519.505, 0.795776, 0.240948, 1.03299, 0.34851, 0.655882, 0.0001, 45.5, 246, 40.8984, 0.107918, 1.03793, 1, 1, 0, 70823
-3834.19, 66656.1, -196.431, 3.73284, -738.423, 1.19066, 0.25887, 0.958125, 0.351078, 0.648177, 0.0001, 182, 246, 40.8984, 0.107918, 1.01146, 1, 1, 0, 70823
-1393.55, 93182.6, -267.506, 4.67279, -1033.36, 1.7213, 0.325387, 0.9175, 0.352806, 0.64323, 0.0001, 455, 246, 40.8984, 0.107918, 1.58727, 1, 1, 0, 70823
-1393.55, 93182.6, -267.506, 4.67279, -1033.36, 1.7213, 0.325387, 0.9175, 0.352806, 0.64323, 3, 455, 246, 40.8984, 0.107918, 1.52054, 1, 1, 0, 70823
-4724.47, 70197.4, -178.649, 3.05575, -650.599, 0.0506861, 0.270424, 1.03299, 0.34851, 0.655882, 0.0001, 45.5, 246, 50.1462, 0.174478, 1.2998, 1, 1, 0, 70824
-4724.47, 70197.4, -178.649, 3.05575, -650.599, 0.0506861, 0.270424, 1.03299, 0.34851, 0.655882, 3, 45.5, 246, 50.1462, 0.174478, 1.10914, 1, 1, 0, 70824
-3450.73, 78617.2, -212.982, 3.32588, -674.637, 0.096173, 0.275345, 0.993198, 0.349787, 0.651995, 0.0001, 91, 246, 50.1462, 0.174478, 1.32392, 1, 1, 0, 70824
-3450.73, 78617.2, -212.982, 3.32588, -674.637, 0.096173, 0.275345, 0.993198, 0.349787, 0.651995, 3, 91, 246, 50.1462, 0.174478, 1.1552, 1, 1, 0, 70824
-1761.8, 88337.7, -253.779, 3.6426, -709.452, 0.15179, 0.296295, 0.958125, 0.351078, 0.648177, 0.0001, 182, 246, 50.1462, 0.174478, 1.53869, 1, 1, 0, 70824
-1761.8, 88337.7, -253.779, 3.6426, -709.452, 0.15179, 0.296295, 0.958125, 0.351078, 0.648177, 3, 182, 246, 50.1462, 0.174478, 1.39641, 1, 1, 0, 70824
1354.89, 104323, -321.753, 4.16445, -779.01, 0.248099, 0.35246, 0.9175, 0.352806, 0.64323, 0.0001, 455, 246, 50.1462, 0.174478, 2.35573, 1, 1, 1, 70824
1354.89, 104323, -321.753, 4.16445, -779.01, 0.248099, 0.35246, 0.9175, 0.352806, 0.64323, 3, 455, 246, 50.1462, 0.174478, 2.26877, 1, 1, 1, 70824
-5335.97, 278770, -374.44, 3.98305, -705.273, 0.342569, 0.373269, 0.958125, 0.351078, 0.648177, 0.0001, 182, 246, 39.0151, 0.177246, 1.07451, 1, 0, 0, 70826
-9558.94, 133564, -29.5238, 1.58858, -939.435, 0.672373, 0.286906, 0.993198, 0.349787, 0.651995, 0.0001, 91, 246, 15.2546, 0.0435824, 0, 0, 1, 0, 70827
-9558.94, 133564, -29.5238, 1.58858, -939.435, 0.672373, 0.286906, 0.993198, 0.349787, 0.651995, 3, 91, 246, 15.2546, 0.0435824, 0, 0, 1, 0, 70827
-8704.34, 156163, -46.0005, 1.73839, -1053.9, 0.765894, 0.266296, 0.958125, 0.351078, 0.648177, 0.0001, 182, 246, 15.2546, 0.0435824, 0, 0, 1, 0, 70827
-8704.34, 156163, -46.0005, 1.73839, -1053.9, 0.765894, 0.266296, 0.958125, 0.351078, 0.648177, 3, 182, 246, 15.2546, 0.0435824, 0, 0, 1, 0, 70827
-7345.01, 18409.6, -38.1312, 3.36976, -578.911, 0.698442, 0.174208, 1.03299, 0.34851, 0.655882, 0.0001, 45.5, 246, 19.6119, 0.039473, 0, 0, 1, 0, 70830
-7345.01, 18409.6, -38.1312, 3.36976, -578.911, 0.698442, 0.174208, 1.03299, 0.34851, 0.655882, 3, 45.5, 246, 19.6119, 0.039473, 0, 0, 1, 0, 70830
-7141.69, 25568.2, -61.801, 3.82208, -658.715, 0.848833, 0.185509, 0.993198, 0.349787, 0.651995, 0.0001, 91, 246, 19.6119, 0.039473, 0, 0, 1, 0, 70830
-7141.69, 25568.2, -61.801, 3.82208, -658.715, 0.848833, 0.185509, 0.993198, 0.349787, 0.651995, 3, 91, 246, 19.6119, 0.039473, 0, 0, 1, 0, 70830
-6688.14, 35638.6, -94.7514, 4.41091, -774.462, 1.06614, 0.222513, 0.958125, 0.351078, 0.648177, 0.0001, 182, 246, 19.6119, 0.039473, 0, 0, 1, 0, 70830
-6688.14, 35638.6, -94.7514, 4.41091, -774.462, 1.06614, 0.222513, 0.958125, 0.351078, 0.648177, 3, 182, 246, 19.6119, 0.039473, 0, 0, 1, 0, 70830
-5350.71, 58025.3, -164.278, 5.56293, -1037.67, 1.55695, 0.328764, 0.9175, 0.352806, 0.64323, 3, 455, 246, 19.6119, 0.039473, 0, 0, 1, 0, 70830
-11404.6, 338446, -316.019, 1.46619, -1018.12, -0.0100512, 0.584801, 1.03299, 0.34851, 0.655882, 0.0001, 45.5, 246, 46.131, 0.23059, 0, 0, 0, 0, 70831
-11404.6, 338446, -316.019, 1.46619, -1018.12, -0.0100512, 0.584801, 1.03299, 0.34851, 0.655882, 3, 45.5, 246, 46.131, 0.23059, 0, 0, 0, 0, 70831
-8177.12, 65433, -78.875, 1.98438, -1015.79, 0.110325, 0.333255, 1.03299, 0.34851, 0.655882, 3, 45.5, 246, 33.505, 0.160437, 0, 0, 1, 0, 70832
-10929.8, 243274, -273.458, 2.05841, -933.109, 0.795495, 0.482604, 1.03299, 0.34851, 0.655882, 3, 45.5, 246, 44.758, 0.21593, 0, 0, 0, 0, 70833
-9635.55, 72183.7, -30.1726, 3.40737, -875.709, 0.0276674, 0.175351, 1.03299, 0.34851, 0.655882, 0.0001, 45.5, 246, 20.0921, 0.0605652, 0, 0, 1, 0, 70834
-9635.55, 72183.7, -30.1726, 3.40737, -875.709, 0.0276674, 0.175351, 1.03299, 0.34851, 0.655882, 3, 45.5, 246, 20.0921, 0.0605652, 0, 0, 1, 0, 70834
-10919.6, 211975, -298.256, 3.53153, -852.752, 0.474418, 0.319435, 1.03299, 0.34851, 0.655882, 0.0001, 45.5, 246, 48.057, 0.201692, 1.03673, 1, 0, 0, 70837
-6550.6, 233784, -358.232, 3.98137, -960.12, 0.579759, 0.345423, 0.993198, 0.349787, 0.651995, 0.0001, 91, 246, 48.057, 0.201692, 1.3427, 1, 1, 0, 70837
-6550.6, 233784, -358.232, 3.98137, -960.12, 0.579759, 0.345423, 0.993198, 0.349787, 0.651995, 3, 91, 246, 48.057, 0.201692, 1.23, 1, 1, 0, 70837
-9780.63, 271371, -238.244, 1.06397, -966.78, 0.827537, 0.498863, 1.03299, 0.34851, 0.655882, 0.0001, 45.5, 246, 39.6695, 0.196151, 0, 0, 0, 0, 70838
-9780.63, 271371, -238.244, 1.06397, -966.78, 0.827537, 0.498863, 1.03299, 0.34851, 0.655882, 3, 45.5, 246, 39.6695, 0.196151, 0, 0, 0, 0, 70838
-9263.7, 87938.8, -10.0252, 3.91115, -1135.97, 0.0050303, 0.16202, 0.993198, 0.349787, 0.651995, 0.0001, 91, 246, 14.3472, 0.0366469, 0, 0, 1, 0, 70840
-9263.7, 87938.8, -10.0252, 3.91115, -1135.97, 0.0050303, 0.16202, 0.993198, 0.349787, 0.651995, 3, 91, 246, 14.3472, 0.0366469, 0, 0, 1, 0, 70840
-4950.49, 274969, -108.143, 3.36239, -1116.37, 0.487697, 0.248644, 0.9175, 0.352806, 0.64323, 0.0001, 455, 246, 17.1037, 0.0323104, 0, 0, 0, 0, 70843
-4950.49, 274969, -108.143, 3.36239, -1116.37, 0.487697, 0.248644, 0.9175, 0.352806, 0.64323, 3, 455, 246, 17.1037, 0.0323104, 0, 0, 0, 0, 70843
-6227.09, 63967.4, -141.007, 3.37058, -647.421, 0.530185, 0.197898, 1.03299, 0.34851, 0.655882, 0.0001, 45.5, 246, 38.9622, 0.114245, 1.05745, 1, 1, 0, 70844
-6227.09, 63967.4, -141.007, 3.37058, -647.421, 0.530185, 0.197898, 1.03299, 0.34851, 0.655882, 3, 45.5, 246, 38.9622, 0.114245, 0, 0, 1, 0, 70844
-3364.7, 88443.9, -222.006, 4.31367, -834.014, 0.791996, 0.246076, 0.958125, 0.351078, 0.648177, 0.0001, 182, 246, 38.9622, 0.114245, 1.0932, 1, 1, 0, 70844
216.166, 117033, -310.916, 5.29262, -1062.38, 1.109, 0.344078, 0.9175, 0.352806, 0.64323, 0.0001, 455, 246, 38.9622, 0.114245, 1.90832, 1, 1, 0, 70844
216.166, 117033, -310.916, 5.29262, -1062.38, 1.109, 0.344078, 0.9175, 0.352806, 0.64323, 3, 455, 246, 38.9622, 0.114245, 1.9077, 1, 1, 0, 70844
-9082.76, 278209, -146.168, 0.969718, -897.859, 0.196073, 0.362855, 0.993198, 0.349787, 0.651995, 0.0001, 91, 246, 28.3778, 0.123015, 0, 0, 1, 0, 70847
-7655.95, 84290.9, -121.007, 2.69084, -887.843, -0.0332323, 0.296457, 1.03299, 0.34851, 0.655882, 0.0001, 45.5, 246, 38.5063, 0.159744, 0, 0, 1, 0, 70848
-7655.95, 84290.9, -121.007, 2.69084, -887.843, -0.0332323, 0.296457, 1.03299, 0.34851, 0.655882, 3, 45.5, 246, 38.5063, 0.159744, 0, 0, 1, 0, 70848
-11738, 285199, -202.734, 1.86897, -1171.95, 0.030516, 0.418526, 1.03299, 0.34851, 0.655882, 0.0001, 45.5, 246, 39.348, 0.163846, 0, 0, 0, 0, 70849
-7640.88, 133205, -235.305, 3.57139, -578.871, -0.0438588, 0.249034, 1.03299, 0.34851, 0.655882, 0.0001, 45.5, 246, 45.4265, 0.180777, 1.2864, 1, 1, 0, 70851
-7640.88, 133205, -235.305, 3.57139, -578.871, -0.0438588, 0.249034, 1.03299, 0.34851, 0.655882, 3, 45.5, 246, 45.4265, 0.180777, 1.176, 1, 0, 0, 70851
-4984.18, 139951, -277.713, 3.90521, -602.768, 0.0174452, 0.269669, 0.993198, 0.349787, 0.651995, 0.0001, 91, 246, 45.4265, 0.180777, 1.35249, 1, 1, 0, 70851
-4984.18, 139951, -277.713, 3.90521, -602.768, 0.0174452, 0.269669, 0.993198, 0.349787, 0.651995, 3, 91, 246, 45.4265, 0.180777, 1.18621, 1, 1, 0, 70851
-1665.43, 148486, -328.965, 4.30858, -640.738, 0.091814, 0.311546, 0.958125, 0.351078, 0.648177, 0.0001, 182, 246, 45.4265, 0.180777, 1.7554, 1, 1, 0, 70851
-1665.43, 148486, -328.965, 4.30858, -640.738, 0.091814, 0.311546, 0.958125, 0.351078, 0.648177, 3, 182, 246, 45.4265, 0.180777, 1.62103, 1, 1, 0, 70851
-11330.9, 124886, -48.2518, 3.12537, -1032.45, 0.0525256, 0.207798, 1.03299, 0.34851, 0.655882, 0.0001, 45.5, 246, 24.074, 0.074979, 0, 0, 0, 0, 70852
-11330.9, 124886, -48.2518, 3.12537, -1032.45, 0.0525256, 0.207798, 1.03299, 0.34851, 0.655882, 3, 45.5, 246, 24.074, 0.074979, 0, 0, 0, 0, 70852
-10359.7, 87906.9, -12.1266, 2.82819, -1038.99, -0.0368058, 0.231627, 1.03299, 0.34851, 0.655882, 0.0001, 45.5, 246, 18.2948, 0.0544492, 0, 0, 1, 0, 70854
-10359.7, 87906.9, -12.1266, 2.82819, -1038.99, -0.0368058, 0.231627, 1.03299, 0.34851, 0.655882, 3, 45.5, 246, 18.2948, 0.0544492, 0, 0, 1, 0, 70854
-3260.52, 304276, -383.956, 3.58817, -1154.43, 0.391845, 0.426998, 0.958125, 0.351078, 0.648177, 0.0001, 182, 246, 45.107, 0.196285, 1.03129, 1, 0, 0, 70858
-12492.7, 140178, -8.87238, 2.87608, -762.629, -0.0392104, 0.213825, 1.03299, 0.34851, 0.655882, 0.0001, 45.5, 246, 14.3441, 0.0341814, 0, 0, 1, 0, 70860
-12492.7, 140178, -8.87238, 2.87608, -762.629, -0.0392104, 0.213825, 1.03299, 0.34851, 0.655882, 3, 45.5, 246, 14.3441, 0.0341814, 0, 0, 1, 0, 70860
-12075.3, 147099, 18.6815, 2.00524, -1059.54, 0.678028, 0.27602, 1.03299, 0.34851, 0.655882, 0.0001, 45.5, 246, 14.611, 0.0162704, 0, 0, 1, 0, 70862
-9119.39, 211436, -28.5302, 2.46931, -1359.05, 0.918807, 0.24512, 0.958125, 0.351078, 0.648177, 0.0001, 182, 246, 14.611, 0.0162704, 0, 0, 1, 0, 70862
-9119.39, 211436, -28.5302, 2.46931, -1359.05, 0.918807, 0.24512, 0.958125, 0.351078, 0.648177, 3, 182, 246, 14.611, 0.0162704, 0, 0, 1, 0, 70862
-7384.43, 96545.9, -151.602, 2.86245, -782.164, -0.0382489, 0.293927, 1.03299, 0.34851, 0.655882, 3, 45.5, 246, 41.5189, 0.171445, 0, 0, 1, 0, 70864
-801.615, 137541, -287.419, 3.77404, -859.139, 0.121212, 0.350804, 0.9175, 0.352806, 0.64323, 0.0001, 455, 246, 41.5189, 0.171445, 1.5424, 1, 0, 0, 70864
-801.615, 137541, -287.419, 3.77404, -859.139, 0.121212, 0.350804, 0.9175, 0.352806, 0.64323, 3, 455, 246, 41.5189, 0.171445, 1.53514, 1, 0, 0, 70864
-8648.86, 30512.1, -25.3081, 1.44217, -1022.33, 0.0107017, 0.301187, 0.993198, 0.349787, 0.651995, 0.0001, 91, 246, 16.163, 0.0870186, 0, 0, 1, 1, 70866
-5766.87, 52432.8, -131.234, 4.40627, -941.694, 0.324982, 0.22548, 0.958125, 0.351078, 0.648177, 3, 182, 246, 26.6395, 0.0651875, 0, 0, 1, 0, 70868
-9104.48, 264217, -155.077, 0.960566, -781.459, 0.0866941, 0.375236, 0.993198, 0.349787, 0.651995, 0.0001, 91, 246, 28.6248, 0.137806, 0, 0, 1, 0, 70869
-12495.8, 322592, -72.4246, 1.23333, -1053.3, 0.087711, 0.335615, 1.03299, 0.34851, 0.655882, 0.0001, 45.5, 246, 24.4574, 0.0600881, 0, 0, 1, 0, 70870
-7831.8, -1086.78, -10.2683, 3.2516, -1168.41, 1.75815e-05, 0.238755, 0.993198, 0.349787, 0.651995, 0.0001, 91, 246, 10.6323, 0.0616331, 0, 0, 1, 1, 70871
-7831.8, -1086.78, -10.2683, 3.2516, -1168.41, 1.75815e-05, 0.238755, 0.993198, 0.349787, 0.651995, 3, 91, 246, 10.6323, 0.0616331, 0, 0, 1, 1, 70871
-9398.53, 247267, -244.48, 0.735911, -791.997, 0.474807, 0.555714, 1.03299, 0.34851, 0.655882, 0.0001, 45.5, 246, 41.2399, 0.244332, 0, 0, 0, 0, 70874
-2407.16, 95522.9, -239.883, 4.00835, -802.755, 0.392103, 0.315934, 0.9175, 0.352806, 0.64323, 0.0001, 455, 246, 37.9663, 0.127946, 1.06343, 1, 1, 0, 70877
-2407.16, 95522.9, -239.883, 4.00835, -802.755, 0.392103, 0.315934, 0.9175, 0.352806, 0.64323, 3, 455, 246, 37.9663, 0.127946, 1.04317, 1, 1, 0, 70877
-711.762, 183381, -286.283, 3.63577, -1686.78, 1.18714, 0.355749, 0.9175, 0.352806, 0.64323, 0.0001, 455, 246, 44.8198, 0.197533, 0, 0, 0, 0, 70881
-711.762, 183381, -286.283, 3.63577, -1686.78, 1.18714, 0.355749, 0.9175, 0.352806, 0.64323, 3, 455, 246, 44.8198, 0.197533, 0, 0, 0, 0, 70881
-12103.2, 275728, -112.774, 1.52959, -1052.33, 0.280795, 0.348875, 1.03299, 0.34851, 0.655882, 0.0001, 45.5, 246, 28.721, 0.0965822, 0, 0, 0, 0, 70885
-12103.2, 275728, -112.774, 1.52959, -1052.33, 0.280795, 0.348875, 1.03299, 0.34851, 0.655882, 3, 45.5, 246, 28.721, 0.0965822, 0, 0, 0, 0, 70885
-8991.21, 352399, -132.846, 0.736118, -1033.29, 0.237983, 0.345727, 0.993198, 0.349787, 0.651995, 0.0001, 91, 246, 27.3347, 0.0910399, 0, 0, 1, 0, 70887
-10310.4, 211350, -338.617, 3.53401, -701.975, 0.289233, 0.364472, 1.03299, 0.34851, 0.655882, 0.0001, 45.5, 246, 50.9985, 0.225412, 1.33098, 1, 0, 0, 70893
-10310.4, 211350, -338.617, 3.53401, -701.975, 0.289233, 0.364472, 1.03299, 0.34851, 0.655882, 3, 45.5, 246, 50.9985, 0.225412, 1.25126, 1, 0, 0, 70893
-5768.46, 226501, -397.027, 3.94667, -776.202, 0.367404, 0.393354, 0.993198, 0.349787, 0.651995, 0.0001, 91, 246, 50.9985, 0.225412, 1.6693, 1, 1, 0, 70893
-5768.46, 226501, -397.027, 3.94667, -776.202, 0.367404, 0.393354, 0.993198, 0.349787, 0.651995, 3, 91, 246, 50.9985, 0.225412, 1.58444, 1, 1, 0, 70893
-6507.23, 74988.3, -124.093, 2.92031, -1195.38, -9.80866e-05, 0.285798, 0.993198, 0.349787, 0.651995, 0.0001, 91, 246, 37.5592, 0.150386, 0, 0, 1, 0, 70894
-6507.23, 74988.3, -124.093, 2.92031, -1195.38, -9.80866e-05, 0.285798, 0.993198, 0.349787, 0.651995, 3, 91, 246, 37.5592, 0.150386, 0, 0, 1, 0, 70894
-4560.17, 86928.9, -206.169, 3.55567, -743.45, 0.055568, 0.229685, 1.03299, 0.34851, 0.655882, 0.0001, 45.5, 246, 50.5729, 0.173749, 1.42733, 1, 1, 0, 70895
-4560.17, 86928.9, -206.169, 3.55567, -743.45, 0.055568, 0.229685, 1.03299, 0.34851, 0.655882, 3, 45.5, 246, 50.5729, 0.173749, 1.29092, 1, 1, 0, 70895
-2678, 98131.3, -251.402, 3.90587, -776.146, 0.117745, 0.248826, 0.993198, 0.349787, 0.651995, 0.0001, 91, 246, 50.5729, 0.173749, 1.52586, 1, 1, 0, 70895
-2678, 98131.3, -251.402, 3.90587, -776.146, 0.117745, 0.248826, 0.993198, 0.349787, 0.651995, 3, 91, 246, 50.5729, 0.173749, 1.41253, 1, 1, 0, 70895
-141.639, 111471, -306.749, 4.3309, -825.963, 0.19588, 0.289799, 0.958125, 0.351078, 0.648177, 0.0001, 182, 246, 50.5729, 0.173749, 2.03182, 1, 1, 1, 70895
-141.639, 111471, -306.749, 4.3309, -825.963, 0.19588, 0.289799, 0.958125, 0.351078, 0.648177, 3, 182, 246, 50.5729, 0.173749, 1.90871, 1, 1, 1, 70895
-11046.9, 123450, -3.36943, 2.06985, -743.595, 0.0163974, 0.279443, 1.03299, 0.34851, 0.655882, 0.0001, 45.5, 246, 12.2028, 0.0286707, 0, 0, 1, 0, 70896
-10106.1, 132982, -18.0066, 2.20609, -747.284, 0.0365654, 0.259624, 0.993198, 0.349787, 0.651995, 0.0001, 91, 246, 12.2028, 0.0286707, 0, 0, 1, 0, 70896
-8619.44, 71330.2, -66.9739, 1.62576, -1086.66, -0.0123142, 0.348424, 1.03299, 0.34851, 0.655882, 0.0001, 45.5, 246, 30.2719, 0.155963, 0, 0, 1, 0, 70900
-8619.44, 71330.2, -66.9739, 1.62576, -1086.66, -0.0123142, 0.348424, 1.03299, 0.34851, 0.655882, 3, 45.5, 246, 30.2719, 0.155963, 0, 0, 1, 0, 70900
-8191.92, 91928.1, -87.2413, 1.71879, -1088.97, -3.34375e-05, 0.325376, 0.993198, 0.349787, 0.651995, 0.0001, 91, 246, 30.2719, 0.155963, 0, 0, 1, 0, 70900
-8191.92, 91928.1, -87.2413, 1.71879, -1088.97, -3.34375e-05, 0.325376, 0.993198, 0.349787, 0.651995, 3, 91, 246, 30.2719, 0.155963, 0, 0, 1, 0, 70900
-9915.51, 312886, -52.1109, 1.88684, -1069.33, 0.072291, 0.254226, 0.958125, 0.351078, 0.648177, 3, 182, 246, 19.3432, 0.0290396, 0, 0, 1, 0, 70901
-9135.02, 155491, -207.234, 3.4259, -883.958, -0.0167425, 0.270893, 1.03299, 0.34851, 0.655882, 3, 45.5, 246, 43.6621, 0.177591, 0, 0, 0, 0, 70902
-6303.97, 170082, -255.656, 3.74289, -907.261, 0.0396095, 0.287882, 0.993198, 0.349787, 0.651995, 3, 91, 246, 43.6621, 0.177591, 0, 0, 1, 0, 70902
-2628.2, 186926, -313.964, 4.12286, -947.334, 0.108239, 0.32464, 0.958125, 0.351078, 0.648177, 0.0001, 182, 246, 43.6621, 0.177591, 1.46469, 1, 0, 0, 70902
-2628.2, 186926, -313.964, 4.12286, -947.334, 0.108239, 0.32464, 0.958125, 0.351078, 0.648177, 3, 182, 246, 43.6621, 0.177591, 1.27776, 1, 0, 0, 70902
-11116.3, 120407, -28.0975, 2.42714, -775.782, 0.43461, 0.256568, 1.03299, 0.34851, 0.655882, 0.0001, 45.5, 246, 17.2511, 0.0518442, 0, 0, 1, 0, 70904
-11116.3, 120407, -28.0975, 2.42714, -775.782, 0.43461, 0.256568, 1.03299, 0.34851, 0.655882, 3, 45.5, 246, 17.2511, 0.0518442, 0, 0, 1, 0, 70904
-9938.92, 134477, -48.717, 2.6649, -837.537, 0.497192, 0.24387, 0.993198, 0.349787, 0.651995, 0.0001, 91, 246, 17.2511, 0.0518442, 0, 0, 1, 0, 70904
-9938.92, 134477, -48.717, 2.6649, -837.537, 0.497192, 0.24387, 0.993198, 0.349787, 0.651995, 3, 91, 246, 17.2511, 0.0518442, 0, 0, 1, 0, 70904
-8354.3, 151582, -74.6271, 2.94417, -916.193, 0.577028, 0.243605, 0.958125, 0.351078, 0.648177, 0.0001, 182, 246, 17.2511, 0.0518442, 0, 0, 1, 0, 70904
-8354.3, 151582, -74.6271, 2.94417, -916.193, 0.577028, 0.243605, 0.958125, 0.351078, 0.648177, 3, 182, 246, 17.2511, 0.0518442, 0, 0, 1, 0, 70904
-7393.13, 99479.8, -148.596, 2.64918, -1000.87, 0.117798, 0.32839, 1.03299, 0.34851, 0.655882, 0.0001, 45.5, 246, 43.3901, 0.192718, 0, 0, 1, 0, 70907
-285.081, 173045, -301.625, 3.55146, -1166.34, 0.274898, 0.371361, 0.9175, 0.352806, 0.64323, 0.0001, 455, 246, 43.3901, 0.192718, 2.21226, 1, 0, 0, 70907
-285.081, 173045, -301.625, 3.55146, -1166.34, 0.274898, 0.371361, 0.9175, 0.352806, 0.64323, 3, 455, 246, 43.3901, 0.192718, 2.23855, 1, 0, 0, 70907
-10048.6, 318631, -58.0793, 0.827623, -966.619, 0.0523532, 0.307276, 0.993198, 0.349787, 0.651995, 0.0001, 91, 246, 20.4727, 0.0446271, 0, 0, 1, 0, 70910
-11185.6, 300887, -156.77, 1.25736, -1037.79, 0.284331, 0.392674, 1.03299, 0.34851, 0.655882, 0.0001, 45.5, 246, 32.0883, 0.12336, 0, 0, 0, 0, 70912
-11185.6, 300887, -156.77, 1.25736, -1037.79, 0.284331, 0.392674, 1.03299, 0.34851, 0.655882, 3, 45.5, 246, 32.0883, 0.12336, 0, 0, 0, 0, 70912
-10663.7, 316777, -227.453, 1.24146, -1047.23, 0.00168071, 0.473502, 1.03299, 0.34851, 0.655882, 0.0001, 45.5, 246, 38.8664, 0.177585, 0, 0, 0, 0, 70915
-10663.7, 316777, -227.453, 1.24146, -1047.23, 0.00168071, 0.473502, 1.03299, 0.34851, 0.655882, 3, 45.5, 246, 38.8664, 0.177585, 0, 0, 0, 0, 70915
-9365.61, 104630, -83.6368, 2.7239, -1184.37, -0.0352494, 0.278202, 1.03299, 0.34851, 0.655882, 0.0001, 45.5, 246, 31.7059, 0.122831, 0, 0, 1, 0, 70917
-9365.61, 104630, -83.6368, 2.7239, -1184.37, -0.0352494, 0.278202, 1.03299, 0.34851, 0.655882, 3, 45.5, 246, 31.7059, 0.122831, 0, 0, 1, 0, 70917
-8042.74, 128954, -120.646, 2.93213, -1188.57, -0.000111923, 0.273788, 0.993198, 0.349787, 0.651995, 0.0001, 91, 246, 31.7059, 0.122831, 0, 0, 1, 0, 70917
-8042.74, 128954, -120.646, 2.93213, -1188.57, -0.000111923, 0.273788, 0.993198, 0.349787, 0.651995, 3, 91, 246, 31.7059, 0.122831, 0, 0, 1, 0, 70917
-8905.89, 87061.8, -79.7039, 3.06814, -1102.93, -0.0446181, 0.241304, 1.03299, 0.34851, 0.655882, 0.0001, 45.5, 246, 31.1729, 0.113908, 0, 0, 1, 0, 70919
-8905.89, 87061.8, -79.7039, 3.06814, -1102.93, -0.0446181, 0.241304, 1.03299, 0.34851, 0.655882, 3, 45.5, 246, 31.1729, 0.113908, 0, 0, 1, 0, 70919
-7652.45, 108061, -118.551, 3.32021, -1107.28, 0.00021498, 0.244451, 0.993198, 0.349787, 0.651995, 0.0001, 91, 246, 31.1729, 0.113908, 0, 0, 1, 0, 70919
-7652.45, 108061, -118.551, 3.32021, -1107.28, 0.00021498, 0.244451, 0.993198, 0.349787, 0.651995, 3, 91, 246, 31.1729, 0.113908, 0, 0, 1, 0, 70919
-11501.4, 168707, -30.2183, 1.81732, -984.055, 0.192095, 0.299802, 1.03299, 0.34851, 0.655882, 0.0001, 45.5, 246, 19.4645, 0.052584, 0, 0, 1, 0, 70923
-11501.4, 168707, -30.2183, 1.81732, -984.055, 0.192095, 0.299802, 1.03299, 0.34851, 0.655882, 3, 45.5, 246, 19.4645, 0.052584, 0, 0, 1, 0, 70923
-8387.98, 74662.4, -70.2913, 1.5946, -1070.34, 0.00831413, 0.321975, 0.993198, 0.349787, 0.651995, 0.0001, 91, 246, 27.9553, 0.148806, 0, 0, 1, 0, 70927
-8387.98, 74662.4, -70.2913, 1.5946, -1070.34, 0.00831413, 0.321975, 0.993198, 0.349787, 0.651995, 3, 91, 246, 27.9553, 0.148806, 0, 0, 1, 0, 70927
-11309.7, 265643, -301.273, 2.25336, -1031.64, 0.491206, 0.51159, 1.03299, 0.34851, 0.655882, 0.0001, 45.5, 246, 48.1856, 0.229677, 0, 0, 0, 0, 70928
-11309.7, 265643, -301.273, 2.25336, -1031.64, 0.491206, 0.51159, 1.03299, 0.34851, 0.655882, 3, 45.5, 246, 48.1856, 0.229677, 0, 0, 0, 0, 70928
-6025.45, 26607.2, -100.252, 3.46016, -1068.79, 0.0585918, 0.237791, 0.993198, 0.349787, 0.651995, 0.0001, 91, 246, 35.7465, 0.0595189, 0, 0, 1, 1, 70931
-10749.7, 328569, -196.989, 0.829499, -696.43, 0.461744, 0.434793, 1.03299, 0.34851, 0.655882, 0.0001, 45.5, 246, 29.5457, 0.1413, 0, 0, 1, 0, 70938
-10749.7, 328569, -196.989, 0.829499, -696.43, 0.461744, 0.434793, 1.03299, 0.34851, 0.655882, 3, 45.5, 246, 29.5457, 0.1413, 0, 0, 1, 0, 70938
-9402.75, 346953, -211.429, 0.889008, -756.239, 0.501582, 0.409141, 0.993198, 0.349787, 0.651995, 3, 91, 246, 29.5457, 0.1413, 0, 0, 1, 0, 70938
-9892.69, 82587.8, -21.0958, 2.46993, -1024.24, -0.0207125, 0.264969, 1.03299, 0.34851, 0.655882, 0.0001, 45.5, 246, 19.1997, 0.0636307, 0, 0, 1, 0, 70939
-9892.69, 82587.8, -21.0958, 2.46993, -1024.24, -0.0207125, 0.264969, 1.03299, 0.34851, 0.655882, 3, 45.5, 246, 19.1997, 0.0636307, 0, 0, 1, 0, 70939
-5714.12, 144654, -121.246, 3.14854, -1058.51, 0.0941182, 0.267176, 0.9175, 0.352806, 0.64323, 3, 455, 246, 19.1997, 0.0636307, 0, 0, 1, 0, 70939
-10475.4, 115362, -56.8304, 2.83329, -1114.44, -0.0157277, 0.246906, 1.03299, 0.34851, 0.655882, 0.0001, 45.5, 246, 26.2545, 0.0898769, 0, 0, 1, 0, 70940
-10475.4, 115362, -56.8304, 2.83329, -1114.44, -0.0157277, 0.246906, 1.03299, 0.34851, 0.655882, 3, 45.5, 246, 26.2545, 0.0898769, 0, 0, 1, 0, 70940
-9034.01, 136872, -91.272, 3.05704, -1120.66, 0.0223239, 0.243513, 0.993198, 0.349787, 0.651995, 0.0001, 91, 246, 26.2545, 0.0898769, 0, 0, 1, 0, 70940
-9034.01, 136872, -91.272, 3.05704, -1120.66, 0.0223239, 0.243513, 0.993198, 0.349787, 0.651995, 3, 91, 246, 26.2545, 0.0898769, 0, 0, 1, 0, 70940
-3385.48, 355769, -128.323, 4.25033, -1253, 0.46707, 0.245749, 0.9175, 0.352806, 0.64323, 0.0001, 455, 246, 18.9816, 0.023819, 0, 0, 0, 0, 70942
-3385.48, 355769, -128.323, 4.25033, -1253, 0.46707, 0.245749, 0.9175, 0.352806, 0.64323, 3, 455, 246, 18.9816, 0.023819, 0, 0, 0, 0, 70942
-15536.9, 358899, -218.298, 3.41164, -822.953, 0.088018, 0.252306, 0.993198, 0.349787, 0.651995, 0.0001, 91, 246, 30.2437, 0.109138, 0, 0, 1, 0, 70944
-15536.9, 358899, -218.298, 3.41164, -822.953, 0.088018, 0.252306, 0.993198, 0.349787, 0.651995, 3, 91, 246, 30.2437, 0.109138, 0, 0, 1, 0, 70944
-9342.1, 137435, -149.879, 2.69478, -921.011, 0.340655, 0.308556, 1.03299, 0.34851, 0.655882, 3, 45.5, 246, 37.6192, 0.159175, 0, 0, 1, 0, 70954
-156.479, 218856, -308.151, 3.80732, -1237.51, 0.600968, 0.360188, 0.9175, 0.352806, 0.64323, 0.0001, 455, 246, 37.6192, 0.159175, 1.27032, 1, 0, 0, 70954
-156.479, 218856, -308.151, 3.80732, -1237.51, 0.600968, 0.360188, 0.9175, 0.352806, 0.64323, 3, 455, 246, 37.6192, 0.159175, 1.4644, 1, 0, 0, 70954
-11414.2, 215145, -115.527, 1.96061, -1146.49, -0.0166783, 0.340918, 1.03299, 0.34851, 0.655882, 0.0001, 45.5, 246, 31.7222, 0.120022, 0, 0, 0, 0, 70956
-11414.2, 215145, -115.527, 1.96061, -1146.49, -0.0166783, 0.340918, 1.03299, 0.34851, 0.655882, 3, 45.5, 246, 31.7222, 0.120022, 0, 0, 0, 0, 70956
-6558.07, 132552, -200.155, 2.69805, -811.353, 0.493598, 0.338404, 0.993198, 0.349787, 0.651995, 0.0001, 91, 246, 41.4155, 0.190123, 0, 0, 1, 0, 70957
-6558.07, 132552, -200.155, 2.69805, -811.353, 0.493598, 0.338404, 0.993198, 0.349787, 0.651995, 3, 91, 246, 41.4155, 0.190123, 0, 0, 1, 0, 70957
-684.305, 180847, -302.792, 3.47608, -1061.03, 0.72077, 0.376879, 0.9175, 0.352806, 0.64323, 0.0001, 455, 246, 41.4155, 0.190123, 1.63207, 1, 0, 0, 70957
-684.305, 180847, -302.792, 3.47608, -1061.03, 0.72077, 0.376879, 0.9175, 0.352806, 0.64323, 3, 455, 246, 41.4155, 0.190123, 1.64043, 1, 0, 0, 70957
-3240.17, 105051, -235.819, 4.80522, -1550.84, 1.55117, 0.327709, 0.9175, 0.352806, 0.64323, 0.0001, 455, 246, 33.4028, 0.0689316, 1.3511, 1, 1, 0, 70960
-3240.17, 105051, -235.819, 4.80522, -1550.84, 1.55117, 0.327709, 0.9175, 0.352806, 0.64323, 3, 455, 246, 33.4028, 0.0689316, 1.3278, 1, 1, 0, 70960
-11108.5, 307123, -180.488, 0.990722, -724.483, 0.733676, 0.413302, 1.03299, 0.34851, 0.655882, 3, 45.5, 246, 28.8566, 0.130188, 0, 0, 1, 0, 70966
-9529.31, 142680, -146.039, 2.03459, -659.822, 0.0809455, 0.362158, 1.03299, 0.34851, 0.655882, 3, 45.5, 246, 34.7584, 0.173217, 0, 0, 1, 0, 70967
-8194.59, 151341, -168.463, 2.17963, -678.166, 0.101739, 0.347591, 0.993198, 0.349787, 0.651995, 0.0001, 91, 246, 34.7584, 0.173217, 0, 0, 1, 0, 70967
-10070.3, 218036, -319.503, 3.4081, -1013.84, 0.732583, 0.371059, 1.03299, 0.34851, 0.655882, 0.0001, 45.5, 246, 51.8343, 0.218802, 1.14908, 1, 0, 0, 70974
-10070.3, 218036, -319.503, 3.4081, -1013.84, 0.732583, 0.371059, 1.03299, 0.34851, 0.655882, 3, 45.5, 246, 51.8343, 0.218802, 1.02315, 1, 0, 0, 70974
-5462.24, 250812, -386.928, 3.89833, -1188.09, 0.894652, 0.397427, 0.993198, 0.349787, 0.651995, 0.0001, 91, 246, 51.8343, 0.218802, 1.4309, 1, 1, 0, 70974
-5462.24, 250812, -386.928, 3.89833, -1188.09, 0.894652, 0.397427, 0.993198, 0.349787, 0.651995, 3, 91, 246, 51.8343, 0.218802, 1.32752, 1, 1, 0, 70974
-10544, 234879, -229.938, 2.22251, -1174.98, 0.028391, 0.446354, 1.03299, 0.34851, 0.655882, 0.0001, 45.5, 246, 45.0185, 0.207129, 0, 0, 0, 0, 70976
-10544, 234879, -229.938, 2.22251, -1174.98, 0.028391, 0.446354, 1.03299, 0.34851, 0.655882, 3, 45.5, 246, 45.0185, 0.207129, 0, 0, 0, 0, 70976
-9085.42, 166846, -138.399, 1.222, -1089.6, -0.00358643, 0.422169, 1.03299, 0.34851, 0.655882, 3, 45.5, 246, 36.6547, 0.192832, 0, 0, 1, 0, 70977
-4423.8, 96897.9, -212.812, 3.36091, -982.498, 0.0423684, 0.291883, 1.03299, 0.34851, 0.655882, 0.0001, 45.5, 246, 54.7141, 0.215558, 1.37906, 1, 1, 0, 70985
-4423.8, 96897.9, -212.812, 3.36091, -982.498, 0.0423684, 0.291883, 1.03299, 0.34851, 0.655882, 3, 45.5, 246, 54.7141, 0.215558, 1.20341, 1, 1, 0, 70985
-2375.01, 115549, -264.415, 3.6811, -1015.46, 0.0974779, 0.30826, 0.993198, 0.349787, 0.651995, 0.0001, 91, 246, 54.7141, 0.215558, 1.60651, 1, 1, 0, 70985
-2375.01, 115549, -264.415, 3.6811, -1015.46, 0.0974779, 0.30826, 0.993198, 0.349787, 0.651995, 3, 91, 246, 54.7141, 0.215558, 1.4694, 1, 1, 0, 70985
505.161, 136856, -326.948, 4.06501, -1066.98, 0.16591, 0.344269, 0.958125, 0.351078, 0.648177, 0.0001, 182, 246, 54.7141, 0.215558, 2.74555, 1, 1, 1, 70985
505.161, 136856, -326.948, 4.06501, -1066.98, 0.16591, 0.344269, 0.958125, 0.351078, 0.648177, 3, 182, 246, 54.7141, 0.215558, 2.5912, 1, 0, 0, 70985
-3931.54, 67705.1, -185.318, 2.98972, -722.872, 0.134785, 0.283813, 1.03299, 0.34851, 0.655882, 0.0001, 45.5, 246, 54.4488, 0.191, 1.38546, 1, 1, 0, 70987
-3931.54, 67705.1, -185.318, 2.98972, -722.872, 0.134785, 0.283813, 1.03299, 0.34851, 0.655882, 3, 45.5, 246, 54.4488, 0.191, 1.22195, 1, 1, 0, 70987
-2651.02, 78460.7, -221.888, 3.26605, -758.017, 0.181605, 0.287827, 0.993198, 0.349787, 0.651995, 0.0001, 91, 246, 54.4488, 0.191, 1.47488, 1, 1, 0, 70987
-2651.02, 78460.7, -221.888, 3.26605, -758.017, 0.181605, 0.287827, 0.993198, 0.349787, 0.651995, 3, 91, 246, 54.4488, 0.191, 1.32628, 1, 1, 0, 70987
-901.672, 91034.9, -265.761, 3.59106, -805.879, 0.240093, 0.307835, 0.958125, 0.351078, 0.648177, 0.0001, 182, 246, 54.4488, 0.191, 1.8031, 1, 1, 0, 70987
-901.672, 91034.9, -265.761, 3.59106, -805.879, 0.240093, 0.307835, 0.958125, 0.351078, 0.648177, 3, 182, 246, 54.4488, 0.191, 1.66535, 1, 1, 0, 70987
2434.34, 111979, -339.731, 4.12912, -897.672, 0.343756, 0.362937, 0.9175, 0.352806, 0.64323, 0.0001, 455, 246, 54.4488, 0.191, 4.44485, 1, 0, 0, 70987
2434.34, 111979, -339.731, 4.12912, -897.672, 0.343756, 0.362937, 0.9175, 0.352806, 0.64323, 3, 455, 246, 54.4488, 0.191, 4.44673, 1, 0, 0, 70987
-8340.66, 319476, -196.965, 1.12611, -669.165, 0.444728, 0.361928, 0.958125, 0.351078, 0.648177, 0.0001, 182, 246, 26.6044, 0.133688, 0, 0, 1, 0, 70988
-8487.71, -8023.62, -2.03892, 2.20627, -1101.29, 0.126221, 0.283678, 0.993198, 0.349787, 0.651995, 0.0001, 91, 246, 5.55146, 0.064051, 0, 0, 1, 1, 70991
-987.784, 138076, -276.404, 3.84044, -1221.63, 0.140283, 0.342856, 0.9175, 0.352806, 0.64323, 0.0001, 455, 246, 42.5139, 0.164563, 1.88559, 1, 0, 0, 70993
-987.784, 138076, -276.404, 3.84044, -1221.63, 0.140283, 0.342856, 0.9175, 0.352806, 0.64323, 3, 455, 246, 42.5139, 0.164563, 1.88685, 1, 0, 0, 70993
-12527, 241187, -77.1787, 1.64824, -913.82, 0.703807, 0.319112, 1.03299, 0.34851, 0.655882, 3, 45.5, 246, 23.6997, 0.0717744, 0, 0, 1, 0, 70995
-11738.7, 251900, -128.426, 1.60077, -898.347, -0.0114935, 0.361324, 1.03299, 0.34851, 0.655882, 0.0001, 45.5, 246, 29.0489, 0.118644, 0, 0, 1, 0, 70997
-11738.7, 251900, -128.426, 1.60077, -898.347, -0.0114935, 0.361324, 1.03299, 0.34851, 0.655882, 3, 45.5, 246, 29.0489, 0.118644, 0, 0, 1, 0, 70997
-11400.9, 137800, -8.7463, 1.99695, -587.001, 0.293854, 0.281034, 1.03299, 0.34851, 0.655882, 3, 45.5, 246, 11.0133, 0.026639, 0, 0, 1, 0, 70998
-10377.2, 146085, -20.6063, 2.15824, -617.327, 0.328026, 0.260159, 0.993198, 0.349787, 0.651995, 0.0001, 91, 246, 11.0133, 0.026639, 0, 0, 1, 0, 70998
-5048.82, 69608.3, -158.021, 3.39216, -1046.57, 0.48925, 0.233778, 1.03299, 0.34851, 0.655882, 0.0001, 45.5, 246, 47.587, 0.162261, 1.17597, 1, 1, 0, 70999
-3579.15, 93458.7, -208.625, 3.8074, -1157.45, 0.591838, 0.248778, 0.993198, 0.349787, 0.651995, 0.0001, 91, 246, 47.587, 0.162261, 1.2704, 1, 1, 0, 70999
-3579.15, 93458.7, -208.625, 3.8074, -1157.45, 0.591838, 0.248778, 0.993198, 0.349787, 0.651995, 3, 91, 246, 47.587, 0.162261, 1.07058, 1, 1, 0, 70999
-1190.97, 124675, -275.174, 4.33094, -1311.46, 0.73299, 0.287814, 0.958125, 0.351078, 0.648177, 0.0001, 182, 246, 47.587, 0.162261, 1.83645, 1, 1, 0, 70999
-1190.97, 124675, -275.174, 4.33094, -1311.46, 0.73299, 0.287814, 0.958125, 0.351078, 0.648177, 3, 182, 246, 47.587, 0.162261, 1.69477, 1, 1, 0, 70999
-4264.4, 94110.7, -215.98, 3.09077, -871.08, 0.18505, 0.318642, 1.03299, 0.34851, 0.655882, 0.0001, 45.5, 246, 55.869, 0.227482, 1.42267, 1, 1, 0, 71000
-4264.4, 94110.7, -215.98, 3.09077, -871.08, 0.18505, 0.318642, 1.03299, 0.34851, 0.655882, 3, 45.5, 246, 55.869, 0.227482, 1.25908, 1, 1, 0, 71000
-2404.44, 110115, -261.228, 3.39612, -921.223, 0.238189, 0.328406, 0.993198, 0.349787, 0.651995, 0.0001, 91, 246, 55.869, 0.227482, 1.61679, 1, 1, 0, 71000
-2404.44, 110115, -261.228, 3.39612, -921.223, 0.238189, 0.328406, 0.993198, 0.349787, 0.651995, 3, 91, 246, 55.869, 0.227482, 1.47745, 1, 1, 0, 71000
169.255, 129175, -316.384, 3.76022, -989.179, 0.305887, 0.35587, 0.958125, 0.351078, 0.648177, 0.0001, 182, 246, 55.869, 0.227482, 2.47499, 1, 1, 1, 71000
169.255, 129175, -316.384, 3.76022, -989.179, 0.305887, 0.35587, 0.958125, 0.351078, 0.648177, 3, 182, 246, 55.869, 0.227482, 2.33345, 1, 1, 1, 71000
