-10866.2, 280112, -183.302, 1.00802, -630.105, 0.168862, 0.43187, 1.03299, 0.34851, 0.655882, 0.0001, 45.5, 246, 29.8882, 0.156293, 0, 0, 1, 0, 67503
-10866.2, 280112, -183.302, 1.00802, -630.105, 0.168862, 0.43187, 1.03299, 0.34851, 0.655882, 3, 45.5, 246, 29.8882, 0.156293, 0, 0, 1, 0, 67503
-9543.51, 290393, -198.1, 1.06624, -652.899, 0.178342, 0.407516, 0.993198, 0.349787, 0.651995, 3, 91, 246, 29.8882, 0.156293, 0, 0, 1, 0, 67503
-9535.3, 206093, -164.909, 1.40645, -1145, -0.00920143, 0.430849, 1.03299, 0.34851, 0.655882, 0.0001, 45.5, 246, 38.3145, 0.185433, 0, 0, 0, 0, 67504
-9535.3, 206093, -164.909, 1.40645, -1145, -0.00920143, 0.430849, 1.03299, 0.34851, 0.655882, 3, 45.5, 246, 38.3145, 0.185433, 0, 0, 0, 0, 67504
-8134.36, 229492, -189.053, 1.48443, -1150.89, -2.72294e-05, 0.411036, 0.993198, 0.349787, 0.651995, 0.0001, 91, 246, 38.3145, 0.185433, 0, 0, 1, 0, 67504
-8263.77, 83074.8, -105.031, 3.31533, -821.309, -0.0440324, 0.213419, 1.03299, 0.34851, 0.655882, 0.0001, 45.5, 246, 32.8867, 0.114072, 0, 0, 1, 0, 67512
-8263.77, 83074.8, -105.031, 3.31533, -821.309, -0.0440324, 0.213419, 1.03299, 0.34851, 0.655882, 3, 45.5, 246, 32.8867, 0.114072, 0, 0, 1, 0, 67512
-9699.38, 210999, -334.311, 3.52379, -770.84, -0.0246971, 0.388653, 1.03299, 0.34851, 0.655882, 0.0001, 45.5, 246, 53.1315, 0.23828, 1.31273, 1, 0, 0, 67513
-9699.38, 210999, -334.311, 3.52379, -770.84, -0.0246971, 0.388653, 1.03299, 0.34851, 0.655882, 3, 45.5, 246, 53.1315, 0.23828, 1.2416, 1, 0, 0, 67513
-5233.95, 223772, -393.679, 3.86867, -806.746, 0.0351988, 0.418021, 0.993198, 0.349787, 0.651995, 0.0001, 91, 246, 53.1315, 0.23828, 1.71817, 1, 1, 0, 67513
-5233.95, 223772, -393.679, 3.86867, -806.746, 0.0351988, 0.418021, 0.993198, 0.349787, 0.651995, 3, 91, 246, 53.1315, 0.23828, 1.59638, 1, 1, 0, 67513
-10379.4, 153318, 5.03677, 1.05061, -1157.93, 0.132048, 0.325944, 1.03299, 0.34851, 0.655882, 3, 45.5, 246, 14.8686, 0.0162321, 0, 0, 1, 0, 67518
-11930.6, 340148, -128.161, 0.984823, -616.439, -0.000819693, 0.37163, 1.03299, 0.34851, 0.655882, 0.0001, 45.5, 246, 22.4198, 0.0943409, 0, 0, 1, 0, 67520
-11930.6, 340148, -128.161, 0.984823, -616.439, -0.000819693, 0.37163, 1.03299, 0.34851, 0.655882, 3, 45.5, 246, 22.4198, 0.0943409, 0, 0, 1, 0, 67520
1440.09, 209637, -356.857, 4.24545, -961.038, 0.302561, 0.38475, 0.9175, 0.352806, 0.64323, 0.0001, 455, 246, 39.9102, 0.168698, 0, 0, 0, 0, 67529
1440.09, 209637, -356.857, 4.24545, -961.038, 0.302561, 0.38475, 0.9175, 0.352806, 0.64323, 3, 455, 246, 39.9102, 0.168698, 0, 0, 0, 0, 67529
-9802.64, 162543, -147.617, 2.08357, -940.359, 0.0366357, 0.368103, 1.03299, 0.34851, 0.655882, 3, 45.5, 246, 36.5352, 0.171524, 0, 0, 1, 0, 67531
-10195.3, 100450, -55.9292, 3.55878, -1177.33, -0.0184595, 0.172243, 1.03299, 0.34851, 0.655882, 0.0001, 45.5, 246, 27.6237, 0.087819, 0, 0, 0, 0, 67533
-10195.3, 100450, -55.9292, 3.55878, -1177.33, -0.0184595, 0.172243, 1.03299, 0.34851, 0.655882, 3, 45.5, 246, 27.6237, 0.087819, 0, 0, 0, 0, 67533
-8514.7, 124499, -101.334, 3.88741, -1187.07, 0.0423378, 0.187745, 0.993198, 0.349787, 0.651995, 0.0001, 91, 246, 27.6237, 0.087819, 0, 0, 1, 0, 67533
-8514.7, 124499, -101.334, 3.88741, -1187.07, 0.0423378, 0.187745, 0.993198, 0.349787, 0.651995, 3, 91, 246, 27.6237, 0.087819, 0, 0, 1, 0, 67533
-2585.56, 183778, -309.475, 3.15462, -1111.9, 1.0865, 0.409266, 0.958125, 0.351078, 0.648177, 0.0001, 182, 246, 48.3243, 0.229663, 1.27009, 1, 0, 0, 67535
-6695.9, 74922.7, -116.917, 3.84353, -1038.65, 0.000881237, 0.203806, 0.993198, 0.349787, 0.651995, 0.0001, 91, 246, 31.3174, 0.0998507, 0, 0, 1, 0, 67537
-6695.9, 74922.7, -116.917, 3.84353, -1038.65, 0.000881237, 0.203806, 0.993198, 0.349787, 0.651995, 3, 91, 246, 31.3174, 0.0998507, 0, 0, 1, 0, 67537
-1892.79, 123348, -251.976, 4.8703, -1122.18, 0.195494, 0.322971, 0.9175, 0.352806, 0.64323, 0.0001, 455, 246, 31.3174, 0.0998507, 1.04995, 1, 0, 0, 67537
-1892.79, 123348, -251.976, 4.8703, -1122.18, 0.195494, 0.322971, 0.9175, 0.352806, 0.64323, 3, 455, 246, 31.3174, 0.0998507, 1.05475, 1, 0, 0, 67537
-8327.06, 83332.8, -78.0278, 1.55047, -1156.22, 0.0593491, 0.330144, 0.993198, 0.349787, 0.651995, 3, 91, 246, 29.7318, 0.164439, 0, 0, 1, 0, 67539
-8295.93, 1382, -18.3203, 2.37632, -972.491, 0.00416776, 0.277937, 0.993198, 0.349787, 0.651995, 0.0001, 91, 246, 12.7367, 0.0563832, 0, 0, 1, 1, 67545
-8295.93, 1382, -18.3203, 2.37632, -972.491, 0.00416776, 0.277937, 0.993198, 0.349787, 0.651995, 3, 91, 246, 12.7367, 0.0563832, 0, 0, 1, 1, 67545
-11139.1, 262561, -202.307, 1.49151, -828.377, 0.0482989, 0.441394, 1.03299, 0.34851, 0.655882, 0.0001, 45.5, 246, 36.0045, 0.178075, 0, 0, 0, 0, 67547
-11139.1, 262561, -202.307, 1.49151, -828.377, 0.0482989, 0.441394, 1.03299, 0.34851, 0.655882, 3, 45.5, 246, 36.0045, 0.178075, 0, 0, 0, 0, 67547
-9190.76, 144766, -129.792, 2.72849, -625.205, 0.962426, 0.26852, 0.993198, 0.349787, 0.651995, 3, 91, 246, 25.4459, 0.104903, 0, 0, 1, 0, 67554
-7248.43, 161523, -157.929, 3.10766, -751.618, 1.17912, 0.272584, 0.958125, 0.351078, 0.648177, 3, 182, 246, 25.4459, 0.104903, 0, 0, 1, 0, 67554
-10665.7, 169350, -29.6581, 1.38577, -1161.67, -0.00162332, 0.322837, 1.03299, 0.34851, 0.655882, 0.0001, 45.5, 246, 20.6193, 0.0539538, 0, 0, 1, 0, 67563
-10665.7, 169350, -29.6581, 1.38577, -1161.67, -0.00162332, 0.322837, 1.03299, 0.34851, 0.655882, 3, 45.5, 246, 20.6193, 0.0539538, 0, 0, 1, 0, 67563
-7557.56, -22673.4, 10.9227, 2.7197, -863.389, -0.0350965, 0.259351, 1.03299, 0.34851, 0.655882, 0.0001, 45.5, 246, 9.13918, 0.0495321, 0, 0, 1, 1, 67567
-7557.56, -22673.4, 10.9227, 2.7197, -863.389, -0.0350965, 0.259351, 1.03299, 0.34851, 0.655882, 3, 45.5, 246, 9.13918, 0.0495321, 0, 0, 1, 1, 67567
-6971.35, 24786.3, -60.199, 3.01502, -1023.24, 0.361208, 0.237521, 1.03299, 0.34851, 0.655882, 3, 45.5, 246, 31.4915, 0.0918891, 0, 0, 1, 0, 67568
-6908.47, 111514, -202.174, 2.30275, -564.084, 0.225818, 0.391609, 1.03299, 0.34851, 0.655882, 0.0001, 45.5, 246, 48.1173, 0.236283, 1.05644, 1, 1, 0, 67569
-3625.94, 128951, -261.444, 2.72847, -644.511, 0.302903, 0.389975, 0.958125, 0.351078, 0.648177, 0.0001, 182, 246, 48.1173, 0.236283, 1.09503, 1, 1, 0, 67569
-442.364, 144704, -313.015, 3.08678, -721.568, 0.375677, 0.413911, 0.9175, 0.352806, 0.64323, 0.0001, 455, 246, 48.1173, 0.236283, 1.81061, 1, 0, 0, 67569
-442.364, 144704, -313.015, 3.08678, -721.568, 0.375677, 0.413911, 0.9175, 0.352806, 0.64323, 3, 455, 246, 48.1173, 0.236283, 1.79579, 1, 0, 0, 67569
-10044.1, 176575, -201.629, 1.93145, -569.558, 0.34253, 0.417043, 1.03299, 0.34851, 0.655882, 0.0001, 45.5, 246, 38.1475, 0.202452, 0, 0, 1, 0, 67570
-8440.84, 47323.4, -46.3368, 2.75323, -679.564, 0.129716, 0.246083, 1.03299, 0.34851, 0.655882, 0.0001, 45.5, 246, 22.024, 0.0716387, 0, 0, 1, 0, 67572
-8440.84, 47323.4, -46.3368, 2.75323, -679.564, 0.129716, 0.246083, 1.03299, 0.34851, 0.655882, 3, 45.5, 246, 22.024, 0.0716387, 0, 0, 1, 0, 67572
-5354.63, 128301, -249.899, 3.53443, -969.112, 0.197226, 0.297775, 1.03299, 0.34851, 0.655882, 0.0001, 45.5, 246, 54.2688, 0.218859, 1.39645, 1, 0, 0, 67573
-5354.63, 128301, -249.899, 3.53443, -969.112, 0.197226, 0.297775, 1.03299, 0.34851, 0.655882, 3, 45.5, 246, 54.2688, 0.218859, 1.27776, 1, 0, 0, 67573
-2519.32, 148618, -307.921, 3.91917, -1032.83, 0.266496, 0.321273, 0.993198, 0.349787, 0.651995, 0.0001, 91, 246, 54.2688, 0.218859, 1.7153, 1, 1, 0, 67573
-2519.32, 148618, -307.921, 3.91917, -1032.83, 0.266496, 0.321273, 0.993198, 0.349787, 0.651995, 3, 91, 246, 54.2688, 0.218859, 1.60979, 1, 1, 0, 67573
-10661.3, 311517, -249.288, 0.945614, -729.863, 0.000248161, 0.515969, 1.03299, 0.34851, 0.655882, 0.0001, 45.5, 246, 37.0265, 0.201908, 0, 0, 0, 0, 67576
-10661.3, 311517, -249.288, 0.945614, -729.863, 0.000248161, 0.515969, 1.03299, 0.34851, 0.655882, 3, 45.5, 246, 37.0265, 0.201908, 0, 0, 0, 0, 67576
-9034.34, 322000, -267.963, 0.992347, -736.726, 0.00437072, 0.498388, 0.993198, 0.349787, 0.651995, 3, 91, 246, 37.0265, 0.201908, 0, 0, 1, 0, 67576
-11226.2, 128951, -29.932, 2.41003, -824.097, 0.0107719, 0.262525, 1.03299, 0.34851, 0.655882, 0.0001, 45.5, 246, 17.9668, 0.0556529, 0, 0, 1, 0, 67577
-11226.2, 128951, -29.932, 2.41003, -824.097, 0.0107719, 0.262525, 1.03299, 0.34851, 0.655882, 3, 45.5, 246, 17.9668, 0.0556529, 0, 0, 1, 0, 67577
-8692.03, 25039.3, -14.4006, 1.76109, -1189.61, 1.16637e-05, 0.293006, 0.993198, 0.349787, 0.651995, 0.0001, 91, 246, 11.5836, 0.0629529, 0, 0, 1, 1, 67579
-8692.03, 25039.3, -14.4006, 1.76109, -1189.61, 1.16637e-05, 0.293006, 0.993198, 0.349787, 0.651995, 3, 91, 246, 11.5836, 0.0629529, 0, 0, 1, 1, 67579
-8317.46, 9986.37, -23.2181, 2.34241, -1021.79, 0.430605, 0.279011, 0.993198, 0.349787, 0.651995, 3, 91, 246, 14.5553, 0.0598177, 0, 0, 1, 1, 67581
-8276.28, -362.324, -16.461, 2.50184, -1028.58, 0.193252, 0.274884, 0.993198, 0.349787, 0.651995, 0.0001, 91, 246, 11.9608, 0.0580123, 0, 0, 1, 1, 67582
-8276.28, -362.324, -16.461, 2.50184, -1028.58, 0.193252, 0.274884, 0.993198, 0.349787, 0.651995, 3, 91, 246, 11.9608, 0.0580123, 0, 0, 1, 1, 67582
-11504.5, 187815, -87.7551, 3.803, -916.611, 0.391572, 0.166143, 0.993198, 0.349787, 0.651995, 0.0001, 91, 246, 22.0517, 0.0615872, 0, 0, 1, 0, 67584
-11504.5, 187815, -87.7551, 3.803, -916.611, 0.391572, 0.166143, 0.993198, 0.349787, 0.651995, 3, 91, 246, 22.0517, 0.0615872, 0, 0, 1, 0, 67584
-10869.9, 348637, -48.1802, 0.895629, -734.097, 0.00174912, 0.301476, 0.993198, 0.349787, 0.651995, 3, 91, 246, 16.5073, 0.0339904, 0, 0, 1, 0, 67585
-9900.31, 171947, -82.0482, 2.36453, -961.852, 0.242512, 0.271821, 0.993198, 0.349787, 0.651995, 3, 91, 246, 23.1242, 0.0793207, 0, 0, 1, 0, 67588
-9579.89, 176060, -270.343, 3.03054, -589.526, 0.385536, 0.355161, 1.03299, 0.34851, 0.655882, 0.0001, 45.5, 246, 45.3187, 0.20677, 1.11049, 1, 0, 0, 67589
-6509.83, 187895, -311.981, 3.36755, -655.298, 0.458345, 0.366304, 0.993198, 0.349787, 0.651995, 0.0001, 91, 246, 45.3187, 0.20677, 1.14913, 1, 1, 0, 67589
-2573.94, 203329, -363.652, 3.77815, -742.583, 0.554481, 0.396287, 0.958125, 0.351078, 0.648177, 0.0001, 182, 246, 45.3187, 0.20677, 1.70778, 1, 0, 0, 67589
-2573.94, 203329, -363.652, 3.77815, -742.583, 0.554481, 0.396287, 0.958125, 0.351078, 0.648177, 3, 182, 246, 45.3187, 0.20677, 1.54643, 1, 0, 0, 67589
-1519.2, 341100, -190.969, 4.93369, -1276.5, 0.496139, 0.260267, 0.9175, 0.352806, 0.64323, 0.0001, 455, 246, 21.8842, 0.042198, 0, 0, 0, 0, 67591
-1519.2, 341100, -190.969, 4.93369, -1276.5, 0.496139, 0.260267, 0.9175, 0.352806, 0.64323, 3, 455, 246, 21.8842, 0.042198, 0, 0, 0, 0, 67591
-8685.43, 146525, -87.6417, 0.368137, -1031.35, 0.00115812, 0.398566, 1.03299, 0.34851, 0.655882, 0.0001, 45.5, 246, 28.3495, 0.157597, 0, 0, 1, 0, 67594
-8685.43, 146525, -87.6417, 0.368137, -1031.35, 0.00115812, 0.398566, 1.03299, 0.34851, 0.655882, 3, 45.5, 246, 28.3495, 0.157597, 0, 0, 1, 0, 67594
-10245.4, 187539, -186.901, 2.03244, -757.005, -0.0193816, 0.404131, 1.03299, 0.34851, 0.655882, 0.0001, 45.5, 246, 38.3475, 0.193676, 0, 0, 1, 0, 67595
-2366.25, 357144, -208.64, 3.38832, -1369, 0.580535, 0.27543, 0.9175, 0.352806, 0.64323, 0.0001, 455, 246, 26.0283, 0.0720223, 0, 0, 0, 0, 67598
-2366.25, 357144, -208.64, 3.38832, -1369, 0.580535, 0.27543, 0.9175, 0.352806, 0.64323, 3, 455, 246, 26.0283, 0.0720223, 0, 0, 0, 0, 67598
-13243.7, 160022, -36.9738, 3.28209, -1070.05, -0.0478728, 0.182127, 1.03299, 0.34851, 0.655882, 0.0001, 45.5, 246, 22.9428, 0.0622583, 0, 0, 0, 0, 67603
-13243.7, 160022, -36.9738, 3.28209, -1070.05, -0.0478728, 0.182127, 1.03299, 0.34851, 0.655882, 3, 45.5, 246, 22.9428, 0.0622583, 0, 0, 0, 0, 67603
-10945.3, 179235, -73.6015, 3.56046, -1071.14, 0.00354537, 0.188507, 0.993198, 0.349787, 0.651995, 0.0001, 91, 246, 22.9428, 0.0622583, 0, 0, 1, 0, 67603
-10945.3, 179235, -73.6015, 3.56046, -1071.14, 0.00354537, 0.188507, 0.993198, 0.349787, 0.651995, 3, 91, 246, 22.9428, 0.0622583, 0, 0, 1, 0, 67603
-9681.74, 71124.3, -19.6503, 2.9756, -1035.54, -0.0407288, 0.223538, 1.03299, 0.34851, 0.655882, 0.0001, 45.5, 246, 19.7888, 0.0632835, 0, 0, 1, 0, 67605
-8799.28, 89351.8, -50.4337, 3.21322, -1035.07, 0.00133808, 0.222763, 0.993198, 0.349787, 0.651995, 0.0001, 91, 246, 19.7888, 0.0632835, 0, 0, 1, 0, 67605
-8799.28, 89351.8, -50.4337, 3.21322, -1035.07, 0.00133808, 0.222763, 0.993198, 0.349787, 0.651995, 3, 91, 246, 19.7888, 0.0632835, 0, 0, 1, 0, 67605
-11006.5, 133805, -64.2388, 2.64441, -1037.1, 0.433973, 0.256848, 1.03299, 0.34851, 0.655882, 3, 45.5, 246, 26.0263, 0.0873653, 0, 0, 0, 0, 67608
-9412.47, 206589, -74.5745, 0.787162, -1167.74, 0.023212, 0.360573, 1.03299, 0.34851, 0.655882, 3, 45.5, 246, 25.7448, 0.0892483, 0, 0, 1, 0, 67612
-12026.4, 246651, -89.6795, 1.52338, -801.306, -0.000307495, 0.336144, 1.03299, 0.34851, 0.655882, 0.0001, 45.5, 246, 23.4252, 0.0868155, 0, 0, 1, 0, 67614
-12026.4, 246651, -89.6795, 1.52338, -801.306, -0.000307495, 0.336144, 1.03299, 0.34851, 0.655882, 3, 45.5, 246, 23.4252, 0.0868155, 0, 0, 1, 0, 67614
-10780.2, 179104, -135.229, 2.46147, -1117.44, -0.0260701, 0.326482, 1.03299, 0.34851, 0.655882, 0.0001, 45.5, 246, 35.4203, 0.144685, 0, 0, 0, 0, 67616
-10780.2, 179104, -135.229, 2.46147, -1117.44, -0.0260701, 0.326482, 1.03299, 0.34851, 0.655882, 3, 45.5, 246, 35.4203, 0.144685, 0, 0, 0, 0, 67616
-10942.8, 135288, -68.1167, 2.80592, -1140.62, -0.0359054, 0.253414, 1.03299, 0.34851, 0.655882, 0.0001, 45.5, 246, 27.8075, 0.0956852, 0, 0, 0, 0, 67617
-10942.8, 135288, -68.1167, 2.80592, -1140.62, -0.0359054, 0.253414, 1.03299, 0.34851, 0.655882, 3, 45.5, 246, 27.8075, 0.0956852, 0, 0, 0, 0, 67617
-9251.52, 157644, -103.761, 3.02312, -1144, 0.00140783, 0.249626, 0.993198, 0.349787, 0.651995, 0.0001, 91, 246, 27.8075, 0.0956852, 0, 0, 1, 0, 67617
-9251.52, 157644, -103.761, 3.02312, -1144, 0.00140783, 0.249626, 0.993198, 0.349787, 0.651995, 3, 91, 246, 27.8075, 0.0956852, 0, 0, 1, 0, 67617
-9077.91, 183730, -128.793, 1.8619, -899.748, 0.118514, 0.32837, 0.993198, 0.349787, 0.651995, 0.0001, 91, 246, 29.2951, 0.130437, 0, 0, 1, 0, 67618
-7207.46, 240460, -343.11, 3.90629, -933.951, 0.0258578, 0.351974, 0.993198, 0.349787, 0.651995, 0.0001, 91, 246, 47.7132, 0.203012, 1.1809, 1, 1, 0, 67619
-7207.46, 240460, -343.11, 3.90629, -933.951, 0.0258578, 0.351974, 0.993198, 0.349787, 0.651995, 3, 91, 246, 47.7132, 0.203012, 1.042, 1, 1, 0, 67619
-1564.31, 259558, -414.626, 4.32193, -984.269, 0.100635, 0.399785, 0.958125, 0.351078, 0.648177, 0.0001, 182, 246, 47.7132, 0.203012, 5.03592, 1, 0, 0, 67619
-1564.31, 259558, -414.626, 4.32193, -984.269, 0.100635, 0.399785, 0.958125, 0.351078, 0.648177, 3, 182, 246, 47.7132, 0.203012, 4.1683, 1, 0, 0, 67619
-9824.83, 126263, -118.412, 2.54937, -681.167, 0.116812, 0.292146, 1.03299, 0.34851, 0.655882, 0.0001, 45.5, 246, 30.7487, 0.131199, 0, 0, 1, 0, 67621
-8737.02, 254829, -222.421, 1.14586, -766.218, 0.0029529, 0.458557, 0.993198, 0.349787, 0.651995, 0.0001, 91, 246, 36.9046, 0.204308, 0, 0, 1, 0, 67622
-9132.55, 137946, -32.2784, 0.578164, -1059.62, -0.0012013, 0.347038, 1.03299, 0.34851, 0.655882, 0.0001, 45.5, 246, 18.3335, 0.0602453, 0, 0, 1, 0, 67624
-9132.55, 137946, -32.2784, 0.578164, -1059.62, -0.0012013, 0.347038, 1.03299, 0.34851, 0.655882, 3, 45.5, 246, 18.3335, 0.0602453, 0, 0, 1, 0, 67624
-9678.76, 213133, -306.393, 3.46482, -993.719, 0.0122617, 0.383175, 1.03299, 0.34851, 0.655882, 0.0001, 45.5, 246, 52.7974, 0.231002, 1.10301, 1, 0, 0, 67625
-5339.21, 233097, -369.645, 3.80644, -1032.48, 0.0704649, 0.410081, 0.993198, 0.349787, 0.651995, 0.0001, 91, 246, 52.7974, 0.231002, 1.42042, 1, 1, 0, 67625
-5339.21, 233097, -369.645, 3.80644, -1032.48, 0.0704649, 0.410081, 0.993198, 0.349787, 0.651995, 3, 91, 246, 52.7974, 0.231002, 1.31125, 1, 1, 0, 67625
-10208.4, 132059, -93.7497, 2.67294, -1067.01, -0.0168611, 0.279955, 1.03299, 0.34851, 0.655882, 0.0001, 45.5, 246, 30.9685, 0.119193, 0, 0, 1, 0, 67627
-10208.4, 132059, -93.7497, 2.67294, -1067.01, -0.0168611, 0.279955, 1.03299, 0.34851, 0.655882, 3, 45.5, 246, 30.9685, 0.119193, 0, 0, 1, 0, 67627
-10988.1, -94402.6, -26.2918, 0.00796881, -906.597, 0.00155975, 0.354863, 1.03299, 0.34851, 0.655882, 0.0001, 45.5, 246, -71.5594, 0.126681, 0, 0, 1, 0, 67630
-10988.1, -94402.6, -26.2918, 0.00796881, -906.597, 0.00155975, 0.354863, 1.03299, 0.34851, 0.655882, 3, 45.5, 246, -71.5594, 0.126681, 0, 0, 1, 0, 67630
-10568.2, 88274.5, -14.534, 3.38062, -997.071, -0.0316686, 0.174264, 1.03299, 0.34851, 0.655882, 0.0001, 45.5, 246, 18.9137, 0.0537952, 0, 0, 0, 0, 67636
-10568.2, 88274.5, -14.534, 3.38062, -997.071, -0.0316686, 0.174264, 1.03299, 0.34851, 0.655882, 3, 45.5, 246, 18.9137, 0.0537952, 0, 0, 0, 0, 67636
-9693.54, 51388.7, 25.4568, 3.26418, -1063.27, 0.305612, 0.181244, 1.03299, 0.34851, 0.655882, 0.0001, 45.5, 246, 12.7856, 0.035198, 1.00014, 1, 0, 0, 67637
-2642.37, 94647, -253.481, 5.48258, -1394.37, 1.20813, 0.341921, 0.9175, 0.352806, 0.64323, 0.0001, 455, 246, 31.5844, 0.0640112, 1.31628, 1, 1, 0, 67641
-2642.37, 94647, -253.481, 5.48258, -1394.37, 1.20813, 0.341921, 0.9175, 0.352806, 0.64323, 3, 455, 246, 31.5844, 0.0640112, 1.2829, 1, 1, 0, 67641
-8515.61, 297279, -382.64, 3.69597, -1015.35, 0.0446064, 0.421395, 0.993198, 0.349787, 0.651995, 0.0001, 91, 246, 49.0019, 0.212909, 1.02704, 1, 1, 0, 67642
-10449.9, 128184, -44.9987, 2.02598, -1077.57, 0.0438923, 0.300267, 1.03299, 0.34851, 0.655882, 0.0001, 45.5, 246, 23.0096, 0.0795002, 0, 0, 1, 0, 67643
-10449.9, 128184, -44.9987, 2.02598, -1077.57, 0.0438923, 0.300267, 1.03299, 0.34851, 0.655882, 3, 45.5, 246, 23.0096, 0.0795002, 0, 0, 1, 0, 67643
-8287.59, 43465.7, -49.252, 2.03896, -982.616, 0.00266982, 0.312004, 1.03299, 0.34851, 0.655882, 0.0001, 45.5, 246, 27.2695, 0.118494, 0, 0, 1, 0, 67649
-4227.56, 229924, -338.147, 4.18093, -759.631, 0.167502, 0.329535, 0.958125, 0.351078, 0.648177, 0.0001, 182, 246, 39.9473, 0.170088, 1.19776, 1, 0, 0, 67650
3758.3, 252192, -432.524, 4.86721, -858.43, 0.296687, 0.41992, 0.9175, 0.352806, 0.64323, 0.0001, 455, 246, 39.9473, 0.170088, 0, 0, 0, 0, 67650
3758.3, 252192, -432.524, 4.86721, -858.43, 0.296687, 0.41992, 0.9175, 0.352806, 0.64323, 3, 455, 246, 39.9473, 0.170088, 0, 0, 0, 0, 67650
-11460.7, 375872, -122.916, 4.14471, -1167.78, 0.288403, 0.17519, 0.958125, 0.351078, 0.648177, 0.0001, 182, 246, 23.834, 0.0429522, 0, 0, 0, 0, 67652
-11460.7, 375872, -122.916, 4.14471, -1167.78, 0.288403, 0.17519, 0.958125, 0.351078, 0.648177, 3, 182, 246, 23.834, 0.0429522, 0, 0, 0, 0, 67652
-7974.56, 323135, -308.136, 0.865388, -944.948, 0.0788163, 0.585112, 0.993198, 0.349787, 0.651995, 0.0001, 91, 246, 44.0878, 0.244439, 0, 0, 1, 0, 67655
-4346.72, 110534, -231.469, 3.546, -1141.14, 0.0742785, 0.300511, 1.03299, 0.34851, 0.655882, 0.0001, 45.5, 246, 56.5207, 0.228188, 1.39744, 1, 0, 0, 67660
-4346.72, 110534, -231.469, 3.546, -1141.14, 0.0742785, 0.300511, 1.03299, 0.34851, 0.655882, 3, 45.5, 246, 56.5207, 0.228188, 1.22951, 1, 0, 0, 67660
-1814.79, 135921, -293.312, 3.90629, -1186.01, 0.136865, 0.324199, 0.993198, 0.349787, 0.651995, 0.0001, 91, 246, 56.5207, 0.228188, 1.7322, 1, 1, 0, 67660
-1814.79, 135921, -293.312, 3.90629, -1186.01, 0.136865, 0.324199, 0.993198, 0.349787, 0.651995, 3, 91, 246, 56.5207, 0.228188, 1.61966, 1, 1, 0, 67660
-9575.93, 116946, -81.2667, 2.04893, -1016.11, 0.0878277, 0.321344, 1.03299, 0.34851, 0.655882, 0.0001, 45.5, 246, 29.0439, 0.123336, 0, 0, 1, 0, 67661
-9575.93, 116946, -81.2667, 2.04893, -1016.11, 0.0878277, 0.321344, 1.03299, 0.34851, 0.655882, 3, 45.5, 246, 29.0439, 0.123336, 0, 0, 1, 0, 67661
-6147.84, -59873.2, 1.54355, 3.45259, -706.71, -0.0238188, 0.220981, 1.03299, 0.34851, 0.655882, 0.0001, 45.5, 246, 13.98, 0.0501756, 2.7413, 1, 1, 0, 67662
-6147.84, -59873.2, 1.54355, 3.45259, -706.71, -0.0238188, 0.220981, 1.03299, 0.34851, 0.655882, 3, 45.5, 246, 13.98, 0.0501756, 2.741, 1, 1, 0, 67662
-11619.1, 248957, -78.6375, 1.17366, -575.401, 0.40028, 0.340438, 1.03299, 0.34851, 0.655882, 0.0001, 45.5, 246, 18.4414, 0.0719745, 0, 0, 1, 0, 67665
-11619.1, 248957, -78.6375, 1.17366, -575.401, 0.40028, 0.340438, 1.03299, 0.34851, 0.655882, 3, 45.5, 246, 18.4414, 0.0719745, 0, 0, 1, 0, 67665
-10490.2, 260673, -88.9863, 1.25828, -617.345, 0.434235, 0.31082, 0.993198, 0.349787, 0.651995, 3, 91, 246, 18.4414, 0.0719745, 0, 0, 1, 0, 67665
-9302.51, 125618, -138.304, 3.26084, -971.969, 0.216019, 0.238629, 1.03299, 0.34851, 0.655882, 0.0001, 45.5, 246, 36.7787, 0.138683, 0, 0, 0, 0, 67666
-9302.51, 125618, -138.304, 3.26084, -971.969, 0.216019, 0.238629, 1.03299, 0.34851, 0.655882, 3, 45.5, 246, 36.7787, 0.138683, 0, 0, 0, 0, 67666
1124.99, 206224, -330.577, 4.68462, -1244.53, 0.502267, 0.353877, 0.9175, 0.352806, 0.64323, 0.0001, 455, 246, 36.7787, 0.138683, 0, 0, 0, 0, 67666
1124.99, 206224, -330.577, 4.68462, -1244.53, 0.502267, 0.353877, 0.9175, 0.352806, 0.64323, 3, 455, 246, 36.7787, 0.138683, 0, 0, 0, 0, 67666
-3842.62, 50331.4, -163.004, 2.27973, -581.571, 0.75989, 0.316872, 1.03299, 0.34851, 0.655882, 0.0001, 45.5, 246, 57.465, 0.191819, 1.37618, 1, 1, 0, 67667
-3842.62, 50331.4, -163.004, 2.27973, -581.571, 0.75989, 0.316872, 1.03299, 0.34851, 0.655882, 3, 45.5, 246, 57.465, 0.191819, 1.22731, 1, 1, 0, 67667
-3081.55, 59992.7, -188.214, 2.54885, -674.209, 0.89265, 0.305236, 0.993198, 0.349787, 0.651995, 0.0001, 91, 246, 57.465, 0.191819, 1.38795, 1, 1, 0, 67667
-3081.55, 59992.7, -188.214, 2.54885, -674.209, 0.89265, 0.305236, 0.993198, 0.349787, 0.651995, 3, 91, 246, 57.465, 0.191819, 1.24079, 1, 1, 0, 67667
-1987.94, 73535.7, -220.283, 2.88268, -802.77, 1.07692, 0.306539, 0.958125, 0.351078, 0.648177, 0.0001, 182, 246, 57.465, 0.191819, 1.57821, 1, 1, 0, 67667
-1987.94, 73535.7, -220.283, 2.88268, -802.77, 1.07692, 0.306539, 0.958125, 0.351078, 0.648177, 3, 182, 246, 57.465, 0.191819, 1.44078, 1, 1, 0, 67667
299.605, 102533, -280.064, 3.48702, -1074.1, 1.46549, 0.332618, 0.9175, 0.352806, 0.64323, 0.0001, 455, 246, 57.465, 0.191819, 3.12378, 1, 1, 1, 67667
299.605, 102533, -280.064, 3.48702, -1074.1, 1.46549, 0.332618, 0.9175, 0.352806, 0.64323, 3, 455, 246, 57.465, 0.191819, 3.00707, 1, 1, 1, 67667
-10404.8, 189457, -174.513, 2.44491, -1077.11, -0.0089533, 0.364384, 1.03299, 0.34851, 0.655882, 0.0001, 45.5, 246, 39.8007, 0.175409, 0, 0, 0, 0, 67668
-10404.8, 189457, -174.513, 2.44491, -1077.11, -0.0089533, 0.364384, 1.03299, 0.34851, 0.655882, 3, 45.5, 246, 39.8007, 0.175409, 0, 0, 0, 0, 67668
-8106.22, 210358, -212.479, 2.62748, -1090.84, 0.0192707, 0.359034, 0.993198, 0.349787, 0.651995, 0.0001, 91, 246, 39.8007, 0.175409, 0, 0, 1, 0, 67668
-8106.22, 210358, -212.479, 2.62748, -1090.84, 0.0192707, 0.359034, 0.993198, 0.349787, 0.651995, 3, 91, 246, 39.8007, 0.175409, 0, 0, 1, 0, 67668
63.2525, 265802, -324.62, 3.15059, -1162.39, 0.105268, 0.389058, 0.9175, 0.352806, 0.64323, 3, 455, 246, 39.8007, 0.175409, 1.1323, 1, 0, 0, 67668
-8351.1, 474.571, -13.9253, 2.38803, -1141.53, 0.346916, 0.27898, 0.993198, 0.349787, 0.651995, 0.0001, 91, 246, 11.0883, 0.0629764, 0, 0, 1, 1, 67669
-8351.1, 474.571, -13.9253, 2.38803, -1141.53, 0.346916, 0.27898, 0.993198, 0.349787, 0.651995, 3, 91, 246, 11.0883, 0.0629764, 0, 0, 1, 1, 67669
-8620.77, 5332.14, 6.62041, 1.39567, -819.765, 0.362232, 0.322709, 1.03299, 0.34851, 0.655882, 0.0001, 45.5, 246, 6.27065, 0.0413255, 0, 0, 1, 1, 67671
-8620.77, 5332.14, 6.62041, 1.39567, -819.765, 0.362232, 0.322709, 1.03299, 0.34851, 0.655882, 3, 45.5, 246, 6.27065, 0.0413255, 0, 0, 1, 1, 67671
-7030.45, 100292, -178.718, 2.91796, -591.581, 0.0205391, 0.294114, 1.03299, 0.34851, 0.655882, 3, 45.5, 246, 43.2725, 0.177809, 0, 0, 1, 0, 67673
-5476.93, 107175, -210.043, 3.16407, -610.961, 0.0613579, 0.29642, 0.993198, 0.349787, 0.651995, 3, 91, 246, 43.2725, 0.177809, 0, 0, 1, 0, 67673
-3517.48, 115170, -246.824, 3.4495, -639.223, 0.110451, 0.313306, 0.958125, 0.351078, 0.648177, 0.0001, 182, 246, 43.2725, 0.177809, 1.10652, 1, 1, 0, 67673
-99.8439, 128332, -307.073, 3.91241, -695.451, 0.193579, 0.36085, 0.9175, 0.352806, 0.64323, 0.0001, 455, 246, 43.2725, 0.177809, 1.67847, 1, 1, 0, 67673
-99.8439, 128332, -307.073, 3.91241, -695.451, 0.193579, 0.36085, 0.9175, 0.352806, 0.64323, 3, 455, 246, 43.2725, 0.177809, 1.64251, 1, 1, 0, 67673
-5590.73, 70920.5, -169.857, 3.13804, -576.532, 0.54554, 0.236943, 1.03299, 0.34851, 0.655882, 0.0001, 45.5, 246, 43.8657, 0.141523, 1.22153, 1, 1, 0, 67677
-5590.73, 70920.5, -169.857, 3.13804, -576.532, 0.54554, 0.236943, 1.03299, 0.34851, 0.655882, 3, 45.5, 246, 43.8657, 0.141523, 1.0143, 1, 1, 0, 67677
-4307.58, 80181.9, -203.021, 3.51592, -650.445, 0.650128, 0.243636, 0.993198, 0.349787, 0.651995, 0.0001, 91, 246, 43.8657, 0.141523, 1.16333, 1, 1, 0, 67677
-2530.17, 92673.8, -245.763, 3.98863, -751.904, 0.79337, 0.271226, 0.958125, 0.351078, 0.648177, 0.0001, 182, 246, 43.8657, 0.141523, 1.33497, 1, 1, 0, 67677
-2530.17, 92673.8, -245.763, 3.98863, -751.904, 0.79337, 0.271226, 0.958125, 0.351078, 0.648177, 3, 182, 246, 43.8657, 0.141523, 1.19584, 1, 1, 0, 67677
1045.59, 117953, -326.361, 4.85096, -960.374, 1.08653, 0.350364, 0.9175, 0.352806, 0.64323, 0.0001, 455, 246, 43.8657, 0.141523, 2.28424, 1, 1, 1, 67677
1045.59, 117953, -326.361, 4.85096, -960.374, 1.08653, 0.350364, 0.9175, 0.352806, 0.64323, 3, 455, 246, 43.8657, 0.141523, 2.28357, 1, 1, 1, 67677
-8452.53, 291639, -156.754, 0.878522, -1138.6, 0.390445, 0.374049, 0.993198, 0.349787, 0.651995, 0.0001, 91, 246, 31.5557, 0.128369, 0, 0, 1, 0, 67686
1558.18, 263524, -337.059, 4.95665, -1187.59, 0.470993, 0.340568, 0.9175, 0.352806, 0.64323, 0.0001, 455, 246, 33.0915, 0.118202, 0, 0, 0, 0, 67688
1558.18, 263524, -337.059, 4.95665, -1187.59, 0.470993, 0.340568, 0.9175, 0.352806, 0.64323, 3, 455, 246, 33.0915, 0.118202, 0, 0, 0, 0, 67688
-1292.39, 121236, -269.413, 4.02613, -1290.39, 0.223031, 0.334322, 0.9175, 0.352806, 0.64323, 0.0001, 455, 246, 43.7399, 0.134665, 1.8963, 1, 0, 0, 67689
-1292.39, 121236, -269.413, 4.02613, -1290.39, 0.223031, 0.334322, 0.9175, 0.352806, 0.64323, 3, 455, 246, 43.7399, 0.134665, 1.8858, 1, 0, 0, 67689
-8884.81, 171515, -245.474, 3.12924, -836.598, -0.0417567, 0.352515, 1.03299, 0.34851, 0.655882, 3, 45.5, 246, 47.7161, 0.213153, 0, 0, 0, 0, 67690
-5904.36, 184744, -292.373, 3.4016, -857.153, 0.0050627, 0.365453, 0.993198, 0.349787, 0.651995, 0.0001, 91, 246, 47.7161, 0.213153, 1.03594, 1, 1, 0, 67690
-2110.91, 199997, -347.869, 3.72202, -891.554, 0.060844, 0.395093, 0.958125, 0.351078, 0.648177, 0.0001, 182, 246, 47.7161, 0.213153, 1.78466, 1, 0, 0, 67690
-2110.91, 199997, -347.869, 3.72202, -891.554, 0.060844, 0.395093, 0.958125, 0.351078, 0.648177, 3, 182, 246, 47.7161, 0.213153, 1.61834, 1, 0, 0, 67690
-13591.4, 149164, 15.1036, 3.14975, -1027.34, 0.116051, 0.179899, 1.03299, 0.34851, 0.655882, 0.0001, 45.5, 246, 15.8275, 0.0268198, 0, 0, 0, 0, 67693
-13591.4, 149164, 15.1036, 3.14975, -1027.34, 0.116051, 0.179899, 1.03299, 0.34851, 0.655882, 3, 45.5, 246, 15.8275, 0.0268198, 0, 0, 0, 0, 67693
-8991.39, 326330, -425.1, 3.39875, -960.156, 0.000188053, 0.513218, 0.993198, 0.349787, 0.651995, 0.0001, 91, 246, 50.8452, 0.233956, 1.022, 1, 1, 0, 67694
-4055.28, 60230.2, -179.26, 2.73219, -556.207, 0.311529, 0.291927, 1.03299, 0.34851, 0.655882, 0.0001, 45.5, 246, 53.5935, 0.180379, 1.3859, 1, 1, 0, 67698
-4055.28, 60230.2, -179.26, 2.73219, -556.207, 0.311529, 0.291927, 1.03299, 0.34851, 0.655882, 3, 45.5, 246, 53.5935, 0.180379, 1.23034, 1, 1, 0, 67698
-3013.79, 67715.9, -208.431, 2.99975, -601.665, 0.365562, 0.289385, 0.993198, 0.349787, 0.651995, 0.0001, 91, 246, 53.5935, 0.180379, 1.39476, 1, 1, 0, 67698
-3013.79, 67715.9, -208.431, 2.99975, -601.665, 0.365562, 0.289385, 0.993198, 0.349787, 0.651995, 3, 91, 246, 53.5935, 0.180379, 1.24498, 1, 1, 0, 67698
-1622.59, 76963.4, -243.696, 3.31521, -660.113, 0.434389, 0.301424, 0.958125, 0.351078, 0.648177, 0.0001, 182, 246, 53.5935, 0.180379, 1.55812, 1, 1, 0, 67698
-1622.59, 76963.4, -243.696, 3.31521, -660.113, 0.434389, 0.301424, 0.958125, 0.351078, 0.648177, 3, 182, 246, 53.5935, 0.180379, 1.41935, 1, 1, 0, 67698
983.715, 93306.2, -303.814, 3.8395, -767.348, 0.559287, 0.343306, 0.9175, 0.352806, 0.64323, 0.0001, 455, 246, 53.5935, 0.180379, 2.2408, 1, 1, 0, 67698
983.715, 93306.2, -303.814, 3.8395, -767.348, 0.559287, 0.343306, 0.9175, 0.352806, 0.64323, 3, 455, 246, 53.5935, 0.180379, 2.13024, 1, 1, 0, 67698
827.066, 341702, -410.12, 3.84497, -742.955, 0.340879, 0.426019, 0.9175, 0.352806, 0.64323, 3, 455, 246, 34.6064, 0.162646, 1.13431, 1, 0, 0, 67702
-10902.8, 84408.3, 26.0692, 3.09221, -1009.63, -0.0336878, 0.19679, 1.03299, 0.34851, 0.655882, 0.0001, 45.5, 246, 12.0704, 0.0250761, 0, 0, 1, 0, 67706
-10902.8, 84408.3, 26.0692, 3.09221, -1009.63, -0.0336878, 0.19679, 1.03299, 0.34851, 0.655882, 3, 45.5, 246, 12.0704, 0.0250761, 0, 0, 1, 0, 67706
-3426.03, 71718.9, -191.773, 3.74037, -1039.57, 0.300862, 0.238919, 0.993198, 0.349787, 0.651995, 0.0001, 91, 246, 48.2915, 0.144259, 1.21087, 1, 1, 0, 67710
-3426.03, 71718.9, -191.773, 3.74037, -1039.57, 0.300862, 0.238919, 0.993198, 0.349787, 0.651995, 3, 91, 246, 48.2915, 0.144259, 1.00011, 1, 1, 0, 67710
-1623.12, 94299.3, -249.387, 4.17523, -1120.87, 0.388046, 0.273425, 0.958125, 0.351078, 0.648177, 0.0001, 182, 246, 48.2915, 0.144259, 1.60377, 1, 1, 0, 67710
-1623.12, 94299.3, -249.387, 4.17523, -1120.87, 0.388046, 0.273425, 0.958125, 0.351078, 0.648177, 3, 182, 246, 48.2915, 0.144259, 1.4593, 1, 1, 0, 67710
-7284.75, 90397.9, -120.382, 2.11504, -1175.14, 0.15561, 0.337016, 0.993198, 0.349787, 0.651995, 0.0001, 91, 246, 38.3766, 0.199353, 0, 0, 1, 0, 67711
-12233.9, 279527, -41.9519, 1.09439, -575.113, 0.489885, 0.327237, 1.03299, 0.34851, 0.655882, 0.0001, 45.5, 246, 14.3026, 0.037479, 0, 0, 1, 0, 67715
-12233.9, 279527, -41.9519, 1.09439, -575.113, 0.489885, 0.327237, 1.03299, 0.34851, 0.655882, 3, 45.5, 246, 14.3026, 0.037479, 0, 0, 1, 0, 67715
-9692.59, 309692, -59.5006, 1.26824, -685.265, 0.594113, 0.270036, 0.958125, 0.351078, 0.648177, 0.0001, 182, 246, 14.3026, 0.037479, 0, 0, 1, 0, 67715
-2367.43, 288634, -415.837, 4.11747, -1054.86, 0.341814, 0.41516, 0.958125, 0.351078, 0.648177, 0.0001, 182, 246, 46.3047, 0.199222, 3.07488, 1, 0, 0, 67716
-2367.43, 288634, -415.837, 4.11747, -1054.86, 0.341814, 0.41516, 0.958125, 0.351078, 0.648177, 3, 182, 246, 46.3047, 0.199222, 2.84366, 1, 0, 0, 67716
8394.93, 333017, -540.654, 4.86631, -1227.16, 0.494004, 0.512183, 0.9175, 0.352806, 0.64323, 0.0001, 455, 246, 46.3047, 0.199222, 0, 0, 0, 0, 67716
8394.93, 333017, -540.654, 4.86631, -1227.16, 0.494004, 0.512183, 0.9175, 0.352806, 0.64323, 3, 455, 246, 46.3047, 0.199222, 0, 0, 0, 0, 67716
-7297.7, 252443, -369.887, 3.69203, -869.863, 0.00349169, 0.410617, 0.993198, 0.349787, 0.651995, 0.0001, 91, 246, 49.2741, 0.22103, 1.24534, 1, 1, 0, 67717
-7297.7, 252443, -369.887, 3.69203, -869.863, 0.00349169, 0.410617, 0.993198, 0.349787, 0.651995, 3, 91, 246, 49.2741, 0.22103, 1.12019, 1, 1, 0, 67717
-1556.95, 269439, -438.652, 4.06864, -916.088, 0.0696825, 0.454481, 0.958125, 0.351078, 0.648177, 3, 182, 246, 49.2741, 0.22103, 0, 0, 0, 0, 67717
-7527.21, 47634.5, -82.3949, 1.96291, -654.812, -0.0115574, 0.323744, 1.03299, 0.34851, 0.655882, 3, 45.5, 246, 35.8749, 0.155185, 0, 0, 1, 0, 67718
-11969.6, 255243, -74.1608, 1.4271, -980.917, 0.226109, 0.331913, 1.03299, 0.34851, 0.655882, 3, 45.5, 246, 24.0042, 0.0721506, 0, 0, 1, 0, 67719
-6774.25, 204574, -320.857, 3.29199, -697.699, -3.73956e-05, 0.400962, 0.993198, 0.349787, 0.651995, 0.0001, 91, 246, 47.1304, 0.221731, 1.08803, 1, 1, 0, 67722
-2679.63, 215618, -372.606, 3.59671, -731.946, 0.052077, 0.429582, 0.958125, 0.351078, 0.648177, 0.0001, 182, 246, 47.1304, 0.221731, 1.7348, 1, 0, 0, 67722
-2679.63, 215618, -372.606, 3.59671, -731.946, 0.052077, 0.429582, 0.958125, 0.351078, 0.648177, 3, 182, 246, 47.1304, 0.221731, 1.56781, 1, 0, 0, 67722
-2407.86, 376981, -490.645, 3.11335, -1101.21, 0.0425123, 0.607954, 0.958125, 0.351078, 0.648177, 3, 182, 246, 51.4899, 0.241563, 1.11621, 1, 0, 0, 67723
-10435.2, 250278, -301.439, 2.14351, -1058.54, 0.530178, 0.536303, 1.03299, 0.34851, 0.655882, 3, 45.5, 246, 49.8862, 0.245458, 0, 0, 0, 0, 67724
-10947.9, 211989, -127.444, 1.51649, -721.41, -0.0107031, 0.369401, 1.03299, 0.34851, 0.655882, 0.0001, 45.5, 246, 28.1105, 0.133125, 0, 0, 1, 0, 67725
-10947.9, 211989, -127.444, 1.51649, -721.41, -0.0107031, 0.369401, 1.03299, 0.34851, 0.655882, 3, 45.5, 246, 28.1105, 0.133125, 0, 0, 1, 0, 67725
-9583.54, 221166, -144.759, 1.60102, -726.37, -3.34282e-05, 0.346254, 0.993198, 0.349787, 0.651995, 3, 91, 246, 28.1105, 0.133125, 0, 0, 1, 0, 67725
-8029.72, 308224, -188.158, 0.816198, -1142.42, 0.155968, 0.407657, 0.993198, 0.349787, 0.651995, 0.0001, 91, 246, 34.8476, 0.151369, 0, 0, 1, 0, 67728
-10056.9, 89943.3, -30.0195, 2.57628, -978.815, 0.237436, 0.255242, 1.03299, 0.34851, 0.655882, 0.0001, 45.5, 246, 20.5345, 0.0674211, 0, 0, 1, 0, 67732
-10056.9, 89943.3, -30.0195, 2.57628, -978.815, 0.237436, 0.255242, 1.03299, 0.34851, 0.655882, 3, 45.5, 246, 20.5345, 0.0674211, 0, 0, 1, 0, 67732
-5158.99, 272079, -86.4977, 3.58913, -1043.42, 0.493586, 0.245222, 0.9175, 0.352806, 0.64323, 3, 455, 246, 14.6041, 0.0196897, 0, 0, 0, 0, 67734
-8234.33, 80557.8, -70.9278, 2.49442, -1103.11, 0.187185, 0.276397, 0.993198, 0.349787, 0.651995, 0.0001, 91, 246, 24.9707, 0.0987408, 0, 0, 1, 0, 67738
-8234.33, 80557.8, -70.9278, 2.49442, -1103.11, 0.187185, 0.276397, 0.993198, 0.349787, 0.651995, 3, 91, 246, 24.9707, 0.0987408, 0, 0, 1, 0, 67738
-5294.06, 137942, -153.648, 3.02123, -1220.38, 0.284143, 0.28516, 0.9175, 0.352806, 0.64323, 3, 455, 246, 24.9707, 0.0987408, 0, 0, 1, 0, 67738
-11464.1, 162302, -124.112, 3.38281, -1141.19, 0.210384, 0.215967, 1.03299, 0.34851, 0.655882, 0.0001, 45.5, 246, 34.7524, 0.121602, 0, 0, 0, 0, 67740
-11464.1, 162302, -124.112, 3.38281, -1141.19, 0.210384, 0.215967, 1.03299, 0.34851, 0.655882, 3, 45.5, 246, 34.7524, 0.121602, 0, 0, 0, 0, 67740
-8778.81, 188276, -173.309, 3.73362, -1199.69, 0.275105, 0.228588, 0.993198, 0.349787, 0.651995, 0.0001, 91, 246, 34.7524, 0.121602, 0, 0, 1, 0, 67740
-8778.81, 188276, -173.309, 3.73362, -1199.69, 0.275105, 0.228588, 0.993198, 0.349787, 0.651995, 3, 91, 246, 34.7524, 0.121602, 0, 0, 1, 0, 67740
-3889.39, 68842.5, -179.398, 3.21906, -978.998, 0.178239, 0.271108, 1.03299, 0.34851, 0.655882, 0.0001, 45.5, 246, 54.4716, 0.193872, 1.29742, 1, 1, 0, 67741
-3889.39, 68842.5, -179.398, 3.21906, -978.998, 0.178239, 0.271108, 1.03299, 0.34851, 0.655882, 3, 45.5, 246, 54.4716, 0.193872, 1.0986, 1, 1, 0, 67741
-2450.24, 87887, -226.164, 3.54017, -1029.6, 0.234995, 0.281656, 0.993198, 0.349787, 0.651995, 0.0001, 91, 246, 54.4716, 0.193872, 1.4968, 1, 1, 0, 67741
-2450.24, 87887, -226.164, 3.54017, -1029.6, 0.234995, 0.281656, 0.993198, 0.349787, 0.651995, 3, 91, 246, 54.4716, 0.193872, 1.34093, 1, 1, 0, 67741
-298.891, 110179, -283.594, 3.92541, -1099.92, 0.307568, 0.311067, 0.958125, 0.351078, 0.648177, 0.0001, 182, 246, 54.4716, 0.193872, 2.13745, 1, 1, 1, 67741
-298.891, 110179, -283.594, 3.92541, -1099.92, 0.307568, 0.311067, 0.958125, 0.351078, 0.648177, 3, 182, 246, 54.4716, 0.193872, 1.99641, 1, 1, 1, 67741
-11838.2, 154600, -30.6645, 2.24823, -1089.54, 0.534666, 0.271922, 1.03299, 0.34851, 0.655882, 0.0001, 45.5, 246, 21.592, 0.0572476, 0, 0, 1, 0, 67743
-11838.2, 154600, -30.6645, 2.24823, -1089.54, 0.534666, 0.271922, 1.03299, 0.34851, 0.655882, 3, 45.5, 246, 21.592, 0.0572476, 0, 0, 1, 0, 67743
-7463.52, 76714, -93.0499, 3.44651, -1111.44, 4.44665e-05, 0.228362, 0.993198, 0.349787, 0.651995, 0.0001, 91, 246, 28.07, 0.0962844, 0, 0, 1, 0, 67744
-9670.91, 98722.1, -58.0188, 2.27487, -944.802, 0.160923, 0.290321, 1.03299, 0.34851, 0.655882, 0.0001, 45.5, 246, 24.8712, 0.0961399, 0, 0, 1, 0, 67745
-9670.91, 98722.1, -58.0188, 2.27487, -944.802, 0.160923, 0.290321, 1.03299, 0.34851, 0.655882, 3, 45.5, 246, 24.8712, 0.0961399, 0, 0, 1, 0, 67745
-5013.82, 162226, -158.107, 2.96743, -1083.64, 0.28503, 0.281765, 0.9175, 0.352806, 0.64323, 3, 455, 246, 24.8712, 0.0961399, 0, 0, 1, 0, 67745
-6401.01, 145541, -283.943, 3.42803, -690.646, 0.276119, 0.318822, 1.03299, 0.34851, 0.655882, 0.0001, 45.5, 246, 52.6152, 0.219859, 1.48108, 1, 0, 0, 67746
-6401.01, 145541, -283.943, 3.42803, -690.646, 0.276119, 0.318822, 1.03299, 0.34851, 0.655882, 3, 45.5, 246, 52.6152, 0.219859, 1.40577, 1, 0, 0, 67746
-3284.84, 158540, -334.58, 3.8122, -755.543, 0.348842, 0.340268, 0.993198, 0.349787, 0.651995, 0.0001, 91, 246, 52.6152, 0.219859, 1.76609, 1, 1, 0, 67746
-3284.84, 158540, -334.58, 3.8122, -755.543, 0.348842, 0.340268, 0.993198, 0.349787, 0.651995, 3, 91, 246, 52.6152, 0.219859, 1.66873, 1, 1, 0, 67746
811.201, 175442, -398.101, 4.28585, -844.3, 0.445305, 0.384756, 0.958125, 0.351078, 0.648177, 0.0001, 182, 246, 52.6152, 0.219859, 4.05176, 1, 0, 0, 67746
811.201, 175442, -398.101, 4.28585, -844.3, 0.445305, 0.384756, 0.958125, 0.351078, 0.648177, 3, 182, 246, 52.6152, 0.219859, 3.72984, 1, 0, 0, 67746
-3644.82, 170939, -300.061, 3.56227, -688.288, 0.401433, 0.35206, 0.958125, 0.351078, 0.648177, 0.0001, 182, 246, 42.2045, 0.188998, 1.09598, 1, 1, 0, 67747
1664.87, 192130, -373.856, 4.15198, -805.257, 0.53226, 0.410937, 0.9175, 0.352806, 0.64323, 0.0001, 455, 246, 42.2045, 0.188998, 3.29895, 1, 0, 0, 67747
1664.87, 192130, -373.856, 4.15198, -805.257, 0.53226, 0.410937, 0.9175, 0.352806, 0.64323, 3, 455, 246, 42.2045, 0.188998, 3.31452, 1, 0, 0, 67747
-8133.38, 43811.1, -57.1646, 2.64649, -588.372, 0.563792, 0.251103, 1.03299, 0.34851, 0.655882, 3, 45.5, 246, 23.7905, 0.0730921, 0, 0, 1, 0, 67755
-7702.49, 51767.8, -77.2338, 2.94021, -652.864, 0.656505, 0.243992, 0.993198, 0.349787, 0.651995, 0.0001, 91, 246, 23.7905, 0.0730921, 0, 0, 1, 0, 67755
-7702.49, 51767.8, -77.2338, 2.94021, -652.864, 0.656505, 0.243992, 0.993198, 0.349787, 0.651995, 3, 91, 246, 23.7905, 0.0730921, 0, 0, 1, 0, 67755
-7021.12, 62105.7, -103.123, 3.2976, -738.754, 0.780096, 0.252074, 0.958125, 0.351078, 0.648177, 0.0001, 182, 246, 23.7905, 0.0730921, 0, 0, 1, 0, 67755
-7021.12, 62105.7, -103.123, 3.2976, -738.754, 0.780096, 0.252074, 0.958125, 0.351078, 0.648177, 3, 182, 246, 23.7905, 0.0730921, 0, 0, 1, 0, 67755
-5522.69, 81916.7, -151.277, 3.92203, -907.238, 1.02216, 0.291125, 0.9175, 0.352806, 0.64323, 0.0001, 455, 246, 23.7905, 0.0730921, 0, 0, 1, 0, 67755
-5522.69, 81916.7, -151.277, 3.92203, -907.238, 1.02216, 0.291125, 0.9175, 0.352806, 0.64323, 3, 455, 246, 23.7905, 0.0730921, 0, 0, 1, 0, 67755
-7618.61, 114453, -196.45, 3.17454, -632.79, 0.744685, 0.252798, 1.03299, 0.34851, 0.655882, 0.0001, 45.5, 246, 41.3623, 0.157927, 1.0932, 1, 0, 0, 67758
-5577.86, 128320, -234.804, 3.60433, -740.587, 0.901101, 0.262337, 0.993198, 0.349787, 0.651995, 0.0001, 91, 246, 41.3623, 0.157927, 1.03807, 1, 1, 0, 67758
-2743.2, 148191, -286.164, 4.16331, -896.964, 1.12784, 0.295492, 0.958125, 0.351078, 0.648177, 0.0001, 182, 246, 41.3623, 0.157927, 1.3391, 1, 1, 0, 67758
-2743.2, 148191, -286.164, 4.16331, -896.964, 1.12784, 0.295492, 0.958125, 0.351078, 0.648177, 3, 182, 246, 41.3623, 0.157927, 1.18026, 1, 1, 0, 67758
-14773.5, 289440, -185.333, 2.5749, -1067.17, 0.375333, 0.32664, 1.03299, 0.34851, 0.655882, 0.0001, 45.5, 246, 36.0262, 0.132603, 0, 0, 0, 0, 67760
-14773.5, 289440, -185.333, 2.5749, -1067.17, 0.375333, 0.32664, 1.03299, 0.34851, 0.655882, 3, 45.5, 246, 36.0262, 0.132603, 0, 0, 0, 0, 67760
-7419.71, 166380, -282.698, 2.99828, -891.988, 0.640374, 0.398169, 1.03299, 0.34851, 0.655882, 0.0001, 45.5, 246, 52.7782, 0.237988, 1.23497, 1, 0, 0, 67761
-7419.71, 166380, -282.698, 2.99828, -891.988, 0.640374, 0.398169, 1.03299, 0.34851, 0.655882, 3, 45.5, 246, 52.7782, 0.237988, 1.12085, 1, 0, 0, 67761
-4266.17, 190283, -335.397, 3.38419, -1023.34, 0.762144, 0.412417, 0.993198, 0.349787, 0.651995, 0.0001, 91, 246, 52.7782, 0.237988, 1.47089, 1, 1, 0, 67761
-4266.17, 190283, -335.397, 3.38419, -1023.34, 0.762144, 0.412417, 0.993198, 0.349787, 0.651995, 3, 91, 246, 52.7782, 0.237988, 1.33981, 1, 1, 0, 67761
142.468, 223350, -404.14, 3.87355, -1206.54, 0.932127, 0.447697, 0.958125, 0.351078, 0.648177, 3, 182, 246, 52.7782, 0.237988, 0, 0, 0, 0, 67761
-8971.74, 85526.7, 3.06336, 0.352598, -1141.07, 0.20574, 0.340741, 1.03299, 0.34851, 0.655882, 0.0001, 45.5, 246, 9.93902, 0.00703995, 0, 0, 1, 0, 67762
-8971.74, 85526.7, 3.06336, 0.352598, -1141.07, 0.20574, 0.340741, 1.03299, 0.34851, 0.655882, 3, 45.5, 246, 9.93902, 0.00703995, 0, 0, 1, 0, 67762
-8830.74, 70460.6, -19.8255, 0.471794, -860.255, 0.0832143, 0.345803, 1.03299, 0.34851, 0.655882, 0.0001, 45.5, 246, 14.2142, 0.0715505, 0, 0, 1, 0, 67763
-8830.74, 70460.6, -19.8255, 0.471794, -860.255, 0.0832143, 0.345803, 1.03299, 0.34851, 0.655882, 3, 45.5, 246, 14.2142, 0.0715505, 0, 0, 1, 0, 67763
-12406.3, 219677, -38.8244, 1.67682, -900.366, 0.197248, 0.30602, 1.03299, 0.34851, 0.655882, 3, 45.5, 246, 19.385, 0.0495803, 0, 0, 1, 0, 67765
-9143.65, 255160, -74.4746, 1.91816, -970.002, 0.240594, 0.263001, 0.958125, 0.351078, 0.648177, 0.0001, 182, 246, 19.385, 0.0495803, 0, 0, 1, 0, 67765
-8149.4, -3761.73, -14.8843, 1.68287, -655.836, 0.324909, 0.315499, 1.03299, 0.34851, 0.655882, 3, 45.5, 246, 18.4482, 0.0275352, 0, 0, 1, 0, 67766
-8325.3, 206725, -194.1, 1.51238, -941.15, 0.812071, 0.411368, 0.993198, 0.349787, 0.651995, 0.0001, 91, 246, 36.6587, 0.191851, 0, 0, 1, 0, 67767
-14130.8, -144338, -19.6276, 0.590302, -1126.24, 0.10542, 0.408007, 1.03299, 0.34851, 0.655882, 0.0001, 45.5, 246, -72.7765, 0.221263, 0, 0, 1, 0, 67768
-14130.8, -144338, -19.6276, 0.590302, -1126.24, 0.10542, 0.408007, 1.03299, 0.34851, 0.655882, 3, 45.5, 246, -72.7765, 0.221263, 0, 0, 1, 0, 67768
-3580.92, 97588.1, -232.519, 3.16856, -974.526, 0.726608, 0.313272, 1.03299, 0.34851, 0.655882, 0.0001, 45.5, 246, 57.5987, 0.229737, 1.534, 1, 1, 0, 67769
-3580.92, 97588.1, -232.519, 3.16856, -974.526, 0.726608, 0.313272, 1.03299, 0.34851, 0.655882, 3, 45.5, 246, 57.5987, 0.229737, 1.40296, 1, 1, 0, 67769
-1438.43, 122535, -285.669, 3.59919, -1129.92, 0.877577, 0.326751, 0.993198, 0.349787, 0.651995, 0.0001, 91, 246, 57.5987, 0.229737, 1.82578, 1, 1, 0, 67769
-1438.43, 122535, -285.669, 3.59919, -1129.92, 0.877577, 0.326751, 0.993198, 0.349787, 0.651995, 3, 91, 246, 57.5987, 0.229737, 1.70678, 1, 1, 0, 67769
9407.07, 239584, -503.327, 5.2464, -1861.1, 1.58655, 0.466361, 0.9175, 0.352806, 0.64323, 0.0001, 455, 246, 57.5987, 0.229737, 0, 0, 0, 0, 67769
9407.07, 239584, -503.327, 5.2464, -1861.1, 1.58655, 0.466361, 0.9175, 0.352806, 0.64323, 3, 455, 246, 57.5987, 0.229737, 0, 0, 0, 0, 67769
-7067.89, 97479.5, -163.521, 3.30572, -817.547, 0.199315, 0.242095, 1.03299, 0.34851, 0.655882, 3, 45.5, 246, 42.0665, 0.156023, 0, 0, 1, 0, 67770
-2952.7, 127957, -255.714, 4.05093, -930.236, 0.339434, 0.285218, 0.958125, 0.351078, 0.648177, 0.0001, 182, 246, 42.0665, 0.156023, 1.23664, 1, 1, 0, 67770
-2952.7, 127957, -255.714, 4.05093, -930.236, 0.339434, 0.285218, 0.958125, 0.351078, 0.648177, 3, 182, 246, 42.0665, 0.156023, 1.05602, 1, 1, 0, 67770
1671.01, 156790, -345.487, 4.75346, -1060.57, 0.486253, 0.365053, 0.9175, 0.352806, 0.64323, 0.0001, 455, 246, 42.0665, 0.156023, 4.3889, 1, 0, 0, 67770
1671.01, 156790, -345.487, 4.75346, -1060.57, 0.486253, 0.365053, 0.9175, 0.352806, 0.64323, 3, 455, 246, 42.0665, 0.156023, 4.42266, 1, 0, 0, 67770
-11897.4, 154124, -65.1314, 2.85467, -1023, -0.0381482, 0.240199, 1.03299, 0.34851, 0.655882, 0.0001, 45.5, 246, 25.6873, 0.0844796, 0, 0, 0, 0, 67771
-11897.4, 154124, -65.1314, 2.85467, -1023, -0.0381482, 0.240199, 1.03299, 0.34851, 0.655882, 3, 45.5, 246, 25.6873, 0.0844796, 0, 0, 0, 0, 67771
-7509.82, 190578, -136.104, 3.33217, -1039.74, 0.0456188, 0.24713, 0.958125, 0.351078, 0.648177, 0.0001, 182, 246, 25.6873, 0.0844796, 0, 0, 1, 0, 67771
-7509.82, 190578, -136.104, 3.33217, -1039.74, 0.0456188, 0.24713, 0.958125, 0.351078, 0.648177, 3, 182, 246, 25.6873, 0.0844796, 0, 0, 1, 0, 67771
-10163.1, 94880, -53.2895, 3.60507, -968.043, -0.000803937, 0.157534, 1.03299, 0.34851, 0.655882, 0.0001, 45.5, 246, 24.7976, 0.0766387, 0, 0, 0, 0, 67773
-10163.1, 94880, -53.2895, 3.60507, -968.043, -0.000803937, 0.157534, 1.03299, 0.34851, 0.655882, 3, 45.5, 246, 24.7976, 0.0766387, 0, 0, 0, 0, 67773
-9514.36, 108372, -74.2061, 2.22489, -1116.09, 0.0248084, 0.308822, 1.03299, 0.34851, 0.655882, 0.0001, 45.5, 246, 29.1121, 0.118598, 0, 0, 1, 0, 67775
-9514.36, 108372, -74.2061, 2.22489, -1116.09, 0.0248084, 0.308822, 1.03299, 0.34851, 0.655882, 3, 45.5, 246, 29.1121, 0.118598, 0, 0, 1, 0, 67775
-10740.3, 146044, -97.824, 2.77164, -1109.91, 0.132324, 0.270298, 1.03299, 0.34851, 0.655882, 0.0001, 45.5, 246, 31.4266, 0.116021, 0, 0, 0, 0, 67779
-10740.3, 146044, -97.824, 2.77164, -1109.91, 0.132324, 0.270298, 1.03299, 0.34851, 0.655882, 3, 45.5, 246, 31.4266, 0.116021, 0, 0, 0, 0, 67779
-8258.22, 68410.9, -79.7321, 1.92668, -1001.58, 0.461558, 0.33426, 1.03299, 0.34851, 0.655882, 3, 45.5, 246, 32.9716, 0.157244, 0, 0, 1, 0, 67782
-11670.9, 234633, -34.8422, 1.31845, -1137.38, 0.138275, 0.322867, 1.03299, 0.34851, 0.655882, 0.0001, 45.5, 246, 21.6503, 0.0461252, 0, 0, 1, 0, 67784
-11670.9, 234633, -34.8422, 1.31845, -1137.38, 0.138275, 0.322867, 1.03299, 0.34851, 0.655882, 3, 45.5, 246, 21.6503, 0.0461252, 0, 0, 1, 0, 67784
-10470.3, 259533, -50.6703, 1.39616, -1165.07, 0.149631, 0.29365, 0.993198, 0.349787, 0.651995, 0.0001, 91, 246, 21.6503, 0.0461252, 0, 0, 1, 0, 67784
-8946.41, 286057, -68.4396, 1.47768, -1196.41, 0.162537, 0.270311, 0.958125, 0.351078, 0.648177, 0.0001, 182, 246, 21.6503, 0.0461252, 0, 0, 1, 0, 67784
-12017.8, 321160, -214.323, 1.60528, -1064.77, 0.0255328, 0.434749, 1.03299, 0.34851, 0.655882, 0.0001, 45.5, 246, 37.768, 0.159817, 0, 0, 0, 0, 67787
-12017.8, 321160, -214.323, 1.60528, -1064.77, 0.0255328, 0.434749, 1.03299, 0.34851, 0.655882, 3, 45.5, 246, 37.768, 0.159817, 0, 0, 0, 0, 67787
-8881.37, 166730, -133.487, 0.987922, -1137.07, 0.0627969, 0.427475, 1.03299, 0.34851, 0.655882, 0.0001, 45.5, 246, 36.1106, 0.193275, 0, 0, 1, 0, 67788
-8881.37, 166730, -133.487, 0.987922, -1137.07, 0.0627969, 0.427475, 1.03299, 0.34851, 0.655882, 3, 45.5, 246, 36.1106, 0.193275, 0, 0, 1, 0, 67788
-9038.12, 86743.6, -78.7915, 3.24445, -981.813, 0.0483252, 0.2142, 1.03299, 0.34851, 0.655882, 0.0001, 45.5, 246, 29.629, 0.102477, 0, 0, 1, 0, 67790
-9038.12, 86743.6, -78.7915, 3.24445, -981.813, 0.0483252, 0.2142, 1.03299, 0.34851, 0.655882, 3, 45.5, 246, 29.629, 0.102477, 0, 0, 1, 0, 67790
-1107.06, 97626.8, -275.092, 4.78292, -1009.74, 0.18789, 0.329618, 0.9175, 0.352806, 0.64323, 0.0001, 455, 246, 38.7957, 0.108372, 1.49147, 1, 1, 0, 67791
-1107.06, 97626.8, -275.092, 4.78292, -1009.74, 0.18789, 0.329618, 0.9175, 0.352806, 0.64323, 3, 455, 246, 38.7957, 0.108372, 1.4459, 1, 1, 0, 67791
-11312.9, 282782, -93.2943, 1.09466, -893.189, 0.275284, 0.352246, 1.03299, 0.34851, 0.655882, 0.0001, 45.5, 246, 24.2024, 0.0802849, 0, 0, 1, 0, 67792
-11312.9, 282782, -93.2943, 1.09466, -893.189, 0.275284, 0.352246, 1.03299, 0.34851, 0.655882, 3, 45.5, 246, 24.2024, 0.0802849, 0, 0, 1, 0, 67792
-10062.2, 301818, -107.009, 1.16402, -937.269, 0.293655, 0.32257, 0.993198, 0.349787, 0.651995, 3, 91, 246, 24.2024, 0.0802849, 0, 0, 1, 0, 67792
-8525.72, 323093, -122.313, 1.23741, -987.084, 0.31458, 0.298289, 0.958125, 0.351078, 0.648177, 0.0001, 182, 246, 24.2024, 0.0802849, 0, 0, 1, 0, 67792
-3037.12, 42649, -179.505, 3.45551, -570.061, 0.648894, 0.181373, 1.03299, 0.34851, 0.655882, 0.0001, 45.5, 246, 50.5424, 0.09677, 1.41516, 1, 1, 0, 67793
-3037.12, 42649, -179.505, 3.45551, -570.061, 0.648894, 0.181373, 1.03299, 0.34851, 0.655882, 3, 45.5, 246, 50.5424, 0.09677, 1.28916, 1, 1, 0, 67793
-1995.28, 51524, -216.501, 3.91523, -658.505, 0.789398, 0.196006, 0.993198, 0.349787, 0.651995, 0.0001, 91, 246, 50.5424, 0.09677, 1.39071, 1, 1, 0, 67793
-1995.28, 51524, -216.501, 3.91523, -658.505, 0.789398, 0.196006, 0.993198, 0.349787, 0.651995, 3, 91, 246, 50.5424, 0.09677, 1.2678, 1, 1, 0, 67793
-453.992, 64204, -265.919, 4.51174, -785.682, 0.990836, 0.23722, 0.958125, 0.351078, 0.648177, 0.0001, 182, 246, 50.5424, 0.09677, 1.56117, 1, 1, 0, 67793
-453.992, 64204, -265.919, 4.51174, -785.682, 0.990836, 0.23722, 0.958125, 0.351078, 0.648177, 3, 182, 246, 50.5424, 0.09677, 1.43952, 1, 1, 0, 67793
2974.76, 92515, -365.213, 5.67051, -1069.73, 1.43866, 0.350949, 0.9175, 0.352806, 0.64323, 0.0001, 455, 246, 50.5424, 0.09677, 3.61123, 1, 1, 1, 67793
2974.76, 92515, -365.213, 5.67051, -1069.73, 1.43866, 0.350949, 0.9175, 0.352806, 0.64323, 3, 455, 246, 50.5424, 0.09677, 3.61387, 1, 1, 1, 67793
-10092.2, 266892, -246.619, 1.55779, -1157.23, 0.00362998, 0.512268, 1.03299, 0.34851, 0.655882, 3, 45.5, 246, 44.9064, 0.219808, 0, 0, 0, 0, 67794
-8625.55, 12888.1, 7.19055, 2.10511, -1127.25, -0.0203476, 0.293435, 1.03299, 0.34851, 0.655882, 0.0001, 45.5, 246, 12.122, 0.054365, 0, 0, 1, 0, 67795
-8625.55, 12888.1, 7.19055, 2.10511, -1127.25, -0.0203476, 0.293435, 1.03299, 0.34851, 0.655882, 3, 45.5, 246, 12.122, 0.054365, 0, 0, 1, 0, 67795
-8614.44, 71380, -52.5104, 1.19397, -1170.31, 0.211802, 0.321195, 0.993198, 0.349787, 0.651995, 0.0001, 91, 246, 24.1802, 0.14361, 0, 0, 1, 0, 67799
-8614.44, 71380, -52.5104, 1.19397, -1170.31, 0.211802, 0.321195, 0.993198, 0.349787, 0.651995, 3, 91, 246, 24.1802, 0.14361, 0, 0, 1, 1, 67799
-9498.78, 244504, -64.4647, 2.09799, -801.51, 0.113024, 0.254667, 0.958125, 0.351078, 0.648177, 3, 182, 246, 16.831, 0.0420895, 0, 0, 1, 0, 67800
-8554.52, 48939.6, -46.8623, 1.59173, -872.058, 0.0161123, 0.333435, 1.03299, 0.34851, 0.655882, 3, 45.5, 246, 25.7313, 0.128239, 0, 0, 1, 0, 67804
-7606.13, 142918, -242.401, 3.10686, -649.263, -0.00141989, 0.335871, 1.03299, 0.34851, 0.655882, 0.0001, 45.5, 246, 48.1029, 0.212654, 1.20228, 1, 1, 0, 67805
-7606.13, 142918, -242.401, 3.10686, -649.263, -0.00141989, 0.335871, 1.03299, 0.34851, 0.655882, 3, 45.5, 246, 48.1029, 0.212654, 1.07147, 1, 1, 0, 67805
-5078.4, 151596, -283.141, 3.38156, -673.878, 0.0448059, 0.346933, 0.993198, 0.349787, 0.651995, 0.0001, 91, 246, 48.1029, 0.212654, 1.30761, 1, 1, 0, 67805
-5078.4, 151596, -283.141, 3.38156, -673.878, 0.0448059, 0.346933, 0.993198, 0.349787, 0.651995, 3, 91, 246, 48.1029, 0.212654, 1.13435, 1, 1, 0, 67805
-1908.09, 162010, -331.454, 3.70471, -710.347, 0.100657, 0.374614, 0.958125, 0.351078, 0.648177, 0.0001, 182, 246, 48.1029, 0.212654, 1.76355, 1, 1, 0, 67805
-1908.09, 162010, -331.454, 3.70471, -710.347, 0.100657, 0.374614, 0.958125, 0.351078, 0.648177, 3, 182, 246, 48.1029, 0.212654, 1.61524, 1, 1, 0, 67805
-8883.82, 77568.3, -58.4741, 1.55925, -967.164, 0.288414, 0.33874, 1.03299, 0.34851, 0.655882, 0.0001, 45.5, 246, 26.4531, 0.1277, 0, 0, 1, 0, 67808
-8883.82, 77568.3, -58.4741, 1.55925, -967.164, 0.288414, 0.33874, 1.03299, 0.34851, 0.655882, 3, 45.5, 246, 26.4531, 0.1277, 0, 0, 1, 0, 67808
-12050.1, 323382, -124.342, 1.28384, -1077.9, 0.393245, 0.36109, 1.03299, 0.34851, 0.655882, 0.0001, 45.5, 246, 29.3074, 0.0919046, 0, 0, 0, 0, 67810
-12050.1, 323382, -124.342, 1.28384, -1077.9, 0.393245, 0.36109, 1.03299, 0.34851, 0.655882, 3, 45.5, 246, 29.3074, 0.0919046, 0, 0, 0, 0, 67810
-3719.65, 289670, -407.178, 3.89588, -933.386, 0.907097, 0.418817, 0.958125, 0.351078, 0.648177, 0.0001, 182, 246, 42.61, 0.193192, 1.62754, 1, 0, 0, 67811
-3719.65, 289670, -407.178, 3.89588, -933.386, 0.907097, 0.418817, 0.958125, 0.351078, 0.648177, 3, 182, 246, 42.61, 0.193192, 1.4576, 1, 0, 0, 67811
-3705.32, 330620, -477.787, 3.67213, -875.318, 0.892779, 0.519416, 0.958125, 0.351078, 0.648177, 0.0001, 182, 246, 45.1747, 0.218611, 2.5385, 1, 0, 0, 67813
-3705.32, 330620, -477.787, 3.67213, -875.318, 0.892779, 0.519416, 0.958125, 0.351078, 0.648177, 3, 182, 246, 45.1747, 0.218611, 2.36408, 1, 0, 0, 67813
-7341.69, 69774.9, -120.874, 3.04912, -594.948, -0.0067191, 0.24051, 1.03299, 0.34851, 0.655882, 0.0001, 45.5, 246, 35.4342, 0.121761, 0, 0, 1, 0, 67817
-7341.69, 69774.9, -120.874, 3.04912, -594.948, -0.0067191, 0.24051, 1.03299, 0.34851, 0.655882, 3, 45.5, 246, 35.4342, 0.121761, 0, 0, 1, 0, 67817
-10062.4, 173328, -183.949, 2.75741, -957.066, -0.0267938, 0.338914, 1.03299, 0.34851, 0.655882, 0.0001, 45.5, 246, 40.7279, 0.179097, 0, 0, 0, 0, 67819
-10062.4, 173328, -183.949, 2.75741, -957.066, -0.0267938, 0.338914, 1.03299, 0.34851, 0.655882, 3, 45.5, 246, 40.7279, 0.179097, 0, 0, 0, 0, 67819
-7652.68, 189815, -223.839, 2.97658, -971.038, 0.0092761, 0.339761, 0.993198, 0.349787, 0.651995, 0.0001, 91, 246, 40.7279, 0.179097, 0, 0, 1, 0, 67819
-7652.68, 189815, -223.839, 2.97658, -971.038, 0.0092761, 0.339761, 0.993198, 0.349787, 0.651995, 3, 91, 246, 40.7279, 0.179097, 0, 0, 1, 0, 67819
852.791, 235347, -344.678, 3.62776, -1050.5, 0.121158, 0.394075, 0.9175, 0.352806, 0.64323, 0.0001, 455, 246, 40.7279, 0.179097, 0, 0, 0, 0, 67819
852.791, 235347, -344.678, 3.62776, -1050.5, 0.121158, 0.394075, 0.9175, 0.352806, 0.64323, 3, 455, 246, 40.7279, 0.179097, 0, 0, 0, 0, 67819
-10678.9, 283982, -238.434, 1.36172, -986.925, 0.654897, 0.478896, 1.03299, 0.34851, 0.655882, 0.0001, 45.5, 246, 39.5853, 0.185907, 0, 0, 0, 0, 67820
-10678.9, 283982, -238.434, 1.36172, -986.925, 0.654897, 0.478896, 1.03299, 0.34851, 0.655882, 3, 45.5, 246, 39.5853, 0.185907, 0, 0, 0, 0, 67820
-2832.83, 247572, -393.88, 3.12969, -917.66, 0.952974, 0.49844, 0.958125, 0.351078, 0.648177, 0.0001, 182, 246, 47.7765, 0.238962, 1.49045, 1, 0, 0, 67821
-2832.83, 247572, -393.88, 3.12969, -917.66, 0.952974, 0.49844, 0.958125, 0.351078, 0.648177, 3, 182, 246, 47.7765, 0.238962, 1.27477, 1, 0, 0, 67821
-3740.29, 293270, -424.434, 3.03324, -834.192, 0.329359, 0.539796, 0.958125, 0.351078, 0.648177, 0.0001, 182, 246, 47.246, 0.238822, 1.23241, 1, 0, 0, 67823
-8790.77, 326717, -461.084, 3.38094, -986.82, 0.943782, 0.532353, 0.993198, 0.349787, 0.651995, 0.0001, 91, 246, 50.3228, 0.232954, 1.20997, 1, 1, 0, 67824
-8790.77, 326717, -461.084, 3.38094, -986.82, 0.943782, 0.532353, 0.993198, 0.349787, 0.651995, 3, 91, 246, 50.3228, 0.232954, 1.09932, 1, 1, 0, 67824
-7880.88, 246115, -270.271, 1.43228, -989.219, 0.515889, 0.52498, 0.993198, 0.349787, 0.651995, 0.0001, 91, 246, 44.6261, 0.248393, 0, 0, 1, 0, 67831
-9400.89, -93741.5, -3.91216, 0.172594, -1010.28, 0.110736, 0.346176, 1.03299, 0.34851, 0.655882, 0.0001, 45.5, 246, -59.6354, 0.0685799, 0, 0, 1, 0, 67832
-9400.89, -93741.5, -3.91216, 0.172594, -1010.28, 0.110736, 0.346176, 1.03299, 0.34851, 0.655882, 3, 45.5, 246, -59.6354, 0.0685799, 0, 0, 1, 0, 67832
-8268.59, 114616, -121.745, 2.57878, -680.421, 0.146202, 0.284291, 0.993198, 0.349787, 0.651995, 0.0001, 91, 246, 29.0296, 0.124105, 0, 0, 1, 0, 67834
-8268.59, 114616, -121.745, 2.57878, -680.421, 0.146202, 0.284291, 0.993198, 0.349787, 0.651995, 3, 91, 246, 29.0296, 0.124105, 0, 0, 1, 0, 67834
-4473.89, 138653, -188.896, 3.12133, -757.317, 0.241949, 0.299791, 0.9175, 0.352806, 0.64323, 3, 455, 246, 29.0296, 0.124105, 0, 0, 1, 0, 67834
-9116.79, 48178.3, -8.4035, 2.30296, -924.342, -0.0242806, 0.276677, 1.03299, 0.34851, 0.655882, 0.0001, 45.5, 246, 15.2359, 0.0543282, 1.05114, 1, 1, 0, 67835
-7953.16, 122066, -185.548, 2.47206, -602.404, -0.0251892, 0.36007, 1.03299, 0.34851, 0.655882, 0.0001, 45.5, 246, 43.1915, 0.206553, 0, 0, 1, 0, 67836
-7953.16, 122066, -185.548, 2.47206, -602.404, -0.0251892, 0.36007, 1.03299, 0.34851, 0.655882, 3, 45.5, 246, 43.1915, 0.206553, 0, 0, 1, 0, 67836
-1213.84, 148436, -295.815, 3.18138, -670.397, 0.0908233, 0.386226, 0.9175, 0.352806, 0.64323, 0.0001, 455, 246, 43.1915, 0.206553, 1.27686, 1, 0, 0, 67836
-1213.84, 148436, -295.815, 3.18138, -670.397, 0.0908233, 0.386226, 0.9175, 0.352806, 0.64323, 3, 455, 246, 43.1915, 0.206553, 1.28247, 1, 0, 0, 67836
-11452.7, 146922, -59.3139, 2.32209, -698.156, 0.295776, 0.273553, 1.03299, 0.34851, 0.655882, 0.0001, 45.5, 246, 20.3854, 0.0731348, 0, 0, 1, 0, 67837
-11452.7, 146922, -59.3139, 2.32209, -698.156, 0.295776, 0.273553, 1.03299, 0.34851, 0.655882, 3, 45.5, 246, 20.3854, 0.0731348, 0, 0, 1, 0, 67837
-10057.2, 158128, -79.2164, 2.52534, -738.399, 0.337318, 0.259222, 0.993198, 0.349787, 0.651995, 0.0001, 91, 246, 20.3854, 0.0731348, 0, 0, 1, 0, 67837
-10057.2, 158128, -79.2164, 2.52534, -738.399, 0.337318, 0.259222, 0.993198, 0.349787, 0.651995, 3, 91, 246, 20.3854, 0.0731348, 0, 0, 1, 0, 67837
-5207.8, 192526, -143.19, 3.12763, -875.696, 0.477619, 0.269415, 0.9175, 0.352806, 0.64323, 3, 455, 246, 20.3854, 0.0731348, 0, 0, 1, 0, 67837
-4796.72, 190856, -176.025, 2.62602, -1332.13, 0.997092, 0.296846, 0.9175, 0.352806, 0.64323, 0.0001, 455, 246, 28.1648, 0.124455, 0, 0, 0, 0, 67839
-4796.72, 190856, -176.025, 2.62602, -1332.13, 0.997092, 0.296846, 0.9175, 0.352806, 0.64323, 3, 455, 246, 28.1648, 0.124455, 0, 0, 0, 0, 67839
-6475.22, 353893, -424.685, 3.93415, -747.068, 0.138868, 0.417935, 0.958125, 0.351078, 0.648177, 0.0001, 182, 246, 39.9893, 0.181757, 1.05587, 1, 0, 0, 67840
-7794.66, -24353.1, 22.9455, 2.58485, -1036.36, 0.00136939, 0.268274, 1.03299, 0.34851, 0.655882, 0.0001, 45.5, 246, 6.3444, 0.0571988, 0, 0, 1, 0, 67841
-8166.94, -5864.79, -0.63168, 2.77958, -1038.31, 0.032977, 0.259575, 0.993198, 0.349787, 0.651995, 3, 91, 246, 6.3444, 0.0571988, 0, 0, 1, 1, 67841
-8177.75, -14867.2, 11.3732, 2.00143, -685.618, 0.012092, 0.301679, 1.03299, 0.34851, 0.655882, 3, 45.5, 246, 3.83451, 0.044831, 0, 0, 1, 1, 67850
-7878.71, 14437.8, -37.568, 2.80438, -1034.82, 0.0140199, 0.261449, 0.993198, 0.349787, 0.651995, 0.0001, 91, 246, 18.9106, 0.063343, 0, 0, 1, 1, 67852
-7878.71, 14437.8, -37.568, 2.80438, -1034.82, 0.0140199, 0.261449, 0.993198, 0.349787, 0.651995, 3, 91, 246, 18.9106, 0.063343, 0, 0, 1, 1, 67852
-4280.92, 161433, -175.632, 3.94863, -1386.02, 1.18433, 0.292341, 0.9175, 0.352806, 0.64323, 0.0001, 455, 246, 22.7314, 0.0782332, 0, 0, 0, 0, 67854
-4280.92, 161433, -175.632, 3.94863, -1386.02, 1.18433, 0.292341, 0.9175, 0.352806, 0.64323, 3, 455, 246, 22.7314, 0.0782332, 0, 0, 0, 0, 67854
-8783.29, 25015.2, -5.3817, 1.24009, -888.786, 0.240575, 0.328951, 1.03299, 0.34851, 0.655882, 0.0001, 45.5, 246, 11.7438, 0.0584716, 0, 0, 1, 1, 67855
-8783.29, 25015.2, -5.3817, 1.24009, -888.786, 0.240575, 0.328951, 1.03299, 0.34851, 0.655882, 3, 45.5, 246, 11.7438, 0.0584716, 0, 0, 1, 1, 67855
-11054.1, 103492, -4.2576, 2.77481, -727.899, -0.0363411, 0.227122, 1.03299, 0.34851, 0.655882, 0.0001, 45.5, 246, 12.7755, 0.0330131, 0, 0, 1, 0, 67857
-11054.1, 103492, -4.2576, 2.77481, -727.899, -0.0363411, 0.227122, 1.03299, 0.34851, 0.655882, 3, 45.5, 246, 12.7755, 0.0330131, 0, 0, 1, 0, 67857
-9710.18, 305450, -287.168, 0.875634, -936.763, 0.167901, 0.589381, 1.03299, 0.34851, 0.655882, 0.0001, 45.5, 246, 43.9309, 0.239731, 0, 0, 0, 0, 67858
-7975.13, 325676, -309.304, 0.927935, -969.742, 0.176144, 0.578371, 0.993198, 0.349787, 0.651995, 3, 91, 246, 43.9309, 0.239731, 0, 0, 1, 0, 67858
-8168.83, 81198.3, -75.0595, 2.71001, -1041.61, 0.0228734, 0.265424, 0.993198, 0.349787, 0.651995, 0.0001, 91, 246, 25.2231, 0.0959932, 0, 0, 1, 0, 67860
-8168.83, 81198.3, -75.0595, 2.71001, -1041.61, 0.0228734, 0.265424, 0.993198, 0.349787, 0.651995, 3, 91, 246, 25.2231, 0.0959932, 0, 0, 1, 0, 67860
-9944.1, 144013, -145.723, 2.75632, -785.235, 0.00203308, 0.296513, 1.03299, 0.34851, 0.655882, 0.0001, 45.5, 246, 35.0939, 0.149804, 0, 0, 1, 0, 67861
-9944.1, 144013, -145.723, 2.75632, -785.235, 0.00203308, 0.296513, 1.03299, 0.34851, 0.655882, 3, 45.5, 246, 35.0939, 0.149804, 0, 0, 1, 0, 67861
-9788.59, 192035, -253.488, 3.03868, -991.267, 0.679246, 0.356149, 1.03299, 0.34851, 0.655882, 3, 45.5, 246, 46.8863, 0.200911, 0, 0, 0, 0, 67862
-1611.41, 260996, -378.104, 3.94536, -1349.7, 1.00058, 0.402352, 0.958125, 0.351078, 0.648177, 0.0001, 182, 246, 46.8863, 0.200911, 2.1342, 1, 0, 0, 67862
-1611.41, 260996, -378.104, 3.94536, -1349.7, 1.00058, 0.402352, 0.958125, 0.351078, 0.648177, 3, 182, 246, 46.8863, 0.200911, 1.958, 1, 0, 0, 67862
-2791.56, 84330.6, -232.026, 3.11017, -724.434, 0.000974703, 0.317358, 1.03299, 0.34851, 0.655882, 0.0001, 45.5, 246, 60.6531, 0.234706, 1.63024, 1, 1, 0, 67863
-2791.56, 84330.6, -232.026, 3.11017, -724.434, 0.000974703, 0.317358, 1.03299, 0.34851, 0.655882, 3, 45.5, 246, 60.6531, 0.234706, 1.50675, 1, 1, 0, 67863
-1006.08, 94959, -273.986, 3.38407, -748.767, 0.0473013, 0.327157, 0.993198, 0.349787, 0.651995, 0.0001, 91, 246, 60.6531, 0.234706, 1.86749, 1, 1, 1, 67863
-1006.08, 94959, -273.986, 3.38407, -748.767, 0.0473013, 0.327157, 0.993198, 0.349787, 0.651995, 3, 91, 246, 60.6531, 0.234706, 1.74874, 1, 1, 0, 67863
1348.57, 107234, -323.753, 3.7061, -785.625, 0.103273, 0.353498, 0.958125, 0.351078, 0.648177, 0.0001, 182, 246, 60.6531, 0.234706, 2.68106, 1, 1, 1, 67863
1348.57, 107234, -323.753, 3.7061, -785.625, 0.103273, 0.353498, 0.958125, 0.351078, 0.648177, 3, 182, 246, 60.6531, 0.234706, 2.53445, 1, 1, 1, 67863
-9467.56, 96578.1, -94.151, 3.26963, -660.172, -0.0487124, 0.205075, 1.03299, 0.34851, 0.655882, 0.0001, 45.5, 246, 27.5843, 0.0967141, 0, 0, 1, 0, 67864
-9467.56, 96578.1, -94.151, 3.26963, -660.172, -0.0487124, 0.205075, 1.03299, 0.34851, 0.655882, 3, 45.5, 246, 27.5843, 0.0967141, 0, 0, 1, 0, 67864
-8070.71, 103854, -122.962, 3.54817, -667.398, 0.00234203, 0.212399, 0.993198, 0.349787, 0.651995, 0.0001, 91, 246, 27.5843, 0.0967141, 0, 0, 1, 0, 67864
-8070.71, 103854, -122.962, 3.54817, -667.398, 0.00234203, 0.212399, 0.993198, 0.349787, 0.651995, 3, 91, 246, 27.5843, 0.0967141, 0, 0, 1, 0, 67864
-11353.2, 318947, -287.45, 1.25132, -804.942, -0.00608236, 0.556276, 1.03299, 0.34851, 0.655882, 0.0001, 45.5, 246, 41.5593, 0.22259, 0, 0, 0, 0, 67865
-11353.2, 318947, -287.45, 1.25132, -804.942, -0.00608236, 0.556276, 1.03299, 0.34851, 0.655882, 3, 45.5, 246, 41.5593, 0.22259, 0, 0, 0, 0, 67865
-7544.71, 157357, -269.569, 3.24629, -784.512, 0.396626, 0.339626, 1.03299, 0.34851, 0.655882, 0.0001, 45.5, 246, 50.4725, 0.217556, 1.28124, 1, 0, 0, 67866
-7544.71, 157357, -269.569, 3.24629, -784.512, 0.396626, 0.339626, 1.03299, 0.34851, 0.655882, 3, 45.5, 246, 50.4725, 0.217556, 1.1779, 1, 0, 0, 67866
-4455.79, 174254, -320.017, 3.6239, -867.917, 0.47836, 0.356681, 0.993198, 0.349787, 0.651995, 0.0001, 91, 246, 50.4725, 0.217556, 1.49852, 1, 1, 0, 67866
-4455.79, 174254, -320.017, 3.6239, -867.917, 0.47836, 0.356681, 0.993198, 0.349787, 0.651995, 3, 91, 246, 50.4725, 0.217556, 1.37581, 1, 1, 0, 67866
-312.813, 196349, -383.947, 4.09107, -980.903, 0.588058, 0.395498, 0.958125, 0.351078, 0.648177, 0.0001, 182, 246, 50.4725, 0.217556, 3.17039, 1, 0, 0, 67866
-312.813, 196349, -383.947, 4.09107, -980.903, 0.588058, 0.395498, 0.958125, 0.351078, 0.648177, 3, 182, 246, 50.4725, 0.217556, 2.95167, 1, 0, 0, 67866
-11855.3, 272521, -74.128, 1.37692, -1174.54, -0.00429703, 0.335908, 1.03299, 0.34851, 0.655882, 0.0001, 45.5, 246, 26.3087, 0.0718426, 0, 0, 1, 0, 67869
-11855.3, 272521, -74.128, 1.37692, -1174.54, -0.00429703, 0.335908, 1.03299, 0.34851, 0.655882, 3, 45.5, 246, 26.3087, 0.0718426, 0, 0, 1, 0, 67869
-9516.75, 82664.5, -23.1119, 1.65813, -890.801, -0.0121826, 0.313312, 1.03299, 0.34851, 0.655882, 3, 45.5, 246, 17.0806, 0.0647057, 0, 0, 1, 0, 67870
-2073.63, 265080, -398.286, 3.69442, -1036.35, 0.129385, 0.448895, 0.958125, 0.351078, 0.648177, 0.0001, 182, 246, 48.5335, 0.218748, 2.27152, 1, 0, 0, 67872
-2073.63, 265080, -398.286, 3.69442, -1036.35, 0.129385, 0.448895, 0.958125, 0.351078, 0.648177, 3, 182, 246, 48.5335, 0.218748, 2.09201, 1, 0, 0, 67872
-11585.2, 275894, -215.017, 1.86541, -1090.45, 0.169217, 0.431714, 1.03299, 0.34851, 0.655882, 0.0001, 45.5, 246, 39.8576, 0.174562, 0, 0, 0, 0, 67873
-11585.2, 275894, -215.017, 1.86541, -1090.45, 0.169217, 0.431714, 1.03299, 0.34851, 0.655882, 3, 45.5, 246, 39.8576, 0.174562, 0, 0, 0, 0, 67873
12.8758, 371715, -346.063, 2.39254, -1271.31, 0.258008, 0.422102, 0.9175, 0.352806, 0.64323, 3, 455, 246, 39.8576, 0.174562, 0, 0, 0, 0, 67873
-2692.71, 300164, -406.623, 4.15811, -1124.77, 0.414921, 0.397826, 0.958125, 0.351078, 0.648177, 0.0001, 182, 246, 45.1976, 0.189339, 2.47744, 1, 0, 0, 67874
-2692.71, 300164, -406.623, 4.15811, -1124.77, 0.414921, 0.397826, 0.958125, 0.351078, 0.648177, 3, 182, 246, 45.1976, 0.189339, 2.30373, 1, 0, 0, 67874
-8778.2, 127036, -119.577, 1.12248, -1135.67, -0.00123954, 0.424569, 1.03299, 0.34851, 0.655882, 0.0001, 45.5, 246, 37.4744, 0.221498, 0, 0, 1, 0, 67876
-8778.2, 127036, -119.577, 1.12248, -1135.67, -0.00123954, 0.424569, 1.03299, 0.34851, 0.655882, 3, 45.5, 246, 37.4744, 0.221498, 0, 0, 1, 0, 67876
-11868, 284293, -299.943, 1.7425, -756.002, 0.0122949, 0.555635, 1.03299, 0.34851, 0.655882, 0.0001, 45.5, 246, 44.463, 0.239862, 0, 0, 0, 0, 67877
-11868, 284293, -299.943, 1.7425, -756.002, 0.0122949, 0.555635, 1.03299, 0.34851, 0.655882, 3, 45.5, 246, 44.463, 0.239862, 0, 0, 0, 0, 67877
-7822.6, -16513, 3.30594, 2.38342, -916.91, 0.803189, 0.278762, 1.03299, 0.34851, 0.655882, 0.0001, 45.5, 246, 12.7637, 0.054192, 0, 0, 1, 0, 67880
-7822.6, -16513, 3.30594, 2.38342, -916.91, 0.803189, 0.278762, 1.03299, 0.34851, 0.655882, 3, 45.5, 246, 12.7637, 0.054192, 0, 0, 1, 0, 67880
-10528.5, 229511, -264.815, 2.24998, -906.103, -0.0236422, 0.485235, 1.03299, 0.34851, 0.655882, 0.0001, 45.5, 246, 46.8683, 0.236102, 0, 0, 0, 0, 67881
-10528.5, 229511, -264.815, 2.24998, -906.103, -0.0236422, 0.485235, 1.03299, 0.34851, 0.655882, 3, 45.5, 246, 46.8683, 0.236102, 0, 0, 0, 0, 67881
-8962.72, 199484, -349.109, 3.60583, -646.769, -0.0536963, 0.381677, 1.03299, 0.34851, 0.655882, 0.0001, 45.5, 246, 54.1182, 0.242771, 1.49308, 1, 0, 0, 67882
-8962.72, 199484, -349.109, 3.60583, -646.769, -0.0536963, 0.381677, 1.03299, 0.34851, 0.655882, 3, 45.5, 246, 54.1182, 0.242771, 1.44218, 1, 0, 0, 67882
-4521.32, 209008, -406.755, 3.95833, -681.911, 0.00909528, 0.413399, 0.993198, 0.349787, 0.651995, 0.0001, 91, 246, 54.1182, 0.242771, 1.95866, 1, 1, 1, 67882
-4521.32, 209008, -406.755, 3.95833, -681.911, 0.00909528, 0.413399, 0.993198, 0.349787, 0.651995, 3, 91, 246, 54.1182, 0.242771, 1.8811, 1, 1, 1, 67882
-10857.8, 192306, -104.721, 2.86931, -724.199, 0.237065, 0.244594, 0.993198, 0.349787, 0.651995, 0.0001, 91, 246, 22.4238, 0.0805621, 0, 0, 1, 0, 67884
-10857.8, 192306, -104.721, 2.86931, -724.199, 0.237065, 0.244594, 0.993198, 0.349787, 0.651995, 3, 91, 246, 22.4238, 0.0805621, 0, 0, 1, 0, 67884
-8314.57, 77144.8, -88.4017, 1.98825, -879.659, 0.01654, 0.334223, 1.03299, 0.34851, 0.655882, 3, 45.5, 246, 33.4259, 0.159549, 0, 0, 1, 0, 67886
-9167.79, 211441, -121.107, 1.60074, -1049.28, 0.0293951, 0.33209, 0.993198, 0.349787, 0.651995, 0.0001, 91, 246, 29.0698, 0.119044, 0, 0, 1, 0, 67888
-2958.23, 176196, -222.854, 4.03067, -1497.49, 1.32345, 0.311019, 0.9175, 0.352806, 0.64323, 0.0001, 455, 246, 28.7675, 0.10652, 0, 0, 0, 0, 67889
-2958.23, 176196, -222.854, 4.03067, -1497.49, 1.32345, 0.311019, 0.9175, 0.352806, 0.64323, 3, 455, 246, 28.7675, 0.10652, 0, 0, 0, 0, 67889
-2482.96, 205956, -338.308, 3.57817, -1015.19, 0.79405, 0.39482, 0.958125, 0.351078, 0.648177, 0.0001, 182, 246, 46.0935, 0.208219, 1.49945, 1, 0, 0, 67890
-2482.96, 205956, -338.308, 3.57817, -1015.19, 0.79405, 0.39482, 0.958125, 0.351078, 0.648177, 3, 182, 246, 46.0935, 0.208219, 1.3014, 1, 0, 0, 67890
-8840.79, 144420, -137.287, 1.40329, -1182.99, -0.00400331, 0.424083, 1.03299, 0.34851, 0.655882, 3, 45.5, 246, 39.0681, 0.211052, 0, 0, 1, 0, 67894
-9902.93, 69115.3, -7.03416, 3.11889, -671.42, -0.0448031, 0.199296, 1.03299, 0.34851, 0.655882, 0.0001, 45.5, 246, 12.6594, 0.0361682, 0, 0, 1, 0, 67897
-9902.93, 69115.3, -7.03416, 3.11889, -671.42, -0.0448031, 0.199296, 1.03299, 0.34851, 0.655882, 3, 45.5, 246, 12.6594, 0.0361682, 0, 0, 1, 0, 67897
-11269.9, 223660, -343.994, 3.27729, -688.521, 0.589465, 0.396143, 1.03299, 0.34851, 0.655882, 0.0001, 45.5, 246, 49.2527, 0.222775, 1.16977, 1, 0, 0, 67898
-11269.9, 223660, -343.994, 3.27729, -688.521, 0.589465, 0.396143, 1.03299, 0.34851, 0.655882, 3, 45.5, 246, 49.2527, 0.222775, 1.08295, 1, 0, 0, 67898
-6754.58, 243108, -399.957, 3.70873, -798.394, 0.708993, 0.419378, 0.993198, 0.349787, 0.651995, 0.0001, 91, 246, 49.2527, 0.222775, 1.49559, 1, 1, 0, 67898
-6754.58, 243108, -399.957, 3.70873, -798.394, 0.708993, 0.419378, 0.993198, 0.349787, 0.651995, 3, 91, 246, 49.2527, 0.222775, 1.4, 1, 1, 0, 67898
-11861.4, 309575, -332.855, 2.0179, -1071.53, 0.276649, 0.57579, 1.03299, 0.34851, 0.655882, 0.0001, 45.5, 246, 49.511, 0.239918, 0, 0, 0, 0, 67900
-9374.26, 90524.3, -35.7101, 1.45461, -1102.01, 0.285714, 0.328891, 1.03299, 0.34851, 0.655882, 0.0001, 45.5, 246, 21.3387, 0.0846663, 0, 0, 1, 0, 67902
-9374.26, 90524.3, -35.7101, 1.45461, -1102.01, 0.285714, 0.328891, 1.03299, 0.34851, 0.655882, 3, 45.5, 246, 21.3387, 0.0846663, 0, 0, 1, 0, 67902
-10446.1, 202102, -205.098, 1.63955, -597.019, 0.198636, 0.446082, 1.03299, 0.34851, 0.655882, 0.0001, 45.5, 246, 37.3087, 0.2061, 0, 0, 1, 0, 67906
-8002.12, 192795, -148.053, 0.105413, -1178.16, 0.010824, 0.469247, 1.03299, 0.34851, 0.655882, 0.0001, 45.5, 246, 36.8056, 0.220131, 0, 0, 0, 0, 67909
-8002.12, 192795, -148.053, 0.105413, -1178.16, 0.010824, 0.469247, 1.03299, 0.34851, 0.655882, 3, 45.5, 246, 36.8056, 0.220131, 0, 0, 0, 0, 67909
-12760.4, 155194, 14.8958, 2.46995, -1147.81, 0.00871208, 0.247335, 1.03299, 0.34851, 0.655882, 0.0001, 45.5, 246, 16.3841, 0.0251952, 0, 0, 1, 0, 67911
-12760.4, 155194, 14.8958, 2.46995, -1147.81, 0.00871208, 0.247335, 1.03299, 0.34851, 0.655882, 3, 45.5, 246, 16.3841, 0.0251952, 0, 0, 1, 0, 67911
-8479.35, 234289, -84.112, 0.345103, -1143.35, 0.000914694, 0.370213, 1.03299, 0.34851, 0.655882, 0.0001, 45.5, 246, 25.8519, 0.0896009, 0, 0, 1, 0, 67912
-8479.35, 234289, -84.112, 0.345103, -1143.35, 0.000914694, 0.370213, 1.03299, 0.34851, 0.655882, 3, 45.5, 246, 25.8519, 0.0896009, 0, 0, 1, 0, 67912
-10334.6, 115789, -47.565, 2.1669, -793.309, -0.0217644, 0.288673, 1.03299, 0.34851, 0.655882, 0.0001, 45.5, 246, 20.5949, 0.0769459, 0, 0, 1, 0, 67913
-10334.6, 115789, -47.565, 2.1669, -793.309, -0.0217644, 0.288673, 1.03299, 0.34851, 0.655882, 3, 45.5, 246, 20.5949, 0.0769459, 0, 0, 1, 0, 67913
-14412.9, 191026, 16.0481, 2.65574, -1160.99, -0.0163189, 0.22812, 1.03299, 0.34851, 0.655882, 0.0001, 45.5, 246, 17.6031, 0.0233671, 0, 0, 0, 0, 67914
-14412.9, 191026, 16.0481, 2.65574, -1160.99, -0.0163189, 0.22812, 1.03299, 0.34851, 0.655882, 3, 45.5, 246, 17.6031, 0.0233671, 0, 0, 0, 0, 67914
-11571.9, 231496, -74.5424, 1.27205, -651.443, 0.599468, 0.33524, 1.03299, 0.34851, 0.655882, 0.0001, 45.5, 246, 19.4307, 0.0709863, 0, 0, 1, 0, 67916
-11571.9, 231496, -74.5424, 1.27205, -651.443, 0.599468, 0.33524, 1.03299, 0.34851, 0.655882, 3, 45.5, 246, 19.4307, 0.0709863, 0, 0, 1, 0, 67916
-10410.7, 247616, -86.5074, 1.38194, -723.017, 0.670733, 0.306523, 0.993198, 0.349787, 0.651995, 3, 91, 246, 19.4307, 0.0709863, 0, 0, 1, 0, 67916
-8858.72, 266428, -150.221, 1.07807, -1007.08, 0.0552999, 0.367886, 0.993198, 0.349787, 0.651995, 0.0001, 91, 246, 30.7322, 0.132256, 0, 0, 1, 0, 67919
-8498.51, 273516, -116.537, 2.41876, -1217.28, 0.812618, 0.265976, 0.958125, 0.351078, 0.648177, 3, 182, 246, 23.5109, 0.0681821, 0, 0, 1, 0, 67921
-3305.74, 258242, -393.994, 4.04113, -809.008, 0.175653, 0.398646, 0.958125, 0.351078, 0.648177, 0.0001, 182, 246, 44.1765, 0.197187, 1.8643, 1, 0, 0, 67924
-3305.74, 258242, -393.994, 4.04113, -809.008, 0.175653, 0.398646, 0.958125, 0.351078, 0.648177, 3, 182, 246, 44.1765, 0.197187, 1.7029, 1, 0, 0, 67924
-9715.81, 140777, -55.7322, 2.50057, -1026.49, 0.678857, 0.25688, 0.993198, 0.349787, 0.651995, 0.0001, 91, 246, 19.8626, 0.060854, 0, 0, 1, 0, 67927
-8095.32, 167245, -85.8185, 2.78455, -1157.89, 0.794745, 0.253401, 0.958125, 0.351078, 0.648177, 0.0001, 182, 246, 19.8626, 0.060854, 0, 0, 1, 0, 67927
-8095.32, 167245, -85.8185, 2.78455, -1157.89, 0.794745, 0.253401, 0.958125, 0.351078, 0.648177, 3, 182, 246, 19.8626, 0.060854, 0, 0, 1, 0, 67927
-4791.28, 216841, -141.451, 3.26798, -1409.51, 1.01661, 0.269536, 0.9175, 0.352806, 0.64323, 0.0001, 455, 246, 19.8626, 0.060854, 0, 0, 0, 0, 67927
-4791.28, 216841, -141.451, 3.26798, -1409.51, 1.01661, 0.269536, 0.9175, 0.352806, 0.64323, 3, 455, 246, 19.8626, 0.060854, 0, 0, 0, 0, 67927
-11052, 92487.6, 19.3752, 2.98072, -828.428, -0.0104002, 0.205762, 1.03299, 0.34851, 0.655882, 0.0001, 45.5, 246, 10.5182, 0.0205802, 0, 0, 1, 0, 67928
-11052, 92487.6, 19.3752, 2.98072, -828.428, -0.0104002, 0.205762, 1.03299, 0.34851, 0.655882, 3, 45.5, 246, 10.5182, 0.0205802, 0, 0, 1, 0, 67928
-7710.68, 85681.4, -94.9504, 3.11579, -1093.98, 0.070004, 0.250018, 0.993198, 0.349787, 0.651995, 0.0001, 91, 246, 28.4604, 0.103826, 0, 0, 1, 0, 67929
-7710.68, 85681.4, -94.9504, 3.11579, -1093.98, 0.070004, 0.250018, 0.993198, 0.349787, 0.651995, 3, 91, 246, 28.4604, 0.103826, 0, 0, 1, 0, 67929
-8928.74, 65779.5, -7.11301, 0.559061, -800.775, -0.0011533, 0.340384, 1.03299, 0.34851, 0.655882, 0.0001, 45.5, 246, 9.85671, 0.0372805, 0, 0, 1, 0, 67938
-8928.74, 65779.5, -7.11301, 0.559061, -800.775, -0.0011533, 0.340384, 1.03299, 0.34851, 0.655882, 3, 45.5, 246, 9.85671, 0.0372805, 0, 0, 1, 0, 67938
-3639.31, 139323, -260.836, 4.04578, -803.418, 1.09827, 0.284878, 0.958125, 0.351078, 0.648177, 0.0001, 182, 246, 38.5425, 0.146854, 1.04331, 1, 1, 0, 67940
1494.76, 176408, -351.356, 5.07262, -1111.85, 1.58158, 0.372109, 0.9175, 0.352806, 0.64323, 0.0001, 455, 246, 38.5425, 0.146854, 3.39813, 1, 0, 0, 67940
1494.76, 176408, -351.356, 5.07262, -1111.85, 1.58158, 0.372109, 0.9175, 0.352806, 0.64323, 3, 455, 246, 38.5425, 0.146854, 3.41928, 1, 0, 0, 67940
-7969.84, 320361, -241.727, 0.773672, -1016.12, 0.38708, 0.472235, 0.993198, 0.349787, 0.651995, 0.0001, 91, 246, 37.6205, 0.187597, 0, 0, 1, 0, 67942
-3143.3, 74491.9, -197.326, 3.09332, -1090.65, 0.185401, 0.315508, 1.03299, 0.34851, 0.655882, 0.0001, 45.5, 246, 60.7148, 0.246046, 1.0441, 1, 1, 0, 67947
-1546.31, 98107.7, -247.569, 3.39887, -1146.9, 0.238641, 0.325125, 0.993198, 0.349787, 0.651995, 0.0001, 91, 246, 60.7148, 0.246046, 1.70842, 1, 1, 0, 67947
-1546.31, 98107.7, -247.569, 3.39887, -1146.9, 0.238641, 0.325125, 0.993198, 0.349787, 0.651995, 3, 91, 246, 60.7148, 0.246046, 1.56423, 1, 1, 0, 67947
873.608, 125631, -309.028, 3.76322, -1223.81, 0.306474, 0.352453, 0.958125, 0.351078, 0.648177, 0.0001, 182, 246, 60.7148, 0.246046, 3.1088, 1, 1, 1, 67947
873.608, 125631, -309.028, 3.76322, -1223.81, 0.306474, 0.352453, 0.958125, 0.351078, 0.648177, 3, 182, 246, 60.7148, 0.246046, 2.94259, 1, 1, 1, 67947
-9694.94, 114877, -118.629, 3.60905, -813.911, -0.0167907, 0.177505, 1.03299, 0.34851, 0.655882, 0.0001, 45.5, 246, 32.1823, 0.111674, 0, 0, 0, 0, 67950
-9694.94, 114877, -118.629, 3.60905, -813.911, -0.0167907, 0.177505, 1.03299, 0.34851, 0.655882, 3, 45.5, 246, 32.1823, 0.111674, 0, 0, 0, 0, 67950
-7726.38, 126544, -158.07, 3.94731, -829.401, 0.0458253, 0.195157, 0.993198, 0.349787, 0.651995, 0.0001, 91, 246, 32.1823, 0.111674, 0, 0, 1, 0, 67950
-7726.38, 126544, -158.07, 3.94731, -829.401, 0.0458253, 0.195157, 0.993198, 0.349787, 0.651995, 3, 91, 246, 32.1823, 0.111674, 0, 0, 1, 0, 67950
-446.516, 161330, -288.252, 5.06178, -935.34, 0.257878, 0.326697, 0.9175, 0.352806, 0.64323, 0.0001, 455, 246, 32.1823, 0.111674, 1.18664, 1, 0, 0, 67950
-446.516, 161330, -288.252, 5.06178, -935.34, 0.257878, 0.326697, 0.9175, 0.352806, 0.64323, 3, 455, 246, 32.1823, 0.111674, 1.18954, 1, 0, 0, 67950
-8796.07, 124221, -73.259, 0.57657, -1086.68, 0.0624868, 0.382115, 1.03299, 0.34851, 0.655882, 0.0001, 45.5, 246, 27.0807, 0.145724, 0, 0, 1, 0, 67951
-8796.07, 124221, -73.259, 0.57657, -1086.68, 0.0624868, 0.382115, 1.03299, 0.34851, 0.655882, 3, 45.5, 246, 27.0807, 0.145724, 0, 0, 1, 0, 67951
-9517.14, 56222.4, 0.947434, 3.08471, -783.229, 0.209146, 0.20193, 1.03299, 0.34851, 0.655882, 0.0001, 45.5, 246, 12.88, 0.0370609, 0, 0, 1, 0, 67953
-9517.14, 56222.4, 0.947434, 3.08471, -783.229, 0.209146, 0.20193, 1.03299, 0.34851, 0.655882, 3, 45.5, 246, 12.88, 0.0370609, 0, 0, 1, 0, 67953
-7016.36, 117888, -201.933, 2.37512, -751.562, 0.58985, 0.386484, 1.03299, 0.34851, 0.655882, 0.0001, 45.5, 246, 48.0055, 0.23046, 1.00967, 1, 1, 0, 67955
-3169.35, 154733, -276.482, 2.95697, -970.326, 0.801424, 0.390925, 0.958125, 0.351078, 0.648177, 0.0001, 182, 246, 48.0055, 0.23046, 1.12668, 1, 1, 0, 67955
-8914.67, 45662.8, -14.8249, 3.12216, -678.182, 0.0644742, 0.204121, 1.03299, 0.34851, 0.655882, 0.0001, 45.5, 246, 14.5887, 0.0435751, 0, 0, 1, 0, 67957
-8914.67, 45662.8, -14.8249, 3.12216, -678.182, 0.0644742, 0.204121, 1.03299, 0.34851, 0.655882, 3, 45.5, 246, 14.5887, 0.0435751, 0, 0, 1, 0, 67957
-4178.41, 369577, -480.214, 3.78027, -909.132, 0.0574825, 0.506598, 0.958125, 0.351078, 0.648177, 0.0001, 182, 246, 46.3798, 0.210833, 2.99114, 1, 0, 0, 67958
-4178.41, 369577, -480.214, 3.78027, -909.132, 0.0574825, 0.506598, 0.958125, 0.351078, 0.648177, 3, 182, 246, 46.3798, 0.210833, 2.78309, 1, 0, 0, 67958
-12085.1, 134790, -1.69335, 2.65307, -824.645, -0.0297416, 0.234461, 1.03299, 0.34851, 0.655882, 0.0001, 45.5, 246, 13.956, 0.0308725, 0, 0, 1, 0, 67960
-12085.1, 134790, -1.69335, 2.65307, -824.645, -0.0297416, 0.234461, 1.03299, 0.34851, 0.655882, 3, 45.5, 246, 13.956, 0.0308725, 0, 0, 1, 0, 67960
-10659.8, 146058, -22.4279, 2.84928, -823.751, 0.0034947, 0.225313, 0.993198, 0.349787, 0.651995, 0.0001, 91, 246, 13.956, 0.0308725, 0, 0, 1, 0, 67960
-10659.8, 146058, -22.4279, 2.84928, -823.751, 0.0034947, 0.225313, 0.993198, 0.349787, 0.651995, 3, 91, 246, 13.956, 0.0308725, 0, 0, 1, 0, 67960
-11559.3, 276693, -151.072, 1.4111, -939.864, 0.455907, 0.381499, 1.03299, 0.34851, 0.655882, 0.0001, 45.5, 246, 30.7937, 0.122903, 0, 0, 0, 0, 67963
-11559.3, 276693, -151.072, 1.4111, -939.864, 0.455907, 0.381499, 1.03299, 0.34851, 0.655882, 3, 45.5, 246, 30.7937, 0.122903, 0, 0, 0, 0, 67963
595.495, 357288, -337.476, 3.2441, -1341.92, 0.556217, 0.372823, 0.9175, 0.352806, 0.64323, 0.0001, 455, 246, 36.1768, 0.145622, 0, 0, 0, 0, 67964
595.495, 357288, -337.476, 3.2441, -1341.92, 0.556217, 0.372823, 0.9175, 0.352806, 0.64323, 3, 455, 246, 36.1768, 0.145622, 0, 0, 0, 0, 67964
-9316.4, 61174.6, -5.05945, 1.61601, -862.794, -0.00260265, 0.31138, 1.03299, 0.34851, 0.655882, 0.0001, 45.5, 246, 12.4407, 0.0438728, 0, 0, 1, 0, 67965
-10609.9, 79704.2, 6.02159, 3.4807, -822.268, 0.121365, 0.152691, 1.03299, 0.34851, 0.655882, 0.0001, 45.5, 246, 13.2914, 0.0329928, 0, 0, 0, 0, 67966
-10609.9, 79704.2, 6.02159, 3.4807, -822.268, 0.121365, 0.152691, 1.03299, 0.34851, 0.655882, 3, 45.5, 246, 13.2914, 0.0329928, 0, 0, 0, 0, 67966
-12246.4, 261548, -34.3235, 1.16673, -587.176, 0.55878, 0.322926, 1.03299, 0.34851, 0.655882, 0.0001, 45.5, 246, 13.8404, 0.033581, 0, 0, 1, 0, 67967
-12246.4, 261548, -34.3235, 1.16673, -587.176, 0.55878, 0.322926, 1.03299, 0.34851, 0.655882, 3, 45.5, 246, 13.8404, 0.033581, 0, 0, 1, 0, 67967
-9336, 90376.4, -72.7696, 2.58527, -864.899, 0.750511, 0.263467, 1.03299, 0.34851, 0.655882, 0.0001, 45.5, 246, 26.9145, 0.098359, 0, 0, 1, 0, 67968
-9336, 90376.4, -72.7696, 2.58527, -864.899, 0.750511, 0.263467, 1.03299, 0.34851, 0.655882, 3, 45.5, 246, 26.9145, 0.098359, 0, 0, 1, 0, 67968
-8290.5, 109398, -101.305, 2.90219, -990.601, 0.888962, 0.255883, 0.993198, 0.349787, 0.651995, 0.0001, 91, 246, 26.9145, 0.098359, 0, 0, 1, 0, 67968
-8290.5, 109398, -101.305, 2.90219, -990.601, 0.888962, 0.255883, 0.993198, 0.349787, 0.651995, 3, 91, 246, 26.9145, 0.098359, 0, 0, 1, 0, 67968
-6677.67, 135832, -139.726, 3.30063, -1167.09, 1.08334, 0.264141, 0.958125, 0.351078, 0.648177, 0.0001, 182, 246, 26.9145, 0.098359, 0, 0, 1, 0, 67968
-6677.67, 135832, -139.726, 3.30063, -1167.09, 1.08334, 0.264141, 0.958125, 0.351078, 0.648177, 3, 182, 246, 26.9145, 0.098359, 0, 0, 1, 0, 67968
-8422.78, 19480.8, -21.9097, 1.73044, -783.544, -0.00748657, 0.316191, 1.03299, 0.34851, 0.655882, 0.0001, 45.5, 246, 18.9803, 0.079218, 0, 0, 1, 1, 67969
-8150.01, -15056, 13.1413, 2.1121, -881.768, 0.669619, 0.294019, 1.03299, 0.34851, 0.655882, 3, 45.5, 246, 7.11648, 0.052608, 0, 0, 1, 0, 67972
-9029.12, 87035.5, -41.0095, 0.913154, -1005.39, 0.0567928, 0.351469, 1.03299, 0.34851, 0.655882, 0.0001, 45.5, 246, 21.2731, 0.10491, 0, 0, 1, 0, 67974
-9029.12, 87035.5, -41.0095, 0.913154, -1005.39, 0.0567928, 0.351469, 1.03299, 0.34851, 0.655882, 3, 45.5, 246, 21.2731, 0.10491, 0, 0, 1, 0, 67974
-4058.55, 249678, -358.412, 3.85929, -797.025, 0.0650913, 0.378154, 0.958125, 0.351078, 0.648177, 0.0001, 182, 246, 42.2933, 0.187941, 1.2653, 1, 0, 0, 67980
-4058.55, 249678, -358.412, 3.85929, -797.025, 0.0650913, 0.378154, 0.958125, 0.351078, 0.648177, 3, 182, 246, 42.2933, 0.187941, 1.02737, 1, 0, 0, 67980
-10715.4, 203405, -213.277, 2.81224, -1050.35, 0.0800545, 0.361432, 1.03299, 0.34851, 0.655882, 0.0001, 45.5, 246, 43.2721, 0.188236, 0, 0, 0, 0, 67983
-10715.4, 203405, -213.277, 2.81224, -1050.35, 0.0800545, 0.361432, 1.03299, 0.34851, 0.655882, 3, 45.5, 246, 43.2721, 0.188236, 0, 0, 0, 0, 67983
1773.27, 225593, -357.842, 5.31372, -950.687, 0.580875, 0.357356, 0.9175, 0.352806, 0.64323, 0.0001, 455, 246, 33.7902, 0.128424, 2.4712, 1, 0, 0, 67985
1773.27, 225593, -357.842, 5.31372, -950.687, 0.580875, 0.357356, 0.9175, 0.352806, 0.64323, 3, 455, 246, 33.7902, 0.128424, 2.54394, 1, 0, 0, 67985
-11405.9, 129283, -69.0044, 3.46738, -992.035, 0.0591298, 0.17465, 1.03299, 0.34851, 0.655882, 0.0001, 45.5, 246, 26.5932, 0.0845091, 0, 0, 0, 0, 67987
-11405.9, 129283, -69.0044, 3.46738, -992.035, 0.0591298, 0.17465, 1.03299, 0.34851, 0.655882, 3, 45.5, 246, 26.5932, 0.0845091, 0, 0, 0, 0, 67987
-9759.49, 175027, -185.031, 1.64539, -615.517, -0.0103312, 0.435658, 1.03299, 0.34851, 0.655882, 3, 45.5, 246, 38.1625, 0.213766, 0, 0, 1, 0, 67988
-8360.12, 182126, -205.718, 1.7446, -623.829, 0.00228089, 0.41982, 0.993198, 0.349787, 0.651995, 0.0001, 91, 246, 38.1625, 0.213766, 0, 0, 1, 0, 67988
-13656.3, 154618, 6.58609, 3.19847, -1182.6, -0.0458259, 0.180545, 1.03299, 0.34851, 0.655882, 0.0001, 45.5, 246, 19.046, 0.0375617, 0, 0, 0, 0, 67989
-13656.3, 154618, 6.58609, 3.19847, -1182.6, -0.0458259, 0.180545, 1.03299, 0.34851, 0.655882, 3, 45.5, 246, 19.046, 0.0375617, 0, 0, 0, 0, 67989
-11506.9, 178143, -28.7568, 3.46417, -1179.43, 0.00292586, 0.184108, 0.993198, 0.349787, 0.651995, 0.0001, 91, 246, 19.046, 0.0375617, 0, 0, 1, 0, 67989
-11506.9, 178143, -28.7568, 3.46417, -1179.43, 0.00292586, 0.184108, 0.993198, 0.349787, 0.651995, 3, 91, 246, 19.046, 0.0375617, 0, 0, 1, 0, 67989
-10734.8, 254950, -147.913, 1.13117, -794.25, 0.706213, 0.391292, 1.03299, 0.34851, 0.655882, 0.0001, 45.5, 246, 28.761, 0.126544, 0, 0, 1, 0, 67990
-10734.8, 254950, -147.913, 1.13117, -794.25, 0.706213, 0.391292, 1.03299, 0.34851, 0.655882, 3, 45.5, 246, 28.761, 0.126544, 0, 0, 1, 0, 67990
-9419.83, 278265, -164.24, 1.23531, -899.626, 0.801841, 0.365137, 0.993198, 0.349787, 0.651995, 3, 91, 246, 28.761, 0.126544, 0, 0, 1, 0, 67990
-7709.02, 308273, -183.542, 1.35615, -1037.13, 0.926623, 0.344859, 0.958125, 0.351078, 0.648177, 0.0001, 182, 246, 28.761, 0.126544, 0, 0, 1, 0, 67990
-7945.03, 284762, -261.459, 1.29005, -1081.2, 0.154693, 0.501146, 0.993198, 0.349787, 0.651995, 3, 91, 246, 42.6821, 0.219479, 0, 0, 1, 0, 67991
-10610.5, 300633, -118.628, 0.914473, -977.589, 0.697268, 0.369894, 1.03299, 0.34851, 0.655882, 0.0001, 45.5, 246, 27.2545, 0.0902161, 0, 0, 1, 0, 67992
-10610.5, 300633, -118.628, 0.914473, -977.589, 0.697268, 0.369894, 1.03299, 0.34851, 0.655882, 3, 45.5, 246, 27.2545, 0.0902161, 0, 0, 1, 0, 67992
-9422.71, 331995, -132.817, 0.993468, -1102.35, 0.788097, 0.339869, 0.993198, 0.349787, 0.651995, 0.0001, 91, 246, 27.2545, 0.0902161, 0, 0, 1, 0, 67992
-9422.71, 331995, -132.817, 0.993468, -1102.35, 0.788097, 0.339869, 0.993198, 0.349787, 0.651995, 3, 91, 246, 27.2545, 0.0902161, 0, 0, 1, 0, 67992
-7860.03, 372285, -149.593, 1.08398, -1263.77, 0.905617, 0.315107, 0.958125, 0.351078, 0.648177, 3, 182, 246, 27.2545, 0.0902161, 0, 0, 1, 0, 67992
-9341.62, 204140, -258.913, 2.44003, -1073.4, 0.168624, 0.472282, 1.03299, 0.34851, 0.655882, 3, 45.5, 246, 49.9079, 0.243593, 0, 0, 0, 0, 67995
-9501.52, 86586.9, -55.5373, 2.67057, -899.801, 0.0291865, 0.258628, 1.03299, 0.34851, 0.655882, 0.0001, 45.5, 246, 24.4894, 0.0893043, 0, 0, 1, 0, 67998
-9501.52, 86586.9, -55.5373, 2.67057, -899.801, 0.0291865, 0.258628, 1.03299, 0.34851, 0.655882, 3, 45.5, 246, 24.4894, 0.0893043, 0, 0, 1, 0, 67998
-7.77656, 244012, -354.567, 3.79156, -700.192, 0.192661, 0.396285, 0.9175, 0.352806, 0.64323, 0.0001, 455, 246, 36.2987, 0.169078, 1.08073, 1, 0, 0, 67999
-7.77656, 244012, -354.567, 3.79156, -700.192, 0.192661, 0.396285, 0.9175, 0.352806, 0.64323, 3, 455, 246, 36.2987, 0.169078, 1.09826, 1, 0, 0, 67999
