-9556.43, 132404, -142.065, 2.542, -653.619, -0.0272985, 0.311932, 1.03299, 0.34851, 0.655882, 0.0001, 45.5, 246, 34.1881, 0.153684, 0, 0, 1, 0, -1.04272e-05, 10003
-9556.43, 132404, -142.065, 2.542, -653.619, -0.0272985, 0.311932, 1.03299, 0.34851, 0.655882, 3, 45.5, 246, 34.1881, 0.153684, 0, 0, 1, 0, -3.41754e-06, 10003
-9185.02, 582126, -303.921, 2.48795, -1231.25, 0.256268, 0.344227, 0.958125, 0.351078, 0.648177, 0.0001, 182, 246, 35.5639, 0.106306, 0, 0, 0, 0, 2.37753e-05, 10006
-9185.02, 582126, -303.921, 2.48795, -1231.25, 0.256268, 0.344227, 0.958125, 0.351078, 0.648177, 3, 182, 246, 35.5639, 0.106306, 0, 0, 0, 0, 3.55088e-05, 10006
-9182.37, 95037.1, -88.3985, 2.77688, -793.319, -0.0363587, 0.261354, 1.03299, 0.34851, 0.655882, 0.0001, 45.5, 246, 29.1041, 0.112224, 0, 0, 1, 0, 1.45266e-05, 10012
-9182.37, 95037.1, -88.3985, 2.77688, -793.319, -0.0363587, 0.261354, 1.03299, 0.34851, 0.655882, 3, 45.5, 246, 29.1041, 0.112224, 0, 0, 1, 0, 1.42249e-06, 10012
-6523.44, 117201, -148.371, 3.23482, -812.226, 0.0427435, 0.266069, 0.958125, 0.351078, 0.648177, 3, 182, 246, 29.1041, 0.112224, 0, 0, 1, 0, -8.78895e-06, 10012
-11456, 230130, -44.8583, 1.25783, -836.063, -0.00555754, 0.327363, 1.03299, 0.34851, 0.655882, 0.0001, 45.5, 246, 18.704, 0.0527856, 0, 0, 1, 0, -1.74442e-05, 10013
-11456, 230130, -44.8583, 1.25783, -836.063, -0.00555754, 0.327363, 1.03299, 0.34851, 0.655882, 3, 45.5, 246, 18.704, 0.0527856, 0, 0, 1, 0, -2.58382e-05, 10013
-10381.2, 242195, -56.7909, 1.32035, -837.527, 0.00173807, 0.297646, 0.993198, 0.349787, 0.651995, 0.0001, 91, 246, 18.704, 0.0527856, 0, 0, 1, 0, 6.87324e-06, 10013
-9205.73, 681027, -340.513, 0.129811, -604.8, 0.0962058, 0.502966, 1.03299, 0.34851, 0.655882, 0.0001, 45.5, 246, 28.4807, 0.128442, 0, 0, 0, 0, -4.59112e-05, 10022
-8559.56, 220197, -175.755, 0.56438, -1038.87, 0.0335404, 0.479792, 1.03299, 0.34851, 0.655882, 0.0001, 45.5, 246, 38.0176, 0.212305, 0, 0, 0, 0, -4.52671e-07, 10030
-8559.56, 220197, -175.755, 0.56438, -1038.87, 0.0335404, 0.479792, 1.03299, 0.34851, 0.655882, 3, 45.5, 246, 38.0176, 0.212305, 0, 0, 0, 0, 1.64936e-05, 10030
-5755.91, 866424, -428.731, 0.0213746, -955.749, 0.23305, 0.534802, 1.03299, 0.34851, 0.655882, 0.0001, 45.5, 246, 36.3929, 0.122709, 0, 0, 0, 0, 1.93422e-05, 10033
-5755.91, 866424, -428.731, 0.0213746, -955.749, 0.23305, 0.534802, 1.03299, 0.34851, 0.655882, 3, 45.5, 246, 36.3929, 0.122709, 0, 0, 0, 0, 0.000113334, 10033
-10797.9, 157088, -14.3678, 1.46219, -1117.75, -0.00867105, 0.315122, 1.03299, 0.34851, 0.655882, 0.0001, 45.5, 246, 17.9956, 0.0406045, 0, 0, 1, 0, -1.17476e-06, 10035
-10797.9, 157088, -14.3678, 1.46219, -1117.75, -0.00867105, 0.315122, 1.03299, 0.34851, 0.655882, 3, 45.5, 246, 17.9956, 0.0406045, 0, 0, 1, 0, 8.98792e-06, 10035
-7587.23, 771231, -276.708, 0.26459, -1099.49, 0.066492, 0.434789, 1.03299, 0.34851, 0.655882, 0.0001, 45.5, 246, 34.6796, 0.0911327, 0, 0, 0, 0, 3.59776e-05, 10042
-7587.23, 771231, -276.708, 0.26459, -1099.49, 0.066492, 0.434789, 1.03299, 0.34851, 0.655882, 3, 45.5, 246, 34.6796, 0.0911327, 0, 0, 0, 0, -2.79756e-05, 10042
-10765.4, 168456, -120.214, 1.83979, -575.852, 0.307146, 0.3421, 1.03299, 0.34851, 0.655882, 0.0001, 45.5, 246, 26.9129, 0.129327, 0, 0, 1, 0, -3.17508e-05, 10045
-10765.4, 168456, -120.214, 1.83979, -575.852, 0.307146, 0.3421, 1.03299, 0.34851, 0.655882, 3, 45.5, 246, 26.9129, 0.129327, 0, 0, 1, 0, 0.000120952, 10045
-3210.14, 195138, -321.324, 4.34503, -886.827, 0.975704, 0.307272, 0.958125, 0.351078, 0.648177, 0.0001, 182, 246, 39.9005, 0.160786, 1.32823, 1, 0, 0, -2.88668e-05, 10047
-3210.14, 195138, -321.324, 4.34503, -886.827, 0.975704, 0.307272, 0.958125, 0.351078, 0.648177, 3, 182, 246, 39.9005, 0.160786, 1.13115, 1, 0, 0, -3.82091e-06, 10047
-5983.69, 693373, -393.638, 0.16082, -1133.16, 0.000384374, 0.557076, 1.03299, 0.34851, 0.655882, 0.0001, 45.5, 246, 41.058, 0.147619, 0, 0, 0, 0, 0.00068751, 10051
-5983.69, 693373, -393.638, 0.16082, -1133.16, 0.000384374, 0.557076, 1.03299, 0.34851, 0.655882, 3, 45.5, 246, 41.058, 0.147619, 0, 0, 0, 0, 0.000701665, 10051
-7944.58, 36392.9, -48.6347, 3.01645, -638.204, 0.685491, 0.21343, 1.03299, 0.34851, 0.655882, 3, 45.5, 246, 22.2455, 0.0594792, 0, 0, 1, 0, -1.30784e-05, 10054
-7518.82, 45736.8, -72.5084, 3.39763, -723.75, 0.819353, 0.215139, 0.993198, 0.349787, 0.651995, 0.0001, 91, 246, 22.2455, 0.0594792, 0, 0, 1, 0, -2.19746e-06, 10054
-7518.82, 45736.8, -72.5084, 3.39763, -723.75, 0.819353, 0.215139, 0.993198, 0.349787, 0.651995, 3, 91, 246, 22.2455, 0.0594792, 0, 0, 1, 0, 7.72841e-07, 10054
-6779.48, 58617.6, -104.948, 3.8823, -844.43, 1.00797, 0.237286, 0.958125, 0.351078, 0.648177, 0.0001, 182, 246, 22.2455, 0.0594792, 0, 0, 1, 0, -1.79815e-05, 10054
-6779.48, 58617.6, -104.948, 3.8823, -844.43, 1.00797, 0.237286, 0.958125, 0.351078, 0.648177, 3, 182, 246, 22.2455, 0.0594792, 0, 0, 1, 0, 7.91963e-05, 10054
-4947.44, 86002, -170.581, 4.79327, -1105.89, 1.41493, 0.309178, 0.9175, 0.352806, 0.64323, 0.0001, 455, 246, 22.2455, 0.0594792, 0, 0, 1, 0, 5.72247e-05, 10054
-4947.44, 86002, -170.581, 4.79327, -1105.89, 1.41493, 0.309178, 0.9175, 0.352806, 0.64323, 3, 455, 246, 22.2455, 0.0594792, 0, 0, 1, 0, -2.29071e-05, 10054
-11991.2, 390852, -371.293, 1.43128, -1073.88, 0.00460997, 0.648976, 1.03299, 0.34851, 0.655882, 0.0001, 45.5, 246, 48.8398, 0.239382, 0, 0, 0, 0, 1.76247e-05, 10055
1438.15, 279150, -392.926, 3.98146, -810.457, 0.193763, 0.415476, 0.9175, 0.352806, 0.64323, 0.0001, 455, 246, 37.7919, 0.170922, 2.23475, 1, 0, 0, 7.12572e-06, 10057
1438.15, 279150, -392.926, 3.98146, -810.457, 0.193763, 0.415476, 0.9175, 0.352806, 0.64323, 3, 455, 246, 37.7919, 0.170922, 2.83583, 1, 0, 0, 4.5098e-06, 10057
-7850.28, 306824, -400.556, 3.93583, -1172.71, 0.182675, 0.415331, 0.993198, 0.349787, 0.651995, 0.0001, 91, 246, 51.1291, 0.213422, 1.17005, 1, 1, 0, -9.10841e-06, 10065
-7850.28, 306824, -400.556, 3.93583, -1172.71, 0.182675, 0.415331, 0.993198, 0.349787, 0.651995, 3, 91, 246, 51.1291, 0.213422, 1.05296, 1, 1, 0, -8.7014e-06, 10065
-10365.6, 266909, -163.775, 1.13117, -925.529, 0.00670294, 0.416201, 1.03299, 0.34851, 0.655882, 0.0001, 45.5, 246, 32.6916, 0.149813, 0, 0, 1, 0, -1.47151e-05, 10067
-10365.6, 266909, -163.775, 1.13117, -925.529, 0.00670294, 0.416201, 1.03299, 0.34851, 0.655882, 3, 45.5, 246, 32.6916, 0.149813, 0, 0, 1, 0, 3.62237e-05, 10067
-8980.92, 282520, -181.642, 1.18828, -932.214, 0.0126218, 0.391791, 0.993198, 0.349787, 0.651995, 0.0001, 91, 246, 32.6916, 0.149813, 0, 0, 1, 0, -1.79788e-05, 10067
-8980.92, 282520, -181.642, 1.18828, -932.214, 0.0126218, 0.391791, 0.993198, 0.349787, 0.651995, 3, 91, 246, 32.6916, 0.149813, 0, 0, 1, 0, -4.9947e-06, 10067
-7319.76, 298621, -200.69, 1.24692, -940.687, 0.0191692, 0.372587, 0.958125, 0.351078, 0.648177, 0.0001, 182, 246, 32.6916, 0.149813, 0, 0, 1, 0, 2.11488e-06, 10067
-10181.5, 645804, -236.619, 0.401063, -802.978, 0.00289522, 0.423517, 1.03299, 0.34851, 0.655882, 0.0001, 45.5, 246, 28.2733, 0.0951886, 0, 0, 0, 0, -1.44784e-05, 10070
-10181.5, 645804, -236.619, 0.401063, -802.978, 0.00289522, 0.423517, 1.03299, 0.34851, 0.655882, 3, 45.5, 246, 28.2733, 0.0951886, 0, 0, 0, 0, 5.05902e-05, 10070
-10190.3, 400472, -220.205, 0.549927, -694.53, 0.590843, 0.443456, 1.03299, 0.34851, 0.655882, 0.0001, 45.5, 246, 28.6721, 0.129403, 0, 0, 1, 0, 2.06506e-05, 10074
-10190.3, 400472, -220.205, 0.549927, -694.53, 0.590843, 0.443456, 1.03299, 0.34851, 0.655882, 3, 45.5, 246, 28.6721, 0.129403, 0, 0, 1, 0, -2.76869e-05, 10074
-8988.68, 424145, -232.712, 0.590862, -769.713, 0.653263, 0.416645, 0.993198, 0.349787, 0.651995, 3, 91, 246, 28.6721, 0.129403, 0, 0, 1, 0, 4.12073e-05, 10074
-9144.8, 148354, -183.91, 2.19459, -716.187, 0.652448, 0.376372, 1.03299, 0.34851, 0.655882, 3, 45.5, 246, 39.5315, 0.191083, 0, 0, 1, 0, 4.46562e-06, 10085
-2647, 616181, -280.344, 2.56846, -1021.36, 0.0649557, 0.297594, 0.9175, 0.352806, 0.64323, 3, 455, 246, 29.5329, 0.079601, 0, 0, 0, 0, 2.51248e-06, 10086
-9333.29, 170777, -206.98, 2.2299, -864.978, 0.530132, 0.407752, 1.03299, 0.34851, 0.655882, 3, 45.5, 246, 42.8614, 0.20845, 0, 0, 1, 0, -0.000124332, 10092
-264.644, 418021, -409.099, 1.17289, -1211.84, 0.0124961, 0.618647, 0.9175, 0.352806, 0.64323, 3, 455, 246, 48.1603, 0.246995, 0, 0, 0, 0, -4.80901e-06, 10097
-10105.2, 320932, -442.333, 3.4915, -841.267, 0.906688, 0.480283, 0.993198, 0.349787, 0.651995, 0.0001, 91, 246, 46.7178, 0.216657, 1.16572, 1, 1, 0, 2.03143e-05, 10106
-10105.2, 320932, -442.333, 3.4915, -841.267, 0.906688, 0.480283, 0.993198, 0.349787, 0.651995, 3, 91, 246, 46.7178, 0.216657, 1.05098, 1, 1, 0, 2.63975e-05, 10106
-9053.34, 32521.6, 31.4898, 3.39328, -1165.62, 0.0358269, 0.176524, 1.03299, 0.34851, 0.655882, 0.0001, 45.5, 246, 12.3074, 0.0400529, 1.34671, 1, 0, 0, 1.87669e-05, 10107
-9053.34, 32521.6, 31.4898, 3.39328, -1165.62, 0.0358269, 0.176524, 1.03299, 0.34851, 0.655882, 3, 45.5, 246, 12.3074, 0.0400529, 1.28265, 1, 0, 0, -7.84727e-06, 10107
-8557.83, 56149.1, -3.70262, 3.70565, -1175.92, 0.0916961, 0.186593, 0.993198, 0.349787, 0.651995, 0.0001, 91, 246, 12.3074, 0.0400529, 1.01794, 1, 1, 0, 3.1013e-06, 10107
-8670.22, 56389.4, -48.96, 1.89077, -675.432, 0.0156651, 0.311361, 1.03299, 0.34851, 0.655882, 0.0001, 45.5, 246, 23.2042, 0.100589, 0, 0, 1, 0, -7.49964e-06, 10109
-8670.22, 56389.4, -48.96, 1.89077, -675.432, 0.0156651, 0.311361, 1.03299, 0.34851, 0.655882, 3, 45.5, 246, 23.2042, 0.100589, 0, 0, 1, 0, -6.86777e-06, 10109
-6638.21, -11558.1, -25.8384, 3.2952, -811.655, 0.171959, 0.207067, 1.03299, 0.34851, 0.655882, 0.0001, 45.5, 246, 22.3104, 0.0298328, 0, 0, 1, 1, 1.81211e-05, 10112
-6638.21, -11558.1, -25.8384, 3.2952, -811.655, 0.171959, 0.207067, 1.03299, 0.34851, 0.655882, 3, 45.5, 246, 22.3104, 0.0298328, 0, 0, 1, 1, 2.37593e-05, 10112
-6081.04, 386772, -499.33, 3.98394, -744.198, 0.0632855, 0.501225, 0.958125, 0.351078, 0.648177, 0.0001, 182, 246, 43.5715, 0.204195, 2.39267, 1, 0, 0, 2.01595e-05, 10121
-6081.04, 386772, -499.33, 3.98394, -744.198, 0.0632855, 0.501225, 0.958125, 0.351078, 0.648177, 3, 182, 246, 43.5715, 0.204195, 2.30229, 1, 0, 0, -6.50148e-06, 10121
-10027.7, 350207, -158.123, 0.778444, -1016.11, -0.00261436, 0.40288, 1.03299, 0.34851, 0.655882, 0.0001, 45.5, 246, 30.7419, 0.115064, 0, 0, 0, 0, 2.64159e-06, 10124
-10027.7, 350207, -158.123, 0.778444, -1016.11, -0.00261436, 0.40288, 1.03299, 0.34851, 0.655882, 3, 45.5, 246, 30.7419, 0.115064, 0, 0, 0, 0, -9.76759e-06, 10124
-8797.74, 368714, -172.148, 0.811735, -1019.37, 0.000161365, 0.374153, 0.993198, 0.349787, 0.651995, 3, 91, 246, 30.7419, 0.115064, 0, 0, 1, 0, -3.30986e-06, 10124
-7346.17, 387511, -186.743, 0.84491, -1023.55, 0.00317397, 0.350034, 0.958125, 0.351078, 0.648177, 0.0001, 182, 246, 30.7419, 0.115064, 0, 0, 1, 0, 1.55686e-06, 10124
-11209, 346959, -325.261, 1.4159, -1061.53, -0.00656429, 0.600201, 1.03299, 0.34851, 0.655882, 0.0001, 45.5, 246, 47.0632, 0.233767, 0, 0, 0, 0, 1.47476e-05, 10126
-11209, 346959, -325.261, 1.4159, -1061.53, -0.00656429, 0.600201, 1.03299, 0.34851, 0.655882, 3, 45.5, 246, 47.0632, 0.233767, 0, 0, 0, 0, -9.86125e-06, 10126
-9949.07, 112971, -86.5903, 2.44159, -603.174, -0.0237854, 0.282595, 1.03299, 0.34851, 0.655882, 0.0001, 45.5, 246, 25.3099, 0.105769, 0, 0, 1, 0, 3.93684e-06, 10127
-9949.07, 112971, -86.5903, 2.44159, -603.174, -0.0237854, 0.282595, 1.03299, 0.34851, 0.655882, 3, 45.5, 246, 25.3099, 0.105769, 0, 0, 1, 0, 1.83599e-06, 10127
-8815.51, 119095, -106.72, 2.61567, -608.64, 0.00428538, 0.271227, 0.993198, 0.349787, 0.651995, 0.0001, 91, 246, 25.3099, 0.105769, 0, 0, 1, 0, -5.7083e-06, 10127
-9050.81, 120470, -63.2605, 0.904937, -1067.4, -0.00376687, 0.363058, 1.03299, 0.34851, 0.655882, 0.0001, 45.5, 246, 25.2713, 0.121769, 0, 0, 1, 0, 1.02341e-05, 10135
-9050.81, 120470, -63.2605, 0.904937, -1067.4, -0.00376687, 0.363058, 1.03299, 0.34851, 0.655882, 3, 45.5, 246, 25.2713, 0.121769, 0, 0, 1, 0, 9.60667e-06, 10135
-7024.51, 427327, -355.054, 0.052391, -938.613, 0.457159, 0.62305, 1.03299, 0.34851, 0.655882, 0.0001, 45.5, 246, 41.6263, 0.212173, 3.2885, 1, 0, 0, 998.953, 10139
-7024.51, 427327, -355.054, 0.052391, -938.613, 0.457159, 0.62305, 1.03299, 0.34851, 0.655882, 3, 45.5, 246, 41.6263, 0.212173, 3.2898, 1, 0, 0, -1000.67, 10139
-5993.53, 457350, -368.156, 0.0556281, -1012.23, 0.49277, 0.611802, 0.993198, 0.349787, 0.651995, 0.0001, 91, 246, 41.6263, 0.212173, 4.91552, 1, 1, 0, -9.10545e-05, 10139
-5993.53, 457350, -368.156, 0.0556281, -1012.23, 0.49277, 0.611802, 0.993198, 0.349787, 0.651995, 3, 91, 246, 41.6263, 0.212173, 4.91733, 1, 1, 0, 1.44943e-05, 10139
-8278.19, 174358, -284.702, 3.4191, -761.036, -0.0563186, 0.3465, 1.03299, 0.34851, 0.655882, 0.0001, 45.5, 246, 51.1598, 0.224572, 1.27925, 1, 0, 0, -1.10282e-05, 10146
-8278.19, 174358, -284.702, 3.4191, -761.036, -0.0563186, 0.3465, 1.03299, 0.34851, 0.655882, 3, 45.5, 246, 51.1598, 0.224572, 1.18608, 1, 0, 0, -5.90325e-06, 10146
-4789, 185849, -336.818, 3.73487, -786.721, -8.50805e-05, 0.368641, 0.993198, 0.349787, 0.651995, 0.0001, 91, 246, 51.1598, 0.224572, 1.55817, 1, 1, 0, 2.97767e-06, 10146
-4789, 185849, -336.818, 3.73487, -786.721, -8.50805e-05, 0.368641, 0.993198, 0.349787, 0.651995, 3, 91, 246, 51.1598, 0.224572, 1.44432, 1, 1, 0, 7.6008e-06, 10146
-359.077, 199789, -399.433, 4.11377, -828.845, 0.0675805, 0.410799, 0.958125, 0.351078, 0.648177, 0.0001, 182, 246, 51.1598, 0.224572, 3.40376, 1, 0, 0, 5.55513e-07, 10146
-359.077, 199789, -399.433, 4.11377, -828.845, 0.0675805, 0.410799, 0.958125, 0.351078, 0.648177, 3, 182, 246, 51.1598, 0.224572, 3.15874, 1, 0, 0, 1.83827e-06, 10146
-8674.12, -1597.52, -1.56323, 1.69457, -1035.52, 0.379267, 0.293925, 0.993198, 0.349787, 0.651995, 3, 91, 246, 4.47746, 0.0573717, 0, 0, 1, 1, -1.43183e-05, 10150
-8879.62, 527469, -148.169, 0.764866, -852.337, 0.100174, 0.30536, 0.958125, 0.351078, 0.648177, 3, 182, 246, 23.8493, 0.0657144, 0, 0, 1, 0, -1.53809e-05, 10151
-6528.01, 146553, -264.697, 3.54365, -846.964, -0.035734, 0.309893, 1.03299, 0.34851, 0.655882, 0.0001, 45.5, 246, 52.8199, 0.219659, 1.351, 1, 0, 0, 3.21406e-06, 10158
-6528.01, 146553, -264.697, 3.54365, -846.964, -0.035734, 0.309893, 1.03299, 0.34851, 0.655882, 3, 45.5, 246, 52.8199, 0.219659, 1.25869, 1, 0, 0, -2.41462e-06, 10158
-3415.42, 160641, -319.277, 3.88105, -874.584, 0.024694, 0.333799, 0.993198, 0.349787, 0.651995, 0.0001, 91, 246, 52.8199, 0.219659, 1.66921, 1, 1, 0, -1.76916e-05, 10158
-3415.42, 160641, -319.277, 3.88105, -874.584, 0.024694, 0.333799, 0.993198, 0.349787, 0.651995, 3, 91, 246, 52.8199, 0.219659, 1.56489, 1, 1, 0, 1.13411e-05, 10158
656.068, 177348, -385.415, 4.28927, -920.935, 0.0984018, 0.379219, 0.958125, 0.351078, 0.648177, 0.0001, 182, 246, 52.8199, 0.219659, 4.14691, 1, 0, 0, -5.07774e-06, 10158
656.068, 177348, -385.415, 4.28927, -920.935, 0.0984018, 0.379219, 0.958125, 0.351078, 0.648177, 3, 182, 246, 52.8199, 0.219659, 3.80826, 1, 0, 0, 1.37139e-05, 10158
-9536.14, 53580.1, 8.3342, 2.59984, -1107.3, 0.286505, 0.249319, 1.03299, 0.34851, 0.655882, 0.0001, 45.5, 246, 14.7819, 0.0453817, 1.01983, 1, 1, 0, -4.26074e-06, 10169
-6033.49, 78806.3, -135.179, 3.5586, -976.919, 0.197714, 0.285569, 0.9175, 0.352806, 0.64323, 3, 455, 246, 21.9025, 0.0731206, 0, 0, 1, 0, 9.1609e-06, 10171
-9240.73, 112115, -108.306, 2.53753, -834.071, -0.0299004, 0.296811, 1.03299, 0.34851, 0.655882, 0.0001, 45.5, 246, 32.3313, 0.136602, 0, 0, 1, 0, 2.00335e-05, 10172
-9240.73, 112115, -108.306, 2.53753, -834.071, -0.0299004, 0.296811, 1.03299, 0.34851, 0.655882, 3, 45.5, 246, 32.3313, 0.136602, 0, 0, 1, 0, 9.23779e-06, 10172
-13921.9, 155370, -10.4125, 3.46961, -1090.17, 0.225486, 0.145899, 1.03299, 0.34851, 0.655882, 0.0001, 45.5, 246, 20.45, 0.0455628, 0, 0, 0, 0, -1.29386e-05, 10173
-13921.9, 155370, -10.4125, 3.46961, -1090.17, 0.225486, 0.145899, 1.03299, 0.34851, 0.655882, 3, 45.5, 246, 20.45, 0.0455628, 0, 0, 0, 0, -4.47018e-06, 10173
-9805.51, 433812, -252.186, 0.72123, -1042.57, 0.0142726, 0.478406, 1.03299, 0.34851, 0.655882, 0.0001, 45.5, 246, 36.7637, 0.149892, 0, 0, 0, 0, 3.02438e-06, 10175
-9805.51, 433812, -252.186, 0.72123, -1042.57, 0.0142726, 0.478406, 1.03299, 0.34851, 0.655882, 3, 45.5, 246, 36.7637, 0.149892, 0, 0, 0, 0, -3.23883e-05, 10175
-6714.28, -6360.01, -44.3443, 3.04181, -638.158, -0.0384241, 0.232871, 1.03299, 0.34851, 0.655882, 3, 45.5, 246, 27.3152, 0.00420901, 0, 0, 1, 1, -9.86665e-06, 10179
-7555.88, 113508, -164.972, 3.11998, -1042.1, -0.000670181, 0.290694, 1.03299, 0.34851, 0.655882, 3, 45.5, 246, 43.9184, 0.180378, 0, 0, 1, 0, -1.98556e-05, 10182
-5654.93, 133283, -210.452, 3.39257, -1061.82, 0.0459075, 0.298892, 0.993198, 0.349787, 0.651995, 3, 91, 246, 43.9184, 0.180378, 0, 0, 1, 0, 1.44394e-05, 10182
-3023.59, 154950, -264.484, 3.7128, -1096.43, 0.102087, 0.323551, 0.958125, 0.351078, 0.648177, 0.0001, 182, 246, 43.9184, 0.180378, 1.10176, 1, 1, 0, 7.32293e-06, 10182
-8216.84, -18298.3, -1.94237, 2.63246, -855.641, 0.0108616, 0.270103, 0.993198, 0.349787, 0.651995, 3, 91, 246, 5.11081, 0.0591241, 0, 0, 1, 1, 7.14877e-06, 10195
-22927.4, 365349, -69.9834, 3.16478, -993.751, 0.145575, 0.175995, 1.03299, 0.34851, 0.655882, 0.0001, 45.5, 246, 24.9483, 0.0541521, 0, 0, 0, 0, 2.80857e-05, 10207
-22927.4, 365349, -69.9834, 3.16478, -993.751, 0.145575, 0.175995, 1.03299, 0.34851, 0.655882, 3, 45.5, 246, 24.9483, 0.0541521, 0, 0, 0, 0, 1.60903e-05, 10207
-10390.6, 587332, -39.3644, 0.710056, -1089.85, 0.0708309, 0.270015, 0.958125, 0.351078, 0.648177, 3, 182, 246, 22.3285, 0.0150632, 0, 0, 1, 0, -1.25906e-05, 10208
-11727.3, 138292, 3.90287, 2.22035, -1068.5, 0.0964489, 0.268626, 1.03299, 0.34851, 0.655882, 0.0001, 45.5, 246, 16.029, 0.0312372, 0, 0, 1, 0, 8.43881e-06, 10213
-11727.3, 138292, 3.90287, 2.22035, -1068.5, 0.0964489, 0.268626, 1.03299, 0.34851, 0.655882, 3, 45.5, 246, 16.029, 0.0312372, 0, 0, 1, 0, 1.72734e-05, 10213
-12232, 251866, -43.555, 1.35331, -733.925, -0.00829495, 0.321144, 1.03299, 0.34851, 0.655882, 0.0001, 45.5, 246, 17.1344, 0.0470689, 0, 0, 1, 0, -1.2545e-05, 10216
-12232, 251866, -43.555, 1.35331, -733.925, -0.00829495, 0.321144, 1.03299, 0.34851, 0.655882, 3, 45.5, 246, 17.1344, 0.0470689, 0, 0, 1, 0, 1.15521e-05, 10216
-10948.4, 261042, -54.9704, 1.42265, -735.245, 0.000164658, 0.29219, 0.993198, 0.349787, 0.651995, 3, 91, 246, 17.1344, 0.0470689, 0, 0, 1, 0, 1.13743e-06, 10216
-8849.54, 91965.6, -91.7871, 1.05244, -1049.4, -0.00510776, 0.409429, 1.03299, 0.34851, 0.655882, 0.0001, 45.5, 246, 35.5796, 0.234971, 0, 0, 1, 0, -2.20938e-05, 10221
-8849.54, 91965.6, -91.7871, 1.05244, -1049.4, -0.00510776, 0.409429, 1.03299, 0.34851, 0.655882, 3, 45.5, 246, 35.5796, 0.234971, 0, 0, 1, 0, -3.1534e-05, 10221
-9487.04, 117354, -65.4856, 1.40488, -923.404, 0.770203, 0.340593, 1.03299, 0.34851, 0.655882, 3, 45.5, 246, 24.8161, 0.106773, 0, 0, 1, 0, -4.2318e-05, 10224
-10669.9, 143827, -56.0571, 1.87623, -800.278, 0.0133293, 0.308358, 1.03299, 0.34851, 0.655882, 0.0001, 45.5, 246, 21.2588, 0.0811307, 0, 0, 1, 0, -7.39198e-06, 10225
-9624.37, 155046, -73.5411, 1.99358, -806.293, 0.0298326, 0.286748, 0.993198, 0.349787, 0.651995, 0.0001, 91, 246, 21.2588, 0.0811307, 0, 0, 1, 0, 1.65762e-06, 10225
-1967.16, 160538, -242.475, 4.99944, -935.665, 0.567686, 0.310872, 0.9175, 0.352806, 0.64323, 3, 455, 246, 26.9767, 0.091206, 0, 0, 0, 0, 1.36637e-05, 10226
-8063.58, 430473, -298.436, 0.870175, -643.6, 0.339484, 0.453088, 0.958125, 0.351078, 0.648177, 3, 182, 246, 30.5575, 0.160776, 0, 0, 1, 0, -5.21101e-06, 10227
-10013.4, 444266, -167.843, 0.527079, -833.055, 0.0618829, 0.398811, 1.03299, 0.34851, 0.655882, 0.0001, 45.5, 246, 27.0629, 0.0968346, 0, 0, 1, 0, 6.41927e-06, 10235
-10013.4, 444266, -167.843, 0.527079, -833.055, 0.0618829, 0.398811, 1.03299, 0.34851, 0.655882, 3, 45.5, 246, 27.0629, 0.0968346, 0, 0, 1, 0, -4.30954e-06, 10235
-8949.13, 458538, -178.255, 0.548922, -843.83, 0.0637773, 0.3682, 0.993198, 0.349787, 0.651995, 3, 91, 246, 27.0629, 0.0968346, 0, 0, 1, 0, 1.68521e-05, 10235
-7719.59, 473307, -188.864, 0.570457, -855.233, 0.0658159, 0.341959, 0.958125, 0.351078, 0.648177, 0.0001, 182, 246, 27.0629, 0.0968346, 0, 0, 1, 0, -2.62257e-05, 10235
-10235.4, 646804, -225.959, 0.356227, -741.284, 0.71224, 0.406138, 1.03299, 0.34851, 0.655882, 0.0001, 45.5, 246, 25.6895, 0.0794375, 0, 0, 1, 0, -0.000121256, 10236
-10235.4, 646804, -225.959, 0.356227, -741.284, 0.71224, 0.406138, 1.03299, 0.34851, 0.655882, 3, 45.5, 246, 25.6895, 0.0794375, 0, 0, 1, 0, 0.000152269, 10236
-10023.8, 383648, -290.679, 0.731178, -892.528, -0.00234652, 0.550896, 1.03299, 0.34851, 0.655882, 3, 45.5, 246, 39.4296, 0.197685, 0, 0, 0, 0, 6.31852e-05, 10238
-8240.14, 399163, -310.126, 0.764926, -898.286, 0.000110285, 0.534894, 0.993198, 0.349787, 0.651995, 3, 91, 246, 39.4296, 0.197685, 0, 0, 1, 0, 4.72357e-06, 10238
-8049.83, -17345.4, 20.302, 2.34043, -983.704, 0.0372323, 0.282264, 1.03299, 0.34851, 0.655882, 0.0001, 45.5, 246, 5.80284, 0.0520974, 0, 0, 1, 1, 1.46458e-05, 10246
-8449.23, 33833.9, -8.20863, 3.45289, -823.276, 0.0460186, 0.172574, 1.03299, 0.34851, 0.655882, 0.0001, 45.5, 246, 15.6274, 0.0463701, 1.24117, 1, 1, 0, -1.03139e-05, 10247
-8449.23, 33833.9, -8.20863, 3.45289, -823.276, 0.0460186, 0.172574, 1.03299, 0.34851, 0.655882, 3, 45.5, 246, 15.6274, 0.0463701, 1.17886, 1, 1, 0, -1.01391e-05, 10247
-12352.7, 415722, -7.87531, 0.684511, -844.316, 0.0326296, 0.333149, 1.03299, 0.34851, 0.655882, 0.0001, 45.5, 246, 16.207, 0.00937167, 0, 0, 1, 0, -2.81597e-05, 10248
-12352.7, 415722, -7.87531, 0.684511, -844.316, 0.0326296, 0.333149, 1.03299, 0.34851, 0.655882, 3, 45.5, 246, 16.207, 0.00937167, 0, 0, 1, 0, -3.85141e-05, 10248
-11366.4, 428915, -13.4741, 0.712526, -849.03, 0.0349522, 0.298517, 0.993198, 0.349787, 0.651995, 3, 91, 246, 16.207, 0.00937167, 0, 0, 1, 0, 8.83837e-07, 10248
-10227.7, 442345, -19.4974, 0.740136, -854.217, 0.0374754, 0.268538, 0.958125, 0.351078, 0.648177, 0.0001, 182, 246, 16.207, 0.00937167, 0, 0, 1, 0, 1.76724e-05, 10248
-10199.4, 211927, -41.1486, 1.50664, -1122.95, 0.24719, 0.289357, 0.993198, 0.349787, 0.651995, 0.0001, 91, 246, 19.5926, 0.0445411, 0, 0, 1, 0, 4.62418e-06, 10253
-9534.93, 96719.3, -58.263, 1.9355, -875.118, 0.827663, 0.307158, 1.03299, 0.34851, 0.655882, 3, 45.5, 246, 24.055, 0.0950378, 0, 0, 1, 0, -1.27011e-05, 10256
-1849.54, 230010, -374.996, 3.27825, -1026.57, 0.157223, 0.478909, 0.958125, 0.351078, 0.648177, 0.0001, 182, 246, 51.211, 0.246226, 1.8469, 1, 0, 0, 1.02143e-05, 10261
-1849.54, 230010, -374.996, 3.27825, -1026.57, 0.157223, 0.478909, 0.958125, 0.351078, 0.648177, 3, 182, 246, 51.211, 0.246226, 1.65969, 1, 0, 0, 1.08179e-05, 10261
-8062.8, 95418.5, -119.193, 2.2462, -1152.35, -0.0197064, 0.352121, 1.03299, 0.34851, 0.655882, 3, 45.5, 246, 39.8573, 0.1916, 0, 0, 1, 0, 1.21366e-06, 10272
-7012.08, 118819, -151.902, 2.40241, -1159.15, 0.00400909, 0.341173, 0.993198, 0.349787, 0.651995, 0.0001, 91, 246, 39.8573, 0.1916, 0, 0, 1, 0, 9.92806e-06, 10272
-7012.08, 118819, -151.902, 2.40241, -1159.15, 0.00400909, 0.341173, 0.993198, 0.349787, 0.651995, 3, 91, 246, 39.8573, 0.1916, 0, 0, 1, 0, 1.36507e-06, 10272
-18788.5, -13174.8, -33.3449, 0.138295, -808.247, 0.57417, 0.347531, 1.03299, 0.34851, 0.655882, 0.0001, 45.5, 246, 671.485, 0.0250435, 0, 0, 1, 0, -0.000283912, 10273
-11653.3, 343548, -126.084, 1.01605, -831.835, -0.00473813, 0.370702, 1.03299, 0.34851, 0.655882, 0.0001, 45.5, 246, 25.5915, 0.0930947, 0, 0, 1, 0, 2.06924e-05, 10274
-11653.3, 343548, -126.084, 1.01605, -831.835, -0.00473813, 0.370702, 1.03299, 0.34851, 0.655882, 3, 45.5, 246, 25.5915, 0.0930947, 0, 0, 1, 0, 1.00511e-05, 10274
-3243.83, 119329, -222.286, 3.28503, -1364.23, 1.18181, 0.318221, 0.958125, 0.351078, 0.648177, 0.0001, 182, 246, 47.5357, 0.195264, 1.11347, 1, 1, 0, 4.32954e-05, 10284
-10380.8, 264929, -276.383, 1.56252, -969.756, -0.00569777, 0.558434, 1.03299, 0.34851, 0.655882, 0.0001, 45.5, 246, 46.5743, 0.247535, 0, 0, 0, 0, 2.72812e-05, 10285
-9079.39, 44327.1, -3.9583, 2.25602, -898.739, -0.00498585, 0.27875, 1.03299, 0.34851, 0.655882, 0.0001, 45.5, 246, 13.7726, 0.0491724, 1.08338, 1, 1, 0, -8.82816e-06, 10288
-9079.39, 44327.1, -3.9583, 2.25602, -898.739, -0.00498585, 0.27875, 1.03299, 0.34851, 0.655882, 3, 45.5, 246, 13.7726, 0.0491724, 1.01323, 1, 1, 0, -2.8925e-06, 10288
-6812.84, 398381, -242.397, 0.125217, -818.996, 0.151064, 0.432704, 0.958125, 0.351078, 0.648177, 3, 182, 246, 32.2381, 0.161424, 0, 0, 1, 0, -1120.65, 10291
-11058, 317020, -60.9892, 0.802443, -1030.04, 0.73903, 0.342329, 1.03299, 0.34851, 0.655882, 0.0001, 45.5, 246, 22.9539, 0.0468571, 0, 0, 1, 0, 6.13557e-07, 10292
-11058, 317020, -60.9892, 0.802443, -1030.04, 0.73903, 0.342329, 1.03299, 0.34851, 0.655882, 3, 45.5, 246, 22.9539, 0.0468571, 0, 0, 1, 0, 1.25574e-05, 10292
-10072.6, 351925, -71.7566, 0.871444, -1168.09, 0.840229, 0.309315, 0.993198, 0.349787, 0.651995, 0.0001, 91, 246, 22.9539, 0.0468571, 0, 0, 1, 0, -2.08702e-05, 10292
-8748.95, 397357, -84.8839, 0.950878, -1349.34, 0.973075, 0.28139, 0.958125, 0.351078, 0.648177, 0.0001, 182, 246, 22.9539, 0.0468571, 0, 0, 1, 0, 7.92732e-05, 10292
-9689.06, 270569, -88.4792, 0.933442, -812.699, 0.00539046, 0.3214, 0.993198, 0.349787, 0.651995, 0.0001, 91, 246, 21.6903, 0.076852, 0, 0, 1, 0, -1.16903e-05, 10296
-4088.11, 51952.4, -158.645, 2.57586, -651.411, -0.0301878, 0.306031, 1.03299, 0.34851, 0.655882, 0.0001, 45.5, 246, 56.802, 0.19475, 1.22164, 1, 1, 0, -9.34671e-07, 10297
-4088.11, 51952.4, -158.645, 2.57586, -651.411, -0.0301878, 0.306031, 1.03299, 0.34851, 0.655882, 3, 45.5, 246, 56.802, 0.19475, 1.023, 1, 1, 0, 1.01292e-05, 10297
-3267.19, 59819.4, -186.537, 2.76763, -662, 0.00116448, 0.299625, 0.993198, 0.349787, 0.651995, 0.0001, 91, 246, 56.802, 0.19475, 1.27673, 1, 1, 0, 1.67134e-05, 10297
-3267.19, 59819.4, -186.537, 2.76763, -662, 0.00116448, 0.299625, 0.993198, 0.349787, 0.651995, 3, 91, 246, 56.802, 0.19475, 1.09704, 1, 1, 0, 7.39785e-06, 10297
-2165.2, 68348, -218.462, 2.984, -679.316, 0.0374977, 0.304704, 0.958125, 0.351078, 0.648177, 0.0001, 182, 246, 56.802, 0.19475, 1.43375, 1, 1, 0, -8.53881e-06, 10297
-2165.2, 68348, -218.462, 2.984, -679.316, 0.0374977, 0.304704, 0.958125, 0.351078, 0.648177, 3, 182, 246, 56.802, 0.19475, 1.27959, 1, 1, 0, 1.37203e-05, 10297
-150.839, 81223, -268.839, 3.32174, -715.534, 0.0959817, 0.329893, 0.9175, 0.352806, 0.64323, 0.0001, 455, 246, 56.802, 0.19475, 1.90787, 1, 1, 1, 7.1913e-06, 10297
-150.839, 81223, -268.839, 3.32174, -715.534, 0.0959817, 0.329893, 0.9175, 0.352806, 0.64323, 3, 455, 246, 56.802, 0.19475, 1.78606, 1, 1, 1, 2.6195e-07, 10297
-6198.51, 54233.2, -113.968, 3.5874, -932.726, 0.221737, 0.184465, 1.03299, 0.34851, 0.655882, 0.0001, 45.5, 246, 38.4593, 0.112752, 1.13099, 1, 1, 0, -8.05532e-08, 10301
-3428.69, 91156, -213.103, 4.45282, -1060.56, 0.390974, 0.244351, 0.958125, 0.351078, 0.648177, 0.0001, 182, 246, 38.4593, 0.112752, 1.03874, 1, 1, 0, 5.5659e-06, 10301
358.925, 125966, -313.93, 5.30179, -1217.93, 0.575884, 0.34696, 0.9175, 0.352806, 0.64323, 0.0001, 455, 246, 38.4593, 0.112752, 2.2247, 1, 0, 0, -5.96711e-07, 10301
358.925, 125966, -313.93, 5.30179, -1217.93, 0.575884, 0.34696, 0.9175, 0.352806, 0.64323, 3, 455, 246, 38.4593, 0.112752, 2.22528, 1, 0, 0, -5.83349e-07, 10301
-8163.98, 43481, -50.3884, 2.31609, -1185.29, 0.020649, 0.285376, 0.993198, 0.349787, 0.651995, 0.0001, 91, 246, 22.6872, 0.0949764, 0, 0, 1, 1, 1.49626e-05, 10303
-8163.98, 43481, -50.3884, 2.31609, -1185.29, 0.020649, 0.285376, 0.993198, 0.349787, 0.651995, 3, 91, 246, 22.6872, 0.0949764, 0, 0, 1, 1, -1.22327e-06, 10303
-10423.7, 461502, -39.3833, 1.04667, -1024.79, 0.297459, 0.266358, 0.958125, 0.351078, 0.648177, 3, 182, 246, 19.0133, 0.0176404, 0, 0, 1, 0, -6.87346e-05, 10309
-5234.83, 133579, -159.008, 3.19905, -926.082, 0.930781, 0.286761, 0.9175, 0.352806, 0.64323, 3, 455, 246, 24.6903, 0.0998642, 0, 0, 1, 0, -7.95831e-05, 10311
-11755.4, 947208, -79.4343, 0.276826, -699.078, 0.00710011, 0.345738, 1.03299, 0.34851, 0.655882, 0.0001, 45.5, 246, 19.0474, 0.0220172, 0, 0, 1, 0, 3.46121e-05, 10312
-11376, 214996, -362.531, 3.41373, -523.967, 0.599673, 0.37583, 1.03299, 0.34851, 0.655882, 0.0001, 45.5, 246, 48.5234, 0.220378, 1.3641, 1, 0, 0, -6.77671e-05, 10315
-11376, 214996, -362.531, 3.41373, -523.967, 0.599673, 0.37583, 1.03299, 0.34851, 0.655882, 3, 45.5, 246, 48.5234, 0.220378, 1.30459, 1, 0, 0, -7.94224e-05, 10315
-6756.06, 230516, -416.422, 3.87419, -620.766, 0.726748, 0.402308, 0.993198, 0.349787, 0.651995, 0.0001, 91, 246, 48.5234, 0.220378, 1.69018, 1, 1, 0, 3.20477e-05, 10315
-6756.06, 230516, -416.422, 3.87419, -620.766, 0.726748, 0.402308, 0.993198, 0.349787, 0.651995, 3, 91, 246, 48.5234, 0.220378, 1.60874, 1, 1, 0, -3.18057e-05, 10315
-8535.36, 186022, -93.7046, 0.447347, -1131.11, 0.000252213, 0.386377, 1.03299, 0.34851, 0.655882, 0.0001, 45.5, 246, 28.1435, 0.126789, 0, 0, 1, 0, -2.74765e-05, 10325
-8535.36, 186022, -93.7046, 0.447347, -1131.11, 0.000252213, 0.386377, 1.03299, 0.34851, 0.655882, 3, 45.5, 246, 28.1435, 0.126789, 0, 0, 1, 0, -7.2174e-05, 10325
-11070, 241381, -292.603, 2.7449, -979.948, 0.0949473, 0.460274, 1.03299, 0.34851, 0.655882, 3, 45.5, 246, 49.2016, 0.230923, 0, 0, 0, 0, 5.88948e-06, 10327
-2463.17, 285475, -403.249, 3.27992, -1078.44, 0.180019, 0.496105, 0.958125, 0.351078, 0.648177, 0.0001, 182, 246, 49.2016, 0.230923, 1.48985, 1, 0, 0, -1.94976e-05, 10327
-2463.17, 285475, -403.249, 3.27992, -1078.44, 0.180019, 0.496105, 0.958125, 0.351078, 0.648177, 3, 182, 246, 49.2016, 0.230923, 1.27013, 1, 0, 0, 8.13231e-06, 10327
-10985.1, 100565, -16.3943, 3.13921, -851.211, -0.0450845, 0.196313, 1.03299, 0.34851, 0.655882, 0.0001, 45.5, 246, 16.9279, 0.0477515, 0, 0, 1, 0, -9.35539e-06, 10329
-10985.1, 100565, -16.3943, 3.13921, -851.211, -0.0450845, 0.196313, 1.03299, 0.34851, 0.655882, 3, 45.5, 246, 16.9279, 0.0477515, 0, 0, 1, 0, -1.58298e-05, 10329
-9025.22, 215853, -112.052, 0.697804, -1057.65, 0.0341828, 0.391517, 1.03299, 0.34851, 0.655882, 3, 45.5, 246, 29.4231, 0.129314, 0, 0, 1, 0, -5.34983e-06, 10336
836.718, 299150, -314.601, 4.25072, -1238.32, 0.223626, 0.329229, 0.9175, 0.352806, 0.64323, 3, 455, 246, 33.3868, 0.116434, 1.0259, 1, 0, 0, 1.90569e-06, 10342
-7734.36, 781570, -268.48, 0.300612, -1163.11, 0.00460004, 0.428871, 1.03299, 0.34851, 0.655882, 0.0001, 45.5, 246, 35.5943, 0.0880281, 0, 0, 0, 0, -4.42919e-05, 10349
-7734.36, 781570, -268.48, 0.300612, -1163.11, 0.00460004, 0.428871, 1.03299, 0.34851, 0.655882, 3, 45.5, 246, 35.5943, 0.0880281, 0, 0, 0, 0, -2.91881e-05, 10349
-12664.6, 176223, -35.9309, 2.32556, -982.671, 0.53088, 0.263529, 1.03299, 0.34851, 0.655882, 0.0001, 45.5, 246, 20.9916, 0.0547476, 0, 0, 0, 0, 2.74617e-05, 10354
-12664.6, 176223, -35.9309, 2.32556, -982.671, 0.53088, 0.263529, 1.03299, 0.34851, 0.655882, 3, 45.5, 246, 20.9916, 0.0547476, 0, 0, 0, 0, 1.4116e-05, 10354
-10920.9, 199966, -61.2312, 2.56311, -1078.17, 0.608103, 0.248979, 0.993198, 0.349787, 0.651995, 0.0001, 91, 246, 20.9916, 0.0547476, 0, 0, 1, 0, 1.90933e-05, 10354
-10920.9, 199966, -61.2312, 2.56311, -1078.17, 0.608103, 0.248979, 0.993198, 0.349787, 0.651995, 3, 91, 246, 20.9916, 0.0547476, 0, 0, 1, 0, 4.53464e-05, 10354
-11048.2, 234532, -100.74, 1.19055, -651.177, 0.135575, 0.35739, 1.03299, 0.34851, 0.655882, 0.0001, 45.5, 246, 22.6794, 0.0998398, 0, 0, 1, 0, -7.01622e-06, 10357
-11048.2, 234532, -100.74, 1.19055, -651.177, 0.135575, 0.35739, 1.03299, 0.34851, 0.655882, 3, 45.5, 246, 22.6794, 0.0998398, 0, 0, 1, 0, -4.13836e-06, 10357
-8462.43, 64883.9, -67.7053, 1.69042, -961.177, 0.210842, 0.341568, 1.03299, 0.34851, 0.655882, 3, 45.5, 246, 30.4719, 0.154139, 0, 0, 1, 0, -1.27546e-07, 10362
101.077, 250761, -366.333, 3.18583, -837.858, 0.391102, 0.444552, 0.9175, 0.352806, 0.64323, 0.0001, 455, 246, 40.6311, 0.202727, 1.18957, 1, 0, 0, -9.9838e-05, 10366
101.077, 250761, -366.333, 3.18583, -837.858, 0.391102, 0.444552, 0.9175, 0.352806, 0.64323, 3, 455, 246, 40.6311, 0.202727, 1.31043, 1, 0, 0, 5.16059e-05, 10366
-8478.27, 9667.03, -17.286, 2.06976, -1114.63, 0.286177, 0.287114, 0.993198, 0.349787, 0.651995, 0.0001, 91, 246, 12.5279, 0.0645818, 0, 0, 1, 1, 1.85993e-05, 10368
-11500.3, 180290, -15.8808, 1.58229, -1114.69, 0.18476, 0.308093, 1.03299, 0.34851, 0.655882, 0.0001, 45.5, 246, 18.9539, 0.0390687, 0, 0, 1, 0, 7.47088e-06, 10374
-10395.3, 204451, -33.4508, 1.68752, -1150.35, 0.202401, 0.281612, 0.993198, 0.349787, 0.651995, 0.0001, 91, 246, 18.9539, 0.0390687, 0, 0, 1, 0, 1.65953e-05, 10374
-2408, 132152, -248.378, 3.133, -913.785, 0.340059, 0.344504, 0.9175, 0.352806, 0.64323, 0.0001, 455, 246, 41.5825, 0.18819, 1.00628, 1, 0, 0, 2.72247e-06, 10384
-2408, 132152, -248.378, 3.133, -913.785, 0.340059, 0.344504, 0.9175, 0.352806, 0.64323, 3, 455, 246, 41.5825, 0.18819, 1.03143, 1, 0, 0, 4.27302e-06, 10384
-10535.1, 327543, -111.781, 0.725284, -768.82, 0.178516, 0.369578, 1.03299, 0.34851, 0.655882, 0.0001, 45.5, 246, 23.3086, 0.0851033, 0, 0, 1, 0, 1.07498e-05, 10386
-10535.1, 327543, -111.781, 0.725284, -768.82, 0.178516, 0.369578, 1.03299, 0.34851, 0.655882, 3, 45.5, 246, 23.3086, 0.0851033, 0, 0, 1, 0, 2.23528e-05, 10386
-9596.57, 341574, -121.559, 0.762262, -793.607, 0.186197, 0.337913, 0.993198, 0.349787, 0.651995, 0.0001, 91, 246, 23.3086, 0.0851033, 0, 0, 1, 0, 7.26971e-06, 10386
-5230.09, 94757, -188.3, 3.37436, -1167.8, -0.0489996, 0.29016, 1.03299, 0.34851, 0.655882, 0.0001, 45.5, 246, 51.9475, 0.208838, 1.15728, 1, 1, 0, 1.57264e-05, 10389
-3276.09, 119399, -243.435, 3.67828, -1183.63, 0.00560734, 0.306597, 0.993198, 0.349787, 0.651995, 0.0001, 91, 246, 51.9475, 0.208838, 1.36235, 1, 1, 0, -1.01509e-08, 10389
-3276.09, 119399, -243.435, 3.67828, -1183.63, 0.00560734, 0.306597, 0.993198, 0.349787, 0.651995, 3, 91, 246, 51.9475, 0.208838, 1.16096, 1, 1, 0, 8.43599e-06, 10389
-409.04, 146133, -309.403, 4.0409, -1218.73, 0.0711235, 0.342038, 0.958125, 0.351078, 0.648177, 0.0001, 182, 246, 51.9475, 0.208838, 2.31594, 1, 0, 0, -1.55634e-05, 10389
-409.04, 146133, -309.403, 4.0409, -1218.73, 0.0711235, 0.342038, 0.958125, 0.351078, 0.648177, 3, 182, 246, 51.9475, 0.208838, 2.16893, 1, 0, 0, -4.30405e-06, 10389
-7706.04, 11858.2, -8.57578, 3.37181, -1169.33, -0.0341538, 0.198636, 1.03299, 0.34851, 0.655882, 0.0001, 45.5, 246, 20.0371, 0.0677943, 0, 0, 1, 0, 2.51945e-06, 10392
-7706.04, 11858.2, -8.57578, 3.37181, -1169.33, -0.0341538, 0.198636, 1.03299, 0.34851, 0.655882, 3, 45.5, 246, 20.0371, 0.0677943, 0, 0, 1, 0, 8.65894e-06, 10392
1079.14, 253130, -387.338, 3.69313, -764.42, 0.166615, 0.433343, 0.9175, 0.352806, 0.64323, 0.0001, 455, 246, 39.843, 0.188795, 2.1847, 1, 0, 0, -8.64135e-06, 10395
1079.14, 253130, -387.338, 3.69313, -764.42, 0.166615, 0.433343, 0.9175, 0.352806, 0.64323, 3, 455, 246, 39.843, 0.188795, 2.27293, 1, 0, 0, -1.2992e-05, 10395
-3728.28, 87028.8, -215.453, 2.77214, -877.514, 0.763001, 0.343529, 1.03299, 0.34851, 0.655882, 0.0001, 45.5, 246, 58.2721, 0.244263, 1.49578, 1, 1, 0, 2.657e-06, 10396
-3728.28, 87028.8, -215.453, 2.77214, -877.514, 0.763001, 0.343529, 1.03299, 0.34851, 0.655882, 3, 45.5, 246, 58.2721, 0.244263, 1.35392, 1, 1, 0, 4.45803e-06, 10396
-2061.87, 107836, -258.489, 3.13314, -1020.55, 0.911082, 0.346874, 0.993198, 0.349787, 0.651995, 0.0001, 91, 246, 58.2721, 0.244263, 1.69484, 1, 1, 0, 3.66319e-06, 10396
-2061.87, 107836, -258.489, 3.13314, -1020.55, 0.911082, 0.346874, 0.993198, 0.349787, 0.651995, 3, 91, 246, 58.2721, 0.244263, 1.55819, 1, 1, 0, 1.14345e-05, 10396
430.759, 137655, -315.475, 3.59444, -1224.5, 1.12228, 0.368776, 0.958125, 0.351078, 0.648177, 0.0001, 182, 246, 58.2721, 0.244263, 2.88517, 1, 0, 0, 1.20571e-05, 10396
430.759, 137655, -315.475, 3.59444, -1224.5, 1.12228, 0.368776, 0.958125, 0.351078, 0.648177, 3, 182, 246, 58.2721, 0.244263, 2.72716, 1, 0, 0, 1.20571e-05, 10396
-5051.72, 210523, -143.794, 3.06225, -882.721, 0.105292, 0.264519, 0.9175, 0.352806, 0.64323, 3, 455, 246, 21.2499, 0.0698832, 0, 0, 1, 0, -3.991e-06, 10399
-11244.1, 94133.8, 4.08832, 3.52374, -738.696, -0.0555572, 0.146796, 1.03299, 0.34851, 0.655882, 0.0001, 45.5, 246, 12.3323, 0.0291258, 0, 0, 1, 0, -8.29678e-07, 10403
-11244.1, 94133.8, 4.08832, 3.52374, -738.696, -0.0555572, 0.146796, 1.03299, 0.34851, 0.655882, 3, 45.5, 246, 12.3323, 0.0291258, 0, 0, 0, 0, 1.62015e-07, 10403
-8163.96, 112052, -49.5973, 4.20988, -744.532, 0.0751076, 0.191944, 0.958125, 0.351078, 0.648177, 0.0001, 182, 246, 12.3323, 0.0291258, 0, 0, 1, 0, -6.09593e-06, 10403
-8163.96, 112052, -49.5973, 4.20988, -744.532, 0.0751076, 0.191944, 0.958125, 0.351078, 0.648177, 3, 182, 246, 12.3323, 0.0291258, 0, 0, 1, 0, 1.41253e-05, 10403
-11513.3, 587852, -68.5064, 0.492527, -1063.1, 0.121883, 0.345035, 1.03299, 0.34851, 0.655882, 0.0001, 45.5, 246, 24.8516, 0.0309431, 0, 0, 1, 0, 2.09572e-05, 10410
-11513.3, 587852, -68.5064, 0.492527, -1063.1, 0.121883, 0.345035, 1.03299, 0.34851, 0.655882, 3, 45.5, 246, 24.8516, 0.0309431, 0, 0, 1, 0, 1.36496e-05, 10410
-7810.13, 275520, -390.578, 3.65477, -983.864, 0.801541, 0.416475, 0.993198, 0.349787, 0.651995, 0.0001, 91, 246, 48.0948, 0.211405, 1.19131, 1, 1, 0, 2.31389e-05, 10421
-7810.13, 275520, -390.578, 3.65477, -983.864, 0.801541, 0.416475, 0.993198, 0.349787, 0.651995, 3, 91, 246, 48.0948, 0.211405, 1.06212, 1, 1, 0, -6.09117e-06, 10421
-6121.79, 140139, -104.612, 3.2547, -688.489, 0.242503, 0.26055, 0.9175, 0.352806, 0.64323, 3, 455, 246, 16.1059, 0.0543324, 0, 0, 1, 0, 1.99356e-05, 10422
-7661.5, 302190, -276.901, 0.893649, -1136.41, 0.881204, 0.533029, 0.993198, 0.349787, 0.651995, 0.0001, 91, 246, 42.3736, 0.225319, 0, 0, 1, 0, -2.7975e-05, 10423
-5802.17, 346262, -300.351, 0.98403, -1328.37, 1.02826, 0.522787, 0.958125, 0.351078, 0.648177, 0.0001, 182, 246, 42.3736, 0.225319, 0, 0, 0, 0, 3.51234e-05, 10423
-2651.96, 103686, -243.243, 5.3088, -1297.77, 0.594807, 0.334331, 0.9175, 0.352806, 0.64323, 0.0001, 455, 246, 28.868, 0.0774569, 1.05797, 1, 1, 0, -7.2271e-06, 10424
-2651.96, 103686, -243.243, 5.3088, -1297.77, 0.594807, 0.334331, 0.9175, 0.352806, 0.64323, 3, 455, 246, 28.868, 0.0774569, 1.04785, 1, 1, 0, -1.01847e-05, 10424
-8491.75, 160815, -203.732, 2.35978, -1133.9, 0.00260452, 0.427003, 1.03299, 0.34851, 0.655882, 0.0001, 45.5, 246, 47.5417, 0.234255, 0, 0, 0, 0, -1.4643e-05, 10426
-8491.75, 160815, -203.732, 2.35978, -1133.9, 0.00260452, 0.427003, 1.03299, 0.34851, 0.655882, 3, 45.5, 246, 47.5417, 0.234255, 0, 0, 0, 0, 7.57377e-06, 10426
-698.525, 111371, -288.509, 4.86022, -1237.74, 0.496338, 0.33793, 0.9175, 0.352806, 0.64323, 0.0001, 455, 246, 40.0192, 0.107591, 1.89574, 1, 1, 0, -3.9329e-06, 10435
-698.525, 111371, -288.509, 4.86022, -1237.74, 0.496338, 0.33793, 0.9175, 0.352806, 0.64323, 3, 455, 246, 40.0192, 0.107591, 1.89543, 1, 1, 0, -1.63985e-05, 10435
-6370.73, 83753.7, -162.446, 2.90583, -728.305, 0.513253, 0.277778, 1.03299, 0.34851, 0.655882, 0.0001, 45.5, 246, 43.7382, 0.165851, 1.05846, 1, 1, 0, -1.36724e-05, 10436
-3104.22, 114357, -241.646, 3.64565, -920.443, 0.724654, 0.29959, 0.958125, 0.351078, 0.648177, 0.0001, 182, 246, 43.7382, 0.165851, 1.22182, 1, 1, 0, 5.40946e-06, 10436
-3104.22, 114357, -241.646, 3.64565, -920.443, 0.724654, 0.29959, 0.958125, 0.351078, 0.648177, 3, 182, 246, 43.7382, 0.165851, 1.05478, 1, 1, 0, 4.54749e-06, 10436
783.622, 147913, -323.35, 4.36709, -1138.15, 0.963427, 0.360515, 0.9175, 0.352806, 0.64323, 0.0001, 455, 246, 43.7382, 0.165851, 3.26317, 1, 0, 0, -4.83268e-06, 10436
783.622, 147913, -323.35, 4.36709, -1138.15, 0.963427, 0.360515, 0.9175, 0.352806, 0.64323, 3, 455, 246, 43.7382, 0.165851, 3.26887, 1, 0, 0, 1.64962e-05, 10436
-6242.47, 110083, -108.433, 3.31182, -850.78, 0.281414, 0.268078, 0.9175, 0.352806, 0.64323, 3, 455, 246, 17.2097, 0.0584902, 0, 0, 1, 0, -7.16898e-06, 10437
-8279.55, 95686, -126.492, 3.32366, -876.959, 0.675216, 0.208011, 1.03299, 0.34851, 0.655882, 0.0001, 45.5, 246, 35.3847, 0.121906, 0, 0, 0, 0, 5.57202e-06, 10438
-8279.55, 95686, -126.492, 3.32366, -876.959, 0.675216, 0.208011, 1.03299, 0.34851, 0.655882, 3, 45.5, 246, 35.3847, 0.121906, 0, 0, 0, 0, 1.09254e-05, 10438
-6634.92, 115097, -168.08, 3.76441, -1000.59, 0.817523, 0.219605, 0.993198, 0.349787, 0.651995, 0.0001, 91, 246, 35.3847, 0.121906, 0, 0, 1, 0, 9.23014e-06, 10438
-6634.92, 115097, -168.08, 3.76441, -1000.59, 0.817523, 0.219605, 0.993198, 0.349787, 0.651995, 3, 91, 246, 35.3847, 0.121906, 0, 0, 1, 0, -4.66983e-05, 10438
-9156.19, 175357, -232.054, 2.72516, -966.864, 0.664086, 0.378857, 1.03299, 0.34851, 0.655882, 3, 45.5, 246, 46.0136, 0.206442, 0, 0, 0, 0, 1.9722e-05, 10442
-2567.15, 238369, -338.108, 3.48267, -1292.96, 0.947078, 0.405236, 0.958125, 0.351078, 0.648177, 0.0001, 182, 246, 46.0136, 0.206442, 1.095, 1, 0, 0, -1.94291e-05, 10442
-10379.4, 557209, -147.727, 0.351909, -608.805, 0.456506, 0.374073, 1.03299, 0.34851, 0.655882, 0.0001, 45.5, 246, 20.2569, 0.0634434, 0, 0, 1, 0, 3.07797e-05, 10451
-10379.4, 557209, -147.727, 0.351909, -608.805, 0.456506, 0.374073, 1.03299, 0.34851, 0.655882, 3, 45.5, 246, 20.2569, 0.0634434, 0, 0, 1, 0, -2.77937e-05, 10451
-9546.33, 578759, -154.81, 0.37311, -657.667, 0.492619, 0.340829, 0.993198, 0.349787, 0.651995, 0.0001, 91, 246, 20.2569, 0.0634434, 0, 0, 1, 0, 0.000141865, 10451
-9546.33, 578759, -154.81, 0.37311, -657.667, 0.492619, 0.340829, 0.993198, 0.349787, 0.651995, 3, 91, 246, 20.2569, 0.0634434, 0, 0, 1, 0, 1.39554e-05, 10451
-8551.61, 603368, -162.07, 0.395494, -714.891, 0.534906, 0.31192, 0.958125, 0.351078, 0.648177, 0.0001, 182, 246, 20.2569, 0.0634434, 0, 0, 1, 0, 4.68495e-05, 10451
-9914.59, 181183, -207.214, 2.70145, -917.617, -0.0311941, 0.368216, 1.03299, 0.34851, 0.655882, 0.0001, 45.5, 246, 43.0256, 0.19683, 0, 0, 0, 0, -1.737e-06, 10452
-9914.59, 181183, -207.214, 2.70145, -917.617, -0.0311941, 0.368216, 1.03299, 0.34851, 0.655882, 3, 45.5, 246, 43.0256, 0.19683, 0, 0, 0, 0, 6.78204e-06, 10452
-6267.31, 152542, -258.865, 3.70663, -669.067, 0.474445, 0.273468, 0.993198, 0.349787, 0.651995, 0.0001, 91, 246, 41.5156, 0.168286, 1.02104, 1, 1, 0, -4.34657e-05, 10459
-2915.93, 166960, -309.716, 4.18087, -757.883, 0.586633, 0.309581, 0.958125, 0.351078, 0.648177, 0.0001, 182, 246, 41.5156, 0.168286, 1.35166, 1, 1, 0, -3.57905e-06, 10459
-2915.93, 166960, -309.716, 4.18087, -757.883, 0.586633, 0.309581, 0.958125, 0.351078, 0.648177, 3, 182, 246, 41.5156, 0.168286, 1.17016, 1, 1, 0, -7.96341e-05, 10459
-10687.1, 434378, -327.767, 0.762357, -891.762, 0.176213, 0.570036, 1.03299, 0.34851, 0.655882, 0.0001, 45.5, 246, 39.7729, 0.191738, 0, 0, 0, 0, -2.22488e-05, 10460
-10687.1, 434378, -327.767, 0.762357, -891.762, 0.176213, 0.570036, 1.03299, 0.34851, 0.655882, 3, 45.5, 246, 39.7729, 0.191738, 0, 0, 0, 0, 2.39921e-05, 10460
-6387.88, 64783.5, -125.099, 3.5584, -917.584, 0.00499452, 0.197362, 1.03299, 0.34851, 0.655882, 3, 45.5, 246, 39.6633, 0.125609, 0, 0, 1, 0, -2.332e-05, 10461
-3328.47, 96777.1, -220.749, 4.30091, -973.357, 0.141317, 0.252581, 0.958125, 0.351078, 0.648177, 0.0001, 182, 246, 39.6633, 0.125609, 1.06857, 1, 1, 0, 5.24633e-06, 10461
393.609, 123597, -311.256, 4.99971, -1059.38, 0.275029, 0.343215, 0.9175, 0.352806, 0.64323, 0.0001, 455, 246, 39.6633, 0.125609, 2.07476, 1, 0, 0, -6.52849e-07, 10461
393.609, 123597, -311.256, 4.99971, -1059.38, 0.275029, 0.343215, 0.9175, 0.352806, 0.64323, 3, 455, 246, 39.6633, 0.125609, 2.07462, 1, 0, 0, -8.76673e-06, 10461
-7488.75, 844542, -322.117, 0.0189453, -644.841, 0.619434, 0.444137, 1.03299, 0.34851, 0.655882, 0.0001, 45.5, 246, 25.4915, 0.0870746, 0, 0, 1, 0, 0.00196888, 10462
-7488.75, 844542, -322.117, 0.0189453, -644.841, 0.619434, 0.444137, 1.03299, 0.34851, 0.655882, 3, 45.5, 246, 25.4915, 0.0870746, 0, 0, 1, 0, 8.63874e-05, 10462
-6682.05, 884186, -331.852, 0.0201926, -714.986, 0.686646, 0.415901, 0.993198, 0.349787, 0.651995, 0.0001, 91, 246, 25.4915, 0.0870746, 0, 0, 1, 0, 4.94952e-05, 10462
-8942.78, 160051, -228.194, 2.37744, -607.415, 0.160609, 0.412557, 1.03299, 0.34851, 0.655882, 3, 45.5, 246, 44.5516, 0.225273, 0, 0, 1, 0, -4.04152e-06, 10468
124.173, 197464, -353.525, 3.16966, -755.426, 0.297483, 0.447701, 0.9175, 0.352806, 0.64323, 0.0001, 455, 246, 44.5516, 0.225273, 1.89391, 1, 0, 0, 2.59348e-06, 10468
124.173, 197464, -353.525, 3.16966, -755.426, 0.297483, 0.447701, 0.9175, 0.352806, 0.64323, 3, 455, 246, 44.5516, 0.225273, 1.8989, 1, 0, 0, -7.15709e-06, 10468
-8922.05, 315449, -142.661, 0.769106, -971.796, 0.590928, 0.356333, 0.993198, 0.349787, 0.651995, 0.0001, 91, 246, 27.2465, 0.105864, 0, 0, 1, 0, 1.07661e-05, 10470
-7069.26, 141001, -177.543, 2.73787, -1067.3, 0.797933, 0.319977, 0.993198, 0.349787, 0.651995, 0.0001, 91, 246, 38.5193, 0.168289, 0, 0, 1, 0, 3.79738e-06, 10473
-7069.26, 141001, -177.543, 2.73787, -1067.3, 0.797933, 0.319977, 0.993198, 0.349787, 0.651995, 3, 91, 246, 38.5193, 0.168289, 0, 0, 1, 0, 1.1445e-07, 10473
-4879.37, 171805, -221.942, 3.09126, -1241.38, 0.955696, 0.327325, 0.958125, 0.351078, 0.648177, 0.0001, 182, 246, 38.5193, 0.168289, 0, 0, 1, 0, -5.99534e-05, 10473
-209.891, 234647, -305.898, 3.72298, -1597.5, 1.27817, 0.364018, 0.9175, 0.352806, 0.64323, 3, 455, 246, 38.5193, 0.168289, 1.95881, 1, 0, 0, 3.47587e-05, 10473
264.349, 434761, -347.263, 2.9624, -1210.78, 0.416832, 0.371105, 0.9175, 0.352806, 0.64323, 3, 455, 246, 34.6651, 0.132778, 0, 0, 0, 0, 5.16974e-05, 10474
-8402.46, 817188, -278.59, 0.221993, -895.853, 0.333567, 0.426249, 1.03299, 0.34851, 0.655882, 0.0001, 45.5, 246, 30.162, 0.0827516, 0, 0, 0, 0, 0.000112749, 10477
-8402.46, 817188, -278.59, 0.221993, -895.853, 0.333567, 0.426249, 1.03299, 0.34851, 0.655882, 3, 45.5, 246, 30.162, 0.0827516, 0, 0, 0, 0, 0.000134012, 10477
-10963.6, 183724, -54.2094, 1.61725, -1187.28, 0.011893, 0.323048, 1.03299, 0.34851, 0.655882, 0.0001, 45.5, 246, 24.5788, 0.0757222, 0, 0, 1, 0, -3.09333e-05, 10481
-10963.6, 183724, -54.2094, 1.61725, -1187.28, 0.011893, 0.323048, 1.03299, 0.34851, 0.655882, 3, 45.5, 246, 24.5788, 0.0757222, 0, 0, 1, 0, -1.44558e-05, 10481
-7454.5, -20812.1, 2.2463, 2.76627, -840.514, -0.029653, 0.256623, 1.03299, 0.34851, 0.655882, 0.0001, 45.5, 246, 12.5037, 0.0434114, 0, 0, 1, 1, -1.56739e-06, 10482
-8364.61, 430594, -352.598, 0.407057, -996.964, 0.588262, 0.604187, 1.03299, 0.34851, 0.655882, 3, 45.5, 246, 42.0592, 0.200201, 0, 0, 0, 0, 5.98327e-06, 10483
-11698, 313984, -156.373, 1.13069, -777.303, 0.538962, 0.387845, 1.03299, 0.34851, 0.655882, 0.0001, 45.5, 246, 27.6352, 0.113371, 0, 0, 1, 0, 1.3526e-05, 10484
-11698, 313984, -156.373, 1.13069, -777.303, 0.538962, 0.387845, 1.03299, 0.34851, 0.655882, 3, 45.5, 246, 27.6352, 0.113371, 0, 0, 1, 0, -8.03532e-05, 10484
-10744.9, 763000, -52.6709, 0.262363, -942.577, 0.191161, 0.343049, 1.03299, 0.34851, 0.655882, 0.0001, 45.5, 246, 22.7154, 0.0177814, 0, 0, 1, 0, -0.000123187, 10486
-10744.9, 763000, -52.6709, 0.262363, -942.577, 0.191161, 0.343049, 1.03299, 0.34851, 0.655882, 3, 45.5, 246, 22.7154, 0.0177814, 0, 0, 1, 0, 5.87499e-05, 10486
-10081.8, 787025, -56.6162, 0.273412, -972.352, 0.19744, 0.307237, 0.993198, 0.349787, 0.651995, 0.0001, 91, 246, 22.7154, 0.0177814, 0, 0, 1, 0, 4.82711e-06, 10486
-9301.39, 812638, -60.7039, 0.284297, -1004.13, 0.20415, 0.275781, 0.958125, 0.351078, 0.648177, 0.0001, 182, 246, 22.7154, 0.0177814, 0, 0, 1, 0, -3.5154e-05, 10486
-9706.3, 224012, -113.894, 0.946769, -976.717, 0.0107852, 0.383943, 1.03299, 0.34851, 0.655882, 0.0001, 45.5, 246, 28.7756, 0.124619, 0, 0, 1, 0, 5.10001e-05, 10487
