-2445.36, 210537, -334.769, 4.46424, -1102.94, 0.966259, 0.312772, 0.958125, 0.351078, 0.648177, 0.0001, 182, 246, 41.9663, 0.165023, 1.64193, 1, 0, 0, 7.4857e-06, 140506
-2445.36, 210537, -334.769, 4.46424, -1102.94, 0.966259, 0.312772, 0.958125, 0.351078, 0.648177, 3, 182, 246, 41.9663, 0.165023, 1.47612, 1, 0, 0, 1.14011e-05, 140506
-10481.9, 400243, -311.941, 1.08414, -1150.08, -0.00518165, 0.563669, 1.03299, 0.34851, 0.655882, 0.0001, 45.5, 246, 44.2616, 0.199739, 0, 0, 0, 0, 1.41064e-05, 140511
-10481.9, 400243, -311.941, 1.08414, -1150.08, -0.00518165, 0.563669, 1.03299, 0.34851, 0.655882, 3, 45.5, 246, 44.2616, 0.199739, 0, 0, 0, 0, -1.72624e-05, 140511
-10897.5, 751058, -184.361, 0.316176, -601.791, 0.0225309, 0.383062, 1.03299, 0.34851, 0.655882, 0.0001, 45.5, 246, 21.011, 0.0634709, 0, 0, 1, 0, 4.63828e-05, 140515
-10897.5, 751058, -184.361, 0.316176, -601.791, 0.0225309, 0.383062, 1.03299, 0.34851, 0.655882, 3, 45.5, 246, 21.011, 0.0634709, 0, 0, 1, 0, -4.67857e-05, 140515
-9816.11, 58114.8, 15.3472, 3.09342, -1189.86, -0.021188, 0.206888, 1.03299, 0.34851, 0.655882, 0.0001, 45.5, 246, 15.4646, 0.044886, 1.12359, 1, 0, 0, -3.08383e-06, 140526
-9816.11, 58114.8, 15.3472, 3.09342, -1189.86, -0.021188, 0.206888, 1.03299, 0.34851, 0.655882, 3, 45.5, 246, 15.4646, 0.044886, 1.06475, 1, 0, 0, 2.14081e-05, 140526
-9040.22, 82414, -18.3433, 3.35028, -1190.15, 0.0243413, 0.208739, 0.993198, 0.349787, 0.651995, 0.0001, 91, 246, 15.4646, 0.044886, 0, 0, 1, 0, 2.58309e-06, 140526
-9040.22, 82414, -18.3433, 3.35028, -1190.15, 0.0243413, 0.208739, 0.993198, 0.349787, 0.651995, 3, 91, 246, 15.4646, 0.044886, 0, 0, 1, 0, -6.7121e-06, 140526
-10888.9, 106608, -7.17775, 2.48537, -955.914, 0.131101, 0.253403, 1.03299, 0.34851, 0.655882, 0.0001, 45.5, 246, 16.2001, 0.0431332, 0, 0, 1, 0, 2.00389e-06, 140527
-10888.9, 106608, -7.17775, 2.48537, -955.914, 0.131101, 0.253403, 1.03299, 0.34851, 0.655882, 3, 45.5, 246, 16.2001, 0.0431332, 0, 0, 1, 0, -9.31947e-06, 140527
-10900.6, 83613.5, 14.4517, 3.58158, -680.276, -0.0492137, 0.139369, 1.03299, 0.34851, 0.655882, 0.0001, 45.5, 246, 9.66199, 0.0210496, 0, 0, 1, 0, -6.30158e-06, 140531
-10900.6, 83613.5, 14.4517, 3.58158, -680.276, -0.0492137, 0.139369, 1.03299, 0.34851, 0.655882, 3, 45.5, 246, 9.66199, 0.0210496, 0, 0, 1, 0, 4.74646e-06, 140531
-9690.48, 90929.8, -7.48506, 3.90399, -677.845, 0.0122715, 0.153762, 0.993198, 0.349787, 0.651995, 0.0001, 91, 246, 9.66199, 0.0210496, 0, 0, 1, 0, 8.46927e-06, 140531
-9690.48, 90929.8, -7.48506, 3.90399, -677.845, 0.0122715, 0.153762, 0.993198, 0.349787, 0.651995, 3, 91, 246, 9.66199, 0.0210496, 0, 0, 1, 0, 3.42041e-06, 140531
-8166.16, 98670.8, -33.8111, 4.29188, -685.216, 0.0862424, 0.188654, 0.958125, 0.351078, 0.648177, 0.0001, 182, 246, 9.66199, 0.0210496, 0, 0, 1, 0, 1.28964e-05, 140531
-8166.16, 98670.8, -33.8111, 4.29188, -685.216, 0.0862424, 0.188654, 0.958125, 0.351078, 0.648177, 3, 182, 246, 9.66199, 0.0210496, 0, 0, 1, 0, 1.28405e-05, 140531
-8561.85, 284837, -168.755, 0.888117, -980.884, 0.0065493, 0.389762, 0.993198, 0.349787, 0.651995, 0.0001, 91, 246, 32.0787, 0.144682, 0, 0, 1, 0, -3.87665e-06, 140532
-27113.4, -204966, -81.3619, 0.374801, -966.153, 1.13894, 0.350316, 0.958125, 0.351078, 0.648177, 0.0001, 182, 246, -143.91, 0.131352, 0, 0, 1, 0, -9.71448e-05, 140537
-8164.15, 3334.26, -18.0918, 2.68139, -1103.07, -6.07373e-05, 0.267246, 0.993198, 0.349787, 0.651995, 0.0001, 91, 246, 12.7049, 0.0617342, 0, 0, 1, 1, 1.63269e-05, 140538
-8164.15, 3334.26, -18.0918, 2.68139, -1103.07, -6.07373e-05, 0.267246, 0.993198, 0.349787, 0.651995, 3, 91, 246, 12.7049, 0.0617342, 0, 0, 1, 1, 1.44564e-05, 140538
-6014.5, 286296, -280.191, 3.04391, -1028.37, 0.376505, 0.354592, 0.958125, 0.351078, 0.648177, 0.0001, 182, 246, 36.7268, 0.155913, 0, 0, 0, 0, -9.14921e-06, 140542
-6014.5, 286296, -280.191, 3.04391, -1028.37, 0.376505, 0.354592, 0.958125, 0.351078, 0.648177, 3, 182, 246, 36.7268, 0.155913, 0, 0, 0, 0, 1.84822e-05, 140542
-10384.8, 158803, -148.064, 3.13545, -1092.39, -0.0425285, 0.270313, 1.03299, 0.34851, 0.655882, 0.0001, 45.5, 246, 37.8351, 0.14795, 0, 0, 0, 0, 3.42743e-06, 140545
-10384.8, 158803, -148.064, 3.13545, -1092.39, -0.0425285, 0.270313, 1.03299, 0.34851, 0.655882, 3, 45.5, 246, 37.8351, 0.14795, 0, 0, 0, 0, -6.55964e-06, 140545
-7932.84, 179742, -193.518, 3.40077, -1103.65, 0.00437581, 0.277487, 0.993198, 0.349787, 0.651995, 0.0001, 91, 246, 37.8351, 0.14795, 0, 0, 1, 0, 1.64447e-05, 140545
-7932.84, 179742, -193.518, 3.40077, -1103.65, 0.00437581, 0.277487, 0.993198, 0.349787, 0.651995, 3, 91, 246, 37.8351, 0.14795, 0, 0, 1, 0, -1.95758e-05, 140545
-4175.38, 45306.6, -156.231, 3.1818, -646.289, 0.69733, 0.216257, 1.03299, 0.34851, 0.655882, 0.0001, 45.5, 246, 47.7529, 0.11075, 1.26225, 1, 1, 0, 4.00079e-06, 140548
-4175.38, 45306.6, -156.231, 3.1818, -646.289, 0.69733, 0.216257, 1.03299, 0.34851, 0.655882, 3, 45.5, 246, 47.7529, 0.11075, 1.09713, 1, 1, 0, 8.30406e-06, 140548
-3249.97, 56102.8, -191.199, 3.59891, -745.711, 0.840337, 0.22356, 0.993198, 0.349787, 0.651995, 0.0001, 91, 246, 47.7529, 0.11075, 1.25013, 1, 1, 0, 6.70238e-06, 140548
-3249.97, 56102.8, -191.199, 3.59891, -745.711, 0.840337, 0.22356, 0.993198, 0.349787, 0.651995, 3, 91, 246, 47.7529, 0.11075, 1.09798, 1, 1, 0, 7.40937e-07, 140548
-1832.16, 71478, -237.938, 4.13606, -887.936, 1.04465, 0.253827, 0.958125, 0.351078, 0.648177, 0.0001, 182, 246, 47.7529, 0.11075, 1.43976, 1, 1, 0, 1.7297e-05, 140548
-1832.16, 71478, -237.938, 4.13606, -887.936, 1.04465, 0.253827, 0.958125, 0.351078, 0.648177, 3, 182, 246, 47.7529, 0.11075, 1.30856, 1, 1, 0, -5.67013e-06, 140548
1416.9, 105659, -331.63, 5.16749, -1203.6, 1.49659, 0.343601, 0.9175, 0.352806, 0.64323, 0.0001, 455, 246, 47.7529, 0.11075, 2.83958, 1, 1, 0, -3.62268e-06, 140548
1416.9, 105659, -331.63, 5.16749, -1203.6, 1.49659, 0.343601, 0.9175, 0.352806, 0.64323, 3, 455, 246, 47.7529, 0.11075, 2.83891, 1, 1, 0, 1.42353e-05, 140548
-11565.3, 126444, 7.98021, 2.34919, -842.381, 0.000253426, 0.258433, 1.03299, 0.34851, 0.655882, 0.0001, 45.5, 246, 12.235, 0.0227032, 0, 0, 1, 0, 9.14275e-06, 140560
-11565.3, 126444, 7.98021, 2.34919, -842.381, 0.000253426, 0.258433, 1.03299, 0.34851, 0.655882, 3, 45.5, 246, 12.235, 0.0227032, 0, 0, 1, 0, -1.39125e-05, 140560
-9436.89, 187685, -230.768, 2.14518, -847.874, 0.0422793, 0.45882, 1.03299, 0.34851, 0.655882, 3, 45.5, 246, 45.8557, 0.23741, 0, 0, 0, 0, 9.52277e-06, 140578
171.571, 241584, -362.605, 2.7513, -949.803, 0.132726, 0.480847, 0.9175, 0.352806, 0.64323, 3, 455, 246, 45.8557, 0.23741, 1.56887, 1, 0, 0, 2.18e-06, 140578
-10370.5, 145249, -135.05, 3.20414, -938.997, -0.0490257, 0.244828, 1.03299, 0.34851, 0.655882, 0.0001, 45.5, 246, 34.8997, 0.134097, 0, 0, 0, 0, -2.88866e-06, 140581
-10370.5, 145249, -135.05, 3.20414, -938.997, -0.0490257, 0.244828, 1.03299, 0.34851, 0.655882, 3, 45.5, 246, 34.8997, 0.134097, 0, 0, 0, 0, -1.89791e-06, 140581
-8145.62, 160540, -175.507, 3.47635, -948.88, 7.24273e-06, 0.2525, 0.993198, 0.349787, 0.651995, 0.0001, 91, 246, 34.8997, 0.134097, 0, 0, 1, 0, 1.98375e-05, 140581
-8145.62, 160540, -175.507, 3.47635, -948.88, 7.24273e-06, 0.2525, 0.993198, 0.349787, 0.651995, 3, 91, 246, 34.8997, 0.134097, 0, 0, 1, 0, 4.1512e-06, 140581
-82.6102, 203095, -302.521, 4.32563, -1031.04, 0.155818, 0.338983, 0.9175, 0.352806, 0.64323, 0.0001, 455, 246, 34.8997, 0.134097, 1.23819, 1, 0, 0, 2.17483e-06, 140581
-82.6102, 203095, -302.521, 4.32563, -1031.04, 0.155818, 0.338983, 0.9175, 0.352806, 0.64323, 3, 455, 246, 34.8997, 0.134097, 1.27879, 1, 0, 0, -4.83562e-06, 140581
-8806.7, 115015, -104.58, 1.08115, -1027.41, 0.0611795, 0.407748, 1.03299, 0.34851, 0.655882, 0.0001, 45.5, 246, 35.0057, 0.210041, 0, 0, 1, 0, 2.41213e-05, 140589
-8806.7, 115015, -104.58, 1.08115, -1027.41, 0.0611795, 0.407748, 1.03299, 0.34851, 0.655882, 3, 45.5, 246, 35.0057, 0.210041, 0, 0, 1, 0, -1.37519e-06, 140589
-10759.3, 235141, -125.824, 1.53469, -1181.63, -0.010677, 0.371194, 1.03299, 0.34851, 0.655882, 0.0001, 45.5, 246, 32.4934, 0.125747, 0, 0, 0, 0, 1.83137e-05, 140594
-10759.3, 235141, -125.824, 1.53469, -1181.63, -0.010677, 0.371194, 1.03299, 0.34851, 0.655882, 3, 45.5, 246, 32.4934, 0.125747, 0, 0, 0, 0, 4.74681e-06, 140594
-9151.14, 259731, -149.773, 1.62088, -1186.36, 0.000254245, 0.348455, 0.993198, 0.349787, 0.651995, 3, 91, 246, 32.4934, 0.125747, 0, 0, 1, 0, 1.34026e-05, 140594
-9166.29, 100945, -21.2948, 0.707156, -996.927, 0.000376629, 0.343125, 1.03299, 0.34851, 0.655882, 0.0001, 45.5, 246, 15.7807, 0.0565349, 0, 0, 1, 0, -4.75581e-06, 140600
-9166.29, 100945, -21.2948, 0.707156, -996.927, 0.000376629, 0.343125, 1.03299, 0.34851, 0.655882, 3, 45.5, 246, 15.7807, 0.0565349, 0, 0, 1, 0, -4.02606e-05, 140600
-2290.19, 82255.3, -227.034, 4.05752, -1163.49, 0.0659316, 0.273241, 0.958125, 0.351078, 0.648177, 0.0001, 182, 246, 48.1791, 0.125413, 1.37512, 1, 1, 0, -1.97286e-05, 140602
-2290.19, 82255.3, -227.034, 4.05752, -1163.49, 0.0659316, 0.273241, 0.958125, 0.351078, 0.648177, 3, 182, 246, 48.1791, 0.125413, 1.20848, 1, 1, 0, 1.32792e-05, 140602
1078.1, 117928, -322.916, 4.66018, -1234.82, 0.178795, 0.349971, 0.9175, 0.352806, 0.64323, 0.0001, 455, 246, 48.1791, 0.125413, 3.61508, 1, 0, 0, 1.5338e-05, 140602
1078.1, 117928, -322.916, 4.66018, -1234.82, 0.178795, 0.349971, 0.9175, 0.352806, 0.64323, 3, 455, 246, 48.1791, 0.125413, 3.61786, 1, 0, 0, 1.21551e-05, 140602
-6509.62, 27308.5, -87.6535, 3.3225, -1103.49, 0.0976691, 0.244373, 0.993198, 0.349787, 0.651995, 0.0001, 91, 246, 32.3808, 0.0704324, 0, 0, 1, 1, 6.13255e-06, 140603
-6509.62, 27308.5, -87.6535, 3.3225, -1103.49, 0.0976691, 0.244373, 0.993198, 0.349787, 0.651995, 3, 91, 246, 32.3808, 0.0704324, 0, 0, 1, 1, -1.36082e-06, 140603
-6518.66, 658980, -333.111, 0.207752, -1106.6, 0.387748, 0.492983, 1.03299, 0.34851, 0.655882, 0.0001, 45.5, 246, 37.6384, 0.122482, 0, 0, 0, 0, -1.65701e-05, 140604
-12300.2, 136251, -41.4637, 3.41477, -949.687, -0.0330381, 0.168545, 1.03299, 0.34851, 0.655882, 0.0001, 45.5, 246, 22.067, 0.0638087, 0, 0, 0, 0, 1.41314e-05, 140605
-12300.2, 136251, -41.4637, 3.41477, -949.687, -0.0330381, 0.168545, 1.03299, 0.34851, 0.655882, 3, 45.5, 246, 22.067, 0.0638087, 0, 0, 0, 0, -1.37589e-05, 140605
-10273, 151442, -76.1536, 3.7159, -954.291, 0.0227115, 0.178685, 0.993198, 0.349787, 0.651995, 0.0001, 91, 246, 22.067, 0.0638087, 0, 0, 1, 0, -1.69748e-05, 140605
-10273, 151442, -76.1536, 3.7159, -954.291, 0.0227115, 0.178685, 0.993198, 0.349787, 0.651995, 3, 91, 246, 22.067, 0.0638087, 0, 0, 1, 0, 3.72967e-06, 140605
-11005.5, -119872, 1.33272, 0.571247, -1060.25, 0.124065, 0.369809, 1.03299, 0.34851, 0.655882, 0.0001, 45.5, 246, -66.262, 0.155788, 0, 0, 1, 0, -1.13646e-05, 140614
-11005.5, -119872, 1.33272, 0.571247, -1060.25, 0.124065, 0.369809, 1.03299, 0.34851, 0.655882, 3, 45.5, 246, -66.262, 0.155788, 0, 0, 1, 0, -3.29864e-05, 140614
-3949.44, 238138, -326.794, 3.54203, -964.722, 0.40157, 0.377895, 0.958125, 0.351078, 0.648177, 3, 182, 246, 42.1415, 0.187115, 0, 0, 0, 0, -2.41903e-05, 140618
-11122.5, 375561, -138.243, 0.869663, -924.05, 0.0109976, 0.38018, 1.03299, 0.34851, 0.655882, 0.0001, 45.5, 246, 27.451, 0.0941509, 0, 0, 1, 0, -8.24704e-06, 140622
-11122.5, 375561, -138.243, 0.869663, -924.05, 0.0109976, 0.38018, 1.03299, 0.34851, 0.655882, 3, 45.5, 246, 27.451, 0.0941509, 0, 0, 1, 0, 2.53323e-05, 140622
-1301.16, 77997.6, -268.387, 4.66774, -922.577, 0.18063, 0.323478, 0.9175, 0.352806, 0.64323, 0.0001, 455, 246, 42.0899, 0.0935481, 1.40505, 1, 1, 0, 4.7667e-06, 140623
-1301.16, 77997.6, -268.387, 4.66774, -922.577, 0.18063, 0.323478, 0.9175, 0.352806, 0.64323, 3, 455, 246, 42.0899, 0.0935481, 1.3261, 1, 1, 0, 2.94356e-06, 140623
1183.59, 410790, -324.844, 4.98824, -1075.94, 0.306766, 0.297535, 0.9175, 0.352806, 0.64323, 3, 455, 246, 28.8876, 0.0865878, 0, 0, 0, 0, -4.39155e-05, 140634
-2739.28, 150167, -260.871, 3.6552, -1280.65, 0.775066, 0.326538, 0.958125, 0.351078, 0.648177, 0.0001, 182, 246, 45.1968, 0.186181, 1.21706, 1, 1, 0, -6.2229e-06, 140637
-9400.13, 459426, -166.473, 0.486182, -1017.13, 0.562412, 0.391775, 1.03299, 0.34851, 0.655882, 0.0001, 45.5, 246, 29.4461, 0.0852582, 0, 0, 1, 0, -0.000237245, 140640
-9400.13, 459426, -166.473, 0.486182, -1017.13, 0.562412, 0.391775, 1.03299, 0.34851, 0.655882, 3, 45.5, 246, 29.4461, 0.0852582, 0, 0, 1, 0, -4.67191e-05, 140640
-8334.27, 494653, -177.454, 0.520154, -1118.82, 0.61849, 0.360447, 0.993198, 0.349787, 0.651995, 3, 91, 246, 29.4461, 0.0852582, 0, 0, 1, 0, -6.82471e-05, 140640
-10225.2, 78245.6, -4.90428, 2.95634, -693.524, -0.0416232, 0.213801, 1.03299, 0.34851, 0.655882, 0.0001, 45.5, 246, 12.4431, 0.0348936, 0, 0, 1, 0, 7.85249e-06, 140644
-10225.2, 78245.6, -4.90428, 2.95634, -693.524, -0.0416232, 0.213801, 1.03299, 0.34851, 0.655882, 3, 45.5, 246, 12.4431, 0.0348936, 0, 0, 1, 0, 7.64815e-06, 140644
-11196.4, 410818, -320.564, 1.20379, -1134.99, -0.00421984, 0.565226, 1.03299, 0.34851, 0.655882, 3, 45.5, 246, 44.4253, 0.198907, 0, 0, 0, 0, 2.55367e-05, 140646
-15585, 202181, -37.5956, 3.48689, -1151.23, -0.057997, 0.153019, 1.03299, 0.34851, 0.655882, 0.0001, 45.5, 246, 24.4104, 0.0592927, 0, 0, 0, 0, 3.79208e-06, 140649
-15585, 202181, -37.5956, 3.48689, -1151.23, -0.057997, 0.153019, 1.03299, 0.34851, 0.655882, 3, 45.5, 246, 24.4104, 0.0592927, 0, 0, 0, 0, 1.21347e-05, 140649
-8696.04, 233543, -170.407, 1.73494, -1126.47, 0.000205874, 0.369827, 0.993198, 0.349787, 0.651995, 3, 91, 246, 35.1024, 0.154055, 0, 0, 1, 0, 2.74744e-06, 140652
-10563.9, 369527, -138.109, 0.795111, -1027.56, 0.443788, 0.379661, 1.03299, 0.34851, 0.655882, 0.0001, 45.5, 246, 28.776, 0.0896681, 0, 0, 1, 0, -3.3128e-05, 140663
-10563.9, 369527, -138.109, 0.795111, -1027.56, 0.443788, 0.379661, 1.03299, 0.34851, 0.655882, 3, 45.5, 246, 28.776, 0.0896681, 0, 0, 1, 0, 2.24703, 140663
-9265.86, 399092, -151.862, 0.849442, -1108.57, 0.480448, 0.34932, 0.993198, 0.349787, 0.651995, 3, 91, 246, 28.776, 0.0896681, 0, 0, 1, 0, 3.21237e-05, 140663
-9136.46, 237553, -99.523, 2.13442, -700.973, 0.0234939, 0.266845, 0.958125, 0.351078, 0.648177, 3, 182, 246, 19.5665, 0.0682615, 0, 0, 1, 0, 3.60065e-07, 140664
-10724.3, 507412, -65.0851, 0.406223, -842.382, 0.560986, 0.34578, 1.03299, 0.34851, 0.655882, 0.0001, 45.5, 246, 20.4168, 0.0310275, 0, 0, 1, 0, 1.54603e-05, 140673
-10724.3, 507412, -65.0851, 0.406223, -842.382, 0.560986, 0.34578, 1.03299, 0.34851, 0.655882, 3, 45.5, 246, 20.4168, 0.0310275, 0, 0, 1, 0, -2.15534e-05, 140673
-9084.36, 572920, -76.7783, 0.462822, -1025.99, 0.683897, 0.279959, 0.958125, 0.351078, 0.648177, 0.0001, 182, 246, 20.4168, 0.0310275, 0, 0, 1, 0, -4.86629e-05, 140673
-6241.25, -23408.8, -38.4809, 3.39506, -675.621, 0.0752441, 0.208578, 1.03299, 0.34851, 0.655882, 0.0001, 45.5, 246, 27.1729, 0.0455964, 0, 0, 1, 1, 1.05581e-05, 140679
-6241.25, -23408.8, -38.4809, 3.39506, -675.621, 0.0752441, 0.208578, 1.03299, 0.34851, 0.655882, 3, 45.5, 246, 27.1729, 0.0455964, 0, 0, 1, 1, -2.92109e-06, 140679
-10543.1, 539489, -142.085, 0.407215, -696.844, 0.672713, 0.37059, 1.03299, 0.34851, 0.655882, 0.0001, 45.5, 246, 21.6876, 0.0606442, 0, 0, 1, 0, 3.76958e-05, 140684
-10543.1, 539489, -142.085, 0.407215, -696.844, 0.672713, 0.37059, 1.03299, 0.34851, 0.655882, 3, 45.5, 246, 21.6876, 0.0606442, 0, 0, 1, 0, -7.17562e-06, 140684
-4995.56, 401934, -504.652, 3.73765, -907.484, 0.310323, 0.528495, 0.958125, 0.351078, 0.648177, 0.0001, 182, 246, 45.1318, 0.208329, 2.25868, 1, 0, 0, 0.000279704, 140685
-4995.56, 401934, -504.652, 3.73765, -907.484, 0.310323, 0.528495, 0.958125, 0.351078, 0.648177, 3, 182, 246, 45.1318, 0.208329, 2.37657, 1, 0, 0, -5.0028e-05, 140685
-9319.82, 300992, -404.522, 3.40146, -810.266, 0.116299, 0.47637, 0.993198, 0.349787, 0.651995, 0.0001, 91, 246, 47.9953, 0.225885, 1.05524, 1, 1, 0, -1.67879e-05, 140689
-2967.86, 318682, -470.904, 3.75652, -870.66, 0.17576, 0.515515, 0.958125, 0.351078, 0.648177, 0.0001, 182, 246, 47.9953, 0.225885, 4.20159, 1, 0, 0, -1.73397e-05, 140689
-2967.86, 318682, -470.904, 3.75652, -870.66, 0.17576, 0.515515, 0.958125, 0.351078, 0.648177, 3, 182, 246, 47.9953, 0.225885, 3.58904, 1, 0, 0, 9.92368e-06, 140689
-4611.86, 331779, -459.433, 3.76855, -755.029, 0.0597057, 0.489486, 0.958125, 0.351078, 0.648177, 0.0001, 182, 246, 44.7719, 0.21223, 2.02534, 1, 0, 0, -7.12189e-06, 140690
-4611.86, 331779, -459.433, 3.76855, -755.029, 0.0597057, 0.489486, 0.958125, 0.351078, 0.648177, 3, 182, 246, 44.7719, 0.21223, 1.87448, 1, 0, 0, 1.71557e-06, 140690
-3858.57, 50898, -162.061, 3.5242, -808.789, 0.408043, 0.193865, 1.03299, 0.34851, 0.655882, 0.0001, 45.5, 246, 49.0159, 0.123621, 1.30574, 1, 1, 0, 1.75028e-05, 140706
-3858.57, 50898, -162.061, 3.5242, -808.789, 0.408043, 0.193865, 1.03299, 0.34851, 0.655882, 3, 45.5, 246, 49.0159, 0.123621, 1.12708, 1, 1, 0, -2.1998e-05, 140706
-2691.87, 65233.7, -205.985, 3.94306, -887.399, 0.501533, 0.21088, 0.993198, 0.349787, 0.651995, 0.0001, 91, 246, 49.0159, 0.123621, 1.36017, 1, 1, 0, -1.15923e-05, 140706
-2691.87, 65233.7, -205.985, 3.94306, -887.399, 0.501533, 0.21088, 0.993198, 0.349787, 0.651995, 3, 91, 246, 49.0159, 0.123621, 1.21118, 1, 1, 0, -1.37241e-05, 140706
-885.824, 83754.3, -262.934, 4.46892, -996.75, 0.628962, 0.252764, 0.958125, 0.351078, 0.648177, 0.0001, 182, 246, 49.0159, 0.123621, 1.68436, 1, 1, 0, -2.67016e-05, 140706
-885.824, 83754.3, -262.934, 4.46892, -996.75, 0.628962, 0.252764, 0.958125, 0.351078, 0.648177, 3, 182, 246, 49.0159, 0.123621, 1.55431, 1, 1, 0, 1.78883e-05, 140706
-8515.02, 148623, -129.226, 1.75529, -845.599, 0.505651, 0.339543, 0.993198, 0.349787, 0.651995, 0.0001, 91, 246, 30.7585, 0.151692, 0, 0, 1, 0, -7.25894e-05, 140709
-8515.02, 148623, -129.226, 1.75529, -845.599, 0.505651, 0.339543, 0.993198, 0.349787, 0.651995, 3, 91, 246, 30.7585, 0.151692, 0, 0, 1, 0, 1.49602e-05, 140709
-7271.14, 166912, -151.416, 1.91091, -927.179, 0.565585, 0.325086, 0.958125, 0.351078, 0.648177, 0.0001, 182, 246, 30.7585, 0.151692, 0, 0, 1, 0, 2.90771e-05, 140709
-7271.14, 166912, -151.416, 1.91091, -927.179, 0.565585, 0.325086, 0.958125, 0.351078, 0.648177, 3, 182, 246, 30.7585, 0.151692, 0, 0, 1, 0, -2.416e-06, 140709
-5380.99, 668493, -202.009, 0.00694821, -1125.35, 0.276068, 0.363676, 0.993198, 0.349787, 0.651995, 0.0001, 91, 246, 30.9031, 0.0741524, 8.71087, 1, 1, 0, -2.94343e-05, 140712
-5380.99, 668493, -202.009, 0.00694821, -1125.35, 0.276068, 0.363676, 0.993198, 0.349787, 0.651995, 3, 91, 246, 30.9031, 0.0741524, 8.62904, 1, 1, 0, -0.000104544, 140712
-2684.35, 80005.4, -209.159, 3.78668, -1183.81, 0.0171197, 0.258738, 0.993198, 0.349787, 0.651995, 0.0001, 91, 246, 52.5371, 0.171349, 1.33449, 1, 1, 0, 1.48428e-05, 140725
-2684.35, 80005.4, -209.159, 3.78668, -1183.81, 0.0171197, 0.258738, 0.993198, 0.349787, 0.651995, 3, 91, 246, 52.5371, 0.171349, 1.13677, 1, 1, 0, 1.36882e-05, 140725
-590.359, 106419, -273.305, 4.16627, -1218.63, 0.0868346, 0.29518, 0.958125, 0.351078, 0.648177, 0.0001, 182, 246, 52.5371, 0.171349, 1.99253, 1, 1, 1, -1.58988e-06, 140725
-590.359, 106419, -273.305, 4.16627, -1218.63, 0.0868346, 0.29518, 0.958125, 0.351078, 0.648177, 3, 182, 246, 52.5371, 0.171349, 1.84901, 1, 1, 1, -2.48165e-06, 140725
-10345.9, 115666, -47.548, 2.33584, -1060.56, 0.0689052, 0.281569, 1.03299, 0.34851, 0.655882, 0.0001, 45.5, 246, 23.7696, 0.0832546, 0, 0, 1, 0, -6.89503e-06, 140726
-10345.9, 115666, -47.548, 2.33584, -1060.56, 0.0689052, 0.281569, 1.03299, 0.34851, 0.655882, 3, 45.5, 246, 23.7696, 0.0832546, 0, 0, 1, 0, 1.64777e-05, 140726
-3372.44, 59880.2, -184.017, 3.11766, -780.985, 0.0101139, 0.274063, 0.993198, 0.349787, 0.651995, 0.0001, 91, 246, 53.3811, 0.162146, 1.19018, 1, 1, 0, 3.00425e-07, 140736
-2138.39, 71543.7, -222.869, 3.38411, -802.462, 0.0566291, 0.287861, 0.958125, 0.351078, 0.648177, 0.0001, 182, 246, 53.3811, 0.162146, 1.41805, 1, 1, 0, 1.25306e-05, 140736
-2138.39, 71543.7, -222.869, 3.38411, -802.462, 0.0566291, 0.287861, 0.958125, 0.351078, 0.648177, 3, 182, 246, 53.3811, 0.162146, 1.26126, 1, 1, 0, 1.43524e-05, 140736
250.668, 89254.1, -285.765, 3.81215, -850.286, 0.133405, 0.329645, 0.9175, 0.352806, 0.64323, 0.0001, 455, 246, 53.3811, 0.162146, 2.10796, 1, 1, 1, -2.77782e-06, 140736
250.668, 89254.1, -285.765, 3.81215, -850.286, 0.133405, 0.329645, 0.9175, 0.352806, 0.64323, 3, 455, 246, 53.3811, 0.162146, 1.99753, 1, 1, 1, 1.18279e-05, 140736
-10535.3, 458693, -191.256, 0.624471, -852.027, 0.168584, 0.411665, 1.03299, 0.34851, 0.655882, 0.0001, 45.5, 246, 28.7486, 0.105022, 0, 0, 0, 0, 1.05375e-05, 140741
-10535.3, 458693, -191.256, 0.624471, -852.027, 0.168584, 0.411665, 1.03299, 0.34851, 0.655882, 3, 45.5, 246, 28.7486, 0.105022, 0, 0, 0, 0, -1.83277e-05, 140741
-4399.66, 240407, -346.312, 4.20563, -773.662, 0.44312, 0.333173, 0.958125, 0.351078, 0.648177, 0.0001, 182, 246, 39.1839, 0.168085, 1.18359, 1, 0, 0, 3.76342e-05, 140745
-9790.47, 379734, -262.784, 0.759199, -970.486, 0.0268662, 0.511489, 1.03299, 0.34851, 0.655882, 0.0001, 45.5, 246, 38.2596, 0.178587, 0, 0, 0, 0, 1.21853e-05, 140748
-9790.47, 379734, -262.784, 0.759199, -970.486, 0.0268662, 0.511489, 1.03299, 0.34851, 0.655882, 3, 45.5, 246, 38.2596, 0.178587, 0, 0, 0, 0, -1.16585e-06, 140748
-156.32, 242377, -363.059, 3.06631, -747.67, 0.0913581, 0.44896, 0.9175, 0.352806, 0.64323, 0.0001, 455, 246, 41.2334, 0.207387, 1.05873, 1, 0, 0, -1.30408e-05, 140757
-156.32, 242377, -363.059, 3.06631, -747.67, 0.0913581, 0.44896, 0.9175, 0.352806, 0.64323, 3, 455, 246, 41.2334, 0.207387, 1.11136, 1, 0, 0, -1.61182e-05, 140757
-9123.25, 205302, -165.951, 0.91042, -959.806, -0.000383958, 0.456805, 1.03299, 0.34851, 0.655882, 0.0001, 45.5, 246, 36.9966, 0.20295, 0, 0, 1, 0, 3.74392e-05, 140758
-9123.25, 205302, -165.951, 0.91042, -959.806, -0.000383958, 0.456805, 1.03299, 0.34851, 0.655882, 3, 45.5, 246, 36.9966, 0.20295, 0, 0, 1, 0, -1.82377e-06, 140758
-11044.4, 212498, -77.0193, 1.26178, -605.896, -0.00733976, 0.34187, 1.03299, 0.34851, 0.655882, 0.0001, 45.5, 246, 19.7745, 0.0845893, 0, 0, 1, 0, 2.36389e-05, 140759
-11044.4, 212498, -77.0193, 1.26178, -605.896, -0.00733976, 0.34187, 1.03299, 0.34851, 0.655882, 3, 45.5, 246, 19.7745, 0.0845893, 0, 0, 1, 0, -8.85462e-06, 140759
-10039, 218805, -87.9551, 1.32499, -608.348, 6.03068e-06, 0.313243, 0.993198, 0.349787, 0.651995, 0.0001, 91, 246, 19.7745, 0.0845893, 0, 0, 1, 0, -2.14413e-05, 140759
-10720, 191592, -112.53, 1.83395, -1063.43, -0.013924, 0.349091, 1.03299, 0.34851, 0.655882, 0.0001, 45.5, 246, 31.0984, 0.127473, 0, 0, 1, 0, -8.27925e-06, 140761
-10720, 191592, -112.53, 1.83395, -1063.43, -0.013924, 0.349091, 1.03299, 0.34851, 0.655882, 3, 45.5, 246, 31.0984, 0.127473, 0, 0, 1, 0, 1.04965e-05, 140761
-9177.51, 211410, -137.683, 1.94644, -1068.61, 0.00176276, 0.329616, 0.993198, 0.349787, 0.651995, 0.0001, 91, 246, 31.0984, 0.127473, 0, 0, 1, 0, -1.78295e-05, 140761
-9177.51, 211410, -137.683, 1.94644, -1068.61, 0.00176276, 0.329616, 0.993198, 0.349787, 0.651995, 3, 91, 246, 31.0984, 0.127473, 0, 0, 1, 0, 1.79042e-05, 140761
-7225.18, 231865, -165.609, 2.06717, -1078.38, 0.019453, 0.317517, 0.958125, 0.351078, 0.648177, 0.0001, 182, 246, 31.0984, 0.127473, 0, 0, 1, 0, 7.63538e-08, 140761
-8454.29, 489855, -275.305, 0.455422, -1063.73, -0.000781808, 0.491206, 1.03299, 0.34851, 0.655882, 0.0001, 45.5, 246, 37.2099, 0.146248, 0, 0, 0, 0, 9.47313e-05, 140766
-8454.29, 489855, -275.305, 0.455422, -1063.73, -0.000781808, 0.491206, 1.03299, 0.34851, 0.655882, 3, 45.5, 246, 37.2099, 0.146248, 0, 0, 0, 0, 0.000131583, 140766
-5252.51, 532713, -305.935, 0.490887, -1071.04, 0.00118543, 0.449175, 0.958125, 0.351078, 0.648177, 3, 182, 246, 37.2099, 0.146248, 0, 0, 0, 0, -8.22437e-05, 140766
-7082.09, -23330, -24.0402, 3.75974, -1168.4, 0.391289, 0.222611, 0.993198, 0.349787, 0.651995, 3, 91, 246, 14.4418, 0.0536524, 0, 0, 1, 1, -5.5004e-06, 140768
-7520.95, 304970, -196.046, 0.158902, -1361, 0.736589, 0.444541, 0.9175, 0.352806, 0.64323, 0.0001, 455, 246, 38.4349, 0.245643, 1.43687, 1, 0, 0, -652.394, 140769
-7520.95, 304970, -196.046, 0.158902, -1361, 0.736589, 0.444541, 0.9175, 0.352806, 0.64323, 3, 455, 246, 38.4349, 0.245643, 1.32535, 1, 0, 0, -647.017, 140769
-6047.59, 101569, -158.718, 3.42866, -790.463, 0.957604, 0.264121, 0.958125, 0.351078, 0.648177, 3, 182, 246, 30.0983, 0.109368, 0, 0, 1, 0, -2.84593e-05, 140773
-10722.8, 145362, -40.1446, 1.80278, -984.75, -0.011842, 0.307852, 1.03299, 0.34851, 0.655882, 0.0001, 45.5, 246, 20.8087, 0.0685969, 0, 0, 1, 0, -8.95566e-06, 140777
-10722.8, 145362, -40.1446, 1.80278, -984.75, -0.011842, 0.307852, 1.03299, 0.34851, 0.655882, 3, 45.5, 246, 20.8087, 0.0685969, 0, 0, 1, 0, -1.29996e-05, 140777
-7497.16, 441343, -327.687, 0.319959, -822.021, 0.0010291, 0.554135, 0.993198, 0.349787, 0.651995, 0.0001, 91, 246, 37.9835, 0.195654, 0, 0, 1, 0, 5.91634e-05, 140782
-6077.75, 455211, -342.113, 0.331725, -825.059, 0.00149548, 0.542302, 0.958125, 0.351078, 0.648177, 0.0001, 182, 246, 37.9835, 0.195654, 0, 0, 0, 0, 3.79145e-05, 140782
-9028.38, 508928, -199.306, 0.400308, -943.891, 0.00785928, 0.415371, 1.03299, 0.34851, 0.655882, 0.0001, 45.5, 246, 30.1149, 0.101167, 0, 0, 0, 0, -1.31832e-05, 140785
-9028.38, 508928, -199.306, 0.400308, -943.891, 0.00785928, 0.415371, 1.03299, 0.34851, 0.655882, 3, 45.5, 246, 30.1149, 0.101167, 0, 0, 0, 0, -4.28645e-05, 140785
-7976.34, 525525, -209.943, 0.414935, -947.318, 0.00859953, 0.38552, 0.993198, 0.349787, 0.651995, 3, 91, 246, 30.1149, 0.101167, 0, 0, 1, 0, -3.93028e-05, 140785
-11460.9, 116847, -19.782, 3.07348, -1078.18, -0.0401375, 0.206149, 1.03299, 0.34851, 0.655882, 0.0001, 45.5, 246, 20.463, 0.0571478, 0, 0, 0, 0, -1.51784e-05, 140789
-11460.9, 116847, -19.782, 3.07348, -1078.18, -0.0401375, 0.206149, 1.03299, 0.34851, 0.655882, 3, 45.5, 246, 20.463, 0.0571478, 0, 0, 0, 0, -5.42014e-06, 140789
-9919.19, 136527, -52.8574, 3.32389, -1078.12, 0.0047936, 0.207288, 0.993198, 0.349787, 0.651995, 0.0001, 91, 246, 20.463, 0.0571478, 0, 0, 1, 0, -4.16105e-06, 140789
-9919.19, 136527, -52.8574, 3.32389, -1078.12, 0.0047936, 0.207288, 0.993198, 0.349787, 0.651995, 3, 91, 246, 20.463, 0.0571478, 0, 0, 1, 0, -9.92645e-06, 140789
-9367.76, 827604, -165.096, 0.182902, -680.009, 0.20261, 0.370812, 1.03299, 0.34851, 0.655882, 0.0001, 45.5, 246, 21.4644, 0.0495067, 0, 0, 1, 0, -0.000143618, 140790
-9367.76, 827604, -165.096, 0.182902, -680.009, 0.20261, 0.370812, 1.03299, 0.34851, 0.655882, 3, 45.5, 246, 21.4644, 0.0495067, 0, 0, 1, 0, 3.83138e-05, 140790
-8678.17, 845546, -171.334, 0.190595, -703.35, 0.209469, 0.336882, 0.993198, 0.349787, 0.651995, 0.0001, 91, 246, 21.4644, 0.0495067, 0, 0, 1, 0, -5.25358e-05, 140790
-7883.8, 864644, -177.4, 0.198177, -728.345, 0.216812, 0.307206, 0.958125, 0.351078, 0.648177, 0.0001, 182, 246, 21.4644, 0.0495067, 0, 0, 1, 0, -2.17945e-05, 140790
-5683.93, 213302, -313.138, 3.35236, -1103.61, 0.00318076, 0.409791, 0.993198, 0.349787, 0.651995, 3, 91, 246, 50.6272, 0.227468, 0, 0, 1, 0, -5.61813e-06, 140791
-1266.75, 237581, -378.211, 3.6687, -1140.71, 0.057346, 0.441194, 0.958125, 0.351078, 0.648177, 0.0001, 182, 246, 50.6272, 0.227468, 2.49632, 1, 0, 0, 4.78743e-06, 140791
-1266.75, 237581, -378.211, 3.6687, -1140.71, 0.057346, 0.441194, 0.958125, 0.351078, 0.648177, 3, 182, 246, 50.6272, 0.227468, 2.30412, 1, 0, 0, -1.29471e-06, 140791
-8564.01, 135376, -189.2, 3.61796, -868.397, -0.0435475, 0.226844, 1.03299, 0.34851, 0.655882, 3, 45.5, 246, 42.3387, 0.162129, 0, 0, 0, 0, 1.01361e-05, 140793
-5980.03, 149094, -237.561, 3.95748, -887.834, 0.0193816, 0.247748, 0.993198, 0.349787, 0.651995, 3, 91, 246, 42.3387, 0.162129, 0, 0, 1, 0, -8.4068e-06, 140793
-2595.29, 164867, -296.109, 4.36874, -925.063, 0.0958366, 0.290336, 0.958125, 0.351078, 0.648177, 0.0001, 182, 246, 42.3387, 0.162129, 1.40117, 1, 0, 0, -1.7362e-05, 140793
-2595.29, 164867, -296.109, 4.36874, -925.063, 0.0958366, 0.290336, 0.958125, 0.351078, 0.648177, 3, 182, 246, 42.3387, 0.162129, 1.21556, 1, 0, 0, 1.0165e-05, 140793
-8962, 165660, -265.439, 2.84256, -585.28, 0.5933, 0.370234, 1.03299, 0.34851, 0.655882, 0.0001, 45.5, 246, 45.6082, 0.210191, 1.14043, 1, 0, 0, -1.19258e-05, 140796
-6185.07, 179424, -304.89, 3.18673, -671.659, 0.69865, 0.377311, 0.993198, 0.349787, 0.651995, 0.0001, 91, 246, 45.6082, 0.210191, 1.11518, 1, 1, 0, 6.99056e-05, 140796
-2545.46, 197981, -354.785, 3.61487, -789.396, 0.84235, 0.40264, 0.958125, 0.351078, 0.648177, 0.0001, 182, 246, 45.6082, 0.210191, 1.62525, 1, 0, 0, -4.36001e-05, 140796
-2545.46, 197981, -354.785, 3.61487, -789.396, 0.84235, 0.40264, 0.958125, 0.351078, 0.648177, 3, 182, 246, 45.6082, 0.210191, 1.4574, 1, 0, 0, -8.8697e-06, 140796
-11299.2, 316317, -69.432, 0.953853, -1064.27, 0.0217122, 0.344188, 1.03299, 0.34851, 0.655882, 0.0001, 45.5, 246, 24.0095, 0.0586415, 0, 0, 1, 0, 3.82669e-05, 140800
-11299.2, 316317, -69.432, 0.953853, -1064.27, 0.0217122, 0.344188, 1.03299, 0.34851, 0.655882, 3, 45.5, 246, 24.0095, 0.0586415, 0, 0, 1, 0, 1.90491e-05, 140800
-10134.2, 336638, -81.8602, 0.997539, -1070.23, 0.0259813, 0.312456, 0.993198, 0.349787, 0.651995, 3, 91, 246, 24.0095, 0.0586415, 0, 0, 1, 0, 9.16657e-06, 140800
-8737.44, 357365, -95.1528, 1.04153, -1077.4, 0.030671, 0.285691, 0.958125, 0.351078, 0.648177, 0.0001, 182, 246, 24.0095, 0.0586415, 0, 0, 1, 0, -1.94498e-06, 140800
-12009.1, 284177, -361.012, 2.34446, -949.363, 0.657782, 0.572259, 1.03299, 0.34851, 0.655882, 3, 45.5, 246, 51.0465, 0.24926, 0, 0, 0, 0, -1.64829e-05, 140802
-10211.3, 717903, -205.892, 0.426523, -982.379, -0.000775446, 0.396298, 1.03299, 0.34851, 0.655882, 0.0001, 45.5, 246, 29.8783, 0.0743576, 0, 0, 0, 0, -1.17888e-06, 140808
-5641.59, 22238.1, -100.572, 3.99399, -1158.19, 0.224132, 0.203905, 0.993198, 0.349787, 0.651995, 0.0001, 91, 246, 33.3816, 0.0558394, 0, 0, 1, 1, 1.74152e-06, 140811
-5641.59, 22238.1, -100.572, 3.99399, -1158.19, 0.224132, 0.203905, 0.993198, 0.349787, 0.651995, 3, 91, 246, 33.3816, 0.0558394, 0, 0, 1, 1, -6.72967e-06, 140811
-2694.46, 88257.9, -258.252, 5.27593, -1363, 0.482623, 0.348452, 0.9175, 0.352806, 0.64323, 0.0001, 455, 246, 33.3816, 0.0558394, 1.26326, 1, 1, 0, -6.1225e-06, 140811
-2694.46, 88257.9, -258.252, 5.27593, -1363, 0.482623, 0.348452, 0.9175, 0.352806, 0.64323, 3, 455, 246, 33.3816, 0.0558394, 1.22375, 1, 1, 0, -5.07112e-07, 140811
-10904.9, 250483, -286.578, 1.80521, -804.159, 0.320333, 0.53906, 1.03299, 0.34851, 0.655882, 3, 45.5, 246, 45.6168, 0.243075, 0, 0, 0, 0, 4.59383e-05, 140813
-10464.9, -160821, -10.6972, 0.0748569, -1112.3, 0.00367495, 0.34488, 1.03299, 0.34851, 0.655882, 0.0001, 45.5, 246, -109.969, 0.0397352, 0, 0, 1, 0, -0.000107086, 140820
-10464.9, -160821, -10.6972, 0.0748569, -1112.3, 0.00367495, 0.34488, 1.03299, 0.34851, 0.655882, 3, 45.5, 246, -109.969, 0.0397352, 0, 0, 1, 0, -0.000103862, 140820
-9863.96, 434172, -277.442, 0.423892, -681.096, 0.818741, 0.489109, 1.03299, 0.34851, 0.655882, 3, 45.5, 246, 30.7974, 0.145443, 0, 0, 0, 0, 4.32954e-05, 140821
-8562.58, 465698, -291.105, 0.461172, -785.916, 0.941396, 0.46567, 0.993198, 0.349787, 0.651995, 3, 91, 246, 30.7974, 0.145443, 0, 0, 1, 0, 2.48615e-05, 140821
-8000.92, 298539, -251.079, 1.18581, -1083.82, 0.0161911, 0.483915, 0.993198, 0.349787, 0.651995, 3, 91, 246, 41.2096, 0.204859, 0, 0, 1, 0, 1.94137e-05, 140828
-8793.89, 99929.1, -99.8107, 2.36302, -991.072, 0.00296831, 0.314387, 1.03299, 0.34851, 0.655882, 0.0001, 45.5, 246, 33.6077, 0.146345, 0, 0, 1, 0, 7.23088e-06, 140833
-8793.89, 99929.1, -99.8107, 2.36302, -991.072, 0.00296831, 0.314387, 1.03299, 0.34851, 0.655882, 3, 45.5, 246, 33.6077, 0.146345, 0, 0, 1, 0, 5.69839e-07, 140833
-1247.85, 137596, -275.752, 4.6414, -865.237, 0.769723, 0.331268, 0.9175, 0.352806, 0.64323, 0.0001, 455, 246, 34.0113, 0.123768, 1.16578, 1, 0, 0, -6.05479e-06, 140841
-1247.85, 137596, -275.752, 4.6414, -865.237, 0.769723, 0.331268, 0.9175, 0.352806, 0.64323, 3, 455, 246, 34.0113, 0.123768, 1.16023, 1, 0, 0, -4.23654e-05, 140841
-4470.42, 68578.7, -186.065, 3.25804, -590.805, 0.0926728, 0.241415, 1.03299, 0.34851, 0.655882, 0.0001, 45.5, 246, 49.4415, 0.158141, 1.37174, 1, 1, 0, 7.5426e-06, 140843
-4470.42, 68578.7, -186.065, 3.25804, -590.805, 0.0926728, 0.241415, 1.03299, 0.34851, 0.655882, 3, 45.5, 246, 49.4415, 0.158141, 1.21476, 1, 1, 0, -1.44737e-05, 140843
-3119.78, 75950.4, -221.245, 3.56585, -620.392, 0.145934, 0.251037, 0.993198, 0.349787, 0.651995, 0.0001, 91, 246, 49.4415, 0.158141, 1.38319, 1, 1, 0, -1.51735e-06, 140843
-3119.78, 75950.4, -221.245, 3.56585, -620.392, 0.145934, 0.251037, 0.993198, 0.349787, 0.651995, 3, 91, 246, 49.4415, 0.158141, 1.23899, 1, 1, 0, -2.58033e-06, 140843
-1337.96, 84782.8, -263.725, 3.93275, -662.298, 0.212556, 0.27909, 0.958125, 0.351078, 0.648177, 0.0001, 182, 246, 49.4415, 0.158141, 1.58175, 1, 1, 0, 5.20683e-06, 140843
-1337.96, 84782.8, -263.725, 3.93275, -662.298, 0.212556, 0.27909, 0.958125, 0.351078, 0.648177, 3, 182, 246, 49.4415, 0.158141, 1.44781, 1, 1, 0, -1.40488e-05, 140843
1964.92, 100021, -336.264, 4.55213, -745.772, 0.331718, 0.350258, 0.9175, 0.352806, 0.64323, 0.0001, 455, 246, 49.4415, 0.158141, 2.31912, 1, 1, 0, 1.33734e-05, 140843
1964.92, 100021, -336.264, 4.55213, -745.772, 0.331718, 0.350258, 0.9175, 0.352806, 0.64323, 3, 455, 246, 49.4415, 0.158141, 2.24534, 1, 1, 0, 1.0767e-06, 140843
-8322.28, 262015, -104.128, 0.291915, -915.042, 0.354462, 0.346002, 0.993198, 0.349787, 0.651995, 0.0001, 91, 246, 24.4276, 0.100646, 0, 0, 1, 0, 4.07898e-05, 140845
-8322.28, 262015, -104.128, 0.291915, -915.042, 0.354462, 0.346002, 0.993198, 0.349787, 0.651995, 3, 91, 246, 24.4276, 0.100646, 0, 0, 1, 0, 1.55948e-05, 140845
-10792.5, 411419, -220.05, 0.618428, -635.108, 0.100937, 0.447731, 1.03299, 0.34851, 0.655882, 0.0001, 45.5, 246, 28.2597, 0.135882, 0, 0, 1, 0, 2.82972e-05, 140849
-10792.5, 411419, -220.05, 0.618428, -635.108, 0.100937, 0.447731, 1.03299, 0.34851, 0.655882, 3, 45.5, 246, 28.2597, 0.135882, 0, 0, 1, 0, 1.42492e-05, 140849
-9482.09, 421697, -232.741, 0.647356, -649.296, 0.10436, 0.421626, 0.993198, 0.349787, 0.651995, 3, 91, 246, 28.2597, 0.135882, 0, 0, 1, 0, 7.47381e-06, 140849
-6415.88, 117728, -204.661, 2.9399, -962.164, -0.0238099, 0.34964, 1.03299, 0.34851, 0.655882, 0.0001, 45.5, 246, 50.8307, 0.227008, 1.0897, 1, 1, 0, -3.20228e-06, 140855
-6415.88, 117728, -204.661, 2.9399, -962.164, -0.0238099, 0.34964, 1.03299, 0.34851, 0.655882, 3, 45.5, 246, 50.8307, 0.227008, 0, 0, 1, 0, -1.33389e-05, 140855
-4416.57, 134837, -249.01, 3.18655, -979.856, 0.0173478, 0.356559, 0.993198, 0.349787, 0.651995, 0.0001, 91, 246, 50.8307, 0.227008, 1.15086, 1, 1, 0, 8.29328e-06, 140855
-1729.28, 153642, -301.078, 3.47307, -1010.38, 0.0662311, 0.378309, 0.958125, 0.351078, 0.648177, 0.0001, 182, 246, 50.8307, 0.227008, 1.72068, 1, 1, 0, -1.11719e-05, 140855
-1729.28, 153642, -301.078, 3.47307, -1010.38, 0.0662311, 0.378309, 0.958125, 0.351078, 0.648177, 3, 182, 246, 50.8307, 0.227008, 1.5591, 1, 0, 0, 3.76317e-06, 140855
-6036.92, 440909, -520.111, 3.94013, -921.498, 0.184892, 0.516815, 0.958125, 0.351078, 0.648177, 3, 182, 246, 44.5956, 0.198061, 0, 0, 0, 0, -0.000123326, 140857
-9798.44, 219626, -134.057, 1.24727, -1170.26, 0.109136, 0.395112, 1.03299, 0.34851, 0.655882, 0.0001, 45.5, 246, 33.5646, 0.142892, 0, 0, 1, 0, -1.25351e-05, 140861
-9798.44, 219626, -134.057, 1.24727, -1170.26, 0.109136, 0.395112, 1.03299, 0.34851, 0.655882, 3, 45.5, 246, 33.5646, 0.142892, 0, 0, 1, 0, 7.90241e-06, 140861
-8561.52, 245753, -154.644, 1.31957, -1196.39, 0.118408, 0.370392, 0.993198, 0.349787, 0.651995, 0.0001, 91, 246, 33.5646, 0.142892, 0, 0, 1, 0, 1.31179e-05, 140861
-11134.2, 193714, -108.228, 1.8574, -876.218, -0.00308975, 0.338769, 1.03299, 0.34851, 0.655882, 0.0001, 45.5, 246, 28.289, 0.118663, 0, 0, 1, 0, -8.35124e-08, 140862
-11134.2, 193714, -108.228, 1.8574, -876.218, -0.00308975, 0.338769, 1.03299, 0.34851, 0.655882, 3, 45.5, 246, 28.289, 0.118663, 0, 0, 1, 0, -4.11886e-06, 140862
-10154.9, 195119, -164.341, 1.43044, -670.676, -0.00946277, 0.419033, 1.03299, 0.34851, 0.655882, 3, 45.5, 246, 33.8931, 0.184464, 0, 0, 1, 0, 3.29518e-06, 140873
-8877.81, 203317, -182.445, 1.50991, -676.877, 2.81254e-05, 0.398576, 0.993198, 0.349787, 0.651995, 0.0001, 91, 246, 33.8931, 0.184464, 0, 0, 1, 0, -7.08522e-06, 140873
-8943.3, 124310, -104.038, 1.41639, -1142.18, -0.00915166, 0.385295, 1.03299, 0.34851, 0.655882, 0.0001, 45.5, 246, 34.1145, 0.176435, 0, 0, 1, 0, -1.09136e-05, 140875
-8943.3, 124310, -104.038, 1.41639, -1142.18, -0.00915166, 0.385295, 1.03299, 0.34851, 0.655882, 3, 45.5, 246, 34.1145, 0.176435, 0, 0, 1, 0, 8.02092e-06, 140875
-2426.74, 265539, -376.949, 4.62428, -1238.08, 1.21208, 0.331382, 0.958125, 0.351078, 0.648177, 0.0001, 182, 246, 42.1871, 0.166551, 2.18457, 1, 0, 0, -4.93122e-05, 140879
-2426.74, 265539, -376.949, 4.62428, -1238.08, 1.21208, 0.331382, 0.958125, 0.351078, 0.648177, 3, 182, 246, 42.1871, 0.166551, 2.0192, 1, 0, 0, 9.75658e-05, 140879
-7591.61, 115226, -173.01, 3.64497, -969.35, -0.0361294, 0.219014, 1.03299, 0.34851, 0.655882, 3, 45.5, 246, 43.0624, 0.159449, 0, 0, 0, 0, 1.24211e-06, 140886
-5331.83, 132228, -223.67, 3.98996, -988.449, 0.0277672, 0.240451, 0.993198, 0.349787, 0.651995, 3, 91, 246, 43.0624, 0.159449, 0, 0, 1, 0, 1.24695e-05, 140886
-2246.22, 151336, -285.142, 4.40868, -1026.9, 0.105721, 0.283951, 0.958125, 0.351078, 0.648177, 0.0001, 182, 246, 43.0624, 0.159449, 1.48218, 1, 0, 0, -1.11459e-05, 140886
-2246.22, 151336, -285.142, 4.40868, -1026.9, 0.105721, 0.283951, 0.958125, 0.351078, 0.648177, 3, 182, 246, 43.0624, 0.159449, 1.30974, 1, 0, 0, 9.60679e-06, 140886
-7327.53, 68366.6, -99.1336, 2.90391, -905.004, 0.00722311, 0.262397, 0.993198, 0.349787, 0.651995, 0.0001, 91, 246, 30.3137, 0.111301, 0, 0, 1, 0, 6.36118e-06, 140890
-7327.53, 68366.6, -99.1336, 2.90391, -905.004, 0.00722311, 0.262397, 0.993198, 0.349787, 0.651995, 3, 91, 246, 30.3137, 0.111301, 0, 0, 1, 0, 7.88538e-06, 140890
-11302.5, 772138, -122.442, 0.356775, -766.41, 0.104717, 0.357341, 1.03299, 0.34851, 0.655882, 0.0001, 45.5, 246, 21.8877, 0.0406481, 0, 0, 1, 0, 3.75181e-05, 140894
-8964.71, 802878, -135.74, 0.384565, -795.358, 0.10955, 0.292707, 0.958125, 0.351078, 0.648177, 3, 182, 246, 21.8877, 0.0406481, 0, 0, 1, 0, 3.28476e-05, 140894
-6637.62, 781688, -342.922, 0.212731, -1118.28, 0.00242474, 0.485236, 1.03299, 0.34851, 0.655882, 0.0001, 45.5, 246, 37.6783, 0.112989, 0, 0, 0, 0, -4.42199e-05, 140897
-6637.62, 781688, -342.922, 0.212731, -1118.28, 0.00242474, 0.485236, 1.03299, 0.34851, 0.655882, 3, 45.5, 246, 37.6783, 0.112989, 0, 0, 0, 0, -0.000172535, 140897
-11085.7, 121564, -55.5454, 3.36948, -1169.98, -0.0541236, 0.190874, 1.03299, 0.34851, 0.655882, 0.0001, 45.5, 246, 26.9855, 0.0851111, 0, 0, 0, 0, -1.28799e-05, 140906
-11085.7, 121564, -55.5454, 3.36948, -1169.98, -0.0541236, 0.190874, 1.03299, 0.34851, 0.655882, 3, 45.5, 246, 26.9855, 0.0851111, 0, 0, 0, 0, -1.69756e-05, 140906
-9211.91, 144876, -98.062, 3.66136, -1171.94, 0.000193897, 0.200686, 0.993198, 0.349787, 0.651995, 0.0001, 91, 246, 26.9855, 0.0851111, 0, 0, 1, 0, 2.07697e-06, 140906
-9211.91, 144876, -98.062, 3.66136, -1171.94, 0.000193897, 0.200686, 0.993198, 0.349787, 0.651995, 3, 91, 246, 26.9855, 0.0851111, 0, 0, 1, 0, 2.55828e-07, 140906
-8909.59, 382774, -256.503, 0.445378, -852.99, 0.628541, 0.492789, 1.03299, 0.34851, 0.655882, 0.0001, 45.5, 246, 34.4721, 0.159962, 0, 0, 0, 0, -2.12631e-05, 140911
-7749.51, 412021, -270.303, 0.479314, -950.504, 0.698895, 0.469763, 0.993198, 0.349787, 0.651995, 0.0001, 91, 246, 34.4721, 0.159962, 0, 0, 1, 0, -9.96338e-06, 140911
-6332.68, 447987, -284.915, 0.517056, -1072.47, 0.786888, 0.451103, 0.958125, 0.351078, 0.648177, 0.0001, 182, 246, 34.4721, 0.159962, 0, 0, 0, 0, 3.70072e-05, 140911
-8981.87, 364983, -168.611, 0.654863, -845.409, 0.495332, 0.371205, 0.993198, 0.349787, 0.651995, 0.0001, 91, 246, 26.905, 0.109845, 0, 0, 1, 0, -6.15232e-05, 140915
-15048, 385121, -493.476, 3.92238, -616.152, 0.125708, 0.481783, 0.993198, 0.349787, 0.651995, 0.0001, 91, 246, 45.0347, 0.216254, 1.33938, 1, 1, 0, -7.45996e-06, 140925
-15048, 385121, -493.476, 3.92238, -616.152, 0.125708, 0.481783, 0.993198, 0.349787, 0.651995, 3, 91, 246, 45.0347, 0.216254, 1.28537, 1, 1, 0, 1.52679e-05, 140925
-1866.67, 412522, -211.857, 4.49719, -1061.01, 0.250189, 0.252377, 0.9175, 0.352806, 0.64323, 0.0001, 455, 246, 23.6716, 0.0518586, 0, 0, 0, 0, 7.52398e-06, 140931
-1866.67, 412522, -211.857, 4.49719, -1061.01, 0.250189, 0.252377, 0.9175, 0.352806, 0.64323, 3, 455, 246, 23.6716, 0.0518586, 0, 0, 0, 0, -5.48825e-06, 140931
-10184.1, 474638, -140.253, 0.542581, -969.631, 0.0867111, 0.377298, 1.03299, 0.34851, 0.655882, 0.0001, 45.5, 246, 27.1888, 0.0754659, 0, 0, 1, 0, -1.97804e-05, 140933
-10184.1, 474638, -140.253, 0.542581, -969.631, 0.0867111, 0.377298, 1.03299, 0.34851, 0.655882, 3, 45.5, 246, 27.1888, 0.0754659, 0, 0, 1, 0, 5.38522e-06, 140933
-9126.72, 36329.9, 28.1816, 3.35026, -1059.51, 0.388279, 0.173594, 1.03299, 0.34851, 0.655882, 0.0001, 45.5, 246, 12.0793, 0.0371138, 1.23344, 1, 0, 0, 1.2959e-05, 140935
-9126.72, 36329.9, 28.1816, 3.35026, -1059.51, 0.388279, 0.173594, 1.03299, 0.34851, 0.655882, 3, 45.5, 246, 12.0793, 0.0371138, 1.17175, 1, 0, 0, 1.5165e-05, 140935
-14200.1, 227014, -111.834, 3.04571, -1172.25, -0.0194111, 0.241743, 1.03299, 0.34851, 0.655882, 0.0001, 45.5, 246, 32.0469, 0.104232, 0, 0, 0, 0, -1.23422e-06, 140937
-14200.1, 227014, -111.834, 3.04571, -1172.25, -0.0194111, 0.241743, 1.03299, 0.34851, 0.655882, 3, 45.5, 246, 32.0469, 0.104232, 0, 0, 0, 0, 1.88869e-06, 140937
-10156.2, 839405, -182.318, 0.30418, -881.575, 0.353067, 0.375319, 1.03299, 0.34851, 0.655882, 0.0001, 45.5, 246, 26.4054, 0.0526157, 0, 0, 0, 0, -0.000135072, 140940
-11941.7, 220813, -47.0817, 1.46147, -774.865, 0.374952, 0.317787, 1.03299, 0.34851, 0.655882, 0.0001, 45.5, 246, 18.4061, 0.0531154, 0, 0, 1, 0, 1.17815e-05, 140943
-11941.7, 220813, -47.0817, 1.46147, -774.865, 0.374952, 0.317787, 1.03299, 0.34851, 0.655882, 3, 45.5, 246, 18.4061, 0.0531154, 0, 0, 1, 0, 6.6877e-06, 140943
-10687.6, 236519, -60.5411, 1.57215, -826.544, 0.409298, 0.290286, 0.993198, 0.349787, 0.651995, 3, 91, 246, 18.4061, 0.0531154, 0, 0, 1, 0, -3.9859e-05, 140943
-11185.4, 87306.6, 22.6322, 3.60116, -730.883, 0.0117167, 0.134135, 1.03299, 0.34851, 0.655882, 0.0001, 45.5, 246, 9.367, 0.0180569, 0, 0, 0, 0, 4.6852e-06, 140945
-11185.4, 87306.6, 22.6322, 3.60116, -730.883, 0.0117167, 0.134135, 1.03299, 0.34851, 0.655882, 3, 45.5, 246, 9.367, 0.0180569, 0, 0, 0, 0, 2.7303e-06, 140945
298.398, 294114, -336.801, 3.39768, -1087.88, 0.212273, 0.380144, 0.9175, 0.352806, 0.64323, 3, 455, 246, 37.2179, 0.158, 1.05881, 1, 0, 0, 4.19539e-06, 140949
-9105.54, 124835, -105.422, 1.75432, -1126.4, 0.117002, 0.364368, 1.03299, 0.34851, 0.655882, 0.0001, 45.5, 246, 34.0006, 0.162059, 0, 0, 1, 0, -9.88315e-06, 140950
-9105.54, 124835, -105.422, 1.75432, -1126.4, 0.117002, 0.364368, 1.03299, 0.34851, 0.655882, 3, 45.5, 246, 34.0006, 0.162059, 0, 0, 1, 0, -2.04474e-05, 140950
-9040.52, 448958, -367.247, 0.702925, -1173.69, -0.00212251, 0.636013, 1.03299, 0.34851, 0.655882, 0.0001, 45.5, 246, 46.6936, 0.215689, 0, 0, 0, 0, -4.03715e-05, 140951
-9040.52, 448958, -367.247, 0.702925, -1173.69, -0.00212251, 0.636013, 1.03299, 0.34851, 0.655882, 3, 45.5, 246, 46.6936, 0.215689, 0, 0, 0, 0, -3.306e-05, 140951
-9264.98, 626591, -137.159, 0.341094, -1095.49, 0.0527573, 0.368382, 1.03299, 0.34851, 0.655882, 0.0001, 45.5, 246, 28.7913, 0.0557612, 0, 0, 0, 0, 5.54789e-05, 140953
-9264.98, 626591, -137.159, 0.341094, -1095.49, 0.0527573, 0.368382, 1.03299, 0.34851, 0.655882, 3, 45.5, 246, 28.7913, 0.0557612, 0, 0, 1, 0, -1.67188e-05, 140953
-8355.24, 649951, -145.188, 0.353566, -1106.04, 0.053735, 0.33466, 0.993198, 0.349787, 0.651995, 0.0001, 91, 246, 28.7913, 0.0557612, 0, 0, 1, 0, 1.90386e-05, 140953
-8355.24, 649951, -145.188, 0.353566, -1106.04, 0.053735, 0.33466, 0.993198, 0.349787, 0.651995, 3, 91, 246, 28.7913, 0.0557612, 0, 0, 1, 0, -7.08874e-06, 140953
-6966.83, 400455, -386.924, 1.28701, -727.035, 0.14245, 0.582899, 0.958125, 0.351078, 0.648177, 0.0001, 182, 246, 39.9365, 0.219164, 0, 0, 0, 0, -4.62873e-05, 140954
-6966.83, 400455, -386.924, 1.28701, -727.035, 0.14245, 0.582899, 0.958125, 0.351078, 0.648177, 3, 182, 246, 39.9365, 0.219164, 0, 0, 0, 0, -8.80517e-05, 140954
-11418, 228947, -272.75, 3.55378, -1102.2, -0.055804, 0.332213, 1.03299, 0.34851, 0.655882, 3, 45.5, 246, 48.8578, 0.202306, 0, 0, 0, 0, -2.83658e-05, 140967
-6934.7, 251404, -337.099, 3.89116, -1127.41, 0.00505633, 0.35809, 0.993198, 0.349787, 0.651995, 0.0001, 91, 246, 48.8578, 0.202306, 1.0471, 1, 1, 0, -1.42997e-05, 140967
-6958.65, 737869, -359.409, 0.0379483, -798.214, 0.274619, 0.500906, 1.03299, 0.34851, 0.655882, 0.0001, 45.5, 246, 31.9264, 0.120533, 0, 0, 0, 0, 3.03743e-05, 140969
-6958.65, 737869, -359.409, 0.0379483, -798.214, 0.274619, 0.500906, 1.03299, 0.34851, 0.655882, 3, 45.5, 246, 31.9264, 0.120533, 0, 0, 0, 0, 3.7445e-06, 140969
-5855.93, 763004, -371.127, 0.0397389, -834.807, 0.287084, 0.477644, 0.993198, 0.349787, 0.651995, 3, 91, 246, 31.9264, 0.120533, 0, 0, 1, 0, -0.000149403, 140969
-4507.84, 261791, -323.7, 4.26429, -1024.78, 0.365187, 0.308677, 0.958125, 0.351078, 0.648177, 3, 182, 246, 38.8467, 0.152846, 0, 0, 0, 0, 1.39554e-05, 140971
-8633.44, 148326, -188.103, 2.95106, -1060.48, -0.0415034, 0.333346, 1.03299, 0.34851, 0.655882, 0.0001, 45.5, 246, 44.5903, 0.194057, 0, 0, 0, 0, 1.12506e-05, 140982
-8633.44, 148326, -188.103, 2.95106, -1060.48, -0.0415034, 0.333346, 1.03299, 0.34851, 0.655882, 3, 45.5, 246, 44.5903, 0.194057, 0, 0, 0, 0, 8.51342e-06, 140982
-6308.81, 168487, -233.786, 3.19484, -1073.94, -1.33026e-05, 0.339327, 0.993198, 0.349787, 0.651995, 0.0001, 91, 246, 44.5903, 0.194057, 0, 0, 1, 0, -1.44434e-05, 140982
-6308.81, 168487, -233.786, 3.19484, -1073.94, -1.33026e-05, 0.339327, 0.993198, 0.349787, 0.651995, 3, 91, 246, 44.5903, 0.194057, 0, 0, 1, 0, -1.18585e-05, 140982
-6420.39, 465757, -318.026, 0.25014, -1005.99, 0.181217, 0.526148, 0.993198, 0.349787, 0.651995, 0.0001, 91, 246, 38.6867, 0.178432, 0, 0, 1, 0, 714.692, 140984
-5129.39, 490548, -331.373, 0.261323, -1037.89, 0.186854, 0.511555, 0.958125, 0.351078, 0.648177, 0.0001, 182, 246, 38.6867, 0.178432, 0, 0, 0, 0, 701.882, 140984
-8850.88, 293931, -396.418, 3.5406, -896.348, 0.361282, 0.444084, 0.993198, 0.349787, 0.651995, 0.0001, 91, 246, 47.8425, 0.216986, 1.08332, 1, 1, 0, -6.49413e-05, 140996
-8189.52, 55089.4, -38.1972, 3.41939, -1102.42, -0.000152514, 0.215272, 0.993198, 0.349787, 0.651995, 0.0001, 91, 246, 17.9673, 0.0603686, 1.06092, 1, 1, 0, -4.08217e-07, 140997
-8189.52, 55089.4, -38.1972, 3.41939, -1102.42, -0.000152514, 0.215272, 0.993198, 0.349787, 0.651995, 3, 91, 246, 17.9673, 0.0603686, 1.01791, 1, 1, 0, -1.09499e-05, 140997
-6965.93, 91404.8, -125.936, 2.85992, -1142.58, 0.0481119, 0.287085, 0.993198, 0.349787, 0.651995, 0.0001, 91, 246, 35.562, 0.146041, 0, 0, 1, 0, -1.14548e-05, 140999
-6965.93, 91404.8, -125.936, 2.85992, -1142.58, 0.0481119, 0.287085, 0.993198, 0.349787, 0.651995, 3, 91, 246, 35.562, 0.146041, 0, 0, 1, 0, 6.11262e-07, 140999
