-9299.34, 619394, -286.729, 0.40323, -931.769, 0.0342496, 0.468325, 1.03299, 0.34851, 0.655882, 0.0001, 45.5, 246, 33.4593, 0.119784, 0, 0, 0, 0, 2.949e-05, 46001
-9299.34, 619394, -286.729, 0.40323, -931.769, 0.0342496, 0.468325, 1.03299, 0.34851, 0.655882, 3, 45.5, 246, 33.4593, 0.119784, 0, 0, 0, 0, -3.26017e-05, 46001
-9454.44, 122737, -111.633, 2.88135, -1150.33, -0.0392956, 0.278694, 1.03299, 0.34851, 0.655882, 0.0001, 45.5, 246, 35.1481, 0.138349, 0, 0, 0, 0, -5.85298e-06, 46005
-9454.44, 122737, -111.633, 2.88135, -1150.33, -0.0392956, 0.278694, 1.03299, 0.34851, 0.655882, 3, 45.5, 246, 35.1481, 0.138349, 0, 0, 0, 0, -7.11488e-06, 46005
-7753.69, 145782, -152.136, 3.11065, -1157.06, 0.000141829, 0.278731, 0.993198, 0.349787, 0.651995, 0.0001, 91, 246, 35.1481, 0.138349, 0, 0, 1, 0, -8.01391e-06, 46005
-7753.69, 145782, -152.136, 3.11065, -1157.06, 0.000141829, 0.278731, 0.993198, 0.349787, 0.651995, 3, 91, 246, 35.1481, 0.138349, 0, 0, 1, 0, -7.1893e-06, 46005
-2924.56, 101635, -228.073, 3.31755, -998.115, 0.144222, 0.315612, 0.958125, 0.351078, 0.648177, 0.0001, 182, 246, 48.7673, 0.193919, 1.26291, 1, 1, 0, 1.1689e-05, 46007
-2924.56, 101635, -228.073, 3.31755, -998.115, 0.144222, 0.315612, 0.958125, 0.351078, 0.648177, 3, 182, 246, 48.7673, 0.193919, 1.0887, 1, 1, 0, -1.02697e-05, 46007
195.186, 129284, -299.824, 3.75864, -1069.73, 0.223608, 0.357166, 0.9175, 0.352806, 0.64323, 0.0001, 455, 246, 48.7673, 0.193919, 2.86081, 1, 0, 0, 1.09371e-05, 46007
195.186, 129284, -299.824, 3.75864, -1069.73, 0.223608, 0.357166, 0.9175, 0.352806, 0.64323, 3, 455, 246, 48.7673, 0.193919, 2.86155, 1, 0, 0, 5.27078e-06, 46007
-12704, 340819, -23.6986, 0.92053, -666.322, 0.641123, 0.327995, 1.03299, 0.34851, 0.655882, 0.0001, 45.5, 246, 14.3204, 0.0201644, 0, 0, 1, 0, -1.73514e-05, 46008
-12704, 340819, -23.6986, 0.92053, -666.322, 0.641123, 0.327995, 1.03299, 0.34851, 0.655882, 3, 45.5, 246, 14.3204, 0.0201644, 0, 0, 1, 0, -8.43782e-05, 46008
-3220.01, 361762, -528.487, 3.24486, -920.725, 0.752819, 0.640636, 0.958125, 0.351078, 0.648177, 0.0001, 182, 246, 49.1472, 0.248729, 0, 0, 0, 0, 8.41625e-05, 46009
-3220.01, 361762, -528.487, 3.24486, -920.725, 0.752819, 0.640636, 0.958125, 0.351078, 0.648177, 3, 182, 246, 49.1472, 0.248729, 3.28869, 1, 0, 0, 0.000129481, 46009
-8832.97, 292153, -171.431, 0.998628, -950.179, 0.0108927, 0.385752, 0.993198, 0.349787, 0.651995, 0.0001, 91, 246, 31.6294, 0.140641, 0, 0, 1, 0, 1.16308e-05, 46015
-8311.67, 144982, -85.7308, 0.0735309, -964.417, 0.316003, 0.396393, 1.03299, 0.34851, 0.655882, 0.0001, 45.5, 246, 27.3908, 0.163925, 0, 0, 1, 0, 0.000230626, 46017
-2362.55, 127537, -242.871, 3.78884, -1182.28, 0.146802, 0.32483, 0.9175, 0.352806, 0.64323, 0.0001, 455, 246, 37.4584, 0.140035, 1.09447, 1, 0, 0, -4.97574e-06, 46018
-2362.55, 127537, -242.871, 3.78884, -1182.28, 0.146802, 0.32483, 0.9175, 0.352806, 0.64323, 3, 455, 246, 37.4584, 0.140035, 1.11223, 1, 0, 0, -1.25769e-05, 46018
-2119.11, 195858, -323.534, 3.86439, -1077.97, 0.132007, 0.361239, 0.958125, 0.351078, 0.648177, 0.0001, 182, 246, 46.4972, 0.197086, 1.61792, 1, 0, 0, -8.6008e-06, 46019
-2119.11, 195858, -323.534, 3.86439, -1077.97, 0.132007, 0.361239, 0.958125, 0.351078, 0.648177, 3, 182, 246, 46.4972, 0.197086, 1.43508, 1, 0, 0, -7.13668e-06, 46019
-8729.53, 501370, -206.192, 0.747526, -649.957, 0.00284958, 0.34623, 0.958125, 0.351078, 0.648177, 3, 182, 246, 24.3495, 0.0972202, 0, 0, 1, 0, 1.01267e-05, 46026
-11816.8, 210167, -70.4925, 1.50599, -644.541, 0.736035, 0.322601, 1.03299, 0.34851, 0.655882, 0.0001, 45.5, 246, 19.2864, 0.0696205, 0, 0, 1, 0, -3.0064e-05, 46033
-11816.8, 210167, -70.4925, 1.50599, -644.541, 0.736035, 0.322601, 1.03299, 0.34851, 0.655882, 3, 45.5, 246, 19.2864, 0.0696205, 0, 0, 1, 0, -1.97108e-05, 46033
-10540.1, 227336, -84.1603, 1.65631, -733.451, 0.845328, 0.296327, 0.993198, 0.349787, 0.651995, 3, 91, 246, 19.2864, 0.0696205, 0, 0, 1, 0, 1.69651e-06, 46033
-6858.73, -14222.9, -27.3423, 3.06002, -727.677, -0.032096, 0.233333, 1.03299, 0.34851, 0.655882, 0.0001, 45.5, 246, 22.8068, 0.0103935, 0, 0, 1, 1, -1.16644e-06, 46040
-6858.73, -14222.9, -27.3423, 3.06002, -727.677, -0.032096, 0.233333, 1.03299, 0.34851, 0.655882, 3, 45.5, 246, 22.8068, 0.0103935, 0, 0, 1, 1, -9.70426e-06, 46040
-7141, 16671.5, -123.708, 4.0851, -770.334, 0.153144, 0.303521, 0.9175, 0.352806, 0.64323, 3, 455, 246, 22.8068, 0.0103935, 0, 0, 1, 1, -1.22469e-05, 46040
-7229.52, -9555.65, -29.4679, 2.7066, -695.544, 0.0921212, 0.261065, 1.03299, 0.34851, 0.655882, 0.0001, 45.5, 246, 23.8957, 0.00725498, 0, 0, 1, 1, 5.46196e-06, 46043
610.488, 296745, -364.109, 4.04763, -856.492, 0.38573, 0.382238, 0.9175, 0.352806, 0.64323, 3, 455, 246, 34.1592, 0.149144, 1.06397, 1, 0, 0, -1.75563e-05, 46059
-6688.2, 19069.2, -65.6413, 2.67871, -994.255, 0.796266, 0.264175, 1.03299, 0.34851, 0.655882, 0.0001, 45.5, 246, 35.2305, 0.0903939, 0, 0, 1, 0, 5.0012e-07, 46063
-3099.19, 139916, -236.551, 4.28906, -1858.03, 1.67141, 0.323597, 0.9175, 0.352806, 0.64323, 0.0001, 455, 246, 35.2305, 0.0903939, 1.29751, 1, 0, 0, 2.32117e-05, 46063
-3099.19, 139916, -236.551, 4.28906, -1858.03, 1.67141, 0.323597, 0.9175, 0.352806, 0.64323, 3, 455, 246, 35.2305, 0.0903939, 1.29849, 1, 0, 0, 3.8506e-05, 46063
-10379.4, 490504, -295.737, 0.629155, -887.372, -0.00105514, 0.511571, 1.03299, 0.34851, 0.655882, 0.0001, 45.5, 246, 35.911, 0.157263, 0, 0, 0, 0, -5.63374e-05, 46073
-10379.4, 490504, -295.737, 0.629155, -887.372, -0.00105514, 0.511571, 1.03299, 0.34851, 0.655882, 3, 45.5, 246, 35.911, 0.157263, 0, 0, 0, 0, -4.94799e-05, 46073
-9791.03, 104801, -44.1681, 1.80738, -875.745, 0.0437748, 0.311992, 1.03299, 0.34851, 0.655882, 0.0001, 45.5, 246, 21.0384, 0.0831386, 0, 0, 1, 0, -6.24604e-06, 46075
-9791.03, 104801, -44.1681, 1.80738, -875.745, 0.0437748, 0.311992, 1.03299, 0.34851, 0.655882, 3, 45.5, 246, 21.0384, 0.0831386, 0, 0, 1, 0, -8.27775e-06, 46075
-11833.6, 272832, -110.244, 1.28875, -706.135, 0.0143538, 0.356376, 1.03299, 0.34851, 0.655882, 0.0001, 45.5, 246, 23.6484, 0.0971647, 0, 0, 1, 0, 9.89974e-06, 46082
-11833.6, 272832, -110.244, 1.28875, -706.135, 0.0143538, 0.356376, 1.03299, 0.34851, 0.655882, 3, 45.5, 246, 23.6484, 0.0971647, 0, 0, 1, 0, 1.37628e-05, 46082
-23827.6, 671214, -472.492, 3.03672, -831.792, 0.00309145, 0.468697, 0.993198, 0.349787, 0.651995, 0.0001, 91, 246, 38.953, 0.157906, 0, 0, 1, 0, 3.4115e-05, 46083
-23827.6, 671214, -472.492, 3.03672, -831.792, 0.00309145, 0.468697, 0.993198, 0.349787, 0.651995, 3, 91, 246, 38.953, 0.157906, 0, 0, 1, 0, 8.0704e-05, 46083
-10228.9, 167773, -118.097, 1.72675, -788.836, -0.00792757, 0.358843, 1.03299, 0.34851, 0.655882, 0.0001, 45.5, 246, 30.034, 0.14279, 0, 0, 1, 0, -4.00012e-06, 46086
-10228.9, 167773, -118.097, 1.72675, -788.836, -0.00792757, 0.358843, 1.03299, 0.34851, 0.655882, 3, 45.5, 246, 30.034, 0.14279, 0, 0, 1, 0, 9.35192e-06, 46086
-8992.47, 178750, -137.883, 1.83001, -794.687, 0.00595336, 0.33823, 0.993198, 0.349787, 0.651995, 0.0001, 91, 246, 30.034, 0.14279, 0, 0, 1, 0, 3.99051e-06, 46086
-6218.77, 46755.1, -105.948, 2.85137, -1017.94, 0.428086, 0.268878, 1.03299, 0.34851, 0.655882, 3, 45.5, 246, 41.6041, 0.143494, 0, 0, 1, 0, -1.8617e-05, 46092
-1022.81, 141316, -277.429, 4.16162, -1440.96, 0.781121, 0.336674, 0.9175, 0.352806, 0.64323, 0.0001, 455, 246, 41.6041, 0.143494, 2.18171, 1, 0, 0, 2.54957e-05, 46092
-1022.81, 141316, -277.429, 4.16162, -1440.96, 0.781121, 0.336674, 0.9175, 0.352806, 0.64323, 3, 455, 246, 41.6041, 0.143494, 2.18439, 1, 0, 0, -4.27255e-06, 46092
-5210.17, 338076, -400.956, 4.29367, -981.368, 0.540795, 0.363715, 0.958125, 0.351078, 0.648177, 0.0001, 182, 246, 40.0193, 0.165926, 1.19746, 1, 0, 0, 3.99389e-05, 46093
-5210.17, 338076, -400.956, 4.29367, -981.368, 0.540795, 0.363715, 0.958125, 0.351078, 0.648177, 3, 182, 246, 40.0193, 0.165926, 1.05258, 1, 0, 0, -2.18003e-05, 46093
-15423.4, 291854, -407.301, 3.04082, -627.504, 0.637974, 0.49814, 1.03299, 0.34851, 0.655882, 0.0001, 45.5, 246, 48.1451, 0.23238, 1.0384, 1, 0, 0, 3.71867e-05, 46094
-9862.89, 313707, -464.959, 3.44442, -739.679, 0.760753, 0.522599, 0.993198, 0.349787, 0.651995, 0.0001, 91, 246, 48.1451, 0.23238, 1.34788, 1, 1, 0, 3.20958e-05, 46094
-9862.89, 313707, -464.959, 3.44442, -739.679, 0.760753, 0.522599, 0.993198, 0.349787, 0.651995, 3, 91, 246, 48.1451, 0.23238, 1.25657, 1, 1, 0, 1.46476e-05, 46094
-13858.2, 353768, -427.402, 3.91969, -678.397, 0.365621, 0.39453, 0.993198, 0.349787, 0.651995, 0.0001, 91, 246, 42.1012, 0.192404, 1.07221, 1, 1, 0, -1.01418e-06, 46095
-5600.66, 373997, -500.233, 4.42774, -776.81, 0.469127, 0.447737, 0.958125, 0.351078, 0.648177, 3, 182, 246, 42.1012, 0.192404, 0, 0, 0, 0, -131.471, 46095
-8717.29, 68611.3, -60.5905, 3.52262, -983.636, 0.456481, 0.167356, 1.03299, 0.34851, 0.655882, 0.0001, 45.5, 246, 27.0913, 0.0832073, 0, 0, 0, 0, -1.16993e-05, 46101
-8717.29, 68611.3, -60.5905, 3.52262, -983.636, 0.456481, 0.167356, 1.03299, 0.34851, 0.655882, 3, 45.5, 246, 27.0913, 0.0832073, 0, 0, 0, 0, 5.51507e-06, 46101
-1334.36, 163560, -260.683, 5.48586, -1464.53, 0.984994, 0.33074, 0.9175, 0.352806, 0.64323, 0.0001, 455, 246, 27.0913, 0.0832073, 1.04106, 1, 0, 0, -1.16875e-05, 46101
-1334.36, 163560, -260.683, 5.48586, -1464.53, 0.984994, 0.33074, 0.9175, 0.352806, 0.64323, 3, 455, 246, 27.0913, 0.0832073, 1.05621, 1, 0, 0, -1.18152e-05, 46101
-2081.71, 91305.4, -246.348, 4.00929, -836.245, 0.584505, 0.317473, 0.9175, 0.352806, 0.64323, 0.0001, 455, 246, 40.5677, 0.130026, 1.24446, 1, 1, 0, -1.0794e-05, 46102
-2081.71, 91305.4, -246.348, 4.00929, -836.245, 0.584505, 0.317473, 0.9175, 0.352806, 0.64323, 3, 455, 246, 40.5677, 0.130026, 1.205, 1, 1, 0, -1.15765e-05, 46102
-8682.25, 415786, -156.205, 0.738145, -679.726, 0.00395939, 0.321554, 0.958125, 0.351078, 0.648177, 0.0001, 182, 246, 22.8979, 0.0880116, 0, 0, 1, 0, 2.75658e-05, 46104
855.406, 368103, -302.505, 4.22156, -1402.98, 0.502463, 0.311355, 0.9175, 0.352806, 0.64323, 3, 455, 246, 31.1829, 0.0969239, 0, 0, 0, 0, -1.8581e-05, 46105
-3083.92, 85419.8, -207.943, 3.02765, -1077.57, 0.00254396, 0.329468, 0.993198, 0.349787, 0.651995, 0.0001, 91, 246, 58.1138, 0.248601, 1.33855, 1, 1, 0, 1.1758e-05, 46107
-3083.92, 85419.8, -207.943, 3.02765, -1077.57, 0.00254396, 0.329468, 0.993198, 0.349787, 0.651995, 3, 91, 246, 58.1138, 0.248601, 1.30504, 1, 1, 0, 1.0985e-05, 46107
-1334.66, 107156, -256.631, 3.28424, -1100.94, 0.046313, 0.344192, 0.958125, 0.351078, 0.648177, 0.0001, 182, 246, 58.1138, 0.248601, 1.84871, 1, 1, 0, 8.64838e-06, 46107
-1334.66, 107156, -256.631, 3.28424, -1100.94, 0.046313, 0.344192, 0.958125, 0.351078, 0.648177, 3, 182, 246, 58.1138, 0.248601, 1.69323, 1, 1, 0, -1.26458e-07, 46107
233.845, 493258, -328.99, 3.32964, -1238.35, 0.426059, 0.32928, 0.9175, 0.352806, 0.64323, 3, 455, 246, 31.9938, 0.103661, 0, 0, 0, 0, 0.000135862, 46108
-5390.61, 521084, -347.405, 0.0639373, -1158.51, 0.172764, 0.562999, 1.03299, 0.34851, 0.655882, 0.0001, 45.5, 246, 41.7935, 0.171087, 0, 0, 0, 0, -6.31999e-05, 46110
-4295.61, 552465, -359.924, 0.0667281, -1191.64, 0.177632, 0.545627, 0.993198, 0.349787, 0.651995, 0.0001, 91, 246, 41.7935, 0.171087, 0, 0, 1, 0, 3.42356e-05, 46110
-8893.05, 239930, -161.073, 1.49876, -1046.25, 0.165654, 0.367586, 0.993198, 0.349787, 0.651995, 0.0001, 91, 246, 32.8105, 0.145331, 0, 0, 1, 0, -9.68046e-06, 46112
-343.277, 216221, -290.414, 4.97235, -1449.28, 1.56013, 0.334905, 0.9175, 0.352806, 0.64323, 0.0001, 455, 246, 30.3046, 0.108552, 1.16288, 1, 0, 0, 7.26592e-05, 46114
-343.277, 216221, -290.414, 4.97235, -1449.28, 1.56013, 0.334905, 0.9175, 0.352806, 0.64323, 3, 455, 246, 30.3046, 0.108552, 1.25576, 1, 0, 0, 1.01291e-05, 46114
-7346.03, 85469.7, -126.171, 3.15444, -1122.51, -0.0471597, 0.263666, 1.03299, 0.34851, 0.655882, 3, 45.5, 246, 40.5055, 0.157004, 0, 0, 1, 0, -1.22696e-05, 46124
-5925.35, 107602, -170.835, 3.42117, -1131.06, 0.000340843, 0.270986, 0.993198, 0.349787, 0.651995, 0.0001, 91, 246, 40.5055, 0.157004, 0, 0, 1, 0, -4.34067e-06, 46124
365.456, 166012, -310.685, 4.24928, -1216.6, 0.150928, 0.354862, 0.9175, 0.352806, 0.64323, 0.0001, 455, 246, 40.5055, 0.157004, 2.94309, 1, 0, 0, -5.65866e-06, 46124
365.456, 166012, -310.685, 4.24928, -1216.6, 0.150928, 0.354862, 0.9175, 0.352806, 0.64323, 3, 455, 246, 40.5055, 0.157004, 2.97002, 1, 0, 0, -1.55715e-06, 46124
-3468.72, 407790, -508.4, 3.18387, -1025.4, 0.0414989, 0.605005, 0.958125, 0.351078, 0.648177, 3, 182, 246, 49.5813, 0.230881, 1.07607, 1, 0, 0, -1.01822e-05, 46127
-11592.5, 328272, -298.514, 1.00933, -641.55, 0.471467, 0.558319, 1.03299, 0.34851, 0.655882, 0.0001, 45.5, 246, 37.9311, 0.211476, 0, 0, 0, 0, 6.46593e-05, 46136
-11592.5, 328272, -298.514, 1.00933, -641.55, 0.471467, 0.558319, 1.03299, 0.34851, 0.655882, 3, 45.5, 246, 37.9311, 0.211476, 0, 0, 0, 0, -4.72882e-05, 46136
-4558.72, 143475, -306.831, 3.32216, -895.79, 0.703886, 0.367338, 1.03299, 0.34851, 0.655882, 0.0001, 45.5, 246, 58.9051, 0.249495, 1.57423, 1, 0, 0, -3.99581e-05, 46140
-4558.72, 143475, -306.831, 3.32216, -895.79, 0.703886, 0.367338, 1.03299, 0.34851, 0.655882, 3, 45.5, 246, 58.9051, 0.249495, 1.50173, 1, 0, 0, -2.56057e-05, 46140
-1233.13, 168055, -367.177, 3.78616, -1045.82, 0.85428, 0.390197, 0.993198, 0.349787, 0.651995, 0.0001, 91, 246, 58.9051, 0.249495, 2.08733, 1, 1, 1, 245.872, 46140
-1233.13, 168055, -367.177, 3.78616, -1045.82, 0.85428, 0.390197, 0.993198, 0.349787, 0.651995, 3, 91, 246, 58.9051, 0.249495, 1.99553, 1, 1, 1, 245.843, 46140
-7808.95, 101029, -139.793, 2.4047, -928.418, 0.137679, 0.341164, 1.03299, 0.34851, 0.655882, 0.0001, 45.5, 246, 41.2495, 0.190814, 0, 0, 1, 0, 1.83601e-06, 46142
-7808.95, 101029, -139.793, 2.4047, -928.418, 0.137679, 0.341164, 1.03299, 0.34851, 0.655882, 3, 45.5, 246, 41.2495, 0.190814, 0, 0, 1, 0, -1.5715e-06, 46142
-1744.38, 164894, -268.492, 3.17329, -1080.43, 0.270491, 0.358739, 0.9175, 0.352806, 0.64323, 3, 455, 246, 41.2495, 0.190814, 1.02567, 1, 0, 0, -7.64459e-06, 46142
-10424.9, 887756, -95.4104, 0.225601, -768.937, 0.0480413, 0.349717, 1.03299, 0.34851, 0.655882, 0.0001, 45.5, 246, 20.9967, 0.0276701, 0, 0, 1, 0, 1.50538e-05, 46146
-10424.9, 887756, -95.4104, 0.225601, -768.937, 0.0480413, 0.349717, 1.03299, 0.34851, 0.655882, 3, 45.5, 246, 20.9967, 0.0276701, 0, 0, 1, 0, 1.97895e-05, 46146
-9707.74, 900628, -99.9462, 0.233186, -775.425, 0.0486416, 0.314302, 0.993198, 0.349787, 0.651995, 3, 91, 246, 20.9967, 0.0276701, 0, 0, 1, 0, -7.24863e-07, 46146
-8889.84, 59319.9, -44.467, 3.25958, -700.932, -0.0337727, 0.195466, 1.03299, 0.34851, 0.655882, 0.0001, 45.5, 246, 20.8124, 0.063822, 0, 0, 1, 0, -6.97956e-06, 46149
-8889.84, 59319.9, -44.467, 3.25958, -700.932, -0.0337727, 0.195466, 1.03299, 0.34851, 0.655882, 3, 45.5, 246, 20.8124, 0.063822, 0, 0, 1, 0, -1.04396e-05, 46149
-10106.8, 117662, -45.7183, 1.91099, -967.439, -0.0157601, 0.307249, 1.03299, 0.34851, 0.655882, 0.0001, 45.5, 246, 22.0286, 0.0821683, 0, 0, 1, 0, -8.63473e-07, 46150
-10106.8, 117662, -45.7183, 1.91099, -967.439, -0.0157601, 0.307249, 1.03299, 0.34851, 0.655882, 3, 45.5, 246, 22.0286, 0.0821683, 0, 0, 1, 0, -1.52035e-06, 46150
-7368.33, 548853, -372.343, 0.0725759, -824.474, 0.637384, 0.563488, 1.03299, 0.34851, 0.655882, 0.0001, 45.5, 246, 35.8693, 0.161249, 0, 0, 0, 0, -8.40517e-05, 46151
-7368.33, 548853, -372.343, 0.0725759, -824.474, 0.637384, 0.563488, 1.03299, 0.34851, 0.655882, 3, 45.5, 246, 35.8693, 0.161249, 0, 0, 0, 0, 6.52398e-05, 46151
-12176.8, 412964, -82.8656, 0.754613, -622.523, 0.281965, 0.347319, 1.03299, 0.34851, 0.655882, 0.0001, 45.5, 246, 17.7801, 0.0502571, 0, 0, 1, 0, 1.98285e-05, 46152
-12176.8, 412964, -82.8656, 0.754613, -622.523, 0.281965, 0.347319, 1.03299, 0.34851, 0.655882, 3, 45.5, 246, 17.7801, 0.0502571, 0, 0, 1, 0, -1.82577e-05, 46152
-10441.3, 292607, -188.714, 1.06219, -894.893, 0.010578, 0.439183, 1.03299, 0.34851, 0.655882, 0.0001, 45.5, 246, 33.9238, 0.15978, 0, 0, 0, 0, -5.6661e-06, 46154
-10441.3, 292607, -188.714, 1.06219, -894.893, 0.010578, 0.439183, 1.03299, 0.34851, 0.655882, 3, 45.5, 246, 33.9238, 0.15978, 0, 0, 0, 0, 3.75001e-06, 46154
-11992.7, 224353, -60.8442, 1.55915, -1025.09, 0.766505, 0.318829, 1.03299, 0.34851, 0.655882, 0.0001, 45.5, 246, 23.597, 0.0641789, 0, 0, 1, 0, 2.65156e-05, 46158
-11992.7, 224353, -60.8442, 1.55915, -1025.09, 0.766505, 0.318829, 1.03299, 0.34851, 0.655882, 3, 45.5, 246, 23.597, 0.0641789, 0, 0, 1, 0, 3.91492e-05, 46158
-10519.8, 255572, -80.4238, 1.71953, -1170.74, 0.885565, 0.293136, 0.993198, 0.349787, 0.651995, 3, 91, 246, 23.597, 0.0641789, 0, 0, 1, 0, 4.33722e-05, 46158
-9318.01, 401699, -282.838, 0.708671, -1062.95, 0.00282109, 0.531798, 1.03299, 0.34851, 0.655882, 0.0001, 45.5, 246, 40.393, 0.183196, 0, 0, 0, 0, -3.34437e-05, 46160
-9318.01, 401699, -282.838, 0.708671, -1062.95, 0.00282109, 0.531798, 1.03299, 0.34851, 0.655882, 3, 45.5, 246, 40.393, 0.183196, 0, 0, 0, 0, 1.09014e-05, 46160
-8249.35, 13431.5, -23.6566, 1.81455, -656.975, -0.0140878, 0.311065, 1.03299, 0.34851, 0.655882, 3, 45.5, 246, 19.4908, 0.0662897, 0, 0, 1, 1, 1.73223e-06, 46167
-10365.1, 226553, -166.31, 1.55149, -1039.71, 0.173969, 0.409998, 1.03299, 0.34851, 0.655882, 0.0001, 45.5, 246, 36.074, 0.164536, 0, 0, 0, 0, -2.40371e-06, 46170
-10365.1, 226553, -166.31, 1.55149, -1039.71, 0.173969, 0.409998, 1.03299, 0.34851, 0.655882, 3, 45.5, 246, 36.074, 0.164536, 0, 0, 0, 0, 5.80973e-06, 46170
-8682.6, 248789, -191.291, 1.65741, -1077.71, 0.190504, 0.390684, 0.993198, 0.349787, 0.651995, 3, 91, 246, 36.074, 0.164536, 0, 0, 1, 0, -5.85449e-06, 46170
-9414.62, 184706, -231.07, 2.43739, -892.673, 0.0827797, 0.426652, 1.03299, 0.34851, 0.655882, 3, 45.5, 246, 46.0827, 0.225754, 0, 0, 0, 0, -9.93512e-06, 46172
-10709.1, 384894, -273.578, 0.759433, -762.127, 0.0188544, 0.521385, 1.03299, 0.34851, 0.655882, 0.0001, 45.5, 246, 35.8789, 0.183176, 0, 0, 0, 0, 5.66807e-05, 46174
-10709.1, 384894, -273.578, 0.759433, -762.127, 0.0188544, 0.521385, 1.03299, 0.34851, 0.655882, 3, 45.5, 246, 35.8789, 0.183176, 0, 0, 0, 0, 8.60213e-06, 46174
-11016.4, 357806, -236.847, 0.890099, -743.732, 0.00250501, 0.479295, 1.03299, 0.34851, 0.655882, 0.0001, 45.5, 246, 33.6273, 0.168163, 0, 0, 0, 0, 2.34027e-05, 46177
-11016.4, 357806, -236.847, 0.890099, -743.732, 0.00250501, 0.479295, 1.03299, 0.34851, 0.655882, 3, 45.5, 246, 33.6273, 0.168163, 0, 0, 0, 0, -1.46882e-07, 46177
-5319.95, 166746, -140.954, 2.9991, -1048.79, 0.280841, 0.272163, 0.9175, 0.352806, 0.64323, 3, 455, 246, 22.05, 0.0790084, 0, 0, 1, 0, 5.95533e-06, 46181
412.854, 364643, -410.873, 2.91908, -1107.51, 1.45094, 0.486034, 0.9175, 0.352806, 0.64323, 3, 455, 246, 37.8093, 0.195435, 0, 0, 0, 0, 1.30309e-06, 46185
-11397, 206747, -18.4612, 1.25356, -691.085, -0.00355737, 0.319888, 1.03299, 0.34851, 0.655882, 0.0001, 45.5, 246, 13.3877, 0.0298414, 0, 0, 1, 0, 2.00715e-06, 46188
-11397, 206747, -18.4612, 1.25356, -691.085, -0.00355737, 0.319888, 1.03299, 0.34851, 0.655882, 3, 45.5, 246, 13.3877, 0.0298414, 0, 0, 1, 0, 1.683e-05, 46188
-10486.1, 214902, -27.3602, 1.31563, -691.86, 0.0036869, 0.289594, 0.993198, 0.349787, 0.651995, 0.0001, 91, 246, 13.3877, 0.0298414, 0, 0, 1, 0, 2.48751e-06, 46188
-7686.26, 80839.8, -114.338, 3.4078, -964.417, 0.249723, 0.208267, 1.03299, 0.34851, 0.655882, 0.0001, 45.5, 246, 36.1562, 0.123751, 0, 0, 0, 0, 4.8545e-06, 46193
-7686.26, 80839.8, -114.338, 3.4078, -964.417, 0.249723, 0.208267, 1.03299, 0.34851, 0.655882, 3, 45.5, 246, 36.1562, 0.123751, 0, 0, 0, 0, 1.30183e-05, 46193
263.639, 159609, -308.667, 4.99136, -1263.32, 0.58195, 0.344209, 0.9175, 0.352806, 0.64323, 0.0001, 455, 246, 36.1562, 0.123751, 2.24796, 1, 0, 0, -1.03472e-05, 46193
263.639, 159609, -308.667, 4.99136, -1263.32, 0.58195, 0.344209, 0.9175, 0.352806, 0.64323, 3, 455, 246, 36.1562, 0.123751, 2.2576, 1, 0, 0, -1.27378e-08, 46193
-6846.25, -2856.76, -55.735, 3.6127, -1060.7, 0.189779, 0.227754, 0.993198, 0.349787, 0.651995, 3, 91, 246, 24.3188, 0.0282092, 0, 0, 1, 1, 1.35653e-05, 46194
-11149.5, 261438, -287.72, 2.33298, -1051.48, -0.0254973, 0.505633, 1.03299, 0.34851, 0.655882, 3, 45.5, 246, 48.643, 0.234854, 0, 0, 0, 0, 5.00729e-06, 46195
-9762.57, 376721, -164.606, 0.686481, -1035.14, -0.00213472, 0.405562, 1.03299, 0.34851, 0.655882, 0.0001, 45.5, 246, 31.0222, 0.111862, 0, 0, 0, 0, 9.88864e-06, 46202
-9762.57, 376721, -164.606, 0.686481, -1035.14, -0.00213472, 0.405562, 1.03299, 0.34851, 0.655882, 3, 45.5, 246, 31.0222, 0.111862, 0, 0, 0, 0, 5.42403e-06, 46202
-8574.75, 395967, -177.887, 0.714706, -1038.12, 2.04698e-05, 0.376404, 0.993198, 0.349787, 0.651995, 0.0001, 91, 246, 31.0222, 0.111862, 0, 0, 1, 0, 2.04707e-05, 46202
-8574.75, 395967, -177.887, 0.714706, -1038.12, 2.04698e-05, 0.376404, 0.993198, 0.349787, 0.651995, 3, 91, 246, 31.0222, 0.111862, 0, 0, 1, 0, 2.47297e-07, 46202
-9921.46, 127102, -114.301, 2.5538, -682.595, -0.00539664, 0.290772, 1.03299, 0.34851, 0.655882, 0.0001, 45.5, 246, 30.1572, 0.12874, 0, 0, 1, 0, 1.6679e-05, 46214
-9921.46, 127102, -114.301, 2.5538, -682.595, -0.00539664, 0.290772, 1.03299, 0.34851, 0.655882, 3, 45.5, 246, 30.1572, 0.12874, 0, 0, 1, 0, 1.10414e-05, 46214
-7685.12, 102180, -140.436, 2.64755, -1155.85, -0.027616, 0.333529, 1.03299, 0.34851, 0.655882, 0.0001, 45.5, 246, 42.7563, 0.192116, 0, 0, 1, 0, -2.02733e-05, 46218
-7685.12, 102180, -140.436, 2.64755, -1155.85, -0.027616, 0.333529, 1.03299, 0.34851, 0.655882, 3, 45.5, 246, 42.7563, 0.192116, 0, 0, 1, 0, -1.65799e-05, 46218
-6269.79, 125845, -180.367, 2.85125, -1165.35, 0.00556655, 0.330989, 0.993198, 0.349787, 0.651995, 0.0001, 91, 246, 42.7563, 0.192116, 0, 0, 1, 0, 4.31574e-06, 46218
-6269.79, 125845, -180.367, 2.85125, -1165.35, 0.00556655, 0.330989, 0.993198, 0.349787, 0.651995, 3, 91, 246, 42.7563, 0.192116, 0, 0, 1, 0, -9.34262e-06, 46218
-322.633, 186865, -300.175, 3.44732, -1234.37, 0.107169, 0.373235, 0.9175, 0.352806, 0.64323, 0.0001, 455, 246, 42.7563, 0.192116, 1.80904, 1, 0, 0, -9.62571e-06, 46218
-322.633, 186865, -300.175, 3.44732, -1234.37, 0.107169, 0.373235, 0.9175, 0.352806, 0.64323, 3, 455, 246, 42.7563, 0.192116, 1.93682, 1, 0, 0, -4.61835e-06, 46218
-9172.29, 77013, -50.104, 2.22679, -918.077, 0.0642958, 0.292947, 1.03299, 0.34851, 0.655882, 0.0001, 45.5, 246, 24.0128, 0.0954069, 0, 0, 1, 0, -2.29594e-06, 46221
-9172.29, 77013, -50.104, 2.22679, -918.077, 0.0642958, 0.292947, 1.03299, 0.34851, 0.655882, 3, 45.5, 246, 24.0128, 0.0954069, 0, 0, 1, 0, -1.5628e-05, 46221
-6149.3, 142514, -249.28, 3.30325, -1089.98, -0.0525254, 0.361364, 1.03299, 0.34851, 0.655882, 0.0001, 45.5, 246, 55.0428, 0.241515, 1.22992, 1, 0, 0, 1.68675e-05, 46225
-6149.3, 142514, -249.28, 3.30325, -1089.98, -0.0525254, 0.361364, 1.03299, 0.34851, 0.655882, 3, 45.5, 246, 55.0428, 0.241515, 1.03931, 1, 0, 0, 7.35931e-06, 46225
-3279.43, 164570, -306.989, 3.60213, -1110.53, -0.00013644, 0.380682, 0.993198, 0.349787, 0.651995, 0.0001, 91, 246, 55.0428, 0.241515, 1.52216, 1, 1, 0, -7.8323e-06, 46225
-3279.43, 164570, -306.989, 3.60213, -1110.53, -0.00013644, 0.380682, 0.993198, 0.349787, 0.651995, 3, 91, 246, 55.0428, 0.241515, 1.39311, 1, 1, 0, -8.29635e-06, 46225
632.431, 189164, -375.96, 3.95813, -1149.84, 0.062643, 0.418726, 0.958125, 0.351078, 0.648177, 0.0001, 182, 246, 55.0428, 0.241515, 0, 0, 0, 0, 4.58175e-06, 46225
632.431, 189164, -375.96, 3.95813, -1149.84, 0.062643, 0.418726, 0.958125, 0.351078, 0.648177, 3, 182, 246, 55.0428, 0.241515, 5.75818, 1, 0, 0, 4.56308e-06, 46225
-8237.8, 519645, -369.697, 0.393548, -1054.01, -2.3875e-05, 0.601083, 1.03299, 0.34851, 0.655882, 0.0001, 45.5, 246, 42.3887, 0.188157, 0, 0, 0, 0, 0.000105243, 46231
-7909.65, -15237.4, -11.2187, 2.98445, -1000.97, 0.000721136, 0.256165, 0.993198, 0.349787, 0.651995, 3, 91, 246, 9.7607, 0.0582885, 0, 0, 1, 1, -6.41894e-06, 46234
-8624.02, 16704.8, -14.4615, 1.82015, -1094.49, 0.126868, 0.291738, 0.993198, 0.349787, 0.651995, 3, 91, 246, 11.3753, 0.0629343, 0, 0, 1, 1, -9.91476e-06, 46239
-9101.87, 64464.8, -18.0557, 1.10896, -740.639, -0.00567398, 0.333474, 1.03299, 0.34851, 0.655882, 0.0001, 45.5, 246, 13.9966, 0.0634915, 0, 0, 1, 0, 1.58803e-05, 46245
-9101.87, 64464.8, -18.0557, 1.10896, -740.639, -0.00567398, 0.333474, 1.03299, 0.34851, 0.655882, 3, 45.5, 246, 13.9966, 0.0634915, 0, 0, 1, 0, 3.79248e-07, 46245
-10272.6, 770979, -34.3305, 0.223825, -671.236, 0.013707, 0.305228, 0.993198, 0.349787, 0.651995, 0.0001, 91, 246, 16.1181, 0.0112942, 0, 0, 1, 0, 1.48349e-05, 46246
-9384.92, 92469.8, -85.6561, 3.28116, -734.278, -0.05133, 0.20352, 1.03299, 0.34851, 0.655882, 0.0001, 45.5, 246, 27.3867, 0.0942555, 0, 0, 1, 0, 1.57226e-05, 46253
-9384.92, 92469.8, -85.6561, 3.28116, -734.278, -0.05133, 0.20352, 1.03299, 0.34851, 0.655882, 3, 45.5, 246, 27.3867, 0.0942555, 0, 0, 1, 0, -1.01678e-05, 46253
-5790.09, 219733, -79.2801, 3.50648, -752.928, 0.353265, 0.246589, 0.9175, 0.352806, 0.64323, 3, 455, 246, 12.5739, 0.02508, 0, 0, 1, 0, -2.1826e-05, 46258
-8591.33, 43370.1, -29.9647, 3.10113, -653.443, -0.0328658, 0.210902, 1.03299, 0.34851, 0.655882, 0.0001, 45.5, 246, 17.7104, 0.052841, 0, 0, 1, 0, -9.82015e-06, 46264
-10160.9, 160362, -36.1772, 1.18296, -1015.72, 0.00280887, 0.332249, 1.03299, 0.34851, 0.655882, 0.0001, 45.5, 246, 19.6648, 0.0607318, 0, 0, 1, 0, -6.56551e-06, 46273
-10160.9, 160362, -36.1772, 1.18296, -1015.72, 0.00280887, 0.332249, 1.03299, 0.34851, 0.655882, 3, 45.5, 246, 19.6648, 0.0607318, 0, 0, 1, 0, -1.80854e-05, 46273
-5533, -8821.99, -70.679, 3.58679, -653.322, -0.0111394, 0.183694, 1.03299, 0.34851, 0.655882, 3, 45.5, 246, 34.9078, 0.0267149, 0, 0, 1, 1, -1.00217e-05, 46275
-12226.2, 576238, -35.373, 0.49323, -805.577, 0.0467132, 0.338848, 1.03299, 0.34851, 0.655882, 0.0001, 45.5, 246, 18.2975, 0.0175355, 0, 0, 1, 0, 5.34676e-05, 46278
-12226.2, 576238, -35.373, 0.49323, -805.577, 0.0467132, 0.338848, 1.03299, 0.34851, 0.655882, 3, 45.5, 246, 18.2975, 0.0175355, 0, 0, 1, 0, 5.20697e-06, 46278
-11016.2, 283998, -98.4765, 1.09626, -1017.91, 0.00168971, 0.358011, 1.03299, 0.34851, 0.655882, 0.0001, 45.5, 246, 26.4264, 0.0876149, 0, 0, 1, 0, -6.33602e-06, 46280
-11016.2, 283998, -98.4765, 1.09626, -1017.91, 0.00168971, 0.358011, 1.03299, 0.34851, 0.655882, 3, 45.5, 246, 26.4264, 0.0876149, 0, 0, 1, 0, 4.41001e-05, 46280
-9752.13, 302315, -113.445, 1.1487, -1021.75, 0.00722413, 0.328693, 0.993198, 0.349787, 0.651995, 3, 91, 246, 26.4264, 0.0876149, 0, 0, 1, 0, -4.94526e-06, 46280
-8233.42, 320978, -129.457, 1.20206, -1027.16, 0.0133052, 0.304554, 0.958125, 0.351078, 0.648177, 0.0001, 182, 246, 26.4264, 0.0876149, 0, 0, 1, 0, -1.14965e-05, 46280
-10810.4, 219434, -226.763, 1.90921, -701.418, -0.00970787, 0.454961, 1.03299, 0.34851, 0.655882, 3, 45.5, 246, 40.3536, 0.21355, 0, 0, 1, 0, -7.0458e-06, 46285
-6732.57, 25919.2, -78.2634, 3.40119, -1163.62, 0.115919, 0.239559, 0.993198, 0.349787, 0.651995, 0.0001, 91, 246, 29.3001, 0.0731591, 0, 0, 1, 1, 8.31459e-06, 46291
-6732.57, 25919.2, -78.2634, 3.40119, -1163.62, 0.115919, 0.239559, 0.993198, 0.349787, 0.651995, 3, 91, 246, 29.3001, 0.0731591, 0, 0, 1, 1, -7.19879e-06, 46291
-8647.84, 647203, -327.574, 0.215873, -790.5, 0.007473, 0.502255, 1.03299, 0.34851, 0.655882, 0.0001, 45.5, 246, 32.3653, 0.132143, 0, 0, 0, 0, 0.000108085, 46293
-8647.84, 647203, -327.574, 0.215873, -790.5, 0.007473, 0.502255, 1.03299, 0.34851, 0.655882, 3, 45.5, 246, 32.3653, 0.132143, 0, 0, 0, 0, -3.65401e-06, 46293
-5743.85, 673863, -353.417, 0.230972, -796.441, 0.00793044, 0.460579, 0.958125, 0.351078, 0.648177, 3, 182, 246, 32.3653, 0.132143, 0, 0, 0, 0, 0.000109602, 46293
-5213.52, 283856, -144.657, 2.58299, -930.487, 0.331688, 0.262118, 0.9175, 0.352806, 0.64323, 0.0001, 455, 246, 21.1029, 0.0670714, 0, 0, 0, 0, -3.15299e-06, 46296
-5213.52, 283856, -144.657, 2.58299, -930.487, 0.331688, 0.262118, 0.9175, 0.352806, 0.64323, 3, 455, 246, 21.1029, 0.0670714, 0, 0, 0, 0, -4.25199e-06, 46296
-9188.42, 108798, -75.6177, 1.65505, -1145.31, -0.0101453, 0.34683, 1.03299, 0.34851, 0.655882, 3, 45.5, 246, 29.4035, 0.134816, 0, 0, 1, 0, -1.04245e-05, 46300
-14000.1, 250666, -47.5564, 3.50949, -1010.13, 0.332775, 0.171892, 0.993198, 0.349787, 0.651995, 0.0001, 91, 246, 19.477, 0.0365632, 0, 0, 1, 0, -6.38311e-06, 46301
-14000.1, 250666, -47.5564, 3.50949, -1010.13, 0.332775, 0.171892, 0.993198, 0.349787, 0.651995, 3, 91, 246, 19.477, 0.0365632, 0, 0, 1, 0, -9.37763e-06, 46301
-13437.8, 153554, 14.9911, 2.92783, -916.981, 0.0508058, 0.202936, 1.03299, 0.34851, 0.655882, 0.0001, 45.5, 246, 13.8446, 0.0212449, 0, 0, 1, 0, -8.54234e-06, 46307
-13437.8, 153554, 14.9911, 2.92783, -916.981, 0.0508058, 0.202936, 1.03299, 0.34851, 0.655882, 3, 45.5, 246, 13.8446, 0.0212449, 0, 0, 0, 0, -1.3138e-05, 46307
-6513, 109302, -195.29, 2.43436, -831.631, 0.219015, 0.390713, 1.03299, 0.34851, 0.655882, 0.0001, 45.5, 246, 50.8217, 0.248161, 1.02363, 1, 1, 0, -2.23733e-05, 46308
-2923.13, 141354, -270.469, 2.89872, -935.951, 0.302264, 0.396219, 0.958125, 0.351078, 0.648177, 0.0001, 182, 246, 50.8217, 0.248161, 1.23475, 1, 1, 0, -1.06884e-05, 46308
-2923.13, 141354, -270.469, 2.89872, -935.951, 0.302264, 0.396219, 0.958125, 0.351078, 0.648177, 3, 182, 246, 50.8217, 0.248161, 1.01341, 1, 1, 0, -1.85982e-05, 46308
-9350.45, 409390, -349.125, 0.707114, -1071.06, 0.225288, 0.623207, 1.03299, 0.34851, 0.655882, 0.0001, 45.5, 246, 45.049, 0.218399, 0, 0, 0, 0, 5.08086e-06, 46311
-9350.45, 409390, -349.125, 0.707114, -1071.06, 0.225288, 0.623207, 1.03299, 0.34851, 0.655882, 3, 45.5, 246, 45.049, 0.218399, 0, 0, 0, 0, 1.87242e-05, 46311
-206.448, 515573, -434.517, 0.858716, -1246.08, 0.265602, 0.612406, 0.9175, 0.352806, 0.64323, 3, 455, 246, 45.049, 0.218399, 0, 0, 0, 0, -3.33695e-05, 46311
-8322.31, 689018, -429.156, 0.114292, -809.43, 0.108514, 0.596086, 1.03299, 0.34851, 0.655882, 3, 45.5, 246, 36.538, 0.160917, 0, 0, 0, 0, -9.21463e-05, 46312
-8568.2, 450704, -120.253, 0.464902, -1143.14, 0.214574, 0.333202, 0.993198, 0.349787, 0.651995, 0.0001, 91, 246, 27.4236, 0.0655647, 0, 0, 1, 0, -4.18805e-05, 46318
-8281.91, 423032, -289.166, 0.374157, -939.289, 0.818242, 0.511106, 1.03299, 0.34851, 0.655882, 0.0001, 45.5, 246, 36.3707, 0.158167, 0, 0, 0, 0, -0.487555, 46319
-8281.91, 423032, -289.166, 0.374157, -939.289, 0.818242, 0.511106, 1.03299, 0.34851, 0.655882, 3, 45.5, 246, 36.3707, 0.158167, 0, 0, 0, 0, 5.04849e-05, 46319
-6989.87, 462803, -303.815, 0.406923, -1082.1, 0.940519, 0.489468, 0.993198, 0.349787, 0.651995, 3, 91, 246, 36.3707, 0.158167, 0, 0, 1, 0, 3.92743e-05, 46319
-9270.25, 524246, -233.966, 0.498666, -1023.99, 0.0286179, 0.440036, 1.03299, 0.34851, 0.655882, 0.0001, 45.5, 246, 33.4313, 0.114986, 0, 0, 0, 0, -1.32474e-05, 46320
-8810.2, 628503, -406.026, 0.12325, -733.375, 0.0686172, 0.594573, 1.03299, 0.34851, 0.655882, 0.0001, 45.5, 246, 35.4462, 0.168697, 0, 0, 0, 0, -1.04322e-05, 46327
-8810.2, 628503, -406.026, 0.12325, -733.375, 0.0686172, 0.594573, 1.03299, 0.34851, 0.655882, 3, 45.5, 246, 35.4462, 0.168697, 0, 0, 0, 0, 0.000103175, 46327
-8814.31, 135822, -111.933, 0.420249, -1108.71, -0.000748991, 0.44471, 1.03299, 0.34851, 0.655882, 0.0001, 45.5, 246, 35.2473, 0.236009, 0, 0, 1, 0, 0.000101969, 46331
-8814.31, 135822, -111.933, 0.420249, -1108.71, -0.000748991, 0.44471, 1.03299, 0.34851, 0.655882, 3, 45.5, 246, 35.2473, 0.236009, 0, 0, 1, 0, -0.000145739, 46331
-10151.9, 456157, -224.598, 1.26009, -1115.77, 0.295572, 0.386418, 0.993198, 0.349787, 0.651995, 0.0001, 91, 246, 33.6462, 0.11557, 0, 0, 1, 0, 5.46721e-05, 46334
-10151.9, 456157, -224.598, 1.26009, -1115.77, 0.295572, 0.386418, 0.993198, 0.349787, 0.651995, 3, 91, 246, 33.6462, 0.11557, 0, 0, 1, 0, -2.45809e-05, 46334
-7061.16, -33614, 11.4592, 2.95961, -900.468, 0.40135, 0.240647, 1.03299, 0.34851, 0.655882, 0.0001, 45.5, 246, 10.6439, 0.0509015, 0, 0, 1, 0, -9.79982e-06, 46335
-7061.16, -33614, 11.4592, 2.95961, -900.468, 0.40135, 0.240647, 1.03299, 0.34851, 0.655882, 3, 45.5, 246, 10.6439, 0.0509015, 0, 0, 1, 0, 1.05249e-05, 46335
-10208.4, 438664, -153.162, 0.542151, -829.242, 0.292491, 0.38685, 1.03299, 0.34851, 0.655882, 0.0001, 45.5, 246, 25.8914, 0.0862315, 0, 0, 1, 0, -8.17104e-05, 46350
-10208.4, 438664, -153.162, 0.542151, -829.242, 0.292491, 0.38685, 1.03299, 0.34851, 0.655882, 3, 45.5, 246, 25.8914, 0.0862315, 0, 0, 1, 0, -7.39195e-05, 46350
-9159.28, 458795, -163.217, 0.571724, -871.896, 0.308092, 0.355399, 0.993198, 0.349787, 0.651995, 3, 91, 246, 25.8914, 0.0862315, 0, 0, 1, 0, 1.34401e-05, 46350
-11398.8, 171775, -143.987, 3.33512, -1071.92, -0.0527156, 0.23828, 1.03299, 0.34851, 0.655882, 0.0001, 45.5, 246, 36.2836, 0.135179, 0, 0, 0, 0, -6.50473e-06, 46357
-11398.8, 171775, -143.987, 3.33512, -1071.92, -0.0527156, 0.23828, 1.03299, 0.34851, 0.655882, 3, 45.5, 246, 36.2836, 0.135179, 0, 0, 0, 0, -1.48017e-05, 46357
-8621.9, 191732, -191.068, 3.62661, -1082.68, 0.000533033, 0.249859, 0.993198, 0.349787, 0.651995, 0.0001, 91, 246, 36.2836, 0.135179, 0, 0, 1, 0, -1.0627e-05, 46357
-8621.9, 191732, -191.068, 3.62661, -1082.68, 0.000533033, 0.249859, 0.993198, 0.349787, 0.651995, 3, 91, 246, 36.2836, 0.135179, 0, 0, 1, 0, 2.24609e-05, 46357
-1398.64, 631076, -334.653, 1.18189, -1152.13, 0.0128836, 0.383794, 0.9175, 0.352806, 0.64323, 3, 455, 246, 36.4125, 0.119394, 0, 0, 0, 0, -1.2975e-05, 46365
-8112.32, 24792.8, -25.7399, 3.37339, -707.268, 1.03146, 0.246069, 0.958125, 0.351078, 0.648177, 0.0001, 182, 246, 6.81966, 0.0266114, 0, 0, 1, 0, -5.91054e-06, 46366
-8112.32, 24792.8, -25.7399, 3.37339, -707.268, 1.03146, 0.246069, 0.958125, 0.351078, 0.648177, 3, 182, 246, 6.81966, 0.0266114, 0, 0, 1, 0, -7.19606e-06, 46366
-7601.01, 41922.9, -65.5267, 4.11243, -916.349, 1.41831, 0.290228, 0.9175, 0.352806, 0.64323, 0.0001, 455, 246, 6.81966, 0.0266114, 0, 0, 1, 0, -7.91364e-06, 46366
-7601.01, 41922.9, -65.5267, 4.11243, -916.349, 1.41831, 0.290228, 0.9175, 0.352806, 0.64323, 3, 455, 246, 6.81966, 0.0266114, 0, 0, 1, 0, 4.72995e-06, 46366
-11870.7, 176685, -65.7655, 2.03751, -859.777, 0.771336, 0.293337, 1.03299, 0.34851, 0.655882, 0.0001, 45.5, 246, 22.7393, 0.0744129, 0, 0, 1, 0, 1.37863e-05, 46368
-8191.24, 230449, -117.131, 2.54899, -1158.52, 1.08101, 0.266932, 0.958125, 0.351078, 0.648177, 3, 182, 246, 22.7393, 0.0744129, 0, 0, 1, 0, 1.64266e-05, 46368
-10565.4, 101318, -25.5444, 2.63497, -888.758, 0.142255, 0.245993, 1.03299, 0.34851, 0.655882, 0.0001, 45.5, 246, 18.5578, 0.057617, 0, 0, 1, 0, -7.73733e-06, 46370
-10565.4, 101318, -25.5444, 2.63497, -888.758, 0.142255, 0.245993, 1.03299, 0.34851, 0.655882, 3, 45.5, 246, 18.5578, 0.057617, 0, 0, 1, 0, 6.89661e-06, 46370
-6448.9, 140408, -269.834, 2.93716, -618.951, -0.0089513, 0.393772, 1.03299, 0.34851, 0.655882, 0.0001, 45.5, 246, 53.5755, 0.248397, 1.38714, 1, 1, 0, 3.58914e-06, 46374
-6448.9, 140408, -269.834, 2.93716, -618.951, -0.0089513, 0.393772, 1.03299, 0.34851, 0.655882, 3, 45.5, 246, 53.5755, 0.248397, 1.2932, 1, 1, 0, -6.21358e-06, 46374
-3918.19, 148667, -310.531, 3.18992, -643.437, 0.0322295, 0.404134, 0.993198, 0.349787, 0.651995, 0.0001, 91, 246, 53.5755, 0.248397, 1.57748, 1, 1, 0, -6.2848e-06, 46374
-3918.19, 148667, -310.531, 3.18992, -643.437, 0.0322295, 0.404134, 0.993198, 0.349787, 0.651995, 3, 91, 246, 53.5755, 0.248397, 1.45831, 1, 1, 0, -7.47764e-06, 46374
-756.826, 158594, -358.36, 3.48448, -678.641, 0.0815568, 0.429704, 0.958125, 0.351078, 0.648177, 0.0001, 182, 246, 53.5755, 0.248397, 2.24741, 1, 1, 1, -3.23359e-06, 46374
-756.826, 158594, -358.36, 3.48448, -678.641, 0.0815568, 0.429704, 0.958125, 0.351078, 0.648177, 3, 182, 246, 53.5755, 0.248397, 2.10248, 1, 1, 1, -6.77982e-06, 46374
-8335.11, 90394.4, -91.8652, 3.85564, -711.791, 0.465385, 0.175929, 0.993198, 0.349787, 0.651995, 0.0001, 91, 246, 22.4703, 0.067886, 0, 0, 1, 0, 8.68417e-06, 46378
-8335.11, 90394.4, -91.8652, 3.85564, -711.791, 0.465385, 0.175929, 0.993198, 0.349787, 0.651995, 3, 91, 246, 22.4703, 0.067886, 0, 0, 1, 0, -4.28313e-05, 46378
-6656.84, 102499, -128.894, 4.34819, -785.149, 0.581986, 0.21202, 0.958125, 0.351078, 0.648177, 0.0001, 182, 246, 22.4703, 0.067886, 0, 0, 1, 0, -5.49223e-05, 46378
-6656.84, 102499, -128.894, 4.34819, -785.149, 0.581986, 0.21202, 0.958125, 0.351078, 0.648177, 3, 182, 246, 22.4703, 0.067886, 0, 0, 1, 0, -2.44036e-05, 46378
-3360.36, 124949, -198.599, 5.23693, -935.415, 0.813952, 0.307058, 0.9175, 0.352806, 0.64323, 0.0001, 455, 246, 22.4703, 0.067886, 0, 0, 1, 0, -3.30161e-05, 46378
-3360.36, 124949, -198.599, 5.23693, -935.415, 0.813952, 0.307058, 0.9175, 0.352806, 0.64323, 3, 455, 246, 22.4703, 0.067886, 0, 0, 1, 0, 1.72514e-05, 46378
-11166.6, 334157, -108.266, 0.914339, -909.988, 0.184509, 0.362541, 1.03299, 0.34851, 0.655882, 0.0001, 45.5, 246, 25.16, 0.0808976, 0, 0, 1, 0, -8.43574e-06, 46380
-11166.6, 334157, -108.266, 0.914339, -909.988, 0.184509, 0.362541, 1.03299, 0.34851, 0.655882, 3, 45.5, 246, 25.16, 0.0808976, 0, 0, 1, 0, -1.43511e-06, 46380
-9920.13, 352659, -120.859, 0.964444, -940.479, 0.19404, 0.331843, 0.993198, 0.349787, 0.651995, 3, 91, 246, 25.16, 0.0808976, 0, 0, 1, 0, 1.56932e-05, 46380
-10047.4, 77221.8, 7.16678, 2.27615, -915.637, -0.0243871, 0.270219, 1.03299, 0.34851, 0.655882, 0.0001, 45.5, 246, 12.1066, 0.0318202, 0, 0, 1, 0, 1.10027e-05, 46381
-10047.4, 77221.8, 7.16678, 2.27615, -915.637, -0.0243871, 0.270219, 1.03299, 0.34851, 0.655882, 3, 45.5, 246, 12.1066, 0.0318202, 0, 0, 1, 0, -6.93942e-06, 46381
-6451.77, 97555.6, -182.65, 2.4595, -694.735, 0.337408, 0.356253, 1.03299, 0.34851, 0.655882, 0.0001, 45.5, 246, 47.9867, 0.219842, 1.05327, 1, 1, 0, 1.62408e-05, 46383
-3297.97, 123112, -249.969, 2.9686, -818.223, 0.449879, 0.358648, 0.958125, 0.351078, 0.648177, 0.0001, 182, 246, 47.9867, 0.219842, 1.16967, 1, 1, 0, 1.00308e-05, 46383
47.3058, 147376, -311.895, 3.4162, -941.461, 0.561708, 0.390006, 0.9175, 0.352806, 0.64323, 0.0001, 455, 246, 47.9867, 0.219842, 2.49525, 1, 0, 0, 6.76425e-06, 46383
47.3058, 147376, -311.895, 3.4162, -941.461, 0.561708, 0.390006, 0.9175, 0.352806, 0.64323, 3, 455, 246, 47.9867, 0.219842, 2.49597, 1, 0, 0, 8.53109e-06, 46383
-9030.39, 260012, -139.11, 1.20816, -1047.81, 0.00350349, 0.354374, 0.993198, 0.349787, 0.651995, 0.0001, 91, 246, 30.141, 0.122999, 0, 0, 1, 0, 2.39766e-05, 46385
-10244.5, 523056, -399.263, 0.231566, -638.046, -0.000230478, 0.642249, 1.03299, 0.34851, 0.655882, 0.0001, 45.5, 246, 36.9652, 0.203203, 0, 0, 0, 0, -0.000153086, 46388
-10244.5, 523056, -399.263, 0.231566, -638.046, -0.000230478, 0.642249, 1.03299, 0.34851, 0.655882, 3, 45.5, 246, 36.9652, 0.203203, 0, 0, 0, 0, -0.000109512, 46388
-8613.87, 27357, -13.4963, 2.11542, -1043.9, -0.0210116, 0.295674, 1.03299, 0.34851, 0.655882, 3, 45.5, 246, 17.6578, 0.072032, 0, 0, 1, 0, 1.46602e-06, 46392
-11143, 371596, -112.338, 0.892703, -1107.11, 0.197463, 0.363051, 1.03299, 0.34851, 0.655882, 0.0001, 45.5, 246, 28.0722, 0.0761125, 0, 0, 1, 0, 4.55139e-06, 46394
-11143, 371596, -112.338, 0.892703, -1107.11, 0.197463, 0.363051, 1.03299, 0.34851, 0.655882, 3, 45.5, 246, 28.0722, 0.0761125, 0, 0, 1, 0, -1.94104e-05, 46394
-7463.38, 2696.48, -18.7417, 2.98028, -1022.73, 0.127401, 0.237184, 1.03299, 0.34851, 0.655882, 0.0001, 45.5, 246, 21.2369, 0.0643853, 0, 0, 1, 1, -5.09419e-06, 46395
-7463.38, 2696.48, -18.7417, 2.98028, -1022.73, 0.127401, 0.237184, 1.03299, 0.34851, 0.655882, 3, 45.5, 246, 21.2369, 0.0643853, 0, 0, 1, 1, -8.92681e-06, 46395
-9277.11, 115277, -103.544, 2.27816, -896.353, -0.0213037, 0.3184, 1.03299, 0.34851, 0.655882, 0.0001, 45.5, 246, 32.1622, 0.141703, 0, 0, 1, 0, -1.41241e-05, 46402
-9277.11, 115277, -103.544, 2.27816, -896.353, -0.0213037, 0.3184, 1.03299, 0.34851, 0.655882, 3, 45.5, 246, 32.1622, 0.141703, 0, 0, 1, 0, 5.85029e-06, 46402
-3678.96, 232024, -316.291, 4.25617, -1065.17, 0.422584, 0.310172, 0.958125, 0.351078, 0.648177, 0.0001, 182, 246, 40.177, 0.158488, 1.07967, 1, 0, 0, -3.85493e-06, 46404
4718.98, 274837, -429.558, 5.06357, -1246.82, 0.601482, 0.406031, 0.9175, 0.352806, 0.64323, 0.0001, 455, 246, 40.177, 0.158488, 0, 0, 0, 0, -8.15431e-08, 46404
4718.98, 274837, -429.558, 5.06357, -1246.82, 0.601482, 0.406031, 0.9175, 0.352806, 0.64323, 3, 455, 246, 40.177, 0.158488, 0, 0, 0, 0, -1.31072e-05, 46404
-8288.58, 158170, -259.205, 3.39356, -660.109, -0.0492699, 0.310888, 1.03299, 0.34851, 0.655882, 0.0001, 45.5, 246, 47.8715, 0.206079, 1.24717, 1, 0, 0, 6.29884e-06, 46432
-8288.58, 158170, -259.205, 3.39356, -660.109, -0.0492699, 0.310888, 1.03299, 0.34851, 0.655882, 3, 45.5, 246, 47.8715, 0.206079, 1.13667, 1, 0, 0, 5.62979e-06, 46432
-5243.58, 166859, -304.976, 3.70275, -684.052, 0.00601205, 0.32948, 0.993198, 0.349787, 0.651995, 0.0001, 91, 246, 47.8715, 0.206079, 1.39389, 1, 1, 0, 1.37852e-05, 46432
-5243.58, 166859, -304.976, 3.70275, -684.052, 0.00601205, 0.32948, 0.993198, 0.349787, 0.651995, 3, 91, 246, 47.8715, 0.206079, 1.22113, 1, 1, 0, -8.89202e-06, 46432
-1430, 177560, -359.82, 4.07255, -722.249, 0.0724882, 0.367486, 0.958125, 0.351078, 0.648177, 0.0001, 182, 246, 47.8715, 0.206079, 2.08838, 1, 0, 0, -6.25774e-06, 46432
-1430, 177560, -359.82, 4.07255, -722.249, 0.0724882, 0.367486, 0.958125, 0.351078, 0.648177, 3, 182, 246, 47.8715, 0.206079, 1.9351, 1, 0, 0, 3.00509e-06, 46432
-7663.18, -5761.29, -17.7082, 2.50606, -690.601, -0.0230704, 0.272946, 1.03299, 0.34851, 0.655882, 3, 45.5, 246, 18.2682, 0.033099, 0, 0, 1, 1, 1.68421e-05, 46435
-9316.67, 83216.6, -53.1507, 2.20135, -826.304, 0.038428, 0.293277, 1.03299, 0.34851, 0.655882, 0.0001, 45.5, 246, 23.4041, 0.093751, 0, 0, 1, 0, 1.36674e-05, 46443
-9316.67, 83216.6, -53.1507, 2.20135, -826.304, 0.038428, 0.293277, 1.03299, 0.34851, 0.655882, 3, 45.5, 246, 23.4041, 0.093751, 0, 0, 1, 0, 4.37652e-06, 46443
-7048.2, -4967.75, -36.5966, 3.7454, -1146.86, 0.0873026, 0.216794, 0.993198, 0.349787, 0.651995, 0.0001, 91, 246, 18.0555, 0.0555749, 0, 0, 1, 1, -1.77706e-05, 46444
-7048.2, -4967.75, -36.5966, 3.7454, -1146.86, 0.0873026, 0.216794, 0.993198, 0.349787, 0.651995, 3, 91, 246, 18.0555, 0.0555749, 0, 0, 1, 1, -3.36578e-06, 46444
-3109, 301047, -392.78, 4.04011, -1083.94, 0.0806044, 0.394046, 0.958125, 0.351078, 0.648177, 0.0001, 182, 246, 45.0865, 0.187403, 1.84123, 1, 0, 0, 1.25153e-05, 46456
-3109, 301047, -392.78, 4.04011, -1083.94, 0.0806044, 0.394046, 0.958125, 0.351078, 0.648177, 3, 182, 246, 45.0865, 0.187403, 1.68958, 1, 0, 0, -1.71657e-06, 46456
-11001.9, 274051, -190.809, 1.53187, -1084.64, 0.292343, 0.422606, 1.03299, 0.34851, 0.655882, 3, 45.5, 246, 37.0595, 0.158875, 0, 0, 0, 0, -6.28819e-06, 46458
-11970.6, 305277, -61.119, 1.04016, -729.262, 0.0591935, 0.336704, 1.03299, 0.34851, 0.655882, 0.0001, 45.5, 246, 18.466, 0.0524714, 0, 0, 1, 0, -1.34154e-05, 46460
-11970.6, 305277, -61.119, 1.04016, -729.262, 0.0591935, 0.336704, 1.03299, 0.34851, 0.655882, 3, 45.5, 246, 18.466, 0.0524714, 0, 0, 1, 0, 1.07109e-05, 46460
-10778.8, 315604, -70.9454, 1.0915, -738.296, 0.0647869, 0.305267, 0.993198, 0.349787, 0.651995, 3, 91, 246, 18.466, 0.0524714, 0, 0, 1, 0, -1.40007e-05, 46460
-9391.73, 326356, -81.5275, 1.14377, -748.508, 0.0709975, 0.278984, 0.958125, 0.351078, 0.648177, 0.0001, 182, 246, 18.466, 0.0524714, 0, 0, 1, 0, 7.65795e-08, 46460
-10005, 684670, -116.188, 0.28843, -868.899, 0.647759, 0.356468, 1.03299, 0.34851, 0.655882, 0.0001, 45.5, 246, 23.5815, 0.0390143, 0, 0, 1, 0, 5.90341e-05, 46461
-10005, 684670, -116.188, 0.28843, -868.899, 0.647759, 0.356468, 1.03299, 0.34851, 0.655882, 3, 45.5, 246, 23.5815, 0.0390143, 0, 0, 1, 0, -3.45962e-05, 46461
-9214.36, 725022, -122.397, 0.308703, -969.001, 0.722059, 0.321715, 0.993198, 0.349787, 0.651995, 3, 91, 246, 23.5815, 0.0390143, 0, 0, 1, 0, 2.64406e-05, 46461
-8173.1, 81615.3, -105.639, 1.60352, -993.186, 0.0565521, 0.389155, 1.03299, 0.34851, 0.655882, 3, 45.5, 246, 39.9358, 0.235915, 0, 0, 1, 0, -6.30116e-06, 46471
1140.66, 394623, -287.299, 4.93552, -1305.49, 0.232034, 0.280403, 0.9175, 0.352806, 0.64323, 3, 455, 246, 29.2928, 0.0724242, 0, 0, 0, 0, -1.68165e-05, 46473
-12354.6, 154978, -90.1988, 3.48326, -915.562, 0.061806, 0.175302, 1.03299, 0.34851, 0.655882, 0.0001, 45.5, 246, 27.7365, 0.0912852, 0, 0, 0, 0, 2.32874e-05, 46483
-12354.6, 154978, -90.1988, 3.48326, -915.562, 0.061806, 0.175302, 1.03299, 0.34851, 0.655882, 3, 45.5, 246, 27.7365, 0.0912852, 0, 0, 0, 0, -8.97797e-06, 46483
-10220.6, 130515, -99.2886, 2.43239, -742.251, 0.146274, 0.29142, 1.03299, 0.34851, 0.655882, 0.0001, 45.5, 246, 28.0934, 0.116636, 0, 0, 1, 0, 4.14056e-06, 46498
-10220.6, 130515, -99.2886, 2.43239, -742.251, 0.146274, 0.29142, 1.03299, 0.34851, 0.655882, 3, 45.5, 246, 28.0934, 0.116636, 0, 0, 1, 0, -1.24365e-05, 46498
-7087.9, 153802, -152.552, 2.85439, -803.482, 0.217676, 0.281161, 0.958125, 0.351078, 0.648177, 3, 182, 246, 28.0934, 0.116636, 0, 0, 1, 0, 8.85268e-06, 46498
-10746.4, 540271, -161.485, 0.47822, -729.474, 0.0837888, 0.384209, 1.03299, 0.34851, 0.655882, 0.0001, 45.5, 246, 23.8062, 0.0765842, 0, 0, 1, 0, -1.53275e-05, 46500
-10746.4, 540271, -161.485, 0.47822, -729.474, 0.0837888, 0.384209, 1.03299, 0.34851, 0.655882, 3, 45.5, 246, 23.8062, 0.0765842, 0, 0, 1, 0, 8.53534e-06, 46500
