-13314.1, -6976.59, -66.7019, 0.242261, -613.337, 0.496698, 0.357376, 1.03299, 0.34851, 0.655882, 3, 45.5, 246, 590.594, 0.0515109, 0, 0, 1, 0, -1.0401e-05, 135502
-9591.64, 499716, -377.783, 0.283531, -741.042, 0.000398057, 0.624483, 1.03299, 0.34851, 0.655882, 0.0001, 45.5, 246, 38.3732, 0.201552, 0, 0, 0, 0, 8.51342e-05, 135508
-9591.64, 499716, -377.783, 0.283531, -741.042, 0.000398057, 0.624483, 1.03299, 0.34851, 0.655882, 3, 45.5, 246, 38.3732, 0.201552, 0, 0, 0, 0, 5.017e-05, 135508
-9723.08, 66131.4, 5.10023, 2.28007, -806.031, -0.0122417, 0.270813, 1.03299, 0.34851, 0.655882, 0.0001, 45.5, 246, 10.8923, 0.03129, 0, 0, 1, 0, 1.29949e-06, 135511
-9723.08, 66131.4, 5.10023, 2.28007, -806.031, -0.0122417, 0.270813, 1.03299, 0.34851, 0.655882, 3, 45.5, 246, 10.8923, 0.03129, 0, 0, 1, 0, 3.66164e-06, 135511
-11255.3, 252931, -88.0755, 1.32122, -1064.21, 0.00540221, 0.346975, 1.03299, 0.34851, 0.655882, 0.0001, 45.5, 246, 26.446, 0.0869846, 0, 0, 1, 0, -2.56653e-05, 135513
-11255.3, 252931, -88.0755, 1.32122, -1064.21, 0.00540221, 0.346975, 1.03299, 0.34851, 0.655882, 3, 45.5, 246, 26.446, 0.0869846, 0, 0, 1, 0, 2.70822e-05, 135513
-9889.56, 272946, -105.633, 1.39009, -1069.25, 0.0134836, 0.319468, 0.993198, 0.349787, 0.651995, 3, 91, 246, 26.446, 0.0869846, 0, 0, 1, 0, 1.8981e-05, 135513
-8219.35, 293424, -124.697, 1.46134, -1076.6, 0.0224564, 0.29766, 0.958125, 0.351078, 0.648177, 0.0001, 182, 246, 26.446, 0.0869846, 0, 0, 1, 0, 6.66231e-06, 135513
-8047.45, 780863, -447.23, 0.0209386, -746.372, 0.0163233, 0.586528, 1.03299, 0.34851, 0.655882, 0.0001, 45.5, 246, 34.4536, 0.149486, 0, 0, 0, 0, -0.000116266, 135516
-8047.45, 780863, -447.23, 0.0209386, -746.372, 0.0163233, 0.586528, 1.03299, 0.34851, 0.655882, 3, 45.5, 246, 34.4536, 0.149486, 0, 0, 0, 0, 7.67028e-06, 135516
-9542.22, 457077, -306.411, 0.262979, -605.83, 0.62418, 0.521733, 1.03299, 0.34851, 0.655882, 0.0001, 45.5, 246, 30.95, 0.159089, 0, 0, 0, 0, 8.9037e-05, 135519
-9542.22, 457077, -306.411, 0.262979, -605.83, 0.62418, 0.521733, 1.03299, 0.34851, 0.655882, 3, 45.5, 246, 30.95, 0.159089, 0, 0, 0, 0, 4.84349e-05, 135519
-7057.05, 512223, -332.107, 0.303491, -760.118, 0.778445, 0.483967, 0.958125, 0.351078, 0.648177, 0.0001, 182, 246, 30.95, 0.159089, 0, 0, 1, 0, -5.90876e-05, 135519
-5985.22, 137928, -195.914, 2.52512, -704.805, 0.358673, 0.335274, 0.958125, 0.351078, 0.648177, 0.0001, 182, 246, 36.6632, 0.178284, 0, 0, 1, 0, 1.58493e-06, 135521
-5985.22, 137928, -195.914, 2.52512, -704.805, 0.358673, 0.335274, 0.958125, 0.351078, 0.648177, 3, 182, 246, 36.6632, 0.178284, 0, 0, 1, 0, 1.97658e-05, 135521
-3303.1, 155597, -239.165, 2.84734, -786.357, 0.432934, 0.346672, 0.9175, 0.352806, 0.64323, 0.0001, 455, 246, 36.6632, 0.178284, 0, 0, 0, 0, 1.88781e-05, 135521
-3303.1, 155597, -239.165, 2.84734, -786.357, 0.432934, 0.346672, 0.9175, 0.352806, 0.64323, 3, 455, 246, 36.6632, 0.178284, 0, 0, 0, 0, 1.90187e-05, 135521
-10506.6, 216459, -115.586, 1.23241, -776.471, 0.132592, 0.372232, 1.03299, 0.34851, 0.655882, 0.0001, 45.5, 246, 26.9216, 0.12282, 0, 0, 1, 0, 2.45238e-06, 135523
-9405.79, 228988, -130.425, 1.30432, -797.679, 0.142642, 0.345567, 0.993198, 0.349787, 0.651995, 0.0001, 91, 246, 26.9216, 0.12282, 0, 0, 1, 0, -4.54356e-06, 135523
-11430.2, 156869, -107.692, 3.06776, -967.228, -0.0449659, 0.240769, 1.03299, 0.34851, 0.655882, 0.0001, 45.5, 246, 30.8107, 0.112971, 0, 0, 0, 0, -3.46332e-06, 135535
-11430.2, 156869, -107.692, 3.06776, -967.228, -0.0449659, 0.240769, 1.03299, 0.34851, 0.655882, 3, 45.5, 246, 30.8107, 0.112971, 0, 0, 0, 0, -3.14273e-06, 135535
-11619.7, 217459, -52.6353, 1.31836, -606.629, 0.455686, 0.324806, 1.03299, 0.34851, 0.655882, 0.0001, 45.5, 246, 16.4819, 0.0556935, 0, 0, 1, 0, 2.68331e-05, 135537
-11619.7, 217459, -52.6353, 1.31836, -606.629, 0.455686, 0.324806, 1.03299, 0.34851, 0.655882, 3, 45.5, 246, 16.4819, 0.0556935, 0, 0, 1, 0, -2.61706e-05, 135537
-10534.8, 229859, -63.1024, 1.42117, -656.298, 0.499917, 0.295873, 0.993198, 0.349787, 0.651995, 0.0001, 91, 246, 16.4819, 0.0556935, 0, 0, 1, 0, 1.18265e-05, 135537
-10581.2, 385766, -293.029, 0.627568, -684.34, 0.307978, 0.542307, 1.03299, 0.34851, 0.655882, 0.0001, 45.5, 246, 35.3885, 0.18876, 0, 0, 0, 0, 4.1528e-06, 135540
-10581.2, 385766, -293.029, 0.627568, -684.34, 0.307978, 0.542307, 1.03299, 0.34851, 0.655882, 3, 45.5, 246, 35.3885, 0.18876, 0, 0, 0, 0, -4.15084e-05, 135540
-11451.8, 128560, -4.87977, 2.31284, -1111.98, 0.267081, 0.264281, 1.03299, 0.34851, 0.655882, 0.0001, 45.5, 246, 17.9821, 0.0418911, 0, 0, 1, 0, -1.20608e-05, 135542
-11451.8, 128560, -4.87977, 2.31284, -1111.98, 0.267081, 0.264281, 1.03299, 0.34851, 0.655882, 3, 45.5, 246, 17.9821, 0.0418911, 0, 0, 1, 0, -4.62981e-06, 135542
-5203.72, 224004, -112.079, 3.08931, -1343.3, 0.43381, 0.256305, 0.9175, 0.352806, 0.64323, 3, 455, 246, 17.9821, 0.0418911, 0, 0, 0, 0, 2.02829e-06, 135542
-9300.51, 447837, -127.518, 0.418136, -696.687, 0.46261, 0.336191, 0.993198, 0.349787, 0.651995, 0.0001, 91, 246, 20.476, 0.0679816, 0, 0, 1, 0, -5.82351e-05, 135545
-10904.5, 409081, -316.707, 0.807538, -836.159, 0.0439466, 0.570261, 1.03299, 0.34851, 0.655882, 0.0001, 45.5, 246, 39.4898, 0.199782, 0, 0, 0, 0, 5.85563e-06, 135549
-10904.5, 409081, -316.707, 0.807538, -836.159, 0.0439466, 0.570261, 1.03299, 0.34851, 0.655882, 3, 45.5, 246, 39.4898, 0.199782, 0, 0, 0, 0, -2.01045e-05, 135549
-6612.18, -65205.3, 24.1784, 3.10116, -1099.26, 0.508389, 0.244999, 1.03299, 0.34851, 0.655882, 0.0001, 45.5, 246, 8.10193, 0.0782541, 1.10728, 1, 1, 0, -1.69458e-05, 135550
-11548.9, 279145, -256.326, 1.83751, -961.716, 0.172468, 0.484425, 1.03299, 0.34851, 0.655882, 0.0001, 45.5, 246, 42.4564, 0.204856, 0, 0, 0, 0, 7.71621e-06, 135555
-11548.9, 279145, -256.326, 1.83751, -961.716, 0.172468, 0.484425, 1.03299, 0.34851, 0.655882, 3, 45.5, 246, 42.4564, 0.204856, 0, 0, 0, 0, 4.6414e-06, 135555
-9643.23, 602751, -279.825, 0.297766, -693.5, 0.0327495, 0.466003, 1.03299, 0.34851, 0.655882, 0.0001, 45.5, 246, 28.8126, 0.120498, 0, 0, 0, 0, -3.46567e-05, 135563
-9643.23, 602751, -279.825, 0.297766, -693.5, 0.0327495, 0.466003, 1.03299, 0.34851, 0.655882, 3, 45.5, 246, 28.8126, 0.120498, 0, 0, 0, 0, 1.48473e-05, 135563
-9773.5, 93977.8, -61.4786, 3.26105, -1013.1, -0.0499866, 0.205684, 1.03299, 0.34851, 0.655882, 0.0001, 45.5, 246, 26.6527, 0.0894062, 0, 0, 0, 0, -9.31165e-06, 135564
-9773.5, 93977.8, -61.4786, 3.26105, -1013.1, -0.0499866, 0.205684, 1.03299, 0.34851, 0.655882, 3, 45.5, 246, 26.6527, 0.0894062, 0, 0, 0, 0, 6.67465e-06, 135564
-8397.12, 111454, -98.2875, 3.53807, -1016.18, 0.000800139, 0.212757, 0.993198, 0.349787, 0.651995, 0.0001, 91, 246, 26.6527, 0.0894062, 0, 0, 1, 0, 2.60189e-07, 135564
-8397.12, 111454, -98.2875, 3.53807, -1016.18, 0.000800139, 0.212757, 0.993198, 0.349787, 0.651995, 3, 91, 246, 26.6527, 0.0894062, 0, 0, 1, 0, -1.8604e-06, 135564
-10501.9, 212912, -217.287, 1.99415, -926.943, 0.819686, 0.424393, 1.03299, 0.34851, 0.655882, 0.0001, 45.5, 246, 40.57, 0.190685, 0, 0, 0, 0, 2.08391e-05, 135568
-10501.9, 212912, -217.287, 1.99415, -926.943, 0.819686, 0.424393, 1.03299, 0.34851, 0.655882, 3, 45.5, 246, 40.57, 0.190685, 0, 0, 0, 0, 8.56583e-06, 135568
-6510.5, -30460.5, 3.85392, 3.4629, -1034.17, 0.11383, 0.197117, 1.03299, 0.34851, 0.655882, 0.0001, 45.5, 246, 16.0831, 0.0494965, 0, 0, 1, 0, -4.89649e-07, 135577
-6510.5, -30460.5, 3.85392, 3.4629, -1034.17, 0.11383, 0.197117, 1.03299, 0.34851, 0.655882, 3, 45.5, 246, 16.0831, 0.0494965, 0, 0, 1, 0, -5.89935e-06, 135577
-7000.59, -11851.7, -30.5839, 3.80558, -1059.11, 0.17498, 0.211087, 0.993198, 0.349787, 0.651995, 3, 91, 246, 16.0831, 0.0494965, 0, 0, 1, 1, -3.61865e-06, 135577
-8173.14, -2127.93, 12.3973, 2.59324, -1151.05, -0.00467283, 0.264733, 1.03299, 0.34851, 0.655882, 0.0001, 45.5, 246, 12.2521, 0.057525, 0, 0, 1, 0, -6.69228e-06, 135593
-8173.14, -2127.93, 12.3973, 2.59324, -1151.05, -0.00467283, 0.264733, 1.03299, 0.34851, 0.655882, 3, 45.5, 246, 12.2521, 0.057525, 0, 0, 1, 0, -6.90319e-06, 135593
-6868.78, 47257.1, -131.594, 3.81737, -1102.42, 0.349882, 0.302006, 0.9175, 0.352806, 0.64323, 3, 455, 246, 21.0519, 0.0440349, 0, 0, 1, 1, 1.7325e-05, 135594
-11138.1, 195385, -133.431, 2.24338, -1123.83, 0.25935, 0.335627, 1.03299, 0.34851, 0.655882, 0.0001, 45.5, 246, 34.3028, 0.135936, 0, 0, 0, 0, -1.10764e-05, 135595
-9028.81, 143407, -164.885, 2.47503, -930.504, 0.128986, 0.351918, 1.03299, 0.34851, 0.655882, 3, 45.5, 246, 40.3963, 0.185335, 0, 0, 1, 0, -1.6599e-06, 135597
-627.022, 209848, -305.456, 3.28379, -1089.05, 0.267871, 0.380224, 0.9175, 0.352806, 0.64323, 3, 455, 246, 40.3963, 0.185335, 1.06751, 1, 0, 0, -1.21719e-05, 135597
-12676.8, 318899, -8.85632, 0.986693, -733.379, 0.370931, 0.324936, 1.03299, 0.34851, 0.655882, 0.0001, 45.5, 246, 13.9643, 0.0132516, 0, 0, 1, 0, 5.13914e-05, 135611
-12676.8, 318899, -8.85632, 0.986693, -733.379, 0.370931, 0.324936, 1.03299, 0.34851, 0.655882, 3, 45.5, 246, 13.9643, 0.0132516, 0, 0, 1, 0, -3.44105e-05, 135611
-11526.6, 335347, -16.1636, 1.05193, -779.672, 0.39887, 0.29222, 0.993198, 0.349787, 0.651995, 3, 91, 246, 13.9643, 0.0132516, 0, 0, 1, 0, 4.82557e-06, 135611
-10131.9, 354077, -24.7091, 1.12161, -833.068, 0.431234, 0.264794, 0.958125, 0.351078, 0.648177, 0.0001, 182, 246, 13.9643, 0.0132516, 0, 0, 1, 0, 1.15921e-05, 135611
-10808.9, 250069, -268.492, 2.38826, -1140.73, -0.00246846, 0.479305, 1.03299, 0.34851, 0.655882, 0.0001, 45.5, 246, 48.2008, 0.22591, 0, 0, 0, 0, 1.16643e-05, 135613
-10808.9, 250069, -268.492, 2.38826, -1140.73, -0.00246846, 0.479305, 1.03299, 0.34851, 0.655882, 3, 45.5, 246, 48.2008, 0.22591, 0, 0, 0, 0, 1.69954e-05, 135613
-11274.6, 384245, -78.4801, 0.643887, -638.383, 0.353345, 0.349285, 1.03299, 0.34851, 0.655882, 0.0001, 45.5, 246, 17.7987, 0.050516, 0, 0, 1, 0, 5.89342e-05, 135621
-11274.6, 384245, -78.4801, 0.643887, -638.383, 0.353345, 0.349285, 1.03299, 0.34851, 0.655882, 3, 45.5, 246, 17.7987, 0.050516, 0, 0, 1, 0, 1.18886, 135621
-10363.5, 399355, -85.4305, 0.68189, -677.712, 0.376284, 0.315595, 0.993198, 0.349787, 0.651995, 0.0001, 91, 246, 17.7987, 0.050516, 0, 0, 1, 0, -7.72342e-06, 135621
-4663.63, 79320.2, -178.369, 3.58208, -799.021, 0.153821, 0.294359, 0.9175, 0.352806, 0.64323, 3, 455, 246, 31.4103, 0.103241, 0, 0, 1, 0, 8.2412e-06, 135622
-10597.6, 457081, -239.596, 0.759875, -968.643, -0.00263648, 0.456786, 1.03299, 0.34851, 0.655882, 0.0001, 45.5, 246, 34.2814, 0.135391, 0, 0, 0, 0, -2.43265e-05, 135623
-10597.6, 457081, -239.596, 0.759875, -968.643, -0.00263648, 0.456786, 1.03299, 0.34851, 0.655882, 3, 45.5, 246, 34.2814, 0.135391, 0, 0, 0, 0, 3.06533e-05, 135623
-9248.2, 493950, -263.311, 0.52271, -1002.72, 0.481817, 0.465127, 1.03299, 0.34851, 0.655882, 0.0001, 45.5, 246, 34.7635, 0.128184, 0, 0, 0, 0, 4.15235e-05, 135625
-9248.2, 493950, -263.311, 0.52271, -1002.72, 0.481817, 0.465127, 1.03299, 0.34851, 0.655882, 3, 45.5, 246, 34.7635, 0.128184, 0, 0, 0, 0, 2.58569e-05, 135625
-11136.2, 139108, -45.0815, 2.31692, -1093.09, 0.359897, 0.276508, 1.03299, 0.34851, 0.655882, 0.0001, 45.5, 246, 23.5632, 0.0738459, 0, 0, 1, 0, 9.32751e-06, 135630
-10567.7, 172962, -105.374, 1.99772, -1095.91, 0.0400081, 0.336242, 1.03299, 0.34851, 0.655882, 0.0001, 45.5, 246, 31.1598, 0.125951, 0, 0, 1, 0, 5.02732e-06, 135631
-10567.7, 172962, -105.374, 1.99772, -1095.91, 0.0400081, 0.336242, 1.03299, 0.34851, 0.655882, 3, 45.5, 246, 31.1598, 0.125951, 0, 0, 1, 0, 1.29797e-05, 135631
-9037.14, 194695, -132.801, 2.13233, -1110.98, 0.0591058, 0.318963, 0.993198, 0.349787, 0.651995, 3, 91, 246, 31.1598, 0.125951, 0, 0, 1, 0, -2.28735e-06, 135631
-11421.4, 346878, -79.4149, 0.927276, -1106.15, 0.0901334, 0.347549, 1.03299, 0.34851, 0.655882, 0.0001, 45.5, 246, 25.4864, 0.0602397, 0, 0, 1, 0, -1.23335e-05, 135634
-11421.4, 346878, -79.4149, 0.927276, -1106.15, 0.0901334, 0.347549, 1.03299, 0.34851, 0.655882, 3, 45.5, 246, 25.4864, 0.0602397, 0, 0, 1, 0, 1.01623e-06, 135634
-10147.4, 370419, -92.4202, 0.972921, -1124.65, 0.0954558, 0.315838, 0.993198, 0.349787, 0.651995, 3, 91, 246, 25.4864, 0.0602397, 0, 0, 1, 0, -6.5559e-06, 135634
-6316.9, 672371, -130.288, 2.66442, -994.005, 0.0625832, 0.232463, 0.9175, 0.352806, 0.64323, 3, 455, 246, 23.0911, 0.026856, 0, 0, 0, 0, 7.48714e-06, 135638
-11143.5, 130897, -45.5599, 2.67519, -1117.98, 0.0167591, 0.252751, 1.03299, 0.34851, 0.655882, 0.0001, 45.5, 246, 24.228, 0.0774022, 0, 0, 1, 0, -1.73556e-05, 135641
-11143.5, 130897, -45.5599, 2.67519, -1117.98, 0.0167591, 0.252751, 1.03299, 0.34851, 0.655882, 3, 45.5, 246, 24.228, 0.0774022, 0, 0, 1, 0, 1.39282e-05, 135641
-8610.95, 243614, -180.528, 1.14524, -934.404, 0.279383, 0.404922, 0.993198, 0.349787, 0.651995, 0.0001, 91, 246, 33.9678, 0.170302, 0, 0, 1, 0, -1.59061e-05, 135646
-6990.69, -14107, 2.22245, 3.42109, -940.335, -0.0546997, 0.194674, 1.03299, 0.34851, 0.655882, 3, 45.5, 246, 14.8758, 0.0488153, 0, 0, 1, 1, 1.14131e-05, 135653
482.088, 239144, -325.438, 4.71281, -886.895, 0.184032, 0.33892, 0.9175, 0.352806, 0.64323, 0.0001, 455, 246, 32.6924, 0.125254, 1.03751, 1, 0, 0, -2.53807e-06, 135660
482.088, 239144, -325.438, 4.71281, -886.895, 0.184032, 0.33892, 0.9175, 0.352806, 0.64323, 3, 455, 246, 32.6924, 0.125254, 1.12385, 1, 0, 0, -3.60353e-06, 135660
-9776.97, 101004, -68.7634, 2.79259, -918.814, -0.0366282, 0.253125, 1.03299, 0.34851, 0.655882, 0.0001, 45.5, 246, 26.5341, 0.0974746, 0, 0, 1, 0, 1.04205e-06, 135661
-9776.97, 101004, -68.7634, 2.79259, -918.814, -0.0366282, 0.253125, 1.03299, 0.34851, 0.655882, 3, 45.5, 246, 26.5341, 0.0974746, 0, 0, 1, 0, 3.3307e-06, 135661
-8562.53, 115416, -98.4357, 3.00782, -922.481, 0.00032549, 0.248943, 0.993198, 0.349787, 0.651995, 0.0001, 91, 246, 26.5341, 0.0974746, 0, 0, 1, 0, -4.66476e-06, 135661
-10321.1, 195936, -27.4992, 1.53486, -973.431, 0.177028, 0.284747, 0.993198, 0.349787, 0.651995, 0.0001, 91, 246, 16.3554, 0.0336117, 0, 0, 1, 0, -5.03668e-06, 135662
-6930.26, 237306, -62.5312, 1.95581, -1254.99, 0.724153, 0.243248, 0.9175, 0.352806, 0.64323, 0.0001, 455, 246, 14.5644, 0.0265138, 0, 0, 1, 0, -1.15389e-06, 135667
-6930.26, 237306, -62.5312, 1.95581, -1254.99, 0.724153, 0.243248, 0.9175, 0.352806, 0.64323, 3, 455, 246, 14.5644, 0.0265138, 0, 0, 1, 0, 4.52485e-05, 135667
-9775.08, 202448, -213.161, 1.71328, -880.09, 0.0566021, 0.470776, 1.03299, 0.34851, 0.655882, 3, 45.5, 246, 42.6555, 0.227124, 0, 0, 0, 0, -2.16337e-05, 135669
-12799.7, 123725, 16.943, 3.50014, -1051.56, -0.00482827, 0.144804, 1.03299, 0.34851, 0.655882, 0.0001, 45.5, 246, 15.8113, 0.0309357, 0, 0, 0, 0, 2.36222e-06, 135671
-12799.7, 123725, 16.943, 3.50014, -1051.56, -0.00482827, 0.144804, 1.03299, 0.34851, 0.655882, 3, 45.5, 246, 15.8113, 0.0309357, 0, 0, 0, 0, 1.10501e-05, 135671
-6087.46, -25822.1, -17.3941, 3.58287, -951.031, 0.184229, 0.184389, 1.03299, 0.34851, 0.655882, 0.0001, 45.5, 246, 22.2352, 0.0253699, 0, 0, 1, 1, 4.89692e-06, 135672
-6087.46, -25822.1, -17.3941, 3.58287, -951.031, 0.184229, 0.184389, 1.03299, 0.34851, 0.655882, 3, 45.5, 246, 22.2352, 0.0253699, 0, 0, 1, 1, -7.84019e-06, 135672
-10520.5, 165993, -145.835, 2.73453, -1005.79, -0.0308871, 0.307317, 1.03299, 0.34851, 0.655882, 0.0001, 45.5, 246, 36.328, 0.150508, 0, 0, 0, 0, 1.72342e-05, 135677
-10520.5, 165993, -145.835, 2.73453, -1005.79, -0.0308871, 0.307317, 1.03299, 0.34851, 0.655882, 3, 45.5, 246, 36.328, 0.150508, 0, 0, 0, 0, -1.6541e-05, 135677
-6433.01, 104672, -203.265, 2.48194, -608.459, 0.676931, 0.356287, 1.03299, 0.34851, 0.655882, 0.0001, 45.5, 246, 47.6343, 0.213408, 1.17876, 1, 1, 0, -8.68114e-06, 135678
-4894.55, 116979, -234.258, 2.77517, -699.025, 0.791947, 0.352422, 0.993198, 0.349787, 0.651995, 0.0001, 91, 246, 47.6343, 0.213408, 1.10553, 1, 1, 0, 4.20176e-06, 135678
-2811.53, 133707, -273.417, 3.13743, -822.626, 0.949045, 0.363142, 0.958125, 0.351078, 0.648177, 0.0001, 182, 246, 47.6343, 0.213408, 1.36596, 1, 1, 0, -4.90079e-05, 135678
-2811.53, 133707, -273.417, 3.13743, -822.626, 0.949045, 0.363142, 0.958125, 0.351078, 0.648177, 3, 182, 246, 47.6343, 0.213408, 1.19359, 1, 1, 0, -7.91273e-05, 135678
1121.32, 294965, -372.13, 4.89668, -751.85, 0.197569, 0.361357, 0.9175, 0.352806, 0.64323, 3, 455, 246, 31.9888, 0.13069, 1.17028, 1, 0, 0, -9.40514e-05, 135680
1483.56, 225263, -345.127, 4.93082, -979.422, 0.200579, 0.349876, 0.9175, 0.352806, 0.64323, 0.0001, 455, 246, 35.0417, 0.131553, 2.39682, 1, 0, 0, 2.1128e-05, 135683
1483.56, 225263, -345.127, 4.93082, -979.422, 0.200579, 0.349876, 0.9175, 0.352806, 0.64323, 3, 455, 246, 35.0417, 0.131553, 2.50185, 1, 0, 0, 2.93697e-06, 135683
-12140.6, 350624, 6.2518, 0.753208, -1053.79, 0.0795596, 0.331272, 1.03299, 0.34851, 0.655882, 0.0001, 45.5, 246, 17.7105, 0.00390112, 0, 0, 1, 0, 3.09765e-05, 135685
-12140.6, 350624, 6.2518, 0.753208, -1053.79, 0.0795596, 0.331272, 1.03299, 0.34851, 0.655882, 3, 45.5, 246, 17.7105, 0.00390112, 0, 0, 1, 0, 6.4379e-07, 135685
-11224.2, 371761, -0.806786, 0.786955, -1067.37, 0.0832092, 0.296983, 0.993198, 0.349787, 0.651995, 0.0001, 91, 246, 17.7105, 0.00390112, 0, 0, 1, 0, 4.6882e-06, 135685
-3440.1, 65294.9, -193.684, 3.1622, -692.969, 0.368299, 0.254065, 1.03299, 0.34851, 0.655882, 0.0001, 45.5, 246, 54.1459, 0.170373, 1.47967, 1, 1, 0, -6.39214e-06, 135691
-3440.1, 65294.9, -193.684, 3.1622, -692.969, 0.368299, 0.254065, 1.03299, 0.34851, 0.655882, 3, 45.5, 246, 54.1459, 0.170373, 1.34413, 1, 1, 0, -7.65969e-06, 135691
-2075.76, 76643.5, -232.511, 3.50975, -757.905, 0.442895, 0.262147, 0.993198, 0.349787, 0.651995, 0.0001, 91, 246, 54.1459, 0.170373, 1.56796, 1, 1, 0, 1.30226e-05, 135691
-2075.76, 76643.5, -232.511, 3.50975, -757.905, 0.442895, 0.262147, 0.993198, 0.349787, 0.651995, 3, 91, 246, 54.1459, 0.170373, 1.4393, 1, 1, 0, -1.58862e-06, 135691
-161.939, 91108.6, -281.228, 3.93409, -844.95, 0.541554, 0.28991, 0.958125, 0.351078, 0.648177, 0.0001, 182, 246, 54.1459, 0.170373, 1.94715, 1, 1, 0, 4.46753e-06, 135691
-161.939, 91108.6, -281.228, 3.93409, -844.95, 0.541554, 0.28991, 0.958125, 0.351078, 0.648177, 3, 182, 246, 54.1459, 0.170373, 1.81659, 1, 1, 0, -1.01783e-05, 135691
-7196.61, -2734.31, -39.9008, 2.62957, -690.2, -0.0103657, 0.267589, 1.03299, 0.34851, 0.655882, 0.0001, 45.5, 246, 27.7682, 0.0119049, 0, 0, 1, 1, 4.61834e-06, 135693
-9390.46, 131004, -61.2445, 1.12327, -1022.75, 0.0905998, 0.351608, 1.03299, 0.34851, 0.655882, 0.0001, 45.5, 246, 24.3084, 0.105826, 0, 0, 1, 0, -5.52979e-06, 135695
-9390.46, 131004, -61.2445, 1.12327, -1022.75, 0.0905998, 0.351608, 1.03299, 0.34851, 0.655882, 3, 45.5, 246, 24.3084, 0.105826, 0, 0, 1, 0, 2.35344e-05, 135695
-2582.41, 376372, -487.392, 3.43753, -1156.82, 0.467802, 0.557189, 0.958125, 0.351078, 0.648177, 3, 182, 246, 49.176, 0.225426, 0, 0, 0, 0, 0.000281472, 135714
-9184.52, 76532, -43.1507, 1.85239, -926.735, 0.130073, 0.313109, 1.03299, 0.34851, 0.655882, 0.0001, 45.5, 246, 22.4363, 0.0940884, 0, 0, 1, 0, -7.40821e-06, 135715
-9184.52, 76532, -43.1507, 1.85239, -926.735, 0.130073, 0.313109, 1.03299, 0.34851, 0.655882, 3, 45.5, 246, 22.4363, 0.0940884, 0, 0, 1, 0, 3.26086e-06, 135715
-9189.44, 246015, -85.1212, 1.81953, -745.909, 0.21914, 0.26964, 0.958125, 0.351078, 0.648177, 0.0001, 182, 246, 18.3112, 0.0599243, 0, 0, 1, 0, -8.86055e-06, 135717
-8646.14, 1.00077e+06, -71.022, 0.760852, -968.276, 0.203686, 0.236382, 0.9175, 0.352806, 0.64323, 3, 455, 246, 21.9362, 0.0141885, 0, 0, 1, 0, -0.000102588, 135724
-8588.94, 68673.5, -66.5735, 2.05666, -834.848, -0.0198461, 0.31332, 1.03299, 0.34851, 0.655882, 3, 45.5, 246, 28.1194, 0.124037, 0, 0, 1, 0, 4.34548e-06, 135725
-3467.9, 343167, -427.669, 4.01389, -1078.14, 0.0854302, 0.42477, 0.958125, 0.351078, 0.648177, 0.0001, 182, 246, 45.5986, 0.19071, 2.20176, 1, 0, 0, -1.17944e-05, 135726
-3467.9, 343167, -427.669, 4.01389, -1078.14, 0.0854302, 0.42477, 0.958125, 0.351078, 0.648177, 3, 182, 246, 45.5986, 0.19071, 2.21661, 1, 0, 0, -6.13378e-06, 135726
-7787.98, 139485, -165.323, 3.65759, -924.648, 0.308301, 0.22722, 0.993198, 0.349787, 0.651995, 0.0001, 91, 246, 33.5529, 0.122312, 0, 0, 1, 0, 1.98479e-06, 135732
-7787.98, 139485, -165.323, 3.65759, -924.648, 0.308301, 0.22722, 0.993198, 0.349787, 0.651995, 3, 91, 246, 33.5529, 0.122312, 0, 0, 1, 0, -4.44971e-05, 135732
76.2491, 191793, -303.307, 4.80237, -1140.58, 0.552655, 0.337309, 0.9175, 0.352806, 0.64323, 0.0001, 455, 246, 33.5529, 0.122312, 1.52626, 1, 0, 0, -1.46537e-05, 135732
76.2491, 191793, -303.307, 4.80237, -1140.58, 0.552655, 0.337309, 0.9175, 0.352806, 0.64323, 3, 455, 246, 33.5529, 0.122312, 1.55137, 1, 0, 0, 1.15208e-05, 135732
-9869.26, 168076, -199.524, 2.91379, -834.782, 0.0824208, 0.326172, 1.03299, 0.34851, 0.655882, 0.0001, 45.5, 246, 41.4126, 0.181835, 0, 0, 0, 0, 6.95904e-06, 135737
-10273.3, 634976, -94.6832, 0.33681, -918.998, 0.116269, 0.35275, 1.03299, 0.34851, 0.655882, 0.0001, 45.5, 246, 23.5498, 0.0381543, 0, 0, 1, 0, 7.46883e-06, 135738
-10273.3, 634976, -94.6832, 0.33681, -918.998, 0.116269, 0.35275, 1.03299, 0.34851, 0.655882, 3, 45.5, 246, 23.5498, 0.0381543, 0, 0, 1, 0, -9.01811e-06, 135738
-9480.63, 654198, -100.666, 0.350138, -937.129, 0.118973, 0.317854, 0.993198, 0.349787, 0.651995, 0.0001, 91, 246, 23.5498, 0.0381543, 0, 0, 1, 0, 1.47542e-05, 135738
-8562.02, 674273, -106.752, 0.36314, -956.11, 0.121822, 0.287313, 0.958125, 0.351078, 0.648177, 0.0001, 182, 246, 23.5498, 0.0381543, 0, 0, 1, 0, 8.32345e-07, 135738
-10200.8, 512674, -235.171, 0.682929, -1087.84, 0.136184, 0.43912, 1.03299, 0.34851, 0.655882, 0.0001, 45.5, 246, 34.747, 0.116047, 0, 0, 0, 0, 7.18015e-06, 135748
-7311.2, 436043, -522.185, 3.84465, -795.568, 0.832614, 0.515834, 0.958125, 0.351078, 0.648177, 0.0001, 182, 246, 40.3202, 0.193459, 1.45849, 1, 0, 0, -5.27187e-05, 135750
-7311.2, 436043, -522.185, 3.84465, -795.568, 0.832614, 0.515834, 0.958125, 0.351078, 0.648177, 3, 182, 246, 40.3202, 0.193459, 1.64197, 1, 0, 0, 0.000101467, 135750
-10482, 256300, -166.26, 1.01538, -672.843, 0.131074, 0.421406, 1.03299, 0.34851, 0.655882, 0.0001, 45.5, 246, 29.922, 0.155046, 0, 0, 1, 0, -9.99666e-06, 135758
-10482, 256300, -166.26, 1.01538, -672.843, 0.131074, 0.421406, 1.03299, 0.34851, 0.655882, 3, 45.5, 246, 29.922, 0.155046, 0, 0, 1, 0, 2.14763e-05, 135758
-12500, 380642, -455.247, 3.89444, -1017.88, 0.98231, 0.423599, 0.993198, 0.349787, 0.651995, 0.0001, 91, 246, 45.8148, 0.193217, 1.04727, 1, 1, 0, 2.63387e-05, 135760
-7414.84, -21799.3, 13.0115, 2.95626, -1040.5, 0.131397, 0.239885, 1.03299, 0.34851, 0.655882, 0.0001, 45.5, 246, 11.7557, 0.0570706, 0, 0, 1, 0, 1.07362e-05, 135765
-7414.84, -21799.3, 13.0115, 2.95626, -1040.5, 0.131397, 0.239885, 1.03299, 0.34851, 0.655882, 3, 45.5, 246, 11.7557, 0.0570706, 0, 0, 1, 0, 8.45086e-06, 135765
-7763.51, -2859.19, -15.5797, 3.22277, -1066.11, 0.176979, 0.239966, 0.993198, 0.349787, 0.651995, 3, 91, 246, 11.7557, 0.0570706, 0, 0, 1, 1, 9.88251e-06, 135765
-9178.98, 312983, -277.444, 0.366129, -699.559, 0.441061, 0.574056, 1.03299, 0.34851, 0.655882, 0.0001, 45.5, 246, 38.2257, 0.225246, 0, 0, 0, 0, -3.7381e-05, 135769
-6851.74, 131959, -223.799, 2.66736, -844.224, -0.0324468, 0.400938, 1.03299, 0.34851, 0.655882, 0.0001, 45.5, 246, 51.7569, 0.249386, 1.06364, 1, 1, 0, 1.54055e-05, 135781
-6851.74, 131959, -223.799, 2.66736, -844.224, -0.0324468, 0.400938, 1.03299, 0.34851, 0.655882, 3, 45.5, 246, 51.7569, 0.249386, 0, 0, 1, 0, 2.08416e-06, 135781
-4812.78, 145323, -263.225, 2.87839, -859.836, 0.00132169, 0.40417, 0.993198, 0.349787, 0.651995, 0.0001, 91, 246, 51.7569, 0.249386, 1.10669, 1, 1, 0, -5.60122e-06, 135781
-2183.67, 160078, -308.809, 3.11939, -885.223, 0.04083, 0.420019, 0.958125, 0.351078, 0.648177, 0.0001, 182, 246, 51.7569, 0.249386, 1.55916, 1, 1, 0, -1.13297e-05, 135781
-2183.67, 160078, -308.809, 3.11939, -885.223, 0.04083, 0.420019, 0.958125, 0.351078, 0.648177, 3, 182, 246, 51.7569, 0.249386, 1.37666, 1, 1, 0, -3.51734e-06, 135781
5454.55, 363596, -510.083, 3.9126, -1063.5, 0.331182, 0.530084, 0.9175, 0.352806, 0.64323, 0.0001, 455, 246, 44.3519, 0.203915, 0, 0, 0, 0, 1.16668e-05, 135782
5454.55, 363596, -510.083, 3.9126, -1063.5, 0.331182, 0.530084, 0.9175, 0.352806, 0.64323, 3, 455, 246, 44.3519, 0.203915, 0, 0, 0, 0, 1.95663e-05, 135782
-10686.3, 220807, -175.487, 1.78836, -972.594, 0.17097, 0.404629, 1.03299, 0.34851, 0.655882, 0.0001, 45.5, 246, 36.7743, 0.170355, 0, 0, 0, 0, -1.15664e-05, 135783
-10686.3, 220807, -175.487, 1.78836, -972.594, 0.17097, 0.404629, 1.03299, 0.34851, 0.655882, 3, 45.5, 246, 36.7743, 0.170355, 0, 0, 0, 0, -6.70054e-06, 135783
-11022.7, 255945, -278.914, 1.61807, -785.385, 0.750311, 0.521602, 1.03299, 0.34851, 0.655882, 0.0001, 45.5, 246, 42.5771, 0.222723, 0, 0, 0, 0, 2.07807e-06, 135791
-11022.7, 255945, -278.914, 1.61807, -785.385, 0.750311, 0.521602, 1.03299, 0.34851, 0.655882, 3, 45.5, 246, 42.5771, 0.222723, 0, 0, 0, 0, 1.66961e-06, 135791
-5456.22, 358984, -444.796, 4.33218, -919.51, 0.600709, 0.405831, 0.958125, 0.351078, 0.648177, 0.0001, 182, 246, 40.9478, 0.177008, 1.73933, 1, 0, 0, -6.02753e-05, 135798
-5456.22, 358984, -444.796, 4.33218, -919.51, 0.600709, 0.405831, 0.958125, 0.351078, 0.648177, 3, 182, 246, 40.9478, 0.177008, 1.64155, 1, 0, 0, -2.1342e-06, 135798
-7346.49, 1.01943e+06, -116.785, 0.530087, -1122.04, 0.755008, 0.24572, 0.9175, 0.352806, 0.64323, 0.0001, 455, 246, 21.6644, 0.0257951, 0, 0, 0, 0, -3.65177e-05, 135799
-5501.01, 62525.8, -152.816, 2.95842, -645.531, 0.383066, 0.257925, 1.03299, 0.34851, 0.655882, 0.0001, 45.5, 246, 44.9735, 0.147326, 1.12256, 1, 1, 0, 1.74826e-05, 135800
-4456.52, 72193.2, -184.541, 3.27321, -703.709, 0.453081, 0.259857, 0.993198, 0.349787, 0.651995, 0.0001, 91, 246, 44.9735, 0.147326, 1.07487, 1, 1, 0, 2.03884e-05, 135800
-2992.67, 84370.5, -224.068, 3.65312, -780.465, 0.544681, 0.27912, 0.958125, 0.351078, 0.648177, 0.0001, 182, 246, 44.9735, 0.147326, 1.22719, 1, 1, 0, -1.93449e-05, 135800
-2992.67, 84370.5, -224.068, 3.65312, -780.465, 0.544681, 0.27912, 0.958125, 0.351078, 0.648177, 3, 182, 246, 44.9735, 0.147326, 1.07685, 1, 1, 0, -1.9314e-05, 135800
-83.1637, 106662, -294.424, 4.30729, -927.301, 0.718143, 0.337224, 0.9175, 0.352806, 0.64323, 0.0001, 455, 246, 44.9735, 0.147326, 1.93384, 1, 1, 0, 5.4917e-06, 135800
-83.1637, 106662, -294.424, 4.30729, -927.301, 0.718143, 0.337224, 0.9175, 0.352806, 0.64323, 3, 455, 246, 44.9735, 0.147326, 1.86783, 1, 1, 0, -1.12214e-05, 135800
-11095.9, 646701, -30.5515, 0.626017, -602.733, 0.00492885, 0.269678, 0.958125, 0.351078, 0.648177, 3, 182, 246, 13.9002, 0.0107986, 0, 0, 1, 0, -1.21129e-05, 135802
-6700.6, 454933, -543.803, 3.83697, -841.963, 0.0622531, 0.557911, 0.958125, 0.351078, 0.648177, 3, 182, 246, 44.9104, 0.206052, 0, 0, 0, 0, -3.65841e-06, 135804
-11123.7, 224522, -224.99, 1.83837, -623.206, -0.0158591, 0.452809, 1.03299, 0.34851, 0.655882, 0.0001, 45.5, 246, 38.5691, 0.208177, 0, 0, 1, 0, 1.7126e-06, 135805
-11123.7, 224522, -224.99, 1.83837, -623.206, -0.0158591, 0.452809, 1.03299, 0.34851, 0.655882, 3, 45.5, 246, 38.5691, 0.208177, 0, 0, 1, 0, -2.97004e-05, 135805
-11485.5, 191086, -73.7258, 1.93107, -1096.15, 0.0591033, 0.314451, 1.03299, 0.34851, 0.655882, 0.0001, 45.5, 246, 26.428, 0.0894898, 0, 0, 1, 0, 1.24259e-05, 135808
-11485.5, 191086, -73.7258, 1.93107, -1096.15, 0.0591033, 0.314451, 1.03299, 0.34851, 0.655882, 3, 45.5, 246, 26.428, 0.0894898, 0, 0, 1, 0, 4.73879e-06, 135808
-9928.68, 212962, -98.2669, 2.05944, -1112.53, 0.0773044, 0.294337, 0.993198, 0.349787, 0.651995, 3, 91, 246, 26.428, 0.0894898, 0, 0, 1, 0, -9.87974e-06, 135808
-7932.06, 236026, -126.054, 2.19874, -1134.35, 0.0984077, 0.282194, 0.958125, 0.351078, 0.648177, 3, 182, 246, 26.428, 0.0894898, 0, 0, 1, 0, -4.88665e-06, 135808
-9051.79, 156410, -26.8161, 0.397537, -1061.56, 0.0195266, 0.346882, 1.03299, 0.34851, 0.655882, 0.0001, 45.5, 246, 17.2055, 0.0447934, 0, 0, 1, 0, 7.02888e-06, 135812
-9051.79, 156410, -26.8161, 0.397537, -1061.56, 0.0195266, 0.346882, 1.03299, 0.34851, 0.655882, 3, 45.5, 246, 17.2055, 0.0447934, 0, 0, 1, 0, -2.58517e-05, 135812
-6095.36, 736326, -479.886, 0.0506817, -1024.99, 0.398247, 0.6221, 1.03299, 0.34851, 0.655882, 0.0001, 45.5, 246, 41.1977, 0.159469, 5.82067, 1, 0, 0, 2.79328e-05, 135819
-6095.36, 736326, -479.886, 0.0506817, -1024.99, 0.398247, 0.6221, 1.03299, 0.34851, 0.655882, 3, 45.5, 246, 41.1977, 0.159469, 5.79348, 1, 0, 0, -4.78214e-05, 135819
-10108.8, 176852, -186.593, 3.01959, -1129.42, 0.0581617, 0.318422, 1.03299, 0.34851, 0.655882, 0.0001, 45.5, 246, 42.3883, 0.175627, 0, 0, 0, 0, 2.85767e-06, 135826
-10108.8, 176852, -186.593, 3.01959, -1129.42, 0.0581617, 0.318422, 1.03299, 0.34851, 0.655882, 3, 45.5, 246, 42.3883, 0.175627, 0, 0, 0, 0, 7.38685e-06, 135826
-5833.28, 855631, -347.925, 0.166131, -1159.15, 0.114361, 0.472951, 1.03299, 0.34851, 0.655882, 0.0001, 45.5, 246, 37.9893, 0.102143, 0, 0, 0, 0, 337.93, 135830
-5833.28, 855631, -347.925, 0.166131, -1159.15, 0.114361, 0.472951, 1.03299, 0.34851, 0.655882, 3, 45.5, 246, 37.9893, 0.102143, 0, 0, 0, 0, 339.658, 135830
-11264.2, 221136, -15.7698, 1.15406, -1165.06, -0.00346672, 0.324545, 1.03299, 0.34851, 0.655882, 0.0001, 45.5, 246, 19.3101, 0.0313087, 0, 0, 1, 0, 7.88086e-06, 135831
-11264.2, 221136, -15.7698, 1.15406, -1165.06, -0.00346672, 0.324545, 1.03299, 0.34851, 0.655882, 3, 45.5, 246, 19.3101, 0.0313087, 0, 0, 1, 0, 4.84134e-06, 135831
-10331.4, 244755, -28.891, 1.20912, -1165.67, 0.00266258, 0.293425, 0.993198, 0.349787, 0.651995, 0.0001, 91, 246, 19.3101, 0.0313087, 0, 0, 1, 0, 1.22157e-05, 135831
-9601.41, 85235.1, -30.3325, 1.73275, -735.972, 0.627214, 0.306948, 1.03299, 0.34851, 0.655882, 3, 45.5, 246, 17.2069, 0.064716, 0, 0, 1, 0, -2.55686e-05, 135835
-9096.51, 98783.4, -44.8502, 1.9008, -819.792, 0.712294, 0.283211, 0.993198, 0.349787, 0.651995, 0.0001, 91, 246, 17.2069, 0.064716, 0, 0, 1, 0, -2.14131e-05, 135835
-9096.51, 98783.4, -44.8502, 1.9008, -819.792, 0.712294, 0.283211, 0.993198, 0.349787, 0.651995, 3, 91, 246, 17.2069, 0.064716, 0, 0, 1, 0, -3.06019e-05, 135835
-5280.72, 379265, -438.807, 4.4179, -1017.01, 0.0795718, 0.389844, 0.958125, 0.351078, 0.648177, 0.0001, 182, 246, 43.0346, 0.172578, 1.80008, 1, 0, 0, -7.80232e-06, 135836
-5280.72, 379265, -438.807, 4.4179, -1017.01, 0.0795718, 0.389844, 0.958125, 0.351078, 0.648177, 3, 182, 246, 43.0346, 0.172578, 1.92194, 1, 0, 0, -9.25375e-06, 135836
-3546.53, 706183, -360.83, 0.0357284, -1158.05, 0.0239466, 0.48954, 0.993198, 0.349787, 0.651995, 0.0001, 91, 246, 39.2995, 0.131827, 0, 0, 1, 0, 0.000161038, 135843
-9249.45, 796965, -34.9526, 1.33574, -874.367, 0.0216759, 0.23003, 0.9175, 0.352806, 0.64323, 0.0001, 455, 246, 19.4012, 0.00493047, 0, 0, 1, 0, 2.93842e-05, 135857
-5274.66, 255663, -81.38, 3.41845, -1196.48, 0.351184, 0.245471, 0.9175, 0.352806, 0.64323, 3, 455, 246, 15.1214, 0.017104, 0, 0, 0, 0, 1.00056e-05, 135858
-10573.5, 303021, -423.595, 3.61276, -628.053, -0.000153503, 0.465554, 0.993198, 0.349787, 0.651995, 0.0001, 91, 246, 46.4752, 0.224584, 1.25774, 1, 1, 0, -1.00486e-05, 135859
-10573.5, 303021, -423.595, 3.61276, -628.053, -0.000153503, 0.465554, 0.993198, 0.349787, 0.651995, 3, 91, 246, 46.4752, 0.224584, 1.15683, 1, 1, 0, -7.93932e-06, 135859
-3832.17, 314120, -488.654, 3.98024, -676.707, 0.063165, 0.511074, 0.958125, 0.351078, 0.648177, 0.0001, 182, 246, 46.4752, 0.224584, 3.50236, 1, 0, 0, 1.26597e-05, 135859
-3832.17, 314120, -488.654, 3.98024, -676.707, 0.063165, 0.511074, 0.958125, 0.351078, 0.648177, 3, 182, 246, 46.4752, 0.224584, 3.19076, 1, 0, 0, -1.01861e-05, 135859
-10333.5, 239012, -251.609, 1.66843, -888.299, 0.113071, 0.514533, 1.03299, 0.34851, 0.655882, 0.0001, 45.5, 246, 44.356, 0.235561, 0, 0, 0, 0, -5.91936e-06, 135865
-8810.68, 257502, -144.752, 1.11826, -1108.11, 0.69267, 0.360443, 0.993198, 0.349787, 0.651995, 0.0001, 91, 246, 30.2097, 0.125908, 0, 0, 1, 0, 3.57022e-05, 135869
-13899.7, -121704, -47.597, 0.0757862, -1046.86, 0.000280577, 0.390976, 1.03299, 0.34851, 0.655882, 0.0001, 45.5, 246, -71.6518, 0.228727, 0, 0, 1, 0, 0.000166881, 135872
-13899.7, -121704, -47.597, 0.0757862, -1046.86, 0.000280577, 0.390976, 1.03299, 0.34851, 0.655882, 3, 45.5, 246, -71.6518, 0.228727, 0, 0, 1, 0, -7.27568e-05, 135872
-10227, 474975, -188.075, 0.499043, -753.399, 0.109875, 0.409121, 1.03299, 0.34851, 0.655882, 0.0001, 45.5, 246, 26.5819, 0.100906, 0, 0, 1, 0, 2.94141e-05, 135874
-10227, 474975, -188.075, 0.499043, -753.399, 0.109875, 0.409121, 1.03299, 0.34851, 0.655882, 3, 45.5, 246, 26.5819, 0.100906, 0, 0, 1, 0, 9.72319e-06, 135874
-11117.5, 283991, -294.768, 1.86623, -1027.47, 0.0309169, 0.550117, 1.03299, 0.34851, 0.655882, 0.0001, 45.5, 246, 47.5618, 0.238496, 0, 0, 0, 0, 2.08914e-05, 135881
-11117.5, 283991, -294.768, 1.86623, -1027.47, 0.0309169, 0.550117, 1.03299, 0.34851, 0.655882, 3, 45.5, 246, 47.5618, 0.238496, 0, 0, 0, 0, 1.19108e-05, 135881
-9143.27, 54147, -4.3424, 1.14156, -1197.21, 0.000275037, 0.331616, 1.03299, 0.34851, 0.655882, 0.0001, 45.5, 246, 13.5745, 0.048577, 0, 0, 1, 0, -3.24514e-05, 135882
-9143.27, 54147, -4.3424, 1.14156, -1197.21, 0.000275037, 0.331616, 1.03299, 0.34851, 0.655882, 3, 45.5, 246, 13.5745, 0.048577, 0, 0, 1, 0, 2.84408e-06, 135882
-12221.4, 312222, -106.289, 1.11502, -701.845, 0.634335, 0.351762, 1.03299, 0.34851, 0.655882, 0.0001, 45.5, 246, 21.9479, 0.0771406, 0, 0, 1, 0, 6.25237e-07, 135883
-12221.4, 312222, -106.289, 1.11502, -701.845, 0.634335, 0.351762, 1.03299, 0.34851, 0.655882, 3, 45.5, 246, 21.9479, 0.0771406, 0, 0, 1, 0, 5.43438e-05, 135883
-7878.75, 496296, -217.87, 0.339124, -892.494, 0.467181, 0.394058, 0.993198, 0.349787, 0.651995, 0.0001, 91, 246, 28.7259, 0.106962, 0, 0, 1, 0, 6.19482e-05, 135887
-3910.35, 85832.9, -216.332, 3.17006, -713.576, 0.111293, 0.289777, 1.03299, 0.34851, 0.655882, 0.0001, 45.5, 246, 55.1024, 0.20641, 1.50346, 1, 1, 0, -3.24369e-06, 135888
-3910.35, 85832.9, -216.332, 3.17006, -713.576, 0.111293, 0.289777, 1.03299, 0.34851, 0.655882, 3, 45.5, 246, 55.1024, 0.20641, 1.36475, 1, 1, 0, 8.17503e-06, 135888
-2170.19, 96669.9, -257.411, 3.47168, -749.974, 0.162575, 0.299818, 0.993198, 0.349787, 0.651995, 0.0001, 91, 246, 55.1024, 0.20641, 1.64779, 1, 1, 0, -5.97781e-06, 135888
-2170.19, 96669.9, -257.411, 3.47168, -749.974, 0.162575, 0.299818, 0.993198, 0.349787, 0.651995, 3, 91, 246, 55.1024, 0.20641, 1.52303, 1, 1, 0, 1.78268e-05, 135888
149.202, 109570, -307.012, 3.83035, -800.731, 0.226923, 0.327716, 0.958125, 0.351078, 0.648177, 0.0001, 182, 246, 55.1024, 0.20641, 2.1939, 1, 1, 1, -2.10437e-05, 135888
149.202, 109570, -307.012, 3.83035, -800.731, 0.226923, 0.327716, 0.958125, 0.351078, 0.648177, 3, 182, 246, 55.1024, 0.20641, 2.05887, 1, 1, 1, -1.27572e-05, 135888
-14747.3, 178819, -35.9233, 3.61689, -1125.18, 0.0764495, 0.135573, 1.03299, 0.34851, 0.655882, 0.0001, 45.5, 246, 24.0085, 0.0597444, 0, 0, 0, 0, -5.51062e-06, 135889
-14747.3, 178819, -35.9233, 3.61689, -1125.18, 0.0764495, 0.135573, 1.03299, 0.34851, 0.655882, 3, 45.5, 246, 24.0085, 0.0597444, 0, 0, 0, 0, -1.98658e-06, 135889
-10240.7, 133709, -136.832, 3.63633, -828.851, -0.0570063, 0.183858, 1.03299, 0.34851, 0.655882, 0.0001, 45.5, 246, 33.9652, 0.122087, 0, 0, 0, 0, 2.51673e-05, 135899
-10240.7, 133709, -136.832, 3.63633, -828.851, -0.0570063, 0.183858, 1.03299, 0.34851, 0.655882, 3, 45.5, 246, 33.9652, 0.122087, 0, 0, 0, 0, -1.6961e-05, 135899
-7902.63, 145558, -178.728, 3.97136, -841.176, 0.00654346, 0.202748, 0.993198, 0.349787, 0.651995, 0.0001, 91, 246, 33.9652, 0.122087, 0, 0, 1, 0, 9.08097e-06, 135899
-7902.63, 145558, -178.728, 3.97136, -841.176, 0.00654346, 0.202748, 0.993198, 0.349787, 0.651995, 3, 91, 246, 33.9652, 0.122087, 0, 0, 1, 0, 9.8362e-06, 135899
529.045, 181042, -315.935, 5.07475, -941.569, 0.216752, 0.337199, 0.9175, 0.352806, 0.64323, 0.0001, 455, 246, 33.9652, 0.122087, 1.58457, 1, 0, 0, -6.53751e-06, 135899
529.045, 181042, -315.935, 5.07475, -941.569, 0.216752, 0.337199, 0.9175, 0.352806, 0.64323, 3, 455, 246, 33.9652, 0.122087, 1.59576, 1, 0, 0, 1.55855e-05, 135899
-8959.27, 133079, -161.017, 2.87615, -848.902, -0.0254846, 0.302092, 1.03299, 0.34851, 0.655882, 0.0001, 45.5, 246, 39.335, 0.168004, 0, 0, 1, 0, 1.07364e-05, 135900
-8959.27, 133079, -161.017, 2.87615, -848.902, -0.0254846, 0.302092, 1.03299, 0.34851, 0.655882, 3, 45.5, 246, 39.335, 0.168004, 0, 0, 1, 0, 1.47169e-06, 135900
-250.828, 182092, -308.896, 3.80974, -938.425, 0.13687, 0.363393, 0.9175, 0.352806, 0.64323, 0.0001, 455, 246, 39.335, 0.168004, 1.56294, 1, 0, 0, -1.06673e-05, 135900
-250.828, 182092, -308.896, 3.80974, -938.425, 0.13687, 0.363393, 0.9175, 0.352806, 0.64323, 3, 455, 246, 39.335, 0.168004, 1.57105, 1, 0, 0, 8.37705e-06, 135900
-4170.36, 350095, -394.815, 4.16112, -1190.69, 0.36124, 0.370198, 0.958125, 0.351078, 0.648177, 0.0001, 182, 246, 42.649, 0.167599, 1.01924, 1, 0, 0, 1.94146e-06, 135904
-8398.39, 352292, -202.319, 0.629433, -947.87, 0.873902, 0.405485, 0.993198, 0.349787, 0.651995, 0.0001, 91, 246, 30.5707, 0.135082, 0, 0, 1, 0, -4.62507e-05, 135906
-8798.63, 452616, -344.275, 0.173336, -685.572, 0.806277, 0.567288, 1.03299, 0.34851, 0.655882, 0.0001, 45.5, 246, 34.445, 0.176965, 0, 0, 0, 0, 3.44076e-05, 135911
-8798.63, 452616, -344.275, 0.173336, -685.572, 0.806277, 0.567288, 1.03299, 0.34851, 0.655882, 3, 45.5, 246, 34.445, 0.176965, 0, 0, 0, 0, -3.98875e-05, 135911
-6217.75, 527261, -371.701, 0.204916, -924.192, 1.0824, 0.537984, 0.958125, 0.351078, 0.648177, 0.0001, 182, 246, 34.445, 0.176965, 0, 0, 0, 0, 1.37479e-05, 135911
-11972.6, 389365, -58.3008, 0.828271, -965.991, 0.0173213, 0.339918, 1.03299, 0.34851, 0.655882, 0.0001, 45.5, 246, 21.7761, 0.0415614, 0, 0, 1, 0, -7.19808e-06, 135920
-11972.6, 389365, -58.3008, 0.828271, -965.991, 0.0173213, 0.339918, 1.03299, 0.34851, 0.655882, 3, 45.5, 246, 21.7761, 0.0415614, 0, 0, 1, 0, -1.2945e-05, 135920
-6860.55, 489968, -360.682, 0.252203, -1140.9, -0.00025865, 0.605834, 1.03299, 0.34851, 0.655882, 0.0001, 45.5, 246, 43.8563, 0.195611, 0, 0, 0, 0, -0.000177268, 135922
-5302.67, 515231, -377.298, 0.261983, -1143.38, 3.15502e-05, 0.593075, 0.993198, 0.349787, 0.651995, 3, 91, 246, 43.8563, 0.195611, 0, 0, 1, 0, 0.000132572, 135922
-3518.15, 540834, -393.891, 0.271612, -1146.12, 0.000344057, 0.58482, 0.958125, 0.351078, 0.648177, 3, 182, 246, 43.8563, 0.195611, 0, 0, 0, 0, -5.50237e-05, 135922
-9491.11, 942464, -169.578, 0.144071, -584.128, 0.344925, 0.367691, 1.03299, 0.34851, 0.655882, 0.0001, 45.5, 246, 19.1409, 0.043252, 0, 0, 1, 0, 0.000657059, 135930
-9491.11, 942464, -169.578, 0.144071, -584.128, 0.344925, 0.367691, 1.03299, 0.34851, 0.655882, 3, 45.5, 246, 19.1409, 0.043252, 0, 0, 1, 0, 0.000210246, 135930
-8859.08, 967145, -175.459, 0.151195, -618.495, 0.36491, 0.333467, 0.993198, 0.349787, 0.651995, 0.0001, 91, 246, 19.1409, 0.043252, 0, 0, 1, 0, -9.08931e-05, 135930
-8120.11, 994232, -181.138, 0.158438, -657.096, 0.387351, 0.303498, 0.958125, 0.351078, 0.648177, 0.0001, 182, 246, 19.1409, 0.043252, 0, 0, 1, 0, -3.95803e-05, 135930
-6062.24, 162072, -256.126, 3.94986, -920.494, 0.635469, 0.252853, 0.993198, 0.349787, 0.651995, 0.0001, 91, 246, 42.3152, 0.162047, 1.00328, 1, 1, 0, -2.53087e-05, 135938
-2209.42, 186885, -320.726, 4.51899, -1063.56, 0.793788, 0.298278, 0.958125, 0.351078, 0.648177, 0.0001, 182, 246, 42.3152, 0.162047, 1.63274, 1, 0, 0, -4.00534e-05, 135938
-2209.42, 186885, -320.726, 4.51899, -1063.56, 0.793788, 0.298278, 0.958125, 0.351078, 0.648177, 3, 182, 246, 42.3152, 0.162047, 1.47211, 1, 0, 0, 1.12907e-05, 135938
-9257.27, 141080, -27.2064, 0.640451, -1162.97, 0.152158, 0.343637, 1.03299, 0.34851, 0.655882, 0.0001, 45.5, 246, 18.5319, 0.0510449, 0, 0, 1, 0, -8.33948e-07, 135942
-9257.27, 141080, -27.2064, 0.640451, -1162.97, 0.152158, 0.343637, 1.03299, 0.34851, 0.655882, 3, 45.5, 246, 18.5319, 0.0510449, 0, 0, 1, 0, 5.19714e-06, 135942
-10832.6, 365913, -176.373, 0.98096, -1052.35, 0.101306, 0.409484, 1.03299, 0.34851, 0.655882, 0.0001, 45.5, 246, 32.5872, 0.120435, 0, 0, 0, 0, -1.01084e-06, 135946
-10832.6, 365913, -176.373, 0.98096, -1052.35, 0.101306, 0.409484, 1.03299, 0.34851, 0.655882, 3, 45.5, 246, 32.5872, 0.120435, 0, 0, 0, 0, 3.61535e-07, 135946
-8195.03, 133224, -192.33, 3.36634, -884.87, 0.127599, 0.26311, 1.03299, 0.34851, 0.655882, 3, 45.5, 246, 43.5197, 0.173126, 0, 0, 0, 0, 5.49006e-06, 135947
-2540.53, 168006, -296.349, 4.1066, -988.186, 0.260784, 0.313025, 0.958125, 0.351078, 0.648177, 0.0001, 182, 246, 43.5197, 0.173126, 1.39501, 1, 0, 0, -1.01385e-05, 135947
-2540.53, 168006, -296.349, 4.1066, -988.186, 0.260784, 0.313025, 0.958125, 0.351078, 0.648177, 3, 182, 246, 43.5197, 0.173126, 1.19926, 1, 0, 0, -7.60591e-06, 135947
-2283.63, 47253, -186.879, 3.25214, -675.326, 0.319094, 0.225558, 1.03299, 0.34851, 0.655882, 0.0001, 45.5, 246, 57.8288, 0.131233, 1.47313, 1, 1, 0, 1.32876e-05, 135950
-2283.63, 47253, -186.879, 3.25214, -675.326, 0.319094, 0.225558, 1.03299, 0.34851, 0.655882, 3, 45.5, 246, 57.8288, 0.131233, 1.33659, 1, 1, 0, -9.07386e-06, 135950
-1168.45, 57544, -225.251, 3.60306, -733.147, 0.390324, 0.234643, 0.993198, 0.349787, 0.651995, 0.0001, 91, 246, 57.8288, 0.131233, 1.56539, 1, 1, 0, -1.39769e-05, 135950
-1168.45, 57544, -225.251, 3.60306, -733.147, 0.390324, 0.234643, 0.993198, 0.349787, 0.651995, 3, 91, 246, 57.8288, 0.131233, 1.43864, 1, 1, 0, -1.07109e-05, 135950
432.881, 70490.3, -273.226, 4.03091, -811.126, 0.484095, 0.263959, 0.958125, 0.351078, 0.648177, 0.0001, 182, 246, 57.8288, 0.131233, 1.87106, 1, 1, 0, -2.69083e-06, 135950
432.881, 70490.3, -273.226, 4.03091, -811.126, 0.484095, 0.263959, 0.958125, 0.351078, 0.648177, 3, 182, 246, 57.8288, 0.131233, 1.74212, 1, 1, 0, 1.9468e-05, 135950
3721.19, 94318.2, -359.314, 4.77907, -964.082, 0.6636, 0.342049, 0.9175, 0.352806, 0.64323, 0.0001, 455, 246, 57.8288, 0.131233, 4.2392, 1, 1, 0, 6.41918e-06, 135950
3721.19, 94318.2, -359.314, 4.77907, -964.082, 0.6636, 0.342049, 0.9175, 0.352806, 0.64323, 3, 455, 246, 57.8288, 0.131233, 4.24003, 1, 1, 0, 1.6466e-05, 135950
-6812.58, -12635.9, -17.0556, 3.27612, -922.505, 0.0851288, 0.211552, 1.03299, 0.34851, 0.655882, 0.0001, 45.5, 246, 20.709, 0.0432097, 0, 0, 1, 1, -2.03884e-06, 135952
-6812.58, -12635.9, -17.0556, 3.27612, -922.505, 0.0851288, 0.211552, 1.03299, 0.34851, 0.655882, 3, 45.5, 246, 20.709, 0.0432097, 0, 0, 1, 1, -5.54802e-06, 135952
-8035.08, 730592, -156.81, 0.227301, -940.284, 0.0830685, 0.336527, 0.993198, 0.349787, 0.651995, 0.0001, 91, 246, 26.1972, 0.0534041, 0, 0, 1, 0, -7.74798e-05, 135956
-7245.65, 750022, -163.279, 0.234887, -953.789, 0.084411, 0.306898, 0.958125, 0.351078, 0.648177, 0.0001, 182, 246, 26.1972, 0.0534041, 0, 0, 1, 0, 4.34205e-05, 135956
-2830.8, 62579.6, -190.953, 3.0337, -811.037, 0.0995086, 0.283537, 1.03299, 0.34851, 0.655882, 0.0001, 45.5, 246, 59.7635, 0.201062, 1.46088, 1, 1, 0, 6.98801e-06, 135959
-2830.8, 62579.6, -190.953, 3.0337, -811.037, 0.0995086, 0.283537, 1.03299, 0.34851, 0.655882, 3, 45.5, 246, 59.7635, 0.201062, 1.30896, 1, 1, 0, -2.18323e-05, 135959
-1536.27, 75687.3, -230.992, 3.31052, -844.574, 0.145987, 0.288794, 0.993198, 0.349787, 0.651995, 0.0001, 91, 246, 59.7635, 0.201062, 1.65464, 1, 1, 0, 1.2224e-05, 135959
-1536.27, 75687.3, -230.992, 3.31052, -844.574, 0.145987, 0.288794, 0.993198, 0.349787, 0.651995, 3, 91, 246, 59.7635, 0.201062, 1.51923, 1, 1, 0, 7.97733e-06, 135959
282.167, 90743.4, -278.933, 3.63607, -891.661, 0.203647, 0.310261, 0.958125, 0.351078, 0.648177, 0.0001, 182, 246, 59.7635, 0.201062, 2.17691, 1, 1, 1, 1.44821e-06, 135959
282.167, 90743.4, -278.933, 3.63607, -891.661, 0.203647, 0.310261, 0.958125, 0.351078, 0.648177, 3, 182, 246, 59.7635, 0.201062, 2.03888, 1, 1, 1, 1.16449e-06, 135959
-5260.48, 419499, -447.473, 3.9798, -1090.78, 0.0636725, 0.426303, 0.958125, 0.351078, 0.648177, 3, 182, 246, 44.0376, 0.176367, 1.06681, 1, 0, 0, -7.51641e-06, 135961
-8382.59, 193514, -291.549, 3.04886, -1067.17, 0.322877, 0.431948, 1.03299, 0.34851, 0.655882, 0.0001, 45.5, 246, 53.9188, 0.246455, 1.05185, 1, 0, 0, -1.1213e-05, 135963
-4763.13, 220437, -350.305, 3.38427, -1156.44, 0.388058, 0.4498, 0.993198, 0.349787, 0.651995, 0.0001, 91, 246, 53.9188, 0.246455, 1.22188, 1, 1, 0, 2.05072e-05, 135963
-4763.13, 220437, -350.305, 3.38427, -1156.44, 0.388058, 0.4498, 0.993198, 0.349787, 0.651995, 3, 91, 246, 53.9188, 0.246455, 1.06136, 1, 1, 0, -2.33619e-05, 135963
-9915.52, 491998, -363.417, 0.270257, -643.637, 0.608008, 0.578054, 1.03299, 0.34851, 0.655882, 0.0001, 45.5, 246, 34.0321, 0.176212, 0, 0, 0, 0, 3.29773e-05, 135965
-9915.52, 491998, -363.417, 0.270257, -643.637, 0.608008, 0.578054, 1.03299, 0.34851, 0.655882, 3, 45.5, 246, 34.0321, 0.176212, 0, 0, 0, 0, -2.14952e-05, 135965
-10276.1, 160652, -161.61, 2.8966, -890.031, -0.0153355, 0.298058, 1.03299, 0.34851, 0.655882, 0.0001, 45.5, 246, 37.4221, 0.157318, 0, 0, 0, 0, -3.43772e-06, 135966
-10276.1, 160652, -161.61, 2.8966, -890.031, -0.0153355, 0.298058, 1.03299, 0.34851, 0.655882, 3, 45.5, 246, 37.4221, 0.157318, 0, 0, 0, 0, 3.44506e-06, 135966
-8007.5, 174894, -199.469, 3.13381, -904.923, 0.0245451, 0.299932, 0.993198, 0.349787, 0.651995, 0.0001, 91, 246, 37.4221, 0.157318, 0, 0, 1, 0, 4.37824e-06, 135966
-8007.5, 174894, -199.469, 3.13381, -904.923, 0.0245451, 0.299932, 0.993198, 0.349787, 0.651995, 3, 91, 246, 37.4221, 0.157318, 0, 0, 1, 0, 4.51307e-06, 135966
-39.2039, 214989, -315.865, 3.84995, -987.958, 0.150551, 0.361499, 0.9175, 0.352806, 0.64323, 0.0001, 455, 246, 37.4221, 0.157318, 1.26422, 1, 0, 0, -2.1979e-06, 135966
-39.2039, 214989, -315.865, 3.84995, -987.958, 0.150551, 0.361499, 0.9175, 0.352806, 0.64323, 3, 455, 246, 37.4221, 0.157318, 1.32756, 1, 0, 0, 2.88315e-06, 135966
-3200.19, 151529, -273.242, 3.44608, -928.578, 0.826177, 0.341777, 0.958125, 0.351078, 0.648177, 0.0001, 182, 246, 44.0058, 0.190124, 1.16113, 1, 1, 0, -2.02086e-05, 135967
-7261.7, 57758.5, -101.344, 2.64071, -680.753, -0.026627, 0.277969, 1.03299, 0.34851, 0.655882, 0.0001, 45.5, 246, 35.7799, 0.130266, 0, 0, 1, 0, 1.91359e-05, 135981
-7261.7, 57758.5, -101.344, 2.64071, -680.753, -0.026627, 0.277969, 1.03299, 0.34851, 0.655882, 3, 45.5, 246, 35.7799, 0.130266, 0, 0, 1, 0, 5.62113e-07, 135981
-4737.3, 280331, -382.345, 4.05319, -772.069, 0.218412, 0.377025, 0.958125, 0.351078, 0.648177, 0.0001, 182, 246, 40.7834, 0.181172, 1.30846, 1, 0, 0, -4.92685e-05, 135985
-4737.3, 280331, -382.345, 4.05319, -772.069, 0.218412, 0.377025, 0.958125, 0.351078, 0.648177, 3, 182, 246, 40.7834, 0.181172, 1.10315, 1, 0, 0, -1.20024e-05, 135985
-9132.48, 169038, -33.9918, 4.33177, -855.849, 0.381831, 0.177822, 0.958125, 0.351078, 0.648177, 0.0001, 182, 246, 11.4652, 0.0154322, 0, 0, 1, 0, 2.96852e-05, 135987
-9132.48, 169038, -33.9918, 4.33177, -855.849, 0.381831, 0.177822, 0.958125, 0.351078, 0.648177, 3, 182, 246, 11.4652, 0.0154322, 0, 0, 1, 0, -5.58223e-06, 135987
-7656.25, 73666.1, -107.023, 2.6588, -847.948, -0.0295177, 0.288149, 1.03299, 0.34851, 0.655882, 3, 45.5, 246, 36.4546, 0.146235, 0, 0, 1, 0, 8.87278e-06, 135989
-8731.11, 749599, -201.007, 0.209045, -816.254, 0.136996, 0.391028, 1.03299, 0.34851, 0.655882, 0.0001, 45.5, 246, 26.0021, 0.0674402, 0, 0, 0, 0, 0.823913, 135995
-8731.11, 749599, -201.007, 0.209045, -816.254, 0.136996, 0.391028, 1.03299, 0.34851, 0.655882, 3, 45.5, 246, 26.0021, 0.0674402, 0, 0, 0, 0, -8.83047e-05, 135995
-7882.07, 767818, -208.981, 0.217287, -835.492, 0.140231, 0.358696, 0.993198, 0.349787, 0.651995, 3, 91, 246, 26.0021, 0.0674402, 0, 0, 1, 0, -1.62509e-05, 135995
645.82, 414291, -329.724, 3.76323, -1171.32, 0.249556, 0.329622, 0.9175, 0.352806, 0.64323, 3, 455, 246, 32.649, 0.109549, 0, 0, 0, 0, -1.47024e-05, 135999
