-8575.7, 90926.7, -82.1311, 1.08737, -1189.56, 0.119408, 0.359407, 0.993198, 0.349787, 0.651995, 0.0001, 91, 246, 32.6495, 0.234979, 0, 0, 1, 0, -7.67892e-06, 117006
-8575.7, 90926.7, -82.1311, 1.08737, -1189.56, 0.119408, 0.359407, 0.993198, 0.349787, 0.651995, 3, 91, 246, 32.6495, 0.234979, 0, 0, 1, 0, 1.38992e-05, 117006
-6183.01, 207338, -310.798, 3.41121, -951.438, 0.228684, 0.382659, 0.993198, 0.349787, 0.651995, 0.0001, 91, 246, 48.1157, 0.214586, 1.00843, 1, 1, 0, 1.66263e-05, 117010
-1833.95, 229203, -372.368, 3.78184, -1024.42, 0.296146, 0.414688, 0.958125, 0.351078, 0.648177, 0.0001, 182, 246, 48.1157, 0.214586, 2.10181, 1, 0, 0, -1.25425e-05, 117010
-1833.95, 229203, -372.368, 3.78184, -1024.42, 0.296146, 0.414688, 0.958125, 0.351078, 0.648177, 3, 182, 246, 48.1157, 0.214586, 1.93219, 1, 0, 0, -7.63374e-06, 117010
-8801.43, 122378, -104.582, 0.804326, -1099.22, 0.166398, 0.419062, 1.03299, 0.34851, 0.655882, 0.0001, 45.5, 246, 34.5507, 0.21355, 0, 0, 1, 0, 1.00836e-05, 117017
-8801.43, 122378, -104.582, 0.804326, -1099.22, 0.166398, 0.419062, 1.03299, 0.34851, 0.655882, 3, 45.5, 246, 34.5507, 0.21355, 0, 0, 1, 0, -1.31374e-05, 117017
-4654.69, 126768, -289.013, 3.16816, -635.431, 0.435202, 0.352957, 1.03299, 0.34851, 0.655882, 0.0001, 45.5, 246, 56.5069, 0.238223, 1.63468, 1, 1, 0, 3.55866e-06, 117019
-4654.69, 126768, -289.013, 3.16816, -635.431, 0.435202, 0.352957, 1.03299, 0.34851, 0.655882, 3, 45.5, 246, 56.5069, 0.238223, 1.56325, 1, 1, 0, 2.74227e-05, 117019
-1938.51, 139567, -335.614, 3.54032, -713.596, 0.520326, 0.368526, 0.993198, 0.349787, 0.651995, 0.0001, 91, 246, 56.5069, 0.238223, 1.94057, 1, 1, 1, 245.873, 117019
-1938.51, 139567, -335.614, 3.54032, -713.596, 0.520326, 0.368526, 0.993198, 0.349787, 0.651995, 3, 91, 246, 56.5069, 0.238223, 1.84372, 1, 1, 1, 245.796, 117019
1660.68, 156614, -394.402, 4.0011, -819.186, 0.634862, 0.405223, 0.958125, 0.351078, 0.648177, 0.0001, 182, 246, 56.5069, 0.238223, 4.45992, 1, 0, 0, 213.753, 117019
1660.68, 156614, -394.402, 4.0011, -819.186, 0.634862, 0.405223, 0.958125, 0.351078, 0.648177, 3, 182, 246, 56.5069, 0.238223, 4.09684, 1, 0, 0, -213.829, 117019
-9413.15, 192359, -205.34, 1.91847, -1068.68, -0.0170509, 0.456352, 1.03299, 0.34851, 0.655882, 0.0001, 45.5, 246, 44.434, 0.225813, 0, 0, 0, 0, -9.34218e-06, 117020
-1473.87, 70079, -258.542, 4.33361, -857.349, 0.21829, 0.315229, 0.9175, 0.352806, 0.64323, 0.0001, 455, 246, 45.4685, 0.0904795, 1.363, 1, 1, 0, 1.62941e-05, 117025
-1473.87, 70079, -258.542, 4.33361, -857.349, 0.21829, 0.315229, 0.9175, 0.352806, 0.64323, 3, 455, 246, 45.4685, 0.0904795, 1.26178, 1, 1, 0, 1.42281e-05, 117025
-2533.97, 76061.8, -228.254, 2.79025, -589.097, 0.233295, 0.332542, 1.03299, 0.34851, 0.655882, 0.0001, 45.5, 246, 61.9675, 0.237103, 1.70156, 1, 1, 0, -2.01725e-05, 117026
-2533.97, 76061.8, -228.254, 2.79025, -589.097, 0.233295, 0.332542, 1.03299, 0.34851, 0.655882, 3, 45.5, 246, 61.9675, 0.237103, 1.58491, 1, 1, 0, 1.15281e-05, 117026
-1024.79, 84647.1, -262.976, 3.05696, -632.706, 0.281168, 0.334385, 0.993198, 0.349787, 0.651995, 0.0001, 91, 246, 61.9675, 0.237103, 1.86181, 1, 1, 0, -9.78662e-06, 117026
-1024.79, 84647.1, -262.976, 3.05696, -632.706, 0.281168, 0.334385, 0.993198, 0.349787, 0.651995, 3, 91, 246, 61.9675, 0.237103, 1.7429, 1, 1, 0, 2.4442e-05, 117026
942.753, 95165.9, -304.586, 3.37027, -689.039, 0.341659, 0.351081, 0.958125, 0.351078, 0.648177, 0.0001, 182, 246, 61.9675, 0.237103, 2.37285, 1, 1, 0, 2.57186e-06, 117026
942.753, 95165.9, -304.586, 3.37027, -689.039, 0.341659, 0.351081, 0.958125, 0.351078, 0.648177, 3, 182, 246, 61.9675, 0.237103, 2.23391, 1, 1, 0, -1.9514e-05, 117026
4539.46, 113540, -374.706, 3.88796, -792.365, 0.450113, 0.399664, 0.9175, 0.352806, 0.64323, 0.0001, 455, 246, 61.9675, 0.237103, 0, 0, 0, 0, 2.45931e-05, 117026
4539.46, 113540, -374.706, 3.88796, -792.365, 0.450113, 0.399664, 0.9175, 0.352806, 0.64323, 3, 455, 246, 61.9675, 0.237103, 0, 0, 0, 0, 6.11123e-06, 117026
-6992.09, 90239.6, -155.864, 3.57677, -782.95, 0.0282426, 0.201437, 1.03299, 0.34851, 0.655882, 3, 45.5, 246, 40.5405, 0.139163, 0, 0, 1, 0, 1.21263e-05, 117032
-2982.02, 115052, -248.639, 4.33966, -848.567, 0.167755, 0.25916, 0.958125, 0.351078, 0.648177, 0.0001, 182, 246, 40.5405, 0.139163, 1.20663, 1, 1, 0, -1.78897e-05, 117032
-2982.02, 115052, -248.639, 4.33966, -848.567, 0.167755, 0.25916, 0.958125, 0.351078, 0.648177, 3, 182, 246, 40.5405, 0.139163, 1.03811, 1, 1, 0, 9.71778e-06, 117032
1397.24, 137373, -337.18, 5.06213, -939.588, 0.306815, 0.353127, 0.9175, 0.352806, 0.64323, 0.0001, 455, 246, 40.5405, 0.139163, 2.42746, 1, 0, 0, 3.95801e-06, 117032
1397.24, 137373, -337.18, 5.06213, -939.588, 0.306815, 0.353127, 0.9175, 0.352806, 0.64323, 3, 455, 246, 40.5405, 0.139163, 2.42889, 1, 0, 0, -7.15471e-06, 117032
-8268.09, 46110.6, -58.4933, 1.45216, -651.622, -0.00877988, 0.34334, 1.03299, 0.34851, 0.655882, 0.0001, 45.5, 246, 30.0291, 0.160333, 0, 0, 1, 0, 2.2028e-06, 117033
-8268.09, 46110.6, -58.4933, 1.45216, -651.622, -0.00877988, 0.34334, 1.03299, 0.34851, 0.655882, 3, 45.5, 246, 30.0291, 0.160333, 0, 0, 1, 0, -4.19301e-06, 117033
-7969.06, 77291.7, -99.3365, 3.50854, -995.787, 0.226349, 0.190365, 1.03299, 0.34851, 0.655882, 0.0001, 45.5, 246, 33.8632, 0.112084, 0, 0, 0, 0, 1.92388e-06, 117035
-7969.06, 77291.7, -99.3365, 3.50854, -995.787, 0.226349, 0.190365, 1.03299, 0.34851, 0.655882, 3, 45.5, 246, 33.8632, 0.112084, 0, 0, 0, 0, 9.64177e-06, 117035
-103.814, 158448, -297.932, 5.15241, -1285.49, 0.566105, 0.339315, 0.9175, 0.352806, 0.64323, 0.0001, 455, 246, 33.8632, 0.112084, 1.84884, 1, 0, 0, -1.57748e-05, 117035
-103.814, 158448, -297.932, 5.15241, -1285.49, 0.566105, 0.339315, 0.9175, 0.352806, 0.64323, 3, 455, 246, 33.8632, 0.112084, 1.85719, 1, 0, 0, -1.57791e-05, 117035
-8322.77, 311021, -192.89, 0.840786, -1012.42, 0.00144997, 0.411315, 0.993198, 0.349787, 0.651995, 0.0001, 91, 246, 34.0618, 0.15397, 0, 0, 1, 0, -1.37461e-05, 117041
-11511.3, 185237, -150.935, 2.91794, -1024.56, 0.0996289, 0.285879, 1.03299, 0.34851, 0.655882, 0.0001, 45.5, 246, 35.9465, 0.141181, 0, 0, 0, 0, 1.09337e-05, 117042
-11511.3, 185237, -150.935, 2.91794, -1024.56, 0.0996289, 0.285879, 1.03299, 0.34851, 0.655882, 3, 45.5, 246, 35.9465, 0.141181, 0, 0, 0, 0, -1.57179e-05, 117042
648.472, 264693, -323.814, 3.9739, -1199.85, 0.288042, 0.353547, 0.9175, 0.352806, 0.64323, 3, 455, 246, 35.9465, 0.141181, 1.633, 1, 0, 0, -9.8038e-06, 117042
-11630.7, 231859, -141.438, 1.74709, -807.906, 0.0263588, 0.36537, 1.03299, 0.34851, 0.655882, 0.0001, 45.5, 246, 30.0731, 0.133829, 0, 0, 1, 0, 2.12484e-06, 117043
-11630.7, 231859, -141.438, 1.74709, -807.906, 0.0263588, 0.36537, 1.03299, 0.34851, 0.655882, 3, 45.5, 246, 30.0731, 0.133829, 0, 0, 1, 0, -1.44738e-06, 117043
-11270.4, 344202, -334.359, 0.905363, -707.691, -0.0037064, 0.640651, 1.03299, 0.34851, 0.655882, 0.0001, 45.5, 246, 43.0814, 0.24986, 0, 0, 0, 0, 4.65094e-05, 117050
-11270.4, 344202, -334.359, 0.905363, -707.691, -0.0037064, 0.640651, 1.03299, 0.34851, 0.655882, 3, 45.5, 246, 43.0814, 0.24986, 0, 0, 0, 0, -4.21761e-06, 117050
-7692.42, 319811, -433.112, 3.90751, -1153.97, 0.13358, 0.462872, 0.993198, 0.349787, 0.651995, 0.0001, 91, 246, 53.1787, 0.227481, 1.30629, 1, 1, 0, 4.61868e-06, 117051
-7692.42, 319811, -433.112, 3.90751, -1153.97, 0.13358, 0.462872, 0.993198, 0.349787, 0.651995, 3, 91, 246, 53.1787, 0.227481, 1.21421, 1, 1, 0, 4.23663e-06, 117051
-8974.32, 216814, -135.396, 1.47654, -1050.36, 0.524876, 0.34668, 0.993198, 0.349787, 0.651995, 0.0001, 91, 246, 29.9801, 0.129686, 0, 0, 1, 0, 7.06846e-06, 117057
-7434.2, 244940, -157.823, 1.60098, -1152.52, 0.583677, 0.328227, 0.958125, 0.351078, 0.648177, 0.0001, 182, 246, 29.9801, 0.129686, 0, 0, 1, 0, 3.78168e-06, 117057
-7434.2, 244940, -157.823, 1.60098, -1152.52, 0.583677, 0.328227, 0.958125, 0.351078, 0.648177, 3, 182, 246, 29.9801, 0.129686, 0, 0, 1, 0, 3.05192e-05, 117057
-11531.3, 355102, -204.401, 1.13364, -976.604, 0.759317, 0.421368, 1.03299, 0.34851, 0.655882, 0.0001, 45.5, 246, 33.3772, 0.128657, 0, 0, 0, 0, -3.68579e-05, 117059
-7066.46, -18727.9, -11.0204, 2.97247, -751.62, 0.227785, 0.237077, 1.03299, 0.34851, 0.655882, 0.0001, 45.5, 246, 17.0384, 0.025925, 0, 0, 1, 1, 1.90103e-05, 117060
-7066.46, -18727.9, -11.0204, 2.97247, -751.62, 0.227785, 0.237077, 1.03299, 0.34851, 0.655882, 3, 45.5, 246, 17.0384, 0.025925, 0, 0, 1, 1, -8.63306e-06, 117060
-6820.12, 56701.7, -112.282, 3.67474, -967.656, 0.115123, 0.28715, 0.9175, 0.352806, 0.64323, 3, 455, 246, 16.9341, 0.0573103, 0, 0, 1, 0, -1.13182e-05, 117063
-9344.53, 97623, -76.4094, 2.75147, -1086.75, -0.0351318, 0.268135, 1.03299, 0.34851, 0.655882, 0.0001, 45.5, 246, 29.878, 0.113762, 0, 0, 1, 0, -3.04818e-06, 117070
-9344.53, 97623, -76.4094, 2.75147, -1086.75, -0.0351318, 0.268135, 1.03299, 0.34851, 0.655882, 3, 45.5, 246, 29.878, 0.113762, 0, 0, 1, 0, 1.64428e-05, 117070
-8132.63, 118023, -110.654, 2.96262, -1090.74, 0.000726782, 0.263801, 0.993198, 0.349787, 0.651995, 0.0001, 91, 246, 29.878, 0.113762, 0, 0, 1, 0, -1.52625e-05, 117070
-8132.63, 118023, -110.654, 2.96262, -1090.74, 0.000726782, 0.263801, 0.993198, 0.349787, 0.651995, 3, 91, 246, 29.878, 0.113762, 0, 0, 1, 0, 1.01948e-05, 117070
-6411.73, 139199, -150.336, 3.20332, -1104.96, 0.0424842, 0.272167, 0.958125, 0.351078, 0.648177, 3, 182, 246, 29.878, 0.113762, 0, 0, 1, 0, -3.81439e-06, 117070
-18769.5, -109995, -187.126, 0.610639, -1486.04, 1.26454, 0.274212, 0.9175, 0.352806, 0.64323, 0.0001, 455, 246, 659.914, 0.043213, 0, 0, 0, 0, 0.000454908, 117078
-11433.7, 391760, -276.084, 1.32931, -1184.3, -0.00574527, 0.505068, 1.03299, 0.34851, 0.655882, 3, 45.5, 246, 42.2479, 0.176982, 0, 0, 0, 0, -1.88155e-05, 117096
-8392.49, 136033, -191.094, 2.71079, -825.683, 0.658896, 0.331246, 1.03299, 0.34851, 0.655882, 3, 45.5, 246, 42.5258, 0.185801, 0, 0, 1, 0, -4.34893e-05, 117098
-10665, 94022.1, -36.1284, 3.45686, -854.443, 0.752631, 0.149748, 1.03299, 0.34851, 0.655882, 0.0001, 45.5, 246, 20.6751, 0.057383, 0, 0, 0, 0, -3.63341e-05, 117109
-10665, 94022.1, -36.1284, 3.45686, -854.443, 0.752631, 0.149748, 1.03299, 0.34851, 0.655882, 3, 45.5, 246, 20.6751, 0.057383, 0, 0, 0, 0, 2.39343e-05, 117109
-6948.6, 139058, -118.969, 4.57497, -1166.09, 1.17264, 0.204027, 0.958125, 0.351078, 0.648177, 3, 182, 246, 20.6751, 0.057383, 0, 0, 1, 0, 1.3556e-05, 117109
-8609.47, 792080, -62.2242, 1.60476, -873.941, 0.159574, 0.230665, 0.9175, 0.352806, 0.64323, 3, 455, 246, 18.986, 0.0114612, 0, 0, 0, 0, -4.68466e-05, 117112
-8882.99, 624914, -150.923, 0.313373, -1072.88, 0.00139203, 0.375074, 1.03299, 0.34851, 0.655882, 0.0001, 45.5, 246, 29.0375, 0.061902, 0, 0, 0, 0, -7.29481e-05, 117114
-8013.75, 645581, -159.006, 0.323845, -1074.45, 0.00183818, 0.34177, 0.993198, 0.349787, 0.651995, 0.0001, 91, 246, 29.0375, 0.061902, 0, 0, 1, 0, -0.000119348, 117114
-9025.18, 359684, -478.528, 3.34785, -1039.45, 0.194207, 0.589756, 0.993198, 0.349787, 0.651995, 0.0001, 91, 246, 53.5565, 0.248073, 1.11353, 1, 1, 0, -9.61072e-06, 117115
-9025.18, 359684, -478.528, 3.34785, -1039.45, 0.194207, 0.589756, 0.993198, 0.349787, 0.651995, 3, 91, 246, 53.5565, 0.248073, 1.00063, 1, 1, 0, -6.62742e-06, 117115
-5095, 787091, -249.378, 0.0943908, -1194.32, 0.523878, 0.37772, 0.993198, 0.349787, 0.651995, 0.0001, 91, 246, 32.9217, 0.0755152, 0, 0, 1, 0, 0.000113955, 117121
-4305.29, 838939, -257.328, 0.0998268, -1302.79, 0.571206, 0.350785, 0.958125, 0.351078, 0.648177, 0.0001, 182, 246, 32.9217, 0.0755152, 0, 0, 0, 0, 3.04476e-05, 117121
-11649, 279357, -221.086, 1.56898, -846.998, 0.387578, 0.445882, 1.03299, 0.34851, 0.655882, 0.0001, 45.5, 246, 36.6554, 0.17467, 0, 0, 0, 0, -4.78326e-05, 117124
-9045.05, 433257, -344.472, 0.0890274, -576.165, 0.649407, 0.586371, 1.03299, 0.34851, 0.655882, 0.0001, 45.5, 246, 33.7744, 0.191428, 0, 0, 0, 0, -0.00011581, 117126
-8067.12, 457987, -357.106, 0.0955502, -642.953, 0.72371, 0.571353, 0.993198, 0.349787, 0.651995, 0.0001, 91, 246, 33.7744, 0.191428, 0, 0, 1, 0, 5.09995e-05, 117126
-11196.2, 219019, -6.29341, 1.61986, -709.134, 0.554034, 0.276472, 0.993198, 0.349787, 0.651995, 3, 91, 246, 10.7518, 0.0106298, 0, 0, 1, 0, 9.93069e-06, 117150
-6183.9, 234102, -348.706, 3.89713, -1039.67, 0.209373, 0.364085, 0.993198, 0.349787, 0.651995, 0.0001, 91, 246, 49.6814, 0.210146, 1.26654, 1, 1, 0, 3.72438e-06, 117151
-6183.9, 234102, -348.706, 3.89713, -1039.67, 0.209373, 0.364085, 0.993198, 0.349787, 0.651995, 3, 91, 246, 49.6814, 0.210146, 1.13845, 1, 1, 0, -2.2528e-05, 117151
-9178.32, 75240.7, -44.8154, 1.7028, -671.864, 0.571742, 0.314983, 1.03299, 0.34851, 0.655882, 0.0001, 45.5, 246, 20.2613, 0.0868923, 0, 0, 1, 0, -4.48238e-06, 117154
-9178.32, 75240.7, -44.8154, 1.7028, -671.864, 0.571742, 0.314983, 1.03299, 0.34851, 0.655882, 3, 45.5, 246, 20.2613, 0.0868923, 0, 0, 1, 0, -1.11908e-05, 117154
-8755.67, 86333.6, -58.7894, 1.86115, -741.97, 0.643844, 0.291238, 0.993198, 0.349787, 0.651995, 0.0001, 91, 246, 20.2613, 0.0868923, 0, 0, 1, 0, 4.43165e-05, 117154
-8755.67, 86333.6, -58.7894, 1.86115, -741.97, 0.643844, 0.291238, 0.993198, 0.349787, 0.651995, 3, 91, 246, 20.2613, 0.0868923, 0, 0, 1, 0, -2.34087e-05, 117154
-8116.02, 100317, -76.1004, 2.0442, -830.786, 0.735393, 0.275618, 0.958125, 0.351078, 0.648177, 0.0001, 182, 246, 20.2613, 0.0868923, 0, 0, 1, 0, 6.93968e-05, 117154
-8116.02, 100317, -76.1004, 2.0442, -830.786, 0.735393, 0.275618, 0.958125, 0.351078, 0.648177, 3, 182, 246, 20.2613, 0.0868923, 0, 0, 1, 0, 3.52423e-05, 117154
-6878.24, 53936.6, -104.326, 2.27422, -798.05, 0.122056, 0.316701, 1.03299, 0.34851, 0.655882, 3, 45.5, 246, 41.1626, 0.171666, 0, 0, 1, 0, -1.56212e-05, 117157
-9258.93, 147089, -174.56, 3.49699, -1090.57, 0.0211069, 0.24655, 1.03299, 0.34851, 0.655882, 0.0001, 45.5, 246, 41.9999, 0.161996, 0, 0, 0, 0, 5.53336e-06, 117160
-9258.93, 147089, -174.56, 3.49699, -1090.57, 0.0211069, 0.24655, 1.03299, 0.34851, 0.655882, 3, 45.5, 246, 41.9999, 0.161996, 0, 0, 0, 0, 5.53056e-06, 117160
-6560.89, 169073, -227.797, 3.83137, -1118.61, 0.0803635, 0.264546, 0.993198, 0.349787, 0.651995, 3, 91, 246, 41.9999, 0.161996, 0, 0, 1, 0, 1.50209e-05, 117160
-2875.64, 193886, -292.524, 4.23478, -1167.03, 0.153763, 0.303382, 0.958125, 0.351078, 0.648177, 0.0001, 182, 246, 41.9999, 0.161996, 1.2068, 1, 0, 0, -7.16205e-06, 117160
-2658.63, 63584.3, -190.978, 3.5447, -1026.19, 0.396585, 0.225309, 1.03299, 0.34851, 0.655882, 0.0001, 45.5, 246, 56.4503, 0.173414, 1.37815, 1, 1, 0, -1.9761e-05, 117164
-1058.91, 86212.6, -245.809, 3.96853, -1122.44, 0.489145, 0.244987, 0.993198, 0.349787, 0.651995, 0.0001, 91, 246, 56.4503, 0.173414, 1.73657, 1, 1, 0, 1.7645e-05, 117164
-1058.91, 86212.6, -245.809, 3.96853, -1122.44, 0.489145, 0.244987, 0.993198, 0.349787, 0.651995, 3, 91, 246, 56.4503, 0.173414, 1.61191, 1, 1, 0, 5.76049e-06, 117164
1495.12, 115221, -317.025, 4.5012, -1256.68, 0.615357, 0.289994, 0.958125, 0.351078, 0.648177, 0.0001, 182, 246, 56.4503, 0.173414, 2.96453, 1, 1, 0, -3.67244e-05, 117164
1495.12, 115221, -317.025, 4.5012, -1256.68, 0.615357, 0.289994, 0.958125, 0.351078, 0.648177, 3, 182, 246, 56.4503, 0.173414, 2.81349, 1, 1, 0, -1.02676e-05, 117164
-10003.4, 171493, -52.4452, 1.14879, -1121.46, -0.00462263, 0.341205, 1.03299, 0.34851, 0.655882, 0.0001, 45.5, 246, 23.0416, 0.0769368, 0, 0, 1, 0, 2.26388e-05, 117166
-10003.4, 171493, -52.4452, 1.14879, -1121.46, -0.00462263, 0.341205, 1.03299, 0.34851, 0.655882, 3, 45.5, 246, 23.0416, 0.0769368, 0, 0, 1, 0, -2.47857e-05, 117166
-8349.88, 6869.12, -9.58637, 2.52503, -1144.55, 0.0343448, 0.27066, 0.993198, 0.349787, 0.651995, 0.0001, 91, 246, 9.89442, 0.059658, 0, 0, 1, 1, 1.06363e-05, 117170
-8349.88, 6869.12, -9.58637, 2.52503, -1144.55, 0.0343448, 0.27066, 0.993198, 0.349787, 0.651995, 3, 91, 246, 9.89442, 0.059658, 0, 0, 1, 1, 9.86999e-06, 117170
-8823.88, 177175, -103.513, 0.745511, -1188.34, -0.00234312, 0.39309, 1.03299, 0.34851, 0.655882, 0.0001, 45.5, 246, 30.696, 0.142779, 0, 0, 1, 0, -1.06387e-05, 117173
-8823.88, 177175, -103.513, 0.745511, -1188.34, -0.00234312, 0.39309, 1.03299, 0.34851, 0.655882, 3, 45.5, 246, 30.696, 0.142779, 0, 0, 1, 0, 4.13988e-05, 117173
-6902.59, -9108.83, -30.0727, 3.04763, -716.731, 0.0550381, 0.231078, 1.03299, 0.34851, 0.655882, 0.0001, 45.5, 246, 22.9691, 0.0204716, 0, 0, 1, 1, 1.0338e-05, 117182
-6902.59, -9108.83, -30.0727, 3.04763, -716.731, 0.0550381, 0.231078, 1.03299, 0.34851, 0.655882, 3, 45.5, 246, 22.9691, 0.0204716, 0, 0, 1, 1, -1.57634e-05, 117182
-6891.99, 22578.4, -128.541, 4.13615, -796.499, 0.251242, 0.302494, 0.9175, 0.352806, 0.64323, 3, 455, 246, 22.9691, 0.0204716, 0, 0, 1, 1, 7.89474e-06, 117182
-9997.2, 498944, -166.67, 0.381132, -689.763, 0.774686, 0.385899, 1.03299, 0.34851, 0.655882, 0.0001, 45.5, 246, 23.0771, 0.0754749, 0, 0, 1, 0, 6.03216e-05, 117185
-9997.2, 498944, -166.67, 0.381132, -689.763, 0.774686, 0.385899, 1.03299, 0.34851, 0.655882, 3, 45.5, 246, 23.0771, 0.0754749, 0, 0, 1, 0, -7.68526e-06, 117185
-9108.74, 531357, -175.119, 0.412048, -787.93, 0.883535, 0.353678, 0.993198, 0.349787, 0.651995, 0.0001, 91, 246, 23.0771, 0.0754749, 0, 0, 1, 0, 8.37696e-05, 117185
-8364.67, 516897, -254.496, 0.2185, -764.163, 0.670308, 0.449311, 1.03299, 0.34851, 0.655882, 0.0001, 45.5, 246, 29.0869, 0.114458, 0, 0, 1, 0, 1.49675e-05, 117191
-6414.96, 589248, -275.022, 0.252225, -973.34, 0.851093, 0.398348, 0.958125, 0.351078, 0.648177, 0.0001, 182, 246, 29.0869, 0.114458, 0, 0, 1, 0, -7.04288e-05, 117191
-4654.96, 561563, -556.542, 3.22598, -1397.24, 1.07245, 0.58295, 0.958125, 0.351078, 0.648177, 3, 182, 246, 45.9353, 0.191961, 0, 0, 0, 0, -0.000246731, 117194
-7649.1, 128169, -220.392, 3.04022, -599.198, 0.429253, 0.302165, 1.03299, 0.34851, 0.655882, 0.0001, 45.5, 246, 44.4059, 0.186734, 1.14579, 1, 1, 0, -5.31454e-06, 117198
-5440.68, 139086, -257.752, 3.38251, -666.034, 0.509011, 0.309791, 0.993198, 0.349787, 0.651995, 0.0001, 91, 246, 44.4059, 0.186734, 1.14715, 1, 1, 0, 5.51048e-06, 117198
-2551.74, 153341, -304.555, 3.80143, -755.268, 0.61506, 0.336365, 0.958125, 0.351078, 0.648177, 0.0001, 182, 246, 44.4059, 0.186734, 1.46366, 1, 1, 0, -1.05782e-05, 117198
-2551.74, 153341, -304.555, 3.80143, -755.268, 0.61506, 0.336365, 0.958125, 0.351078, 0.648177, 3, 182, 246, 44.4059, 0.186734, 1.30565, 1, 1, 0, -4.17779e-06, 117198
-9733, 87190.4, -45.0373, 2.97528, -1142.69, 0.0208967, 0.233015, 1.03299, 0.34851, 0.655882, 0.0001, 45.5, 246, 25.3214, 0.0859693, 0, 0, 1, 0, 8.89122e-06, 117204
-9733, 87190.4, -45.0373, 2.97528, -1142.69, 0.0208967, 0.233015, 1.03299, 0.34851, 0.655882, 3, 45.5, 246, 25.3214, 0.0859693, 0, 0, 1, 0, 2.06918e-06, 117204
-8575.05, 110124, -81.1601, 3.22446, -1155.35, 0.0633162, 0.232967, 0.993198, 0.349787, 0.651995, 0.0001, 91, 246, 25.3214, 0.0859693, 0, 0, 1, 0, -1.80127e-05, 117204
-8575.05, 110124, -81.1601, 3.22446, -1155.35, 0.0633162, 0.232967, 0.993198, 0.349787, 0.651995, 3, 91, 246, 25.3214, 0.0859693, 0, 0, 1, 0, 5.28283e-06, 117204
-8260.52, -6018.7, -1.90604, 1.80853, -772.917, 0.520704, 0.30926, 1.03299, 0.34851, 0.655882, 0.0001, 45.5, 246, 11.6078, 0.0505101, 0, 0, 1, 0, -4.54177e-05, 117205
-8260.52, -6018.7, -1.90604, 1.80853, -772.917, 0.520704, 0.30926, 1.03299, 0.34851, 0.655882, 3, 45.5, 246, 11.6078, 0.0505101, 0, 0, 1, 0, 9.13629e-06, 117205
-9169.92, 309067, -128.464, 1.86672, -805.326, 0.0158089, 0.283999, 0.958125, 0.351078, 0.648177, 3, 182, 246, 22.984, 0.0781412, 0, 0, 1, 0, -1.53398e-05, 117209
-5443.4, 40930.9, -121.606, 3.52323, -1136.9, 0.40703, 0.23601, 0.993198, 0.349787, 0.651995, 3, 91, 246, 39.0566, 0.0862892, 0, 0, 1, 0, -1.30011e-05, 117211
-1822.69, 112138, -267.166, 4.66351, -1430.35, 0.678327, 0.33509, 0.9175, 0.352806, 0.64323, 0.0001, 455, 246, 39.0566, 0.0862892, 1.69864, 1, 1, 0, 1.48656e-05, 117211
-1822.69, 112138, -267.166, 4.66351, -1430.35, 0.678327, 0.33509, 0.9175, 0.352806, 0.64323, 3, 455, 246, 39.0566, 0.0862892, 1.67227, 1, 1, 0, 1.25272e-06, 117211
-7264.34, 186308, -258.35, 3.90112, -898.019, 0.377894, 0.26177, 0.993198, 0.349787, 0.651995, 3, 91, 246, 40.9891, 0.16167, 0, 0, 1, 0, 1.75746e-05, 117214
-3086.17, 207445, -320.3, 4.39165, -993.27, 0.482102, 0.304529, 0.958125, 0.351078, 0.648177, 0.0001, 182, 246, 40.9891, 0.16167, 1.37549, 1, 0, 0, 5.67162e-05, 117214
-3086.17, 207445, -320.3, 4.39165, -993.27, 0.482102, 0.304529, 0.958125, 0.351078, 0.648177, 3, 182, 246, 40.9891, 0.16167, 1.17667, 1, 0, 0, -1.46368e-05, 117214
-20654.3, 316822, -137.194, 3.39828, -725.148, -0.00430391, 0.181863, 1.03299, 0.34851, 0.655882, 0.0001, 45.5, 246, 26.1001, 0.0885607, 0, 0, 0, 0, 4.84122e-05, 117215
-20654.3, 316822, -137.194, 3.39828, -725.148, -0.00430391, 0.181863, 1.03299, 0.34851, 0.655882, 3, 45.5, 246, 26.1001, 0.0885607, 0, 0, 0, 0, -8.26619e-06, 117215
-11095.2, 235408, -171.625, 1.58041, -771.478, -0.00329316, 0.406553, 1.03299, 0.34851, 0.655882, 3, 45.5, 246, 33.205, 0.163269, 0, 0, 1, 0, 5.9165e-07, 117218
-10625.2, 159861, -104.648, 1.89367, -630.314, -0.00988638, 0.332711, 1.03299, 0.34851, 0.655882, 0.0001, 45.5, 246, 26.2314, 0.122741, 0, 0, 1, 0, -5.22187e-06, 117221
88.9816, 236013, -317.522, 3.91929, -1136.83, 0.505256, 0.359472, 0.9175, 0.352806, 0.64323, 0.0001, 455, 246, 36.2257, 0.150797, 1.05003, 1, 0, 0, 2.27225e-05, 117224
88.9816, 236013, -317.522, 3.91929, -1136.83, 0.505256, 0.359472, 0.9175, 0.352806, 0.64323, 3, 455, 246, 36.2257, 0.150797, 1.29914, 1, 0, 0, -1.23513e-05, 117224
-7972.19, 265661, -398.761, 3.33547, -749.793, 0.268254, 0.480919, 0.993198, 0.349787, 0.651995, 0.0001, 91, 246, 49.0401, 0.236031, 1.23368, 1, 1, 0, -2.67095e-05, 117240
-7972.19, 265661, -398.761, 3.33547, -749.793, 0.268254, 0.480919, 0.993198, 0.349787, 0.651995, 3, 91, 246, 49.0401, 0.236031, 1.10554, 1, 1, 0, -1.18873e-05, 117240
-2265.75, 283811, -462.067, 3.71078, -827.107, 0.336989, 0.518633, 0.958125, 0.351078, 0.648177, 0.0001, 182, 246, 49.0401, 0.236031, 3.74517, 1, 0, 0, 171.898, 117240
-2265.75, 283811, -462.067, 3.71078, -827.107, 0.336989, 0.518633, 0.958125, 0.351078, 0.648177, 3, 182, 246, 49.0401, 0.236031, 3.38752, 1, 0, 0, 176.27, 117240
-11369.5, 517215, -51.6078, 0.456822, -686.816, 0.0174056, 0.342603, 1.03299, 0.34851, 0.655882, 0.0001, 45.5, 246, 16.6842, 0.0269266, 0, 0, 1, 0, -3.79105e-05, 117246
-11369.5, 517215, -51.6078, 0.456822, -686.816, 0.0174056, 0.342603, 1.03299, 0.34851, 0.655882, 3, 45.5, 246, 16.6842, 0.0269266, 0, 0, 1, 0, 1.58018e-07, 117246
-10568.1, 525982, -56.2757, 0.473292, -689.424, 0.0184058, 0.307415, 0.993198, 0.349787, 0.651995, 0.0001, 91, 246, 16.6842, 0.0269266, 0, 0, 1, 0, -4.42192e-06, 117246
-8773.98, 83900.8, -84.6721, 2.63873, -806.579, -0.0327516, 0.274222, 1.03299, 0.34851, 0.655882, 0.0001, 45.5, 246, 29.6395, 0.116527, 0, 0, 1, 0, 3.37113e-06, 117248
-8773.98, 83900.8, -84.6721, 2.63873, -806.579, -0.0327516, 0.274222, 1.03299, 0.34851, 0.655882, 3, 45.5, 246, 29.6395, 0.116527, 0, 0, 1, 0, 1.82427e-05, 117248
-9085.12, 77957.2, -33.9806, 1.07727, -808.455, 0.000997577, 0.341137, 1.03299, 0.34851, 0.655882, 0.0001, 45.5, 246, 18.6727, 0.0918684, 0, 0, 1, 0, -1.7231e-06, 117251
-9085.12, 77957.2, -33.9806, 1.07727, -808.455, 0.000997577, 0.341137, 1.03299, 0.34851, 0.655882, 3, 45.5, 246, 18.6727, 0.0918684, 0, 0, 1, 0, -3.27771e-06, 117251
-9796.27, 84071.5, -12.4537, 1.91337, -1194.73, -0.0169579, 0.300079, 1.03299, 0.34851, 0.655882, 0.0001, 45.5, 246, 18.2339, 0.0587988, 0, 0, 1, 0, -2.15025e-06, 117258
-9197.56, 108748, -34.5153, 2.03072, -1194.32, 0.000121661, 0.278559, 0.993198, 0.349787, 0.651995, 0.0001, 91, 246, 18.2339, 0.0587988, 0, 0, 1, 0, -8.30583e-06, 117258
-9197.56, 108748, -34.5153, 2.03072, -1194.32, 0.000121661, 0.278559, 0.993198, 0.349787, 0.651995, 3, 91, 246, 18.2339, 0.0587988, 0, 0, 1, 0, 8.03183e-06, 117258
-2539.69, 243155, -368.464, 4.40741, -1058.64, 0.773248, 0.3427, 0.958125, 0.351078, 0.648177, 0.0001, 182, 246, 42.9648, 0.175819, 1.94546, 1, 0, 0, -7.23301e-06, 117260
-2539.69, 243155, -368.464, 4.40741, -1058.64, 0.773248, 0.3427, 0.958125, 0.351078, 0.648177, 3, 182, 246, 42.9648, 0.175819, 1.78434, 1, 0, 0, -1.87651e-05, 117260
-11493.8, 337437, -105.521, 0.918481, -791.642, 0.248361, 0.35928, 1.03299, 0.34851, 0.655882, 0.0001, 45.5, 246, 23.0754, 0.0771414, 0, 0, 1, 0, 0.000107533, 117266
-11493.8, 337437, -105.521, 0.918481, -791.642, 0.248361, 0.35928, 1.03299, 0.34851, 0.655882, 3, 45.5, 246, 23.0754, 0.0771414, 0, 0, 1, 0, -2.21603e-05, 117266
-10244, 353615, -117.061, 0.972209, -827.062, 0.262588, 0.328391, 0.993198, 0.349787, 0.651995, 3, 91, 246, 23.0754, 0.0771414, 0, 0, 1, 0, -7.31837e-05, 117266
-9444.2, 165229, -168.913, 2.25222, -1061.33, -0.0238827, 0.383962, 1.03299, 0.34851, 0.655882, 0.0001, 45.5, 246, 40.8694, 0.192094, 0, 0, 0, 0, -4.97469e-06, 117267
-9444.2, 165229, -168.913, 2.25222, -1061.33, -0.0238827, 0.383962, 1.03299, 0.34851, 0.655882, 3, 45.5, 246, 40.8694, 0.192094, 0, 0, 1, 0, -6.906e-06, 117267
733.393, 413889, -429.007, 3.18828, -807.199, 0.0895849, 0.45324, 0.9175, 0.352806, 0.64323, 3, 455, 246, 36.2856, 0.166048, 0, 0, 0, 0, 1.66803e-05, 117272
-7654.94, -37781.6, -2.78107, 3.26125, -858.354, 0.00714549, 0.248833, 0.993198, 0.349787, 0.651995, 3, 91, 246, 5.34487, 0.0675683, 0, 0, 1, 1, -7.92013e-06, 117274
-14343.2, 205896, -108.864, 3.57142, -1132.54, -0.0614367, 0.17817, 1.03299, 0.34851, 0.655882, 0.0001, 45.5, 246, 31.8311, 0.101507, 0, 0, 0, 0, -2.53166e-06, 117275
-14343.2, 205896, -108.864, 3.57142, -1132.54, -0.0614367, 0.17817, 1.03299, 0.34851, 0.655882, 3, 45.5, 246, 31.8311, 0.101507, 0, 0, 0, 0, 2.9673e-06, 117275
1408.97, 288629, -315.985, 4.94471, -1242.31, 0.199994, 0.317922, 0.9175, 0.352806, 0.64323, 3, 455, 246, 31.8311, 0.101507, 0, 0, 0, 0, -5.99819e-06, 117275
-10973.8, 176761, -133.327, 1.90303, -597.82, 0.50473, 0.344418, 1.03299, 0.34851, 0.655882, 0.0001, 45.5, 246, 28.1904, 0.133326, 0, 0, 1, 0, 2.73388e-05, 117280
-11464.6, 884303, -64.0602, 0.290684, -1002.67, 0.327963, 0.343451, 1.03299, 0.34851, 0.655882, 0.0001, 45.5, 246, 25.0667, 0.0181668, 0, 0, 1, 0, 6.05806e-06, 117284
-11464.6, 884303, -64.0602, 0.290684, -1002.67, 0.327963, 0.343451, 1.03299, 0.34851, 0.655882, 3, 45.5, 246, 25.0667, 0.0181668, 0, 0, 1, 0, -1.79371e-05, 117284
-8597.95, 132363, -87.3056, 0.365979, -1102.8, -0.000610775, 0.401871, 1.03299, 0.34851, 0.655882, 0.0001, 45.5, 246, 29.6981, 0.17723, 0, 0, 1, 0, 0.000143889, 117290
-8597.95, 132363, -87.3056, 0.365979, -1102.8, -0.000610775, 0.401871, 1.03299, 0.34851, 0.655882, 3, 45.5, 246, 29.6981, 0.17723, 0, 0, 1, 0, 0.000105147, 117290
-8984.23, 512718, -417.909, 0.192942, -795.426, 0.423966, 0.657285, 1.03299, 0.34851, 0.655882, 3, 45.5, 246, 39.9634, 0.20398, 0, 0, 0, 0, 4.01663e-05, 117291
-4414.72, 57807.3, -168.187, 3.27451, -667.526, 0.492523, 0.2202, 1.03299, 0.34851, 0.655882, 0.0001, 45.5, 246, 47.7248, 0.13383, 1.30892, 1, 1, 0, -4.83588e-06, 117299
-4414.72, 57807.3, -168.187, 3.27451, -667.526, 0.492523, 0.2202, 1.03299, 0.34851, 0.655882, 3, 45.5, 246, 47.7248, 0.13383, 1.14362, 1, 1, 0, 2.16514e-05, 117299
-3241.9, 68693.4, -205.348, 3.6658, -744.665, 0.591363, 0.230245, 0.993198, 0.349787, 0.651995, 0.0001, 91, 246, 47.7248, 0.13383, 1.31135, 1, 1, 0, 1.13161e-05, 117299
-3241.9, 68693.4, -205.348, 3.6658, -744.665, 0.591363, 0.230245, 0.993198, 0.349787, 0.651995, 3, 91, 246, 47.7248, 0.13383, 1.15982, 1, 1, 0, 1.11884e-05, 117299
-1541.35, 83164.8, -253.358, 4.15524, -850.614, 0.726287, 0.262488, 0.958125, 0.351078, 0.648177, 0.0001, 182, 246, 47.7248, 0.13383, 1.53875, 1, 1, 0, 3.9863e-06, 117299
-1541.35, 83164.8, -253.358, 4.15524, -850.614, 0.726287, 0.262488, 0.958125, 0.351078, 0.648177, 3, 182, 246, 47.7248, 0.13383, 1.40672, 1, 1, 0, -2.71832e-06, 117299
2049.99, 111993, -344.019, 5.04744, -1067.75, 1.00066, 0.35069, 0.9175, 0.352806, 0.64323, 0.0001, 455, 246, 47.7248, 0.13383, 3.12325, 1, 1, 0, -1.14435e-05, 117299
2049.99, 111993, -344.019, 5.04744, -1067.75, 1.00066, 0.35069, 0.9175, 0.352806, 0.64323, 3, 455, 246, 47.7248, 0.13383, 3.12349, 1, 1, 0, -1.16713e-05, 117299
-5787.34, 902870, -433.907, 0.0843816, -1046.97, 0.00111611, 0.539523, 1.03299, 0.34851, 0.655882, 3, 45.5, 246, 38.618, 0.124145, 0, 0, 0, 0, -0.000673257, 117301
-7967.66, 254246, -380.545, 3.26909, -689.3, 0.00480781, 0.47333, 0.993198, 0.349787, 0.651995, 0.0001, 91, 246, 48.5669, 0.237173, 1.17217, 1, 1, 0, -7.38152e-06, 117314
-7967.66, 254246, -380.545, 3.26909, -689.3, 0.00480781, 0.47333, 0.993198, 0.349787, 0.651995, 3, 91, 246, 48.5669, 0.237173, 1.02617, 1, 1, 0, -1.0054e-05, 117314
-2755.24, 266073, -438.11, 3.5783, -729.481, 0.0563361, 0.507276, 0.958125, 0.351078, 0.648177, 0.0001, 182, 246, 48.5669, 0.237173, 2.36274, 1, 0, 0, -6.13029e-06, 117314
-2755.24, 266073, -438.11, 3.5783, -729.481, 0.0563361, 0.507276, 0.958125, 0.351078, 0.648177, 3, 182, 246, 48.5669, 0.237173, 2.18713, 1, 0, 0, -1.35709e-05, 117314
-11341.7, 125957, 6.22869, 2.05069, -873.029, 0.627438, 0.275627, 1.03299, 0.34851, 0.655882, 0.0001, 45.5, 246, 13.1523, 0.0232497, 0, 0, 1, 0, -3.2779e-05, 117317
-11341.7, 125957, 6.22869, 2.05069, -873.029, 0.627438, 0.275627, 1.03299, 0.34851, 0.655882, 3, 45.5, 246, 13.1523, 0.0232497, 0, 0, 1, 0, 4.49558e-05, 117317
-10331, 145207, -11.3123, 2.26162, -970.862, 0.719136, 0.255875, 0.993198, 0.349787, 0.651995, 0.0001, 91, 246, 13.1523, 0.0232497, 0, 0, 1, 0, -8.18007e-05, 117317
-11561.5, 343738, -53.9839, 0.816795, -812.1, -0.003058, 0.33979, 1.03299, 0.34851, 0.655882, 0.0001, 45.5, 246, 18.88, 0.0429655, 0, 0, 1, 0, 4.11107e-05, 117319
-11561.5, 343738, -53.9839, 0.816795, -812.1, -0.003058, 0.33979, 1.03299, 0.34851, 0.655882, 3, 45.5, 246, 18.88, 0.0429655, 0, 0, 1, 0, 5.16988e-05, 117319
-10543.5, 355200, -62.3073, 0.850827, -813.178, -5.13378e-06, 0.306574, 0.993198, 0.349787, 0.651995, 0.0001, 91, 246, 18.88, 0.0429655, 0, 0, 1, 0, -3.37326e-05, 117319
-10543.5, 355200, -62.3073, 0.850827, -813.178, -5.13378e-06, 0.306574, 0.993198, 0.349787, 0.651995, 3, 91, 246, 18.88, 0.0429655, 0, 0, 1, 0, 5.78875e-06, 117319
-5535.34, 435050, -551.314, 3.11736, -820.25, 0.180499, 0.656119, 0.958125, 0.351078, 0.648177, 0.0001, 182, 246, 46.9176, 0.23406, 1.20995, 1, 0, 0, -4.69743e-05, 117325
-5535.34, 435050, -551.314, 3.11736, -820.25, 0.180499, 0.656119, 0.958125, 0.351078, 0.648177, 3, 182, 246, 46.9176, 0.23406, 1.49788, 1, 0, 0, 4.36712e-05, 117325
-11356.9, 105539, 6.91539, 2.68177, -932.574, 0.732902, 0.226143, 1.03299, 0.34851, 0.655882, 0.0001, 45.5, 246, 14.7002, 0.0313005, 0, 0, 0, 0, -2.56747e-07, 117332
-11356.9, 105539, 6.91539, 2.68177, -932.574, 0.732902, 0.226143, 1.03299, 0.34851, 0.655882, 3, 45.5, 246, 14.7002, 0.0313005, 0, 0, 0, 0, -1.88263e-07, 117332
-10164.3, 127187, -18.2269, 3.00998, -1058.21, 0.869081, 0.218791, 0.993198, 0.349787, 0.651995, 0.0001, 91, 246, 14.7002, 0.0313005, 0, 0, 1, 0, 5.03841e-05, 117332
-10164.3, 127187, -18.2269, 3.00998, -1058.21, 0.869081, 0.218791, 0.993198, 0.349787, 0.651995, 3, 91, 246, 14.7002, 0.0313005, 0, 0, 1, 0, -2.47141e-05, 117332
-7236.98, 721039, -355.545, 0.156123, -937.628, 0.0430714, 0.509042, 1.03299, 0.34851, 0.655882, 0.0001, 45.5, 246, 35.2848, 0.12728, 0, 0, 0, 0, -1.69199e-05, 117335
-7236.98, 721039, -355.545, 0.156123, -937.628, 0.0430714, 0.509042, 1.03299, 0.34851, 0.655882, 3, 45.5, 246, 35.2848, 0.12728, 0, 0, 0, 0, 6.34662e-05, 117335
-2907.88, 727734, -253.442, 1.61817, -1296.55, 0.283352, 0.2932, 0.9175, 0.352806, 0.64323, 3, 455, 246, 31.4548, 0.0709452, 0, 0, 0, 0, -0.000144601, 117336
-7526.67, 201877, -237.921, 1.82218, -962.543, 0.00583545, 0.470756, 0.993198, 0.349787, 0.651995, 0.0001, 91, 246, 45.0229, 0.245293, 0, 0, 1, 0, -7.54508e-06, 117341
-7109.9, 824675, -275.267, 0.1632, -990.603, 0.214837, 0.425129, 1.03299, 0.34851, 0.655882, 0.0001, 45.5, 246, 32.018, 0.08239, 0, 0, 0, 0, -0.000190913, 117342
-7109.9, 824675, -275.267, 0.1632, -990.603, 0.214837, 0.425129, 1.03299, 0.34851, 0.655882, 3, 45.5, 246, 32.018, 0.08239, 0, 0, 0, 0, -0.000109755, 117342
-12692.4, 846250, -5.98984, 0.295703, -964.736, 0.669025, 0.338752, 1.03299, 0.34851, 0.655882, 0.0001, 45.5, 246, 22.3703, 0.00273441, 0, 0, 1, 0, -1.30737e-05, 117344
-12692.4, 846250, -5.98984, 0.295703, -964.736, 0.669025, 0.338752, 1.03299, 0.34851, 0.655882, 3, 45.5, 246, 22.3703, 0.00273441, 0, 0, 1, 0, -5.43717e-05, 117344
-10653.2, 225699, -300.491, 2.32873, -776.144, 0.655708, 0.492524, 1.03299, 0.34851, 0.655882, 0.0001, 45.5, 246, 47.3002, 0.236702, 0, 0, 0, 0, 2.08314e-05, 117349
-10653.2, 225699, -300.491, 2.32873, -776.144, 0.655708, 0.492524, 1.03299, 0.34851, 0.655882, 3, 45.5, 246, 47.3002, 0.236702, 0, 0, 0, 0, -1.44629e-05, 117349
-12339.2, 151530, -52.3698, 3.10169, -1038.93, -0.0459432, 0.209451, 1.03299, 0.34851, 0.655882, 0.0001, 45.5, 246, 24.3802, 0.0741211, 0, 0, 0, 0, -1.96059e-05, 117357
-12339.2, 151530, -52.3698, 3.10169, -1038.93, -0.0459432, 0.209451, 1.03299, 0.34851, 0.655882, 3, 45.5, 246, 24.3802, 0.0741211, 0, 0, 0, 0, 2.56537e-05, 117357
-7624.07, 188881, -128.445, 3.65135, -1055.21, 0.0537951, 0.229394, 0.958125, 0.351078, 0.648177, 0.0001, 182, 246, 24.3802, 0.0741211, 0, 0, 1, 0, -7.74205e-07, 117357
-7624.07, 188881, -128.445, 3.65135, -1055.21, 0.0537951, 0.229394, 0.958125, 0.351078, 0.648177, 3, 182, 246, 24.3802, 0.0741211, 0, 0, 1, 0, 1.19558e-05, 117357
-8729.92, 24441.5, -10.4596, 1.27383, -904.607, 0.658292, 0.3291, 1.03299, 0.34851, 0.655882, 0.0001, 45.5, 246, 14.2285, 0.0709236, 0, 0, 1, 0, 6.60657e-06, 117360
-8729.92, 24441.5, -10.4596, 1.27383, -904.607, 0.658292, 0.3291, 1.03299, 0.34851, 0.655882, 3, 45.5, 246, 14.2285, 0.0709236, 0, 0, 1, 0, 1.09846e-05, 117360
-9002.01, 152630, -174.164, 2.2462, -956.985, -0.0235243, 0.389753, 1.03299, 0.34851, 0.655882, 0.0001, 45.5, 246, 41.996, 0.20487, 0, 0, 1, 0, 1.30361e-05, 117363
-9002.01, 152630, -174.164, 2.2462, -956.985, -0.0235243, 0.389753, 1.03299, 0.34851, 0.655882, 3, 45.5, 246, 41.996, 0.20487, 0, 0, 1, 0, -8.5735e-06, 117363
-3566, 66643.4, -181.283, 3.15008, -985.569, 0.107411, 0.282029, 0.993198, 0.349787, 0.651995, 0.0001, 91, 246, 53.1754, 0.17546, 1.14335, 1, 1, 0, 7.77722e-06, 117371
-2172.04, 85423.9, -226.839, 3.44063, -1024.14, 0.15777, 0.297635, 0.958125, 0.351078, 0.648177, 0.0001, 182, 246, 53.1754, 0.17546, 1.49059, 1, 1, 0, 6.25787e-06, 117371
-2172.04, 85423.9, -226.839, 3.44063, -1024.14, 0.15777, 0.297635, 0.958125, 0.351078, 0.648177, 3, 182, 246, 53.1754, 0.17546, 1.33272, 1, 1, 0, 5.80207e-06, 117371
732.303, 114451, -302.219, 3.91299, -1101.92, 0.244278, 0.343632, 0.9175, 0.352806, 0.64323, 0.0001, 455, 246, 53.1754, 0.17546, 3.53319, 1, 0, 0, -8.4459e-06, 117371
732.303, 114451, -302.219, 3.91299, -1101.92, 0.244278, 0.343632, 0.9175, 0.352806, 0.64323, 3, 455, 246, 53.1754, 0.17546, 3.53339, 1, 0, 0, 9.49025e-06, 117371
-7572.72, 739574, -46.8407, 2.01052, -1015.97, 0.870469, 0.23063, 0.9175, 0.352806, 0.64323, 3, 455, 246, 15.5651, 0.00552408, 0, 0, 0, 0, 2.45567e-05, 117372
-7053.15, 152374, -246.842, 3.47275, -1094.76, 0.160604, 0.320788, 1.03299, 0.34851, 0.655882, 0.0001, 45.5, 246, 52.1556, 0.217689, 1.15711, 1, 0, 0, -7.16874e-06, 117375
-7053.15, 152374, -246.842, 3.47275, -1094.76, 0.160604, 0.320788, 1.03299, 0.34851, 0.655882, 3, 45.5, 246, 52.1556, 0.217689, 1.01642, 1, 0, 0, -1.0072e-05, 117375
-3888.76, 177189, -307.913, 3.84049, -1155.42, 0.225011, 0.343597, 0.993198, 0.349787, 0.651995, 0.0001, 91, 246, 52.1556, 0.217689, 1.45584, 1, 1, 0, 9.65188e-06, 117375
-3888.76, 177189, -307.913, 3.84049, -1155.42, 0.225011, 0.343597, 0.993198, 0.349787, 0.651995, 3, 91, 246, 52.1556, 0.217689, 1.32392, 1, 1, 0, -4.45616e-07, 117375
-11011.9, 682284, -55.836, 0.359367, -1169.69, 0.0737617, 0.343302, 1.03299, 0.34851, 0.655882, 0.0001, 45.5, 246, 26.7065, 0.0218907, 0, 0, 1, 0, -1.94597e-05, 117378
-11011.9, 682284, -55.836, 0.359367, -1169.69, 0.0737617, 0.343302, 1.03299, 0.34851, 0.655882, 3, 45.5, 246, 26.7065, 0.0218907, 0, 0, 1, 0, 1.13114e-05, 117378
-10142.5, 709324, -61.539, 0.372791, -1184.11, 0.0752269, 0.307791, 0.993198, 0.349787, 0.651995, 3, 91, 246, 26.7065, 0.0218907, 0, 0, 1, 0, 1.10765e-05, 117378
-9033.68, 496524, -552.254, 4.13719, -766.225, 0.162153, 0.501312, 0.958125, 0.351078, 0.648177, 3, 182, 246, 41.2668, 0.188768, 0, 0, 0, 0, -0.000449791, 117380
-10331.4, 171069, -138.505, 1.97964, -918.134, 0.775707, 0.351719, 1.03299, 0.34851, 0.655882, 0.0001, 45.5, 246, 33.2884, 0.144644, 0, 0, 1, 0, -4.44441e-06, 117381
-10331.4, 171069, -138.505, 1.97964, -918.134, 0.775707, 0.351719, 1.03299, 0.34851, 0.655882, 3, 45.5, 246, 33.2884, 0.144644, 0, 0, 1, 0, -2.16325e-05, 117381
-8704.87, 196248, -166.211, 2.2045, -1057, 0.905963, 0.33604, 0.993198, 0.349787, 0.651995, 3, 91, 246, 33.2884, 0.144644, 0, 0, 1, 0, -1.51442e-05, 117381
-5500.8, 42071.1, -110.333, 3.60533, -1097.3, -0.0619141, 0.198402, 1.03299, 0.34851, 0.655882, 0.0001, 45.5, 246, 41.6366, 0.119954, 0, 0, 1, 0, -9.572e-06, 117387
-5500.8, 42071.1, -110.333, 3.60533, -1097.3, -0.0619141, 0.198402, 1.03299, 0.34851, 0.655882, 3, 45.5, 246, 41.6366, 0.119954, 0, 0, 1, 0, -1.04306e-05, 117387
-3016.5, 85597.1, -216.834, 4.33433, -1132.02, 0.0757289, 0.256702, 0.958125, 0.351078, 0.648177, 0.0001, 182, 246, 41.6366, 0.119954, 1.14233, 1, 1, 0, 8.32464e-06, 117387
529.786, 119631, -316.232, 5.01918, -1208.6, 0.206101, 0.34918, 0.9175, 0.352806, 0.64323, 0.0001, 455, 246, 41.6366, 0.119954, 2.48337, 1, 0, 0, 1.77219e-05, 117387
529.786, 119631, -316.232, 5.01918, -1208.6, 0.206101, 0.34918, 0.9175, 0.352806, 0.64323, 3, 455, 246, 41.6366, 0.119954, 2.48367, 1, 0, 0, 1.09948e-05, 117387
-9669.08, 439009, -97.8029, 1.04676, -834.559, 0.0831279, 0.281922, 0.958125, 0.351078, 0.648177, 3, 182, 246, 20.702, 0.0491427, 0, 0, 1, 0, -1.62171e-05, 117389
-9470.58, 482079, -152.121, 0.496419, -1094.32, 0.0136953, 0.384953, 1.03299, 0.34851, 0.655882, 0.0001, 45.5, 246, 29.864, 0.080921, 0, 0, 0, 0, -3.50071e-05, 117394
-9470.58, 482079, -152.121, 0.496419, -1094.32, 0.0136953, 0.384953, 1.03299, 0.34851, 0.655882, 3, 45.5, 246, 29.864, 0.080921, 0, 0, 0, 0, -2.05365e-05, 117394
-8404.43, 503918, -162.71, 0.515183, -1098.89, 0.0148507, 0.353108, 0.993198, 0.349787, 0.651995, 3, 91, 246, 29.864, 0.080921, 0, 0, 1, 0, -1.12959e-05, 117394
-7823.13, 90071, -122.586, 2.10875, -1094.59, 0.0265407, 0.366664, 1.03299, 0.34851, 0.655882, 3, 45.5, 246, 41.5752, 0.211459, 0, 0, 1, 0, -8.95006e-06, 117395
-3037.66, 251860, -394.818, 3.70912, -808.074, 0.172961, 0.437141, 0.958125, 0.351078, 0.648177, 0.0001, 182, 246, 45.9755, 0.213799, 1.81355, 1, 0, 0, -4.50037e-06, 117398
-3037.66, 251860, -394.818, 3.70912, -808.074, 0.172961, 0.437141, 0.958125, 0.351078, 0.648177, 3, 182, 246, 45.9755, 0.213799, 1.64549, 1, 0, 0, 9.69211e-06, 117398
-11218.5, 646881, -438.365, 4.27368, -1308.57, 0.472258, 0.315584, 0.958125, 0.351078, 0.648177, 3, 182, 246, 39.219, 0.120006, 0, 0, 0, 0, -0.000742378, 117414
-5367.4, 619498, -140.519, 4.58217, -678.736, 0.231599, 0.212405, 0.9175, 0.352806, 0.64323, 3, 455, 246, 16.0927, 0.0243903, 0, 0, 0, 0, 4.75344e-05, 117416
-7059.43, 659488, -472.759, 0.0103676, -912.047, 0.0681682, 0.668447, 1.03299, 0.34851, 0.655882, 0.0001, 45.5, 246, 41.3079, 0.188212, 0, 0, 0, 0, -2.41073e-05, 117419
-7059.43, 659488, -472.759, 0.0103676, -912.047, 0.0681682, 0.668447, 1.03299, 0.34851, 0.655882, 3, 45.5, 246, 41.3079, 0.188212, 0, 0, 0, 0, 1.99586e-05, 117419
-10649.4, 182799, -95.9398, 1.82428, -1171.86, 0.0751881, 0.339203, 1.03299, 0.34851, 0.655882, 3, 45.5, 246, 30.1788, 0.11509, 0, 0, 1, 0, -1.86268e-05, 117430
-7275.93, 234804, -151.309, 2.07462, -1219.35, 0.111213, 0.306131, 0.958125, 0.351078, 0.648177, 0.0001, 182, 246, 30.1788, 0.11509, 0, 0, 1, 0, -2.00429e-05, 117430
-5548.41, 973052, -310.369, 0.0647864, -1014.16, 0.0728856, 0.432998, 1.03299, 0.34851, 0.655882, 0.0001, 45.5, 246, 33.2288, 0.0802582, 0, 0, 0, 0, -0.000168112, 117431
-5548.41, 973052, -310.369, 0.0647864, -1014.16, 0.0728856, 0.432998, 1.03299, 0.34851, 0.655882, 3, 45.5, 246, 33.2288, 0.0802582, 0, 0, 0, 0, -3.86038e-05, 117431
-4535.51, 996876, -320.398, 0.0670129, -1026.53, 0.0737541, 0.40385, 0.993198, 0.349787, 0.651995, 3, 91, 246, 33.2288, 0.0802582, 0, 0, 1, 0, -3.49092e-05, 117431
-2538.83, 302511, -430.85, 4.18972, -1006.86, 0.119135, 0.42197, 0.958125, 0.351078, 0.648177, 0.0001, 182, 246, 46.6743, 0.200084, 0, 0, 0, 0, 1.25184e-05, 117437
-2538.83, 302511, -430.85, 4.18972, -1006.86, 0.119135, 0.42197, 0.958125, 0.351078, 0.648177, 3, 182, 246, 46.6743, 0.200084, 3.92178, 1, 0, 0, -1.05706e-05, 117437
-12449.2, 236542, -17.3055, 1.49411, -1139.84, 0.068608, 0.310441, 1.03299, 0.34851, 0.655882, 0.0001, 45.5, 246, 20.0559, 0.0335746, 0, 0, 1, 0, -1.11715e-05, 117445
-12449.2, 236542, -17.3055, 1.49411, -1139.84, 0.068608, 0.310441, 1.03299, 0.34851, 0.655882, 3, 45.5, 246, 20.0559, 0.0335746, 0, 0, 1, 0, 1.73403e-05, 117445
-11068.3, 260299, -34.1235, 1.58088, -1154.31, 0.079852, 0.282724, 0.993198, 0.349787, 0.651995, 3, 91, 246, 20.0559, 0.0335746, 0, 0, 1, 0, -3.90913e-06, 117445
-9604.01, 486692, -132.61, 0.626582, -949.044, 4.93917e-05, 0.334985, 0.993198, 0.349787, 0.651995, 3, 91, 246, 25.7792, 0.0678516, 0, 0, 1, 0, -3.13634e-05, 117450
-7252.4, 445907, -499.284, 4.14915, -922.836, 1.22345, 0.447077, 0.958125, 0.351078, 0.648177, 3, 182, 246, 38.4921, 0.17391, 1.22225, 1, 0, 0, -0.000201865, 117453
-9961.7, 434565, -339.33, 0.321754, -634.543, 0.167324, 0.596431, 1.03299, 0.34851, 0.655882, 0.0001, 45.5, 246, 36.129, 0.202447, 0, 0, 0, 0, 4.5588e-05, 117457
-9961.7, 434565, -339.33, 0.321754, -634.543, 0.167324, 0.596431, 1.03299, 0.34851, 0.655882, 3, 45.5, 246, 36.129, 0.202447, 0, 0, 0, 0, 5.40405e-05, 117457
-10641.8, 376930, -315.994, 0.954361, -944.269, 0.0849418, 0.583576, 1.03299, 0.34851, 0.655882, 0.0001, 45.5, 246, 42.5808, 0.213865, 0, 0, 0, 0, -2.3478e-06, 117460
-10641.8, 376930, -315.994, 0.954361, -944.269, 0.0849418, 0.583576, 1.03299, 0.34851, 0.655882, 3, 45.5, 246, 42.5808, 0.213865, 0, 0, 0, 0, -1.45444e-05, 117460
116.631, 527181, -395.032, 3.78723, -963.14, 1.23767, 0.381253, 0.9175, 0.352806, 0.64323, 3, 455, 246, 27.4648, 0.118083, 0, 0, 0, 0, -1.68975e-05, 117462
-8447.93, 50135.2, -45.3215, 3.50771, -698.538, -0.0539489, 0.169094, 1.03299, 0.34851, 0.655882, 0.0001, 45.5, 246, 21.2561, 0.0604424, 0, 0, 1, 0, -3.2874e-06, 117464
-8447.93, 50135.2, -45.3215, 3.50771, -698.538, -0.0539489, 0.169094, 1.03299, 0.34851, 0.655882, 3, 45.5, 246, 21.2561, 0.0604424, 0, 0, 1, 0, 2.0338e-06, 117464
-8041.1, -762.752, -18.8359, 2.81077, -1112.81, 0.496375, 0.262481, 0.993198, 0.349787, 0.651995, 3, 91, 246, 12.859, 0.0592042, 0, 0, 1, 0, 5.91387e-06, 117467
-7388.17, 63712.8, -110.932, 3.62664, -1401.42, 0.735425, 0.29793, 0.9175, 0.352806, 0.64323, 3, 455, 246, 12.859, 0.0592042, 0, 0, 1, 0, 1.73848e-05, 117467
-11548.3, 488713, -70.583, 0.64244, -1168.61, 0.0408768, 0.345456, 1.03299, 0.34851, 0.655882, 0.0001, 45.5, 246, 26.1869, 0.0391662, 0, 0, 1, 0, -1.5371e-06, 117474
-11548.3, 488713, -70.583, 0.64244, -1168.61, 0.0408768, 0.345456, 1.03299, 0.34851, 0.655882, 3, 45.5, 246, 26.1869, 0.0391662, 0, 0, 1, 0, 4.46244e-05, 117474
-3636.83, 250157, -360.782, 4.08652, -959.631, 1.12155, 0.359164, 0.958125, 0.351078, 0.648177, 0.0001, 182, 246, 40.6021, 0.175243, 1.34596, 1, 0, 0, -9.69937e-05, 117478
-3636.83, 250157, -360.782, 4.08652, -959.631, 1.12155, 0.359164, 0.958125, 0.351078, 0.648177, 3, 182, 246, 40.6021, 0.175243, 1.13799, 1, 0, 0, 4.6656e-05, 117478
-9224.88, 230222, -135.476, 1.33673, -907.233, 0.35646, 0.348688, 0.993198, 0.349787, 0.651995, 0.0001, 91, 246, 28.3521, 0.125801, 0, 0, 1, 0, 3.88831e-05, 117480
-9110.33, 273769, -390.224, 3.10737, -676.22, 0.589168, 0.47861, 0.993198, 0.349787, 0.651995, 0.0001, 91, 246, 45.424, 0.2243, 1.00248, 1, 1, 0, -2.23458e-05, 117481
-3646.07, 295438, -447.657, 3.50586, -786.775, 0.702497, 0.509333, 0.958125, 0.351078, 0.648177, 0.0001, 182, 246, 45.424, 0.2243, 1.91497, 1, 0, 0, 6.21933e-05, 117481
-3646.07, 295438, -447.657, 3.50586, -786.775, 0.702497, 0.509333, 0.958125, 0.351078, 0.648177, 3, 182, 246, 45.424, 0.2243, 1.74926, 1, 0, 0, -9.831e-05, 117481
-5728.55, 97528.9, -165.37, 3.68805, -1122.48, -0.000135402, 0.243169, 0.993198, 0.349787, 0.651995, 0.0001, 91, 246, 39.4895, 0.141998, 0, 0, 1, 0, -2.01253e-06, 117484
581.214, 155502, -315.095, 4.64288, -1217.33, 0.177591, 0.350814, 0.9175, 0.352806, 0.64323, 0.0001, 455, 246, 39.4895, 0.141998, 2.90725, 1, 0, 0, -8.16109e-06, 117484
581.214, 155502, -315.095, 4.64288, -1217.33, 0.177591, 0.350814, 0.9175, 0.352806, 0.64323, 3, 455, 246, 39.4895, 0.141998, 2.92237, 1, 0, 0, -4.80158e-06, 117484
-16234.5, 304661, -426.906, 3.50978, -619.296, -0.0529729, 0.493271, 1.03299, 0.34851, 0.655882, 0.0001, 45.5, 246, 51.5335, 0.2483, 1.1731, 1, 0, 0, -1.1944e-05, 117490
-16234.5, 304661, -426.906, 3.50978, -619.296, -0.0529729, 0.493271, 1.03299, 0.34851, 0.655882, 3, 45.5, 246, 51.5335, 0.2483, 1.12819, 1, 0, 0, 1.55313e-05, 117490
-9805.01, 314289, -491.47, 3.85773, -661.337, 0.00660415, 0.531332, 0.993198, 0.349787, 0.651995, 0.0001, 91, 246, 51.5335, 0.2483, 1.69959, 1, 1, 0, -1.27916e-05, 117490
-9805.01, 314289, -491.47, 3.85773, -661.337, 0.00660415, 0.531332, 0.993198, 0.349787, 0.651995, 3, 91, 246, 51.5335, 0.2483, 1.64579, 1, 1, 0, 1.60447e-05, 117490
-1802.63, 327875, -570.126, 4.28121, -722.65, 0.0794389, 0.592596, 0.958125, 0.351078, 0.648177, 0.0001, 182, 246, 51.5335, 0.2483, 0, 0, 0, 0, -7.17125e-06, 117490
-1802.63, 327875, -570.126, 4.28121, -722.65, 0.0794389, 0.592596, 0.958125, 0.351078, 0.648177, 3, 182, 246, 51.5335, 0.2483, 0, 0, 0, 0, 5.46756e-06, 117490
-12049.8, 113563, -4.46626, 3.652, -1037.51, -0.0642493, 0.133855, 1.03299, 0.34851, 0.655882, 0.0001, 45.5, 246, 18.4567, 0.0455014, 0, 0, 0, 0, -1.5388e-06, 117492
-12049.8, 113563, -4.46626, 3.652, -1037.51, -0.0642493, 0.133855, 1.03299, 0.34851, 0.655882, 3, 45.5, 246, 18.4567, 0.0455014, 0, 0, 0, 0, -8.1147e-06, 117492
-10233.4, 131416, -41.0773, 3.98259, -1034.36, -0.000181863, 0.150487, 0.993198, 0.349787, 0.651995, 0.0001, 91, 246, 18.4567, 0.0455014, 0, 0, 1, 0, 7.54136e-06, 117492
-10233.4, 131416, -41.0773, 3.98259, -1034.36, -0.000181863, 0.150487, 0.993198, 0.349787, 0.651995, 3, 91, 246, 18.4567, 0.0455014, 0, 0, 1, 0, 4.68202e-06, 117492
-1394.07, 98255.8, -271.536, 5.09736, -1086.4, 0.211437, 0.333117, 0.9175, 0.352806, 0.64323, 0.0001, 455, 246, 35.6247, 0.0954263, 1.38559, 1, 1, 0, -5.10544e-06, 117493
-1394.07, 98255.8, -271.536, 5.09736, -1086.4, 0.211437, 0.333117, 0.9175, 0.352806, 0.64323, 3, 455, 246, 35.6247, 0.0954263, 1.35004, 1, 1, 0, 7.69742e-06, 117493
-10113.5, 197909, -223.855, 2.67373, -1002.23, -0.0329489, 0.393893, 1.03299, 0.34851, 0.655882, 3, 45.5, 246, 44.9386, 0.206506, 0, 0, 0, 0, -8.84808e-06, 117500
