-11400.3, 96438.6, 13.9655, 3.33243, -801.271, 0.124155, 0.16518, 1.03299, 0.34851, 0.655882, 0.0001, 45.5, 246, 11.7718, 0.0247257, 0, 0, 0, 0, 6.77791e-06, 4001
-11400.3, 96438.6, 13.9655, 3.33243, -801.271, 0.124155, 0.16518, 1.03299, 0.34851, 0.655882, 3, 45.5, 246, 11.7718, 0.0247257, 0, 0, 0, 0, 1.32574e-05, 4001
819.198, 220438, -356.99, 3.87742, -908.502, 0.555605, 0.402892, 0.9175, 0.352806, 0.64323, 0.0001, 455, 246, 39.7441, 0.181338, 2.39095, 1, 0, 0, 3.75793e-05, 4010
819.198, 220438, -356.99, 3.87742, -908.502, 0.555605, 0.402892, 0.9175, 0.352806, 0.64323, 3, 455, 246, 39.7441, 0.181338, 2.43146, 1, 0, 0, -1.25166e-05, 4010
-1883, 67264.8, -248.724, 4.26336, -974.923, 0.967499, 0.309538, 0.9175, 0.352806, 0.64323, 0.0001, 455, 246, 47.747, 0.0636019, 1.4409, 1, 1, 0, 1.43874e-06, 4011
-1883, 67264.8, -248.724, 4.26336, -974.923, 0.967499, 0.309538, 0.9175, 0.352806, 0.64323, 3, 455, 246, 47.747, 0.0636019, 1.32728, 1, 1, 0, -1.28313e-05, 4011
-10440.2, 209083, -206.572, 1.64367, -745.038, 0.814344, 0.435247, 1.03299, 0.34851, 0.655882, 0.0001, 45.5, 246, 37.2825, 0.189392, 0, 0, 1, 0, 1.26413e-05, 4012
-10440.2, 209083, -206.572, 1.64367, -745.038, 0.814344, 0.435247, 1.03299, 0.34851, 0.655882, 3, 45.5, 246, 37.2825, 0.189392, 0, 0, 1, 0, -7.30671e-06, 4012
-7315.1, -570.205, -39.5895, 3.42845, -1160.42, -0.000153293, 0.237205, 0.993198, 0.349787, 0.651995, 0.0001, 91, 246, 19.4139, 0.056676, 0, 0, 1, 1, 1.11057e-05, 4014
-5674.98, 615925, -263.007, 0.129865, -1113.26, 0.502957, 0.411326, 0.993198, 0.349787, 0.651995, 0.0001, 91, 246, 33.1587, 0.104234, 0, 0, 1, 0, -2.70377e-05, 4016
-10127.9, 158465, -147.579, 2.09715, -684.548, 0.219891, 0.35309, 1.03299, 0.34851, 0.655882, 0.0001, 45.5, 246, 33.3562, 0.160145, 0, 0, 1, 0, 5.51643e-06, 4017
-10127.9, 158465, -147.579, 2.09715, -684.548, 0.219891, 0.35309, 1.03299, 0.34851, 0.655882, 3, 45.5, 246, 33.3562, 0.160145, 0, 0, 1, 0, -5.74735e-06, 4017
-10728.5, 438326, -380.034, 0.644114, -835.563, 0.00205182, 0.663074, 1.03299, 0.34851, 0.655882, 0.0001, 45.5, 246, 43.1453, 0.22947, 0, 0, 0, 0, -3.73457e-05, 4020
-10728.5, 438326, -380.034, 0.644114, -835.563, 0.00205182, 0.663074, 1.03299, 0.34851, 0.655882, 3, 45.5, 246, 43.1453, 0.22947, 0, 0, 0, 0, 1.87242e-05, 4020
-7993.06, 29176.2, -28.4551, 3.45625, -602.36, 0.686163, 0.206031, 0.993198, 0.349787, 0.651995, 3, 91, 246, 12.1307, 0.0325815, 0, 0, 1, 0, -1.9178e-06, 4022
-7613.17, 37231.3, -52.6179, 3.92057, -683.023, 0.836524, 0.229294, 0.958125, 0.351078, 0.648177, 0.0001, 182, 246, 12.1307, 0.0325815, 0, 0, 1, 0, -3.00259e-06, 4022
-7613.17, 37231.3, -52.6179, 3.92057, -683.023, 0.836524, 0.229294, 0.958125, 0.351078, 0.648177, 3, 182, 246, 12.1307, 0.0325815, 0, 0, 1, 0, 8.03262e-06, 4022
-6624.17, 53124.6, -100.378, 4.76913, -850.156, 1.14612, 0.301164, 0.9175, 0.352806, 0.64323, 0.0001, 455, 246, 12.1307, 0.0325815, 0, 0, 1, 0, 4.37145e-05, 4022
-6624.17, 53124.6, -100.378, 4.76913, -850.156, 1.14612, 0.301164, 0.9175, 0.352806, 0.64323, 3, 455, 246, 12.1307, 0.0325815, 0, 0, 1, 0, 5.06155e-05, 4022
-9785.99, 301240, -214.69, 1.02739, -1081.89, 0.0956936, 0.471742, 1.03299, 0.34851, 0.655882, 0.0001, 45.5, 246, 38.4306, 0.176766, 0, 0, 0, 0, -3.22265e-06, 4023
-9785.99, 301240, -214.69, 1.02739, -1081.89, 0.0956936, 0.471742, 1.03299, 0.34851, 0.655882, 3, 45.5, 246, 38.4306, 0.176766, 0, 0, 0, 0, -2.22404e-05, 4023
-9952.84, 68999.9, 6.97802, 2.67447, -853.708, 0.0190745, 0.240004, 1.03299, 0.34851, 0.655882, 0.0001, 45.5, 246, 12.0097, 0.0330239, 0, 0, 1, 0, -8.93568e-06, 4028
-9952.84, 68999.9, 6.97802, 2.67447, -853.708, 0.0190745, 0.240004, 1.03299, 0.34851, 0.655882, 3, 45.5, 246, 12.0097, 0.0330239, 0, 0, 1, 0, -4.7072e-06, 4028
-5289.44, 140256, -202.845, 2.34665, -1099.71, 0.585957, 0.369292, 0.958125, 0.351078, 0.648177, 3, 182, 246, 43.6725, 0.229982, 0, 0, 1, 0, -1.13589e-05, 4032
-3712, 171205, -290.862, 3.6336, -740.063, 0.16993, 0.339755, 0.958125, 0.351078, 0.648177, 0.0001, 182, 246, 41.9387, 0.183388, 1.03405, 1, 1, 0, -8.0377e-06, 4036
1563.57, 190328, -365.736, 4.16572, -819.568, 0.267677, 0.399586, 0.9175, 0.352806, 0.64323, 0.0001, 455, 246, 41.9387, 0.183388, 3.21042, 1, 0, 0, 6.07586e-06, 4036
1563.57, 190328, -365.736, 4.16572, -819.568, 0.267677, 0.399586, 0.9175, 0.352806, 0.64323, 3, 455, 246, 41.9387, 0.183388, 3.22862, 1, 0, 0, -7.50846e-06, 4036
-4786.03, 836326, -268.26, 0.0376075, -1130.19, 0.118421, 0.41999, 1.03299, 0.34851, 0.655882, 0.0001, 45.5, 246, 34.4446, 0.0793907, 0, 0, 0, 0, 2.40284e-05, 4040
-3370.97, 896641, -284.406, 0.0402663, -1174.71, 0.123039, 0.363675, 0.958125, 0.351078, 0.648177, 0.0001, 182, 246, 34.4446, 0.0793907, 0, 0, 0, 0, -2.40399e-05, 4040
-13068.2, 136356, -0.0328994, 3.48232, -1148.93, -0.0134027, 0.150929, 1.03299, 0.34851, 0.655882, 0.0001, 45.5, 246, 19.552, 0.0439447, 0, 0, 0, 0, -3.16463e-06, 4044
-13068.2, 136356, -0.0328994, 3.48232, -1148.93, -0.0134027, 0.150929, 1.03299, 0.34851, 0.655882, 3, 45.5, 246, 19.552, 0.0439447, 0, 0, 0, 0, 5.29662e-06, 4044
-10970.6, 158935, -38.3414, 3.79678, -1153.43, 0.0447173, 0.162511, 0.993198, 0.349787, 0.651995, 0.0001, 91, 246, 19.552, 0.0439447, 0, 0, 1, 0, -2.28202e-05, 4044
-10970.6, 158935, -38.3414, 3.79678, -1153.43, 0.0447173, 0.162511, 0.993198, 0.349787, 0.651995, 3, 91, 246, 19.552, 0.0439447, 0, 0, 1, 0, 1.1286e-05, 4044
-7766.13, 480627, -432.637, 0.0637308, -910.329, 0.334842, 0.717825, 1.03299, 0.34851, 0.655882, 0.0001, 45.5, 246, 44.57, 0.234078, 0, 0, 0, 0, -1188.77, 4047
-1586.17, 586111, -489.733, 0.0766027, -1107.59, 0.406335, 0.734728, 0.9175, 0.352806, 0.64323, 0.0001, 455, 246, 44.57, 0.234078, 2.93786, 1, 0, 0, -1060.65, 4047
-1586.17, 586111, -489.733, 0.0766027, -1107.59, 0.406335, 0.734728, 0.9175, 0.352806, 0.64323, 3, 455, 246, 44.57, 0.234078, 2.81728, 1, 0, 0, -1053.84, 4047
-14184.1, 370536, -465.361, 3.97699, -675.245, 0.184322, 0.439419, 0.993198, 0.349787, 0.651995, 0.0001, 91, 246, 44.5826, 0.20706, 1.25779, 1, 1, 0, -0.000100089, 4049
-14184.1, 370536, -465.361, 3.97699, -675.245, 0.184322, 0.439419, 0.993198, 0.349787, 0.651995, 3, 91, 246, 44.5826, 0.20706, 1.18969, 1, 1, 0, 6.84532e-06, 4049
-5857.96, -81841.2, 10.1591, 3.62662, -711.352, -0.0561185, 0.224401, 1.03299, 0.34851, 0.655882, 0.0001, 45.5, 246, 10.8413, 0.108882, 0, 0, 1, 0, 8.38075e-06, 4053
-5857.96, -81841.2, 10.1591, 3.62662, -711.352, -0.0561185, 0.224401, 1.03299, 0.34851, 0.655882, 3, 45.5, 246, 10.8413, 0.108882, 0, 0, 1, 0, 3.54711e-06, 4053
-8958.28, 81917, -71.0986, 3.56564, -1107.92, 0.00722533, 0.179259, 1.03299, 0.34851, 0.655882, 0.0001, 45.5, 246, 29.8534, 0.0981574, 0, 0, 0, 0, -1.31245e-06, 4056
-8958.28, 81917, -71.0986, 3.56564, -1107.92, 0.00722533, 0.179259, 1.03299, 0.34851, 0.655882, 3, 45.5, 246, 29.8534, 0.0981574, 0, 0, 0, 0, -1.05729e-05, 4056
-7550.98, 103519, -115.772, 3.90169, -1123.58, 0.0685616, 0.195506, 0.993198, 0.349787, 0.651995, 0.0001, 91, 246, 29.8534, 0.0981574, 0, 0, 1, 0, -7.98835e-06, 4056
-7550.98, 103519, -115.772, 3.90169, -1123.58, 0.0685616, 0.195506, 0.993198, 0.349787, 0.651995, 3, 91, 246, 29.8534, 0.0981574, 0, 0, 1, 0, 3.99601e-06, 4056
-1104.41, 162892, -263.735, 5.00573, -1244.65, 0.278464, 0.32227, 0.9175, 0.352806, 0.64323, 0.0001, 455, 246, 29.8534, 0.0981574, 1.00443, 1, 0, 0, -1.09136e-05, 4056
-1104.41, 162892, -263.735, 5.00573, -1244.65, 0.278464, 0.32227, 0.9175, 0.352806, 0.64323, 3, 455, 246, 29.8534, 0.0981574, 1.01653, 1, 0, 0, -8.32617e-06, 4056
-7983.72, -6477.47, -11.3181, 2.16927, -621.079, 0.0918991, 0.293183, 1.03299, 0.34851, 0.655882, 3, 45.5, 246, 14.9559, 0.0310544, 0, 0, 1, 1, 1.70183e-05, 4058
-8164.8, 485826, -399.768, 0.391061, -1075.02, 0.273005, 0.656721, 1.03299, 0.34851, 0.655882, 0.0001, 45.5, 246, 45.1629, 0.211411, 0, 0, 0, 0, 892.846, 4060
-8164.8, 485826, -399.768, 0.391061, -1075.02, 0.273005, 0.656721, 1.03299, 0.34851, 0.655882, 3, 45.5, 246, 45.1629, 0.211411, 0, 0, 0, 0, 893.92, 4060
309.388, 604826, -472.848, 0.471024, -1273.51, 0.321826, 0.651582, 0.9175, 0.352806, 0.64323, 0.0001, 455, 246, 45.1629, 0.211411, 2.94636, 1, 0, 0, 839.438, 4060
309.388, 604826, -472.848, 0.471024, -1273.51, 0.321826, 0.651582, 0.9175, 0.352806, 0.64323, 3, 455, 246, 45.1629, 0.211411, 2.81619, 1, 0, 0, 832.962, 4060
-10820, 120484, -84.8892, 3.65318, -881.344, -0.0430593, 0.157206, 1.03299, 0.34851, 0.655882, 0.0001, 45.5, 246, 27.6618, 0.0903409, 0, 0, 0, 0, -8.59972e-07, 4061
-10820, 120484, -84.8892, 3.65318, -881.344, -0.0430593, 0.157206, 1.03299, 0.34851, 0.655882, 3, 45.5, 246, 27.6618, 0.0903409, 0, 0, 0, 0, 2.13324e-05, 4061
-8812.85, 133678, -123.797, 3.99117, -890.143, 0.0210177, 0.175237, 0.993198, 0.349787, 0.651995, 0.0001, 91, 246, 27.6618, 0.0903409, 0, 0, 1, 0, 1.8679e-06, 4061
-8812.85, 133678, -123.797, 3.99117, -890.143, 0.0210177, 0.175237, 0.993198, 0.349787, 0.651995, 3, 91, 246, 27.6618, 0.0903409, 0, 0, 1, 0, -2.15303e-06, 4061
-6833.17, -11367.4, -8.37594, 3.47246, -991.453, 0.00261634, 0.190858, 1.03299, 0.34851, 0.655882, 0.0001, 45.5, 246, 18.7113, 0.0517633, 0, 0, 1, 1, 3.87367e-06, 4072
-6833.17, -11367.4, -8.37594, 3.47246, -991.453, 0.00261634, 0.190858, 1.03299, 0.34851, 0.655882, 3, 45.5, 246, 18.7113, 0.0517633, 0, 0, 1, 1, 2.28179e-06, 4072
-11988, 244022, -58.3034, 1.42307, -970.635, 0.319693, 0.324772, 1.03299, 0.34851, 0.655882, 0.0001, 45.5, 246, 22.2677, 0.061007, 0, 0, 1, 0, 3.68808e-06, 4077
-11988, 244022, -58.3034, 1.42307, -970.635, 0.319693, 0.324772, 1.03299, 0.34851, 0.655882, 3, 45.5, 246, 22.2677, 0.061007, 0, 0, 1, 0, -2.14636e-05, 4077
-8834.06, 290524, -93.5991, 1.63625, -1089.7, 0.378447, 0.276028, 0.958125, 0.351078, 0.648177, 3, 182, 246, 22.2677, 0.061007, 0, 0, 1, 0, 5.86143e-06, 4077
-166.02, 198620, -316.796, 4.34645, -917.474, 0.812149, 0.357408, 0.9175, 0.352806, 0.64323, 0.0001, 455, 246, 34.9012, 0.146147, 1.35906, 1, 0, 0, -2.20972e-05, 4095
-166.02, 198620, -316.796, 4.34645, -917.474, 0.812149, 0.357408, 0.9175, 0.352806, 0.64323, 3, 455, 246, 34.9012, 0.146147, 1.36674, 1, 0, 0, 2.2777e-05, 4095
-9898.89, 114512, -92.8713, 3.14455, -986.974, 0.0445187, 0.229004, 1.03299, 0.34851, 0.655882, 0.0001, 45.5, 246, 30.659, 0.110447, 0, 0, 0, 0, -6.28094e-06, 4099
-9898.89, 114512, -92.8713, 3.14455, -986.974, 0.0445187, 0.229004, 1.03299, 0.34851, 0.655882, 3, 45.5, 246, 30.659, 0.110447, 0, 0, 0, 0, -1.28876e-05, 4099
-8574.11, 54504.3, -50.243, 1.94884, -772.507, 0.0782202, 0.310561, 1.03299, 0.34851, 0.655882, 0.0001, 45.5, 246, 24.6369, 0.106011, 0, 0, 1, 0, -8.8924e-06, 4103
-7898.63, 186196, -143.059, 2.90157, -734.572, 0.159224, 0.267129, 0.958125, 0.351078, 0.648177, 3, 182, 246, 24.5782, 0.0971039, 0, 0, 1, 0, 1.51399e-05, 4104
-11706.9, 176251, -115.377, 2.75759, -976.45, -0.0199699, 0.275996, 1.03299, 0.34851, 0.655882, 0.0001, 45.5, 246, 31.2263, 0.11888, 0, 0, 0, 0, 1.78998e-06, 4116
-11706.9, 176251, -115.377, 2.75759, -976.45, -0.0199699, 0.275996, 1.03299, 0.34851, 0.655882, 3, 45.5, 246, 31.2263, 0.11888, 0, 0, 0, 0, 1.71105e-05, 4116
-8562.51, 160162, -196.316, 2.07859, -1147.3, 0.0925308, 0.4466, 1.03299, 0.34851, 0.655882, 0.0001, 45.5, 246, 46.8255, 0.24056, 0, 0, 0, 0, 2.03354e-05, 4118
-8562.51, 160162, -196.316, 2.07859, -1147.3, 0.0925308, 0.4466, 1.03299, 0.34851, 0.655882, 3, 45.5, 246, 46.8255, 0.24056, 0, 0, 0, 0, -1.75668e-05, 4118
-19766.9, -47547.6, -47.3724, 0.245866, -679.64, 0.682314, 0.320478, 0.993198, 0.349787, 0.651995, 0.0001, 91, 246, 529.872, 0.0445217, 0, 0, 1, 0, -0.00914622, 4120
-6514.49, -24971.2, -25.2231, 3.25042, -623.514, 0.134448, 0.216752, 1.03299, 0.34851, 0.655882, 3, 45.5, 246, 21.4622, 0.0212722, 0, 0, 1, 1, -9.27234e-06, 4133
-11850.2, 182546, -39.0503, 3.74334, -1098.01, 0.568343, 0.160515, 0.993198, 0.349787, 0.651995, 0.0001, 91, 246, 18.738, 0.0380054, 0, 0, 1, 0, -1.74772e-05, 4135
-11850.2, 182546, -39.0503, 3.74334, -1098.01, 0.568343, 0.160515, 0.993198, 0.349787, 0.651995, 3, 91, 246, 18.738, 0.0380054, 0, 0, 1, 0, -1.42586e-05, 4135
-8587.94, 211911, -84.9901, 4.23581, -1219.88, 0.701114, 0.191708, 0.958125, 0.351078, 0.648177, 0.0001, 182, 246, 18.738, 0.0380054, 0, 0, 0, 0, 1.85825e-05, 4135
-8587.94, 211911, -84.9901, 4.23581, -1219.88, 0.701114, 0.191708, 0.958125, 0.351078, 0.648177, 3, 182, 246, 18.738, 0.0380054, 0, 0, 0, 0, 5.26304e-05, 4135
-3656.65, 99113.2, -217.437, 3.86159, -902.519, 0.497886, 0.27172, 0.958125, 0.351078, 0.648177, 0.0001, 182, 246, 40.462, 0.138227, 1.01788, 1, 1, 0, 1.33129e-05, 4138
-218.749, 127054, -297.277, 4.562, -1057.94, 0.670357, 0.340538, 0.9175, 0.352806, 0.64323, 0.0001, 455, 246, 40.462, 0.138227, 1.93324, 1, 0, 0, -1.53518e-05, 4138
-218.749, 127054, -297.277, 4.562, -1057.94, 0.670357, 0.340538, 0.9175, 0.352806, 0.64323, 3, 455, 246, 40.462, 0.138227, 1.93292, 1, 0, 0, 1.15934e-05, 4138
-5631.25, 75472.6, -154.962, 3.32795, -1025.34, 0.190279, 0.248206, 1.03299, 0.34851, 0.655882, 0.0001, 45.5, 246, 46.4409, 0.167222, 1.06891, 1, 1, 0, 4.19109e-06, 4143
-4158.53, 96096.7, -202.456, 3.66814, -1078.25, 0.251556, 0.260926, 0.993198, 0.349787, 0.651995, 0.0001, 91, 246, 46.4409, 0.167222, 1.13169, 1, 1, 0, -4.98332e-06, 4143
-1927.33, 120250, -261.314, 4.07948, -1152.78, 0.330554, 0.29384, 0.958125, 0.351078, 0.648177, 0.0001, 182, 246, 46.4409, 0.167222, 1.56854, 1, 1, 0, -2.16359e-05, 4143
-1927.33, 120250, -261.314, 4.07948, -1152.78, 0.330554, 0.29384, 0.958125, 0.351078, 0.648177, 3, 182, 246, 46.4409, 0.167222, 1.41193, 1, 1, 0, -1.07194e-05, 4143
-7972.6, 283118, -231.221, 0.941899, -1060.59, 0.320412, 0.472355, 0.993198, 0.349787, 0.651995, 0.0001, 91, 246, 39.221, 0.201802, 0, 0, 1, 0, -4.2793e-06, 4145
-9952.22, 156747, -132.745, 2.40966, -1133.28, -0.0199133, 0.334723, 1.03299, 0.34851, 0.655882, 3, 45.5, 246, 36.4174, 0.154936, 0, 0, 0, 0, 6.59385e-06, 4146
-6454.92, 70235.1, -114.825, 4.38242, -941.03, 0.950034, 0.220923, 0.958125, 0.351078, 0.648177, 0.0001, 182, 246, 21.9557, 0.059021, 0, 0, 1, 0, 1.08944e-05, 4148
-6454.92, 70235.1, -114.825, 4.38242, -941.03, 0.950034, 0.220923, 0.958125, 0.351078, 0.648177, 3, 182, 246, 21.9557, 0.059021, 0, 0, 1, 0, -3.00066e-06, 4148
-6915.27, 10547.7, -50.7678, 2.81304, -942.509, 0.404651, 0.252585, 1.03299, 0.34851, 0.655882, 0.0001, 45.5, 246, 30.7491, 0.0683731, 0, 0, 1, 0, 1.09347e-05, 4156
-11363.8, 229209, -194.162, 1.77537, -755.969, 0.663951, 0.405202, 1.03299, 0.34851, 0.655882, 0.0001, 45.5, 246, 34.6503, 0.165562, 0, 0, 0, 0, 6.11658e-06, 4158
-9780.55, 59299, 12.823, 3.39895, -861.265, -0.0543212, 0.169824, 1.03299, 0.34851, 0.655882, 0.0001, 45.5, 246, 12.0723, 0.0327846, 0, 0, 1, 0, -1.76319e-06, 4159
-9780.55, 59299, 12.823, 3.39895, -861.265, -0.0543212, 0.169824, 1.03299, 0.34851, 0.655882, 3, 45.5, 246, 12.0723, 0.0327846, 0, 0, 1, 0, -5.33852e-06, 4159
-10758.4, 328285, -304.251, 0.915079, -760.577, 0.256761, 0.588466, 1.03299, 0.34851, 0.655882, 0.0001, 45.5, 246, 41.2055, 0.22899, 0, 0, 0, 0, 4.32103e-05, 4180
-10758.4, 328285, -304.251, 0.915079, -760.577, 0.256761, 0.588466, 1.03299, 0.34851, 0.655882, 3, 45.5, 246, 41.2055, 0.22899, 0, 0, 0, 0, -3.43904e-05, 4180
-13258.4, 140303, 4.54187, 3.33676, -894.43, 0.030312, 0.161429, 1.03299, 0.34851, 0.655882, 0.0001, 45.5, 246, 15.1336, 0.0304707, 0, 0, 0, 0, -7.33443e-06, 4186
-13258.4, 140303, 4.54187, 3.33676, -894.43, 0.030312, 0.161429, 1.03299, 0.34851, 0.655882, 3, 45.5, 246, 15.1336, 0.0304707, 0, 0, 0, 0, 8.71518e-06, 4186
-13127.9, 169915, -47.2852, 2.99609, -994.475, -0.0371739, 0.214229, 1.03299, 0.34851, 0.655882, 0.0001, 45.5, 246, 22.9131, 0.066251, 0, 0, 0, 0, -1.05269e-05, 4187
-13127.9, 169915, -47.2852, 2.99609, -994.475, -0.0371739, 0.214229, 1.03299, 0.34851, 0.655882, 3, 45.5, 246, 22.9131, 0.066251, 0, 0, 0, 0, -1.93748e-05, 4187
-9494.79, 197023, -301.863, 2.62686, -666.631, 0.327498, 0.468831, 1.03299, 0.34851, 0.655882, 0.0001, 45.5, 246, 49.8338, 0.249011, 1.06358, 1, 0, 0, 2.05391e-05, 4188
-6356.58, 210780, -344.087, 2.89501, -728.968, 0.38063, 0.477496, 0.993198, 0.349787, 0.651995, 0.0001, 91, 246, 49.8338, 0.249011, 1.08832, 1, 1, 0, 5.39808e-05, 4188
-2355.46, 228049, -394.994, 3.21243, -808.76, 0.4485, 0.500847, 0.958125, 0.351078, 0.648177, 0.0001, 182, 246, 49.8338, 0.249011, 1.83987, 1, 0, 0, 5.13183e-05, 4188
-2355.46, 228049, -394.994, 3.21243, -808.76, 0.4485, 0.500847, 0.958125, 0.351078, 0.648177, 3, 182, 246, 49.8338, 0.249011, 1.66703, 1, 0, 0, 1.18801e-05, 4188
-9335.27, 53174.5, 4.58275, 1.80769, -1055.35, -0.0101296, 0.302406, 1.03299, 0.34851, 0.655882, 0.0001, 45.5, 246, 12.3755, 0.0404902, 1.01883, 1, 1, 0, -3.75282e-06, 4189
-9055.34, 72406.5, -12.8831, 1.91551, -1055.1, 0.00508183, 0.279128, 0.993198, 0.349787, 0.651995, 0.0001, 91, 246, 12.3755, 0.0404902, 0, 0, 1, 0, -4.94182e-06, 4189
-11047.2, 199350, -178.439, 1.95117, -646.092, 0.329593, 0.38443, 1.03299, 0.34851, 0.655882, 0.0001, 45.5, 246, 33.7961, 0.167951, 0, 0, 1, 0, -6.06354e-05, 4211
-9103.73, 68522.2, -44.0315, 3.00212, -1012.79, 0.0261382, 0.229206, 1.03299, 0.34851, 0.655882, 0.0001, 45.5, 246, 24.2804, 0.0827106, 0, 0, 1, 0, -1.9286e-05, 4212
-8213.78, 86509.4, -76.6968, 3.25588, -1025.34, 0.069432, 0.229741, 0.993198, 0.349787, 0.651995, 0.0001, 91, 246, 24.2804, 0.0827106, 0, 0, 1, 0, -1.19358e-05, 4212
-8213.78, 86509.4, -76.6968, 3.25588, -1025.34, 0.069432, 0.229741, 0.993198, 0.349787, 0.651995, 3, 91, 246, 24.2804, 0.0827106, 0, 0, 1, 0, -6.46757e-06, 4212
-11826.2, 179788, -12.1952, 1.70929, -927.51, 0.105711, 0.299635, 1.03299, 0.34851, 0.655882, 3, 45.5, 246, 16.2368, 0.0332837, 0, 0, 1, 0, -2.7798e-06, 4216
1143.5, 301196, -349.089, 5.07467, -934.899, 0.612681, 0.344875, 0.9175, 0.352806, 0.64323, 3, 455, 246, 30.1336, 0.115624, 1.12589, 1, 0, 0, 1.38632e-05, 4226
-11597.8, 160882, -21.5669, 1.8851, -708.097, -0.0166174, 0.292025, 1.03299, 0.34851, 0.655882, 0.0001, 45.5, 246, 14.5167, 0.0401981, 0, 0, 1, 0, -8.72159e-06, 4228
-11597.8, 160882, -21.5669, 1.8851, -708.097, -0.0166174, 0.292025, 1.03299, 0.34851, 0.655882, 3, 45.5, 246, 14.5167, 0.0401981, 0, 0, 1, 0, -4.79516e-06, 4228
-28657.5, -844.916, -32.8899, 1.77354, -776.128, 0.242574, 0.953214, 1.03299, 0.34851, 0.655882, 3, 45.5, 246, 35.8319, 0.106193, 0, 0, 1, 1, 1.14602e-05, 4236
-32378, 37810.9, -100.848, 2.43186, -916.6, 0.350742, 1.16749, 0.9175, 0.352806, 0.64323, 3, 455, 246, 35.8319, 0.106193, 0, 0, 1, 1, -2.3719e-05, 4236
-10498.9, 117574, -88.0044, 3.45845, -853.167, -0.057501, 0.184035, 1.03299, 0.34851, 0.655882, 0.0001, 45.5, 246, 27.9457, 0.0949963, 0, 0, 0, 0, -1.21873e-05, 4247
-10498.9, 117574, -88.0044, 3.45845, -853.167, -0.057501, 0.184035, 1.03299, 0.34851, 0.655882, 3, 45.5, 246, 27.9457, 0.0949963, 0, 0, 0, 0, 5.80657e-06, 4247
-8660.33, 129815, -124.182, 3.76338, -859.225, -0.000184711, 0.196513, 0.993198, 0.349787, 0.651995, 0.0001, 91, 246, 27.9457, 0.0949963, 0, 0, 1, 0, -1.09026e-06, 4247
-8660.33, 129815, -124.182, 3.76338, -859.225, -0.000184711, 0.196513, 0.993198, 0.349787, 0.651995, 3, 91, 246, 27.9457, 0.0949963, 0, 0, 1, 0, -4.15121e-06, 4247
-9498.27, 50072.3, 22.8418, 3.61558, -845.926, 0.0286809, 0.142557, 1.03299, 0.34851, 0.655882, 0.0001, 45.5, 246, 10.331, 0.0280525, 0, 0, 0, 0, -7.7591e-06, 4251
-6573.52, -75765.9, 29.7772, 3.15086, -1104.45, 0.164481, 0.249817, 1.03299, 0.34851, 0.655882, 0.0001, 45.5, 246, 4.35515, 0.105355, 1.89396, 1, 1, 0, -7.18732e-06, 4253
-6573.52, -75765.9, 29.7772, 3.15086, -1104.45, 0.164481, 0.249817, 1.03299, 0.34851, 0.655882, 3, 45.5, 246, 4.35515, 0.105355, 1.74101, 1, 1, 0, -1.6454e-05, 4253
-9079.84, 149231, -173.59, 2.43499, -894.35, 0.0160469, 0.364947, 1.03299, 0.34851, 0.655882, 0.0001, 45.5, 246, 41.1258, 0.1935, 0, 0, 1, 0, 1.90117e-05, 4255
-9079.84, 149231, -173.59, 2.43499, -894.35, 0.0160469, 0.364947, 1.03299, 0.34851, 0.655882, 3, 45.5, 246, 41.1258, 0.1935, 0, 0, 1, 0, 8.71647e-06, 4255
-16795.9, -171685, -50.7802, 0.242223, -1104.85, 0.192521, 0.394473, 1.03299, 0.34851, 0.655882, 0.0001, 45.5, 246, -98.1321, 0.164983, 0, 0, 1, 0, -3.23972e-06, 4259
-16795.9, -171685, -50.7802, 0.242223, -1104.85, 0.192521, 0.394473, 1.03299, 0.34851, 0.655882, 3, 45.5, 246, -98.1321, 0.164983, 0, 0, 1, 0, -3.68854e-05, 4259
-5015.82, 62161.9, -155.535, 2.88698, -797.254, 0.582825, 0.27253, 1.03299, 0.34851, 0.655882, 0.0001, 45.5, 246, 48.4076, 0.165405, 1.17033, 1, 1, 0, -1.09442e-05, 4274
-3933.47, 77290.6, -191.765, 3.22854, -895.679, 0.687111, 0.273771, 0.993198, 0.349787, 0.651995, 0.0001, 91, 246, 48.4076, 0.165405, 1.19407, 1, 1, 0, -1.44104e-05, 4274
-2291.38, 97545.7, -238.621, 3.65223, -1029.61, 0.829026, 0.293145, 0.958125, 0.351078, 0.648177, 0.0001, 182, 246, 48.4076, 0.165405, 1.47836, 1, 1, 0, -4.27602e-06, 4274
-2291.38, 97545.7, -238.621, 3.65223, -1029.61, 0.829026, 0.293145, 0.958125, 0.351078, 0.648177, 3, 182, 246, 48.4076, 0.165405, 1.3307, 1, 1, 0, -7.62099e-06, 4274
-5345.27, 345820, -447.951, 3.87406, -775.053, 0.118954, 0.456612, 0.958125, 0.351078, 0.648177, 0.0001, 182, 246, 42.7926, 0.197752, 1.62962, 1, 0, 0, 9.14289e-05, 4278
-5345.27, 345820, -447.951, 3.87406, -775.053, 0.118954, 0.456612, 0.958125, 0.351078, 0.648177, 3, 182, 246, 42.7926, 0.197752, 1.48762, 1, 0, 0, 3.33903e-05, 4278
-8736.58, 89150.6, -48.9942, 3.46975, -1121.3, 0.000117143, 0.20669, 0.993198, 0.349787, 0.651995, 0.0001, 91, 246, 20.0567, 0.0623569, 0, 0, 1, 0, 1.8286e-05, 4280
-8736.58, 89150.6, -48.9942, 3.46975, -1121.3, 0.000117143, 0.20669, 0.993198, 0.349787, 0.651995, 3, 91, 246, 20.0567, 0.0623569, 0, 0, 1, 0, -8.59641e-06, 4280
-7683.46, 159215, -254.843, 2.89433, -952.439, 0.813462, 0.379263, 1.03299, 0.34851, 0.655882, 0.0001, 45.5, 246, 50.2395, 0.223505, 1.09756, 1, 0, 0, 9.99145e-06, 4284
-4835.83, 187108, -305.764, 3.29298, -1121.11, 0.981609, 0.389186, 0.993198, 0.349787, 0.651995, 0.0001, 91, 246, 50.2395, 0.223505, 1.20498, 1, 1, 0, 3.66499e-05, 4284
-696.124, 227790, -374.293, 3.8121, -1367.55, 1.22733, 0.420092, 0.958125, 0.351078, 0.648177, 0.0001, 182, 246, 50.2395, 0.223505, 2.76192, 1, 0, 0, -6.28579e-05, 4284
-696.124, 227790, -374.293, 3.8121, -1367.55, 1.22733, 0.420092, 0.958125, 0.351078, 0.648177, 3, 182, 246, 50.2395, 0.223505, 2.55815, 1, 0, 0, -9.71741e-05, 4284
-9328.13, 400381, -234.986, 0.616396, -988.899, 0.340115, 0.465025, 1.03299, 0.34851, 0.655882, 0.0001, 45.5, 246, 34.975, 0.144602, 0, 0, 0, 0, -6.16179e-06, 4285
-9328.13, 400381, -234.986, 0.616396, -988.899, 0.340115, 0.465025, 1.03299, 0.34851, 0.655882, 3, 45.5, 246, 34.975, 0.144602, 0, 0, 0, 0, 6.91046e-05, 4285
-7914.56, 427176, -250.572, 0.654045, -1049.39, 0.361304, 0.440415, 0.993198, 0.349787, 0.651995, 3, 91, 246, 34.975, 0.144602, 0, 0, 1, 0, 1.44464e-05, 4285
-7680.59, 344551, -467.986, 3.67706, -1189.84, 0.216944, 0.541892, 0.993198, 0.349787, 0.651995, 0.0001, 91, 246, 55.1706, 0.243026, 1.27882, 1, 1, 0, -8.79997e-06, 4292
-7680.59, 344551, -467.986, 3.67706, -1189.84, 0.216944, 0.541892, 0.993198, 0.349787, 0.651995, 3, 91, 246, 55.1706, 0.243026, 1.18814, 1, 1, 0, 3.50948e-06, 4292
-7157.56, 101867, -181.745, 3.30372, -593.634, -0.00570619, 0.245086, 1.03299, 0.34851, 0.655882, 0.0001, 45.5, 246, 41.9376, 0.158705, 1.06182, 1, 1, 0, -9.21872e-06, 4293
-7157.56, 101867, -181.745, 3.30372, -593.634, -0.00570619, 0.245086, 1.03299, 0.34851, 0.655882, 3, 45.5, 246, 41.9376, 0.158705, 0, 0, 1, 0, 1.51389e-05, 4293
-5370.44, 108673, -216.878, 3.60006, -613.6, 0.0466069, 0.256187, 0.993198, 0.349787, 0.651995, 0.0001, 91, 246, 41.9376, 0.158705, 1.02597, 1, 1, 0, 1.67527e-05, 4293
-5370.44, 108673, -216.878, 3.60006, -613.6, 0.0466069, 0.256187, 0.993198, 0.349787, 0.651995, 3, 91, 246, 41.9376, 0.158705, 0, 0, 1, 0, 5.40355e-06, 4293
-3109.41, 116771, -258.854, 3.95195, -644.879, 0.110053, 0.285475, 0.958125, 0.351078, 0.648177, 0.0001, 182, 246, 41.9376, 0.158705, 1.2132, 1, 1, 0, -1.30163e-05, 4293
-3109.41, 116771, -258.854, 3.95195, -644.879, 0.110053, 0.285475, 0.958125, 0.351078, 0.648177, 3, 182, 246, 41.9376, 0.158705, 1.04737, 1, 1, 0, 2.1218e-05, 4293
884.546, 130636, -329.551, 4.54225, -711.058, 0.219864, 0.357471, 0.9175, 0.352806, 0.64323, 0.0001, 455, 246, 41.9376, 0.158705, 1.89395, 1, 0, 0, -3.37047e-06, 4293
884.546, 130636, -329.551, 4.54225, -711.058, 0.219864, 0.357471, 0.9175, 0.352806, 0.64323, 3, 455, 246, 41.9376, 0.158705, 1.89376, 1, 0, 0, -2.81906e-06, 4293
662.44, 200804, -339.72, 3.81315, -1131.57, 0.992292, 0.395504, 0.9175, 0.352806, 0.64323, 0.0001, 455, 246, 42.1334, 0.19065, 0, 0, 0, 0, 137.014, 4298
662.44, 200804, -339.72, 3.81315, -1131.57, 0.992292, 0.395504, 0.9175, 0.352806, 0.64323, 3, 455, 246, 42.1334, 0.19065, 0, 0, 0, 0, 137.336, 4298
-6549.27, 235671, -327.618, 3.71714, -1120.13, 0.393251, 0.362643, 0.993198, 0.349787, 0.651995, 0.0001, 91, 246, 48.1711, 0.202762, 1.02141, 1, 1, 0, 1.50325e-05, 4301
-1137.16, 267904, -403.047, 4.18418, -1240, 0.492294, 0.405209, 0.958125, 0.351078, 0.648177, 0.0001, 182, 246, 48.1711, 0.202762, 0, 0, 0, 0, 3.66522e-06, 4301
-1137.16, 267904, -403.047, 4.18418, -1240, 0.492294, 0.405209, 0.958125, 0.351078, 0.648177, 3, 182, 246, 48.1711, 0.202762, 0, 0, 0, 0, -1.7621e-05, 4301
-12043.8, 149562, -61.8929, 3.00732, -1035.34, 0.237334, 0.219598, 1.03299, 0.34851, 0.655882, 0.0001, 45.5, 246, 25.6127, 0.080144, 0, 0, 0, 0, 6.59419e-06, 4305
-12043.8, 149562, -61.8929, 3.00732, -1035.34, 0.237334, 0.219598, 1.03299, 0.34851, 0.655882, 3, 45.5, 246, 25.6127, 0.080144, 0, 0, 0, 0, 1.4501e-05, 4305
-7061.7, 861373, -234.392, 0.163756, -1062.88, 0.170914, 0.400064, 1.03299, 0.34851, 0.655882, 0.0001, 45.5, 246, 31.9494, 0.0672841, 0, 0, 0, 0, 1.8389, 4307
-7061.7, 861373, -234.392, 0.163756, -1062.88, 0.170914, 0.400064, 1.03299, 0.34851, 0.655882, 3, 45.5, 246, 31.9494, 0.0672841, 0, 0, 0, 0, 6.1187e-05, 4307
-6001.52, 36394, -104.928, 2.10977, -598.751, -0.0209164, 0.31558, 1.03299, 0.34851, 0.655882, 0.0001, 45.5, 246, 48.2455, 0.160587, 0, 0, 1, 1, 1.6193e-06, 4316
-12000.1, 125628, -6.149, 2.92176, -938.072, 0.136023, 0.21081, 1.03299, 0.34851, 0.655882, 0.0001, 45.5, 246, 16.6357, 0.0399715, 0, 0, 1, 0, 5.23373e-06, 4318
-12000.1, 125628, -6.149, 2.92176, -938.072, 0.136023, 0.21081, 1.03299, 0.34851, 0.655882, 3, 45.5, 246, 16.6357, 0.0399715, 0, 0, 0, 0, -1.98568e-05, 4318
-7130.36, -32005.3, 14.4462, 2.98992, -848.279, 0.000282379, 0.239755, 1.03299, 0.34851, 0.655882, 0.0001, 45.5, 246, 8.31592, 0.0505269, 0, 0, 1, 1, 6.57551e-06, 4319
-7130.36, -32005.3, 14.4462, 2.98992, -848.279, 0.000282379, 0.239755, 1.03299, 0.34851, 0.655882, 3, 45.5, 246, 8.31592, 0.0505269, 0, 0, 1, 1, -1.16211e-05, 4319
-11814.6, 355564, -232.805, 0.9818, -625.055, 0.0138326, 0.468602, 1.03299, 0.34851, 0.655882, 0.0001, 45.5, 246, 31.4445, 0.163476, 0, 0, 0, 0, 1.10185e-05, 4322
-8524.89, 308840, -194.659, 0.754806, -889.95, 0.225471, 0.413796, 0.993198, 0.349787, 0.651995, 0.0001, 91, 246, 32.2482, 0.154537, 0, 0, 1, 0, 1.42376e-05, 4323
-688.634, 570997, -452.314, 3.30612, -706.356, 0.0952295, 0.425875, 0.9175, 0.352806, 0.64323, 3, 455, 246, 30.9619, 0.134316, 0, 0, 0, 0, -1.15527e-05, 4329
-3841.46, 163904, -292.001, 3.02267, -657.728, 0.335804, 0.393579, 0.958125, 0.351078, 0.648177, 0.0001, 182, 246, 44.6223, 0.216625, 1.00057, 1, 1, 0, 2.80312e-05, 4334
539.004, 182154, -353.009, 3.45693, -749.509, 0.426553, 0.430164, 0.9175, 0.352806, 0.64323, 0.0001, 455, 246, 44.6223, 0.216625, 2.21186, 1, 0, 0, 4.0198e-05, 4334
539.004, 182154, -353.009, 3.45693, -749.509, 0.426553, 0.430164, 0.9175, 0.352806, 0.64323, 3, 455, 246, 44.6223, 0.216625, 2.21362, 1, 0, 0, -2.8126e-05, 4334
-13982.9, 251027, -344.588, 3.13281, -567.695, 0.64341, 0.398868, 1.03299, 0.34851, 0.655882, 0.0001, 45.5, 246, 44.2699, 0.20757, 1.02888, 1, 0, 0, -5.37901e-05, 4337
-9323.93, 269030, -394.71, 3.5465, -668.703, 0.770658, 0.417565, 0.993198, 0.349787, 0.651995, 0.0001, 91, 246, 44.2699, 0.20757, 1.20382, 1, 1, 0, -4.48164e-05, 4337
-9323.93, 269030, -394.71, 3.5465, -668.703, 0.770658, 0.417565, 0.993198, 0.349787, 0.651995, 3, 91, 246, 44.2699, 0.20757, 1.07843, 1, 1, 0, 8.30314e-05, 4337
-3219.83, 293982, -459.386, 4.07587, -811.046, 0.950012, 0.459387, 0.958125, 0.351078, 0.648177, 0.0001, 182, 246, 44.2699, 0.20757, 2.99139, 1, 0, 0, 171.597, 4337
-3219.83, 293982, -459.386, 4.07587, -811.046, 0.950012, 0.459387, 0.958125, 0.351078, 0.648177, 3, 182, 246, 44.2699, 0.20757, 2.76823, 1, 0, 0, 175.847, 4337
-7281.81, -16319.7, -1.39192, 3.02296, -970.08, -0.0435962, 0.236124, 1.03299, 0.34851, 0.655882, 0.0001, 45.5, 246, 15.7839, 0.0510359, 0, 0, 1, 1, -3.83198e-07, 4345
-46.6277, 460828, -440.005, 1.70197, -1017.88, 0.28776, 0.561522, 0.9175, 0.352806, 0.64323, 3, 455, 246, 41.3138, 0.204987, 0, 0, 0, 0, -0.00013717, 4348
-7337.46, -21376.9, 12.9521, 3.10977, -1140.33, -0.0368822, 0.229378, 1.03299, 0.34851, 0.655882, 0.0001, 45.5, 246, 13.3083, 0.0608067, 0, 0, 1, 0, -8.4789e-06, 4354
-7658.46, 956.995, -19.6242, 3.36834, -1138, 0.009167, 0.233084, 0.993198, 0.349787, 0.651995, 0.0001, 91, 246, 13.3083, 0.0608067, 0, 0, 1, 1, 5.70913e-07, 4354
-7658.46, 956.995, -19.6242, 3.36834, -1138, 0.009167, 0.233084, 0.993198, 0.349787, 0.651995, 3, 91, 246, 13.3083, 0.0608067, 0, 0, 1, 1, 1.19417e-05, 4354
-7634.66, -15052.9, 25.2315, 3.11728, -1168.74, -0.00270668, 0.222539, 1.03299, 0.34851, 0.655882, 0.0001, 45.5, 246, 10.4861, 0.0565333, 0, 0, 1, 0, 1.20916e-05, 4355
-7634.66, -15052.9, 25.2315, 3.11728, -1168.74, -0.00270668, 0.222539, 1.03299, 0.34851, 0.655882, 3, 45.5, 246, 10.4861, 0.0565333, 0, 0, 1, 0, -2.16355e-06, 4355
-11814.5, 571182, -64.9502, 0.490214, -773.562, 0.075578, 0.344209, 1.03299, 0.34851, 0.655882, 0.0001, 45.5, 246, 19.2401, 0.0302599, 0, 0, 1, 0, 1.44356e-05, 4357
-11814.5, 571182, -64.9502, 0.490214, -773.562, 0.075578, 0.344209, 1.03299, 0.34851, 0.655882, 3, 45.5, 246, 19.2401, 0.0302599, 0, 0, 1, 0, 9.47467e-06, 4357
-8501.21, 6818.33, -4.2749, 1.57952, -749.299, 0.247227, 0.318057, 1.03299, 0.34851, 0.655882, 0.0001, 45.5, 246, 11.4046, 0.0541913, 0, 0, 1, 1, 1.123e-06, 4360
-8501.21, 6818.33, -4.2749, 1.57952, -749.299, 0.247227, 0.318057, 1.03299, 0.34851, 0.655882, 3, 45.5, 246, 11.4046, 0.0541913, 0, 0, 1, 1, -2.17302e-06, 4360
-7473.82, 471764, -329.013, 0.192942, -743.74, 0.0153718, 0.539989, 0.993198, 0.349787, 0.651995, 0.0001, 91, 246, 35.5183, 0.183188, 0, 0, 1, 0, -5.67262e-05, 4361
1328.15, 249716, -332.699, 5.64212, -1169.03, 1.19625, 0.34433, 0.9175, 0.352806, 0.64323, 0.0001, 455, 246, 29.6572, 0.105721, 1.49417, 1, 0, 0, 4.234e-05, 4362
1328.15, 249716, -332.699, 5.64212, -1169.03, 1.19625, 0.34433, 0.9175, 0.352806, 0.64323, 3, 455, 246, 29.6572, 0.105721, 1.73889, 1, 0, 0, 6.68492e-05, 4362
-11489.1, 125192, -52.8584, 3.56477, -1131.4, -0.0611556, 0.163525, 1.03299, 0.34851, 0.655882, 0.0001, 45.5, 246, 26.2465, 0.0796613, 0, 0, 0, 0, 1.56042e-05, 4366
-11489.1, 125192, -52.8584, 3.56477, -1131.4, -0.0611556, 0.163525, 1.03299, 0.34851, 0.655882, 3, 45.5, 246, 26.2465, 0.0796613, 0, 0, 0, 0, 4.67673e-06, 4366
-9451.26, 146840, -96.2809, 3.88446, -1133.05, -0.000167217, 0.178601, 0.993198, 0.349787, 0.651995, 0.0001, 91, 246, 26.2465, 0.0796613, 0, 0, 1, 0, -4.28018e-07, 4366
-9451.26, 146840, -96.2809, 3.88446, -1133.05, -0.000167217, 0.178601, 0.993198, 0.349787, 0.651995, 3, 91, 246, 26.2465, 0.0796613, 0, 0, 1, 0, 1.20873e-05, 4366
-10633, 292894, -38.8447, 2.09789, -623.655, 0.0225493, 0.245549, 0.958125, 0.351078, 0.648177, 3, 182, 246, 12.6792, 0.0214358, 0, 0, 1, 0, -1.58895e-06, 4367
-11485.6, 301217, -50.9748, 0.889416, -741.833, 0.251136, 0.337405, 1.03299, 0.34851, 0.655882, 0.0001, 45.5, 246, 17.6286, 0.044158, 0, 0, 1, 0, 7.39678e-06, 4368
-11485.6, 301217, -50.9748, 0.889416, -741.833, 0.251136, 0.337405, 1.03299, 0.34851, 0.655882, 3, 45.5, 246, 17.6286, 0.044158, 0, 0, 1, 0, -8.56823e-05, 4368
-10510, 315365, -59.3889, 0.940514, -774.07, 0.26534, 0.304661, 0.993198, 0.349787, 0.651995, 0.0001, 91, 246, 17.6286, 0.044158, 0, 0, 1, 0, -9.83688e-05, 4368
-11074.1, 399155, -368.001, 0.975658, -950.323, 0.0356677, 0.659105, 1.03299, 0.34851, 0.655882, 3, 45.5, 246, 46.102, 0.23869, 0, 0, 0, 0, 1.7107e-06, 4375
-7057.28, 13597.4, -53.9854, 3.58273, -1176.38, 0.155991, 0.225196, 0.993198, 0.349787, 0.651995, 0.0001, 91, 246, 22.6014, 0.0639018, 0, 0, 1, 1, 2.04412e-06, 4377
-7057.28, 13597.4, -53.9854, 3.58273, -1176.38, 0.155991, 0.225196, 0.993198, 0.349787, 0.651995, 3, 91, 246, 22.6014, 0.0639018, 0, 0, 1, 1, -1.0058e-05, 4377
-6685.98, 490710, -391.79, 0.185106, -1131.35, 0.0238523, 0.654871, 1.03299, 0.34851, 0.655882, 0.0001, 45.5, 246, 45.7201, 0.213805, 0, 0, 0, 0, 5.17539e-05, 4381
-3216.78, 543315, -426.104, 0.19994, -1144.16, 0.0243615, 0.644297, 0.958125, 0.351078, 0.648177, 3, 182, 246, 45.7201, 0.213805, 0, 0, 0, 0, -1.62308e-05, 4381
-5270.14, 56621.3, -146.11, 3.37406, -728.769, 0.202685, 0.211487, 1.03299, 0.34851, 0.655882, 0.0001, 45.5, 246, 43.8551, 0.12601, 1.12466, 1, 1, 0, -3.367e-06, 4387
-4180.72, 67419.3, -183.491, 3.72121, -771.764, 0.266466, 0.223501, 0.993198, 0.349787, 0.651995, 0.0001, 91, 246, 43.8551, 0.12601, 1.08931, 1, 1, 0, 2.35059e-05, 4387
-2612.78, 80365.8, -229.84, 4.14221, -831.81, 0.349004, 0.256176, 0.958125, 0.351078, 0.648177, 0.0001, 182, 246, 43.8551, 0.12601, 1.27107, 1, 1, 0, 6.82936e-06, 4387
-2612.78, 80365.8, -229.84, 4.14221, -831.81, 0.349004, 0.256176, 0.958125, 0.351078, 0.648177, 3, 182, 246, 43.8551, 0.12601, 1.12085, 1, 1, 0, 1.17201e-05, 4387
573.441, 102915, -311.93, 4.87202, -952.218, 0.503474, 0.339154, 0.9175, 0.352806, 0.64323, 0.0001, 455, 246, 43.8551, 0.12601, 2.02056, 1, 1, 0, -1.94891e-06, 4387
573.441, 102915, -311.93, 4.87202, -952.218, 0.503474, 0.339154, 0.9175, 0.352806, 0.64323, 3, 455, 246, 43.8551, 0.12601, 1.96983, 1, 1, 0, 3.493e-06, 4387
-10720.1, 336549, -110.584, 0.713451, -678.73, -0.000132618, 0.368785, 1.03299, 0.34851, 0.655882, 0.0001, 45.5, 246, 21.7705, 0.0840996, 0, 0, 1, 0, -5.28569e-06, 4392
-10720.1, 336549, -110.584, 0.713451, -678.73, -0.000132618, 0.368785, 1.03299, 0.34851, 0.655882, 3, 45.5, 246, 21.7705, 0.0840996, 0, 0, 1, 0, 1.50807e-05, 4392
-9793.21, 344783, -119.508, 0.742477, -681.045, 0.00219426, 0.336955, 0.993198, 0.349787, 0.651995, 0.0001, 91, 246, 21.7705, 0.0840996, 0, 0, 1, 0, -2.12312e-05, 4392
-11258.5, 521395, -97.4706, 0.544506, -884.967, 0.124628, 0.354233, 1.03299, 0.34851, 0.655882, 0.0001, 45.5, 246, 23.0557, 0.0483042, 0, 0, 1, 0, -4.58256e-06, 4395
-11258.5, 521395, -97.4706, 0.544506, -884.967, 0.124628, 0.354233, 1.03299, 0.34851, 0.655882, 3, 45.5, 246, 23.0557, 0.0483042, 0, 0, 1, 0, -4.25121e-05, 4395
-10155.6, 213542, -324.255, 3.56925, -785.529, -0.0614203, 0.36939, 1.03299, 0.34851, 0.655882, 0.0001, 45.5, 246, 51.8482, 0.229934, 1.24757, 1, 0, 0, 1.37919e-05, 4396
-10155.6, 213542, -324.255, 3.56925, -785.529, -0.0614203, 0.36939, 1.03299, 0.34851, 0.655882, 3, 45.5, 246, 51.8482, 0.229934, 1.15155, 1, 0, 0, -1.64855e-05, 4396
-5680.07, 226076, -383.483, 3.91225, -816.34, 8.37818e-05, 0.398728, 0.993198, 0.349787, 0.651995, 0.0001, 91, 246, 51.8482, 0.229934, 1.59555, 1, 1, 0, 1.13041e-05, 4396
-5680.07, 226076, -383.483, 3.91225, -816.34, 8.37818e-05, 0.398728, 0.993198, 0.349787, 0.651995, 3, 91, 246, 51.8482, 0.229934, 1.50505, 1, 1, 0, 2.12547e-06, 4396
-11592, 201730, -104.481, 1.73279, -619.39, 0.153534, 0.335052, 1.03299, 0.34851, 0.655882, 0.0001, 45.5, 246, 23.8335, 0.106364, 0, 0, 1, 0, 6.42782e-06, 4397
-11592, 201730, -104.481, 1.73279, -619.39, 0.153534, 0.335052, 1.03299, 0.34851, 0.655882, 3, 45.5, 246, 23.8335, 0.106364, 0, 0, 1, 0, -1.12832e-05, 4397
-8413.93, 219880, -139.344, 1.98014, -666.245, 0.193153, 0.298075, 0.958125, 0.351078, 0.648177, 3, 182, 246, 23.8335, 0.106364, 0, 0, 1, 0, 1.93403e-05, 4397
-7359.22, -11033.1, -28.5511, 2.59184, -605.964, 0.155163, 0.269109, 1.03299, 0.34851, 0.655882, 3, 45.5, 246, 23.1525, 0.00848432, 0, 0, 1, 1, -1.81744e-05, 4400
-3795.38, 106526, -224.031, 3.09359, -776.6, 0.395487, 0.322065, 0.958125, 0.351078, 0.648177, 0.0001, 182, 246, 44.8161, 0.189002, 1.00442, 1, 1, 0, 1.20728e-06, 4402
-887.11, 127316, -282.926, 3.55215, -882.779, 0.500847, 0.355241, 0.9175, 0.352806, 0.64323, 0.0001, 455, 246, 44.8161, 0.189002, 1.71257, 1, 0, 0, 2.30994e-05, 4402
-887.11, 127316, -282.926, 3.55215, -882.779, 0.500847, 0.355241, 0.9175, 0.352806, 0.64323, 3, 455, 246, 44.8161, 0.189002, 1.68723, 1, 0, 0, 1.06019e-05, 4402
-7428.88, 81947.7, -100.178, 3.14896, -1152.54, 0.319658, 0.251578, 0.993198, 0.349787, 0.651995, 0.0001, 91, 246, 29.7788, 0.108228, 0, 0, 1, 0, -1.32562e-05, 4404
-7428.88, 81947.7, -100.178, 3.14896, -1152.54, 0.319658, 0.251578, 0.993198, 0.349787, 0.651995, 3, 91, 246, 29.7788, 0.108228, 0, 0, 1, 0, 1.01698e-05, 4404
823.835, 395172, -370.648, 3.7759, -955.779, 0.128885, 0.367704, 0.9175, 0.352806, 0.64323, 3, 455, 246, 33.7941, 0.131275, 0, 0, 0, 0, -9.66854e-06, 4405
-4614.67, 140812, -173.656, 4.21698, -1527.54, 1.65935, 0.299584, 0.9175, 0.352806, 0.64323, 0.0001, 455, 246, 21.862, 0.0722818, 0, 0, 1, 0, -1.93748e-05, 4412
-4614.67, 140812, -173.656, 4.21698, -1527.54, 1.65935, 0.299584, 0.9175, 0.352806, 0.64323, 3, 455, 246, 21.862, 0.0722818, 0, 0, 1, 0, -1.61946e-06, 4412
-12643.6, 671539, -5.8986, 0.398301, -811.479, 0.2627, 0.337626, 1.03299, 0.34851, 0.655882, 0.0001, 45.5, 246, 17.7009, 0.00383509, 0, 0, 1, 0, 2.02445e-05, 4415
-12643.6, 671539, -5.8986, 0.398301, -811.479, 0.2627, 0.337626, 1.03299, 0.34851, 0.655882, 3, 45.5, 246, 17.7009, 0.00383509, 0, 0, 1, 0, -0.000125532, 4415
-5276.14, 610474, -332.674, 0.0853585, -1002.86, 0.0832865, 0.487012, 0.993198, 0.349787, 0.651995, 0.0001, 91, 246, 36.3646, 0.140649, 0, 0, 1, 0, -0.000198798, 4424
-6022.67, 714607, -430.025, 0.0234974, -976.863, 0.00326441, 0.591018, 1.03299, 0.34851, 0.655882, 0.0001, 45.5, 246, 39.4228, 0.157499, 0, 0, 0, 0, -0.000218283, 4428
-6022.67, 714607, -430.025, 0.0234974, -976.863, 0.00326441, 0.591018, 1.03299, 0.34851, 0.655882, 3, 45.5, 246, 39.4228, 0.157499, 0, 0, 0, 0, -0.000886455, 4428
-10670.4, 294487, -212.991, 1.25031, -963.113, -0.00448194, 0.461658, 1.03299, 0.34851, 0.655882, 0.0001, 45.5, 246, 37.3582, 0.177195, 0, 0, 0, 0, 2.18744e-05, 4431
-4819.2, 286845, -395.838, 3.93469, -765.385, 0.670041, 0.399535, 0.958125, 0.351078, 0.648177, 0.0001, 182, 246, 40.1782, 0.184969, 1.29385, 1, 0, 0, -4.5124e-06, 4433
-4819.2, 286845, -395.838, 3.93469, -765.385, 0.670041, 0.399535, 0.958125, 0.351078, 0.648177, 3, 182, 246, 40.1782, 0.184969, 1.08645, 1, 0, 0, -1.42646e-05, 4433
-6594.75, 866844, -286.94, 0.026963, -683.326, -7.00766e-09, 0.39756, 0.993198, 0.349787, 0.651995, 0.0001, 91, 246, 25.6403, 0.0836015, 0, 0, 1, 0, -0.000771176, 4434
-6495.38, 53558, -120.731, 4.11624, -829.996, 0.980087, 0.291632, 0.9175, 0.352806, 0.64323, 0.0001, 455, 246, 18.914, 0.0474541, 0, 0, 1, 0, -1.31295e-05, 4437
-6495.38, 53558, -120.731, 4.11624, -829.996, 0.980087, 0.291632, 0.9175, 0.352806, 0.64323, 3, 455, 246, 18.914, 0.0474541, 0, 0, 1, 0, 2.91673e-06, 4437
-10082.2, 472929, -276.356, 0.661768, -963.087, 0.0800348, 0.492517, 1.03299, 0.34851, 0.655882, 0.0001, 45.5, 246, 36.1581, 0.150045, 0, 0, 0, 0, 7.09414e-07, 4438
-10082.2, 472929, -276.356, 0.661768, -963.087, 0.0800348, 0.492517, 1.03299, 0.34851, 0.655882, 3, 45.5, 246, 36.1581, 0.150045, 0, 0, 0, 0, -3.04457e-05, 4438
-7363.36, -9340.34, 6.94689, 3.30104, -1158.69, 0.123782, 0.206424, 1.03299, 0.34851, 0.655882, 3, 45.5, 246, 16.1432, 0.0619011, 0, 0, 1, 0, 9.38983e-06, 4444
-7331.54, 69157.9, -111.253, 2.62852, -811.48, 0.0391666, 0.290741, 1.03299, 0.34851, 0.655882, 3, 45.5, 246, 37.889, 0.150528, 0, 0, 1, 0, 7.34508e-06, 4456
-11327.9, 236852, -214.385, 1.84805, -744.573, 0.0513033, 0.436408, 1.03299, 0.34851, 0.655882, 0.0001, 45.5, 246, 37.7933, 0.192327, 0, 0, 0, 0, 1.57159e-05, 4458
-8892.49, 132537, -177.851, 3.61952, -825.619, -0.00956123, 0.213336, 1.03299, 0.34851, 0.655882, 3, 45.5, 246, 40.1717, 0.15127, 0, 0, 0, 0, 5.71279e-06, 4459
-6414.24, 145154, -223.688, 3.96516, -848.403, 0.053562, 0.233564, 0.993198, 0.349787, 0.651995, 3, 91, 246, 40.1717, 0.15127, 0, 0, 1, 0, -1.51004e-06, 4459
-3182.9, 159834, -279.429, 4.38443, -888.454, 0.131248, 0.275721, 0.958125, 0.351078, 0.648177, 0.0001, 182, 246, 40.1717, 0.15127, 1.16964, 1, 1, 0, 2.96755e-06, 4459
-30498.8, -203023, -86.9003, 0.0131717, -732.635, 0.247334, 0.310601, 0.958125, 0.351078, 0.648177, 3, 182, 246, -228.978, 0.0980186, 0, 0, 1, 0, -1116.39, 4460
-12117.1, 259616, -33.9749, 1.14345, -665.179, 0.656703, 0.323892, 1.03299, 0.34851, 0.655882, 0.0001, 45.5, 246, 15.0892, 0.0339467, 0, 0, 1, 0, 6.74853e-05, 4462
-12117.1, 259616, -33.9749, 1.14345, -665.179, 0.656703, 0.323892, 1.03299, 0.34851, 0.655882, 3, 45.5, 246, 15.0892, 0.0339467, 0, 0, 1, 0, 1.04708e-05, 4462
-10998.4, 277943, -43.1348, 1.24302, -743.855, 0.739715, 0.292841, 0.993198, 0.349787, 0.651995, 3, 91, 246, 15.0892, 0.0339467, 0, 0, 1, 0, -0.00012561, 4462
-9569.93, 300821, -54.4095, 1.35696, -844.601, 0.846027, 0.267743, 0.958125, 0.351078, 0.648177, 0.0001, 182, 246, 15.0892, 0.0339467, 0, 0, 1, 0, 1.71781e-05, 4462
-6096.96, 20757.8, -83.935, 2.81461, -806.631, 0.181785, 0.25501, 1.03299, 0.34851, 0.655882, 0.0001, 45.5, 246, 39.8014, 0.0732372, 0, 0, 1, 1, -1.38101e-05, 4468
-10184.4, 111217, -61.8394, 2.72652, -1116.55, 0.224667, 0.257257, 1.03299, 0.34851, 0.655882, 0.0001, 45.5, 246, 27.1284, 0.0950676, 0, 0, 1, 0, 1.60573e-05, 4469
-10184.4, 111217, -61.8394, 2.72652, -1116.55, 0.224667, 0.257257, 1.03299, 0.34851, 0.655882, 3, 45.5, 246, 27.1284, 0.0950676, 0, 0, 1, 0, 1.40757e-05, 4469
-13673.4, 229156, -25.8281, 1.97652, -1086.92, 0.53115, 0.282877, 1.03299, 0.34851, 0.655882, 0.0001, 45.5, 246, 21.2496, 0.0413541, 0, 0, 0, 0, 2.94853e-06, 4471
-13673.4, 229156, -25.8281, 1.97652, -1086.92, 0.53115, 0.282877, 1.03299, 0.34851, 0.655882, 3, 45.5, 246, 21.2496, 0.0413541, 0, 0, 0, 0, 1.80927e-05, 4471
-11767.5, 258667, -48.742, 2.16474, -1190.42, 0.600349, 0.261979, 0.993198, 0.349787, 0.651995, 0.0001, 91, 246, 21.2496, 0.0413541, 0, 0, 1, 0, -4.092e-05, 4471
-11767.5, 258667, -48.742, 2.16474, -1190.42, 0.600349, 0.261979, 0.993198, 0.349787, 0.651995, 3, 91, 246, 21.2496, 0.0413541, 0, 0, 1, 0, 1.5085e-05, 4471
-11656.2, 325948, -24.0058, 0.785102, -650.842, -0.00183135, 0.333205, 1.03299, 0.34851, 0.655882, 0.0001, 45.5, 246, 13.5906, 0.0225057, 0, 0, 1, 0, -4.94031e-07, 4482
-11656.2, 325948, -24.0058, 0.785102, -650.842, -0.00183135, 0.333205, 1.03299, 0.34851, 0.655882, 3, 45.5, 246, 13.5906, 0.0225057, 0, 0, 1, 0, 2.65702e-06, 4482
-7582.59, 310569, -299.241, 1.15517, -1122.51, 0.0666371, 0.564254, 0.993198, 0.349787, 0.651995, 3, 91, 246, 45.9997, 0.241539, 0, 0, 1, 0, -3.74834e-05, 4485
-7700.93, 119630, -169.254, 2.31951, -1063.4, 0.110192, 0.391485, 1.03299, 0.34851, 0.655882, 0.0001, 45.5, 246, 46.2324, 0.230383, 0, 0, 1, 0, 6.7856e-06, 4486
-7700.93, 119630, -169.254, 2.31951, -1063.4, 0.110192, 0.391485, 1.03299, 0.34851, 0.655882, 3, 45.5, 246, 46.2324, 0.230383, 0, 0, 1, 0, 9.04597e-06, 4486
-266.691, 201333, -313.896, 3.0378, -1215.94, 0.227901, 0.412779, 0.9175, 0.352806, 0.64323, 0.0001, 455, 246, 46.2324, 0.230383, 1.04394, 1, 0, 0, 2.02581e-05, 4486
-266.691, 201333, -313.896, 3.0378, -1215.94, 0.227901, 0.412779, 0.9175, 0.352806, 0.64323, 3, 455, 246, 46.2324, 0.230383, 1.86537, 1, 0, 0, 1.67454e-05, 4486
-10664.9, 293638, -243.793, 1.28808, -939.383, 0.0935717, 0.500843, 1.03299, 0.34851, 0.655882, 3, 45.5, 246, 40.1985, 0.200831, 0, 0, 0, 0, 1.58175e-05, 4489
-8560.78, 241841, -83.8003, 0.389068, -1190.39, -0.000649307, 0.368497, 1.03299, 0.34851, 0.655882, 0.0001, 45.5, 246, 26.2563, 0.0860106, 0, 0, 1, 0, 5.15089e-05, 4491
-8560.78, 241841, -83.8003, 0.389068, -1190.39, -0.000649307, 0.368497, 1.03299, 0.34851, 0.655882, 3, 45.5, 246, 26.2563, 0.0860106, 0, 0, 1, 0, 6.93014e-05, 4491
-10283.5, 567256, -210.942, 0.57348, -1027.25, 0.0775391, 0.412944, 1.03299, 0.34851, 0.655882, 0.0001, 45.5, 246, 31.7696, 0.095115, 0, 0, 0, 0, -1.55334e-07, 4492
-9589.09, 457619, -314.496, 0.258459, -607.642, 0.32709, 0.542598, 1.03299, 0.34851, 0.655882, 0.0001, 45.5, 246, 32.3468, 0.172461, 0, 0, 0, 0, -3.00653e-05, 4495
-9589.09, 457619, -314.496, 0.258459, -607.642, 0.32709, 0.542598, 1.03299, 0.34851, 0.655882, 3, 45.5, 246, 32.3468, 0.172461, 0, 0, 0, 0, 5.66793e-05, 4495
-8427.73, 474496, -327.656, 0.272841, -643.083, 0.345244, 0.523548, 0.993198, 0.349787, 0.651995, 0.0001, 91, 246, 32.3468, 0.172461, 0, 0, 1, 0, -5.73299e-06, 4495
-7081.27, 493179, -340.783, 0.287725, -682.747, 0.365531, 0.50878, 0.958125, 0.351078, 0.648177, 0.0001, 182, 246, 32.3468, 0.172461, 0, 0, 1, 0, -7.92532e-05, 4495
-3016.19, 70485.8, -229.222, 4.62489, -933.556, 0.731525, 0.314307, 0.9175, 0.352806, 0.64323, 0.0001, 455, 246, 36.3633, 0.076655, 1.01795, 1, 1, 0, -5.35282e-06, 4500
