-11608.3, 201265, -87.199, 1.71592, -681.115, 0.0353848, 0.326935, 1.03299, 0.34851, 0.655882, 0.0001, 45.5, 246, 22.5567, 0.0935234, 0, 0, 1, 0, -2.20256e-05, 63002
-4398.09, 323478, -470.695, 3.04734, -703.701, 0.0574306, 0.596314, 0.958125, 0.351078, 0.648177, 0.0001, 182, 246, 47.5795, 0.246977, 1.49822, 1, 0, 0, -1.26604e-05, 63009
-4398.09, 323478, -470.695, 3.04734, -703.701, 0.0574306, 0.596314, 0.958125, 0.351078, 0.648177, 3, 182, 246, 47.5795, 0.246977, 1.30274, 1, 0, 0, -8.87575e-06, 63009
-10054.3, 160656, -152.409, 2.47725, -908.22, -0.000447442, 0.335811, 1.03299, 0.34851, 0.655882, 0.0001, 45.5, 246, 36.7216, 0.163279, 0, 0, 1, 0, -3.17282e-06, 63010
-10054.3, 160656, -152.409, 2.47725, -908.22, -0.000447442, 0.335811, 1.03299, 0.34851, 0.655882, 3, 45.5, 246, 36.7216, 0.163279, 0, 0, 1, 0, 4.79953e-06, 63010
-9064.65, 108693, -102.362, 2.58545, -1114.6, 0.191399, 0.298034, 1.03299, 0.34851, 0.655882, 0.0001, 45.5, 246, 34.1253, 0.139487, 0, 0, 1, 0, -1.37448e-05, 63011
-9064.65, 108693, -102.362, 2.58545, -1114.6, 0.191399, 0.298034, 1.03299, 0.34851, 0.655882, 3, 45.5, 246, 34.1253, 0.139487, 0, 0, 1, 0, 7.88205e-06, 63011
-12158.5, 558648, -65.5404, 0.500181, -587.844, 0.351677, 0.343579, 1.03299, 0.34851, 0.655882, 0.0001, 45.5, 246, 15.6719, 0.0294367, 0, 0, 1, 0, 7.14339e-06, 63015
-12158.5, 558648, -65.5404, 0.500181, -587.844, 0.351677, 0.343579, 1.03299, 0.34851, 0.655882, 3, 45.5, 246, 15.6719, 0.0294367, 0, 0, 1, 0, 0.000158488, 63015
-5545.46, 101586, -207.404, 2.65394, -770.538, 0.249175, 0.365853, 1.03299, 0.34851, 0.655882, 0.0001, 45.5, 246, 53.1087, 0.241275, 1.25228, 1, 1, 0, -1.92559e-05, 63017
-5545.46, 101586, -207.404, 2.65394, -770.538, 0.249175, 0.365853, 1.03299, 0.34851, 0.655882, 3, 45.5, 246, 53.1087, 0.241275, 1.01762, 1, 1, 0, -1.49598e-05, 63017
-3912.24, 114887, -243.933, 2.90505, -821.1, 0.294676, 0.366465, 0.993198, 0.349787, 0.651995, 0.0001, 91, 246, 53.1087, 0.241275, 1.31723, 1, 1, 0, -1.02491e-05, 63017
-3912.24, 114887, -243.933, 2.90505, -821.1, 0.294676, 0.366465, 0.993198, 0.349787, 0.651995, 3, 91, 246, 53.1087, 0.241275, 1.10043, 1, 1, 0, 2.31293e-05, 63017
-1726.1, 130810, -287.762, 3.19835, -885.835, 0.351919, 0.380877, 0.958125, 0.351078, 0.648177, 0.0001, 182, 246, 53.1087, 0.241275, 1.73038, 1, 1, 0, 1.9534e-05, 63017
-1726.1, 130810, -287.762, 3.19835, -885.835, 0.351919, 0.380877, 0.958125, 0.351078, 0.648177, 3, 182, 246, 53.1087, 0.241275, 1.57377, 1, 1, 0, -1.35681e-05, 63017
-6954.56, 411545, -512.115, 3.44516, -694.067, 0.214628, 0.563375, 0.958125, 0.351078, 0.648177, 0.0001, 182, 246, 42.6426, 0.212829, 1.28395, 1, 0, 0, 3.1488e-05, 63020
-6954.56, 411545, -512.115, 3.44516, -694.067, 0.214628, 0.563375, 0.958125, 0.351078, 0.648177, 3, 182, 246, 42.6426, 0.212829, 1.17764, 1, 0, 0, -3.55133e-05, 63020
-7697.44, 7355.44, -31.3881, 3.16701, -1146.71, 0.175559, 0.245576, 0.993198, 0.349787, 0.651995, 0.0001, 91, 246, 16.8152, 0.062219, 0, 0, 1, 1, -2.66266e-06, 63021
-7697.44, 7355.44, -31.3881, 3.16701, -1146.71, 0.175559, 0.245576, 0.993198, 0.349787, 0.651995, 3, 91, 246, 16.8152, 0.062219, 0, 0, 1, 1, -1.47616e-06, 63021
-4923.38, 644146, -331.314, 0.0448686, -1035.45, 0.261496, 0.472662, 0.993198, 0.349787, 0.651995, 0.0001, 91, 246, 35.6449, 0.129844, 0, 0, 1, 0, 1546.62, 63022
-3921.64, 675050, -341.456, 0.0468378, -1080.5, 0.272777, 0.453123, 0.958125, 0.351078, 0.648177, 0.0001, 182, 246, 35.6449, 0.129844, 0, 0, 0, 0, 1473.59, 63022
-2430.82, 720246, -354.302, 0.0494712, -1146.39, 0.289273, 0.432231, 0.9175, 0.352806, 0.64323, 0.0001, 455, 246, 35.6449, 0.129844, 3.49581, 1, 0, 0, 1424.66, 63022
-11069.5, 190636, -159.449, 1.92698, -678.555, 0.817633, 0.360211, 1.03299, 0.34851, 0.655882, 0.0001, 45.5, 246, 31.3633, 0.145593, 0, 0, 1, 0, -9.90791e-05, 63024
-11313, 161845, -31.4082, 1.85705, -1056.88, 0.0777511, 0.300104, 1.03299, 0.34851, 0.655882, 0.0001, 45.5, 246, 20.4605, 0.0570968, 0, 0, 1, 0, 8.80794e-07, 63029
-11313, 161845, -31.4082, 1.85705, -1056.88, 0.0777511, 0.300104, 1.03299, 0.34851, 0.655882, 3, 45.5, 246, 20.4605, 0.0570968, 0, 0, 1, 0, 2.0406e-05, 63029
-7893.09, 906996, -371.058, 0.104159, -793.42, 0.00631204, 0.485851, 1.03299, 0.34851, 0.655882, 0.0001, 45.5, 246, 31.0548, 0.105765, 0, 0, 0, 0, -1.89451e-05, 63031
-7893.09, 906996, -371.058, 0.104159, -793.42, 0.00631204, 0.485851, 1.03299, 0.34851, 0.655882, 3, 45.5, 246, 31.0548, 0.105765, 0, 0, 0, 0, -6.18592e-05, 63031
-6392.11, 129736, -230.592, 3.0376, -881.244, 0.0107377, 0.355813, 1.03299, 0.34851, 0.655882, 0.0001, 45.5, 246, 52.1204, 0.231842, 1.19074, 1, 1, 0, 1.32638e-05, 63034
-6392.11, 129736, -230.592, 3.0376, -881.244, 0.0107377, 0.355813, 1.03299, 0.34851, 0.655882, 3, 45.5, 246, 52.1204, 0.231842, 1.0048, 1, 1, 0, 2.13532e-05, 63034
-4064.75, 144810, -276.405, 3.30564, -906.934, 0.0550161, 0.36626, 0.993198, 0.349787, 0.651995, 0.0001, 91, 246, 52.1204, 0.231842, 1.35262, 1, 1, 0, -5.76973e-06, 63034
-4064.75, 144810, -276.405, 3.30564, -906.934, 0.0550161, 0.36626, 0.993198, 0.349787, 0.651995, 3, 91, 246, 52.1204, 0.231842, 1.19048, 1, 1, 0, -5.6895e-06, 63034
-998.323, 161960, -330.739, 3.61998, -946.405, 0.108622, 0.392807, 0.958125, 0.351078, 0.648177, 0.0001, 182, 246, 52.1204, 0.231842, 2.13437, 1, 0, 0, 9.54215e-06, 63034
-998.323, 161960, -330.739, 3.61998, -946.405, 0.108622, 0.392807, 0.958125, 0.351078, 0.648177, 3, 182, 246, 52.1204, 0.231842, 1.98403, 1, 0, 0, -1.49144e-06, 63034
-7607.85, 313796, -272.035, 1.22, -1196.02, 0.0247561, 0.509494, 0.993198, 0.349787, 0.651995, 3, 91, 246, 43.7621, 0.213685, 0, 0, 1, 0, 1.96312e-05, 63035
-5279.39, 340993, -299.893, 1.28598, -1210.81, 0.0317726, 0.500297, 0.958125, 0.351078, 0.648177, 3, 182, 246, 43.7621, 0.213685, 0, 0, 0, 0, -3.34341e-05, 63035
-10126.1, 304872, -235.041, 0.776374, -719.095, -0.000294452, 0.506454, 1.03299, 0.34851, 0.655882, 0.0001, 45.5, 246, 35.8084, 0.197741, 0, 0, 0, 0, 3.90822e-05, 63041
-8820.32, 314937, -250.947, 0.811968, -724.3, 0.00247462, 0.486581, 0.993198, 0.349787, 0.651995, 0.0001, 91, 246, 35.8084, 0.197741, 0, 0, 1, 0, -3.20344e-05, 63041
-7239.36, 70149.6, -113.23, 3.25233, -873.989, 0.0035763, 0.227746, 1.03299, 0.34851, 0.655882, 0.0001, 45.5, 246, 36.772, 0.126251, 0, 0, 1, 0, 8.19813e-06, 63043
-7239.36, 70149.6, -113.23, 3.25233, -873.989, 0.0035763, 0.227746, 1.03299, 0.34851, 0.655882, 3, 45.5, 246, 36.772, 0.126251, 0, 0, 1, 0, -2.91276e-06, 63043
-1287.82, 121821, -269.519, 4.44978, -984.92, 0.221905, 0.32787, 0.9175, 0.352806, 0.64323, 0.0001, 455, 246, 36.772, 0.126251, 1.34978, 1, 0, 0, -7.39843e-06, 63043
-1287.82, 121821, -269.519, 4.44978, -984.92, 0.221905, 0.32787, 0.9175, 0.352806, 0.64323, 3, 455, 246, 36.772, 0.126251, 1.33648, 1, 0, 0, -5.92297e-06, 63043
-8007.51, 640915, -412.018, 0.291418, -1030.25, 0.0198572, 0.599545, 1.03299, 0.34851, 0.655882, 3, 45.5, 246, 41.2211, 0.168576, 0, 0, 0, 0, -3.379e-05, 63048
-7576.97, 722026, -122.401, 2.43571, -766.506, 0.0573683, 0.23236, 0.9175, 0.352806, 0.64323, 3, 455, 246, 19.2712, 0.0263587, 0, 0, 0, 0, -1.98601e-05, 63054
-9544.28, 67578.5, -17.6806, 2.55935, -975.979, 0.127592, 0.25703, 1.03299, 0.34851, 0.655882, 0.0001, 45.5, 246, 18.292, 0.0608916, 0, 0, 1, 0, -1.31877e-05, 63056
-9544.28, 67578.5, -17.6806, 2.55935, -975.979, 0.127592, 0.25703, 1.03299, 0.34851, 0.655882, 3, 45.5, 246, 18.292, 0.0608916, 0, 0, 1, 0, 8.1472e-09, 63056
-11229.2, 283814, -269.475, 1.34178, -730.617, 0.135307, 0.534292, 1.03299, 0.34851, 0.655882, 0.0001, 45.5, 246, 40.6222, 0.223027, 0, 0, 0, 0, -2.02629e-05, 63057
-11229.2, 283814, -269.475, 1.34178, -730.617, 0.135307, 0.534292, 1.03299, 0.34851, 0.655882, 3, 45.5, 246, 40.6222, 0.223027, 0, 0, 0, 0, -1.77506e-05, 63057
-6522.01, 311223, -321.379, 1.52348, -788.16, 0.16016, 0.51773, 0.958125, 0.351078, 0.648177, 3, 182, 246, 40.6222, 0.223027, 0, 0, 0, 0, -2.62396e-07, 63057
-10424.9, 644608, -220.241, 0.335213, -622.37, -9.12501e-05, 0.41258, 1.03299, 0.34851, 0.655882, 0.0001, 45.5, 246, 23.8865, 0.0887983, 0, 0, 1, 0, -9.8924e-05, 63060
-10424.9, 644608, -220.241, 0.335213, -622.37, -9.12501e-05, 0.41258, 1.03299, 0.34851, 0.655882, 3, 45.5, 246, 23.8865, 0.0887983, 0, 0, 1, 0, -3.53552e-05, 63060
-6438.77, 110766, -189.087, 3.31233, -1061.68, -0.0273346, 0.289487, 1.03299, 0.34851, 0.655882, 0.0001, 45.5, 246, 48.5403, 0.197075, 1.07683, 1, 0, 0, 2.23818e-05, 63068
-6438.77, 110766, -189.087, 3.31233, -1061.68, -0.0273346, 0.289487, 1.03299, 0.34851, 0.655882, 3, 45.5, 246, 48.5403, 0.197075, 0, 0, 0, 0, -1.0701e-05, 63068
-4337.48, 131339, -240.025, 3.61032, -1080.89, 0.0252027, 0.303825, 0.993198, 0.349787, 0.651995, 0.0001, 91, 246, 48.5403, 0.197075, 1.16303, 1, 1, 0, 2.66979e-06, 63068
-1401.3, 154002, -300.944, 3.96469, -1117.49, 0.0885774, 0.336589, 0.958125, 0.351078, 0.648177, 0.0001, 182, 246, 48.5403, 0.197075, 1.84591, 1, 0, 0, 5.42439e-06, 63068
-1401.3, 154002, -300.944, 3.96469, -1117.49, 0.0885774, 0.336589, 0.958125, 0.351078, 0.648177, 3, 182, 246, 48.5403, 0.197075, 1.694, 1, 0, 0, -7.53915e-07, 63068
-8006.46, 406736, -279.662, 0.430697, -1063.14, 0.592521, 0.513788, 1.03299, 0.34851, 0.655882, 0.0001, 45.5, 246, 38.6323, 0.165498, 0, 0, 0, 0, 3.94349e-05, 63078
-11010.6, 698874, -14.2075, 0.549397, -973.372, 0.156323, 0.269491, 0.958125, 0.351078, 0.648177, 3, 182, 246, 19.8201, 0.00434508, 0, 0, 1, 0, -3.8468e-05, 63080
-9280.85, 207607, -198.877, 1.47056, -1163.79, 0.0522852, 0.47735, 1.03299, 0.34851, 0.655882, 0.0001, 45.5, 246, 43.1438, 0.222086, 0, 0, 0, 0, -1.46953e-05, 63081
-9280.85, 207607, -198.877, 1.47056, -1163.79, 0.0522852, 0.47735, 1.03299, 0.34851, 0.655882, 3, 45.5, 246, 43.1438, 0.222086, 0, 0, 0, 0, -1.66056e-05, 63081
-7675.09, 233003, -226.537, 1.56111, -1182.93, 0.0628918, 0.462481, 0.993198, 0.349787, 0.651995, 0.0001, 91, 246, 43.1438, 0.222086, 0, 0, 1, 0, 6.83794e-06, 63081
-2124.61, 141940, -254.193, 4.84055, -1554.57, 0.863832, 0.33191, 0.9175, 0.352806, 0.64323, 0.0001, 455, 246, 30.7514, 0.0968308, 1.24211, 1, 0, 0, 1.301e-05, 63085
-2124.61, 141940, -254.193, 4.84055, -1554.57, 0.863832, 0.33191, 0.9175, 0.352806, 0.64323, 3, 455, 246, 30.7514, 0.0968308, 1.24384, 1, 0, 0, 1.16738e-05, 63085
-11776.7, 134312, -59.8018, 3.42516, -1011.22, -0.0297642, 0.177268, 1.03299, 0.34851, 0.655882, 0.0001, 45.5, 246, 25.4484, 0.0790636, 0, 0, 0, 0, 9.31378e-06, 63088
-11776.7, 134312, -59.8018, 3.42516, -1011.22, -0.0297642, 0.177268, 1.03299, 0.34851, 0.655882, 3, 45.5, 246, 25.4484, 0.0790636, 0, 0, 0, 0, 2.33107e-05, 63088
-9720.72, 151771, -98.3065, 3.72956, -1018.24, 0.0263564, 0.188277, 0.993198, 0.349787, 0.651995, 0.0001, 91, 246, 25.4484, 0.0790636, 0, 0, 1, 0, -8.57398e-06, 63088
-9720.72, 151771, -98.3065, 3.72956, -1018.24, 0.0263564, 0.188277, 0.993198, 0.349787, 0.651995, 3, 91, 246, 25.4484, 0.0790636, 0, 0, 1, 0, 8.11299e-06, 63088
-11954.5, 243772, -14.5835, 1.22037, -931.549, 0.0805125, 0.320037, 1.03299, 0.34851, 0.655882, 0.0001, 45.5, 246, 16.7019, 0.0259134, 0, 0, 1, 0, 3.74054e-06, 63089
-11954.5, 243772, -14.5835, 1.22037, -931.549, 0.0805125, 0.320037, 1.03299, 0.34851, 0.655882, 3, 45.5, 246, 16.7019, 0.0259134, 0, 0, 1, 0, -2.2202e-05, 63089
-10860, 260097, -25.861, 1.28579, -944.732, 0.0885324, 0.289389, 0.993198, 0.349787, 0.651995, 0.0001, 91, 246, 16.7019, 0.0259134, 0, 0, 1, 0, -2.00331e-05, 63089
-11841.2, 600050, -37.5388, 0.409485, -829.74, 0.620311, 0.339838, 1.03299, 0.34851, 0.655882, 0.0001, 45.5, 246, 19.2553, 0.0157993, 0, 0, 1, 0, -6.85282e-05, 63096
-11841.2, 600050, -37.5388, 0.409485, -829.74, 0.620311, 0.339838, 1.03299, 0.34851, 0.655882, 3, 45.5, 246, 19.2553, 0.0157993, 0, 0, 1, 0, 4.72803e-05, 63096
-10979.7, 634637, -42.1284, 0.438334, -920.438, 0.688598, 0.304284, 0.993198, 0.349787, 0.651995, 3, 91, 246, 19.2553, 0.0157993, 0, 0, 1, 0, 4.24916e-05, 63096
-7624.02, 10800.1, -33.0009, 3.29262, -1121.2, 0.00344791, 0.237029, 0.993198, 0.349787, 0.651995, 0.0001, 91, 246, 17.0923, 0.0623595, 0, 0, 1, 1, -7.03257e-06, 63098
-7624.02, 10800.1, -33.0009, 3.29262, -1121.2, 0.00344791, 0.237029, 0.993198, 0.349787, 0.651995, 3, 91, 246, 17.0923, 0.0623595, 0, 0, 1, 1, 1.06465e-05, 63098
-4716.48, 874482, -284.947, 0.0977556, -1104.1, 0.00554993, 0.395333, 0.993198, 0.349787, 0.651995, 0.0001, 91, 246, 34.2802, 0.0821948, 0, 0, 1, 0, -0.000149054, 63108
-6531.26, 94912.4, -142.96, 2.84429, -1125.14, 0.0382254, 0.299572, 0.993198, 0.349787, 0.651995, 0.0001, 91, 246, 38.9458, 0.16525, 0, 0, 1, 0, 1.21958e-05, 63111
-6531.26, 94912.4, -142.96, 2.84429, -1125.14, 0.0382254, 0.299572, 0.993198, 0.349787, 0.651995, 3, 91, 246, 38.9458, 0.16525, 0, 0, 1, 0, 1.42018e-05, 63111
-2063.68, 151758, -252.017, 3.445, -1199.27, 0.141223, 0.336422, 0.9175, 0.352806, 0.64323, 3, 455, 246, 38.9458, 0.16525, 1.00021, 1, 0, 0, 1.38619e-05, 63111
-9688.99, 153686, -164.457, 3.12821, -1077.18, -0.0448483, 0.286417, 1.03299, 0.34851, 0.655882, 0.0001, 45.5, 246, 40.3839, 0.163512, 0, 0, 0, 0, 1.96031e-05, 63131
-9688.99, 153686, -164.457, 3.12821, -1077.18, -0.0448483, 0.286417, 1.03299, 0.34851, 0.655882, 3, 45.5, 246, 40.3839, 0.163512, 0, 0, 0, 0, -8.20023e-06, 63131
-7252.38, 174194, -210.866, 3.39353, -1089.48, 0.00186442, 0.294461, 0.993198, 0.349787, 0.651995, 0.0001, 91, 246, 40.3839, 0.163512, 0, 0, 1, 0, -1.17501e-05, 63131
-7252.38, 174194, -210.866, 3.39353, -1089.48, 0.00186442, 0.294461, 0.993198, 0.349787, 0.651995, 3, 91, 246, 40.3839, 0.163512, 0, 0, 1, 0, -1.6851e-05, 63131
-6208.14, -3693.95, -51.4115, 3.34643, -851.355, -0.0536735, 0.208817, 1.03299, 0.34851, 0.655882, 0.0001, 45.5, 246, 30.8488, 0.0247218, 0, 0, 1, 1, 4.07234e-06, 63133
-6548.3, 22641.9, -72.6736, 2.83014, -923.005, 0.350909, 0.254244, 1.03299, 0.34851, 0.655882, 0.0001, 45.5, 246, 35.8461, 0.0894038, 0, 0, 1, 0, 1.08897e-05, 63134
-6161.97, 66663.6, -127.951, 2.73395, -1134.66, 0.247938, 0.285671, 0.958125, 0.351078, 0.648177, 3, 182, 246, 37.6548, 0.127174, 0, 0, 1, 0, -7.38769e-06, 63138
-12671.5, 267190, -58.3156, 1.56202, -1143.09, 0.142872, 0.319291, 1.03299, 0.34851, 0.655882, 0.0001, 45.5, 246, 24.6527, 0.0602104, 0, 0, 1, 0, 1.25447e-05, 63139
-12671.5, 267190, -58.3156, 1.56202, -1143.09, 0.142872, 0.319291, 1.03299, 0.34851, 0.655882, 3, 45.5, 246, 24.6527, 0.0602104, 0, 0, 1, 0, 1.85999e-05, 63139
-10864.3, 97556.9, -14.0021, 3.04167, -836.363, 0.0430529, 0.204863, 1.03299, 0.34851, 0.655882, 0.0001, 45.5, 246, 16.2886, 0.0456807, 0, 0, 1, 0, -2.57731e-06, 63140
-10864.3, 97556.9, -14.0021, 3.04167, -836.363, 0.0430529, 0.204863, 1.03299, 0.34851, 0.655882, 3, 45.5, 246, 16.2886, 0.0456807, 0, 0, 1, 0, 6.52441e-06, 63140
-7620.36, 991929, -143.069, 0.148992, -1083.38, 0.365502, 0.323248, 0.993198, 0.349787, 0.651995, 0.0001, 91, 246, 27.9891, 0.0343671, 0, 0, 1, 0, -9.24333e-05, 63147
-6930.68, 1.03425e+06, -148.451, 0.156086, -1150.4, 0.388015, 0.292592, 0.958125, 0.351078, 0.648177, 0.0001, 182, 246, 27.9891, 0.0343671, 0, 0, 1, 0, 7.84494e-05, 63147
-11744.6, 295406, -182.786, 1.49866, -1037.18, 0.703325, 0.400242, 1.03299, 0.34851, 0.655882, 0.0001, 45.5, 246, 34.3787, 0.134644, 0, 0, 0, 0, 1.83918e-05, 63150
-10114.2, 166519, -83.2022, 1.48024, -1002.84, 0.0216941, 0.347659, 1.03299, 0.34851, 0.655882, 0.0001, 45.5, 246, 26.9309, 0.111471, 0, 0, 1, 0, -2.27019e-05, 63156
-10114.2, 166519, -83.2022, 1.48024, -1002.84, 0.0216941, 0.347659, 1.03299, 0.34851, 0.655882, 3, 45.5, 246, 26.9309, 0.111471, 0, 0, 1, 0, 2.14609e-05, 63156
-5547.05, 531604, -304.129, 0.17285, -1116.57, 0.256933, 0.478674, 0.993198, 0.349787, 0.651995, 0.0001, 91, 246, 37.4965, 0.146576, 0, 0, 1, 0, 1192.45, 63158
-4420.29, 563686, -315.614, 0.180838, -1165.31, 0.267949, 0.459775, 0.958125, 0.351078, 0.648177, 0.0001, 182, 246, 37.4965, 0.146576, 0, 0, 0, 0, -1155.28, 63158
-4420.29, 563686, -315.614, 0.180838, -1165.31, 0.267949, 0.459775, 0.958125, 0.351078, 0.648177, 3, 182, 246, 37.4965, 0.146576, 0, 0, 0, 0, 1155.21, 63158
-3151.24, 90612.6, -242.89, 2.93131, -600.604, -0.0389651, 0.347259, 1.03299, 0.34851, 0.655882, 0.0001, 45.5, 246, 60.6387, 0.248551, 1.67132, 1, 1, 0, 4.22032e-06, 63165
-3151.24, 90612.6, -242.89, 2.93131, -600.604, -0.0389651, 0.347259, 1.03299, 0.34851, 0.655882, 3, 45.5, 246, 60.6387, 0.248551, 1.55247, 1, 1, 0, -7.66139e-06, 63165
-1350.82, 98119.3, -280.241, 3.17389, -619.775, 0.00196367, 0.353706, 0.993198, 0.349787, 0.651995, 0.0001, 91, 246, 60.6387, 0.248551, 1.86578, 1, 1, 1, 7.75204e-06, 63165
-1350.82, 98119.3, -280.241, 3.17389, -619.775, 0.00196367, 0.353706, 0.993198, 0.349787, 0.651995, 3, 91, 246, 60.6387, 0.248551, 1.74907, 1, 1, 0, 1.38404e-05, 63165
930.308, 106885, -323.866, 3.45521, -648.647, 0.0502395, 0.374791, 0.958125, 0.351078, 0.648177, 0.0001, 182, 246, 60.6387, 0.248551, 2.464, 1, 1, 1, -1.99819e-06, 63165
930.308, 106885, -323.866, 3.45521, -648.647, 0.0502395, 0.374791, 0.958125, 0.351078, 0.648177, 3, 182, 246, 60.6387, 0.248551, 2.32235, 1, 1, 1, -3.00709e-06, 63165
-8711.92, 527549, -227.464, 0.331206, -886.111, 0.0376315, 0.43512, 1.03299, 0.34851, 0.655882, 0.0001, 45.5, 246, 30.5307, 0.111297, 0, 0, 0, 0, -1.90294e-05, 63177
-8711.92, 527549, -227.464, 0.331206, -886.111, 0.0376315, 0.43512, 1.03299, 0.34851, 0.655882, 3, 45.5, 246, 30.5307, 0.111297, 0, 0, 0, 0, 1.4668e-07, 63177
-7679.68, 543425, -238.191, 0.343608, -893.522, 0.0383594, 0.406648, 0.993198, 0.349787, 0.651995, 0.0001, 91, 246, 30.5307, 0.111297, 0, 0, 1, 0, 2.27721e-05, 63177
-8744.24, 473781, -267.069, 0.445902, -978.179, 0.00667749, 0.487108, 1.03299, 0.34851, 0.655882, 0.0001, 45.5, 246, 35.6783, 0.146942, 0, 0, 0, 0, -4.3571e-05, 63180
-8744.24, 473781, -267.069, 0.445902, -978.179, 0.00667749, 0.487108, 1.03299, 0.34851, 0.655882, 3, 45.5, 246, 35.6783, 0.146942, 0, 0, 0, 0, -8.86538e-06, 63180
-7364.4, 492093, -281.471, 0.463464, -982.569, 0.00759322, 0.463543, 0.993198, 0.349787, 0.651995, 3, 91, 246, 35.6783, 0.146942, 0, 0, 1, 0, -7.08159e-05, 63180
-13952.1, 189724, -79.2753, 3.47592, -1175, -0.0577359, 0.177442, 1.03299, 0.34851, 0.655882, 0.0001, 45.5, 246, 29.2947, 0.0878527, 0, 0, 0, 0, -9.03997e-06, 63183
-13952.1, 189724, -79.2753, 3.47592, -1175, -0.0577359, 0.177442, 1.03299, 0.34851, 0.655882, 3, 45.5, 246, 29.2947, 0.0878527, 0, 0, 0, 0, -5.38884e-06, 63183
-10936.3, 213080, -125.482, 3.78299, -1179.25, 0.000168238, 0.19015, 0.993198, 0.349787, 0.651995, 0.0001, 91, 246, 29.2947, 0.0878527, 0, 0, 1, 0, 4.66557e-06, 63183
-10936.3, 213080, -125.482, 3.78299, -1179.25, 0.000168238, 0.19015, 0.993198, 0.349787, 0.651995, 3, 91, 246, 29.2947, 0.0878527, 0, 0, 1, 0, -1.92461e-06, 63183
-6758.81, -21753.8, 0.440903, 3.40642, -1049.6, 0.105248, 0.200297, 1.03299, 0.34851, 0.655882, 0.0001, 45.5, 246, 17.0501, 0.0532623, 0, 0, 1, 0, -1.20234e-06, 63190
-6758.81, -21753.8, 0.440903, 3.40642, -1049.6, 0.105248, 0.200297, 1.03299, 0.34851, 0.655882, 3, 45.5, 246, 17.0501, 0.0532623, 0, 0, 1, 0, -7.49295e-06, 63190
-7105.59, -2519.55, -34.1852, 3.73776, -1073.56, 0.164013, 0.212443, 0.993198, 0.349787, 0.651995, 3, 91, 246, 17.0501, 0.0532623, 0, 0, 1, 1, -5.18338e-06, 63190
-10175.2, 172230, -124.017, 1.72949, -857.622, 0.00312499, 0.365252, 1.03299, 0.34851, 0.655882, 3, 45.5, 246, 31.4687, 0.148337, 0, 0, 1, 0, 1.78461e-06, 63191
-8876.85, 185366, -145.336, 1.83442, -865.294, 0.0170772, 0.345179, 0.993198, 0.349787, 0.651995, 0.0001, 91, 246, 31.4687, 0.148337, 0, 0, 1, 0, 4.05495e-06, 63191
-11604.2, 299917, -308.605, 1.33638, -718.058, 0.312822, 0.581982, 1.03299, 0.34851, 0.655882, 0.0001, 45.5, 246, 42.757, 0.237523, 0, 0, 0, 0, -1.82771e-05, 63195
-11604.2, 299917, -308.605, 1.33638, -718.058, 0.312822, 0.581982, 1.03299, 0.34851, 0.655882, 3, 45.5, 246, 42.757, 0.237523, 0, 0, 0, 0, 1.66939e-05, 63195
-12145.5, 208231, -8.49246, 1.40194, -665.869, 0.743504, 0.30916, 1.03299, 0.34851, 0.655882, 0.0001, 45.5, 246, 12.4341, 0.019342, 0, 0, 1, 0, 1.11519e-06, 63198
-12145.5, 208231, -8.49246, 1.40194, -665.869, 0.743504, 0.30916, 1.03299, 0.34851, 0.655882, 3, 45.5, 246, 12.4341, 0.019342, 0, 0, 1, 0, -4.91139e-05, 63198
-7457.33, 62810, -90.9192, 2.1718, -1193.02, 0.0843967, 0.311337, 0.993198, 0.349787, 0.651995, 0.0001, 91, 246, 34.6142, 0.167631, 0, 0, 1, 1, -4.46527e-06, 63199
-2943.06, 107127, -223.384, 3.53571, -1286.96, 1.40875, 0.310213, 0.9175, 0.352806, 0.64323, 0.0001, 455, 246, 43.2571, 0.138531, 1.43868, 1, 1, 0, -1.26645e-05, 63204
-2943.06, 107127, -223.384, 3.53571, -1286.96, 1.40875, 0.310213, 0.9175, 0.352806, 0.64323, 3, 455, 246, 43.2571, 0.138531, 1.42662, 1, 1, 0, 1.78675e-05, 63204
-6748.28, -26037.5, 14.0236, 3.54007, -1120.05, -0.0333249, 0.187503, 1.03299, 0.34851, 0.655882, 0.0001, 45.5, 246, 14.0451, 0.0584881, 0, 0, 1, 0, -6.53791e-06, 63206
-6748.28, -26037.5, 14.0236, 3.54007, -1120.05, -0.0333249, 0.187503, 1.03299, 0.34851, 0.655882, 3, 45.5, 246, 14.0451, 0.0584881, 0, 0, 1, 0, 1.39528e-05, 63206
-5859.42, 241735, -353.219, 3.34518, -1141.86, 0.497151, 0.445272, 0.993198, 0.349787, 0.651995, 0.0001, 91, 246, 51.5198, 0.232869, 1.04444, 1, 1, 0, 4.90773e-06, 63208
-12984.3, 132896, -6.84973, 3.61577, -942.231, -0.0547802, 0.133009, 1.03299, 0.34851, 0.655882, 0.0001, 45.5, 246, 17.5096, 0.0409251, 0, 0, 0, 0, -1.23187e-05, 63209
-12984.3, 132896, -6.84973, 3.61577, -942.231, -0.0547802, 0.133009, 1.03299, 0.34851, 0.655882, 3, 45.5, 246, 17.5096, 0.0409251, 0, 0, 0, 0, -6.05507e-06, 63209
-10912.6, 147469, -40.0376, 3.9421, -940.927, 0.00793068, 0.148291, 0.993198, 0.349787, 0.651995, 0.0001, 91, 246, 17.5096, 0.0409251, 0, 0, 1, 0, -5.27635e-06, 63209
-10912.6, 147469, -40.0376, 3.9421, -940.927, 0.00793068, 0.148291, 0.993198, 0.349787, 0.651995, 3, 91, 246, 17.5096, 0.0409251, 0, 0, 1, 0, 5.20941e-06, 63209
-10358.3, 545653, -153.42, 0.502073, -942.72, 0.0331428, 0.379722, 1.03299, 0.34851, 0.655882, 0.0001, 45.5, 246, 27.1972, 0.0725584, 0, 0, 0, 0, 3.62589e-05, 63212
-10358.3, 545653, -153.42, 0.502073, -942.72, 0.0331428, 0.379722, 1.03299, 0.34851, 0.655882, 3, 45.5, 246, 27.1972, 0.0725584, 0, 0, 0, 0, -2.41727e-06, 63212
-10994.2, 160573, -65.6682, 1.99015, -1053.45, 0.304505, 0.307078, 1.03299, 0.34851, 0.655882, 0.0001, 45.5, 246, 25.4025, 0.0880005, 0, 0, 1, 0, -3.86567e-06, 63213
-7811.41, 210491, -119.294, 2.33676, -1184.23, 0.382321, 0.277574, 0.958125, 0.351078, 0.648177, 3, 182, 246, 25.4025, 0.0880005, 0, 0, 1, 0, 2.41299e-05, 63213
-11277.3, 182803, -67.9366, 3.31534, -911.743, 0.396752, 0.200806, 0.993198, 0.349787, 0.651995, 0.0001, 91, 246, 20.0811, 0.0545993, 0, 0, 1, 0, 6.19926e-07, 63215
-11277.3, 182803, -67.9366, 3.31534, -911.743, 0.396752, 0.200806, 0.993198, 0.349787, 0.651995, 3, 91, 246, 20.0811, 0.0545993, 0, 0, 1, 0, -2.67798e-05, 63215
-8472.87, 202496, -104.061, 3.68506, -985.032, 0.480631, 0.217787, 0.958125, 0.351078, 0.648177, 0.0001, 182, 246, 20.0811, 0.0545993, 0, 0, 1, 0, 1.82238e-05, 63215
-8472.87, 202496, -104.061, 3.68506, -985.032, 0.480631, 0.217787, 0.958125, 0.351078, 0.648177, 3, 182, 246, 20.0811, 0.0545993, 0, 0, 1, 0, 1.82586e-05, 63215
-9377.26, 332908, -308.358, 0.8251, -1052.73, 0.0527272, 0.615287, 1.03299, 0.34851, 0.655882, 0.0001, 45.5, 246, 45.9683, 0.242372, 0, 0, 0, 0, 1.69191e-05, 63216
-7485.46, 355324, -331.828, 0.868773, -1069.01, 0.0563453, 0.606515, 0.993198, 0.349787, 0.651995, 3, 91, 246, 45.9683, 0.242372, 0, 0, 1, 0, 3.28688e-05, 63216
-13108.1, 241613, -135.051, 2.26145, -960.695, 0.367289, 0.318465, 1.03299, 0.34851, 0.655882, 0.0001, 45.5, 246, 30.8409, 0.114928, 0, 0, 0, 0, 1.43288e-05, 63219
-13108.1, 241613, -135.051, 2.26145, -960.695, 0.367289, 0.318465, 1.03299, 0.34851, 0.655882, 3, 45.5, 246, 30.8409, 0.114928, 0, 0, 0, 0, -3.16593e-05, 63219
-10001.7, 286522, -103.69, 3.82236, -1029.12, 0.326435, 0.199066, 0.958125, 0.351078, 0.648177, 0.0001, 182, 246, 20.7267, 0.0443243, 0, 0, 0, 0, 8.09173e-05, 63222
-10001.7, 286522, -103.69, 3.82236, -1029.12, 0.326435, 0.199066, 0.958125, 0.351078, 0.648177, 3, 182, 246, 20.7267, 0.0443243, 0, 0, 0, 0, 3.57584e-06, 63222
-7350.82, 77157.7, -129.533, 3.39496, -687.125, 0.0954723, 0.204805, 1.03299, 0.34851, 0.655882, 3, 45.5, 246, 36.1356, 0.119226, 0, 0, 1, 0, 7.5101e-06, 63224
-976.552, 114709, -278.471, 4.79049, -840.639, 0.358408, 0.328298, 0.9175, 0.352806, 0.64323, 0.0001, 455, 246, 36.1356, 0.119226, 1.31143, 1, 1, 0, 6.15255e-06, 63224
-976.552, 114709, -278.471, 4.79049, -840.639, 0.358408, 0.328298, 0.9175, 0.352806, 0.64323, 3, 455, 246, 36.1356, 0.119226, 1.28612, 1, 1, 0, -1.4237e-05, 63224
-11166.7, 534834, -54.564, 0.456824, -1084.78, 0.546877, 0.3427, 1.03299, 0.34851, 0.655882, 0.0001, 45.5, 246, 24.4003, 0.0255809, 0, 0, 1, 0, 1.57e-05, 63225
-11166.7, 534834, -54.564, 0.456824, -1084.78, 0.546877, 0.3427, 1.03299, 0.34851, 0.655882, 3, 45.5, 246, 24.4003, 0.0255809, 0, 0, 1, 0, 0.000204927, 63225
-10272.2, 574146, -61.2683, 0.487384, -1188.23, 0.599678, 0.307549, 0.993198, 0.349787, 0.651995, 3, 91, 246, 24.4003, 0.0255809, 0, 0, 1, 0, -2.39466e-05, 63225
-7626.09, 363206, -250.291, 0.614546, -1014.46, 0.00937781, 0.473853, 0.993198, 0.349787, 0.651995, 0.0001, 91, 246, 37.6415, 0.178143, 0, 0, 1, 0, -6.77708e-06, 63229
-6210.05, 382674, -265.992, 0.639425, -1020.37, 0.0111202, 0.4562, 0.958125, 0.351078, 0.648177, 0.0001, 182, 246, 37.6415, 0.178143, 0, 0, 0, 0, -8.15451e-05, 63229
-1946.82, 300608, -419.707, 3.91127, -1173.91, 0.361433, 0.442743, 0.958125, 0.351078, 0.648177, 0.0001, 182, 246, 47.8966, 0.207501, 3.48702, 1, 0, 0, 7.01143e-06, 63238
-1946.82, 300608, -419.707, 3.91127, -1173.91, 0.361433, 0.442743, 0.958125, 0.351078, 0.648177, 3, 182, 246, 47.8966, 0.207501, 3.15618, 1, 0, 0, -1.39445e-05, 63238
-7522.8, 835.109, -15.7067, 2.86327, -1035.16, 0.506061, 0.243752, 1.03299, 0.34851, 0.655882, 0.0001, 45.5, 246, 20.63, 0.065012, 0, 0, 1, 0, -1.1178e-05, 63239
-7522.8, 835.109, -15.7067, 2.86327, -1035.16, 0.506061, 0.243752, 1.03299, 0.34851, 0.655882, 3, 45.5, 246, 20.63, 0.065012, 0, 0, 1, 0, -7.20753e-06, 63239
-10317, 158923, -132.087, 1.96403, -613.574, 0.0103581, 0.350146, 1.03299, 0.34851, 0.655882, 0.0001, 45.5, 246, 30.4072, 0.149747, 0, 0, 1, 0, 8.86865e-06, 63259
-10317, 158923, -132.087, 1.96403, -613.574, 0.0103581, 0.350146, 1.03299, 0.34851, 0.655882, 3, 45.5, 246, 30.4072, 0.149747, 0, 0, 1, 0, -5.0137e-06, 63259
-11936.6, 204650, -109.206, 2.24837, -1034.44, -0.0220248, 0.314034, 1.03299, 0.34851, 0.655882, 0.0001, 45.5, 246, 30.1077, 0.113313, 0, 0, 0, 0, -9.33469e-06, 63260
-11936.6, 204650, -109.206, 2.24837, -1034.44, -0.0220248, 0.314034, 1.03299, 0.34851, 0.655882, 3, 45.5, 246, 30.1077, 0.113313, 0, 0, 0, 0, -4.1055e-06, 63260
-8784.91, 89577.2, -88.5406, 3.39877, -1144.34, 0.0532643, 0.2087, 1.03299, 0.34851, 0.655882, 0.0001, 45.5, 246, 32.8856, 0.114715, 0, 0, 0, 0, -1.87597e-05, 63261
-8784.91, 89577.2, -88.5406, 3.39877, -1144.34, 0.0532643, 0.2087, 1.03299, 0.34851, 0.655882, 3, 45.5, 246, 32.8856, 0.114715, 0, 0, 0, 0, 1.14126e-05, 63261
-7282.99, 113173, -134.11, 3.71897, -1169.46, 0.109826, 0.220926, 0.993198, 0.349787, 0.651995, 0.0001, 91, 246, 32.8856, 0.114715, 0, 0, 1, 0, 9.51837e-06, 63261
-7282.99, 113173, -134.11, 3.71897, -1169.46, 0.109826, 0.220926, 0.993198, 0.349787, 0.651995, 3, 91, 246, 32.8856, 0.114715, 0, 0, 1, 0, -1.55744e-05, 63261
-397.155, 179423, -284.849, 4.75581, -1312.31, 0.305501, 0.331428, 0.9175, 0.352806, 0.64323, 0.0001, 455, 246, 32.8856, 0.114715, 1.42686, 1, 0, 0, -7.0906e-06, 63261
-397.155, 179423, -284.849, 4.75581, -1312.31, 0.305501, 0.331428, 0.9175, 0.352806, 0.64323, 3, 455, 246, 32.8856, 0.114715, 1.45808, 1, 0, 0, 1.7688e-05, 63261
-1858.54, 86883, -241.373, 3.38629, -863.649, 0.1034, 0.318266, 0.9175, 0.352806, 0.64323, 0.0001, 455, 246, 49.0303, 0.163701, 1.4648, 1, 1, 0, 9.92042e-06, 63265
-1858.54, 86883, -241.373, 3.38629, -863.649, 0.1034, 0.318266, 0.9175, 0.352806, 0.64323, 3, 455, 246, 49.0303, 0.163701, 1.38968, 1, 1, 0, 4.78457e-06, 63265
-8948.57, 348829, -475.186, 3.77265, -1030.43, 0.0333644, 0.532037, 0.993198, 0.349787, 0.651995, 0.0001, 91, 246, 53.7541, 0.240367, 1.3629, 1, 1, 0, -7.90997e-06, 63266
-8948.57, 348829, -475.186, 3.77265, -1030.43, 0.0333644, 0.532037, 0.993198, 0.349787, 0.651995, 3, 91, 246, 53.7541, 0.240367, 1.28856, 1, 1, 0, 5.72247e-06, 63266
-11818.4, 167262, -129.152, 3.51756, -1042.97, -0.0566272, 0.20208, 1.03299, 0.34851, 0.655882, 0.0001, 45.5, 246, 34.1452, 0.121136, 0, 0, 0, 0, -1.34645e-05, 63267
-11818.4, 167262, -129.152, 3.51756, -1042.97, -0.0566272, 0.20208, 1.03299, 0.34851, 0.655882, 3, 45.5, 246, 34.1452, 0.121136, 0, 0, 0, 0, -6.40034e-06, 63267
-9010.93, 185981, -176.243, 3.83441, -1053.12, 0.00274769, 0.217734, 0.993198, 0.349787, 0.651995, 0.0001, 91, 246, 34.1452, 0.121136, 0, 0, 1, 0, 9.34534e-06, 63267
-9010.93, 185981, -176.243, 3.83441, -1053.12, 0.00274769, 0.217734, 0.993198, 0.349787, 0.651995, 3, 91, 246, 34.1452, 0.121136, 0, 0, 1, 0, -1.55959e-05, 63267
1336.46, 238995, -328.546, 4.86226, -1155.83, 0.196699, 0.338064, 0.9175, 0.352806, 0.64323, 0.0001, 455, 246, 34.1452, 0.121136, 2.0336, 1, 0, 0, -1.15098e-05, 63267
1336.46, 238995, -328.546, 4.86226, -1155.83, 0.196699, 0.338064, 0.9175, 0.352806, 0.64323, 3, 455, 246, 34.1452, 0.121136, 2.72771, 1, 0, 0, 1.73553e-05, 63267
-7986.17, 77794.9, -89.5328, 3.66377, -709.533, 0.441153, 0.193924, 0.993198, 0.349787, 0.651995, 0.0001, 91, 246, 23.1058, 0.0702395, 0, 0, 1, 0, -7.69819e-06, 63269
-7986.17, 77794.9, -89.5328, 3.66377, -709.533, 0.441153, 0.193924, 0.993198, 0.349787, 0.651995, 3, 91, 246, 23.1058, 0.0702395, 0, 0, 1, 0, -6.88752e-06, 63269
-3904.74, 110210, -188.619, 4.90374, -914.989, 0.748441, 0.303599, 0.9175, 0.352806, 0.64323, 0.0001, 455, 246, 23.1058, 0.0702395, 0, 0, 1, 0, -1.23752e-05, 63269
-3904.74, 110210, -188.619, 4.90374, -914.989, 0.748441, 0.303599, 0.9175, 0.352806, 0.64323, 3, 455, 246, 23.1058, 0.0702395, 0, 0, 1, 0, 1.78325e-05, 63269
-9735.84, 89777.3, -25.7861, 1.84045, -834.927, -0.0154453, 0.303574, 1.03299, 0.34851, 0.655882, 0.0001, 45.5, 246, 17.2016, 0.0632759, 0, 0, 1, 0, -1.67684e-05, 63270
-9735.84, 89777.3, -25.7861, 1.84045, -834.927, -0.0154453, 0.303574, 1.03299, 0.34851, 0.655882, 3, 45.5, 246, 17.2016, 0.0632759, 0, 0, 1, 0, 2.51089e-08, 63270
-9047.71, 872857, -208.277, 0.221821, -868.875, 0.470744, 0.383702, 1.03299, 0.34851, 0.655882, 0.0001, 45.5, 246, 26.8438, 0.0561417, 0, 0, 0, 0, 3.58374e-05, 63271
-9047.71, 872857, -208.277, 0.221821, -868.875, 0.470744, 0.383702, 1.03299, 0.34851, 0.655882, 3, 45.5, 246, 26.8438, 0.0561417, 0, 0, 0, 0, 9.45444e-05, 63271
-9566.85, 885097, -49.9598, 1.66122, -895.885, 0.0294494, 0.229166, 0.9175, 0.352806, 0.64323, 3, 455, 246, 20.6642, 0.00681082, 0, 0, 1, 0, -2.29561e-05, 63272
-8370.8, 613424, -112.288, 0.294025, -1142.29, 0.0805781, 0.323592, 0.993198, 0.349787, 0.651995, 0.0001, 91, 246, 27.6442, 0.0454861, 0, 0, 1, 0, 2.78001e-05, 63288
-8727.77, 87416, -47.1794, 3.78919, -1075.78, 0.0641742, 0.180671, 0.993198, 0.349787, 0.651995, 0.0001, 91, 246, 19.299, 0.0569521, 0, 0, 1, 0, -2.41941e-06, 63294
-8727.77, 87416, -47.1794, 3.78919, -1075.78, 0.0641742, 0.180671, 0.993198, 0.349787, 0.651995, 3, 91, 246, 19.299, 0.0569521, 0, 0, 1, 0, -8.36987e-06, 63294
-10473.5, 146038, -134.33, 3.21742, -938.91, 0.0482187, 0.240194, 1.03299, 0.34851, 0.655882, 0.0001, 45.5, 246, 34.6228, 0.131538, 0, 0, 0, 0, -5.88105e-06, 63298
-10473.5, 146038, -134.33, 3.21742, -938.91, 0.0482187, 0.240194, 1.03299, 0.34851, 0.655882, 3, 45.5, 246, 34.6228, 0.131538, 0, 0, 0, 0, -1.03396e-05, 63298
157.366, 210144, -307.335, 4.43478, -1087.13, 0.26954, 0.339853, 0.9175, 0.352806, 0.64323, 0.0001, 455, 246, 34.6228, 0.131538, 1.35135, 1, 0, 0, 1.61574e-05, 63298
157.366, 210144, -307.335, 4.43478, -1087.13, 0.26954, 0.339853, 0.9175, 0.352806, 0.64323, 3, 455, 246, 34.6228, 0.131538, 1.41514, 1, 0, 0, -5.64063e-07, 63298
-10298.7, 204549, -246.854, 3.32738, -1122, 0.0213673, 0.340164, 1.03299, 0.34851, 0.655882, 3, 45.5, 246, 47.8873, 0.20113, 0, 0, 0, 0, 1.8301e-05, 63300
-1570.24, 256257, -377.246, 4.02011, -1210.15, 0.141114, 0.397038, 0.958125, 0.351078, 0.648177, 0.0001, 182, 246, 47.8873, 0.20113, 2.5535, 1, 0, 0, -5.59019e-07, 63300
-1570.24, 256257, -377.246, 4.02011, -1210.15, 0.141114, 0.397038, 0.958125, 0.351078, 0.648177, 3, 182, 246, 47.8873, 0.20113, 2.35881, 1, 0, 0, 5.42931e-06, 63300
-7981.15, 312041, -282.354, 1.00642, -989.061, 0.00163926, 0.538282, 0.993198, 0.349787, 0.651995, 3, 91, 246, 42.8137, 0.227633, 0, 0, 1, 0, -2.08891e-06, 63302
-8379.26, 207072, -122.856, 2.63346, -803.847, 0.20681, 0.265028, 0.958125, 0.351078, 0.648177, 3, 182, 246, 22.6334, 0.0830456, 0, 0, 1, 0, 1.34923e-05, 63308
-9602.86, 413652, -249.759, 0.538096, -834.126, 0.295928, 0.478876, 1.03299, 0.34851, 0.655882, 0.0001, 45.5, 246, 33.3447, 0.150524, 0, 0, 0, 0, 4.04078e-05, 63312
-9602.86, 413652, -249.759, 0.538096, -834.126, 0.295928, 0.478876, 1.03299, 0.34851, 0.655882, 3, 45.5, 246, 33.3447, 0.150524, 0, 0, 0, 0, 8.99876e-05, 63312
-8602.99, 179964, -321.808, 3.0441, -603.005, 0.693165, 0.4, 1.03299, 0.34851, 0.655882, 0.0001, 45.5, 246, 50.4329, 0.23054, 1.40422, 1, 0, 0, -1.01326e-05, 63314
-8602.99, 179964, -321.808, 3.0441, -603.005, 0.693165, 0.4, 1.03299, 0.34851, 0.655882, 3, 45.5, 246, 50.4329, 0.23054, 1.32837, 1, 0, 0, -3.84412e-05, 63314
-5080.16, 196706, -369.899, 3.45036, -711.022, 0.830342, 0.416019, 0.993198, 0.349787, 0.651995, 0.0001, 91, 246, 50.4329, 0.23054, 1.60559, 1, 1, 0, -8.27057e-05, 63314
-5080.16, 196706, -369.899, 3.45036, -711.022, 0.830342, 0.416019, 0.993198, 0.349787, 0.651995, 3, 91, 246, 50.4329, 0.23054, 1.46506, 1, 1, 0, 9.89304e-05, 63314
-375.458, 220236, -432.293, 3.97204, -864.439, 1.02524, 0.454295, 0.958125, 0.351078, 0.648177, 0.0001, 182, 246, 50.4329, 0.23054, 4.56555, 1, 0, 0, -191.449, 63314
-375.458, 220236, -432.293, 3.97204, -864.439, 1.02524, 0.454295, 0.958125, 0.351078, 0.648177, 3, 182, 246, 50.4329, 0.23054, 4.05064, 1, 0, 0, -193.541, 63314
-8582.42, 155793, -194.092, 2.19615, -1038.27, 0.0367602, 0.426036, 1.03299, 0.34851, 0.655882, 0.0001, 45.5, 246, 45.9171, 0.232055, 0, 0, 1, 0, -6.42971e-06, 63316
-8582.42, 155793, -194.092, 2.19615, -1038.27, 0.0367602, 0.426036, 1.03299, 0.34851, 0.655882, 3, 45.5, 246, 45.9171, 0.232055, 0, 0, 1, 0, -1.55574e-05, 63316
-61.6956, 230051, -333.413, 2.81542, -1140.61, 0.131014, 0.442961, 0.9175, 0.352806, 0.64323, 3, 455, 246, 45.9171, 0.232055, 1.64576, 1, 0, 0, 3.2276e-07, 63316
-10759.1, 227248, -271.044, 2.6327, -918.443, -0.0241697, 0.448528, 1.03299, 0.34851, 0.655882, 0.0001, 45.5, 246, 47.4876, 0.227575, 0, 0, 0, 0, 8.84009e-06, 63328
-10759.1, 227248, -271.044, 2.6327, -918.443, -0.0241697, 0.448528, 1.03299, 0.34851, 0.655882, 3, 45.5, 246, 47.4876, 0.227575, 0, 0, 0, 0, 1.01322e-06, 63328
-2801.2, 52783.8, -187.122, 3.95481, -990.871, 0.0472309, 0.213762, 0.993198, 0.349787, 0.651995, 3, 91, 246, 50.3055, 0.104217, 0, 0, 1, 1, -7.82397e-06, 63329
-1307.45, 71553.9, -244.3, 4.36808, -1027.88, 0.124249, 0.254254, 0.958125, 0.351078, 0.648177, 0.0001, 182, 246, 50.3055, 0.104217, 1.50907, 1, 1, 0, 1.40659e-05, 63329
-1307.45, 71553.9, -244.3, 4.36808, -1027.88, 0.124249, 0.254254, 0.958125, 0.351078, 0.648177, 3, 182, 246, 50.3055, 0.104217, 1.3557, 1, 1, 0, -8.75104e-06, 63329
2042.54, 101210, -343.038, 5.08158, -1117.98, 0.260693, 0.349191, 0.9175, 0.352806, 0.64323, 0.0001, 455, 246, 50.3055, 0.104217, 3.1075, 1, 1, 1, -1.35859e-05, 63329
2042.54, 101210, -343.038, 5.08158, -1117.98, 0.260693, 0.349191, 0.9175, 0.352806, 0.64323, 3, 455, 246, 50.3055, 0.104217, 3.1071, 1, 1, 1, 3.98948e-06, 63329
-7445.78, 804172, -230.933, 0.20286, -1067.8, 0.216371, 0.401458, 1.03299, 0.34851, 0.655882, 0.0001, 45.5, 246, 32.0127, 0.0706208, 0, 0, 0, 0, 2.22488e-05, 63335
-7445.78, 804172, -230.933, 0.20286, -1067.8, 0.216371, 0.401458, 1.03299, 0.34851, 0.655882, 3, 45.5, 246, 32.0127, 0.0706208, 0, 0, 0, 0, -0.000250944, 63335
-6406.09, 835384, -240.344, 0.211805, -1106.93, 0.224226, 0.369933, 0.993198, 0.349787, 0.651995, 3, 91, 246, 32.0127, 0.0706208, 0, 0, 1, 0, 7.40331e-05, 63335
-5217.76, 868998, -249.606, 0.220692, -1149.03, 0.232675, 0.342606, 0.958125, 0.351078, 0.648177, 3, 182, 246, 32.0127, 0.0706208, 0, 0, 0, 0, 2.03133e-05, 63335
-7814.39, 182634, -316.654, 3.47848, -774.952, -0.0574995, 0.378841, 1.03299, 0.34851, 0.655882, 0.0001, 45.5, 246, 54.6866, 0.243059, 1.39582, 1, 0, 0, -1.77571e-05, 63341
-7814.39, 182634, -316.654, 3.47848, -774.952, -0.0574995, 0.378841, 1.03299, 0.34851, 0.655882, 3, 45.5, 246, 54.6866, 0.243059, 1.3256, 1, 0, 0, -5.62345e-06, 63341
-3925.34, 194969, -373.509, 3.80756, -804.367, 0.000821509, 0.405655, 0.993198, 0.349787, 0.651995, 0.0001, 91, 246, 54.6866, 0.243059, 1.82133, 1, 1, 0, 7.10027e-06, 63341
-3925.34, 194969, -373.509, 3.80756, -804.367, 0.000821509, 0.405655, 0.993198, 0.349787, 0.651995, 3, 91, 246, 54.6866, 0.243059, 1.73157, 1, 1, 0, 9.34316e-06, 63341
-1574.11, 244252, -382.994, 3.66278, -1212.22, 1.06626, 0.436744, 0.958125, 0.351078, 0.648177, 0.0001, 182, 246, 48.4379, 0.220382, 2.12942, 1, 0, 0, -7.32678e-05, 63345
-1574.11, 244252, -382.994, 3.66278, -1212.22, 1.06626, 0.436744, 0.958125, 0.351078, 0.648177, 3, 182, 246, 48.4379, 0.220382, 1.95315, 1, 0, 0, -2.07199e-05, 63345
-10010.7, 153043, -83.3116, 2.68207, -742.143, 0.994416, 0.250132, 0.993198, 0.349787, 0.651995, 3, 91, 246, 20.0716, 0.0703567, 0, 0, 1, 0, -3.17203e-05, 63347
-8442.84, 384907, -288.23, 0.351923, -675.894, 0.598326, 0.509434, 0.993198, 0.349787, 0.651995, 0.0001, 91, 246, 33.0751, 0.184161, 0, 0, 1, 0, 1.49363e-05, 63348
-8992.49, 269536, -140.746, 1.12377, -1040.34, 0.00913499, 0.356796, 0.993198, 0.349787, 0.651995, 0.0001, 91, 246, 30.0236, 0.121862, 0, 0, 1, 0, 6.38236e-06, 63352
-7450.59, -17150.4, -20.4058, 3.40468, -987.6, 0.00658526, 0.235701, 0.993198, 0.349787, 0.651995, 3, 91, 246, 13.0456, 0.0497998, 0, 0, 1, 1, 7.53714e-06, 63354
-2785.67, 187034, -309.385, 3.65695, -996.79, 0.470955, 0.36079, 0.958125, 0.351078, 0.648177, 0.0001, 182, 246, 44.8656, 0.195334, 1.30231, 1, 0, 0, -1.09248e-05, 63358
-2785.67, 187034, -309.385, 3.65695, -996.79, 0.470955, 0.36079, 0.958125, 0.351078, 0.648177, 3, 182, 246, 44.8656, 0.195334, 1.05821, 1, 0, 0, 1.57496e-05, 63358
-3731.47, 196990, -209.646, 3.04868, -1708.58, 1.64891, 0.314829, 0.9175, 0.352806, 0.64323, 0.0001, 455, 246, 32.4433, 0.14644, 0, 0, 0, 0, -6.29958e-05, 63366
-3731.47, 196990, -209.646, 3.04868, -1708.58, 1.64891, 0.314829, 0.9175, 0.352806, 0.64323, 3, 455, 246, 32.4433, 0.14644, 0, 0, 0, 0, 9.28187e-06, 63366
-12131.9, 661424, -73.0038, 0.439154, -745.126, 0.377031, 0.34486, 1.03299, 0.34851, 0.655882, 0.0001, 45.5, 246, 19.3054, 0.027573, 0, 0, 1, 0, -7.66823e-05, 63374
-12131.9, 661424, -73.0038, 0.439154, -745.126, 0.377031, 0.34486, 1.03299, 0.34851, 0.655882, 3, 45.5, 246, 19.3054, 0.027573, 0, 0, 1, 0, 2.60053e-05, 63374
-5597.14, 61272, -146.616, 2.71814, -643.52, -0.0347966, 0.291325, 1.03299, 0.34851, 0.655882, 0.0001, 45.5, 246, 46.9574, 0.170492, 1.02679, 1, 1, 0, -1.34323e-05, 63386
-3502.25, 76966, -207.016, 3.1643, -671.013, 0.0409446, 0.296487, 0.958125, 0.351078, 0.648177, 0.0001, 182, 246, 46.9574, 0.170492, 1.07724, 1, 1, 0, -3.60186e-06, 63386
-1335.73, 89447.2, -258.603, 3.53981, -708.556, 0.107124, 0.328753, 0.9175, 0.352806, 0.64323, 0.0001, 455, 246, 46.9574, 0.170492, 1.43944, 1, 1, 0, -7.40646e-06, 63386
-1335.73, 89447.2, -258.603, 3.53981, -708.556, 0.107124, 0.328753, 0.9175, 0.352806, 0.64323, 3, 455, 246, 46.9574, 0.170492, 1.36672, 1, 1, 0, 4.11763e-06, 63386
-9217.78, 80225.5, -44.8228, 1.79865, -907.517, -0.0141307, 0.316884, 1.03299, 0.34851, 0.655882, 3, 45.5, 246, 22.4681, 0.0962996, 0, 0, 1, 0, -2.25204e-05, 63387
-2877.63, 173894, -283.019, 3.6271, -1145.26, 0.507856, 0.343985, 0.958125, 0.351078, 0.648177, 0.0001, 182, 246, 44.5827, 0.189704, 1.11847, 1, 0, 0, 1.67146e-05, 63390
-9719.45, 822601, -206.1, 0.251063, -762.489, 0.238949, 0.387604, 1.03299, 0.34851, 0.655882, 0.0001, 45.5, 246, 24.7823, 0.0619548, 0, 0, 1, 0, 6.33667e-05, 63396
-9719.45, 822601, -206.1, 0.251063, -762.489, 0.238949, 0.387604, 1.03299, 0.34851, 0.655882, 3, 45.5, 246, 24.7823, 0.0619548, 0, 0, 0, 0, -6.79564e-05, 63396
-7415.77, 868459, -222.973, 0.27411, -827.942, 0.259123, 0.326836, 0.958125, 0.351078, 0.648177, 3, 182, 246, 24.7823, 0.0619548, 0, 0, 1, 0, 5.3928e-05, 63396
-9132.01, 426815, -111.542, 1.1072, -993.485, 0.0056102, 0.287308, 0.958125, 0.351078, 0.648177, 3, 182, 246, 24.2648, 0.0578748, 0, 0, 1, 0, 9.76115e-06, 63397
-10430.9, 185122, -161.799, 1.79963, -770.976, 0.774249, 0.379937, 1.03299, 0.34851, 0.655882, 0.0001, 45.5, 246, 33.6782, 0.15953, 0, 0, 1, 0, -0.000100739, 63411
-10794, 197836, -69.905, 1.2751, -680.523, 0.0055343, 0.339432, 1.03299, 0.34851, 0.655882, 0.0001, 45.5, 246, 20.2151, 0.0827341, 0, 0, 1, 0, 1.95673e-07, 63413
-9857.17, 205969, -81.4592, 1.34015, -684.124, 0.0130539, 0.310796, 0.993198, 0.349787, 0.651995, 0.0001, 91, 246, 20.2151, 0.0827341, 0, 0, 1, 0, -8.10905e-06, 63413
-10517.3, 116858, -74.176, 3.38585, -1122.94, 0.206445, 0.192418, 1.03299, 0.34851, 0.655882, 0.0001, 45.5, 246, 29.2565, 0.0958491, 0, 0, 0, 0, -1.67864e-05, 63416
-10517.3, 116858, -74.176, 3.38585, -1122.94, 0.206445, 0.192418, 1.03299, 0.34851, 0.655882, 3, 45.5, 246, 29.2565, 0.0958491, 0, 0, 0, 0, -6.60174e-06, 63416
-9288.44, 263770, -84.0455, 1.73049, -767.604, 0.284751, 0.270385, 0.958125, 0.351078, 0.648177, 0.0001, 182, 246, 18.2092, 0.0569964, 0, 0, 1, 0, -7.29886e-05, 63424
-8260.96, 22719.8, -20.3833, 2.52379, -1136.83, 0.0613961, 0.273672, 1.03299, 0.34851, 0.655882, 0.0001, 45.5, 246, 21.2637, 0.0809403, 0, 0, 1, 0, 5.68916e-06, 63436
-8260.96, 22719.8, -20.3833, 2.52379, -1136.83, 0.0613961, 0.273672, 1.03299, 0.34851, 0.655882, 3, 45.5, 246, 21.2637, 0.0809403, 0, 0, 1, 0, 8.63486e-06, 63436
-5978.13, 103650, -137.172, 3.28811, -1230.1, 0.191035, 0.286076, 0.9175, 0.352806, 0.64323, 3, 455, 246, 21.2637, 0.0809403, 0, 0, 1, 0, -6.53336e-06, 63436
-11212.2, 331872, -116.706, 0.885238, -837.165, 0.682963, 0.364741, 1.03299, 0.34851, 0.655882, 0.0001, 45.5, 246, 24.5739, 0.0807406, 0, 0, 1, 0, 4.58528e-06, 63437
-11212.2, 331872, -116.706, 0.885238, -837.165, 0.682963, 0.364741, 1.03299, 0.34851, 0.655882, 3, 45.5, 246, 24.5739, 0.0807406, 0, 0, 1, 0, -3.09103e-05, 63437
-9969.45, 358986, -129.191, 0.960223, -941.892, 0.769777, 0.334062, 0.993198, 0.349787, 0.651995, 3, 91, 246, 24.5739, 0.0807406, 0, 0, 1, 0, 4.11295e-06, 63437
-8412.49, 416284, -184.791, 0.53363, -914.384, 0.00908554, 0.381964, 0.993198, 0.349787, 0.651995, 0.0001, 91, 246, 29.4191, 0.111882, 0, 0, 1, 0, 4.56861e-05, 63447
-12151.9, 431430, -108.102, 0.742408, -593.12, 0.114296, 0.358072, 1.03299, 0.34851, 0.655882, 0.0001, 45.5, 246, 18.9721, 0.0636999, 0, 0, 1, 0, 3.58937e-05, 63458
-10078, 367512, -131.876, 0.626246, -874.36, 0.0152021, 0.382045, 1.03299, 0.34851, 0.655882, 0.0001, 45.5, 246, 26.0958, 0.0921295, 0, 0, 1, 0, -1.2456e-05, 63461
-9126.56, 381542, -142.079, 0.651455, -878.896, 0.017035, 0.35067, 0.993198, 0.349787, 0.651995, 0.0001, 91, 246, 26.0958, 0.0921295, 0, 0, 1, 0, 1.51342e-05, 63461
-6911.84, -17327, -9.06287, 3.21028, -993.113, 0.129524, 0.219423, 1.03299, 0.34851, 0.655882, 0.0001, 45.5, 246, 19.117, 0.0482354, 0, 0, 1, 1, -1.20036e-06, 63462
-7200.23, -46.7125, -40.7398, 3.51521, -1019.98, 0.18292, 0.22618, 0.993198, 0.349787, 0.651995, 3, 91, 246, 19.117, 0.0482354, 0, 0, 1, 1, -1.50648e-05, 63462
-10326, 200548, -171.642, 1.87675, -1003.83, 0.456115, 0.396048, 1.03299, 0.34851, 0.655882, 0.0001, 45.5, 246, 37.4387, 0.171479, 0, 0, 0, 0, -2.28037e-06, 63470
-10326, 200548, -171.642, 1.87675, -1003.83, 0.456115, 0.396048, 1.03299, 0.34851, 0.655882, 3, 45.5, 246, 37.4387, 0.171479, 0, 0, 0, 0, 1.29431e-05, 63470
-1342.41, 308856, -296.085, 2.56204, -1397.34, 0.693414, 0.382021, 0.9175, 0.352806, 0.64323, 0.0001, 455, 246, 37.4387, 0.171479, 0, 0, 0, 0, -1.84011e-05, 63470
-1342.41, 308856, -296.085, 2.56204, -1397.34, 0.693414, 0.382021, 0.9175, 0.352806, 0.64323, 3, 455, 246, 37.4387, 0.171479, 0, 0, 0, 0, -2.36669e-05, 63470
-10831.6, 507703, -50.5795, 0.544442, -723.424, 4.06551e-06, 0.305553, 0.993198, 0.349787, 0.651995, 3, 91, 246, 16.9617, 0.0252203, 0, 0, 1, 0, 2.33699e-05, 63472
-9804.94, 516870, -55.8665, 0.562873, -724.277, 0.00135002, 0.275024, 0.958125, 0.351078, 0.648177, 0.0001, 182, 246, 16.9617, 0.0252203, 0, 0, 1, 0, -2.9155e-05, 63472
-3886.8, 318823, -453.891, 2.94841, -806.352, 0.0845989, 0.58782, 0.958125, 0.351078, 0.648177, 0.0001, 182, 246, 48.4848, 0.24771, 1.26945, 1, 0, 0, 1.27567e-05, 63475
-3886.8, 318823, -453.891, 2.94841, -806.352, 0.0845989, 0.58782, 0.958125, 0.351078, 0.648177, 3, 182, 246, 48.4848, 0.24771, 1.01845, 1, 0, 0, 2.31988e-05, 63475
-3021.43, 279143, -224.468, 3.50091, -887.145, 0.304031, 0.29263, 0.9175, 0.352806, 0.64323, 0.0001, 455, 246, 25.6965, 0.0947722, 0, 0, 0, 0, -1.29005e-06, 63482
-3021.43, 279143, -224.468, 3.50091, -887.145, 0.304031, 0.29263, 0.9175, 0.352806, 0.64323, 3, 455, 246, 25.6965, 0.0947722, 0, 0, 0, 0, 7.59366e-05, 63482
-10174.7, 131132, -83.9485, 2.17033, -980.728, 0.743234, 0.30376, 1.03299, 0.34851, 0.655882, 0.0001, 45.5, 246, 28.1422, 0.108088, 0, 0, 1, 0, -1.49339e-05, 63493
-10174.7, 131132, -83.9485, 2.17033, -980.728, 0.743234, 0.30376, 1.03299, 0.34851, 0.655882, 3, 45.5, 246, 28.1422, 0.108088, 0, 0, 1, 0, 4.97483e-05, 63493
-8895.47, 156245, -111.408, 2.41793, -1119.61, 0.868305, 0.288657, 0.993198, 0.349787, 0.651995, 0.0001, 91, 246, 28.1422, 0.108088, 0, 0, 1, 0, 1.56814e-05, 63493
-8895.47, 156245, -111.408, 2.41793, -1119.61, 0.868305, 0.288657, 0.993198, 0.349787, 0.651995, 3, 91, 246, 28.1422, 0.108088, 0, 0, 1, 0, 4.93109e-05, 63493
