-8178.75, 115373, -61.8932, 4.26567, -621.337, 0.154292, 0.189924, 0.958125, 0.351078, 0.648177, 3, 182, 246, 12.9493, 0.0336814, 0, 0, 1, 0, 7.34485e-06, 121005
-6887.82, 557603, -469.064, 0.0106481, -950.627, 0.656403, 0.692004, 1.03299, 0.34851, 0.655882, 3, 45.5, 246, 43.0545, 0.203099, 0, 0, 0, 0, -1.76808e-06, 121007
-8265.48, -852.839, 6.14945, 2.29182, -1054.71, 0.140704, 0.284489, 1.03299, 0.34851, 0.655882, 0.0001, 45.5, 246, 12.2516, 0.057624, 0, 0, 1, 1, 1.19952e-05, 121016
-12080.6, 233513, -14.1536, 1.2396, -626.052, 0.478463, 0.317227, 1.03299, 0.34851, 0.655882, 0.0001, 45.5, 246, 12.3063, 0.021328, 0, 0, 1, 0, -1.37528e-05, 121020
-12080.6, 233513, -14.1536, 1.2396, -626.052, 0.478463, 0.317227, 1.03299, 0.34851, 0.655882, 3, 45.5, 246, 12.3063, 0.021328, 0, 0, 1, 0, 6.27478e-05, 121020
-11018.5, 247054, -22.3922, 1.33574, -678.297, 0.525468, 0.286775, 0.993198, 0.349787, 0.651995, 0.0001, 91, 246, 12.3063, 0.021328, 0, 0, 1, 0, 2.10061e-05, 121020
-9158.32, 275927, -141.099, 1.09807, -963.661, 0.000716835, 0.35595, 0.993198, 0.349787, 0.651995, 0.0001, 91, 246, 29.0412, 0.119501, 0, 0, 1, 0, -4.39452e-05, 121022
-13715.4, -135957, -28.467, 0.426596, -1145.97, 0.0194201, 0.402178, 1.03299, 0.34851, 0.655882, 0.0001, 45.5, 246, -67.7495, 0.229255, 0, 0, 1, 0, 4.86773e-05, 121035
-13715.4, -135957, -28.467, 0.426596, -1145.97, 0.0194201, 0.402178, 1.03299, 0.34851, 0.655882, 3, 45.5, 246, -67.7495, 0.229255, 0, 0, 1, 0, 1.83296e-05, 121035
-12591.8, 186230, 16.9269, 1.83743, -1176.71, -0.0117792, 0.289094, 1.03299, 0.34851, 0.655882, 0.0001, 45.5, 246, 16.1301, 0.0149864, 0, 0, 1, 0, -2.19553e-05, 121040
-12591.8, 186230, 16.9269, 1.83743, -1176.71, -0.0117792, 0.289094, 1.03299, 0.34851, 0.655882, 3, 45.5, 246, 16.1301, 0.0149864, 0, 0, 1, 0, -1.79254e-05, 121040
-11244.4, 210068, -2.15849, 1.94725, -1175.58, 0.00394022, 0.26544, 0.993198, 0.349787, 0.651995, 3, 91, 246, 16.1301, 0.0149864, 0, 0, 1, 0, -2.12309e-05, 121040
-9523.2, 234166, -23.6063, 2.06462, -1178.6, 0.0216239, 0.249199, 0.958125, 0.351078, 0.648177, 0.0001, 182, 246, 16.1301, 0.0149864, 0, 0, 1, 0, -3.46628e-08, 121040
-916.126, 128591, -284.093, 5.18137, -1131.31, 1.37742, 0.337339, 0.9175, 0.352806, 0.64323, 0.0001, 455, 246, 34.4954, 0.107908, 1.53103, 1, 0, 0, 2.7101e-05, 121042
-916.126, 128591, -284.093, 5.18137, -1131.31, 1.37742, 0.337339, 0.9175, 0.352806, 0.64323, 3, 455, 246, 34.4954, 0.107908, 1.53079, 1, 0, 0, -1.89798e-05, 121042
-6185.46, 55207.9, -124.858, 3.60621, -696.036, -0.052607, 0.17873, 1.03299, 0.34851, 0.655882, 3, 45.5, 246, 37.9096, 0.10481, 0, 0, 1, 0, -2.50932e-06, 121045
-935.518, 88596.1, -277.667, 5.01942, -795.123, 0.21611, 0.325511, 0.9175, 0.352806, 0.64323, 0.0001, 455, 246, 37.9096, 0.10481, 1.32149, 1, 1, 0, -3.24381e-06, 121045
-935.518, 88596.1, -277.667, 5.01942, -795.123, 0.21611, 0.325511, 0.9175, 0.352806, 0.64323, 3, 455, 246, 37.9096, 0.10481, 1.26958, 1, 1, 0, -1.94979e-06, 121045
-5325.08, 68212.4, -161.422, 3.52275, -753.229, 0.290553, 0.199086, 1.03299, 0.34851, 0.655882, 0.0001, 45.5, 246, 44.3221, 0.134633, 1.2178, 1, 1, 0, 1.73288e-05, 121047
-5325.08, 68212.4, -161.422, 3.52275, -753.229, 0.290553, 0.199086, 1.03299, 0.34851, 0.655882, 3, 45.5, 246, 44.3221, 0.134633, 1.00127, 1, 1, 0, 8.25403e-06, 121047
-3933.33, 80482, -202.935, 3.91519, -811.484, 0.368151, 0.215941, 0.993198, 0.349787, 0.651995, 0.0001, 91, 246, 44.3221, 0.134633, 1.20217, 1, 1, 0, 1.49726e-05, 121047
-3933.33, 80482, -202.935, 3.91519, -811.484, 0.368151, 0.215941, 0.993198, 0.349787, 0.651995, 3, 91, 246, 44.3221, 0.134633, 1.01646, 1, 1, 0, 5.57058e-06, 121047
-1938.47, 95806.6, -255.597, 4.40059, -892.593, 0.471422, 0.256355, 0.958125, 0.351078, 0.648177, 0.0001, 182, 246, 44.3221, 0.134633, 1.46859, 1, 1, 0, -1.96084e-05, 121047
-1938.47, 95806.6, -255.597, 4.40059, -892.593, 0.471422, 0.256355, 0.958125, 0.351078, 0.648177, 3, 182, 246, 44.3221, 0.134633, 1.33036, 1, 1, 0, -1.08892e-05, 121047
2168.73, 124041, -352.221, 5.26844, -1057.84, 0.673102, 0.357391, 0.9175, 0.352806, 0.64323, 0.0001, 455, 246, 44.3221, 0.134633, 3.31173, 1, 0, 0, -9.64104e-06, 121047
2168.73, 124041, -352.221, 5.26844, -1057.84, 0.673102, 0.357391, 0.9175, 0.352806, 0.64323, 3, 455, 246, 44.3221, 0.134633, 3.3155, 1, 0, 0, -1.60745e-05, 121047
-11227.1, 222658, -191.747, 2.4739, -1156.12, -0.0149258, 0.375485, 1.03299, 0.34851, 0.655882, 0.0001, 45.5, 246, 40.8914, 0.174215, 0, 0, 0, 0, -8.64043e-06, 121051
-11227.1, 222658, -191.747, 2.4739, -1156.12, -0.0149258, 0.375485, 1.03299, 0.34851, 0.655882, 3, 45.5, 246, 40.8914, 0.174215, 0, 0, 0, 0, 1.02635e-05, 121051
-9157.67, 554003, -246.237, 0.53989, -1143.02, 0.0354994, 0.444415, 1.03299, 0.34851, 0.655882, 0.0001, 45.5, 246, 35.7647, 0.114022, 0, 0, 0, 0, -1.32159e-05, 121053
-9157.67, 554003, -246.237, 0.53989, -1143.02, 0.0354994, 0.444415, 1.03299, 0.34851, 0.655882, 3, 45.5, 246, 35.7647, 0.114022, 0, 0, 0, 0, 2.13843e-05, 121053
-11751.6, 336387, -51.2034, 0.921051, -1021.45, 0.0198264, 0.337115, 1.03299, 0.34851, 0.655882, 0.0001, 45.5, 246, 21.8707, 0.0430573, 0, 0, 1, 0, -1.11997e-05, 121054
-11751.6, 336387, -51.2034, 0.921051, -1021.45, 0.0198264, 0.337115, 1.03299, 0.34851, 0.655882, 3, 45.5, 246, 21.8707, 0.0430573, 0, 0, 1, 0, -4.67312e-06, 121054
-10587.5, 355060, -62.0836, 0.962367, -1026.38, 0.0237948, 0.304576, 0.993198, 0.349787, 0.651995, 3, 91, 246, 21.8707, 0.0430573, 0, 0, 1, 0, 1.8217e-06, 121054
-9207.48, 374069, -73.7335, 1.00382, -1032.35, 0.028144, 0.27697, 0.958125, 0.351078, 0.648177, 0.0001, 182, 246, 21.8707, 0.0430573, 0, 0, 1, 0, -1.58748e-05, 121054
-3495.87, 292730, -356.321, 4.09832, -1168.28, 0.0684855, 0.352367, 0.958125, 0.351078, 0.648177, 0.0001, 182, 246, 43.2143, 0.170256, 1.14845, 1, 0, 0, -1.20879e-05, 121056
-11625.9, 99635.7, 19.214, 3.36472, -1138.76, 0.0340847, 0.166058, 1.03299, 0.34851, 0.655882, 0.0001, 45.5, 246, 16.0125, 0.0351754, 0, 0, 0, 0, 4.15537e-06, 121058
-11625.9, 99635.7, 19.214, 3.36472, -1138.76, 0.0340847, 0.166058, 1.03299, 0.34851, 0.655882, 3, 45.5, 246, 16.0125, 0.0351754, 0, 0, 0, 0, 1.46606e-05, 121058
-10155.5, 122263, -15.8729, 3.6709, -1149.54, 0.0889313, 0.174544, 0.993198, 0.349787, 0.651995, 0.0001, 91, 246, 16.0125, 0.0351754, 0, 0, 1, 0, 6.726e-07, 121058
-10155.5, 122263, -15.8729, 3.6709, -1149.54, 0.0889313, 0.174544, 0.993198, 0.349787, 0.651995, 3, 91, 246, 16.0125, 0.0351754, 0, 0, 1, 0, 7.44007e-06, 121058
-5862.99, 393665, -451.181, 3.7461, -893.557, 0.0912711, 0.459257, 0.958125, 0.351078, 0.648177, 0.0001, 182, 246, 42.7598, 0.188876, 1.00658, 1, 0, 0, -5.81098e-07, 121065
-7805.35, 48887.8, -95.5043, 3.72346, -1378.98, 1.54971, 0.295984, 0.9175, 0.352806, 0.64323, 3, 455, 246, 10.9572, 0.0453991, 0, 0, 1, 0, -2.59489e-06, 121072
-11460, 246862, -86.3855, 1.37184, -1049.99, 0.483749, 0.341223, 1.03299, 0.34851, 0.655882, 0.0001, 45.5, 246, 26.2034, 0.08208, 2.70076, 1, 1, 0, 3.42717e-05, 121089
-11460, 246862, -86.3855, 1.37184, -1049.99, 0.483749, 0.341223, 1.03299, 0.34851, 0.655882, 3, 45.5, 246, 26.2034, 0.08208, 0, 0, 1, 0, 9.75381e-05, 121089
-10032.7, 274762, -105.005, 1.48339, -1141.45, 0.533472, 0.314197, 0.993198, 0.349787, 0.651995, 3, 91, 246, 26.2034, 0.08208, 0, 0, 1, 0, 1.73952e-05, 121089
-7994.13, 267284, -373.405, 3.86693, -912.755, 0.115164, 0.384729, 0.993198, 0.349787, 0.651995, 0.0001, 91, 246, 48.147, 0.209255, 1.2156, 1, 1, 0, 2.73072e-06, 121097
-7994.13, 267284, -373.405, 3.86693, -912.755, 0.115164, 0.384729, 0.993198, 0.349787, 0.651995, 3, 91, 246, 48.147, 0.209255, 1.09418, 1, 1, 0, 3.03014e-06, 121097
-10227.4, 181382, -187.516, 2.25322, -863.189, 0.619877, 0.374719, 1.03299, 0.34851, 0.655882, 0.0001, 45.5, 246, 38.6571, 0.17787, 0, 0, 0, 0, 1.44631e-05, 121101
238.884, 287018, -336.914, 3.31438, -1397.52, 1.08498, 0.39777, 0.9175, 0.352806, 0.64323, 3, 455, 246, 38.6571, 0.17787, 0, 0, 0, 0, -0.000175822, 121101
-6496.72, -61154.1, 6.20699, 3.25425, -857.693, 0.0320004, 0.241432, 1.03299, 0.34851, 0.655882, 0.0001, 45.5, 246, 14.045, 0.0529155, 1.77672, 1, 1, 0, -7.46547e-06, 121108
-6496.72, -61154.1, 6.20699, 3.25425, -857.693, 0.0320004, 0.241432, 1.03299, 0.34851, 0.655882, 3, 45.5, 246, 14.045, 0.0529155, 1.66239, 1, 1, 0, 7.61561e-06, 121108
-14871, 160261, 23.7001, 3.60036, -1168.89, -0.0511365, 0.127418, 1.03299, 0.34851, 0.655882, 0.0001, 45.5, 246, 17.626, 0.0281033, 0, 0, 0, 0, -7.2516e-06, 121110
-14871, 160261, 23.7001, 3.60036, -1168.89, -0.0511365, 0.127418, 1.03299, 0.34851, 0.655882, 3, 45.5, 246, 17.626, 0.0281033, 0, 0, 0, 0, -9.66072e-06, 121110
-12327.3, 183029, -14.3005, 3.92424, -1164.54, 0.011001, 0.141853, 0.993198, 0.349787, 0.651995, 0.0001, 91, 246, 17.626, 0.0281033, 0, 0, 1, 0, -1.27283e-06, 121110
-12327.3, 183029, -14.3005, 3.92424, -1164.54, 0.011001, 0.141853, 0.993198, 0.349787, 0.651995, 3, 91, 246, 17.626, 0.0281033, 0, 0, 1, 0, 3.55795e-06, 121110
-8784.36, 41799, -3.08971, 0.448733, -860.41, 0.109799, 0.340732, 1.03299, 0.34851, 0.655882, 0.0001, 45.5, 246, 7.79885, 0.0334904, 0, 0, 1, 1, -2.51867e-05, 121126
-8784.36, 41799, -3.08971, 0.448733, -860.41, 0.109799, 0.340732, 1.03299, 0.34851, 0.655882, 3, 45.5, 246, 7.79885, 0.0334904, 0, 0, 1, 1, -1.18667e-05, 121126
893.079, 283380, -387.163, 3.98972, -762.007, 0.374293, 0.411848, 0.9175, 0.352806, 0.64323, 0.0001, 455, 246, 35.91, 0.166547, 1.37004, 1, 0, 0, -8.36311e-06, 121127
893.079, 283380, -387.163, 3.98972, -762.007, 0.374293, 0.411848, 0.9175, 0.352806, 0.64323, 3, 455, 246, 35.91, 0.166547, 1.50974, 1, 0, 0, -5.44271e-05, 121127
-27.589, 229842, -341.385, 3.47878, -907.316, 0.475526, 0.404161, 0.9175, 0.352806, 0.64323, 0.0001, 455, 246, 39.2417, 0.185134, 1.3404, 1, 0, 0, 1.71545e-05, 121128
-27.589, 229842, -341.385, 3.47878, -907.316, 0.475526, 0.404161, 0.9175, 0.352806, 0.64323, 3, 455, 246, 39.2417, 0.185134, 1.39483, 1, 0, 0, -8.09629e-06, 121128
-4662.47, 247125, -337.684, 4.12796, -815.567, 0.43969, 0.331338, 0.958125, 0.351078, 0.648177, 0.0001, 182, 246, 38.6752, 0.164733, 1.01018, 1, 0, 0, -1.97122e-05, 121135
-5057.08, 78602.3, -157.346, 5.47177, -1063.3, 1.2386, 0.319511, 0.9175, 0.352806, 0.64323, 0.0001, 455, 246, 17.379, 0.0445092, 0, 0, 1, 0, 1.62824e-05, 121140
-5057.08, 78602.3, -157.346, 5.47177, -1063.3, 1.2386, 0.319511, 0.9175, 0.352806, 0.64323, 3, 455, 246, 17.379, 0.0445092, 0, 0, 1, 0, 1.62824e-05, 121140
-10383.7, 352956, -198.365, 0.889147, -952.795, 0.0155333, 0.437983, 1.03299, 0.34851, 0.655882, 0.0001, 45.5, 246, 33.4139, 0.142553, 0, 0, 0, 0, 8.55182e-06, 121141
-10383.7, 352956, -198.365, 0.889147, -952.795, 0.0155333, 0.437983, 1.03299, 0.34851, 0.655882, 3, 45.5, 246, 33.4139, 0.142553, 0, 0, 0, 0, 1.34381e-05, 121141
-8282.47, 323519, -194.9, 0.900712, -1086.67, 0.00922146, 0.407624, 0.993198, 0.349787, 0.651995, 0.0001, 91, 246, 34.6702, 0.14867, 0, 0, 1, 0, -1.97038e-05, 121143
-6766.54, 345180, -212.36, 0.940376, -1093.51, 0.0129609, 0.386729, 0.958125, 0.351078, 0.648177, 0.0001, 182, 246, 34.6702, 0.14867, 0, 0, 0, 0, -1.13582e-05, 121143
-6766.54, 345180, -212.36, 0.940376, -1093.51, 0.0129609, 0.386729, 0.958125, 0.351078, 0.648177, 3, 182, 246, 34.6702, 0.14867, 0, 0, 0, 0, 1.3101e-05, 121143
294.881, 269427, -376.233, 3.1025, -812.215, 0.0876985, 0.452159, 0.9175, 0.352806, 0.64323, 3, 455, 246, 40.858, 0.20079, 1.18534, 1, 0, 0, 1.07685e-05, 121148
-9161.73, 85091.9, -77.1585, 3.58553, -882.234, 0.0833698, 0.166416, 1.03299, 0.34851, 0.655882, 0.0001, 45.5, 246, 27.9718, 0.089104, 0, 0, 0, 0, 1.26044e-05, 121150
-9161.73, 85091.9, -77.1585, 3.58553, -882.234, 0.0833698, 0.166416, 1.03299, 0.34851, 0.655882, 3, 45.5, 246, 27.9718, 0.089104, 0, 0, 0, 0, 5.22525e-06, 121150
-7647.9, 728426, -324.289, 0.350456, -1182.9, 0.00652641, 0.479769, 1.03299, 0.34851, 0.655882, 0.0001, 45.5, 246, 38.626, 0.11471, 0, 0, 0, 0, -7.73767e-05, 121154
-7647.9, 728426, -324.289, 0.350456, -1182.9, 0.00652641, 0.479769, 1.03299, 0.34851, 0.655882, 3, 45.5, 246, 38.626, 0.11471, 0, 0, 0, 0, 5.53341e-05, 121154
-10081.1, 299440, -412.776, 3.21934, -658.983, 0.278177, 0.497532, 0.993198, 0.349787, 0.651995, 0.0001, 91, 246, 46.0205, 0.228095, 1.04434, 1, 1, 0, 7.26085e-05, 121172
-3997.67, 315932, -472.806, 3.57682, -732.524, 0.343946, 0.532779, 0.958125, 0.351078, 0.648177, 0.0001, 182, 246, 46.0205, 0.228095, 2.24141, 1, 0, 0, 2.01179e-05, 121172
-3997.67, 315932, -472.806, 3.57682, -732.524, 0.343946, 0.532779, 0.958125, 0.351078, 0.648177, 3, 182, 246, 46.0205, 0.228095, 2.07512, 1, 0, 0, -7.78558e-05, 121172
-12171.3, 204209, -200.477, 3.6546, -1058.13, -0.0620287, 0.236691, 1.03299, 0.34851, 0.655882, 0.0001, 45.5, 246, 41.3092, 0.157581, 0, 0, 0, 0, -3.4716e-06, 121178
-12171.3, 204209, -200.477, 3.6546, -1058.13, -0.0620287, 0.236691, 1.03299, 0.34851, 0.655882, 3, 45.5, 246, 41.3092, 0.157581, 0, 0, 0, 0, -1.87462e-05, 121178
-3437.01, 246565, -325.557, 4.41405, -1115.01, 0.0800756, 0.304465, 0.958125, 0.351078, 0.648177, 0.0001, 182, 246, 41.3092, 0.157581, 1.24161, 1, 0, 0, 3.29106e-06, 121178
-8814.09, 110770, -67.3993, 0.554598, -984.978, 0.008838, 0.380178, 1.03299, 0.34851, 0.655882, 0.0001, 45.5, 246, 26.2977, 0.154896, 0, 0, 1, 0, -1.70039e-06, 121181
-8814.09, 110770, -67.3993, 0.554598, -984.978, 0.008838, 0.380178, 1.03299, 0.34851, 0.655882, 3, 45.5, 246, 26.2977, 0.154896, 0, 0, 1, 0, -5.5941e-05, 121181
-9179.04, 105942, -43.9747, 1.00446, -1084.19, 0.016803, 0.347891, 1.03299, 0.34851, 0.655882, 0.0001, 45.5, 246, 21.8902, 0.095186, 0, 0, 1, 0, 1.07494e-05, 121192
-9179.04, 105942, -43.9747, 1.00446, -1084.19, 0.016803, 0.347891, 1.03299, 0.34851, 0.655882, 3, 45.5, 246, 21.8902, 0.095186, 0, 0, 1, 0, 1.32384e-05, 121192
-6478, 1591.19, -63.8773, 3.87185, -1008.36, 0.0126573, 0.207026, 0.993198, 0.349787, 0.651995, 3, 91, 246, 25.186, 0.0373329, 0, 0, 1, 1, -8.31669e-06, 121194
-10942.2, 337972, -125.934, 0.868066, -840.807, 0.000893577, 0.375862, 1.03299, 0.34851, 0.655882, 0.0001, 45.5, 246, 25.6963, 0.0948561, 0, 0, 1, 0, 8.51119e-06, 121198
-10942.2, 337972, -125.934, 0.868066, -840.807, 0.000893577, 0.375862, 1.03299, 0.34851, 0.655882, 3, 45.5, 246, 25.6963, 0.0948561, 0, 0, 1, 0, -2.09176e-05, 121198
-9730.78, 350625, -138.146, 0.906175, -844.237, 0.00434979, 0.345737, 0.993198, 0.349787, 0.651995, 3, 91, 246, 25.6963, 0.0948561, 0, 0, 1, 0, 1.72704e-05, 121198
-8320.39, 363538, -150.929, 0.94432, -848.589, 0.00811417, 0.320379, 0.958125, 0.351078, 0.648177, 0.0001, 182, 246, 25.6963, 0.0948561, 0, 0, 1, 0, -3.42767e-07, 121198
-8211.23, 5067.69, -125.78, 4.42949, -998.329, 1.49649, 0.333797, 0.9175, 0.352806, 0.64323, 3, 455, 246, 25.0108, 0.0939998, 0, 0, 1, 0, -1.88911e-06, 121207
-7837.04, 86189.4, -134.839, 3.40185, -609.893, -0.0497157, 0.205919, 1.03299, 0.34851, 0.655882, 3, 45.5, 246, 35.12, 0.120712, 0, 0, 1, 0, 1.08339e-05, 121208
-6412.12, 92679.3, -166.88, 3.7014, -621.764, 0.00568232, 0.21776, 0.993198, 0.349787, 0.651995, 0.0001, 91, 246, 35.12, 0.120712, 0, 0, 1, 0, -1.08058e-05, 121208
-6412.12, 92679.3, -166.88, 3.7014, -621.764, 0.00568232, 0.21776, 0.993198, 0.349787, 0.651995, 3, 91, 246, 35.12, 0.120712, 0, 0, 1, 0, -1.53812e-05, 121208
-1357.28, 112422, -269.35, 4.65855, -697.864, 0.185044, 0.323, 0.9175, 0.352806, 0.64323, 0.0001, 455, 246, 35.12, 0.120712, 1.09517, 1, 1, 0, -5.1507e-06, 121208
-1357.28, 112422, -269.35, 4.65855, -697.864, 0.185044, 0.323, 0.9175, 0.352806, 0.64323, 3, 455, 246, 35.12, 0.120712, 1.0764, 1, 1, 0, 8.22945e-06, 121208
-7692.66, 164049, -256.529, 3.33265, -1030.2, 0.257583, 0.34271, 1.03299, 0.34851, 0.655882, 0.0001, 45.5, 246, 51.4886, 0.220104, 1.12669, 1, 0, 0, 1.62772e-06, 121212
-4438.98, 187742, -314.631, 3.69751, -1105.44, 0.325029, 0.362535, 0.993198, 0.349787, 0.651995, 0.0001, 91, 246, 51.4886, 0.220104, 1.38281, 1, 1, 0, 1.63697e-05, 121212
-4438.98, 187742, -314.631, 3.69751, -1105.44, 0.325029, 0.362535, 0.993198, 0.349787, 0.651995, 3, 91, 246, 51.4886, 0.220104, 1.22945, 1, 1, 0, 2.83155e-06, 121212
48.3312, 217061, -387.436, 4.14391, -1208.63, 0.41371, 0.404045, 0.958125, 0.351078, 0.648177, 3, 182, 246, 51.4886, 0.220104, 0, 0, 0, 0, -1.56425e-05, 121212
-10254.8, 189275, -188.645, 1.89373, -706.058, 0.0742657, 0.41421, 1.03299, 0.34851, 0.655882, 0.0001, 45.5, 246, 37.732, 0.195747, 0, 0, 1, 0, -4.68316e-06, 121216
-9516.74, 360311, -462.631, 3.44145, -1027.98, 0.106253, 0.55139, 0.993198, 0.349787, 0.651995, 0.0001, 91, 246, 52.2352, 0.237535, 1.0625, 1, 1, 0, 1.98353e-05, 121219
-7988.55, 621556, -142.486, 0.25675, -1016.51, 0.0818099, 0.335666, 0.993198, 0.349787, 0.651995, 0.0001, 91, 246, 26.9751, 0.0571313, 0, 0, 1, 0, -7.74747e-06, 121228
-10652.8, 162593, -98.2972, 2.17201, -1065.45, 0.0178681, 0.319376, 1.03299, 0.34851, 0.655882, 0.0001, 45.5, 246, 30.2882, 0.120186, 0, 0, 1, 0, -8.78143e-06, 121232
-10652.8, 162593, -98.2972, 2.17201, -1065.45, 0.0178681, 0.319376, 1.03299, 0.34851, 0.655882, 3, 45.5, 246, 30.2882, 0.120186, 0, 0, 1, 0, -6.78436e-06, 121232
-10340.4, 338246, -24.6902, 0.705376, -1045.92, 0.325137, 0.300857, 0.993198, 0.349787, 0.651995, 0.0001, 91, 246, 18.3602, 0.0192361, 0, 0, 1, 0, 1.06136e-05, 121234
-7100.34, 460240, -215.64, 0.321808, -1074.66, 0.350571, 0.402226, 0.993198, 0.349787, 0.651995, 0.0001, 91, 246, 32.3079, 0.116988, 0, 0, 1, 0, -3.24292e-05, 121238
-11112.5, 269458, -119.06, 1.17635, -858.19, 0.165322, 0.368858, 1.03299, 0.34851, 0.655882, 0.0001, 45.5, 246, 26.6903, 0.105765, 0, 0, 1, 0, -1.43237e-06, 121244
-11112.5, 269458, -119.06, 1.17635, -858.19, 0.165322, 0.368858, 1.03299, 0.34851, 0.655882, 3, 45.5, 246, 26.6903, 0.105765, 0, 0, 1, 0, 4.09951e-06, 121244
-9781.32, 285355, -134.449, 1.24579, -885.753, 0.176367, 0.341291, 0.993198, 0.349787, 0.651995, 3, 91, 246, 26.6903, 0.105765, 0, 0, 1, 0, -1.67491e-05, 121244
-8170.01, 302587, -151.309, 1.31847, -916.556, 0.188844, 0.319195, 0.958125, 0.351078, 0.648177, 0.0001, 182, 246, 26.6903, 0.105765, 0, 0, 1, 0, -3.40079e-06, 121244
-8689.96, 151388, -45.8724, 0.96648, -1194.62, 1.0113, 0.280224, 0.958125, 0.351078, 0.648177, 0.0001, 182, 246, 16.8089, 0.0617981, 0, 0, 1, 0, 6.46807e-05, 121251
-8689.96, 151388, -45.8724, 0.96648, -1194.62, 1.0113, 0.280224, 0.958125, 0.351078, 0.648177, 3, 182, 246, 16.8089, 0.0617981, 0, 0, 1, 0, 4.30076e-06, 121251
-3520.88, 251496, -359.953, 3.28193, -903.839, 0.0448987, 0.44194, 0.958125, 0.351078, 0.648177, 0.0001, 182, 246, 45.8599, 0.215543, 1.08199, 1, 0, 0, 1.04107e-05, 121254
-3476.99, 264894, -375.962, 3.19025, -908.717, 0.05674, 0.469057, 0.958125, 0.351078, 0.648177, 0.0001, 182, 246, 46.6915, 0.223152, 1.091, 1, 0, 0, 1.14321e-05, 121258
-7884.06, 214412, -227.138, 1.45528, -1023.57, 0.902126, 0.465438, 0.993198, 0.349787, 0.651995, 0.0001, 91, 246, 41.5308, 0.22837, 0, 0, 1, 0, 4.48557e-05, 121259
-8787.44, 53814.8, -28.9262, 0.698514, -1043.67, 0.492219, 0.350753, 1.03299, 0.34851, 0.655882, 0.0001, 45.5, 246, 19.2548, 0.11379, 0, 0, 1, 0, -2.4203e-05, 121275
-8787.44, 53814.8, -28.9262, 0.698514, -1043.67, 0.492219, 0.350753, 1.03299, 0.34851, 0.655882, 3, 45.5, 246, 19.2548, 0.11379, 0, 0, 1, 0, -4.28245e-06, 121275
-7336.81, 876018, -172.583, 0.146484, -937.863, 0.0044444, 0.337379, 0.993198, 0.349787, 0.651995, 0.0001, 91, 246, 26.9972, 0.0493273, 0, 0, 1, 0, -3.42613e-05, 121281
-9750.76, 86448.2, -41.1268, 2.90284, -1189.41, -0.0400609, 0.240523, 1.03299, 0.34851, 0.655882, 0.0001, 45.5, 246, 25.0373, 0.0855059, 0, 0, 1, 0, 1.80634e-05, 121287
-8635.4, 110738, -77.1165, 3.13172, -1190.23, -5.81818e-05, 0.238669, 0.993198, 0.349787, 0.651995, 0.0001, 91, 246, 25.0373, 0.0855059, 0, 0, 1, 0, 1.64508e-05, 121287
-8635.4, 110738, -77.1165, 3.13172, -1190.23, -5.81818e-05, 0.238669, 0.993198, 0.349787, 0.651995, 3, 91, 246, 25.0373, 0.0855059, 0, 0, 1, 0, -6.3812e-06, 121287
-10979.6, 178487, -117.868, 2.25142, -1018.05, 0.0795902, 0.323746, 1.03299, 0.34851, 0.655882, 0.0001, 45.5, 246, 31.8926, 0.129164, 0, 0, 1, 0, -8.50283e-06, 121296
-10979.6, 178487, -117.868, 2.25142, -1018.05, 0.0795902, 0.323746, 1.03299, 0.34851, 0.655882, 3, 45.5, 246, 31.8926, 0.129164, 0, 0, 1, 0, -1.71223e-05, 121296
-8431.39, 414220, -295.706, 0.347666, -647.832, -4.21718e-07, 0.516619, 0.993198, 0.349787, 0.651995, 0.0001, 91, 246, 33.7466, 0.185097, 0, 0, 1, 0, 4.97657e-05, 121305
-11198.3, 228952, -46.0029, 1.06805, -750.821, 0.796701, 0.331494, 1.03299, 0.34851, 0.655882, 0.0001, 45.5, 246, 17.6659, 0.0476964, 0, 0, 1, 0, -4.65328e-05, 121307
-10280.8, 250924, -56.2177, 1.16944, -860.958, 0.917735, 0.300198, 0.993198, 0.349787, 0.651995, 0.0001, 91, 246, 17.6659, 0.0476964, 0, 0, 1, 0, -1.06708e-05, 121307
-8560.42, 77439.6, -79.9568, 1.38454, -883.609, 0.185192, 0.367912, 1.03299, 0.34851, 0.655882, 0.0001, 45.5, 246, 32.5561, 0.187092, 0, 0, 1, 0, -2.20301e-05, 121313
-8560.42, 77439.6, -79.9568, 1.38454, -883.609, 0.185192, 0.367912, 1.03299, 0.34851, 0.655882, 3, 45.5, 246, 32.5561, 0.187092, 0, 0, 1, 0, -9.50498e-07, 121313
-7816.16, 585023, -226.991, 0.187999, -722.651, 0.202791, 0.38963, 0.993198, 0.349787, 0.651995, 0.0001, 91, 246, 25.7979, 0.0965849, 0, 0, 1, 0, 6.79652e-05, 121316
-9742.46, 892692, -108.068, 0.182183, -795.522, 0.603439, 0.351322, 1.03299, 0.34851, 0.655882, 0.0001, 45.5, 246, 21.9644, 0.0277086, 0, 0, 1, 0, -4.37265e-05, 121322
-9742.46, 892692, -108.068, 0.182183, -795.522, 0.603439, 0.351322, 1.03299, 0.34851, 0.655882, 3, 45.5, 246, 21.9644, 0.0277086, 0, 0, 1, 0, 2.22913e-05, 121322
-9131.99, 935700, -112.743, 0.194078, -879.961, 0.667217, 0.315946, 0.993198, 0.349787, 0.651995, 0.0001, 91, 246, 21.9644, 0.0277086, 0, 0, 1, 0, -6.03729e-05, 121322
-8379.21, 986803, -117.525, 0.207001, -984.33, 0.746052, 0.284885, 0.958125, 0.351078, 0.648177, 0.0001, 182, 246, 21.9644, 0.0277086, 0, 0, 1, 0, 9.36493e-06, 121322
-12845.8, 160345, -10.9282, 2.6884, -1113.48, -0.0273868, 0.234444, 1.03299, 0.34851, 0.655882, 0.0001, 45.5, 246, 19.583, 0.0445195, 0, 0, 0, 0, 8.56898e-06, 121323
-12845.8, 160345, -10.9282, 2.6884, -1113.48, -0.0273868, 0.234444, 1.03299, 0.34851, 0.655882, 3, 45.5, 246, 19.583, 0.0445195, 0, 0, 0, 0, 9.42037e-06, 121323
-9942.5, 72313.8, -8.44803, 3.02806, -947.642, -0.00405457, 0.2123, 1.03299, 0.34851, 0.655882, 0.0001, 45.5, 246, 16.7469, 0.0499039, 0, 0, 1, 0, -6.28049e-06, 121325
-9942.5, 72313.8, -8.44803, 3.02806, -947.642, -0.00405457, 0.2123, 1.03299, 0.34851, 0.655882, 3, 45.5, 246, 16.7469, 0.0499039, 0, 0, 1, 0, 8.67309e-07, 121325
-4906.49, 355306, -416.659, 4.48446, -1086.05, 0.631002, 0.362644, 0.958125, 0.351078, 0.648177, 0.0001, 182, 246, 40.9245, 0.164163, 1.49998, 1, 0, 0, -2.39877e-05, 121334
-4906.49, 355306, -416.659, 4.48446, -1086.05, 0.631002, 0.362644, 0.958125, 0.351078, 0.648177, 3, 182, 246, 40.9245, 0.164163, 1.44843, 1, 0, 0, 2.45415e-05, 121334
-8607.06, 99464.5, -108.607, 2.32207, -899.11, -0.00851388, 0.321258, 1.03299, 0.34851, 0.655882, 0.0001, 45.5, 246, 34.7338, 0.155574, 0, 0, 1, 0, 4.06467e-06, 121337
-8607.06, 99464.5, -108.607, 2.32207, -899.11, -0.00851388, 0.321258, 1.03299, 0.34851, 0.655882, 3, 45.5, 246, 34.7338, 0.155574, 0, 0, 1, 0, -5.19736e-07, 121337
-10840.9, 224821, -189.885, 1.94256, -967.329, -0.00566874, 0.412067, 1.03299, 0.34851, 0.655882, 0.0001, 45.5, 246, 38.534, 0.181142, 0, 0, 0, 0, -1.63432e-05, 121339
-10840.9, 224821, -189.885, 1.94256, -967.329, -0.00566874, 0.412067, 1.03299, 0.34851, 0.655882, 3, 45.5, 246, 38.534, 0.181142, 0, 0, 0, 0, 1.05223e-05, 121339
-9365.6, 354597, -282.042, 0.68118, -953.907, 0.236826, 0.550201, 1.03299, 0.34851, 0.655882, 0.0001, 45.5, 246, 40.363, 0.202017, 0, 0, 0, 0, -1.01276e-05, 121346
-9365.6, 354597, -282.042, 0.68118, -953.907, 0.236826, 0.550201, 1.03299, 0.34851, 0.655882, 3, 45.5, 246, 40.363, 0.202017, 0, 0, 0, 0, -2.06275e-05, 121346
-7769.31, 377347, -300.96, 0.72121, -996.648, 0.248275, 0.533818, 0.993198, 0.349787, 0.651995, 3, 91, 246, 40.363, 0.202017, 0, 0, 1, 0, -3.30472e-06, 121346
-3689.73, 57094.3, -183.357, 3.24839, -609.739, 0.462658, 0.225283, 1.03299, 0.34851, 0.655882, 0.0001, 45.5, 246, 50.9024, 0.139133, 1.42363, 1, 1, 0, -2.02886e-05, 121347
-3689.73, 57094.3, -183.357, 3.24839, -609.739, 0.462658, 0.225283, 1.03299, 0.34851, 0.655882, 3, 45.5, 246, 50.9024, 0.139133, 1.28722, 1, 1, 0, 1.07378e-06, 121347
-2479.61, 66529.6, -219.639, 3.62874, -679.482, 0.555101, 0.234664, 0.993198, 0.349787, 0.651995, 0.0001, 91, 246, 50.9024, 0.139133, 1.44127, 1, 1, 0, -5.01405e-06, 121347
-2479.61, 66529.6, -219.639, 3.62874, -679.482, 0.555101, 0.234664, 0.993198, 0.349787, 0.651995, 3, 91, 246, 50.9024, 0.139133, 1.31038, 1, 1, 0, 1.53674e-06, 121347
-773.896, 79025.8, -266.017, 4.1016, -774.566, 0.680285, 0.2656, 0.958125, 0.351078, 0.648177, 0.0001, 182, 246, 50.9024, 0.139133, 1.67029, 1, 1, 0, -6.36389e-06, 121347
-773.896, 79025.8, -266.017, 4.1016, -774.566, 0.680285, 0.2656, 0.958125, 0.351078, 0.648177, 3, 182, 246, 50.9024, 0.139133, 1.54285, 1, 1, 0, -1.99907e-05, 121347
2713.99, 103676, -352.272, 4.95492, -966.823, 0.931338, 0.35016, 0.9175, 0.352806, 0.64323, 0.0001, 455, 246, 50.9024, 0.139133, 3.15005, 1, 1, 0, 1.47495e-05, 121347
2713.99, 103676, -352.272, 4.95492, -966.823, 0.931338, 0.35016, 0.9175, 0.352806, 0.64323, 3, 455, 246, 50.9024, 0.139133, 3.14961, 1, 1, 0, 7.38999e-06, 121347
-8328.18, 205619, -119.119, 2.61498, -847.394, 0.0480468, 0.264, 0.958125, 0.351078, 0.648177, 3, 182, 246, 23.0995, 0.081885, 0, 0, 1, 0, -1.76709e-05, 121348
-7899.55, 376765, -255.071, 0.58901, -963.27, 0.46092, 0.466651, 0.993198, 0.349787, 0.651995, 0.0001, 91, 246, 35.4493, 0.167958, 0, 0, 1, 0, -8.69003e-06, 121349
-6451.23, 405420, -270.569, 0.627857, -1043.45, 0.49888, 0.448289, 0.958125, 0.351078, 0.648177, 0.0001, 182, 246, 35.4493, 0.167958, 0, 0, 0, 0, 0.000118084, 121349
-4365.3, 335984, -441.626, 3.67283, -913.408, 0.619928, 0.471274, 0.958125, 0.351078, 0.648177, 0.0001, 182, 246, 43.4994, 0.202308, 1.52711, 1, 0, 0, 4.02554e-05, 121352
-4365.3, 335984, -441.626, 3.67283, -913.408, 0.619928, 0.471274, 0.958125, 0.351078, 0.648177, 3, 182, 246, 43.4994, 0.202308, 1.37416, 1, 0, 0, -1.51444e-05, 121352
-11536.6, 353576, -328.074, 1.25105, -902.847, -0.00118888, 0.60572, 1.03299, 0.34851, 0.655882, 0.0001, 45.5, 246, 44.7193, 0.233282, 0, 0, 0, 0, -2.73712e-06, 121356
-11536.6, 353576, -328.074, 1.25105, -902.847, -0.00118888, 0.60572, 1.03299, 0.34851, 0.655882, 3, 45.5, 246, 44.7193, 0.233282, 0, 0, 0, 0, -1.20157e-05, 121356
-10650.1, 81230.9, 6.60484, 3.43345, -732.161, -0.0429533, 0.159856, 1.03299, 0.34851, 0.655882, 0.0001, 45.5, 246, 11.5814, 0.0283144, 0, 0, 1, 0, -7.36035e-06, 121358
-10650.1, 81230.9, 6.60484, 3.43345, -732.161, -0.0429533, 0.159856, 1.03299, 0.34851, 0.655882, 3, 45.5, 246, 11.5814, 0.0283144, 0, 0, 1, 0, 1.04594e-05, 121358
-10301.4, 488289, -33.9338, 0.408853, -732.761, 0.214767, 0.304682, 0.993198, 0.349787, 0.651995, 0.0001, 91, 246, 15.6553, 0.0173962, 0, 0, 1, 0, 6.90313e-05, 121368
-8682.27, 196899, -226.049, 3.36352, -809.726, 0.287762, 0.288819, 0.993198, 0.349787, 0.651995, 0.0001, 91, 246, 36.7631, 0.153628, 0, 0, 1, 0, 1.06698e-05, 121369
-8682.27, 196899, -226.049, 3.36352, -809.726, 0.287762, 0.288819, 0.993198, 0.349787, 0.651995, 3, 91, 246, 36.7631, 0.153628, 0, 0, 1, 0, -4.43419e-06, 121369
1267.43, 242528, -356.101, 4.34481, -1002.11, 0.490499, 0.376332, 0.9175, 0.352806, 0.64323, 0.0001, 455, 246, 36.7631, 0.153628, 2.74606, 1, 0, 0, -2.0003e-05, 121369
1267.43, 242528, -356.101, 4.34481, -1002.11, 0.490499, 0.376332, 0.9175, 0.352806, 0.64323, 3, 455, 246, 36.7631, 0.153628, 3.03214, 1, 0, 0, 121.195, 121369
-7375.19, -1031.61, -33.7429, 3.45521, -1131.67, 0.0153615, 0.232751, 0.993198, 0.349787, 0.651995, 0.0001, 91, 246, 17.4402, 0.0581929, 0, 0, 1, 1, 2.02081e-06, 121371
-7375.19, -1031.61, -33.7429, 3.45521, -1131.67, 0.0153615, 0.232751, 0.993198, 0.349787, 0.651995, 3, 91, 246, 17.4402, 0.0581929, 0, 0, 1, 1, -1.02855e-05, 121371
-78.6825, 239591, -326.434, 3.68702, -936.47, 0.191152, 0.372461, 0.9175, 0.352806, 0.64323, 3, 455, 246, 36.9146, 0.16045, 1.03003, 1, 0, 0, 1.69379e-05, 121374
-10699.8, 328006, -199.106, 1.2311, -1170.81, 0.0570376, 0.435396, 1.03299, 0.34851, 0.655882, 3, 45.5, 246, 37.1919, 0.149281, 0, 0, 0, 0, 4.04913e-06, 121375
-6277.98, 1791.36, -58.2035, 3.21706, -777.21, 0.0692887, 0.216868, 1.03299, 0.34851, 0.655882, 0.0001, 45.5, 246, 31.8256, 0.0279952, 0, 0, 1, 1, -1.59927e-05, 121380
-6277.98, 1791.36, -58.2035, 3.21706, -777.21, 0.0692887, 0.216868, 1.03299, 0.34851, 0.655882, 3, 45.5, 246, 31.8256, 0.0279952, 0, 0, 1, 1, 7.62921e-06, 121380
925.214, 219846, -389.552, 2.98888, -780.299, 0.19487, 0.507493, 0.9175, 0.352806, 0.64323, 0.0001, 455, 246, 47.5585, 0.249941, 0, 0, 0, 0, 1.14063e-05, 121382
925.214, 219846, -389.552, 2.98888, -780.299, 0.19487, 0.507493, 0.9175, 0.352806, 0.64323, 3, 455, 246, 47.5585, 0.249941, 0, 0, 0, 0, 7.04864e-06, 121382
-6522.97, 157285, -267.38, 3.4439, -1097.67, -0.0530004, 0.36051, 1.03299, 0.34851, 0.655882, 0.0001, 45.5, 246, 55.4535, 0.240364, 1.21354, 1, 0, 0, -8.02286e-06, 121385
-6522.97, 157285, -267.38, 3.4439, -1097.67, -0.0530004, 0.36051, 1.03299, 0.34851, 0.655882, 3, 45.5, 246, 55.4535, 0.240364, 1.09195, 1, 0, 0, 8.44848e-06, 121385
-3216.07, 179873, -329.427, 3.76602, -1121.51, 0.00408004, 0.384633, 0.993198, 0.349787, 0.651995, 0.0001, 91, 246, 55.4535, 0.240364, 1.6156, 1, 1, 0, 5.6836e-06, 121385
-3216.07, 179873, -329.427, 3.76602, -1121.51, 0.00408004, 0.384633, 0.993198, 0.349787, 0.651995, 3, 91, 246, 55.4535, 0.240364, 1.50244, 1, 1, 0, 2.18739e-06, 121385
-5228.15, 5839.53, -91.7498, 3.45275, -666.878, -0.0262973, 0.193997, 1.03299, 0.34851, 0.655882, 3, 45.5, 246, 39.9124, 0.00837388, 0, 0, 1, 1, 5.4094e-06, 121390
-7796.7, 909843, -396.537, 0.0177311, -687.866, 0.0178524, 0.504831, 1.03299, 0.34851, 0.655882, 0.0001, 45.5, 246, 29.5163, 0.112492, 0, 0, 0, 0, -3.99049e-06, 121391
-7796.7, 909843, -396.537, 0.0177311, -687.866, 0.0178524, 0.504831, 1.03299, 0.34851, 0.655882, 3, 45.5, 246, 29.5163, 0.112492, 0, 0, 0, 0, -5.61162e-05, 121391
-11924.6, 375438, -21.1852, 0.742295, -1111.65, 0.242575, 0.333745, 1.03299, 0.34851, 0.655882, 0.0001, 45.5, 246, 21.217, 0.0196993, 0, 0, 1, 0, 1.14523e-05, 121392
-11924.6, 375438, -21.1852, 0.742295, -1111.65, 0.242575, 0.333745, 1.03299, 0.34851, 0.655882, 3, 45.5, 246, 21.217, 0.0196993, 0, 0, 1, 0, -2.355e-05, 121392
-10915.6, 402967, -29.7747, 0.782361, -1156.71, 0.254896, 0.299577, 0.993198, 0.349787, 0.651995, 3, 91, 246, 21.217, 0.0196993, 0, 0, 1, 0, 1.59076e-05, 121392
-9673.89, 433097, -39.3921, 0.823516, -1206.27, 0.268543, 0.270195, 0.958125, 0.351078, 0.648177, 0.0001, 182, 246, 21.217, 0.0196993, 0, 0, 1, 0, 1.23995e-05, 121392
-11463, 382281, -331.742, 1.02271, -850.876, 0.118191, 0.598456, 1.03299, 0.34851, 0.655882, 3, 45.5, 246, 42.1852, 0.218663, 0, 0, 0, 0, 1.30735e-05, 121396
-7396.31, 118680, -199.985, 2.72979, -678.522, 0.655828, 0.326431, 1.03299, 0.34851, 0.655882, 0.0001, 45.5, 246, 44.2679, 0.191281, 1.00419, 1, 1, 0, 4.94998e-05, 121400
-3047.46, 152856, -280.274, 3.47428, -911.763, 0.933464, 0.344702, 0.958125, 0.351078, 0.648177, 0.0001, 182, 246, 44.2679, 0.191281, 1.23575, 1, 1, 0, -6.17593e-05, 121400
-3047.46, 152856, -280.274, 3.47428, -911.763, 0.933464, 0.344702, 0.958125, 0.351078, 0.648177, 3, 182, 246, 44.2679, 0.191281, 1.03841, 1, 1, 0, 2.73432e-05, 121400
-9772.18, 246241, -19.9774, 1.99957, -1018.14, 0.559022, 0.250656, 0.958125, 0.351078, 0.648177, 0.0001, 182, 246, 13.3822, 0.0106713, 0, 0, 1, 0, 1.68178e-05, 121401
-11185.4, 114983, 15.1001, 2.25626, -830.565, -0.0235896, 0.265534, 1.03299, 0.34851, 0.655882, 0.0001, 45.5, 246, 10.4925, 0.0162152, 0, 0, 1, 0, 1.31199e-05, 121406
-11185.4, 114983, 15.1001, 2.25626, -830.565, -0.0235896, 0.265534, 1.03299, 0.34851, 0.655882, 3, 45.5, 246, 10.4925, 0.0162152, 0, 0, 1, 0, 6.26953e-07, 121406
-12139.2, 406665, -82.3513, 0.877368, -953.659, 0.00785514, 0.346634, 1.03299, 0.34851, 0.655882, 0.0001, 45.5, 246, 23.4477, 0.054213, 0, 0, 1, 0, 4.84421e-06, 121409
-12139.2, 406665, -82.3513, 0.877368, -953.659, 0.00785514, 0.346634, 1.03299, 0.34851, 0.655882, 3, 45.5, 246, 23.4477, 0.054213, 0, 0, 1, 0, -4.6951e-05, 121409
-8045.28, 285821, -412.74, 3.07456, -843.23, 0.424562, 0.533328, 0.993198, 0.349787, 0.651995, 0.0001, 91, 246, 50.1283, 0.245367, 1.06232, 1, 1, 0, 5.18902e-05, 121415
-2225.94, 310253, -477.06, 3.43827, -946.664, 0.504928, 0.567533, 0.958125, 0.351078, 0.648177, 0.0001, 182, 246, 50.1283, 0.245367, 4.25231, 1, 0, 0, 144.065, 121415
-2225.94, 310253, -477.06, 3.43827, -946.664, 0.504928, 0.567533, 0.958125, 0.351078, 0.648177, 3, 182, 246, 50.1283, 0.245367, 3.62965, 1, 0, 0, 152.893, 121415
-5955.87, 415655, -369.65, 0.337726, -1191.52, 0.0840227, 0.661719, 0.993198, 0.349787, 0.651995, 0.0001, 91, 246, 47.8602, 0.245925, 0, 0, 1, 0, -2.90097e-05, 121417
-1301.78, 102042, -264.797, 3.98738, -923.371, 0.133771, 0.327437, 0.9175, 0.352806, 0.64323, 0.0001, 455, 246, 42.9135, 0.144774, 1.52042, 1, 1, 0, -7.29093e-06, 121425
-1301.78, 102042, -264.797, 3.98738, -923.371, 0.133771, 0.327437, 0.9175, 0.352806, 0.64323, 3, 455, 246, 42.9135, 0.144774, 1.47653, 1, 1, 0, 1.54712e-05, 121425
-13684.9, 270409, -375.412, 2.98824, -573.418, -0.0380946, 0.508894, 1.03299, 0.34851, 0.655882, 0.0001, 45.5, 246, 49.3637, 0.249832, 1.02029, 1, 0, 0, -6.68646e-06, 121428
-8881.72, 278430, -425.999, 3.25417, -604.708, 0.00467312, 0.530939, 0.993198, 0.349787, 0.651995, 0.0001, 91, 246, 49.3637, 0.249832, 1.31915, 1, 1, 0, 1.38257e-05, 121428
-8881.72, 278430, -425.999, 3.25417, -604.708, 0.00467312, 0.530939, 0.993198, 0.349787, 0.651995, 3, 91, 246, 49.3637, 0.249832, 1.20987, 1, 1, 0, 9.85214e-06, 121428
-3006.4, 289023, -485.751, 3.56669, -648.498, 0.0557982, 0.569669, 0.958125, 0.351078, 0.648177, 0.0001, 182, 246, 49.3637, 0.249832, 3.06496, 1, 0, 0, 1.30462e-05, 121428
-3006.4, 289023, -485.751, 3.56669, -648.498, 0.0557982, 0.569669, 0.958125, 0.351078, 0.648177, 3, 182, 246, 49.3637, 0.249832, 2.83522, 1, 0, 0, 1.21903e-05, 121428
-8384.37, 1129.26, -13.71, 2.29488, -935.053, 0.0919873, 0.279453, 0.993198, 0.349787, 0.651995, 3, 91, 246, 10.7167, 0.054621, 0, 0, 1, 1, 1.24312e-05, 121439
-12405.6, 354426, -328.905, 1.84064, -1129.43, 0.0151448, 0.569947, 1.03299, 0.34851, 0.655882, 3, 45.5, 246, 47.8524, 0.222781, 0, 0, 0, 0, 5.07084e-06, 121444
-8622.94, 31574.7, -25.7165, 1.6022, -1157.59, 0.254402, 0.298818, 0.993198, 0.349787, 0.651995, 0.0001, 91, 246, 16.0134, 0.0829592, 0, 0, 1, 1, -2.71098e-05, 121450
-8622.94, 31574.7, -25.7165, 1.6022, -1157.59, 0.254402, 0.298818, 0.993198, 0.349787, 0.651995, 3, 91, 246, 16.0134, 0.0829592, 0, 0, 1, 1, 1.79873e-05, 121450
-392.543, 243250, -313.503, 3.29965, -1573.61, 1.50394, 0.391574, 0.9175, 0.352806, 0.64323, 3, 455, 246, 41.2052, 0.197979, 1.79281, 1, 0, 0, -2.4186e-05, 121452
-10699.9, 604337, -59.8409, 0.299134, -642.544, 0.407358, 0.344703, 1.03299, 0.34851, 0.655882, 0.0001, 45.5, 246, 16.4344, 0.0243061, 0, 0, 1, 0, -3.60169e-05, 121459
-10111.5, 625747, -63.593, 0.315715, -687.29, 0.435827, 0.309113, 0.993198, 0.349787, 0.651995, 0.0001, 91, 246, 16.4344, 0.0243061, 0, 0, 1, 0, -4.95058e-06, 121459
-8587.57, 593681, -174.07, 0.317735, -1057.36, 0.0841424, 0.388593, 1.03299, 0.34851, 0.655882, 0.0001, 45.5, 246, 29.9509, 0.0741643, 0, 0, 0, 0, 2.76198e-05, 121463
-7671.79, 616825, -183.033, 0.329949, -1073.18, 0.0857429, 0.356342, 0.993198, 0.349787, 0.651995, 0.0001, 91, 246, 29.9509, 0.0741643, 0, 0, 1, 0, -2.13222e-05, 121463
-9340.07, 399003, -167.806, 0.512054, -955.205, 0.696865, 0.399281, 1.03299, 0.34851, 0.655882, 0.0001, 45.5, 246, 29.1008, 0.0970481, 0, 0, 1, 0, -3.12847e-05, 121470
-8352.4, 433690, -178.988, 0.552557, -1076.09, 0.784496, 0.368678, 0.993198, 0.349787, 0.651995, 0.0001, 91, 246, 29.1008, 0.0970481, 0, 0, 1, 0, -8.69569e-05, 121470
-9716.31, 998456, -35.7521, 0.992389, -996.068, 0.0382849, 0.231917, 0.9175, 0.352806, 0.64323, 3, 455, 246, 23.0634, 0.00494303, 0, 0, 1, 0, 1.23085e-05, 121471
-4297.05, 70812.8, -188.906, 3.1753, -657.583, 0.244417, 0.255055, 1.03299, 0.34851, 0.655882, 0.0001, 45.5, 246, 50.932, 0.169125, 1.39124, 1, 1, 0, 7.42445e-06, 121472
-4297.05, 70812.8, -188.906, 3.1753, -657.583, 0.244417, 0.255055, 1.03299, 0.34851, 0.655882, 3, 45.5, 246, 50.932, 0.169125, 1.23662, 1, 1, 0, 1.74399e-05, 121472
-2903.48, 80573.1, -226.02, 3.50041, -705.209, 0.305095, 0.263277, 0.993198, 0.349787, 0.651995, 0.0001, 91, 246, 50.932, 0.169125, 1.43887, 1, 1, 0, 1.17474e-06, 121472
-2903.48, 80573.1, -226.02, 3.50041, -705.209, 0.305095, 0.263277, 0.993198, 0.349787, 0.651995, 3, 91, 246, 50.932, 0.169125, 1.29708, 1, 1, 0, 8.67372e-06, 121472
-1008.26, 92595.9, -271.692, 3.8917, -769.23, 0.383525, 0.290277, 0.958125, 0.351078, 0.648177, 0.0001, 182, 246, 50.932, 0.169125, 1.7253, 1, 1, 0, -1.54165e-05, 121472
-1008.26, 92595.9, -271.692, 3.8917, -769.23, 0.383525, 0.290277, 0.958125, 0.351078, 0.648177, 3, 182, 246, 50.932, 0.169125, 1.59214, 1, 1, 0, 1.56953e-05, 121472
2643.23, 114029, -351.705, 4.56225, -892.982, 0.52949, 0.3615, 0.9175, 0.352806, 0.64323, 0.0001, 455, 246, 50.932, 0.169125, 3.61866, 1, 0, 0, 6.29803e-06, 121472
2643.23, 114029, -351.705, 4.56225, -892.982, 0.52949, 0.3615, 0.9175, 0.352806, 0.64323, 3, 455, 246, 50.932, 0.169125, 3.61948, 1, 0, 0, -7.78633e-06, 121472
-9886.56, 151673, -123.034, 2.05714, -931.482, 0.00643648, 0.347613, 1.03299, 0.34851, 0.655882, 0.0001, 45.5, 246, 33.3313, 0.151705, 0, 0, 1, 0, -7.62852e-06, 121473
-9886.56, 151673, -123.034, 2.05714, -931.482, 0.00643648, 0.347613, 1.03299, 0.34851, 0.655882, 3, 45.5, 246, 33.3313, 0.151705, 0, 0, 1, 0, -9.5142e-06, 121473
-6688.18, 183494, -178.63, 2.34558, -956.894, 0.0491499, 0.325513, 0.958125, 0.351078, 0.648177, 3, 182, 246, 33.3313, 0.151705, 0, 0, 1, 0, -1.23959e-05, 121473
-6899.62, 626283, -338.662, 0.139058, -951.904, 0.251931, 0.511425, 1.03299, 0.34851, 0.655882, 0.0001, 45.5, 246, 35.7249, 0.135291, 0, 0, 0, 0, 4.31206e-05, 121475
-6899.62, 626283, -338.662, 0.139058, -951.904, 0.251931, 0.511425, 1.03299, 0.34851, 0.655882, 3, 45.5, 246, 35.7249, 0.135291, 0, 0, 0, 0, -4.77238e-06, 121475
-9316.62, 158272, -154.456, 2.08667, -1141.03, 0.185532, 0.38405, 1.03299, 0.34851, 0.655882, 0.0001, 45.5, 246, 39.7214, 0.185508, 0, 0, 1, 0, -1.43144e-06, 121488
-9316.62, 158272, -154.456, 2.08667, -1141.03, 0.185532, 0.38405, 1.03299, 0.34851, 0.655882, 3, 45.5, 246, 39.7214, 0.185508, 0, 0, 1, 0, 1.44725e-05, 121488
-9464.42, 105836, -108.664, 3.63133, -829.925, 0.0265563, 0.170127, 1.03299, 0.34851, 0.655882, 0.0001, 45.5, 246, 31.3244, 0.105602, 0, 0, 0, 0, -7.32897e-06, 121490
-9464.42, 105836, -108.664, 3.63133, -829.925, 0.0265563, 0.170127, 1.03299, 0.34851, 0.655882, 3, 45.5, 246, 31.3244, 0.105602, 0, 0, 0, 0, 1.93042e-05, 121490
-688.583, 155606, -280.186, 5.14754, -972.417, 0.314097, 0.324505, 0.9175, 0.352806, 0.64323, 0.0001, 455, 246, 31.3244, 0.105602, 1.12124, 1, 0, 0, 1.87998e-05, 121490
-688.583, 155606, -280.186, 5.14754, -972.417, 0.314097, 0.324505, 0.9175, 0.352806, 0.64323, 3, 455, 246, 31.3244, 0.105602, 1.12343, 1, 0, 0, -3.44242e-08, 121490
-7730.23, 71186.8, -105.859, 3.21566, -735.378, -0.0243819, 0.221802, 1.03299, 0.34851, 0.655882, 0.0001, 45.5, 246, 33.3873, 0.112718, 0, 0, 1, 0, 1.6394e-05, 121492
-7730.23, 71186.8, -105.859, 3.21566, -735.378, -0.0243819, 0.221802, 1.03299, 0.34851, 0.655882, 3, 45.5, 246, 33.3873, 0.112718, 0, 0, 1, 0, -4.50307e-06, 121492
