-10564.1, 285004, -261.603, 0.901802, -637.118, 0.198745, 0.546073, 1.03299, 0.34851, 0.655882, 0.0001, 45.5, 246, 38.3027, 0.224657, 0, 0, 0, 0, -5.27869e-05, 162001
-10564.1, 285004, -261.603, 0.901802, -637.118, 0.198745, 0.546073, 1.03299, 0.34851, 0.655882, 3, 45.5, 246, 38.3027, 0.224657, 0, 0, 0, 0, 7.03443e-05, 162001
-9048.88, 296688, -279.968, 0.95659, -664.705, 0.2091, 0.530998, 0.993198, 0.349787, 0.651995, 3, 91, 246, 38.3027, 0.224657, 0, 0, 1, 0, -4.363e-05, 162001
-7216.62, 54486.5, -100.275, 3.39199, -622.571, 0.000683101, 0.19356, 1.03299, 0.34851, 0.655882, 0.0001, 45.5, 246, 32.0055, 0.0916421, 0, 0, 1, 0, 8.10557e-06, 162014
-7216.62, 54486.5, -100.275, 3.39199, -622.571, 0.000683101, 0.19356, 1.03299, 0.34851, 0.655882, 3, 45.5, 246, 32.0055, 0.0916421, 0, 0, 1, 0, 8.66207e-06, 162014
-8055.87, 593851, -296.298, 0.359792, -1069.33, 0.00516942, 0.484108, 1.03299, 0.34851, 0.655882, 0.0001, 45.5, 246, 36.6983, 0.129362, 0, 0, 0, 0, -8.64568e-05, 162019
-5657.26, 84003.4, -169.093, 2.71126, -1000.22, 0.0244306, 0.343213, 1.03299, 0.34851, 0.655882, 0.0001, 45.5, 246, 51.7586, 0.233167, 1.0052, 1, 1, 0, -1.61546e-05, 162026
-4325.6, 102488, -208.459, 2.93258, -1020.86, 0.0596339, 0.343212, 0.993198, 0.349787, 0.651995, 0.0001, 91, 246, 51.7586, 0.233167, 1.06798, 1, 1, 0, 2.0267e-06, 162026
-2433.42, 122554, -254.44, 3.18622, -1052.58, 0.101693, 0.356183, 0.958125, 0.351078, 0.648177, 0.0001, 182, 246, 51.7586, 0.233167, 1.4231, 1, 1, 0, -9.6197e-06, 162026
-2433.42, 122554, -254.44, 3.18622, -1052.58, 0.101693, 0.356183, 0.958125, 0.351078, 0.648177, 3, 182, 246, 51.7586, 0.233167, 1.23751, 1, 1, 0, -1.67085e-06, 162026
-13812, 160140, -20.8642, 3.36154, -922.552, 0.0171334, 0.162287, 1.03299, 0.34851, 0.655882, 0.0001, 45.5, 246, 18.9447, 0.0460589, 0, 0, 0, 0, -1.88981e-05, 162029
-13812, 160140, -20.8642, 3.36154, -922.552, 0.0171334, 0.162287, 1.03299, 0.34851, 0.655882, 3, 45.5, 246, 18.9447, 0.0460589, 0, 0, 0, 0, -1.9323e-05, 162029
-9621.99, 155814, -206.882, 3.55867, -760.908, -0.0610895, 0.241759, 1.03299, 0.34851, 0.655882, 3, 45.5, 246, 41.5941, 0.166375, 0, 0, 0, 0, -4.50416e-06, 162033
-3077.51, 178772, -307.498, 4.28036, -814.025, 0.0730829, 0.301868, 0.958125, 0.351078, 0.648177, 0.0001, 182, 246, 41.5941, 0.166375, 1.33389, 1, 0, 0, -1.73621e-05, 162033
-3077.51, 178772, -307.498, 4.28036, -814.025, 0.0730829, 0.301868, 0.958125, 0.351078, 0.648177, 3, 182, 246, 41.5941, 0.166375, 1.13462, 1, 0, 0, -1.47688e-05, 162033
-9550.21, 48293.8, 28.6909, 3.37794, -981, -0.0385544, 0.173153, 1.03299, 0.34851, 0.655882, 0.0001, 45.5, 246, 10.6442, 0.029851, 1.09494, 1, 1, 0, 1.85614e-06, 162036
-9550.21, 48293.8, 28.6909, 3.37794, -981, -0.0385544, 0.173153, 1.03299, 0.34851, 0.655882, 3, 45.5, 246, 10.6442, 0.029851, 1.04929, 1, 1, 0, 2.30888e-05, 162036
-8881.48, 64505.8, -0.33638, 3.67246, -977.803, 0.0159664, 0.182271, 0.993198, 0.349787, 0.651995, 0.0001, 91, 246, 10.6442, 0.029851, 0, 0, 1, 0, -6.77714e-06, 162036
-8881.48, 64505.8, -0.33638, 3.67246, -977.803, 0.0159664, 0.182271, 0.993198, 0.349787, 0.651995, 3, 91, 246, 10.6442, 0.029851, 0, 0, 1, 0, -3.1062e-06, 162036
-11285.3, 271164, -312.255, 1.65991, -783.79, 0.477361, 0.575823, 1.03299, 0.34851, 0.655882, 3, 45.5, 246, 45.8625, 0.247482, 0, 0, 0, 0, -4.70347e-06, 162038
-11228.3, 209939, -225.931, 3.3104, -1108, 0.0280597, 0.314188, 1.03299, 0.34851, 0.655882, 0.0001, 45.5, 246, 44.7564, 0.182753, 0, 0, 0, 0, 8.69245e-06, 162039
-11228.3, 209939, -225.931, 3.3104, -1108, 0.0280597, 0.314188, 1.03299, 0.34851, 0.655882, 3, 45.5, 246, 44.7564, 0.182753, 0, 0, 0, 0, -3.67568e-06, 162039
-2689.87, 259973, -349.926, 3.99319, -1193.07, 0.146734, 0.365671, 0.958125, 0.351078, 0.648177, 0.0001, 182, 246, 44.7564, 0.182753, 1.44183, 1, 0, 0, 1.61744e-05, 162039
-2689.87, 259973, -349.926, 3.99319, -1193.07, 0.146734, 0.365671, 0.958125, 0.351078, 0.648177, 3, 182, 246, 44.7564, 0.182753, 1.22745, 1, 0, 0, 6.42496e-06, 162039
-9354.24, 651742, -72.3099, 0.269328, -944.085, 0.000761163, 0.311505, 0.993198, 0.349787, 0.651995, 0.0001, 91, 246, 22.6532, 0.0279132, 0, 0, 1, 0, -8.38332e-05, 162042
-3927.95, 271028, -375.304, 3.5489, -946.016, 0.983322, 0.420018, 0.958125, 0.351078, 0.648177, 0.0001, 182, 246, 42.2547, 0.195901, 1.09692, 1, 0, 0, -5.77565e-05, 162045
-463.345, 195473, -285.6, 4.90114, -1515.67, 1.03116, 0.333558, 0.9175, 0.352806, 0.64323, 0.0001, 455, 246, 31.5472, 0.109198, 1.42914, 1, 0, 0, 3.99445e-06, 162046
-463.345, 195473, -285.6, 4.90114, -1515.67, 1.03116, 0.333558, 0.9175, 0.352806, 0.64323, 3, 455, 246, 31.5472, 0.109198, 1.4887, 1, 0, 0, -1.44243e-06, 162046
-2465.69, 64481.3, -223.973, 3.43267, -648.405, 0.100926, 0.303332, 0.9175, 0.352806, 0.64323, 0.0001, 455, 246, 47.1192, 0.133703, 1.09826, 1, 1, 0, 8.03542e-06, 162051
-2465.69, 64481.3, -223.973, 3.43267, -648.405, 0.100926, 0.303332, 0.9175, 0.352806, 0.64323, 3, 455, 246, 47.1192, 0.133703, 1.02324, 1, 1, 0, -6.70182e-06, 162051
-7454.64, 54906.8, -85.3936, 2.86533, -809.671, 0.934038, 0.262454, 0.958125, 0.351078, 0.648177, 0.0001, 182, 246, 22.6241, 0.0726276, 0, 0, 1, 0, -1.01007e-05, 162053
-7454.64, 54906.8, -85.3936, 2.86533, -809.671, 0.934038, 0.262454, 0.958125, 0.351078, 0.648177, 3, 182, 246, 22.6241, 0.0726276, 0, 0, 1, 0, 6.69521e-06, 162053
-6318.92, 78848.6, -129.087, 3.41344, -1025.35, 1.23149, 0.283349, 0.9175, 0.352806, 0.64323, 0.0001, 455, 246, 22.6241, 0.0726276, 0, 0, 1, 0, -4.65425e-05, 162053
-6318.92, 78848.6, -129.087, 3.41344, -1025.35, 1.23149, 0.283349, 0.9175, 0.352806, 0.64323, 3, 455, 246, 22.6241, 0.0726276, 0, 0, 1, 0, 3.32372e-05, 162053
-10562.8, 463887, -118.72, 0.495195, -726.966, 0.019505, 0.367141, 1.03299, 0.34851, 0.655882, 0.0001, 45.5, 246, 21.7293, 0.0663459, 0, 0, 1, 0, -4.60531e-05, 162055
-10562.8, 463887, -118.72, 0.495195, -726.966, 0.019505, 0.367141, 1.03299, 0.34851, 0.655882, 3, 45.5, 246, 21.7293, 0.0663459, 0, 0, 1, 0, -1.11348e-05, 162055
-9665.91, 473886, -126.338, 0.513809, -730.908, 0.0206864, 0.333935, 0.993198, 0.349787, 0.651995, 0.0001, 91, 246, 21.7293, 0.0663459, 0, 0, 1, 0, -9.35267e-06, 162055
-8640.63, 484071, -134.061, 0.531902, -735.17, 0.0219584, 0.305128, 0.958125, 0.351078, 0.648177, 0.0001, 182, 246, 21.7293, 0.0663459, 0, 0, 1, 0, 2.43463e-05, 162055
-10371.5, 544263, -146.58, 0.526374, -1024.57, 0.0395268, 0.375904, 1.03299, 0.34851, 0.655882, 0.0001, 45.5, 246, 28.2443, 0.0694052, 0, 0, 0, 0, -4.48567e-07, 162056
-10371.5, 544263, -146.58, 0.526374, -1024.57, 0.0395268, 0.375904, 1.03299, 0.34851, 0.655882, 3, 45.5, 246, 28.2443, 0.0694052, 0, 0, 0, 0, -3.63701e-05, 162056
-7674.46, 42102.3, -68.807, 3.61901, -945.298, 0.220634, 0.281655, 0.9175, 0.352806, 0.64323, 3, 455, 246, 7.25632, 0.0422699, 0, 0, 1, 1, 1.195e-05, 162057
-7507.07, 84167.9, -130.79, 1.85976, -807.52, -0.00319306, 0.386168, 1.03299, 0.34851, 0.655882, 3, 45.5, 246, 44.3509, 0.243272, 0, 0, 1, 0, -1.80715e-05, 162059
-10861.7, 144552, -92.7951, 2.30833, -625.716, 0.100098, 0.293024, 1.03299, 0.34851, 0.655882, 0.0001, 45.5, 246, 24.7233, 0.10462, 0, 0, 1, 0, -7.07389e-06, 162060
-11915.1, 156510, -23.9479, 2.24328, -928.693, 0.00331596, 0.271794, 1.03299, 0.34851, 0.655882, 0.0001, 45.5, 246, 18.2615, 0.0490533, 0, 0, 1, 0, 8.6661e-06, 162064
-11915.1, 156510, -23.9479, 2.24328, -928.693, 0.00331596, 0.271794, 1.03299, 0.34851, 0.655882, 3, 45.5, 246, 18.2615, 0.0490533, 0, 0, 1, 0, -9.45619e-06, 162064
-10512.8, 171403, -45.1335, 2.39676, -932.984, 0.0269699, 0.255142, 0.993198, 0.349787, 0.651995, 0.0001, 91, 246, 18.2615, 0.0490533, 0, 0, 1, 0, -7.95863e-06, 162064
-10512.8, 171403, -45.1335, 2.39676, -932.984, 0.0269699, 0.255142, 0.993198, 0.349787, 0.651995, 3, 91, 246, 18.2615, 0.0490533, 0, 0, 1, 0, 1.67753e-06, 162064
-8971.96, 535384, -360.151, 0.120618, -637.042, 0.41263, 0.562848, 1.03299, 0.34851, 0.655882, 0.0001, 45.5, 246, 32.7331, 0.166081, 0, 0, 0, 0, 2.87389e-05, 162065
-8971.96, 535384, -360.151, 0.120618, -637.042, 0.41263, 0.562848, 1.03299, 0.34851, 0.655882, 3, 45.5, 246, 32.7331, 0.166081, 0, 0, 0, 0, -3.72047e-05, 162065
-7783.21, 28418.2, -49.3098, 2.35496, -848.483, -0.0261666, 0.28786, 1.03299, 0.34851, 0.655882, 3, 45.5, 246, 27.828, 0.0960379, 0, 0, 1, 1, -3.22868e-06, 162066
-10438, 841879, -107.855, 0.227851, -649.604, 0.0486164, 0.353136, 1.03299, 0.34851, 0.655882, 0.0001, 45.5, 246, 18.7772, 0.0329342, 0, 0, 1, 0, 1.87509e-05, 162067
-10438, 841879, -107.855, 0.227851, -649.604, 0.0486164, 0.353136, 1.03299, 0.34851, 0.655882, 3, 45.5, 246, 18.7772, 0.0329342, 0, 0, 1, 0, 3.49355e-06, 162067
-9738.58, 851708, -112.56, 0.23555, -655.32, 0.0492303, 0.317976, 0.993198, 0.349787, 0.651995, 0.0001, 91, 246, 18.7772, 0.0329342, 0, 0, 1, 0, 2.21283e-05, 162067
-9738.58, 851708, -112.56, 0.23555, -655.32, 0.0492303, 0.317976, 0.993198, 0.349787, 0.651995, 3, 91, 246, 18.7772, 0.0329342, 0, 0, 1, 0, 3.69567e-05, 162067
-8946.27, 861744, -117.164, 0.242886, -661.198, 0.0498695, 0.287126, 0.958125, 0.351078, 0.648177, 0.0001, 182, 246, 18.7772, 0.0329342, 0, 0, 1, 0, 5.97843e-05, 162067
-7709.64, 101677, -109.358, 2.95369, -1132.74, 0.00838052, 0.268028, 0.993198, 0.349787, 0.651995, 0.0001, 91, 246, 30.8944, 0.119786, 0, 0, 1, 0, -1.31835e-06, 162071
-7709.64, 101677, -109.358, 2.95369, -1132.74, 0.00838052, 0.268028, 0.993198, 0.349787, 0.651995, 3, 91, 246, 30.8944, 0.119786, 0, 0, 1, 0, -7.90213e-06, 162071
-3273.9, 118352, -242.09, 4.18791, -901.967, 0.392928, 0.266785, 0.958125, 0.351078, 0.648177, 0.0001, 182, 246, 40.0213, 0.140346, 1.12424, 1, 1, 0, 1.17354e-07, 162074
1111.77, 146163, -331.645, 4.95196, -1042.51, 0.559918, 0.353985, 0.9175, 0.352806, 0.64323, 0.0001, 455, 246, 40.0213, 0.140346, 2.58004, 1, 0, 0, -1.25693e-05, 162074
1111.77, 146163, -331.645, 4.95196, -1042.51, 0.559918, 0.353985, 0.9175, 0.352806, 0.64323, 3, 455, 246, 40.0213, 0.140346, 2.58347, 1, 0, 0, 5.30528e-06, 162074
-7438.98, 439420, -220.746, 0.416524, -1013.49, 0.000289554, 0.414055, 0.993198, 0.349787, 0.651995, 0.0001, 91, 246, 33.148, 0.128945, 0, 0, 1, 0, -0.000102264, 162076
-9464.44, 286542, -130.551, 0.883308, -730.682, 0.00851975, 0.349805, 0.993198, 0.349787, 0.651995, 0.0001, 91, 246, 24.7135, 0.108151, 0, 0, 1, 0, -1.81983e-05, 162079
-1462.81, 136079, -269.193, 4.43643, -1423.02, 0.836531, 0.332478, 0.9175, 0.352806, 0.64323, 0.0001, 455, 246, 37.609, 0.122316, 1.73205, 1, 0, 0, -4.74264e-06, 162084
-1462.81, 136079, -269.193, 4.43643, -1423.02, 0.836531, 0.332478, 0.9175, 0.352806, 0.64323, 3, 455, 246, 37.609, 0.122316, 1.73275, 1, 0, 0, -9.63083e-06, 162084
-5455.09, 93507.3, -188.638, 2.98693, -1001.73, 0.752097, 0.305025, 1.03299, 0.34851, 0.655882, 0.0001, 45.5, 246, 50.3153, 0.204093, 1.22375, 1, 1, 0, 1.21305e-05, 162090
-3705.7, 119014, -235.983, 3.38478, -1159.9, 0.904048, 0.312051, 0.993198, 0.349787, 0.651995, 0.0001, 91, 246, 50.3153, 0.204093, 1.31394, 1, 1, 0, 1.75298e-07, 162090
-3705.7, 119014, -235.983, 3.38478, -1159.9, 0.904048, 0.312051, 0.993198, 0.349787, 0.651995, 3, 91, 246, 50.3153, 0.204093, 1.09956, 1, 1, 0, -7.28562e-06, 162090
-965.258, 155584, -299.925, 3.89793, -1387.39, 1.12256, 0.34027, 0.958125, 0.351078, 0.648177, 0.0001, 182, 246, 50.3153, 0.204093, 2.04522, 1, 0, 0, -6.96802e-06, 162090
-965.258, 155584, -299.925, 3.89793, -1387.39, 1.12256, 0.34027, 0.958125, 0.351078, 0.648177, 3, 182, 246, 50.3153, 0.204093, 1.89844, 1, 0, 0, -3.50281e-06, 162090
5501.18, 237999, -429.91, 4.88692, -1898.66, 1.61251, 0.423586, 0.9175, 0.352806, 0.64323, 0.0001, 455, 246, 50.3153, 0.204093, 0, 0, 0, 0, -2.50271e-05, 162090
5501.18, 237999, -429.91, 4.88692, -1898.66, 1.61251, 0.423586, 0.9175, 0.352806, 0.64323, 3, 455, 246, 50.3153, 0.204093, 0, 0, 0, 0, -2.3548e-05, 162090
-11992.1, 541814, -58.273, 0.60583, -1192.22, 0.00221392, 0.341932, 1.03299, 0.34851, 0.655882, 0.0001, 45.5, 246, 26.2251, 0.0301977, 0, 0, 1, 0, 7.28159e-05, 162091
-11992.1, 541814, -58.273, 0.60583, -1192.22, 0.00221392, 0.341932, 1.03299, 0.34851, 0.655882, 3, 45.5, 246, 26.2251, 0.0301977, 0, 0, 1, 0, 4.57074e-05, 162091
-14663, 179485, 1.32132, 3.15502, -1049.15, -0.0475351, 0.181057, 1.03299, 0.34851, 0.655882, 0.0001, 45.5, 246, 18.1059, 0.0337697, 0, 0, 0, 0, -3.94783e-06, 162094
-14663, 179485, 1.32132, 3.15502, -1049.15, -0.0475351, 0.181057, 1.03299, 0.34851, 0.655882, 3, 45.5, 246, 18.1059, 0.0337697, 0, 0, 0, 0, -4.93206e-06, 162094
-10694.9, 212340, -229.088, 2.22271, -846.116, 0.399779, 0.424184, 1.03299, 0.34851, 0.655882, 0.0001, 45.5, 246, 41.8325, 0.202138, 0, 0, 0, 0, -6.16041e-05, 162105
-10694.9, 212340, -229.088, 2.22271, -846.116, 0.399779, 0.424184, 1.03299, 0.34851, 0.655882, 3, 45.5, 246, 41.8325, 0.202138, 0, 0, 0, 0, 4.4488e-05, 162105
-13341.3, 165846, -32.375, 3.08062, -1089.4, 0.0859989, 0.200244, 1.03299, 0.34851, 0.655882, 0.0001, 45.5, 246, 22.5334, 0.058632, 0, 0, 0, 0, -1.66405e-05, 162106
-13341.3, 165846, -32.375, 3.08062, -1089.4, 0.0859989, 0.200244, 1.03299, 0.34851, 0.655882, 3, 45.5, 246, 22.5334, 0.058632, 0, 0, 0, 0, 1.3239e-05, 162106
-11109.4, 187459, -67.3461, 3.35455, -1112.53, 0.133276, 0.201573, 0.993198, 0.349787, 0.651995, 0.0001, 91, 246, 22.5334, 0.058632, 0, 0, 1, 0, 3.62323e-06, 162106
-11109.4, 187459, -67.3461, 3.35455, -1112.53, 0.133276, 0.201573, 0.993198, 0.349787, 0.651995, 3, 91, 246, 22.5334, 0.058632, 0, 0, 1, 0, 1.29991e-06, 162106
-10064.7, 111407, -64.3369, 2.6268, -1067.82, -0.0325884, 0.269084, 1.03299, 0.34851, 0.655882, 0.0001, 45.5, 246, 26.9607, 0.098836, 0, 0, 1, 0, 9.92788e-06, 162108
-10064.7, 111407, -64.3369, 2.6268, -1067.82, -0.0325884, 0.269084, 1.03299, 0.34851, 0.655882, 3, 45.5, 246, 26.9607, 0.098836, 0, 0, 1, 0, 2.63444e-06, 162108
1025.45, 370922, -372.831, 3.78772, -992.054, 0.258558, 0.37723, 0.9175, 0.352806, 0.64323, 3, 455, 246, 34.4085, 0.138728, 0, 0, 0, 0, 1.79178e-05, 162115
-9047.63, 91282.9, -69.9091, 1.87871, -997.375, 0.124511, 0.327946, 1.03299, 0.34851, 0.655882, 3, 45.5, 246, 28.2637, 0.127215, 0, 0, 1, 0, 2.28407e-05, 162117
-7932.31, 46997.5, -59.6251, 3.14656, -846.309, -0.0405877, 0.219283, 1.03299, 0.34851, 0.655882, 0.0001, 45.5, 246, 26.9619, 0.0848079, 1.09749, 1, 1, 0, -2.07298e-06, 162121
-7298.93, 59223.2, -90.031, 3.40906, -850.39, 0.00658463, 0.223511, 0.993198, 0.349787, 0.651995, 0.0001, 91, 246, 26.9619, 0.0848079, 0, 0, 1, 0, -9.35339e-06, 162121
-7298.93, 59223.2, -90.031, 3.40906, -850.39, 0.00658463, 0.223511, 0.993198, 0.349787, 0.651995, 3, 91, 246, 26.9619, 0.0848079, 0, 0, 1, 0, -1.07097e-05, 162121
-9897.3, 477463, -305.226, 0.665972, -1011.91, 0.465091, 0.51394, 1.03299, 0.34851, 0.655882, 3, 45.5, 246, 38.021, 0.154833, 0, 0, 0, 0, -4.6921e-05, 162132
-11100.6, 387782, -484.973, 3.7472, -1093.58, 0.677713, 0.507113, 0.993198, 0.349787, 0.651995, 0.0001, 91, 246, 50.2503, 0.217141, 1.12376, 1, 1, 0, -3.14583e-05, 162134
-11100.6, 387782, -484.973, 3.7472, -1093.58, 0.677713, 0.507113, 0.993198, 0.349787, 0.651995, 3, 91, 246, 50.2503, 0.217141, 1.03612, 1, 1, 0, -1.40005e-05, 162134
-12388.8, 293954, -19.9717, 0.99596, -548.995, 0.663893, 0.325345, 1.03299, 0.34851, 0.655882, 0.0001, 45.5, 246, 11.8181, 0.0195016, 0, 0, 1, 0, 9.83731e-06, 162141
-12388.8, 293954, -19.9717, 0.99596, -548.995, 0.663893, 0.325345, 1.03299, 0.34851, 0.655882, 3, 45.5, 246, 11.8181, 0.0195016, 0, 0, 1, 0, -4.37143e-05, 162141
-9967.68, 331699, -34.0438, 1.17607, -697.725, 0.853302, 0.265847, 0.958125, 0.351078, 0.648177, 0.0001, 182, 246, 11.8181, 0.0195016, 0, 0, 1, 0, 2.08711e-05, 162141
-9536.49, 583720, -365.702, 0.185194, -645.825, -4.34106e-05, 0.565401, 1.03299, 0.34851, 0.655882, 0.0001, 45.5, 246, 33.0136, 0.165297, 0, 0, 0, 0, -0.000215374, 162142
-9536.49, 583720, -365.702, 0.185194, -645.825, -4.34106e-05, 0.565401, 1.03299, 0.34851, 0.655882, 3, 45.5, 246, 33.0136, 0.165297, 0, 0, 0, 0, 0.000328678, 162142
-11114.7, 387619, -51.5362, 0.578853, -642.317, 0.0764401, 0.342536, 1.03299, 0.34851, 0.655882, 0.0001, 45.5, 246, 15.7719, 0.035349, 0, 0, 1, 0, -1.20447e-05, 162156
-11114.7, 387619, -51.5362, 0.578853, -642.317, 0.0764401, 0.342536, 1.03299, 0.34851, 0.655882, 3, 45.5, 246, 15.7719, 0.035349, 0, 0, 1, 0, 2.26567e-05, 162156
-10354.9, 396505, -56.8782, 0.602948, -651.097, 0.0789264, 0.307946, 0.993198, 0.349787, 0.651995, 0.0001, 91, 246, 15.7719, 0.035349, 0, 0, 1, 0, -1.35946e-05, 162156
-9069.47, 72889.5, -11.7217, 1.75149, -1049.45, 0.0483311, 0.284025, 0.993198, 0.349787, 0.651995, 0.0001, 91, 246, 11.9449, 0.0387669, 0, 0, 1, 0, 5.18044e-06, 162160
-3743.1, 314289, -477.827, 3.27572, -750.314, 0.418141, 0.578376, 0.958125, 0.351078, 0.648177, 0.0001, 182, 246, 47.5402, 0.242995, 2.06077, 1, 0, 0, 2.39089e-05, 162162
-3743.1, 314289, -477.827, 3.27572, -750.314, 0.418141, 0.578376, 0.958125, 0.351078, 0.648177, 3, 182, 246, 47.5402, 0.242995, 1.89328, 1, 0, 0, -7.01807e-06, 162162
-10561.8, 198705, -160.48, 2.00294, -976.182, -0.0162061, 0.380955, 1.03299, 0.34851, 0.655882, 0.0001, 45.5, 246, 36.378, 0.166811, 0, 0, 0, 0, -1.13319e-05, 162163
-10561.8, 198705, -160.48, 2.00294, -976.182, -0.0162061, 0.380955, 1.03299, 0.34851, 0.655882, 3, 45.5, 246, 36.378, 0.166811, 0, 0, 0, 0, -1.05496e-05, 162163
-11601.4, 309171, -25.1363, 0.833885, -777.025, 0.126759, 0.332502, 1.03299, 0.34851, 0.655882, 0.0001, 45.5, 246, 15.7147, 0.0251071, 0, 0, 1, 0, 2.11328e-05, 162166
-11601.4, 309171, -25.1363, 0.833885, -777.025, 0.126759, 0.332502, 1.03299, 0.34851, 0.655882, 3, 45.5, 246, 15.7147, 0.0251071, 0, 0, 1, 0, 2.2077e-05, 162166
-13497, 282601, -217.184, 3.72852, -693.814, 0.042682, 0.22849, 0.993198, 0.349787, 0.651995, 0.0001, 91, 246, 30.0683, 0.117568, 0, 0, 1, 0, 3.42733e-05, 162171
-13497, 282601, -217.184, 3.72852, -693.814, 0.042682, 0.22849, 0.993198, 0.349787, 0.651995, 3, 91, 246, 30.0683, 0.117568, 0, 0, 1, 0, 7.1243e-05, 162171
-3849.76, 243996, -201.747, 2.79466, -968.768, 0.0682967, 0.295152, 0.9175, 0.352806, 0.64323, 3, 455, 246, 28.0062, 0.107867, 0, 0, 0, 0, 1.1731e-05, 162173
-7592.43, 97064.9, -111.027, 2.48806, -1132.69, 0.0409862, 0.300535, 0.993198, 0.349787, 0.651995, 0.0001, 91, 246, 32.9272, 0.143596, 0, 0, 1, 0, -1.31814e-06, 162179
-7592.43, 97064.9, -111.027, 2.48806, -1132.69, 0.0409862, 0.300535, 0.993198, 0.349787, 0.651995, 3, 91, 246, 32.9272, 0.143596, 0, 0, 1, 0, 1.26927e-06, 162179
-5184.77, 56181.9, -146.792, 2.3067, -607.695, 0.0607981, 0.329305, 1.03299, 0.34851, 0.655882, 0.0001, 45.5, 246, 52.5228, 0.209776, 1.07882, 1, 1, 0, 6.30197e-06, 162181
-4464.31, 63311.4, -170.537, 2.47921, -624.833, 0.0867743, 0.31815, 0.993198, 0.349787, 0.651995, 0.0001, 91, 246, 52.5228, 0.209776, 1.03777, 1, 1, 0, 6.92794e-06, 162181
-3505.13, 71180.9, -197.665, 2.67173, -647.526, 0.117507, 0.317058, 0.958125, 0.351078, 0.648177, 0.0001, 182, 246, 52.5228, 0.209776, 1.11775, 1, 1, 0, -1.07029e-05, 162181
-1771.59, 83203.7, -240.258, 2.96769, -688.711, 0.167765, 0.331339, 0.9175, 0.352806, 0.64323, 0.0001, 455, 246, 52.5228, 0.209776, 1.44037, 1, 1, 0, 9.36007e-06, 162181
-1771.59, 83203.7, -240.258, 2.96769, -688.711, 0.167765, 0.331339, 0.9175, 0.352806, 0.64323, 3, 455, 246, 52.5228, 0.209776, 1.35166, 1, 1, 0, 2.6705e-06, 162181
-9814.62, 78616.9, -18.9201, 2.45309, -1036.41, 0.0983188, 0.265318, 1.03299, 0.34851, 0.655882, 0.0001, 45.5, 246, 18.9887, 0.0625631, 0, 0, 1, 0, -1.0296e-05, 162182
-9814.62, 78616.9, -18.9201, 2.45309, -1036.41, 0.0983188, 0.265318, 1.03299, 0.34851, 0.655882, 3, 45.5, 246, 18.9887, 0.0625631, 0, 0, 1, 0, -7.17066e-06, 162182
-10504.5, 366141, -162.178, 0.694265, -802.674, 0.847013, 0.394207, 1.03299, 0.34851, 0.655882, 0.0001, 45.5, 246, 26.7597, 0.098958, 0, 0, 1, 0, 3.11744e-05, 162186
-10504.5, 366141, -162.178, 0.694265, -802.674, 0.847013, 0.394207, 1.03299, 0.34851, 0.655882, 3, 45.5, 246, 26.7597, 0.098958, 0, 0, 1, 0, -1.24551, 162186
-10211.7, 129031, -30.6436, 3.7217, -1110.5, 0.83326, 0.170324, 0.993198, 0.349787, 0.651995, 0.0001, 91, 246, 16.9699, 0.0384426, 0, 0, 1, 0, -7.45234e-06, 162196
-10211.7, 129031, -30.6436, 3.7217, -1110.5, 0.83326, 0.170324, 0.993198, 0.349787, 0.651995, 3, 91, 246, 16.9699, 0.0384426, 0, 0, 1, 0, 4.19803e-06, 162196
-7849.09, 160667, -77.3757, 4.27992, -1292.29, 1.04045, 0.202334, 0.958125, 0.351078, 0.648177, 0.0001, 182, 246, 16.9699, 0.0384426, 0, 0, 0, 0, -3.05407e-05, 162196
-7849.09, 160667, -77.3757, 4.27992, -1292.29, 1.04045, 0.202334, 0.958125, 0.351078, 0.648177, 3, 182, 246, 16.9699, 0.0384426, 0, 0, 0, 0, -1.47759e-05, 162196
-8965.73, 95361.8, -107.723, 3.56075, -771.538, -0.0440599, 0.179497, 1.03299, 0.34851, 0.655882, 0.0001, 45.5, 246, 31.2453, 0.105332, 0, 0, 1, 0, 1.71025e-05, 162198
-8965.73, 95361.8, -107.723, 3.56075, -771.538, -0.0440599, 0.179497, 1.03299, 0.34851, 0.655882, 3, 45.5, 246, 31.2453, 0.105332, 0, 0, 0, 0, 1.8674e-05, 162198
-9291.71, 108676, -116.526, 2.89779, -665.187, -0.0399437, 0.258331, 1.03299, 0.34851, 0.655882, 0.0001, 45.5, 246, 31.3681, 0.124572, 0, 0, 1, 0, -1.15922e-05, 162199
-9291.71, 108676, -116.526, 2.89779, -665.187, -0.0399437, 0.258331, 1.03299, 0.34851, 0.655882, 3, 45.5, 246, 31.3681, 0.124572, 0, 0, 1, 0, -1.54924e-05, 162199
-6081.83, 124582, -176.534, 3.39204, -689.533, 0.0466179, 0.27051, 0.958125, 0.351078, 0.648177, 0.0001, 182, 246, 31.3681, 0.124572, 0, 0, 1, 0, -7.35813e-06, 162199
-6081.83, 124582, -176.534, 3.39204, -689.533, 0.0466179, 0.27051, 0.958125, 0.351078, 0.648177, 3, 182, 246, 31.3681, 0.124572, 0, 0, 1, 0, -3.35905e-06, 162199
-9829.09, 361932, -101.72, 0.596641, -626.421, 0.752049, 0.325495, 0.993198, 0.349787, 0.651995, 0.0001, 91, 246, 17.8849, 0.0640506, 0, 0, 1, 0, -9.56995e-06, 162200
-13646, -183696, 3.25621, 0.612735, -1200.01, -0.0016911, 0.382527, 1.03299, 0.34851, 0.655882, 0.0001, 45.5, 246, -104.063, 0.141743, 0, 0, 1, 0, -5.57009e-05, 162201
-13646, -183696, 3.25621, 0.612735, -1200.01, -0.0016911, 0.382527, 1.03299, 0.34851, 0.655882, 3, 45.5, 246, -104.063, 0.141743, 0, 0, 1, 0, 7.23627e-05, 162201
-10969.7, 216533, -87.5163, 1.31677, -865.787, 0.568877, 0.345024, 1.03299, 0.34851, 0.655882, 0.0001, 45.5, 246, 24.3245, 0.0894955, 0, 0, 1, 0, -2.95696e-05, 162202
-10969.7, 216533, -87.5163, 1.31677, -865.787, 0.568877, 0.345024, 1.03299, 0.34851, 0.655882, 3, 45.5, 246, 24.3245, 0.0894955, 0, 0, 1, 0, 3.35887e-05, 162202
-9798.02, 238149, -103.286, 1.42956, -955.555, 0.634159, 0.31758, 0.993198, 0.349787, 0.651995, 0.0001, 91, 246, 24.3245, 0.0894955, 0, 0, 1, 0, 9.50129e-06, 162202
-10849.9, 200809, -176.589, 1.69973, -602.717, 0.441298, 0.399365, 1.03299, 0.34851, 0.655882, 0.0001, 45.5, 246, 32.7888, 0.169558, 0, 0, 1, 0, 3.09416e-05, 162206
-10849.9, 200809, -176.589, 1.69973, -602.717, 0.441298, 0.399365, 1.03299, 0.34851, 0.655882, 3, 45.5, 246, 32.7888, 0.169558, 0, 0, 1, 0, -5.1123e-05, 162206
-1971.89, 81724.8, -225.445, 3.80501, -1104.22, 0.000421023, 0.260182, 0.993198, 0.349787, 0.651995, 0.0001, 91, 246, 55.1557, 0.178667, 1.5137, 1, 1, 0, -2.50003e-06, 162207
-1971.89, 81724.8, -225.445, 3.80501, -1104.22, 0.000421023, 0.260182, 0.993198, 0.349787, 0.651995, 3, 91, 246, 55.1557, 0.178667, 1.35503, 1, 1, 0, -1.35128e-06, 162207
217.967, 104975, -288.525, 4.18434, -1137.26, 0.0705506, 0.297369, 0.958125, 0.351078, 0.648177, 0.0001, 182, 246, 55.1557, 0.178667, 2.25612, 1, 1, 1, -1.14824e-06, 162207
217.967, 104975, -288.525, 4.18434, -1137.26, 0.0705506, 0.297369, 0.958125, 0.351078, 0.648177, 3, 182, 246, 55.1557, 0.178667, 2.11508, 1, 1, 1, 1.47856e-05, 162207
-9468.29, 180716, -246.57, 3.55834, -943.95, -0.0604195, 0.295292, 1.03299, 0.34851, 0.655882, 3, 45.5, 246, 47.458, 0.19675, 0, 0, 0, 0, 1.07571e-05, 162214
-5924.11, 197198, -302.689, 3.89148, -966.196, 0.000564013, 0.318589, 0.993198, 0.349787, 0.651995, 0.0001, 91, 246, 47.458, 0.19675, 1.15692, 1, 1, 0, 7.60423e-06, 162214
-1319.28, 216360, -370.47, 4.29417, -1008.01, 0.0741825, 0.363222, 0.958125, 0.351078, 0.648177, 0.0001, 182, 246, 47.458, 0.19675, 2.59966, 1, 0, 0, 6.41937e-06, 162214
-1319.28, 216360, -370.47, 4.29417, -1008.01, 0.0741825, 0.363222, 0.958125, 0.351078, 0.648177, 3, 182, 246, 47.458, 0.19675, 2.41694, 1, 0, 0, 7.16892e-06, 162214
-8607.39, 90103.2, -98.7583, 3.42859, -1022.72, 0.0355485, 0.204321, 1.03299, 0.34851, 0.655882, 0.0001, 45.5, 246, 33.3408, 0.115723, 0, 0, 0, 0, 7.49898e-06, 162218
-8607.39, 90103.2, -98.7583, 3.42859, -1022.72, 0.0355485, 0.204321, 1.03299, 0.34851, 0.655882, 3, 45.5, 246, 33.3408, 0.115723, 0, 0, 0, 0, -1.07187e-05, 162218
-7098.65, 108907, -141.568, 3.74974, -1044.36, 0.0926635, 0.217263, 0.993198, 0.349787, 0.651995, 0.0001, 91, 246, 33.3408, 0.115723, 0, 0, 1, 0, 1.0603e-06, 162218
-7098.65, 108907, -141.568, 3.74974, -1044.36, 0.0926635, 0.217263, 0.993198, 0.349787, 0.651995, 3, 91, 246, 33.3408, 0.115723, 0, 0, 1, 0, -6.76462e-06, 162218
-601.886, 162154, -282.659, 4.79094, -1171.95, 0.288814, 0.330235, 0.9175, 0.352806, 0.64323, 0.0001, 455, 246, 33.3408, 0.115723, 1.38686, 1, 0, 0, -4.62202e-06, 162218
-601.886, 162154, -282.659, 4.79094, -1171.95, 0.288814, 0.330235, 0.9175, 0.352806, 0.64323, 3, 455, 246, 33.3408, 0.115723, 1.39439, 1, 0, 0, -5.59134e-06, 162218
-5137.37, 61799.1, -160.68, 3.24443, -669.253, 0.702845, 0.21726, 1.03299, 0.34851, 0.655882, 0.0001, 45.5, 246, 44.3685, 0.129045, 1.23148, 1, 1, 0, -4.98012e-05, 162219
-5137.37, 61799.1, -160.68, 3.24443, -669.253, 0.702845, 0.21726, 1.03299, 0.34851, 0.655882, 3, 45.5, 246, 44.3685, 0.129045, 1.04056, 1, 1, 0, -2.1062e-05, 162219
-3940.37, 73914.4, -197.503, 3.67583, -773.357, 0.849721, 0.226766, 0.993198, 0.349787, 0.651995, 0.0001, 91, 246, 44.3685, 0.129045, 1.20322, 1, 1, 0, 7.14058e-06, 162219
-3940.37, 73914.4, -197.503, 3.67583, -773.357, 0.849721, 0.226766, 0.993198, 0.349787, 0.651995, 3, 91, 246, 44.3685, 0.129045, 1.03212, 1, 1, 0, 3.76777e-05, 162219
-2157.16, 91193.3, -246.991, 4.2342, -923.149, 1.06074, 0.26028, 0.958125, 0.351078, 0.648177, 0.0001, 182, 246, 44.3685, 0.129045, 1.4283, 1, 1, 0, -1.27268e-05, 162219
-2157.16, 91193.3, -246.991, 4.2342, -923.149, 1.06074, 0.26028, 0.958125, 0.351078, 0.648177, 3, 182, 246, 44.3685, 0.129045, 1.29512, 1, 1, 0, 2.61052e-05, 162219
1830.62, 129781, -347.119, 5.31567, -1259.13, 1.53236, 0.357388, 0.9175, 0.352806, 0.64323, 0.0001, 455, 246, 44.3685, 0.129045, 4.17589, 1, 0, 0, -206.581, 162219
1830.62, 129781, -347.119, 5.31567, -1259.13, 1.53236, 0.357388, 0.9175, 0.352806, 0.64323, 3, 455, 246, 44.3685, 0.129045, 4.18882, 1, 0, 0, -206.433, 162219
-5669.16, 319227, -393.919, 4.17239, -808.499, 0.226103, 0.369687, 0.958125, 0.351078, 0.648177, 0.0001, 182, 246, 39.5771, 0.171606, 1.13939, 1, 0, 0, 1.46427e-07, 162224
886.611, 220970, -315.12, 5.34255, -1458.94, 1.00615, 0.340189, 0.9175, 0.352806, 0.64323, 0.0001, 455, 246, 31.5348, 0.106626, 2.34214, 1, 0, 0, 2.26201e-05, 162226
886.611, 220970, -315.12, 5.34255, -1458.94, 1.00615, 0.340189, 0.9175, 0.352806, 0.64323, 3, 455, 246, 31.5348, 0.106626, 2.61969, 1, 0, 0, -2.48088e-05, 162226
-8786.22, 163376, -238.268, 3.44698, -840.61, -0.0231996, 0.29506, 1.03299, 0.34851, 0.655882, 0.0001, 45.5, 246, 46.7536, 0.1957, 1.05013, 1, 0, 0, 3.98382e-06, 162232
-5676.4, 176926, -288.634, 3.76876, -866.2, 0.0338763, 0.314462, 0.993198, 0.349787, 0.651995, 0.0001, 91, 246, 46.7536, 0.1957, 1.15667, 1, 1, 0, 6.97302e-06, 162232
-1670.42, 192890, -349.365, 4.15537, -908.852, 0.103396, 0.354052, 0.958125, 0.351078, 0.648177, 0.0001, 182, 246, 46.7536, 0.1957, 2.02117, 1, 0, 0, -8.46178e-06, 162232
-1670.42, 192890, -349.365, 4.15537, -908.852, 0.103396, 0.354052, 0.958125, 0.351078, 0.648177, 3, 182, 246, 46.7536, 0.1957, 1.86559, 1, 0, 0, 1.26065e-05, 162232
-7436, 11485.2, -19.4099, 3.39026, -1183.21, 0.0357111, 0.199827, 1.03299, 0.34851, 0.655882, 0.0001, 45.5, 246, 22.8657, 0.0739219, 0, 0, 1, 0, -9.19663e-06, 162234
-7436, 11485.2, -19.4099, 3.39026, -1183.21, 0.0357111, 0.199827, 1.03299, 0.34851, 0.655882, 3, 45.5, 246, 22.8657, 0.0739219, 0, 0, 1, 0, -1.50744e-05, 162234
-11151.9, 317373, -71.0695, 0.854655, -859.22, 0.0251861, 0.346503, 1.03299, 0.34851, 0.655882, 0.0001, 45.5, 246, 21.1685, 0.0587779, 0, 0, 1, 0, 3.03506e-06, 162238
-11151.9, 317373, -71.0695, 0.854655, -859.22, 0.0251861, 0.346503, 1.03299, 0.34851, 0.655882, 3, 45.5, 246, 21.1685, 0.0587779, 0, 0, 1, 0, -1.55227e-05, 162238
-10140.6, 330812, -80.8491, 0.892387, -864.63, 0.0286504, 0.314081, 0.993198, 0.349787, 0.651995, 0.0001, 91, 246, 21.1685, 0.0587779, 0, 0, 1, 0, 1.49407e-05, 162238
-3015.9, 103554, -229.095, 4.37468, -1096.09, 0.353057, 0.256221, 0.958125, 0.351078, 0.648177, 0.0001, 182, 246, 40.4602, 0.128366, 1.17588, 1, 1, 0, 1.1657e-05, 162239
-3015.9, 103554, -229.095, 4.37468, -1096.09, 0.353057, 0.256221, 0.958125, 0.351078, 0.648177, 3, 182, 246, 40.4602, 0.128366, 1.0082, 1, 1, 0, 2.53959e-05, 162239
1208.35, 140489, -332.377, 5.18295, -1247.94, 0.524104, 0.354188, 0.9175, 0.352806, 0.64323, 0.0001, 455, 246, 40.4602, 0.128366, 3.45859, 1, 0, 0, 2.52958e-05, 162239
1208.35, 140489, -332.377, 5.18295, -1247.94, 0.524104, 0.354188, 0.9175, 0.352806, 0.64323, 3, 455, 246, 40.4602, 0.128366, 3.47121, 1, 0, 0, 2.76411e-06, 162239
-7471.37, 455156, -381.634, 0.241887, -1038.29, 0.422836, 0.644581, 1.03299, 0.34851, 0.655882, 0.0001, 45.5, 246, 44.0551, 0.212641, 4.2941, 1, 0, 0, 1.00629e-05, 162240
-7471.37, 455156, -381.634, 0.241887, -1038.29, 0.422836, 0.644581, 1.03299, 0.34851, 0.655882, 3, 45.5, 246, 44.0551, 0.212641, 4.29381, 1, 0, 0, 3.32174e-05, 162240
-9927.69, 516661, -207.209, 0.303934, -552.787, 0.607799, 0.411963, 1.03299, 0.34851, 0.655882, 0.0001, 45.5, 246, 22.6002, 0.0935216, 0, 0, 1, 0, -0.000393519, 162244
-9927.69, 516661, -207.209, 0.303934, -552.787, 0.607799, 0.411963, 1.03299, 0.34851, 0.655882, 3, 45.5, 246, 22.6002, 0.0935216, 0, 0, 1, 0, -1.72314e-05, 162244
-9073.57, 541153, -215.948, 0.325122, -613.385, 0.672857, 0.38153, 0.993198, 0.349787, 0.651995, 0.0001, 91, 246, 22.6002, 0.0935216, 0, 0, 1, 0, -3.42449e-05, 162244
-8046.45, 570193, -224.809, 0.348343, -688.458, 0.753467, 0.355345, 0.958125, 0.351078, 0.648177, 0.0001, 182, 246, 22.6002, 0.0935216, 0, 0, 1, 0, -6.0543e-05, 162244
2101.95, 321079, -400.764, 5.20572, -774.274, 0.369945, 0.368884, 0.9175, 0.352806, 0.64323, 0.0001, 455, 246, 31.7427, 0.130381, 1.34999, 1, 0, 0, -6.23068e-05, 162251
2101.95, 321079, -400.764, 5.20572, -774.274, 0.369945, 0.368884, 0.9175, 0.352806, 0.64323, 3, 455, 246, 31.7427, 0.130381, 0, 0, 0, 0, 3.04695e-05, 162251
-10585.4, 233434, -104.489, 1.03746, -706.843, 0.423893, 0.364964, 1.03299, 0.34851, 0.655882, 0.0001, 45.5, 246, 23.6828, 0.102072, 0, 0, 1, 0, 4.09227e-05, 162255
-9615.97, 248502, -116.463, 1.11167, -761.132, 0.459756, 0.335682, 0.993198, 0.349787, 0.651995, 0.0001, 91, 246, 23.6828, 0.102072, 0, 0, 1, 0, 7.91924e-05, 162255
-6005.45, -37543.7, -15.9908, 3.50816, -803.897, 0.413413, 0.195689, 1.03299, 0.34851, 0.655882, 0.0001, 45.5, 246, 21.4036, 0.0247445, 0, 0, 1, 0, 1.311e-05, 162258
-10219, 400444, -296.632, 0.950907, -1103.86, 0.416987, 0.531444, 1.03299, 0.34851, 0.655882, 0.0001, 45.5, 246, 41.4573, 0.179572, 0, 0, 0, 0, 6.19107e-05, 162262
-10219, 400444, -296.632, 0.950907, -1103.86, 0.416987, 0.531444, 1.03299, 0.34851, 0.655882, 3, 45.5, 246, 41.4573, 0.179572, 0, 0, 0, 0, -0.000117671, 162262
-68.7023, 539870, -390.851, 1.21317, -1456.53, 0.555601, 0.49758, 0.9175, 0.352806, 0.64323, 3, 455, 246, 41.4573, 0.179572, 0, 0, 0, 0, 6.56385e-05, 162262
-10095.6, 322174, -208.557, 0.931568, -986.43, 0.534764, 0.448885, 1.03299, 0.34851, 0.655882, 0.0001, 45.5, 246, 35.0758, 0.151817, 0, 0, 0, 0, 4.14513e-05, 162263
-10095.6, 322174, -208.557, 0.931568, -986.43, 0.534764, 0.448885, 1.03299, 0.34851, 0.655882, 3, 45.5, 246, 35.0758, 0.151817, 0, 0, 0, 0, 0.765168, 162263
-6472.63, 599996, -468.01, 0.00242007, -997.18, 0.139343, 0.693881, 1.03299, 0.34851, 0.655882, 0.0001, 45.5, 246, 44.0639, 0.204351, 0, 0, 0, 0, 4.6265e-05, 162267
-6472.63, 599996, -468.01, 0.00242007, -997.18, 0.139343, 0.693881, 1.03299, 0.34851, 0.655882, 3, 45.5, 246, 44.0639, 0.204351, 0, 0, 0, 0, 3.66832e-05, 162267
-5094.95, 714572, -322.465, 0.102146, -1016.51, 0.000909533, 0.449551, 0.993198, 0.349787, 0.651995, 0.0001, 91, 246, 35.0508, 0.115671, 0, 0, 1, 0, -0.000264564, 162272
-7415.95, 840148, -331.002, 0.205052, -1007.68, 0.00749581, 0.465787, 1.03299, 0.34851, 0.655882, 0.0001, 45.5, 246, 34.6461, 0.101524, 0, 0, 0, 0, -9.00097e-06, 162289
-7415.95, 840148, -331.002, 0.205052, -1007.68, 0.00749581, 0.465787, 1.03299, 0.34851, 0.655882, 3, 45.5, 246, 34.6461, 0.101524, 0, 0, 0, 0, -7.16221e-05, 162289
-7768.96, -34190.5, -2.05038, 3.16733, -912.985, 0.00641798, 0.252779, 0.993198, 0.349787, 0.651995, 3, 91, 246, 5.24743, 0.0704856, 0, 0, 1, 1, -9.23249e-07, 162297
-2491.77, 117037, -233.795, 3.39199, -1295.53, 1.62427, 0.319401, 0.9175, 0.352806, 0.64323, 0.0001, 455, 246, 45.3619, 0.167962, 1.64268, 1, 1, 0, -3.67561e-05, 162304
-2491.77, 117037, -233.795, 3.39199, -1295.53, 1.62427, 0.319401, 0.9175, 0.352806, 0.64323, 3, 455, 246, 45.3619, 0.167962, 1.63298, 1, 1, 0, 5.32902e-05, 162304
-6400.07, -40174.5, 3.7965, 3.35556, -736.125, -0.0540133, 0.210711, 1.03299, 0.34851, 0.655882, 0.0001, 45.5, 246, 11.8737, 0.0246155, 0, 0, 1, 1, 1.1786e-05, 162306
-6400.07, -40174.5, 3.7965, 3.35556, -736.125, -0.0540133, 0.210711, 1.03299, 0.34851, 0.655882, 3, 45.5, 246, 11.8737, 0.0246155, 0, 0, 1, 1, -4.30176e-06, 162306
-5832.52, 84629.6, -168.027, 3.03032, -943.54, 0.694531, 0.277547, 1.03299, 0.34851, 0.655882, 0.0001, 45.5, 246, 46.8133, 0.178672, 1.13097, 1, 1, 0, 9.31203e-06, 162307
-4299.57, 106674, -212.016, 3.42224, -1080.86, 0.831425, 0.283868, 0.993198, 0.349787, 0.651995, 0.0001, 91, 246, 46.8133, 0.178672, 1.15789, 1, 1, 0, 5.01071e-06, 162307
-1914.47, 137572, -270.903, 3.92295, -1275.37, 1.02527, 0.311265, 0.958125, 0.351078, 0.648177, 0.0001, 182, 246, 46.8133, 0.178672, 1.60853, 1, 1, 0, -1.42937e-05, 162307
-1914.47, 137572, -270.903, 3.92295, -1275.37, 1.02527, 0.311265, 0.958125, 0.351078, 0.648177, 3, 182, 246, 46.8133, 0.178672, 1.44989, 1, 1, 0, -1.39608e-05, 162307
-8668.32, 62527.8, -53.2014, 1.05692, -1133.98, 0.092179, 0.331053, 0.993198, 0.349787, 0.651995, 0.0001, 91, 246, 26.9274, 0.206605, 0, 0, 1, 1, 1.83579e-06, 162308
-2956.07, 116680, -233.856, 4.33086, -1218.53, 0.0850187, 0.268291, 0.958125, 0.351078, 0.648177, 0.0001, 182, 246, 40.8788, 0.139688, 1.16002, 1, 1, 0, -6.56433e-06, 162315
-12038.9, 357038, -74.9682, 0.818445, -625.569, 0.77046, 0.343197, 1.03299, 0.34851, 0.655882, 0.0001, 45.5, 246, 17.4691, 0.0482739, 0, 0, 1, 0, 2.91186e-05, 162318
-12038.9, 357038, -74.9682, 0.818445, -625.569, 0.77046, 0.343197, 1.03299, 0.34851, 0.655882, 3, 45.5, 246, 17.4691, 0.0482739, 0, 0, 1, 0, -6.71522e-05, 162318
-11800.4, 380907, -82.2883, 0.801619, -744.903, 0.184239, 0.34823, 1.03299, 0.34851, 0.655882, 0.0001, 45.5, 246, 20.044, 0.0551993, 0, 0, 1, 0, 3.58436e-05, 162321
-11800.4, 380907, -82.2883, 0.801619, -744.903, 0.184239, 0.34823, 1.03299, 0.34851, 0.655882, 3, 45.5, 246, 20.044, 0.0551993, 0, 0, 1, 0, -3.89788e-05, 162321
-11377.9, 464856, -410.619, 0.446418, -654.96, 0.0537329, 0.694924, 1.03299, 0.34851, 0.655882, 3, 45.5, 246, 40.696, 0.232826, 0, 0, 0, 0, 3.38686e-05, 162327
-7314.86, 90063.3, -134.691, 2.80615, -1105.24, 0.00986064, 0.307972, 1.03299, 0.34851, 0.655882, 3, 45.5, 246, 42.3883, 0.180536, 0, 0, 1, 0, 1.92944e-05, 162332
-5982.57, 112036, -175.11, 3.03551, -1122.08, 0.0474072, 0.308002, 0.993198, 0.349787, 0.651995, 0.0001, 91, 246, 42.3883, 0.180536, 0, 0, 1, 0, 4.16421e-06, 162332
-214.145, 170622, -299.487, 3.72244, -1214.33, 0.166938, 0.362531, 0.9175, 0.352806, 0.64323, 0.0001, 455, 246, 42.3883, 0.180536, 2.32345, 1, 0, 0, 8.97517e-06, 162332
-214.145, 170622, -299.487, 3.72244, -1214.33, 0.166938, 0.362531, 0.9175, 0.352806, 0.64323, 3, 455, 246, 42.3883, 0.180536, 2.35262, 1, 0, 0, 1.20156e-05, 162332
-6117.51, 108626, -113.713, 3.36466, -685.174, 0.0991642, 0.267252, 0.9175, 0.352806, 0.64323, 3, 455, 246, 18.0881, 0.0632384, 0, 0, 1, 0, -1.46371e-05, 162340
-6009.55, 379643, -286.874, 0.806229, -1308.53, 1.13098, 0.483531, 0.958125, 0.351078, 0.648177, 0.0001, 182, 246, 38.9264, 0.194632, 0, 0, 0, 0, 2.61292e-05, 162341
-9993.05, 341752, -276.06, 2.12915, -1065.2, 0.376408, 0.423273, 0.993198, 0.349787, 0.651995, 0.0001, 91, 246, 39.0497, 0.167888, 0, 0, 1, 0, 3.87622e-05, 162342
-9993.05, 341752, -276.06, 2.12915, -1065.2, 0.376408, 0.423273, 0.993198, 0.349787, 0.651995, 3, 91, 246, 39.0497, 0.167888, 0, 0, 1, 0, -3.26605e-05, 162342
-10463.8, 402641, -123.706, 0.518768, -679.232, 0.745865, 0.36937, 1.03299, 0.34851, 0.655882, 0.0001, 45.5, 246, 21.3617, 0.0700824, 0, 0, 1, 0, -1.82762e-05, 162346
-10463.8, 402641, -123.706, 0.518768, -679.232, 0.745865, 0.36937, 1.03299, 0.34851, 0.655882, 3, 45.5, 246, 21.3617, 0.0700824, 0, 0, 1, 0, 2.12459e-05, 162346
-9608.2, 429437, -131.797, 0.561051, -771.999, 0.84697, 0.336497, 0.993198, 0.349787, 0.651995, 0.0001, 91, 246, 21.3617, 0.0700824, 0, 0, 1, 0, 1.67789e-05, 162346
-8522.98, 463164, -140.778, 0.60935, -893.656, 0.979579, 0.308173, 0.958125, 0.351078, 0.648177, 0.0001, 182, 246, 21.3617, 0.0700824, 0, 0, 1, 0, -3.83735e-05, 162346
-6447.92, 112340, -205.18, 2.58724, -728.164, -0.0206602, 0.378314, 1.03299, 0.34851, 0.655882, 0.0001, 45.5, 246, 50.6938, 0.23996, 1.11425, 1, 1, 0, -5.47269e-06, 162356
-6447.92, 112340, -205.18, 2.58724, -728.164, -0.0206602, 0.378314, 1.03299, 0.34851, 0.655882, 3, 45.5, 246, 50.6938, 0.23996, 0, 0, 1, 0, 2.84119e-06, 162356
-4788.8, 122396, -239.114, 2.78753, -743.265, 0.0110265, 0.377626, 0.993198, 0.349787, 0.651995, 0.0001, 91, 246, 50.6938, 0.23996, 1.09115, 1, 1, 0, 2.64195e-05, 162356
-2673.04, 133560, -278.157, 3.01483, -766.464, 0.048076, 0.388834, 0.958125, 0.351078, 0.648177, 0.0001, 182, 246, 50.6938, 0.23996, 1.39535, 1, 1, 0, 7.89339e-06, 162356
-2673.04, 133560, -278.157, 3.01483, -766.464, 0.048076, 0.388834, 0.958125, 0.351078, 0.648177, 3, 182, 246, 50.6938, 0.23996, 1.21079, 1, 1, 0, -8.11906e-06, 162356
1029.2, 150894, -340.22, 3.37223, -813.43, 0.108382, 0.423243, 0.9175, 0.352806, 0.64323, 0.0001, 455, 246, 50.6938, 0.23996, 3.43428, 1, 0, 0, -4.92705e-06, 162356
1029.2, 150894, -340.22, 3.37223, -813.43, 0.108382, 0.423243, 0.9175, 0.352806, 0.64323, 3, 455, 246, 50.6938, 0.23996, 3.43803, 1, 0, 0, 9.96045e-06, 162356
-9612.27, 156715, -177.315, 2.68479, -831.836, -0.0338229, 0.33613, 1.03299, 0.34851, 0.655882, 0.0001, 45.5, 246, 39.7801, 0.179314, 0, 0, 1, 0, 1.21484e-05, 162360
-9612.27, 156715, -177.315, 2.68479, -831.836, -0.0338229, 0.33613, 1.03299, 0.34851, 0.655882, 3, 45.5, 246, 39.7801, 0.179314, 0, 0, 1, 0, -1.15872e-05, 162360
-7515.47, 169121, -212.486, 2.89271, -843.863, 0.000340901, 0.334768, 0.993198, 0.349787, 0.651995, 0.0001, 91, 246, 39.7801, 0.179314, 0, 0, 1, 0, -2.99064e-06, 162360
-7515.47, 169121, -212.486, 2.89271, -843.863, 0.000340901, 0.334768, 0.993198, 0.349787, 0.651995, 3, 91, 246, 39.7801, 0.179314, 0, 0, 1, 0, 4.99251e-06, 162360
-309.796, 203586, -317.875, 3.50389, -911.011, 0.104937, 0.380994, 0.9175, 0.352806, 0.64323, 0.0001, 455, 246, 39.7801, 0.179314, 1.30765, 1, 0, 0, 1.63755e-05, 162360
-309.796, 203586, -317.875, 3.50389, -911.011, 0.104937, 0.380994, 0.9175, 0.352806, 0.64323, 3, 455, 246, 39.7801, 0.179314, 1.33274, 1, 0, 0, -1.11436e-05, 162360
-8412.6, 194345, -303.284, 3.39278, -1004.96, 0.216384, 0.387273, 1.03299, 0.34851, 0.655882, 0.0001, 45.5, 246, 54.0871, 0.23715, 1.19446, 1, 0, 0, 5.13744e-06, 162361
-8412.6, 194345, -303.284, 3.39278, -1004.96, 0.216384, 0.387273, 1.03299, 0.34851, 0.655882, 3, 45.5, 246, 54.0871, 0.23715, 1.0902, 1, 0, 0, -2.18904e-05, 162361
-4389.1, 217559, -366.286, 3.76478, -1077.18, 0.282239, 0.412617, 0.993198, 0.349787, 0.651995, 0.0001, 91, 246, 54.0871, 0.23715, 1.57608, 1, 1, 0, 1.13954e-05, 162361
-4389.1, 217559, -366.286, 3.76478, -1077.18, 0.282239, 0.412617, 0.993198, 0.349787, 0.651995, 3, 91, 246, 54.0871, 0.23715, 1.46534, 1, 1, 0, 6.80142e-06, 162361
-4139.29, 269867, -204.207, 2.85626, -812.686, 0.261568, 0.293433, 0.9175, 0.352806, 0.64323, 0.0001, 455, 246, 25.2611, 0.101242, 0, 0, 0, 0, 9.67541e-06, 162364
-4139.29, 269867, -204.207, 2.85626, -812.686, 0.261568, 0.293433, 0.9175, 0.352806, 0.64323, 3, 455, 246, 25.2611, 0.101242, 0, 0, 0, 0, -9.53789e-06, 162364
-10024.8, 407207, -186.043, 0.523981, -712.669, 0.0221292, 0.420005, 1.03299, 0.34851, 0.655882, 0.0001, 45.5, 246, 27.1239, 0.117954, 0, 0, 1, 0, -4.30332e-06, 162366
-10024.8, 407207, -186.043, 0.523981, -712.669, 0.0221292, 0.420005, 1.03299, 0.34851, 0.655882, 3, 45.5, 246, 27.1239, 0.117954, 0, 0, 1, 0, 2.09767e-05, 162366
-9007.45, 417238, -196.631, 0.544829, -717.938, 0.0234652, 0.391074, 0.993198, 0.349787, 0.651995, 0.0001, 91, 246, 27.1239, 0.117954, 0, 0, 1, 0, -3.31275e-05, 162366
-7995.8, 134560, -192.788, 3.46057, -997.792, -0.0573999, 0.265139, 1.03299, 0.34851, 0.655882, 3, 45.5, 246, 45.0687, 0.179371, 0, 0, 0, 0, 5.0106e-06, 162371
-5471.78, 152465, -243.904, 3.77446, -1013.88, 0.00011935, 0.282825, 0.993198, 0.349787, 0.651995, 3, 91, 246, 45.0687, 0.179371, 0, 0, 1, 0, -7.71829e-06, 162371
-2084.24, 172410, -305.203, 4.15072, -1047.91, 0.0691211, 0.320314, 0.958125, 0.351078, 0.648177, 0.0001, 182, 246, 45.0687, 0.179371, 1.58226, 1, 0, 0, 9.30728e-06, 162371
-2084.24, 172410, -305.203, 4.15072, -1047.91, 0.0691211, 0.320314, 0.958125, 0.351078, 0.648177, 3, 182, 246, 45.0687, 0.179371, 1.4095, 1, 0, 0, -9.33864e-06, 162371
-10405.4, 83421.8, -0.386289, 2.86887, -1070.77, -0.0348381, 0.225714, 1.03299, 0.34851, 0.655882, 0.0001, 45.5, 246, 16.724, 0.0467917, 0, 0, 1, 0, -4.15536e-07, 162372
-10405.4, 83421.8, -0.386289, 2.86887, -1070.77, -0.0348381, 0.225714, 1.03299, 0.34851, 0.655882, 3, 45.5, 246, 16.724, 0.0467917, 0, 0, 1, 0, -3.57966e-06, 162372
-9418.67, 102907, -29.4537, 3.09258, -1069.26, 0.00417675, 0.22196, 0.993198, 0.349787, 0.651995, 0.0001, 91, 246, 16.724, 0.0467917, 0, 0, 1, 0, 1.42486e-05, 162372
-9418.67, 102907, -29.4537, 3.09258, -1069.26, 0.00417675, 0.22196, 0.993198, 0.349787, 0.651995, 3, 91, 246, 16.724, 0.0467917, 0, 0, 1, 0, 9.24605e-06, 162372
-8473.79, 236936, -201.059, 1.13892, -867.675, 0.0162646, 0.439544, 0.993198, 0.349787, 0.651995, 0.0001, 91, 246, 36.9144, 0.199929, 0, 0, 1, 0, -1.28518e-05, 162378
-7164.05, -13046.4, 16.4594, 3.56549, -1160.99, -0.0499445, 0.179177, 1.03299, 0.34851, 0.655882, 0.0001, 45.5, 246, 14.2121, 0.0585858, 0, 0, 1, 0, -1.53487e-06, 162379
-7164.05, -13046.4, 16.4594, 3.56549, -1160.99, -0.0499445, 0.179177, 1.03299, 0.34851, 0.655882, 3, 45.5, 246, 14.2121, 0.0585858, 0, 0, 1, 0, 1.6753e-05, 162379
-7321.53, 22973.8, -61.4789, 1.79944, -598.726, 0.143062, 0.316551, 1.03299, 0.34851, 0.655882, 3, 45.5, 246, 36.5482, 0.111462, 0, 0, 1, 1, -1.48143e-05, 162385
-10189.7, 154600, -166.236, 3.32783, -904.99, -0.0496102, 0.250266, 1.03299, 0.34851, 0.655882, 0.0001, 45.5, 246, 38.2552, 0.150918, 0, 0, 0, 0, -1.72808e-06, 162389
-10189.7, 154600, -166.236, 3.32783, -904.99, -0.0496102, 0.250266, 1.03299, 0.34851, 0.655882, 3, 45.5, 246, 38.2552, 0.150918, 0, 0, 0, 0, -2.63523e-07, 162389
-7634.65, 169041, -210.012, 3.61997, -918.739, 0.00340178, 0.26239, 0.993198, 0.349787, 0.651995, 0.0001, 91, 246, 38.2552, 0.150918, 0, 0, 1, 0, 4.4464e-06, 162389
-7634.65, 169041, -210.012, 3.61997, -918.739, 0.00340178, 0.26239, 0.993198, 0.349787, 0.651995, 3, 91, 246, 38.2552, 0.150918, 0, 0, 1, 0, 1.26725e-05, 162389
1558.16, 211042, -349.433, 4.5475, -1016.47, 0.174387, 0.365798, 0.9175, 0.352806, 0.64323, 0.0001, 455, 246, 38.2552, 0.150918, 0, 0, 0, 0, 7.03984e-06, 162389
1558.16, 211042, -349.433, 4.5475, -1016.47, 0.174387, 0.365798, 0.9175, 0.352806, 0.64323, 3, 455, 246, 38.2552, 0.150918, 0, 0, 0, 0, 6.32799e-06, 162389
-11004.2, 198610, -168.503, 2.60658, -1130.38, -0.0322477, 0.341974, 1.03299, 0.34851, 0.655882, 0.0001, 45.5, 246, 38.9845, 0.162568, 0, 0, 0, 0, -2.13466e-05, 162390
-11004.2, 198610, -168.503, 2.60658, -1130.38, -0.0322477, 0.341974, 1.03299, 0.34851, 0.655882, 3, 45.5, 246, 38.9845, 0.162568, 0, 0, 0, 0, -5.2285e-06, 162390
-8461.12, 221204, -209.428, 2.80483, -1140.85, -8.74991e-05, 0.338974, 0.993198, 0.349787, 0.651995, 0.0001, 91, 246, 38.9845, 0.162568, 0, 0, 1, 0, -1.03573e-06, 162390
-8461.12, 221204, -209.428, 2.80483, -1140.85, -8.74991e-05, 0.338974, 0.993198, 0.349787, 0.651995, 3, 91, 246, 38.9845, 0.162568, 0, 0, 1, 0, 1.28429e-05, 162390
-10712.2, 657839, -56.6262, 0.376135, -664.353, 1.83518e-05, 0.307181, 0.993198, 0.349787, 0.651995, 3, 91, 246, 16.5905, 0.0217652, 0, 0, 1, 0, -6.49888e-06, 162395
-9814.89, 665598, -60.629, 0.387704, -664.978, 0.000658821, 0.276029, 0.958125, 0.351078, 0.648177, 0.0001, 182, 246, 16.5905, 0.0217652, 0, 0, 1, 0, -3.44156e-05, 162395
-10554.1, 257741, -276.598, 1.24624, -737.533, 0.820911, 0.545382, 1.03299, 0.34851, 0.655882, 0.0001, 45.5, 246, 41.502, 0.228659, 0, 0, 0, 0, -8.91222e-05, 162396
-10554.1, 257741, -276.598, 1.24624, -737.533, 0.820911, 0.545382, 1.03299, 0.34851, 0.655882, 3, 45.5, 246, 41.502, 0.228659, 0, 0, 0, 0, -1.06779e-05, 162396
-10935.7, 264256, -120.657, 1.17761, -879.977, 0.00842668, 0.372594, 1.03299, 0.34851, 0.655882, 0.0001, 45.5, 246, 27.3917, 0.111334, 0, 0, 1, 0, -3.16625e-07, 162397
-10935.7, 264256, -120.657, 1.17761, -879.977, 0.00842668, 0.372594, 1.03299, 0.34851, 0.655882, 3, 45.5, 246, 27.3917, 0.111334, 0, 0, 1, 0, 1.25622e-05, 162397
-9634.39, 278173, -136.221, 1.23676, -885.675, 0.0148453, 0.345269, 0.993198, 0.349787, 0.651995, 3, 91, 246, 27.3917, 0.111334, 0, 0, 1, 0, -3.18176e-06, 162397
-1850.01, 131609, -260.084, 3.17547, -987.309, 0.589063, 0.352785, 0.9175, 0.352806, 0.64323, 0.0001, 455, 246, 44.7842, 0.20266, 1.40585, 1, 0, 0, 1.98372e-05, 162399
-1850.01, 131609, -260.084, 3.17547, -987.309, 0.589063, 0.352785, 0.9175, 0.352806, 0.64323, 3, 455, 246, 44.7842, 0.20266, 1.41378, 1, 0, 0, -1.08079e-05, 162399
-8330.16, 288895, -237.375, 0.916817, -899.82, 0.124806, 0.478216, 0.993198, 0.349787, 0.651995, 0.0001, 91, 246, 38.063, 0.202851, 0, 0, 1, 0, 8.65771e-06, 162400
-6984.4, 52642.7, -101.808, 2.17841, -697.445, -0.0223292, 0.320043, 1.03299, 0.34851, 0.655882, 3, 45.5, 246, 40.4574, 0.169496, 0, 0, 1, 0, 7.37389e-06, 162405
-5781.78, 70051.7, -146.8, 2.48473, -712.752, 0.0253279, 0.299461, 0.958125, 0.351078, 0.648177, 3, 182, 246, 40.4574, 0.169496, 0, 0, 1, 0, 5.72457e-06, 162405
-7966.94, 129643, -177.963, 2.7233, -1040.69, 0.188378, 0.347338, 1.03299, 0.34851, 0.655882, 0.0001, 45.5, 246, 44.8842, 0.201674, 0, 0, 1, 0, 8.15858e-07, 162406
-7966.94, 129643, -177.963, 2.7233, -1040.69, 0.188378, 0.347338, 1.03299, 0.34851, 0.655882, 3, 45.5, 246, 44.8842, 0.201674, 0, 0, 1, 0, -1.64391e-05, 162406
-6354.85, 339988, -260.04, 0.0970878, -1208.21, 0.229578, 0.529506, 0.958125, 0.351078, 0.648177, 3, 182, 246, 42.3933, 0.236714, 0, 0, 0, 0, 1199.5, 162415
-6398.62, 158800, -302.547, 3.27971, -782.261, 0.314769, 0.378426, 1.03299, 0.34851, 0.655882, 0.0001, 45.5, 246, 55.4873, 0.244334, 1.45501, 1, 0, 0, 7.00475e-06, 162418
-6398.62, 158800, -302.547, 3.27971, -782.261, 0.314769, 0.378426, 1.03299, 0.34851, 0.655882, 3, 45.5, 246, 55.4873, 0.244334, 1.37913, 1, 0, 0, 3.04165e-06, 162418
-3049.85, 175239, -356.579, 3.65042, -857.444, 0.386672, 0.399416, 0.993198, 0.349787, 0.651995, 0.0001, 91, 246, 55.4873, 0.244334, 1.83448, 1, 1, 0, 6.5669e-06, 162418
-3049.85, 175239, -356.579, 3.65042, -857.444, 0.386672, 0.399416, 0.993198, 0.349787, 0.651995, 3, 91, 246, 55.4873, 0.244334, 1.73905, 1, 1, 0, 7.87301e-06, 162418
1409.58, 196485, -424.334, 4.10608, -959.115, 0.482091, 0.442241, 0.958125, 0.351078, 0.648177, 0.0001, 182, 246, 55.4873, 0.244334, 0, 0, 0, 0, -1.90657e-06, 162418
1409.58, 196485, -424.334, 4.10608, -959.115, 0.482091, 0.442241, 0.958125, 0.351078, 0.648177, 3, 182, 246, 55.4873, 0.244334, 0, 0, 0, 0, -6.40851e-06, 162418
-2199.56, 63585.8, -223.374, 4.12621, -903.853, 0.221191, 0.252656, 0.958125, 0.351078, 0.648177, 0.0001, 182, 246, 48.0866, 0.100973, 1.28154, 1, 1, 0, -2.10259e-05, 162420
-2199.56, 63585.8, -223.374, 4.12621, -903.853, 0.221191, 0.252656, 0.958125, 0.351078, 0.648177, 3, 182, 246, 48.0866, 0.100973, 1.11211, 1, 1, 0, 1.59694e-05, 162420
524.148, 87488.4, -307.148, 4.80155, -1000.99, 0.353137, 0.333136, 0.9175, 0.352806, 0.64323, 0.0001, 455, 246, 48.0866, 0.100973, 2.0303, 1, 1, 1, -5.45947e-06, 162420
524.148, 87488.4, -307.148, 4.80155, -1000.99, 0.353137, 0.333136, 0.9175, 0.352806, 0.64323, 3, 455, 246, 48.0866, 0.100973, 1.93231, 1, 1, 1, -5.51872e-06, 162420
-10729.1, 227805, -180.792, 1.53082, -792.601, 0.214746, 0.420207, 1.03299, 0.34851, 0.655882, 0.0001, 45.5, 246, 34.7493, 0.173458, 0, 0, 1, 0, 9.64611e-06, 162424
-10729.1, 227805, -180.792, 1.53082, -792.601, 0.214746, 0.420207, 1.03299, 0.34851, 0.655882, 3, 45.5, 246, 34.7493, 0.173458, 0, 0, 1, 0, -6.18095e-06, 162424
-7769.53, 463567, -172.907, 0.446313, -1129.61, 0.0368278, 0.366129, 0.993198, 0.349787, 0.651995, 0.0001, 91, 246, 31.1089, 0.0939324, 0, 0, 1, 0, 3.2635e-05, 162428
-9203.48, 423192, -101.671, 0.58633, -1103.07, 0.027303, 0.324596, 0.993198, 0.349787, 0.651995, 0.0001, 91, 246, 26.0445, 0.0596781, 0, 0, 1, 0, 3.62008e-05, 162436
-10894.6, 229707, -194.9, 1.62479, -746.162, 0.0652224, 0.431868, 1.03299, 0.34851, 0.655882, 3, 45.5, 246, 36.0361, 0.185542, 0, 0, 1, 0, -1.93689e-06, 162439
-8506.14, 251745, -223.113, 1.07418, -827.173, 0.103054, 0.46728, 0.993198, 0.349787, 0.651995, 0.0001, 91, 246, 37.9426, 0.211034, 0, 0, 1, 0, 4.20593e-05, 162445
-9674.04, 182034, -200.182, 2.03346, -850.181, 0.121552, 0.426004, 1.03299, 0.34851, 0.655882, 3, 45.5, 246, 41.8134, 0.212421, 0, 0, 1, 0, 5.57528e-06, 162449
-8304.12, 157666, -246.831, 3.04514, -820.545, 0.769338, 0.333317, 1.03299, 0.34851, 0.655882, 0.0001, 45.5, 246, 46.8833, 0.200417, 1.10786, 1, 0, 0, -2.99394e-05, 162452
-5450.8, 179904, -294.729, 3.4613, -962.354, 0.928641, 0.344328, 0.993198, 0.349787, 0.651995, 0.0001, 91, 246, 46.8833, 0.200417, 1.12128, 1, 1, 0, 6.24e-06, 162452
-1423.29, 211936, -358.879, 4.00236, -1168.24, 1.15992, 0.377798, 0.958125, 0.351078, 0.648177, 0.0001, 182, 246, 46.8833, 0.200417, 2.14173, 1, 0, 0, -7.60795e-05, 162452
-1423.29, 211936, -358.879, 4.00236, -1168.24, 1.15992, 0.377798, 0.958125, 0.351078, 0.648177, 3, 182, 246, 46.8833, 0.200417, 1.9782, 1, 0, 0, -1.16505e-05, 162452
-8255.66, 85631.5, -103.016, 2.15861, -843.86, 0.0534696, 0.329431, 1.03299, 0.34851, 0.655882, 0.0001, 45.5, 246, 35.0531, 0.162331, 0, 0, 1, 0, -9.14829e-06, 162454
-8255.66, 85631.5, -103.016, 2.15861, -843.86, 0.0534696, 0.329431, 1.03299, 0.34851, 0.655882, 3, 45.5, 246, 35.0531, 0.162331, 0, 0, 1, 0, -6.46058e-06, 162454
-10420.4, 197425, -216.874, 2.81926, -1005.83, 0.00425901, 0.36597, 1.03299, 0.34851, 0.655882, 0.0001, 45.5, 246, 43.8093, 0.194364, 0, 0, 0, 0, 4.436e-06, 162455
-10420.4, 197425, -216.874, 2.81926, -1005.83, 0.00425901, 0.36597, 1.03299, 0.34851, 0.655882, 3, 45.5, 246, 43.8093, 0.194364, 0, 0, 0, 0, 1.80344e-05, 162455
-10028.6, 71808.7, -4.4729, 3.1558, -790.864, -0.0443766, 0.196136, 1.03299, 0.34851, 0.655882, 0.0001, 45.5, 246, 13.9916, 0.0396193, 0, 0, 1, 0, -1.66452e-07, 162458
-10028.6, 71808.7, -4.4729, 3.1558, -790.864, -0.0443766, 0.196136, 1.03299, 0.34851, 0.655882, 3, 45.5, 246, 13.9916, 0.0396193, 0, 0, 1, 0, 3.74745e-06, 162458
-4448.17, 63702.7, -161.454, 3.10874, -1046.74, 0.0310106, 0.280574, 0.993198, 0.349787, 0.651995, 0.0001, 91, 246, 49.1437, 0.164001, 0, 0, 1, 1, 3.49253e-06, 162462
-4448.17, 63702.7, -161.454, 3.10874, -1046.74, 0.0310106, 0.280574, 0.993198, 0.349787, 0.651995, 3, 91, 246, 49.1437, 0.164001, 0, 0, 1, 1, -2.89078e-06, 162462
-3192.56, 83941.1, -206.285, 3.37829, -1071.38, 0.0775999, 0.294568, 0.958125, 0.351078, 0.648177, 0.0001, 182, 246, 49.1437, 0.164001, 1.17061, 1, 1, 0, 5.24889e-06, 162462
-3192.56, 83941.1, -206.285, 3.37829, -1071.38, 0.0775999, 0.294568, 0.958125, 0.351078, 0.648177, 3, 182, 246, 49.1437, 0.164001, 1.00031, 1, 1, 0, -1.15998e-05, 162462
-513.927, 113877, -279.225, 3.81187, -1127.93, 0.15517, 0.336775, 0.9175, 0.352806, 0.64323, 0.0001, 455, 246, 49.1437, 0.164001, 2.29605, 1, 0, 0, -2.53119e-06, 162462
-513.927, 113877, -279.225, 3.81187, -1127.93, 0.15517, 0.336775, 0.9175, 0.352806, 0.64323, 3, 455, 246, 49.1437, 0.164001, 2.25553, 1, 0, 0, 1.3885e-05, 162462
-11017.6, 352025, -442.667, 3.60615, -936.908, 0.631949, 0.470326, 0.993198, 0.349787, 0.651995, 0.0001, 91, 246, 47.1433, 0.210586, 1.02892, 1, 1, 0, 3.57969e-06, 162463
-8749.18, 326508, -447.798, 3.94539, -1030.88, 0.224059, 0.462681, 0.993198, 0.349787, 0.651995, 0.0001, 91, 246, 51.7818, 0.225332, 1.3722, 1, 1, 0, 1.31389e-05, 162468
-8749.18, 326508, -447.798, 3.94539, -1030.88, 0.224059, 0.462681, 0.993198, 0.349787, 0.651995, 3, 91, 246, 51.7818, 0.225332, 1.29302, 1, 1, 0, -1.01482e-05, 162468
-10513, 238695, -172.157, 1.49188, -1001.38, 0.169928, 0.415407, 1.03299, 0.34851, 0.655882, 0.0001, 45.5, 246, 35.7362, 0.163919, 0, 0, 0, 0, 3.81737e-06, 162479
-10513, 238695, -172.157, 1.49188, -1001.38, 0.169928, 0.415407, 1.03299, 0.34851, 0.655882, 3, 45.5, 246, 35.7362, 0.163919, 0, 0, 0, 0, 1.63447e-05, 162479
-8806.15, 259589, -196.152, 1.59181, -1037.43, 0.185338, 0.395634, 0.993198, 0.349787, 0.651995, 3, 91, 246, 35.7362, 0.163919, 0, 0, 1, 0, -1.01132e-05, 162479
-14233.9, 261125, -354.915, 3.12735, -594.309, 0.546299, 0.420196, 1.03299, 0.34851, 0.655882, 0.0001, 45.5, 246, 45.4263, 0.214759, 1.01243, 1, 0, 0, 3.7676e-05, 162481
-9385.58, 278615, -406.728, 3.52146, -687.83, 0.650943, 0.440217, 0.993198, 0.349787, 0.651995, 0.0001, 91, 246, 45.4263, 0.214759, 1.22722, 1, 1, 0, 8.92656e-05, 162481
-9385.58, 278615, -406.728, 3.52146, -687.83, 0.650943, 0.440217, 0.993198, 0.349787, 0.651995, 3, 91, 246, 45.4263, 0.214759, 1.10872, 1, 1, 0, 1.45773e-05, 162481
-3087.5, 302431, -472.721, 4.01782, -816.57, 0.794999, 0.482513, 0.958125, 0.351078, 0.648177, 0.0001, 182, 246, 45.4263, 0.214759, 3.82594, 1, 0, 0, 164.364, 162481
-3087.5, 302431, -472.721, 4.01782, -816.57, 0.794999, 0.482513, 0.958125, 0.351078, 0.648177, 3, 182, 246, 45.4263, 0.214759, 3.4025, 1, 0, 0, 170.041, 162481
-7003.47, 167063, -302.962, 3.46317, -774.773, -0.0120702, 0.361688, 1.03299, 0.34851, 0.655882, 0.0001, 45.5, 246, 54.7869, 0.239628, 1.42556, 1, 0, 0, 5.15007e-06, 162482
-7003.47, 167063, -302.962, 3.46317, -774.773, -0.0120702, 0.361688, 1.03299, 0.34851, 0.655882, 3, 45.5, 246, 54.7869, 0.239628, 1.35215, 1, 0, 0, 8.49499e-06, 162482
-3434.95, 179757, -358.224, 3.79714, -808.313, 0.0457443, 0.386724, 0.993198, 0.349787, 0.651995, 0.0001, 91, 246, 54.7869, 0.239628, 1.82451, 1, 1, 0, 1.09453e-05, 162482
-3434.95, 179757, -358.224, 3.79714, -808.313, 0.0457443, 0.386724, 0.993198, 0.349787, 0.651995, 3, 91, 246, 54.7869, 0.239628, 1.73163, 1, 1, 0, -5.67769e-06, 162482
-7073.76, 227385, -332.169, 3.42069, -829.725, 0.00484378, 0.401719, 0.993198, 0.349787, 0.651995, 0.0001, 91, 246, 47.6442, 0.217997, 1.04067, 1, 1, 0, 8.38269e-07, 162483
-2369.43, 242392, -391.208, 3.74815, -868.119, 0.0613315, 0.434863, 0.958125, 0.351078, 0.648177, 0.0001, 182, 246, 47.6442, 0.217997, 2.0811, 1, 0, 0, -1.73612e-05, 162483
-2369.43, 242392, -391.208, 3.74815, -868.119, 0.0613315, 0.434863, 0.958125, 0.351078, 0.648177, 3, 182, 246, 47.6442, 0.217997, 1.91359, 1, 0, 0, 3.79561e-07, 162483
-7416.15, 396727, -215.322, 0.528415, -1142.11, 0.230976, 0.416731, 0.993198, 0.349787, 0.651995, 0.0001, 91, 246, 34.7422, 0.13687, 0, 0, 1, 0, -3.75493e-05, 162491
-16377.9, 383421, -70.6195, 1.66731, -779.362, 0.136803, 0.307984, 1.03299, 0.34851, 0.655882, 0.0001, 45.5, 246, 20.3086, 0.049278, 0, 0, 1, 0, 7.19276e-05, 162495
-16377.9, 383421, -70.6195, 1.66731, -779.362, 0.136803, 0.307984, 1.03299, 0.34851, 0.655882, 3, 45.5, 246, 20.3086, 0.049278, 0, 0, 1, 0, -1.71437e-05, 162495
