-8073.1, 791070, -167.047, 0.196543, -1062.13, 0.460568, 0.371357, 1.03299, 0.34851, 0.655882, 0.0001, 45.5, 246, 29.4638, 0.0494707, 0, 0, 1, 0, -8.46325e-05, 41004
-7305.8, 833390, -174.231, 0.207828, -1146.45, 0.496912, 0.337495, 0.993198, 0.349787, 0.651995, 0.0001, 91, 246, 29.4638, 0.0494707, 0, 0, 1, 0, 5.80383e-05, 41004
-8763.41, 786991, -154.325, 0.262688, -1124.99, 0.000461163, 0.369106, 1.03299, 0.34851, 0.655882, 0.0001, 45.5, 246, 30.3166, 0.0501528, 0, 0, 0, 0, 9.8361e-06, 41006
-8763.41, 786991, -154.325, 0.262688, -1124.99, 0.000461163, 0.369106, 1.03299, 0.34851, 0.655882, 3, 45.5, 246, 30.3166, 0.0501528, 0, 0, 0, 0, 0.000224484, 41006
-6191.57, 93982.3, -150.899, 3.4449, -686.388, 0.254374, 0.257396, 0.958125, 0.351078, 0.648177, 3, 182, 246, 29.5274, 0.106561, 0, 0, 1, 0, -9.63938e-07, 41012
-7148.27, -13691.6, -7.5476, 3.11966, -960.616, -0.0465007, 0.227585, 1.03299, 0.34851, 0.655882, 0.0001, 45.5, 246, 17.836, 0.0496092, 0, 0, 1, 1, -3.94291e-06, 41015
-7148.27, -13691.6, -7.5476, 3.11966, -960.616, -0.0465007, 0.227585, 1.03299, 0.34851, 0.655882, 3, 45.5, 246, 17.836, 0.0496092, 0, 0, 1, 1, -1.1738e-05, 41015
-7398.09, 2057.93, -36.63, 3.3778, -958.866, -0.00011849, 0.231465, 0.993198, 0.349787, 0.651995, 3, 91, 246, 17.836, 0.0496092, 0, 0, 1, 1, -2.06033e-05, 41015
-8021.78, 160693, -116.277, 3.7146, -725.467, 0.281597, 0.222634, 0.958125, 0.351078, 0.648177, 0.0001, 182, 246, 20.2953, 0.0669873, 0, 0, 1, 0, 2.37492e-06, 41024
-8021.78, 160693, -116.277, 3.7146, -725.467, 0.281597, 0.222634, 0.958125, 0.351078, 0.648177, 3, 182, 246, 20.2953, 0.0669873, 0, 0, 1, 0, 7.95844e-06, 41024
-4043.7, 177950, -168.379, 4.28633, -798.576, 0.397817, 0.277438, 0.9175, 0.352806, 0.64323, 0.0001, 455, 246, 20.2953, 0.0669873, 0, 0, 1, 0, 1.46247e-05, 41024
-4043.7, 177950, -168.379, 4.28633, -798.576, 0.397817, 0.277438, 0.9175, 0.352806, 0.64323, 3, 455, 246, 20.2953, 0.0669873, 0, 0, 1, 0, -2.96038e-05, 41024
-11933, 292708, -144.87, 1.26883, -722.29, 0.278333, 0.37842, 1.03299, 0.34851, 0.655882, 0.0001, 45.5, 246, 26.656, 0.114691, 0, 0, 1, 0, 6.42227e-05, 41026
-11933, 292708, -144.87, 1.26883, -722.29, 0.278333, 0.37842, 1.03299, 0.34851, 0.655882, 3, 45.5, 246, 26.656, 0.114691, 0, 0, 1, 0, -2.64577e-05, 41026
-9275.28, 133433, -165.565, 3.12316, -716.19, -0.0285558, 0.266572, 1.03299, 0.34851, 0.655882, 0.0001, 45.5, 246, 37.6806, 0.154511, 0, 0, 1, 0, 5.1886e-06, 41037
-9275.28, 133433, -165.565, 3.12316, -716.19, -0.0285558, 0.266572, 1.03299, 0.34851, 0.655882, 3, 45.5, 246, 37.6806, 0.154511, 0, 0, 1, 0, -8.57598e-06, 41037
-108.765, 170368, -312.79, 4.21201, -814.608, 0.166804, 0.354493, 0.9175, 0.352806, 0.64323, 0.0001, 455, 246, 37.6806, 0.154511, 1.50039, 1, 0, 0, -1.66474e-05, 41037
-108.765, 170368, -312.79, 4.21201, -814.608, 0.166804, 0.354493, 0.9175, 0.352806, 0.64323, 3, 455, 246, 37.6806, 0.154511, 1.50172, 1, 0, 0, 7.13635e-06, 41037
-10328.8, 161506, -163.639, 3.15643, -1055.04, 0.370243, 0.267918, 1.03299, 0.34851, 0.655882, 0.0001, 45.5, 246, 38.8774, 0.150826, 0, 0, 0, 0, 1.15528e-05, 41038
-10328.8, 161506, -163.639, 3.15643, -1055.04, 0.370243, 0.267918, 1.03299, 0.34851, 0.655882, 3, 45.5, 246, 38.8774, 0.150826, 0, 0, 0, 0, -1.15442e-05, 41038
-7145.41, 119507, -196.229, 3.04194, -871.78, 0.431483, 0.303242, 1.03299, 0.34851, 0.655882, 0.0001, 45.5, 246, 46.0118, 0.190736, 1.00827, 1, 1, 0, 3.76167e-05, 41039
-5080.12, 137817, -239.82, 3.38509, -958.027, 0.511662, 0.311005, 0.993198, 0.349787, 0.651995, 0.0001, 91, 246, 46.0118, 0.190736, 1.05531, 1, 1, 0, 7.19537e-06, 41039
-2196.1, 161287, -295.049, 3.80525, -1073.39, 0.618333, 0.337764, 0.958125, 0.351078, 0.648177, 0.0001, 182, 246, 46.0118, 0.190736, 1.52727, 1, 0, 0, -1.15042e-05, 41039
-2196.1, 161287, -295.049, 3.80525, -1073.39, 0.618333, 0.337764, 0.958125, 0.351078, 0.648177, 3, 182, 246, 46.0118, 0.190736, 1.3475, 1, 0, 0, -1.15535e-05, 41039
-5762.47, -70483.5, 18.9013, 3.5174, -687.987, 0.0256318, 0.210639, 1.03299, 0.34851, 0.655882, 0.0001, 45.5, 246, 4.30765, 0.0659426, 0, 0, 1, 0, 4.40671e-06, 41054
-5762.47, -70483.5, 18.9013, 3.5174, -687.987, 0.0256318, 0.210639, 1.03299, 0.34851, 0.655882, 3, 45.5, 246, 4.30765, 0.0659426, 0, 0, 1, 0, 1.33797e-05, 41054
-6985.74, -62728.1, -2.64873, 3.85241, -693.143, 0.0856378, 0.227089, 0.993198, 0.349787, 0.651995, 0.0001, 91, 246, 4.30765, 0.0659426, 3.17206, 1, 1, 1, 2.04888e-06, 41054
-6985.74, -62728.1, -2.64873, 3.85241, -693.143, 0.0856378, 0.227089, 0.993198, 0.349787, 0.651995, 3, 91, 246, 4.30765, 0.0659426, 3.05588, 1, 1, 1, -1.31493e-05, 41054
-9828.83, 59203, 21.2132, 2.96302, -854.637, -0.0414594, 0.213918, 1.03299, 0.34851, 0.655882, 0.0001, 45.5, 246, 9.55922, 0.0245787, 0, 0, 1, 0, -5.87048e-06, 41057
-9828.83, 59203, 21.2132, 2.96302, -854.637, -0.0414594, 0.213918, 1.03299, 0.34851, 0.655882, 3, 45.5, 246, 9.55922, 0.0245787, 0, 0, 1, 0, 7.15534e-06, 41057
-11988.5, 568756, -63.5693, 0.513593, -774.829, 0.0357655, 0.34362, 1.03299, 0.34851, 0.655882, 3, 45.5, 246, 19.19, 0.0300656, 0, 0, 1, 0, 2.69003e-05, 41071
-6971.94, 541926, -275.284, 0.2086, -1044.58, 0.24597, 0.471635, 1.03299, 0.34851, 0.655882, 0.0001, 45.5, 246, 35.3812, 0.126744, 2.94724, 1, 0, 0, -1121.02, 41076
-6971.94, 541926, -275.284, 0.2086, -1044.58, 0.24597, 0.471635, 1.03299, 0.34851, 0.655882, 3, 45.5, 246, 35.3812, 0.126744, 2.94883, 1, 0, 0, -1123.91, 41076
-5950.53, 570603, -286.719, 0.218596, -1088.45, 0.256126, 0.445965, 0.993198, 0.349787, 0.651995, 0.0001, 91, 246, 35.3812, 0.126744, 4.58293, 1, 1, 0, -1055.62, 41076
-5950.53, 570603, -286.719, 0.218596, -1088.45, 0.256126, 0.445965, 0.993198, 0.349787, 0.651995, 3, 91, 246, 35.3812, 0.126744, 4.58519, 1, 1, 0, 1056.17, 41076
-7375.12, 6916.39, -44.3408, 2.31945, -754.094, -0.0237973, 0.288355, 1.03299, 0.34851, 0.655882, 3, 45.5, 246, 30.2309, 0.0447115, 0, 0, 1, 1, 9.79677e-06, 41077
-10748.3, 504779, -207.41, 0.474994, -613.58, 0.0253078, 0.42047, 1.03299, 0.34851, 0.655882, 0.0001, 45.5, 246, 24.9244, 0.106219, 0, 0, 1, 0, -3.00583e-05, 41079
-10748.3, 504779, -207.41, 0.474994, -613.58, 0.0253078, 0.42047, 1.03299, 0.34851, 0.655882, 3, 45.5, 246, 24.9244, 0.106219, 0, 0, 1, 0, -8.74098e-06, 41079
-9761.97, 183211, -166.123, 1.74663, -953.745, 0.0915895, 0.411159, 1.03299, 0.34851, 0.655882, 0.0001, 45.5, 246, 38.0861, 0.189393, 0, 0, 1, 0, 9.22698e-06, 41083
-9761.97, 183211, -166.123, 1.74663, -953.745, 0.0915895, 0.411159, 1.03299, 0.34851, 0.655882, 3, 45.5, 246, 38.0861, 0.189393, 0, 0, 1, 0, 9.98015e-06, 41083
-12126.3, 952471, -62.2499, 0.272541, -710.97, 0.535894, 0.342696, 1.03299, 0.34851, 0.655882, 0.0001, 45.5, 246, 18.8347, 0.0155831, 0, 0, 1, 0, 5.28601e-05, 41095
-12126.3, 952471, -62.2499, 0.272541, -710.97, 0.535894, 0.342696, 1.03299, 0.34851, 0.655882, 3, 45.5, 246, 18.8347, 0.0155831, 0, 0, 1, 0, 5.46734e-05, 41095
-10340.9, 464684, -266.545, 0.5371, -739.627, 0.00237884, 0.487094, 1.03299, 0.34851, 0.655882, 0.0001, 45.5, 246, 32.0629, 0.149523, 0, 0, 0, 0, 2.66306e-05, 41096
-10340.9, 464684, -266.545, 0.5371, -739.627, 0.00237884, 0.487094, 1.03299, 0.34851, 0.655882, 3, 45.5, 246, 32.0629, 0.149523, 0, 0, 0, 0, -7.37128e-06, 41096
-4807.22, 97241.7, -208.644, 2.93331, -924.607, 0.116113, 0.344969, 1.03299, 0.34851, 0.655882, 0.0001, 45.5, 246, 55.499, 0.241461, 1.30802, 1, 1, 0, -1.06228e-05, 41107
-4807.22, 97241.7, -208.644, 2.93331, -924.607, 0.116113, 0.344969, 1.03299, 0.34851, 0.655882, 3, 45.5, 246, 55.499, 0.241461, 1.09936, 1, 1, 0, 1.03283e-05, 41107
-3025.8, 114348, -252.601, 3.20299, -963.709, 0.160383, 0.351663, 0.993198, 0.349787, 0.651995, 0.0001, 91, 246, 55.499, 0.241461, 1.4775, 1, 1, 0, 1.20893e-05, 41107
-3025.8, 114348, -252.601, 3.20299, -963.709, 0.160383, 0.351663, 0.993198, 0.349787, 0.651995, 3, 91, 246, 55.499, 0.241461, 1.30403, 1, 1, 0, -1.42275e-07, 41107
-564.287, 134011, -305.24, 3.51936, -1017.58, 0.215433, 0.37399, 0.958125, 0.351078, 0.648177, 0.0001, 182, 246, 55.499, 0.241461, 2.20106, 1, 1, 1, -4.6711e-07, 41107
-564.287, 134011, -305.24, 3.51936, -1017.58, 0.215433, 0.37399, 0.958125, 0.351078, 0.648177, 3, 182, 246, 55.499, 0.241461, 2.06016, 1, 1, 0, 1.60375e-05, 41107
-3296.89, 80782.7, -205.913, 2.5467, -712.022, 0.221666, 0.325285, 0.9175, 0.352806, 0.64323, 0.0001, 455, 246, 51.2942, 0.229275, 1.02419, 1, 1, 0, 1.05182e-05, 41119
-3296.89, 80782.7, -205.913, 2.5467, -712.022, 0.221666, 0.325285, 0.9175, 0.352806, 0.64323, 3, 455, 246, 51.2942, 0.229275, 1.01846, 1, 1, 0, -2.51065e-06, 41119
-9024.68, 427401, -259.75, 2.68821, -975.25, 0.206296, 0.32354, 0.958125, 0.351078, 0.648177, 0.0001, 182, 246, 31.4642, 0.112587, 0, 0, 0, 0, 2.64287e-06, 41120
-9024.68, 427401, -259.75, 2.68821, -975.25, 0.206296, 0.32354, 0.958125, 0.351078, 0.648177, 3, 182, 246, 31.4642, 0.112587, 0, 0, 0, 0, -5.38079e-06, 41120
-7635.29, -19195.5, 20.7087, 2.88793, -1054.89, -0.0332439, 0.244208, 1.03299, 0.34851, 0.655882, 0.0001, 45.5, 246, 9.06071, 0.0553078, 0, 0, 1, 0, 7.72255e-08, 41122
-7635.29, -19195.5, 20.7087, 2.88793, -1054.89, -0.0332439, 0.244208, 1.03299, 0.34851, 0.655882, 3, 45.5, 246, 9.06071, 0.0553078, 0, 0, 1, 0, 1.20255e-05, 41122
-5537.76, 98730.8, -170.668, 3.64228, -1149.08, 0.00815497, 0.252042, 0.993198, 0.349787, 0.651995, 0.0001, 91, 246, 40.7458, 0.14929, 0, 0, 1, 0, -1.13702e-05, 41124
889.773, 159760, -322.52, 4.58108, -1248.41, 0.181805, 0.356293, 0.9175, 0.352806, 0.64323, 0.0001, 455, 246, 40.7458, 0.14929, 4.68684, 1, 0, 0, -1.2297e-05, 41124
889.773, 159760, -322.52, 4.58108, -1248.41, 0.181805, 0.356293, 0.9175, 0.352806, 0.64323, 3, 455, 246, 40.7458, 0.14929, 4.76519, 1, 0, 0, 4.30765e-06, 41124
-12368.4, 394774, -68.9444, 0.877784, -804.541, 0.0165217, 0.341352, 1.03299, 0.34851, 0.655882, 0.0001, 45.5, 246, 20.0378, 0.0470256, 0, 0, 1, 0, 4.8634e-06, 41126
-2792.24, 69483.9, -215.036, 3.25823, -791.232, 0.26234, 0.300934, 0.9175, 0.352806, 0.64323, 0.0001, 455, 246, 48.8106, 0.132582, 1.17468, 1, 1, 0, 3.36335e-06, 41130
-2792.24, 69483.9, -215.036, 3.25823, -791.232, 0.26234, 0.300934, 0.9175, 0.352806, 0.64323, 3, 455, 246, 48.8106, 0.132582, 1.0974, 1, 1, 0, -1.67521e-05, 41130
-4720.99, 237902, -332.705, 4.23746, -762.981, 0.314117, 0.317899, 0.958125, 0.351078, 0.648177, 0.0001, 182, 246, 38.2473, 0.161546, 1.03168, 1, 0, 0, -2.64605e-05, 41131
-11564.7, 617672, -71.8304, 0.456086, -1018.47, 0.481792, 0.345118, 1.03299, 0.34851, 0.655882, 0.0001, 45.5, 246, 24.5062, 0.0288071, 0, 0, 1, 0, -1.97337e-05, 41134
-11564.7, 617672, -71.8304, 0.456086, -1018.47, 0.481792, 0.345118, 1.03299, 0.34851, 0.655882, 3, 45.5, 246, 24.5062, 0.0288071, 0, 0, 1, 0, -6.51787e-05, 41134
1617.15, 288083, -382.113, 4.85861, -786.194, 0.193041, 0.369218, 0.9175, 0.352806, 0.64323, 0.0001, 455, 246, 33.4805, 0.137121, 1.57438, 1, 0, 0, -1.81735e-07, 41138
1617.15, 288083, -382.113, 4.85861, -786.194, 0.193041, 0.369218, 0.9175, 0.352806, 0.64323, 3, 455, 246, 33.4805, 0.137121, 1.82031, 1, 0, 0, -4.0139e-06, 41138
-2642.31, 430744, -149.407, 4.87061, -1109.53, 0.248444, 0.230693, 0.9175, 0.352806, 0.64323, 0.0001, 455, 246, 20.6016, 0.0241081, 0, 0, 0, 0, 1.0853e-05, 41155
-2642.31, 430744, -149.407, 4.87061, -1109.53, 0.248444, 0.230693, 0.9175, 0.352806, 0.64323, 3, 455, 246, 20.6016, 0.0241081, 0, 0, 0, 0, 1.24274e-05, 41155
-11775.1, 660639, -18.7802, 0.345866, -718.205, -0.000308253, 0.339082, 1.03299, 0.34851, 0.655882, 0.0001, 45.5, 246, 16.1269, 0.00851772, 0, 0, 1, 0, -3.01716e-05, 41157
-11775.1, 660639, -18.7802, 0.345866, -718.205, -0.000308253, 0.339082, 1.03299, 0.34851, 0.655882, 3, 45.5, 246, 16.1269, 0.00851772, 0, 0, 1, 0, -2.38183e-05, 41157
-11044.4, 669632, -21.651, 0.357249, -718.388, 0.00023445, 0.30322, 0.993198, 0.349787, 0.651995, 0.0001, 91, 246, 16.1269, 0.00851772, 0, 0, 1, 0, -7.35033e-05, 41157
-11044.4, 669632, -21.651, 0.357249, -718.388, 0.00023445, 0.30322, 0.993198, 0.349787, 0.651995, 3, 91, 246, 16.1269, 0.00851772, 0, 0, 1, 0, 5.17489e-05, 41157
-10216.2, 678657, -24.6283, 0.368076, -718.668, 0.000811988, 0.271749, 0.958125, 0.351078, 0.648177, 0.0001, 182, 246, 16.1269, 0.00851772, 0, 0, 1, 0, -1.0554e-05, 41157
-12224, 157914, -37.0465, 2.67549, -1189.14, -0.0239377, 0.247001, 1.03299, 0.34851, 0.655882, 0.0001, 45.5, 246, 23.799, 0.0670306, 0, 0, 0, 0, -1.49273e-05, 41161
-12224, 157914, -37.0465, 2.67549, -1189.14, -0.0239377, 0.247001, 1.03299, 0.34851, 0.655882, 3, 45.5, 246, 23.799, 0.0670306, 0, 0, 0, 0, -6.82018e-07, 41161
-6937.89, -37349.6, 3.59948, 2.90757, -715.051, 0.467928, 0.246444, 1.03299, 0.34851, 0.655882, 0.0001, 45.5, 246, 11.4083, 0.0234494, 0, 0, 1, 0, -4.2096e-06, 41164
-6937.89, -37349.6, 3.59948, 2.90757, -715.051, 0.467928, 0.246444, 1.03299, 0.34851, 0.655882, 3, 45.5, 246, 11.4083, 0.0234494, 0, 0, 1, 0, 6.26049e-06, 41164
-8483.02, 378.072, -94.454, 4.30164, -1011.6, 0.868853, 0.319312, 0.9175, 0.352806, 0.64323, 3, 455, 246, 11.4083, 0.0234494, 0, 0, 1, 0, 5.43109e-06, 41164
-7720.62, -5010.34, -16.8916, 3.25583, -1113.64, 0.0154901, 0.240882, 0.993198, 0.349787, 0.651995, 0.0001, 91, 246, 12.2938, 0.0605669, 0, 0, 1, 1, 1.51536e-05, 41179
-7720.62, -5010.34, -16.8916, 3.25583, -1113.64, 0.0154901, 0.240882, 0.993198, 0.349787, 0.651995, 3, 91, 246, 12.2938, 0.0605669, 0, 0, 1, 1, 6.01546e-06, 41179
-10769.1, 247142, -110.721, 1.34207, -1155.61, -0.00214754, 0.364254, 1.03299, 0.34851, 0.655882, 0.0001, 45.5, 246, 30.0778, 0.10873, 0, 0, 1, 0, 1.14466e-06, 41181
-10769.1, 247142, -110.721, 1.34207, -1155.61, -0.00214754, 0.364254, 1.03299, 0.34851, 0.655882, 3, 45.5, 246, 30.0778, 0.10873, 0, 0, 1, 0, -1.39645e-06, 41181
-9347.91, 270717, -130.893, 1.41269, -1160.35, 0.0061811, 0.338298, 0.993198, 0.349787, 0.651995, 3, 91, 246, 30.0778, 0.10873, 0, 0, 1, 0, -1.82243e-06, 41181
-6976.08, -10898.6, -36.8548, 2.86435, -795.723, -0.00831014, 0.255676, 1.03299, 0.34851, 0.655882, 3, 45.5, 246, 28.3909, 0.00989713, 0, 0, 1, 1, 7.86765e-07, 41182
-7469.54, 499344, -373.138, 0.138851, -932.583, -8.79053e-05, 0.620559, 1.03299, 0.34851, 0.655882, 0.0001, 45.5, 246, 41.153, 0.200504, 0, 0, 0, 0, -0.000266079, 41186
-11622.4, 116023, 7.47245, 2.74277, -661.271, -0.0333411, 0.225747, 1.03299, 0.34851, 0.655882, 0.0001, 45.5, 246, 9.94818, 0.0195168, 0, 0, 1, 0, -1.14524e-05, 41188
-11622.4, 116023, 7.47245, 2.74277, -661.271, -0.0333411, 0.225747, 1.03299, 0.34851, 0.655882, 3, 45.5, 246, 9.94818, 0.0195168, 0, 0, 1, 0, 5.21237e-06, 41188
-10824.9, 191423, -204.754, 3.50304, -1159.15, 0.00444304, 0.272304, 1.03299, 0.34851, 0.655882, 0.0001, 45.5, 246, 43.8225, 0.171431, 0, 0, 0, 0, -4.12341e-06, 41193
-10824.9, 191423, -204.754, 3.50304, -1159.15, 0.00444304, 0.272304, 1.03299, 0.34851, 0.655882, 3, 45.5, 246, 43.8225, 0.171431, 0, 0, 0, 0, -1.70849e-05, 41193
-7296.1, 216273, -263.366, 3.83775, -1187.85, 0.0636809, 0.292198, 0.993198, 0.349787, 0.651995, 3, 91, 246, 43.8225, 0.171431, 0, 0, 1, 0, -6.24242e-06, 41193
-2560.21, 244443, -334.547, 4.24178, -1238.5, 0.136746, 0.333077, 0.958125, 0.351078, 0.648177, 0.0001, 182, 246, 43.8225, 0.171431, 1.49569, 1, 0, 0, 1.96637e-06, 41193
-2560.21, 244443, -334.547, 4.24178, -1238.5, 0.136746, 0.333077, 0.958125, 0.351078, 0.648177, 3, 182, 246, 43.8225, 0.171431, 1.29312, 1, 0, 0, 3.85102e-06, 41193
-9777.91, 78301.9, -40.4128, 2.93596, -585.918, 0.11524, 0.220036, 1.03299, 0.34851, 0.655882, 0.0001, 45.5, 246, 17.6412, 0.0574783, 0, 0, 1, 0, 6.20115e-06, 41199
-9777.91, 78301.9, -40.4128, 2.93596, -585.918, 0.11524, 0.220036, 1.03299, 0.34851, 0.655882, 3, 45.5, 246, 17.6412, 0.0574783, 0, 0, 1, 0, 5.10451e-07, 41199
-8880.62, 84622.6, -60.2505, 3.19471, -602.791, 0.1594, 0.21823, 0.993198, 0.349787, 0.651995, 0.0001, 91, 246, 17.6412, 0.0574783, 0, 0, 1, 0, -6.50715e-06, 41199
-8880.62, 84622.6, -60.2505, 3.19471, -602.791, 0.1594, 0.21823, 0.993198, 0.349787, 0.651995, 3, 91, 246, 17.6412, 0.0574783, 0, 0, 1, 0, 1.39639e-05, 41199
-4490.82, 333282, -412.901, 4.32743, -983.091, 0.214734, 0.375593, 0.958125, 0.351078, 0.648177, 0.0001, 182, 246, 42.3874, 0.174866, 1.79315, 1, 0, 0, 7.42398e-06, 41200
-4490.82, 333282, -412.901, 4.32743, -983.091, 0.214734, 0.375593, 0.958125, 0.351078, 0.648177, 3, 182, 246, 42.3874, 0.174866, 1.67269, 1, 0, 0, 8.83902e-07, 41200
-7699.16, 32055.5, -58.4619, 2.67716, -1050.82, 0.0097669, 0.269855, 0.993198, 0.349787, 0.651995, 0.0001, 91, 246, 24.9043, 0.0845199, 0, 0, 1, 1, 9.33541e-06, 41202
-7699.16, 32055.5, -58.4619, 2.67716, -1050.82, 0.0097669, 0.269855, 0.993198, 0.349787, 0.651995, 3, 91, 246, 24.9043, 0.0845199, 0, 0, 1, 1, 2.05694e-05, 41202
-7062.22, 72538.5, -124.048, 3.44627, -806.599, -0.000944438, 0.204846, 1.03299, 0.34851, 0.655882, 3, 45.5, 246, 37.3302, 0.122485, 0, 0, 1, 0, -5.56139e-06, 41205
-626.359, 118075, -286.285, 4.78711, -926.961, 0.248196, 0.331964, 0.9175, 0.352806, 0.64323, 0.0001, 455, 246, 37.3302, 0.122485, 1.50204, 1, 1, 0, 1.93558e-08, 41205
-626.359, 118075, -286.285, 4.78711, -926.961, 0.248196, 0.331964, 0.9175, 0.352806, 0.64323, 3, 455, 246, 37.3302, 0.122485, 1.4784, 1, 1, 0, -6.69164e-06, 41205
-10616.6, 470783, -194.55, 0.588192, -781.729, 0.0196143, 0.414649, 1.03299, 0.34851, 0.655882, 0.0001, 45.5, 246, 27.7283, 0.106705, 0, 0, 0, 0, -1.6224e-05, 41206
-10616.6, 470783, -194.55, 0.588192, -781.729, 0.0196143, 0.414649, 1.03299, 0.34851, 0.655882, 3, 45.5, 246, 27.7283, 0.106705, 0, 0, 0, 0, 4.65051e-06, 41206
631.733, 378971, -384.77, 3.11467, -948.037, 0.0885897, 0.417229, 0.9175, 0.352806, 0.64323, 3, 455, 246, 37.0305, 0.159973, 0, 0, 0, 0, -2.83324e-06, 41211
-12930.8, 912942, -0.639518, 0.297238, -1162.18, 0.11448, 0.338737, 1.03299, 0.34851, 0.655882, 0.0001, 45.5, 246, 26.4, 0.00158951, 0, 0, 1, 0, -1.2644e-05, 41214
-12930.8, 912942, -0.639518, 0.297238, -1162.18, 0.11448, 0.338737, 1.03299, 0.34851, 0.655882, 3, 45.5, 246, 26.4, 0.00158951, 0, 0, 1, 0, 4.33265e-05, 41214
-8761.6, 158853, -212.073, 2.80652, -907.036, 0.090221, 0.362102, 1.03299, 0.34851, 0.655882, 0.0001, 45.5, 246, 45.5018, 0.207104, 0, 0, 0, 0, 1.52459e-05, 41236
-8761.6, 158853, -212.073, 2.80652, -907.036, 0.090221, 0.362102, 1.03299, 0.34851, 0.655882, 3, 45.5, 246, 45.5018, 0.207104, 0, 0, 0, 0, -4.38738e-06, 41236
-6347.41, 175341, -254.115, 3.05393, -940.955, 0.129769, 0.366344, 0.993198, 0.349787, 0.651995, 3, 91, 246, 45.5018, 0.207104, 0, 0, 1, 0, 2.40169e-05, 41236
-3201.9, 194216, -303.915, 3.3412, -987.733, 0.178308, 0.384892, 0.958125, 0.351078, 0.648177, 0.0001, 182, 246, 45.5018, 0.207104, 1.0295, 1, 0, 0, 5.56696e-06, 41236
-3893.15, 621976, -173.3, 3.87015, -1092.55, 0.131575, 0.224087, 0.9175, 0.352806, 0.64323, 3, 455, 246, 24.5127, 0.0314923, 0, 0, 0, 0, -3.11951e-06, 41241
-8932.76, 722513, -36.0559, 1.92375, -803.581, 0.0861963, 0.227135, 0.9175, 0.352806, 0.64323, 0.0001, 455, 246, 16.8797, 0.00369653, 0, 0, 1, 0, -4.87618e-05, 41245
-9836.79, 504342, -119.618, 0.4011, -884.649, 7.5667e-05, 0.366656, 1.03299, 0.34851, 0.655882, 0.0001, 45.5, 246, 24.2703, 0.0614937, 0, 0, 1, 0, -3.72607e-05, 41253
-9042.22, 518315, -126.997, 0.415036, -886.036, 0.000806876, 0.333012, 0.993198, 0.349787, 0.651995, 0.0001, 91, 246, 24.2703, 0.0614937, 0, 0, 1, 0, -0.00011974, 41253
-9982.61, 443296, -48.7585, 0.485679, -964.488, 0.210368, 0.306987, 0.993198, 0.349787, 0.651995, 0.0001, 91, 246, 20.1175, 0.0273835, 0, 0, 1, 0, 1.64882e-05, 41259
-10625.1, 176553, -137.618, 1.72593, -611.666, 0.543259, 0.361981, 1.03299, 0.34851, 0.655882, 0.0001, 45.5, 246, 29.1362, 0.142688, 0, 0, 1, 0, 0.00018909, 41262
-10121.6, 110431, -90.6971, 3.56119, -863.643, 0.0114026, 0.172052, 1.03299, 0.34851, 0.655882, 0.0001, 45.5, 246, 28.7415, 0.0958978, 0, 0, 0, 0, 3.9399e-06, 41263
-10121.6, 110431, -90.6971, 3.56119, -863.643, 0.0114026, 0.172052, 1.03299, 0.34851, 0.655882, 3, 45.5, 246, 28.7415, 0.0958978, 0, 0, 0, 0, 9.29145e-06, 41263
-4552.65, 258143, -302.77, 3.41282, -1123.61, 0.500355, 0.360679, 0.958125, 0.351078, 0.648177, 0.0001, 182, 246, 40.1554, 0.171024, 0, 0, 0, 0, 1.97877e-05, 41267
-4552.65, 258143, -302.77, 3.41282, -1123.61, 0.500355, 0.360679, 0.958125, 0.351078, 0.648177, 3, 182, 246, 40.1554, 0.171024, 0, 0, 0, 0, 2.33968e-06, 41267
-9393.96, 394113, -105.013, 0.661545, -1013.48, 0.000484756, 0.326796, 0.993198, 0.349787, 0.651995, 0.0001, 91, 246, 25.1074, 0.0659491, 0, 0, 1, 0, -7.54376e-05, 41270
-12389.1, 221087, -40.4933, 1.68847, -885.69, 0.00921574, 0.306759, 1.03299, 0.34851, 0.655882, 3, 45.5, 246, 19.3021, 0.0515063, 0, 0, 1, 0, 2.58898e-06, 41278
-9169.93, 248948, -74.804, 1.89189, -897.518, 0.0375027, 0.263636, 0.958125, 0.351078, 0.648177, 0.0001, 182, 246, 19.3021, 0.0515063, 0, 0, 1, 0, -6.66961e-06, 41278
-8219.75, 878926, -354.208, 0.0419012, -627.715, 0.155168, 0.473049, 1.03299, 0.34851, 0.655882, 0.0001, 45.5, 246, 26.7551, 0.101268, 0, 0, 0, 0, -5.95349e-05, 41281
-11422.4, 291331, -237.262, 1.14551, -607.407, 0.280323, 0.485154, 1.03299, 0.34851, 0.655882, 0.0001, 45.5, 246, 34.3181, 0.188831, 0, 0, 1, 0, -2.35854e-05, 41283
-11422.4, 291331, -237.262, 1.14551, -607.407, 0.280323, 0.485154, 1.03299, 0.34851, 0.655882, 3, 45.5, 246, 34.3181, 0.188831, 0, 0, 1, 0, -1.19149e-05, 41283
-7564.99, 308335, -228.055, 0.813398, -1169.8, 0.0361536, 0.464689, 0.993198, 0.349787, 0.651995, 0.0001, 91, 246, 39.5824, 0.189602, 0, 0, 1, 0, 3.17242e-05, 41284
-6818.04, 119280, -209.062, 3.34141, -817.389, 0.310363, 0.269277, 1.03299, 0.34851, 0.655882, 0.0001, 45.5, 246, 46.7596, 0.183909, 1.1671, 1, 0, 0, -8.45769e-06, 41285
-6818.04, 119280, -209.062, 3.34141, -817.389, 0.310363, 0.269277, 1.03299, 0.34851, 0.655882, 3, 45.5, 246, 46.7596, 0.183909, 1.01305, 1, 0, 0, -3.19824e-06, 41285
-4528.36, 134865, -255.452, 3.71139, -885.329, 0.383744, 0.284252, 0.993198, 0.349787, 0.651995, 0.0001, 91, 246, 46.7596, 0.183909, 1.27151, 1, 1, 0, -3.83308e-06, 41285
-4528.36, 134865, -255.452, 3.71139, -885.329, 0.383744, 0.284252, 0.993198, 0.349787, 0.651995, 3, 91, 246, 46.7596, 0.183909, 1.09848, 1, 1, 0, -1.75647e-05, 41285
-1401.04, 154519, -313.887, 4.16565, -977.972, 0.480951, 0.320902, 0.958125, 0.351078, 0.648177, 0.0001, 182, 246, 46.7596, 0.183909, 1.86463, 1, 0, 0, -2.48417e-05, 41285
-1401.04, 154519, -313.887, 4.16565, -977.972, 0.480951, 0.320902, 0.958125, 0.351078, 0.648177, 3, 182, 246, 46.7596, 0.183909, 1.72375, 1, 0, 0, 2.794e-06, 41285
-10951.9, 177971, -97.3028, 3.18842, -656.776, 0.180623, 0.218475, 0.993198, 0.349787, 0.651995, 0.0001, 91, 246, 20.8527, 0.072609, 0, 0, 1, 0, 1.28972e-05, 41288
-10951.9, 177971, -97.3028, 3.18842, -656.776, 0.180623, 0.218475, 0.993198, 0.349787, 0.651995, 3, 91, 246, 20.8527, 0.072609, 0, 0, 1, 0, 5.45208e-05, 41288
-12236.4, 285689, -90.1694, 1.26969, -731.549, 0.222708, 0.342059, 1.03299, 0.34851, 0.655882, 0.0001, 45.5, 246, 21.6009, 0.0759077, 0, 0, 1, 0, 7.79937e-05, 41291
-10231, 688907, -218.873, 0.305128, -648.562, 0.0351653, 0.406742, 1.03299, 0.34851, 0.655882, 0.0001, 45.5, 246, 23.8807, 0.0819823, 0, 0, 1, 0, 5.0403e-06, 41301
-10231, 688907, -218.873, 0.305128, -648.562, 0.0351653, 0.406742, 1.03299, 0.34851, 0.655882, 3, 45.5, 246, 23.8807, 0.0819823, 0, 0, 0, 0, -3.74201e-06, 41301
-9153.9, 480502, -135.356, 0.364683, -665.572, 0.0667974, 0.340063, 0.993198, 0.349787, 0.651995, 0.0001, 91, 246, 20.9998, 0.0702709, 0, 0, 1, 0, 1.95664e-05, 41302
-9240.16, 145005, -137.712, 1.95629, -1027, 0.0554423, 0.376447, 1.03299, 0.34851, 0.655882, 0.0001, 45.5, 246, 37.3576, 0.180171, 0, 0, 1, 0, -2.22376e-05, 41308
-9240.16, 145005, -137.712, 1.95629, -1027, 0.0554423, 0.376447, 1.03299, 0.34851, 0.655882, 3, 45.5, 246, 37.3576, 0.180171, 0, 0, 1, 0, 2.68069e-07, 41308
-6131.69, 185191, -197.176, 2.23704, -1070.11, 0.0957412, 0.35449, 0.958125, 0.351078, 0.648177, 3, 182, 246, 37.3576, 0.180171, 0, 0, 1, 0, 6.90265e-06, 41308
-10217.7, 196577, -199.948, 2.41617, -1085.05, 0.316832, 0.388678, 1.03299, 0.34851, 0.655882, 0.0001, 45.5, 246, 42.3318, 0.189596, 0, 0, 0, 0, 1.1173e-05, 41312
-5163.53, 63709.3, -160.969, 2.54611, -598.599, 0.327698, 0.309356, 1.03299, 0.34851, 0.655882, 0.0001, 45.5, 246, 49.8139, 0.187346, 1.1775, 1, 1, 0, -3.95682e-06, 41314
-4225.37, 72058.2, -188.154, 2.78904, -645.433, 0.378518, 0.303056, 0.993198, 0.349787, 0.651995, 0.0001, 91, 246, 49.8139, 0.187346, 1.14559, 1, 1, 0, -7.06002e-06, 41314
-2956.26, 82245.6, -220.857, 3.07279, -704.812, 0.442678, 0.309769, 0.958125, 0.351078, 0.648177, 0.0001, 182, 246, 49.8139, 0.187346, 1.27554, 1, 1, 0, -7.39908e-06, 41314
-2956.26, 82245.6, -220.857, 3.07279, -704.812, 0.442678, 0.309769, 0.958125, 0.351078, 0.648177, 3, 182, 246, 49.8139, 0.187346, 1.12239, 1, 1, 0, -2.08693e-05, 41314
-563.777, 99927.2, -276.101, 3.53787, -811.774, 0.557536, 0.341165, 0.9175, 0.352806, 0.64323, 0.0001, 455, 246, 49.8139, 0.187346, 1.85084, 1, 1, 0, 2.07427e-05, 41314
-563.777, 99927.2, -276.101, 3.53787, -811.774, 0.557536, 0.341165, 0.9175, 0.352806, 0.64323, 3, 455, 246, 49.8139, 0.187346, 1.762, 1, 1, 0, -1.59834e-06, 41314
-9845.09, 516131, -147.616, 0.454435, -948.881, 0.0228127, 0.379531, 1.03299, 0.34851, 0.655882, 0.0001, 45.5, 246, 27.0506, 0.0737245, 0, 0, 1, 0, -4.21317e-05, 41335
-9845.09, 516131, -147.616, 0.454435, -948.881, 0.0228127, 0.379531, 1.03299, 0.34851, 0.655882, 3, 45.5, 246, 27.0506, 0.0737245, 0, 0, 1, 0, -6.90032e-06, 41335
-8831.21, 533003, -156.878, 0.471411, -954.244, 0.0238395, 0.34708, 0.993198, 0.349787, 0.651995, 3, 91, 246, 27.0506, 0.0737245, 0, 0, 1, 0, 3.40043e-05, 41335
-6886.89, 9283.59, -34.1408, 3.50976, -1109.91, -0.0142244, 0.190091, 1.03299, 0.34851, 0.655882, 0.0001, 45.5, 246, 26.0541, 0.0724795, 0, 0, 1, 0, 2.53319e-06, 41336
-6886.89, 9283.59, -34.1408, 3.50976, -1109.91, -0.0142244, 0.190091, 1.03299, 0.34851, 0.655882, 3, 45.5, 246, 26.0541, 0.0724795, 0, 0, 1, 0, 1.00307e-05, 41336
-10723.5, 366017, -115.157, 0.686199, -752.769, -0.00155711, 0.369674, 1.03299, 0.34851, 0.655882, 0.0001, 45.5, 246, 22.9085, 0.0810725, 0, 0, 1, 0, 3.86461e-07, 41338
-10723.5, 366017, -115.157, 0.686199, -752.769, -0.00155711, 0.369674, 1.03299, 0.34851, 0.655882, 3, 45.5, 246, 22.9085, 0.0810725, 0, 0, 1, 0, 7.15833e-06, 41338
-9734.71, 376110, -124.502, 0.713725, -754.919, 0.000594099, 0.337729, 0.993198, 0.349787, 0.651995, 0.0001, 91, 246, 22.9085, 0.0810725, 0, 0, 1, 0, -3.12927e-06, 41338
-6618.57, 51197.4, -105.112, 2.58088, -950.029, 0.651379, 0.282162, 0.993198, 0.349787, 0.651995, 3, 91, 246, 36.9551, 0.127671, 0, 0, 1, 0, -5.41918e-06, 41347
-10651.1, 233950, -204.553, 1.33637, -646.534, 0.0933636, 0.460509, 1.03299, 0.34851, 0.655882, 0.0001, 45.5, 246, 35.7187, 0.198242, 0, 0, 1, 0, 1.91037e-06, 41356
-10651.1, 233950, -204.553, 1.33637, -646.534, 0.0933636, 0.460509, 1.03299, 0.34851, 0.655882, 3, 45.5, 246, 35.7187, 0.198242, 0, 0, 1, 0, 2.32933e-05, 41356
-9100.15, 243291, -223.995, 1.41756, -664.471, 0.103209, 0.442328, 0.993198, 0.349787, 0.651995, 3, 91, 246, 35.7187, 0.198242, 0, 0, 1, 0, -8.78091e-07, 41356
-9767.36, 809451, -160.67, 0.220304, -715.009, 0.558894, 0.367577, 1.03299, 0.34851, 0.655882, 0.0001, 45.5, 246, 21.9326, 0.0459963, 0, 0, 1, 0, 4.50563e-05, 41361
-9767.36, 809451, -160.67, 0.220304, -715.009, 0.558894, 0.367577, 1.03299, 0.34851, 0.655882, 3, 45.5, 246, 21.9326, 0.0459963, 0, 0, 1, 0, 7.36083e-05, 41361
-8959.53, 845244, -167.242, 0.234348, -785.316, 0.613284, 0.333481, 0.993198, 0.349787, 0.651995, 3, 91, 246, 21.9326, 0.0459963, 0, 0, 1, 0, 0.000169754, 41361
-7352.13, -16948, 8.77746, 3.04575, -1040.49, 0.369189, 0.228519, 1.03299, 0.34851, 0.655882, 0.0001, 45.5, 246, 13.7638, 0.0569354, 0, 0, 1, 0, 4.06042e-06, 41362
-7352.13, -16948, 8.77746, 3.04575, -1040.49, 0.369189, 0.228519, 1.03299, 0.34851, 0.655882, 3, 45.5, 246, 13.7638, 0.0569354, 0, 0, 1, 0, -6.72163e-06, 41362
-7419.16, 579944, -300.851, 0.338929, -1145.73, 0.140416, 0.488825, 1.03299, 0.34851, 0.655882, 3, 45.5, 246, 38.1843, 0.131347, 0, 0, 0, 0, 2.74611e-05, 41363
-5087.49, 682114, -171.964, 2.12756, -1122.46, 0.599342, 0.252853, 0.9175, 0.352806, 0.64323, 3, 455, 246, 22.9566, 0.0436555, 0, 0, 0, 0, 4.79145e-05, 41364
-5930.56, 97152.8, -205.14, 2.43823, -555.067, 0.653851, 0.358876, 1.03299, 0.34851, 0.655882, 0.0001, 45.5, 246, 49.2142, 0.218403, 1.26476, 1, 1, 0, 5.0041e-05, 41365
-5930.56, 97152.8, -205.14, 2.43823, -555.067, 0.653851, 0.358876, 1.03299, 0.34851, 0.655882, 3, 45.5, 246, 49.2142, 0.218403, 1.04553, 1, 1, 0, -3.8807e-06, 41365
-4493.98, 107763, -234.446, 2.72032, -636.242, 0.761731, 0.354048, 0.993198, 0.349787, 0.651995, 0.0001, 91, 246, 49.2142, 0.218403, 1.22867, 1, 1, 0, -1.91269e-05, 41365
-4493.98, 107763, -234.446, 2.72032, -636.242, 0.761731, 0.354048, 0.993198, 0.349787, 0.651995, 3, 91, 246, 49.2142, 0.218403, 1.00312, 1, 1, 0, -3.57109e-05, 41365
-2573.14, 122053, -271.083, 3.06642, -745.986, 0.907706, 0.363229, 0.958125, 0.351078, 0.648177, 0.0001, 182, 246, 49.2142, 0.218403, 1.44923, 1, 1, 0, 2.1228e-05, 41365
-2573.14, 122053, -271.083, 3.06642, -745.986, 0.907706, 0.363229, 0.958125, 0.351078, 0.648177, 3, 182, 246, 49.2142, 0.218403, 1.29236, 1, 1, 0, -1.04678e-05, 41365
1101.06, 150711, -337.39, 3.67943, -966.832, 1.20145, 0.401856, 0.9175, 0.352806, 0.64323, 0.0001, 455, 246, 49.2142, 0.218403, 4.14208, 1, 0, 0, -193.653, 41365
1101.06, 150711, -337.39, 3.67943, -966.832, 1.20145, 0.401856, 0.9175, 0.352806, 0.64323, 3, 455, 246, 49.2142, 0.218403, 4.14836, 1, 0, 0, -193.588, 41365
-5956.79, 94290.6, -163.002, 2.6768, -637.788, 0.0958689, 0.300656, 0.958125, 0.351078, 0.648177, 3, 182, 246, 36.0109, 0.157455, 0, 0, 1, 0, 6.96231e-06, 41376
-8627.12, 163350, -213.322, 2.69685, -1056.63, 0.129928, 0.388279, 1.03299, 0.34851, 0.655882, 0.0001, 45.5, 246, 47.0967, 0.217833, 0, 0, 0, 0, 5.80159e-06, 41378
-6086.14, 94411.9, -178.394, 3.00346, -940.679, 0.8136, 0.286358, 1.03299, 0.34851, 0.655882, 0.0001, 45.5, 246, 46.8422, 0.18354, 1.14522, 1, 1, 0, -3.52044e-05, 41383
-4382.44, 117986, -223.323, 3.41588, -1101.6, 0.98548, 0.292766, 0.993198, 0.349787, 0.651995, 0.0001, 91, 246, 46.8422, 0.18354, 1.15825, 1, 1, 0, -3.16558e-06, 41383
-1728.56, 152589, -284.822, 3.9548, -1338.01, 1.23781, 0.321109, 0.958125, 0.351078, 0.648177, 0.0001, 182, 246, 46.8422, 0.18354, 1.6732, 1, 0, 0, 2.04017e-05, 41383
-1728.56, 152589, -284.822, 3.9548, -1338.01, 1.23781, 0.321109, 0.958125, 0.351078, 0.648177, 3, 182, 246, 46.8422, 0.18354, 1.51968, 1, 0, 0, 2.04017e-05, 41383
-8938.61, 713595, -94.8466, 0.254586, -1060.61, 0.448965, 0.31539, 0.993198, 0.349787, 0.651995, 0.0001, 91, 246, 24.8224, 0.0316907, 0, 0, 1, 0, 1.88445e-05, 41387
-10483.4, 149107, -104.691, 2.31999, -866.933, -0.0250018, 0.308995, 1.03299, 0.34851, 0.655882, 0.0001, 45.5, 246, 29.6779, 0.124491, 0, 0, 1, 0, 1.33444e-05, 41389
-10483.4, 149107, -104.691, 2.31999, -866.933, -0.0250018, 0.308995, 1.03299, 0.34851, 0.655882, 3, 45.5, 246, 29.6779, 0.124491, 0, 0, 1, 0, 8.57712e-07, 41389
-10752.7, 386348, -233.849, 1.01193, -1061.77, 0.118856, 0.462414, 1.03299, 0.34851, 0.655882, 0.0001, 45.5, 246, 36.9304, 0.1513, 0, 0, 0, 0, -1.47744e-05, 41391
-10752.7, 386348, -233.849, 1.01193, -1061.77, 0.118856, 0.462414, 1.03299, 0.34851, 0.655882, 3, 45.5, 246, 36.9304, 0.1513, 0, 0, 0, 0, -1.23173e-05, 41391
-9332.99, 341894, -193.497, 0.655733, -985.632, 0.732675, 0.430964, 1.03299, 0.34851, 0.655882, 0.0001, 45.5, 246, 32.6938, 0.130366, 0, 0, 0, 0, -6.92466e-05, 41392
-8156.08, 376599, -207.965, 0.711633, -1118.72, 0.83093, 0.403757, 0.993198, 0.349787, 0.651995, 0.0001, 91, 246, 32.6938, 0.130366, 0, 0, 1, 0, -2.40413e-05, 41392
-7949.86, 291595, -241.777, 1.14902, -1098.4, 4.0097e-05, 0.476411, 0.993198, 0.349787, 0.651995, 0.0001, 91, 246, 40.8721, 0.203123, 0, 0, 1, 0, 7.07721e-06, 41393
-10533.9, 160314, -84.8965, 1.56459, -610.419, 0.367901, 0.33542, 1.03299, 0.34851, 0.655882, 0.0001, 45.5, 246, 22.5809, 0.102743, 0, 0, 1, 0, 1.41629e-05, 41394
-8443.09, 580309, -280.207, 0.213703, -772.202, 0.483118, 0.461538, 1.03299, 0.34851, 0.655882, 0.0001, 45.5, 246, 29.8414, 0.115787, 0, 0, 0, 0, 1.68122e-05, 41398
-8443.09, 580309, -280.207, 0.213703, -772.202, 0.483118, 0.461538, 1.03299, 0.34851, 0.655882, 3, 45.5, 246, 29.8414, 0.115787, 0, 0, 0, 0, -6.68316e-05, 41398
-7386.09, 608810, -291.312, 0.226895, -837.765, 0.523279, 0.435004, 0.993198, 0.349787, 0.651995, 3, 91, 246, 29.8414, 0.115787, 0, 0, 1, 0, -3.2347e-05, 41398
-9944.93, 380453, -372.686, 0.261053, -644.621, 0.42986, 0.687462, 1.03299, 0.34851, 0.655882, 0.0001, 45.5, 246, 41.2331, 0.249257, 0, 0, 0, 0, 0.000101766, 41401
-8539.37, 399971, -389.72, 0.278305, -694.42, 0.461529, 0.683604, 0.993198, 0.349787, 0.651995, 0.0001, 91, 246, 41.2331, 0.249257, 0, 0, 1, 0, -1.18975e-05, 41401
-6911.39, 125725, -224.567, 3.11301, -686.145, 0.106341, 0.314754, 1.03299, 0.34851, 0.655882, 0.0001, 45.5, 246, 48.0028, 0.203871, 1.20091, 1, 1, 0, 6.98154e-06, 41404
-6911.39, 125725, -224.567, 3.11301, -686.145, 0.106341, 0.314754, 1.03299, 0.34851, 0.655882, 3, 45.5, 246, 48.0028, 0.203871, 1.06132, 1, 1, 0, 7.83523e-07, 41404
-4670.11, 136017, -265.025, 3.40675, -721.587, 0.155616, 0.324732, 0.993198, 0.349787, 0.651995, 0.0001, 91, 246, 48.0028, 0.203871, 1.29582, 1, 1, 0, -4.88565e-06, 41404
-4670.11, 136017, -265.025, 3.40675, -721.587, 0.155616, 0.324732, 0.993198, 0.349787, 0.651995, 3, 91, 246, 48.0028, 0.203871, 1.1267, 1, 1, 0, 4.41275e-06, 41404
-1788.89, 148409, -313.699, 3.7549, -770.635, 0.217246, 0.352039, 0.958125, 0.351078, 0.648177, 0.0001, 182, 246, 48.0028, 0.203871, 1.72832, 1, 1, 0, -7.31316e-06, 41404
-1788.89, 148409, -313.699, 3.7549, -770.635, 0.217246, 0.352039, 0.958125, 0.351078, 0.648177, 3, 182, 246, 48.0028, 0.203871, 1.58622, 1, 1, 0, -3.17941e-06, 41404
-7472.62, 33046.2, -68.3928, 2.6728, -1109.82, 0.285846, 0.274975, 0.993198, 0.349787, 0.651995, 0.0001, 91, 246, 28.4908, 0.0902918, 0, 0, 1, 1, 9.46104e-06, 41405
-7472.62, 33046.2, -68.3928, 2.6728, -1109.82, 0.285846, 0.274975, 0.993198, 0.349787, 0.651995, 3, 91, 246, 28.4908, 0.0902918, 0, 0, 1, 1, -7.83901e-06, 41405
-10113.2, 175621, -207.377, 2.37645, -647.573, 0.240311, 0.382517, 1.03299, 0.34851, 0.655882, 3, 45.5, 246, 39.675, 0.194448, 0, 0, 1, 0, 4.05704e-05, 41409
-651.339, 220734, -331.809, 3.21315, -832.698, 0.404586, 0.410907, 0.9175, 0.352806, 0.64323, 0.0001, 455, 246, 39.675, 0.194448, 1.01846, 1, 0, 0, 9.74013e-06, 41409
-651.339, 220734, -331.809, 3.21315, -832.698, 0.404586, 0.410907, 0.9175, 0.352806, 0.64323, 3, 455, 246, 39.675, 0.194448, 1.03425, 1, 0, 0, 3.95e-05, 41409
-10704.5, 121010, -77.814, 2.8633, -834.747, 0.787799, 0.230845, 1.03299, 0.34851, 0.655882, 0.0001, 45.5, 246, 25.728, 0.0873399, 0, 0, 0, 0, 7.39545e-06, 41412
-2561.72, 108282, -237.604, 3.21085, -809.327, 0.126838, 0.331002, 0.9175, 0.352806, 0.64323, 0.0001, 455, 246, 42.3928, 0.178488, 1.05005, 1, 1, 0, -4.76912e-06, 41420
-2561.72, 108282, -237.604, 3.21085, -809.327, 0.126838, 0.331002, 0.9175, 0.352806, 0.64323, 3, 455, 246, 42.3928, 0.178488, 1.06183, 1, 1, 0, 2.91269e-06, 41420
-12812.6, 397919, -10.0652, 0.752391, -602.236, 0.598656, 0.330877, 1.03299, 0.34851, 0.655882, 0.0001, 45.5, 246, 12.3841, 0.00927491, 0, 0, 1, 0, -1.27675e-05, 41422
-12812.6, 397919, -10.0652, 0.752391, -602.236, 0.598656, 0.330877, 1.03299, 0.34851, 0.655882, 3, 45.5, 246, 12.3841, 0.00927491, 0, 0, 1, 0, -7.77403e-06, 41422
-5307.85, 69141.2, -154.412, 3.30457, -948.692, -0.0317357, 0.248882, 1.03299, 0.34851, 0.655882, 0.0001, 45.5, 246, 47.3183, 0.165192, 1.06985, 1, 1, 0, 9.64282e-07, 41424
-3980.63, 85398, -198.253, 3.59633, -963.722, 0.0204805, 0.260183, 0.993198, 0.349787, 0.651995, 0.0001, 91, 246, 47.3183, 0.165192, 1.14549, 1, 1, 0, -1.18724e-05, 41424
-2054.17, 103106, -250.516, 3.94233, -993.793, 0.0831724, 0.289497, 0.958125, 0.351078, 0.648177, 0.0001, 182, 246, 47.3183, 0.165192, 1.49962, 1, 1, 0, 5.32397e-06, 41424
-2054.17, 103106, -250.516, 3.94233, -993.793, 0.0831724, 0.289497, 0.958125, 0.351078, 0.648177, 3, 182, 246, 47.3183, 0.165192, 1.34455, 1, 1, 0, 1.12091e-05, 41424
1791.51, 130630, -338.208, 4.52144, -1065.71, 0.190515, 0.361077, 0.9175, 0.352806, 0.64323, 0.0001, 455, 246, 47.3183, 0.165192, 5.22461, 1, 0, 0, -1.78285e-05, 41424
1791.51, 130630, -338.208, 4.52144, -1065.71, 0.190515, 0.361077, 0.9175, 0.352806, 0.64323, 3, 455, 246, 47.3183, 0.165192, 5.25094, 1, 0, 0, -7.81238e-06, 41424
1140.57, 259876, -393.27, 3.6722, -750.145, 0.124212, 0.438898, 0.9175, 0.352806, 0.64323, 0.0001, 455, 246, 39.8594, 0.189668, 2.19787, 1, 0, 0, -3.33964e-06, 41426
1140.57, 259876, -393.27, 3.6722, -750.145, 0.124212, 0.438898, 0.9175, 0.352806, 0.64323, 3, 455, 246, 39.8594, 0.189668, 2.31251, 1, 0, 0, -3.32036e-06, 41426
-8659.84, 175283, -151.668, 0.720626, -1154.44, 0.000134823, 0.467135, 1.03299, 0.34851, 0.655882, 0.0001, 45.5, 246, 38.8979, 0.227477, 0, 0, 0, 0, 2.97939e-05, 41438
-8659.84, 175283, -151.668, 0.720626, -1154.44, 0.000134823, 0.467135, 1.03299, 0.34851, 0.655882, 3, 45.5, 246, 38.8979, 0.227477, 0, 0, 0, 0, -2.12414e-05, 41438
-10316.9, 124102, -80.1909, 2.64346, -983.533, 0.271666, 0.267973, 1.03299, 0.34851, 0.655882, 0.0001, 45.5, 246, 28.1231, 0.103835, 0, 0, 1, 0, 5.08952e-06, 41446
-11436, 423489, -24.8214, 0.567748, -972.85, 0.00298704, 0.337494, 1.03299, 0.34851, 0.655882, 0.0001, 45.5, 246, 19.4668, 0.0184787, 0, 0, 1, 0, 3.87678e-05, 41450
-11436, 423489, -24.8214, 0.567748, -972.85, 0.00298704, 0.337494, 1.03299, 0.34851, 0.655882, 3, 45.5, 246, 19.4668, 0.0184787, 0, 0, 1, 0, -3.78913e-05, 41450
-10164.1, 225186, -277.52, 2.0821, -916.951, 0.605446, 0.504698, 1.03299, 0.34851, 0.655882, 3, 45.5, 246, 47.3573, 0.238901, 0, 0, 0, 0, -1.54519e-05, 41466
-5808.77, 78617.1, -155.561, 3.30809, -1020.31, -0.0320081, 0.256873, 1.03299, 0.34851, 0.655882, 0.0001, 45.5, 246, 46.4752, 0.17215, 1.02264, 1, 1, 0, -3.39007e-06, 41468
-5808.77, 78617.1, -155.561, 3.30809, -1020.31, -0.0320081, 0.256873, 1.03299, 0.34851, 0.655882, 3, 45.5, 246, 46.4752, 0.17215, 0, 0, 1, 0, -5.67222e-06, 41468
-4321.83, 97350.2, -201.858, 3.60117, -1035.46, 0.0203346, 0.26882, 0.993198, 0.349787, 0.651995, 0.0001, 91, 246, 46.4752, 0.17215, 1.08525, 1, 1, 0, 7.93321e-06, 41468
-2159.32, 117689, -257.088, 3.94895, -1066.64, 0.0832145, 0.298871, 0.958125, 0.351078, 0.648177, 0.0001, 182, 246, 46.4752, 0.17215, 1.48686, 1, 1, 0, 1.6809e-05, 41468
-2159.32, 117689, -257.088, 3.94895, -1066.64, 0.0832145, 0.298871, 0.958125, 0.351078, 0.648177, 3, 182, 246, 46.4752, 0.17215, 1.32274, 1, 1, 0, -1.72777e-05, 41468
-9108.42, 351435, -132.624, 0.823704, -1058.93, 0.00413779, 0.344824, 0.993198, 0.349787, 0.651995, 0.0001, 91, 246, 28.1664, 0.0921729, 0, 0, 1, 0, -4.89609e-06, 41471
-7813.63, 371519, -145.931, 0.857047, -1062.96, 0.00724338, 0.318723, 0.958125, 0.351078, 0.648177, 0.0001, 182, 246, 28.1664, 0.0921729, 0, 0, 1, 0, -1.02099e-05, 41471
-9904.18, 95028.8, -64.183, 2.95277, -694.821, -0.0283407, 0.228637, 1.03299, 0.34851, 0.655882, 0.0001, 45.5, 246, 23.0425, 0.081245, 0, 0, 1, 0, -3.8501e-06, 41474
-9904.18, 95028.8, -64.183, 2.95277, -694.821, -0.0283407, 0.228637, 1.03299, 0.34851, 0.655882, 3, 45.5, 246, 23.0425, 0.081245, 0, 0, 1, 0, -2.96066e-06, 41474
397.07, 446596, -420.115, 2.80349, -896.68, 0.200689, 0.453695, 0.9175, 0.352806, 0.64323, 3, 455, 246, 36.2242, 0.163251, 0, 0, 0, 0, 5.37937e-05, 41475
-7903.81, -6796.94, -3.70122, 2.40251, -776.678, 0.221568, 0.277356, 1.03299, 0.34851, 0.655882, 3, 45.5, 246, 13.3225, 0.0452813, 0, 0, 1, 1, -1.51921e-06, 41480
-6984.13, 55439.2, -101.998, 2.96887, -810.995, 0.255855, 0.246532, 1.03299, 0.34851, 0.655882, 3, 45.5, 246, 36.118, 0.119576, 0, 0, 1, 0, 1.44175e-05, 41489
-2397.47, 109447, -241.996, 4.18898, -1038.27, 0.510206, 0.318591, 0.9175, 0.352806, 0.64323, 0.0001, 455, 246, 36.118, 0.119576, 1.13157, 1, 1, 0, 1.57953e-05, 41489
-2397.47, 109447, -241.996, 4.18898, -1038.27, 0.510206, 0.318591, 0.9175, 0.352806, 0.64323, 3, 455, 246, 36.118, 0.119576, 1.11946, 1, 1, 0, 1.36336e-05, 41489
-11172.5, 214493, -166.157, 1.75119, -750.365, 0.580919, 0.382793, 1.03299, 0.34851, 0.655882, 3, 45.5, 246, 32.3397, 0.151827, 0, 0, 1, 0, 8.02139e-05, 41493
-12256.1, 335361, -429.074, 3.45439, -633.483, 0.216813, 0.475659, 0.993198, 0.349787, 0.651995, 0.0001, 91, 246, 44.0249, 0.214593, 1.01486, 1, 1, 0, -4.35264e-05, 41496
-5171.71, 350847, -493.162, 3.84063, -704, 0.284952, 0.516978, 0.958125, 0.351078, 0.648177, 0.0001, 182, 246, 44.0249, 0.214593, 2.399, 1, 0, 0, 8.52866e-05, 41496
-5171.71, 350847, -493.162, 3.84063, -704, 0.284952, 0.516978, 0.958125, 0.351078, 0.648177, 3, 182, 246, 44.0249, 0.214593, 2.24137, 1, 0, 0, 1.13439e-06, 41496
