-11572, 303199, -54.0062, 0.951666, -814.11, 0.000639653, 0.337577, 1.03299, 0.34851, 0.655882, 0.0001, 45.5, 246, 19.0096, 0.0483079, 0, 0, 1, 0, -5.88388e-06, 134507
-11572, 303199, -54.0062, 0.951666, -814.11, 0.000639653, 0.337577, 1.03299, 0.34851, 0.655882, 3, 45.5, 246, 19.0096, 0.0483079, 0, 0, 1, 0, -5.82349e-07, 134507
-10512.3, 314776, -63.506, 0.993914, -815.961, 0.00479548, 0.305342, 0.993198, 0.349787, 0.651995, 0.0001, 91, 246, 19.0096, 0.0483079, 0, 0, 1, 0, 1.19092e-05, 134507
-6834.16, 519772, -434.113, 0.176844, -1111.57, 0.263175, 0.690986, 1.03299, 0.34851, 0.655882, 0.0001, 45.5, 246, 46.4904, 0.21628, 0, 0, 0, 0, 1316.33, 134510
-6834.16, 519772, -434.113, 0.176844, -1111.57, 0.263175, 0.690986, 1.03299, 0.34851, 0.655882, 3, 45.5, 246, 46.4904, 0.21628, 0, 0, 0, 0, 1318.67, 134510
-12334.7, 317041, -20.1208, 1.00524, -932.16, -0.00465158, 0.327084, 1.03299, 0.34851, 0.655882, 0.0001, 45.5, 246, 17.7853, 0.0235728, 0, 0, 1, 0, 1.51754e-05, 134512
-12334.7, 317041, -20.1208, 1.00524, -932.16, -0.00465158, 0.327084, 1.03299, 0.34851, 0.655882, 3, 45.5, 246, 17.7853, 0.0235728, 0, 0, 1, 0, 7.85942e-06, 134512
-9805, 347212, -39.8698, 1.09564, -933.83, 0.00504196, 0.267195, 0.958125, 0.351078, 0.648177, 0.0001, 182, 246, 17.7853, 0.0235728, 0, 0, 1, 0, -2.39231e-06, 134512
-7709.2, 2149.09, -20.6219, 2.58009, -778.347, -0.031338, 0.267067, 1.03299, 0.34851, 0.655882, 3, 45.5, 246, 19.4628, 0.04964, 0, 0, 1, 1, -2.11809e-05, 134523
-9730.07, 606439, -109.283, 0.337277, -1005.96, -0.000460778, 0.358631, 1.03299, 0.34851, 0.655882, 0.0001, 45.5, 246, 25.7812, 0.0466474, 0, 0, 1, 0, 7.00426e-05, 134524
-9730.07, 606439, -109.283, 0.337277, -1005.96, -0.000460778, 0.358631, 1.03299, 0.34851, 0.655882, 3, 45.5, 246, 25.7812, 0.0466474, 0, 0, 1, 0, 3.1163e-05, 134524
-8942.34, 624384, -116.002, 0.348506, -1006.94, 5.55015e-05, 0.324166, 0.993198, 0.349787, 0.651995, 0.0001, 91, 246, 25.7812, 0.0466474, 0, 0, 1, 0, -7.3863e-05, 134524
-8037.67, 642414, -122.741, 0.359214, -1008.11, 0.000605318, 0.294033, 0.958125, 0.351078, 0.648177, 0.0001, 182, 246, 25.7812, 0.0466474, 0, 0, 1, 0, -0.000195819, 134524
-10186.4, 773228, -137.635, 0.322365, -945.843, -0.00047192, 0.36317, 1.03299, 0.34851, 0.655882, 0.0001, 45.5, 246, 26.169, 0.0461466, 0, 0, 1, 0, 5.73071e-05, 134530
-10186.4, 773228, -137.635, 0.322365, -945.843, -0.00047192, 0.36317, 1.03299, 0.34851, 0.655882, 3, 45.5, 246, 26.169, 0.0461466, 0, 0, 1, 0, -6.5081e-05, 134530
-4778.2, 123408, -299.323, 3.14914, -516.356, 0.802329, 0.330814, 1.03299, 0.34851, 0.655882, 0.0001, 45.5, 246, 53.9838, 0.218289, 1.7017, 1, 0, 0, -3.65762e-05, 134533
-4778.2, 123408, -299.323, 3.14914, -516.356, 0.802329, 0.330814, 1.03299, 0.34851, 0.655882, 3, 45.5, 246, 53.9838, 0.218289, 1.63549, 1, 0, 0, -4.48453e-05, 134533
-2051.66, 136723, -343.575, 3.59428, -624.247, 0.975906, 0.345173, 0.993198, 0.349787, 0.651995, 0.0001, 91, 246, 53.9838, 0.218289, 1.93758, 1, 1, 1, 245.908, 134533
-2051.66, 136723, -343.575, 3.59428, -624.247, 0.975906, 0.345173, 0.993198, 0.349787, 0.651995, 3, 91, 246, 53.9838, 0.218289, 1.84267, 1, 1, 1, 245.983, 134533
1635.54, 156159, -402.125, 4.1806, -783.555, 1.23219, 0.384017, 0.958125, 0.351078, 0.648177, 0.0001, 182, 246, 53.9838, 0.218289, 4.04499, 1, 0, 0, 212.506, 134533
1635.54, 156159, -402.125, 4.1806, -783.555, 1.23219, 0.384017, 0.958125, 0.351078, 0.648177, 3, 182, 246, 53.9838, 0.218289, 3.73414, 1, 0, 0, 212.849, 134533
-6244.18, 76326, -160.019, 2.68733, -570.549, 0.365582, 0.294746, 1.03299, 0.34851, 0.655882, 0.0001, 45.5, 246, 43.8981, 0.169146, 1.05995, 1, 1, 0, 1.21841e-05, 134535
-3648.77, 94570, -221.547, 3.27685, -684.825, 0.501375, 0.302277, 0.958125, 0.351078, 0.648177, 0.0001, 182, 246, 43.8981, 0.169146, 1.06905, 1, 1, 0, -1.83574e-05, 134535
-879.322, 112652, -279.83, 3.81168, -803.461, 0.641309, 0.34279, 0.9175, 0.352806, 0.64323, 0.0001, 455, 246, 43.8981, 0.169146, 1.6032, 1, 1, 0, -2.15546e-05, 134535
-879.322, 112652, -279.83, 3.81168, -803.461, 0.641309, 0.34279, 0.9175, 0.352806, 0.64323, 3, 455, 246, 43.8981, 0.169146, 1.55387, 1, 1, 0, -2.07584e-05, 134535
-8696.52, 106721, -70.4868, 0.142647, -996.182, 0.0291517, 0.397523, 1.03299, 0.34851, 0.655882, 0.0001, 45.5, 246, 27.8232, 0.203919, 0, 0, 1, 0, 6.57902e-05, 134536
-8696.52, 106721, -70.4868, 0.142647, -996.182, 0.0291517, 0.397523, 1.03299, 0.34851, 0.655882, 3, 45.5, 246, 27.8232, 0.203919, 0, 0, 1, 0, -3.58498e-05, 134536
-11785.9, 392865, -346.538, 0.810136, -666.728, 0.030049, 0.625302, 1.03299, 0.34851, 0.655882, 3, 45.5, 246, 40.1039, 0.22699, 0, 0, 0, 0, -1.21191e-05, 134543
-3590.07, 236228, -368.7, 3.53951, -738.565, 0.0571369, 0.425095, 0.958125, 0.351078, 0.648177, 0.0001, 182, 246, 44.8202, 0.21153, 1.39807, 1, 0, 0, 4.81796e-06, 134560
-3590.07, 236228, -368.7, 3.53951, -738.565, 0.0571369, 0.425095, 0.958125, 0.351078, 0.648177, 3, 182, 246, 44.8202, 0.21153, 1.1871, 1, 0, 0, -5.09847e-07, 134560
-9997.15, 233158, -244.725, 1.60136, -946.136, 0.102454, 0.516745, 1.03299, 0.34851, 0.655882, 3, 45.5, 246, 44.8353, 0.238726, 0, 0, 0, 0, 9.06127e-06, 134562
-7112.46, -21513.9, 2.62659, 3.08196, -1058.12, 0.42157, 0.228551, 1.03299, 0.34851, 0.655882, 0.0001, 45.5, 246, 16.1067, 0.0566097, 0, 0, 1, 0, 6.54372e-06, 134570
-7112.46, -21513.9, 2.62659, 3.08196, -1058.12, 0.42157, 0.228551, 1.03299, 0.34851, 0.655882, 3, 45.5, 246, 16.1067, 0.0566097, 0, 0, 1, 0, -7.53241e-06, 134570
-7446.58, -1073.44, -29.7074, 3.42325, -1138.99, 0.501378, 0.232547, 0.993198, 0.349787, 0.651995, 3, 91, 246, 16.1067, 0.0566097, 0, 0, 1, 0, -1.51069e-05, 134570
-6099.25, 362689, -441.763, 3.91819, -777.017, 0.0673941, 0.439016, 0.958125, 0.351078, 0.648177, 0.0001, 182, 246, 41.5631, 0.188529, 1.30379, 1, 0, 0, 7.56764e-06, 134582
-6099.25, 362689, -441.763, 3.91819, -777.017, 0.0673941, 0.439016, 0.958125, 0.351078, 0.648177, 3, 182, 246, 41.5631, 0.188529, 1.16008, 1, 0, 0, 3.69925e-06, 134582
5826.28, 386968, -547.177, 4.51116, -869.379, 0.172998, 0.524253, 0.9175, 0.352806, 0.64323, 0.0001, 455, 246, 41.5631, 0.188529, 0, 0, 0, 0, -9.30675e-06, 134582
5826.28, 386968, -547.177, 4.51116, -869.379, 0.172998, 0.524253, 0.9175, 0.352806, 0.64323, 3, 455, 246, 41.5631, 0.188529, 0, 0, 0, 0, -2.25048e-06, 134582
-8650.35, 7494.2, 8.69232, 1.71279, -886.191, 0.0118928, 0.312754, 1.03299, 0.34851, 0.655882, 3, 45.5, 246, 7.34208, 0.0420009, 0, 0, 1, 1, -1.21701e-05, 134583
-9155.38, 138077, -148.639, 2.88423, -1119.52, -0.0396769, 0.306173, 1.03299, 0.34851, 0.655882, 0.0001, 45.5, 246, 39.8205, 0.166045, 0, 0, 0, 0, -6.378e-06, 134584
-9155.38, 138077, -148.639, 2.88423, -1119.52, -0.0396769, 0.306173, 1.03299, 0.34851, 0.655882, 3, 45.5, 246, 39.8205, 0.166045, 0, 0, 0, 0, -1.59288e-05, 134584
-7151, 160158, -191.515, 3.11627, -1129.31, -0.000126674, 0.308207, 0.993198, 0.349787, 0.651995, 0.0001, 91, 246, 39.8205, 0.166045, 0, 0, 1, 0, 5.31269e-06, 134584
-7151, 160158, -191.515, 3.11627, -1129.31, -0.000126674, 0.308207, 0.993198, 0.349787, 0.651995, 3, 91, 246, 39.8205, 0.166045, 0, 0, 1, 0, 1.11929e-05, 134584
610.476, 218637, -322.603, 3.81418, -1207.41, 0.122697, 0.369151, 0.9175, 0.352806, 0.64323, 0.0001, 455, 246, 39.8205, 0.166045, 0, 0, 0, 0, -2.94656e-06, 134584
610.476, 218637, -322.603, 3.81418, -1207.41, 0.122697, 0.369151, 0.9175, 0.352806, 0.64323, 3, 455, 246, 39.8205, 0.166045, 0, 0, 0, 0, -3.50734e-06, 134584
-3798.98, 640088, -366.664, 0.0370226, -1178.42, 0.205667, 0.514582, 0.993198, 0.349787, 0.651995, 0.0001, 91, 246, 40.0904, 0.147027, 0, 0, 1, 0, 0.000121151, 134585
-7853.3, 615379, -356.232, 0.234473, -940.702, 0.20719, 0.535341, 1.03299, 0.34851, 0.655882, 0.0001, 45.5, 246, 36.793, 0.146589, 0, 0, 0, 0, 6.29736e-05, 134590
-7853.3, 615379, -356.232, 0.234473, -940.702, 0.20719, 0.535341, 1.03299, 0.34851, 0.655882, 3, 45.5, 246, 36.793, 0.146589, 0, 0, 0, 0, -1.64547e-05, 134590
-77.768, 487175, -403.319, 1.57524, -1376.04, 0.741708, 0.51488, 0.9175, 0.352806, 0.64323, 3, 455, 246, 40.9846, 0.193177, 0, 0, 0, 0, 0.000169948, 134594
-9412.51, 817354, -33.4853, 1.54385, -874.402, 0.0520769, 0.228784, 0.9175, 0.352806, 0.64323, 3, 455, 246, 19.1369, 0.00356701, 0, 0, 1, 0, -1.97143e-05, 134595
-10595.2, 833342, -105.227, 0.236787, -672.402, 0.437739, 0.351541, 1.03299, 0.34851, 0.655882, 0.0001, 45.5, 246, 19.1157, 0.0301296, 0, 0, 1, 0, 0.000138978, 134598
-10595.2, 833342, -105.227, 0.236787, -672.402, 0.437739, 0.351541, 1.03299, 0.34851, 0.655882, 3, 45.5, 246, 19.1157, 0.0301296, 0, 0, 1, 0, 7.41447e-05, 134598
-9859.85, 862299, -110.033, 0.250105, -723.1, 0.470547, 0.316289, 0.993198, 0.349787, 0.651995, 3, 91, 246, 19.1157, 0.0301296, 0, 0, 1, 0, 1.56408e-05, 134598
1287.19, 255877, -327.143, 5.26601, -1138.7, 0.541385, 0.332598, 0.9175, 0.352806, 0.64323, 0.0001, 455, 246, 31.1333, 0.107814, 1.23772, 1, 0, 0, 7.34319e-06, 134601
1287.19, 255877, -327.143, 5.26601, -1138.7, 0.541385, 0.332598, 0.9175, 0.352806, 0.64323, 3, 455, 246, 31.1333, 0.107814, 1.68823, 1, 0, 0, -6.57068e-06, 134601
-17127, 519648, -57.2458, 3.98457, -1029.64, 0.0679481, 0.151141, 0.958125, 0.351078, 0.648177, 0.0001, 182, 246, 20.7687, 0.0136177, 0, 0, 0, 0, -1.51816e-05, 134602
-17127, 519648, -57.2458, 3.98457, -1029.64, 0.0679481, 0.151141, 0.958125, 0.351078, 0.648177, 3, 182, 246, 20.7687, 0.0136177, 0, 0, 0, 0, 2.8998e-05, 134602
-8778.16, 48244.8, -31.4182, 2.45466, -724.787, 0.168296, 0.267398, 1.03299, 0.34851, 0.655882, 3, 45.5, 246, 18.9293, 0.0663387, 0, 0, 1, 0, -3.96223e-06, 134605
-8482.63, 102810, -115.134, 1.55252, -1031.65, -0.00713141, 0.39817, 1.03299, 0.34851, 0.655882, 0.0001, 45.5, 246, 38.7318, 0.221318, 0, 0, 1, 0, -1.47373e-05, 134612
-8482.63, 102810, -115.134, 1.55252, -1031.65, -0.00713141, 0.39817, 1.03299, 0.34851, 0.655882, 3, 45.5, 246, 38.7318, 0.221318, 0, 0, 1, 0, 2.53752e-05, 134612
-11069.6, 692905, -159.373, 0.352735, -600.929, 0.110325, 0.373835, 1.03299, 0.34851, 0.655882, 0.0001, 45.5, 246, 20.1432, 0.0586102, 0, 0, 1, 0, -5.79167e-05, 134623
-11069.6, 692905, -159.373, 0.352735, -600.929, 0.110325, 0.373835, 1.03299, 0.34851, 0.655882, 3, 45.5, 246, 20.1432, 0.0586102, 0, 0, 1, 0, 2.2779e-05, 134623
-7571.87, 505294, -392.142, 0.263873, -1048.79, 0.0947252, 0.641081, 1.03299, 0.34851, 0.655882, 0.0001, 45.5, 246, 43.8876, 0.204648, 0, 0, 0, 0, 2.51395e-05, 134624
-7571.87, 505294, -392.142, 0.263873, -1048.79, 0.0947252, 0.641081, 1.03299, 0.34851, 0.655882, 3, 45.5, 246, 43.8876, 0.204648, 0, 0, 0, 0, -2.15288e-05, 134624
-6902.59, 431097, -170.861, 0.030865, -910.767, 0.286267, 0.404733, 1.03299, 0.34851, 0.655882, 0.0001, 45.5, 246, 28.0866, 0.0978272, 7.21854, 1, 1, 0, 6.58082e-06, 134628
-6902.59, 431097, -170.861, 0.030865, -910.767, 0.286267, 0.404733, 1.03299, 0.34851, 0.655882, 3, 45.5, 246, 28.0866, 0.0978272, 7.10703, 1, 1, 0, 2.93365e-05, 134628
-10389.5, 128910, -11.7922, 3.33177, -1083.79, 0.816903, 0.195888, 0.993198, 0.349787, 0.651995, 0.0001, 91, 246, 14.3014, 0.0274251, 0, 0, 1, 0, -1.59532e-05, 134633
-10389.5, 128910, -11.7922, 3.33177, -1083.79, 0.816903, 0.195888, 0.993198, 0.349787, 0.651995, 3, 91, 246, 14.3014, 0.0274251, 0, 0, 1, 0, 4.57609e-05, 134633
-8342.42, 158981, -50.7031, 3.79921, -1253.21, 1.00201, 0.214562, 0.958125, 0.351078, 0.648177, 0.0001, 182, 246, 14.3014, 0.0274251, 0, 0, 1, 0, 1.55491e-05, 134633
-8342.42, 158981, -50.7031, 3.79921, -1253.21, 1.00201, 0.214562, 0.958125, 0.351078, 0.648177, 3, 182, 246, 14.3014, 0.0274251, 0, 0, 1, 0, 1.57083e-05, 134633
-6930.25, 61768, -96.1691, 3.72269, -1072.82, 0.134182, 0.209165, 0.993198, 0.349787, 0.651995, 3, 91, 246, 28.6074, 0.0893733, 0, 0, 1, 0, -9.92512e-06, 134637
-5698.2, 83170.6, -144.497, 4.1114, -1114.3, 0.205926, 0.240523, 0.958125, 0.351078, 0.648177, 3, 182, 246, 28.6074, 0.0893733, 0, 0, 1, 0, -6.04952e-06, 134637
-10416.3, 147300, -80.4388, 2.16737, -1189.71, -0.00682476, 0.312862, 1.03299, 0.34851, 0.655882, 0.0001, 45.5, 246, 29.3556, 0.111231, 0, 0, 1, 0, 4.38417e-06, 134639
-10416.3, 147300, -80.4388, 2.16737, -1189.71, -0.00682476, 0.312862, 1.03299, 0.34851, 0.655882, 3, 45.5, 246, 29.3556, 0.111231, 0, 0, 1, 0, 1.34581e-05, 134639
-10430.8, 240005, -276.53, 1.91289, -966.082, 0.820559, 0.507558, 1.03299, 0.34851, 0.655882, 0.0001, 45.5, 246, 45.9545, 0.227281, 0, 0, 0, 0, -7.26894e-05, 134644
-10430.8, 240005, -276.53, 1.91289, -966.082, 0.820559, 0.507558, 1.03299, 0.34851, 0.655882, 3, 45.5, 246, 45.9545, 0.227281, 0, 0, 0, 0, 1.11934e-05, 134644
-10540, 265688, -234.47, 1.20591, -763.947, -0.00675406, 0.505077, 1.03299, 0.34851, 0.655882, 0.0001, 45.5, 246, 38.9657, 0.214123, 0, 0, 0, 0, 1.59849e-05, 134647
-10540, 265688, -234.47, 1.20591, -763.947, -0.00675406, 0.505077, 1.03299, 0.34851, 0.655882, 3, 45.5, 246, 38.9657, 0.214123, 0, 0, 0, 0, -1.57728e-05, 134647
-8838.59, 276827, -255.692, 1.27078, -771.521, -2.09424e-05, 0.489213, 0.993198, 0.349787, 0.651995, 3, 91, 246, 38.9657, 0.214123, 0, 0, 1, 0, 7.26534e-06, 134647
-9834.3, 473384, -144.143, 0.416383, -818.057, 0.752967, 0.376035, 1.03299, 0.34851, 0.655882, 0.0001, 45.5, 246, 24.4404, 0.0692716, 0, 0, 1, 0, 6.89261e-05, 134648
-9834.3, 473384, -144.143, 0.416383, -818.057, 0.752967, 0.376035, 1.03299, 0.34851, 0.655882, 3, 45.5, 246, 24.4404, 0.0692716, 0, 0, 1, 0, 2.43971e-06, 134648
-8966.62, 507778, -152.621, 0.449742, -930.403, 0.855592, 0.343194, 0.993198, 0.349787, 0.651995, 0.0001, 91, 246, 24.4404, 0.0692716, 0, 0, 1, 0, -0.000102513, 134648
-7308.15, 57197, -100.247, 3.31665, -656.434, -0.0350669, 0.204731, 1.03299, 0.34851, 0.655882, 0.0001, 45.5, 246, 32.4712, 0.0976684, 0, 0, 1, 0, -2.00979e-06, 134649
-7308.15, 57197, -100.247, 3.31665, -656.434, -0.0350669, 0.204731, 1.03299, 0.34851, 0.655882, 3, 45.5, 246, 32.4712, 0.0976684, 0, 0, 1, 0, 7.45702e-06, 134649
-9709.29, 293669, -396.598, 3.66726, -756.085, 0.0107711, 0.429932, 0.993198, 0.349787, 0.651995, 0.0001, 91, 246, 46.7748, 0.215737, 1.15216, 1, 1, 0, -1.13836e-07, 134652
-9709.29, 293669, -396.598, 3.66726, -756.085, 0.0107711, 0.429932, 0.993198, 0.349787, 0.651995, 3, 91, 246, 46.7748, 0.215737, 1.02944, 1, 1, 0, 1.18533e-05, 134652
-3194.47, 307797, -463.879, 4.04313, -804.897, 0.0761937, 0.474483, 0.958125, 0.351078, 0.648177, 0.0001, 182, 246, 46.7748, 0.215737, 4.0065, 1, 0, 0, 1.06243e-05, 134652
-3194.47, 307797, -463.879, 4.04313, -804.897, 0.0761937, 0.474483, 0.958125, 0.351078, 0.648177, 3, 182, 246, 46.7748, 0.215737, 3.51868, 1, 0, 0, 8.78582e-06, 134652
-2665.15, 103463, -233.59, 3.33521, -809.595, 0.193713, 0.323954, 0.9175, 0.352806, 0.64323, 0.0001, 455, 246, 41.344, 0.165559, 1.03076, 1, 1, 0, -1.21968e-05, 134653
-2665.15, 103463, -233.59, 3.33521, -809.595, 0.193713, 0.323954, 0.9175, 0.352806, 0.64323, 3, 455, 246, 41.344, 0.165559, 1.03726, 1, 1, 0, 7.70488e-07, 134653
-11239.6, 179254, -93.7511, 1.98365, -823.986, 0.0509843, 0.319846, 1.03299, 0.34851, 0.655882, 0.0001, 45.5, 246, 26.1425, 0.106348, 0, 0, 1, 0, 3.56607e-06, 134654
-11239.6, 179254, -93.7511, 1.98365, -823.986, 0.0509843, 0.319846, 1.03299, 0.34851, 0.655882, 3, 45.5, 246, 26.1425, 0.106348, 0, 0, 1, 0, -9.18129e-06, 134654
-7290.22, 7374.59, -15.9668, 3.47153, -1163.01, 0.125354, 0.189096, 1.03299, 0.34851, 0.655882, 0.0001, 45.5, 246, 22.1034, 0.0700106, 0, 0, 1, 0, 1.72545e-05, 134655
-7290.22, 7374.59, -15.9668, 3.47153, -1163.01, 0.125354, 0.189096, 1.03299, 0.34851, 0.655882, 3, 45.5, 246, 22.1034, 0.0700106, 0, 0, 1, 0, -1.36612e-05, 134655
-10021.8, 158747, -102.934, 3.12459, -764.241, 0.322167, 0.230217, 0.993198, 0.349787, 0.651995, 0.0001, 91, 246, 23.2597, 0.081963, 0, 0, 1, 0, -1.18141e-05, 134656
-10021.8, 158747, -102.934, 3.12459, -764.241, 0.322167, 0.230217, 0.993198, 0.349787, 0.651995, 3, 91, 246, 23.2597, 0.081963, 0, 0, 1, 0, -9.7546e-06, 134656
-7710.59, 172544, -135.165, 3.44756, -818.801, 0.389367, 0.242355, 0.958125, 0.351078, 0.648177, 0.0001, 182, 246, 23.2597, 0.081963, 0, 0, 1, 0, -1.72608e-05, 134656
-7710.59, 172544, -135.165, 3.44756, -818.801, 0.389367, 0.242355, 0.958125, 0.351078, 0.648177, 3, 182, 246, 23.2597, 0.081963, 0, 0, 1, 0, -4.27366e-05, 134656
-12468.9, 510034, -38.5909, 0.533437, -527.305, 0.78285, 0.337954, 1.03299, 0.34851, 0.655882, 0.0001, 45.5, 246, 13.0511, 0.0181385, 0, 0, 1, 0, -3.75306e-05, 134661
-12468.9, 510034, -38.5909, 0.533437, -527.305, 0.78285, 0.337954, 1.03299, 0.34851, 0.655882, 3, 45.5, 246, 13.0511, 0.0181385, 0, 0, 1, 0, 9.78686e-05, 134661
-10608.3, 216709, -73.422, 1.24259, -1087.52, 0.000922172, 0.345183, 1.03299, 0.34851, 0.655882, 0.0001, 45.5, 246, 25.2844, 0.0844181, 0, 0, 1, 0, -1.08103e-05, 134663
-10608.3, 216709, -73.422, 1.24259, -1087.52, 0.000922172, 0.345183, 1.03299, 0.34851, 0.655882, 3, 45.5, 246, 25.2844, 0.0844181, 0, 0, 1, 0, -7.87492e-06, 134663
-9547.47, 237479, -89.5719, 1.30507, -1091.01, 0.00804854, 0.316569, 0.993198, 0.349787, 0.651995, 0.0001, 91, 246, 25.2844, 0.0844181, 0, 0, 1, 0, -1.80948e-05, 134663
-11636.7, 160109, -86.9734, 2.67745, -902.588, 0.041813, 0.263672, 1.03299, 0.34851, 0.655882, 0.0001, 45.5, 246, 26.9378, 0.0982855, 0, 0, 1, 0, -1.41605e-05, 134669
-11636.7, 160109, -86.9734, 2.67745, -902.588, 0.041813, 0.263672, 1.03299, 0.34851, 0.655882, 3, 45.5, 246, 26.9378, 0.0982855, 0, 0, 1, 0, -7.11079e-06, 134669
-11649, 240607, -343.841, 3.43297, -930.444, 0.764188, 0.379906, 1.03299, 0.34851, 0.655882, 0.0001, 45.5, 246, 50.8799, 0.216371, 1.05449, 1, 0, 0, 4.55915e-06, 134678
-6540.32, 271894, -411.383, 3.9375, -1102.37, 0.936849, 0.408026, 0.993198, 0.349787, 0.651995, 0.0001, 91, 246, 50.8799, 0.216371, 1.4519, 1, 1, 0, -3.49831e-05, 134678
-6540.32, 271894, -411.383, 3.9375, -1102.37, 0.936849, 0.408026, 0.993198, 0.349787, 0.651995, 3, 91, 246, 50.8799, 0.216371, 1.35947, 1, 1, 0, -6.44258e-06, 134678
-8371.42, 654398, -208.094, 0.217869, -858.448, 0.409765, 0.399747, 1.03299, 0.34851, 0.655882, 0.0001, 45.5, 246, 27.3804, 0.0762359, 0, 0, 1, 0, 0.00017579, 134679
-8371.42, 654398, -208.094, 0.217869, -858.448, 0.409765, 0.399747, 1.03299, 0.34851, 0.655882, 3, 45.5, 246, 27.3804, 0.0762359, 0, 0, 1, 0, -1.05316e-05, 134679
-7540.25, 683946, -216.59, 0.229983, -919.192, 0.43837, 0.36812, 0.993198, 0.349787, 0.651995, 0.0001, 91, 246, 27.3804, 0.0762359, 0, 0, 1, 0, 1.41217e-05, 134679
-10042.5, 375169, -184.546, 0.482239, -605.542, 0.821028, 0.41392, 1.03299, 0.34851, 0.655882, 0.0001, 45.5, 246, 24.7561, 0.110776, 0, 0, 1, 0, -2.39441e-05, 134687
-11507.9, 330971, -277.068, 1.52734, -1060.87, 0.173418, 0.516277, 1.03299, 0.34851, 0.655882, 0.0001, 45.5, 246, 42.9339, 0.199329, 0, 0, 0, 0, -7.4136e-06, 134692
-11507.9, 330971, -277.068, 1.52734, -1060.87, 0.173418, 0.516277, 1.03299, 0.34851, 0.655882, 3, 45.5, 246, 42.9339, 0.199329, 0, 0, 0, 0, -1.49686e-05, 134692
-11609.4, 367035, -90.625, 0.781691, -617.087, -0.00225398, 0.353383, 1.03299, 0.34851, 0.655882, 0.0001, 45.5, 246, 18.6988, 0.0637718, 0, 0, 1, 0, 3.64871e-05, 134698
-11609.4, 367035, -90.625, 0.781691, -617.087, -0.00225398, 0.353383, 1.03299, 0.34851, 0.655882, 3, 45.5, 246, 18.6988, 0.0637718, 0, 0, 1, 0, -2.53779e-06, 134698
-10528.8, 373726, -98.8003, 0.814075, -618.992, 0.000541236, 0.320891, 0.993198, 0.349787, 0.651995, 3, 91, 246, 18.6988, 0.0637718, 0, 0, 1, 0, -2.08181e-05, 134698
-9299.52, 380562, -107.29, 0.846161, -621.444, 0.00356722, 0.293094, 0.958125, 0.351078, 0.648177, 0.0001, 182, 246, 18.6988, 0.0637718, 0, 0, 1, 0, 1.41802e-05, 134698
-9299.52, 380562, -107.29, 0.846161, -621.444, 0.00356722, 0.293094, 0.958125, 0.351078, 0.648177, 3, 182, 246, 18.6988, 0.0637718, 0, 0, 1, 0, -2.2147e-06, 134698
-5265.16, 102469, -226.638, 2.52563, -581.442, 0.322996, 0.384801, 1.03299, 0.34851, 0.655882, 0.0001, 45.5, 246, 54.2533, 0.248895, 1.40211, 1, 1, 0, -1.74046e-05, 134700
-5265.16, 102469, -226.638, 2.52563, -581.442, 0.322996, 0.384801, 1.03299, 0.34851, 0.655882, 3, 45.5, 246, 54.2533, 0.248895, 1.23303, 1, 1, 0, 6.7542e-05, 134700
-3632.17, 111692, -258.711, 2.77059, -631.567, 0.372785, 0.383644, 0.993198, 0.349787, 0.651995, 0.0001, 91, 246, 54.2533, 0.248895, 1.45033, 1, 1, 0, 1.68577e-05, 134700
-3632.17, 111692, -258.711, 2.77059, -631.567, 0.372785, 0.383644, 0.993198, 0.349787, 0.651995, 3, 91, 246, 54.2533, 0.248895, 1.28738, 1, 1, 0, -2.57623e-05, 134700
-1527.05, 123101, -297.058, 3.05722, -695.046, 0.435692, 0.395604, 0.958125, 0.351078, 0.648177, 0.0001, 182, 246, 54.2533, 0.248895, 1.78484, 1, 1, 0, -3.81755e-05, 134700
-1527.05, 123101, -297.058, 3.05722, -695.046, 0.435692, 0.395604, 0.958125, 0.351078, 0.648177, 3, 182, 246, 54.2533, 0.248895, 1.63858, 1, 1, 0, -3.26365e-05, 134700
-4670.76, 495735, -386.397, 0.106064, -1198.51, 0.0972978, 0.626712, 0.993198, 0.349787, 0.651995, 0.0001, 91, 246, 45.6224, 0.211965, 0, 0, 1, 0, -1366.94, 134702
-10646, 201421, -87.0161, 1.4019, -1057.26, 0.588217, 0.345498, 1.03299, 0.34851, 0.655882, 3, 45.5, 246, 26.9789, 0.0955191, 0, 0, 1, 0, 5.15552e-05, 134703
-9448.26, 230111, -106.331, 1.52621, -1170.4, 0.658864, 0.319257, 0.993198, 0.349787, 0.651995, 0.0001, 91, 246, 26.9789, 0.0955191, 0, 0, 1, 0, 2.72727e-05, 134703
-7800.09, 266242, -129.823, 1.66827, -1312.85, 0.747931, 0.299763, 0.958125, 0.351078, 0.648177, 3, 182, 246, 26.9789, 0.0955191, 0, 0, 1, 0, 4.21593e-06, 134703
-8269.45, 11677.1, -6.831, 2.43727, -1094.93, 0.220858, 0.275722, 1.03299, 0.34851, 0.655882, 0.0001, 45.5, 246, 17.2315, 0.0681253, 0, 0, 1, 0, 1.02556e-06, 134704
-8269.45, 11677.1, -6.831, 2.43727, -1094.93, 0.220858, 0.275722, 1.03299, 0.34851, 0.655882, 3, 45.5, 246, 17.2315, 0.0681253, 0, 0, 1, 0, -1.55216e-05, 134704
-11489.3, 170895, -70.5706, 1.92212, -758.213, 0.662604, 0.303623, 1.03299, 0.34851, 0.655882, 0.0001, 45.5, 246, 22.013, 0.0796122, 0, 0, 1, 0, 7.90828e-06, 134706
-11489.3, 170895, -70.5706, 1.92212, -758.213, 0.662604, 0.303623, 1.03299, 0.34851, 0.655882, 3, 45.5, 246, 22.013, 0.0796122, 0, 0, 1, 0, -2.37486e-06, 134706
-10118.3, 188680, -89.682, 2.1206, -852.622, 0.76012, 0.283203, 0.993198, 0.349787, 0.651995, 3, 91, 246, 22.013, 0.0796122, 0, 0, 1, 0, 8.48867e-05, 134706
-7128.46, -6156.65, -46.2522, 3.45161, -1003.52, 0.0527875, 0.235396, 0.993198, 0.349787, 0.651995, 3, 91, 246, 21.7798, 0.0299985, 0, 0, 1, 1, 1.12882e-05, 134709
-8857.81, 555980, -393.66, 0.27634, -858.796, 0.49148, 0.593174, 1.03299, 0.34851, 0.655882, 3, 45.5, 246, 38.063, 0.172669, 0, 0, 0, 0, -2.19255e-05, 134716
-8714.04, 267458, -376.177, 3.87688, -783.574, 0.00330842, 0.38174, 0.993198, 0.349787, 0.651995, 0.0001, 91, 246, 46.8355, 0.208285, 1.23758, 1, 1, 0, -2.37974e-06, 134723
-8714.04, 267458, -376.177, 3.87688, -783.574, 0.00330842, 0.38174, 0.993198, 0.349787, 0.651995, 3, 91, 246, 46.8355, 0.208285, 1.12295, 1, 1, 0, 8.78002e-06, 134723
-2481.13, 281985, -445.229, 4.28508, -832.544, 0.0765279, 0.430571, 0.958125, 0.351078, 0.648177, 0.0001, 182, 246, 46.8355, 0.208285, 4.64465, 1, 0, 0, -3.83944e-06, 134723
-2481.13, 281985, -445.229, 4.28508, -832.544, 0.0765279, 0.430571, 0.958125, 0.351078, 0.648177, 3, 182, 246, 46.8355, 0.208285, 3.93001, 1, 0, 0, -9.4786e-06, 134723
-12239.2, 922554, -65.9682, 0.299275, -768.197, 0.528098, 0.34304, 1.03299, 0.34851, 0.655882, 0.0001, 45.5, 246, 20.1837, 0.017149, 0, 0, 1, 0, 0.000158518, 134725
-8814.19, 370242, -297.045, 0.62078, -1050.49, 0.369012, 0.562388, 1.03299, 0.34851, 0.655882, 0.0001, 45.5, 246, 41.8903, 0.201141, 0, 0, 0, 0, 9.01345e-05, 134726
-8814.19, 370242, -297.045, 0.62078, -1050.49, 0.369012, 0.562388, 1.03299, 0.34851, 0.655882, 3, 45.5, 246, 41.8903, 0.201141, 0, 0, 0, 0, -4.57667e-05, 134726
-7164.53, 400210, -316.525, 0.661601, -1121.04, 0.393777, 0.546826, 0.993198, 0.349787, 0.651995, 3, 91, 246, 41.8903, 0.201141, 0, 0, 1, 0, 6.09975e-05, 134726
-8589.37, 681851, -279.82, 0.162998, -698.235, 0.000364008, 0.451915, 1.03299, 0.34851, 0.655882, 0.0001, 45.5, 246, 27.7166, 0.106683, 0, 0, 0, 0, 0.000123259, 134730
-8589.37, 681851, -279.82, 0.162998, -698.235, 0.000364008, 0.451915, 1.03299, 0.34851, 0.655882, 3, 45.5, 246, 27.7166, 0.106683, 0, 0, 0, 0, 0.000364166, 134730
-7614.81, 691844, -290.01, 0.168336, -699.526, 0.000484549, 0.424461, 0.993198, 0.349787, 0.651995, 3, 91, 246, 27.7166, 0.106683, 0, 0, 1, 0, 6.12572e-05, 134730
-10047.9, 448002, -177.332, 0.414537, -603.92, -0.000696082, 0.407112, 1.03299, 0.34851, 0.655882, 0.0001, 45.5, 246, 23.7589, 0.102786, 0, 0, 1, 0, 8.62378e-06, 134734
-10047.9, 448002, -177.332, 0.414537, -603.92, -0.000696082, 0.407112, 1.03299, 0.34851, 0.655882, 3, 45.5, 246, 23.7589, 0.102786, 0, 0, 1, 0, 1.19292e-06, 134734
-9192.25, 454927, -186.018, 0.429502, -605.91, 8.59434e-05, 0.376653, 0.993198, 0.349787, 0.651995, 0.0001, 91, 246, 23.7589, 0.102786, 0, 0, 1, 0, -4.07862e-05, 134734
-8667.5, 613304, -264.5, 0.219972, -751.164, 0.040821, 0.450743, 1.03299, 0.34851, 0.655882, 0.0001, 45.5, 246, 28.8665, 0.111518, 0, 0, 0, 0, 2.00016e-05, 134749
-8667.5, 613304, -264.5, 0.219972, -751.164, 0.040821, 0.450743, 1.03299, 0.34851, 0.655882, 3, 45.5, 246, 28.8665, 0.111518, 0, 0, 0, 0, 3.14191e-05, 134749
536.074, 308532, -372.785, 3.07844, -1045.49, 0.436269, 0.437444, 0.9175, 0.352806, 0.64323, 3, 455, 246, 39.5774, 0.187332, 0, 0, 0, 0, 3.13965e-05, 134750
-11589, 297061, -164.344, 1.1393, -631.359, -0.000423675, 0.403431, 1.03299, 0.34851, 0.655882, 0.0001, 45.5, 246, 27.4277, 0.134083, 0, 0, 1, 0, -4.40589e-06, 134764
-11589, 297061, -164.344, 1.1393, -631.359, -0.000423675, 0.403431, 1.03299, 0.34851, 0.655882, 3, 45.5, 246, 27.4277, 0.134083, 0, 0, 1, 0, -9.11418e-06, 134764
-8365.38, 312210, -194.863, 1.25438, -643.819, 0.0121654, 0.357948, 0.958125, 0.351078, 0.648177, 0.0001, 182, 246, 27.4277, 0.134083, 0, 0, 1, 0, 5.85672e-06, 134764
-12035.5, 178108, 4.66944, 1.75447, -1112.6, -0.0143566, 0.295648, 1.03299, 0.34851, 0.655882, 0.0001, 45.5, 246, 16.4055, 0.0232044, 0, 0, 1, 0, -6.17568e-06, 134769
-12035.5, 178108, 4.66944, 1.75447, -1112.6, -0.0143566, 0.295648, 1.03299, 0.34851, 0.655882, 3, 45.5, 246, 16.4055, 0.0232044, 0, 0, 1, 0, 8.14582e-07, 134769
-10770, -92531.5, -20.8533, 0.250885, -986.151, 0.627003, 0.372058, 1.03299, 0.34851, 0.655882, 0.0001, 45.5, 246, -42.2752, 0.211324, 0, 0, 1, 0, 9.40856e-06, 134776
-10770, -92531.5, -20.8533, 0.250885, -986.151, 0.627003, 0.372058, 1.03299, 0.34851, 0.655882, 3, 45.5, 246, -42.2752, 0.211324, 0, 0, 1, 0, 1.74482e-05, 134776
-10415.5, 369756, -322.274, 0.829783, -880.651, 0.0258324, 0.606482, 1.03299, 0.34851, 0.655882, 0.0001, 45.5, 246, 42.7539, 0.226547, 0, 0, 0, 0, -3.14511e-05, 134777
-10415.5, 369756, -322.274, 0.829783, -880.651, 0.0258324, 0.606482, 1.03299, 0.34851, 0.655882, 3, 45.5, 246, 42.7539, 0.226547, 0, 0, 0, 0, 1.99372e-05, 134777
11275.6, 444752, -633.014, 4.16325, -1416.76, 0.487725, 0.6487, 0.9175, 0.352806, 0.64323, 0.0001, 455, 246, 50.8211, 0.2281, 0, 0, 0, 0, 1.3305e-05, 134783
11275.6, 444752, -633.014, 4.16325, -1416.76, 0.487725, 0.6487, 0.9175, 0.352806, 0.64323, 3, 455, 246, 50.8211, 0.2281, 0, 0, 0, 0, 1.32155e-05, 134783
-11856.4, 486139, -74.7393, 0.630059, -971.521, 0.575315, 0.345166, 1.03299, 0.34851, 0.655882, 0.0001, 45.5, 246, 23.3793, 0.0378332, 0, 0, 1, 0, 4.32268e-05, 134795
-11856.4, 486139, -74.7393, 0.630059, -971.521, 0.575315, 0.345166, 1.03299, 0.34851, 0.655882, 3, 45.5, 246, 23.3793, 0.0378332, 0, 0, 1, 0, -1.88356e-05, 134795
-9164.66, 561879, -93.6969, 0.725436, -1191.55, 0.708102, 0.281775, 0.958125, 0.351078, 0.648177, 3, 182, 246, 23.3793, 0.0378332, 0, 0, 1, 0, 3.1748e-05, 134795
-12860.4, 293653, -180.051, 3.75584, -1180.91, 0.421015, 0.207275, 0.993198, 0.349787, 0.651995, 0.0001, 91, 246, 32.3559, 0.0992073, 0, 0, 1, 0, 6.51253e-05, 134796
-12860.4, 293653, -180.051, 3.75584, -1180.91, 0.421015, 0.207275, 0.993198, 0.349787, 0.651995, 3, 91, 246, 32.3559, 0.0992073, 0, 0, 1, 0, -5.063e-05, 134796
-9837.44, 583521, -476.801, 0.0137824, -639.138, 0.126231, 0.717191, 1.03299, 0.34851, 0.655882, 3, 45.5, 246, 38.6462, 0.214275, 0, 0, 0, 0, 2.4707e-06, 134797
-6037.15, 615197, -512.541, 0.015013, -666.078, 0.131478, 0.720909, 0.958125, 0.351078, 0.648177, 3, 182, 246, 38.6462, 0.214275, 0, 0, 0, 0, -7.68787e-07, 134797
-6938.52, 359796, -314.533, 0.719432, -1172.09, 0.0194508, 0.583611, 0.993198, 0.349787, 0.651995, 0.0001, 91, 246, 45.6849, 0.232557, 0, 0, 1, 0, -1.63017e-05, 134804
-9312.67, 168540, -185.322, 2.41279, -1077.37, -0.0273494, 0.3884, 1.03299, 0.34851, 0.655882, 0.0001, 45.5, 246, 43.129, 0.201699, 0, 0, 0, 0, -6.87069e-06, 134805
-9312.67, 168540, -185.322, 2.41279, -1077.37, -0.0273494, 0.3884, 1.03299, 0.34851, 0.655882, 3, 45.5, 246, 43.129, 0.201699, 0, 0, 0, 0, -1.48774e-05, 134805
389.592, 243890, -336.488, 3.09781, -1152.72, 0.0827927, 0.415793, 0.9175, 0.352806, 0.64323, 3, 455, 246, 43.129, 0.201699, 0, 0, 0, 0, -8.04987e-07, 134805
-11363.1, 232605, -113.892, 1.39506, -713.144, 0.305322, 0.357218, 1.03299, 0.34851, 0.655882, 0.0001, 45.5, 246, 25.0895, 0.108348, 0, 0, 1, 0, -2.48405e-05, 134812
-3425.96, 82299.2, -205.186, 3.52425, -964.502, 0.153556, 0.283626, 0.958125, 0.351078, 0.648177, 0.0001, 182, 246, 45.4871, 0.150044, 1.08287, 1, 1, 0, 7.34289e-07, 134815
-750.776, 107873, -276.682, 4.01417, -1036.94, 0.243835, 0.332564, 0.9175, 0.352806, 0.64323, 0.0001, 455, 246, 45.4871, 0.150044, 1.89248, 1, 1, 0, -1.31633e-05, 134815
-750.776, 107873, -276.682, 4.01417, -1036.94, 0.243835, 0.332564, 0.9175, 0.352806, 0.64323, 3, 455, 246, 45.4871, 0.150044, 1.83885, 1, 1, 1, -5.98417e-06, 134815
-8463.88, 696.096, 1.9493, 1.63318, -701.606, -0.00988134, 0.316007, 1.03299, 0.34851, 0.655882, 0.0001, 45.5, 246, 7.85793, 0.0442665, 0, 0, 1, 1, 3.22857e-06, 134816
-8463.88, 696.096, 1.9493, 1.63318, -701.606, -0.00988134, 0.316007, 1.03299, 0.34851, 0.655882, 3, 45.5, 246, 7.85793, 0.0442665, 0, 0, 1, 1, -6.05988e-06, 134816
-9575.55, 187853, -203.795, 2.25005, -1097.27, 0.227542, 0.418288, 1.03299, 0.34851, 0.655882, 3, 45.5, 246, 44.044, 0.208429, 0, 0, 0, 0, 2.01949e-05, 134821
-6830.04, 268924, -381.161, 3.79084, -1055.81, -0.000152216, 0.421071, 0.993198, 0.349787, 0.651995, 0.0001, 91, 246, 51.4411, 0.223622, 1.2431, 1, 1, 0, 4.43921e-07, 134826
-6830.04, 268924, -381.161, 3.79084, -1055.81, -0.000152216, 0.421071, 0.993198, 0.349787, 0.651995, 3, 91, 246, 51.4411, 0.223622, 1.12146, 1, 1, 0, 1.8722e-06, 134826
-13260.7, 176918, -79.7836, 3.34614, -1057.17, -0.0400463, 0.19123, 1.03299, 0.34851, 0.655882, 0.0001, 45.5, 246, 27.8946, 0.0876161, 0, 0, 0, 0, -7.67333e-06, 134829
-13260.7, 176918, -79.7836, 3.34614, -1057.17, -0.0400463, 0.19123, 1.03299, 0.34851, 0.655882, 3, 45.5, 246, 27.8946, 0.0876161, 0, 0, 0, 0, -2.65923e-06, 134829
-10592, 195937, -120.618, 3.63709, -1064.01, 0.0134497, 0.200312, 0.993198, 0.349787, 0.651995, 0.0001, 91, 246, 27.8946, 0.0876161, 0, 0, 1, 0, -1.17169e-06, 134829
-10592, 195937, -120.618, 3.63709, -1064.01, 0.0134497, 0.200312, 0.993198, 0.349787, 0.651995, 3, 91, 246, 27.8946, 0.0876161, 0, 0, 1, 0, -4.74307e-06, 134829
-11902.9, 211337, -302.758, 2.98247, -539.354, 0.77733, 0.369853, 1.03299, 0.34851, 0.655882, 0.0001, 45.5, 246, 42.6995, 0.197932, 1.001, 1, 0, 0, 5.73474e-05, 134831
-8197.04, 228608, -346.265, 3.39087, -646.163, 0.936944, 0.38169, 0.993198, 0.349787, 0.651995, 0.0001, 91, 246, 42.6995, 0.197932, 1.08205, 1, 1, 0, -9.08509e-05, 134831
-3282.46, 253024, -403.056, 3.92136, -801.151, 1.16857, 0.415406, 0.958125, 0.351078, 0.648177, 0.0001, 182, 246, 42.6995, 0.197932, 1.78958, 1, 0, 0, 5.50721e-05, 134831
-3282.46, 253024, -403.056, 3.92136, -801.151, 1.16857, 0.415406, 0.958125, 0.351078, 0.648177, 3, 182, 246, 42.6995, 0.197932, 1.62682, 1, 0, 0, 4.5777e-05, 134831
-8693.98, 45666.9, -44.3788, 0.833097, -722.754, 0.0940167, 0.364859, 1.03299, 0.34851, 0.655882, 0.0001, 45.5, 246, 27.7086, 0.223587, 0, 0, 1, 1, -9.44379e-06, 134842
-8565.7, 157181, -243.856, 3.32685, -697.864, -0.00979226, 0.30705, 1.03299, 0.34851, 0.655882, 0.0001, 45.5, 246, 46.393, 0.199212, 1.13202, 1, 0, 0, 1.64696e-06, 134847
-5660.21, 166975, -288.656, 3.63246, -724.017, 0.0433399, 0.323188, 0.993198, 0.349787, 0.651995, 0.0001, 91, 246, 46.393, 0.199212, 1.19596, 1, 1, 0, 2.465e-06, 134847
-5660.21, 166975, -288.656, 3.63246, -724.017, 0.0433399, 0.323188, 0.993198, 0.349787, 0.651995, 3, 91, 246, 46.393, 0.199212, 1.03373, 1, 1, 0, 1.37577e-05, 134847
-1997.16, 178831, -342.386, 3.99698, -764.407, 0.108003, 0.358212, 0.958125, 0.351078, 0.648177, 0.0001, 182, 246, 46.393, 0.199212, 1.81199, 1, 0, 0, -5.14614e-06, 134847
-1997.16, 178831, -342.386, 3.99698, -764.407, 0.108003, 0.358212, 0.958125, 0.351078, 0.648177, 3, 182, 246, 46.393, 0.199212, 1.63164, 1, 0, 0, -1.07052e-05, 134847
-6855.25, 751750, -410.421, 0.0358491, -860.467, 0.399745, 0.544066, 1.03299, 0.34851, 0.655882, 0.0001, 45.5, 246, 34.8191, 0.132426, 0, 0, 0, 0, -6.15645e-05, 134849
-6855.25, 751750, -410.421, 0.0358491, -860.467, 0.399745, 0.544066, 1.03299, 0.34851, 0.655882, 3, 45.5, 246, 34.8191, 0.132426, 0, 0, 0, 0, 1.85453e-05, 134849
-10278.4, 379555, -26.2569, 0.981897, -695.203, 0.0119158, 0.266298, 0.958125, 0.351078, 0.648177, 0.0001, 182, 246, 13.6894, 0.0142744, 0, 0, 1, 0, 1.07031e-05, 134851
-9122.29, 53640.7, -22.3779, 3.52927, -569.017, 0.329241, 0.149722, 1.03299, 0.34851, 0.655882, 0.0001, 45.5, 246, 14.5042, 0.0386544, 0, 0, 1, 0, -7.105e-06, 134854
-9122.29, 53640.7, -22.3779, 3.52927, -569.017, 0.329241, 0.149722, 1.03299, 0.34851, 0.655882, 3, 45.5, 246, 14.5042, 0.0386544, 0, 0, 1, 0, -1.03937e-05, 134854
-8374.63, 60239.9, -44.4393, 3.92626, -606.477, 0.411635, 0.1641, 0.993198, 0.349787, 0.651995, 0.0001, 91, 246, 14.5042, 0.0386544, 0, 0, 1, 0, -6.18593e-06, 134854
-8374.63, 60239.9, -44.4393, 3.92626, -606.477, 0.411635, 0.1641, 0.993198, 0.349787, 0.651995, 3, 91, 246, 14.5042, 0.0386544, 0, 0, 1, 0, 1.08678e-05, 134854
-7334.33, 68297, -72.9923, 4.41886, -659.233, 0.521966, 0.202196, 0.958125, 0.351078, 0.648177, 0.0001, 182, 246, 14.5042, 0.0386544, 0, 0, 1, 0, 9.05203e-05, 134854
-7334.33, 68297, -72.9923, 4.41886, -659.233, 0.521966, 0.202196, 0.958125, 0.351078, 0.648177, 3, 182, 246, 14.5042, 0.0386544, 0, 0, 1, 0, 4.98732e-05, 134854
-5282.67, 82767.8, -126.588, 5.30453, -768.346, 0.739512, 0.300515, 0.9175, 0.352806, 0.64323, 0.0001, 455, 246, 14.5042, 0.0386544, 0, 0, 1, 0, 2.76367e-05, 134854
-5282.67, 82767.8, -126.588, 5.30453, -768.346, 0.739512, 0.300515, 0.9175, 0.352806, 0.64323, 3, 455, 246, 14.5042, 0.0386544, 0, 0, 1, 0, -2.1995e-05, 134854
-3803.93, 271637, -334.306, 4.29631, -1169.05, 0.375474, 0.317452, 0.958125, 0.351078, 0.648177, 0.0001, 182, 246, 40.7057, 0.15698, 1.01806, 1, 0, 0, -1.81591e-06, 134856
-9785.38, 285981, -95.8522, 0.798304, -628.839, 0.238874, 0.326028, 0.993198, 0.349787, 0.651995, 0.0001, 91, 246, 19.3308, 0.0779008, 0, 0, 1, 0, -5.81637e-05, 134859
-6589.08, 130628, -124.669, 2.07904, -1015.53, 0.838651, 0.28043, 0.9175, 0.352806, 0.64323, 0.0001, 455, 246, 25.5115, 0.124619, 0, 0, 1, 0, 1.64806e-05, 134860
-6589.08, 130628, -124.669, 2.07904, -1015.53, 0.838651, 0.28043, 0.9175, 0.352806, 0.64323, 3, 455, 246, 25.5115, 0.124619, 0, 0, 1, 0, -4.18973e-05, 134860
-9142.35, 439692, -440.434, 0.282786, -895.242, 0.655565, 0.746117, 1.03299, 0.34851, 0.655882, 3, 45.5, 246, 46.0097, 0.247383, 0, 0, 0, 0, -4.56907e-05, 134866
-9239.93, 100185, -76.9044, 2.21256, -1047.89, -0.0186057, 0.311296, 1.03299, 0.34851, 0.655882, 0.0001, 45.5, 246, 29.522, 0.124651, 0, 0, 1, 0, 1.74572e-05, 134867
-9239.93, 100185, -76.9044, 2.21256, -1047.89, -0.0186057, 0.311296, 1.03299, 0.34851, 0.655882, 3, 45.5, 246, 29.522, 0.124651, 0, 0, 1, 0, -1.05063e-05, 134867
-4495.76, 166480, -181.733, 2.77566, -1088.55, 0.0719134, 0.297764, 0.9175, 0.352806, 0.64323, 3, 455, 246, 29.522, 0.124651, 0, 0, 0, 0, -8.17793e-06, 134867
-4616.02, 347584, -455.437, 3.32373, -820.803, 0.0444662, 0.529449, 0.958125, 0.351078, 0.648177, 0.0001, 182, 246, 45.7215, 0.220335, 1.32664, 1, 0, 0, -1.10022e-06, 134874
-4616.02, 347584, -455.437, 3.32373, -820.803, 0.0444662, 0.529449, 0.958125, 0.351078, 0.648177, 3, 182, 246, 45.7215, 0.220335, 1.14984, 1, 0, 0, -8.09443e-06, 134874
-8842.91, 439924, -250.222, 0.481733, -977.956, 0.00129849, 0.478771, 1.03299, 0.34851, 0.655882, 0.0001, 45.5, 246, 35.3338, 0.148207, 0, 0, 0, 0, -7.37381e-05, 134879
-8842.91, 439924, -250.222, 0.481733, -977.956, 0.00129849, 0.478771, 1.03299, 0.34851, 0.655882, 3, 45.5, 246, 35.3338, 0.148207, 0, 0, 0, 0, -2.49053e-05, 134879
-7540.33, 457911, -264.393, 0.500773, -981.567, 0.0023586, 0.454623, 0.993198, 0.349787, 0.651995, 3, 91, 246, 35.3338, 0.148207, 0, 0, 1, 0, 2.16547e-05, 134879
-8339.9, 193340, -118.334, 2.48058, -757.575, 0.33813, 0.270211, 0.958125, 0.351078, 0.648177, 3, 182, 246, 21.9846, 0.0855047, 0, 0, 1, 0, 4.45854e-06, 134885
-9115.13, 100917, -96.3118, 3.04425, -1007.32, -0.0410507, 0.247004, 1.03299, 0.34851, 0.655882, 0.0001, 45.5, 246, 32.3765, 0.121224, 0, 0, 1, 0, 1.6999e-06, 134886
-9115.13, 100917, -96.3118, 3.04425, -1007.32, -0.0410507, 0.247004, 1.03299, 0.34851, 0.655882, 3, 45.5, 246, 32.3765, 0.121224, 0, 0, 1, 0, -6.79969e-07, 134886
-7678.84, 118469, -133.524, 3.29394, -1013.77, 0.00306113, 0.249792, 0.993198, 0.349787, 0.651995, 0.0001, 91, 246, 32.3765, 0.121224, 0, 0, 1, 0, 1.17303e-05, 134886
-7678.84, 118469, -133.524, 3.29394, -1013.77, 0.00306113, 0.249792, 0.993198, 0.349787, 0.651995, 3, 91, 246, 32.3765, 0.121224, 0, 0, 1, 0, 4.40889e-06, 134886
-9081.61, 413656, -122.861, 0.499166, -845.449, 0.00106404, 0.337361, 0.993198, 0.349787, 0.651995, 0.0001, 91, 246, 23.836, 0.074229, 0, 0, 1, 0, -7.51746e-06, 134897
-13045.4, 237830, -337.25, 2.96294, -530.737, 0.658071, 0.416677, 1.03299, 0.34851, 0.655882, 0.0001, 45.5, 246, 44.2514, 0.212653, 1.02516, 1, 0, 0, -4.04624e-06, 134898
-8829.15, 254630, -383.469, 3.34722, -626.022, 0.78315, 0.431403, 0.993198, 0.349787, 0.651995, 0.0001, 91, 246, 44.2514, 0.212653, 1.16516, 1, 1, 0, 1.68785e-05, 134898
-8829.15, 254630, -383.469, 3.34722, -626.022, 0.78315, 0.431403, 0.993198, 0.349787, 0.651995, 3, 91, 246, 44.2514, 0.212653, 1.02176, 1, 1, 0, 3.61737e-05, 134898
-3333.91, 277699, -442.478, 3.83535, -759.397, 0.958272, 0.466984, 0.958125, 0.351078, 0.648177, 0.0001, 182, 246, 44.2514, 0.212653, 2.20492, 1, 0, 0, -5.12181e-05, 134898
-3333.91, 277699, -442.478, 3.83535, -759.397, 0.958272, 0.466984, 0.958125, 0.351078, 0.648177, 3, 182, 246, 44.2514, 0.212653, 2.03782, 1, 0, 0, 9.38774e-05, 134898
-7232.76, 140988, -226.638, 3.25642, -955.811, 0.056012, 0.322589, 1.03299, 0.34851, 0.655882, 0.0001, 45.5, 246, 49.6345, 0.211273, 1.08407, 1, 0, 0, 7.37074e-06, 134904
-4593.05, 158981, -277.398, 3.56488, -990.878, 0.108058, 0.337684, 0.993198, 0.349787, 0.651995, 0.0001, 91, 246, 49.6345, 0.211273, 1.266, 1, 1, 0, 5.62859e-06, 134904
-4593.05, 158981, -277.398, 3.56488, -990.878, 0.108058, 0.337684, 0.993198, 0.349787, 0.651995, 3, 91, 246, 49.6345, 0.211273, 1.07495, 1, 1, 0, 2.03124e-06, 134904
-1055.14, 179808, -338.723, 3.93288, -1043.57, 0.172719, 0.371473, 0.958125, 0.351078, 0.648177, 0.0001, 182, 246, 49.6345, 0.211273, 2.21634, 1, 0, 0, 3.23561e-06, 134904
-1055.14, 179808, -338.723, 3.93288, -1043.57, 0.172719, 0.371473, 0.958125, 0.351078, 0.648177, 3, 182, 246, 49.6345, 0.211273, 2.05515, 1, 0, 0, 3.23625e-06, 134904
-7484.88, 167176, -257.505, 3.43104, -1159.68, -0.0244913, 0.353575, 1.03299, 0.34851, 0.655882, 0.0001, 45.5, 246, 53.2803, 0.22885, 1.08195, 1, 0, 0, -8.73511e-06, 134905
-4082.29, 192424, -320.488, 3.75606, -1187.52, 0.032128, 0.376789, 0.993198, 0.349787, 0.651995, 0.0001, 91, 246, 53.2803, 0.22885, 1.4142, 1, 1, 0, 5.28041e-06, 134905
-4082.29, 192424, -320.488, 3.75606, -1187.52, 0.032128, 0.376789, 0.993198, 0.349787, 0.651995, 3, 91, 246, 53.2803, 0.22885, 1.27147, 1, 1, 0, -8.15467e-06, 134905
-8631.63, 55002.1, -7.80232, 0.0276628, -877.628, 0.167486, 0.342699, 1.03299, 0.34851, 0.655882, 0.0001, 45.5, 246, 8.48691, 0.0344247, 0, 0, 1, 0, 9.13018e-05, 134907
-8631.63, 55002.1, -7.80232, 0.0276628, -877.628, 0.167486, 0.342699, 1.03299, 0.34851, 0.655882, 3, 45.5, 246, 8.48691, 0.0344247, 0, 0, 1, 0, 2.06858e-05, 134907
-10209.3, 417433, -131.003, 0.490984, -717.274, 0.389293, 0.375162, 1.03299, 0.34851, 0.655882, 0.0001, 45.5, 246, 22.5914, 0.0763039, 0, 0, 1, 0, 2.83372e-05, 134913
-10209.3, 417433, -131.003, 0.490984, -717.274, 0.389293, 0.375162, 1.03299, 0.34851, 0.655882, 3, 45.5, 246, 22.5914, 0.0763039, 0, 0, 1, 0, 2.98085e-05, 134913
-9369.28, 436361, -139.163, 0.519922, -766.215, 0.416005, 0.342565, 0.993198, 0.349787, 0.651995, 0.0001, 91, 246, 22.5914, 0.0763039, 0, 0, 1, 0, 3.10831e-05, 134913
-4474.38, 516650, -320.56, 0.101026, -1213.23, 0.436239, 0.491788, 0.958125, 0.351078, 0.648177, 0.0001, 182, 246, 38.8728, 0.167489, 2.90188, 1, 0, 0, 1065.34, 134914
-4474.38, 516650, -320.56, 0.101026, -1213.23, 0.436239, 0.491788, 0.958125, 0.351078, 0.648177, 3, 182, 246, 38.8728, 0.167489, 2.80992, 1, 0, 0, 1065.21, 134914
-3032.45, 574113, -334.508, 0.108321, -1336.14, 0.480047, 0.475088, 0.9175, 0.352806, 0.64323, 0.0001, 455, 246, 38.8728, 0.167489, 4.2632, 1, 0, 0, 1033.7, 134914
-3032.45, 574113, -334.508, 0.108321, -1336.14, 0.480047, 0.475088, 0.9175, 0.352806, 0.64323, 3, 455, 246, 38.8728, 0.167489, 4.1114, 1, 0, 0, -1025.69, 134914
-9682.58, 348804, -74.1382, 0.722832, -1057.08, 0.1745, 0.313963, 0.993198, 0.349787, 0.651995, 0.0001, 91, 246, 22.8998, 0.0517182, 0, 0, 1, 0, -2.37579e-05, 134929
-2813.99, 124056, -262.698, 5.26363, -1899.08, 1.60194, 0.351798, 0.9175, 0.352806, 0.64323, 0.0001, 455, 246, 32.6095, 0.0486284, 1.61149, 1, 1, 0, 3.97488e-05, 134930
-2813.99, 124056, -262.698, 5.26363, -1899.08, 1.60194, 0.351798, 0.9175, 0.352806, 0.64323, 3, 455, 246, 32.6095, 0.0486284, 1.61151, 1, 1, 0, -2.04482e-06, 134930
-154.513, 226602, -333.068, 3.7777, -892.744, 0.632849, 0.383774, 0.9175, 0.352806, 0.64323, 0.0001, 455, 246, 36.8024, 0.167896, 1.23325, 1, 0, 0, 2.19805e-05, 134933
-154.513, 226602, -333.068, 3.7777, -892.744, 0.632849, 0.383774, 0.9175, 0.352806, 0.64323, 3, 455, 246, 36.8024, 0.167896, 1.26064, 1, 0, 0, -7.27911e-05, 134933
-5091.9, 321370, -435.64, 3.63121, -714.431, 0.0588956, 0.474267, 0.958125, 0.351078, 0.648177, 0.0001, 182, 246, 43.3217, 0.207854, 1.44502, 1, 0, 0, 1.08681e-05, 134934
-5091.9, 321370, -435.64, 3.63121, -714.431, 0.0588956, 0.474267, 0.958125, 0.351078, 0.648177, 3, 182, 246, 43.3217, 0.207854, 1.26491, 1, 0, 0, -3.87974e-06, 134934
-7671.31, 639504, -456.418, 0.067987, -886.068, 0.0129465, 0.659961, 1.03299, 0.34851, 0.655882, 0.0001, 45.5, 246, 40.759, 0.189228, 0, 0, 0, 0, -5.56553e-05, 134935
-7671.31, 639504, -456.418, 0.067987, -886.068, 0.0129465, 0.659961, 1.03299, 0.34851, 0.655882, 3, 45.5, 246, 40.759, 0.189228, 0, 0, 0, 0, 5.06378e-05, 134935
-8214.06, 42480.4, -56.5057, 1.3626, -657.723, 0.00312942, 0.346493, 1.03299, 0.34851, 0.655882, 0.0001, 45.5, 246, 30.9699, 0.17521, 0, 0, 1, 0, 6.5275e-06, 134942
-8214.06, 42480.4, -56.5057, 1.3626, -657.723, 0.00312942, 0.346493, 1.03299, 0.34851, 0.655882, 3, 45.5, 246, 30.9699, 0.17521, 0, 0, 1, 0, -2.69958e-06, 134942
-10096.1, 444760, -92.5109, 1.0383, -662.471, 0.229386, 0.279749, 0.958125, 0.351078, 0.648177, 3, 182, 246, 17.1197, 0.045368, 0, 0, 1, 0, -4.26093e-05, 134946
-9432.33, 233930, -59.8334, 2.14886, -799.391, 0.556736, 0.253953, 0.958125, 0.351078, 0.648177, 0.0001, 182, 246, 15.2062, 0.0385673, 0, 0, 1, 0, -3.3163e-05, 134948
-11801.8, 313932, -101.866, 0.927696, -554.91, 0.666365, 0.354526, 1.03299, 0.34851, 0.655882, 0.0001, 45.5, 246, 18.956, 0.0729232, 0, 0, 1, 0, -8.41325e-05, 134955
-11801.8, 313932, -101.866, 0.927696, -554.91, 0.666365, 0.354526, 1.03299, 0.34851, 0.655882, 3, 45.5, 246, 18.956, 0.0729232, 0, 0, 1, 0, 1.78335e-05, 134955
-10633.4, 332024, -111.504, 1.0058, -623.297, 0.749377, 0.323465, 0.993198, 0.349787, 0.651995, 3, 91, 246, 18.956, 0.0729232, 0, 0, 1, 0, 5.35848e-05, 134955
-9173.41, 354317, -122.602, 1.09464, -710.749, 0.855529, 0.297704, 0.958125, 0.351078, 0.648177, 0.0001, 182, 246, 18.956, 0.0729232, 0, 0, 1, 0, 4.19442e-05, 134955
-8801.83, 167270, -222.968, 2.70235, -919.134, -0.0180835, 0.39228, 1.03299, 0.34851, 0.655882, 0.0001, 45.5, 246, 46.9111, 0.221042, 0, 0, 0, 0, -9.64168e-06, 134957
-3174.23, 200458, -313.104, 3.16865, -965.583, 0.0574284, 0.412224, 0.958125, 0.351078, 0.648177, 0.0001, 182, 246, 46.9111, 0.221042, 1.00776, 1, 0, 0, 1.0072e-05, 134957
-5905.81, 110823, -220.523, 3.10263, -729.655, 0.417923, 0.302859, 1.03299, 0.34851, 0.655882, 0.0001, 45.5, 246, 49.5725, 0.200953, 1.31055, 1, 1, 0, -1.90915e-05, 134960
-5905.81, 110823, -220.523, 3.10263, -729.655, 0.417923, 0.302859, 1.03299, 0.34851, 0.655882, 3, 45.5, 246, 49.5725, 0.200953, 1.16786, 1, 1, 0, -3.21539e-05, 134960
-3833.26, 124698, -262.622, 3.45411, -805.732, 0.497947, 0.312497, 0.993198, 0.349787, 0.651995, 0.0001, 91, 246, 49.5725, 0.200953, 1.40711, 1, 1, 0, 4.3191e-06, 134960
-3833.26, 124698, -262.622, 3.45411, -805.732, 0.497947, 0.312497, 0.993198, 0.349787, 0.651995, 3, 91, 246, 49.5725, 0.200953, 1.2662, 1, 1, 0, -8.4998e-06, 134960
-1019.14, 142683, -315.709, 3.88538, -907.743, 0.604571, 0.341802, 0.958125, 0.351078, 0.648177, 0.0001, 182, 246, 49.5725, 0.200953, 1.9776, 1, 1, 0, 1.06132e-05, 134960
-1019.14, 142683, -315.709, 3.88538, -907.743, 0.604571, 0.341802, 0.958125, 0.351078, 0.648177, 3, 182, 246, 49.5725, 0.200953, 1.8433, 1, 1, 0, -6.96137e-06, 134960
-11567.6, 353733, -102.757, 0.898103, -895.248, 0.563562, 0.355733, 1.03299, 0.34851, 0.655882, 0.0001, 45.5, 246, 24.2269, 0.0690413, 0, 0, 1, 0, -4.69046e-05, 134961
-11567.6, 353733, -102.757, 0.898103, -895.248, 0.563562, 0.355733, 1.03299, 0.34851, 0.655882, 3, 45.5, 246, 24.2269, 0.0690413, 0, 0, 1, 0, 8.04362e-06, 134961
-7205.14, -10194.6, -23.4535, 2.72304, -772.812, 0.635446, 0.254321, 1.03299, 0.34851, 0.655882, 3, 45.5, 246, 22.0064, 0.0236712, 0, 0, 1, 0, -2.5298e-05, 134968
-10556.5, 161227, -117.059, 2.47666, -1142.83, 0.188235, 0.310528, 1.03299, 0.34851, 0.655882, 0.0001, 45.5, 246, 33.8202, 0.133132, 0, 0, 0, 0, -1.7402e-05, 134970
-10556.5, 161227, -117.059, 2.47666, -1142.83, 0.188235, 0.310528, 1.03299, 0.34851, 0.655882, 3, 45.5, 246, 33.8202, 0.133132, 0, 0, 0, 0, 6.63219e-06, 134970
-5647.85, 90449, -158.86, 3.5039, -1180.87, 0.0454598, 0.258983, 0.993198, 0.349787, 0.651995, 0.0001, 91, 246, 40.2543, 0.148418, 0, 0, 1, 0, -1.43688e-05, 134975
154.741, 155224, -305.234, 4.39632, -1290.11, 0.208484, 0.350426, 0.9175, 0.352806, 0.64323, 0.0001, 455, 246, 40.2543, 0.148418, 2.80016, 1, 0, 0, 1.01967e-06, 134975
154.741, 155224, -305.234, 4.39632, -1290.11, 0.208484, 0.350426, 0.9175, 0.352806, 0.64323, 3, 455, 246, 40.2543, 0.148418, 2.81499, 1, 0, 0, 1.88146e-05, 134975
-7454.45, -6663.02, -5.56399, 3.00573, -953.648, 0.0102764, 0.234206, 1.03299, 0.34851, 0.655882, 0.0001, 45.5, 246, 16.7093, 0.0534921, 0, 0, 1, 1, 7.03017e-06, 134978
-7454.45, -6663.02, -5.56399, 3.00573, -953.648, 0.0102764, 0.234206, 1.03299, 0.34851, 0.655882, 3, 45.5, 246, 16.7093, 0.0534921, 0, 0, 1, 1, 9.23931e-06, 134978
-11604.8, 283538, -129.503, 1.20408, -704.342, -0.00670874, 0.373241, 1.03299, 0.34851, 0.655882, 0.0001, 45.5, 246, 25.3791, 0.110727, 0, 0, 1, 0, -1.43228e-06, 134981
-11604.8, 283538, -129.503, 1.20408, -704.342, -0.00670874, 0.373241, 1.03299, 0.34851, 0.655882, 3, 45.5, 246, 25.3791, 0.110727, 0, 0, 1, 0, 1.03653e-05, 134981
-9425.71, 294821, -250.619, 2.32358, -1106.05, 0.465245, 0.394152, 0.993198, 0.349787, 0.651995, 0.0001, 91, 246, 38.85, 0.166205, 0, 0, 1, 0, -1.01046e-05, 134988
-9425.71, 294821, -250.619, 2.32358, -1106.05, 0.465245, 0.394152, 0.993198, 0.349787, 0.651995, 3, 91, 246, 38.85, 0.166205, 0, 0, 1, 0, -4.654e-05, 134988
-10606.9, 437747, -130.042, 0.603945, -860.328, -0.0015879, 0.373964, 1.03299, 0.34851, 0.655882, 0.0001, 45.5, 246, 25.0288, 0.0770354, 0, 0, 1, 0, -9.66433e-06, 134992
-10606.9, 437747, -130.042, 0.603945, -860.328, -0.0015879, 0.373964, 1.03299, 0.34851, 0.655882, 3, 45.5, 246, 25.0288, 0.0770354, 0, 0, 1, 0, -3.0145e-05, 134992
-9520.27, 450966, -139.821, 0.627302, -862.412, 7.62427e-05, 0.341839, 0.993198, 0.349787, 0.651995, 3, 91, 246, 25.0288, 0.0770354, 0, 0, 1, 0, -3.93317e-05, 134992
-8177.42, 946261, -299.753, 0.106411, -730.247, 0.263227, 0.428836, 1.03299, 0.34851, 0.655882, 0.0001, 45.5, 246, 26.6105, 0.0775701, 0, 0, 0, 0, 7.57561e-06, 134999
-8177.42, 946261, -299.753, 0.106411, -730.247, 0.263227, 0.428836, 1.03299, 0.34851, 0.655882, 3, 45.5, 246, 26.6105, 0.0775701, 0, 0, 0, 0, 8.78196e-05, 134999
-5933.78, 998223, -319.39, 0.116153, -798.419, 0.28723, 0.374062, 0.958125, 0.351078, 0.648177, 3, 182, 246, 26.6105, 0.0775701, 0, 0, 0, 0, 5.40411e-05, 134999
