-2749.92, 245826, -187.495, 5.02663, -810.301, 0.25878, 0.26863, 0.9175, 0.352806, 0.64323, 0.0001, 455, 246, 19.9093, 0.055968, 0, 0, 0, 0, 2.67801e-05, 116501
-2749.92, 245826, -187.495, 5.02663, -810.301, 0.25878, 0.26863, 0.9175, 0.352806, 0.64323, 3, 455, 246, 19.9093, 0.055968, 0, 0, 0, 0, -5.11042e-05, 116501
1229.26, 312473, -370.769, 4.41414, -945.392, 0.60274, 0.374019, 0.9175, 0.352806, 0.64323, 3, 455, 246, 33.0935, 0.13861, 1.64237, 1, 0, 0, 1.1268e-06, 116507
-9671.5, 106649, -93.7354, 2.90305, -806.311, 0.415041, 0.242641, 1.03299, 0.34851, 0.655882, 3, 45.5, 246, 28.8608, 0.105849, 0, 0, 1, 0, -1.20864e-05, 116512
-2451.87, 173032, -234.645, 4.23166, -1138.41, 0.76569, 0.311268, 0.9175, 0.352806, 0.64323, 0.0001, 455, 246, 28.8608, 0.105849, 0, 0, 0, 0, -9.97256e-06, 116512
-2451.87, 173032, -234.645, 4.23166, -1138.41, 0.76569, 0.311268, 0.9175, 0.352806, 0.64323, 3, 455, 246, 28.8608, 0.105849, 0, 0, 0, 0, -6.27026e-06, 116512
-9336.68, 56956.6, -7.44066, 1.94727, -677.817, 0.782814, 0.289778, 1.03299, 0.34851, 0.655882, 0.0001, 45.5, 246, 12.0378, 0.0396711, 0, 0, 1, 0, -2.26419e-05, 116513
-9336.68, 56956.6, -7.44066, 1.94727, -677.817, 0.782814, 0.289778, 1.03299, 0.34851, 0.655882, 3, 45.5, 246, 12.0378, 0.0396711, 0, 0, 1, 0, -1.19153e-05, 116513
-9001.29, 68643.5, -21.3675, 2.16429, -775.504, 0.914485, 0.269044, 0.993198, 0.349787, 0.651995, 0.0001, 91, 246, 12.0378, 0.0396711, 0, 0, 1, 0, -4.64346e-05, 116513
-9001.29, 68643.5, -21.3675, 2.16429, -775.504, 0.914485, 0.269044, 0.993198, 0.349787, 0.651995, 3, 91, 246, 12.0378, 0.0396711, 0, 0, 1, 0, -2.76927e-05, 116513
-8844.07, 627683, -283.038, 0.254649, -785.436, 0.00771722, 0.4645, 1.03299, 0.34851, 0.655882, 3, 45.5, 246, 30.3507, 0.117347, 0, 0, 0, 0, 0.000139812, 116520
-9499.74, 142505, -163.474, 2.74121, -772.164, 0.201241, 0.308834, 1.03299, 0.34851, 0.655882, 0.0001, 45.5, 246, 37.563, 0.162956, 0, 0, 1, 0, 2.42703e-06, 116527
-9499.74, 142505, -163.474, 2.74121, -772.164, 0.201241, 0.308834, 1.03299, 0.34851, 0.655882, 3, 45.5, 246, 37.563, 0.162956, 0, 0, 1, 0, 1.94955e-06, 116527
-576.021, 195863, -304.948, 3.76519, -966.802, 0.39692, 0.361614, 0.9175, 0.352806, 0.64323, 0.0001, 455, 246, 37.563, 0.162956, 1.24219, 1, 0, 0, 4.0538e-06, 116527
-576.021, 195863, -304.948, 3.76519, -966.802, 0.39692, 0.361614, 0.9175, 0.352806, 0.64323, 3, 455, 246, 37.563, 0.162956, 1.25455, 1, 0, 0, -7.93199e-06, 116527
-10503.9, 195015, -60.7239, 1.89293, -728.548, 0.020692, 0.280568, 0.993198, 0.349787, 0.651995, 3, 91, 246, 17.9804, 0.0594081, 0, 0, 1, 0, -6.0895e-06, 116528
-3519.62, 386256, -507.53, 3.59181, -1009.63, 0.408381, 0.559188, 0.958125, 0.351078, 0.648177, 3, 182, 246, 47.7225, 0.221816, 0, 0, 0, 0, -0.000333897, 116529
-11758.5, -132838, 1.02533, 0.558437, -1048.55, 0.0801592, 0.373802, 1.03299, 0.34851, 0.655882, 0.0001, 45.5, 246, -79.946, 0.152879, 0, 0, 1, 0, -7.5435e-06, 116531
-11758.5, -132838, 1.02533, 0.558437, -1048.55, 0.0801592, 0.373802, 1.03299, 0.34851, 0.655882, 3, 45.5, 246, -79.946, 0.152879, 0, 0, 1, 0, -1.98825e-06, 116531
-6713.35, -16545, -11.9789, 3.3926, -1005.16, -0.047384, 0.2038, 1.03299, 0.34851, 0.655882, 0.0001, 45.5, 246, 20.1756, 0.04798, 0, 0, 1, 0, 1.78865e-05, 116537
-6713.35, -16545, -11.9789, 3.3926, -1005.16, -0.047384, 0.2038, 1.03299, 0.34851, 0.655882, 3, 45.5, 246, 20.1756, 0.04798, 0, 0, 1, 1, -8.42746e-06, 116537
2819.5, 344859, -402.733, 4.5292, -1058.71, 0.3361, 0.382474, 0.9175, 0.352806, 0.64323, 0.0001, 455, 246, 35.7354, 0.140077, 0, 0, 0, 0, 1.25057e-05, 116538
2819.5, 344859, -402.733, 4.5292, -1058.71, 0.3361, 0.382474, 0.9175, 0.352806, 0.64323, 3, 455, 246, 35.7354, 0.140077, 0, 0, 0, 0, 1.25025e-05, 116538
-9482.15, 583544, -304.223, 0.539995, -1060.41, 0.118575, 0.490723, 1.03299, 0.34851, 0.655882, 3, 45.5, 246, 37.1535, 0.133067, 0, 0, 0, 0, 2.42335e-05, 116544
-8767.35, 442001, -200.651, 0.986931, -723.641, 0.46613, 0.343406, 0.958125, 0.351078, 0.648177, 3, 182, 246, 24.3568, 0.101907, 0, 0, 1, 0, 1.62163e-05, 116545
-3455.43, 48793.4, -177.826, 3.56355, -732.999, 0.0345811, 0.229838, 0.993198, 0.349787, 0.651995, 0.0001, 91, 246, 48.9305, 0.1092, 1.02768, 1, 1, 0, -3.12497e-06, 116546
-2290.99, 59237.9, -219.624, 3.90349, -760.091, 0.0963462, 0.256103, 0.958125, 0.351078, 0.648177, 0.0001, 182, 246, 48.9305, 0.1092, 1.23813, 1, 1, 0, -4.71072e-06, 116546
-2290.99, 59237.9, -219.624, 3.90349, -760.091, 0.0963462, 0.256103, 0.958125, 0.351078, 0.648177, 3, 182, 246, 48.9305, 0.1092, 1.06482, 1, 1, 0, 5.01527e-06, 116546
52.3145, 75723.1, -289.62, 4.4706, -821.173, 0.202248, 0.322667, 0.9175, 0.352806, 0.64323, 0.0001, 455, 246, 48.9305, 0.1092, 1.70694, 1, 1, 1, -6.77834e-06, 116546
52.3145, 75723.1, -289.62, 4.4706, -821.173, 0.202248, 0.322667, 0.9175, 0.352806, 0.64323, 3, 455, 246, 48.9305, 0.1092, 1.59522, 1, 1, 1, 3.06134e-06, 116546
-7457.22, 487948, -373.13, 0.229606, -1026.66, 0.0119071, 0.626716, 1.03299, 0.34851, 0.655882, 0.0001, 45.5, 246, 43.0775, 0.204457, 0, 0, 0, 0, 5.3315e-05, 116548
-5895.55, 509376, -389.825, 0.238704, -1030.97, 0.0121708, 0.616097, 0.993198, 0.349787, 0.651995, 3, 91, 246, 43.0775, 0.204457, 0, 0, 1, 0, -5.37648e-05, 116548
-7478.62, -1590.01, -15.8204, 2.82818, -1026.28, 0.546484, 0.247032, 1.03299, 0.34851, 0.655882, 0.0001, 45.5, 246, 20.7276, 0.0635609, 0, 0, 1, 0, -7.67517e-06, 116550
-7478.62, -1590.01, -15.8204, 2.82818, -1026.28, 0.546484, 0.247032, 1.03299, 0.34851, 0.655882, 3, 45.5, 246, 20.7276, 0.0635609, 0, 0, 1, 0, 2.72562e-05, 116550
-8687.52, 503188, -194.38, 0.449251, -1145.87, 0.26774, 0.408886, 1.03299, 0.34851, 0.655882, 0.0001, 45.5, 246, 32.9788, 0.0949652, 0, 0, 0, 0, -1.09453e-05, 116563
-8687.52, 503188, -194.38, 0.449251, -1145.87, 0.26774, 0.408886, 1.03299, 0.34851, 0.655882, 3, 45.5, 246, 32.9788, 0.0949652, 0, 0, 0, 0, -4.0486e-05, 116563
-7513.29, 535444, -206.376, 0.472591, -1199.06, 0.280541, 0.378724, 0.993198, 0.349787, 0.651995, 3, 91, 246, 32.9788, 0.0949652, 0, 0, 1, 0, -8.56882e-06, 116563
-8314.64, 310507, -192.04, 0.999043, -1128.02, 0.0703283, 0.404856, 0.993198, 0.349787, 0.651995, 0.0001, 91, 246, 35.0806, 0.150319, 0, 0, 1, 0, 3.564e-06, 116568
-8385.76, 80521.5, -88.13, 1.99287, -1158.12, 0.140392, 0.343364, 1.03299, 0.34851, 0.655882, 3, 45.5, 246, 34.6147, 0.167247, 0, 0, 1, 0, -8.8588e-06, 116571
-5971.79, 81836.9, -166.575, 3.53682, -771.021, -0.0412565, 0.213495, 1.03299, 0.34851, 0.655882, 0.0001, 45.5, 246, 44.0744, 0.148952, 1.14703, 1, 1, 0, -1.80695e-05, 116574
-4371.99, 92698.6, -208.362, 3.86137, -787.757, 0.0187643, 0.230596, 0.993198, 0.349787, 0.651995, 0.0001, 91, 246, 44.0744, 0.148952, 1.1391, 1, 1, 0, 9.85335e-06, 116574
-2213.62, 104999, -258.682, 4.25199, -819.47, 0.0913505, 0.268216, 0.958125, 0.351078, 0.648177, 0.0001, 182, 246, 44.0744, 0.148952, 1.42368, 1, 1, 0, 8.51687e-06, 116574
-2213.62, 104999, -258.682, 4.25199, -819.47, 0.0913505, 0.268216, 0.958125, 0.351078, 0.648177, 3, 182, 246, 44.0744, 0.148952, 1.27559, 1, 1, 0, 2.91405e-06, 116574
1869.3, 125188, -344.608, 4.91989, -894.31, 0.217697, 0.356624, 0.9175, 0.352806, 0.64323, 0.0001, 455, 246, 44.0744, 0.148952, 2.69865, 1, 0, 0, -1.46548e-06, 116574
1869.3, 125188, -344.608, 4.91989, -894.31, 0.217697, 0.356624, 0.9175, 0.352806, 0.64323, 3, 455, 246, 44.0744, 0.148952, 2.69907, 1, 0, 0, 1.41796e-06, 116574
-9540.34, 72098.4, -31.6224, 2.67333, -712.712, -0.0310226, 0.247542, 1.03299, 0.34851, 0.655882, 0.0001, 45.5, 246, 17.8819, 0.0607984, 0, 0, 1, 0, -9.12486e-06, 116576
-9540.34, 72098.4, -31.6224, 2.67333, -712.712, -0.0310226, 0.247542, 1.03299, 0.34851, 0.655882, 3, 45.5, 246, 17.8819, 0.0607984, 0, 0, 1, 0, 6.97107e-06, 116576
-3348.55, 105963, -218.399, 4.48856, -1320.71, 1.0976, 0.252102, 0.958125, 0.351078, 0.648177, 0.0001, 182, 246, 38.3447, 0.114378, 1.10169, 1, 1, 0, -1.09138e-05, 116581
-9994.08, 188866, -222.738, 1.93216, -616.094, -0.00175973, 0.455036, 1.03299, 0.34851, 0.655882, 0.0001, 45.5, 246, 41.7686, 0.22815, 0, 0, 1, 0, -3.49045e-07, 116585
-9282.06, 510132, -228.246, 0.371214, -810.941, 0.645291, 0.428335, 1.03299, 0.34851, 0.655882, 0.0001, 45.5, 246, 28.7561, 0.104108, 0, 0, 0, 0, 1.20558e-05, 116592
-9282.06, 510132, -228.246, 0.371214, -810.941, 0.645291, 0.428335, 1.03299, 0.34851, 0.655882, 3, 45.5, 246, 28.7561, 0.104108, 0, 0, 0, 0, -1.58458, 116592
-11685.6, 409492, -391.044, 0.637167, -659.905, 0.0449789, 0.700141, 1.03299, 0.34851, 0.655882, 3, 45.5, 246, 42.6373, 0.249867, 0, 0, 0, 0, -1.43928e-05, 116597
-8527.56, 6528.89, 11.69, 2.17227, -1119.83, 0.0562556, 0.28926, 1.03299, 0.34851, 0.655882, 0.0001, 45.5, 246, 10.8388, 0.0519147, 0, 0, 1, 0, 2.50832e-05, 116598
-8527.56, 6528.89, 11.69, 2.17227, -1119.83, 0.0562556, 0.28926, 1.03299, 0.34851, 0.655882, 3, 45.5, 246, 10.8388, 0.0519147, 0, 0, 1, 0, 1.21995e-05, 116598
-2598.8, 365845, -452.26, 3.62669, -1342.88, 1.11978, 0.48847, 0.958125, 0.351078, 0.648177, 3, 182, 246, 46.5187, 0.205243, 1.37338, 1, 0, 0, 7.96649e-05, 116606
-10597.9, 314583, -100.802, 0.809956, -937.168, 0.455055, 0.361407, 1.03299, 0.34851, 0.655882, 0.0001, 45.5, 246, 24.9315, 0.0769781, 0, 0, 1, 0, 9.11173e-05, 116618
-9568.41, 339450, -112.388, 0.865661, -1012.47, 0.493631, 0.329802, 0.993198, 0.349787, 0.651995, 0.0001, 91, 246, 24.9315, 0.0769781, 0, 0, 1, 0, 2.62509e-05, 116618
-8270.8, 368749, -125.432, 0.925749, -1101.36, 0.539213, 0.30311, 0.958125, 0.351078, 0.648177, 0.0001, 182, 246, 24.9315, 0.0769781, 0, 0, 1, 0, -1.53516e-05, 116618
-8270.8, 368749, -125.432, 0.925749, -1101.36, 0.539213, 0.30311, 0.958125, 0.351078, 0.648177, 3, 182, 246, 24.9315, 0.0769781, 0, 0, 1, 0, -6.44613e-05, 116618
-9006.57, 763468, -177.089, 0.337551, -1186.82, 0.0544027, 0.378842, 1.03299, 0.34851, 0.655882, 0.0001, 45.5, 246, 32.405, 0.0589046, 0, 0, 0, 0, -2.88628e-05, 116622
-9006.57, 763468, -177.089, 0.337551, -1186.82, 0.0544027, 0.378842, 1.03299, 0.34851, 0.655882, 3, 45.5, 246, 32.405, 0.0589046, 0, 0, 0, 0, -7.23891e-05, 116622
-12112.4, 119058, 13.1724, 3.03307, -1009.2, 0.0924816, 0.197649, 1.03299, 0.34851, 0.655882, 0.0001, 45.5, 246, 14.961, 0.029867, 0, 0, 0, 0, 1.07875e-05, 116625
-12112.4, 119058, 13.1724, 3.03307, -1009.2, 0.0924816, 0.197649, 1.03299, 0.34851, 0.655882, 3, 45.5, 246, 14.961, 0.029867, 0, 0, 0, 0, -5.0122e-06, 116625
-10624, 188702, -154.972, 2.39694, -1132.84, 0.0041613, 0.34993, 1.03299, 0.34851, 0.655882, 0.0001, 45.5, 246, 37.7567, 0.159789, 0, 0, 0, 0, 1.32712e-05, 116632
-10624, 188702, -154.972, 2.39694, -1132.84, 0.0041613, 0.34993, 1.03299, 0.34851, 0.655882, 3, 45.5, 246, 37.7567, 0.159789, 0, 0, 0, 0, 2.08438e-06, 116632
-8355.99, 699802, -274.131, 0.202697, -818.132, 0.762884, 0.429971, 1.03299, 0.34851, 0.655882, 0.0001, 45.5, 246, 28.6217, 0.0878171, 0, 0, 0, 0, -1.05832e-05, 116636
-8355.99, 699802, -274.131, 0.202697, -818.132, 0.762884, 0.429971, 1.03299, 0.34851, 0.655882, 3, 45.5, 246, 28.6217, 0.0878171, 0, 0, 0, 0, -1.64698e-05, 116636
-5888.75, 802656, -295.531, 0.236558, -1081.92, 1.00581, 0.375718, 0.958125, 0.351078, 0.648177, 3, 182, 246, 28.6217, 0.0878171, 0, 0, 0, 0, 5.02904e-06, 116636
-11084.2, 280897, -254.145, 1.28102, -725.5, 0.129373, 0.515988, 1.03299, 0.34851, 0.655882, 0.0001, 45.5, 246, 39.1089, 0.213691, 0, 0, 0, 0, -6.36301e-06, 116637
-11084.2, 280897, -254.145, 1.28102, -725.5, 0.129373, 0.515988, 1.03299, 0.34851, 0.655882, 3, 45.5, 246, 39.1089, 0.213691, 0, 0, 0, 0, 1.42664e-05, 116637
-8837.61, 38069.4, -4.70016, 2.82829, -773.407, 0.0566005, 0.23374, 1.03299, 0.34851, 0.655882, 0.0001, 45.5, 246, 13.398, 0.0435043, 1.06455, 1, 1, 0, 1.37111e-05, 116647
-11924.6, 199047, -73.2115, 2.04312, -1077.29, -0.0195789, 0.306235, 1.03299, 0.34851, 0.655882, 0.0001, 45.5, 246, 26.1438, 0.086644, 0, 0, 1, 0, 7.52552e-06, 116654
-11924.6, 199047, -73.2115, 2.04312, -1077.29, -0.0195789, 0.306235, 1.03299, 0.34851, 0.655882, 3, 45.5, 246, 26.1438, 0.086644, 0, 0, 1, 0, 2.68888e-05, 116654
-5877.33, 13960, -75.7445, 3.41291, -870.925, -0.00934535, 0.200148, 1.03299, 0.34851, 0.655882, 0.0001, 45.5, 246, 35.4667, 0.0593571, 0, 0, 1, 1, 1.9158e-06, 116657
-5877.33, 13960, -75.7445, 3.41291, -870.925, -0.00934535, 0.200148, 1.03299, 0.34851, 0.655882, 3, 45.5, 246, 35.4667, 0.0593571, 0, 0, 1, 1, 8.17428e-06, 116657
-11713.7, 618564, -83.8066, 0.396768, -563.784, 0.647557, 0.347741, 1.03299, 0.34851, 0.655882, 0.0001, 45.5, 246, 15.9767, 0.0315505, 0, 0, 1, 0, -9.93067e-05, 116659
-11713.7, 618564, -83.8066, 0.396768, -563.784, 0.647557, 0.347741, 1.03299, 0.34851, 0.655882, 3, 45.5, 246, 15.9767, 0.0315505, 0, 0, 1, 0, -7.05476e-05, 116659
-632.401, 556728, -240.982, 4.54586, -1279.1, 0.262217, 0.242815, 0.9175, 0.352806, 0.64323, 0.0001, 455, 246, 27.4951, 0.0470578, 0, 0, 0, 0, -1.22063e-06, 116663
-632.401, 556728, -240.982, 4.54586, -1279.1, 0.262217, 0.242815, 0.9175, 0.352806, 0.64323, 3, 455, 246, 27.4951, 0.0470578, 0, 0, 0, 0, -1.46453e-06, 116663
-11409.6, 195523, -55.6757, 1.592, -1003.18, 0.497005, 0.318758, 1.03299, 0.34851, 0.655882, 0.0001, 45.5, 246, 22.7887, 0.0682188, 0, 0, 1, 0, 1.44497e-05, 116665
-11409.6, 195523, -55.6757, 1.592, -1003.18, 0.497005, 0.318758, 1.03299, 0.34851, 0.655882, 3, 45.5, 246, 22.7887, 0.0682188, 0, 0, 1, 0, 8.36794e-06, 116665
-10139.2, 220254, -74.4856, 1.72896, -1092.71, 0.552494, 0.293388, 0.993198, 0.349787, 0.651995, 0.0001, 91, 246, 22.7887, 0.0682188, 0, 0, 1, 0, 1.36535e-05, 116665
-8431.06, 250406, -97.3626, 1.88404, -1202.89, 0.621033, 0.275431, 0.958125, 0.351078, 0.648177, 0.0001, 182, 246, 22.7887, 0.0682188, 0, 0, 1, 0, -4.85465e-05, 116665
-8431.06, 250406, -97.3626, 1.88404, -1202.89, 0.621033, 0.275431, 0.958125, 0.351078, 0.648177, 3, 182, 246, 22.7887, 0.0682188, 0, 0, 1, 0, 4.45443e-05, 116665
-10719.7, 119679, -33.9469, 2.13992, -695.902, 0.249133, 0.280903, 1.03299, 0.34851, 0.655882, 0.0001, 45.5, 246, 16.8599, 0.0571267, 0, 0, 1, 0, 1.41864e-05, 116670
-10997.6, 171060, -85.3125, 1.91782, -832.947, -0.0172193, 0.320581, 1.03299, 0.34851, 0.655882, 0.0001, 45.5, 246, 25.3653, 0.103022, 0, 0, 1, 0, 3.01737e-07, 116672
-10997.6, 171060, -85.3125, 1.91782, -832.947, -0.0172193, 0.320581, 1.03299, 0.34851, 0.655882, 3, 45.5, 246, 25.3653, 0.103022, 0, 0, 1, 0, -2.68765e-06, 116672
-9533.58, 56988.5, 0.0986832, 3.43097, -893.064, 0.366145, 0.162207, 1.03299, 0.34851, 0.655882, 0.0001, 45.5, 246, 15.2903, 0.042641, 0, 0, 0, 0, -1.64728e-05, 116678
-9533.58, 56988.5, 0.0986832, 3.43097, -893.064, 0.366145, 0.162207, 1.03299, 0.34851, 0.655882, 3, 45.5, 246, 15.2903, 0.042641, 0, 0, 0, 0, 8.03731e-07, 116678
-11122.2, 589877, -24.7309, 0.323163, -633.218, 0.00783419, 0.340029, 1.03299, 0.34851, 0.655882, 0.0001, 45.5, 246, 14.3528, 0.0117987, 0, 0, 1, 0, -3.36768e-05, 116682
-11122.2, 589877, -24.7309, 0.323163, -633.218, 0.00783419, 0.340029, 1.03299, 0.34851, 0.655882, 3, 45.5, 246, 14.3528, 0.0117987, 0, 0, 1, 0, -2.23515e-05, 116682
-10544.9, 597130, -27.3918, 0.333814, -634.252, 0.00831831, 0.304164, 0.993198, 0.349787, 0.651995, 0.0001, 91, 246, 14.3528, 0.0117987, 0, 0, 1, 0, 3.21166e-05, 116682
-6054.06, 101263, -199.297, 2.75168, -668.389, 0.0585594, 0.339636, 1.03299, 0.34851, 0.655882, 0.0001, 45.5, 246, 49.6309, 0.217201, 1.19933, 1, 1, 0, -1.72067e-06, 116685
-4455.68, 110363, -233.022, 2.98392, -692.917, 0.0955579, 0.340551, 0.993198, 0.349787, 0.651995, 0.0001, 91, 246, 49.6309, 0.217201, 1.18956, 1, 1, 0, 7.36653e-07, 116685
-2403.76, 120835, -272.527, 3.25151, -726.778, 0.140354, 0.354959, 0.958125, 0.351078, 0.648177, 0.0001, 182, 246, 49.6309, 0.217201, 1.47593, 1, 1, 0, 7.44097e-06, 116685
-2403.76, 120835, -272.527, 3.25151, -726.778, 0.140354, 0.354959, 0.958125, 0.351078, 0.648177, 3, 182, 246, 49.6309, 0.217201, 1.31388, 1, 1, 0, 4.09528e-06, 116685
1237.41, 137822, -336.919, 3.68143, -791.368, 0.216431, 0.397052, 0.9175, 0.352806, 0.64323, 0.0001, 455, 246, 49.6309, 0.217201, 2.92824, 1, 0, 0, 5.77761e-06, 116685
1237.41, 137822, -336.919, 3.68143, -791.368, 0.216431, 0.397052, 0.9175, 0.352806, 0.64323, 3, 455, 246, 49.6309, 0.217201, 2.92834, 1, 0, 0, 1.37464e-06, 116685
-10343.5, 107719, -71.817, 3.25141, -799.092, -0.0488801, 0.201013, 1.03299, 0.34851, 0.655882, 0.0001, 45.5, 246, 25.1175, 0.0854126, 0, 0, 1, 0, 6.84963e-06, 116690
-10343.5, 107719, -71.817, 3.25141, -799.092, -0.0488801, 0.201013, 1.03299, 0.34851, 0.655882, 3, 45.5, 246, 25.1175, 0.0854126, 0, 0, 1, 0, 2.18296e-05, 116690
-11883.9, 332958, -80.8733, 0.990481, -805.691, 0.0264544, 0.345831, 1.03299, 0.34851, 0.655882, 0.0001, 45.5, 246, 21.287, 0.0631132, 0, 0, 1, 0, -3.00616e-06, 116691
-11883.9, 332958, -80.8733, 0.990481, -805.691, 0.0264544, 0.345831, 1.03299, 0.34851, 0.655882, 3, 45.5, 246, 21.287, 0.0631132, 0, 0, 1, 0, 9.77977e-06, 116691
-10106.6, 204212, -349.207, 3.43217, -648.711, 0.739038, 0.361221, 1.03299, 0.34851, 0.655882, 0.0001, 45.5, 246, 50.0747, 0.218839, 1.40359, 1, 0, 0, -6.2383e-06, 116693
-10106.6, 204212, -349.207, 3.43217, -648.711, 0.739038, 0.361221, 1.03299, 0.34851, 0.655882, 3, 45.5, 246, 50.0747, 0.218839, 1.3362, 1, 0, 0, 1.49272e-05, 116693
-5633.43, 224254, -406.79, 3.9283, -776.958, 0.903978, 0.387714, 0.993198, 0.349787, 0.651995, 0.0001, 91, 246, 50.0747, 0.218839, 1.70921, 1, 1, 0, 2.82396e-05, 116693
-5633.43, 224254, -406.79, 3.9283, -776.958, 0.903978, 0.387714, 0.993198, 0.349787, 0.651995, 3, 91, 246, 50.0747, 0.218839, 1.62559, 1, 1, 0, -4.47738e-05, 116693
-9481.57, 112179, -4.60723, 0.807223, -1092.4, 0.117363, 0.335098, 1.03299, 0.34851, 0.655882, 0.0001, 45.5, 246, 13.723, 0.027433, 0, 0, 1, 0, 8.13359e-06, 116695
-9481.57, 112179, -4.60723, 0.807223, -1092.4, 0.117363, 0.335098, 1.03299, 0.34851, 0.655882, 3, 45.5, 246, 13.723, 0.027433, 0, 0, 1, 0, -5.93033e-06, 116695
-7382.66, -15390.4, -1.16841, 2.91027, -985.392, 0.203053, 0.243502, 1.03299, 0.34851, 0.655882, 0.0001, 45.5, 246, 15.865, 0.0534293, 0, 0, 1, 1, -6.34908e-06, 116706
-10167, 202863, -254.974, 2.85452, -912.651, 0.145864, 0.39696, 1.03299, 0.34851, 0.655882, 3, 45.5, 246, 46.7975, 0.214886, 0, 0, 0, 0, -8.4635e-06, 116709
-2810.64, 242406, -358.119, 3.43526, -1021.34, 0.243893, 0.429389, 0.958125, 0.351078, 0.648177, 0.0001, 182, 246, 46.7975, 0.214886, 1.34484, 1, 0, 0, -1.41611e-06, 116709
-2810.64, 242406, -358.119, 3.43526, -1021.34, 0.243893, 0.429389, 0.958125, 0.351078, 0.648177, 3, 182, 246, 46.7975, 0.214886, 1.08431, 1, 0, 0, -1.36773e-05, 116709
-8544.68, 287010, -396.371, 3.70677, -925.494, 0.509472, 0.419273, 0.993198, 0.349787, 0.651995, 0.0001, 91, 246, 47.8445, 0.211893, 1.18096, 1, 1, 0, -1.43354e-06, 116713
-8544.68, 287010, -396.371, 3.70677, -925.494, 0.509472, 0.419273, 0.993198, 0.349787, 0.651995, 3, 91, 246, 47.8445, 0.211893, 1.05751, 1, 1, 0, 3.449e-06, 116713
-9628.46, 271041, -165.158, 1.40945, -826.799, 0.0245235, 0.365146, 0.993198, 0.349787, 0.651995, 3, 91, 246, 29.7801, 0.134441, 0, 0, 1, 0, 1.83653e-05, 116723
-9490.75, 172780, -201.024, 1.63746, -616.818, -0.01252, 0.462011, 1.03299, 0.34851, 0.655882, 3, 45.5, 246, 41.2216, 0.236311, 0, 0, 1, 0, -1.59628e-07, 116725
-8052.56, 180020, -222.785, 1.737, -625.604, -1.96694e-05, 0.448304, 0.993198, 0.349787, 0.651995, 0.0001, 91, 246, 41.2216, 0.236311, 0, 0, 1, 0, 1.48432e-05, 116725
-11454.9, 395101, -456.255, 3.95428, -1148.27, 0.165827, 0.456982, 0.993198, 0.349787, 0.651995, 0.0001, 91, 246, 50.5142, 0.207715, 1.02188, 1, 1, 0, 1.13924e-05, 116734
-9556.57, 78276.2, -42.1465, 3.43772, -1059.62, 0.00936132, 0.180796, 1.03299, 0.34851, 0.655882, 0.0001, 45.5, 246, 24.4285, 0.0771518, 0, 0, 0, 0, 6.89486e-06, 116737
-9556.57, 78276.2, -42.1465, 3.43772, -1059.62, 0.00936132, 0.180796, 1.03299, 0.34851, 0.655882, 3, 45.5, 246, 24.4285, 0.0771518, 0, 0, 0, 0, -7.93829e-06, 116737
-8337.4, 97848.4, -80.9413, 3.75255, -1071.63, 0.0662519, 0.192573, 0.993198, 0.349787, 0.651995, 0.0001, 91, 246, 24.4285, 0.0771518, 0, 0, 1, 0, -8.81262e-06, 116737
-8337.4, 97848.4, -80.9413, 3.75255, -1071.63, 0.0662519, 0.192573, 0.993198, 0.349787, 0.651995, 3, 91, 246, 24.4285, 0.0771518, 0, 0, 1, 0, 5.58859e-06, 116737
-3061.09, 312155, -402.581, 4.41911, -1115.49, 0.0789326, 0.365004, 0.958125, 0.351078, 0.648177, 0.0001, 182, 246, 44.6525, 0.1772, 2.7876, 1, 0, 0, -7.74685e-06, 116739
-3061.09, 312155, -402.581, 4.41911, -1115.49, 0.0789326, 0.365004, 0.958125, 0.351078, 0.648177, 3, 182, 246, 44.6525, 0.1772, 2.63213, 1, 0, 0, -1.70762e-06, 116739
-8487.63, 662593, -249.711, 0.226207, -822.749, 0.297639, 0.426802, 1.03299, 0.34851, 0.655882, 0.0001, 45.5, 246, 28.624, 0.0926241, 0, 0, 0, 0, 5.53947e-05, 116741
-8487.63, 662593, -249.711, 0.226207, -822.749, 0.297639, 0.426802, 1.03299, 0.34851, 0.655882, 3, 45.5, 246, 28.624, 0.0926241, 0, 0, 0, 0, -0.000226871, 116741
-7459.91, 687034, -259.749, 0.237506, -864.965, 0.312576, 0.397368, 0.993198, 0.349787, 0.651995, 3, 91, 246, 28.624, 0.0926241, 0, 0, 1, 0, -0.000152888, 116741
-6881.35, 152966, -271.189, 2.98277, -793.58, 0.155685, 0.399622, 1.03299, 0.34851, 0.655882, 0.0001, 45.5, 246, 53.6152, 0.247687, 1.26704, 1, 1, 0, 1.02124e-05, 116744
-6881.35, 152966, -271.189, 2.98277, -793.58, 0.155685, 0.399622, 1.03299, 0.34851, 0.655882, 3, 45.5, 246, 53.6152, 0.247687, 1.15533, 1, 0, 0, 5.50871e-06, 116744
-4084.2, 167390, -318.067, 3.27244, -840.876, 0.20363, 0.412243, 0.993198, 0.349787, 0.651995, 0.0001, 91, 246, 53.6152, 0.247687, 1.50612, 1, 1, 0, -9.32719e-06, 116744
-4084.2, 167390, -318.067, 3.27244, -840.876, 0.20363, 0.412243, 0.993198, 0.349787, 0.651995, 3, 91, 246, 53.6152, 0.247687, 1.37824, 1, 1, 0, 1.74289e-05, 116744
-442.37, 184834, -374.618, 3.61565, -904.274, 0.264182, 0.441717, 0.958125, 0.351078, 0.648177, 0.0001, 182, 246, 53.6152, 0.247687, 2.77555, 1, 0, 0, -1.16822e-05, 116744
-442.37, 184834, -374.618, 3.61565, -904.274, 0.264182, 0.441717, 0.958125, 0.351078, 0.648177, 3, 182, 246, 53.6152, 0.247687, 2.5928, 1, 0, 0, -1.1701e-05, 116744
-3355.55, 92428.3, -209.295, 3.41121, -1092.45, 0.287841, 0.296612, 0.958125, 0.351078, 0.648177, 0.0001, 182, 246, 46.7957, 0.168135, 1.12119, 1, 1, 0, -1.75807e-05, 116754
-394.182, 126662, -286.04, 3.91508, -1204.21, 0.389037, 0.341869, 0.9175, 0.352806, 0.64323, 0.0001, 455, 246, 46.7957, 0.168135, 2.49691, 1, 0, 0, -1.99395e-05, 116754
-394.182, 126662, -286.04, 3.91508, -1204.21, 0.389037, 0.341869, 0.9175, 0.352806, 0.64323, 3, 455, 246, 46.7957, 0.168135, 2.4972, 1, 0, 0, 1.08164e-05, 116754
-8018.34, 38382.3, -58.3167, 1.47618, -731.883, 0.18019, 0.342335, 1.03299, 0.34851, 0.655882, 0.0001, 45.5, 246, 32.8948, 0.177885, 0, 0, 1, 1, 2.05108e-05, 116759
-10637.1, 938945, -112.268, 0.192047, -558.205, 0.590691, 0.351411, 1.03299, 0.34851, 0.655882, 0.0001, 45.5, 246, 16.7098, 0.0274295, 0, 0, 1, 0, -0.000229553, 116766
-10637.1, 938945, -112.268, 0.192047, -558.205, 0.590691, 0.351411, 1.03299, 0.34851, 0.655882, 3, 45.5, 246, 16.7098, 0.0274295, 0, 0, 1, 0, -1.31865, 116766
-9962.92, 976460, -116.725, 0.204471, -616.309, 0.651693, 0.316059, 0.993198, 0.349787, 0.651995, 3, 91, 246, 16.7098, 0.0274295, 0, 0, 1, 0, -0.000192952, 116766
-7810.54, 96481.6, -131.495, 2.37888, -974.958, -0.0246343, 0.34178, 1.03299, 0.34851, 0.655882, 0.0001, 45.5, 246, 40.9132, 0.191061, 0, 0, 1, 0, 1.02567e-05, 116770
-7810.54, 96481.6, -131.495, 2.37888, -974.958, -0.0246343, 0.34178, 1.03299, 0.34851, 0.655882, 3, 45.5, 246, 40.9132, 0.191061, 0, 0, 1, 0, -1.97316e-06, 116770
-25967.1, -244352, 5.24199, 1.03322, -1167.84, 0.0168039, 0.499566, 1.03299, 0.34851, 0.655882, 0.0001, 45.5, 246, -144.339, 0.241082, 0, 0, 0, 0, 4.356e-06, 116772
-25967.1, -244352, 5.24199, 1.03322, -1167.84, 0.0168039, 0.499566, 1.03299, 0.34851, 0.655882, 3, 45.5, 246, -144.339, 0.241082, 0, 0, 0, 0, -1.82336e-05, 116772
-7970.62, 144846, -212.284, 3.61396, -1025.31, -0.0625807, 0.262181, 1.03299, 0.34851, 0.655882, 0.0001, 45.5, 246, 47.0326, 0.186475, 1.02178, 1, 0, 0, 1.34651e-05, 116776
-7970.62, 144846, -212.284, 3.61396, -1025.31, -0.0625807, 0.262181, 1.03299, 0.34851, 0.655882, 3, 45.5, 246, 47.0326, 0.186475, 0, 0, 0, 0, 6.36319e-06, 116776
-5069.07, 163909, -268.439, 3.95263, -1043.98, 0.000336358, 0.285203, 0.993198, 0.349787, 0.651995, 0.0001, 91, 246, 47.0326, 0.186475, 1.12196, 1, 1, 0, 2.81048e-06, 116776
-1165.61, 185415, -336.34, 4.36298, -1083.21, 0.0763136, 0.329986, 0.958125, 0.351078, 0.648177, 0.0001, 182, 246, 47.0326, 0.186475, 2.18015, 1, 0, 0, 1.32694e-05, 116776
-1165.61, 185415, -336.34, 4.36298, -1083.21, 0.0763136, 0.329986, 0.958125, 0.351078, 0.648177, 3, 182, 246, 47.0326, 0.186475, 2.02213, 1, 0, 0, 6.9346e-06, 116776
-5150.38, 829014, -329.012, 0.0333901, -914.89, 0.153085, 0.430777, 0.993198, 0.349787, 0.651995, 0.0001, 91, 246, 31.7368, 0.0990843, 0, 0, 1, 0, 4.00599e-05, 116785
-8295.25, -14649.1, 10.9483, 1.71367, -703.566, 0.325803, 0.313204, 1.03299, 0.34851, 0.655882, 0.0001, 45.5, 246, 3.10387, 0.0484224, 0, 0, 1, 0, -1.66338e-05, 116786
-8295.25, -14649.1, 10.9483, 1.71367, -703.566, 0.325803, 0.313204, 1.03299, 0.34851, 0.655882, 3, 45.5, 246, 3.10387, 0.0484224, 0, 0, 1, 0, 2.10936e-05, 116786
-8720.77, 70295.8, -60.8635, 1.54577, -786.85, -0.00328659, 0.339806, 1.03299, 0.34851, 0.655882, 0.0001, 45.5, 246, 26.8223, 0.136808, 0, 0, 1, 0, 1.67952e-05, 116794
-8720.77, 70295.8, -60.8635, 1.54577, -786.85, -0.00328659, 0.339806, 1.03299, 0.34851, 0.655882, 3, 45.5, 246, 26.8223, 0.136808, 0, 0, 1, 0, 1.27941e-06, 116794
-8952.47, 48116, -12.1735, 3.3345, -1170.32, 0.0831074, 0.19128, 1.03299, 0.34851, 0.655882, 0.0001, 45.5, 246, 20.6408, 0.0662169, 1.24991, 1, 0, 0, -1.47923e-05, 116795
-10324.1, 189594, -220.895, 3.09224, -960.744, 0.00728145, 0.333295, 1.03299, 0.34851, 0.655882, 0.0001, 45.5, 246, 44.0588, 0.189952, 0, 0, 0, 0, 5.18388e-06, 116796
-10324.1, 189594, -220.895, 3.09224, -960.744, 0.00728145, 0.333295, 1.03299, 0.34851, 0.655882, 3, 45.5, 246, 44.0588, 0.189952, 0, 0, 0, 0, 7.79193e-06, 116796
-3235.25, 226923, -325.7, 3.68788, -1026.33, 0.108693, 0.370656, 0.958125, 0.351078, 0.648177, 0.0001, 182, 246, 44.0588, 0.189952, 1.12916, 1, 0, 0, -1.79021e-07, 116796
-11229.1, 312647, -176.417, 1.16263, -872.428, 0.0347623, 0.414174, 1.03299, 0.34851, 0.655882, 0.0001, 45.5, 246, 31.6102, 0.138602, 0, 0, 0, 0, 1.73101e-05, 116803
-11229.1, 312647, -176.417, 1.16263, -872.428, 0.0347623, 0.414174, 1.03299, 0.34851, 0.655882, 3, 45.5, 246, 31.6102, 0.138602, 0, 0, 0, 0, -2.1829e-06, 116803
-4528.51, 109972, -247.853, 3.20913, -708.404, 0.087546, 0.322265, 1.03299, 0.34851, 0.655882, 0.0001, 45.5, 246, 55.5422, 0.227453, 1.5309, 1, 1, 0, -4.83409e-07, 116807
-4528.51, 109972, -247.853, 3.20913, -708.404, 0.087546, 0.322265, 1.03299, 0.34851, 0.655882, 3, 45.5, 246, 55.5422, 0.227453, 1.41386, 1, 1, 0, 6.85295e-06, 116807
-2280.13, 120981, -292.267, 3.51583, -745.18, 0.139119, 0.335858, 0.993198, 0.349787, 0.651995, 0.0001, 91, 246, 55.5422, 0.227453, 1.73793, 1, 1, 0, 1.54919e-05, 116807
-2280.13, 120981, -292.267, 3.51583, -745.18, 0.139119, 0.335858, 0.993198, 0.349787, 0.651995, 3, 91, 246, 55.5422, 0.227453, 1.63105, 1, 1, 0, 9.36146e-06, 116807
655.129, 134255, -345.877, 3.8814, -796.899, 0.203654, 0.367821, 0.958125, 0.351078, 0.648177, 0.0001, 182, 246, 55.5422, 0.227453, 2.6674, 1, 1, 1, -7.74919e-06, 116807
655.129, 134255, -345.877, 3.8814, -796.899, 0.203654, 0.367821, 0.958125, 0.351078, 0.648177, 3, 182, 246, 55.5422, 0.227453, 2.51758, 1, 1, 1, -1.64122e-05, 116807
-10254.2, 136164, -53.5816, 1.83071, -1172.38, 0.0314386, 0.317142, 1.03299, 0.34851, 0.655882, 0.0001, 45.5, 246, 24.948, 0.089109, 0, 0, 1, 0, 2.5982e-06, 116812
-10254.2, 136164, -53.5816, 1.83071, -1172.38, 0.0314386, 0.317142, 1.03299, 0.34851, 0.655882, 3, 45.5, 246, 24.948, 0.089109, 0, 0, 1, 0, 2.93889e-05, 116812
-9250.35, 118644, -122.044, 3.30759, -1113.33, 0.229595, 0.230686, 1.03299, 0.34851, 0.655882, 0.0001, 45.5, 246, 36.2803, 0.133016, 0, 0, 0, 0, -3.02968e-06, 116814
-9250.35, 118644, -122.044, 3.30759, -1113.33, 0.229595, 0.230686, 1.03299, 0.34851, 0.655882, 3, 45.5, 246, 36.2803, 0.133016, 0, 0, 0, 0, 5.98711e-06, 116814
-11694, 254115, -202.79, 2.02701, -989.868, 0.00816228, 0.411237, 1.03299, 0.34851, 0.655882, 0.0001, 45.5, 246, 38.6118, 0.174272, 0, 0, 0, 0, 1.31414e-05, 116826
-11511.7, 176665, -36.0749, 1.80971, -1084.6, 0.0715722, 0.303697, 1.03299, 0.34851, 0.655882, 0.0001, 45.5, 246, 21.3949, 0.0588823, 0, 0, 1, 0, 1.33506e-05, 116830
-11511.7, 176665, -36.0749, 1.80971, -1084.6, 0.0715722, 0.303697, 1.03299, 0.34851, 0.655882, 3, 45.5, 246, 21.3949, 0.0588823, 0, 0, 1, 0, -6.73796e-07, 116830
-10234.2, 198079, -56.6681, 1.92626, -1100.6, 0.0878859, 0.280613, 0.993198, 0.349787, 0.651995, 0.0001, 91, 246, 21.3949, 0.0588823, 0, 0, 1, 0, 8.96803e-06, 116830
-9478.75, 92206.2, -79.3084, 3.09717, -731.351, 0.0281484, 0.220268, 1.03299, 0.34851, 0.655882, 0.0001, 45.5, 246, 26.3393, 0.0924941, 0, 0, 1, 0, 6.70496e-06, 116833
-9478.75, 92206.2, -79.3084, 3.09717, -731.351, 0.0281484, 0.220268, 1.03299, 0.34851, 0.655882, 3, 45.5, 246, 26.3393, 0.0924941, 0, 0, 1, 0, 1.0532e-06, 116833
-6616.9, 112090, -141.439, 3.67839, -768.826, 0.130339, 0.242146, 0.958125, 0.351078, 0.648177, 3, 182, 246, 26.3393, 0.0924941, 0, 0, 1, 0, 3.97936e-06, 116833
-11357.1, 234324, -151.909, 1.58518, -747.399, 0.0936927, 0.382936, 1.03299, 0.34851, 0.655882, 0.0001, 45.5, 246, 30.3306, 0.14297, 0, 0, 1, 0, -1.67649e-05, 116835
-11357.1, 234324, -151.909, 1.58518, -747.399, 0.0936927, 0.382936, 1.03299, 0.34851, 0.655882, 3, 45.5, 246, 30.3306, 0.14297, 0, 0, 1, 0, -6.4366e-06, 116835
-9435.55, 115682, -97.8129, 2.68993, -1168.76, 0.069614, 0.287535, 1.03299, 0.34851, 0.655882, 0.0001, 45.5, 246, 33.3983, 0.131925, 0, 0, 1, 0, 5.8333e-06, 116843
-9435.55, 115682, -97.8129, 2.68993, -1168.76, 0.069614, 0.287535, 1.03299, 0.34851, 0.655882, 3, 45.5, 246, 33.3983, 0.131925, 0, 0, 1, 0, -7.34265e-06, 116843
-7963.3, 140541, -135.453, 2.91091, -1193.55, 0.105208, 0.283038, 0.993198, 0.349787, 0.651995, 0.0001, 91, 246, 33.3983, 0.131925, 0, 0, 1, 0, 1.25846e-05, 116843
-7963.3, 140541, -135.453, 2.91091, -1193.55, 0.105208, 0.283038, 0.993198, 0.349787, 0.651995, 3, 91, 246, 33.3983, 0.131925, 0, 0, 1, 0, 8.71051e-06, 116843
-453.983, 199654, -294.018, 4.69438, -1362.13, 1.45541, 0.340161, 0.9175, 0.352806, 0.64323, 0.0001, 455, 246, 32.7901, 0.12324, 1.45759, 1, 0, 0, 4.38382e-06, 116846
-453.983, 199654, -294.018, 4.69438, -1362.13, 1.45541, 0.340161, 0.9175, 0.352806, 0.64323, 3, 455, 246, 32.7901, 0.12324, 1.49046, 1, 0, 0, 2.64213e-05, 116846
-10352.5, 109239, -62.079, 2.55778, -629.631, 0.162762, 0.259251, 1.03299, 0.34851, 0.655882, 0.0001, 45.5, 246, 21.1806, 0.0793241, 0, 0, 1, 0, 1.48874e-05, 116851
-10352.5, 109239, -62.079, 2.55778, -629.631, 0.162762, 0.259251, 1.03299, 0.34851, 0.655882, 3, 45.5, 246, 21.1806, 0.0793241, 0, 0, 1, 0, 1.35277e-05, 116851
-11893.1, 313199, -269.457, 1.71656, -993.808, -0.0138155, 0.503922, 1.03299, 0.34851, 0.655882, 0.0001, 45.5, 246, 42.6704, 0.203738, 0, 0, 0, 0, 1.07391e-05, 116858
-10719.9, 841524, -50.0195, 0.302284, -925.686, 0.206865, 0.305805, 0.993198, 0.349787, 0.651995, 3, 91, 246, 21.8124, 0.0147495, 0, 0, 1, 0, 1.09383e-05, 116869
581.792, 417138, -387.24, 3.09365, -1034.62, 0.409668, 0.412101, 0.9175, 0.352806, 0.64323, 3, 455, 246, 35.3482, 0.151651, 0, 0, 0, 0, 9.10263e-05, 116870
-5888.82, 683757, -353.845, 0.0412241, -970.291, 0.0501224, 0.515873, 1.03299, 0.34851, 0.655882, 0.0001, 45.5, 246, 36.1777, 0.133369, 0, 0, 0, 0, 8.21961e-05, 116875
-9167.04, 448912, -389.256, 0.287277, -813.477, 0.394262, 0.659785, 1.03299, 0.34851, 0.655882, 0.0001, 45.5, 246, 41.4119, 0.219925, 0, 0, 0, 0, 1.3013e-05, 116877
-9167.04, 448912, -389.256, 0.287277, -813.477, 0.394262, 0.659785, 1.03299, 0.34851, 0.655882, 3, 45.5, 246, 41.4119, 0.219925, 0, 0, 0, 0, 0.574113, 116877
-7466.25, 473989, -407.472, 0.305557, -870.762, 0.420868, 0.652897, 0.993198, 0.349787, 0.651995, 3, 91, 246, 41.4119, 0.219925, 0, 0, 1, 0, 0.603969, 116877
-6597.13, 177201, -282.974, 3.61911, -723.055, 0.440872, 0.308739, 0.993198, 0.349787, 0.651995, 0.0001, 91, 246, 43.1219, 0.18352, 1.0409, 1, 1, 0, 2.82101e-05, 116881
-2754.76, 193657, -337.199, 4.07071, -813.717, 0.543575, 0.343731, 0.958125, 0.351078, 0.648177, 0.0001, 182, 246, 43.1219, 0.18352, 1.53937, 1, 0, 0, -2.45588e-05, 116881
-2754.76, 193657, -337.199, 4.07071, -813.717, 0.543575, 0.343731, 0.958125, 0.351078, 0.648177, 3, 182, 246, 43.1219, 0.18352, 1.36961, 1, 0, 0, -1.25881e-05, 116881
-10130.2, 411343, -286.486, 0.979037, -1176.66, 0.00818201, 0.524479, 1.03299, 0.34851, 0.655882, 0.0001, 45.5, 246, 42.0683, 0.178298, 0, 0, 0, 0, -2.63863e-05, 116883
-10130.2, 411343, -286.486, 0.979037, -1176.66, 0.00818201, 0.524479, 1.03299, 0.34851, 0.655882, 3, 45.5, 246, 42.0683, 0.178298, 0, 0, 0, 0, 5.0024e-05, 116883
-10855.2, 265082, -154.705, 1.34904, -1005.8, 0.0974457, 0.396974, 1.03299, 0.34851, 0.655882, 0.0001, 45.5, 246, 32.7174, 0.138216, 0, 0, 0, 0, 1.81847e-06, 116890
-10855.2, 265082, -154.705, 1.34904, -1005.8, 0.0974457, 0.396974, 1.03299, 0.34851, 0.655882, 3, 45.5, 246, 32.7174, 0.138216, 0, 0, 0, 0, 6.84996e-06, 116890
-7892.97, -7570.03, -12.6035, 3.05987, -1096.56, 0.0141899, 0.251109, 0.993198, 0.349787, 0.651995, 0.0001, 91, 246, 10.7265, 0.0611647, 0, 0, 1, 1, -9.23659e-06, 116891
-7892.97, -7570.03, -12.6035, 3.05987, -1096.56, 0.0141899, 0.251109, 0.993198, 0.349787, 0.651995, 3, 91, 246, 10.7265, 0.0611647, 0, 0, 1, 1, 8.51656e-06, 116891
-7620.81, 41966.5, -99.0956, 3.72544, -1136.05, 0.1326, 0.298039, 0.9175, 0.352806, 0.64323, 3, 455, 246, 10.7265, 0.0611647, 0, 0, 1, 1, -1.16753e-05, 116891
-10538.4, 309243, -14.6918, 0.823306, -1054.58, 0.0675709, 0.297888, 0.993198, 0.349787, 0.651995, 0.0001, 91, 246, 17.5835, 0.0145428, 0, 0, 1, 0, -4.61611e-06, 116895
-11030.7, 105661, 2.94583, 2.44458, -663.198, 0.330686, 0.249649, 1.03299, 0.34851, 0.655882, 0.0001, 45.5, 246, 10.5241, 0.023094, 0, 0, 1, 0, -2.00629e-05, 116896
-10046.8, 115413, -12.6642, 2.66848, -701.681, 0.379177, 0.236763, 0.993198, 0.349787, 0.651995, 0.0001, 91, 246, 10.5241, 0.023094, 0, 0, 1, 0, 1.11442e-05, 116896
-10046.8, 115413, -12.6642, 2.66848, -701.681, 0.379177, 0.236763, 0.993198, 0.349787, 0.651995, 3, 91, 246, 10.5241, 0.023094, 0, 0, 1, 0, 2.53018e-05, 116896
-8766.21, 126794, -32.0279, 2.92759, -750.126, 0.43988, 0.235933, 0.958125, 0.351078, 0.648177, 0.0001, 182, 246, 10.5241, 0.023094, 0, 0, 1, 0, 1.72313e-05, 116896
-8766.21, 126794, -32.0279, 2.92759, -750.126, 0.43988, 0.235933, 0.958125, 0.351078, 0.648177, 3, 182, 246, 10.5241, 0.023094, 0, 0, 1, 0, 4.73302e-06, 116896
-6479.71, 145467, -65.5726, 3.34694, -836.559, 0.547204, 0.254988, 0.9175, 0.352806, 0.64323, 0.0001, 455, 246, 10.5241, 0.023094, 0, 0, 1, 0, -4.12305e-05, 116896
-6479.71, 145467, -65.5726, 3.34694, -836.559, 0.547204, 0.254988, 0.9175, 0.352806, 0.64323, 3, 455, 246, 10.5241, 0.023094, 0, 0, 1, 0, -2.53545e-05, 116896
-10400.8, 105715, 7.74593, 1.73164, -994.801, 0.113215, 0.299639, 1.03299, 0.34851, 0.655882, 0.0001, 45.5, 246, 12.6771, 0.0245012, 0, 0, 1, 0, -6.84639e-06, 116902
-10400.8, 105715, 7.74593, 1.73164, -994.801, 0.113215, 0.299639, 1.03299, 0.34851, 0.655882, 3, 45.5, 246, 12.6771, 0.0245012, 0, 0, 1, 0, 1.74287e-05, 116902
-11747.5, 396848, -289.581, 0.783056, -598.027, -0.00188071, 0.53434, 1.03299, 0.34851, 0.655882, 0.0001, 45.5, 246, 34.0139, 0.187016, 0, 0, 0, 0, -2.54197e-05, 116903
-11747.5, 396848, -289.581, 0.783056, -598.027, -0.00188071, 0.53434, 1.03299, 0.34851, 0.655882, 3, 45.5, 246, 34.0139, 0.187016, 0, 0, 0, 0, -7.32485e-06, 116903
-2903.61, 61030.2, -196.318, 3.91388, -891.572, 0.00261682, 0.21745, 0.993198, 0.349787, 0.651995, 0.0001, 91, 246, 49.3104, 0.125416, 1.23629, 1, 1, 0, -1.39054e-06, 116908
-2903.61, 61030.2, -196.318, 3.91388, -891.572, 0.00261682, 0.21745, 0.993198, 0.349787, 0.651995, 3, 91, 246, 49.3104, 0.125416, 1.02259, 1, 1, 0, 1.23619e-05, 116908
-1279.04, 76266.7, -249.883, 4.30905, -921.177, 0.0769404, 0.256308, 0.958125, 0.351078, 0.648177, 0.0001, 182, 246, 49.3104, 0.125416, 1.55022, 1, 1, 0, 6.70536e-06, 116908
-1279.04, 76266.7, -249.883, 4.30905, -921.177, 0.0769404, 0.256308, 0.958125, 0.351078, 0.648177, 3, 182, 246, 49.3104, 0.125416, 1.40675, 1, 1, 0, 1.03008e-05, 116908
2101.39, 100332, -341.352, 4.98656, -996.246, 0.205787, 0.347146, 0.9175, 0.352806, 0.64323, 0.0001, 455, 246, 49.3104, 0.125416, 2.8266, 1, 1, 1, 4.51789e-06, 116908
2101.39, 100332, -341.352, 4.98656, -996.246, 0.205787, 0.347146, 0.9175, 0.352806, 0.64323, 3, 455, 246, 49.3104, 0.125416, 2.82583, 1, 1, 1, 3.30364e-06, 116908
-12282.7, 155986, -17.6215, 2.45563, -1058.12, 0.0763716, 0.254852, 1.03299, 0.34851, 0.655882, 0.0001, 45.5, 246, 19.4321, 0.0476605, 0, 0, 1, 0, 4.4857e-06, 116909
-12282.7, 155986, -17.6215, 2.45563, -1058.12, 0.0763716, 0.254852, 1.03299, 0.34851, 0.655882, 3, 45.5, 246, 19.4321, 0.0476605, 0, 0, 1, 0, -9.68214e-06, 116909
-8704.79, 62344.1, -52.5865, 1.97312, -867.535, 0.0124116, 0.312233, 1.03299, 0.34851, 0.655882, 0.0001, 45.5, 246, 25.3492, 0.11062, 0, 0, 1, 0, 9.05203e-06, 116910
-11873.3, 281959, -180.295, 1.66364, -971.345, -0.00970169, 0.402633, 1.03299, 0.34851, 0.655882, 0.0001, 45.5, 246, 34.6543, 0.149513, 0, 0, 0, 0, -1.5504e-05, 116912
-9914.44, 119406, -99.8969, 3.3669, -1103.7, -0.0542357, 0.213909, 1.03299, 0.34851, 0.655882, 0.0001, 45.5, 246, 32.8499, 0.116511, 0, 0, 0, 0, 7.77956e-06, 116918
-9914.44, 119406, -99.8969, 3.3669, -1103.7, -0.0542357, 0.213909, 1.03299, 0.34851, 0.655882, 3, 45.5, 246, 32.8499, 0.116511, 0, 0, 0, 0, 3.20156e-06, 116918
-7992.91, 140394, -144.324, 3.6607, -1110.11, 3.21377e-05, 0.225026, 0.993198, 0.349787, 0.651995, 0.0001, 91, 246, 32.8499, 0.116511, 0, 0, 1, 0, 7.63293e-06, 116918
-7992.91, 140394, -144.324, 3.6607, -1110.11, 3.21377e-05, 0.225026, 0.993198, 0.349787, 0.651995, 3, 91, 246, 32.8499, 0.116511, 0, 0, 1, 0, -5.23841e-06, 116918
-285.78, 196565, -285.797, 4.59513, -1197.18, 0.174589, 0.326756, 0.9175, 0.352806, 0.64323, 0.0001, 455, 246, 32.8499, 0.116511, 1.11247, 1, 0, 0, -7.19741e-06, 116918
-285.78, 196565, -285.797, 4.59513, -1197.18, 0.174589, 0.326756, 0.9175, 0.352806, 0.64323, 3, 455, 246, 32.8499, 0.116511, 1.17707, 1, 0, 0, 5.12426e-06, 116918
-8227.38, -1103.87, -3.03, 2.71106, -1066.92, -8.59158e-05, 0.262045, 0.993198, 0.349787, 0.651995, 3, 91, 246, 7.41374, 0.0566261, 0, 0, 1, 1, -8.52291e-06, 116919
-9594.2, 406452, -245.14, 0.725022, -1053.94, 0.133026, 0.476921, 1.03299, 0.34851, 0.655882, 0.0001, 45.5, 246, 36.9234, 0.152711, 0, 0, 0, 0, -3.19034e-05, 116920
-9594.2, 406452, -245.14, 0.725022, -1053.94, 0.133026, 0.476921, 1.03299, 0.34851, 0.655882, 3, 45.5, 246, 36.9234, 0.152711, 0, 0, 0, 0, 3.45701e-06, 116920
-10015.7, 157444, -169.831, 2.98166, -908.08, 0.186945, 0.291914, 1.03299, 0.34851, 0.655882, 0.0001, 45.5, 246, 38.6641, 0.159894, 0, 0, 0, 0, 1.22189e-05, 116924
-10738.6, 310199, -241.766, 0.907961, -681.746, 0.266228, 0.498495, 1.03299, 0.34851, 0.655882, 0.0001, 45.5, 246, 34.9072, 0.188803, 0, 0, 0, 0, -2.62704e-05, 116929
-10738.6, 310199, -241.766, 0.907961, -681.746, 0.266228, 0.498495, 1.03299, 0.34851, 0.655882, 3, 45.5, 246, 34.9072, 0.188803, 0, 0, 0, 0, 3.86309e-05, 116929
-9190.03, 324310, -259.305, 0.965547, -718.217, 0.28194, 0.479025, 0.993198, 0.349787, 0.651995, 3, 91, 246, 34.9072, 0.188803, 0, 0, 1, 0, 6.2473e-05, 116929
-12213.9, 209840, -188.295, 2.70414, -784.527, 0.259571, 0.323144, 1.03299, 0.34851, 0.655882, 0.0001, 45.5, 246, 35.8125, 0.155032, 0, 0, 0, 0, -4.36664e-05, 116930
-12213.9, 209840, -188.295, 2.70414, -784.527, 0.259571, 0.323144, 1.03299, 0.34851, 0.655882, 3, 45.5, 246, 35.8125, 0.155032, 0, 0, 0, 0, 3.81899e-05, 116930
295.039, 273557, -339.963, 3.75702, -1023.17, 0.47564, 0.376819, 0.9175, 0.352806, 0.64323, 3, 455, 246, 35.8125, 0.155032, 1.08826, 1, 0, 0, 7.96959e-05, 116930
-3440.17, 129683, -240.291, 3.13274, -1050.45, 0.912211, 0.339427, 0.958125, 0.351078, 0.648177, 0.0001, 182, 246, 45.9653, 0.201885, 1.06133, 1, 1, 0, 1.48587e-06, 116931
-9413.47, 150419, -178.803, 2.77886, -792.334, -0.0335086, 0.325023, 1.03299, 0.34851, 0.655882, 0.0001, 45.5, 246, 39.9436, 0.178018, 0, 0, 1, 0, 2.027e-06, 116932
-9413.47, 150419, -178.803, 2.77886, -792.334, -0.0335086, 0.325023, 1.03299, 0.34851, 0.655882, 3, 45.5, 246, 39.9436, 0.178018, 0, 0, 1, 0, -2.52469e-06, 116932
-131.508, 193770, -320.936, 3.65252, -876.318, 0.116362, 0.379021, 0.9175, 0.352806, 0.64323, 0.0001, 455, 246, 39.9436, 0.178018, 1.53716, 1, 0, 0, -7.86877e-06, 116932
-131.508, 193770, -320.936, 3.65252, -876.318, 0.116362, 0.379021, 0.9175, 0.352806, 0.64323, 3, 455, 246, 39.9436, 0.178018, 1.54795, 1, 0, 0, -5.41448e-06, 116932
-11279.6, 338289, -153.993, 1.06092, -957.623, 0.236085, 0.390102, 1.03299, 0.34851, 0.655882, 0.0001, 45.5, 246, 29.8378, 0.110782, 0, 0, 0, 0, 1.42264e-05, 116933
-11279.6, 338289, -153.993, 1.06092, -957.623, 0.236085, 0.390102, 1.03299, 0.34851, 0.655882, 3, 45.5, 246, 29.8378, 0.110782, 0, 0, 0, 0, 1.63463e-05, 116933
-7705.81, 383673, -189.615, 1.19479, -1047.27, 0.267179, 0.341005, 0.958125, 0.351078, 0.648177, 3, 182, 246, 29.8378, 0.110782, 0, 0, 1, 0, -5.35172e-07, 116933
-7462.74, 958222, -170.039, 0.126093, -925.61, 0.378237, 0.33218, 0.993198, 0.349787, 0.651995, 0.0001, 91, 246, 25.4672, 0.0422781, 0, 0, 1, 0, -1.05404e-05, 116939
-4826.14, 296906, -375.86, 4.26522, -959.282, 1.08681, 0.34901, 0.958125, 0.351078, 0.648177, 0.0001, 182, 246, 38.3011, 0.162489, 1.08565, 1, 0, 0, -3.17045e-05, 116947
-9717.04, 183813, -214.791, 1.54473, -620.937, 0.622859, 0.46779, 1.03299, 0.34851, 0.655882, 3, 45.5, 246, 40.0402, 0.224542, 0, 0, 1, 0, -4.13005e-05, 116949
-9875.75, 473794, -214.462, 0.65378, -1070.86, 0.02837, 0.430723, 1.03299, 0.34851, 0.655882, 0.0001, 45.5, 246, 33.7438, 0.116184, 0, 0, 0, 0, 4.03076e-05, 116950
-9875.75, 473794, -214.462, 0.65378, -1070.86, 0.02837, 0.430723, 1.03299, 0.34851, 0.655882, 3, 45.5, 246, 33.7438, 0.116184, 0, 0, 0, 0, -8.42913e-06, 116950
-8875.43, 133195, -184.046, 3.52089, -740.477, -0.0596489, 0.228255, 1.03299, 0.34851, 0.655882, 3, 45.5, 246, 40.1551, 0.155579, 0, 0, 0, 0, -1.8718e-05, 116951
-6463.92, 143026, -226.294, 3.8405, -756.701, -9.63897e-05, 0.245651, 0.993198, 0.349787, 0.651995, 3, 91, 246, 40.1551, 0.155579, 0, 0, 1, 0, 1.17521e-05, 116951
-3396.27, 154488, -277.024, 4.22459, -787.564, 0.071366, 0.283305, 0.958125, 0.351078, 0.648177, 0.0001, 182, 246, 40.1551, 0.155579, 1.10848, 1, 1, 0, -1.38936e-05, 116951
2072.84, 173886, -363.319, 4.8797, -860.288, 0.194684, 0.371156, 0.9175, 0.352806, 0.64323, 0.0001, 455, 246, 40.1551, 0.155579, 3.29002, 1, 0, 0, -1.42145e-05, 116951
2072.84, 173886, -363.319, 4.8797, -860.288, 0.194684, 0.371156, 0.9175, 0.352806, 0.64323, 3, 455, 246, 40.1551, 0.155579, 3.30796, 1, 0, 0, -7.03799e-06, 116951
-11612.2, 200125, -81.8946, 1.75561, -848.477, 0.343359, 0.32188, 1.03299, 0.34851, 0.655882, 0.0001, 45.5, 246, 24.0807, 0.0883118, 0, 0, 1, 0, -1.29714e-05, 116953
-10151, 217326, -101.205, 1.89603, -902.72, 0.378523, 0.299345, 0.993198, 0.349787, 0.651995, 3, 91, 246, 24.0807, 0.0883118, 0, 0, 1, 0, 1.32283e-05, 116953
-8291.25, 237330, -123.924, 2.05235, -967.488, 0.420792, 0.284641, 0.958125, 0.351078, 0.648177, 0.0001, 182, 246, 24.0807, 0.0883118, 0, 0, 1, 0, -2.39155e-06, 116953
-8291.25, 237330, -123.924, 2.05235, -967.488, 0.420792, 0.284641, 0.958125, 0.351078, 0.648177, 3, 182, 246, 24.0807, 0.0883118, 0, 0, 1, 0, -5.16007e-05, 116953
-9032.04, 187820, -233.953, 2.1395, -1071.85, 0.463022, 0.468498, 1.03299, 0.34851, 0.655882, 3, 45.5, 246, 47.8485, 0.239547, 0, 0, 0, 0, 1.35568e-05, 116954
-836.058, 168468, -295.893, 4.08984, -820.368, 0.42715, 0.348525, 0.9175, 0.352806, 0.64323, 0.0001, 455, 246, 36.1472, 0.150646, 1.20305, 1, 0, 0, -5.97429e-06, 116956
-836.058, 168468, -295.893, 4.08984, -820.368, 0.42715, 0.348525, 0.9175, 0.352806, 0.64323, 3, 455, 246, 36.1472, 0.150646, 1.22025, 1, 0, 0, 4.88804e-06, 116956
-10276, 320131, -126.561, 1.01051, -663.882, 0.412611, 0.335387, 0.993198, 0.349787, 0.651995, 3, 91, 246, 21.6854, 0.0888326, 0, 0, 1, 0, 0.00018815, 116960
-8852.81, 336002, -138.532, 1.07872, -714.23, 0.446512, 0.310382, 0.958125, 0.351078, 0.648177, 0.0001, 182, 246, 21.6854, 0.0888326, 0, 0, 1, 0, 1.63707e-06, 116960
-10030.4, 346490, -167.96, 0.824283, -1040.48, -0.000946301, 0.411547, 1.03299, 0.34851, 0.655882, 0.0001, 45.5, 246, 32.0372, 0.123176, 0, 0, 0, 0, -2.82334e-05, 116961
-10030.4, 346490, -167.96, 0.824283, -1040.48, -0.000946301, 0.411547, 1.03299, 0.34851, 0.655882, 3, 45.5, 246, 32.0372, 0.123176, 0, 0, 0, 0, -1.94341e-05, 116961
-8707.56, 365982, -183.217, 0.86054, -1044.48, 0.00216939, 0.383865, 0.993198, 0.349787, 0.651995, 3, 91, 246, 32.0372, 0.123176, 0, 0, 1, 0, -1.68836e-05, 116961
-7141.21, 385821, -199.15, 0.896847, -1049.54, 0.0055613, 0.360846, 0.958125, 0.351078, 0.648177, 3, 182, 246, 32.0372, 0.123176, 0, 0, 0, 0, -2.24016e-06, 116961
-7693.1, 360014, -280.909, 0.797866, -1040.58, 0.00315801, 0.514841, 0.993198, 0.349787, 0.651995, 3, 91, 246, 40.7884, 0.200065, 0, 0, 1, 0, 5.91783e-05, 116982
-7934.47, 502757, -225.14, 0.253637, -756.926, 0.272281, 0.401671, 0.993198, 0.349787, 0.651995, 0.0001, 91, 246, 27.3345, 0.111388, 0, 0, 1, 0, 9.61266e-06, 116983
-8341.47, 345516, -237.986, 0.794419, -918.855, 0.0192704, 0.45583, 0.993198, 0.349787, 0.651995, 0.0001, 91, 246, 35.7813, 0.172692, 0, 0, 1, 0, 3.80705e-05, 116986
-6757.66, 361816, -254.889, 0.829328, -927.148, 0.0222319, 0.437894, 0.958125, 0.351078, 0.648177, 0.0001, 182, 246, 35.7813, 0.172692, 0, 0, 0, 0, 2.20736e-06, 116986
-7190.88, 21474.4, -104.482, 4.0368, -662.021, 0.162291, 0.292032, 0.9175, 0.352806, 0.64323, 3, 455, 246, 18.0848, 0.0325841, 0, 0, 1, 1, -7.55224e-06, 116993
-7132.52, 123470, -212.209, 2.75567, -666.786, 0.0780746, 0.353692, 1.03299, 0.34851, 0.655882, 0.0001, 45.5, 246, 47.5504, 0.216647, 1.0563, 1, 1, 0, -8.02129e-06, 116996
-7132.52, 123470, -212.209, 2.75567, -666.786, 0.0780746, 0.353692, 1.03299, 0.34851, 0.655882, 3, 45.5, 246, 47.5504, 0.216647, 0, 0, 1, 0, -2.45478e-06, 116996
-5224.1, 132851, -247.124, 2.99286, -694.503, 0.115777, 0.355823, 0.993198, 0.349787, 0.651995, 0.0001, 91, 246, 47.5504, 0.216647, 1.08357, 1, 1, 0, 3.02784e-06, 116996
-2803.2, 143802, -288.149, 3.26688, -732.069, 0.161741, 0.371666, 0.958125, 0.351078, 0.648177, 0.0001, 182, 246, 47.5504, 0.216647, 1.36533, 1, 1, 0, 2.53027e-06, 116996
-2803.2, 143802, -288.149, 3.26688, -732.069, 0.161741, 0.371666, 0.958125, 0.351078, 0.648177, 3, 182, 246, 47.5504, 0.216647, 1.18453, 1, 1, 0, -2.0123e-05, 116996
1446.15, 161847, -355.313, 3.70877, -802.857, 0.240445, 0.416224, 0.9175, 0.352806, 0.64323, 0.0001, 455, 246, 47.5504, 0.216647, 3.55609, 1, 0, 0, 7.50367e-07, 116996
1446.15, 161847, -355.313, 3.70877, -802.857, 0.240445, 0.416224, 0.9175, 0.352806, 0.64323, 3, 455, 246, 47.5504, 0.216647, 3.5628, 1, 0, 0, 1.48831e-05, 116996
-10690.4, 387901, -283.693, 0.640128, -668.647, 0.274938, 0.528381, 1.03299, 0.34851, 0.655882, 0.0001, 45.5, 246, 34.3544, 0.182082, 0, 0, 0, 0, -2.01305e-05, 116998
-10690.4, 387901, -283.693, 0.640128, -668.647, 0.274938, 0.528381, 1.03299, 0.34851, 0.655882, 3, 45.5, 246, 34.3544, 0.182082, 0, 0, 0, 0, 1.14237e-05, 116998
