-7353.29, 876899, -370.463, 0.148897, -931.551, 0.128049, 0.487263, 1.03299, 0.34851, 0.655882, 3, 45.5, 246, 34.0479, 0.106734, 0, 0, 0, 0, -2.73978e-06, 79502
1066.51, 562082, -320.881, 4.78688, -1176.47, 0.193793, 0.268862, 0.9175, 0.352806, 0.64323, 0.0001, 455, 246, 29.9322, 0.0693981, 0, 0, 0, 0, -1.80945e-06, 79503
1066.51, 562082, -320.881, 4.78688, -1176.47, 0.193793, 0.268862, 0.9175, 0.352806, 0.64323, 3, 455, 246, 29.9322, 0.0693981, 0, 0, 0, 0, -9.49825e-06, 79503
-6863.41, 256350, -376.064, 3.11749, -898.947, -4.06542e-05, 0.504611, 0.993198, 0.349787, 0.651995, 0.0001, 91, 246, 51.7271, 0.249968, 1.04067, 1, 1, 0, -8.35329e-06, 79505
-1755.18, 274076, -437.521, 3.40407, -937.101, 0.0466584, 0.536364, 0.958125, 0.351078, 0.648177, 0.0001, 182, 246, 51.7271, 0.249968, 3.12006, 1, 0, 0, 5.89887e-06, 79505
-1755.18, 274076, -437.521, 3.40407, -937.101, 0.0466584, 0.536364, 0.958125, 0.351078, 0.648177, 3, 182, 246, 51.7271, 0.249968, 2.86764, 1, 0, 0, -1.04679e-05, 79505
-9073.9, 135173, -107.173, 1.42892, -1163.5, 0.126293, 0.383519, 1.03299, 0.34851, 0.655882, 3, 45.5, 246, 33.8292, 0.167203, 0, 0, 1, 0, 8.52056e-06, 79507
-8728.22, 78791.1, -35.4125, 0.433519, -1102.4, 0.35207, 0.355377, 1.03299, 0.34851, 0.655882, 0.0001, 45.5, 246, 19.7083, 0.104508, 0, 0, 1, 0, -8.46191e-06, 79513
-9262.82, 138748, -142.049, 2.72317, -1138.55, 0.00909791, 0.317416, 1.03299, 0.34851, 0.655882, 0.0001, 45.5, 246, 38.9708, 0.164617, 0, 0, 0, 0, 1.14693e-05, 79514
-9262.82, 138748, -142.049, 2.72317, -1138.55, 0.00909791, 0.317416, 1.03299, 0.34851, 0.655882, 3, 45.5, 246, 38.9708, 0.164617, 0, 0, 0, 0, 1.23825e-06, 79514
-7381.06, 162071, -182.801, 2.94157, -1155.4, 0.0443978, 0.31581, 0.993198, 0.349787, 0.651995, 0.0001, 91, 246, 38.9708, 0.164617, 0, 0, 1, 0, 7.60778e-06, 79514
-7381.06, 162071, -182.801, 2.94157, -1155.4, 0.0443978, 0.31581, 0.993198, 0.349787, 0.651995, 3, 91, 246, 38.9708, 0.164617, 0, 0, 1, 0, -8.52364e-06, 79514
-19.6288, 224376, -307.147, 3.58902, -1245.9, 0.155839, 0.363514, 0.9175, 0.352806, 0.64323, 3, 455, 246, 38.9708, 0.164617, 1.4215, 1, 0, 0, -3.59776e-06, 79514
-11745.1, 893673, -3.72933, 0.213762, -678.301, 0.392951, 0.339673, 1.03299, 0.34851, 0.655882, 0.0001, 45.5, 246, 16.0162, 0.00156583, 0, 0, 1, 0, 8.3758e-05, 79518
-11745.1, 893673, -3.72933, 0.213762, -678.301, 0.392951, 0.339673, 1.03299, 0.34851, 0.655882, 3, 45.5, 246, 16.0162, 0.00156583, 0, 0, 1, 0, -1.75882e-05, 79518
-11171.9, 921641, -5.21203, 0.225047, -723.246, 0.419191, 0.303511, 0.993198, 0.349787, 0.651995, 0.0001, 91, 246, 16.0162, 0.00156583, 0, 0, 1, 0, -9.68729e-05, 79518
-10476.5, 952849, -6.89463, 0.236673, -774.605, 0.449179, 0.271704, 0.958125, 0.351078, 0.648177, 0.0001, 182, 246, 16.0162, 0.00156583, 0, 0, 1, 0, 1.16848e-05, 79518
-6335.48, 512255, -457.784, 0.381117, -837.898, 0.731849, 0.683782, 0.958125, 0.351078, 0.648177, 3, 182, 246, 39.9517, 0.223726, 0, 0, 0, 0, 3.78517e-05, 79522
-9552.73, 439099, -309.222, 0.57682, -925.822, -0.00121803, 0.552983, 1.03299, 0.34851, 0.655882, 0.0001, 45.5, 246, 39.042, 0.185089, 0, 0, 0, 0, -4.79448e-05, 79527
-6384.34, 748217, -314.754, 0.137623, -1033.75, 0.00120031, 0.467778, 1.03299, 0.34851, 0.655882, 0.0001, 45.5, 246, 35.092, 0.108286, 0, 0, 0, 0, 0.000192897, 79530
-6384.34, 748217, -314.754, 0.137623, -1033.75, 0.00120031, 0.467778, 1.03299, 0.34851, 0.655882, 3, 45.5, 246, 35.092, 0.108286, 0, 0, 0, 0, 8.58289e-05, 79530
-5188.85, 768845, -326.339, 0.142133, -1035.14, 0.00128647, 0.441652, 0.993198, 0.349787, 0.651995, 3, 91, 246, 35.092, 0.108286, 0, 0, 1, 0, 8.67871e-06, 79530
-10798.6, 478662, -63.0234, 0.422672, -636.663, -0.000814248, 0.346349, 1.03299, 0.34851, 0.655882, 0.0001, 45.5, 246, 16.3852, 0.0348949, 0, 0, 1, 0, -5.21737e-05, 79535
-10798.6, 478662, -63.0234, 0.422672, -636.663, -0.000814248, 0.346349, 1.03299, 0.34851, 0.655882, 3, 45.5, 246, 16.3852, 0.0348949, 0, 0, 1, 0, -6.10603e-06, 79535
-10127.6, 485771, -67.6457, 0.437263, -637.362, -2.45299e-06, 0.31129, 0.993198, 0.349787, 0.651995, 0.0001, 91, 246, 16.3852, 0.0348949, 0, 0, 1, 0, -3.37814e-05, 79535
-11690.7, 129945, -3.98095, 2.53269, -1073.16, -0.0271016, 0.248836, 1.03299, 0.34851, 0.655882, 0.0001, 45.5, 246, 17.454, 0.041259, 0, 0, 1, 0, 7.64025e-06, 79542
-11690.7, 129945, -3.98095, 2.53269, -1073.16, -0.0271016, 0.248836, 1.03299, 0.34851, 0.655882, 3, 45.5, 246, 17.454, 0.041259, 0, 0, 1, 0, 9.70962e-06, 79542
-2832.97, 280498, -392.938, 3.91104, -1136.57, 1.1268, 0.408184, 0.958125, 0.351078, 0.648177, 0.0001, 182, 246, 43.9567, 0.192981, 1.70728, 1, 0, 0, 3.82358e-05, 79543
-2832.97, 280498, -392.938, 3.91104, -1136.57, 1.1268, 0.408184, 0.958125, 0.351078, 0.648177, 3, 182, 246, 43.9567, 0.192981, 1.53524, 1, 0, 0, 2.77655e-05, 79543
-5066.68, 98269.9, -203.583, 2.87211, -1002.25, 0.233545, 0.354102, 1.03299, 0.34851, 0.655882, 0.0001, 45.5, 246, 55.0671, 0.246148, 1.24075, 1, 1, 0, 5.82179e-06, 79559
-3299.73, 119083, -248.876, 3.15374, -1062.17, 0.283854, 0.359948, 0.993198, 0.349787, 0.651995, 0.0001, 91, 246, 55.0671, 0.246148, 1.39611, 1, 1, 0, 3.68069e-06, 79559
-3299.73, 119083, -248.876, 3.15374, -1062.17, 0.283854, 0.359948, 0.993198, 0.349787, 0.651995, 3, 91, 246, 55.0671, 0.246148, 1.19197, 1, 1, 0, -2.42094e-06, 79559
-775.937, 143719, -304.02, 3.48682, -1140.99, 0.347822, 0.381626, 0.958125, 0.351078, 0.648177, 0.0001, 182, 246, 55.0671, 0.246148, 2.1545, 1, 0, 0, -1.60782e-05, 79559
-775.937, 143719, -304.02, 3.48682, -1140.99, 0.347822, 0.381626, 0.958125, 0.351078, 0.648177, 3, 182, 246, 55.0671, 0.246148, 2.0079, 1, 0, 0, -2.22222e-06, 79559
-8061.88, 246239, -155.573, 0.0743203, -1277.04, 0.788926, 0.41777, 0.958125, 0.351078, 0.648177, 0.0001, 182, 246, 35.384, 0.218902, 1.18643, 1, 1, 0, 656.044, 79566
-8061.88, 246239, -155.573, 0.0743203, -1277.04, 0.788926, 0.41777, 0.958125, 0.351078, 0.648177, 3, 182, 246, 35.384, 0.218902, 1.08783, 1, 1, 0, 655.956, 79566
-7905.52, 308744, -162.324, 0.0816918, -1529.5, 0.944636, 0.39333, 0.9175, 0.352806, 0.64323, 0.0001, 455, 246, 35.384, 0.218902, 1.87624, 1, 0, 0, 640.59, 79566
-7905.52, 308744, -162.324, 0.0816918, -1529.5, 0.944636, 0.39333, 0.9175, 0.352806, 0.64323, 3, 455, 246, 35.384, 0.218902, 1.75972, 1, 0, 0, 635.365, 79566
-8999.91, 919489, -184.135, 0.235449, -984.576, 0.00182625, 0.375501, 1.03299, 0.34851, 0.655882, 0.0001, 45.5, 246, 28.726, 0.0514376, 0, 0, 0, 0, -0.000159596, 79567
-8999.91, 919489, -184.135, 0.235449, -984.576, 0.00182625, 0.375501, 1.03299, 0.34851, 0.655882, 3, 45.5, 246, 28.726, 0.0514376, 0, 0, 0, 0, -4.38547e-05, 79567
1662.43, 280059, -350.175, 5.40495, -1034.14, 0.745946, 0.345055, 0.9175, 0.352806, 0.64323, 0.0001, 455, 246, 30.5472, 0.112414, 1.19611, 1, 0, 0, 5.20435e-05, 79569
1662.43, 280059, -350.175, 5.40495, -1034.14, 0.745946, 0.345055, 0.9175, 0.352806, 0.64323, 3, 455, 246, 30.5472, 0.112414, 1.85582, 1, 0, 0, 1.48846e-05, 79569
-8929.86, 624920, -190.377, 0.300593, -936.068, 0.837263, 0.387765, 1.03299, 0.34851, 0.655882, 0.0001, 45.5, 246, 28.0094, 0.0673694, 0, 0, 1, 0, -5.92511e-05, 79580
-8929.86, 624920, -190.377, 0.300593, -936.068, 0.837263, 0.387765, 1.03299, 0.34851, 0.655882, 3, 45.5, 246, 28.0094, 0.0673694, 0, 0, 1, 0, 0.24157, 79580
-7938.13, 674012, -199.577, 0.325742, -1080.56, 0.965423, 0.355419, 0.993198, 0.349787, 0.651995, 3, 91, 246, 28.0094, 0.0673694, 0, 0, 1, 0, -4.34778e-05, 79580
-9691.46, 163029, -81.7967, 1.23643, -1056.14, 0.038697, 0.358476, 1.03299, 0.34851, 0.655882, 0.0001, 45.5, 246, 27.1553, 0.115077, 0, 0, 1, 0, -5.19576e-06, 79587
-9691.46, 163029, -81.7967, 1.23643, -1056.14, 0.038697, 0.358476, 1.03299, 0.34851, 0.655882, 3, 45.5, 246, 27.1553, 0.115077, 0, 0, 1, 0, -2.52394e-05, 79587
-9265.52, 47462.9, 2.74772, 2.75487, -1118.23, -0.0240867, 0.242537, 1.03299, 0.34851, 0.655882, 0.0001, 45.5, 246, 15.8782, 0.0524937, 1.19982, 1, 1, 0, -2.2876e-06, 79594
-6677.11, -10891.7, -28.5294, 3.1435, -821.716, 0.542444, 0.218089, 1.03299, 0.34851, 0.655882, 3, 45.5, 246, 23.6599, 0.0266853, 0, 0, 1, 0, -2.30662e-05, 79600
-8114.57, 78520.6, -49.7185, 3.04499, -906.448, 0.893818, 0.24713, 0.958125, 0.351078, 0.648177, 0.0001, 182, 246, 13.0673, 0.041207, 0, 0, 1, 0, -6.09556e-05, 79603
-8114.57, 78520.6, -49.7185, 3.04499, -906.448, 0.893818, 0.24713, 0.958125, 0.351078, 0.648177, 3, 182, 246, 13.0673, 0.041207, 0, 0, 1, 0, -2.09635e-05, 79603
-6471.4, 108458, -96.2513, 3.63095, -1131.84, 1.17845, 0.274511, 0.9175, 0.352806, 0.64323, 0.0001, 455, 246, 13.0673, 0.041207, 0, 0, 1, 0, 6.19655e-05, 79603
-6471.4, 108458, -96.2513, 3.63095, -1131.84, 1.17845, 0.274511, 0.9175, 0.352806, 0.64323, 3, 455, 246, 13.0673, 0.041207, 0, 0, 1, 0, 3.77589e-05, 79603
-9950.28, 339421, -463.796, 3.68801, -870.024, 0.0350561, 0.518148, 0.993198, 0.349787, 0.651995, 0.0001, 91, 246, 51.0721, 0.235918, 1.32297, 1, 1, 0, -9.0382e-06, 79616
-9950.28, 339421, -463.796, 3.68801, -870.024, 0.0350561, 0.518148, 0.993198, 0.349787, 0.651995, 3, 91, 246, 51.0721, 0.235918, 1.24218, 1, 1, 0, -3.09129e-06, 79616
-11189.9, 87105.4, 21.8668, 3.37679, -744.889, 0.549193, 0.15153, 1.03299, 0.34851, 0.655882, 0.0001, 45.5, 246, 10.0744, 0.0188018, 0, 0, 0, 0, 1.30211e-05, 79617
-11189.9, 87105.4, 21.8668, 3.37679, -744.889, 0.549193, 0.15153, 1.03299, 0.34851, 0.655882, 3, 45.5, 246, 10.0744, 0.0188018, 0, 0, 0, 0, 4.67806e-05, 79617
-9122.71, 93373, -85.6642, 3.43143, -1057.79, 0.00245279, 0.198829, 1.03299, 0.34851, 0.655882, 0.0001, 45.5, 246, 31.2721, 0.107112, 0, 0, 0, 0, 1.78435e-05, 79619
-9122.71, 93373, -85.6642, 3.43143, -1057.79, 0.00245279, 0.198829, 1.03299, 0.34851, 0.655882, 3, 45.5, 246, 31.2721, 0.107112, 0, 0, 0, 0, 8.16621e-06, 79619
-7591.68, 113096, -128.318, 3.74569, -1072.9, 0.0590618, 0.211432, 0.993198, 0.349787, 0.651995, 0.0001, 91, 246, 31.2721, 0.107112, 0, 0, 1, 0, -1.10856e-05, 79619
-7591.68, 113096, -128.318, 3.74569, -1072.9, 0.0590618, 0.211432, 0.993198, 0.349787, 0.651995, 3, 91, 246, 31.2721, 0.107112, 0, 0, 1, 0, 1.26993e-06, 79619
-1044.97, 167358, -267.427, 4.75984, -1183.23, 0.249455, 0.322105, 0.9175, 0.352806, 0.64323, 0.0001, 455, 246, 31.2721, 0.107112, 1.01728, 1, 0, 0, 1.69982e-05, 79619
-1044.97, 167358, -267.427, 4.75984, -1183.23, 0.249455, 0.322105, 0.9175, 0.352806, 0.64323, 3, 455, 246, 31.2721, 0.107112, 1.02819, 1, 0, 0, -2.21284e-06, 79619
-9774.37, 77822.9, 3.0422, 1.75507, -871.24, 0.134512, 0.300833, 1.03299, 0.34851, 0.655882, 3, 45.5, 246, 11.412, 0.0304899, 0, 0, 1, 0, -2.06218e-06, 79621
-8595.94, 62564.8, -47.6016, 1.41405, -1072.72, 0.0193794, 0.311258, 0.993198, 0.349787, 0.651995, 0.0001, 91, 246, 22.4083, 0.119558, 0, 0, 1, 0, -2.55605e-05, 79622
-8595.94, 62564.8, -47.6016, 1.41405, -1072.72, 0.0193794, 0.311258, 0.993198, 0.349787, 0.651995, 3, 91, 246, 22.4083, 0.119558, 0, 0, 1, 0, 3.05367e-06, 79622
-11376.9, 752868, -33.0572, 0.263827, -703.542, 0.548088, 0.34064, 1.03299, 0.34851, 0.655882, 0.0001, 45.5, 246, 17.0683, 0.0108245, 0, 0, 1, 0, -1.48589e-05, 79628
-11376.9, 752868, -33.0572, 0.263827, -703.542, 0.548088, 0.34064, 1.03299, 0.34851, 0.655882, 3, 45.5, 246, 17.0683, 0.0108245, 0, 0, 1, 0, 1.30934e-05, 79628
-10738.8, 785584, -35.8841, 0.280486, -770.531, 0.600414, 0.304664, 0.993198, 0.349787, 0.651995, 0.0001, 91, 246, 17.0683, 0.0108245, 0, 0, 1, 0, 7.11491e-05, 79628
-9948.57, 823818, -39.0105, 0.298372, -851.625, 0.663757, 0.273069, 0.958125, 0.351078, 0.648177, 0.0001, 182, 246, 17.0683, 0.0108245, 0, 0, 1, 0, -3.86465e-05, 79628
-4745.63, 152052, -137.081, 4.76205, -1527.76, 1.53824, 0.295051, 0.9175, 0.352806, 0.64323, 0.0001, 455, 246, 13.9436, 0.0384313, 0, 0, 0, 0, 2.67104e-06, 79630
-4745.63, 152052, -137.081, 4.76205, -1527.76, 1.53824, 0.295051, 0.9175, 0.352806, 0.64323, 3, 455, 246, 13.9436, 0.0384313, 0, 0, 0, 0, 1.21638e-05, 79630
-8585.84, 29358.7, 14.3738, 3.534, -1076.83, 0.609492, 0.153517, 1.03299, 0.34851, 0.655882, 0.0001, 45.5, 246, 15.4086, 0.0482342, 1.31349, 1, 0, 0, -7.18678e-06, 79635
-8585.84, 29358.7, 14.3738, 3.534, -1076.83, 0.609492, 0.153517, 1.03299, 0.34851, 0.655882, 3, 45.5, 246, 15.4086, 0.0482342, 1.24749, 1, 0, 0, -5.58048e-08, 79635
-8493.14, 225115, -332.392, 3.43244, -628.636, 0.973774, 0.359012, 0.993198, 0.349787, 0.651995, 0.0001, 91, 246, 41.0677, 0.188093, 1.00157, 1, 1, 0, 1.21534e-05, 79638
-3685.08, 249241, -387.716, 3.97978, -784.811, 1.22205, 0.392672, 0.958125, 0.351078, 0.648177, 0.0001, 182, 246, 41.0677, 0.188093, 1.54804, 1, 0, 0, 2.20344e-05, 79638
-3685.08, 249241, -387.716, 3.97978, -784.811, 1.22205, 0.392672, 0.958125, 0.351078, 0.648177, 3, 182, 246, 41.0677, 0.188093, 1.37439, 1, 0, 0, -7.986e-05, 79638
-3797.15, 68007.8, -184.248, 3.37209, -884.319, 0.00315811, 0.263287, 0.993198, 0.349787, 0.651995, 0.0001, 91, 246, 49.2346, 0.15768, 1.11457, 1, 1, 0, 1.18129e-05, 79647
-2329.79, 82747.1, -229.423, 3.67655, -907.671, 0.0577581, 0.284753, 0.958125, 0.351078, 0.648177, 0.0001, 182, 246, 49.2346, 0.15768, 1.38872, 1, 1, 0, 6.65732e-06, 79647
-2329.79, 82747.1, -229.423, 3.67655, -907.671, 0.0577581, 0.284753, 0.958125, 0.351078, 0.648177, 3, 182, 246, 49.2346, 0.15768, 1.22999, 1, 1, 0, -7.66101e-06, 79647
593.085, 105177, -303.777, 4.17584, -963.706, 0.14911, 0.341043, 0.9175, 0.352806, 0.64323, 0.0001, 455, 246, 49.2346, 0.15768, 2.3996, 1, 1, 1, -3.178e-07, 79647
593.085, 105177, -303.777, 4.17584, -963.706, 0.14911, 0.341043, 0.9175, 0.352806, 0.64323, 3, 455, 246, 49.2346, 0.15768, 2.32397, 1, 1, 1, -4.51595e-07, 79647
666.958, 474240, -324.629, 4.53302, -1115.58, 0.550818, 0.301666, 0.9175, 0.352806, 0.64323, 3, 455, 246, 28.0052, 0.0857459, 0, 0, 0, 0, 0.000135772, 79656
-8524.77, 290689, -188.984, 1.93391, -675.602, 0.0516216, 0.327171, 0.958125, 0.351078, 0.648177, 3, 182, 246, 26.9092, 0.121471, 0, 0, 1, 0, -2.36806e-06, 79657
-7400.49, 609159, -424.79, 0.304355, -1130.59, 0.0186412, 0.631575, 1.03299, 0.34851, 0.655882, 3, 45.5, 246, 44.3283, 0.183412, 0, 0, 0, 0, -6.17213e-05, 79658
-5703.56, 53888.6, -128.807, 2.71349, -935.408, 0.159584, 0.286376, 0.993198, 0.349787, 0.651995, 3, 91, 246, 44.0032, 0.149719, 0, 0, 1, 1, -8.19802e-06, 79659
-3059.51, 95941.6, -218.932, 3.31508, -1042.82, 0.267827, 0.312467, 0.9175, 0.352806, 0.64323, 0.0001, 455, 246, 44.0032, 0.149719, 1.12748, 1, 1, 0, -1.23833e-05, 79659
-3059.51, 95941.6, -218.932, 3.31508, -1042.82, 0.267827, 0.312467, 0.9175, 0.352806, 0.64323, 3, 455, 246, 44.0032, 0.149719, 1.13946, 1, 1, 0, 1.00205e-06, 79659
-11473.9, 277207, -162.479, 1.62782, -1138.61, -0.0123037, 0.391141, 1.03299, 0.34851, 0.655882, 0.0001, 45.5, 246, 34.9963, 0.138888, 0, 0, 0, 0, 1.68313e-05, 79661
-11473.9, 277207, -162.479, 1.62782, -1138.61, -0.0123037, 0.391141, 1.03299, 0.34851, 0.655882, 3, 45.5, 246, 34.9963, 0.138888, 0, 0, 0, 0, 1.79592e-05, 79661
-9465.56, 726563, -225.862, 0.231814, -681.569, 0.192522, 0.405722, 1.03299, 0.34851, 0.655882, 3, 45.5, 246, 24.3528, 0.077755, 0, 0, 1, 0, -4.22016e-05, 79669
-8487.88, 743461, -234.713, 0.241876, -704.427, 0.198816, 0.374595, 0.993198, 0.349787, 0.651995, 3, 91, 246, 24.3528, 0.077755, 0, 0, 1, 0, 1.86832e-05, 79669
-11253, 447774, -197.242, 0.842345, -969.182, 0.0892185, 0.415347, 1.03299, 0.34851, 0.655882, 0.0001, 45.5, 246, 31.4779, 0.11183, 0, 0, 0, 0, -4.89642e-06, 79670
-2859.42, 237264, -366.202, 3.72026, -902.44, 0.145085, 0.40768, 0.958125, 0.351078, 0.648177, 0.0001, 182, 246, 45.7793, 0.206044, 1.62203, 1, 0, 0, 7.04817e-07, 79675
-2859.42, 237264, -366.202, 3.72026, -902.44, 0.145085, 0.40768, 0.958125, 0.351078, 0.648177, 3, 182, 246, 45.7793, 0.206044, 1.43898, 1, 0, 0, -1.6937e-05, 79675
-12249.7, 112117, 2.51504, 3.52199, -845.234, 0.547504, 0.131909, 1.03299, 0.34851, 0.655882, 0.0001, 45.5, 246, 15.0431, 0.0324358, 0, 0, 0, 0, 8.36792e-05, 79678
-12249.7, 112117, 2.51504, 3.52199, -845.234, 0.547504, 0.131909, 1.03299, 0.34851, 0.655882, 3, 45.5, 246, 15.0431, 0.0324358, 0, 0, 0, 0, -2.9975e-05, 79678
-8706.43, 80408.1, -49.6614, 1.07677, -1156.2, 0.0317436, 0.32037, 0.993198, 0.349787, 0.651995, 0.0001, 91, 246, 22.6436, 0.126793, 0, 0, 1, 0, -2.53779e-05, 79680
-8706.43, 80408.1, -49.6614, 1.07677, -1156.2, 0.0317436, 0.32037, 0.993198, 0.349787, 0.651995, 3, 91, 246, 22.6436, 0.126793, 0, 0, 1, 0, 2.81443e-05, 79680
-12798.7, 484335, -13.7153, 0.635247, -957.939, 0.350721, 0.334151, 1.03299, 0.34851, 0.655882, 0.0001, 45.5, 246, 19.5108, 0.0107533, 0, 0, 1, 0, -7.39194e-05, 79684
-12798.7, 484335, -13.7153, 0.635247, -957.939, 0.350721, 0.334151, 1.03299, 0.34851, 0.655882, 3, 45.5, 246, 19.5108, 0.0107533, 0, 0, 1, 0, 8.25348e-05, 79684
-16.6756, 167835, -302.414, 4.10181, -1451.69, 0.732566, 0.353728, 0.9175, 0.352806, 0.64323, 0.0001, 455, 246, 42.3991, 0.166716, 4.43105, 1, 0, 0, -2.23112e-05, 79685
-16.6756, 167835, -302.414, 4.10181, -1451.69, 0.732566, 0.353728, 0.9175, 0.352806, 0.64323, 3, 455, 246, 42.3991, 0.166716, 4.53637, 1, 0, 0, -2.36331e-05, 79685
-7693.39, -56.9671, -41.0334, 2.87233, -925.982, 0.00477863, 0.262493, 0.993198, 0.349787, 0.651995, 3, 91, 246, 21.2656, 0.0332046, 0, 0, 1, 1, 4.10347e-06, 79691
-10904.1, 395383, -265.964, 1.0793, -1084.01, 0.123024, 0.496079, 1.03299, 0.34851, 0.655882, 0.0001, 45.5, 246, 39.5856, 0.168182, 0, 0, 0, 0, -1.24686e-05, 79694
-10904.1, 395383, -265.964, 1.0793, -1084.01, 0.123024, 0.496079, 1.03299, 0.34851, 0.655882, 3, 45.5, 246, 39.5856, 0.168182, 0, 0, 0, 0, 1.6412e-06, 79694
-9446.78, 185554, -262.073, 3.62547, -926.639, -0.0248947, 0.29791, 1.03299, 0.34851, 0.655882, 0.0001, 45.5, 246, 48.6024, 0.20175, 1.06303, 1, 0, 0, 6.55811e-06, 79697
-5673.94, 202114, -320.309, 3.97829, -956.598, 0.0384772, 0.324003, 0.993198, 0.349787, 0.651995, 0.0001, 91, 246, 48.6024, 0.20175, 1.28992, 1, 1, 0, -2.50789e-06, 79697
-5673.94, 202114, -320.309, 3.97829, -956.598, 0.0384772, 0.324003, 0.993198, 0.349787, 0.651995, 3, 91, 246, 48.6024, 0.20175, 1.15893, 1, 1, 0, 1.10819e-05, 79697
-758.977, 221808, -391.302, 4.40773, -1007.57, 0.11643, 0.372754, 0.958125, 0.351078, 0.648177, 0.0001, 182, 246, 48.6024, 0.20175, 3.87104, 1, 0, 0, 3.19482e-07, 79697
-758.977, 221808, -391.302, 4.40773, -1007.57, 0.11643, 0.372754, 0.958125, 0.351078, 0.648177, 3, 182, 246, 48.6024, 0.20175, 3.52942, 1, 0, 0, 3.5153e-06, 79697
-8778.79, 35316.7, 9.68576, 3.39165, -836.1, 0.41886, 0.168964, 1.03299, 0.34851, 0.655882, 0.0001, 45.5, 246, 12.4052, 0.0371129, 1.09098, 1, 0, 0, 6.06667e-06, 79698
-5998.22, -59867.5, 21.1806, 3.49348, -811.413, -0.0331006, 0.205663, 1.03299, 0.34851, 0.655882, 0.0001, 45.5, 246, 5.88599, 0.0623881, 2.24817, 1, 1, 0, -5.02851e-06, 79700
-5998.22, -59867.5, 21.1806, 3.49348, -811.413, -0.0331006, 0.205663, 1.03299, 0.34851, 0.655882, 3, 45.5, 246, 5.88599, 0.0623881, 2.13825, 1, 1, 0, -1.3797e-05, 79700
-7016.86, -48750.7, -3.98076, 3.81156, -809.968, 0.025401, 0.220754, 0.993198, 0.349787, 0.651995, 3, 91, 246, 5.88599, 0.0623881, 0, 0, 1, 1, 5.10857e-06, 79700
-9461.7, 67721.1, -3.06994, 1.55846, -1003.55, 0.431058, 0.312424, 1.03299, 0.34851, 0.655882, 0.0001, 45.5, 246, 13.7445, 0.0430656, 0, 0, 1, 0, -2.27515e-06, 79709
-9461.7, 67721.1, -3.06994, 1.55846, -1003.55, 0.431058, 0.312424, 1.03299, 0.34851, 0.655882, 3, 45.5, 246, 13.7445, 0.0430656, 0, 0, 1, 0, 5.76626e-06, 79709
-8940.34, 143565, -185.762, 3.30485, -929.722, 0.144903, 0.268186, 1.03299, 0.34851, 0.655882, 0.0001, 45.5, 246, 42.1071, 0.168758, 0, 0, 0, 0, 4.94831e-06, 79715
-8940.34, 143565, -185.762, 3.30485, -929.722, 0.144903, 0.268186, 1.03299, 0.34851, 0.655882, 3, 45.5, 246, 42.1071, 0.168758, 0, 0, 0, 0, 1.43739e-05, 79715
-3076.18, 181880, -290.028, 4.02944, -1038.77, 0.275637, 0.314074, 0.958125, 0.351078, 0.648177, 0.0001, 182, 246, 42.1071, 0.168758, 1.16589, 1, 0, 0, 2.01648e-05, 79715
-9786.29, 570794, -447.864, 0.237576, -790.244, -0.000258834, 0.689017, 1.03299, 0.34851, 0.655882, 3, 45.5, 246, 40.943, 0.209532, 0, 0, 0, 0, 0.000122238, 79716
-10213.4, 365054, -308.724, 1.00028, -1057.66, 0.630536, 0.55867, 1.03299, 0.34851, 0.655882, 0.0001, 45.5, 246, 42.7732, 0.198645, 0, 0, 0, 0, 4.72827e-05, 79718
-10213.4, 365054, -308.724, 1.00028, -1057.66, 0.630536, 0.55867, 1.03299, 0.34851, 0.655882, 3, 45.5, 246, 42.7732, 0.198645, 0, 0, 0, 0, -9.23547e-05, 79718
-5817.64, 338781, -433.368, 3.77182, -717.253, 0.0643883, 0.449858, 0.958125, 0.351078, 0.648177, 0.0001, 182, 246, 41.6902, 0.195773, 1.27674, 1, 0, 0, 9.0946e-06, 79720
-5817.64, 338781, -433.368, 3.77182, -717.253, 0.0643883, 0.449858, 0.958125, 0.351078, 0.648177, 3, 182, 246, 41.6902, 0.195773, 1.09132, 1, 0, 0, -1.3783e-05, 79720
-8612.26, 93648.1, -94.6469, 1.46896, -1196.06, -0.0100064, 0.385297, 1.03299, 0.34851, 0.655882, 0.0001, 45.5, 246, 35.5967, 0.200147, 0, 0, 1, 0, 3.4806e-06, 79727
-8612.26, 93648.1, -94.6469, 1.46896, -1196.06, -0.0100064, 0.385297, 1.03299, 0.34851, 0.655882, 3, 45.5, 246, 35.5967, 0.200147, 0, 0, 1, 0, -3.83837e-06, 79727
-8040.98, 118769, -116.205, 1.5502, -1199.28, 4.37744e-07, 0.362685, 0.993198, 0.349787, 0.651995, 0.0001, 91, 246, 35.5967, 0.200147, 0, 0, 1, 0, -4.69704e-06, 79727
-8040.98, 118769, -116.205, 1.5502, -1199.28, 4.37744e-07, 0.362685, 0.993198, 0.349787, 0.651995, 3, 91, 246, 35.5967, 0.200147, 0, 0, 1, 0, -1.06605e-05, 79727
1658.29, 338641, -385.404, 4.68732, -877.295, 0.259963, 0.3668, 0.9175, 0.352806, 0.64323, 3, 455, 246, 32.8267, 0.130593, 0, 0, 0, 0, 0.000101456, 79730
-10761.4, 221384, -108.778, 1.18193, -626.832, 0.0934079, 0.365855, 1.03299, 0.34851, 0.655882, 0.0001, 45.5, 246, 23.8467, 0.113122, 0, 0, 1, 0, -7.85974e-06, 79735
-10761.4, 221384, -108.778, 1.18193, -626.832, 0.0934079, 0.365855, 1.03299, 0.34851, 0.655882, 3, 45.5, 246, 23.8467, 0.113122, 0, 0, 1, 0, -2.11286e-05, 79735
-9721.06, 229598, -121.08, 1.24684, -640.248, 0.101378, 0.338098, 0.993198, 0.349787, 0.651995, 0.0001, 91, 246, 23.8467, 0.113122, 0, 0, 1, 0, -9.69265e-06, 79735
-5753.37, 505916, -403.619, 0.0480394, -1137.25, 0.212411, 0.654169, 1.03299, 0.34851, 0.655882, 0.0001, 45.5, 246, 45.4109, 0.20813, 0, 0, 0, 0, 4.48658e-05, 79740
-8713.92, 100452, -105.719, 1.12434, -847.377, -0.00397444, 0.412392, 1.03299, 0.34851, 0.655882, 0.0001, 45.5, 246, 36.8699, 0.238511, 0, 0, 1, 0, 1.17655e-05, 79741
-9003.83, 319922, -141.532, 1.00009, -1137.26, 0.0700622, 0.351935, 0.993198, 0.349787, 0.651995, 0.0001, 91, 246, 30.1144, 0.105684, 0, 0, 1, 0, 2.76969e-05, 79745
-7519.68, 344488, -158.243, 1.04785, -1154.47, 0.075501, 0.327879, 0.958125, 0.351078, 0.648177, 0.0001, 182, 246, 30.1144, 0.105684, 0, 0, 1, 0, -2.54424e-05, 79745
-7489.32, -14672.4, 15.6275, 3.1221, -1064.01, -0.0466004, 0.223594, 1.03299, 0.34851, 0.655882, 0.0001, 45.5, 246, 11.7569, 0.0553032, 0, 0, 1, 0, -5.90893e-06, 79747
-7489.32, -14672.4, 15.6275, 3.1221, -1064.01, -0.0466004, 0.223594, 1.03299, 0.34851, 0.655882, 3, 45.5, 246, 11.7569, 0.0553032, 0, 0, 1, 0, 5.85561e-06, 79747
-8772.02, 166422, -188.144, 1.73839, -1164.59, 0.00957936, 0.466379, 1.03299, 0.34851, 0.655882, 0.0001, 45.5, 246, 45.4815, 0.24412, 0, 0, 0, 0, -3.79432e-06, 79748
-8772.02, 166422, -188.144, 1.73839, -1164.59, 0.00957936, 0.466379, 1.03299, 0.34851, 0.655882, 3, 45.5, 246, 45.4815, 0.24412, 0, 0, 0, 0, 3.01366e-06, 79748
-9810.34, 220311, -234.788, 1.8313, -1032.42, -0.01416, 0.494385, 1.03299, 0.34851, 0.655882, 3, 45.5, 246, 45.7263, 0.235756, 0, 0, 0, 0, 2.25999e-05, 79751
-11704.7, 345686, -266.332, 1.07442, -707.812, 0.143508, 0.510821, 1.03299, 0.34851, 0.655882, 3, 45.5, 246, 36.0029, 0.188396, 0, 0, 0, 0, -3.12211e-06, 79752
-9752.29, 125761, 5.66007, 0.840087, -1103.68, 0.0235077, 0.332417, 1.03299, 0.34851, 0.655882, 0.0001, 45.5, 246, 12.4927, 0.0126853, 0, 0, 1, 0, 3.33311e-06, 79755
-9752.29, 125761, 5.66007, 0.840087, -1103.68, 0.0235077, 0.332417, 1.03299, 0.34851, 0.655882, 3, 45.5, 246, 12.4927, 0.0126853, 0, 0, 1, 0, 1.48056e-05, 79755
-10569.9, -142743, -5.10913, 0.275831, -1158.78, 0.0430081, 0.352382, 1.03299, 0.34851, 0.655882, 0.0001, 45.5, 246, -82.881, 0.0816493, 0, 0, 1, 0, 6.73585e-07, 79756
-10569.9, -142743, -5.10913, 0.275831, -1158.78, 0.0430081, 0.352382, 1.03299, 0.34851, 0.655882, 3, 45.5, 246, -82.881, 0.0816493, 0, 0, 1, 0, -1.66547e-05, 79756
-3276.11, 363471, -452.401, 3.69327, -1080.73, 0.0657347, 0.484483, 0.958125, 0.351078, 0.648177, 0.0001, 182, 246, 47.3551, 0.205856, 1.67452, 1, 0, 0, 5.94693e-06, 79761
-3276.11, 363471, -452.401, 3.69327, -1080.73, 0.0657347, 0.484483, 0.958125, 0.351078, 0.648177, 3, 182, 246, 47.3551, 0.205856, 2.03716, 1, 0, 0, 1.27776e-06, 79761
-4181.09, 235209, -127.767, 4.03985, -1643.87, 1.19277, 0.269495, 0.9175, 0.352806, 0.64323, 0.0001, 455, 246, 15.8258, 0.0322915, 0, 0, 0, 0, 1.39296e-05, 79772
-4181.09, 235209, -127.767, 4.03985, -1643.87, 1.19277, 0.269495, 0.9175, 0.352806, 0.64323, 3, 455, 246, 15.8258, 0.0322915, 0, 0, 0, 0, -6.66637e-05, 79772
-8683.63, 124123, -138.364, 2.46163, -1089.46, -0.0278854, 0.341687, 1.03299, 0.34851, 0.655882, 0.0001, 45.5, 246, 39.5446, 0.178837, 0, 0, 1, 0, 1.583e-05, 79776
-8683.63, 124123, -138.364, 2.46163, -1089.46, -0.0278854, 0.341687, 1.03299, 0.34851, 0.655882, 3, 45.5, 246, 39.5446, 0.178837, 0, 0, 1, 0, -7.8332e-06, 79776
-7175.01, 145067, -173.96, 2.64195, -1097.54, 0.000714438, 0.334997, 0.993198, 0.349787, 0.651995, 0.0001, 91, 246, 39.5446, 0.178837, 0, 0, 1, 0, -4.9038e-06, 79776
-7175.01, 145067, -173.96, 2.64195, -1097.54, 0.000714438, 0.334997, 0.993198, 0.349787, 0.651995, 3, 91, 246, 39.5446, 0.178837, 0, 0, 1, 0, 1.50225e-05, 79776
-11077.6, 187644, -114.83, 2.15944, -1079.05, -0.0196647, 0.329855, 1.03299, 0.34851, 0.655882, 0.0001, 45.5, 246, 31.841, 0.126676, 0, 0, 1, 0, 1.02379e-05, 79780
-11077.6, 187644, -114.83, 2.15944, -1079.05, -0.0196647, 0.329855, 1.03299, 0.34851, 0.655882, 3, 45.5, 246, 31.841, 0.126676, 0, 0, 0, 0, 1.05542e-05, 79780
-10357.7, 898155, -75.1719, 0.22277, -1017.36, 0.484767, 0.345398, 1.03299, 0.34851, 0.655882, 0.0001, 45.5, 246, 25.8177, 0.0199036, 0, 0, 1, 0, -4.27653e-05, 79781
-10357.7, 898155, -75.1719, 0.22277, -1017.36, 0.484767, 0.345398, 1.03299, 0.34851, 0.655882, 3, 45.5, 246, 25.8177, 0.0199036, 0, 0, 1, 0, 0.000110303, 79781
-9643.72, 942355, -79.6553, 0.23583, -1102.27, 0.525232, 0.309669, 0.993198, 0.349787, 0.651995, 3, 91, 246, 25.8177, 0.0199036, 0, 0, 1, 0, 4.37578e-05, 79781
-9420.51, 425251, -91.0251, 0.520605, -958.306, 0.228217, 0.320104, 0.993198, 0.349787, 0.651995, 0.0001, 91, 246, 22.7637, 0.0523053, 0, 0, 1, 0, -1.22907e-06, 79786
-9245.23, 561049, -213.165, 0.378323, -889.756, 0.024834, 0.41806, 1.03299, 0.34851, 0.655882, 0.0001, 45.5, 246, 29.4212, 0.098075, 0, 0, 0, 0, -9.83774e-07, 79787
-9245.23, 561049, -213.165, 0.378323, -889.756, 0.024834, 0.41806, 1.03299, 0.34851, 0.655882, 3, 45.5, 246, 29.4212, 0.098075, 0, 0, 0, 0, 2.33923e-05, 79787
-8110.54, 576574, -223.861, 0.392373, -895.529, 0.0255864, 0.388346, 0.993198, 0.349787, 0.651995, 3, 91, 246, 29.4212, 0.098075, 0, 0, 1, 0, -1.16736e-05, 79787
1752.96, 273034, -403.176, 4.17448, -757.621, 0.146871, 0.417992, 0.9175, 0.352806, 0.64323, 0.0001, 455, 246, 37.8741, 0.171232, 0, 0, 0, 0, -8.62074e-06, 79788
1752.96, 273034, -403.176, 4.17448, -757.621, 0.146871, 0.417992, 0.9175, 0.352806, 0.64323, 3, 455, 246, 37.8741, 0.171232, 0, 0, 0, 0, -1.38034e-05, 79788
-14500.3, 164072, 18.2698, 3.32496, -1193.72, -0.04861, 0.16198, 1.03299, 0.34851, 0.655882, 0.0001, 45.5, 246, 18.2462, 0.0302606, 0, 0, 0, 0, -6.07671e-06, 79794
-14500.3, 164072, 18.2698, 3.32496, -1193.72, -0.04861, 0.16198, 1.03299, 0.34851, 0.655882, 3, 45.5, 246, 18.2462, 0.0302606, 0, 0, 0, 0, -1.37734e-05, 79794
-12117.5, 187937, -17.8705, 3.6079, -1189.37, 0.0041722, 0.168643, 0.993198, 0.349787, 0.651995, 0.0001, 91, 246, 18.2462, 0.0302606, 0, 0, 1, 0, -2.37903e-06, 79794
-12117.5, 187937, -17.8705, 3.6079, -1189.37, 0.0041722, 0.168643, 0.993198, 0.349787, 0.651995, 3, 91, 246, 18.2462, 0.0302606, 0, 0, 1, 0, -6.00791e-06, 79794
-9464.17, 267641, -77.7831, 3.85951, -1305.05, 0.625289, 0.198641, 0.958125, 0.351078, 0.648177, 0.0001, 182, 246, 19.8554, 0.0325919, 0, 0, 0, 0, 1.96615e-06, 79795
-9464.17, 267641, -77.7831, 3.85951, -1305.05, 0.625289, 0.198641, 0.958125, 0.351078, 0.648177, 3, 182, 246, 19.8554, 0.0325919, 0, 0, 0, 0, 1.66746e-05, 79795
-9607.51, 633353, -206.55, 0.293078, -713.511, 0.0957324, 0.404202, 1.03299, 0.34851, 0.655882, 0.0001, 45.5, 246, 24.9804, 0.0832154, 0, 0, 1, 0, -9.7521e-05, 79797
-9607.51, 633353, -206.55, 0.293078, -713.511, 0.0957324, 0.404202, 1.03299, 0.34851, 0.655882, 3, 45.5, 246, 24.9804, 0.0832154, 0, 0, 1, 0, 5.73828e-05, 79797
-8633.01, 646442, -215.449, 0.304528, -726.166, 0.0976008, 0.373105, 0.993198, 0.349787, 0.651995, 3, 91, 246, 24.9804, 0.0832154, 0, 0, 1, 0, 2.72009e-05, 79797
-9075.13, 74999.6, -56.8002, 3.611, -1018.06, -0.0588557, 0.165899, 1.03299, 0.34851, 0.655882, 0.0001, 45.5, 246, 26.6111, 0.0839968, 0, 0, 0, 0, -6.63536e-06, 79800
-9075.13, 74999.6, -56.8002, 3.611, -1018.06, -0.0588557, 0.165899, 1.03299, 0.34851, 0.655882, 3, 45.5, 246, 26.6111, 0.0839968, 0, 0, 0, 0, 1.59303e-05, 79800
-7823.66, 92630.9, -97.2905, 3.93928, -1021.11, 0.0037626, 0.182805, 0.993198, 0.349787, 0.651995, 0.0001, 91, 246, 26.6111, 0.0839968, 0, 0, 1, 0, 1.42415e-05, 79800
-7823.66, 92630.9, -97.2905, 3.93928, -1021.11, 0.0037626, 0.182805, 0.993198, 0.349787, 0.651995, 3, 91, 246, 26.6111, 0.0839968, 0, 0, 1, 0, -1.32725e-05, 79800
-10816.2, 898612, -137.489, 0.272224, -729.337, 0.0130527, 0.35987, 1.03299, 0.34851, 0.655882, 0.0001, 45.5, 246, 21.6339, 0.0396242, 0, 0, 1, 0, 8.40574e-05, 79809
-10816.2, 898612, -137.489, 0.272224, -729.337, 0.0130527, 0.35987, 1.03299, 0.34851, 0.655882, 3, 45.5, 246, 21.6339, 0.0396242, 0, 0, 1, 0, 4.02859e-05, 79809
-7847.27, 3233.12, -18.0226, 2.40691, -1024.53, 0.772135, 0.278392, 1.03299, 0.34851, 0.655882, 0.0001, 45.5, 246, 20.9662, 0.0716781, 0, 0, 1, 0, -5.74646e-06, 79817
-10174.5, 307720, -452.159, 2.87043, -622.688, 0.951419, 0.570297, 0.993198, 0.349787, 0.651995, 0.0001, 91, 246, 45.9611, 0.238629, 1.0678, 1, 1, 0, 4.17199e-08, 79821
-4015.81, 337806, -512.064, 3.30448, -777.873, 1.16896, 0.603033, 0.958125, 0.351078, 0.648177, 0.0001, 182, 246, 45.9611, 0.238629, 2.35024, 1, 0, 0, -1.71119e-05, 79821
-4015.81, 337806, -512.064, 3.30448, -777.873, 1.16896, 0.603033, 0.958125, 0.351078, 0.648177, 3, 182, 246, 45.9611, 0.238629, 2.18086, 1, 0, 0, 4.19861e-05, 79821
-10976, 523577, -538.048, 4.10051, -700.695, 0.0844724, 0.474764, 0.958125, 0.351078, 0.648177, 3, 182, 246, 38.8305, 0.178308, 1.28059, 1, 0, 0, -9.74627e-06, 79825
-10617.8, 493814, -499.969, 4.22536, -703.434, 0.0804929, 0.425008, 0.958125, 0.351078, 0.648177, 3, 182, 246, 37.7794, 0.169446, 1.17404, 1, 0, 0, -0.000125692, 79826
-10159, 509652, -342.51, 0.286147, -605.133, 0.0172681, 0.566122, 1.03299, 0.34851, 0.655882, 0.0001, 45.5, 246, 33.1702, 0.176968, 0, 0, 0, 0, 4.45772e-05, 79840
-8732.97, 518702, -357.205, 0.297374, -609.499, 0.0176901, 0.54943, 0.993198, 0.349787, 0.651995, 3, 91, 246, 33.1702, 0.176968, 0, 0, 1, 0, -2.47831e-05, 79840
-10627.1, 355903, -334.651, 2.54596, -985.351, 0.26489, 0.457236, 0.993198, 0.349787, 0.651995, 0.0001, 91, 246, 42.0857, 0.188186, 0, 0, 1, 0, -3.72605e-05, 79842
-10627.1, 355903, -334.651, 2.54596, -985.351, 0.26489, 0.457236, 0.993198, 0.349787, 0.651995, 3, 91, 246, 42.0857, 0.188186, 0, 0, 1, 0, 3.62427e-05, 79842
-8637.48, 79314, -78.9668, 1.99559, -786.034, -0.0184293, 0.322948, 1.03299, 0.34851, 0.655882, 3, 45.5, 246, 29.7574, 0.137028, 0, 0, 1, 0, 3.25991e-06, 79853
-10097, 112473, -88.8748, 3.5175, -992.36, 0.067237, 0.181323, 1.03299, 0.34851, 0.655882, 0.0001, 45.5, 246, 30.0548, 0.100698, 0, 0, 0, 0, 1.38574e-05, 79855
-10097, 112473, -88.8748, 3.5175, -992.36, 0.067237, 0.181323, 1.03299, 0.34851, 0.655882, 3, 45.5, 246, 30.0548, 0.100698, 0, 0, 0, 0, 7.43718e-06, 79855
-10007.6, 63770.5, 18.0364, 3.39784, -669.194, 0.0307616, 0.164296, 1.03299, 0.34851, 0.655882, 0.0001, 45.5, 246, 8.3149, 0.0198602, 0, 0, 1, 0, 1.06893e-05, 79857
-10007.6, 63770.5, 18.0364, 3.39784, -669.194, 0.0307616, 0.164296, 1.03299, 0.34851, 0.655882, 3, 45.5, 246, 8.3149, 0.0198602, 0, 0, 1, 0, -6.24281e-07, 79857
-10325, 97026.1, 14.6568, 1.78373, -1089.55, -0.0130755, 0.297493, 1.03299, 0.34851, 0.655882, 0.0001, 45.5, 246, 12.2556, 0.0214907, 0, 0, 1, 0, 4.61319e-06, 79860
-10325, 97026.1, 14.6568, 1.78373, -1089.55, -0.0130755, 0.297493, 1.03299, 0.34851, 0.655882, 3, 45.5, 246, 12.2556, 0.0214907, 0, 0, 1, 0, -1.30807e-05, 79860
-10778.7, 139923, -98.9544, 3.19884, -1127.45, -0.0328289, 0.230155, 1.03299, 0.34851, 0.655882, 0.0001, 45.5, 246, 32.1334, 0.114118, 0, 0, 0, 0, -3.52336e-06, 79866
-10778.7, 139923, -98.9544, 3.19884, -1127.45, -0.0328289, 0.230155, 1.03299, 0.34851, 0.655882, 3, 45.5, 246, 32.1334, 0.114118, 0, 0, 0, 0, 1.04549e-05, 79866
-8676.31, 161991, -141.917, 3.47184, -1136.38, 0.0159733, 0.236759, 0.993198, 0.349787, 0.651995, 0.0001, 91, 246, 32.1334, 0.114118, 0, 0, 1, 0, -1.27363e-05, 79866
-8676.31, 161991, -141.917, 3.47184, -1136.38, 0.0159733, 0.236759, 0.993198, 0.349787, 0.651995, 3, 91, 246, 32.1334, 0.114118, 0, 0, 1, 0, -9.64534e-06, 79866
-3724.76, 170458, -286.863, 4.0792, -801.207, 0.673404, 0.300555, 0.958125, 0.351078, 0.648177, 0.0001, 182, 246, 39.0762, 0.158066, 1.03727, 1, 1, 0, -2.82106e-05, 79871
-13782.4, -32701.3, -79.2744, 0.278829, -962.8, 0.806952, 0.286533, 0.958125, 0.351078, 0.648177, 0.0001, 182, 246, 609.795, 0.0335371, 0, 0, 1, 0, -0.000536791, 79873
-11538.3, 220160, -214.345, 2.23955, -734.216, 0.2321, 0.398624, 1.03299, 0.34851, 0.655882, 0.0001, 45.5, 246, 38.0665, 0.184065, 0, 0, 0, 0, -2.1175e-05, 79881
-11538.3, 220160, -214.345, 2.23955, -734.216, 0.2321, 0.398624, 1.03299, 0.34851, 0.655882, 3, 45.5, 246, 38.0665, 0.184065, 0, 0, 0, 0, -4.3995e-05, 79881
-8095.51, 490190, -153.981, 0.413445, -1085.23, 0.0516527, 0.350218, 0.993198, 0.349787, 0.651995, 0.0001, 91, 246, 29.054, 0.0787255, 0, 0, 1, 0, 2.37203e-05, 79886
-9123.99, -82143.9, -8.00797, 0.00261151, -1021.97, 0.0144984, 0.342835, 1.03299, 0.34851, 0.655882, 0.0001, 45.5, 246, -53.5213, 0.0383534, 0, 0, 1, 0, -0.000290273, 79898
-9123.99, -82143.9, -8.00797, 0.00261151, -1021.97, 0.0144984, 0.342835, 1.03299, 0.34851, 0.655882, 3, 45.5, 246, -53.5213, 0.0383534, 0, 0, 1, 0, 0.00107778, 79898
-7216.03, 557687, -476.791, 0.0943846, -1038.3, 0.0565297, 0.746577, 1.03299, 0.34851, 0.655882, 0.0001, 45.5, 246, 47.1234, 0.229328, 0, 0, 0, 0, 1463.85, 79899
-7216.03, 557687, -476.791, 0.0943846, -1038.3, 0.0565297, 0.746577, 1.03299, 0.34851, 0.655882, 3, 45.5, 246, 47.1234, 0.229328, 0, 0, 0, 0, -1466.14, 79899
-7881.26, 18373.9, -20.0444, 3.04857, -1121.96, -0.032346, 0.23134, 1.03299, 0.34851, 0.655882, 3, 45.5, 246, 21.7862, 0.074155, 0, 0, 1, 0, 7.48842e-06, 79905
-9830.47, 549897, -171.002, 0.322619, -647.406, 0.0606313, 0.39081, 1.03299, 0.34851, 0.655882, 0.0001, 45.5, 246, 22.6422, 0.0799068, 0, 0, 1, 0, -7.52182e-06, 79907
-9830.47, 549897, -171.002, 0.322619, -647.406, 0.0606313, 0.39081, 1.03299, 0.34851, 0.655882, 3, 45.5, 246, 22.6422, 0.0799068, 0, 0, 1, 0, 1.45144e-05, 79907
-9022.48, 559614, -178.719, 0.33465, -655.215, 0.0616965, 0.358746, 0.993198, 0.349787, 0.651995, 0.0001, 91, 246, 22.6422, 0.0799068, 0, 0, 1, 0, -1.35523e-05, 79907
-10344.4, 221983, -213.498, 1.3545, -647.342, -0.00850618, 0.481632, 1.03299, 0.34851, 0.655882, 0.0001, 45.5, 246, 38.2976, 0.219463, 0, 0, 1, 0, 3.71215e-06, 79908
-10344.4, 221983, -213.498, 1.3545, -647.342, -0.00850618, 0.481632, 1.03299, 0.34851, 0.655882, 3, 45.5, 246, 38.2976, 0.219463, 0, 0, 1, 0, -2.55618e-06, 79908
-8815.22, 230017, -233.668, 1.43028, -655.094, 6.52226e-06, 0.465502, 0.993198, 0.349787, 0.651995, 0.0001, 91, 246, 38.2976, 0.219463, 0, 0, 1, 0, 2.17386e-06, 79908
-9559.08, 104674, -70.902, 2.16563, -907.351, 0.118071, 0.304355, 1.03299, 0.34851, 0.655882, 0.0001, 45.5, 246, 26.6803, 0.10997, 0, 0, 1, 0, -1.32786e-05, 79911
-9559.08, 104674, -70.902, 2.16563, -907.351, 0.118071, 0.304355, 1.03299, 0.34851, 0.655882, 3, 45.5, 246, 26.6803, 0.10997, 0, 0, 1, 0, 1.32768e-05, 79911
-6847, 575839, -330.286, 0.0696989, -731.373, 0.00605562, 0.496467, 0.993198, 0.349787, 0.651995, 0.0001, 91, 246, 32.3131, 0.148966, 0, 0, 1, 0, -1.11975e-05, 79920
-13024.1, 252532, -356.6, 3.50176, -682.899, 0.0336387, 0.401791, 1.03299, 0.34851, 0.655882, 0.0001, 45.5, 246, 49.7182, 0.22852, 1.12468, 1, 0, 0, -7.03977e-06, 79929
-13024.1, 252532, -356.6, 3.50176, -682.899, 0.0336387, 0.401791, 1.03299, 0.34851, 0.655882, 3, 45.5, 246, 49.7182, 0.22852, 1.04874, 1, 0, 0, -1.31371e-05, 79929
-7861, 264013, -415.209, 3.85648, -727.186, 0.0935926, 0.431651, 0.993198, 0.349787, 0.651995, 0.0001, 91, 246, 49.7182, 0.22852, 1.52465, 1, 1, 0, 9.19707e-06, 79929
-7861, 264013, -415.209, 3.85648, -727.186, 0.0935926, 0.431651, 0.993198, 0.349787, 0.651995, 3, 91, 246, 49.7182, 0.22852, 1.44091, 1, 1, 0, 5.21247e-06, 79929
-1372.42, 279167, -486.94, 4.28815, -790.985, 0.168915, 0.484139, 0.958125, 0.351078, 0.648177, 0.0001, 182, 246, 49.7182, 0.22852, 0, 0, 0, 0, 1.29042e-05, 79929
-1372.42, 279167, -486.94, 4.28815, -790.985, 0.168915, 0.484139, 0.958125, 0.351078, 0.648177, 3, 182, 246, 49.7182, 0.22852, 0, 0, 0, 0, 2.11844e-05, 79929
-11208.2, 296798, -295.521, 1.6861, -1009.36, 0.217152, 0.551054, 1.03299, 0.34851, 0.655882, 0.0001, 45.5, 246, 46.0346, 0.229444, 0, 0, 0, 0, 6.07569e-06, 79931
-11208.2, 296798, -295.521, 1.6861, -1009.36, 0.217152, 0.551054, 1.03299, 0.34851, 0.655882, 3, 45.5, 246, 46.0346, 0.229444, 0, 0, 0, 0, 2.19063e-05, 79931
-7220.28, -51214.5, 12.7728, 2.64815, -802.055, 0.115081, 0.275686, 1.03299, 0.34851, 0.655882, 0.0001, 45.5, 246, 6.66422, 0.0525141, 1.05424, 1, 1, 0, 6.53466e-06, 79932
-7902.85, 644881, -454.557, 0.206367, -985.639, 0.267747, 0.641285, 1.03299, 0.34851, 0.655882, 0.0001, 45.5, 246, 41.7679, 0.17838, 4.8157, 1, 0, 0, -1195.6, 79933
-7902.85, 644881, -454.557, 0.206367, -985.639, 0.267747, 0.641285, 1.03299, 0.34851, 0.655882, 3, 45.5, 246, 41.7679, 0.17838, 4.80792, 1, 0, 0, -1198.09, 79933
-9255.96, 81447.6, -0.496112, 3.79897, -1072.1, 0.0414322, 0.169477, 0.993198, 0.349787, 0.651995, 0.0001, 91, 246, 12.1368, 0.0300328, 0, 0, 1, 0, -1.89657e-05, 79937
-9255.96, 81447.6, -0.496112, 3.79897, -1072.1, 0.0414322, 0.169477, 0.993198, 0.349787, 0.651995, 3, 91, 246, 12.1368, 0.0300328, 0, 0, 1, 0, -2.4556e-06, 79937
-10678.7, 269227, -254.076, 1.74091, -1081.25, 0.111987, 0.502305, 1.03299, 0.34851, 0.655882, 3, 45.5, 246, 44.5272, 0.21604, 0, 0, 0, 0, -2.44794e-05, 79943
-7408.45, 246491, -345.05, 3.80156, -934.653, 0.0241663, 0.367609, 0.993198, 0.349787, 0.651995, 0.0001, 91, 246, 47.7236, 0.205755, 1.12427, 1, 1, 0, 1.17774e-05, 79955
-1783.04, 265571, -415.12, 4.19844, -983.415, 0.0948219, 0.412399, 0.958125, 0.351078, 0.648177, 0.0001, 182, 246, 47.7236, 0.205755, 4.06204, 1, 0, 0, 2.15644e-06, 79955
-1783.04, 265571, -415.12, 4.19844, -983.415, 0.0948219, 0.412399, 0.958125, 0.351078, 0.648177, 3, 182, 246, 47.7236, 0.205755, 3.60431, 1, 0, 0, 2.95923e-07, 79955
-12478.7, 348632, -334.66, 1.86048, -1080.84, -0.00978229, 0.58069, 1.03299, 0.34851, 0.655882, 3, 45.5, 246, 48.134, 0.229863, 0, 0, 0, 0, 8.2125e-06, 79958
-10470.4, 269247, -176.558, 1.39587, -1154.32, -0.00853407, 0.421584, 1.03299, 0.34851, 0.655882, 0.0001, 45.5, 246, 36.787, 0.157227, 0, 0, 0, 0, 4.29681e-05, 79959
-10470.4, 269247, -176.558, 1.39587, -1154.32, -0.00853407, 0.421584, 1.03299, 0.34851, 0.655882, 3, 45.5, 246, 36.787, 0.157227, 0, 0, 0, 0, 4.20978e-05, 79959
-1723.99, 98079.8, -256.983, 4.19997, -1088.7, 0.449903, 0.322101, 0.9175, 0.352806, 0.64323, 0.0001, 455, 246, 41.9511, 0.117977, 1.52855, 1, 1, 0, 7.37447e-06, 79960
-1723.99, 98079.8, -256.983, 4.19997, -1088.7, 0.449903, 0.322101, 0.9175, 0.352806, 0.64323, 3, 455, 246, 41.9511, 0.117977, 1.48005, 1, 1, 0, -1.58714e-05, 79960
-10547.6, 195404, -152.52, 2.02981, -1023.77, -0.0192811, 0.372724, 1.03299, 0.34851, 0.655882, 0.0001, 45.5, 246, 35.9981, 0.161058, 0, 0, 0, 0, 3.18063e-07, 79971
-10547.6, 195404, -152.52, 2.02981, -1023.77, -0.0192811, 0.372724, 1.03299, 0.34851, 0.655882, 3, 45.5, 246, 35.9981, 0.161058, 0, 0, 0, 0, -9.38126e-07, 79971
-10161.7, 102430, -70.5391, 3.35611, -816.416, -0.0448254, 0.189508, 1.03299, 0.34851, 0.655882, 0.0001, 45.5, 246, 25.3242, 0.0842766, 0, 0, 1, 0, 1.87822e-05, 79977
-10161.7, 102430, -70.5391, 3.35611, -816.416, -0.0448254, 0.189508, 1.03299, 0.34851, 0.655882, 3, 45.5, 246, 25.3242, 0.0842766, 0, 0, 1, 0, 1.61935e-05, 79977
-1764.7, 135267, -255.721, 4.87313, -1284.25, 0.194751, 0.327979, 0.9175, 0.352806, 0.64323, 0.0001, 455, 246, 30.6736, 0.10024, 1.10759, 1, 0, 0, -4.63937e-06, 79982
-1764.7, 135267, -255.721, 4.87313, -1284.25, 0.194751, 0.327979, 0.9175, 0.352806, 0.64323, 3, 455, 246, 30.6736, 0.10024, 1.1081, 1, 0, 0, 3.89133e-06, 79982
-6665.26, -34792.9, 14.999, 3.31108, -1042.44, 0.547614, 0.206624, 1.03299, 0.34851, 0.655882, 3, 45.5, 246, 12.7084, 0.0577195, 0, 0, 1, 0, -1.58926e-05, 79986
-7213.11, -15070.2, -18.7598, 3.72028, -1146.29, 0.658832, 0.21727, 0.993198, 0.349787, 0.651995, 3, 91, 246, 12.7084, 0.0577195, 0, 0, 1, 0, 1.05056e-05, 79986
-10214.2, 201215, -264.726, 2.28528, -644.719, 0.225345, 0.463313, 1.03299, 0.34851, 0.655882, 0.0001, 45.5, 246, 45.1357, 0.234572, 0, 0, 1, 0, 2.20543e-05, 79991
-4498.96, 73026.6, -177.406, 3.11755, -936.413, 0.816547, 0.263258, 1.03299, 0.34851, 0.655882, 0.0001, 45.5, 246, 50.7225, 0.178459, 1.32528, 1, 1, 0, 1.25709e-05, 79992
-4498.96, 73026.6, -177.406, 3.11755, -936.413, 0.816547, 0.263258, 1.03299, 0.34851, 0.655882, 3, 45.5, 246, 50.7225, 0.178459, 1.15366, 1, 1, 0, -6.28284e-06, 79992
-3018.92, 95524.7, -223.625, 3.55231, -1098.26, 0.993517, 0.27181, 0.993198, 0.349787, 0.651995, 0.0001, 91, 246, 50.7225, 0.178459, 1.43477, 1, 1, 0, 1.31043e-05, 79992
-3018.92, 95524.7, -223.625, 3.55231, -1098.26, 0.993517, 0.27181, 0.993198, 0.349787, 0.651995, 3, 91, 246, 50.7225, 0.178459, 1.27943, 1, 1, 0, -1.88578e-05, 79992
-626.398, 128860, -287.345, 4.12429, -1337.83, 1.2552, 0.303951, 0.958125, 0.351078, 0.648177, 0.0001, 182, 246, 50.7225, 0.178459, 2.11071, 1, 1, 0, 1.99065e-05, 79992
-626.398, 128860, -287.345, 4.12429, -1337.83, 1.2552, 0.303951, 0.958125, 0.351078, 0.648177, 3, 182, 246, 50.7225, 0.178459, 1.9736, 1, 1, 0, 1.17529e-05, 79992
5316.36, 208720, -422.052, 5.2683, -1906.91, 1.87471, 0.400007, 0.9175, 0.352806, 0.64323, 0.0001, 455, 246, 50.7225, 0.178459, 0, 0, 0, 0, -1.53149e-05, 79992
5316.36, 208720, -422.052, 5.2683, -1906.91, 1.87471, 0.400007, 0.9175, 0.352806, 0.64323, 3, 455, 246, 50.7225, 0.178459, 0, 0, 0, 0, 1.17182e-05, 79992
-4750.13, 83631.8, -189.988, 3.19607, -866.969, 0.164479, 0.278322, 1.03299, 0.34851, 0.655882, 0.0001, 45.5, 246, 51.6545, 0.194189, 1.30927, 1, 1, 0, -1.02382e-05, 79996
-4750.13, 83631.8, -189.988, 3.19607, -866.969, 0.164479, 0.278322, 1.03299, 0.34851, 0.655882, 3, 45.5, 246, 51.6545, 0.194189, 1.11226, 1, 1, 0, 9.5815e-06, 79996
-3116.18, 98968.4, -233.88, 3.51126, -912.478, 0.219559, 0.288566, 0.993198, 0.349787, 0.651995, 0.0001, 91, 246, 51.6545, 0.194189, 1.42483, 1, 1, 0, -1.00018e-05, 79996
-3116.18, 98968.4, -233.88, 3.51126, -912.478, 0.219559, 0.288566, 0.993198, 0.349787, 0.651995, 3, 91, 246, 51.6545, 0.194189, 1.26289, 1, 1, 0, 2.23693e-05, 79996
-821.151, 117064, -287.514, 3.88839, -975.54, 0.289689, 0.317327, 0.958125, 0.351078, 0.648177, 0.0001, 182, 246, 51.6545, 0.194189, 1.95075, 1, 1, 0, 1.33027e-05, 79996
-821.151, 117064, -287.514, 3.88839, -975.54, 0.289689, 0.317327, 0.958125, 0.351078, 0.648177, 3, 182, 246, 51.6545, 0.194189, 1.81128, 1, 1, 0, -1.21056e-05, 79996
