-3886.84, 347060, -457.696, 3.62761, -1034.61, 1.2158, 0.491326, 0.958125, 0.351078, 0.648177, 0.0001, 182, 246, 43.7645, 0.205081, 1.58898, 1, 0, 0, 4.39783e-05, 176505
-3886.84, 347060, -457.696, 3.62761, -1034.61, 1.2158, 0.491326, 0.958125, 0.351078, 0.648177, 3, 182, 246, 43.7645, 0.205081, 1.47079, 1, 0, 0, 5.44661e-05, 176505
-11816.4, 210080, -64.305, 1.65356, -932.877, 0.444517, 0.317642, 1.03299, 0.34851, 0.655882, 0.0001, 45.5, 246, 22.8509, 0.0714022, 0, 0, 1, 0, -6.28757e-06, 176506
-11816.4, 210080, -64.305, 1.65356, -932.877, 0.444517, 0.317642, 1.03299, 0.34851, 0.655882, 3, 45.5, 246, 22.8509, 0.0714022, 0, 0, 1, 0, -6.66892e-05, 176506
-10387.9, 231778, -83.0739, 1.79243, -1007.87, 0.492109, 0.293154, 0.993198, 0.349787, 0.651995, 3, 91, 246, 22.8509, 0.0714022, 0, 0, 1, 0, -3.15698e-05, 176506
-10559.9, 403715, -143.627, 0.579666, -671.567, 0.0179365, 0.385768, 1.03299, 0.34851, 0.655882, 0.0001, 45.5, 246, 23.2662, 0.0915638, 0, 0, 1, 0, -2.97696e-05, 176508
-10559.9, 403715, -143.627, 0.579666, -671.567, 0.0179365, 0.385768, 1.03299, 0.34851, 0.655882, 3, 45.5, 246, 23.2662, 0.0915638, 0, 0, 1, 0, 1.13885e-05, 176508
-9585.77, 412367, -152.734, 0.602637, -675.868, 0.0195262, 0.354413, 0.993198, 0.349787, 0.651995, 0.0001, 91, 246, 23.2662, 0.0915638, 0, 0, 1, 0, 4.12955e-06, 176508
-12091.3, 277725, -56.1525, 1.24531, -894.44, -0.00714484, 0.33008, 1.03299, 0.34851, 0.655882, 0.0001, 45.5, 246, 20.6704, 0.0548514, 0, 0, 1, 0, -1.9418e-05, 176512
-12091.3, 277725, -56.1525, 1.24531, -894.44, -0.00714484, 0.33008, 1.03299, 0.34851, 0.655882, 3, 45.5, 246, 20.6704, 0.0548514, 0, 0, 1, 0, -1.09968e-05, 176512
-10760.8, 291552, -69.2105, 1.30688, -896.033, 5.91419e-06, 0.300405, 0.993198, 0.349787, 0.651995, 3, 91, 246, 20.6704, 0.0548514, 0, 0, 1, 0, 1.12299e-05, 176512
-9190.6, 305623, -83.3324, 1.37002, -899.27, 0.00787215, 0.276263, 0.958125, 0.351078, 0.648177, 0.0001, 182, 246, 20.6704, 0.0548514, 0, 0, 1, 0, -2.27143e-05, 176512
-9222.59, 87734.3, 2.46479, 0.610366, -1147.23, 0.00837593, 0.33961, 1.03299, 0.34851, 0.655882, 0.0001, 45.5, 246, 11.0186, 0.0158701, 0, 0, 1, 0, 4.85314e-06, 176530
-9222.59, 87734.3, 2.46479, 0.610366, -1147.23, 0.00837593, 0.33961, 1.03299, 0.34851, 0.655882, 3, 45.5, 246, 11.0186, 0.0158701, 0, 0, 1, 0, 2.87224e-05, 176530
-11003.7, 439103, -246.004, 0.760555, -834.879, 0.191437, 0.463383, 1.03299, 0.34851, 0.655882, 0.0001, 45.5, 246, 32.698, 0.140375, 0, 0, 0, 0, -6.1098e-05, 176537
-7722.43, -18596.6, 19.1173, 2.72293, -973.519, 0.117715, 0.255489, 1.03299, 0.34851, 0.655882, 3, 45.5, 246, 8.0229, 0.0530251, 0, 0, 1, 1, -2.11104e-05, 176542
-5677.54, 553290, -395.107, 0.0385732, -1082.13, 0.221633, 0.610091, 1.03299, 0.34851, 0.655882, 0.0001, 45.5, 246, 42.5105, 0.183304, 0, 0, 0, 0, 4.02505e-05, 176543
-10787.1, 695157, -167.656, 0.336277, -641.996, 0.300602, 0.376239, 1.03299, 0.34851, 0.655882, 0.0001, 45.5, 246, 21.2048, 0.0592794, 0, 0, 1, 0, 8.0245e-05, 176544
-10787.1, 695157, -167.656, 0.336277, -641.996, 0.300602, 0.376239, 1.03299, 0.34851, 0.655882, 3, 45.5, 246, 21.2048, 0.0592794, 0, 0, 1, 0, 6.18312e-05, 176544
-8808.74, 71545.1, -55.4945, 1.55435, -1125, 0.000989046, 0.342832, 1.03299, 0.34851, 0.655882, 0.0001, 45.5, 246, 27.1981, 0.134465, 0, 0, 1, 0, -5.27742e-06, 176550
-8808.74, 71545.1, -55.4945, 1.55435, -1125, 0.000989046, 0.342832, 1.03299, 0.34851, 0.655882, 3, 45.5, 246, 27.1981, 0.134465, 0, 0, 1, 0, 8.82009e-06, 176550
-8419.83, 93695.6, -74.8406, 1.64198, -1128.9, 0.0122067, 0.318275, 0.993198, 0.349787, 0.651995, 0.0001, 91, 246, 27.1981, 0.134465, 0, 0, 1, 0, 1.45592e-05, 176550
-8419.83, 93695.6, -74.8406, 1.64198, -1128.9, 0.0122067, 0.318275, 0.993198, 0.349787, 0.651995, 3, 91, 246, 27.1981, 0.134465, 0, 0, 1, 0, 1.69101e-05, 176550
-11089.8, 288421, -268.017, 1.42457, -874.28, 0.431694, 0.518441, 1.03299, 0.34851, 0.655882, 0.0001, 45.5, 246, 41.3369, 0.210256, 0, 0, 0, 0, -5.62263e-05, 176553
-11089.8, 288421, -268.017, 1.42457, -874.28, 0.431694, 0.518441, 1.03299, 0.34851, 0.655882, 3, 45.5, 246, 41.3369, 0.210256, 0, 0, 0, 0, 2.56062e-05, 176553
-9319.83, 316322, -274.731, 0.350297, -641.691, 0.48595, 0.56363, 1.03299, 0.34851, 0.655882, 0.0001, 45.5, 246, 36.6389, 0.217657, 0, 0, 0, 0, 7.31915e-06, 176556
-10638.1, -87322.5, 1.51111, 0.565138, -891.536, 0.0147007, 0.373114, 1.03299, 0.34851, 0.655882, 0.0001, 45.5, 246, -56.3873, 0.212945, 0, 0, 1, 0, 4.1554e-05, 176563
-10638.1, -87322.5, 1.51111, 0.565138, -891.536, 0.0147007, 0.373114, 1.03299, 0.34851, 0.655882, 3, 45.5, 246, -56.3873, 0.212945, 0, 0, 1, 0, -4.09261e-05, 176563
-7126.06, 55.9373, -38.0448, 3.68002, -1085.07, 0.00385177, 0.217138, 0.993198, 0.349787, 0.651995, 3, 91, 246, 18.264, 0.0551149, 0, 0, 1, 1, -1.20389e-05, 176565
-11647.4, 285764, -352.964, 2.06684, -956.028, 0.739157, 0.589342, 1.03299, 0.34851, 0.655882, 3, 45.5, 246, 50.139, 0.24967, 0, 0, 0, 0, -1.7911e-05, 176566
-7956.91, -166.561, -24.0509, 2.83912, -1035.74, 0.156026, 0.26112, 0.993198, 0.349787, 0.651995, 3, 91, 246, 14.6488, 0.0558217, 0, 0, 1, 1, -1.91988e-05, 176569
-7886.29, 147408, -210.54, 2.55764, -1012.53, -0.030799, 0.409231, 1.03299, 0.34851, 0.655882, 0.0001, 45.5, 246, 49.0046, 0.238614, 0, 0, 1, 0, -1.50739e-05, 176571
-7886.29, 147408, -210.54, 2.55764, -1012.53, -0.030799, 0.409231, 1.03299, 0.34851, 0.655882, 3, 45.5, 246, 49.0046, 0.238614, 0, 0, 1, 0, 6.83012e-06, 176571
-5890.31, 61538.7, -136.6, 3.28553, -893.79, 0.0468695, 0.26551, 0.958125, 0.351078, 0.648177, 3, 182, 246, 33.5139, 0.103587, 0, 0, 1, 0, -1.12798e-05, 176575
-11742.3, 119840, 8.56919, 2.65588, -1144.94, 0.264563, 0.234473, 1.03299, 0.34851, 0.655882, 0.0001, 45.5, 246, 17.0045, 0.0357054, 0, 0, 0, 0, -1.32587e-05, 176578
-11742.3, 119840, 8.56919, 2.65588, -1144.94, 0.264563, 0.234473, 1.03299, 0.34851, 0.655882, 3, 45.5, 246, 17.0045, 0.0357054, 0, 0, 0, 0, -2.20777e-07, 176578
-11116.3, 288281, -156.164, 1.22715, -902.681, 0.033241, 0.39752, 1.03299, 0.34851, 0.655882, 3, 45.5, 246, 30.8035, 0.131596, 0, 0, 1, 0, 1.07647e-05, 176582
-10498.8, 491871, -290.087, 0.494033, -705.232, 0.0617159, 0.503912, 1.03299, 0.34851, 0.655882, 0.0001, 45.5, 246, 32.1406, 0.152644, 0, 0, 0, 0, -5.46927e-05, 176591
-10498.8, 491871, -290.087, 0.494033, -705.232, 0.0617159, 0.503912, 1.03299, 0.34851, 0.655882, 3, 45.5, 246, 32.1406, 0.152644, 0, 0, 0, 0, 9.2266e-06, 176591
-7108.97, 516371, -320.104, 0.537263, -727.895, 0.0653254, 0.464598, 0.958125, 0.351078, 0.648177, 3, 182, 246, 32.1406, 0.152644, 0, 0, 0, 0, -3.95351e-07, 176591
-8942.7, 215263, -141.629, 1.69546, -1116.94, 0.526376, 0.343258, 0.993198, 0.349787, 0.651995, 0.0001, 91, 246, 31.2452, 0.131944, 0, 0, 1, 0, -2.34429e-05, 176600
-9164.63, 438218, -404.399, 0.609753, -1091.13, 0.32939, 0.696055, 1.03299, 0.34851, 0.655882, 0.0001, 45.5, 246, 47.8701, 0.235929, 0, 0, 0, 0, 9.10714e-05, 176601
-9164.63, 438218, -404.399, 0.609753, -1091.13, 0.32939, 0.696055, 1.03299, 0.34851, 0.655882, 3, 45.5, 246, 47.8701, 0.235929, 0, 0, 0, 0, 1.70945e-05, 176601
-3273.03, 221581, -365.738, 3.49074, -721.391, 0.180899, 0.428632, 0.958125, 0.351078, 0.648177, 0.0001, 182, 246, 45.5359, 0.217082, 1.472, 1, 0, 0, -4.90434e-06, 176624
-3273.03, 221581, -365.738, 3.49074, -721.391, 0.180899, 0.428632, 0.958125, 0.351078, 0.648177, 3, 182, 246, 45.5359, 0.217082, 1.27762, 1, 0, 0, -4.66616e-06, 176624
-7479.73, 180999, -199.721, 2.35148, -1157.07, 0.784936, 0.370977, 0.993198, 0.349787, 0.651995, 0.0001, 91, 246, 40.0898, 0.187491, 0, 0, 1, 0, -2.42837e-05, 176634
-7479.73, 180999, -199.721, 2.35148, -1157.07, 0.784936, 0.370977, 0.993198, 0.349787, 0.651995, 3, 91, 246, 40.0898, 0.187491, 0, 0, 1, 0, 5.06179e-06, 176634
-12506.1, 205086, -127.953, 2.76014, -1085.28, 0.0595253, 0.28316, 1.03299, 0.34851, 0.655882, 0.0001, 45.5, 246, 33.1115, 0.121689, 0, 0, 0, 0, 9.78275e-06, 176642
-12506.1, 205086, -127.953, 2.76014, -1085.28, 0.0595253, 0.28316, 1.03299, 0.34851, 0.655882, 3, 45.5, 246, 33.1115, 0.121689, 0, 0, 0, 0, 4.39592e-06, 176642
-5434.46, 68181, -158.376, 3.63382, -877.276, 0.112765, 0.29156, 0.9175, 0.352806, 0.64323, 3, 455, 246, 28.0312, 0.0824391, 0, 0, 1, 0, -7.74027e-06, 176643
1144.01, 211117, -359.28, 4.43925, -912.452, 0.958259, 0.388263, 0.9175, 0.352806, 0.64323, 0.0001, 455, 246, 37.723, 0.163943, 2.45169, 1, 0, 0, -9.88146e-06, 176645
1144.01, 211117, -359.28, 4.43925, -912.452, 0.958259, 0.388263, 0.9175, 0.352806, 0.64323, 3, 455, 246, 37.723, 0.163943, 2.47219, 1, 0, 0, 170.32, 176645
-11037.7, 138423, -88.0376, 3.09775, -994.805, -0.0442614, 0.229292, 1.03299, 0.34851, 0.655882, 0.0001, 45.5, 246, 29.0485, 0.102636, 0, 0, 0, 0, 1.53389e-05, 176649
-11037.7, 138423, -88.0376, 3.09775, -994.805, -0.0442614, 0.229292, 1.03299, 0.34851, 0.655882, 3, 45.5, 246, 29.0485, 0.102636, 0, 0, 0, 0, 9.15371e-06, 176649
-10549.9, 502110, -222.595, 0.46322, -659.169, 0.500434, 0.425942, 1.03299, 0.34851, 0.655882, 0.0001, 45.5, 246, 26.0244, 0.105634, 0, 0, 1, 0, -1.75728e-05, 176651
-10549.9, 502110, -222.595, 0.46322, -659.169, 0.500434, 0.425942, 1.03299, 0.34851, 0.655882, 3, 45.5, 246, 26.0244, 0.105634, 0, 0, 1, 0, 3.59248e-05, 176651
-4136.54, 388549, -418.206, 4.10945, -1225.74, 0.100001, 0.391383, 0.958125, 0.351078, 0.648177, 3, 182, 246, 44.529, 0.170651, 1.11877, 1, 0, 0, 8.06486e-06, 176658
-9511.47, 231757, -71.2606, 2.03031, -611.104, 0.017086, 0.258749, 0.958125, 0.351078, 0.648177, 0.0001, 182, 246, 15.692, 0.0496867, 0, 0, 1, 0, -1.36907e-05, 176663
383.884, 489150, -372.528, 3.81012, -1068.37, 1.1026, 0.363592, 0.9175, 0.352806, 0.64323, 3, 455, 246, 28.6574, 0.115588, 0, 0, 0, 0, 0.000117863, 176664
-9249.16, 174962, -264.634, 3.16671, -678.725, 0.155283, 0.345955, 1.03299, 0.34851, 0.655882, 0.0001, 45.5, 246, 46.7973, 0.209677, 1.11147, 1, 0, 0, -4.06565e-06, 176665
-6106.62, 186290, -309.496, 3.48177, -723.862, 0.208917, 0.360132, 0.993198, 0.349787, 0.651995, 0.0001, 91, 246, 46.7973, 0.209677, 1.18669, 1, 1, 0, -1.13062e-05, 176665
-6106.62, 186290, -309.496, 3.48177, -723.862, 0.208917, 0.360132, 0.993198, 0.349787, 0.651995, 3, 91, 246, 46.7973, 0.209677, 1.02406, 1, 1, 0, 1.59415e-06, 176665
-2115.4, 200426, -364.017, 3.85887, -785.114, 0.27719, 0.392898, 0.958125, 0.351078, 0.648177, 0.0001, 182, 246, 46.7973, 0.209677, 1.89098, 1, 0, 0, 1.00844e-05, 176665
-2115.4, 200426, -364.017, 3.85887, -785.114, 0.27719, 0.392898, 0.958125, 0.351078, 0.648177, 3, 182, 246, 46.7973, 0.209677, 1.73417, 1, 0, 0, -3.30216e-06, 176665
5007.07, 225822, -457.945, 4.49912, -903.586, 0.401696, 0.471359, 0.9175, 0.352806, 0.64323, 0.0001, 455, 246, 46.7973, 0.209677, 0, 0, 0, 0, 7.44515e-07, 176665
5007.07, 225822, -457.945, 4.49912, -903.586, 0.401696, 0.471359, 0.9175, 0.352806, 0.64323, 3, 455, 246, 46.7973, 0.209677, 0, 0, 0, 0, -6.53467e-06, 176665
-10779.5, 740010, -63.8494, 0.311219, -1064.43, 0.00850568, 0.344682, 1.03299, 0.34851, 0.655882, 0.0001, 45.5, 246, 25.3867, 0.0229029, 0, 0, 1, 0, 5.01456e-05, 176666
-10779.5, 740010, -63.8494, 0.311219, -1064.43, 0.00850568, 0.344682, 1.03299, 0.34851, 0.655882, 3, 45.5, 246, 25.3867, 0.0229029, 0, 0, 1, 0, -4.48793e-05, 176666
-9972.9, 760305, -68.926, 0.321459, -1066.45, 0.00895713, 0.309117, 0.993198, 0.349787, 0.651995, 3, 91, 246, 25.3867, 0.0229029, 0, 0, 1, 0, -4.03706e-05, 176666
-6553.54, -22923.2, 0.0291333, 3.48796, -1046.49, 0.394879, 0.187573, 1.03299, 0.34851, 0.655882, 0.0001, 45.5, 246, 17.5891, 0.0526493, 0, 0, 1, 0, 1.64605e-05, 176670
-6553.54, -22923.2, 0.0291333, 3.48796, -1046.49, 0.394879, 0.187573, 1.03299, 0.34851, 0.655882, 3, 45.5, 246, 17.5891, 0.0526493, 0, 0, 1, 0, 1.64461e-05, 176670
-13013.3, 300225, 1.39113, 1.11592, -932.459, 0.470069, 0.319809, 1.03299, 0.34851, 0.655882, 0.0001, 45.5, 246, 16.2912, 0.0100548, 0, 0, 1, 0, -4.82251e-05, 176676
-13013.3, 300225, 1.39113, 1.11592, -932.459, 0.470069, 0.319809, 1.03299, 0.34851, 0.655882, 3, 45.5, 246, 16.2912, 0.0100548, 0, 0, 1, 0, 6.97066e-05, 176676
-7931.11, 25875.1, -43.1134, 2.14445, -927.535, 0.61658, 0.298762, 1.03299, 0.34851, 0.655882, 3, 45.5, 246, 26.8861, 0.100264, 0, 0, 1, 0, 1.45256e-05, 176680
-11099.5, 233628, -186.667, 1.74128, -853.467, 0.230214, 0.411585, 1.03299, 0.34851, 0.655882, 0.0001, 45.5, 246, 35.7969, 0.170697, 0, 0, 0, 0, -2.06039e-05, 176682
-11099.5, 233628, -186.667, 1.74128, -853.467, 0.230214, 0.411585, 1.03299, 0.34851, 0.655882, 3, 45.5, 246, 35.7969, 0.170697, 0, 0, 0, 0, -1.10707e-05, 176682
-11558, 341746, -216.877, 0.980072, -638.6, -0.00261411, 0.455041, 1.03299, 0.34851, 0.655882, 0.0001, 45.5, 246, 30.8437, 0.15849, 0, 0, 1, 0, -7.36277e-06, 176687
-11558, 341746, -216.877, 0.980072, -638.6, -0.00261411, 0.455041, 1.03299, 0.34851, 0.655882, 3, 45.5, 246, 30.8437, 0.15849, 0, 0, 1, 0, 7.93924e-06, 176687
-10947.9, 347476, -480.959, 3.81684, -806.72, 0.140038, 0.512438, 0.993198, 0.349787, 0.651995, 0.0001, 91, 246, 50.0902, 0.232495, 1.40869, 1, 1, 0, -5.22684e-05, 176693
-10947.9, 347476, -480.959, 3.81684, -806.72, 0.140038, 0.512438, 0.993198, 0.349787, 0.651995, 3, 91, 246, 50.0902, 0.232495, 1.3427, 1, 1, 0, 7.55672e-05, 176693
-9356.7, 463930, -382.087, 0.573596, -1023.15, 0.219441, 0.641874, 1.03299, 0.34851, 0.655882, 0.0001, 45.5, 246, 44.3353, 0.211825, 0, 0, 0, 0, -8.91854e-06, 176695
-9356.7, 463930, -382.087, 0.573596, -1023.15, 0.219441, 0.641874, 1.03299, 0.34851, 0.655882, 3, 45.5, 246, 44.3353, 0.211825, 0, 0, 0, 0, 4.1871e-05, 176695
-10111.5, 86992, -9.75829, 2.29631, -1011.9, -0.0186567, 0.272895, 1.03299, 0.34851, 0.655882, 0.0001, 45.5, 246, 16.6762, 0.0508765, 0, 0, 1, 0, -1.7905e-05, 176697
-10111.5, 86992, -9.75829, 2.29631, -1011.9, -0.0186567, 0.272895, 1.03299, 0.34851, 0.655882, 3, 45.5, 246, 16.6762, 0.0508765, 0, 0, 1, 0, -8.01965e-06, 176697
-8894.78, 56252.1, -22.1555, 0.859596, -1115.32, 0.383401, 0.343635, 1.03299, 0.34851, 0.655882, 3, 45.5, 246, 17.4322, 0.0839348, 0, 0, 1, 0, 4.20817e-05, 176701
-3045.93, 101855, -224.215, 3.7899, -1075.38, 0.716923, 0.312244, 0.9175, 0.352806, 0.64323, 0.0001, 455, 246, 38.0238, 0.125744, 1.08366, 1, 1, 0, 7.04107e-06, 176716
-3045.93, 101855, -224.215, 3.7899, -1075.38, 0.716923, 0.312244, 0.9175, 0.352806, 0.64323, 3, 455, 246, 38.0238, 0.125744, 1.07637, 1, 1, 0, -4.58541e-06, 176716
-6517.85, 1294.56, -41.05, 3.41362, -911.109, 0.0941718, 0.196307, 1.03299, 0.34851, 0.655882, 0.0001, 45.5, 246, 26.8287, 0.0502012, 0, 0, 1, 1, -3.34072e-06, 176718
-6517.85, 1294.56, -41.05, 3.41362, -911.109, 0.0941718, 0.196307, 1.03299, 0.34851, 0.655882, 3, 45.5, 246, 26.8287, 0.0502012, 0, 0, 1, 1, -1.04913e-05, 176718
-12851.3, 359917, -14.1486, 0.884617, -905.502, 0.713699, 0.328003, 1.03299, 0.34851, 0.655882, 0.0001, 45.5, 246, 17.8761, 0.0151645, 0, 0, 1, 0, -4.04712e-05, 176726
-12851.3, 359917, -14.1486, 0.884617, -905.502, 0.713699, 0.328003, 1.03299, 0.34851, 0.655882, 3, 45.5, 246, 17.8761, 0.0151645, 0, 0, 1, 0, -0.000108764, 176726
-9940.69, 515075, -194.404, 0.547086, -997.358, 0.124953, 0.407759, 1.03299, 0.34851, 0.655882, 0.0001, 45.5, 246, 30.686, 0.0956809, 0, 0, 0, 0, -1.03339e-06, 176729
-9940.69, 515075, -194.404, 0.547086, -997.358, 0.124953, 0.407759, 1.03299, 0.34851, 0.655882, 3, 45.5, 246, 30.686, 0.0956809, 0, 0, 0, 0, -6.81969e-06, 176729
-6946.65, 560309, -219.899, 0.596978, -1045.2, 0.133081, 0.352559, 0.958125, 0.351078, 0.648177, 3, 182, 246, 30.686, 0.0956809, 0, 0, 0, 0, -1.23814e-05, 176729
-10859.8, 197187, -145.777, 1.95257, -954.348, 0.519475, 0.359894, 1.03299, 0.34851, 0.655882, 0.0001, 45.5, 246, 33.5508, 0.144065, 0, 0, 1, 0, -4.4583e-05, 176731
-10859.8, 197187, -145.777, 1.95257, -954.348, 0.519475, 0.359894, 1.03299, 0.34851, 0.655882, 3, 45.5, 246, 33.5508, 0.144065, 0, 0, 0, 0, 4.5159e-05, 176731
-7542.16, 88286.5, -75.0063, 2.54102, -1025.54, 1.14107, 0.262186, 0.9175, 0.352806, 0.64323, 0.0001, 455, 246, 14.0091, 0.0539126, 0, 0, 1, 0, -5.17118e-05, 176744
-7542.16, 88286.5, -75.0063, 2.54102, -1025.54, 1.14107, 0.262186, 0.9175, 0.352806, 0.64323, 3, 455, 246, 14.0091, 0.0539126, 0, 0, 1, 0, -6.27855e-05, 176744
-9505.74, 365926, -329.743, 0.678053, -967.136, 0.00377078, 0.633689, 1.03299, 0.34851, 0.655882, 0.0001, 45.5, 246, 44.9323, 0.239632, 0, 0, 0, 0, -4.27647e-05, 176746
-11427.2, 224044, -42.956, 1.30296, -947.632, 0.0818945, 0.325739, 1.03299, 0.34851, 0.655882, 0.0001, 45.5, 246, 20.0449, 0.0529566, 0, 0, 1, 0, -1.67615e-05, 176750
-11427.2, 224044, -42.956, 1.30296, -947.632, 0.0818945, 0.325739, 1.03299, 0.34851, 0.655882, 3, 45.5, 246, 20.0449, 0.0529566, 0, 0, 1, 0, -2.1267e-06, 176750
-7129.11, 10410.7, -46.4481, 3.64656, -1136.41, 0.000463152, 0.219008, 0.993198, 0.349787, 0.651995, 0.0001, 91, 246, 20.4597, 0.0619348, 0, 0, 1, 1, 9.51643e-06, 176760
-7129.11, 10410.7, -46.4481, 3.64656, -1136.41, 0.000463152, 0.219008, 0.993198, 0.349787, 0.651995, 3, 91, 246, 20.4597, 0.0619348, 0, 0, 1, 1, 2.99186e-06, 176760
-3497.71, 96884.1, -211.77, 4.01049, -1122.61, 0.1571, 0.270363, 0.958125, 0.351078, 0.648177, 0.0001, 182, 246, 40.992, 0.135282, 1.01318, 1, 1, 0, -1.01661e-05, 176761
55.3268, 131357, -302.992, 4.63128, -1212.79, 0.274497, 0.344843, 0.9175, 0.352806, 0.64323, 0.0001, 455, 246, 40.992, 0.135282, 2.35815, 1, 0, 0, 1.51614e-05, 176761
55.3268, 131357, -302.992, 4.63128, -1212.79, 0.274497, 0.344843, 0.9175, 0.352806, 0.64323, 3, 455, 246, 40.992, 0.135282, 2.35931, 1, 0, 0, 1.10351e-07, 176761
-10828.8, 106552, -23.9615, 2.76147, -912.852, 0.0063538, 0.235456, 1.03299, 0.34851, 0.655882, 0.0001, 45.5, 246, 18.6353, 0.0563051, 0, 0, 1, 0, -2.06544e-06, 176764
-10828.8, 106552, -23.9615, 2.76147, -912.852, 0.0063538, 0.235456, 1.03299, 0.34851, 0.655882, 3, 45.5, 246, 18.6353, 0.0563051, 0, 0, 1, 0, 5.79463e-06, 176764
-7384.83, -65405.7, 19.4464, 2.56535, -893.753, -0.0222214, 0.290722, 1.03299, 0.34851, 0.655882, 0.0001, 45.5, 246, 1.9037, 0.12333, 1.71547, 1, 1, 0, 1.06704e-05, 176765
-7384.83, -65405.7, 19.4464, 2.56535, -893.753, -0.0222214, 0.290722, 1.03299, 0.34851, 0.655882, 3, 45.5, 246, 1.9037, 0.12333, 1.57252, 1, 1, 0, 2.28284e-05, 176765
-6798.1, -22225.5, 3.75343, 3.46559, -1146.37, -0.057713, 0.197826, 1.03299, 0.34851, 0.655882, 0.0001, 45.5, 246, 17.1293, 0.0594144, 0, 0, 1, 0, 1.21504e-05, 176772
-7127.81, 305.656, -33.7943, 3.77312, -1142.4, -0.000129229, 0.211374, 0.993198, 0.349787, 0.651995, 0.0001, 91, 246, 17.1293, 0.0594144, 0, 0, 1, 1, -2.29949e-05, 176772
-7127.81, 305.656, -33.7943, 3.77312, -1142.4, -0.000129229, 0.211374, 0.993198, 0.349787, 0.651995, 3, 91, 246, 17.1293, 0.0594144, 0, 0, 1, 1, -4.43231e-06, 176772
-11880, 256738, -124.388, 1.71434, -1091.22, 0.0440221, 0.353844, 1.03299, 0.34851, 0.655882, 0.0001, 45.5, 246, 30.952, 0.113683, 0, 0, 0, 0, -5.11834e-06, 176776
-11880, 256738, -124.388, 1.71434, -1091.22, 0.0440221, 0.353844, 1.03299, 0.34851, 0.655882, 3, 45.5, 246, 30.952, 0.113683, 0, 0, 0, 0, -8.38266e-06, 176776
-2088.76, 428386, -220.402, 3.14706, -1373.47, 0.482924, 0.274664, 0.9175, 0.352806, 0.64323, 0.0001, 455, 246, 27.5465, 0.0710582, 0, 0, 0, 0, 1.05487e-05, 176779
-2088.76, 428386, -220.402, 3.14706, -1373.47, 0.482924, 0.274664, 0.9175, 0.352806, 0.64323, 3, 455, 246, 27.5465, 0.0710582, 0, 0, 0, 0, 2.17003e-06, 176779
-4224.84, 226034, -344.948, 3.43154, -682.975, 0.0688091, 0.40704, 0.958125, 0.351078, 0.648177, 0.0001, 182, 246, 42.8281, 0.203874, 1.07156, 1, 0, 0, 4.27976e-06, 176781
-9780.57, 74056.6, -20.927, 2.91603, -956.247, 0.103626, 0.225404, 1.03299, 0.34851, 0.655882, 0.0001, 45.5, 246, 19.0688, 0.060156, 0, 0, 1, 0, -1.38328e-05, 176792
-9780.57, 74056.6, -20.927, 2.91603, -956.247, 0.103626, 0.225404, 1.03299, 0.34851, 0.655882, 3, 45.5, 246, 19.0688, 0.060156, 0, 0, 1, 0, 5.56619e-06, 176792
-10520.7, 406144, -101.335, 0.573157, -816.777, 0.00170878, 0.361338, 1.03299, 0.34851, 0.655882, 0.0001, 45.5, 246, 22.4128, 0.0649276, 0, 0, 1, 0, -1.34793e-05, 176795
-10520.7, 406144, -101.335, 0.573157, -816.777, 0.00170878, 0.361338, 1.03299, 0.34851, 0.655882, 3, 45.5, 246, 22.4128, 0.0649276, 0, 0, 1, 0, 2.26039e-05, 176795
-9651.91, 550703, -231.828, 0.601625, -1155.31, -0.00164658, 0.43266, 1.03299, 0.34851, 0.655882, 0.0001, 45.5, 246, 35.2702, 0.108554, 0, 0, 0, 0, 3.57904e-05, 176804
-9651.91, 550703, -231.828, 0.601625, -1155.31, -0.00164658, 0.43266, 1.03299, 0.34851, 0.655882, 3, 45.5, 246, 35.2702, 0.108554, 0, 0, 0, 0, 0.000130712, 176804
-11310.8, 266362, -205.358, 1.83013, -1082.89, -0.015673, 0.429553, 1.03299, 0.34851, 0.655882, 0.0001, 45.5, 246, 39.4491, 0.17608, 0, 0, 0, 0, 1.78456e-05, 176809
-11310.8, 266362, -205.358, 1.83013, -1082.89, -0.015673, 0.429553, 1.03299, 0.34851, 0.655882, 3, 45.5, 246, 39.4491, 0.17608, 0, 0, 0, 0, -4.70252e-06, 176809
-9160.22, 140347, -156.412, 2.10085, -724.913, -0.0193811, 0.372991, 1.03299, 0.34851, 0.655882, 3, 45.5, 246, 37.8656, 0.189679, 0, 0, 1, 0, -4.82756e-06, 176815
-7760.8, 149781, -181.349, 2.24199, -733.499, 0.00132297, 0.360503, 0.993198, 0.349787, 0.651995, 0.0001, 91, 246, 37.8656, 0.189679, 0, 0, 1, 0, -1.07919e-05, 176815
-7760.8, 149781, -181.349, 2.24199, -733.499, 0.00132297, 0.360503, 0.993198, 0.349787, 0.651995, 3, 91, 246, 37.8656, 0.189679, 0, 0, 1, 0, 2.10715e-05, 176815
-11072.8, 224677, -114.661, 1.5913, -1019.6, 0.0193283, 0.357313, 1.03299, 0.34851, 0.655882, 0.0001, 45.5, 246, 29.7004, 0.1177, 0, 0, 1, 0, 2.77212e-06, 176818
-11072.8, 224677, -114.661, 1.5913, -1019.6, 0.0193283, 0.357313, 1.03299, 0.34851, 0.655882, 3, 45.5, 246, 29.7004, 0.1177, 0, 0, 1, 0, -2.95366e-06, 176818
-9529.89, 243381, -136.351, 1.68452, -1029.08, 0.0312033, 0.334406, 0.993198, 0.349787, 0.651995, 3, 91, 246, 29.7004, 0.1177, 0, 0, 1, 0, -6.50787e-06, 176818
-7622.12, 262827, -160.236, 1.78315, -1042.03, 0.0446223, 0.318011, 0.958125, 0.351078, 0.648177, 3, 182, 246, 29.7004, 0.1177, 0, 0, 1, 0, 8.74075e-06, 176818
-8646.84, 100589, -27.3039, 0.236054, -1126.68, 0.237131, 0.348593, 1.03299, 0.34851, 0.655882, 0.0001, 45.5, 246, 16.8751, 0.0632541, 0, 0, 1, 0, -2.04578e-05, 176832
-8646.84, 100589, -27.3039, 0.236054, -1126.68, 0.237131, 0.348593, 1.03299, 0.34851, 0.655882, 3, 45.5, 246, 16.8751, 0.0632541, 0, 0, 1, 0, -8.23638e-06, 176832
-6542.4, 211457, -321.716, 3.4861, -832.531, 0.00502039, 0.383516, 0.993198, 0.349787, 0.651995, 0.0001, 91, 246, 47.8515, 0.215831, 1.10019, 1, 1, 0, 1.72601e-07, 176841
-2073.76, 226421, -380.685, 3.82296, -870.764, 0.063744, 0.417548, 0.958125, 0.351078, 0.648177, 0.0001, 182, 246, 47.8515, 0.215831, 2.1178, 1, 0, 0, -7.52143e-06, 176841
-2073.76, 226421, -380.685, 3.82296, -870.764, 0.063744, 0.417548, 0.958125, 0.351078, 0.648177, 3, 182, 246, 47.8515, 0.215831, 1.95262, 1, 0, 0, 5.16051e-06, 176841
-8772.55, 95582.4, -55.148, 1.13097, -1182.67, 0.00729158, 0.322668, 0.993198, 0.349787, 0.651995, 0.0001, 91, 246, 23.1928, 0.117734, 0, 0, 1, 0, -1.74868e-05, 176844
-8772.55, 95582.4, -55.148, 1.13097, -1182.67, 0.00729158, 0.322668, 0.993198, 0.349787, 0.651995, 3, 91, 246, 23.1928, 0.117734, 0, 0, 1, 0, 9.07372e-06, 176844
-8395.94, 937576, -368.002, 0.0225723, -583.434, 0.554249, 0.463192, 1.03299, 0.34851, 0.655882, 0.0001, 45.5, 246, 24.9054, 0.0906273, 0, 0, 0, 0, -0.000104568, 176847
-8395.94, 937576, -368.002, 0.0225723, -583.434, 0.554249, 0.463192, 1.03299, 0.34851, 0.655882, 3, 45.5, 246, 24.9054, 0.0906273, 0, 0, 0, 0, 7.53401e-05, 176847
-6078.89, 1.01991e+06, -390.074, 0.0254941, -707.863, 0.671957, 0.414087, 0.958125, 0.351078, 0.648177, 3, 182, 246, 24.9054, 0.0906273, 0, 0, 1, 0, 0.000136974, 176847
-10230.8, 187485, -83.109, 1.2762, -925.146, -0.00718968, 0.352376, 1.03299, 0.34851, 0.655882, 0.0001, 45.5, 246, 25.352, 0.103924, 0, 0, 1, 0, 3.18395e-05, 176848
-10230.8, 187485, -83.109, 1.2762, -925.146, -0.00718968, 0.352376, 1.03299, 0.34851, 0.655882, 3, 45.5, 246, 25.352, 0.103924, 0, 0, 1, 0, 1.27752e-05, 176848
-9824.54, 132014, -132.596, 2.98445, -909.115, 0.565045, 0.255785, 1.03299, 0.34851, 0.655882, 3, 45.5, 246, 34.4741, 0.13153, 0, 0, 0, 0, 4.75706e-05, 176858
-7872.76, 152707, -171.298, 3.33904, -1014.99, 0.668583, 0.258848, 0.993198, 0.349787, 0.651995, 0.0001, 91, 246, 34.4741, 0.13153, 0, 0, 1, 0, -2.41633e-05, 176858
-7872.76, 152707, -171.298, 3.33904, -1014.99, 0.668583, 0.258848, 0.993198, 0.349787, 0.651995, 3, 91, 246, 34.4741, 0.13153, 0, 0, 1, 0, 2.40617e-05, 176858
-5100.18, 180039, -221.803, 3.77997, -1159.43, 0.809683, 0.281037, 0.958125, 0.351078, 0.648177, 0.0001, 182, 246, 34.4741, 0.13153, 0, 0, 0, 0, 1.63364e-05, 176858
612.677, 233970, -318.02, 4.57686, -1453.71, 1.09618, 0.348669, 0.9175, 0.352806, 0.64323, 0.0001, 455, 246, 34.4741, 0.13153, 2.01997, 1, 0, 0, 9.21695e-06, 176858
612.677, 233970, -318.02, 4.57686, -1453.71, 1.09618, 0.348669, 0.9175, 0.352806, 0.64323, 3, 455, 246, 34.4741, 0.13153, 0, 0, 0, 0, 4.53486e-05, 176858
-1982.25, 71497.2, -260.958, 5.39261, -970.552, 1.15531, 0.33093, 0.9175, 0.352806, 0.64323, 0.0001, 455, 246, 36.7197, 0.0672244, 1.23746, 1, 1, 0, 9.64388e-06, 176860
-1982.25, 71497.2, -260.958, 5.39261, -970.552, 1.15531, 0.33093, 0.9175, 0.352806, 0.64323, 3, 455, 246, 36.7197, 0.0672244, 1.16903, 1, 1, 0, 9.64388e-06, 176860
-8338.04, 127087, -183.612, 2.58288, -701.234, 0.715272, 0.330161, 1.03299, 0.34851, 0.655882, 3, 45.5, 246, 40.7829, 0.180165, 0, 0, 1, 0, 2.3094e-06, 176863
-10693.6, 218169, -237.358, 2.20177, -816.862, -0.0103241, 0.447064, 1.03299, 0.34851, 0.655882, 0.0001, 45.5, 246, 43.1313, 0.216984, 0, 0, 0, 0, 8.98813e-06, 176864
-10693.6, 218169, -237.358, 2.20177, -816.862, -0.0103241, 0.447064, 1.03299, 0.34851, 0.655882, 3, 45.5, 246, 43.1313, 0.216984, 0, 0, 0, 0, 1.77712e-07, 176864
151.706, 266159, -369.895, 2.80461, -896.711, 0.0809572, 0.47003, 0.9175, 0.352806, 0.64323, 3, 455, 246, 43.1313, 0.216984, 1.14973, 1, 0, 0, 1.53548e-05, 176864
-8184.36, 140231, -84.6979, 1.72125, -960.859, 0.673429, 0.284766, 0.958125, 0.351078, 0.648177, 0.0001, 182, 246, 21.724, 0.0942834, 0, 0, 1, 0, -9.43071e-05, 176866
-8184.36, 140231, -84.6979, 1.72125, -960.859, 0.673429, 0.284766, 0.958125, 0.351078, 0.648177, 3, 182, 246, 21.724, 0.0942834, 0, 0, 1, 0, -3.30636e-05, 176866
-6624.93, 173279, -113.761, 1.94445, -1127.35, 0.806349, 0.268767, 0.9175, 0.352806, 0.64323, 0.0001, 455, 246, 21.724, 0.0942834, 0, 0, 1, 0, -4.25431e-05, 176866
-6624.93, 173279, -113.761, 1.94445, -1127.35, 0.806349, 0.268767, 0.9175, 0.352806, 0.64323, 3, 455, 246, 21.724, 0.0942834, 0, 0, 1, 0, 6.56049e-06, 176866
-10367.7, 182915, -187.009, 2.23615, -797.496, 0.442505, 0.376204, 1.03299, 0.34851, 0.655882, 0.0001, 45.5, 246, 37.9685, 0.178756, 0, 0, 1, 0, 1.48318e-05, 176869
-10367.7, 182915, -187.009, 2.23615, -797.496, 0.442505, 0.376204, 1.03299, 0.34851, 0.655882, 3, 45.5, 246, 37.9685, 0.178756, 0, 0, 1, 0, 4.62304e-08, 176869
-9807.1, 159353, -181.573, 3.45354, -1044.58, -0.0477332, 0.25562, 1.03299, 0.34851, 0.655882, 0.0001, 45.5, 246, 41.699, 0.163582, 0, 0, 0, 0, 3.94413e-06, 176870
-9807.1, 159353, -181.573, 3.45354, -1044.58, -0.0477332, 0.25562, 1.03299, 0.34851, 0.655882, 3, 45.5, 246, 41.699, 0.163582, 0, 0, 0, 0, -1.84465e-05, 176870
-6963.06, 178810, -233.055, 3.76722, -1060.94, 0.00948563, 0.272447, 0.993198, 0.349787, 0.651995, 3, 91, 246, 41.699, 0.163582, 0, 0, 1, 0, 8.38759e-06, 176870
-3189.02, 200457, -294.828, 4.14305, -1095.64, 0.0783408, 0.308997, 0.958125, 0.351078, 0.648177, 0.0001, 182, 246, 41.699, 0.163582, 1.11636, 1, 0, 0, -5.77856e-06, 176870
-10701.3, 196780, -232.268, 3.45924, -1003.17, -0.0522021, 0.296754, 1.03299, 0.34851, 0.655882, 3, 45.5, 246, 45.1427, 0.185798, 0, 0, 0, 0, 8.70113e-06, 176871
-2372.35, 236131, -353.957, 4.15927, -1063.83, 0.0745531, 0.356584, 0.958125, 0.351078, 0.648177, 0.0001, 182, 246, 45.1427, 0.185798, 1.84576, 1, 0, 0, 9.96148e-08, 176871
-2372.35, 236131, -353.957, 4.15927, -1063.83, 0.0745531, 0.356584, 0.958125, 0.351078, 0.648177, 3, 182, 246, 45.1427, 0.185798, 1.6771, 1, 0, 0, -8.11679e-06, 176871
-10273.7, 676545, -104.169, 0.371242, -1107.46, 0.00542365, 0.354644, 1.03299, 0.34851, 0.655882, 0.0001, 45.5, 246, 27.6382, 0.0400557, 0, 0, 1, 0, 9.94296e-05, 176877
-10273.7, 676545, -104.169, 0.371242, -1107.46, 0.00542365, 0.354644, 1.03299, 0.34851, 0.655882, 3, 45.5, 246, 27.6382, 0.0400557, 0, 0, 1, 0, -0.000153157, 176877
-9293.16, 698465, -111.428, 0.383915, -1109.53, 0.00605485, 0.319999, 0.993198, 0.349787, 0.651995, 3, 91, 246, 27.6382, 0.0400557, 0, 0, 1, 0, -3.16402e-05, 176877
-5200.23, 702623, -352.405, 0.000233023, -885.623, 0.0760208, 0.480101, 0.993198, 0.349787, 0.651995, 0.0001, 91, 246, 33.7384, 0.128257, 0, 0, 1, 0, -9.56185e-05, 176879
-4210.92, 721674, -362.519, 0.000240677, -896.394, 0.0769452, 0.46118, 0.958125, 0.351078, 0.648177, 0.0001, 182, 246, 33.7384, 0.128257, 0, 0, 0, 0, -6.78548e-06, 176879
-14757.6, -186202, -43.4183, 0.0786576, -1168.01, 0.0963442, 0.361251, 1.03299, 0.34851, 0.655882, 0.0001, 45.5, 246, -111.697, 0.0925946, 0, 0, 1, 0, 2.0749e-05, 176891
-14757.6, -186202, -43.4183, 0.0786576, -1168.01, 0.0963442, 0.361251, 1.03299, 0.34851, 0.655882, 3, 45.5, 246, -111.697, 0.0925946, 0, 0, 1, 0, 9.46013e-06, 176891
-8879.2, 30784, 17.229, 2.84232, -904.807, -0.0012248, 0.231933, 1.03299, 0.34851, 0.655882, 0.0001, 45.5, 246, 9.91745, 0.0347068, 1.26887, 1, 1, 0, 3.33664e-06, 176893
-8268.24, 235635, -220.241, 1.38186, -941.778, 0.15941, 0.453554, 0.993198, 0.349787, 0.651995, 0.0001, 91, 246, 39.5962, 0.211363, 0, 0, 1, 0, 5.78426e-06, 176894
-9148.19, 82464.8, -60.4702, 2.34216, -918.285, -0.0232696, 0.289857, 1.03299, 0.34851, 0.655882, 0.0001, 45.5, 246, 25.9841, 0.103979, 0, 0, 1, 0, -1.19761e-05, 176897
-9148.19, 82464.8, -60.4702, 2.34216, -918.285, -0.0232696, 0.289857, 1.03299, 0.34851, 0.655882, 3, 45.5, 246, 25.9841, 0.103979, 0, 0, 1, 0, 1.12058e-05, 176897
-7288.28, -10077.3, -32.0502, 2.56177, -747.021, 0.31441, 0.273555, 1.03299, 0.34851, 0.655882, 3, 45.5, 246, 26.9136, 0.017449, 0, 0, 1, 0, -8.23417e-06, 176898
-17252.4, -178046, -0.186083, 0.9935, -1140.52, 0.117593, 0.449412, 1.03299, 0.34851, 0.655882, 0.0001, 45.5, 246, -91.0299, 0.24397, 0, 0, 1, 0, -1.22113e-05, 176899
-17252.4, -178046, -0.186083, 0.9935, -1140.52, 0.117593, 0.449412, 1.03299, 0.34851, 0.655882, 3, 45.5, 246, -91.0299, 0.24397, 0, 0, 1, 0, 1.57107e-05, 176899
-10012.3, 101655, -78.7185, 3.37006, -763.358, 0.0104545, 0.188282, 1.03299, 0.34851, 0.655882, 0.0001, 45.5, 246, 25.9426, 0.0870903, 0, 0, 1, 0, 6.91308e-06, 176908
-10012.3, 101655, -78.7185, 3.37006, -763.358, 0.0104545, 0.188282, 1.03299, 0.34851, 0.655882, 3, 45.5, 246, 25.9426, 0.0870903, 0, 0, 1, 0, 2.46956e-06, 176908
-3762.95, 276263, -385.884, 4.39632, -897.374, 0.183247, 0.35194, 0.958125, 0.351078, 0.648177, 0.0001, 182, 246, 42.2324, 0.176231, 1.79552, 1, 0, 0, 5.98584e-06, 176909
-3762.95, 276263, -385.884, 4.39632, -897.374, 0.183247, 0.35194, 0.958125, 0.351078, 0.648177, 3, 182, 246, 42.2324, 0.176231, 1.63838, 1, 0, 0, -1.24073e-05, 176909
-11496.9, 335459, -340.137, 1.38112, -939.003, 0.364893, 0.616302, 1.03299, 0.34851, 0.655882, 0.0001, 45.5, 246, 46.4275, 0.239485, 0, 0, 0, 0, 6.79591e-05, 176915
-8730.94, 71222.9, -65.6093, 2.0423, -714.486, -0.0157527, 0.309792, 1.03299, 0.34851, 0.655882, 0.0001, 45.5, 246, 26.3836, 0.115289, 0, 0, 1, 0, 2.91286e-06, 176917
-8730.94, 71222.9, -65.6093, 2.0423, -714.486, -0.0157527, 0.309792, 1.03299, 0.34851, 0.655882, 3, 45.5, 246, 26.3836, 0.115289, 0, 0, 1, 0, 8.41994e-06, 176917
-9362.13, 864552, -117.354, 0.196334, -956.081, 0.78816, 0.353181, 1.03299, 0.34851, 0.655882, 0.0001, 45.5, 246, 25.7247, 0.0298693, 0, 0, 1, 0, -6.92475e-05, 176919
-9362.13, 864552, -117.354, 0.196334, -956.081, 0.78816, 0.353181, 1.03299, 0.34851, 0.655882, 3, 45.5, 246, 25.7247, 0.0298693, 0, 0, 1, 0, -2.40906e-05, 176919
-8677.23, 922724, -122.803, 0.211521, -1092.8, 0.900494, 0.317969, 0.993198, 0.349787, 0.651995, 0.0001, 91, 246, 25.7247, 0.0298693, 0, 0, 1, 0, 0.000141541, 176919
-8635.29, 197544, -137.089, 0.679726, -1147.01, 0.0405383, 0.428727, 1.03299, 0.34851, 0.655882, 0.0001, 45.5, 246, 34.5673, 0.175476, 0, 0, 1, 0, 5.92064e-07, 176921
-8635.29, 197544, -137.089, 0.679726, -1147.01, 0.0405383, 0.428727, 1.03299, 0.34851, 0.655882, 3, 45.5, 246, 34.5673, 0.175476, 0, 0, 1, 0, 2.8949e-05, 176921
-8924.02, 95522.1, -80.2276, 0.607453, -880.15, 0.000875619, 0.407251, 1.03299, 0.34851, 0.655882, 0.0001, 45.5, 246, 31.8161, 0.233644, 0, 0, 1, 0, 6.49896e-05, 176923
-8924.02, 95522.1, -80.2276, 0.607453, -880.15, 0.000875619, 0.407251, 1.03299, 0.34851, 0.655882, 3, 45.5, 246, 31.8161, 0.233644, 0, 0, 1, 0, 3.33673e-05, 176923
-11550.7, 270854, -269.21, 2.13027, -1004.28, -0.0186773, 0.489271, 1.03299, 0.34851, 0.655882, 0.0001, 45.5, 246, 45.3321, 0.21838, 0, 0, 0, 0, -6.30564e-06, 176925
-11550.7, 270854, -269.21, 2.13027, -1004.28, -0.0186773, 0.489271, 1.03299, 0.34851, 0.655882, 3, 45.5, 246, 45.3321, 0.21838, 0, 0, 0, 0, 3.29604e-06, 176925
-7128.67, 102460, -172.215, 2.35202, -719.302, 0.526656, 0.356356, 1.03299, 0.34851, 0.655882, 3, 45.5, 246, 44.7995, 0.20844, 0, 0, 1, 0, 0.000125035, 176926
-536.189, 166347, -302.534, 3.39467, -1096.52, 0.892644, 0.383127, 0.9175, 0.352806, 0.64323, 0.0001, 455, 246, 44.7995, 0.20844, 2.14396, 1, 0, 0, 3.27893e-05, 176926
-536.189, 166347, -302.534, 3.39467, -1096.52, 0.892644, 0.383127, 0.9175, 0.352806, 0.64323, 3, 455, 246, 44.7995, 0.20844, 2.14931, 1, 0, 0, -3.18746e-05, 176926
-7421.74, -15439.9, -4.69022, 2.78067, -849.203, 0.223611, 0.252778, 1.03299, 0.34851, 0.655882, 0.0001, 45.5, 246, 15.434, 0.0428979, 0, 0, 1, 1, 8.00806e-06, 176927
-7421.74, -15439.9, -4.69022, 2.78067, -849.203, 0.223611, 0.252778, 1.03299, 0.34851, 0.655882, 3, 45.5, 246, 15.434, 0.0428979, 0, 0, 1, 1, -6.46285e-06, 176927
-232.875, 225540, -290.826, 4.90203, -1876.86, 1.55546, 0.336942, 0.9175, 0.352806, 0.64323, 0.0001, 455, 246, 31.0543, 0.108335, 1.2773, 1, 0, 0, -4.62929e-06, 176928
-232.875, 225540, -290.826, 4.90203, -1876.86, 1.55546, 0.336942, 0.9175, 0.352806, 0.64323, 3, 455, 246, 31.0543, 0.108335, 1.76187, 1, 0, 0, 2.16032e-05, 176928
-6416.57, 298850, -248.336, 1.20779, -1086.84, 0.248155, 0.443156, 0.958125, 0.351078, 0.648177, 0.0001, 182, 246, 38.8458, 0.196746, 0, 0, 0, 0, -1.4518e-05, 176936
-7536.11, 44383.8, -71.6412, 3.11305, -764.753, -0.0434678, 0.223924, 1.03299, 0.34851, 0.655882, 0.0001, 45.5, 246, 29.2588, 0.0882211, 1.0695, 1, 1, 0, -1.85303e-06, 176938
-6044.12, 64863.5, -134.086, 3.67081, -783.948, 0.057177, 0.24656, 0.958125, 0.351078, 0.648177, 3, 182, 246, 29.2588, 0.0882211, 0, 0, 1, 0, 2.82415e-06, 176938
-204.587, 512037, -490.116, 1.30736, -1246.47, 1.17104, 0.672405, 0.9175, 0.352806, 0.64323, 3, 455, 246, 42.814, 0.233166, 0, 0, 0, 0, -9.76977e-05, 176941
1309.75, 427752, -393.238, 2.79957, -1212.37, 0.374613, 0.430915, 0.9175, 0.352806, 0.64323, 0.0001, 455, 246, 38.5362, 0.162223, 0, 0, 0, 0, -6.19831e-06, 176942
1309.75, 427752, -393.238, 2.79957, -1212.37, 0.374613, 0.430915, 0.9175, 0.352806, 0.64323, 3, 455, 246, 38.5362, 0.162223, 0, 0, 0, 0, -7.18295e-06, 176942
-4008.52, 709858, -244.164, 1.53768, -1051.78, 0.0415033, 0.291073, 0.9175, 0.352806, 0.64323, 3, 455, 246, 29.6245, 0.0700746, 0, 0, 0, 0, -1.12002e-05, 176946
-6099.38, 429950, -305.983, 0.295583, -1133.12, 0.0826503, 0.532096, 0.993198, 0.349787, 0.651995, 0.0001, 91, 246, 41.2537, 0.190008, 0, 0, 1, 0, -3.19401e-05, 176947
-6617.84, 642808, -304.196, 0.0843331, -816.971, 0.489373, 0.440618, 0.993198, 0.349787, 0.651995, 0.0001, 91, 246, 29.656, 0.115157, 0, 0, 1, 0, 7.07247e-05, 176949
-7606.51, 171069, -124.797, 3.81235, -1003.37, 0.909183, 0.227748, 0.958125, 0.351078, 0.648177, 3, 182, 246, 21.7565, 0.0679661, 0, 0, 1, 0, -4.79878e-05, 176954
-9753.84, 51276.9, 28.9552, 3.06125, -1181.48, -0.0179979, 0.207843, 1.03299, 0.34851, 0.655882, 0.0001, 45.5, 246, 12.6751, 0.0354881, 1.18724, 1, 1, 0, 4.57258e-06, 176955
-9753.84, 51276.9, 28.9552, 3.06125, -1181.48, -0.0179979, 0.207843, 1.03299, 0.34851, 0.655882, 3, 45.5, 246, 12.6751, 0.0354881, 1.12643, 1, 1, 0, 2.12562e-06, 176955
-9084.82, 75232.4, -2.99039, 3.31397, -1181.06, 0.0265717, 0.208762, 0.993198, 0.349787, 0.651995, 0.0001, 91, 246, 12.6751, 0.0354881, 0, 0, 1, 0, -1.06091e-05, 176955
-19895.4, 35837, -55.8677, 0.285717, -947.337, 0.784926, 0.36087, 1.03299, 0.34851, 0.655882, 3, 45.5, 246, 513.023, 0.05204, 0, 0, 1, 0, 0.000226786, 176964
-6691.99, 880925, -231.212, 0.113202, -1004.77, 0.52118, 0.392724, 1.03299, 0.34851, 0.655882, 0.0001, 45.5, 246, 30.3581, 0.0605099, 0, 0, 0, 0, 5.77572e-05, 176965
-5918.58, 927108, -239.275, 0.120005, -1095.71, 0.568019, 0.36038, 0.993198, 0.349787, 0.651995, 0.0001, 91, 246, 30.3581, 0.0605099, 0, 0, 1, 0, 6.53917e-05, 176965
1010.89, 424425, -287.147, 5.07144, -1242.23, 0.30968, 0.274083, 0.9175, 0.352806, 0.64323, 3, 455, 246, 28.1215, 0.0679817, 0, 0, 0, 0, 9.7624e-06, 176966
-4254.99, 131946, -199.999, 3.04385, -1004, 1.57949, 0.314555, 0.9175, 0.352806, 0.64323, 3, 455, 246, 33.6594, 0.150875, 0, 0, 1, 0, 3.48835e-05, 176973
-9658.11, 574433, -337.363, 0.225893, -633.553, 0.0648334, 0.532363, 1.03299, 0.34851, 0.655882, 0.0001, 45.5, 246, 31.2866, 0.15277, 0, 0, 0, 0, 3.21459e-05, 176975
-9658.11, 574433, -337.363, 0.225893, -633.553, 0.0648334, 0.532363, 1.03299, 0.34851, 0.655882, 3, 45.5, 246, 31.2866, 0.15277, 0, 0, 0, 0, -1.85026e-05, 176975
-10446.9, 717157, -150.192, 0.311378, -705.325, 0.0763904, 0.369759, 1.03299, 0.34851, 0.655882, 0.0001, 45.5, 246, 21.8092, 0.0536276, 0, 0, 1, 0, 0.000155488, 176977
-10446.9, 717157, -150.192, 0.311378, -705.325, 0.0763904, 0.369759, 1.03299, 0.34851, 0.655882, 3, 45.5, 246, 21.8092, 0.0536276, 0, 0, 1, 0, 3.17173e-05, 176977
-9502.73, 729309, -157.181, 0.323009, -715.26, 0.077771, 0.336049, 0.993198, 0.349787, 0.651995, 3, 91, 246, 21.8092, 0.0536276, 0, 0, 1, 0, 1.78742e-05, 176977
-10470.1, 321018, -279.145, 0.586741, -547.094, 0.565401, 0.549561, 1.03299, 0.34851, 0.655882, 0.0001, 45.5, 246, 34.7826, 0.206331, 0, 0, 1, 0, 1.41564e-05, 176983
-10470.1, 321018, -279.145, 0.586741, -547.094, 0.565401, 0.549561, 1.03299, 0.34851, 0.655882, 3, 45.5, 246, 34.7826, 0.206331, 0, 0, 1, 0, -4.2877e-05, 176983
-9182.49, 338474, -294.462, 0.631764, -605.67, 0.622661, 0.532561, 0.993198, 0.349787, 0.651995, 0.0001, 91, 246, 34.7826, 0.206331, 0, 0, 1, 0, 9.43778e-06, 176983
-10545.8, 280568, -112.713, 1.01778, -1033.82, 0.134646, 0.370115, 1.03299, 0.34851, 0.655882, 0.0001, 45.5, 246, 28.0081, 0.0988693, 0, 0, 1, 0, 5.28917e-07, 176985
-10545.8, 280568, -112.713, 1.01778, -1033.82, 0.134646, 0.370115, 1.03299, 0.34851, 0.655882, 3, 45.5, 246, 28.0081, 0.0988693, 0, 0, 1, 0, 8.50109e-07, 176985
-9353.19, 302001, -127.779, 1.07292, -1060.04, 0.142474, 0.340943, 0.993198, 0.349787, 0.651995, 0.0001, 91, 246, 28.0081, 0.0988693, 0, 0, 1, 0, 1.68376e-05, 176985
-7888.72, 324843, -144.124, 1.12975, -1088.89, 0.151202, 0.316871, 0.958125, 0.351078, 0.648177, 0.0001, 182, 246, 28.0081, 0.0988693, 0, 0, 1, 0, 6.09929e-06, 176985
-10850.9, 255613, -260.246, 2.0472, -1065.88, 0.159625, 0.489528, 1.03299, 0.34851, 0.655882, 3, 45.5, 246, 45.7899, 0.220172, 0, 0, 0, 0, 5.37521e-07, 176986
-9074.31, 405958, -296.858, 0.397329, -812.532, 0.0319522, 0.555402, 1.03299, 0.34851, 0.655882, 0.0001, 45.5, 246, 37.4922, 0.193587, 0, 0, 0, 0, 2.5186e-05, 176987
-7798.06, 419925, -311.712, 0.413949, -819.961, 0.0328404, 0.538023, 0.993198, 0.349787, 0.651995, 0.0001, 91, 246, 37.4922, 0.193587, 0, 0, 1, 0, -3.02615e-05, 176987
-6323.78, 434329, -326.669, 0.430436, -827.847, 0.0337983, 0.525027, 0.958125, 0.351078, 0.648177, 0.0001, 182, 246, 37.4922, 0.193587, 0, 0, 0, 0, 2.89343e-05, 176987
-4075.56, 183879, -136.865, 4.83016, -878.395, 0.426766, 0.270268, 0.9175, 0.352806, 0.64323, 0.0001, 455, 246, 16.1287, 0.0406084, 0, 0, 0, 0, 1.19603e-05, 176988
-4075.56, 183879, -136.865, 4.83016, -878.395, 0.426766, 0.270268, 0.9175, 0.352806, 0.64323, 3, 455, 246, 16.1287, 0.0406084, 0, 0, 0, 0, -1.3548e-05, 176988
-7354.01, 74330.3, -120.094, 2.82645, -742.687, -0.0370562, 0.273213, 1.03299, 0.34851, 0.655882, 0.0001, 45.5, 246, 37.6449, 0.14359, 0, 0, 1, 0, 1.75516e-05, 176990
-7354.01, 74330.3, -120.094, 2.82645, -742.687, -0.0370562, 0.273213, 1.03299, 0.34851, 0.655882, 3, 45.5, 246, 37.6449, 0.14359, 0, 0, 1, 0, -6.14589e-06, 176990
-9604.06, 267714, -78.1189, 0.989017, -1024.96, 0.00045059, 0.315543, 0.993198, 0.349787, 0.651995, 0.0001, 91, 246, 23.1816, 0.0689761, 0, 0, 1, 0, 2.49464e-05, 176994
-9336.06, 584111, -242.994, 0.215465, -588.719, 0.128755, 0.436592, 1.03299, 0.34851, 0.655882, 0.0001, 45.5, 246, 24.893, 0.106003, 0, 0, 1, 0, -2.68349e-05, 176995
-9336.06, 584111, -242.994, 0.215465, -588.719, 0.128755, 0.436592, 1.03299, 0.34851, 0.655882, 3, 45.5, 246, 24.893, 0.106003, 0, 0, 1, 0, 8.93556e-06, 176995
-8486.32, 595424, -252.248, 0.224166, -602.404, 0.131646, 0.407944, 0.993198, 0.349787, 0.651995, 0.0001, 91, 246, 24.893, 0.106003, 0, 0, 1, 0, 1.79831e-05, 176995
-7515.45, 607290, -261.254, 0.232694, -616.774, 0.134677, 0.383454, 0.958125, 0.351078, 0.648177, 0.0001, 182, 246, 24.893, 0.106003, 0, 0, 1, 0, 0.000121485, 176995
-7677.91, 66791.7, -95.7216, 2.35102, -1006.5, -0.0150512, 0.317445, 1.03299, 0.34851, 0.655882, 3, 45.5, 246, 37.1294, 0.164446, 0, 0, 1, 0, -4.74737e-06, 176996
-6952.93, 84570.1, -124.834, 2.51783, -1013.18, 0.0109533, 0.306354, 0.993198, 0.349787, 0.651995, 0.0001, 91, 246, 37.1294, 0.164446, 0, 0, 1, 0, 8.56131e-06, 176996
-6952.93, 84570.1, -124.834, 2.51783, -1013.18, 0.0109533, 0.306354, 0.993198, 0.349787, 0.651995, 3, 91, 246, 37.1294, 0.164446, 0, 0, 1, 0, 1.63404e-05, 176996
-3695.31, 129172, -209.858, 2.98717, -1059.1, 0.0887216, 0.31947, 0.9175, 0.352806, 0.64323, 3, 455, 246, 37.1294, 0.164446, 0, 0, 0, 0, 3.1371e-06, 176996
-6336.69, 777740, -154.414, 1.52861, -1026.91, 0.106235, 0.249176, 0.9175, 0.352806, 0.64323, 3, 455, 246, 25.2927, 0.0378669, 0, 0, 0, 0, 9.7106e-06, 176999
