-6869.31, 735225, -256.115, 0.121721, -801.538, 0.0133965, 0.392258, 0.993198, 0.349787, 0.651995, 0.0001, 91, 246, 27.8109, 0.0882017, 0, 0, 1, 0, 9.12225e-06, 114001
-6040.05, 748241, -264.284, 0.125272, -804.09, 0.013492, 0.366419, 0.958125, 0.351078, 0.648177, 0.0001, 182, 246, 27.8109, 0.0882017, 0, 0, 0, 0, -4.26216e-05, 114001
-4792.74, 326086, -417.057, 4.45932, -961.037, 0.891602, 0.369067, 0.958125, 0.351078, 0.648177, 0.0001, 182, 246, 39.9481, 0.169254, 1.67231, 1, 0, 0, -1.47977e-05, 114004
-4792.74, 326086, -417.057, 4.45932, -961.037, 0.891602, 0.369067, 0.958125, 0.351078, 0.648177, 3, 182, 246, 39.9481, 0.169254, 1.5428, 1, 0, 0, 0.000116976, 114004
-8947.36, 101781, -13.7081, 0.405465, -951.722, 0.0304083, 0.34313, 1.03299, 0.34851, 0.655882, 0.0001, 45.5, 246, 12.9921, 0.0383863, 0, 0, 1, 0, 3.69793e-05, 114005
-8947.36, 101781, -13.7081, 0.405465, -951.722, 0.0304083, 0.34313, 1.03299, 0.34851, 0.655882, 3, 45.5, 246, 12.9921, 0.0383863, 0, 0, 1, 0, -3.98118e-05, 114005
-10748.6, 245308, -142.805, 1.29806, -951.001, 0.761368, 0.383117, 1.03299, 0.34851, 0.655882, 0.0001, 45.5, 246, 30.7218, 0.125005, 0, 0, 1, 0, 0.000119043, 114008
-10748.6, 245308, -142.805, 1.29806, -951.001, 0.761368, 0.383117, 1.03299, 0.34851, 0.655882, 3, 45.5, 246, 30.7218, 0.125005, 0, 0, 1, 0, 4.3209e-05, 114008
-7243.31, 119894, -201.264, 3.33703, -814.987, 0.494737, 0.256422, 1.03299, 0.34851, 0.655882, 0.0001, 45.5, 246, 44.7469, 0.172627, 1.11307, 1, 0, 0, -1.63982e-05, 114012
-4966.48, 137062, -247.36, 3.74488, -909.739, 0.596346, 0.270977, 0.993198, 0.349787, 0.651995, 0.0001, 91, 246, 44.7469, 0.172627, 1.16974, 1, 1, 0, -3.30281e-06, 114012
-1781.92, 159931, -307.297, 4.25807, -1040.7, 0.735896, 0.308953, 0.958125, 0.351078, 0.648177, 0.0001, 182, 246, 44.7469, 0.172627, 1.70939, 1, 0, 0, -1.62697e-05, 114012
-1781.92, 159931, -307.297, 4.25807, -1040.7, 0.735896, 0.308953, 0.958125, 0.351078, 0.648177, 3, 182, 246, 44.7469, 0.172627, 1.55987, 1, 0, 0, 5.51545e-05, 114012
-11788.6, 310367, -184.496, 1.58986, -1154.98, 0.000641265, 0.407663, 1.03299, 0.34851, 0.655882, 0.0001, 45.5, 246, 36.4281, 0.143158, 0, 0, 0, 0, 1.22122e-05, 114014
-5936.21, 83976, -175.008, 3.03377, -650.217, -0.00408923, 0.277808, 1.03299, 0.34851, 0.655882, 0.0001, 45.5, 246, 46.1675, 0.175354, 1.15732, 1, 1, 0, 1.53692e-05, 114018
-4525.91, 92021.9, -208.704, 3.29133, -667.97, 0.0398245, 0.282415, 0.993198, 0.349787, 0.651995, 0.0001, 91, 246, 46.1675, 0.175354, 1.13166, 1, 1, 0, -4.85003e-06, 114018
-2697.8, 101192, -248.402, 3.59179, -695.678, 0.0924316, 0.302493, 0.958125, 0.351078, 0.648177, 0.0001, 182, 246, 46.1675, 0.175354, 1.32588, 1, 1, 0, -7.33076e-06, 114018
-2697.8, 101192, -248.402, 3.59179, -695.678, 0.0924316, 0.302493, 0.958125, 0.351078, 0.648177, 3, 182, 246, 46.1675, 0.175354, 1.16799, 1, 1, 0, 1.39749e-06, 114018
587.345, 116051, -313.784, 4.08305, -753.436, 0.181448, 0.35615, 0.9175, 0.352806, 0.64323, 0.0001, 455, 246, 46.1675, 0.175354, 2.01705, 1, 1, 1, 1.06808e-05, 114018
587.345, 116051, -313.784, 4.08305, -753.436, 0.181448, 0.35615, 0.9175, 0.352806, 0.64323, 3, 455, 246, 46.1675, 0.175354, 1.95832, 1, 1, 1, 3.57325e-06, 114018
-10443.7, 209288, -339.628, 3.58164, -598.308, -0.0159286, 0.364317, 1.03299, 0.34851, 0.655882, 0.0001, 45.5, 246, 50.6759, 0.228952, 1.38463, 1, 0, 0, 5.61507e-06, 114020
-10443.7, 209288, -339.628, 3.58164, -598.308, -0.0159286, 0.364317, 1.03299, 0.34851, 0.655882, 3, 45.5, 246, 50.6759, 0.228952, 1.30989, 1, 0, 0, -1.12238e-05, 114020
-5978.11, 217924, -394.219, 3.93599, -635.938, 0.0460388, 0.393866, 0.993198, 0.349787, 0.651995, 0.0001, 91, 246, 50.6759, 0.228952, 1.70783, 1, 1, 0, -9.89224e-06, 114020
-5978.11, 217924, -394.219, 3.93599, -635.938, 0.0460388, 0.393866, 0.993198, 0.349787, 0.651995, 3, 91, 246, 50.6759, 0.228952, 1.62468, 1, 1, 0, 4.90369e-06, 114020
9434.28, 252234, -576.916, 5.11813, -805.576, 0.259915, 0.560802, 0.9175, 0.352806, 0.64323, 0.0001, 455, 246, 50.6759, 0.228952, 0, 0, 0, 0, -8.82991e-06, 114020
9434.28, 252234, -576.916, 5.11813, -805.576, 0.259915, 0.560802, 0.9175, 0.352806, 0.64323, 3, 455, 246, 50.6759, 0.228952, 0, 0, 0, 0, 1.1263e-05, 114020
-8281.51, 699780, -339.517, 0.204208, -847.065, 0.130232, 0.496813, 1.03299, 0.34851, 0.655882, 0.0001, 45.5, 246, 32.99, 0.123608, 0, 0, 0, 0, -8.22307e-05, 114022
-8281.51, 699780, -339.517, 0.204208, -847.065, 0.130232, 0.496813, 1.03299, 0.34851, 0.655882, 3, 45.5, 246, 32.99, 0.123608, 0, 0, 0, 0, -2.14058e-05, 114022
-7742.1, 61325.3, -91.8105, 3.30514, -694.504, -0.0523657, 0.204987, 1.03299, 0.34851, 0.655882, 0.0001, 45.5, 246, 30.6739, 0.0958821, 0, 0, 1, 0, 6.00939e-06, 114023
-7742.1, 61325.3, -91.8105, 3.30514, -694.504, -0.0523657, 0.204987, 1.03299, 0.34851, 0.655882, 3, 45.5, 246, 30.6739, 0.0958821, 0, 0, 1, 0, -8.853e-06, 114023
-9052.65, 163832, -178.337, 2.00202, -1067.72, 0.0234345, 0.421037, 1.03299, 0.34851, 0.655882, 0.0001, 45.5, 246, 42.8645, 0.215443, 0, 0, 1, 0, 1.39064e-05, 114028
-9052.65, 163832, -178.337, 2.00202, -1067.72, 0.0234345, 0.421037, 1.03299, 0.34851, 0.655882, 3, 45.5, 246, 42.8645, 0.215443, 0, 0, 1, 0, 1.36995e-05, 114028
-6087.13, 441080, -389.392, 0.317866, -1104.63, 0.0034886, 0.674794, 0.993198, 0.349787, 0.651995, 0.0001, 91, 246, 47.1901, 0.242338, 0, 0, 1, 0, 7.45917e-05, 114029
-6111.82, -11402.2, -39.5293, 3.53369, -786.582, 0.11733, 0.183905, 1.03299, 0.34851, 0.655882, 0.0001, 45.5, 246, 26.1838, 0.0175303, 0, 0, 1, 1, -4.43529e-06, 114032
-6111.82, -11402.2, -39.5293, 3.53369, -786.582, 0.11733, 0.183905, 1.03299, 0.34851, 0.655882, 3, 45.5, 246, 26.1838, 0.0175303, 0, 0, 1, 1, -1.12674e-06, 114032
-2484.84, 122624, -240.564, 3.19209, -970.633, 0.0877785, 0.335239, 0.9175, 0.352806, 0.64323, 0.0001, 455, 246, 42.1744, 0.182986, 1.03965, 1, 0, 0, -3.16435e-06, 114033
-2484.84, 122624, -240.564, 3.19209, -970.633, 0.0877785, 0.335239, 0.9175, 0.352806, 0.64323, 3, 455, 246, 42.1744, 0.182986, 1.06362, 1, 0, 0, 3.02732e-06, 114033
-10258.8, 271146, -293.34, 1.31463, -926.555, 0.854111, 0.567937, 1.03299, 0.34851, 0.655882, 0.0001, 45.5, 246, 44.8836, 0.235419, 0, 0, 0, 0, -1.22002e-05, 114036
-10258.8, 271146, -293.34, 1.31463, -926.555, 0.854111, 0.567937, 1.03299, 0.34851, 0.655882, 3, 45.5, 246, 44.8836, 0.235419, 0, 0, 0, 0, 5.17641e-05, 114036
-10677.6, 204807, -317.068, 3.31318, -614.903, 0.362921, 0.363908, 1.03299, 0.34851, 0.655882, 0.0001, 45.5, 246, 47.7193, 0.215876, 1.17904, 1, 0, 0, 1.97225e-05, 114037
-10677.6, 204807, -317.068, 3.31318, -614.903, 0.362921, 0.363908, 1.03299, 0.34851, 0.655882, 3, 45.5, 246, 47.7193, 0.215876, 1.08703, 1, 0, 0, 1.13989e-05, 114037
-6648.09, 218199, -367.457, 3.69893, -687.616, 0.442197, 0.385045, 0.993198, 0.349787, 0.651995, 0.0001, 91, 246, 47.7193, 0.215876, 1.43478, 1, 1, 0, -7.10731e-05, 114037
-6648.09, 218199, -367.457, 3.69893, -687.616, 0.442197, 0.385045, 0.993198, 0.349787, 0.651995, 3, 91, 246, 47.7193, 0.215876, 1.32844, 1, 1, 0, -1.07957e-05, 114037
-1454.41, 236070, -430.866, 4.17672, -786.139, 0.548519, 0.42884, 0.958125, 0.351078, 0.648177, 0.0001, 182, 246, 47.7193, 0.215876, 3.33476, 1, 0, 0, -191.93, 114037
-1454.41, 236070, -430.866, 4.17672, -786.139, 0.548519, 0.42884, 0.958125, 0.351078, 0.648177, 3, 182, 246, 47.7193, 0.215876, 3.07733, 1, 0, 0, 194.178, 114037
-10452.9, 820013, -205.955, 0.277001, -684.046, 0.391561, 0.386016, 1.03299, 0.34851, 0.655882, 0.0001, 45.5, 246, 22.9809, 0.0603885, 0, 0, 1, 0, -4.08848e-05, 114038
-10664.5, 368185, -283.175, 0.876501, -843.284, -0.0029683, 0.541555, 1.03299, 0.34851, 0.655882, 0.0001, 45.5, 246, 38.8366, 0.198016, 0, 0, 0, 0, 3.89125e-05, 114042
-10664.5, 368185, -283.175, 0.876501, -843.284, -0.0029683, 0.541555, 1.03299, 0.34851, 0.655882, 3, 45.5, 246, 38.8366, 0.198016, 0, 0, 0, 0, 6.97234e-06, 114042
-9133.17, 311886, -265.898, 1.06108, -715.435, 0.00778427, 0.496129, 0.993198, 0.349787, 0.651995, 3, 91, 246, 37.029, 0.20398, 0, 0, 1, 0, -1.26377e-06, 114051
-6695.55, -18322.4, 0.606633, 3.53403, -1049.34, 0.16807, 0.183618, 1.03299, 0.34851, 0.655882, 0.0001, 45.5, 246, 17.209, 0.0541925, 0, 0, 1, 0, -1.49367e-05, 114052
-6695.55, -18322.4, 0.606633, 3.53403, -1049.34, 0.16807, 0.183618, 1.03299, 0.34851, 0.655882, 3, 45.5, 246, 17.209, 0.0541925, 0, 0, 1, 0, 1.82201e-06, 114052
-6436.29, 679476, -357.494, 0.0628026, -903.536, 0.613399, 0.502912, 1.03299, 0.34851, 0.655882, 0.0001, 45.5, 246, 34.0964, 0.12256, 0, 0, 0, 0, 4.09718e-05, 114053
-6436.29, 679476, -357.494, 0.0628026, -903.536, 0.613399, 0.502912, 1.03299, 0.34851, 0.655882, 3, 45.5, 246, 34.0964, 0.12256, 0, 0, 0, 0, -0.425991, 114053
-7759.71, 269471, -414.445, 3.4462, -746.605, 0.0617131, 0.495745, 0.993198, 0.349787, 0.651995, 0.0001, 91, 246, 50.7873, 0.244254, 1.36981, 1, 1, 0, 9.4716e-06, 114057
-7759.71, 269471, -414.445, 3.4462, -746.605, 0.0617131, 0.495745, 0.993198, 0.349787, 0.651995, 3, 91, 246, 50.7873, 0.244254, 1.26566, 1, 1, 0, 4.52257e-06, 114057
-5364.14, 130822, -218.934, 2.61477, -1073.03, 0.966762, 0.376579, 0.993198, 0.349787, 0.651995, 0.0001, 91, 246, 48.2606, 0.232981, 2.13092, 1, 1, 0, 2.53071e-05, 114060
-11725.6, 242876, -27.018, 1.21834, -999.145, 0.0814824, 0.323302, 1.03299, 0.34851, 0.655882, 0.0001, 45.5, 246, 18.9458, 0.0368802, 0, 0, 1, 0, -1.63428e-05, 114061
-11725.6, 242876, -27.018, 1.21834, -999.145, 0.0814824, 0.323302, 1.03299, 0.34851, 0.655882, 3, 45.5, 246, 18.9458, 0.0368802, 0, 0, 1, 0, 9.62762e-06, 114061
-10620.6, 261566, -39.6571, 1.28379, -1013.83, 0.0895062, 0.292861, 0.993198, 0.349787, 0.651995, 0.0001, 91, 246, 18.9458, 0.0368802, 0, 0, 1, 0, -1.46099e-05, 114061
-8759.54, 151883, -41.3932, 0.877009, -1142.84, 0.921221, 0.279387, 0.958125, 0.351078, 0.648177, 0.0001, 182, 246, 16.0088, 0.0565415, 0, 0, 1, 0, -2.78991e-05, 114062
-8759.54, 151883, -41.3932, 0.877009, -1142.84, 0.921221, 0.279387, 0.958125, 0.351078, 0.648177, 3, 182, 246, 16.0088, 0.0565415, 0, 0, 1, 0, 1.43527e-05, 114062
-8557.23, 25423.6, -22.5086, 1.29607, -715.979, 0.242018, 0.331116, 1.03299, 0.34851, 0.655882, 0.0001, 45.5, 246, 18.5186, 0.0948151, 0, 0, 1, 1, -9.55033e-06, 114065
-8557.23, 25423.6, -22.5086, 1.29607, -715.979, 0.242018, 0.331116, 1.03299, 0.34851, 0.655882, 3, 45.5, 246, 18.5186, 0.0948151, 0, 0, 1, 1, -1.83739e-05, 114065
-8233.86, 80438.1, -80.8667, 1.51119, -1165.21, 0.14354, 0.335064, 0.993198, 0.349787, 0.651995, 0.0001, 91, 246, 31.4265, 0.186216, 0, 0, 1, 0, 7.36072e-06, 114068
-8233.86, 80438.1, -80.8667, 1.51119, -1165.21, 0.14354, 0.335064, 0.993198, 0.349787, 0.651995, 3, 91, 246, 31.4265, 0.186216, 0, 0, 1, 0, -1.64642e-05, 114068
-7905.36, 959495, -128.954, 0.643213, -753.338, 0.00512946, 0.24827, 0.9175, 0.352806, 0.64323, 0.0001, 455, 246, 20.9974, 0.0298073, 0, 0, 0, 0, -1.61355e-05, 114072
-8988.69, 546660, -321.776, 0.2732, -771.401, 0.101477, 0.523407, 1.03299, 0.34851, 0.655882, 3, 45.5, 246, 33.5993, 0.15231, 0, 0, 0, 0, 1.13143e-05, 114075
-6033.51, 22367.9, -95.3466, 3.64729, -1066.3, 0.056455, 0.224772, 0.993198, 0.349787, 0.651995, 3, 91, 246, 33.5363, 0.0552667, 0, 0, 1, 1, 1.37045e-05, 114076
-10251.9, 90424.1, 7.77141, 1.98799, -1162.74, -0.017684, 0.288815, 1.03299, 0.34851, 0.655882, 0.0001, 45.5, 246, 14.5906, 0.0347923, 0, 0, 1, 0, 1.22456e-05, 114077
-10251.9, 90424.1, 7.77141, 1.98799, -1162.74, -0.017684, 0.288815, 1.03299, 0.34851, 0.655882, 3, 45.5, 246, 14.5906, 0.0347923, 0, 0, 1, 0, -9.84389e-06, 114077
-9581.74, 113715, -13.2822, 2.11219, -1161.3, 0.000772888, 0.267955, 0.993198, 0.349787, 0.651995, 0.0001, 91, 246, 14.5906, 0.0347923, 0, 0, 1, 0, -9.33864e-08, 114077
-9581.74, 113715, -13.2822, 2.11219, -1161.3, 0.000772888, 0.267955, 0.993198, 0.349787, 0.651995, 3, 91, 246, 14.5906, 0.0347923, 0, 0, 1, 0, -2.08648e-05, 114077
-9577.31, 161702, -171.541, 2.12409, -891.431, 0.679106, 0.376438, 1.03299, 0.34851, 0.655882, 3, 45.5, 246, 38.577, 0.180603, 0, 0, 1, 0, 2.92691e-05, 114080
-14748.7, 200410, -86.8514, 3.65982, -1127.08, -0.0645901, 0.153599, 1.03299, 0.34851, 0.655882, 0.0001, 45.5, 246, 29.4802, 0.0880197, 0, 0, 0, 0, 7.23159e-06, 114084
-14748.7, 200410, -86.8514, 3.65982, -1127.08, -0.0645901, 0.153599, 1.03299, 0.34851, 0.655882, 3, 45.5, 246, 29.4802, 0.0880197, 0, 0, 0, 0, 1.54686e-05, 114084
-7730.67, 419093, -330.14, 0.202492, -900.8, 0.681955, 0.57648, 1.03299, 0.34851, 0.655882, 0.0001, 45.5, 246, 39.0094, 0.190774, 0, 0, 0, 0, -8.3918e-06, 114085
-6565.11, 453640, -344.177, 0.218138, -1011.59, 0.764537, 0.56063, 0.993198, 0.349787, 0.651995, 0.0001, 91, 246, 39.0094, 0.190774, 0, 0, 1, 0, -4.77265e-05, 114085
-5189.44, 496641, -358.438, 0.235695, -1152.85, 0.869851, 0.549157, 0.958125, 0.351078, 0.648177, 0.0001, 182, 246, 39.0094, 0.190774, 0, 0, 0, 0, -3.48677e-05, 114085
-6190.36, -56092.5, 28.1903, 3.39315, -1040.5, 0.781588, 0.203886, 1.03299, 0.34851, 0.655882, 0.0001, 45.5, 246, 8.304, 0.0732112, 1.0145, 1, 1, 0, 5.28499e-06, 114088
-10724.7, 225820, -198.281, 1.47759, -660.734, 0.107604, 0.445041, 1.03299, 0.34851, 0.655882, 0.0001, 45.5, 246, 35.5966, 0.192898, 0, 0, 1, 0, 5.09111e-06, 114095
-9090.11, 235597, -218.929, 1.57208, -681.148, 0.119848, 0.427493, 0.993198, 0.349787, 0.651995, 3, 91, 246, 35.5966, 0.192898, 0, 0, 1, 0, -2.90498e-07, 114095
-5831.02, 716883, -377.122, 0.0946252, -1055.47, 0.00332617, 0.531799, 1.03299, 0.34851, 0.655882, 0.0001, 45.5, 246, 38.503, 0.136419, 0, 0, 0, 0, 0.000293294, 114097
-5831.02, 716883, -377.122, 0.0946252, -1055.47, 0.00332617, 0.531799, 1.03299, 0.34851, 0.655882, 3, 45.5, 246, 38.503, 0.136419, 0, 0, 0, 0, -0.000114785, 114097
-13069.3, 747364, -2.97788, 0.372824, -1019.91, 0.602133, 0.337748, 1.03299, 0.34851, 0.655882, 3, 45.5, 246, 22.6796, 0.00268362, 0, 0, 1, 0, 9.57942e-06, 114116
-10882.3, 848431, -11.351, 0.426304, -1260.08, 0.745382, 0.270521, 0.958125, 0.351078, 0.648177, 3, 182, 246, 22.6796, 0.00268362, 0, 0, 1, 0, 6.94874e-05, 114116
-11277.6, 193860, -110.506, 1.80388, -694.323, -0.0112355, 0.339664, 1.03299, 0.34851, 0.655882, 3, 45.5, 246, 26.2211, 0.117991, 0, 0, 1, 0, -2.53384e-05, 114119
-8074.78, 211113, -149.264, 2.03021, -708.347, 0.0210116, 0.305513, 0.958125, 0.351078, 0.648177, 3, 182, 246, 26.2211, 0.117991, 0, 0, 1, 0, -1.22932e-05, 114119
-9220.89, 525226, -366.111, 0.111543, -613.514, 0.000444189, 0.593521, 1.03299, 0.34851, 0.655882, 0.0001, 45.5, 246, 34.2198, 0.185497, 0, 0, 0, 0, 0.000292678, 114120
-6660.47, 543557, -393.265, 0.11943, -615.924, 0.000561471, 0.569383, 0.958125, 0.351078, 0.648177, 0.0001, 182, 246, 34.2198, 0.185497, 0, 0, 0, 0, 7.2854e-05, 114120
-9423.42, 240179, -96.738, 1.19501, -1033.76, 0.181905, 0.323398, 0.993198, 0.349787, 0.651995, 0.0001, 91, 246, 25.2509, 0.0901547, 0, 0, 1, 0, -1.11799e-05, 114123
-5813.4, 754196, -322.917, 0.169004, -1175.45, 0.0200193, 0.472517, 1.03299, 0.34851, 0.655882, 0.0001, 45.5, 246, 38.0215, 0.109311, 0, 0, 0, 0, 1.70739e-05, 114134
-5813.4, 754196, -322.917, 0.169004, -1175.45, 0.0200193, 0.472517, 1.03299, 0.34851, 0.655882, 3, 45.5, 246, 38.0215, 0.109311, 0, 0, 0, 0, 6.84562e-05, 114134
-7837, -14281, 25.272, 2.84219, -1102.18, -0.00226104, 0.245159, 1.03299, 0.34851, 0.655882, 0.0001, 45.5, 246, 8.44402, 0.0529331, 0, 0, 1, 0, -1.05356e-05, 114135
-7837, -14281, 25.272, 2.84219, -1102.18, -0.00226104, 0.245159, 1.03299, 0.34851, 0.655882, 3, 45.5, 246, 8.44402, 0.0529331, 0, 0, 1, 0, 2.90277e-06, 114135
-11108.1, 234673, -157.838, 1.73498, -981.738, -0.0140713, 0.38732, 1.03299, 0.34851, 0.655882, 0.0001, 45.5, 246, 34.2147, 0.151046, 0, 0, 0, 0, -2.76142e-06, 114147
-11108.1, 234673, -157.838, 1.73498, -981.738, -0.0140713, 0.38732, 1.03299, 0.34851, 0.655882, 3, 45.5, 246, 34.2147, 0.151046, 0, 0, 0, 0, 6.5051e-06, 114147
-6269.4, -47434.2, 8.08197, 3.34047, -678.38, 0.0937587, 0.213003, 1.03299, 0.34851, 0.655882, 0.0001, 45.5, 246, 9.33425, 0.0269074, 0, 0, 1, 1, 8.87507e-07, 114152
-6269.4, -47434.2, 8.08197, 3.34047, -678.38, 0.0937587, 0.213003, 1.03299, 0.34851, 0.655882, 3, 45.5, 246, 9.33425, 0.0269074, 0, 0, 1, 1, 1.52667e-05, 114152
-8561.64, 163090, -205.008, 2.21073, -1116.33, 0.144486, 0.440549, 1.03299, 0.34851, 0.655882, 0.0001, 45.5, 246, 47.3239, 0.238111, 0, 0, 0, 0, -2.21901e-05, 114158
-8561.64, 163090, -205.008, 2.21073, -1116.33, 0.144486, 0.440549, 1.03299, 0.34851, 0.655882, 3, 45.5, 246, 47.3239, 0.238111, 0, 0, 0, 0, 1.40275e-05, 114158
-8074.49, 188453, -194.206, 1.938, -914.441, 0.0220479, 0.396103, 0.993198, 0.349787, 0.651995, 0.0001, 91, 246, 38.8123, 0.197262, 0, 0, 1, 0, 1.79241e-05, 114161
-2792.27, 64589.8, -188.394, 3.09878, -1039.84, 0.456682, 0.286092, 1.03299, 0.34851, 0.655882, 0.0001, 45.5, 246, 60.1394, 0.215449, 1.03808, 1, 1, 0, -1.66822e-06, 114163
-1357.61, 88114.8, -237.275, 3.45575, -1143.96, 0.542971, 0.294533, 0.993198, 0.349787, 0.651995, 0.0001, 91, 246, 60.1394, 0.215449, 1.72886, 1, 1, 0, -3.4958e-05, 114163
-1357.61, 88114.8, -237.275, 3.45575, -1143.96, 0.542971, 0.294533, 0.993198, 0.349787, 0.651995, 3, 91, 246, 60.1394, 0.215449, 1.59339, 1, 1, 0, -2.52077e-06, 114163
920.323, 118356, -299.943, 3.89582, -1284.4, 0.658737, 0.322819, 0.958125, 0.351078, 0.648177, 0.0001, 182, 246, 60.1394, 0.215449, 2.98026, 1, 1, 0, 1.92826e-05, 114163
920.323, 118356, -299.943, 3.89582, -1284.4, 0.658737, 0.322819, 0.958125, 0.351078, 0.648177, 3, 182, 246, 60.1394, 0.215449, 2.82072, 1, 1, 0, -2.49239e-05, 114163
-9059.55, 83667.1, -72.2223, 3.40376, -1033.67, 0.0906152, 0.194273, 1.03299, 0.34851, 0.655882, 0.0001, 45.5, 246, 29.1413, 0.0970782, 0, 0, 0, 0, 1.07239e-05, 114167
-9059.55, 83667.1, -72.2223, 3.40376, -1033.67, 0.0906152, 0.194273, 1.03299, 0.34851, 0.655882, 3, 45.5, 246, 29.1413, 0.0970782, 0, 0, 0, 0, 1.08758e-05, 114167
-9024.56, -74480.3, 0.601985, 0.193235, -916.36, 0.154016, 0.344592, 1.03299, 0.34851, 0.655882, 0.0001, 45.5, 246, -51.543, 0.0646079, 0, 0, 1, 0, -7.57211e-05, 114168
-9024.56, -74480.3, 0.601985, 0.193235, -916.36, 0.154016, 0.344592, 1.03299, 0.34851, 0.655882, 3, 45.5, 246, -51.543, 0.0646079, 0, 0, 1, 0, 5.64569e-05, 114168
-13537.8, 226321, -167.43, 3.33405, -1150.34, -0.0185896, 0.250837, 1.03299, 0.34851, 0.655882, 0.0001, 45.5, 246, 37.8378, 0.137502, 0, 0, 0, 0, 1.34116e-05, 114170
-13537.8, 226321, -167.43, 3.33405, -1150.34, -0.0185896, 0.250837, 1.03299, 0.34851, 0.655882, 3, 45.5, 246, 37.8378, 0.137502, 0, 0, 0, 0, -4.04925e-06, 114170
-8696.87, 510728, -384.648, 0.503947, -1096.31, -0.00116602, 0.627326, 1.03299, 0.34851, 0.655882, 0.0001, 45.5, 246, 44.4034, 0.199286, 0, 0, 0, 0, -3.63549e-05, 114171
-8696.87, 510728, -384.648, 0.503947, -1096.31, -0.00116602, 0.627326, 1.03299, 0.34851, 0.655882, 3, 45.5, 246, 44.4034, 0.199286, 0, 0, 0, 0, 4.21226e-05, 114171
-10609.4, 120045, -60.4049, 2.73223, -949.953, -0.0353778, 0.252526, 1.03299, 0.34851, 0.655882, 0.0001, 45.5, 246, 24.7736, 0.0871787, 0, 0, 1, 0, -1.36036e-05, 114184
-10609.4, 120045, -60.4049, 2.73223, -949.953, -0.0353778, 0.252526, 1.03299, 0.34851, 0.655882, 3, 45.5, 246, 24.7736, 0.0871787, 0, 0, 1, 0, -1.97465e-05, 114184
-7377.03, 151414, -123.351, 3.17516, -964.389, 0.0410154, 0.253255, 0.958125, 0.351078, 0.648177, 3, 182, 246, 24.7736, 0.0871787, 0, 0, 1, 0, -8.33176e-06, 114184
-7821.93, 350214, -215.433, 0.778026, -1135.45, 0.00788578, 0.427836, 0.993198, 0.349787, 0.651995, 0.0001, 91, 246, 36.4123, 0.155144, 0, 0, 1, 0, 5.81298e-06, 114186
-6309.7, 373932, -232.516, 0.810852, -1141.8, 0.01067, 0.407523, 0.958125, 0.351078, 0.648177, 0.0001, 182, 246, 36.4123, 0.155144, 0, 0, 0, 0, 3.3135e-05, 114186
-5159.8, 142816, -303.725, 3.3558, -747.524, 0.505075, 0.348245, 1.03299, 0.34851, 0.655882, 0.0001, 45.5, 246, 56.5623, 0.237563, 1.59052, 1, 0, 0, 9.15478e-06, 114188
-5159.8, 142816, -303.725, 3.3558, -747.524, 0.505075, 0.348245, 1.03299, 0.34851, 0.655882, 3, 45.5, 246, 56.5623, 0.237563, 1.52197, 1, 0, 0, -1.93005e-05, 114188
-1938.66, 160049, -358.226, 3.77947, -848.358, 0.609531, 0.370121, 0.993198, 0.349787, 0.651995, 0.0001, 91, 246, 56.5623, 0.237563, 2.00441, 1, 1, 1, 245.882, 114188
-1938.66, 160049, -358.226, 3.77947, -848.358, 0.609531, 0.370121, 0.993198, 0.349787, 0.651995, 3, 91, 246, 56.5623, 0.237563, 1.91274, 1, 1, 1, 245.934, 114188
-7683.25, 159769, -261.286, 3.28172, -820.818, -0.0287673, 0.347232, 1.03299, 0.34851, 0.655882, 0.0001, 45.5, 246, 50.9061, 0.223498, 1.20517, 1, 0, 0, 2.57539e-05, 114197
-7683.25, 159769, -261.286, 3.28172, -820.818, -0.0287673, 0.347232, 1.03299, 0.34851, 0.655882, 3, 45.5, 246, 50.9061, 0.223498, 1.08622, 1, 0, 0, -1.00027e-05, 114197
-4632.71, 172967, -311.271, 3.58029, -846.156, 0.0228534, 0.364792, 0.993198, 0.349787, 0.651995, 0.0001, 91, 246, 50.9061, 0.223498, 1.43939, 1, 1, 0, -8.53835e-08, 114197
-4632.71, 172967, -311.271, 3.58029, -846.156, 0.0228534, 0.364792, 0.993198, 0.349787, 0.651995, 3, 91, 246, 50.9061, 0.223498, 1.30491, 1, 1, 0, 3.01149e-06, 114197
-710.975, 188476, -371.046, 3.93556, -887.098, 0.0851984, 0.400877, 0.958125, 0.351078, 0.648177, 0.0001, 182, 246, 50.9061, 0.223498, 2.64623, 1, 0, 0, -4.73967e-06, 114197
-710.975, 188476, -371.046, 3.93556, -887.098, 0.0851984, 0.400877, 0.958125, 0.351078, 0.648177, 3, 182, 246, 50.9061, 0.223498, 2.47044, 1, 0, 0, -9.86084e-06, 114197
-12038.5, 167138, 8.38979, 1.79767, -866.55, 0.366371, 0.290165, 1.03299, 0.34851, 0.655882, 0.0001, 45.5, 246, 12.9163, 0.0154644, 0, 0, 1, 0, -1.08925e-05, 114201
-12038.5, 167138, 8.38979, 1.79767, -866.55, 0.366371, 0.290165, 1.03299, 0.34851, 0.655882, 3, 45.5, 246, 12.9163, 0.0154644, 0, 0, 1, 0, 1.61214e-05, 114201
-7114.06, 65714.1, -105, 2.61294, -897.715, 0.00120771, 0.283754, 0.993198, 0.349787, 0.651995, 0.0001, 91, 246, 33.5861, 0.13271, 0, 0, 1, 0, -1.3789e-05, 114206
-7114.06, 65714.1, -105, 2.61294, -897.715, 0.00120771, 0.283754, 0.993198, 0.349787, 0.651995, 3, 91, 246, 33.5861, 0.13271, 0, 0, 1, 0, -6.0356e-06, 114206
-10991.6, 246362, -172.782, 1.61494, -961.935, -0.00555101, 0.4077, 1.03299, 0.34851, 0.655882, 0.0001, 45.5, 246, 35.2067, 0.160705, 0, 0, 0, 0, -8.23433e-07, 114207
-10991.6, 246362, -172.782, 1.61494, -961.935, -0.00555101, 0.4077, 1.03299, 0.34851, 0.655882, 3, 45.5, 246, 35.2067, 0.160705, 0, 0, 0, 0, -6.27074e-06, 114207
-9392.33, 284690, -94.5587, 0.89001, -989.799, 3.53763e-05, 0.325509, 0.993198, 0.349787, 0.651995, 0.0001, 91, 246, 24.3917, 0.0794497, 0, 0, 1, 0, -9.35453e-07, 114209
-12395.9, 348093, -14.1498, 0.878574, -805.676, -0.00279154, 0.329274, 1.03299, 0.34851, 0.655882, 0.0001, 45.5, 246, 15.4936, 0.0161914, 0, 0, 1, 0, 3.51454e-05, 114210
-12395.9, 348093, -14.1498, 0.878574, -805.676, -0.00279154, 0.329274, 1.03299, 0.34851, 0.655882, 3, 45.5, 246, 15.4936, 0.0161914, 0, 0, 1, 0, -1.67255e-05, 114210
-10055.3, 370595, -28.8395, 0.953206, -806.912, 0.00457913, 0.26722, 0.958125, 0.351078, 0.648177, 0.0001, 182, 246, 15.4936, 0.0161914, 0, 0, 1, 0, -1.133e-05, 114210
-10431.7, 126269, -37.2811, 1.89634, -964.717, 0.010305, 0.302889, 1.03299, 0.34851, 0.655882, 0.0001, 45.5, 246, 20.3993, 0.0697954, 0, 0, 1, 0, -2.98004e-05, 114214
-10431.7, 126269, -37.2811, 1.89634, -964.717, 0.010305, 0.302889, 1.03299, 0.34851, 0.655882, 3, 45.5, 246, 20.3993, 0.0697954, 0, 0, 1, 0, -2.37166e-05, 114214
-12135.8, 213760, 2.25321, 1.41638, -867.707, 0.0678088, 0.310033, 1.03299, 0.34851, 0.655882, 0.0001, 45.5, 246, 13.7017, 0.0145782, 0, 0, 1, 0, 4.688e-07, 114216
-12135.8, 213760, 2.25321, 1.41638, -867.707, 0.0678088, 0.310033, 1.03299, 0.34851, 0.655882, 3, 45.5, 246, 13.7017, 0.0145782, 0, 0, 1, 0, 7.99065e-06, 114216
-9984.14, 79543.4, -3.05201, 2.24867, -774.906, -0.0159557, 0.272553, 1.03299, 0.34851, 0.655882, 0.0001, 45.5, 246, 12.3266, 0.0361731, 0, 0, 1, 0, 7.35316e-06, 114219
-9984.14, 79543.4, -3.05201, 2.24867, -774.906, -0.0159557, 0.272553, 1.03299, 0.34851, 0.655882, 3, 45.5, 246, 12.3266, 0.0361731, 0, 0, 1, 0, 5.25639e-06, 114219
-9180.96, 126018, -160.724, 3.63484, -770.536, -0.0258424, 0.1959, 1.03299, 0.34851, 0.655882, 3, 45.5, 246, 37.2947, 0.136887, 0, 0, 0, 0, -3.25016e-06, 114221
-6886.94, 136746, -203.022, 3.97769, -789.337, 0.0376805, 0.215566, 0.993198, 0.349787, 0.651995, 3, 91, 246, 37.2947, 0.136887, 0, 0, 1, 0, 9.22902e-06, 114221
1434.93, 170333, -342.949, 5.11185, -905.559, 0.252652, 0.353803, 0.9175, 0.352806, 0.64323, 0.0001, 455, 246, 37.2947, 0.136887, 2.31518, 1, 0, 0, -1.2027e-05, 114221
1434.93, 170333, -342.949, 5.11185, -905.559, 0.252652, 0.353803, 0.9175, 0.352806, 0.64323, 3, 455, 246, 37.2947, 0.136887, 2.32362, 1, 0, 0, -1.15165e-09, 114221
-8668.46, 298584, -279.856, 0.703278, -707.635, 0.227714, 0.550368, 0.993198, 0.349787, 0.651995, 0.0001, 91, 246, 39.2285, 0.234556, 0, 0, 1, 0, 8.81366e-05, 114224
-3151.3, 108537, -218.462, 2.65459, -1001.77, 0.566195, 0.338407, 0.9175, 0.352806, 0.64323, 0.0001, 455, 246, 49.6459, 0.242045, 1.02858, 1, 1, 0, 1.53351e-05, 114225
-3151.3, 108537, -218.462, 2.65459, -1001.77, 0.566195, 0.338407, 0.9175, 0.352806, 0.64323, 3, 455, 246, 49.6459, 0.242045, 1.10191, 1, 0, 0, 1.53501e-05, 114225
-7150.47, 167096, -285.914, 3.54457, -907.872, -0.0603325, 0.343215, 1.03299, 0.34851, 0.655882, 0.0001, 45.5, 246, 54.1825, 0.232225, 1.3171, 1, 0, 0, 5.72965e-07, 114227
-7150.47, 167096, -285.914, 3.54457, -907.872, -0.0603325, 0.343215, 1.03299, 0.34851, 0.655882, 3, 45.5, 246, 54.1825, 0.232225, 1.22786, 1, 0, 0, 4.55508e-06, 114227
-3579.26, 183053, -344.874, 3.88061, -934.157, 0.000247905, 0.369584, 0.993198, 0.349787, 0.651995, 0.0001, 91, 246, 54.1825, 0.232225, 1.7153, 1, 1, 0, -9.48667e-06, 114227
-3579.26, 183053, -344.874, 3.88061, -934.157, 0.000247905, 0.369584, 0.993198, 0.349787, 0.651995, 3, 91, 246, 54.1825, 0.232225, 1.61637, 1, 1, 0, 5.67195e-06, 114227
-4506.73, 714634, -204.238, 1.04885, -1232.35, 0.234943, 0.279562, 0.9175, 0.352806, 0.64323, 0.0001, 455, 246, 29.6397, 0.0623478, 0, 0, 0, 0, 5.6438e-07, 114231
-4506.73, 714634, -204.238, 1.04885, -1232.35, 0.234943, 0.279562, 0.9175, 0.352806, 0.64323, 3, 455, 246, 29.6397, 0.0623478, 0, 0, 0, 0, -5.23926e-06, 114231
-9384.8, 419869, -275.92, 0.603163, -962.269, 0.00192039, 0.515816, 1.03299, 0.34851, 0.655882, 0.0001, 45.5, 246, 37.7178, 0.171608, 0, 0, 0, 0, -1.47415e-05, 114235
-9384.8, 419869, -275.92, 0.603163, -962.269, 0.00192039, 0.515816, 1.03299, 0.34851, 0.655882, 3, 45.5, 246, 37.7178, 0.171608, 0, 0, 0, 0, -8.97938e-06, 114235
-1497.56, 162734, -293.496, 3.25902, -663.126, 0.0911437, 0.377428, 0.9175, 0.352806, 0.64323, 0.0001, 455, 246, 39.9955, 0.190137, 1.01885, 1, 0, 0, -3.48215e-07, 114237
-1497.56, 162734, -293.496, 3.25902, -663.126, 0.0911437, 0.377428, 0.9175, 0.352806, 0.64323, 3, 455, 246, 39.9955, 0.190137, 1.04183, 1, 0, 0, -1.34057e-05, 114237
-4141.22, 287328, -425.863, 3.13618, -712.55, 0.116739, 0.530844, 0.958125, 0.351078, 0.648177, 0.0001, 182, 246, 46.4286, 0.236295, 1.35391, 1, 0, 0, -1.93619e-06, 114238
-4141.22, 287328, -425.863, 3.13618, -712.55, 0.116739, 0.530844, 0.958125, 0.351078, 0.648177, 3, 182, 246, 46.4286, 0.236295, 1.12149, 1, 0, 0, 1.09728e-05, 114238
-9119.02, 302480, -143.929, 0.864108, -877.613, 0.0333896, 0.359774, 0.993198, 0.349787, 0.651995, 0.0001, 91, 246, 27.6088, 0.114591, 0, 0, 1, 0, 1.41985e-05, 114248
-8663.81, 117114, -141.582, 2.36994, -732.841, -0.0238314, 0.335407, 1.03299, 0.34851, 0.655882, 0.0001, 45.5, 246, 37.4028, 0.174055, 0, 0, 1, 0, 7.00149e-06, 114249
-8663.81, 117114, -141.582, 2.36994, -732.841, -0.0238314, 0.335407, 1.03299, 0.34851, 0.655882, 3, 45.5, 246, 37.4028, 0.174055, 0, 0, 1, 0, -4.37235e-06, 114249
-7148.77, 273227, -393.342, 3.89015, -1016.97, 0.184846, 0.412076, 0.993198, 0.349787, 0.651995, 0.0001, 91, 246, 50.8273, 0.220032, 1.32904, 1, 1, 0, 1.73706e-05, 114258
-7148.77, 273227, -393.342, 3.89015, -1016.97, 0.184846, 0.412076, 0.993198, 0.349787, 0.651995, 3, 91, 246, 50.8273, 0.220032, 1.22458, 1, 1, 0, -1.19772e-05, 114258
-9022.84, 95909.8, -31.8728, 0.65875, -994.623, 0.000662673, 0.349931, 1.03299, 0.34851, 0.655882, 0.0001, 45.5, 246, 18.2068, 0.0808525, 0, 0, 1, 0, 2.61728e-05, 114260
-9022.84, 95909.8, -31.8728, 0.65875, -994.623, 0.000662673, 0.349931, 1.03299, 0.34851, 0.655882, 3, 45.5, 246, 18.2068, 0.0808525, 0, 0, 1, 0, -3.50669e-05, 114260
-11347.6, 204451, -154.998, 2.24404, -912.005, -0.0211699, 0.350668, 1.03299, 0.34851, 0.655882, 0.0001, 45.5, 246, 34.4491, 0.150953, 0, 0, 0, 0, -1.2743e-05, 114261
-7767.06, 17403.8, -106.939, 4.04441, -951.317, 0.149955, 0.308097, 0.9175, 0.352806, 0.64323, 3, 455, 246, 14.884, 0.0368828, 0, 0, 1, 1, 2.87384e-06, 114263
-8752.58, 159449, -218.643, 2.37608, -733.3, -0.0267322, 0.416649, 1.03299, 0.34851, 0.655882, 3, 45.5, 246, 45.6875, 0.230723, 0, 0, 1, 0, 8.64136e-06, 114265
90.9645, 198071, -347.357, 3.051, -808.559, 0.080082, 0.448291, 0.9175, 0.352806, 0.64323, 0.0001, 455, 246, 45.6875, 0.230723, 1.91782, 1, 0, 0, 1.05617e-05, 114265
90.9645, 198071, -347.357, 3.051, -808.559, 0.080082, 0.448291, 0.9175, 0.352806, 0.64323, 3, 455, 246, 45.6875, 0.230723, 1.93517, 1, 0, 0, -1.57052e-05, 114265
-9801.81, 61865.3, 6.45289, 3.33523, -904.721, -0.0531092, 0.178422, 1.03299, 0.34851, 0.655882, 0.0001, 45.5, 246, 13.7937, 0.0385985, 0, 0, 1, 0, -1.39424e-05, 114266
-9801.81, 61865.3, 6.45289, 3.33523, -904.721, -0.0531092, 0.178422, 1.03299, 0.34851, 0.655882, 3, 45.5, 246, 13.7937, 0.0385985, 0, 0, 1, 0, -8.22272e-06, 114266
-8410.74, 66478.7, -80.1798, 1.43734, -912.277, 0.188202, 0.372153, 1.03299, 0.34851, 0.655882, 3, 45.5, 246, 35.0656, 0.208652, 0, 0, 1, 0, -1.14594e-05, 114270
-9292.65, 546466, -336.906, 0.215077, -663.999, 0.466825, 0.528058, 1.03299, 0.34851, 0.655882, 0.0001, 45.5, 246, 31.5379, 0.149723, 0, 0, 0, 0, -7.02024e-05, 114273
-7983.92, 571163, -350.373, 0.228566, -718.98, 0.504237, 0.507527, 0.993198, 0.349787, 0.651995, 3, 91, 246, 31.5379, 0.149723, 0, 0, 1, 0, -9.37869e-06, 114273
-9288.92, 375829, -135.145, 0.571022, -738.871, 0.225436, 0.346597, 0.993198, 0.349787, 0.651995, 0.0001, 91, 246, 23.0463, 0.0873542, 0, 0, 1, 0, 1.66368e-06, 114277
-4866.3, 484378, -392.858, 0.131905, -1183.38, 0.00819265, 0.649833, 0.993198, 0.349787, 0.651995, 0.0001, 91, 246, 46.6503, 0.223182, 0, 0, 1, 0, -5.24595e-05, 114278
-8550.79, 489416, -180.576, 0.314694, -719.891, 0.289045, 0.367244, 0.993198, 0.349787, 0.651995, 0.0001, 91, 246, 24.1375, 0.0906819, 0, 0, 1, 0, 6.79908e-06, 114281
-12136.5, 408433, -8.16404, 0.611889, -781.64, 0.736696, 0.334199, 1.03299, 0.34851, 0.655882, 0.0001, 45.5, 246, 15.6136, 0.0081852, 0, 0, 1, 0, 3.06119e-06, 114282
-12136.5, 408433, -8.16404, 0.611889, -781.64, 0.736696, 0.334199, 1.03299, 0.34851, 0.655882, 3, 45.5, 246, 15.6136, 0.0081852, 0, 0, 1, 0, 0.887945, 114282
-11260.3, 437918, -13.2051, 0.661904, -884.941, 0.835772, 0.299265, 0.993198, 0.349787, 0.651995, 3, 91, 246, 15.6136, 0.0081852, 0, 0, 1, 0, 6.35264e-05, 114282
-10128, 475209, -19.5346, 0.719012, -1020.09, 0.965361, 0.269099, 0.958125, 0.351078, 0.648177, 0.0001, 182, 246, 15.6136, 0.0081852, 0, 0, 1, 0, -6.53741e-05, 114282
-9885.88, 417252, -332.114, 0.841232, -1086.71, -0.00327266, 0.594117, 1.03299, 0.34851, 0.655882, 0.0001, 45.5, 246, 44.1974, 0.207707, 0, 0, 0, 0, -2.5973e-07, 114284
-9885.88, 417252, -332.114, 0.841232, -1086.71, -0.00327266, 0.594117, 1.03299, 0.34851, 0.655882, 3, 45.5, 246, 44.1974, 0.207707, 0, 0, 0, 0, 1.06631e-05, 114284
-282.023, 496096, -419.87, 0.983958, -1118.14, 0.00887525, 0.576363, 0.9175, 0.352806, 0.64323, 3, 455, 246, 44.1974, 0.207707, 0, 0, 0, 0, -4.52903e-05, 114284
-9323.29, 91929.5, -11.259, 0.916659, -943.364, 0.00319731, 0.334988, 1.03299, 0.34851, 0.655882, 0.0001, 45.5, 246, 13.4727, 0.0426013, 0, 0, 1, 0, -1.34127e-05, 114290
-9323.29, 91929.5, -11.259, 0.916659, -943.364, 0.00319731, 0.334988, 1.03299, 0.34851, 0.655882, 3, 45.5, 246, 13.4727, 0.0426013, 0, 0, 1, 0, 1.97841e-06, 114290
-4292.77, 365439, -513.961, 3.21278, -793.432, 0.232133, 0.622846, 0.958125, 0.351078, 0.648177, 0.0001, 182, 246, 47.95, 0.24293, 2.15144, 1, 0, 0, -2.77538e-05, 114297
-4292.77, 365439, -513.961, 3.21278, -793.432, 0.232133, 0.622846, 0.958125, 0.351078, 0.648177, 3, 182, 246, 47.95, 0.24293, 2.01562, 1, 0, 0, -1.05186e-05, 114297
-13732.3, 154213, -12.5541, 3.43594, -942.032, -0.0459808, 0.153406, 1.03299, 0.34851, 0.655882, 0.0001, 45.5, 246, 18.2073, 0.042208, 0, 0, 0, 0, 9.2783e-06, 114301
-13732.3, 154213, -12.5541, 3.43594, -942.032, -0.0459808, 0.153406, 1.03299, 0.34851, 0.655882, 3, 45.5, 246, 18.2073, 0.042208, 0, 0, 0, 0, -5.60201e-06, 114301
-9620.98, 331317, -299.101, 0.501251, -716.507, 0.78616, 0.574529, 1.03299, 0.34851, 0.655882, 0.0001, 45.5, 246, 38.0503, 0.212401, 0, 0, 0, 0, 0.000106247, 114303
-8294.59, 358498, -315.49, 0.546333, -822.755, 0.899052, 0.559541, 0.993198, 0.349787, 0.651995, 0.0001, 91, 246, 38.0503, 0.212401, 0, 0, 1, 0, -9.09257e-05, 114303
-6658.59, 393403, -333.1, 0.598769, -964.393, 1.04961, 0.549229, 0.958125, 0.351078, 0.648177, 0.0001, 182, 246, 38.0503, 0.212401, 0, 0, 0, 0, -3.95125e-05, 114303
-7545, 570870, -396.83, 0.192445, -959.009, 0.395137, 0.595438, 1.03299, 0.34851, 0.655882, 0.0001, 45.5, 246, 39.7999, 0.172548, 0, 0, 0, 0, 8.77239e-05, 114306
-7545, 570870, -396.83, 0.192445, -959.009, 0.395137, 0.595438, 1.03299, 0.34851, 0.655882, 3, 45.5, 246, 39.7999, 0.172548, 0, 0, 0, 0, 7.24575e-05, 114306
-7775.21, 74996.1, -61.815, 3.82613, -666.261, 0.474963, 0.22084, 0.958125, 0.351078, 0.648177, 0.0001, 182, 246, 13.6297, 0.0392198, 0, 0, 1, 0, -1.13999e-05, 114309
-7775.21, 74996.1, -61.815, 3.82613, -666.261, 0.474963, 0.22084, 0.958125, 0.351078, 0.648177, 3, 182, 246, 13.6297, 0.0392198, 0, 0, 1, 0, 4.9549e-06, 114309
-5911.69, 89351.7, -106.26, 4.49818, -760.212, 0.638704, 0.283226, 0.9175, 0.352806, 0.64323, 0.0001, 455, 246, 13.6297, 0.0392198, 0, 0, 1, 0, 4.46531e-05, 114309
-5911.69, 89351.7, -106.26, 4.49818, -760.212, 0.638704, 0.283226, 0.9175, 0.352806, 0.64323, 3, 455, 246, 13.6297, 0.0392198, 0, 0, 1, 0, -2.48725e-05, 114309
-8293.23, 79528.7, -94.3475, 2.78975, -903.621, 0.218769, 0.266072, 1.03299, 0.34851, 0.655882, 0.0001, 45.5, 246, 32.7498, 0.124892, 0, 0, 1, 0, -1.91868e-05, 114313
-8293.23, 79528.7, -94.3475, 2.78975, -903.621, 0.218769, 0.266072, 1.03299, 0.34851, 0.655882, 3, 45.5, 246, 32.7498, 0.124892, 0, 0, 1, 0, -1.40989e-05, 114313
-10574.8, 89523.6, -18.3669, 3.4593, -1061.62, 0.0771922, 0.16557, 1.03299, 0.34851, 0.655882, 0.0001, 45.5, 246, 20.5513, 0.0586947, 0, 0, 0, 0, 1.39234e-05, 114314
-10574.8, 89523.6, -18.3669, 3.4593, -1061.62, 0.0771922, 0.16557, 1.03299, 0.34851, 0.655882, 3, 45.5, 246, 20.5513, 0.0586947, 0, 0, 0, 0, 8.72079e-06, 114314
-10633.7, 79197.3, 18.7358, 3.16186, -924.976, 0.0445987, 0.189747, 1.03299, 0.34851, 0.655882, 0.0001, 45.5, 246, 12.1345, 0.0280256, 0, 0, 1, 0, 1.75468e-05, 114319
-10633.7, 79197.3, 18.7358, 3.16186, -924.976, 0.0445987, 0.189747, 1.03299, 0.34851, 0.655882, 3, 45.5, 246, 12.1345, 0.0280256, 0, 0, 1, 0, -1.57997e-05, 114319
-6068, 619372, -434.313, 0.104165, -1090.67, 0.238166, 0.628042, 1.03299, 0.34851, 0.655882, 0.0001, 45.5, 246, 43.1529, 0.17834, 0, 0, 0, 0, 1.34724e-05, 114323
-11922.9, 366886, -203.764, 1.24266, -1022.4, 0.336458, 0.421673, 1.03299, 0.34851, 0.655882, 3, 45.5, 246, 34.3329, 0.132429, 0, 0, 0, 0, -1.84516e-05, 114324
-7300.29, -242.911, -40.4791, 3.41148, -1086.58, 0.00053984, 0.235723, 0.993198, 0.349787, 0.651995, 0.0001, 91, 246, 19.5582, 0.0524824, 0, 0, 1, 1, -3.51573e-06, 114330
-7300.29, -242.911, -40.4791, 3.41148, -1086.58, 0.00053984, 0.235723, 0.993198, 0.349787, 0.651995, 3, 91, 246, 19.5582, 0.0524824, 0, 0, 1, 1, 6.31286e-07, 114330
-12017.4, 204962, -84.4031, 1.95286, -949.149, 0.385812, 0.311748, 1.03299, 0.34851, 0.655882, 0.0001, 45.5, 246, 25.7277, 0.0888769, 0, 0, 1, 0, -2.05301e-06, 114331
-12017.4, 204962, -84.4031, 1.95286, -949.149, 0.385812, 0.311748, 1.03299, 0.34851, 0.655882, 3, 45.5, 246, 25.7277, 0.0888769, 0, 0, 1, 0, 1.64443e-05, 114331
-4066.52, 293616, -182.945, 2.61391, -1244.07, 0.578542, 0.281635, 0.9175, 0.352806, 0.64323, 0.0001, 455, 246, 25.7277, 0.0888769, 0, 0, 0, 0, 1.50359e-05, 114331
-4066.52, 293616, -182.945, 2.61391, -1244.07, 0.578542, 0.281635, 0.9175, 0.352806, 0.64323, 3, 455, 246, 25.7277, 0.0888769, 0, 0, 0, 0, -1.08588e-05, 114331
-7654.41, 422025, -212.577, 0.576104, -1112.25, 0.000823417, 0.407253, 0.993198, 0.349787, 0.651995, 0.0001, 91, 246, 34.2601, 0.127919, 0, 0, 1, 0, 5.09675e-05, 114335
-4648.01, 934113, -371.412, 0.0157121, -1038.29, 0.0327583, 0.479186, 1.03299, 0.34851, 0.655882, 0.0001, 45.5, 246, 35.9024, 0.101113, 0, 0, 0, 0, -8.77179e-06, 114337
-4648.01, 934113, -371.412, 0.0157121, -1038.29, 0.0327583, 0.479186, 1.03299, 0.34851, 0.655882, 3, 45.5, 246, 35.9024, 0.101113, 0, 0, 0, 0, -2.66693e-05, 114337
-10615.5, 118993, -58.7597, 2.45344, -670.3, 0.0764889, 0.267653, 1.03299, 0.34851, 0.655882, 0.0001, 45.5, 246, 20.8485, 0.0782286, 0, 0, 1, 0, -1.37223e-05, 114342
-10615.5, 118993, -58.7597, 2.45344, -670.3, 0.0764889, 0.267653, 1.03299, 0.34851, 0.655882, 3, 45.5, 246, 20.8485, 0.0782286, 0, 0, 1, 0, 9.05128e-06, 114342
-5503.27, 149983, -138.733, 3.185, -742.975, 0.20069, 0.271055, 0.9175, 0.352806, 0.64323, 3, 455, 246, 20.8485, 0.0782286, 0, 0, 1, 0, 7.28534e-08, 114342
-9504.73, 101251, -53.184, 1.85726, -1162.86, -0.00732235, 0.320669, 1.03299, 0.34851, 0.655882, 3, 45.5, 246, 25.5357, 0.103222, 0, 0, 1, 0, 2.06977e-05, 114346
-8754.8, 124820, -76.5893, 1.9712, -1166.23, 0.00875964, 0.299559, 0.993198, 0.349787, 0.651995, 0.0001, 91, 246, 25.5357, 0.103222, 0, 0, 1, 0, 1.09101e-05, 114346
-8754.8, 124820, -76.5893, 1.9712, -1166.23, 0.00875964, 0.299559, 0.993198, 0.349787, 0.651995, 3, 91, 246, 25.5357, 0.103222, 0, 0, 1, 0, 9.44173e-06, 114346
-11635, 144462, -2.22172, 2.01834, -651.918, 0.179271, 0.279266, 1.03299, 0.34851, 0.655882, 0.0001, 45.5, 246, 10.9924, 0.0221568, 0, 0, 1, 0, 1.28636e-05, 114347
-11635, 144462, -2.22172, 2.01834, -651.918, 0.179271, 0.279266, 1.03299, 0.34851, 0.655882, 3, 45.5, 246, 10.9924, 0.0221568, 0, 0, 1, 0, -9.50636e-06, 114347
-7699.18, 499634, -148.701, 0.514421, -1075.27, 0.278818, 0.312581, 0.958125, 0.351078, 0.648177, 0.0001, 182, 246, 26.7946, 0.0719939, 0, 0, 1, 0, -6.83104e-05, 114349
-5722.76, 84745.4, -182.798, 2.75089, -670.328, 0.785666, 0.299413, 1.03299, 0.34851, 0.655882, 0.0001, 45.5, 246, 46.9648, 0.181871, 1.22459, 1, 1, 0, 1.17186e-05, 114354
-4331.34, 98545.1, -216.732, 3.10829, -784.15, 0.940013, 0.298977, 0.993198, 0.349787, 0.651995, 0.0001, 91, 246, 46.9648, 0.181871, 1.20542, 1, 1, 0, 2.01782e-05, 114354
-2336.81, 118328, -261.547, 3.56587, -947.407, 1.16138, 0.316766, 0.958125, 0.351078, 0.648177, 0.0001, 182, 246, 46.9648, 0.181871, 1.49021, 1, 1, 0, -3.63523e-05, 114354
-2336.81, 118328, -261.547, 3.56587, -947.407, 1.16138, 0.316766, 0.958125, 0.351078, 0.648177, 3, 182, 246, 46.9648, 0.181871, 1.34108, 1, 1, 0, -2.66076e-05, 114354
-6885.61, 179392, -249.968, 3.80326, -973.405, 0.494975, 0.269157, 0.993198, 0.349787, 0.651995, 3, 91, 246, 41.4496, 0.162945, 0, 0, 1, 0, -1.47188e-05, 114359
-2909.6, 204648, -313.068, 4.30324, -1093.3, 0.615132, 0.308921, 0.958125, 0.351078, 0.648177, 0.0001, 182, 246, 41.4496, 0.162945, 1.33963, 1, 0, 0, 4.77479e-05, 114359
-2909.6, 204648, -313.068, 4.30324, -1093.3, 0.615132, 0.308921, 0.958125, 0.351078, 0.648177, 3, 182, 246, 41.4496, 0.162945, 1.12451, 1, 0, 0, -2.49428e-05, 114359
-7347.99, -17009.9, 16.4775, 3.18294, -1021.34, 0.0730144, 0.216481, 1.03299, 0.34851, 0.655882, 3, 45.5, 246, 11.2609, 0.0537692, 0, 0, 1, 0, 7.05138e-06, 114360
-3122.79, 140103, -253.299, 2.97821, -1109.49, 0.0403672, 0.379006, 0.958125, 0.351078, 0.648177, 0.0001, 182, 246, 50.0837, 0.242386, 1.03035, 1, 1, 0, -3.68158e-06, 114361
-5495.89, 43526.5, -142.165, 3.83907, -878.904, 0.998989, 0.247424, 0.958125, 0.351078, 0.648177, 3, 182, 246, 33.4949, 0.0581513, 0, 0, 1, 0, -4.7251e-07, 114367
-3869.48, 71922.9, -214.236, 4.73156, -1153.55, 1.39691, 0.317449, 0.9175, 0.352806, 0.64323, 0.0001, 455, 246, 33.4949, 0.0581513, 1.05247, 1, 1, 0, 6.17155e-06, 114367
-3869.48, 71922.9, -214.236, 4.73156, -1153.55, 1.39691, 0.317449, 0.9175, 0.352806, 0.64323, 3, 455, 246, 33.4949, 0.0581513, 1.01012, 1, 1, 0, 1.70556e-05, 114367
-8010.78, 162288, -267.879, 3.23016, -707.804, -0.046927, 0.352758, 1.03299, 0.34851, 0.655882, 0.0001, 45.5, 246, 50.0149, 0.223352, 1.24235, 1, 0, 0, 1.00759e-05, 114368
-8010.78, 162288, -267.879, 3.23016, -707.804, -0.046927, 0.352758, 1.03299, 0.34851, 0.655882, 3, 45.5, 246, 50.0149, 0.223352, 1.13369, 1, 0, 0, 1.09633e-05, 114368
-4974.03, 172253, -314.246, 3.51746, -731.06, 0.00306867, 0.368976, 0.993198, 0.349787, 0.651995, 0.0001, 91, 246, 50.0149, 0.223352, 1.43786, 1, 1, 0, 3.08331e-06, 114368
-4974.03, 172253, -314.246, 3.51746, -731.06, 0.00306867, 0.368976, 0.993198, 0.349787, 0.651995, 3, 91, 246, 50.0149, 0.223352, 1.30134, 1, 1, 0, 6.20036e-06, 114368
-1153.83, 184232, -369.385, 3.85782, -767.98, 0.0628425, 0.403007, 0.958125, 0.351078, 0.648177, 0.0001, 182, 246, 50.0149, 0.223352, 2.30141, 1, 0, 0, -2.0603e-07, 114368
-1153.83, 184232, -369.385, 3.85782, -767.98, 0.0628425, 0.403007, 0.958125, 0.351078, 0.648177, 3, 182, 246, 50.0149, 0.223352, 2.14167, 1, 0, 0, 1.66407e-06, 114368
-10761.6, 223926, -296.737, 2.91512, -831.87, 0.0761246, 0.43579, 1.03299, 0.34851, 0.655882, 3, 45.5, 246, 49.0011, 0.231658, 0, 0, 0, 0, 3.13637e-06, 114373
-2294.49, 257295, -404.787, 3.49755, -923.911, 0.170537, 0.478539, 0.958125, 0.351078, 0.648177, 0.0001, 182, 246, 49.0011, 0.231658, 2.09058, 1, 0, 0, 2.32824e-05, 114373
-2294.49, 257295, -404.787, 3.49755, -923.911, 0.170537, 0.478539, 0.958125, 0.351078, 0.648177, 3, 182, 246, 49.0011, 0.231658, 1.91596, 1, 0, 0, -5.48613e-06, 114373
-10790.3, 665479, -175.346, 0.375853, -674.594, 6.86441e-05, 0.383849, 1.03299, 0.34851, 0.655882, 0.0001, 45.5, 246, 22.6225, 0.0684845, 0, 0, 1, 0, -6.06454e-05, 114374
-10790.3, 665479, -175.346, 0.375853, -674.594, 6.86441e-05, 0.383849, 1.03299, 0.34851, 0.655882, 3, 45.5, 246, 22.6225, 0.0684845, 0, 0, 1, 0, -1.642e-05, 114374
-4162.73, 217610, -332.437, 3.97905, -706.037, 0.0652679, 0.343272, 0.958125, 0.351078, 0.648177, 0.0001, 182, 246, 40.6442, 0.178008, 1.15997, 1, 0, 0, -9.46813e-06, 114375
-8181.48, -10366.8, -7.62925, 2.67397, -975.758, 0.0532682, 0.267579, 0.993198, 0.349787, 0.651995, 3, 91, 246, 8.2346, 0.0580931, 0, 0, 1, 1, 6.32403e-06, 114376
-7390.33, 46365.4, -73.1993, 3.48562, -857.158, 0.184458, 0.181247, 1.03299, 0.34851, 0.655882, 0.0001, 45.5, 246, 29.6152, 0.0846548, 1.10065, 1, 1, 0, -1.35376e-05, 114377
-7390.33, 46365.4, -73.1993, 3.48562, -857.158, 0.184458, 0.181247, 1.03299, 0.34851, 0.655882, 3, 45.5, 246, 29.6152, 0.0846548, 1.01796, 1, 1, 0, -5.71141e-06, 114377
-11549.5, 263483, -154.172, 1.71488, -1116.9, -0.0137073, 0.38066, 1.03299, 0.34851, 0.655882, 0.0001, 45.5, 246, 34.3153, 0.136575, 0, 0, 0, 0, -5.30479e-06, 114379
-11549.5, 263483, -154.172, 1.71488, -1116.9, -0.0137073, 0.38066, 1.03299, 0.34851, 0.655882, 3, 45.5, 246, 34.3153, 0.136575, 0, 0, 0, 0, 1.38116e-05, 114379
-8672.94, 88099.1, -107.625, 2.98284, -608.725, 0.0172638, 0.241804, 1.03299, 0.34851, 0.655882, 0.0001, 45.5, 246, 30.5939, 0.113404, 0, 0, 1, 0, 6.74731e-06, 114382
-8672.94, 88099.1, -107.625, 2.98284, -608.725, 0.0172638, 0.241804, 1.03299, 0.34851, 0.655882, 3, 45.5, 246, 30.5939, 0.113404, 0, 0, 1, 0, -3.7684e-06, 114382
-2836.2, 111244, -229.72, 2.88639, -910.752, 0.0729684, 0.337855, 0.9175, 0.352806, 0.64323, 3, 455, 246, 45.5623, 0.209469, 1.03294, 1, 0, 0, -2.12799e-05, 114383
-7115.55, 80080.3, -128.1, 3.02431, -972.522, -0.0314385, 0.269989, 1.03299, 0.34851, 0.655882, 3, 45.5, 246, 40.5671, 0.156804, 0, 0, 1, 0, -7.26392e-06, 114384
-5865.23, 96814.1, -166.876, 3.27488, -983.15, 0.0120882, 0.273708, 0.993198, 0.349787, 0.651995, 0.0001, 91, 246, 40.5671, 0.156804, 0, 0, 1, 0, -1.6819e-07, 114384
-617.565, 141527, -287.114, 4.04097, -1061.5, 0.149637, 0.343866, 0.9175, 0.352806, 0.64323, 0.0001, 455, 246, 40.5671, 0.156804, 1.77626, 1, 0, 0, 1.66236e-05, 114384
-617.565, 141527, -287.114, 4.04097, -1061.5, 0.149637, 0.343866, 0.9175, 0.352806, 0.64323, 3, 455, 246, 40.5671, 0.156804, 1.77686, 1, 0, 0, 5.76952e-06, 114384
-11297, 196423, -203.321, 3.45507, -1090.49, 0.0272616, 0.270403, 1.03299, 0.34851, 0.655882, 0.0001, 45.5, 246, 42.5185, 0.166875, 0, 0, 0, 0, -2.01206e-05, 114385
-11297, 196423, -203.321, 3.45507, -1090.49, 0.0272616, 0.270403, 1.03299, 0.34851, 0.655882, 3, 45.5, 246, 42.5185, 0.166875, 0, 0, 0, 0, -4.12695e-06, 114385
-3118.86, 244445, -326.23, 4.18473, -1174.46, 0.157094, 0.327194, 0.958125, 0.351078, 0.648177, 0.0001, 182, 246, 42.5185, 0.166875, 1.22092, 1, 0, 0, 7.84048e-06, 114385
1329.64, 353805, -371.851, 5.10826, -827.76, 0.513254, 0.345814, 0.9175, 0.352806, 0.64323, 3, 455, 246, 29.1209, 0.114966, 1.1132, 1, 0, 0, -1.04165e-05, 114394
-8166.64, 337059, -279.474, 0.635591, -869.729, 0.516944, 0.521966, 0.993198, 0.349787, 0.651995, 0.0001, 91, 246, 38.0308, 0.206109, 0, 0, 1, 0, -8.99413e-05, 114399
-9856.69, 152248, -52.2503, 1.22513, -1106.64, -0.00691212, 0.340473, 1.03299, 0.34851, 0.655882, 0.0001, 45.5, 246, 23.1289, 0.0834495, 0, 0, 1, 0, 4.91429e-06, 114402
-9856.69, 152248, -52.2503, 1.22513, -1106.64, -0.00691212, 0.340473, 1.03299, 0.34851, 0.655882, 3, 45.5, 246, 23.1289, 0.0834495, 0, 0, 1, 0, 1.18726e-05, 114402
-5034.69, 715543, -452.327, 0.0127924, -1089.62, 0.207832, 0.606693, 1.03299, 0.34851, 0.655882, 0.0001, 45.5, 246, 41.9996, 0.159653, 0, 0, 0, 0, 3.90372e-05, 114406
-5034.69, 715543, -452.327, 0.0127924, -1089.62, 0.207832, 0.606693, 1.03299, 0.34851, 0.655882, 3, 45.5, 246, 41.9996, 0.159653, 0, 0, 0, 0, -6.91691e-05, 114406
-5532.57, 741741, -227.359, 1.65414, -842.513, 0.064922, 0.278829, 0.9175, 0.352806, 0.64323, 3, 455, 246, 24.8642, 0.0611646, 0, 0, 0, 0, 1.79764e-05, 114413
-9626.67, 57599.8, 7.90792, 2.69212, -593.214, 0.535223, 0.232135, 1.03299, 0.34851, 0.655882, 0.0001, 45.5, 246, 8.35814, 0.0220666, 0, 0, 1, 0, -4.10923e-05, 114416
-9626.67, 57599.8, 7.90792, 2.69212, -593.214, 0.535223, 0.232135, 1.03299, 0.34851, 0.655882, 3, 45.5, 246, 8.35814, 0.0220666, 0, 0, 1, 0, 2.25498e-05, 114416
-9082.46, 65768.2, -7.5065, 2.98699, -649.835, 0.623307, 0.225017, 0.993198, 0.349787, 0.651995, 0.0001, 91, 246, 8.35814, 0.0220666, 0, 0, 1, 0, -7.45771e-05, 114416
-9082.46, 65768.2, -7.5065, 2.98699, -649.835, 0.623307, 0.225017, 0.993198, 0.349787, 0.651995, 3, 91, 246, 8.35814, 0.0220666, 0, 0, 1, 0, 1.31281e-05, 114416
-8288.4, 76083.5, -27.8795, 3.34476, -724.929, 0.740168, 0.233323, 0.958125, 0.351078, 0.648177, 0.0001, 182, 246, 8.35814, 0.0220666, 0, 0, 1, 0, -3.90037e-05, 114416
-8288.4, 76083.5, -27.8795, 3.34476, -724.929, 0.740168, 0.233323, 0.958125, 0.351078, 0.648177, 3, 182, 246, 8.35814, 0.0220666, 0, 0, 1, 0, 1.7354e-05, 114416
-13270.2, 172819, -58.3445, 3.1772, -1134.72, 0.170589, 0.199425, 1.03299, 0.34851, 0.655882, 0.0001, 45.5, 246, 26.3466, 0.0758998, 0, 0, 0, 0, -1.80097e-05, 114417
-13270.2, 172819, -58.3445, 3.1772, -1134.72, 0.170589, 0.199425, 1.03299, 0.34851, 0.655882, 3, 45.5, 246, 26.3466, 0.0758998, 0, 0, 0, 0, -1.24202e-05, 114417
-5694.78, 406794, -467.342, 4.47365, -1035.04, 0.789213, 0.395629, 0.958125, 0.351078, 0.648177, 3, 182, 246, 40.7743, 0.169672, 0, 0, 0, 0, 0.000323097, 114423
-9522.25, 260208, -367.766, 3.79939, -623.918, 0.0157528, 0.372912, 0.993198, 0.349787, 0.651995, 0.0001, 91, 246, 44.1093, 0.203095, 1.18613, 1, 1, 0, -1.78668e-05, 114428
-9522.25, 260208, -367.766, 3.79939, -623.918, 0.0157528, 0.372912, 0.993198, 0.349787, 0.651995, 3, 91, 246, 44.1093, 0.203095, 1.06102, 1, 1, 0, 1.31291e-05, 114428
-3665.77, 270543, -428.698, 4.19454, -670.83, 0.0861573, 0.417994, 0.958125, 0.351078, 0.648177, 0.0001, 182, 246, 44.1093, 0.203095, 2.18059, 1, 0, 0, -2.63665e-06, 114428
-3665.77, 270543, -428.698, 4.19454, -670.83, 0.0861573, 0.417994, 0.958125, 0.351078, 0.648177, 3, 182, 246, 44.1093, 0.203095, 2.02047, 1, 0, 0, -4.60259e-06, 114428
-10852.2, 473188, -109.139, 0.499262, -745.485, 0.634632, 0.359119, 1.03299, 0.34851, 0.655882, 0.0001, 45.5, 246, 21.1967, 0.0539551, 0, 0, 1, 0, -3.6858e-05, 114429
-10852.2, 473188, -109.139, 0.499262, -745.485, 0.634632, 0.359119, 1.03299, 0.34851, 0.655882, 3, 45.5, 246, 21.1967, 0.0539551, 0, 0, 1, 0, -1.71168, 114429
-9912.91, 501359, -116.759, 0.536055, -830.282, 0.706678, 0.325373, 0.993198, 0.349787, 0.651995, 3, 91, 246, 21.1967, 0.0539551, 0, 0, 1, 0, -5.35987e-05, 114429
-8745.28, 535654, -125.153, 0.57685, -936.639, 0.797042, 0.296153, 0.958125, 0.351078, 0.648177, 3, 182, 246, 21.1967, 0.0539551, 0, 0, 1, 0, -7.28047e-05, 114429
-7360.11, 254088, -366.392, 3.92312, -969.348, 0.47595, 0.363122, 0.993198, 0.349787, 0.651995, 0.0001, 91, 246, 47.8315, 0.203086, 1.25343, 1, 1, 0, 4.19858e-05, 114434
-7360.11, 254088, -366.392, 3.92312, -969.348, 0.47595, 0.363122, 0.993198, 0.349787, 0.651995, 3, 91, 246, 47.8315, 0.203086, 1.13314, 1, 1, 0, 4.2416e-05, 114434
-11094.4, 118120, -27.813, 2.53914, -892.174, 0.435215, 0.249375, 1.03299, 0.34851, 0.655882, 0.0001, 45.5, 246, 18.9244, 0.055801, 0, 0, 1, 0, -7.89554e-06, 114436
-12099.5, 329469, -81.7725, 1.08949, -888.42, -0.00504347, 0.34393, 1.03299, 0.34851, 0.655882, 0.0001, 45.5, 246, 22.7195, 0.0650487, 0, 0, 1, 0, 2.27962e-05, 114441
-12099.5, 329469, -81.7725, 1.08949, -888.42, -0.00504347, 0.34393, 1.03299, 0.34851, 0.655882, 3, 45.5, 246, 22.7195, 0.0650487, 0, 0, 1, 0, -1.00719e-05, 114441
-10506.9, 203949, -252.377, 2.55297, -850.046, 0.830471, 0.401174, 1.03299, 0.34851, 0.655882, 0.0001, 45.5, 246, 43.8096, 0.200676, 0, 0, 0, 0, -1.51078e-05, 114447
-10675.6, 463227, -56.4395, 0.464932, -949.972, 0.019688, 0.344745, 1.03299, 0.34851, 0.655882, 0.0001, 45.5, 246, 21.4212, 0.0328037, 0, 0, 1, 0, -3.78404e-05, 114449
-9937.05, 479612, -62.4555, 0.481852, -953.752, 0.0207365, 0.309747, 0.993198, 0.349787, 0.651995, 0.0001, 91, 246, 21.4212, 0.0328037, 0, 0, 1, 0, 1.56479e-05, 114449
-22295.4, -1483.38, -49.0627, 0.213846, -874.726, 0.657016, 0.318232, 0.993198, 0.349787, 0.651995, 0.0001, 91, 246, 633.841, 0.037091, 0, 0, 1, 0, 6.78164e-05, 114456
-10787.5, 317360, -301.73, 1.54056, -1128.66, -0.0102635, 0.573371, 1.03299, 0.34851, 0.655882, 0.0001, 45.5, 246, 47.3974, 0.232645, 0, 0, 0, 0, 2.75605e-05, 114457
-10787.5, 317360, -301.73, 1.54056, -1128.66, -0.0102635, 0.573371, 1.03299, 0.34851, 0.655882, 3, 45.5, 246, 47.3974, 0.232645, 0, 0, 0, 0, -3.18186e-05, 114457
-9032.91, 85005.4, -72.3225, 2.84486, -1010.82, -0.0381024, 0.255969, 1.03299, 0.34851, 0.655882, 0.0001, 45.5, 246, 29.0394, 0.108199, 0, 0, 1, 0, 1.00988e-05, 114460
-9032.91, 85005.4, -72.3225, 2.84486, -1010.82, -0.0381024, 0.255969, 1.03299, 0.34851, 0.655882, 3, 45.5, 246, 29.0394, 0.108199, 0, 0, 1, 0, 5.27785e-06, 114460
-11879.8, 336182, -185.584, 1.40676, -1098.33, 0.140331, 0.408233, 1.03299, 0.34851, 0.655882, 0.0001, 45.5, 246, 34.9087, 0.133428, 0, 0, 0, 0, 1.98442e-05, 114469
-8452.93, 600145, -182.54, 0.342411, -1138.94, 0.0765271, 0.392752, 1.03299, 0.34851, 0.655882, 0.0001, 45.5, 246, 31.7885, 0.076823, 0, 0, 0, 0, -3.2711e-06, 114474
-8452.93, 600145, -182.54, 0.342411, -1138.94, 0.0765271, 0.392752, 1.03299, 0.34851, 0.655882, 3, 45.5, 246, 31.7885, 0.076823, 0, 0, 0, 0, -2.07741e-05, 114474
-7425.13, 626298, -192.389, 0.355628, -1154.66, 0.0780052, 0.360902, 0.993198, 0.349787, 0.651995, 3, 91, 246, 31.7885, 0.076823, 0, 0, 1, 0, 4.58457e-06, 114474
-11715.6, 170767, 12.0426, 1.61333, -902.137, -0.00950406, 0.301573, 1.03299, 0.34851, 0.655882, 0.0001, 45.5, 246, 12.2481, 0.0107621, 0, 0, 1, 0, 5.34545e-06, 114476
-11715.6, 170767, 12.0426, 1.61333, -902.137, -0.00950406, 0.301573, 1.03299, 0.34851, 0.655882, 3, 45.5, 246, 12.2481, 0.0107621, 0, 0, 1, 0, -1.43504e-05, 114476
-10706.2, 184679, -0.765085, 1.70329, -901.379, 0.00256872, 0.274998, 0.993198, 0.349787, 0.651995, 0.0001, 91, 246, 12.2481, 0.0107621, 0, 0, 1, 0, 2.04398e-05, 114476
-4741.21, 183673, -240.305, 3.75703, -1096.77, 0.664326, 0.293702, 0.958125, 0.351078, 0.648177, 0.0001, 182, 246, 36.4144, 0.143553, 0, 0, 0, 0, -4.8806e-06, 114496
-10587.4, 264430, -205.044, 0.908772, -554.258, 0.507197, 0.460762, 1.03299, 0.34851, 0.655882, 0.0001, 45.5, 246, 31.2636, 0.176393, 0, 0, 1, 0, -0.000182966, 114497
-10587.4, 264430, -205.044, 0.908772, -554.258, 0.507197, 0.460762, 1.03299, 0.34851, 0.655882, 3, 45.5, 246, 31.2636, 0.176393, 0, 0, 1, 0, -9.79853e-05, 114497
-9364.25, 278563, -219.646, 0.978668, -608.242, 0.555638, 0.438006, 0.993198, 0.349787, 0.651995, 0.0001, 91, 246, 31.2636, 0.176393, 0, 0, 1, 0, 3.35062e-05, 114497
