-7135.28, 96637.1, -154.453, 2.26793, -974.296, 0.0263195, 0.379398, 1.03299, 0.34851, 0.655882, 3, 45.5, 246, 46.9797, 0.237472, 0, 0, 1, 0, 1.52412e-05, 195502
-1401.39, 159814, -280.175, 2.90413, -1060.81, 0.125859, 0.389968, 0.9175, 0.352806, 0.64323, 0.0001, 455, 246, 46.9797, 0.237472, 1.25338, 1, 0, 0, -1.30901e-05, 195502
-1401.39, 159814, -280.175, 2.90413, -1060.81, 0.125859, 0.389968, 0.9175, 0.352806, 0.64323, 3, 455, 246, 46.9797, 0.237472, 1.26, 1, 0, 0, -8.91941e-06, 195502
-11574.1, 340952, 2.98684, 0.655109, -625.351, 0.0545165, 0.333621, 1.03299, 0.34851, 0.655882, 0.0001, 45.5, 246, 10.8499, 0.00221249, 0, 0, 1, 0, -6.98012e-06, 195504
-11574.1, 340952, 2.98684, 0.655109, -625.351, 0.0545165, 0.333621, 1.03299, 0.34851, 0.655882, 3, 45.5, 246, 10.8499, 0.00221249, 0, 0, 1, 0, 4.04767e-07, 195504
-10854.6, 348759, -0.654858, 0.68236, -630.861, 0.0569708, 0.298838, 0.993198, 0.349787, 0.651995, 0.0001, 91, 246, 10.8499, 0.00221249, 0, 0, 1, 0, 4.22656e-06, 195504
-9005.88, 147929, -96.3749, 1.00782, -1172.79, -0.00465393, 0.38657, 1.03299, 0.34851, 0.655882, 0.0001, 45.5, 246, 31.0098, 0.151872, 0, 0, 1, 0, -4.22715e-05, 195506
-9005.88, 147929, -96.3749, 1.00782, -1172.79, -0.00465393, 0.38657, 1.03299, 0.34851, 0.655882, 3, 45.5, 246, 31.0098, 0.151872, 0, 0, 1, 0, 2.9505e-05, 195506
-10937.1, 251547, -153.093, 1.13918, -596.617, 0.0134484, 0.402639, 1.03299, 0.34851, 0.655882, 0.0001, 45.5, 246, 27.6629, 0.143843, 0, 0, 1, 0, 1.24022e-05, 195507
-10937.1, 251547, -153.093, 1.13918, -596.617, 0.0134484, 0.402639, 1.03299, 0.34851, 0.655882, 3, 45.5, 246, 27.6629, 0.143843, 0, 0, 1, 0, -7.54704e-07, 195507
-9695.19, 258321, -167.003, 1.19685, -603.095, 0.0194799, 0.377227, 0.993198, 0.349787, 0.651995, 0.0001, 91, 246, 27.6629, 0.143843, 0, 0, 1, 0, 8.87442e-06, 195507
-3030.96, 91202, -218.849, 3.26472, -893.255, 0.32273, 0.312847, 0.9175, 0.352806, 0.64323, 0.0001, 455, 246, 43.3335, 0.158014, 1.07331, 1, 1, 0, 1.21935e-05, 195509
-3030.96, 91202, -218.849, 3.26472, -893.255, 0.32273, 0.312847, 0.9175, 0.352806, 0.64323, 3, 455, 246, 43.3335, 0.158014, 1.08048, 1, 1, 0, -6.23269e-06, 195509
1381.81, 343486, -406.54, 4.45663, -749.015, 0.168262, 0.392633, 0.9175, 0.352806, 0.64323, 3, 455, 246, 33.4221, 0.144173, 1.53445, 1, 0, 0, -5.82682e-05, 195517
-8510.34, 13775, -21.3894, 1.83304, -968.786, 0.00354822, 0.292165, 0.993198, 0.349787, 0.651995, 0.0001, 91, 246, 14.4875, 0.0667847, 0, 0, 1, 1, 5.75359e-06, 195518
-2357.73, 176085, -221.227, 5.19118, -778.273, 0.372505, 0.295867, 0.9175, 0.352806, 0.64323, 0.0001, 455, 246, 23.3304, 0.0769696, 0, 0, 0, 0, 2.99122e-05, 195520
-2357.73, 176085, -221.227, 5.19118, -778.273, 0.372505, 0.295867, 0.9175, 0.352806, 0.64323, 3, 455, 246, 23.3304, 0.0769696, 0, 0, 0, 0, 0.000115999, 195520
-8743.2, 37900.9, -25.4434, 1.09216, -999.966, 0.0309624, 0.30746, 0.993198, 0.349787, 0.651995, 0.0001, 91, 246, 16.5732, 0.104215, 0, 0, 1, 1, -2.13284e-05, 195531
-8743.2, 37900.9, -25.4434, 1.09216, -999.966, 0.0309624, 0.30746, 0.993198, 0.349787, 0.651995, 3, 91, 246, 16.5732, 0.104215, 0, 0, 1, 1, -2.7445e-05, 195531
-7686.92, 769983, -443.591, 0.0250206, -787.182, 0.0177911, 0.586157, 1.03299, 0.34851, 0.655882, 0.0001, 45.5, 246, 35.3246, 0.150365, 0, 0, 0, 0, 4.87504e-05, 195534
-7686.92, 769983, -443.591, 0.0250206, -787.182, 0.0177911, 0.586157, 1.03299, 0.34851, 0.655882, 3, 45.5, 246, 35.3246, 0.150365, 0, 0, 0, 0, -3.31841e-05, 195534
-11086.1, 391831, -215.057, 1.02996, -1042.53, 0.00265516, 0.441316, 1.03299, 0.34851, 0.655882, 0.0001, 45.5, 246, 35.1808, 0.139286, 0, 0, 0, 0, -2.6607e-06, 195537
-11086.1, 391831, -215.057, 1.02996, -1042.53, 0.00265516, 0.441316, 1.03299, 0.34851, 0.655882, 3, 45.5, 246, 35.1808, 0.139286, 0, 0, 0, 0, 6.94978e-06, 195537
-9347.57, 74681.7, -8.29606, 1.22024, -978.824, 0.223622, 0.326509, 1.03299, 0.34851, 0.655882, 0.0001, 45.5, 246, 13.7523, 0.0455937, 0, 0, 1, 0, 1.02856e-05, 195540
-9347.57, 74681.7, -8.29606, 1.22024, -978.824, 0.223622, 0.326509, 1.03299, 0.34851, 0.655882, 3, 45.5, 246, 13.7523, 0.0455937, 0, 0, 1, 0, 3.05478e-06, 195540
-7076.89, 203211, -251.9, 2.0387, -1088.98, 0.51681, 0.468186, 0.993198, 0.349787, 0.651995, 3, 91, 246, 46.377, 0.244446, 0, 0, 1, 0, 1.34636e-05, 195544
-10144.7, 296979, -254.784, 0.89177, -796.084, 0.550394, 0.520919, 1.03299, 0.34851, 0.655882, 0.0001, 45.5, 246, 38.043, 0.201947, 0, 0, 0, 0, 2.56453e-05, 195545
-10144.7, 296979, -254.784, 0.89177, -796.084, 0.550394, 0.520919, 1.03299, 0.34851, 0.655882, 3, 45.5, 246, 38.043, 0.201947, 0, 0, 0, 0, 0.000106607, 195545
-8570.42, 319719, -274.154, 0.964067, -878.946, 0.606962, 0.503437, 0.993198, 0.349787, 0.651995, 3, 91, 246, 38.043, 0.201947, 0, 0, 1, 0, -7.86157e-05, 195545
-119.281, 530106, -556.986, 1.02887, -906.89, 0.380448, 0.792898, 0.9175, 0.352806, 0.64323, 3, 455, 246, 44.7372, 0.249392, 0, 0, 0, 0, 0.0002829, 195547
-10695.8, 199886, -21.3799, 1.06015, -1013.51, 0.000809281, 0.329005, 1.03299, 0.34851, 0.655882, 0.0001, 45.5, 246, 17.6907, 0.0365823, 0, 0, 1, 0, -1.46828e-05, 195552
-10695.8, 199886, -21.3799, 1.06015, -1013.51, 0.000809281, 0.329005, 1.03299, 0.34851, 0.655882, 3, 45.5, 246, 17.6907, 0.0365823, 0, 0, 1, 0, 3.22809e-06, 195552
-10090.6, 220624, -46.402, 1.36762, -1077.58, 0.109656, 0.294795, 0.993198, 0.349787, 0.651995, 0.0001, 91, 246, 19.9867, 0.0483791, 0, 0, 1, 0, 1.22282e-05, 195554
-11770.4, 636770, -4.31155, 0.340168, -1134.96, 0.262774, 0.338582, 1.03299, 0.34851, 0.655882, 0.0001, 45.5, 246, 23.5402, 0.00378631, 0, 0, 1, 0, -0.000451983, 195557
-11770.4, 636770, -4.31155, 0.340168, -1134.96, 0.262774, 0.338582, 1.03299, 0.34851, 0.655882, 3, 45.5, 246, 23.5402, 0.00378631, 0, 0, 1, 0, 8.30036e-05, 195557
-11071.5, 669540, -8.05401, 0.356346, -1184.23, 0.274713, 0.302673, 0.993198, 0.349787, 0.651995, 0.0001, 91, 246, 23.5402, 0.00378631, 0, 0, 1, 0, -4.45762e-05, 195557
-10221.1, 705395, -12.2294, 0.372619, -1238.13, 0.287789, 0.271173, 0.958125, 0.351078, 0.648177, 0.0001, 182, 246, 23.5402, 0.00378631, 0, 0, 1, 0, -1.25163e-05, 195557
-6362.18, 95869, -204.116, 3.29712, -527.63, 0.753824, 0.228156, 1.03299, 0.34851, 0.655882, 0.0001, 45.5, 246, 42.9762, 0.150176, 1.28958, 1, 0, 0, 5.30626e-05, 195562
-6362.18, 95869, -204.116, 3.29712, -527.63, 0.753824, 0.228156, 1.03299, 0.34851, 0.655882, 3, 45.5, 246, 42.9762, 0.150176, 1.16561, 1, 0, 0, 7.14512e-05, 195562
-4501.74, 106597, -240.82, 3.75251, -623.613, 0.917613, 0.24034, 0.993198, 0.349787, 0.651995, 0.0001, 91, 246, 42.9762, 0.150176, 1.25397, 1, 1, 0, -3.30311e-06, 195562
-4501.74, 106597, -240.82, 3.75251, -623.613, 0.917613, 0.24034, 0.993198, 0.349787, 0.651995, 3, 91, 246, 42.9762, 0.150176, 1.09506, 1, 1, 0, 8.30838e-05, 195562
-1941.9, 122148, -290.042, 4.34996, -764.268, 1.15741, 0.278081, 0.958125, 0.351078, 0.648177, 0.0001, 182, 246, 42.9762, 0.150176, 1.51419, 1, 1, 0, 3.28639e-05, 195562
-1941.9, 122148, -290.042, 4.34996, -764.268, 1.15741, 0.278081, 0.958125, 0.351078, 0.648177, 3, 182, 246, 42.9762, 0.150176, 1.38984, 1, 1, 0, 3.30016e-05, 195562
-9572.3, 67640.4, 2.75915, 1.76004, -883.603, 0.170551, 0.30159, 1.03299, 0.34851, 0.655882, 0.0001, 45.5, 246, 11.4148, 0.0332591, 0, 0, 1, 0, -5.78922e-06, 195563
-9572.3, 67640.4, 2.75915, 1.76004, -883.603, 0.170551, 0.30159, 1.03299, 0.34851, 0.655882, 3, 45.5, 246, 11.4148, 0.0332591, 0, 0, 1, 0, -7.45535e-06, 195563
-7285.3, 140884, -141.855, 3.11616, -690.915, 0.263986, 0.262984, 0.958125, 0.351078, 0.648177, 3, 182, 246, 25.4742, 0.10149, 0, 0, 1, 0, 1.12367e-05, 195564
-7523.57, 532664, -421.507, 0.325692, -1135.63, 0.0910346, 0.669017, 1.03299, 0.34851, 0.655882, 0.0001, 45.5, 246, 46.2338, 0.208215, 0, 0, 0, 0, -2.82707e-05, 195567
-7523.57, 532664, -421.507, 0.325692, -1135.63, 0.0910346, 0.669017, 1.03299, 0.34851, 0.655882, 3, 45.5, 246, 46.2338, 0.208215, 0, 0, 0, 0, 1.05196e-05, 195567
-7413.18, 94973.4, -150.218, 3.01914, -759.927, -0.0406211, 0.27241, 1.03299, 0.34851, 0.655882, 3, 45.5, 246, 40.5717, 0.160106, 0, 0, 1, 0, 3.92749e-06, 195569
-601.814, 134198, -291.117, 4.02586, -843.256, 0.138998, 0.34578, 0.9175, 0.352806, 0.64323, 0.0001, 455, 246, 40.5717, 0.160106, 1.56401, 1, 0, 0, -6.95202e-06, 195569
-601.814, 134198, -291.117, 4.02586, -843.256, 0.138998, 0.34578, 0.9175, 0.352806, 0.64323, 3, 455, 246, 40.5717, 0.160106, 1.5501, 1, 0, 0, -1.79773e-05, 195569
-9412.57, 205789, -40.9888, 2.80859, -936.925, 0.2256, 0.232209, 0.958125, 0.351078, 0.648177, 3, 182, 246, 14.5767, 0.0241459, 0, 0, 1, 0, 5.32233e-06, 195575
-10617.3, 766159, -30.6117, 0.495371, -1180.33, 0.0465203, 0.271756, 0.958125, 0.351078, 0.648177, 3, 182, 246, 25.365, 0.00920645, 0, 0, 1, 0, -5.81107e-06, 195577
-9339.5, 55862.2, -5.3115, 2.21907, -758.445, 0.0453441, 0.27771, 1.03299, 0.34851, 0.655882, 0.0001, 45.5, 246, 12.4576, 0.0418921, 0, 0, 1, 0, -4.79145e-06, 195579
-9339.5, 55862.2, -5.3115, 2.21907, -758.445, 0.0453441, 0.27771, 1.03299, 0.34851, 0.655882, 3, 45.5, 246, 12.4576, 0.0418921, 0, 0, 1, 0, 5.22816e-06, 195579
-11851.2, 949824, -58.8248, 0.267182, -870.333, 0.58229, 0.342394, 1.03299, 0.34851, 0.655882, 0.0001, 45.5, 246, 22.3657, 0.0147287, 0, 0, 1, 0, 1.39717e-05, 195590
-11851.2, 949824, -58.8248, 0.267182, -870.333, 0.58229, 0.342394, 1.03299, 0.34851, 0.655882, 3, 45.5, 246, 22.3657, 0.0147287, 0, 0, 1, 0, -7.1737e-06, 195590
-10981.9, 247575, -225.024, 1.54664, -740.191, 0.0843783, 0.471239, 1.03299, 0.34851, 0.655882, 0.0001, 45.5, 246, 38.4016, 0.20397, 0, 0, 0, 0, 7.85482e-06, 195596
-10981.9, 247575, -225.024, 1.54664, -740.191, 0.0843783, 0.471239, 1.03299, 0.34851, 0.655882, 3, 45.5, 246, 38.4016, 0.20397, 0, 0, 0, 0, 1.22485e-05, 195596
-8815.71, 346785, -467.288, 3.40616, -998.491, 0.00269422, 0.575249, 0.993198, 0.349787, 0.651995, 0.0001, 91, 246, 53.6369, 0.249253, 1.17089, 1, 1, 0, -8.26989e-06, 195600
-8815.71, 346785, -467.288, 3.40616, -998.491, 0.00269422, 0.575249, 0.993198, 0.349787, 0.651995, 3, 91, 246, 53.6369, 0.249253, 1.06415, 1, 1, 0, 7.34648e-06, 195600
-6629.11, 976022, -338.674, 0.109123, -953.884, 0.0137642, 0.45224, 1.03299, 0.34851, 0.655882, 0.0001, 45.5, 246, 32.9602, 0.0888778, 0, 0, 0, 0, -3.12349e-05, 195601
-6629.11, 976022, -338.674, 0.109123, -953.884, 0.0137642, 0.45224, 1.03299, 0.34851, 0.655882, 3, 45.5, 246, 32.9602, 0.0888778, 0, 0, 0, 0, -4.45075e-06, 195601
-8277.82, 56033.6, -67.0078, 2.88483, -649.807, -0.038195, 0.24021, 1.03299, 0.34851, 0.655882, 0.0001, 45.5, 246, 25.8594, 0.0856596, 0, 0, 1, 0, 2.31333e-06, 195604
-8277.82, 56033.6, -67.0078, 2.88483, -649.807, -0.038195, 0.24021, 1.03299, 0.34851, 0.655882, 3, 45.5, 246, 25.8594, 0.0856596, 0, 0, 1, 0, 4.91685e-06, 195604
-11069.9, 250858, -255.777, 1.63904, -726.811, 0.0961085, 0.507808, 1.03299, 0.34851, 0.655882, 0.0001, 45.5, 246, 41.597, 0.22602, 0, 0, 0, 0, -7.92182e-06, 195610
-11069.9, 250858, -255.777, 1.63904, -726.811, 0.0961085, 0.507808, 1.03299, 0.34851, 0.655882, 3, 45.5, 246, 41.597, 0.22602, 0, 0, 0, 0, 4.87264e-06, 195610
-9956.07, 88457.5, 7.7872, 1.63521, -997.91, 0.00174139, 0.306065, 1.03299, 0.34851, 0.655882, 3, 45.5, 246, 11.7687, 0.0255423, 0, 0, 1, 0, 9.01956e-06, 195616
-6046.52, -52536.8, 8.53592, 3.47391, -877.665, 0.131685, 0.205161, 1.03299, 0.34851, 0.655882, 0.0001, 45.5, 246, 12.8204, 0.026228, 1.22813, 1, 1, 0, -1.32076e-05, 195621
-6046.52, -52536.8, 8.53592, 3.47391, -877.665, 0.131685, 0.205161, 1.03299, 0.34851, 0.655882, 3, 45.5, 246, 12.8204, 0.026228, 1.09555, 1, 1, 0, -2.09097e-05, 195621
-6427.53, 81625.9, -150.911, 3.49689, -874.215, -0.0208134, 0.217251, 1.03299, 0.34851, 0.655882, 0.0001, 45.5, 246, 42.4192, 0.146295, 1.02091, 1, 1, 0, -1.49692e-05, 195624
-6427.53, 81625.9, -150.911, 3.49689, -874.215, -0.0208134, 0.217251, 1.03299, 0.34851, 0.655882, 3, 45.5, 246, 42.4192, 0.146295, 0, 0, 1, 0, 1.26803e-05, 195624
-2728.82, 110906, -246.643, 4.20681, -925.489, 0.109285, 0.269414, 0.958125, 0.351078, 0.648177, 0.0001, 182, 246, 42.4192, 0.146295, 1.28239, 1, 1, 0, -4.42407e-09, 195624
-2728.82, 110906, -246.643, 4.20681, -925.489, 0.109285, 0.269414, 0.958125, 0.351078, 0.648177, 3, 182, 246, 42.4192, 0.146295, 1.11546, 1, 1, 0, -4.37758e-06, 195624
1452.61, 135694, -336.038, 4.86799, -1005.07, 0.234225, 0.355273, 0.9175, 0.352806, 0.64323, 0.0001, 455, 246, 42.4192, 0.146295, 2.87719, 1, 0, 0, 1.33108e-06, 195624
1452.61, 135694, -336.038, 4.86799, -1005.07, 0.234225, 0.355273, 0.9175, 0.352806, 0.64323, 3, 455, 246, 42.4192, 0.146295, 2.88023, 1, 0, 0, -1.30546e-05, 195624
-6534.13, 843077, -247.936, 0.14078, -914.525, 0.00131643, 0.375984, 0.993198, 0.349787, 0.651995, 0.0001, 91, 246, 29.2644, 0.0741589, 0, 0, 1, 0, -9.72645e-05, 195631
-9328.82, 95797.2, -50.0361, 1.56242, -1038.64, 0.187825, 0.331317, 1.03299, 0.34851, 0.655882, 0.0001, 45.5, 246, 23.8639, 0.102227, 0, 0, 1, 0, -1.59786e-05, 195633
-9328.82, 95797.2, -50.0361, 1.56242, -1038.64, 0.187825, 0.331317, 1.03299, 0.34851, 0.655882, 3, 45.5, 246, 23.8639, 0.102227, 0, 0, 1, 0, 1.69892e-05, 195633
-4423.47, 72978.7, -185.754, 2.52336, -671.881, 0.309712, 0.340585, 1.03299, 0.34851, 0.655882, 0.0001, 45.5, 246, 55.7978, 0.231715, 1.34916, 1, 1, 0, 1.10821e-05, 195635
-4423.47, 72978.7, -185.754, 2.52336, -671.881, 0.309712, 0.340585, 1.03299, 0.34851, 0.655882, 3, 45.5, 246, 55.7978, 0.231715, 1.17083, 1, 1, 0, 8.49582e-06, 195635
-3267.39, 83393.7, -216.556, 2.76246, -722.512, 0.357871, 0.335936, 0.993198, 0.349787, 0.651995, 0.0001, 91, 246, 55.7978, 0.231715, 1.40099, 1, 1, 0, -1.32958e-05, 195635
-3267.39, 83393.7, -216.556, 2.76246, -722.512, 0.357871, 0.335936, 0.993198, 0.349787, 0.651995, 3, 91, 246, 55.7978, 0.231715, 1.23334, 1, 1, 0, 2.35364e-05, 195635
-1707.15, 96027.3, -253.49, 3.04107, -786.535, 0.418472, 0.344116, 0.958125, 0.351078, 0.648177, 0.0001, 182, 246, 55.7978, 0.231715, 1.67274, 1, 1, 0, 1.44384e-05, 195635
-1707.15, 96027.3, -253.49, 3.04107, -786.535, 0.418472, 0.344116, 0.958125, 0.351078, 0.648177, 3, 182, 246, 55.7978, 0.231715, 1.52761, 1, 1, 0, 9.29239e-06, 195635
1230.51, 117778, -315.582, 3.496, -901.322, 0.526384, 0.377104, 0.9175, 0.352806, 0.64323, 0.0001, 455, 246, 55.7978, 0.231715, 3.76206, 1, 0, 0, -4.31511e-06, 195635
1230.51, 117778, -315.582, 3.496, -901.322, 0.526384, 0.377104, 0.9175, 0.352806, 0.64323, 3, 455, 246, 55.7978, 0.231715, 3.76189, 1, 0, 0, -7.88009e-06, 195635
-5671.65, 490407, -420.365, 0.00199061, -979.131, 0.0144224, 0.696024, 0.993198, 0.349787, 0.651995, 0.0001, 91, 246, 45.2098, 0.236285, 0, 0, 1, 0, -2.4472e-06, 195640
-4231.25, 510872, -435.044, 0.00206161, -981.39, 0.0144554, 0.698211, 0.958125, 0.351078, 0.648177, 0.0001, 182, 246, 45.2098, 0.236285, 0, 0, 0, 0, 2.07459e-05, 195640
-7812.37, 376156, -283.852, 0.560233, -920.776, 0.263459, 0.512953, 0.993198, 0.349787, 0.651995, 0.0001, 91, 246, 37.9232, 0.192319, 0, 0, 1, 0, 4.8234e-05, 195645
-6292.43, 398694, -300.09, 0.591037, -965.407, 0.27642, 0.498396, 0.958125, 0.351078, 0.648177, 0.0001, 182, 246, 37.9232, 0.192319, 0, 0, 0, 0, -3.27493e-05, 195645
-16125.9, 288350, -400.857, 3.42091, -630.941, 0.562784, 0.428694, 1.03299, 0.34851, 0.655882, 0.0001, 45.5, 246, 47.7182, 0.220439, 1.11447, 1, 0, 0, -1.94071e-05, 195648
-16125.9, 288350, -400.857, 3.42091, -630.941, 0.562784, 0.428694, 1.03299, 0.34851, 0.655882, 3, 45.5, 246, 47.7182, 0.220439, 1.04695, 1, 0, 0, -1.61171e-05, 195648
-10118.6, 308685, -462.939, 3.88012, -739.22, 0.681835, 0.459752, 0.993198, 0.349787, 0.651995, 0.0001, 91, 246, 47.7182, 0.220439, 1.47674, 1, 1, 0, -3.55968e-06, 195648
-10118.6, 308685, -462.939, 3.88012, -739.22, 0.681835, 0.459752, 0.993198, 0.349787, 0.651995, 3, 91, 246, 47.7182, 0.220439, 1.4041, 1, 1, 0, -6.55663e-05, 195648
140.617, 425670, -446.682, 2.0679, -879.04, 0.129437, 0.55654, 0.9175, 0.352806, 0.64323, 3, 455, 246, 40.9468, 0.206442, 0, 0, 0, 0, -5.74906e-06, 195653
-7426.9, -13403.3, 0.772851, 2.94555, -848.911, -0.0413333, 0.239212, 1.03299, 0.34851, 0.655882, 3, 45.5, 246, 13.3303, 0.0453211, 0, 0, 1, 1, 8.46441e-06, 195655
-7531.39, 27970.5, -95.3206, 3.887, -878.067, 0.127669, 0.294049, 0.9175, 0.352806, 0.64323, 3, 455, 246, 13.3303, 0.0453211, 0, 0, 1, 1, -1.66469e-05, 195655
-4485.23, 888457, -306.096, 0.00204622, -972.623, 0.0827952, 0.407015, 0.993198, 0.349787, 0.651995, 0.0001, 91, 246, 31.9878, 0.0862236, 0, 0, 1, 0, -0.000128352, 195660
-3740.49, 910926, -314.278, 0.00211003, -985.534, 0.0838928, 0.382217, 0.958125, 0.351078, 0.648177, 0.0001, 182, 246, 31.9878, 0.0862236, 0, 0, 0, 0, 1.52872e-05, 195660
-12065.4, 319412, -0.957014, 0.831171, -715.042, 0.202456, 0.32936, 1.03299, 0.34851, 0.655882, 0.0001, 45.5, 246, 12.708, 0.00697735, 0, 0, 1, 0, -1.33593e-05, 195663
-12065.4, 319412, -0.957014, 0.831171, -715.042, 0.202456, 0.32936, 1.03299, 0.34851, 0.655882, 3, 45.5, 246, 12.708, 0.00697735, 0, 0, 1, 0, -4.37474e-05, 195663
-11147.5, 332072, -6.55236, 0.875432, -738.945, 0.212449, 0.295548, 0.993198, 0.349787, 0.651995, 0.0001, 91, 246, 12.708, 0.00697735, 0, 0, 1, 0, 3.58063e-05, 195663
-8943.68, 211828, -98.8365, 2.1406, -646.006, 0.12287, 0.268865, 0.958125, 0.351078, 0.648177, 3, 182, 246, 19.0607, 0.0726005, 0, 0, 1, 0, 5.78208e-06, 195665
-10322.6, 224931, -225.797, 2.22578, -1147.06, -0.0140603, 0.444367, 1.03299, 0.34851, 0.655882, 0.0001, 45.5, 246, 44.9928, 0.210395, 0, 0, 0, 0, 5.63246e-06, 195672
-10322.6, 224931, -225.797, 2.22578, -1147.06, -0.0140603, 0.444367, 1.03299, 0.34851, 0.655882, 3, 45.5, 246, 44.9928, 0.210395, 0, 0, 0, 0, -2.24486e-05, 195672
-11845.9, 386870, -134.93, 1.01534, -1051.52, 0.383555, 0.37002, 1.03299, 0.34851, 0.655882, 0.0001, 45.5, 246, 28.9725, 0.0848278, 0, 0, 0, 0, 3.18635e-05, 195678
-11621.8, 209817, -22.5196, 1.35033, -740.479, 0.00359535, 0.316999, 1.03299, 0.34851, 0.655882, 0.0001, 45.5, 246, 14.7238, 0.0343601, 0, 0, 1, 0, -6.43461e-06, 195679
-11621.8, 209817, -22.5196, 1.35033, -740.479, 0.00359535, 0.316999, 1.03299, 0.34851, 0.655882, 3, 45.5, 246, 14.7238, 0.0343601, 0, 0, 1, 0, -5.79287e-06, 195679
-4224.17, 354680, -485.984, 2.90118, -822.317, 0.146129, 0.624939, 0.958125, 0.351078, 0.648177, 0.0001, 182, 246, 48.3804, 0.247645, 1.16066, 1, 0, 0, -9.2316e-06, 195680
-8291.83, -7562.2, -2.6876, 1.66304, -663.233, 0.18628, 0.315799, 1.03299, 0.34851, 0.655882, 0.0001, 45.5, 246, 10.6226, 0.0420441, 0, 0, 1, 1, -9.5787e-06, 195682
-3025.09, 289708, -382.602, 3.37094, -1082.92, 0.0492142, 0.454809, 0.958125, 0.351078, 0.648177, 0.0001, 182, 246, 47.0718, 0.211944, 1.08668, 1, 0, 0, -5.86754e-06, 195685
-6504.09, 96332.6, -167.428, 3.23014, -992.838, 0.114544, 0.271618, 1.03299, 0.34851, 0.655882, 0.0001, 45.5, 246, 45.7257, 0.178721, 1.01941, 1, 1, 0, 3.06517e-06, 195688
-6504.09, 96332.6, -167.428, 3.23014, -992.838, 0.114544, 0.271618, 1.03299, 0.34851, 0.655882, 3, 45.5, 246, 45.7257, 0.178721, 0, 0, 1, 0, 9.84875e-06, 195688
-4758.52, 115374, -213.48, 3.5406, -1032.21, 0.167906, 0.282383, 0.993198, 0.349787, 0.651995, 0.0001, 91, 246, 45.7257, 0.178721, 1.01349, 1, 1, 0, 3.84633e-06, 195688
-2273.15, 137193, -269.511, 3.91114, -1089.36, 0.235086, 0.311621, 0.958125, 0.351078, 0.648177, 0.0001, 182, 246, 45.7257, 0.178721, 1.45807, 1, 1, 0, 1.39862e-06, 195688
-2273.15, 137193, -269.511, 3.91114, -1089.36, 0.235086, 0.311621, 0.958125, 0.351078, 0.648177, 3, 182, 246, 45.7257, 0.178721, 1.28609, 1, 1, 0, 2.44287e-06, 195688
-7795.72, 132603, -207.261, 3.46192, -916.701, 0.720873, 0.241899, 1.03299, 0.34851, 0.655882, 0.0001, 45.5, 246, 44.6067, 0.168774, 1.10212, 1, 0, 0, 2.46791e-05, 195691
-5143.43, 156280, -260.047, 3.94706, -1063.77, 0.881454, 0.260784, 0.993198, 0.349787, 0.651995, 0.0001, 91, 246, 44.6067, 0.168774, 1.14159, 1, 1, 0, 5.85821e-05, 195691
-1236.19, 190455, -332.472, 4.58649, -1279.79, 1.11683, 0.30783, 0.958125, 0.351078, 0.648177, 0.0001, 182, 246, 44.6067, 0.168774, 2.07892, 1, 0, 0, -2.36192e-05, 195691
-1236.19, 190455, -332.472, 4.58649, -1279.79, 1.11683, 0.30783, 0.958125, 0.351078, 0.648177, 3, 182, 246, 44.6067, 0.168774, 1.92411, 1, 0, 0, 1.63093e-05, 195691
-9921.25, 413915, -84.6443, 0.514124, -670.815, 0.69243, 0.316876, 0.993198, 0.349787, 0.651995, 0.0001, 91, 246, 17.0298, 0.047293, 0, 0, 1, 0, -5.24307e-05, 195693
-11447.2, 144448, -33.2922, 2.32086, -1060.77, 0.029449, 0.272708, 1.03299, 0.34851, 0.655882, 0.0001, 45.5, 246, 21.3286, 0.0629789, 0, 0, 1, 0, 2.06139e-05, 195703
-11447.2, 144448, -33.2922, 2.32086, -1060.77, 0.029449, 0.272708, 1.03299, 0.34851, 0.655882, 3, 45.5, 246, 21.3286, 0.0629789, 0, 0, 1, 0, 3.83417e-06, 195703
-5036.66, 214701, -134.45, 2.95304, -1123.43, 0.133311, 0.261932, 0.9175, 0.352806, 0.64323, 3, 455, 246, 21.3286, 0.0629789, 0, 0, 0, 0, -7.9603e-07, 195703
-5021.04, 56979.5, -145.46, 2.86336, -875.186, 0.517003, 0.275582, 1.03299, 0.34851, 0.655882, 0.0001, 45.5, 246, 48.8094, 0.166935, 1.08474, 1, 1, 0, 7.4334e-07, 195705
-4034.1, 74020.2, -182.645, 3.18838, -969.732, 0.606727, 0.276162, 0.993198, 0.349787, 0.651995, 0.0001, 91, 246, 48.8094, 0.166935, 1.13542, 1, 1, 0, 1.27921e-05, 195705
-2481.63, 96176.8, -230.251, 3.58653, -1096.24, 0.72672, 0.294083, 0.958125, 0.351078, 0.648177, 0.0001, 182, 246, 48.8094, 0.166935, 1.4295, 1, 1, 0, 4.66674e-06, 195705
-2481.63, 96176.8, -230.251, 3.58653, -1096.24, 0.72672, 0.294083, 0.958125, 0.351078, 0.648177, 3, 182, 246, 48.8094, 0.166935, 1.2754, 1, 1, 0, -1.46218e-05, 195705
-11079.4, 232575, -151.679, 1.41987, -694.664, 0.180837, 0.390709, 1.03299, 0.34851, 0.655882, 0.0001, 45.5, 246, 29.5529, 0.144428, 0, 0, 1, 0, 3.86736e-06, 195707
-9608.47, 243924, -169.366, 1.51278, -721.917, 0.195871, 0.36793, 0.993198, 0.349787, 0.651995, 3, 91, 246, 29.5529, 0.144428, 0, 0, 1, 0, 2.42896e-06, 195707
-11021.5, 348538, -69.369, 0.673483, -643.552, -0.00207489, 0.347826, 1.03299, 0.34851, 0.655882, 0.0001, 45.5, 246, 17.4046, 0.0521564, 0, 0, 1, 0, 1.61041e-05, 195709
-11021.5, 348538, -69.369, 0.673483, -643.552, -0.00207489, 0.347826, 1.03299, 0.34851, 0.655882, 3, 45.5, 246, 17.4046, 0.0521564, 0, 0, 1, 0, -5.20293e-05, 195709
-10194.7, 355768, -76.0514, 0.699897, -644.759, -4.31072e-06, 0.314177, 0.993198, 0.349787, 0.651995, 0.0001, 91, 246, 17.4046, 0.0521564, 0, 0, 1, 0, 2.93048e-05, 195709
-9108.88, 512920, -410.063, 0.119771, -712.928, 0.147041, 0.660535, 1.03299, 0.34851, 0.655882, 3, 45.5, 246, 38.8693, 0.209787, 0, 0, 0, 0, -1447.59, 195710
-7586.25, 529211, -426.398, 0.125289, -731.256, 0.150607, 0.653393, 0.993198, 0.349787, 0.651995, 3, 91, 246, 38.8693, 0.209787, 0, 0, 1, 0, -1377.37, 195710
-8072.66, 828202, -230.241, 0.147038, -809.178, 0.3195, 0.398294, 1.03299, 0.34851, 0.655882, 0.0001, 45.5, 246, 26.4869, 0.0673185, 0, 0, 0, 0, -9.97957e-05, 195713
-8072.66, 828202, -230.241, 0.147038, -809.178, 0.3195, 0.398294, 1.03299, 0.34851, 0.655882, 3, 45.5, 246, 26.4869, 0.0673185, 0, 0, 0, 0, -4.51346e-05, 195713
-7247.3, 855809, -238.478, 0.154228, -853.164, 0.336593, 0.366427, 0.993198, 0.349787, 0.651995, 3, 91, 246, 26.4869, 0.0673185, 0, 0, 1, 0, 0.000152578, 195713
-8839.48, 148355, -158.405, 2.00833, -1183.76, 0.0160239, 0.405207, 1.03299, 0.34851, 0.655882, 0.0001, 45.5, 246, 41.9593, 0.207623, 0, 0, 1, 0, -1.1636e-06, 195715
-8839.48, 148355, -158.405, 2.00833, -1183.76, 0.0160239, 0.405207, 1.03299, 0.34851, 0.655882, 3, 45.5, 246, 41.9593, 0.207623, 0, 0, 1, 0, 9.01122e-06, 195715
-10216, 374424, -51.1603, 1.43568, -974.979, 0.0101505, 0.262271, 0.958125, 0.351078, 0.648177, 3, 182, 246, 19.3053, 0.0268786, 0, 0, 1, 0, 1.27024e-05, 195721
-11700.2, 297402, -162.812, 1.51517, -1087.7, 0.00783208, 0.391374, 1.03299, 0.34851, 0.655882, 0.0001, 45.5, 246, 33.7894, 0.131908, 0, 0, 0, 0, 3.68436e-06, 195722
-11700.2, 297402, -162.812, 1.51517, -1087.7, 0.00783208, 0.391374, 1.03299, 0.34851, 0.655882, 3, 45.5, 246, 33.7894, 0.131908, 0, 0, 0, 0, -7.64082e-06, 195722
-6996.82, -54581.4, 9.00372, 2.88169, -928.116, -0.0387872, 0.265186, 1.03299, 0.34851, 0.655882, 0.0001, 45.5, 246, 12.0193, 0.00210976, 1.08436, 1, 1, 0, 8.37381e-06, 195726
-11997.2, 259336, -73.0543, 1.27672, -605.303, -0.00665852, 0.335052, 1.03299, 0.34851, 0.655882, 0.0001, 45.5, 246, 18.3373, 0.0688581, 0, 0, 1, 0, -2.34435e-05, 195729
-11997.2, 259336, -73.0543, 1.27672, -605.303, -0.00665852, 0.335052, 1.03299, 0.34851, 0.655882, 3, 45.5, 246, 18.3373, 0.0688581, 0, 0, 1, 0, -3.44942e-06, 195729
-10733.8, 265599, -83.8745, 1.34086, -607.724, 0.000862461, 0.306115, 0.993198, 0.349787, 0.651995, 3, 91, 246, 18.3373, 0.0688581, 0, 0, 1, 0, -9.81696e-06, 195729
-11107.9, 245671, -163.203, 1.37005, -744.618, 0.428696, 0.399364, 1.03299, 0.34851, 0.655882, 0.0001, 45.5, 246, 30.571, 0.145084, 0, 0, 1, 0, -2.20388e-05, 195737
-5520.16, 95308.3, -209.147, 3.2968, -619.053, 0.259262, 0.256497, 1.03299, 0.34851, 0.655882, 0.0001, 45.5, 246, 47.9596, 0.176326, 1.34168, 1, 1, 0, 2.34697e-05, 195742
-5520.16, 95308.3, -209.147, 3.2968, -619.053, 0.259262, 0.256497, 1.03299, 0.34851, 0.655882, 3, 45.5, 246, 47.9596, 0.176326, 1.22775, 1, 1, 0, -1.0518e-05, 195742
-3656.32, 104740, -248.241, 3.64655, -669.514, 0.325488, 0.268914, 0.993198, 0.349787, 0.651995, 0.0001, 91, 246, 47.9596, 0.176326, 1.40141, 1, 1, 0, -8.07584e-06, 195742
-3656.32, 104740, -248.241, 3.64655, -669.514, 0.325488, 0.268914, 0.993198, 0.349787, 0.651995, 3, 91, 246, 47.9596, 0.176326, 1.26675, 1, 1, 0, -1.08426e-05, 195742
-1196.24, 116666, -296.732, 4.07181, -737.857, 0.412022, 0.301807, 0.958125, 0.351078, 0.648177, 0.0001, 182, 246, 47.9596, 0.176326, 1.74978, 1, 1, 0, 4.04978e-06, 195742
-1196.24, 116666, -296.732, 4.07181, -737.857, 0.412022, 0.301807, 0.958125, 0.351078, 0.648177, 3, 182, 246, 47.9596, 0.176326, 1.62332, 1, 1, 0, 8.74577e-06, 195742
3422.66, 138631, -382.838, 4.812, -871.834, 0.575909, 0.385112, 0.9175, 0.352806, 0.64323, 0.0001, 455, 246, 47.9596, 0.176326, 0, 0, 0, 0, 8.49005e-06, 195742
3422.66, 138631, -382.838, 4.812, -871.834, 0.575909, 0.385112, 0.9175, 0.352806, 0.64323, 3, 455, 246, 47.9596, 0.176326, 0, 0, 0, 0, 5.41486e-06, 195742
-4537.51, 317878, -100.713, 4.5966, -675.828, 0.218539, 0.235672, 0.9175, 0.352806, 0.64323, 3, 455, 246, 13.4763, 0.0220674, 0, 0, 0, 0, -2.05693e-05, 195748
-9454.41, 136238, -128.909, 2.70763, -1165.53, -0.0289259, 0.30917, 1.03299, 0.34851, 0.655882, 0.0001, 45.5, 246, 37.3112, 0.154487, 0, 0, 0, 0, -1.09349e-05, 195749
-9454.41, 136238, -128.909, 2.70763, -1165.53, -0.0289259, 0.30917, 1.03299, 0.34851, 0.655882, 3, 45.5, 246, 37.3112, 0.154487, 0, 0, 0, 0, 3.25249e-06, 195749
-7653.7, 160110, -168.919, 2.9172, -1174.32, 0.00579568, 0.306474, 0.993198, 0.349787, 0.651995, 0.0001, 91, 246, 37.3112, 0.154487, 0, 0, 1, 0, 1.67158e-05, 195749
-7653.7, 160110, -168.919, 2.9172, -1174.32, 0.00579568, 0.306474, 0.993198, 0.349787, 0.651995, 3, 91, 246, 37.3112, 0.154487, 0, 0, 1, 0, 6.39767e-06, 195749
-7986.22, 128874, -185.749, 3.26477, -952.967, 0.248341, 0.274144, 1.03299, 0.34851, 0.655882, 3, 45.5, 246, 43.8261, 0.175448, 0, 0, 0, 0, -1.17628e-05, 195751
-2516.53, 171689, -292.275, 4.02492, -1100.38, 0.395883, 0.319204, 0.958125, 0.351078, 0.648177, 0.0001, 182, 246, 43.8261, 0.175448, 1.35484, 1, 0, 0, 6.48145e-06, 195751
-2516.53, 171689, -292.275, 4.02492, -1100.38, 0.395883, 0.319204, 0.958125, 0.351078, 0.648177, 3, 182, 246, 43.8261, 0.175448, 1.13944, 1, 0, 0, 1.56781e-06, 195751
-10658, 197814, -228.439, 3.34456, -1031.64, -0.0477393, 0.311667, 1.03299, 0.34851, 0.655882, 0.0001, 45.5, 246, 45.0819, 0.187431, 0, 0, 0, 0, 2.05878e-06, 195752
-10658, 197814, -228.439, 3.34456, -1031.64, -0.0477393, 0.311667, 1.03299, 0.34851, 0.655882, 3, 45.5, 246, 45.0819, 0.187431, 0, 0, 0, 0, -4.35992e-06, 195752
-2573.63, 239096, -347.411, 4.00542, -1089.48, 0.0702804, 0.364422, 0.958125, 0.351078, 0.648177, 0.0001, 182, 246, 45.0819, 0.187431, 1.61147, 1, 0, 0, -1.59363e-05, 195752
-2573.63, 239096, -347.411, 4.00542, -1089.48, 0.0702804, 0.364422, 0.958125, 0.351078, 0.648177, 3, 182, 246, 45.0819, 0.187431, 1.4236, 1, 0, 0, 9.41518e-06, 195752
-10495.3, 423841, -385.695, 0.482132, -748.423, 0.12843, 0.682456, 1.03299, 0.34851, 0.655882, 0.0001, 45.5, 246, 42.4619, 0.238651, 0, 0, 0, 0, -4.2373e-05, 195754
-10495.3, 423841, -385.695, 0.482132, -748.423, 0.12843, 0.682456, 1.03299, 0.34851, 0.655882, 3, 45.5, 246, 42.4619, 0.238651, 0, 0, 0, 0, 1.465e-07, 195754
-6219.06, 456427, -428.03, 0.533487, -791.47, 0.136222, 0.680376, 0.958125, 0.351078, 0.648177, 3, 182, 246, 42.4619, 0.238651, 0, 0, 0, 0, 9.26309e-06, 195754
-8682.59, 78698.6, -78.555, 3.24329, -1004.49, 0.407074, 0.209758, 1.03299, 0.34851, 0.655882, 0.0001, 45.5, 246, 30.1645, 0.101673, 0, 0, 0, 0, -5.6447e-06, 195756
-8682.59, 78698.6, -78.555, 3.24329, -1004.49, 0.407074, 0.209758, 1.03299, 0.34851, 0.655882, 3, 45.5, 246, 30.1645, 0.101673, 0, 0, 0, 0, 1.01737e-05, 195756
-1272.54, 173056, -264.577, 4.86234, -1424.33, 0.819285, 0.326312, 0.9175, 0.352806, 0.64323, 0.0001, 455, 246, 30.1645, 0.101673, 1.07514, 1, 0, 0, -7.94647e-06, 195756
-1272.54, 173056, -264.577, 4.86234, -1424.33, 0.819285, 0.326312, 0.9175, 0.352806, 0.64323, 3, 455, 246, 30.1645, 0.101673, 1.09396, 1, 0, 0, -7.94934e-06, 195756
-11339.6, 254236, -148.721, 1.68316, -1108.97, -0.00529552, 0.379094, 1.03299, 0.34851, 0.655882, 3, 45.5, 246, 33.8802, 0.135972, 0, 0, 0, 0, -2.03228e-05, 195760
-12590.6, 327746, -417.581, 3.83752, -628.253, 0.000300385, 0.41816, 0.993198, 0.349787, 0.651995, 0.0001, 91, 246, 43.7195, 0.205296, 1.11746, 1, 1, 0, -9.7341e-06, 195762
-12590.6, 327746, -417.581, 3.83752, -628.253, 0.000300385, 0.41816, 0.993198, 0.349787, 0.651995, 3, 91, 246, 43.7195, 0.205296, 1.01119, 1, 1, 0, -0.000100588, 195762
-5161.66, 338769, -484.99, 4.24181, -679.767, 0.0720059, 0.468357, 0.958125, 0.351078, 0.648177, 0.0001, 182, 246, 43.7195, 0.205296, 2.80141, 1, 0, 0, 171.269, 195762
-5161.66, 338769, -484.99, 4.24181, -679.767, 0.0720059, 0.468357, 0.958125, 0.351078, 0.648177, 3, 182, 246, 43.7195, 0.205296, 2.62432, 1, 0, 0, 176.382, 195762
-9408.61, 53125.8, -0.20371, 3.21496, -776.121, 0.748484, 0.179395, 1.03299, 0.34851, 0.655882, 0.0001, 45.5, 246, 13.6459, 0.0372933, 0, 0, 0, 0, 1.14504e-05, 195764
-9408.61, 53125.8, -0.20371, 3.21496, -776.121, 0.748484, 0.179395, 1.03299, 0.34851, 0.655882, 3, 45.5, 246, 13.6459, 0.0372933, 0, 0, 0, 0, -3.67398e-06, 195764
-8710.76, 67229.1, -26.1408, 3.6466, -885.172, 0.907435, 0.185779, 0.993198, 0.349787, 0.651995, 0.0001, 91, 246, 13.6459, 0.0372933, 0, 0, 1, 0, -8.60221e-05, 195764
-8710.76, 67229.1, -26.1408, 3.6466, -885.172, 0.907435, 0.185779, 0.993198, 0.349787, 0.651995, 3, 91, 246, 13.6459, 0.0372933, 0, 0, 1, 0, -3.2555e-05, 195764
-7547.73, 87004.5, -63.0967, 4.20854, -1044.04, 1.13832, 0.21599, 0.958125, 0.351078, 0.648177, 0.0001, 182, 246, 13.6459, 0.0372933, 0, 0, 1, 0, 4.97087e-05, 195764
-7547.73, 87004.5, -63.0967, 4.20854, -1044.04, 1.13832, 0.21599, 0.958125, 0.351078, 0.648177, 3, 182, 246, 13.6459, 0.0372933, 0, 0, 1, 0, 2.00725e-05, 195764
-4664.38, 130858, -143.162, 5.30993, -1409.33, 1.66572, 0.30858, 0.9175, 0.352806, 0.64323, 0.0001, 455, 246, 13.6459, 0.0372933, 0, 0, 0, 0, 2.68309e-05, 195764
-4664.38, 130858, -143.162, 5.30993, -1409.33, 1.66572, 0.30858, 0.9175, 0.352806, 0.64323, 3, 455, 246, 13.6459, 0.0372933, 0, 0, 0, 0, 1.10904e-05, 195764
-10794.4, 196113, -84.9595, 1.3132, -609.624, 0.0724844, 0.345976, 1.03299, 0.34851, 0.655882, 0.0001, 45.5, 246, 21.3719, 0.0967839, 0, 0, 1, 0, -4.2002e-06, 195768
-10794.4, 196113, -84.9595, 1.3132, -609.624, 0.0724844, 0.345976, 1.03299, 0.34851, 0.655882, 3, 45.5, 246, 21.3719, 0.0967839, 0, 0, 1, 0, 1.49591e-05, 195768
-9811.98, 203460, -96.8003, 1.38639, -620.321, 0.0814156, 0.318324, 0.993198, 0.349787, 0.651995, 0.0001, 91, 246, 21.3719, 0.0967839, 0, 0, 1, 0, -1.49154e-05, 195768
-9739.26, 75469.3, -6.8596, 2.03605, -1005.37, 0.0199175, 0.28988, 1.03299, 0.34851, 0.655882, 3, 45.5, 246, 15.4483, 0.0492013, 0, 0, 1, 0, 1.3702e-05, 195769
40.2313, 207841, -305.962, 4.87133, -912.776, 0.26561, 0.33064, 0.9175, 0.352806, 0.64323, 0.0001, 455, 246, 31.9239, 0.118173, 1.04973, 1, 0, 0, -4.406e-06, 195771
40.2313, 207841, -305.962, 4.87133, -912.776, 0.26561, 0.33064, 0.9175, 0.352806, 0.64323, 3, 455, 246, 31.9239, 0.118173, 1.07892, 1, 0, 0, -8.5176e-06, 195771
-10797.6, 453986, -288.44, 0.779672, -921.857, 0.207683, 0.506886, 1.03299, 0.34851, 0.655882, 3, 45.5, 246, 36.6834, 0.159559, 0, 0, 0, 0, -1.70587e-05, 195775
-8951.76, 828925, -190.324, 0.293449, -1088.94, 0.0103437, 0.381878, 1.03299, 0.34851, 0.655882, 0.0001, 45.5, 246, 31.0742, 0.0588593, 0, 0, 0, 0, 1.37128e-05, 195789
-8951.76, 828925, -190.324, 0.293449, -1088.94, 0.0103437, 0.381878, 1.03299, 0.34851, 0.655882, 3, 45.5, 246, 31.0742, 0.0588593, 0, 0, 0, 0, -5.93154e-05, 195789
-9697.94, 170287, -176.589, 1.91578, -821.277, 0.538862, 0.399266, 1.03299, 0.34851, 0.655882, 3, 45.5, 246, 38.2217, 0.189133, 0, 0, 1, 0, -4.13857e-05, 195790
-8049.96, 189130, -203.844, 2.10348, -909.516, 0.608382, 0.385735, 0.993198, 0.349787, 0.651995, 3, 91, 246, 38.2217, 0.189133, 0, 0, 1, 0, 9.01692e-06, 195790
-3138.81, 89572.2, -219.238, 4.3929, -1014.52, 0.0771376, 0.248988, 0.958125, 0.351078, 0.648177, 0.0001, 182, 246, 40.2157, 0.120542, 1.10978, 1, 1, 0, -2.17594e-06, 195791
468.601, 117543, -313.374, 5.09486, -1088.98, 0.211336, 0.344601, 0.9175, 0.352806, 0.64323, 0.0001, 455, 246, 40.2157, 0.120542, 2.13445, 1, 0, 0, 6.39815e-06, 195791
468.601, 117543, -313.374, 5.09486, -1088.98, 0.211336, 0.344601, 0.9175, 0.352806, 0.64323, 3, 455, 246, 40.2157, 0.120542, 2.13412, 1, 0, 0, -2.26281e-05, 195791
-8476.02, 286365, -147.468, 1.37837, -769.068, 0.178344, 0.316042, 0.958125, 0.351078, 0.648177, 0.0001, 182, 246, 24.8163, 0.105515, 0, 0, 1, 0, -5.38795e-06, 195793
-8296.41, 159353, -247.057, 2.94204, -713.081, -0.0412954, 0.373403, 1.03299, 0.34851, 0.655882, 0.0001, 45.5, 246, 48.2443, 0.223724, 1.0649, 1, 1, 0, -1.43488e-05, 195795
-5656.05, 169200, -288.232, 3.18812, -732.242, -1.92905e-05, 0.382196, 0.993198, 0.349787, 0.651995, 0.0001, 91, 246, 48.2443, 0.223724, 1.07919, 1, 1, 0, 1.01206e-05, 195795
-2354.95, 180672, -336.438, 3.47411, -762.388, 0.0487238, 0.405893, 0.958125, 0.351078, 0.648177, 0.0001, 182, 246, 48.2443, 0.223724, 1.6433, 1, 1, 0, 6.19995e-06, 195795
-2354.95, 180672, -336.438, 3.47411, -762.388, 0.0487238, 0.405893, 0.958125, 0.351078, 0.648177, 3, 182, 246, 48.2443, 0.223724, 1.44771, 1, 1, 0, -2.75251e-06, 195795
-7012.12, -24097.5, 24.8612, 3.52136, -1193.99, -0.0571395, 0.187155, 1.03299, 0.34851, 0.655882, 0.0001, 45.5, 246, 12.0176, 0.0606519, 0, 0, 1, 0, -1.0897e-05, 195797
-7012.12, -24097.5, 24.8612, 3.52136, -1193.99, -0.0571395, 0.187155, 1.03299, 0.34851, 0.655882, 3, 45.5, 246, 12.0176, 0.0606519, 0, 0, 1, 0, 1.58921e-05, 195797
-8975.68, 226453, -97.7042, 2.32119, -773.488, 0.16854, 0.261604, 0.958125, 0.351078, 0.648177, 3, 182, 246, 19.7312, 0.065897, 0, 0, 1, 0, -8.32294e-06, 195805
-7281.76, 606249, -203.375, 0.319341, -1096.21, 0.180237, 0.369612, 0.993198, 0.349787, 0.651995, 0.0001, 91, 246, 31.0883, 0.0833314, 0, 0, 1, 0, -1.26064e-05, 195807
-10490, 234045, -173.74, 1.70115, -1144.46, -0.0134886, 0.412625, 1.03299, 0.34851, 0.655882, 0.0001, 45.5, 246, 37.9664, 0.168662, 0, 0, 0, 0, -7.2419e-07, 195811
-10490, 234045, -173.74, 1.70115, -1144.46, -0.0134886, 0.412625, 1.03299, 0.34851, 0.655882, 3, 45.5, 246, 37.9664, 0.168662, 0, 0, 0, 0, -6.04943e-06, 195811
-10873, 197037, -96.2455, 1.39717, -634.288, 0.187524, 0.34914, 1.03299, 0.34851, 0.655882, 0.0001, 45.5, 246, 23.1497, 0.105683, 0, 0, 1, 0, 2.36684e-05, 195823
-10873, 197037, -96.2455, 1.39717, -634.288, 0.187524, 0.34914, 1.03299, 0.34851, 0.655882, 3, 45.5, 246, 23.1497, 0.105683, 0, 0, 1, 0, -2.39199e-06, 195823
-9779.17, 206359, -109.761, 1.48679, -658.097, 0.202655, 0.322886, 0.993198, 0.349787, 0.651995, 0.0001, 91, 246, 23.1497, 0.105683, 0, 0, 1, 0, -6.8043e-06, 195823
-10925.5, 151118, -56.0404, 2.1111, -1145.38, -0.0202807, 0.2995, 1.03299, 0.34851, 0.655882, 0.0001, 45.5, 246, 25.2135, 0.0852952, 0, 0, 1, 0, 9.82608e-06, 195827
-10925.5, 151118, -56.0404, 2.1111, -1145.38, -0.0202807, 0.2995, 1.03299, 0.34851, 0.655882, 3, 45.5, 246, 25.2135, 0.0852952, 0, 0, 1, 0, 8.82753e-06, 195827
-8219.74, 151033, -215.773, 3.30154, -1026.81, 0.243441, 0.302593, 1.03299, 0.34851, 0.655882, 3, 45.5, 246, 46.9441, 0.194013, 0, 0, 0, 0, -9.72022e-06, 195829
-1529.19, 201295, -335.585, 4.08194, -1188.5, 0.393166, 0.354792, 0.958125, 0.351078, 0.648177, 0.0001, 182, 246, 46.9441, 0.194013, 1.96392, 1, 0, 0, 4.68746e-06, 195829
-1529.19, 201295, -335.585, 4.08194, -1188.5, 0.393166, 0.354792, 0.958125, 0.351078, 0.648177, 3, 182, 246, 46.9441, 0.194013, 1.79957, 1, 0, 0, -5.42735e-06, 195829
-6739.31, 113771, -208.705, 2.25922, -620.325, 0.343828, 0.407275, 1.03299, 0.34851, 0.655882, 0.0001, 45.5, 246, 49.8286, 0.24863, 1.08657, 1, 1, 0, 3.44275e-05, 195830
-6739.31, 113771, -208.705, 2.25922, -620.325, 0.343828, 0.407275, 1.03299, 0.34851, 0.655882, 3, 45.5, 246, 49.8286, 0.24863, 0, 0, 1, 0, -6.41335e-05, 195830
-3310.48, 136455, -271.93, 2.71305, -735.177, 0.446451, 0.406727, 0.958125, 0.351078, 0.648177, 0.0001, 182, 246, 49.8286, 0.24863, 1.18304, 1, 1, 0, 1.86202e-05, 195830
145.699, 157908, -328.58, 3.10479, -846.873, 0.546432, 0.432319, 0.9175, 0.352806, 0.64323, 0.0001, 455, 246, 49.8286, 0.24863, 2.52778, 1, 0, 0, 190.623, 195830
145.699, 157908, -328.58, 3.10479, -846.873, 0.546432, 0.432319, 0.9175, 0.352806, 0.64323, 3, 455, 246, 49.8286, 0.24863, 2.52887, 1, 0, 0, 190.564, 195830
-5814.8, 72046.3, -162.52, 3.6495, -1200.81, 0.261822, 0.304508, 0.9175, 0.352806, 0.64323, 3, 455, 246, 28.4305, 0.0570873, 0, 0, 1, 0, -1.36288e-05, 195831
-8927.41, 293524, -418.606, 3.87331, -848.248, 0.299938, 0.425805, 0.993198, 0.349787, 0.651995, 0.0001, 91, 246, 48.6077, 0.21743, 1.35067, 1, 1, 0, -1.99863e-05, 195832
-8927.41, 293524, -418.606, 3.87331, -848.248, 0.299938, 0.425805, 0.993198, 0.349787, 0.651995, 3, 91, 246, 48.6077, 0.21743, 1.25907, 1, 1, 0, 3.52798e-05, 195832
-9109.48, 471204, -305.378, 0.992114, -987.095, 0.226567, 0.478712, 0.993198, 0.349787, 0.651995, 0.0001, 91, 246, 36.971, 0.157471, 0, 0, 1, 0, -7.7285e-05, 195835
-9109.48, 471204, -305.378, 0.992114, -987.095, 0.226567, 0.478712, 0.993198, 0.349787, 0.651995, 3, 91, 246, 36.971, 0.157471, 0, 0, 1, 0, 1.37626e-05, 195835
-7888.58, 937810, -170.82, 0.168346, -1074.08, 0.0361595, 0.369908, 1.03299, 0.34851, 0.655882, 0.0001, 45.5, 246, 30.115, 0.0460527, 0, 0, 0, 0, -7.69692e-05, 195839
-7888.58, 937810, -170.82, 0.168346, -1074.08, 0.0361595, 0.369908, 1.03299, 0.34851, 0.655882, 3, 45.5, 246, 30.115, 0.0460527, 0, 0, 0, 0, 9.35386e-06, 195839
-7112.32, 960523, -177.674, 0.173814, -1081.05, 0.0364966, 0.335885, 0.993198, 0.349787, 0.651995, 0.0001, 91, 246, 30.115, 0.0460527, 0, 0, 1, 0, -9.19636e-05, 195839
-4662.97, 66136.1, -180.76, 2.43226, -518.359, 0.835156, 0.317533, 1.03299, 0.34851, 0.655882, 0.0001, 45.5, 246, 51.141, 0.188611, 1.3515, 1, 1, 0, -1.83386e-05, 195840
-4662.97, 66136.1, -180.76, 2.43226, -518.359, 0.835156, 0.317533, 1.03299, 0.34851, 0.655882, 3, 45.5, 246, 51.141, 0.188611, 1.1877, 1, 1, 0, -2.27486e-05, 195840
-3641.66, 75578.1, -207.343, 2.74044, -612.783, 0.99594, 0.309817, 0.993198, 0.349787, 0.651995, 0.0001, 91, 246, 51.141, 0.188611, 1.32834, 1, 1, 0, 7.45857e-05, 195840
-3641.66, 75578.1, -207.343, 2.74044, -612.783, 0.99594, 0.309817, 0.993198, 0.349787, 0.651995, 3, 91, 246, 51.141, 0.188611, 1.17107, 1, 1, 0, -3.00582e-05, 195840
-2218.67, 89137.1, -241.671, 3.13235, -748.415, 1.22687, 0.317013, 0.958125, 0.351078, 0.648177, 0.0001, 182, 246, 51.141, 0.188611, 1.50278, 1, 1, 0, 1.51037e-06, 195840
-2218.67, 89137.1, -241.671, 3.13235, -748.415, 1.22687, 0.317013, 0.958125, 0.351078, 0.648177, 3, 182, 246, 51.141, 0.188611, 1.36639, 1, 1, 0, -4.48912e-05, 195840
698.833, 119621, -307.792, 3.87347, -1053.31, 1.74554, 0.356474, 0.9175, 0.352806, 0.64323, 0.0001, 455, 246, 51.141, 0.188611, 3.07184, 1, 0, 0, -215.705, 195840
698.833, 119621, -307.792, 3.87347, -1053.31, 1.74554, 0.356474, 0.9175, 0.352806, 0.64323, 3, 455, 246, 51.141, 0.188611, 3.07132, 1, 0, 0, -215.633, 195840
-10845.7, 657599, -41.9225, 0.433184, -1094.65, 0.204789, 0.30445, 0.993198, 0.349787, 0.651995, 3, 91, 246, 23.5511, 0.0161818, 0, 0, 1, 0, 4.09169e-05, 195841
-14095.2, 391336, -475.105, 3.53685, -695.999, 0.00155386, 0.525932, 0.993198, 0.349787, 0.651995, 0.0001, 91, 246, 46.0049, 0.221271, 1.02536, 1, 1, 0, -1.53899e-06, 195846
-10823.5, 172728, -105.951, 1.98105, -868.612, 0.133627, 0.33042, 1.03299, 0.34851, 0.655882, 0.0001, 45.5, 246, 28.6554, 0.120939, 0, 0, 1, 0, 1.29412e-05, 195848
-9345.37, 187616, -129.127, 2.12432, -895.051, 0.155404, 0.312488, 0.993198, 0.349787, 0.651995, 3, 91, 246, 28.6554, 0.120939, 0, 0, 1, 0, 6.1768e-06, 195848
-3052.14, 309322, -377.899, 3.89081, -1211.07, 0.0927881, 0.39225, 0.958125, 0.351078, 0.648177, 0.0001, 182, 246, 45.1819, 0.183515, 1.22655, 1, 0, 0, 1.63364e-05, 195850
-3052.14, 309322, -377.899, 3.89081, -1211.07, 0.0927881, 0.39225, 0.958125, 0.351078, 0.648177, 3, 182, 246, 45.1819, 0.183515, 1.0545, 1, 0, 0, 1.13537e-05, 195850
-8574.84, 88093.5, -59.706, 2.56352, -1112.57, 0.00725064, 0.266898, 0.993198, 0.349787, 0.651995, 0.0001, 91, 246, 22.429, 0.0835126, 0, 0, 1, 0, 1.97772e-06, 195859
-8574.84, 88093.5, -59.706, 2.56352, -1112.57, 0.00725064, 0.266898, 0.993198, 0.349787, 0.651995, 3, 91, 246, 22.429, 0.0835126, 0, 0, 1, 0, -1.31861e-05, 195859
-5489.57, 140057, -139.897, 3.03885, -1148.08, 0.0876855, 0.277031, 0.9175, 0.352806, 0.64323, 3, 455, 246, 22.429, 0.0835126, 0, 0, 1, 0, -8.5897e-06, 195859
-8417.12, 145151, -133.552, 1.66222, -793.223, 0.19674, 0.351751, 0.993198, 0.349787, 0.651995, 3, 91, 246, 32.1434, 0.167102, 0, 0, 1, 0, -5.01087e-07, 195866
-9423.97, 196040, -105.939, 0.914846, -974.964, 0.0608827, 0.383618, 1.03299, 0.34851, 0.655882, 0.0001, 45.5, 246, 28.6456, 0.130739, 0, 0, 1, 0, -7.34645e-06, 195873
-9423.97, 196040, -105.939, 0.914846, -974.964, 0.0608827, 0.383618, 1.03299, 0.34851, 0.655882, 3, 45.5, 246, 28.6456, 0.130739, 0, 0, 1, 0, -2.09805e-05, 195873
-9602.8, 266962, -120.22, 0.672013, -826.134, 0.0283343, 0.38732, 1.03299, 0.34851, 0.655882, 0.0001, 45.5, 246, 26.2884, 0.114021, 0, 0, 1, 0, 1.59773e-05, 195874
-7241.02, 16045.3, -45.9375, 2.92897, -873.102, -0.0331801, 0.242688, 1.03299, 0.34851, 0.655882, 3, 45.5, 246, 27.2008, 0.0703716, 0, 0, 1, 1, -5.04703e-06, 195876
-475.231, 145311, -300.84, 4.07967, -808.446, 0.449826, 0.353367, 0.9175, 0.352806, 0.64323, 0.0001, 455, 246, 39.5396, 0.16144, 1.53857, 1, 0, 0, -1.05779e-05, 195879
-475.231, 145311, -300.84, 4.07967, -808.446, 0.449826, 0.353367, 0.9175, 0.352806, 0.64323, 3, 455, 246, 39.5396, 0.16144, 1.52827, 1, 0, 0, 9.00648e-06, 195879
-10274.6, 396422, -114.576, 0.819776, -818.327, 0.528335, 0.326132, 0.993198, 0.349787, 0.651995, 3, 91, 246, 21.8262, 0.0668462, 0, 0, 1, 0, -8.25741e-06, 195880
-7516.43, 81956.9, -134.112, 3.37477, -658.135, 0.0316385, 0.209641, 1.03299, 0.34851, 0.655882, 3, 45.5, 246, 36.1881, 0.12282, 0, 0, 1, 0, 1.25125e-05, 195886
-1050.75, 114761, -276.904, 4.68996, -780.06, 0.274843, 0.327264, 0.9175, 0.352806, 0.64323, 0.0001, 455, 246, 36.1881, 0.12282, 1.25091, 1, 1, 0, 3.28731e-06, 195886
-1050.75, 114761, -276.904, 4.68996, -780.06, 0.274843, 0.327264, 0.9175, 0.352806, 0.64323, 3, 455, 246, 36.1881, 0.12282, 1.22691, 1, 1, 0, 2.24065e-05, 195886
-10527.2, 285133, -174.071, 0.85755, -619.549, 0.0892345, 0.427545, 1.03299, 0.34851, 0.655882, 0.0001, 45.5, 246, 28.6468, 0.150214, 0, 0, 1, 0, 1.47898e-05, 195888
-10527.2, 285133, -174.071, 0.85755, -619.549, 0.0892345, 0.427545, 1.03299, 0.34851, 0.655882, 3, 45.5, 246, 28.6468, 0.150214, 0, 0, 1, 0, -9.61303e-06, 195888
-3454.25, 54159, -171.73, 3.62992, -838.793, -0.0633996, 0.199742, 1.03299, 0.34851, 0.655882, 0.0001, 45.5, 246, 51.8495, 0.138429, 1.37208, 1, 1, 0, -5.87633e-06, 195890
-2180.26, 67071.8, -217.296, 3.96423, -853.849, -1.54672e-05, 0.219325, 0.993198, 0.349787, 0.651995, 0.0001, 91, 246, 51.8495, 0.138429, 1.43453, 1, 1, 0, -9.42523e-06, 195890
-2180.26, 67071.8, -217.296, 3.96423, -853.849, -1.54672e-05, 0.219325, 0.993198, 0.349787, 0.651995, 3, 91, 246, 51.8495, 0.138429, 1.28505, 1, 1, 0, -9.44188e-06, 195890
-330.478, 81409, -272.25, 4.36862, -885.695, 0.0762788, 0.260334, 0.958125, 0.351078, 0.648177, 0.0001, 182, 246, 51.8495, 0.138429, 1.78742, 1, 1, 1, 6.92225e-06, 195890
-330.478, 81409, -272.25, 4.36862, -885.695, 0.0762788, 0.260334, 0.958125, 0.351078, 0.648177, 3, 182, 246, 51.8495, 0.138429, 1.65476, 1, 1, 1, 1.20219e-05, 195890
3411.59, 104519, -366.44, 5.06494, -964.585, 0.208906, 0.355348, 0.9175, 0.352806, 0.64323, 0.0001, 455, 246, 51.8495, 0.138429, 4.2831, 1, 1, 1, -6.28622e-06, 195890
3411.59, 104519, -366.44, 5.06494, -964.585, 0.208906, 0.355348, 0.9175, 0.352806, 0.64323, 3, 455, 246, 51.8495, 0.138429, 4.2882, 1, 1, 1, -1.71348e-05, 195890
-12172.4, 280330, -303.452, 2.61693, -1088.43, 0.0682002, 0.485082, 1.03299, 0.34851, 0.655882, 0.0001, 45.5, 246, 49.008, 0.224572, 0, 0, 0, 0, -9.01873e-06, 195892
-9769.98, 150738, -55.8015, 2.12564, -926.15, 0.0957608, 0.274324, 0.993198, 0.349787, 0.651995, 0.0001, 91, 246, 19.6801, 0.0643476, 0, 0, 1, 0, -5.15279e-06, 195894
-10459.5, 546022, -75.7955, 0.40155, -1058.16, 0.528525, 0.348008, 1.03299, 0.34851, 0.655882, 0.0001, 45.5, 246, 25.0157, 0.0335446, 0, 0, 1, 0, 4.80602e-06, 195900
-10459.5, 546022, -75.7955, 0.40155, -1058.16, 0.528525, 0.348008, 1.03299, 0.34851, 0.655882, 3, 45.5, 246, 25.0157, 0.0335446, 0, 0, 1, 0, -0.000108531, 195900
-9643.95, 583956, -82.4855, 0.427586, -1155.57, 0.577512, 0.31301, 0.993198, 0.349787, 0.651995, 0.0001, 91, 246, 25.0157, 0.0335446, 0, 0, 1, 0, 1.5191e-05, 195900
-6810.33, -18584.8, 12.1749, 3.63483, -1059.97, -0.0631145, 0.172961, 1.03299, 0.34851, 0.655882, 0.0001, 45.5, 246, 14.092, 0.0545206, 0, 0, 1, 0, -1.40341e-06, 195905
-6810.33, -18584.8, 12.1749, 3.63483, -1059.97, -0.0631145, 0.172961, 1.03299, 0.34851, 0.655882, 3, 45.5, 246, 14.092, 0.0545206, 0, 0, 1, 0, -5.32336e-07, 195905
-8056.01, -9405.35, -8.31329, 1.99449, -636.083, -0.0183869, 0.302656, 1.03299, 0.34851, 0.655882, 0.0001, 45.5, 246, 14.0085, 0.0287673, 0, 0, 1, 1, 1.60125e-05, 195908
-9330.1, 254408, -100.065, 1.15072, -1136.82, 0.379689, 0.32525, 0.993198, 0.349787, 0.651995, 0.0001, 91, 246, 26.1834, 0.088486, 0, 0, 1, 0, 1.17478e-05, 195913
-9502.23, 135677, -142.011, 3.02518, -999.362, 0.0895641, 0.274046, 1.03299, 0.34851, 0.655882, 0.0001, 45.5, 246, 37.3659, 0.149038, 0, 0, 0, 0, 3.23716e-06, 195920
-9502.23, 135677, -142.011, 3.02518, -999.362, 0.0895641, 0.274046, 1.03299, 0.34851, 0.655882, 3, 45.5, 246, 37.3659, 0.149038, 0, 0, 0, 0, -2.18869e-05, 195920
380.313, 209667, -315.494, 4.1467, -1169.49, 0.291116, 0.354055, 0.9175, 0.352806, 0.64323, 0.0001, 455, 246, 37.3659, 0.149038, 1.91079, 1, 0, 0, -1.16817e-05, 195920
380.313, 209667, -315.494, 4.1467, -1169.49, 0.291116, 0.354055, 0.9175, 0.352806, 0.64323, 3, 455, 246, 37.3659, 0.149038, 2.02723, 1, 0, 0, -1.96607e-05, 195920
-7506.4, 650118, -320.255, 0.224462, -973.109, 0.564351, 0.47884, 1.03299, 0.34851, 0.655882, 0.0001, 45.5, 246, 34.4516, 0.115849, 0, 0, 0, 0, -5.68667e-05, 195935
-7506.4, 650118, -320.255, 0.224462, -973.109, 0.564351, 0.47884, 1.03299, 0.34851, 0.655882, 3, 45.5, 246, 34.4516, 0.115849, 0, 0, 0, 0, -2.22771e-05, 195935
-6020.12, 91689.3, -152.91, 3.36452, -1109.13, 0.119796, 0.262477, 0.993198, 0.349787, 0.651995, 0.0001, 91, 246, 38.8638, 0.145265, 0, 0, 1, 0, 1.46407e-05, 195936
-599.917, 151432, -287.134, 4.23244, -1241.93, 0.279278, 0.341851, 0.9175, 0.352806, 0.64323, 0.0001, 455, 246, 38.8638, 0.145265, 1.89856, 1, 0, 0, -2.28852e-08, 195936
-599.917, 151432, -287.134, 4.23244, -1241.93, 0.279278, 0.341851, 0.9175, 0.352806, 0.64323, 3, 455, 246, 38.8638, 0.145265, 1.90315, 1, 0, 0, -1.65282e-06, 195936
-4065.15, 50146.6, -159.335, 3.65046, -1032.15, 0.0724479, 0.2336, 0.993198, 0.349787, 0.651995, 0.0001, 91, 246, 46.549, 0.105574, 0, 0, 1, 1, -8.58614e-06, 195937
-4065.15, 50146.6, -159.335, 3.65046, -1032.15, 0.0724479, 0.2336, 0.993198, 0.349787, 0.651995, 3, 91, 246, 46.549, 0.105574, 0, 0, 1, 1, -4.68332e-06, 195937
-2833.11, 70154.9, -211.113, 4.0146, -1068.09, 0.138553, 0.263447, 0.958125, 0.351078, 0.648177, 0.0001, 182, 246, 46.549, 0.105574, 1.17632, 1, 1, 0, 2.08567e-05, 195937
5.65388, 101043, -299.108, 4.62878, -1150.92, 0.254364, 0.337411, 0.9175, 0.352806, 0.64323, 0.0001, 455, 246, 46.549, 0.105574, 2.18872, 1, 1, 1, 2.87681e-06, 195937
5.65388, 101043, -299.108, 4.62878, -1150.92, 0.254364, 0.337411, 0.9175, 0.352806, 0.64323, 3, 455, 246, 46.549, 0.105574, 2.12821, 1, 1, 1, -1.56276e-05, 195937
-6865.65, 125084, -205.589, 2.99982, -978.748, 0.0957296, 0.339542, 1.03299, 0.34851, 0.655882, 0.0001, 45.5, 246, 49.3538, 0.216587, 1.03657, 1, 1, 0, 6.08566e-07, 195939
-6865.65, 125084, -205.589, 2.99982, -978.748, 0.0957296, 0.339542, 1.03299, 0.34851, 0.655882, 3, 45.5, 246, 49.3538, 0.216587, 0, 0, 1, 0, -1.13838e-05, 195939
-4714.7, 143946, -251.675, 3.27579, -1016.14, 0.141094, 0.347792, 0.993198, 0.349787, 0.651995, 0.0001, 91, 246, 49.3538, 0.216587, 1.10003, 1, 1, 0, -2.25787e-06, 195939
-1786.14, 165520, -306.927, 3.60039, -1069.06, 0.197386, 0.372207, 0.958125, 0.351078, 0.648177, 0.0001, 182, 246, 49.3538, 0.216587, 1.70598, 1, 0, 0, 7.45002e-06, 195939
-1786.14, 165520, -306.927, 3.60039, -1069.06, 0.197386, 0.372207, 0.958125, 0.351078, 0.648177, 3, 182, 246, 49.3538, 0.216587, 1.52907, 1, 0, 0, 1.76578e-05, 195939
-11569.8, 319330, -108.868, 1.09384, -999.838, 0.385631, 0.358065, 1.03299, 0.34851, 0.655882, 0.0001, 45.5, 246, 26.7544, 0.0823582, 0, 0, 1, 0, 2.8072e-05, 195942
-11569.8, 319330, -108.868, 1.09384, -999.838, 0.385631, 0.358065, 1.03299, 0.34851, 0.655882, 3, 45.5, 246, 26.7544, 0.0823582, 0, 0, 1, 0, 3.05653e-06, 195942
-10733.8, 219963, -324.706, 3.41829, -737.229, -0.0494142, 0.390172, 1.03299, 0.34851, 0.655882, 0.0001, 45.5, 246, 50.7282, 0.231002, 1.10602, 1, 0, 0, 1.71117e-06, 195947
-10733.8, 219963, -324.706, 3.41829, -737.229, -0.0494142, 0.390172, 1.03299, 0.34851, 0.655882, 3, 45.5, 246, 50.7282, 0.231002, 1.01046, 1, 0, 0, 4.51695e-06, 195947
-6352.3, 231251, -380.347, 3.73994, -767.778, 0.00682735, 0.415799, 0.993198, 0.349787, 0.651995, 0.0001, 91, 246, 50.7282, 0.231002, 1.48744, 1, 1, 0, 9.96171e-06, 195947
-6352.3, 231251, -380.347, 3.73994, -767.778, 0.00682735, 0.415799, 0.993198, 0.349787, 0.651995, 3, 91, 246, 50.7282, 0.231002, 1.38863, 1, 1, 0, -1.2789e-05, 195947
-11651, 251608, -293.533, 3.02266, -1088.82, 0.122063, 0.425876, 1.03299, 0.34851, 0.655882, 3, 45.5, 246, 49.5282, 0.218861, 0, 0, 0, 0, -1.07629e-05, 195948
-1718.41, 306342, -422.126, 3.66201, -1213.48, 0.228953, 0.475144, 0.958125, 0.351078, 0.648177, 0.0001, 182, 246, 49.5282, 0.218861, 2.88951, 1, 0, 0, 1.15313e-05, 195948
-1718.41, 306342, -422.126, 3.66201, -1213.48, 0.228953, 0.475144, 0.958125, 0.351078, 0.648177, 3, 182, 246, 49.5282, 0.218861, 2.76894, 1, 0, 0, 7.0349e-06, 195948
-1489.48, 681968, -504.443, 0.508248, -796.057, 0.062633, 0.611205, 0.9175, 0.352806, 0.64323, 3, 455, 246, 37.5039, 0.179429, 0, 0, 0, 0, -1.84946e-05, 195956
-7766.63, 954652, -153.722, 0.640774, -674.29, 0.0139567, 0.25532, 0.9175, 0.352806, 0.64323, 0.0001, 455, 246, 19.9252, 0.0361282, 0, 0, 0, 0, 2.65721e-05, 195957
-6849.96, 465585, -500.609, 4.07446, -959.22, 0.106344, 0.461485, 0.958125, 0.351078, 0.648177, 3, 182, 246, 43.2164, 0.181324, 0, 0, 0, 0, -2.96209e-06, 195958
-11171.9, 386418, -221.313, 0.792513, -697.892, 0.180098, 0.450183, 1.03299, 0.34851, 0.655882, 0.0001, 45.5, 246, 30.1183, 0.142393, 0, 0, 0, 0, 5.96468e-06, 195960
-11171.9, 386418, -221.313, 0.792513, -697.892, 0.180098, 0.450183, 1.03299, 0.34851, 0.655882, 3, 45.5, 246, 30.1183, 0.142393, 0, 0, 0, 0, 9.17531e-06, 195960
-5916.14, -62340.7, 2.52047, 3.51181, -674.705, 0.173113, 0.211932, 1.03299, 0.34851, 0.655882, 0.0001, 45.5, 246, 13.2039, 0.0471885, 3.2224, 1, 1, 0, 1.18862e-06, 195961
-5916.14, -62340.7, 2.52047, 3.51181, -674.705, 0.173113, 0.211932, 1.03299, 0.34851, 0.655882, 3, 45.5, 246, 13.2039, 0.0471885, 3.22182, 1, 1, 0, -1.03081e-05, 195961
-8059.02, 96851.1, -121.358, 2.65202, -1121.54, 0.00906014, 0.312719, 1.03299, 0.34851, 0.655882, 0.0001, 45.5, 246, 39.0853, 0.168654, 0, 0, 1, 0, -9.02983e-06, 195964
-8059.02, 96851.1, -121.358, 2.65202, -1121.54, 0.00906014, 0.312719, 1.03299, 0.34851, 0.655882, 3, 45.5, 246, 39.0853, 0.168654, 0, 0, 1, 0, -2.04518e-06, 195964
-6772.76, 119327, -159.019, 2.86032, -1136.22, 0.0424861, 0.308854, 0.993198, 0.349787, 0.651995, 0.0001, 91, 246, 39.0853, 0.168654, 0, 0, 1, 0, -5.97088e-06, 195964
-6772.76, 119327, -159.019, 2.86032, -1136.22, 0.0424861, 0.308854, 0.993198, 0.349787, 0.651995, 3, 91, 246, 39.0853, 0.168654, 0, 0, 1, 0, 7.67044e-06, 195964
-1302.91, 178197, -273.134, 3.47173, -1216.76, 0.147161, 0.348604, 0.9175, 0.352806, 0.64323, 3, 455, 246, 39.0853, 0.168654, 1.0072, 1, 0, 0, 1.92263e-06, 195964
-10813.6, 231081, -271.994, 2.63427, -1053.09, 0.590531, 0.433989, 1.03299, 0.34851, 0.655882, 3, 45.5, 246, 47.3364, 0.213443, 0, 0, 0, 0, -1.61168e-05, 195966
-12093.5, 170763, 12.934, 1.7985, -852.698, 0.0752346, 0.290932, 1.03299, 0.34851, 0.655882, 0.0001, 45.5, 246, 11.8479, 0.0107648, 0, 0, 1, 0, 1.71441e-05, 195968
-12093.5, 170763, 12.934, 1.7985, -852.698, 0.0752346, 0.290932, 1.03299, 0.34851, 0.655882, 3, 45.5, 246, 11.8479, 0.0107648, 0, 0, 1, 0, -6.34335e-06, 195968
-10447.2, 589238, -140.693, 0.496672, -1055.72, 0.0149022, 0.370632, 1.03299, 0.34851, 0.655882, 0.0001, 45.5, 246, 28.3913, 0.0618621, 0, 0, 0, 0, -1.95289e-05, 195970
-10447.2, 589238, -140.693, 0.496672, -1055.72, 0.0149022, 0.370632, 1.03299, 0.34851, 0.655882, 3, 45.5, 246, 28.3913, 0.0618621, 0, 0, 0, 0, -1.55048e-05, 195970
-7763.67, 630385, -160.751, 0.533362, -1065.2, 0.0173151, 0.30915, 0.958125, 0.351078, 0.648177, 3, 182, 246, 28.3913, 0.0618621, 0, 0, 1, 0, 1.91854e-05, 195970
-6080.85, 68765.4, -149.406, 2.72259, -603.877, 0.110702, 0.289847, 1.03299, 0.34851, 0.655882, 0.0001, 45.5, 246, 44.3701, 0.166226, 1.01269, 1, 1, 0, -5.58473e-06, 195971
-3779.5, 84531.1, -209.424, 3.22274, -661.748, 0.195153, 0.296428, 0.958125, 0.351078, 0.648177, 0.0001, 182, 246, 44.3701, 0.166226, 1.00733, 1, 1, 0, 2.11411e-05, 195971
-1400.57, 98167.8, -262.592, 3.65295, -723.549, 0.274926, 0.332135, 0.9175, 0.352806, 0.64323, 0.0001, 455, 246, 44.3701, 0.166226, 1.39558, 1, 1, 0, -1.21708e-05, 195971
-1400.57, 98167.8, -262.592, 3.65295, -723.549, 0.274926, 0.332135, 0.9175, 0.352806, 0.64323, 3, 455, 246, 44.3701, 0.166226, 1.34541, 1, 1, 0, 1.22986e-05, 195971
-11571.9, 105489, -17.2378, 3.57154, -682.239, 0.0444651, 0.139526, 1.03299, 0.34851, 0.655882, 0.0001, 45.5, 246, 14.8525, 0.0390646, 0, 0, 0, 0, -1.30528e-05, 195972
-11571.9, 105489, -17.2378, 3.57154, -682.239, 0.0444651, 0.139526, 1.03299, 0.34851, 0.655882, 3, 45.5, 246, 14.8525, 0.0390646, 0, 0, 0, 0, -3.45008e-06, 195972
4105.87, 630874, -530.573, 2.70599, -1153.98, 0.220422, 0.522718, 0.9175, 0.352806, 0.64323, 0.0001, 455, 246, 40.647, 0.161453, 0, 0, 0, 0, 7.54422e-06, 195973
4105.87, 630874, -530.573, 2.70599, -1153.98, 0.220422, 0.522718, 0.9175, 0.352806, 0.64323, 3, 455, 246, 40.647, 0.161453, 0, 0, 0, 0, -5.29917e-06, 195973
-3107.89, 84823, -211.07, 3.71042, -1055.35, 0.0717439, 0.260124, 0.993198, 0.349787, 0.651995, 0.0001, 91, 246, 50.6309, 0.17233, 1.3226, 1, 1, 0, 1.87198e-05, 195985
-3107.89, 84823, -211.07, 3.71042, -1055.35, 0.0717439, 0.260124, 0.993198, 0.349787, 0.651995, 3, 91, 246, 50.6309, 0.17233, 1.13137, 1, 1, 0, 1.46714e-05, 195985
-1017.55, 106509, -269.755, 4.08844, -1097.76, 0.140123, 0.293915, 0.958125, 0.351078, 0.648177, 0.0001, 182, 246, 50.6309, 0.17233, 1.83452, 1, 1, 0, 1.73591e-06, 195985
-1017.55, 106509, -269.755, 4.08844, -1097.76, 0.140123, 0.293915, 0.958125, 0.351078, 0.648177, 3, 182, 246, 50.6309, 0.17233, 1.69168, 1, 1, 0, 1.04158e-05, 195985
-8937.29, 112694, -117.759, 2.8051, -1039.74, 0.0361071, 0.286233, 1.03299, 0.34851, 0.655882, 0.0001, 45.5, 246, 35.849, 0.145513, 0, 0, 1, 0, 1.02999e-05, 195988
-8937.29, 112694, -117.759, 2.8051, -1039.74, 0.0361071, 0.286233, 1.03299, 0.34851, 0.655882, 3, 45.5, 246, 35.849, 0.145513, 0, 0, 1, 0, -1.39683e-05, 195988
-3155.81, 54294, -185.222, 3.46431, -664.189, 0.140435, 0.208301, 1.03299, 0.34851, 0.655882, 0.0001, 45.5, 246, 52.8757, 0.136048, 1.44533, 1, 1, 0, 1.51116e-05, 195989
-3155.81, 54294, -185.222, 3.46431, -664.189, 0.140435, 0.208301, 1.03299, 0.34851, 0.655882, 3, 45.5, 246, 52.8757, 0.136048, 1.3074, 1, 1, 0, -9.65569e-06, 195989
-1909, 63567.7, -224.83, 3.81408, -702.195, 0.203095, 0.22309, 0.993198, 0.349787, 0.651995, 0.0001, 91, 246, 52.8757, 0.136048, 1.49543, 1, 1, 0, -1.35908e-05, 195989
-1909, 63567.7, -224.83, 3.81408, -702.195, 0.203095, 0.22309, 0.993198, 0.349787, 0.651995, 3, 91, 246, 52.8757, 0.136048, 1.36618, 1, 1, 0, -9.40875e-06, 195989
-171.934, 74760.1, -273.579, 4.23837, -756.343, 0.283353, 0.259129, 0.958125, 0.351078, 0.648177, 0.0001, 182, 246, 52.8757, 0.136048, 1.7494, 1, 1, 0, 7.27575e-06, 195989
-171.934, 74760.1, -273.579, 4.23837, -756.343, 0.283353, 0.259129, 0.958125, 0.351078, 0.648177, 3, 182, 246, 52.8757, 0.136048, 1.62114, 1, 1, 0, -7.38171e-06, 195989
3262, 94426, -359.243, 4.97387, -866.345, 0.431978, 0.347762, 0.9175, 0.352806, 0.64323, 0.0001, 455, 246, 52.8757, 0.136048, 2.97746, 1, 1, 0, 1.907e-05, 195989
3262, 94426, -359.243, 4.97387, -866.345, 0.431978, 0.347762, 0.9175, 0.352806, 0.64323, 3, 455, 246, 52.8757, 0.136048, 2.9766, 1, 1, 0, 1.68982e-05, 195989
-974.314, 142392, -278.392, 5.38651, -867.675, 0.871033, 0.330589, 0.9175, 0.352806, 0.64323, 0.0001, 455, 246, 30.378, 0.102038, 1.04459, 1, 0, 0, -4.84977e-05, 195994
-974.314, 142392, -278.392, 5.38651, -867.675, 0.871033, 0.330589, 0.9175, 0.352806, 0.64323, 3, 455, 246, 30.378, 0.102038, 1.04718, 1, 0, 0, -7.6009e-07, 195994
