-7209.41, 96855.1, -156.166, 2.73018, -786.66, -0.0348174, 0.31372, 1.03299, 0.34851, 0.655882, 3, 45.5, 246, 43.0728, 0.185109, 0, 0, 1, 0, 1.42699e-05, 198509
-849.918, 138217, -287.273, 3.56788, -859.729, 0.10889, 0.358376, 0.9175, 0.352806, 0.64323, 0.0001, 455, 246, 43.0728, 0.185109, 1.58148, 1, 0, 0, -6.20399e-06, 198509
-849.918, 138217, -287.273, 3.56788, -859.729, 0.10889, 0.358376, 0.9175, 0.352806, 0.64323, 3, 455, 246, 43.0728, 0.185109, 1.57634, 1, 0, 0, -2.517e-06, 198509
-10826, 876520, -4.43303, 0.207734, -932.684, 0.759214, 0.303733, 0.993198, 0.349787, 0.651995, 0.0001, 91, 246, 19.2622, 0.00142284, 0, 0, 1, 0, -1.56055e-05, 198514
-10989.3, 386257, -66.7577, 0.693828, -1135.46, 0.251938, 0.345753, 1.03299, 0.34851, 0.655882, 0.0001, 45.5, 246, 24.9126, 0.0451085, 0, 0, 1, 0, -6.46218e-06, 198516
-10989.3, 386257, -66.7577, 0.693828, -1135.46, 0.251938, 0.345753, 1.03299, 0.34851, 0.655882, 3, 45.5, 246, 24.9126, 0.0451085, 0, 0, 1, 0, -4.16865e-06, 198516
-9968.63, 415270, -76.7996, 0.731244, -1184.12, 0.264704, 0.312116, 0.993198, 0.349787, 0.651995, 0.0001, 91, 246, 24.9126, 0.0451085, 0, 0, 1, 0, -3.64446e-05, 198516
-8711.7, 447164, -87.8073, 0.769668, -1237.71, 0.27884, 0.283172, 0.958125, 0.351078, 0.648177, 0.0001, 182, 246, 24.9126, 0.0451085, 0, 0, 1, 0, -1.52568e-05, 198516
-3685.53, 332645, -477.369, 3.63895, -811.919, 0.0536535, 0.533, 0.958125, 0.351078, 0.648177, 0.0001, 182, 246, 47.4398, 0.227104, 2.90053, 1, 0, 0, 4.91771e-06, 198517
-3685.53, 332645, -477.369, 3.63895, -811.919, 0.0536535, 0.533, 0.958125, 0.351078, 0.648177, 3, 182, 246, 47.4398, 0.227104, 2.7046, 1, 0, 0, -1.42238e-05, 198517
-11133.6, 341689, -59.0965, 0.76808, -978.13, 0.174906, 0.342878, 1.03299, 0.34851, 0.655882, 0.0001, 45.5, 246, 21.8379, 0.0459595, 0, 0, 1, 0, 2.74874e-05, 198521
-11133.6, 341689, -59.0965, 0.76808, -978.13, 0.174906, 0.342878, 1.03299, 0.34851, 0.655882, 3, 45.5, 246, 21.8379, 0.0459595, 0, 0, 1, 0, -1.06472e-05, 198521
-10162.5, 362227, -68.5188, 0.807123, -1007.49, 0.182677, 0.309544, 0.993198, 0.349787, 0.651995, 0.0001, 91, 246, 21.8379, 0.0459595, 0, 0, 1, 0, -3.64307e-06, 198521
-12614.4, 148291, -28.2065, 2.94856, -856.047, 0.0321963, 0.211061, 1.03299, 0.34851, 0.655882, 0.0001, 45.5, 246, 18.5419, 0.0507346, 0, 0, 1, 0, -4.67879e-07, 198524
-12614.4, 148291, -28.2065, 2.94856, -856.047, 0.0321963, 0.211061, 1.03299, 0.34851, 0.655882, 3, 45.5, 246, 18.5419, 0.0507346, 0, 0, 1, 0, -7.7938e-06, 198524
-3433.48, 318067, -450.011, 3.5472, -902.746, 0.382699, 0.507565, 0.958125, 0.351078, 0.648177, 0.0001, 182, 246, 46.5743, 0.221316, 2.05876, 1, 0, 0, 0.000104304, 198528
-3433.48, 318067, -450.011, 3.5472, -902.746, 0.382699, 0.507565, 0.958125, 0.351078, 0.648177, 3, 182, 246, 46.5743, 0.221316, 1.89884, 1, 0, 0, 3.69023e-05, 198528
-9121.87, 838984, -90.873, 0.212098, -936.515, 0.0303631, 0.313409, 0.993198, 0.349787, 0.651995, 0.0001, 91, 246, 23.9416, 0.0270516, 0, 0, 1, 0, -8.98808e-05, 198529
-13751.1, 251433, -373.945, 3.53999, -584.923, 0.356059, 0.386217, 1.03299, 0.34851, 0.655882, 0.0001, 45.5, 246, 48.2169, 0.22106, 1.23706, 1, 0, 0, 3.94977e-07, 198532
-13751.1, 251433, -373.945, 3.53999, -584.923, 0.356059, 0.386217, 1.03299, 0.34851, 0.655882, 3, 45.5, 246, 48.2169, 0.22106, 1.1769, 1, 0, 0, 8.81446e-05, 198532
-8395.49, 265764, -432.313, 3.97154, -663.836, 0.442843, 0.417332, 0.993198, 0.349787, 0.651995, 0.0001, 91, 246, 48.2169, 0.22106, 1.60362, 1, 1, 0, -7.00649e-05, 198532
-8395.49, 265764, -432.313, 3.97154, -663.836, 0.442843, 0.417332, 0.993198, 0.349787, 0.651995, 3, 91, 246, 48.2169, 0.22106, 1.52846, 1, 1, 0, -1.22109e-05, 198532
-8334.55, 431918, -347.842, 0.231468, -630.634, 0.00386711, 0.592438, 0.993198, 0.349787, 0.651995, 0.0001, 91, 246, 36.6772, 0.211882, 0, 0, 1, 0, -6.04991e-05, 198534
-6734.52, -9524.17, -36.758, 3.1096, -681.307, -0.0459171, 0.227389, 1.03299, 0.34851, 0.655882, 0.0001, 45.5, 246, 25.0804, 0.00925466, 0, 0, 1, 1, 3.17764e-06, 198537
-6734.52, -9524.17, -36.758, 3.1096, -681.307, -0.0459171, 0.227389, 1.03299, 0.34851, 0.655882, 3, 45.5, 246, 25.0804, 0.00925466, 0, 0, 1, 1, -6.08069e-06, 198537
-6815.44, 17530, -132.218, 4.156, -721.828, 0.144993, 0.302977, 0.9175, 0.352806, 0.64323, 3, 455, 246, 25.0804, 0.00925466, 0, 0, 1, 1, 9.05412e-06, 198537
-8737.13, 55518.3, -47.1396, 2.2194, -636.673, 0.623648, 0.283007, 1.03299, 0.34851, 0.655882, 3, 45.5, 246, 21.4339, 0.078911, 0, 0, 1, 0, 8.25378e-05, 198542
-8305.57, 65293.6, -64.5957, 2.45578, -711.261, 0.718418, 0.267421, 0.993198, 0.349787, 0.651995, 0.0001, 91, 246, 21.4339, 0.078911, 0, 0, 1, 0, 1.51465e-05, 198542
-8305.57, 65293.6, -64.5957, 2.45578, -711.261, 0.718418, 0.267421, 0.993198, 0.349787, 0.651995, 3, 91, 246, 21.4339, 0.078911, 0, 0, 1, 0, -8.20609e-05, 198542
-7624.48, 78066.9, -87.0299, 2.7396, -809.78, 0.843816, 0.263521, 0.958125, 0.351078, 0.648177, 0.0001, 182, 246, 21.4339, 0.078911, 0, 0, 1, 0, 2.82956e-05, 198542
-7624.48, 78066.9, -87.0299, 2.7396, -809.78, 0.843816, 0.263521, 0.958125, 0.351078, 0.648177, 3, 182, 246, 21.4339, 0.078911, 0, 0, 1, 0, -5.08961e-05, 198542
-6140.17, 102622, -128.402, 3.22618, -1000.93, 1.08701, 0.278857, 0.9175, 0.352806, 0.64323, 0.0001, 455, 246, 21.4339, 0.078911, 0, 0, 1, 0, -9.22951e-05, 198542
-6140.17, 102622, -128.402, 3.22618, -1000.93, 1.08701, 0.278857, 0.9175, 0.352806, 0.64323, 3, 455, 246, 21.4339, 0.078911, 0, 0, 1, 0, 4.92374e-06, 198542
-9113.62, 593714, -219.666, 0.234812, -678.817, 0.568656, 0.411297, 1.03299, 0.34851, 0.655882, 0.0001, 45.5, 246, 24.728, 0.0866533, 0, 0, 1, 0, 1.10405e-05, 198543
-9113.62, 593714, -219.666, 0.234812, -678.817, 0.568656, 0.411297, 1.03299, 0.34851, 0.655882, 3, 45.5, 246, 24.728, 0.0866533, 0, 0, 1, 0, 7.26574e-05, 198543
-8271.38, 622552, -228.448, 0.250289, -747.352, 0.625083, 0.380629, 0.993198, 0.349787, 0.651995, 0.0001, 91, 246, 24.728, 0.0866533, 0, 0, 1, 0, 3.68102e-05, 198543
-7269.16, 656542, -237.245, 0.267039, -830.954, 0.693919, 0.354167, 0.958125, 0.351078, 0.648177, 0.0001, 182, 246, 24.728, 0.0866533, 0, 0, 1, 0, 4.1832e-05, 198543
-9485.06, 53971.2, 4.24335, 2.94976, -1097.81, -0.0343215, 0.223281, 1.03299, 0.34851, 0.655882, 0.0001, 45.5, 246, 15.8984, 0.049628, 1.11892, 1, 1, 0, 7.00934e-06, 198546
-9485.06, 53971.2, 4.24335, 2.94976, -1097.81, -0.0343215, 0.223281, 1.03299, 0.34851, 0.655882, 3, 45.5, 246, 15.8984, 0.049628, 1.05567, 1, 1, 0, -1.51137e-05, 198546
-8834.34, 74534.4, -26.0693, 3.18475, -1096.22, 0.00697915, 0.221736, 0.993198, 0.349787, 0.651995, 0.0001, 91, 246, 15.8984, 0.049628, 0, 0, 1, 0, -7.79135e-06, 198546
-8834.34, 74534.4, -26.0693, 3.18475, -1096.22, 0.00697915, 0.221736, 0.993198, 0.349787, 0.651995, 3, 91, 246, 15.8984, 0.049628, 0, 0, 1, 0, 4.46335e-06, 198546
-11657.6, 260543, -228.486, 1.51663, -596.05, 0.00546454, 0.468169, 1.03299, 0.34851, 0.655882, 0.0001, 45.5, 246, 35.8621, 0.197469, 0, 0, 1, 0, -6.35339e-06, 198550
-6367.75, -6025.45, -39.9788, 3.36675, -791.122, 0.331174, 0.196573, 1.03299, 0.34851, 0.655882, 3, 45.5, 246, 26.0457, 0.0274276, 0, 0, 1, 0, -1.183e-06, 198552
-4915.94, 641063, -220.456, 3.00433, -797.653, 0.129205, 0.256802, 0.9175, 0.352806, 0.64323, 3, 455, 246, 22.4899, 0.055128, 0, 0, 0, 0, 4.61531e-05, 198554
-6762.11, 5934.76, -63.1131, 3.59015, -1014.25, 0.00129383, 0.225027, 0.993198, 0.349787, 0.651995, 0.0001, 91, 246, 25.6799, 0.0418078, 0, 0, 1, 1, 5.01261e-06, 198555
-6762.11, 5934.76, -63.1131, 3.59015, -1014.25, 0.00129383, 0.225027, 0.993198, 0.349787, 0.651995, 3, 91, 246, 25.6799, 0.0418078, 0, 0, 1, 1, 8.3642e-06, 198555
225.481, 521034, -351.605, 4.18803, -1006.77, 0.671633, 0.323267, 0.9175, 0.352806, 0.64323, 3, 455, 246, 27.4228, 0.0954027, 0, 0, 0, 0, 0.00013357, 198556
-7755.31, 363385, -324.023, 0.437267, -859.899, 0.0356126, 0.605087, 0.993198, 0.349787, 0.651995, 0.0001, 91, 246, 42.2612, 0.238735, 0, 0, 1, 0, 3.65345e-05, 198562
-6766.37, 67468.8, -119.315, 3.63021, -1157.62, 1.33653, 0.287841, 0.9175, 0.352806, 0.64323, 3, 455, 246, 19.3772, 0.0550572, 0, 0, 1, 0, 2.29169e-05, 198570
-9279.65, 167253, -197.888, 2.34714, -876.623, -0.0207454, 0.399586, 1.03299, 0.34851, 0.655882, 0.0001, 45.5, 246, 43.1703, 0.211166, 0, 0, 1, 0, -1.57799e-05, 198571
-9279.65, 167253, -197.888, 2.34714, -876.623, -0.0207454, 0.399586, 1.03299, 0.34851, 0.655882, 3, 45.5, 246, 43.1703, 0.211166, 0, 0, 1, 0, 3.68367e-06, 198571
-7249.2, 181307, -231.935, 2.51849, -889.256, 0.00523235, 0.394658, 0.993198, 0.349787, 0.651995, 0.0001, 91, 246, 43.1703, 0.211166, 0, 0, 1, 0, -4.46639e-06, 198571
-7249.2, 181307, -231.935, 2.51849, -889.256, 0.00523235, 0.394658, 0.993198, 0.349787, 0.651995, 3, 91, 246, 43.1703, 0.211166, 0, 0, 1, 0, -8.87472e-06, 198571
-287.779, 219300, -331.161, 3.00442, -950.551, 0.0832841, 0.423192, 0.9175, 0.352806, 0.64323, 0.0001, 455, 246, 43.1703, 0.211166, 1.00559, 1, 0, 0, 1.22029e-05, 198571
-287.779, 219300, -331.161, 3.00442, -950.551, 0.0832841, 0.423192, 0.9175, 0.352806, 0.64323, 3, 455, 246, 43.1703, 0.211166, 1.19124, 1, 0, 0, 1.91149e-05, 198571
-9761.55, 434764, -214.534, 0.642204, -996.323, -0.00168788, 0.439811, 1.03299, 0.34851, 0.655882, 0.0001, 45.5, 246, 33.2599, 0.127377, 0, 0, 0, 0, 6.04789e-05, 198576
-9761.55, 434764, -214.534, 0.642204, -996.323, -0.00168788, 0.439811, 1.03299, 0.34851, 0.655882, 3, 45.5, 246, 33.2599, 0.127377, 0, 0, 0, 0, -1.20723e-06, 198576
-9192.62, 64072.9, -15.9231, 1.39639, -751.035, -0.00864123, 0.322505, 1.03299, 0.34851, 0.655882, 0.0001, 45.5, 246, 13.842, 0.057206, 0, 0, 1, 0, -1.90647e-05, 198577
-9192.62, 64072.9, -15.9231, 1.39639, -751.035, -0.00864123, 0.322505, 1.03299, 0.34851, 0.655882, 3, 45.5, 246, 13.842, 0.057206, 0, 0, 1, 0, -1.31861e-05, 198577
-6742.42, 635747, -360.609, 0.205225, -1070.82, 0.234921, 0.532099, 1.03299, 0.34851, 0.655882, 0.0001, 45.5, 246, 38.8811, 0.142268, 0, 0, 0, 0, 1311.86, 198590
-3313.95, 701524, -390.426, 0.225443, -1161.2, 0.254201, 0.495985, 0.958125, 0.351078, 0.648177, 0.0001, 182, 246, 38.8811, 0.142268, 4.01975, 1, 0, 0, 1199.86, 198590
-3313.95, 701524, -390.426, 0.225443, -1161.2, 0.254201, 0.495985, 0.958125, 0.351078, 0.648177, 3, 182, 246, 38.8811, 0.142268, 4.01953, 1, 0, 0, 1199.82, 198590
-6617.95, 135465, -143.265, 3.6107, -1065.36, 0.727329, 0.250377, 0.958125, 0.351078, 0.648177, 3, 182, 246, 26.4303, 0.0920917, 0, 0, 1, 0, -9.52206e-06, 198593
-2832.91, 176761, -218.398, 4.31369, -1295.53, 0.964838, 0.305171, 0.9175, 0.352806, 0.64323, 0.0001, 455, 246, 26.4303, 0.0920917, 0, 0, 0, 0, 1.40538e-05, 198593
-2832.91, 176761, -218.398, 4.31369, -1295.53, 0.964838, 0.305171, 0.9175, 0.352806, 0.64323, 3, 455, 246, 26.4303, 0.0920917, 0, 0, 0, 0, -2.30233e-05, 198593
-7930.31, 59546.4, -48.2088, 3.80601, -1164.62, 0.00832173, 0.190861, 0.993198, 0.349787, 0.651995, 0.0001, 91, 246, 20.0459, 0.0647964, 1.04105, 1, 1, 0, 1.71181e-05, 198604
-7930.31, 59546.4, -48.2088, 3.80601, -1164.62, 0.00832173, 0.190861, 0.993198, 0.349787, 0.651995, 3, 91, 246, 20.0459, 0.0647964, 1.00521, 1, 1, 0, 2.39357e-06, 198604
-9588.51, 114576, -123.332, 3.41199, -771.362, 0.257944, 0.19746, 1.03299, 0.34851, 0.655882, 0.0001, 45.5, 246, 32.2526, 0.114202, 0, 0, 0, 0, 1.99919e-05, 198607
-9588.51, 114576, -123.332, 3.41199, -771.362, 0.257944, 0.19746, 1.03299, 0.34851, 0.655882, 3, 45.5, 246, 32.2526, 0.114202, 0, 0, 0, 0, -8.52848e-07, 198607
-396.659, 170749, -291.822, 5.00357, -1031.03, 0.595473, 0.332097, 0.9175, 0.352806, 0.64323, 0.0001, 455, 246, 32.2526, 0.114202, 1.27306, 1, 0, 0, -8.93672e-06, 198607
-396.659, 170749, -291.822, 5.00357, -1031.03, 0.595473, 0.332097, 0.9175, 0.352806, 0.64323, 3, 455, 246, 32.2526, 0.114202, 1.27887, 1, 0, 0, -1.28335e-05, 198607
-8826.21, 962853, -65.4236, 1.01243, -1052.35, 0.0151984, 0.233858, 0.9175, 0.352806, 0.64323, 3, 455, 246, 25.047, 0.0120498, 0, 0, 0, 0, -2.00108e-05, 198608
-9123.07, 153729, -169.884, 2.09395, -905.099, -0.0165179, 0.396183, 1.03299, 0.34851, 0.655882, 0.0001, 45.5, 246, 40.8466, 0.204216, 0, 0, 1, 0, 3.46135e-06, 198613
-9123.07, 153729, -169.884, 2.09395, -905.099, -0.0165179, 0.396183, 1.03299, 0.34851, 0.655882, 3, 45.5, 246, 40.8466, 0.204216, 0, 0, 1, 0, -2.03931e-05, 198613
-8730.41, 250354, -171.796, 1.0826, -923.741, 0.394162, 0.393007, 0.993198, 0.349787, 0.651995, 0.0001, 91, 246, 32.2137, 0.15723, 0, 0, 1, 0, -7.14847e-05, 198616
-9013.6, 227717, -124.323, 1.34164, -1109.18, 0.422699, 0.341382, 0.993198, 0.349787, 0.651995, 0.0001, 91, 246, 29.092, 0.118021, 0, 0, 1, 0, 2.70722e-05, 198621
-6454.01, 86963.6, -112.006, 3.42498, -1031.91, 0.125948, 0.277699, 0.9175, 0.352806, 0.64323, 3, 455, 246, 17.0061, 0.061227, 0, 0, 1, 0, -9.72913e-06, 198625
-8548.74, 261982, -390.847, 3.39777, -643.84, 0.00785657, 0.463621, 0.993198, 0.349787, 0.651995, 0.0001, 91, 246, 47.7091, 0.232205, 1.23564, 1, 1, 0, 1.16512e-05, 198631
-8548.74, 261982, -390.847, 3.39777, -643.84, 0.00785657, 0.463621, 0.993198, 0.349787, 0.651995, 3, 91, 246, 47.7091, 0.232205, 1.11026, 1, 1, 0, 8.05244e-06, 198631
-2994.97, 272951, -449.809, 3.72845, -686.878, 0.063702, 0.501161, 0.958125, 0.351078, 0.648177, 0.0001, 182, 246, 47.7091, 0.232205, 2.50987, 1, 0, 0, -6.55967e-06, 198631
-2994.97, 272951, -449.809, 3.72845, -686.878, 0.063702, 0.501161, 0.958125, 0.351078, 0.648177, 3, 182, 246, 47.7091, 0.232205, 2.32902, 1, 0, 0, -1.01883e-05, 198631
-10552, 157884, -71.6129, 1.83103, -1051.63, 0.0559463, 0.322834, 1.03299, 0.34851, 0.655882, 0.0001, 45.5, 246, 26.1521, 0.0984548, 0, 0, 1, 0, 2.1108e-06, 198641
-10552, 157884, -71.6129, 1.83103, -1051.63, 0.0559463, 0.322834, 1.03299, 0.34851, 0.655882, 3, 45.5, 246, 26.1521, 0.0984548, 0, 0, 1, 0, 1.20925e-05, 198641
-9358.44, 177919, -94.0591, 1.94913, -1066.44, 0.0722701, 0.301458, 0.993198, 0.349787, 0.651995, 0.0001, 91, 246, 26.1521, 0.0984548, 0, 0, 1, 0, -1.31076e-05, 198641
-6318.61, -89651.4, 21.8478, 3.25184, -866.994, 0.0863897, 0.256125, 1.03299, 0.34851, 0.655882, 0.0001, 45.5, 246, 3.84674, 0.0973106, 0, 0, 1, 0, -8.35273e-06, 198644
-6318.61, -89651.4, 21.8478, 3.25184, -866.994, 0.0863897, 0.256125, 1.03299, 0.34851, 0.655882, 3, 45.5, 246, 3.84674, 0.0973106, 0, 0, 1, 0, -2.8561e-06, 198644
-6985.03, 453922, -374.935, 0.0923218, -972.376, 0.519957, 0.630946, 1.03299, 0.34851, 0.655882, 0.0001, 45.5, 246, 42.2106, 0.207084, 5.05793, 1, 0, 0, -8.93571e-05, 198647
-6985.03, 453922, -374.935, 0.0923218, -972.376, 0.519957, 0.630946, 1.03299, 0.34851, 0.655882, 3, 45.5, 246, 42.2106, 0.207084, 5.06834, 1, 0, 0, 5.94739e-05, 198647
-4276.26, 528377, -403.965, 0.105106, -1165.82, 0.622302, 0.614779, 0.958125, 0.351078, 0.648177, 0.0001, 182, 246, 42.2106, 0.207084, 0, 0, 0, 0, -3.38123e-05, 198647
-10468.2, 335335, -104.215, 0.730183, -925.862, 0.397767, 0.363578, 1.03299, 0.34851, 0.655882, 0.0001, 45.5, 246, 24.8299, 0.075494, 0, 0, 1, 0, -4.3905e-06, 198653
-9484.54, 359046, -114.94, 0.776758, -990.403, 0.427105, 0.331527, 0.993198, 0.349787, 0.651995, 0.0001, 91, 246, 24.8299, 0.075494, 0, 0, 1, 0, 2.32064e-05, 198653
-9858.84, 547952, -182.258, 0.344334, -712.093, 0.850054, 0.389493, 1.03299, 0.34851, 0.655882, 0.0001, 45.5, 246, 23.766, 0.0738258, 0, 0, 1, 0, 5.44992e-05, 198655
-9858.84, 547952, -182.258, 0.344334, -712.093, 0.850054, 0.389493, 1.03299, 0.34851, 0.655882, 3, 45.5, 246, 23.766, 0.0738258, 0, 0, 1, 0, -7.58028e-05, 198655
-8920.88, 586072, -190.992, 0.373753, -824.523, 0.982609, 0.35742, 0.993198, 0.349787, 0.651995, 3, 91, 246, 23.766, 0.0738258, 0, 0, 1, 0, 8.24956e-05, 198655
-11395.5, 97115.7, 24.1994, 3.10619, -1010.64, -0.028971, 0.193329, 1.03299, 0.34851, 0.655882, 0.0001, 45.5, 246, 12.799, 0.0249613, 0, 0, 1, 0, -9.08298e-06, 198656
-11395.5, 97115.7, 24.1994, 3.10619, -1010.64, -0.028971, 0.193329, 1.03299, 0.34851, 0.655882, 3, 45.5, 246, 12.799, 0.0249613, 0, 0, 0, 0, 3.92548e-07, 198656
-10285.1, 262431, -191.365, 1.28455, -1020.93, 0.308906, 0.440032, 1.03299, 0.34851, 0.655882, 0.0001, 45.5, 246, 36.7806, 0.169246, 0, 0, 0, 0, 1.02816e-05, 198662
-10285.1, 262431, -191.365, 1.28455, -1020.93, 0.308906, 0.440032, 1.03299, 0.34851, 0.655882, 3, 45.5, 246, 36.7806, 0.169246, 0, 0, 0, 0, 2.38839e-05, 198662
-8597.23, 286946, -214.252, 1.37674, -1081.26, 0.332926, 0.419528, 0.993198, 0.349787, 0.651995, 3, 91, 246, 36.7806, 0.169246, 0, 0, 1, 0, -2.0863e-05, 198662
-11061.5, 378348, -475.26, 3.99445, -1171.39, 0.97807, 0.458451, 0.993198, 0.349787, 0.651995, 0.0001, 91, 246, 49.5932, 0.205354, 1.14108, 1, 1, 0, 5.35777e-05, 198663
-11061.5, 378348, -475.26, 3.99445, -1171.39, 0.97807, 0.458451, 0.993198, 0.349787, 0.651995, 3, 91, 246, 49.5932, 0.205354, 1.05547, 1, 1, 0, 3.15531e-05, 198663
-8716.36, 224670, -170.289, 1.25644, -925.216, 0.849655, 0.387869, 0.993198, 0.349787, 0.651995, 0.0001, 91, 246, 32.3131, 0.161494, 0, 0, 1, 0, 7.85981e-06, 198666
-9374.13, 478452, -170.104, 0.515808, -1108.16, 0.341365, 0.393795, 1.03299, 0.34851, 0.655882, 0.0001, 45.5, 246, 31.1264, 0.0865877, 0, 0, 0, 0, -8.55563e-05, 198677
-9374.13, 478452, -170.104, 0.515808, -1108.16, 0.341365, 0.393795, 1.03299, 0.34851, 0.655882, 3, 45.5, 246, 31.1264, 0.0865877, 0, 0, 0, 0, 5.02075e-05, 198677
-3408.62, 203792, -299.192, 4.06919, -1093.68, 0.746322, 0.315532, 0.958125, 0.351078, 0.648177, 0.0001, 182, 246, 40.5146, 0.162774, 1.05197, 1, 0, 0, -2.66388e-05, 198685
-11420.1, 370162, -99.5016, 0.927752, -1102.85, 0.00215711, 0.356228, 1.03299, 0.34851, 0.655882, 3, 45.5, 246, 27.0375, 0.0702928, 0, 0, 1, 0, 8.62907e-06, 198687
-10435.2, 283555, -185.658, 1.15781, -962.771, 0.0260676, 0.435228, 1.03299, 0.34851, 0.655882, 0.0001, 45.5, 246, 34.8572, 0.160288, 0, 0, 0, 0, -1.37673e-05, 198688
-10435.2, 283555, -185.658, 1.15781, -962.771, 0.0260676, 0.435228, 1.03299, 0.34851, 0.655882, 3, 45.5, 246, 34.8572, 0.160288, 0, 0, 0, 0, 2.88106e-06, 198688
-8855.26, 300923, -205.481, 1.21877, -973.353, 0.0324005, 0.412689, 0.993198, 0.349787, 0.651995, 3, 91, 246, 34.8572, 0.160288, 0, 0, 1, 0, 1.42965e-05, 198688
-8560.3, 575876, -189.626, 0.340457, -1067.92, 0.640314, 0.393696, 1.03299, 0.34851, 0.655882, 0.0001, 45.5, 246, 30.7558, 0.0757353, 0, 0, 0, 0, 7.79859e-05, 198690
-8560.3, 575876, -189.626, 0.340457, -1067.92, 0.640314, 0.393696, 1.03299, 0.34851, 0.655882, 3, 45.5, 246, 30.7558, 0.0757353, 0, 0, 0, 0, -4.71758e-05, 198690
-7526.72, 620067, -199.709, 0.364948, -1190.1, 0.713003, 0.361932, 0.993198, 0.349787, 0.651995, 3, 91, 246, 30.7558, 0.0757353, 0, 0, 1, 0, 5.00596e-05, 198690
-8807.15, 402234, -346.055, 0.66681, -1143.65, 0.0547863, 0.633317, 1.03299, 0.34851, 0.655882, 0.0001, 45.5, 246, 46.5212, 0.226543, 0, 0, 0, 0, -8.88613e-06, 198693
-8807.15, 402234, -346.055, 0.66681, -1143.65, 0.0547863, 0.633317, 1.03299, 0.34851, 0.655882, 3, 45.5, 246, 46.5212, 0.226543, 0, 0, 0, 0, -2.65213e-06, 198693
-243.709, 495656, -428.332, 0.782146, -1204.69, 0.0642859, 0.624891, 0.9175, 0.352806, 0.64323, 3, 455, 246, 46.5212, 0.226543, 0, 0, 0, 0, -1.38182e-05, 198693
-9525.57, 431670, -90.5466, 0.520607, -914.358, 0.186774, 0.319625, 0.993198, 0.349787, 0.651995, 0.0001, 91, 246, 22.1508, 0.0514305, 0, 0, 1, 0, -1.88032e-05, 198695
-10807.7, 296892, -183.47, 1.1339, -906.081, 0.358513, 0.422761, 1.03299, 0.34851, 0.655882, 0.0001, 45.5, 246, 32.8751, 0.144988, 0, 0, 0, 0, 2.0787e-05, 198696
-9118.88, 119715, -124.284, 3.04549, -1100.3, 0.111345, 0.265714, 1.03299, 0.34851, 0.655882, 0.0001, 45.5, 246, 36.7357, 0.142902, 0, 0, 0, 0, -8.3937e-06, 198698
-9118.88, 119715, -124.284, 3.04549, -1100.3, 0.111345, 0.265714, 1.03299, 0.34851, 0.655882, 3, 45.5, 246, 36.7357, 0.142902, 0, 0, 0, 0, 1.41677e-06, 198698
236.766, 208318, -306.656, 4.19827, -1292.89, 0.321605, 0.347639, 0.9175, 0.352806, 0.64323, 0.0001, 455, 246, 36.7357, 0.142902, 1.82205, 1, 0, 0, 1.86862e-06, 198698
236.766, 208318, -306.656, 4.19827, -1292.89, 0.321605, 0.347639, 0.9175, 0.352806, 0.64323, 3, 455, 246, 36.7357, 0.142902, 2.00663, 1, 0, 0, 7.0693e-06, 198698
-15157.1, -153364, -23.0507, 0.65966, -1144.48, 0.179268, 0.423688, 1.03299, 0.34851, 0.655882, 0.0001, 45.5, 246, -73.029, 0.236207, 0, 0, 1, 0, -1.42509e-05, 198713
-15157.1, -153364, -23.0507, 0.65966, -1144.48, 0.179268, 0.423688, 1.03299, 0.34851, 0.655882, 3, 45.5, 246, -73.029, 0.236207, 0, 0, 1, 0, 3.30881e-06, 198713
-8637.68, 539772, -371.012, 0.0635474, -638.13, 0.500705, 0.570848, 1.03299, 0.34851, 0.655882, 0.0001, 45.5, 246, 32.9271, 0.167286, 0, 0, 0, 0, 1.90238e-05, 198717
-8637.68, 539772, -371.012, 0.0635474, -638.13, 0.500705, 0.570848, 1.03299, 0.34851, 0.655882, 3, 45.5, 246, 32.9271, 0.167286, 0, 0, 0, 0, 2.72905e-05, 198717
-8907.64, 179763, -310.581, 3.47496, -657.339, 0.55775, 0.321357, 1.03299, 0.34851, 0.655882, 0.0001, 45.5, 246, 49.3239, 0.209897, 1.39357, 1, 0, 0, 5.51842e-06, 198720
-8907.64, 179763, -310.581, 3.47496, -657.339, 0.55775, 0.321357, 1.03299, 0.34851, 0.655882, 3, 45.5, 246, 49.3239, 0.209897, 1.31839, 1, 0, 0, -2.14201e-05, 198720
-5056.14, 196125, -364.254, 3.93268, -758.774, 0.677619, 0.345692, 0.993198, 0.349787, 0.651995, 0.0001, 91, 246, 49.3239, 0.209897, 1.61712, 1, 1, 0, -4.42726e-05, 198720
-5056.14, 196125, -364.254, 3.93268, -758.774, 0.677619, 0.345692, 0.993198, 0.349787, 0.651995, 3, 91, 246, 49.3239, 0.209897, 1.52238, 1, 1, 0, -1.95528e-05, 198720
-5664.9, 370635, -432.284, 3.82575, -887.085, 0.119933, 0.43479, 0.958125, 0.351078, 0.648177, 0.0001, 182, 246, 42.1495, 0.185176, 1.06071, 1, 0, 0, -1.50787e-05, 198722
-930.516, 714107, -433.062, 0.396868, -1055.31, 0.173702, 0.50946, 0.9175, 0.352806, 0.64323, 0.0001, 455, 246, 37.9662, 0.152552, 2.07324, 1, 0, 0, 616.537, 198724
-930.516, 714107, -433.062, 0.396868, -1055.31, 0.173702, 0.50946, 0.9175, 0.352806, 0.64323, 3, 455, 246, 37.9662, 0.152552, 1.94692, 1, 0, 0, 611.751, 198724
-10166.5, 115493, -83.8158, 3.23899, -1059.91, 0.117659, 0.214609, 1.03299, 0.34851, 0.655882, 0.0001, 45.5, 246, 29.9927, 0.10364, 0, 0, 0, 0, 1.19773e-05, 198728
-10166.5, 115493, -83.8158, 3.23899, -1059.91, 0.117659, 0.214609, 1.03299, 0.34851, 0.655882, 3, 45.5, 246, 29.9927, 0.10364, 0, 0, 0, 0, 1.13797e-05, 198728
-9803.09, 396129, -297.208, 0.852958, -1080.92, 0.0250868, 0.550741, 1.03299, 0.34851, 0.655882, 0.0001, 45.5, 246, 42.0832, 0.193706, 0, 0, 0, 0, -1.20317e-05, 198729
-9803.09, 396129, -297.208, 0.852958, -1080.92, 0.0250868, 0.550741, 1.03299, 0.34851, 0.655882, 3, 45.5, 246, 42.0832, 0.193706, 0, 0, 0, 0, 4.86097e-05, 198729
-9407.58, 218121, -291.98, 2.94678, -1148.35, -0.0416084, 0.46311, 1.03299, 0.34851, 0.655882, 0.0001, 45.5, 246, 53.4893, 0.24819, 0, 0, 0, 0, -1.15146e-05, 198731
-5627.44, 242816, -350.15, 3.2016, -1170.39, -8.92933e-05, 0.479636, 0.993198, 0.349787, 0.651995, 3, 91, 246, 53.4893, 0.24819, 0, 0, 1, 0, 1.80959e-05, 198731
-660.534, 270325, -418.7, 3.49935, -1208.72, 0.0492168, 0.511873, 0.958125, 0.351078, 0.648177, 3, 182, 246, 53.4893, 0.24819, 0, 0, 0, 0, 7.60216e-06, 198731
-9299.27, 289454, -130.917, 0.750139, -698.294, 0.0224487, 0.35315, 0.993198, 0.349787, 0.651995, 0.0001, 91, 246, 24.258, 0.109167, 0, 0, 1, 0, 3.79005e-05, 198733
-10976.2, 155527, -67.6764, 1.88761, -804.496, 0.636248, 0.307484, 1.03299, 0.34851, 0.655882, 0.0001, 45.5, 246, 22.6507, 0.0834082, 0, 0, 1, 0, 1.04585e-06, 198737
-6386.64, 360938, -462.02, 3.49465, -660.446, 0.143758, 0.507299, 0.958125, 0.351078, 0.648177, 0.0001, 182, 246, 41.8306, 0.207482, 1.1624, 1, 0, 0, -2.23179e-05, 198743
-1877.91, 74572.9, -262.004, 5.03593, -1004.45, 0.346704, 0.32866, 0.9175, 0.352806, 0.64323, 0.0001, 455, 246, 38.388, 0.0733302, 1.25924, 1, 1, 0, 1.27244e-05, 198744
-1877.91, 74572.9, -262.004, 5.03593, -1004.45, 0.346704, 0.32866, 0.9175, 0.352806, 0.64323, 3, 455, 246, 38.388, 0.0733302, 1.19365, 1, 1, 0, 5.42009e-06, 198744
-10868.5, 214915, -93.5583, 1.12029, -551.088, 0.684269, 0.352649, 1.03299, 0.34851, 0.655882, 0.0001, 45.5, 246, 20.4428, 0.0916785, 0, 0, 1, 0, 5.63041e-06, 198745
-9921.25, 229392, -104.225, 1.22027, -621.43, 0.77397, 0.323421, 0.993198, 0.349787, 0.651995, 0.0001, 91, 246, 20.4428, 0.0916785, 0, 0, 1, 0, 3.73489e-05, 198745
-7122.73, 392947, -361.248, 0.252312, -978.639, 0.694242, 0.644803, 0.993198, 0.349787, 0.651995, 0.0001, 91, 246, 43.2309, 0.240384, 0, 0, 1, 0, 9.85574e-05, 198748
-7281, -11017.9, -16.3187, 2.73337, -941.895, 0.825139, 0.253961, 1.03299, 0.34851, 0.655882, 0.0001, 45.5, 246, 21.0172, 0.0470258, 0, 0, 1, 0, -1.49347e-05, 198750
-7281, -11017.9, -16.3187, 2.73337, -941.895, 0.825139, 0.253961, 1.03299, 0.34851, 0.655882, 3, 45.5, 246, 21.0172, 0.0470258, 0, 0, 1, 0, 1.50095e-05, 198750
-10283.9, 224413, -283.075, 2.55033, -1002.26, 0.54088, 0.462986, 1.03299, 0.34851, 0.655882, 3, 45.5, 246, 48.8284, 0.229765, 0, 0, 0, 0, 6.90384e-05, 198758
-8895.17, 139283, -135.602, 1.46178, -1023.63, -0.00682762, 0.415334, 1.03299, 0.34851, 0.655882, 3, 45.5, 246, 38.2688, 0.20957, 0, 0, 1, 0, 6.93343e-06, 198770
-10369.4, 607233, -74.1703, 0.330394, -893.359, 0.00592802, 0.348163, 1.03299, 0.34851, 0.655882, 0.0001, 45.5, 246, 21.9548, 0.0320962, 0, 0, 1, 0, -1.646e-05, 198772
-10369.4, 607233, -74.1703, 0.330394, -893.359, 0.00592802, 0.348163, 1.03299, 0.34851, 0.655882, 3, 45.5, 246, 21.9548, 0.0320962, 0, 0, 1, 0, -8.44772e-06, 198772
-9677.36, 621514, -79.2883, 0.34137, -894.91, 0.00642943, 0.312909, 0.993198, 0.349787, 0.651995, 0.0001, 91, 246, 21.9548, 0.0320962, 0, 0, 1, 0, -4.3762e-06, 198772
-10777.2, 125936, -52.8822, 2.4119, -819.364, 0.0133705, 0.271703, 1.03299, 0.34851, 0.655882, 0.0001, 45.5, 246, 21.647, 0.0775009, 0, 0, 1, 0, 6.97173e-06, 198774
-10777.2, 125936, -52.8822, 2.4119, -819.364, 0.0133705, 0.271703, 1.03299, 0.34851, 0.655882, 3, 45.5, 246, 21.647, 0.0775009, 0, 0, 1, 0, 5.1095e-06, 198774
-5302.83, 167899, -141.66, 3.08222, -870.556, 0.124826, 0.26993, 0.9175, 0.352806, 0.64323, 3, 455, 246, 21.647, 0.0775009, 0, 0, 1, 0, 5.69971e-06, 198774
-6085.54, 446734, -548.705, 3.61679, -866.227, 0.390022, 0.584788, 0.958125, 0.351078, 0.648177, 0.0001, 182, 246, 44.7923, 0.212757, 0, 0, 0, 0, -0.000311379, 198776
-6085.54, 446734, -548.705, 3.61679, -866.227, 0.390022, 0.584788, 0.958125, 0.351078, 0.648177, 3, 182, 246, 44.7923, 0.212757, 1.99238, 1, 0, 0, 0.000146023, 198776
-8070.16, 358447, -243.418, 0.713037, -974.088, 0.222542, 0.458558, 0.993198, 0.349787, 0.651995, 0.0001, 91, 246, 35.9663, 0.169733, 0, 0, 1, 0, 4.15239e-06, 198777
-6528.93, 381254, -260.019, 0.751529, -1014.72, 0.233092, 0.440285, 0.958125, 0.351078, 0.648177, 0.0001, 182, 246, 35.9663, 0.169733, 0, 0, 0, 0, -1.70496e-05, 198777
-6528.93, 381254, -260.019, 0.751529, -1014.72, 0.233092, 0.440285, 0.958125, 0.351078, 0.648177, 3, 182, 246, 35.9663, 0.169733, 0, 0, 0, 0, 2.31192e-05, 198777
-4979.85, 130293, -193.761, 2.95965, -1240.28, 1.1984, 0.316163, 0.958125, 0.351078, 0.648177, 0.0001, 182, 246, 39.538, 0.173148, 0, 0, 1, 0, 4.88314e-05, 198793
-4979.85, 130293, -193.761, 2.95965, -1240.28, 1.1984, 0.316163, 0.958125, 0.351078, 0.648177, 3, 182, 246, 39.538, 0.173148, 0, 0, 1, 0, -4.00607e-05, 198793
-1412.44, 195985, -273.371, 3.63121, -1697.24, 1.68279, 0.347215, 0.9175, 0.352806, 0.64323, 0.0001, 455, 246, 39.538, 0.173148, 1.078, 1, 0, 0, -2.61781e-05, 198793
-1412.44, 195985, -273.371, 3.63121, -1697.24, 1.68279, 0.347215, 0.9175, 0.352806, 0.64323, 3, 455, 246, 39.538, 0.173148, 1.27361, 1, 0, 0, -6.70164e-06, 198793
-8343.68, 290384, -267.598, 0.989822, -866.401, 0.0462654, 0.524551, 0.993198, 0.349787, 0.651995, 0.0001, 91, 246, 41.0028, 0.228006, 0, 0, 1, 0, -1.77719e-05, 198794
-8525.81, 12901.7, 6.2468, 2.33353, -1095.68, -0.0256762, 0.279733, 1.03299, 0.34851, 0.655882, 3, 45.5, 246, 12.8955, 0.0552067, 0, 0, 1, 0, -3.80958e-06, 198796
-11110.1, 197799, -131.576, 1.91761, -818.375, -0.0172344, 0.352502, 1.03299, 0.34851, 0.655882, 0.0001, 45.5, 246, 30.5715, 0.137383, 0, 0, 1, 0, 2.76274e-06, 198800
-11110.1, 197799, -131.576, 1.91761, -818.375, -0.0172344, 0.352502, 1.03299, 0.34851, 0.655882, 3, 45.5, 246, 30.5715, 0.137383, 0, 0, 1, 0, 3.80927e-06, 198800
-9384.91, 203094, -109.438, 1.48923, -872.163, 0.00120956, 0.326695, 0.993198, 0.349787, 0.651995, 0.0001, 91, 246, 26.133, 0.11154, 0, 0, 1, 0, 3.51521e-06, 198806
-7942.93, 587263, -450.654, 0.0414904, -840.605, 0.0268864, 0.682054, 1.03299, 0.34851, 0.655882, 0.0001, 45.5, 246, 41.1501, 0.204676, 0, 0, 0, 0, -6.07447e-05, 198810
-7942.93, 587263, -450.654, 0.0414904, -840.605, 0.0268864, 0.682054, 1.03299, 0.34851, 0.655882, 3, 45.5, 246, 41.1501, 0.204676, 0, 0, 0, 0, -0.000218291, 198810
-4690.08, 816208, -421.149, 0.0315794, -1105.74, 0.000196685, 0.547686, 1.03299, 0.34851, 0.655882, 0.0001, 45.5, 246, 40.0608, 0.133219, 0, 0, 0, 0, -0.00163432, 198813
-4690.08, 816208, -421.149, 0.0315794, -1105.74, 0.000196685, 0.547686, 1.03299, 0.34851, 0.655882, 3, 45.5, 246, 40.0608, 0.133219, 0, 0, 0, 0, 0.000651867, 198813
-10667.5, 258020, -148.918, 1.30218, -992.24, -0.00786241, 0.39625, 1.03299, 0.34851, 0.655882, 0.0001, 45.5, 246, 32.23, 0.138619, 0, 0, 0, 0, 9.45453e-06, 198815
-10667.5, 258020, -148.918, 1.30218, -992.24, -0.00786241, 0.39625, 1.03299, 0.34851, 0.655882, 3, 45.5, 246, 32.23, 0.138619, 0, 0, 1, 0, 2.82789e-06, 198815
-9062.93, 302229, -137.203, 1.11855, -1171.92, 0.00361223, 0.348422, 0.993198, 0.349787, 0.651995, 0.0001, 91, 246, 30.4506, 0.107212, 0, 0, 1, 0, -3.81317e-06, 198823
-9852.54, 159729, -180.658, 2.75052, -794.638, 0.0726163, 0.326111, 1.03299, 0.34851, 0.655882, 0.0001, 45.5, 246, 39.152, 0.174046, 0, 0, 1, 0, 1.17376e-05, 198830
5.52556, 209303, -326.047, 3.68476, -929.015, 0.232729, 0.380177, 0.9175, 0.352806, 0.64323, 0.0001, 455, 246, 39.152, 0.174046, 1.50782, 1, 0, 0, -1.71822e-05, 198830
5.52556, 209303, -326.047, 3.68476, -929.015, 0.232729, 0.380177, 0.9175, 0.352806, 0.64323, 3, 455, 246, 39.152, 0.174046, 1.5385, 1, 0, 0, -8.68569e-06, 198830
382.647, 455759, -305.22, 3.43228, -1345.36, 0.28764, 0.312876, 0.9175, 0.352806, 0.64323, 3, 455, 246, 32.8016, 0.097785, 0, 0, 0, 0, -7.24346e-06, 198836
-9527.8, 525742, -154.339, 0.474083, -1123.02, 0.276118, 0.380554, 1.03299, 0.34851, 0.655882, 0.0001, 45.5, 246, 30.2567, 0.0722517, 0, 0, 0, 0, -3.1773e-05, 198849
-9527.8, 525742, -154.339, 0.474083, -1123.02, 0.276118, 0.380554, 1.03299, 0.34851, 0.655882, 3, 45.5, 246, 30.2567, 0.0722517, 0, 0, 0, 0, -1.5506e-05, 198849
-8393.91, 557376, -164.973, 0.498782, -1176.44, 0.289802, 0.348283, 0.993198, 0.349787, 0.651995, 3, 91, 246, 30.2567, 0.0722517, 0, 0, 1, 0, -9.26051e-05, 198849
-8623.28, 316710, -458.094, 3.84536, -901.357, 0.0187729, 0.497585, 0.993198, 0.349787, 0.651995, 0.0001, 91, 246, 52.5032, 0.238764, 1.48338, 1, 1, 0, -2.28648e-06, 198851
-8623.28, 316710, -458.094, 3.84536, -901.357, 0.0187729, 0.497585, 0.993198, 0.349787, 0.651995, 3, 91, 246, 52.5032, 0.238764, 1.41106, 1, 1, 0, -6.50754e-06, 198851
-7440.31, 844394, -174.047, 1.09312, -681.453, 0.130724, 0.260545, 0.9175, 0.352806, 0.64323, 3, 455, 246, 19.6422, 0.0438464, 0, 0, 0, 0, 5.3403e-05, 198852
-9388.67, 47441.1, 18.6883, 3.40273, -860.48, 0.43374, 0.162427, 1.03299, 0.34851, 0.655882, 0.0001, 45.5, 246, 11.3797, 0.0313733, 0, 0, 0, 0, -3.71889e-06, 198858
-11027.3, 134611, -75.6156, 3.02347, -1050.47, -0.0390095, 0.232886, 1.03299, 0.34851, 0.655882, 0.0001, 45.5, 246, 28.0107, 0.0966293, 0, 0, 0, 0, 1.45775e-05, 198859
-11027.3, 134611, -75.6156, 3.02347, -1050.47, -0.0390095, 0.232886, 1.03299, 0.34851, 0.655882, 3, 45.5, 246, 28.0107, 0.0966293, 0, 0, 0, 0, 8.53922e-06, 198859
-9204.1, 153504, -112.037, 3.26918, -1055.26, 0.00446241, 0.234141, 0.993198, 0.349787, 0.651995, 0.0001, 91, 246, 28.0107, 0.0966293, 0, 0, 1, 0, -1.37355e-05, 198859
-9204.1, 153504, -112.037, 3.26918, -1055.26, 0.00446241, 0.234141, 0.993198, 0.349787, 0.651995, 3, 91, 246, 28.0107, 0.0966293, 0, 0, 1, 0, 8.34551e-06, 198859
-11246.7, 394987, -86.5847, 0.645461, -663.307, 0.204483, 0.352588, 1.03299, 0.34851, 0.655882, 0.0001, 45.5, 246, 18.8142, 0.0554192, 0, 0, 1, 0, 3.53412e-06, 198861
-11246.7, 394987, -86.5847, 0.645461, -663.307, 0.204483, 0.352588, 1.03299, 0.34851, 0.655882, 3, 45.5, 246, 18.8142, 0.0554192, 0, 0, 1, 0, -1.93953e-05, 198861
-10297, 407420, -93.9536, 0.678021, -687.159, 0.213297, 0.319134, 0.993198, 0.349787, 0.651995, 0.0001, 91, 246, 18.8142, 0.0554192, 0, 0, 1, 0, -5.95039e-05, 198861
-10297, 407420, -93.9536, 0.678021, -687.159, 0.213297, 0.319134, 0.993198, 0.349787, 0.651995, 3, 91, 246, 18.8142, 0.0554192, 0, 0, 1, 0, 9.61861e-05, 198861
-9184.16, 420827, -101.752, 0.711071, -713.068, 0.222929, 0.290285, 0.958125, 0.351078, 0.648177, 0.0001, 182, 246, 18.8142, 0.0554192, 0, 0, 1, 0, -5.13675e-05, 198861
-10036.6, 357655, -315.603, 0.604983, -763.496, 0.30486, 0.599806, 1.03299, 0.34851, 0.655882, 0.0001, 45.5, 246, 40.2151, 0.223135, 0, 0, 0, 0, 7.83802e-07, 198862
-10036.6, 357655, -315.603, 0.604983, -763.496, 0.30486, 0.599806, 1.03299, 0.34851, 0.655882, 3, 45.5, 246, 40.2151, 0.223135, 0, 0, 0, 0, -2.48831e-06, 198862
-8414.24, 376290, -334.308, 0.642936, -807.719, 0.322085, 0.587913, 0.993198, 0.349787, 0.651995, 3, 91, 246, 40.2151, 0.223135, 0, 0, 1, 0, 2.37007e-05, 198862
-7707.25, -21924.2, 13.1777, 2.57027, -818.386, -0.0312629, 0.269308, 1.03299, 0.34851, 0.655882, 0.0001, 45.5, 246, 7.05994, 0.0492794, 0, 0, 1, 1, 7.61168e-06, 198866
-7707.25, -21924.2, 13.1777, 2.57027, -818.386, -0.0312629, 0.269308, 1.03299, 0.34851, 0.655882, 3, 45.5, 246, 7.05994, 0.0492794, 0, 0, 1, 1, 1.58964e-05, 198866
-7083.5, -20011.7, 4.95097, 3.20707, -909.739, -0.0460751, 0.217781, 1.03299, 0.34851, 0.655882, 0.0001, 45.5, 246, 13.2682, 0.0473026, 0, 0, 1, 1, -4.23909e-06, 198871
-7083.5, -20011.7, 4.95097, 3.20707, -909.739, -0.0460751, 0.217781, 1.03299, 0.34851, 0.655882, 3, 45.5, 246, 13.2682, 0.0473026, 0, 0, 1, 1, -1.73223e-06, 198871
-14979.1, 194059, -33.5661, 3.3013, -1059.17, -0.0448996, 0.172845, 1.03299, 0.34851, 0.655882, 0.0001, 45.5, 246, 22.4585, 0.0550222, 0, 0, 0, 0, 8.22743e-07, 198875
-14979.1, 194059, -33.5661, 3.3013, -1059.17, -0.0448996, 0.172845, 1.03299, 0.34851, 0.655882, 3, 45.5, 246, 22.4585, 0.0550222, 0, 0, 0, 0, 3.63199e-06, 198875
-11546.9, 337984, -345.32, 1.7651, -1146.43, -0.00794178, 0.619566, 1.03299, 0.34851, 0.655882, 0.0001, 45.5, 246, 50.6493, 0.247605, 0, 0, 0, 0, 7.48275e-06, 198877
-11546.9, 337984, -345.32, 1.7651, -1146.43, -0.00794178, 0.619566, 1.03299, 0.34851, 0.655882, 3, 45.5, 246, 50.6493, 0.247605, 0, 0, 0, 0, 2.09148e-05, 198877
-11109.7, 242714, -44.7263, 1.06005, -879.19, 0.0515119, 0.333772, 1.03299, 0.34851, 0.655882, 0.0001, 45.5, 246, 19.0857, 0.0502638, 0, 0, 1, 0, 1.99083e-05, 198879
-10175.2, 256978, -55.4091, 1.11224, -888.201, 0.0571566, 0.302324, 0.993198, 0.349787, 0.651995, 0.0001, 91, 246, 19.0857, 0.0502638, 0, 0, 1, 0, -1.41646e-05, 198879
-10402, 207375, -236.431, 2.05695, -709.601, -0.00500265, 0.459585, 1.03299, 0.34851, 0.655882, 0.0001, 45.5, 246, 42.7867, 0.225703, 0, 0, 1, 0, 4.88975e-06, 198885
-10402, 207375, -236.431, 2.05695, -709.601, -0.00500265, 0.459585, 1.03299, 0.34851, 0.655882, 3, 45.5, 246, 42.7867, 0.225703, 0, 0, 1, 0, -1.42351e-05, 198885
-10556.9, 150762, -18.5218, 1.40318, -1037.88, 0.00267135, 0.318542, 1.03299, 0.34851, 0.655882, 0.0001, 45.5, 246, 17.532, 0.0442703, 0, 0, 1, 0, -3.54542e-05, 198886
-10556.9, 150762, -18.5218, 1.40318, -1037.88, 0.00267135, 0.318542, 1.03299, 0.34851, 0.655882, 3, 45.5, 246, 17.532, 0.0442703, 0, 0, 1, 0, 1.37371e-05, 198886
-2580.91, 325324, -416.47, 3.55584, -1210.51, 0.367326, 0.467775, 0.958125, 0.351078, 0.648177, 0.0001, 182, 246, 47.4935, 0.208805, 1.38163, 1, 0, 0, -2.15928e-06, 198895
-2580.91, 325324, -416.47, 3.55584, -1210.51, 0.367326, 0.467775, 0.958125, 0.351078, 0.648177, 3, 182, 246, 47.4935, 0.208805, 1.27448, 1, 0, 0, 1.03868e-05, 198895
-11535.4, 121973, 7.24746, 2.4622, -781.963, -0.0232604, 0.249967, 1.03299, 0.34851, 0.655882, 0.0001, 45.5, 246, 11.5405, 0.0223456, 0, 0, 1, 0, -4.45006e-06, 198905
-11535.4, 121973, 7.24746, 2.4622, -781.963, -0.0232604, 0.249967, 1.03299, 0.34851, 0.655882, 3, 45.5, 246, 11.5405, 0.0223456, 0, 0, 1, 0, -1.65879e-05, 198905
-2540.21, 997792, -351.38, 2.62366, -1117.99, 0.10348, 0.293552, 0.9175, 0.352806, 0.64323, 0.0001, 455, 246, 32.1905, 0.0663493, 0, 0, 0, 0, 3.48169e-05, 198911
-2540.21, 997792, -351.38, 2.62366, -1117.99, 0.10348, 0.293552, 0.9175, 0.352806, 0.64323, 3, 455, 246, 32.1905, 0.0663493, 0, 0, 0, 0, -1.69314e-05, 198911
-9703.97, 136585, -153.941, 3.58658, -954.472, 0.269996, 0.200423, 1.03299, 0.34851, 0.655882, 0.0001, 45.5, 246, 37.6166, 0.136142, 0, 0, 0, 0, 4.03556e-06, 198915
-9703.97, 136585, -153.941, 3.58658, -954.472, 0.269996, 0.200423, 1.03299, 0.34851, 0.655882, 3, 45.5, 246, 37.6166, 0.136142, 0, 0, 0, 0, 4.01314e-06, 198915
-11232.4, 358735, -49.973, 0.771239, -1182.65, -0.00192785, 0.340348, 1.03299, 0.34851, 0.655882, 0.0001, 45.5, 246, 24.018, 0.0396234, 0, 0, 1, 0, 4.96356e-06, 198919
-11232.4, 358735, -49.973, 0.771239, -1182.65, -0.00192785, 0.340348, 1.03299, 0.34851, 0.655882, 3, 45.5, 246, 24.018, 0.0396234, 0, 0, 1, 0, 3.5686e-05, 198919
-10206.2, 383205, -60.3549, 0.802762, -1183.68, 0.000791601, 0.306828, 0.993198, 0.349787, 0.651995, 0.0001, 91, 246, 24.018, 0.0396234, 0, 0, 1, 0, 2.8302e-05, 198919
-8974.03, 407826, -71.361, 0.833918, -1185.52, 0.00373252, 0.278024, 0.958125, 0.351078, 0.648177, 0.0001, 182, 246, 24.018, 0.0396234, 0, 0, 1, 0, -1.45187e-05, 198919
-11977, 468002, -67.0587, 0.622968, -861.335, 0.786243, 0.342853, 1.03299, 0.34851, 0.655882, 0.0001, 45.5, 246, 20.9842, 0.0340429, 0, 0, 1, 0, -9.01343e-05, 198926
-11977, 468002, -67.0587, 0.622968, -861.335, 0.786243, 0.342853, 1.03299, 0.34851, 0.655882, 3, 45.5, 246, 20.9842, 0.0340429, 0, 0, 1, 0, -7.26539e-05, 198926
-12025.3, 268069, -100.472, 1.37273, -754.849, 0.0647143, 0.346775, 1.03299, 0.34851, 0.655882, 3, 45.5, 246, 23.4301, 0.0897555, 0, 0, 1, 0, 6.72683e-06, 198929
-8762.2, 290894, -131.761, 1.53136, -781.778, 0.0849738, 0.299038, 0.958125, 0.351078, 0.648177, 3, 182, 246, 23.4301, 0.0897555, 0, 0, 1, 0, 4.21928e-06, 198929
-8390.09, 108339, -142.957, 3.51293, -902.827, 0.204939, 0.205379, 1.03299, 0.34851, 0.655882, 0.0001, 45.5, 246, 37.7212, 0.134793, 0, 0, 0, 0, -9.37e-06, 198930
-8390.09, 108339, -142.957, 3.51293, -902.827, 0.204939, 0.205379, 1.03299, 0.34851, 0.655882, 3, 45.5, 246, 37.7212, 0.134793, 0, 0, 0, 0, -1.97404e-05, 198930
1656.42, 179443, -343.954, 5.14346, -1176.27, 0.534892, 0.357379, 0.9175, 0.352806, 0.64323, 0.0001, 455, 246, 37.7212, 0.134793, 0, 0, 0, 0, -3.63488e-06, 198930
1656.42, 179443, -343.954, 5.14346, -1176.27, 0.534892, 0.357379, 0.9175, 0.352806, 0.64323, 3, 455, 246, 37.7212, 0.134793, 0, 0, 0, 0, 1.12885e-05, 198930
-6373.67, 103282, -113.398, 3.24547, -1172.09, 0.140062, 0.276402, 0.9175, 0.352806, 0.64323, 3, 455, 246, 16.9374, 0.063947, 0, 0, 1, 0, 1.16638e-05, 198938
-11054.9, 94565.2, -10.0071, 3.44931, -705.081, -0.0218376, 0.15742, 1.03299, 0.34851, 0.655882, 0.0001, 45.5, 246, 13.9923, 0.0367745, 0, 0, 1, 0, 3.10173e-06, 198947
-11054.9, 94565.2, -10.0071, 3.44931, -705.081, -0.0218376, 0.15742, 1.03299, 0.34851, 0.655882, 3, 45.5, 246, 13.9923, 0.0367745, 0, 0, 1, 0, -1.49899e-06, 198947
-9721.22, 102693, -34.1648, 3.75722, -707.808, 0.0351025, 0.168172, 0.993198, 0.349787, 0.651995, 0.0001, 91, 246, 13.9923, 0.0367745, 0, 0, 1, 0, -4.61517e-06, 198947
-9721.22, 102693, -34.1648, 3.75722, -707.808, 0.0351025, 0.168172, 0.993198, 0.349787, 0.651995, 3, 91, 246, 13.9923, 0.0367745, 0, 0, 1, 0, -1.04845e-05, 198947
-9641.01, 103488, 4.95631, 0.980907, -1009.14, -0.00068935, 0.329518, 1.03299, 0.34851, 0.655882, 0.0001, 45.5, 246, 11.159, 0.0167672, 0, 0, 1, 0, -2.06964e-06, 198948
-9641.01, 103488, 4.95631, 0.980907, -1009.14, -0.00068935, 0.329518, 1.03299, 0.34851, 0.655882, 3, 45.5, 246, 11.159, 0.0167672, 0, 0, 1, 0, 1.98122e-05, 198948
-6197.85, 409084, -528.262, 3.62571, -732.645, 0.0930521, 0.572768, 0.958125, 0.351078, 0.648177, 0.0001, 182, 246, 44.6871, 0.218372, 2.24077, 1, 0, 0, -8.38821e-05, 198953
-6197.85, 409084, -528.262, 3.62571, -732.645, 0.0930521, 0.572768, 0.958125, 0.351078, 0.648177, 3, 182, 246, 44.6871, 0.218372, 2.207, 1, 0, 0, 8.77759e-05, 198953
-8632.77, 98546.5, -108.78, 3.25654, -1087.17, 0.0741262, 0.233133, 1.03299, 0.34851, 0.655882, 0.0001, 45.5, 246, 35.3407, 0.129753, 0, 0, 0, 0, -1.78677e-05, 198954
-8632.77, 98546.5, -108.78, 3.25654, -1087.17, 0.0741262, 0.233133, 1.03299, 0.34851, 0.655882, 3, 45.5, 246, 35.3407, 0.129753, 0, 0, 0, 0, 2.08451e-06, 198954
-7037.82, 120217, -152.574, 3.55962, -1116.18, 0.126622, 0.24212, 0.993198, 0.349787, 0.651995, 0.0001, 91, 246, 35.3407, 0.129753, 0, 0, 1, 0, -1.51537e-05, 198954
-7037.82, 120217, -152.574, 3.55962, -1116.18, 0.126622, 0.24212, 0.993198, 0.349787, 0.651995, 3, 91, 246, 35.3407, 0.129753, 0, 0, 1, 0, -5.12388e-06, 198954
-98.82, 182076, -296.246, 4.52697, -1261.09, 0.307739, 0.338734, 0.9175, 0.352806, 0.64323, 0.0001, 455, 246, 35.3407, 0.129753, 1.74873, 1, 0, 0, -1.42414e-05, 198954
-98.82, 182076, -296.246, 4.52697, -1261.09, 0.307739, 0.338734, 0.9175, 0.352806, 0.64323, 3, 455, 246, 35.3407, 0.129753, 1.77953, 1, 0, 0, 2.02695e-05, 198954
-6234.19, 650708, -449.511, 0.138855, -1119.91, 0.00345247, 0.644562, 1.03299, 0.34851, 0.655882, 0.0001, 45.5, 246, 44.3306, 0.182075, 0, 0, 0, 0, -1.50063e-05, 198958
-6234.19, 650708, -449.511, 0.138855, -1119.91, 0.00345247, 0.644562, 1.03299, 0.34851, 0.655882, 3, 45.5, 246, 44.3306, 0.182075, 0, 0, 0, 0, -9.75669e-05, 198958
-11246, 336995, -247.771, 1.43869, -1133.22, 0.0216898, 0.482973, 1.03299, 0.34851, 0.655882, 0.0001, 45.5, 246, 41.1021, 0.179986, 0, 0, 0, 0, 8.63887e-06, 198962
-11246, 336995, -247.771, 1.43869, -1133.22, 0.0216898, 0.482973, 1.03299, 0.34851, 0.655882, 3, 45.5, 246, 41.1021, 0.179986, 0, 0, 0, 0, -2.1837e-05, 198962
-8378.87, -9083.34, 6.20051, 1.61703, -744.231, 0.31972, 0.316764, 1.03299, 0.34851, 0.655882, 0.0001, 45.5, 246, 6.06435, 0.047887, 0, 0, 1, 1, -8.51284e-07, 198967
-8864.83, 450801, -125.661, 0.599043, -1176.71, 0.027306, 0.334792, 0.993198, 0.349787, 0.651995, 0.0001, 91, 246, 28.7324, 0.0692764, 0, 0, 1, 0, -2.36461e-05, 198972
-7674.2, 476164, -136.577, 0.621332, -1184.08, 0.0290661, 0.306491, 0.958125, 0.351078, 0.648177, 0.0001, 182, 246, 28.7324, 0.0692764, 0, 0, 1, 0, -2.6405e-06, 198972
-8200.51, 200652, -211.009, 1.55464, -816.353, 0.0257629, 0.443528, 0.993198, 0.349787, 0.651995, 0.0001, 91, 246, 40.0373, 0.222636, 0, 0, 1, 0, -3.68529e-06, 198976
-11124.5, 846571, -23.6249, 0.222167, -897.12, 0.0360689, 0.340453, 1.03299, 0.34851, 0.655882, 0.0001, 45.5, 246, 21.0557, 0.00780776, 0, 0, 1, 0, 2.26817e-05, 198978
-11124.5, 846571, -23.6249, 0.222167, -897.12, 0.0360689, 0.340453, 1.03299, 0.34851, 0.655882, 3, 45.5, 246, 21.0557, 0.00780776, 0, 0, 1, 0, -3.6612e-05, 198978
-10556.9, 862386, -26.1598, 0.229418, -902.427, 0.0365008, 0.304359, 0.993198, 0.349787, 0.651995, 0.0001, 91, 246, 21.0557, 0.00780776, 0, 0, 1, 0, -5.55379e-05, 198978
-8049.66, 492497, -447.317, 0.0450849, -845.542, 0.658007, 0.708738, 1.03299, 0.34851, 0.655882, 3, 45.5, 246, 42.6155, 0.222084, 0, 0, 0, 0, 0.000236053, 198979
-6382.8, 528842, -464.651, 0.0485385, -944.257, 0.734375, 0.707001, 0.993198, 0.349787, 0.651995, 3, 91, 246, 42.6155, 0.222084, 0, 0, 1, 0, 2.58332e-05, 198979
-11216, 116455, -41.2304, 3.41424, -1177.63, -0.0124008, 0.179341, 1.03299, 0.34851, 0.655882, 0.0001, 45.5, 246, 25.167, 0.0756001, 0, 0, 0, 0, 1.26686e-05, 198980
-11216, 116455, -41.2304, 3.41424, -1177.63, -0.0124008, 0.179341, 1.03299, 0.34851, 0.655882, 3, 45.5, 246, 25.167, 0.0756001, 0, 0, 0, 0, 5.63221e-06, 198980
-9404.99, 140457, -83.4339, 3.72058, -1186.2, 0.0434402, 0.190146, 0.993198, 0.349787, 0.651995, 0.0001, 91, 246, 25.167, 0.0756001, 0, 0, 1, 0, 9.08575e-06, 198980
-9404.99, 140457, -83.4339, 3.72058, -1186.2, 0.0434402, 0.190146, 0.993198, 0.349787, 0.651995, 3, 91, 246, 25.167, 0.0756001, 0, 0, 1, 0, 7.0698e-06, 198980
-8799.94, 44609.5, -9.75366, 3.53696, -1125.05, 0.215867, 0.164423, 1.03299, 0.34851, 0.655882, 0.0001, 45.5, 246, 20.1111, 0.0620452, 1.25882, 1, 0, 0, -5.43921e-06, 198988
-8799.94, 44609.5, -9.75366, 3.53696, -1125.05, 0.215867, 0.164423, 1.03299, 0.34851, 0.655882, 3, 45.5, 246, 20.1111, 0.0620452, 1.1914, 1, 0, 0, 1.82103e-07, 198988
-8061.63, 67944.1, -49.7847, 3.91162, -1173.26, 0.286529, 0.1795, 0.993198, 0.349787, 0.651995, 0.0001, 91, 246, 20.1111, 0.0620452, 0, 0, 1, 0, 6.68298e-07, 198988
-9648.36, 694389, -169.798, 0.306836, -870.677, 0.412957, 0.376886, 1.03299, 0.34851, 0.655882, 3, 45.5, 246, 25.8838, 0.0586722, 0, 0, 1, 0, -4.31712e-05, 198990
-8031.75, 613347, -405.452, 0.138454, -852.826, 0.0111323, 0.603684, 1.03299, 0.34851, 0.655882, 0.0001, 45.5, 246, 38.2102, 0.174605, 0, 0, 0, 0, 8.21842e-05, 198992
