-7984.69, 37531, -37.6584, 3.4496, -879.891, 0.143806, 0.178944, 1.03299, 0.34851, 0.655882, 0.0001, 45.5, 246, 22.7057, 0.0656899, 1.24917, 1, 1, 0, 1.13707e-08, 1504
-7984.69, 37531, -37.6584, 3.4496, -879.891, 0.143806, 0.178944, 1.03299, 0.34851, 0.655882, 3, 45.5, 246, 22.7057, 0.0656899, 1.17582, 1, 1, 0, -1.76046e-05, 1504
-4548.13, 70949.7, -167.808, 3.08204, -1013.04, 0.0586364, 0.287056, 0.993198, 0.349787, 0.651995, 0.0001, 91, 246, 48.3212, 0.17606, 1.02818, 1, 1, 0, 1.76621e-06, 1515
-3188.05, 90212.8, -211.939, 3.35317, -1042.26, 0.105077, 0.300708, 0.958125, 0.351078, 0.648177, 0.0001, 182, 246, 48.3212, 0.17606, 1.17205, 1, 1, 0, -6.16074e-06, 1515
-3188.05, 90212.8, -211.939, 3.35317, -1042.26, 0.105077, 0.300708, 0.958125, 0.351078, 0.648177, 3, 182, 246, 48.3212, 0.17606, 1.00152, 1, 1, 0, 3.73399e-06, 1515
-373.381, 119148, -284, 3.7895, -1104.82, 0.183145, 0.342407, 0.9175, 0.352806, 0.64323, 0.0001, 455, 246, 48.3212, 0.17606, 2.35431, 1, 0, 0, 1.2108e-05, 1515
-373.381, 119148, -284, 3.7895, -1104.82, 0.183145, 0.342407, 0.9175, 0.352806, 0.64323, 3, 455, 246, 48.3212, 0.17606, 2.35414, 1, 0, 0, -1.3736e-05, 1515
-4340.79, 353113, -431.257, 4.30495, -1046.16, 0.374675, 0.39377, 0.958125, 0.351078, 0.648177, 0.0001, 182, 246, 42.9823, 0.177529, 2.12377, 1, 0, 0, -0.000122768, 1516
-4340.79, 353113, -431.257, 4.30495, -1046.16, 0.374675, 0.39377, 0.958125, 0.351078, 0.648177, 3, 182, 246, 42.9823, 0.177529, 2.11974, 1, 0, 0, 0.000163158, 1516
-6651.47, 71982, -137.94, 3.47291, -716.724, 0.0159249, 0.201811, 1.03299, 0.34851, 0.655882, 3, 45.5, 246, 38.9379, 0.12466, 0, 0, 1, 0, 2.03396e-05, 1517
-3597.6, 92252.3, -219.017, 4.18699, -770.286, 0.14589, 0.250527, 0.958125, 0.351078, 0.648177, 0.0001, 182, 246, 38.9379, 0.12466, 1.00364, 1, 1, 0, -1.71517e-05, 1517
-258.725, 110039, -295.143, 4.85229, -845.105, 0.272825, 0.333864, 0.9175, 0.352806, 0.64323, 0.0001, 455, 246, 38.9379, 0.12466, 1.56789, 1, 1, 0, -1.03538e-05, 1517
-258.725, 110039, -295.143, 4.85229, -845.105, 0.272825, 0.333864, 0.9175, 0.352806, 0.64323, 3, 455, 246, 38.9379, 0.12466, 1.53025, 1, 1, 0, 1.5444e-05, 1517
-10131.7, 96288.7, -16.7728, 2.09126, -1059.65, 0.00553152, 0.287987, 1.03299, 0.34851, 0.655882, 0.0001, 45.5, 246, 18.2021, 0.057369, 0, 0, 1, 0, -7.66126e-07, 1520
-10131.7, 96288.7, -16.7728, 2.09126, -1059.65, 0.00553152, 0.287987, 1.03299, 0.34851, 0.655882, 3, 45.5, 246, 18.2021, 0.057369, 0, 0, 1, 0, -7.16481e-08, 1520
-8504.36, 94606.8, -102.192, 1.93542, -972.455, 0.14433, 0.350346, 1.03299, 0.34851, 0.655882, 3, 45.5, 246, 35.1525, 0.172489, 0, 0, 1, 0, -2.04373e-05, 1521
-25871.7, -225206, -31.5987, 0.650814, -1045.89, 0.106239, 0.460582, 1.03299, 0.34851, 0.655882, 0.0001, 45.5, 246, -149.447, 0.21065, 0, 0, 1, 0, -1.61704e-05, 1522
-25871.7, -225206, -31.5987, 0.650814, -1045.89, 0.106239, 0.460582, 1.03299, 0.34851, 0.655882, 3, 45.5, 246, -149.447, 0.21065, 0, 0, 1, 0, -1.07016e-05, 1522
-9247.11, 458126, -404.384, 0.336845, -869.887, 0.277207, 0.685044, 1.03299, 0.34851, 0.655882, 0.0001, 45.5, 246, 43.4263, 0.228359, 0, 0, 0, 0, 8.66416e-05, 1524
-9247.11, 458126, -404.384, 0.336845, -869.887, 0.277207, 0.685044, 1.03299, 0.34851, 0.655882, 3, 45.5, 246, 43.4263, 0.228359, 0, 0, 0, 0, 3.4548e-05, 1524
-9603.79, 151891, -57.2744, 1.06881, -1074.97, 0.097261, 0.348031, 1.03299, 0.34851, 0.655882, 3, 45.5, 246, 23.4723, 0.0896839, 0, 0, 1, 0, -2.23503e-05, 1527
-9574.1, 169532, -85.6888, 1.10579, -1024.28, -0.00357349, 0.365262, 1.03299, 0.34851, 0.655882, 0.0001, 45.5, 246, 27.1871, 0.118708, 0, 0, 1, 0, 1.9448e-08, 1529
-9574.1, 169532, -85.6888, 1.10579, -1024.28, -0.00357349, 0.365262, 1.03299, 0.34851, 0.655882, 3, 45.5, 246, 27.1871, 0.118708, 0, 0, 1, 0, 7.30045e-06, 1529
-8939.77, 848909, -173.093, 0.190744, -816.289, 0.0188451, 0.374188, 1.03299, 0.34851, 0.655882, 0.0001, 45.5, 246, 24.7536, 0.0522674, 0, 0, 1, 0, 1.36993e-05, 1531
-8939.77, 848909, -173.093, 0.190744, -816.289, 0.0188451, 0.374188, 1.03299, 0.34851, 0.655882, 3, 45.5, 246, 24.7536, 0.0522674, 0, 0, 1, 0, -2.61998e-05, 1531
-8171.19, 862028, -179.878, 0.196861, -819.64, 0.0190668, 0.340526, 0.993198, 0.349787, 0.651995, 0.0001, 91, 246, 24.7536, 0.0522674, 0, 0, 1, 0, 5.79574e-05, 1531
-9283.98, 175102, -262.74, 3.41582, -790.375, 0.436979, 0.300036, 1.03299, 0.34851, 0.655882, 0.0001, 45.5, 246, 46.696, 0.194911, 1.13585, 1, 0, 0, 1.68528e-05, 1537
-5835.2, 192959, -314.983, 3.83117, -881.417, 0.531245, 0.32022, 0.993198, 0.349787, 0.651995, 0.0001, 91, 246, 46.696, 0.194911, 1.26124, 1, 1, 0, 2.05616e-05, 1537
-5835.2, 192959, -314.983, 3.83117, -881.417, 0.531245, 0.32022, 0.993198, 0.349787, 0.651995, 3, 91, 246, 46.696, 0.194911, 1.12263, 1, 1, 0, -1.35302e-05, 1537
-1201.27, 216765, -382.284, 4.35305, -1007.02, 0.660075, 0.364811, 0.958125, 0.351078, 0.648177, 0.0001, 182, 246, 46.696, 0.194911, 2.71651, 1, 0, 0, 191.703, 1537
-1201.27, 216765, -382.284, 4.35305, -1007.02, 0.660075, 0.364811, 0.958125, 0.351078, 0.648177, 3, 182, 246, 46.696, 0.194911, 2.52611, 1, 0, 0, 193.364, 1537
-8422.33, 360511, -200.863, 0.62404, -887.708, 0.113067, 0.408627, 0.993198, 0.349787, 0.651995, 0.0001, 91, 246, 31.3113, 0.139244, 0, 0, 1, 0, -2.98735e-05, 1538
-13498.2, 599027, -399.246, 0.63484, -655.958, 0.0780202, 0.592159, 1.03299, 0.34851, 0.655882, 0.0001, 45.5, 246, 34.7986, 0.171971, 0, 0, 0, 0, 7.26671e-05, 1544
-13498.2, 599027, -399.246, 0.63484, -655.958, 0.0780202, 0.592159, 1.03299, 0.34851, 0.655882, 3, 45.5, 246, 34.7986, 0.171971, 0, 0, 0, 0, 6.81051e-05, 1544
-9171.67, 169050, -258.813, 3.29922, -698.861, 0.364212, 0.310473, 1.03299, 0.34851, 0.655882, 0.0001, 45.5, 246, 45.8656, 0.196223, 1.13832, 1, 0, 0, 3.94901e-05, 1547
-5985.6, 183156, -305.829, 3.67702, -771.357, 0.443083, 0.327066, 0.993198, 0.349787, 0.651995, 0.0001, 91, 246, 45.8656, 0.196223, 1.21708, 1, 1, 0, -1.99521e-05, 1547
-5985.6, 183156, -305.829, 3.67702, -771.357, 0.443083, 0.327066, 0.993198, 0.349787, 0.651995, 3, 91, 246, 45.8656, 0.196223, 1.06562, 1, 1, 0, 2.21561e-05, 1547
-1812.16, 201604, -365.153, 4.1435, -869.627, 0.548542, 0.365609, 0.958125, 0.351078, 0.648177, 0.0001, 182, 246, 45.8656, 0.196223, 2.04714, 1, 0, 0, -6.74137e-06, 1547
-1812.16, 201604, -365.153, 4.1435, -869.627, 0.548542, 0.365609, 0.958125, 0.351078, 0.648177, 3, 182, 246, 45.8656, 0.196223, 1.89154, 1, 0, 0, -1.22978e-05, 1547
-11221.1, 155899, -59.8058, 1.99952, -659.826, -0.00676926, 0.298718, 1.03299, 0.34851, 0.655882, 0.0001, 45.5, 246, 19.723, 0.0765605, 0, 0, 1, 0, -1.04624e-05, 1549
-11221.1, 155899, -59.8058, 1.99952, -659.826, -0.00676926, 0.298718, 1.03299, 0.34851, 0.655882, 3, 45.5, 246, 19.723, 0.0765605, 0, 0, 1, 0, 2.89138e-06, 1549
-346.632, 177539, -304.487, 4.80492, -722.372, 0.189426, 0.334881, 0.9175, 0.352806, 0.64323, 0.0001, 455, 246, 32.7575, 0.126825, 1.06718, 1, 0, 0, -8.78931e-06, 1550
-346.632, 177539, -304.487, 4.80492, -722.372, 0.189426, 0.334881, 0.9175, 0.352806, 0.64323, 3, 455, 246, 32.7575, 0.126825, 1.06805, 1, 0, 0, -6.90561e-06, 1550
-11353.9, 125404, -23.7411, 2.6843, -1153.63, 0.0278954, 0.244086, 1.03299, 0.34851, 0.655882, 0.0001, 45.5, 246, 21.5082, 0.0612534, 0, 0, 1, 0, 1.72279e-05, 1554
-11353.9, 125404, -23.7411, 2.6843, -1153.63, 0.0278954, 0.244086, 1.03299, 0.34851, 0.655882, 3, 45.5, 246, 21.5082, 0.0612534, 0, 0, 1, 0, 3.40722e-06, 1554
-8599.14, 146721, -50.5069, 0.30073, -1153.71, 0.0247318, 0.35887, 1.03299, 0.34851, 0.655882, 0.0001, 45.5, 246, 21.721, 0.0836574, 0, 0, 1, 0, -1.20833e-05, 1556
-8599.14, 146721, -50.5069, 0.30073, -1153.71, 0.0247318, 0.35887, 1.03299, 0.34851, 0.655882, 3, 45.5, 246, 21.721, 0.0836574, 0, 0, 1, 0, -2.63437e-06, 1556
-10051.6, 226643, -323.215, 3.30364, -987.492, 0.047407, 0.429567, 1.03299, 0.34851, 0.655882, 0.0001, 45.5, 246, 53.661, 0.24199, 1.06962, 1, 0, 0, 6.61392e-06, 1564
-5586.74, 247124, -385.753, 3.62926, -1031.47, 0.100935, 0.454848, 0.993198, 0.349787, 0.651995, 0.0001, 91, 246, 53.661, 0.24199, 1.38335, 1, 1, 0, 1.10293e-06, 1564
-5586.74, 247124, -385.753, 3.62926, -1031.47, 0.100935, 0.454848, 0.993198, 0.349787, 0.651995, 3, 91, 246, 53.661, 0.24199, 1.27089, 1, 1, 0, -2.13184e-06, 1564
-10495.4, 175438, -71.2535, 2.76477, -957.719, 0.495949, 0.242108, 0.993198, 0.349787, 0.651995, 0.0001, 91, 246, 21.097, 0.0632306, 0, 0, 1, 0, -4.35497e-06, 1565
-10495.4, 175438, -71.2535, 2.76477, -957.719, 0.495949, 0.242108, 0.993198, 0.349787, 0.651995, 3, 91, 246, 21.097, 0.0632306, 0, 0, 1, 0, -1.12161e-05, 1565
-8258.61, 197974, -103.2, 3.06025, -1049.2, 0.578494, 0.244514, 0.958125, 0.351078, 0.648177, 0.0001, 182, 246, 21.097, 0.0632306, 0, 0, 1, 0, -2.36638e-05, 1565
-8258.61, 197974, -103.2, 3.06025, -1049.2, 0.578494, 0.244514, 0.958125, 0.351078, 0.648177, 3, 182, 246, 21.097, 0.0632306, 0, 0, 1, 0, 2.21156e-05, 1565
-11075, 543275, -170.409, 0.548298, -777.55, -0.00137498, 0.389119, 1.03299, 0.34851, 0.655882, 0.0001, 45.5, 246, 25.2948, 0.0815422, 0, 0, 1, 0, 5.05067e-06, 1568
-11075, 543275, -170.409, 0.548298, -777.55, -0.00137498, 0.389119, 1.03299, 0.34851, 0.655882, 3, 45.5, 246, 25.2948, 0.0815422, 0, 0, 1, 0, 3.66417e-05, 1568
-11382.3, 426467, -114.513, 0.690077, -764.727, 0.135639, 0.363452, 1.03299, 0.34851, 0.655882, 0.0001, 45.5, 246, 22.4317, 0.0683404, 0, 0, 1, 0, 8.85762e-06, 1572
-11382.3, 426467, -114.513, 0.690077, -764.727, 0.135639, 0.363452, 1.03299, 0.34851, 0.655882, 3, 45.5, 246, 22.4317, 0.0683404, 0, 0, 1, 0, 1.24776e-06, 1572
-10234.1, 159389, -120.359, 1.94158, -799.823, 0.111446, 0.346263, 1.03299, 0.34851, 0.655882, 0.0001, 45.5, 246, 30.7989, 0.14207, 0, 0, 1, 0, -9.00139e-06, 1573
-10234.1, 159389, -120.359, 1.94158, -799.823, 0.111446, 0.346263, 1.03299, 0.34851, 0.655882, 3, 45.5, 246, 30.7989, 0.14207, 0, 0, 1, 0, -2.0467e-05, 1573
-8876.75, 171953, -142.792, 2.07881, -822.313, 0.1315, 0.3287, 0.993198, 0.349787, 0.651995, 0.0001, 91, 246, 30.7989, 0.14207, 0, 0, 1, 0, 3.75963e-06, 1573
120.237, 186260, -316.594, 4.55077, -840.74, 0.208123, 0.34655, 0.9175, 0.352806, 0.64323, 0.0001, 455, 246, 35.2459, 0.139125, 1.41021, 1, 0, 0, -1.38854e-05, 1575
120.237, 186260, -316.594, 4.55077, -840.74, 0.208123, 0.34655, 0.9175, 0.352806, 0.64323, 3, 455, 246, 35.2459, 0.139125, 1.41606, 1, 0, 0, -1.12412e-05, 1575
-6919.81, 544431, -325.461, 0.181672, -1018.83, 0.00965195, 0.531738, 1.03299, 0.34851, 0.655882, 0.0001, 45.5, 246, 38.1988, 0.156657, 0, 0, 0, 0, 8.36693e-05, 1576
-8003.76, 66470.4, -86.3267, 2.51089, -848.683, 0.021789, 0.289261, 1.03299, 0.34851, 0.655882, 0.0001, 45.5, 246, 32.6855, 0.130753, 0, 0, 1, 0, -3.23404e-06, 1577
-8003.76, 66470.4, -86.3267, 2.51089, -848.683, 0.021789, 0.289261, 1.03299, 0.34851, 0.655882, 3, 45.5, 246, 32.6855, 0.130753, 0, 0, 1, 0, -1.74573e-05, 1577
-4226.74, 112578, -192.388, 3.2472, -918.855, 0.144854, 0.302826, 0.9175, 0.352806, 0.64323, 3, 455, 246, 32.6855, 0.130753, 0, 0, 1, 0, -5.16406e-06, 1577
-11939.6, 171734, -47.5792, 1.93902, -705.607, 0.76261, 0.290444, 1.03299, 0.34851, 0.655882, 0.0001, 45.5, 246, 18.2109, 0.0571722, 0, 0, 1, 0, 1.22168e-05, 1578
-10580.4, 189182, -64.5059, 2.15215, -806.71, 0.887983, 0.269567, 0.993198, 0.349787, 0.651995, 3, 91, 246, 18.2109, 0.0571722, 0, 0, 1, 0, -1.40082e-06, 1578
-5608.33, 893365, -271.79, 0.102043, -995.443, 0.0998476, 0.38506, 0.993198, 0.349787, 0.651995, 0.0001, 91, 246, 31.2213, 0.0757727, 0, 0, 1, 0, -1550.45, 1583
-8146.31, 73775.4, -93.8335, 1.66215, -893.676, 0.263209, 0.364208, 1.03299, 0.34851, 0.655882, 0.0001, 45.5, 246, 36.662, 0.20059, 0, 0, 1, 0, 3.59191e-05, 1590
-8146.31, 73775.4, -93.8335, 1.66215, -893.676, 0.263209, 0.364208, 1.03299, 0.34851, 0.655882, 3, 45.5, 246, 36.662, 0.20059, 0, 0, 1, 0, 1.9468e-05, 1590
-14621.9, 259679, -353.521, 3.19036, -595.073, 0.771575, 0.392608, 1.03299, 0.34851, 0.655882, 0.0001, 45.5, 246, 44.2362, 0.20368, 1.03477, 1, 0, 0, 2.02054e-05, 1592
-9668.32, 281057, -406.512, 3.64382, -716.977, 0.937007, 0.413133, 0.993198, 0.349787, 0.651995, 0.0001, 91, 246, 44.2362, 0.20368, 1.22085, 1, 1, 0, 1.58839e-05, 1592
-9668.32, 281057, -406.512, 3.64382, -716.977, 0.937007, 0.413133, 0.993198, 0.349787, 0.651995, 3, 91, 246, 44.2362, 0.20368, 1.10455, 1, 1, 0, -5.3384e-06, 1592
-3047.61, 311673, -476.57, 4.24019, -895.891, 1.17981, 0.459111, 0.958125, 0.351078, 0.648177, 3, 182, 246, 44.2362, 0.20368, 0, 0, 0, 0, -148.13, 1592
-10571.4, 320232, -276.643, 0.700707, -603.326, 0.00327296, 0.563967, 1.03299, 0.34851, 0.655882, 0.0001, 45.5, 246, 37.4048, 0.22307, 0, 0, 0, 0, -1.61094e-05, 1594
-10571.4, 320232, -276.643, 0.700707, -603.326, 0.00327296, 0.563967, 1.03299, 0.34851, 0.655882, 3, 45.5, 246, 37.4048, 0.22307, 0, 0, 0, 0, 2.366e-05, 1594
-9159.06, 328060, -293.275, 0.733123, -609.127, 0.00553235, 0.549034, 0.993198, 0.349787, 0.651995, 0.0001, 91, 246, 37.4048, 0.22307, 0, 0, 1, 0, -9.82257e-06, 1594
-9785.83, 159021, -151.672, 2.16033, -858.567, -0.0139183, 0.363793, 1.03299, 0.34851, 0.655882, 3, 45.5, 246, 36.5629, 0.17367, 0, 0, 1, 0, -1.57367e-06, 1595
-6144.66, -15537.2, -29.1386, 3.60101, -928.827, -0.0304378, 0.182544, 1.03299, 0.34851, 0.655882, 0.0001, 45.5, 246, 24.8374, 0.0307659, 0, 0, 1, 1, 1.10327e-05, 1600
-6144.66, -15537.2, -29.1386, 3.60101, -928.827, -0.0304378, 0.182544, 1.03299, 0.34851, 0.655882, 3, 45.5, 246, 24.8374, 0.0307659, 0, 0, 1, 1, -2.51406e-05, 1600
-8631.75, 179684, -146.93, 1.73203, -905.365, 0.0304236, 0.355621, 0.993198, 0.349787, 0.651995, 0.0001, 91, 246, 32.7038, 0.158733, 0, 0, 1, 0, -1.75074e-05, 1612
-8900.77, 43299.3, -7.81881, 0.905156, -1079.99, 0.14445, 0.302973, 0.993198, 0.349787, 0.651995, 0.0001, 91, 246, 8.74248, 0.0430292, 0, 0, 1, 1, 4.8121e-06, 1621
-8900.77, 43299.3, -7.81881, 0.905156, -1079.99, 0.14445, 0.302973, 0.993198, 0.349787, 0.651995, 3, 91, 246, 8.74248, 0.0430292, 0, 0, 1, 1, 1.52913e-05, 1621
-9342.74, 123382, -125.395, 3.4888, -1174.81, -0.056813, 0.219591, 1.03299, 0.34851, 0.655882, 0.0001, 45.5, 246, 37.2642, 0.135963, 0, 0, 0, 0, -2.16904e-05, 1622
-9342.74, 123382, -125.395, 3.4888, -1174.81, -0.056813, 0.219591, 1.03299, 0.34851, 0.655882, 3, 45.5, 246, 37.2642, 0.135963, 0, 0, 0, 0, 1.33321e-05, 1622
-7175.28, 147418, -176.225, 3.80269, -1183.96, 0.00159721, 0.235301, 0.993198, 0.349787, 0.651995, 0.0001, 91, 246, 37.2642, 0.135963, 0, 0, 1, 0, -7.96467e-06, 1622
-7175.28, 147418, -176.225, 3.80269, -1183.96, 0.00159721, 0.235301, 0.993198, 0.349787, 0.651995, 3, 91, 246, 37.2642, 0.135963, 0, 0, 1, 0, -8.34426e-06, 1622
-10451.1, 944981, -125.593, 0.281111, -1042.78, 0.31668, 0.354672, 1.03299, 0.34851, 0.655882, 0.0001, 45.5, 246, 28.1053, 0.0324566, 0, 0, 1, 0, 1.35877e-05, 1625
-10451.1, 944981, -125.593, 0.281111, -1042.78, 0.31668, 0.354672, 1.03299, 0.34851, 0.655882, 3, 45.5, 246, 28.1053, 0.0324566, 0, 0, 1, 0, -8.55444e-05, 1625
-11656.5, 169943, -13.3906, 1.7297, -694.809, -1.87346e-05, 0.298231, 1.03299, 0.34851, 0.655882, 0.0001, 45.5, 246, 13.0308, 0.0306078, 0, 0, 1, 0, 4.58356e-06, 1627
-11656.5, 169943, -13.3906, 1.7297, -694.809, -1.87346e-05, 0.298231, 1.03299, 0.34851, 0.655882, 3, 45.5, 246, 13.0308, 0.0306078, 0, 0, 1, 0, 8.13961e-06, 1627
-3740.89, 85823.2, -207.864, 3.12579, -996.203, 0.320946, 0.311489, 1.03299, 0.34851, 0.655882, 0.0001, 45.5, 246, 57.4213, 0.230394, 1.42614, 1, 1, 0, -1.16214e-05, 1629
-3740.89, 85823.2, -207.864, 3.12579, -996.203, 0.320946, 0.311489, 1.03299, 0.34851, 0.655882, 3, 45.5, 246, 57.4213, 0.230394, 1.26697, 1, 1, 0, 2.04674e-05, 1629
-1953.17, 107153, -257.155, 3.46291, -1074.04, 0.388249, 0.322226, 0.993198, 0.349787, 0.651995, 0.0001, 91, 246, 57.4213, 0.230394, 1.67097, 1, 1, 0, -2.66849e-06, 1629
-1953.17, 107153, -257.155, 3.46291, -1074.04, 0.388249, 0.322226, 0.993198, 0.349787, 0.651995, 3, 91, 246, 57.4213, 0.230394, 1.53036, 1, 1, 0, -4.93245e-06, 1629
682.341, 133461, -318.843, 3.87201, -1178.25, 0.476475, 0.35215, 0.958125, 0.351078, 0.648177, 0.0001, 182, 246, 57.4213, 0.230394, 2.9391, 1, 1, 0, 1.19542e-05, 1629
682.341, 133461, -318.843, 3.87201, -1178.25, 0.476475, 0.35215, 0.958125, 0.351078, 0.648177, 3, 182, 246, 57.4213, 0.230394, 2.77814, 1, 0, 0, 1.90406e-05, 1629
-6693.57, 442519, -494.242, 3.85231, -896.18, 0.0618183, 0.490342, 0.958125, 0.351078, 0.648177, 0.0001, 182, 246, 43.3529, 0.189979, 1.02055, 1, 0, 0, -8.22108e-06, 1631
-6693.57, 442519, -494.242, 3.85231, -896.18, 0.0618183, 0.490342, 0.958125, 0.351078, 0.648177, 3, 182, 246, 43.3529, 0.189979, 1.37091, 1, 0, 0, -1.19735e-05, 1631
-3508.05, 92621.8, -238.368, 2.77324, -709.841, 0.790359, 0.346242, 1.03299, 0.34851, 0.655882, 0.0001, 45.5, 246, 58.0916, 0.236577, 1.61197, 1, 1, 0, 2.60425e-05, 1634
-3508.05, 92621.8, -238.368, 2.77324, -709.841, 0.790359, 0.346242, 1.03299, 0.34851, 0.655882, 3, 45.5, 246, 58.0916, 0.236577, 1.49004, 1, 1, 0, 4.68587e-06, 1634
-1696.53, 108632, -278.603, 3.14, -835.178, 0.946966, 0.349889, 0.993198, 0.349787, 0.651995, 0.0001, 91, 246, 58.0916, 0.236577, 1.80355, 1, 1, 0, -3.87104e-05, 1634
-1696.53, 108632, -278.603, 3.14, -835.178, 0.946966, 0.349889, 0.993198, 0.349787, 0.651995, 3, 91, 246, 58.0916, 0.236577, 1.68496, 1, 1, 0, -1.48665e-06, 1634
870.634, 131761, -331.505, 3.61139, -1015.57, 1.17238, 0.372358, 0.958125, 0.351078, 0.648177, 0.0001, 182, 246, 58.0916, 0.236577, 2.91261, 1, 1, 1, 220.042, 1634
870.634, 131761, -331.505, 3.61139, -1015.57, 1.17238, 0.372358, 0.958125, 0.351078, 0.648177, 3, 182, 246, 58.0916, 0.236577, 2.75491, 1, 1, 1, 219.246, 1634
-9268.41, 888696, -49.7363, 0.953777, -774.586, 0.0549191, 0.233357, 0.9175, 0.352806, 0.64323, 0.0001, 455, 246, 18.2789, 0.0100224, 0, 0, 1, 0, -5.35566e-06, 1637
-5750.88, 399457, -507.104, 4.11102, -825.31, 0.0746402, 0.49606, 0.958125, 0.351078, 0.648177, 0.0001, 182, 246, 44.4174, 0.201218, 0, 0, 0, 0, -8.52463e-07, 1638
-5750.88, 399457, -507.104, 4.11102, -825.31, 0.0746402, 0.49606, 0.958125, 0.351078, 0.648177, 3, 182, 246, 44.4174, 0.201218, 3.31283, 1, 0, 0, 3.38579e-06, 1638
-8560.26, 81665.7, -21.5595, 0.0619556, -1062.14, 0.0163064, 0.346999, 1.03299, 0.34851, 0.655882, 3, 45.5, 246, 14.4263, 0.0629938, 0, 0, 1, 0, 3.22719e-05, 1639
-2976.61, 321684, -419.646, 3.41205, -1095.78, 0.248695, 0.486512, 0.958125, 0.351078, 0.648177, 0.0001, 182, 246, 47.4409, 0.21537, 1.31532, 1, 0, 0, 6.61627e-06, 1646
-2976.61, 321684, -419.646, 3.41205, -1095.78, 0.248695, 0.486512, 0.958125, 0.351078, 0.648177, 3, 182, 246, 47.4409, 0.21537, 1.14262, 1, 0, 0, 1.56794e-05, 1646
-8578.45, 624102, -231.138, 0.249749, -836.152, 0.166595, 0.421006, 1.03299, 0.34851, 0.655882, 0.0001, 45.5, 246, 28.5213, 0.0932302, 0, 0, 0, 0, -0.00113646, 1648
-8578.45, 624102, -231.138, 0.249749, -836.152, 0.166595, 0.421006, 1.03299, 0.34851, 0.655882, 3, 45.5, 246, 28.5213, 0.0932302, 0, 0, 0, 0, -9.7762e-06, 1648
-7610.77, 643314, -240.805, 0.260416, -860.385, 0.171392, 0.39115, 0.993198, 0.349787, 0.651995, 3, 91, 246, 28.5213, 0.0932302, 0, 0, 1, 0, -8.83642e-06, 1648
-6502.1, 663712, -250.335, 0.270957, -886.1, 0.176482, 0.365481, 0.958125, 0.351078, 0.648177, 3, 182, 246, 28.5213, 0.0932302, 0, 0, 0, 0, -5.3379e-05, 1648
-6170.92, 15462.1, -81.5655, 3.92206, -1065.09, 0.0162276, 0.203593, 0.993198, 0.349787, 0.651995, 0.0001, 91, 246, 28.8405, 0.0536997, 0, 0, 1, 1, -6.39565e-06, 1649
-6170.92, 15462.1, -81.5655, 3.92206, -1065.09, 0.0162276, 0.203593, 0.993198, 0.349787, 0.651995, 3, 91, 246, 28.8405, 0.0536997, 0, 0, 1, 1, 7.22047e-06, 1649
-11835.9, 212827, -79.1782, 1.62868, -758.66, 0.45091, 0.323857, 1.03299, 0.34851, 0.655882, 3, 45.5, 246, 22.129, 0.0805537, 0, 0, 1, 0, -7.04851e-05, 1663
-8613.66, 248566, -115.573, 1.91963, -898.512, 0.558016, 0.282431, 0.958125, 0.351078, 0.648177, 0.0001, 182, 246, 22.129, 0.0805537, 0, 0, 1, 0, 5.95114e-05, 1663
-9700.51, 137268, -84.9067, 1.66049, -1015.04, 0.0261511, 0.345267, 1.03299, 0.34851, 0.655882, 0.0001, 45.5, 246, 28.599, 0.126231, 0, 0, 1, 0, -8.99971e-06, 1667
-9700.51, 137268, -84.9067, 1.66049, -1015.04, 0.0261511, 0.345267, 1.03299, 0.34851, 0.655882, 3, 45.5, 246, 28.599, 0.126231, 0, 0, 1, 0, 4.47265e-07, 1667
-9572.74, 414870, -271.215, 0.570726, -879.939, 0.439537, 0.499786, 1.03299, 0.34851, 0.655882, 3, 45.5, 246, 35.3669, 0.159609, 0, 0, 0, 0, -0.000101589, 1671
-8926.78, 805375, -315.368, 0.277175, -904.433, 0.00649398, 0.459624, 1.03299, 0.34851, 0.655882, 3, 45.5, 246, 32.2842, 0.101436, 0, 0, 0, 0, -8.94492e-05, 1673
-2582.85, 861282, -358.85, 0.30858, -916.492, 0.00777491, 0.386065, 0.9175, 0.352806, 0.64323, 3, 455, 246, 32.2842, 0.101436, 0, 0, 0, 0, 0.000110921, 1673
-9361.58, 700918, -144.142, 0.314878, -1064.71, 0.177515, 0.367423, 1.03299, 0.34851, 0.655882, 0.0001, 45.5, 246, 28.6329, 0.051326, 0, 0, 1, 0, 3.03573e-05, 1676
-9361.58, 700918, -144.142, 0.314878, -1064.71, 0.177515, 0.367423, 1.03299, 0.34851, 0.655882, 3, 45.5, 246, 28.6329, 0.051326, 0, 0, 1, 0, 1.19638e-06, 1676
-8400.16, 728541, -152.024, 0.328425, -1096.75, 0.183105, 0.33355, 0.993198, 0.349787, 0.651995, 0.0001, 91, 246, 28.6329, 0.051326, 0, 0, 1, 0, -5.40808e-05, 1676
-8400.16, 728541, -152.024, 0.328425, -1096.75, 0.183105, 0.33355, 0.993198, 0.349787, 0.651995, 3, 91, 246, 28.6329, 0.051326, 0, 0, 1, 0, 6.17757e-05, 1676
-10498.4, 161847, -177.311, 3.34521, -828.731, -0.0506551, 0.25121, 1.03299, 0.34851, 0.655882, 0.0001, 45.5, 246, 38.2189, 0.153138, 0, 0, 0, 0, 6.90193e-06, 1678
-10498.4, 161847, -177.311, 3.34521, -828.731, -0.0506551, 0.25121, 1.03299, 0.34851, 0.655882, 3, 45.5, 246, 38.2189, 0.153138, 0, 0, 0, 0, 6.17269e-06, 1678
1612.96, 210613, -355.725, 4.57834, -941.818, 0.176035, 0.369842, 0.9175, 0.352806, 0.64323, 0.0001, 455, 246, 38.2189, 0.153138, 3.66445, 1, 0, 0, 2.05407e-05, 1678
1612.96, 210613, -355.725, 4.57834, -941.818, 0.176035, 0.369842, 0.9175, 0.352806, 0.64323, 3, 455, 246, 38.2189, 0.153138, 3.77626, 1, 0, 0, 2.06306e-05, 1678
-8635.83, 673120, -167.256, 0.21333, -659.454, 0.019813, 0.344642, 0.993198, 0.349787, 0.651995, 0.0001, 91, 246, 21.455, 0.0624228, 0, 0, 1, 0, -6.69403e-06, 1679
-10588.2, 83433.8, -6.51013, 3.41341, -708.143, 0.0120569, 0.162817, 1.03299, 0.34851, 0.655882, 0.0001, 45.5, 246, 13.4445, 0.0355821, 0, 0, 1, 0, -6.34917e-06, 1687
-10588.2, 83433.8, -6.51013, 3.41341, -708.143, 0.0120569, 0.162817, 1.03299, 0.34851, 0.655882, 3, 45.5, 246, 13.4445, 0.0355821, 0, 0, 1, 0, -8.67365e-06, 1687
-4604.81, 284867, -382.778, 4.07352, -805.957, 0.0711872, 0.375986, 0.958125, 0.351078, 0.648177, 0.0001, 182, 246, 41.5074, 0.181391, 1.35733, 1, 0, 0, -3.04887e-06, 1691
-4604.81, 284867, -382.778, 4.07352, -805.957, 0.0711872, 0.375986, 0.958125, 0.351078, 0.648177, 3, 182, 246, 41.5074, 0.181391, 1.16159, 1, 0, 0, 1.17226e-05, 1691
-8179.42, 176708, -296.841, 3.22942, -743.958, 0.210658, 0.379802, 1.03299, 0.34851, 0.655882, 0.0001, 45.5, 246, 51.8744, 0.233407, 1.30489, 1, 0, 0, 1.4328e-05, 1693
-8179.42, 176708, -296.841, 3.22942, -743.958, 0.210658, 0.379802, 1.03299, 0.34851, 0.655882, 3, 45.5, 246, 51.8744, 0.233407, 1.21534, 1, 0, 0, 6.69861e-06, 1693
-4715.59, 190915, -348.031, 3.5697, -801.969, 0.270375, 0.39888, 0.993198, 0.349787, 0.651995, 0.0001, 91, 246, 51.8744, 0.233407, 1.57713, 1, 1, 0, -5.6365e-06, 1693
-4715.59, 190915, -348.031, 3.5697, -801.969, 0.270375, 0.39888, 0.993198, 0.349787, 0.651995, 3, 91, 246, 51.8744, 0.233407, 1.46533, 1, 1, 0, 3.06617e-06, 1693
-221.971, 208876, -411.057, 3.9817, -880.411, 0.34778, 0.438136, 0.958125, 0.351078, 0.648177, 0.0001, 182, 246, 51.8744, 0.233407, 4.079, 1, 0, 0, 4.79197e-06, 1693
-221.971, 208876, -411.057, 3.9817, -880.411, 0.34778, 0.438136, 0.958125, 0.351078, 0.648177, 3, 182, 246, 51.8744, 0.233407, 3.72682, 1, 0, 0, 1.92068e-05, 1693
8038.26, 241797, -521.753, 4.69338, -1033.11, 0.49257, 0.529434, 0.9175, 0.352806, 0.64323, 0.0001, 455, 246, 51.8744, 0.233407, 0, 0, 0, 0, -2.26444e-05, 1693
8038.26, 241797, -521.753, 4.69338, -1033.11, 0.49257, 0.529434, 0.9175, 0.352806, 0.64323, 3, 455, 246, 51.8744, 0.233407, 0, 0, 0, 0, -2.34309e-05, 1693
-11408.8, 380886, -359.056, 0.817807, -734.156, -0.00279991, 0.661415, 1.03299, 0.34851, 0.655882, 0.0001, 45.5, 246, 43.2129, 0.245582, 0, 0, 0, 0, 2.40625e-05, 1694
-11408.8, 380886, -359.056, 0.817807, -734.156, -0.00279991, 0.661415, 1.03299, 0.34851, 0.655882, 3, 45.5, 246, 43.2129, 0.245582, 0, 0, 0, 0, 3.34185e-05, 1694
-9674.8, 156755, -69.7598, 1.22588, -1143.14, -0.00693563, 0.351805, 1.03299, 0.34851, 0.655882, 0.0001, 45.5, 246, 26.1446, 0.10372, 0, 0, 1, 0, -2.17104e-05, 1696
-9674.8, 156755, -69.7598, 1.22588, -1143.14, -0.00693563, 0.351805, 1.03299, 0.34851, 0.655882, 3, 45.5, 246, 26.1446, 0.10372, 0, 0, 1, 0, -2.30147e-05, 1696
-9307.53, 631856, -280.28, 0.45224, -1023.72, 0.0450773, 0.459514, 1.03299, 0.34851, 0.655882, 0.0001, 45.5, 246, 34.6654, 0.114274, 0, 0, 0, 0, -3.34291e-06, 1697
-7917.27, 944391, -123.959, 0.179551, -1199.08, 0.387818, 0.319073, 0.993198, 0.349787, 0.651995, 0.0001, 91, 246, 29.4822, 0.0312412, 0, 0, 1, 0, -0.000188931, 1698
-7175.49, 991963, -129.392, 0.188418, -1278, 0.413294, 0.288189, 0.958125, 0.351078, 0.648177, 0.0001, 182, 246, 29.4822, 0.0312412, 0, 0, 1, 0, -9.1855e-06, 1698
-7251.53, 664810, -200.248, 0.196045, -927.979, 0.0768365, 0.363129, 0.993198, 0.349787, 0.651995, 0.0001, 91, 246, 28.0166, 0.0755102, 0, 0, 1, 0, 5.83506e-05, 1699
-7816.81, 15441.1, -72.9594, 3.9377, -654.695, 0.132782, 0.288577, 0.9175, 0.352806, 0.64323, 3, 455, 246, 10.6184, 0.0332944, 0, 0, 1, 1, -1.11451e-06, 1701
-6471.12, 127944, -235.441, 2.94586, -722.399, 0.0439278, 0.358215, 1.03299, 0.34851, 0.655882, 0.0001, 45.5, 246, 51.2596, 0.229745, 1.22978, 1, 1, 0, -2.0916e-06, 1704
-6471.12, 127944, -235.441, 2.94586, -722.399, 0.0439278, 0.358215, 1.03299, 0.34851, 0.655882, 3, 45.5, 246, 51.2596, 0.229745, 1.09615, 1, 1, 0, -1.10027e-05, 1704
-4248.01, 138755, -276.026, 3.20595, -750.57, 0.0860754, 0.366132, 0.993198, 0.349787, 0.651995, 0.0001, 91, 246, 51.2596, 0.229745, 1.37121, 1, 1, 0, -5.78914e-06, 1704
-4248.01, 138755, -276.026, 3.20595, -750.57, 0.0860754, 0.366132, 0.993198, 0.349787, 0.651995, 3, 91, 246, 51.2596, 0.229745, 1.21684, 1, 1, 0, 8.01797e-06, 1704
-1400.09, 151409, -324.056, 3.50974, -790.546, 0.137453, 0.389425, 0.958125, 0.351078, 0.648177, 0.0001, 182, 246, 51.2596, 0.229745, 1.90608, 1, 1, 0, -3.49538e-06, 1704
-1400.09, 151409, -324.056, 3.50974, -790.546, 0.137453, 0.389425, 0.958125, 0.351078, 0.648177, 3, 182, 246, 51.2596, 0.229745, 1.76345, 1, 1, 0, -1.53182e-06, 1704
-7142.04, 2947.65, -41.6524, 2.76536, -702.405, -0.0244841, 0.254323, 1.03299, 0.34851, 0.655882, 3, 45.5, 246, 26.5007, 0.0364261, 0, 0, 1, 1, 1.58572e-05, 1707
-6645.07, 1368.56, -55.851, 3.87417, -1132.54, 0.0731571, 0.209727, 0.993198, 0.349787, 0.651995, 0.0001, 91, 246, 23.1624, 0.0492904, 0, 0, 1, 1, -2.52508e-06, 1713
-6645.07, 1368.56, -55.851, 3.87417, -1132.54, 0.0731571, 0.209727, 0.993198, 0.349787, 0.651995, 3, 91, 246, 23.1624, 0.0492904, 0, 0, 1, 1, -5.71655e-06, 1713
-2153.62, 108874, -247.409, 3.61244, -819.763, 0.111509, 0.326518, 0.9175, 0.352806, 0.64323, 0.0001, 455, 246, 40.4181, 0.156663, 1.13533, 1, 1, 0, 1.39921e-05, 1714
-2153.62, 108874, -247.409, 3.61244, -819.763, 0.111509, 0.326518, 0.9175, 0.352806, 0.64323, 3, 455, 246, 40.4181, 0.156663, 1.12847, 1, 1, 0, 1.79161e-05, 1714
-8275.7, -3244.11, -13.6199, 2.58904, -1063.27, 0.053739, 0.273151, 0.993198, 0.349787, 0.651995, 0.0001, 91, 246, 10.8925, 0.0604876, 0, 0, 1, 1, 1.0285e-05, 1718
-8275.7, -3244.11, -13.6199, 2.58904, -1063.27, 0.053739, 0.273151, 0.993198, 0.349787, 0.651995, 3, 91, 246, 10.8925, 0.0604876, 0, 0, 1, 1, -1.03749e-05, 1718
616.83, 405373, -436.699, 3.35695, -737.574, 0.125635, 0.457341, 0.9175, 0.352806, 0.64323, 3, 455, 246, 35.4364, 0.167244, 1.01516, 1, 0, 0, 9.02522e-05, 1726
-5605.86, 406614, -536.105, 3.58568, -837.91, 1.04125, 0.576742, 0.958125, 0.351078, 0.648177, 0.0001, 182, 246, 43.2402, 0.214656, 2.14622, 1, 0, 0, 0.000155452, 1731
-5605.86, 406614, -536.105, 3.58568, -837.91, 1.04125, 0.576742, 0.958125, 0.351078, 0.648177, 3, 182, 246, 43.2402, 0.214656, 2.17039, 1, 0, 0, -6.46842e-05, 1731
-7413.98, 16089.4, -45.9875, 3.35591, -1149.3, -2.28575e-05, 0.235974, 0.993198, 0.349787, 0.651995, 0.0001, 91, 246, 20.6353, 0.0666883, 0, 0, 1, 1, -7.57043e-06, 1734
-7413.98, 16089.4, -45.9875, 3.35591, -1149.3, -2.28575e-05, 0.235974, 0.993198, 0.349787, 0.651995, 3, 91, 246, 20.6353, 0.0666883, 0, 0, 1, 1, 1.38007e-05, 1734
-9423.23, 272073, -361.435, 3.58785, -737.346, 0.0793898, 0.396063, 0.993198, 0.349787, 0.651995, 0.0001, 91, 246, 44.6946, 0.204819, 1.00093, 1, 1, 0, -4.28316e-06, 1738
-3641.64, 286150, -423.05, 3.96032, -789.551, 0.143743, 0.435078, 0.958125, 0.351078, 0.648177, 0.0001, 182, 246, 44.6946, 0.204819, 2.05861, 1, 0, 0, 3.21455e-06, 1738
-3641.64, 286150, -423.05, 3.96032, -789.551, 0.143743, 0.435078, 0.958125, 0.351078, 0.648177, 3, 182, 246, 44.6946, 0.204819, 1.89767, 1, 0, 0, 1.96335e-05, 1738
6380.78, 311910, -528.043, 4.59099, -894.6, 0.257575, 0.522969, 0.9175, 0.352806, 0.64323, 0.0001, 455, 246, 44.6946, 0.204819, 0, 0, 0, 0, 1.39993e-05, 1738
6380.78, 311910, -528.043, 4.59099, -894.6, 0.257575, 0.522969, 0.9175, 0.352806, 0.64323, 3, 455, 246, 44.6946, 0.204819, 0, 0, 0, 0, 7.6366e-06, 1738
-10247.8, 219217, -32.5415, 1.37548, -1138.45, 0.312662, 0.290475, 0.993198, 0.349787, 0.651995, 0.0001, 91, 246, 18.7204, 0.036227, 0, 0, 1, 0, -4.65033e-06, 1739
-7302.26, 116202, -204.804, 3.49048, -615.244, -0.0586774, 0.238986, 1.03299, 0.34851, 0.655882, 0.0001, 45.5, 246, 43.7511, 0.168069, 1.17203, 1, 1, 0, 4.91589e-06, 1741
-7302.26, 116202, -204.804, 3.49048, -615.244, -0.0586774, 0.238986, 1.03299, 0.34851, 0.655882, 3, 45.5, 246, 43.7511, 0.168069, 1.02034, 1, 1, 0, 4.24213e-06, 1741
-5096.88, 123327, -244.541, 3.80633, -633.816, -0.00016625, 0.25599, 0.993198, 0.349787, 0.651995, 0.0001, 91, 246, 43.7511, 0.168069, 1.19492, 1, 1, 0, -7.63908e-07, 1741
-2319.96, 131937, -292.203, 4.18528, -665.459, 0.0699971, 0.292956, 0.958125, 0.351078, 0.648177, 0.0001, 182, 246, 43.7511, 0.168069, 1.47052, 1, 1, 0, 5.67918e-06, 1741
-2319.96, 131937, -292.203, 4.18528, -665.459, 0.0699971, 0.292956, 0.958125, 0.351078, 0.648177, 3, 182, 246, 43.7511, 0.168069, 1.32893, 1, 1, 0, -8.29938e-06, 1741
2582.61, 147031, -373.14, 4.83, -735.964, 0.190856, 0.379232, 0.9175, 0.352806, 0.64323, 0.0001, 455, 246, 43.7511, 0.168069, 2.95039, 1, 0, 0, 6.3664e-07, 1741
2582.61, 147031, -373.14, 4.83, -735.964, 0.190856, 0.379232, 0.9175, 0.352806, 0.64323, 3, 455, 246, 43.7511, 0.168069, 2.95298, 1, 0, 0, 9.06262e-06, 1741
-10449.9, 488850, -145.559, 0.592782, -1064.63, 0.613844, 0.374622, 1.03299, 0.34851, 0.655882, 0.0001, 45.5, 246, 28.9348, 0.0697403, 0, 0, 1, 0, 1.42307e-05, 1746
-10449.9, 488850, -145.559, 0.592782, -1064.63, 0.613844, 0.374622, 1.03299, 0.34851, 0.655882, 3, 45.5, 246, 28.9348, 0.0697403, 0, 0, 1, 0, -6.26102e-05, 1746
-7757.27, 541142, -392.227, 0.234285, -960.08, 0.686569, 0.59057, 1.03299, 0.34851, 0.655882, 3, 45.5, 246, 39.6484, 0.17133, 0, 0, 0, 0, -0.0001154, 1747
-6383.76, 456600, -326.489, 0.206206, -983.439, 0.140615, 0.546318, 0.993198, 0.349787, 0.651995, 0.0001, 91, 246, 39.4259, 0.189093, 0, 0, 1, 0, -586.882, 1751
-7116.1, 10241.7, -64.7173, 3.07719, -926.568, -0.000120908, 0.252988, 0.993198, 0.349787, 0.651995, 3, 91, 246, 28.1962, 0.0344511, 0, 0, 1, 1, 3.80506e-06, 1753
-11383.6, 336284, -30.9502, 0.744661, -891.5, -0.00159568, 0.335861, 1.03299, 0.34851, 0.655882, 0.0001, 45.5, 246, 18.0244, 0.0278621, 0, 0, 1, 0, 3.33966e-05, 1759
-11383.6, 336284, -30.9502, 0.744661, -891.5, -0.00159568, 0.335861, 1.03299, 0.34851, 0.655882, 3, 45.5, 246, 18.0244, 0.0278621, 0, 0, 1, 0, 3.02188e-05, 1759
-10515.3, 350116, -38.2612, 0.774639, -892.144, 0.000938041, 0.301827, 0.993198, 0.349787, 0.651995, 0.0001, 91, 246, 18.0244, 0.0278621, 0, 0, 1, 0, 2.33239e-05, 1759
-5779.29, 387723, -448.971, 4.4147, -956.596, 0.309221, 0.388634, 0.958125, 0.351078, 0.648177, 0.0001, 182, 246, 41.4432, 0.171707, 1.89944, 1, 0, 0, -7.33594e-05, 1760
-5779.29, 387723, -448.971, 4.4147, -956.596, 0.309221, 0.388634, 0.958125, 0.351078, 0.648177, 3, 182, 246, 41.4432, 0.171707, 2.00086, 1, 0, 0, 0.000106279, 1760
-9604.27, 159324, -191.392, 2.93697, -965.009, 0.815006, 0.303084, 1.03299, 0.34851, 0.655882, 3, 45.5, 246, 41.1339, 0.16767, 0, 0, 0, 0, 1.30809e-05, 1766
-11149.6, 267771, -304.72, 2.37947, -1082.67, 0.0167803, 0.525825, 1.03299, 0.34851, 0.655882, 3, 45.5, 246, 50.3363, 0.242743, 0, 0, 0, 0, -3.8193e-06, 1770
-7216.02, 18747.3, -60.99, 3.18384, -1044.27, 0.0278147, 0.245996, 0.993198, 0.349787, 0.651995, 0.0001, 91, 246, 25.2341, 0.0641057, 0, 0, 1, 1, -1.24278e-06, 1773
-7216.02, 18747.3, -60.99, 3.18384, -1044.27, 0.0278147, 0.245996, 0.993198, 0.349787, 0.651995, 3, 91, 246, 25.2341, 0.0641057, 0, 0, 1, 1, 7.85396e-06, 1773
-4874.66, 688032, -169.177, 1.88738, -1220.38, 0.0321924, 0.250737, 0.9175, 0.352806, 0.64323, 3, 455, 246, 29.0406, 0.0433769, 0, 0, 0, 0, 5.83336e-06, 1779
-11327.3, 189914, -128.844, 2.40763, -1060.11, 0.0342292, 0.31981, 1.03299, 0.34851, 0.655882, 0.0001, 45.5, 246, 33.4152, 0.133157, 0, 0, 0, 0, -9.68833e-06, 1780
-11327.3, 189914, -128.844, 2.40763, -1060.11, 0.0342292, 0.31981, 1.03299, 0.34851, 0.655882, 3, 45.5, 246, 33.4152, 0.133157, 0, 0, 0, 0, -6.6668e-06, 1780
-3274.06, 79696.4, -226.867, 2.7011, -546.421, 0.449271, 0.336867, 1.03299, 0.34851, 0.655882, 0.0001, 45.5, 246, 58.5263, 0.228485, 1.63988, 1, 1, 0, -6.00035e-05, 1783
-3274.06, 79696.4, -226.867, 2.7011, -546.421, 0.449271, 0.336867, 1.03299, 0.34851, 0.655882, 3, 45.5, 246, 58.5263, 0.228485, 1.51963, 1, 1, 0, 6.24187e-06, 1783
-1775.56, 88586.3, -259.844, 2.99115, -608.754, 0.521846, 0.336978, 0.993198, 0.349787, 0.651995, 0.0001, 91, 246, 58.5263, 0.228485, 1.74548, 1, 1, 0, 2.3327e-05, 1783
-1775.56, 88586.3, -259.844, 2.99115, -608.754, 0.521846, 0.336978, 0.993198, 0.349787, 0.651995, 3, 91, 246, 58.5263, 0.228485, 1.62424, 1, 1, 0, 1.5382e-05, 1783
195.875, 100100, -300.307, 3.3399, -690.152, 0.616637, 0.352433, 0.958125, 0.351078, 0.648177, 0.0001, 182, 246, 58.5263, 0.228485, 2.15905, 1, 1, 1, 231.675, 1783
195.875, 100100, -300.307, 3.3399, -690.152, 0.616637, 0.352433, 0.958125, 0.351078, 0.648177, 3, 182, 246, 58.5263, 0.228485, 2.02396, 1, 1, 1, 230.468, 1783
-11175.5, 420309, -58.3885, 0.567227, -720.14, -0.00112591, 0.34417, 1.03299, 0.34851, 0.655882, 0.0001, 45.5, 246, 17.6123, 0.0373399, 0, 0, 1, 0, 1.76732e-05, 1787
-11175.5, 420309, -58.3885, 0.567227, -720.14, -0.00112591, 0.34417, 1.03299, 0.34851, 0.655882, 3, 45.5, 246, 17.6123, 0.0373399, 0, 0, 1, 0, 2.44211e-05, 1787
-10349, 429373, -64.2807, 0.588304, -721.027, 0.000339831, 0.309629, 0.993198, 0.349787, 0.651995, 0.0001, 91, 246, 17.6123, 0.0373399, 0, 0, 1, 0, -1.06094e-05, 1787
-9918.49, 92355.8, -49.1313, 2.7403, -802.771, -0.000882285, 0.246321, 1.03299, 0.34851, 0.655882, 0.0001, 45.5, 246, 21.8633, 0.0767422, 0, 0, 1, 0, -4.20826e-06, 1798
-9918.49, 92355.8, -49.1313, 2.7403, -802.771, -0.000882285, 0.246321, 1.03299, 0.34851, 0.655882, 3, 45.5, 246, 21.8633, 0.0767422, 0, 0, 1, 0, 6.36997e-06, 1798
-9564.51, 344547, -323.139, 0.627502, -889.819, 0.151565, 0.635039, 1.03299, 0.34851, 0.655882, 0.0001, 45.5, 246, 44.2128, 0.245848, 0, 0, 0, 0, 3.24697e-05, 1800
-4568.02, 1.00082e+06, -240.269, 0.413033, -984.065, 0.00291811, 0.289821, 0.9175, 0.352806, 0.64323, 3, 455, 246, 29.3794, 0.056739, 0, 0, 0, 0, 2.04812e-05, 1801
-10099.9, 640235, -221.405, 0.454961, -934.89, 0.0101548, 0.413158, 1.03299, 0.34851, 0.655882, 0.0001, 45.5, 246, 30.0926, 0.0895641, 0, 0, 0, 0, -1.00174e-05, 1804
-11312.4, 246008, -244.641, 2.33392, -1018.54, -0.0013933, 0.443095, 1.03299, 0.34851, 0.655882, 0.0001, 45.5, 246, 44.2518, 0.206766, 0, 0, 0, 0, -1.05352e-05, 1806
-11312.4, 246008, -244.641, 2.33392, -1018.54, -0.0013933, 0.443095, 1.03299, 0.34851, 0.655882, 3, 45.5, 246, 44.2518, 0.206766, 0, 0, 0, 0, 9.19235e-06, 1806
-10298, 82496.1, -0.34244, 2.67016, -1124.66, 0.0176573, 0.243623, 1.03299, 0.34851, 0.655882, 0.0001, 45.5, 246, 17.0195, 0.0482636, 0, 0, 1, 0, -1.58122e-05, 1812
-10298, 82496.1, -0.34244, 2.67016, -1124.66, 0.0176573, 0.243623, 1.03299, 0.34851, 0.655882, 3, 45.5, 246, 17.0195, 0.0482636, 0, 0, 1, 0, 1.00133e-05, 1812
-9394.75, 104514, -28.8134, 2.8767, -1131.8, 0.0515865, 0.235594, 0.993198, 0.349787, 0.651995, 0.0001, 91, 246, 17.0195, 0.0482636, 0, 0, 1, 0, 2.66902e-06, 1812
-9394.75, 104514, -28.8134, 2.8767, -1131.8, 0.0515865, 0.235594, 0.993198, 0.349787, 0.651995, 3, 91, 246, 17.0195, 0.0482636, 0, 0, 1, 0, 9.17996e-06, 1812
-10976.4, 195740, -145.492, 1.74288, -603.547, 0.00398404, 0.372077, 1.03299, 0.34851, 0.655882, 0.0001, 45.5, 246, 29.7695, 0.150685, 0, 0, 1, 0, -9.95118e-07, 1819
-10976.4, 195740, -145.492, 1.74288, -603.547, 0.00398404, 0.372077, 1.03299, 0.34851, 0.655882, 3, 45.5, 246, 29.7695, 0.150685, 0, 0, 1, 0, -9.35694e-06, 1819
-7702.28, 209652, -184.685, 1.96359, -623.21, 0.0342218, 0.340482, 0.958125, 0.351078, 0.648177, 3, 182, 246, 29.7695, 0.150685, 0, 0, 1, 0, 6.19345e-06, 1819
-9418.23, 103680, -90.6287, 2.86796, -900.85, -0.0391633, 0.256843, 1.03299, 0.34851, 0.655882, 0.0001, 45.5, 246, 30.1046, 0.114761, 0, 0, 1, 0, 1.2614e-05, 1831
-9418.23, 103680, -90.6287, 2.86796, -900.85, -0.0391633, 0.256843, 1.03299, 0.34851, 0.655882, 3, 45.5, 246, 30.1046, 0.114761, 0, 0, 1, 0, -6.90348e-06, 1831
-9789.66, 177792, -273.152, 2.66578, -539.219, 0.789686, 0.390787, 1.03299, 0.34851, 0.655882, 0.0001, 45.5, 246, 43.749, 0.207844, 1.02312, 1, 0, 0, 7.3195e-05, 1832
-3249.24, 215113, -358.392, 3.46259, -787.179, 1.16179, 0.416574, 0.958125, 0.351078, 0.648177, 0.0001, 182, 246, 43.749, 0.207844, 1.3816, 1, 0, 0, -8.79663e-05, 1832
-3249.24, 215113, -358.392, 3.46259, -787.179, 1.16179, 0.416574, 0.958125, 0.351078, 0.648177, 3, 182, 246, 43.749, 0.207844, 1.17525, 1, 0, 0, 3.29902e-05, 1832
-11436.4, 162552, -102.487, 2.82741, -1078.41, 0.207727, 0.262274, 1.03299, 0.34851, 0.655882, 0.0001, 45.5, 246, 31.1277, 0.111924, 0, 0, 0, 0, -9.21337e-06, 1837
-11436.4, 162552, -102.487, 2.82741, -1078.41, 0.207727, 0.262274, 1.03299, 0.34851, 0.655882, 3, 45.5, 246, 31.1277, 0.111924, 0, 0, 0, 0, 1.43987e-05, 1837
-9306.19, 185711, -140.338, 3.08944, -1127.97, 0.254494, 0.2602, 0.993198, 0.349787, 0.651995, 0.0001, 91, 246, 31.1277, 0.111924, 0, 0, 1, 0, -1.40482e-05, 1837
-9306.19, 185711, -140.338, 3.08944, -1127.97, 0.254494, 0.2602, 0.993198, 0.349787, 0.651995, 3, 91, 246, 31.1277, 0.111924, 0, 0, 1, 0, -9.41445e-06, 1837
-8749, 16859, -3.79593, 1.6423, -1135.94, 0.146234, 0.293358, 0.993198, 0.349787, 0.651995, 0.0001, 91, 246, 6.98575, 0.0494086, 0, 0, 1, 1, 8.24077e-06, 1844
-8749, 16859, -3.79593, 1.6423, -1135.94, 0.146234, 0.293358, 0.993198, 0.349787, 0.651995, 3, 91, 246, 6.98575, 0.0494086, 0, 0, 1, 1, 1.23656e-05, 1844
-6581.63, 589513, -455.655, 0.0522771, -1018.37, 0.165352, 0.680535, 1.03299, 0.34851, 0.655882, 0.0001, 45.5, 246, 44.0411, 0.201414, 0, 0, 0, 0, -2.03041e-05, 1848
-6581.63, 589513, -455.655, 0.0522771, -1018.37, 0.165352, 0.680535, 1.03299, 0.34851, 0.655882, 3, 45.5, 246, 44.0411, 0.201414, 0, 0, 0, 0, 1.83227e-05, 1848
-9923.02, 106955, -81.2266, 2.6492, -639.605, -0.0332718, 0.262892, 1.03299, 0.34851, 0.655882, 0.0001, 45.5, 246, 24.9987, 0.0983305, 0, 0, 1, 0, -8.43038e-06, 1869
-9923.02, 106955, -81.2266, 2.6492, -639.605, -0.0332718, 0.262892, 1.03299, 0.34851, 0.655882, 3, 45.5, 246, 24.9987, 0.0983305, 0, 0, 1, 0, -5.89798e-06, 1869
-10548.3, 97551.2, -24.4403, 2.91945, -1006.86, -0.0405374, 0.224928, 1.03299, 0.34851, 0.655882, 0.0001, 45.5, 246, 20.0902, 0.0615959, 0, 0, 1, 0, 1.83056e-05, 1872
-10548.3, 97551.2, -24.4403, 2.91945, -1006.86, -0.0405374, 0.224928, 1.03299, 0.34851, 0.655882, 3, 45.5, 246, 20.0902, 0.0615959, 0, 0, 1, 0, 1.24275e-05, 1872
-8916.15, 711779, -402.162, 0.0305901, -590.138, 0.551813, 0.537723, 1.03299, 0.34851, 0.655882, 3, 45.5, 246, 29.1218, 0.133147, 0, 0, 0, 0, 7.32636e-05, 1874
-11386, 216627, -172.397, 2.25949, -972.57, -0.0211885, 0.366975, 1.03299, 0.34851, 0.655882, 0.0001, 45.5, 246, 36.767, 0.161744, 0, 0, 0, 0, 3.41948e-07, 1877
-11386, 216627, -172.397, 2.25949, -972.57, -0.0211885, 0.366975, 1.03299, 0.34851, 0.655882, 3, 45.5, 246, 36.767, 0.161744, 0, 0, 0, 0, -1.09953e-05, 1877
-20482, 338771, -286.9, 3.62074, -746.98, -0.00320608, 0.275711, 1.03299, 0.34851, 0.655882, 0.0001, 45.5, 246, 38.6449, 0.160402, 3.10747, 1, 0, 0, 7.25747e-05, 1884
-20482, 338771, -286.9, 3.62074, -746.98, -0.00320608, 0.275711, 1.03299, 0.34851, 0.655882, 3, 45.5, 246, 38.6449, 0.160402, 3.23056, 1, 0, 0, -4.90403e-05, 1884
-6808.17, 364999, -407.268, 4.40603, -835.321, 0.138606, 0.347129, 0.958125, 0.351078, 0.648177, 0.0001, 182, 246, 38.6449, 0.160402, 1.05976, 1, 0, 0, 4.15866e-05, 1884
-10306, 396159, -219.064, 0.672744, -795.679, -0.00207102, 0.453027, 1.03299, 0.34851, 0.655882, 0.0001, 45.5, 246, 31.4773, 0.142825, 0, 0, 0, 0, 4.29502e-05, 1889
-10306, 396159, -219.064, 0.672744, -795.679, -0.00207102, 0.453027, 1.03299, 0.34851, 0.655882, 3, 45.5, 246, 31.4773, 0.142825, 0, 0, 0, 0, 3.30644e-05, 1889
-8927.45, 408089, -233.236, 0.701148, -799.639, 9.69243e-07, 0.427699, 0.993198, 0.349787, 0.651995, 3, 91, 246, 31.4773, 0.142825, 0, 0, 1, 0, 4.57704e-05, 1889
-8703.97, 24337.1, 27.9559, 3.36444, -1134.49, 0.0482663, 0.182383, 1.03299, 0.34851, 0.655882, 0.0001, 45.5, 246, 12.146, 0.0426594, 1.38291, 1, 0, 0, -7.98497e-06, 1892
-9561.61, 336580, -295.267, 0.511745, -751.659, 0.396703, 0.581812, 1.03299, 0.34851, 0.655882, 0.0001, 45.5, 246, 39.2242, 0.220729, 0, 0, 0, 0, 2.08641e-05, 1894
-8243.7, 356241, -311.67, 0.545446, -806.371, 0.424543, 0.567579, 0.993198, 0.349787, 0.651995, 0.0001, 91, 246, 39.2242, 0.220729, 0, 0, 1, 0, 3.72903e-05, 1894
-10280.6, 244829, -229.234, 3.85856, -1038.03, 0.376504, 0.237852, 0.993198, 0.349787, 0.651995, 0.0001, 91, 246, 36.2902, 0.132688, 0, 0, 1, 0, 1.0664e-05, 1896
-10280.6, 244829, -229.234, 3.85856, -1038.03, 0.376504, 0.237852, 0.993198, 0.349787, 0.651995, 3, 91, 246, 36.2902, 0.132688, 0, 0, 1, 0, 3.44841e-06, 1896
-12199.9, 148876, -89.0887, 3.4817, -795.499, -0.0574084, 0.173944, 1.03299, 0.34851, 0.655882, 0.0001, 45.5, 246, 26.076, 0.0879827, 0, 0, 0, 0, 8.58599e-06, 1898
-12199.9, 148876, -89.0887, 3.4817, -795.499, -0.0574084, 0.173944, 1.03299, 0.34851, 0.655882, 3, 45.5, 246, 26.076, 0.0879827, 0, 0, 0, 0, 2.07002e-06, 1898
-10177, 390322, -137.659, 0.688315, -1025.85, 0.0029688, 0.382634, 1.03299, 0.34851, 0.655882, 0.0001, 45.5, 246, 28.5862, 0.0905547, 0, 0, 1, 0, 1.08635e-06, 1901
-10177, 390322, -137.659, 0.688315, -1025.85, 0.0029688, 0.382634, 1.03299, 0.34851, 0.655882, 3, 45.5, 246, 28.5862, 0.0905547, 0, 0, 1, 0, 1.35368e-05, 1901
-9027.15, 409186, -149.702, 0.716381, -1029.17, 0.00513722, 0.351691, 0.993198, 0.349787, 0.651995, 3, 91, 246, 28.5862, 0.0905547, 0, 0, 1, 0, 3.7101e-06, 1901
-9742.75, 706635, -209.293, 0.420809, -1064.1, 0.161742, 0.397503, 1.03299, 0.34851, 0.655882, 0.0001, 45.5, 246, 31.5095, 0.0744575, 0, 0, 0, 0, -2.44327e-05, 1905
-8292.97, -12700, 12.3375, 1.88627, -836.382, 0.23337, 0.306282, 1.03299, 0.34851, 0.655882, 0.0001, 45.5, 246, 5.208, 0.0490575, 0, 0, 1, 1, 1.20424e-05, 1918
-11269, 185403, -4.84121, 1.35781, -1180.27, -0.00711756, 0.316065, 1.03299, 0.34851, 0.655882, 0.0001, 45.5, 246, 17.8245, 0.0277219, 0, 0, 1, 0, -2.08828e-05, 1928
-11269, 185403, -4.84121, 1.35781, -1180.27, -0.00711756, 0.316065, 1.03299, 0.34851, 0.655882, 3, 45.5, 246, 17.8245, 0.0277219, 0, 0, 1, 0, 1.23601e-05, 1928
-9480, 117687, -37.709, 1.12685, -1075.73, 0.0597325, 0.338833, 1.03299, 0.34851, 0.655882, 0.0001, 45.5, 246, 20.562, 0.0774821, 0, 0, 1, 0, 1.74894e-05, 1929
-9480, 117687, -37.709, 1.12685, -1075.73, 0.0597325, 0.338833, 1.03299, 0.34851, 0.655882, 3, 45.5, 246, 20.562, 0.0774821, 0, 0, 1, 0, -1.11016e-05, 1929
-11824.6, 609807, -6.75675, 0.345976, -819.385, 0.649491, 0.338423, 1.03299, 0.34851, 0.655882, 0.0001, 45.5, 246, 17.7139, 0.00407691, 0, 0, 1, 0, -1.13706e-05, 1938
-11824.6, 609807, -6.75675, 0.345976, -819.385, 0.649491, 0.338423, 1.03299, 0.34851, 0.655882, 3, 45.5, 246, 17.7139, 0.00407691, 0, 0, 1, 0, 4.36411e-05, 1938
-11139.3, 645532, -9.74207, 0.370539, -913.222, 0.724401, 0.302534, 0.993198, 0.349787, 0.651995, 0.0001, 91, 246, 17.7139, 0.00407691, 0, 0, 1, 0, -5.27156e-05, 1938
-10266.1, 689039, -13.3592, 0.397694, -1031.45, 0.818774, 0.271091, 0.958125, 0.351078, 0.648177, 0.0001, 182, 246, 17.7139, 0.00407691, 0, 0, 1, 0, -0.000106115, 1938
-189.08, 168855, -338.688, 2.93729, -696.384, 0.203847, 0.456015, 0.9175, 0.352806, 0.64323, 0.0001, 455, 246, 48.1635, 0.249969, 1.85133, 1, 0, 0, 4.23609e-07, 1946
-189.08, 168855, -338.688, 2.93729, -696.384, 0.203847, 0.456015, 0.9175, 0.352806, 0.64323, 3, 455, 246, 48.1635, 0.249969, 1.8644, 1, 0, 0, -8.1323e-06, 1946
-12284.1, 139551, -60.592, 3.56039, -885.149, -0.0591553, 0.155646, 1.03299, 0.34851, 0.655882, 0.0001, 45.5, 246, 23.7561, 0.0728175, 0, 0, 0, 0, -1.46493e-05, 1947
-12284.1, 139551, -60.592, 3.56039, -885.149, -0.0591553, 0.155646, 1.03299, 0.34851, 0.655882, 3, 45.5, 246, 23.7561, 0.0728175, 0, 0, 0, 0, -1.1698e-05, 1947
-10095.7, 152482, -96.296, 3.8789, -888.663, 0.00165287, 0.170128, 0.993198, 0.349787, 0.651995, 0.0001, 91, 246, 23.7561, 0.0728175, 0, 0, 1, 0, -3.1165e-06, 1947
-10095.7, 152482, -96.296, 3.8789, -888.663, 0.00165287, 0.170128, 0.993198, 0.349787, 0.651995, 3, 91, 246, 23.7561, 0.0728175, 0, 0, 1, 0, -8.48349e-06, 1947
-11147.8, 319711, -50.2565, 0.72929, -770.796, 0.582855, 0.340052, 1.03299, 0.34851, 0.655882, 0.0001, 45.5, 246, 17.9773, 0.0391447, 0, 0, 1, 0, 8.66758e-05, 1949
-11147.8, 319711, -50.2565, 0.72929, -770.796, 0.582855, 0.340052, 1.03299, 0.34851, 0.655882, 3, 45.5, 246, 17.9773, 0.0391447, 0, 0, 1, 0, -4.03201e-05, 1949
-10307.7, 341797, -57.7609, 0.783587, -850.292, 0.64475, 0.306294, 0.993198, 0.349787, 0.651995, 0.0001, 91, 246, 17.9773, 0.0391447, 0, 0, 1, 0, 8.0322e-06, 1949
-9678.05, 458812, -182.084, 0.528393, -944.217, 0.0219263, 0.408121, 1.03299, 0.34851, 0.655882, 0.0001, 45.5, 246, 29.6877, 0.102196, 0, 0, 0, 0, 8.20691e-06, 1950
-9678.05, 458812, -182.084, 0.528393, -944.217, 0.0219263, 0.408121, 1.03299, 0.34851, 0.655882, 3, 45.5, 246, 29.6877, 0.102196, 0, 0, 0, 0, -2.31813e-05, 1950
-8519.41, 475654, -193.619, 0.549274, -950.265, 0.0232818, 0.378253, 0.993198, 0.349787, 0.651995, 3, 91, 246, 29.6877, 0.102196, 0, 0, 1, 0, -2.7113e-05, 1950
-5512.13, 75255.7, -161.354, 2.82429, -923.359, 0.737732, 0.29515, 1.03299, 0.34851, 0.655882, 0.0001, 45.5, 246, 48.1979, 0.187622, 1.12119, 1, 1, 0, 1.77033e-05, 1954
-4225.04, 96433.5, -201.576, 3.18619, -1063.83, 0.879919, 0.296454, 0.993198, 0.349787, 0.651995, 0.0001, 91, 246, 48.1979, 0.187622, 1.14616, 1, 1, 0, 1.14637e-05, 1954
-2192.31, 126411, -255.288, 3.64692, -1262.94, 1.08149, 0.316506, 0.958125, 0.351078, 0.648177, 0.0001, 182, 246, 48.1979, 0.187622, 1.52861, 1, 1, 0, 3.72306e-06, 1954
-2192.31, 126411, -255.288, 3.64692, -1262.94, 1.08149, 0.316506, 0.958125, 0.351078, 0.648177, 3, 182, 246, 48.1979, 0.187622, 1.36391, 1, 1, 0, -1.81244e-05, 1954
-9250.56, 40493.2, 22.2292, 2.77272, -933.551, 0.240702, 0.232543, 1.03299, 0.34851, 0.655882, 0.0001, 45.5, 246, 9.75345, 0.0301178, 1.09832, 1, 1, 0, 5.87967e-06, 1956
-9250.56, 40493.2, 22.2292, 2.77272, -933.551, 0.240702, 0.232543, 1.03299, 0.34851, 0.655882, 3, 45.5, 246, 9.75345, 0.0301178, 1.03608, 1, 1, 0, -1.31145e-05, 1956
-8825.46, 455715, -338.702, 0.379516, -900.065, 0.0190615, 0.590663, 1.03299, 0.34851, 0.655882, 0.0001, 45.5, 246, 40.0223, 0.197307, 0, 0, 0, 0, 5.25373e-05, 1962
-8825.46, 455715, -338.702, 0.379516, -900.065, 0.0190615, 0.590663, 1.03299, 0.34851, 0.655882, 3, 45.5, 246, 40.0223, 0.197307, 0, 0, 0, 0, 1.1037e-05, 1962
-11107.2, 450073, -175.602, 0.593368, -611.003, -0.000493203, 0.402317, 1.03299, 0.34851, 0.655882, 0.0001, 45.5, 246, 23.821, 0.100743, 0, 0, 1, 0, 1.76973e-06, 1964
-11107.2, 450073, -175.602, 0.593368, -611.003, -0.000493203, 0.402317, 1.03299, 0.34851, 0.655882, 3, 45.5, 246, 23.821, 0.100743, 0, 0, 1, 0, 9.34478e-07, 1964
-11718.9, 214443, -2.63529, 1.25224, -649.477, 0.055331, 0.316971, 1.03299, 0.34851, 0.655882, 0.0001, 45.5, 246, 10.8838, 0.0137722, 0, 0, 1, 0, -3.52726e-06, 1966
-11718.9, 214443, -2.63529, 1.25224, -649.477, 0.055331, 0.316971, 1.03299, 0.34851, 0.655882, 3, 45.5, 246, 10.8838, 0.0137722, 0, 0, 1, 0, 5.16766e-06, 1966
-10776.1, 222346, -10.3053, 1.31825, -655.795, 0.0631355, 0.28648, 0.993198, 0.349787, 0.651995, 0.0001, 91, 246, 10.8838, 0.0137722, 0, 0, 1, 0, 6.08229e-06, 1966
-17141.6, 304438, -0.270444, 3.69529, -1048.75, 0.24106, 0.139561, 0.993198, 0.349787, 0.651995, 0.0001, 91, 246, 17.0051, 0.0110881, 0, 0, 1, 0, 4.67097e-06, 1970
-17141.6, 304438, -0.270444, 3.69529, -1048.75, 0.24106, 0.139561, 0.993198, 0.349787, 0.651995, 3, 91, 246, 17.0051, 0.0110881, 0, 0, 1, 0, -7.8804e-05, 1970
-8159.09, 530669, -328.984, 0.164769, -788.184, -0.000123764, 0.542321, 1.03299, 0.34851, 0.655882, 0.0001, 45.5, 246, 34.8937, 0.16402, 0, 0, 0, 0, -1.7701e-05, 1971
-7017.77, 543548, -341.79, 0.170591, -789.658, -3.10011e-07, 0.52305, 0.993198, 0.349787, 0.651995, 0.0001, 91, 246, 34.8937, 0.16402, 0, 0, 1, 0, -0.000114437, 1971
-1894.02, 306436, -419.414, 4.00638, -1213.64, 0.34401, 0.431503, 0.958125, 0.351078, 0.648177, 0.0001, 182, 246, 47.7072, 0.202376, 0, 0, 0, 0, -7.92174e-06, 1976
-1894.02, 306436, -419.414, 4.00638, -1213.64, 0.34401, 0.431503, 0.958125, 0.351078, 0.648177, 3, 182, 246, 47.7072, 0.202376, 3.71346, 1, 0, 0, -1.03309e-05, 1976
-2826.99, 303187, -377.37, 4.26825, -1232.03, 0.0731393, 0.358388, 0.958125, 0.351078, 0.648177, 0.0001, 182, 246, 44.7081, 0.173849, 1.81742, 1, 0, 0, 8.49458e-07, 1989
-2826.99, 303187, -377.37, 4.26825, -1232.03, 0.0731393, 0.358388, 0.958125, 0.351078, 0.648177, 3, 182, 246, 44.7081, 0.173849, 1.69106, 1, 0, 0, 7.23468e-06, 1989
-6021.31, 137280, -265.872, 3.63215, -768.493, -0.00834613, 0.284572, 1.03299, 0.34851, 0.655882, 0.0001, 45.5, 246, 52.7199, 0.212112, 1.44459, 1, 0, 0, -7.55193e-06, 1990
-6021.31, 137280, -265.872, 3.63215, -768.493, -0.00834613, 0.284572, 1.03299, 0.34851, 0.655882, 3, 45.5, 246, 52.7199, 0.212112, 1.36319, 1, 0, 0, 6.5205e-06, 1990
-2997.2, 149417, -318.992, 3.98827, -800.565, 0.0553775, 0.31002, 0.993198, 0.349787, 0.651995, 0.0001, 91, 246, 52.7199, 0.212112, 1.74716, 1, 1, 0, 3.11177e-07, 1990
-2997.2, 149417, -318.992, 3.98827, -800.565, 0.0553775, 0.31002, 0.993198, 0.349787, 0.651995, 3, 91, 246, 52.7199, 0.212112, 1.64845, 1, 1, 0, 3.35081e-07, 1990
941.736, 164203, -383.865, 4.4221, -851.55, 0.13424, 0.358253, 0.958125, 0.351078, 0.648177, 0.0001, 182, 246, 52.7199, 0.212112, 3.69876, 1, 0, 0, 6.02059e-06, 1990
941.736, 164203, -383.865, 4.4221, -851.55, 0.13424, 0.358253, 0.958125, 0.351078, 0.648177, 3, 182, 246, 52.7199, 0.212112, 3.44095, 1, 0, 0, -3.23062e-06, 1990
678.217, 228946, -325.284, 4.80104, -1510.93, 1.78532, 0.355937, 0.9175, 0.352806, 0.64323, 0.0001, 455, 246, 34.3623, 0.132892, 0, 0, 0, 0, 3.80105e-05, 1995
678.217, 228946, -325.284, 4.80104, -1510.93, 1.78532, 0.355937, 0.9175, 0.352806, 0.64323, 3, 455, 246, 34.3623, 0.132892, 0, 0, 0, 0, 99.445, 1995
808.302, 386559, -430.291, 3.83744, -699.989, 0.132508, 0.431816, 0.9175, 0.352806, 0.64323, 3, 455, 246, 34.0818, 0.157791, 1.04157, 1, 0, 0, 9.75576e-06, 1999
