-10050.2, 206594, -256.789, 2.7185, -935.054, 0.00724955, 0.424432, 1.03299, 0.34851, 0.655882, 3, 45.5, 246, 47.61, 0.224924, 0, 0, 0, 0, 6.04641e-06, 116001
-2994.03, 242690, -355.32, 3.20518, -995.818, 0.0846022, 0.451181, 0.958125, 0.351078, 0.648177, 0.0001, 182, 246, 47.61, 0.224924, 1.12808, 1, 0, 0, 1.70145e-05, 116001
-7258.78, 292612, -239.927, 0.179225, -1130.8, 0.558693, 0.527692, 0.993198, 0.349787, 0.651995, 0.0001, 91, 246, 41.0003, 0.233585, 1.59763, 1, 1, 0, -751.782, 116005
-7258.78, 292612, -239.927, 0.179225, -1130.8, 0.558693, 0.527692, 0.993198, 0.349787, 0.651995, 3, 91, 246, 41.0003, 0.233585, 1.51915, 1, 1, 0, -751.836, 116005
-6687.3, 327844, -249.894, 0.191005, -1241.57, 0.612957, 0.513095, 0.958125, 0.351078, 0.648177, 0.0001, 182, 246, 41.0003, 0.233585, 1.85174, 1, 0, 0, -730.597, 116005
-6687.3, 327844, -249.894, 0.191005, -1241.57, 0.612957, 0.513095, 0.958125, 0.351078, 0.648177, 3, 182, 246, 41.0003, 0.233585, 1.76207, 1, 0, 0, -730.533, 116005
-5736.47, 386722, -263.457, 0.208271, -1425.83, 0.703231, 0.498956, 0.9175, 0.352806, 0.64323, 0.0001, 455, 246, 41.0003, 0.233585, 2.69134, 1, 0, 0, -714.394, 116005
-5736.47, 386722, -263.457, 0.208271, -1425.83, 0.703231, 0.498956, 0.9175, 0.352806, 0.64323, 3, 455, 246, 41.0003, 0.233585, 2.56229, 1, 0, 0, 708.596, 116005
-9423.05, 106632, -88.2812, 2.49594, -898.585, -0.0108193, 0.289769, 1.03299, 0.34851, 0.655882, 0.0001, 45.5, 246, 29.7155, 0.12118, 0, 0, 1, 0, -1.29939e-05, 116007
-9423.05, 106632, -88.2812, 2.49594, -898.585, -0.0108193, 0.289769, 1.03299, 0.34851, 0.655882, 3, 45.5, 246, 29.7155, 0.12118, 0, 0, 1, 0, 1.37309e-05, 116007
-11540.4, 261514, -214.419, 1.60357, -797.161, 0.540005, 0.436167, 1.03299, 0.34851, 0.655882, 0.0001, 45.5, 246, 35.8827, 0.173183, 0, 0, 0, 0, -0.000103526, 116008
-10539.3, 539604, -33.0774, 0.833158, -1081.41, 0.340372, 0.268115, 0.958125, 0.351078, 0.648177, 3, 182, 246, 20.0805, 0.0130386, 0, 0, 1, 0, -5.15544e-05, 116018
-10563.9, 214084, -115.027, 1.49575, -1073.43, 0.0176405, 0.365679, 1.03299, 0.34851, 0.655882, 3, 45.5, 246, 30.5938, 0.12408, 0, 0, 1, 0, 2.15191e-05, 116032
-9178.16, 234755, -136.363, 1.58074, -1082.39, 0.0281085, 0.341962, 0.993198, 0.349787, 0.651995, 0.0001, 91, 246, 30.5938, 0.12408, 0, 0, 1, 0, -1.87183e-05, 116032
-11459.2, 522319, -29.5294, 0.418497, -668.593, 0.263533, 0.339387, 1.03299, 0.34851, 0.655882, 0.0001, 45.5, 246, 15.1489, 0.0153475, 0, 0, 1, 0, 3.09096e-05, 116033
-11459.2, 522319, -29.5294, 0.418497, -668.593, 0.263533, 0.339387, 1.03299, 0.34851, 0.655882, 3, 45.5, 246, 15.1489, 0.0153475, 0, 0, 1, 0, 9.8819e-05, 116033
-10744.5, 537975, -33.1573, 0.439052, -698.051, 0.275826, 0.30382, 0.993198, 0.349787, 0.651995, 0.0001, 91, 246, 15.1489, 0.0153475, 0, 0, 1, 0, 6.19076e-05, 116033
-4894.82, 73446, -178.021, 3.33932, -723.974, 0.0349322, 0.23934, 1.03299, 0.34851, 0.655882, 0.0001, 45.5, 246, 48.4122, 0.161869, 1.28764, 1, 1, 0, -5.19595e-06, 116034
-4894.82, 73446, -178.021, 3.33932, -723.974, 0.0349322, 0.23934, 1.03299, 0.34851, 0.655882, 3, 45.5, 246, 48.4122, 0.161869, 1.09371, 1, 1, 0, -2.65969e-06, 116034
-3451.82, 83630.5, -217.425, 3.64897, -749.243, 0.0890576, 0.251394, 0.993198, 0.349787, 0.651995, 0.0001, 91, 246, 48.4122, 0.161869, 1.32274, 1, 1, 0, 3.86882e-06, 116034
-3451.82, 83630.5, -217.425, 3.64897, -749.243, 0.0890576, 0.251394, 0.993198, 0.349787, 0.651995, 3, 91, 246, 48.4122, 0.161869, 1.15784, 1, 1, 0, 5.26358e-06, 116034
-1497.96, 95395.9, -264.902, 4.01854, -788.244, 0.155803, 0.282356, 0.958125, 0.351078, 0.648177, 0.0001, 182, 246, 48.4122, 0.161869, 1.60431, 1, 1, 0, -1.09453e-05, 116034
-1497.96, 95395.9, -264.902, 4.01854, -788.244, 0.155803, 0.282356, 0.958125, 0.351078, 0.648177, 3, 182, 246, 48.4122, 0.161869, 1.46586, 1, 1, 0, 6.02985e-06, 116034
2209.71, 114966, -345.77, 4.64333, -870.556, 0.2736, 0.358357, 0.9175, 0.352806, 0.64323, 0.0001, 455, 246, 48.4122, 0.161869, 2.98821, 1, 0, 0, -7.95106e-06, 116034
2209.71, 114966, -345.77, 4.64333, -870.556, 0.2736, 0.358357, 0.9175, 0.352806, 0.64323, 3, 455, 246, 48.4122, 0.161869, 2.98799, 1, 0, 0, 3.01884e-06, 116034
-11612.7, 174114, -124.688, 2.96956, -1079.06, 0.181682, 0.261545, 1.03299, 0.34851, 0.655882, 0.0001, 45.5, 246, 33.6518, 0.123912, 0, 0, 0, 0, -2.14409e-06, 116038
-11612.7, 174114, -124.688, 2.96956, -1079.06, 0.181682, 0.261545, 1.03299, 0.34851, 0.655882, 3, 45.5, 246, 33.6518, 0.123912, 0, 0, 0, 0, 2.76206e-06, 116038
289.908, 267295, -302.997, 4.12623, -1316.26, 0.403267, 0.334062, 0.9175, 0.352806, 0.64323, 3, 455, 246, 33.6518, 0.123912, 1.1079, 1, 0, 0, -9.36437e-06, 116038
-11113, 313417, -272.166, 1.45734, -1007.25, 0.0514548, 0.525692, 1.03299, 0.34851, 0.655882, 0.0001, 45.5, 246, 42.9665, 0.210027, 0, 0, 0, 0, -1.48242e-05, 116044
-11113, 313417, -272.166, 1.45734, -1007.25, 0.0514548, 0.525692, 1.03299, 0.34851, 0.655882, 3, 45.5, 246, 42.9665, 0.210027, 0, 0, 0, 0, 2.57962e-05, 116044
-11183.2, 254783, -286.735, 2.35129, -975.056, -0.0166649, 0.499771, 1.03299, 0.34851, 0.655882, 3, 45.5, 246, 48.0643, 0.235399, 0, 0, 0, 0, 2.9265e-06, 116049
-11481.2, 261402, -67.4012, 1.16049, -1020.77, 0.755466, 0.336758, 1.03299, 0.34851, 0.655882, 0.0001, 45.5, 246, 23.688, 0.0613184, 0, 0, 1, 0, -5.47419e-05, 116053
-11481.2, 261402, -67.4012, 1.16049, -1020.77, 0.755466, 0.336758, 1.03299, 0.34851, 0.655882, 3, 45.5, 246, 23.688, 0.0613184, 0, 0, 1, 0, 3.60043e-05, 116053
-10241, 293899, -82.5614, 1.26989, -1162.32, 0.865241, 0.306858, 0.993198, 0.349787, 0.651995, 3, 91, 246, 23.688, 0.0613184, 0, 0, 1, 0, -4.94857e-05, 116053
-6367.58, 843668, -372.479, 0.0231646, -844.441, 0.313741, 0.48843, 1.03299, 0.34851, 0.655882, 3, 45.5, 246, 32.1225, 0.107593, 0, 0, 0, 0, -3.24419e-05, 116064
-5493.02, 156078, -80.6332, 4.36845, -720.25, 0.353009, 0.259973, 0.9175, 0.352806, 0.64323, 0.0001, 455, 246, 11.004, 0.0228616, 0, 0, 1, 0, -6.46853e-05, 116065
-5493.02, 156078, -80.6332, 4.36845, -720.25, 0.353009, 0.259973, 0.9175, 0.352806, 0.64323, 3, 455, 246, 11.004, 0.0228616, 0, 0, 1, 0, 3.35721e-05, 116065
-7472.54, 897486, -296.225, 0.0916788, -784.872, 0.205403, 0.430429, 1.03299, 0.34851, 0.655882, 0.0001, 45.5, 246, 28.0229, 0.0817176, 0, 0, 0, 0, 0.000132295, 116066
-7472.54, 897486, -296.225, 0.0916788, -784.872, 0.205403, 0.430429, 1.03299, 0.34851, 0.655882, 3, 45.5, 246, 28.0229, 0.0817176, 0, 0, 0, 0, -0.113023, 116066
-6503.87, 920252, -306.017, 0.0955487, -811.959, 0.212333, 0.401089, 0.993198, 0.349787, 0.651995, 3, 91, 246, 28.0229, 0.0817176, 0, 0, 1, 0, -1.22976e-05, 116066
-7651.77, -9154.09, -14.4777, 2.51541, -675.924, -0.0294223, 0.272717, 1.03299, 0.34851, 0.655882, 3, 45.5, 246, 16.9995, 0.0288605, 0, 0, 1, 1, 4.92606e-06, 116083
-7138.04, -9432.26, -30.8571, 3.68267, -1059.55, -0.000163891, 0.218858, 0.993198, 0.349787, 0.651995, 0.0001, 91, 246, 16.3084, 0.0515143, 0, 0, 1, 1, 2.74903e-06, 116091
-7138.04, -9432.26, -30.8571, 3.68267, -1059.55, -0.000163891, 0.218858, 0.993198, 0.349787, 0.651995, 3, 91, 246, 16.3084, 0.0515143, 0, 0, 1, 1, 2.81732e-07, 116091
-11075.1, 146036, -74.6912, 2.32593, -722.91, -0.0245983, 0.285038, 1.03299, 0.34851, 0.655882, 0.0001, 45.5, 246, 23.2378, 0.0913282, 0, 0, 1, 0, 5.8379e-06, 116094
-10945.8, 127316, -15.9042, 1.92748, -952.872, 0.731667, 0.28857, 1.03299, 0.34851, 0.655882, 0.0001, 45.5, 246, 17.3752, 0.0444752, 0, 0, 1, 0, -2.69939e-05, 116096
-10945.8, 127316, -15.9042, 1.92748, -952.872, 0.731667, 0.28857, 1.03299, 0.34851, 0.655882, 3, 45.5, 246, 17.3752, 0.0444752, 0, 0, 1, 0, -8.8863e-05, 116096
-12154.4, 195681, -173.118, 3.27663, -1069.16, 0.534525, 0.248606, 1.03299, 0.34851, 0.655882, 0.0001, 45.5, 246, 38.0583, 0.140285, 0, 0, 0, 0, -1.92475e-05, 116097
-12154.4, 195681, -173.118, 3.27663, -1069.16, 0.534525, 0.248606, 1.03299, 0.34851, 0.655882, 3, 45.5, 246, 38.0583, 0.140285, 0, 0, 0, 0, -4.63588e-05, 116097
-8872.53, 224536, -224.409, 3.68042, -1191.75, 0.641799, 0.260677, 0.993198, 0.349787, 0.651995, 0.0001, 91, 246, 38.0583, 0.140285, 0, 0, 1, 0, 7.51709e-05, 116097
-8872.53, 224536, -224.409, 3.68042, -1191.75, 0.641799, 0.260677, 0.993198, 0.349787, 0.651995, 3, 91, 246, 38.0583, 0.140285, 0, 0, 1, 0, -7.14351e-05, 116097
-9017.76, 445815, -301.936, 0.570453, -1031.41, 0.534207, 0.523087, 1.03299, 0.34851, 0.655882, 0.0001, 45.5, 246, 38.7605, 0.163222, 0, 0, 0, 0, 3.45763e-06, 116099
-9017.76, 445815, -301.936, 0.570453, -1031.41, 0.534207, 0.523087, 1.03299, 0.34851, 0.655882, 3, 45.5, 246, 38.7605, 0.163222, 0, 0, 0, 0, 4.20817e-05, 116099
-11359.3, 279001, -160.893, 1.26727, -787.2, 0.226891, 0.397839, 1.03299, 0.34851, 0.655882, 0.0001, 45.5, 246, 29.7853, 0.13425, 0, 0, 1, 0, -5.90584e-06, 116101
-11359.3, 279001, -160.893, 1.26727, -787.2, 0.226891, 0.397839, 1.03299, 0.34851, 0.655882, 3, 45.5, 246, 29.7853, 0.13425, 0, 0, 1, 0, -2.0656e-05, 116101
-9756.56, 294179, -178.768, 1.35001, -822.917, 0.243123, 0.373629, 0.993198, 0.349787, 0.651995, 0.0001, 91, 246, 29.7853, 0.13425, 0, 0, 1, 0, 9.34751e-06, 116101
-9756.56, 294179, -178.768, 1.35001, -822.917, 0.243123, 0.373629, 0.993198, 0.349787, 0.651995, 3, 91, 246, 29.7853, 0.13425, 0, 0, 1, 0, 1.11583e-05, 116101
-2361.27, 132222, -249.78, 3.60959, -1005.57, 1.56545, 0.334483, 0.9175, 0.352806, 0.64323, 0.0001, 455, 246, 38.5575, 0.159662, 1.22336, 1, 1, 0, 4.371e-05, 116104
-2361.27, 132222, -249.78, 3.60959, -1005.57, 1.56545, 0.334483, 0.9175, 0.352806, 0.64323, 3, 455, 246, 38.5575, 0.159662, 1.21679, 1, 1, 0, -2.15952e-05, 116104
-9416.88, 106993, -100.216, 3.22037, -945.14, -0.0464556, 0.225535, 1.03299, 0.34851, 0.655882, 0.0001, 45.5, 246, 31.822, 0.115627, 0, 0, 1, 0, 4.6434e-06, 116105
-9416.88, 106993, -100.216, 3.22037, -945.14, -0.0464556, 0.225535, 1.03299, 0.34851, 0.655882, 3, 45.5, 246, 31.822, 0.115627, 0, 0, 1, 0, -5.69814e-06, 116105
-9665.53, 165359, -181.419, 3.06473, -1156.41, 0.0912045, 0.31111, 1.03299, 0.34851, 0.655882, 0.0001, 45.5, 246, 42.6957, 0.17575, 0, 0, 0, 0, -2.49663e-05, 116107
-9665.53, 165359, -181.419, 3.06473, -1156.41, 0.0912045, 0.31111, 1.03299, 0.34851, 0.655882, 3, 45.5, 246, 42.6957, 0.17575, 0, 0, 0, 0, -7.08556e-06, 116107
-11184.8, 403839, -179.195, 0.844632, -899.49, 0.405732, 0.403323, 1.03299, 0.34851, 0.655882, 0.0001, 45.5, 246, 29.4752, 0.106785, 0, 0, 0, 0, -3.38036e-05, 116108
-11184.8, 403839, -179.195, 0.844632, -899.49, 0.405732, 0.403323, 1.03299, 0.34851, 0.655882, 3, 45.5, 246, 29.4752, 0.106785, 0, 0, 0, 0, 9.69832e-07, 116108
-4609.27, 54907.6, -154.768, 2.83624, -699.902, 0.0489401, 0.279846, 1.03299, 0.34851, 0.655882, 0.0001, 45.5, 246, 51.3025, 0.16831, 1.15614, 1, 1, 0, 5.66218e-06, 116110
-3687.35, 64258.4, -186.257, 3.07401, -720.768, 0.0879724, 0.278856, 0.993198, 0.349787, 0.651995, 0.0001, 91, 246, 51.3025, 0.16831, 1.18808, 1, 1, 0, -1.03215e-05, 116110
-2414.61, 74711.9, -223.248, 3.34852, -750.927, 0.135133, 0.291796, 0.958125, 0.351078, 0.648177, 0.0001, 182, 246, 51.3025, 0.16831, 1.36383, 1, 1, 0, 6.05842e-06, 116110
-2414.61, 74711.9, -223.248, 3.34852, -750.927, 0.135133, 0.291796, 0.958125, 0.351078, 0.648177, 3, 182, 246, 51.3025, 0.16831, 1.20864, 1, 1, 0, -3.32896e-06, 116110
-0.233958, 91168.4, -283.752, 3.79102, -810.511, 0.215173, 0.332667, 0.9175, 0.352806, 0.64323, 0.0001, 455, 246, 51.3025, 0.16831, 1.95582, 1, 1, 1, -1.89631e-05, 116110
-0.233958, 91168.4, -283.752, 3.79102, -810.511, 0.215173, 0.332667, 0.9175, 0.352806, 0.64323, 3, 455, 246, 51.3025, 0.16831, 1.85297, 1, 1, 1, -1.60141e-05, 116110
-7049.54, 564779, -332.368, 0.124427, -911.289, 0.321924, 0.522487, 1.03299, 0.34851, 0.655882, 0.0001, 45.5, 246, 35.6694, 0.146637, 0, 0, 0, 0, 9.25409e-05, 116111
-8787.7, 102057, -95.8614, 1.05293, -979.204, 0.0640236, 0.40342, 1.03299, 0.34851, 0.655882, 0.0001, 45.5, 246, 34.5348, 0.216787, 0, 0, 1, 0, 5.48148e-06, 116115
-8787.7, 102057, -95.8614, 1.05293, -979.204, 0.0640236, 0.40342, 1.03299, 0.34851, 0.655882, 3, 45.5, 246, 34.5348, 0.216787, 0, 0, 1, 0, 9.66037e-06, 116115
-9829.42, 369912, -98.8237, 1.42723, -761.819, 0.00974743, 0.277214, 0.958125, 0.351078, 0.648177, 3, 182, 246, 19.8908, 0.0548823, 0, 0, 1, 0, 2.43233e-05, 116122
-11013.5, 267958, -276.596, 2.02984, -1052.79, 0.00081863, 0.515428, 1.03299, 0.34851, 0.655882, 0.0001, 45.5, 246, 47.0063, 0.230391, 0, 0, 0, 0, -9.32327e-06, 116129
-11013.5, 267958, -276.596, 2.02984, -1052.79, 0.00081863, 0.515428, 1.03299, 0.34851, 0.655882, 3, 45.5, 246, 47.0063, 0.230391, 0, 0, 0, 0, 1.32346e-05, 116129
-10641.6, 138217, -116.322, 3.58363, -1113.33, 0.293693, 0.184469, 1.03299, 0.34851, 0.655882, 0.0001, 45.5, 246, 34.2752, 0.116609, 0, 0, 0, 0, -1.00072e-05, 116138
-10641.6, 138217, -116.322, 3.58363, -1113.33, 0.293693, 0.184469, 1.03299, 0.34851, 0.655882, 3, 45.5, 246, 34.2752, 0.116609, 0, 0, 0, 0, -3.56294e-06, 116138
-8604.94, 116619, -67.3785, 0.202302, -849.811, 0.488496, 0.38255, 1.03299, 0.34851, 0.655882, 0.0001, 45.5, 246, 24.81, 0.157715, 0, 0, 1, 0, 0.000435689, 116141
-9398.35, 97519.4, -53.0637, 1.78603, -1122.56, -0.0139036, 0.324276, 1.03299, 0.34851, 0.655882, 3, 45.5, 246, 25.2628, 0.105263, 0, 0, 1, 0, -3.6997e-06, 116144
-8722.41, 119412, -74.9114, 1.89255, -1124.48, 0.000951347, 0.302145, 0.993198, 0.349787, 0.651995, 0.0001, 91, 246, 25.2628, 0.105263, 0, 0, 1, 0, -6.93956e-06, 116144
-8722.41, 119412, -74.9114, 1.89255, -1124.48, 0.000951347, 0.302145, 0.993198, 0.349787, 0.651995, 3, 91, 246, 25.2628, 0.105263, 0, 0, 1, 0, 9.80566e-06, 116144
-10336.6, 129079, -102.225, 3.45462, -1155.77, 0.0185625, 0.20376, 1.03299, 0.34851, 0.655882, 0.0001, 45.5, 246, 33.3206, 0.115746, 0, 0, 0, 0, 1.40853e-05, 116149
-10336.6, 129079, -102.225, 3.45462, -1155.77, 0.0185625, 0.20376, 1.03299, 0.34851, 0.655882, 3, 45.5, 246, 33.3206, 0.115746, 0, 0, 0, 0, -1.67749e-05, 116149
-8178.26, 152937, -150.037, 3.77662, -1176.3, 0.076224, 0.217527, 0.993198, 0.349787, 0.651995, 0.0001, 91, 246, 33.3206, 0.115746, 0, 0, 1, 0, 3.24643e-06, 116149
-8178.26, 152937, -150.037, 3.77662, -1176.3, 0.076224, 0.217527, 0.993198, 0.349787, 0.651995, 3, 91, 246, 33.3206, 0.115746, 0, 0, 1, 0, 1.32286e-05, 116149
707.805, 219963, -307.259, 4.82184, -1310.12, 0.272811, 0.333179, 0.9175, 0.352806, 0.64323, 0.0001, 455, 246, 33.3206, 0.115746, 1.66475, 1, 0, 0, -1.01382e-06, 116149
707.805, 219963, -307.259, 4.82184, -1310.12, 0.272811, 0.333179, 0.9175, 0.352806, 0.64323, 3, 455, 246, 33.3206, 0.115746, 1.96289, 1, 0, 0, -4.51815e-07, 116149
-7290.08, 45417.8, -79.422, 3.73685, -767.502, 0.11867, 0.278808, 0.9175, 0.352806, 0.64323, 3, 455, 246, 11.4167, 0.0402429, 0, 0, 1, 0, 9.46332e-06, 116163
-8696.17, 107634, -35.7953, 0.319431, -1068.1, 0.00303455, 0.353123, 1.03299, 0.34851, 0.655882, 0.0001, 45.5, 246, 18.7012, 0.0820919, 0, 0, 1, 0, -0.000114778, 116168
-8696.17, 107634, -35.7953, 0.319431, -1068.1, 0.00303455, 0.353123, 1.03299, 0.34851, 0.655882, 3, 45.5, 246, 18.7012, 0.0820919, 0, 0, 1, 0, 4.8572e-05, 116168
-7412.74, 26593.2, -58.2143, 2.41765, -862.546, 0.220672, 0.284408, 1.03299, 0.34851, 0.655882, 0.0001, 45.5, 246, 31.2123, 0.0996806, 0, 0, 1, 1, -1.11945e-05, 116171
-8421.23, 134934, -65.2812, 4.03797, -675.118, 0.45634, 0.200468, 0.958125, 0.351078, 0.648177, 3, 182, 246, 13.4226, 0.0350766, 0, 0, 1, 0, 2.87224e-05, 116175
-9165.17, 514995, -222.087, 0.464903, -679.326, 0.0275597, 0.395344, 0.993198, 0.349787, 0.651995, 3, 91, 246, 26.25, 0.108262, 0, 0, 1, 0, 2.50027e-06, 116181
-4720.41, 95079, -222.227, 3.2869, -645.948, 0.13121, 0.274161, 1.03299, 0.34851, 0.655882, 0.0001, 45.5, 246, 51.7909, 0.194061, 1.46849, 1, 1, 0, -4.75662e-06, 116187
-4720.41, 95079, -222.227, 3.2869, -645.948, 0.13121, 0.274161, 1.03299, 0.34851, 0.655882, 3, 45.5, 246, 51.7909, 0.194061, 1.3443, 1, 1, 0, -9.76719e-06, 116187
-2793.44, 104461, -263.044, 3.61056, -684.563, 0.187315, 0.287047, 0.993198, 0.349787, 0.651995, 0.0001, 91, 246, 51.7909, 0.194061, 1.5664, 1, 1, 0, 1.47565e-05, 116187
-2793.44, 104461, -263.044, 3.61056, -684.563, 0.187315, 0.287047, 0.993198, 0.349787, 0.651995, 3, 91, 246, 51.7909, 0.194061, 1.45407, 1, 1, 0, -8.70386e-06, 116187
-270.981, 115946, -312.74, 3.99904, -738.207, 0.258514, 0.319262, 0.958125, 0.351078, 0.648177, 0.0001, 182, 246, 51.7909, 0.194061, 2.03961, 1, 1, 0, -9.77128e-06, 116187
-270.981, 115946, -312.74, 3.99904, -738.207, 0.258514, 0.319262, 0.958125, 0.351078, 0.648177, 3, 182, 246, 51.7909, 0.194061, 1.91457, 1, 1, 0, -1.39119e-05, 116187
-6371.37, -15734.7, -21.1697, 3.49662, -1024.24, 0.196445, 0.191552, 1.03299, 0.34851, 0.655882, 0.0001, 45.5, 246, 23.4626, 0.0446467, 0, 0, 1, 1, -5.16702e-06, 116193
-6371.37, -15734.7, -21.1697, 3.49662, -1024.24, 0.196445, 0.191552, 1.03299, 0.34851, 0.655882, 3, 45.5, 246, 23.4626, 0.0446467, 0, 0, 1, 1, -8.79164e-06, 116193
-11667.9, 207801, -35.2688, 1.50469, -951.889, -0.0078709, 0.315612, 1.03299, 0.34851, 0.655882, 0.0001, 45.5, 246, 19.3321, 0.0499402, 0, 0, 1, 0, 2.0881e-05, 116194
-11667.9, 207801, -35.2688, 1.50469, -951.889, -0.0078709, 0.315612, 1.03299, 0.34851, 0.655882, 3, 45.5, 246, 19.3321, 0.0499402, 0, 0, 1, 0, -1.59542e-07, 116194
-10474.3, 223427, -50.4431, 1.58609, -953.222, 0.00261355, 0.288365, 0.993198, 0.349787, 0.651995, 0.0001, 91, 246, 19.3321, 0.0499402, 0, 0, 1, 0, 1.65151e-05, 116194
-6382.93, -11415, -24.7424, 3.56677, -898.97, 0.0468522, 0.180931, 1.03299, 0.34851, 0.655882, 0.0001, 45.5, 246, 22.6378, 0.0391531, 0, 0, 1, 1, -1.20565e-05, 116195
-6382.93, -11415, -24.7424, 3.56677, -898.97, 0.0468522, 0.180931, 1.03299, 0.34851, 0.655882, 3, 45.5, 246, 22.6378, 0.0391531, 0, 0, 1, 1, -1.06568e-05, 116195
541.165, 275385, -341.769, 4.05417, -934.085, 0.183601, 0.362727, 0.9175, 0.352806, 0.64323, 3, 455, 246, 34.8769, 0.143155, 1.09851, 1, 0, 0, 1.7322e-05, 116199
-10839, 369634, -89.2485, 0.565996, -598.913, 0.82112, 0.353928, 1.03299, 0.34851, 0.655882, 0.0001, 45.5, 246, 17.8084, 0.0544817, 0, 0, 1, 0, 4.15765e-05, 116203
-10053.7, 394641, -96.0007, 0.615196, -689.842, 0.945309, 0.320164, 0.993198, 0.349787, 0.651995, 0.0001, 91, 246, 17.8084, 0.0544817, 0, 0, 1, 0, 0.000356731, 116203
-11102.2, 243551, -124.339, 1.45691, -974.702, 0.0104247, 0.368249, 1.03299, 0.34851, 0.655882, 0.0001, 45.5, 246, 29.7148, 0.120283, 0, 0, 1, 0, 1.30199e-05, 116204
-11102.2, 243551, -124.339, 1.45691, -974.702, 0.0104247, 0.368249, 1.03299, 0.34851, 0.655882, 3, 45.5, 246, 29.7148, 0.120283, 0, 0, 1, 0, -3.82273e-06, 116204
-9568.33, 260604, -144.366, 1.53809, -982.36, 0.0203049, 0.344164, 0.993198, 0.349787, 0.651995, 3, 91, 246, 29.7148, 0.120283, 0, 0, 1, 0, -1.45835e-05, 116204
-5346.14, 60574.2, -141.508, 3.27044, -974.577, 0.587535, 0.231256, 1.03299, 0.34851, 0.655882, 0.0001, 45.5, 246, 45.0652, 0.145571, 1.07973, 1, 1, 0, 1.74662e-05, 116207
-4145.68, 81864.6, -186.825, 3.68287, -1094.64, 0.706096, 0.242162, 0.993198, 0.349787, 0.651995, 0.0001, 91, 246, 45.0652, 0.145571, 1.11984, 1, 1, 0, 7.2283e-06, 116207
-2155.05, 110652, -247.225, 4.20685, -1262.78, 0.871575, 0.27629, 0.958125, 0.351078, 0.648177, 0.0001, 182, 246, 45.0652, 0.145571, 1.49768, 1, 1, 0, 1.33466e-05, 116207
-2155.05, 110652, -247.225, 4.20685, -1262.78, 0.871575, 0.27629, 0.958125, 0.351078, 0.648177, 3, 182, 246, 45.0652, 0.145571, 1.34723, 1, 1, 0, 1.33502e-05, 116207
-3553.57, 499647, -433.749, 0.00190039, -1138.35, 0.0199074, 0.722776, 0.958125, 0.351078, 0.648177, 0.0001, 182, 246, 48.389, 0.249396, 0, 0, 0, 0, -5.26075e-05, 116212
-7747.83, 81449.9, -112.657, 2.29608, -1082.34, 0.370023, 0.334878, 1.03299, 0.34851, 0.655882, 3, 45.5, 246, 39.3343, 0.182188, 0, 0, 1, 0, -2.02818e-05, 116213
-8541.56, 76701.4, -77.1604, 1.72752, -1136.35, 0.135516, 0.351223, 1.03299, 0.34851, 0.655882, 0.0001, 45.5, 246, 32.458, 0.165044, 0, 0, 1, 0, -1.43538e-05, 116216
-8541.56, 76701.4, -77.1604, 1.72752, -1136.35, 0.135516, 0.351223, 1.03299, 0.34851, 0.655882, 3, 45.5, 246, 32.458, 0.165044, 0, 0, 1, 0, -9.68812e-06, 116216
-8095.53, 92699.1, -116.047, 3.55735, -1109.52, -0.0352755, 0.204428, 1.03299, 0.34851, 0.655882, 0.0001, 45.5, 246, 37.0651, 0.130812, 0, 0, 0, 0, 1.25384e-06, 116217
-8095.53, 92699.1, -116.047, 3.55735, -1109.52, -0.0352755, 0.204428, 1.03299, 0.34851, 0.655882, 3, 45.5, 246, 37.0651, 0.130812, 0, 0, 0, 0, 4.2589e-06, 116217
-6403.04, 114351, -164.809, 3.88569, -1122.22, 0.0254562, 0.221733, 0.993198, 0.349787, 0.651995, 0.0001, 91, 246, 37.0651, 0.130812, 0, 0, 1, 0, -1.31542e-05, 116217
-6403.04, 114351, -164.809, 3.88569, -1122.22, 0.0254562, 0.221733, 0.993198, 0.349787, 0.651995, 3, 91, 246, 37.0651, 0.130812, 0, 0, 1, 0, -7.33398e-06, 116217
1038.24, 173971, -324.318, 4.95957, -1237.61, 0.227885, 0.349415, 0.9175, 0.352806, 0.64323, 0.0001, 455, 246, 37.0651, 0.130812, 3.5244, 1, 0, 0, -1.06086e-05, 116217
1038.24, 173971, -324.318, 4.95957, -1237.61, 0.227885, 0.349415, 0.9175, 0.352806, 0.64323, 3, 455, 246, 37.0651, 0.130812, 3.58684, 1, 0, 0, 2.10058e-05, 116217
-12825.2, 271384, -386.047, 3.59414, -848.176, -0.0621437, 0.449971, 1.03299, 0.34851, 0.655882, 0.0001, 45.5, 246, 54.312, 0.246581, 1.09047, 1, 0, 0, -1.77868e-05, 116220
-12825.2, 271384, -386.047, 3.59414, -848.176, -0.0621437, 0.449971, 1.03299, 0.34851, 0.655882, 3, 45.5, 246, 54.312, 0.246581, 1.01839, 1, 0, 0, 1.97081e-05, 116220
-6968.91, 286506, -455.049, 3.95041, -885.527, 0.00039448, 0.487111, 0.993198, 0.349787, 0.651995, 0.0001, 91, 246, 54.312, 0.246581, 1.69948, 1, 1, 0, -3.51207e-06, 116220
-6968.91, 286506, -455.049, 3.95041, -885.527, 0.00039448, 0.487111, 0.993198, 0.349787, 0.651995, 3, 91, 246, 54.312, 0.246581, 1.63251, 1, 1, 0, 6.5985e-06, 116220
-6718.25, 84385.6, -124.683, 3.45873, -1137.29, 0.0841342, 0.241526, 0.993198, 0.349787, 0.651995, 0.0001, 91, 246, 33.7713, 0.119875, 0, 0, 1, 0, -1.03419e-05, 116235
-6718.25, 84385.6, -124.683, 3.45873, -1137.29, 0.0841342, 0.241526, 0.993198, 0.349787, 0.651995, 3, 91, 246, 33.7713, 0.119875, 0, 0, 1, 0, 2.27895e-06, 116235
-1718.69, 144656, -257.433, 4.34626, -1251.18, 0.247333, 0.326356, 0.9175, 0.352806, 0.64323, 0.0001, 455, 246, 33.7713, 0.119875, 1.14747, 1, 0, 0, 1.72985e-05, 116235
-1718.69, 144656, -257.433, 4.34626, -1251.18, 0.247333, 0.326356, 0.9175, 0.352806, 0.64323, 3, 455, 246, 33.7713, 0.119875, 1.14812, 1, 0, 0, 2.27237e-05, 116235
-8148.58, 448778, -425.064, 0.345369, -1090.89, 0.26012, 0.73774, 1.03299, 0.34851, 0.655882, 3, 45.5, 246, 48.9287, 0.249271, 0, 0, 0, 0, -920.813, 116243
-22557.3, -159664, -61.4517, 0.24004, -736.433, 0.825972, 0.328192, 0.958125, 0.351078, 0.648177, 0.0001, 182, 246, -148.527, 0.126488, 0, 0, 1, 0, -9.77931e-05, 116244
-6110.73, 392549, -508.296, 3.67214, -746.544, 0.41826, 0.539408, 0.958125, 0.351078, 0.648177, 0.0001, 182, 246, 42.9905, 0.210262, 1.85241, 1, 0, 0, -0.000156284, 116251
-6110.73, 392549, -508.296, 3.67214, -746.544, 0.41826, 0.539408, 0.958125, 0.351078, 0.648177, 3, 182, 246, 42.9905, 0.210262, 1.75229, 1, 0, 0, 2.86406e-06, 116251
-11812.6, 268838, -295.816, 2.36713, -969.553, 0.186481, 0.495896, 1.03299, 0.34851, 0.655882, 0.0001, 45.5, 246, 47.2862, 0.226773, 0, 0, 0, 0, -9.66e-06, 116255
-9475.72, 49991.7, 12.1413, 2.88523, -1101.02, 0.13202, 0.226043, 1.03299, 0.34851, 0.655882, 0.0001, 45.5, 246, 14.4082, 0.0441316, 1.12421, 1, 1, 0, 3.02439e-06, 116257
-9475.72, 49991.7, 12.1413, 2.88523, -1101.02, 0.13202, 0.226043, 1.03299, 0.34851, 0.655882, 3, 45.5, 246, 14.4082, 0.0441316, 1.05993, 1, 1, 0, 2.37227e-06, 116257
-8888.19, 71778.9, -17.4625, 3.13977, -1128.16, 0.175526, 0.223154, 0.993198, 0.349787, 0.651995, 0.0001, 91, 246, 14.4082, 0.0441316, 0, 0, 1, 0, 1.30037e-06, 116257
-10196.4, 146297, -124.837, 2.00991, -661.618, 0.828219, 0.331315, 1.03299, 0.34851, 0.655882, 0.0001, 45.5, 246, 29.4335, 0.132774, 0, 0, 1, 0, 5.33624e-05, 116262
-10196.4, 146297, -124.837, 2.00991, -661.618, 0.828219, 0.331315, 1.03299, 0.34851, 0.655882, 3, 45.5, 246, 29.4335, 0.132774, 0, 0, 1, 0, -5.25259e-05, 116262
-8849.27, 162510, -146.759, 2.24552, -770.646, 0.975795, 0.314819, 0.993198, 0.349787, 0.651995, 0.0001, 91, 246, 29.4335, 0.132774, 0, 0, 1, 0, -2.87878e-05, 116262
-7000.73, 184933, -175.024, 2.53819, -924.052, 1.18339, 0.309296, 0.958125, 0.351078, 0.648177, 3, 182, 246, 29.4335, 0.132774, 0, 0, 1, 0, 2.0216e-05, 116262
-7987.97, 945444, -275.527, 0.158804, -883.672, 0.035759, 0.420358, 1.03299, 0.34851, 0.655882, 0.0001, 45.5, 246, 29.5172, 0.0744539, 0, 0, 0, 0, -4.39921e-05, 116264
-7987.97, 945444, -275.527, 0.158804, -883.672, 0.035759, 0.420358, 1.03299, 0.34851, 0.655882, 3, 45.5, 246, 29.5172, 0.0744539, 0, 0, 0, 0, -4.40135e-05, 116264
-10606.9, 206936, -141.411, 1.8642, -1137.11, -0.016277, 0.37331, 1.03299, 0.34851, 0.655882, 0.0001, 45.5, 246, 35.093, 0.149043, 0, 0, 0, 0, 8.02654e-06, 116270
-10606.9, 206936, -141.411, 1.8642, -1137.11, -0.016277, 0.37331, 1.03299, 0.34851, 0.655882, 3, 45.5, 246, 35.093, 0.149043, 0, 0, 0, 0, 4.4128e-06, 116270
-8818.59, 229753, -170.144, 1.98077, -1143.49, -4.57085e-05, 0.356216, 0.993198, 0.349787, 0.651995, 0.0001, 91, 246, 35.093, 0.149043, 0, 0, 1, 0, -4.32488e-06, 116270
-8818.59, 229753, -170.144, 1.98077, -1143.49, -4.57085e-05, 0.356216, 0.993198, 0.349787, 0.651995, 3, 91, 246, 35.093, 0.149043, 0, 0, 1, 0, 3.0455e-05, 116270
-10363.2, 147551, -128.974, 2.38789, -777.345, 0.741727, 0.305765, 1.03299, 0.34851, 0.655882, 0.0001, 45.5, 246, 31.3687, 0.130855, 0, 0, 1, 0, -1.28903e-05, 116275
-10363.2, 147551, -128.974, 2.38789, -777.345, 0.741727, 0.305765, 1.03299, 0.34851, 0.655882, 3, 45.5, 246, 31.3687, 0.130855, 0, 0, 1, 0, 3.04029e-05, 116275
-3961.37, 377524, -449.461, 3.71296, -1084.43, 0.245073, 0.469836, 0.958125, 0.351078, 0.648177, 0.0001, 182, 246, 45.5649, 0.196646, 1.23995, 1, 0, 0, -7.26012e-06, 116276
-3961.37, 377524, -449.461, 3.71296, -1084.43, 0.245073, 0.469836, 0.958125, 0.351078, 0.648177, 3, 182, 246, 45.5649, 0.196646, 1.37237, 1, 0, 0, -9.29896e-06, 116276
-10211.8, 511298, -503.903, 4.30333, -803.577, 0.0810971, 0.416623, 0.958125, 0.351078, 0.648177, 3, 182, 246, 39.064, 0.166254, 1.06718, 1, 0, 0, 1.08568e-05, 116283
-11448.2, 263173, -13.9002, 0.932696, -726.865, -0.00359944, 0.328732, 1.03299, 0.34851, 0.655882, 0.0001, 45.5, 246, 13.4799, 0.0199687, 0, 0, 1, 0, -5.68855e-06, 116287
-11448.2, 263173, -13.9002, 0.932696, -726.865, -0.00359944, 0.328732, 1.03299, 0.34851, 0.655882, 3, 45.5, 246, 13.4799, 0.0199687, 0, 0, 1, 0, -1.94735e-06, 116287
-10612.5, 272249, -20.7181, 0.973305, -727.112, 0.000388399, 0.295694, 0.993198, 0.349787, 0.651995, 0.0001, 91, 246, 13.4799, 0.0199687, 0, 0, 1, 0, 2.41023e-06, 116287
-7838.32, 489035, -427.601, 0.367099, -1151.24, 0.000256402, 0.718699, 1.03299, 0.34851, 0.655882, 0.0001, 45.5, 246, 48.8376, 0.235731, 0, 0, 0, 0, -1.6649e-05, 116291
-7838.32, 489035, -427.601, 0.367099, -1151.24, 0.000256402, 0.718699, 1.03299, 0.34851, 0.655882, 3, 45.5, 246, 48.8376, 0.235731, 0, 0, 0, 0, 1.37302e-05, 116291
-5885.5, -32198.2, -25.2997, 3.62759, -807.133, 0.109878, 0.185931, 1.03299, 0.34851, 0.655882, 0.0001, 45.5, 246, 24.1485, 0.0246652, 0, 0, 1, 1, -6.0238e-06, 116299
-10133.2, 850991, -80.0949, 0.201927, -773.306, 0.00537417, 0.347406, 1.03299, 0.34851, 0.655882, 0.0001, 45.5, 246, 20.4499, 0.0244241, 0, 0, 1, 0, -3.03216e-05, 116301
-9563.89, 861835, -83.9505, 0.208143, -774.418, 0.00556349, 0.311775, 0.993198, 0.349787, 0.651995, 0.0001, 91, 246, 20.4499, 0.0244241, 0, 0, 1, 0, 3.05748e-05, 116301
-10942.8, 100131, -8.14239, 2.86401, -742.757, -0.0381385, 0.220301, 1.03299, 0.34851, 0.655882, 0.0001, 45.5, 246, 13.7259, 0.0372053, 0, 0, 1, 0, -3.40722e-06, 116304
-10942.8, 100131, -8.14239, 2.86401, -742.757, -0.0381385, 0.220301, 1.03299, 0.34851, 0.655882, 3, 45.5, 246, 13.7259, 0.0372053, 0, 0, 1, 0, -1.2954e-05, 116304
-7952.55, 131425, -84.325, 4.04649, -804.948, 0.451875, 0.206561, 0.958125, 0.351078, 0.648177, 0.0001, 182, 246, 16.6538, 0.0465997, 0, 0, 1, 0, 1.33746e-05, 116305
-7952.55, 131425, -84.325, 4.04649, -804.948, 0.451875, 0.206561, 0.958125, 0.351078, 0.648177, 3, 182, 246, 16.6538, 0.0465997, 0, 0, 1, 0, 4.24421e-05, 116305
-4353.62, 153413, -142.516, 4.77658, -917.556, 0.623503, 0.280584, 0.9175, 0.352806, 0.64323, 0.0001, 455, 246, 16.6538, 0.0465997, 0, 0, 1, 0, 1.74139e-05, 116305
-4353.62, 153413, -142.516, 4.77658, -917.556, 0.623503, 0.280584, 0.9175, 0.352806, 0.64323, 3, 455, 246, 16.6538, 0.0465997, 0, 0, 1, 0, 7.458e-05, 116305
-8660.96, 10115.9, 1.39461, 1.11444, -734.913, 0.360791, 0.330534, 1.03299, 0.34851, 0.655882, 3, 45.5, 246, 6.90106, 0.0442441, 0, 0, 1, 0, 6.74183e-06, 116315
-1033.28, 661631, -498.661, 0.383648, -849.298, 0.00247657, 0.627825, 0.9175, 0.352806, 0.64323, 3, 455, 246, 39.6158, 0.187476, 0, 0, 0, 0, -7.17506e-06, 116316
-9453.16, 275957, -83.5202, 1.59976, -689.177, 0.0169754, 0.272206, 0.958125, 0.351078, 0.648177, 0.0001, 182, 246, 17.9501, 0.0568142, 0, 0, 1, 0, 1.17943e-06, 116320
-12048.9, 161429, -28.5945, 2.29828, -978.956, -0.0248763, 0.269798, 1.03299, 0.34851, 0.655882, 0.0001, 45.5, 246, 19.6182, 0.0537573, 0, 0, 1, 0, -1.14934e-05, 116323
-12048.9, 161429, -28.5945, 2.29828, -978.956, -0.0248763, 0.269798, 1.03299, 0.34851, 0.655882, 3, 45.5, 246, 19.6182, 0.0537573, 0, 0, 1, 0, -6.7866e-06, 116323
-7633.78, -10593.5, -4.54342, 2.67356, -812.923, 0.0375923, 0.260604, 1.03299, 0.34851, 0.655882, 3, 45.5, 246, 14.4665, 0.0440526, 0, 0, 1, 1, 4.79823e-06, 116324
-8205.78, 129386, -177.907, 2.64255, -829.221, 0.00523994, 0.345647, 1.03299, 0.34851, 0.655882, 0.0001, 45.5, 246, 43.1025, 0.197568, 0, 0, 1, 0, 1.70277e-05, 116327
-8205.78, 129386, -177.907, 2.64255, -829.221, 0.00523994, 0.345647, 1.03299, 0.34851, 0.655882, 3, 45.5, 246, 43.1025, 0.197568, 0, 0, 1, 0, -1.79303e-06, 116327
-112.01, 177861, -317.62, 3.46623, -924.96, 0.142334, 0.38897, 0.9175, 0.352806, 0.64323, 0.0001, 455, 246, 43.1025, 0.197568, 1.90029, 1, 0, 0, -6.57743e-06, 116327
-112.01, 177861, -317.62, 3.46623, -924.96, 0.142334, 0.38897, 0.9175, 0.352806, 0.64323, 3, 455, 246, 43.1025, 0.197568, 1.90848, 1, 0, 0, -1.13558e-05, 116327
-13913, 152545, -1.80864, 3.54836, -1103.47, -0.0605543, 0.140161, 1.03299, 0.34851, 0.655882, 0.0001, 45.5, 246, 19.3884, 0.0417234, 0, 0, 0, 0, 2.43666e-06, 116328
-13913, 152545, -1.80864, 3.54836, -1103.47, -0.0605543, 0.140161, 1.03299, 0.34851, 0.655882, 3, 45.5, 246, 19.3884, 0.0417234, 0, 0, 0, 0, -7.11453e-06, 116328
-11540.6, 172729, -39.3143, 3.86288, -1100.02, -0.00018577, 0.153357, 0.993198, 0.349787, 0.651995, 0.0001, 91, 246, 19.3884, 0.0417234, 0, 0, 1, 0, 7.39637e-07, 116328
-11540.6, 172729, -39.3143, 3.86288, -1100.02, -0.00018577, 0.153357, 0.993198, 0.349787, 0.651995, 3, 91, 246, 19.3884, 0.0417234, 0, 0, 1, 0, 9.92849e-07, 116328
-6960.64, 31501.1, -74.7812, 2.57703, -842.759, 0.128839, 0.276536, 1.03299, 0.34851, 0.655882, 3, 45.5, 246, 35.2728, 0.108308, 0, 0, 1, 1, 4.10231e-07, 116334
-6153.16, 22496.5, -89.1852, 3.25571, -546.523, 0.596698, 0.193822, 1.03299, 0.34851, 0.655882, 0.0001, 45.5, 246, 32.6762, 0.0509848, 0, 0, 1, 0, -1.06758e-05, 116335
-6153.16, 22496.5, -89.1852, 3.25571, -546.523, 0.596698, 0.193822, 1.03299, 0.34851, 0.655882, 3, 45.5, 246, 32.6762, 0.0509848, 0, 0, 1, 0, -4.86555e-08, 116335
-5810, 29101.6, -115.266, 3.66335, -615.735, 0.716771, 0.201951, 0.993198, 0.349787, 0.651995, 0.0001, 91, 246, 32.6762, 0.0509848, 0, 0, 1, 0, 7.91509e-06, 116335
-5810, 29101.6, -115.266, 3.66335, -615.735, 0.716771, 0.201951, 0.993198, 0.349787, 0.651995, 3, 91, 246, 32.6762, 0.0509848, 0, 0, 1, 0, -1.69161e-05, 116335
-5201.89, 38124.8, -149.916, 4.18087, -712.69, 0.884394, 0.232933, 0.958125, 0.351078, 0.648177, 0.0001, 182, 246, 32.6762, 0.0509848, 0, 0, 1, 0, -1.6291e-07, 116335
-5201.89, 38124.8, -149.916, 4.18087, -712.69, 0.884394, 0.232933, 0.958125, 0.351078, 0.648177, 3, 182, 246, 32.6762, 0.0509848, 0, 0, 1, 0, 1.49923e-05, 116335
-10677.5, 202820, -199.992, 2.66386, -1089.79, 0.0169494, 0.3673, 1.03299, 0.34851, 0.655882, 0.0001, 45.5, 246, 42.2775, 0.184408, 0, 0, 0, 0, 2.77045e-06, 116337
-10677.5, 202820, -199.992, 2.66386, -1089.79, 0.0169494, 0.3673, 1.03299, 0.34851, 0.655882, 3, 45.5, 246, 42.2775, 0.184408, 0, 0, 0, 0, 1.1163e-05, 116337
-10056.1, 243490, -193.02, 1.44876, -1107.28, 0.0794251, 0.447424, 1.03299, 0.34851, 0.655882, 3, 45.5, 246, 39.2966, 0.185075, 0, 0, 0, 0, 2.73768e-05, 116340
-8280.33, 267101, -219.109, 1.53831, -1130.36, 0.090351, 0.429648, 0.993198, 0.349787, 0.651995, 3, 91, 246, 39.2966, 0.185075, 0, 0, 1, 0, -1.63824e-05, 116340
-7813.59, 133286, -190.121, 3.37156, -1089.1, -0.0395596, 0.283172, 1.03299, 0.34851, 0.655882, 3, 45.5, 246, 45.9732, 0.186339, 0, 0, 0, 0, -2.36058e-06, 116355
-5346.94, 154720, -242.837, 3.67618, -1106.88, 0.0149187, 0.299051, 0.993198, 0.349787, 0.651995, 3, 91, 246, 45.9732, 0.186339, 0, 0, 1, 0, -9.99792e-06, 116355
-1963.65, 178353, -305.962, 4.03963, -1142.97, 0.0805012, 0.333922, 0.958125, 0.351078, 0.648177, 0.0001, 182, 246, 45.9732, 0.186339, 1.60122, 1, 0, 0, -1.87509e-05, 116355
-1963.65, 178353, -305.962, 4.03963, -1142.97, 0.0805012, 0.333922, 0.958125, 0.351078, 0.648177, 3, 182, 246, 45.9732, 0.186339, 1.42187, 1, 0, 0, 4.20113e-06, 116355
-18037.8, -238698, 4.18541, 0.670153, -1170.38, 0.122721, 0.399396, 1.03299, 0.34851, 0.655882, 0.0001, 45.5, 246, -142.235, 0.14142, 0, 0, 1, 0, -1.39139e-05, 116357
-18037.8, -238698, 4.18541, 0.670153, -1170.38, 0.122721, 0.399396, 1.03299, 0.34851, 0.655882, 3, 45.5, 246, -142.235, 0.14142, 0, 0, 1, 0, 3.448e-05, 116357
-10998.4, 122474, -56.399, 3.03448, -993.166, -0.0157279, 0.221499, 1.03299, 0.34851, 0.655882, 0.0001, 45.5, 246, 24.7529, 0.0814464, 0, 0, 0, 0, -5.87836e-06, 116360
-10998.4, 122474, -56.399, 3.03448, -993.166, -0.0157279, 0.221499, 1.03299, 0.34851, 0.655882, 3, 45.5, 246, 24.7529, 0.0814464, 0, 0, 0, 0, -3.93152e-06, 116360
-10202.2, 310016, -37.8588, 1.92993, -1026.46, 0.126831, 0.250596, 0.958125, 0.351078, 0.648177, 3, 182, 246, 17.4469, 0.0201554, 0, 0, 1, 0, -5.58974e-06, 116362
-8294.2, -6721.7, 2.19931, 1.84692, -817.608, 0.447604, 0.307689, 1.03299, 0.34851, 0.655882, 0.0001, 45.5, 246, 10.0479, 0.0516626, 0, 0, 1, 0, 8.50826e-06, 116363
-8294.2, -6721.7, 2.19931, 1.84692, -817.608, 0.447604, 0.307689, 1.03299, 0.34851, 0.655882, 3, 45.5, 246, 10.0479, 0.0516626, 0, 0, 1, 0, 5.79261e-06, 116363
-8763.78, 18496.8, 1.65746, 0.841136, -936.679, 0.830211, 0.335732, 1.03299, 0.34851, 0.655882, 3, 45.5, 246, 7.72076, 0.0404112, 0, 0, 1, 0, -1.60113e-05, 116371
-8411.84, 438858, -274.8, 0.494276, -1072.99, 0.593226, 0.492997, 1.03299, 0.34851, 0.655882, 0.0001, 45.5, 246, 37.5751, 0.149027, 0, 0, 0, 0, 6.39804e-05, 116383
-8411.84, 438858, -274.8, 0.494276, -1072.99, 0.593226, 0.492997, 1.03299, 0.34851, 0.655882, 3, 45.5, 246, 37.5751, 0.149027, 0, 0, 0, 0, -0.000226789, 116383
-7965.37, 500435, -351.984, 0.156305, -839.608, 0.0503379, 0.585879, 1.03299, 0.34851, 0.655882, 0.0001, 45.5, 246, 38.0596, 0.186321, 0, 0, 0, 0, -6.77483e-05, 116385
-6720.88, 516531, -366.008, 0.162431, -847.86, 0.050854, 0.570888, 0.993198, 0.349787, 0.651995, 0.0001, 91, 246, 38.0596, 0.186321, 0, 0, 1, 0, 6.94166e-05, 116385
-13861.1, 177149, 10.6259, 2.68158, -1016.67, -0.0168403, 0.226723, 1.03299, 0.34851, 0.655882, 0.0001, 45.5, 246, 15.891, 0.0240867, 0, 0, 1, 0, -1.25227e-05, 116386
-13861.1, 177149, 10.6259, 2.68158, -1016.67, -0.0168403, 0.226723, 1.03299, 0.34851, 0.655882, 3, 45.5, 246, 15.891, 0.0240867, 0, 0, 1, 0, -6.32695e-06, 116386
-10439.6, 275605, -32.6485, 2.27405, -773.865, 0.0257367, 0.240756, 0.958125, 0.351078, 0.648177, 3, 182, 246, 13.846, 0.0175178, 0, 0, 1, 0, 1.26195e-05, 116399
-4560.45, 74636.1, -174.781, 3.50755, -1020.55, 0.0934931, 0.237342, 1.03299, 0.34851, 0.655882, 0.0001, 45.5, 246, 50.4669, 0.174731, 1.25406, 1, 1, 0, 1.01319e-05, 116410
-4560.45, 74636.1, -174.781, 3.50755, -1020.55, 0.0934931, 0.237342, 1.03299, 0.34851, 0.655882, 3, 45.5, 246, 50.4669, 0.174731, 1.02341, 1, 1, 0, 1.04071e-05, 116410
-2935.64, 94600.3, -226.072, 3.85815, -1060.19, 0.155358, 0.25536, 0.993198, 0.349787, 0.651995, 0.0001, 91, 246, 50.4669, 0.174731, 1.4067, 1, 1, 0, -2.52292e-05, 116410
-2935.64, 94600.3, -226.072, 3.85815, -1060.19, 0.155358, 0.25536, 0.993198, 0.349787, 0.651995, 3, 91, 246, 50.4669, 0.174731, 1.24033, 1, 1, 0, -1.76979e-05, 116410
-507.254, 117524, -289.175, 4.28359, -1120.94, 0.233864, 0.294982, 0.958125, 0.351078, 0.648177, 0.0001, 182, 246, 50.4669, 0.174731, 2.04166, 1, 1, 1, 3.54951e-06, 116410
-507.254, 117524, -289.175, 4.28359, -1120.94, 0.233864, 0.294982, 0.958125, 0.351078, 0.648177, 3, 182, 246, 50.4669, 0.174731, 1.90436, 1, 1, 1, -4.48499e-06, 116410
-10345.7, 186472, -197.005, 2.35571, -779.638, -0.0262555, 0.385191, 1.03299, 0.34851, 0.655882, 0.0001, 45.5, 246, 39.759, 0.192195, 0, 0, 1, 0, -1.65553e-05, 116412
-10345.7, 186472, -197.005, 2.35571, -779.638, -0.0262555, 0.385191, 1.03299, 0.34851, 0.655882, 3, 45.5, 246, 39.759, 0.192195, 0, 0, 1, 0, 2.48127e-06, 116412
-10730.1, 80033.1, 16.701, 3.46715, -878.632, -0.0572706, 0.156452, 1.03299, 0.34851, 0.655882, 0.0001, 45.5, 246, 12.2085, 0.0285842, 0, 0, 0, 0, 2.07767e-06, 116413
-10730.1, 80033.1, 16.701, 3.46715, -878.632, -0.0572706, 0.156452, 1.03299, 0.34851, 0.655882, 3, 45.5, 246, 12.2085, 0.0285842, 0, 0, 0, 0, 9.5362e-06, 116413
-11158.2, -110315, -20.2821, 0.243484, -1078.9, 0.101645, 0.3665, 1.03299, 0.34851, 0.655882, 0.0001, 45.5, 246, -59.0459, 0.160911, 0, 0, 1, 0, 4.69662e-05, 116419
-11158.2, -110315, -20.2821, 0.243484, -1078.9, 0.101645, 0.3665, 1.03299, 0.34851, 0.655882, 3, 45.5, 246, -59.0459, 0.160911, 0, 0, 1, 0, -5.45688e-06, 116419
513.22, 186803, -321.05, 4.48629, -1236.47, 0.891504, 0.357094, 0.9175, 0.352806, 0.64323, 0.0001, 455, 246, 38.0592, 0.148912, 2.80813, 1, 0, 0, 1.57518e-05, 116425
513.22, 186803, -321.05, 4.48629, -1236.47, 0.891504, 0.357094, 0.9175, 0.352806, 0.64323, 3, 455, 246, 38.0592, 0.148912, 2.84267, 1, 0, 0, -1.43304e-05, 116425
-2267.74, 63425.3, -251.36, 5.08104, -887.893, 0.210275, 0.324629, 0.9175, 0.352806, 0.64323, 0.0001, 455, 246, 37.2437, 0.0667484, 1.02427, 1, 1, 0, -5.61491e-06, 116427
-10853.6, 169116, -177.028, 3.36017, -877.822, 0.0137454, 0.24913, 1.03299, 0.34851, 0.655882, 0.0001, 45.5, 246, 38.2046, 0.151215, 0, 0, 0, 0, 5.74382e-07, 116430
-10853.6, 169116, -177.028, 3.36017, -877.822, 0.0137454, 0.24913, 1.03299, 0.34851, 0.655882, 3, 45.5, 246, 38.2046, 0.151215, 0, 0, 0, 0, 1.77329e-05, 116430
-12757.3, 214378, -180.884, 3.3789, -1095.42, -0.0522885, 0.257642, 1.03299, 0.34851, 0.655882, 0.0001, 45.5, 246, 39.1368, 0.148331, 0, 0, 0, 0, -9.58063e-06, 116432
-12757.3, 214378, -180.884, 3.3789, -1095.42, -0.0522885, 0.257642, 1.03299, 0.34851, 0.655882, 3, 45.5, 246, 39.1368, 0.148331, 0, 0, 0, 0, -6.84516e-06, 116432
-10523.6, 533950, -124.194, 0.499011, -959.569, 0.0626533, 0.365693, 1.03299, 0.34851, 0.655882, 0.0001, 45.5, 246, 25.853, 0.0599567, 0, 0, 1, 0, -2.41807e-05, 116439
-10523.6, 533950, -124.194, 0.499011, -959.569, 0.0626533, 0.365693, 1.03299, 0.34851, 0.655882, 3, 45.5, 246, 25.853, 0.0599567, 0, 0, 1, 0, -1.3132e-05, 116439
-9434.19, 552327, -133.122, 0.518974, -970.984, 0.0644287, 0.332398, 0.993198, 0.349787, 0.651995, 3, 91, 246, 25.853, 0.0599567, 0, 0, 1, 0, -2.039e-05, 116439
-5535.68, 872579, -260.685, 0.0896409, -1008.78, 0.140468, 0.379318, 0.993198, 0.349787, 0.651995, 0.0001, 91, 246, 31.0074, 0.0740208, 0, 0, 1, 0, 0.000184423, 116441
-3446.82, 935282, -278.746, 0.0968478, -1065.2, 0.148195, 0.322001, 0.9175, 0.352806, 0.64323, 0.0001, 455, 246, 31.0074, 0.0740208, 5.09669, 1, 0, 0, -1585.8, 116441
-3446.82, 935282, -278.746, 0.0968478, -1065.2, 0.148195, 0.322001, 0.9175, 0.352806, 0.64323, 3, 455, 246, 31.0074, 0.0740208, 4.99937, 1, 0, 0, -1585.63, 116441
-8793.27, 58757.4, -53.2444, 3.299, -593.653, 0.548002, 0.179182, 1.03299, 0.34851, 0.655882, 0.0001, 45.5, 246, 20.7623, 0.0589265, 0, 0, 1, 0, -3.18789e-05, 116442
-8793.27, 58757.4, -53.2444, 3.299, -593.653, 0.548002, 0.179182, 1.03299, 0.34851, 0.655882, 3, 45.5, 246, 20.7623, 0.0589265, 0, 0, 1, 0, 2.73734e-05, 116442
-7981.41, 67164.8, -77.8887, 3.70302, -659.04, 0.65881, 0.187782, 0.993198, 0.349787, 0.651995, 0.0001, 91, 246, 20.7623, 0.0589265, 3.13896, 1, 1, 0, 6.55241e-05, 116442
-11627.9, 123718, 10.6486, 2.41919, -1147.45, 0.158881, 0.2542, 1.03299, 0.34851, 0.655882, 0.0001, 45.5, 246, 16.2161, 0.0316002, 0, 0, 1, 0, -1.38512e-05, 116444
-11627.9, 123718, 10.6486, 2.41919, -1147.45, 0.158881, 0.2542, 1.03299, 0.34851, 0.655882, 3, 45.5, 246, 16.2161, 0.0316002, 0, 0, 1, 0, -1.40388e-05, 116444
-5411.95, 214787, -96.6217, 3.18108, -1298.38, 0.297943, 0.252867, 0.9175, 0.352806, 0.64323, 3, 455, 246, 16.2161, 0.0316002, 0, 0, 0, 0, -9.58494e-07, 116444
-3117.67, 186442, -337.721, 2.95723, -675.224, 0.0393345, 0.461775, 0.958125, 0.351078, 0.648177, 0.0001, 182, 246, 49.0849, 0.249151, 1.32086, 1, 1, 0, 4.71333e-06, 116456
-3117.67, 186442, -337.721, 2.95723, -675.224, 0.0393345, 0.461775, 0.958125, 0.351078, 0.648177, 3, 182, 246, 49.0849, 0.249151, 1.0403, 1, 1, 0, 3.02613e-06, 116456
-10359.7, 382624, -288.279, 0.94274, -1021.8, 0.358488, 0.529855, 1.03299, 0.34851, 0.655882, 0.0001, 45.5, 246, 40.4217, 0.184028, 0, 0, 0, 0, -2.5888e-05, 116462
-10359.7, 382624, -288.279, 0.94274, -1021.8, 0.358488, 0.529855, 1.03299, 0.34851, 0.655882, 3, 45.5, 246, 40.4217, 0.184028, 0, 0, 0, 0, 0.000100682, 116462
-8316.21, 127337, -167.741, 3.41038, -1064.42, 0.032375, 0.253374, 1.03299, 0.34851, 0.655882, 0.0001, 45.5, 246, 42.4551, 0.165097, 0, 0, 0, 0, -4.23457e-06, 116489
-8316.21, 127337, -167.741, 3.41038, -1064.42, 0.032375, 0.253374, 1.03299, 0.34851, 0.655882, 3, 45.5, 246, 42.4551, 0.165097, 0, 0, 0, 0, 1.74644e-05, 116489
-6009.77, 148350, -218.266, 3.73293, -1092.7, 0.088871, 0.268793, 0.993198, 0.349787, 0.651995, 3, 91, 246, 42.4551, 0.165097, 0, 0, 1, 0, 1.96895e-06, 116489
-2818.68, 171977, -279.522, 4.12007, -1139.96, 0.158816, 0.304081, 0.958125, 0.351078, 0.648177, 0.0001, 182, 246, 42.4551, 0.165097, 1.18999, 1, 0, 0, 2.88566e-06, 116489
-4729.75, 798269, -204.372, 0.950029, -1201.73, 0.227445, 0.276082, 0.9175, 0.352806, 0.64323, 3, 455, 246, 29.3783, 0.0564983, 0, 0, 0, 0, 9.69878e-05, 116500
