-11346.1, 231543, -162.565, 1.57368, -651.478, 0.00265076, 0.394242, 1.03299, 0.34851, 0.655882, 0.0001, 45.5, 246, 30.5877, 0.154287, 0, 0, 1, 0, -1.72045e-06, 36505
-11346.1, 231543, -162.565, 1.57368, -651.478, 0.00265076, 0.394242, 1.03299, 0.34851, 0.655882, 3, 45.5, 246, 30.5877, 0.154287, 0, 0, 1, 0, -7.15055e-07, 36505
-7775.98, 247815, -202.228, 1.76273, -670.491, 0.0271367, 0.359983, 0.958125, 0.351078, 0.648177, 0.0001, 182, 246, 30.5877, 0.154287, 0, 0, 1, 0, -9.38678e-06, 36505
-8989.08, 202675, -146.567, 1.53713, -854.405, 0.229583, 0.356917, 0.993198, 0.349787, 0.651995, 0.0001, 91, 246, 30.5436, 0.146874, 0, 0, 1, 0, 4.1791e-05, 36508
-8325.32, 560377, -353.949, 0.237893, -865.884, 0.105557, 0.557067, 1.03299, 0.34851, 0.655882, 0.0001, 45.5, 246, 36.7799, 0.163868, 0, 0, 0, 0, 2.94809e-05, 36521
-8325.32, 560377, -353.949, 0.237893, -865.884, 0.105557, 0.557067, 1.03299, 0.34851, 0.655882, 3, 45.5, 246, 36.7799, 0.163868, 0, 0, 0, 0, 2.33236e-05, 36521
-6435.69, 745686, -294.094, 0.0416587, -764.786, 0.245392, 0.415796, 0.993198, 0.349787, 0.651995, 0.0001, 91, 246, 27.7687, 0.0974659, 0, 0, 1, 0, 0.000101637, 36535
-6107.5, 60570.9, -133.785, 3.46406, -712.707, -0.0546703, 0.201783, 1.03299, 0.34851, 0.655882, 3, 45.5, 246, 39.9955, 0.119574, 0, 0, 1, 0, -7.74728e-06, 36538
-3485.36, 79542, -212.578, 4.14101, -748.177, 0.0716811, 0.248668, 0.958125, 0.351078, 0.648177, 0.0001, 182, 246, 39.9955, 0.119574, 1.01747, 1, 1, 0, -6.65477e-06, 36538
-584.018, 95469.2, -285.08, 4.76524, -807.221, 0.189758, 0.328346, 0.9175, 0.352806, 0.64323, 0.0001, 455, 246, 39.9955, 0.119574, 1.47357, 1, 1, 0, -1.31619e-06, 36538
-584.018, 95469.2, -285.08, 4.76524, -807.221, 0.189758, 0.328346, 0.9175, 0.352806, 0.64323, 3, 455, 246, 39.9955, 0.119574, 1.42018, 1, 1, 0, 1.71116e-06, 36538
-8841.69, 274756, -177.413, 0.850886, -815.199, 0.526001, 0.397834, 0.993198, 0.349787, 0.651995, 0.0001, 91, 246, 30.1812, 0.150712, 0, 0, 1, 0, -6.99314e-05, 36541
-8854.03, 133214, -7.94458, 0.203295, -1021.84, 0.00864593, 0.342344, 1.03299, 0.34851, 0.655882, 0.0001, 45.5, 246, 12.6127, 0.0179011, 0, 0, 1, 0, 5.1702e-05, 36543
-8854.03, 133214, -7.94458, 0.203295, -1021.84, 0.00864593, 0.342344, 1.03299, 0.34851, 0.655882, 3, 45.5, 246, 12.6127, 0.0179011, 0, 0, 1, 0, -5.91383e-05, 36543
-5099.59, 739767, -304.631, 0.0714966, -1004.62, 0.00213464, 0.43096, 0.993198, 0.349787, 0.651995, 0.0001, 91, 246, 33.8137, 0.105116, 0, 0, 1, 0, 6.33108e-05, 36547
-7031.38, 37989.1, -80.7703, 3.64176, -721.331, 0.665811, 0.200968, 0.993198, 0.349787, 0.651995, 3, 91, 246, 24.1986, 0.0569139, 0, 0, 1, 0, 3.63441e-06, 36548
-10039.7, 340352, -176.534, 0.722684, -860.061, 0.445246, 0.416669, 1.03299, 0.34851, 0.655882, 0.0001, 45.5, 246, 29.8791, 0.124204, 0, 0, 1, 0, -0.000112733, 36556
-10039.7, 340352, -176.534, 0.722684, -860.061, 0.445246, 0.416669, 1.03299, 0.34851, 0.655882, 3, 45.5, 246, 29.8791, 0.124204, 0, 0, 1, 0, -7.85865e-05, 36556
-8860.61, 363424, -189.991, 0.771879, -929.076, 0.48158, 0.388709, 0.993198, 0.349787, 0.651995, 0.0001, 91, 246, 29.8791, 0.124204, 0, 0, 1, 0, 2.5366e-05, 36556
-8860.61, 363424, -189.991, 0.771879, -929.076, 0.48158, 0.388709, 0.993198, 0.349787, 0.651995, 3, 91, 246, 29.8791, 0.124204, 0, 0, 1, 0, 6.76327e-05, 36556
-7410.53, 390439, -204.632, 0.824781, -1010.14, 0.524274, 0.365432, 0.958125, 0.351078, 0.648177, 0.0001, 182, 246, 29.8791, 0.124204, 0, 0, 1, 0, -2.74097e-05, 36556
-9718.61, 616310, -98.379, 0.635733, -820.212, 0.0522033, 0.283012, 0.958125, 0.351078, 0.648177, 3, 182, 246, 20.884, 0.0375142, 0, 0, 1, 0, 6.88747e-06, 36560
-9265.91, 158872, -198.668, 1.86276, -586.699, 0.24003, 0.431467, 1.03299, 0.34851, 0.655882, 3, 45.5, 246, 40.8457, 0.2227, 0, 0, 1, 0, -1.695e-05, 36565
-8760.86, 105406, -57.1615, 1.54597, -1195.7, 0.0310866, 0.307345, 0.993198, 0.349787, 0.651995, 0.0001, 91, 246, 22.7881, 0.0980959, 0, 0, 1, 0, 1.05552e-05, 36574
-8760.86, 105406, -57.1615, 1.54597, -1195.7, 0.0310866, 0.307345, 0.993198, 0.349787, 0.651995, 3, 91, 246, 22.7881, 0.0980959, 0, 0, 1, 0, -2.94487e-05, 36574
-7202.07, 314534, -275.347, 0.437479, -1140.42, 0.470734, 0.560633, 0.993198, 0.349787, 0.651995, 0.0001, 91, 246, 43.3043, 0.238955, 1.07226, 1, 1, 0, 602.566, 36576
-6043.77, 349184, -290.937, 0.466503, -1235.66, 0.509532, 0.54986, 0.958125, 0.351078, 0.648177, 0.0001, 182, 246, 43.3043, 0.238955, 1.78337, 1, 0, 0, 593.832, 36576
-6043.77, 349184, -290.937, 0.466503, -1235.66, 0.509532, 0.54986, 0.958125, 0.351078, 0.648177, 3, 182, 246, 43.3043, 0.238955, 1.69076, 1, 0, 0, -593.778, 36576
-7352.44, 247246, -334.099, 3.78095, -1043.09, 0.341473, 0.35454, 0.993198, 0.349787, 0.651995, 0.0001, 91, 246, 46.9529, 0.197235, 1.01239, 1, 1, 0, 7.34509e-06, 36582
-1678.26, 275644, -408.139, 4.24785, -1149, 0.435673, 0.39881, 0.958125, 0.351078, 0.648177, 0.0001, 182, 246, 46.9529, 0.197235, 4.45982, 1, 0, 0, 1.351e-05, 36582
-1678.26, 275644, -408.139, 4.24785, -1149, 0.435673, 0.39881, 0.958125, 0.351078, 0.648177, 3, 182, 246, 46.9529, 0.197235, 3.78806, 1, 0, 0, -6.91722e-06, 36582
9122.36, 328259, -542.358, 5.07521, -1361.32, 0.617734, 0.503346, 0.9175, 0.352806, 0.64323, 0.0001, 455, 246, 46.9529, 0.197235, 0, 0, 0, 0, -1.37133e-05, 36582
9122.36, 328259, -542.358, 5.07521, -1361.32, 0.617734, 0.503346, 0.9175, 0.352806, 0.64323, 3, 455, 246, 46.9529, 0.197235, 0, 0, 0, 0, 5.47317e-06, 36582
-8680.01, 137285, -175.268, 2.306, -753.707, 0.0625441, 0.37409, 1.03299, 0.34851, 0.655882, 3, 45.5, 246, 41.3935, 0.202644, 0, 0, 1, 0, 8.64799e-07, 36583
-7082, 148394, -204.485, 2.48176, -774.744, 0.0885802, 0.366296, 0.993198, 0.349787, 0.651995, 0.0001, 91, 246, 41.3935, 0.202644, 0, 0, 1, 0, 9.68935e-06, 36583
-7082, 148394, -204.485, 2.48176, -774.744, 0.0885802, 0.366296, 0.993198, 0.349787, 0.651995, 3, 91, 246, 41.3935, 0.202644, 0, 0, 1, 0, 1.99464e-05, 36583
-3099.95, 108623, -226.765, 3.73923, -1141.52, 0.0838034, 0.295389, 0.958125, 0.351078, 0.648177, 0.0001, 182, 246, 44.464, 0.164458, 1.15243, 1, 1, 0, -1.61601e-05, 36586
613.889, 143256, -314.052, 4.26467, -1210.76, 0.179974, 0.356158, 0.9175, 0.352806, 0.64323, 0.0001, 455, 246, 44.464, 0.164458, 3.7931, 1, 0, 0, 7.76666e-06, 36586
613.889, 143256, -314.052, 4.26467, -1210.76, 0.179974, 0.356158, 0.9175, 0.352806, 0.64323, 3, 455, 246, 44.464, 0.164458, 3.80857, 1, 0, 0, 5.53597e-06, 36586
-4340.81, 894402, -328.489, 0.0335023, -1026.6, 0.180679, 0.420191, 0.993198, 0.349787, 0.651995, 0.0001, 91, 246, 33.4409, 0.0910349, 0, 0, 1, 0, -5.2276e-05, 36587
-11826.5, 163864, -70.6346, 2.56032, -978.893, 0.0153959, 0.267058, 1.03299, 0.34851, 0.655882, 0.0001, 45.5, 246, 25.5362, 0.0874825, 0, 0, 1, 0, -1.7346e-05, 36589
-11826.5, 163864, -70.6346, 2.56032, -978.893, 0.0153959, 0.267058, 1.03299, 0.34851, 0.655882, 3, 45.5, 246, 25.5362, 0.0874825, 0, 0, 1, 0, 3.45045e-06, 36589
-10024.6, 180748, -99.6098, 2.75387, -989.588, 0.0465181, 0.257673, 0.993198, 0.349787, 0.651995, 0.0001, 91, 246, 25.5362, 0.0874825, 0, 0, 1, 0, -1.18747e-05, 36589
-10024.6, 180748, -99.6098, 2.75387, -989.588, 0.0465181, 0.257673, 0.993198, 0.349787, 0.651995, 3, 91, 246, 25.5362, 0.0874825, 0, 0, 1, 0, -1.48558e-05, 36589
-10956.9, 210398, -256.736, 3.64068, -1043.4, -0.0641492, 0.297469, 1.03299, 0.34851, 0.655882, 3, 45.5, 246, 47.4645, 0.193795, 0, 0, 0, 0, 4.10868e-07, 36594
-6781.13, 230358, -318.594, 3.98765, -1066.73, -0.000196359, 0.323959, 0.993198, 0.349787, 0.651995, 0.0001, 91, 246, 47.4645, 0.193795, 1.07495, 1, 1, 0, 1.57817e-05, 36594
-1328.28, 253517, -393.65, 4.40954, -1112.39, 0.0772707, 0.372924, 0.958125, 0.351078, 0.648177, 0.0001, 182, 246, 47.4645, 0.193795, 4.67708, 1, 0, 0, 7.32755e-06, 36594
-1328.28, 253517, -393.65, 4.40954, -1112.39, 0.0772707, 0.372924, 0.958125, 0.351078, 0.648177, 3, 182, 246, 47.4645, 0.193795, 3.97439, 1, 0, 0, -4.07284e-06, 36594
-8445.01, 13612.8, 2.03888, 2.48076, -1154.58, 0.0476342, 0.271452, 1.03299, 0.34851, 0.655882, 3, 45.5, 246, 15.2189, 0.0621393, 0, 0, 1, 0, -9.47283e-06, 36600
-6686.56, 95365.5, -107.062, 3.21046, -1231.25, 0.170374, 0.278058, 0.9175, 0.352806, 0.64323, 3, 455, 246, 15.2189, 0.0621393, 0, 0, 1, 0, 1.6601e-05, 36600
-9570.56, 106800, -71.3585, 2.35415, -1162.52, 0.00485013, 0.299151, 1.03299, 0.34851, 0.655882, 0.0001, 45.5, 246, 29.11, 0.115008, 0, 0, 1, 0, 6.57252e-06, 36606
-9570.56, 106800, -71.3585, 2.35415, -1162.52, 0.00485013, 0.299151, 1.03299, 0.34851, 0.655882, 3, 45.5, 246, 29.11, 0.115008, 0, 0, 1, 0, -1.06622e-05, 36606
-8464.62, 130542, -102.214, 2.52276, -1171.33, 0.0309888, 0.286875, 0.993198, 0.349787, 0.651995, 0.0001, 91, 246, 29.11, 0.115008, 0, 0, 1, 0, 1.06858e-05, 36606
-8464.62, 130542, -102.214, 2.52276, -1171.33, 0.0309888, 0.286875, 0.993198, 0.349787, 0.651995, 3, 91, 246, 29.11, 0.115008, 0, 0, 1, 0, 1.07939e-05, 36606
-9158.62, 491507, -229.83, 0.319854, -729.349, 0.0375368, 0.444554, 1.03299, 0.34851, 0.655882, 0.0001, 45.5, 246, 28.5628, 0.121347, 0, 0, 0, 0, 1.03383e-05, 36607
-8215.92, 502840, -240.104, 0.331848, -735.751, 0.0382298, 0.416836, 0.993198, 0.349787, 0.651995, 0.0001, 91, 246, 28.5628, 0.121347, 0, 0, 1, 0, 2.23937e-05, 36607
-7138.49, 514475, -250.259, 0.343504, -742.439, 0.0389658, 0.39331, 0.958125, 0.351078, 0.648177, 0.0001, 182, 246, 28.5628, 0.121347, 0, 0, 1, 0, -5.22219e-05, 36607
-8393.45, 606206, -416.842, 0.391554, -1083.77, -0.000651477, 0.622842, 1.03299, 0.34851, 0.655882, 3, 45.5, 246, 43.3412, 0.181325, 0, 0, 0, 0, -9.46607e-05, 36611
-10709, 667169, -3.68336, 0.278725, -916.479, 0.0343704, 0.303362, 0.993198, 0.349787, 0.651995, 0.0001, 91, 246, 19.0608, 0.00195318, 0, 0, 1, 0, -2.30021e-05, 36618
-8086.4, 177114, -278.943, 2.78087, -906.698, 0.465747, 0.437118, 1.03299, 0.34851, 0.655882, 0.0001, 45.5, 246, 52.2926, 0.247746, 1.07047, 1, 0, 0, 1.27551e-05, 36619
-8086.4, 177114, -278.943, 2.78087, -906.698, 0.465747, 0.437118, 1.03299, 0.34851, 0.655882, 3, 45.5, 246, 52.2926, 0.247746, 0, 0, 0, 0, -1.63865e-05, 36619
-5055.42, 199369, -328.035, 3.0961, -1006.06, 0.543618, 0.447608, 0.993198, 0.349787, 0.651995, 0.0001, 91, 246, 52.2926, 0.247746, 1.12924, 1, 1, 0, 2.64935e-06, 36619
-944.482, 228174, -389.489, 3.4798, -1137.22, 0.646552, 0.475137, 0.958125, 0.351078, 0.648177, 0.0001, 182, 246, 52.2926, 0.247746, 2.66238, 1, 0, 0, -6.13041e-06, 36619
-944.482, 228174, -389.489, 3.4798, -1137.22, 0.646552, 0.475137, 0.958125, 0.351078, 0.648177, 3, 182, 246, 52.2926, 0.247746, 2.46472, 1, 0, 0, -6.51063e-05, 36619
-4077.16, 329047, -434.861, 3.01535, -900.965, 0.238508, 0.542667, 0.958125, 0.351078, 0.648177, 3, 182, 246, 46.6472, 0.229512, 0, 0, 0, 0, 1.22163e-05, 36620
-3962.27, 59469.9, -174.922, 2.81835, -638.606, 0.0902586, 0.289244, 1.03299, 0.34851, 0.655882, 0.0001, 45.5, 246, 54.6948, 0.184687, 1.34758, 1, 1, 0, -1.34623e-05, 36621
-3962.27, 59469.9, -174.922, 2.81835, -638.606, 0.0902586, 0.289244, 1.03299, 0.34851, 0.655882, 3, 45.5, 246, 54.6948, 0.184687, 1.17819, 1, 1, 0, 6.29342e-06, 36621
-2912.21, 67736.6, -206.345, 3.06126, -664.616, 0.130061, 0.288476, 0.993198, 0.349787, 0.651995, 0.0001, 91, 246, 54.6948, 0.184687, 1.3916, 1, 1, 0, -6.43937e-06, 36621
-2912.21, 67736.6, -206.345, 3.06126, -664.616, 0.130061, 0.288476, 0.993198, 0.349787, 0.651995, 3, 91, 246, 54.6948, 0.184687, 1.23409, 1, 1, 0, -8.0791e-06, 36621
-1505.74, 77239.3, -243.396, 3.34245, -700.091, 0.178743, 0.301757, 0.958125, 0.351078, 0.648177, 0.0001, 182, 246, 54.6948, 0.184687, 1.5911, 1, 1, 0, 4.90649e-06, 36621
-1505.74, 77239.3, -243.396, 3.34245, -700.091, 0.178743, 0.301757, 0.958125, 0.351078, 0.648177, 3, 182, 246, 54.6948, 0.184687, 1.4491, 1, 1, 0, -3.49149e-06, 36621
1102.7, 92669.7, -304.333, 3.79744, -767.423, 0.26249, 0.343461, 0.9175, 0.352806, 0.64323, 0.0001, 455, 246, 54.6948, 0.184687, 2.33129, 1, 1, 1, 5.16261e-06, 36621
1102.7, 92669.7, -304.333, 3.79744, -767.423, 0.26249, 0.343461, 0.9175, 0.352806, 0.64323, 3, 455, 246, 54.6948, 0.184687, 2.21832, 1, 1, 1, 7.98837e-06, 36621
1557.43, 197763, -372.759, 4.43649, -710.101, 0.200746, 0.393414, 0.9175, 0.352806, 0.64323, 0.0001, 455, 246, 39.4733, 0.171288, 2.31779, 1, 0, 0, 8.28488e-06, 36623
1557.43, 197763, -372.759, 4.43649, -710.101, 0.200746, 0.393414, 0.9175, 0.352806, 0.64323, 3, 455, 246, 39.4733, 0.171288, 2.3249, 1, 0, 0, -1.74356e-05, 36623
-6524.06, -18770.1, -20.3866, 3.36444, -821.48, 0.0132135, 0.204712, 1.03299, 0.34851, 0.655882, 0.0001, 45.5, 246, 21.1394, 0.0232885, 0, 0, 1, 1, 9.77263e-06, 36628
-6524.06, -18770.1, -20.3866, 3.36444, -821.48, 0.0132135, 0.204712, 1.03299, 0.34851, 0.655882, 3, 45.5, 246, 21.1394, 0.0232885, 0, 0, 1, 1, 7.33173e-06, 36628
-8140.24, 184294, -323.541, 3.3791, -798.91, 0.68637, 0.364186, 1.03299, 0.34851, 0.655882, 0.0001, 45.5, 246, 52.8065, 0.227336, 1.39873, 1, 0, 0, 2.65773e-05, 36630
-8140.24, 184294, -323.541, 3.3791, -798.91, 0.68637, 0.364186, 1.03299, 0.34851, 0.655882, 3, 45.5, 246, 52.8065, 0.227336, 1.32634, 1, 0, 0, 5.31407e-05, 36630
-4132.95, 206981, -382.955, 3.85112, -935.819, 0.83413, 0.388779, 0.993198, 0.349787, 0.651995, 0.0001, 91, 246, 52.8065, 0.227336, 1.75972, 1, 1, 0, 2.33197e-05, 36630
-4132.95, 206981, -382.955, 3.85112, -935.819, 0.83413, 0.388779, 0.993198, 0.349787, 0.651995, 3, 91, 246, 52.8065, 0.227336, 1.66738, 1, 1, 0, -4.32362e-05, 36630
-3259.03, 109995, -226.194, 3.11106, -1042.09, 0.0754578, 0.333908, 0.958125, 0.351078, 0.648177, 0.0001, 182, 246, 49.029, 0.214152, 1.11774, 1, 1, 0, 1.07482e-05, 36638
-156.478, 138771, -294.801, 3.48892, -1095.72, 0.140906, 0.367326, 0.9175, 0.352806, 0.64323, 0.0001, 455, 246, 49.029, 0.214152, 2.77571, 1, 0, 0, 1.18276e-05, 36638
-156.478, 138771, -294.801, 3.48892, -1095.72, 0.140906, 0.367326, 0.9175, 0.352806, 0.64323, 3, 455, 246, 49.029, 0.214152, 2.77887, 1, 0, 0, -1.51694e-05, 36638
-11906.5, 539299, -12.8426, 0.455851, -896.701, 0.00494959, 0.337507, 1.03299, 0.34851, 0.655882, 0.0001, 45.5, 246, 18.4497, 0.00858119, 0, 0, 1, 0, -2.99471e-06, 36649
-11906.5, 539299, -12.8426, 0.455851, -896.701, 0.00494959, 0.337507, 1.03299, 0.34851, 0.655882, 3, 45.5, 246, 18.4497, 0.00858119, 0, 0, 1, 0, -1.43937e-05, 36649
-11093.2, 553497, -17.0071, 0.471901, -897.652, 0.00589908, 0.301948, 0.993198, 0.349787, 0.651995, 0.0001, 91, 246, 18.4497, 0.00858119, 0, 0, 1, 0, -3.70342e-05, 36649
-11093.2, 553497, -17.0071, 0.471901, -897.652, 0.00589908, 0.301948, 0.993198, 0.349787, 0.651995, 3, 91, 246, 18.4497, 0.00858119, 0, 0, 1, 0, -1.85553e-05, 36649
-10158.9, 567768, -21.3997, 0.487339, -898.803, 0.00691557, 0.270842, 0.958125, 0.351078, 0.648177, 0.0001, 182, 246, 18.4497, 0.00858119, 0, 0, 1, 0, 1.56175e-06, 36649
-9273.15, 87139, -57.1419, 2.10251, -945.754, 0.0934495, 0.304401, 1.03299, 0.34851, 0.655882, 0.0001, 45.5, 246, 25.2574, 0.103845, 0, 0, 1, 0, 6.15142e-06, 36651
-9273.15, 87139, -57.1419, 2.10251, -945.754, 0.0934495, 0.304401, 1.03299, 0.34851, 0.655882, 3, 45.5, 246, 25.2574, 0.103845, 0, 0, 1, 0, 1.10985e-06, 36651
-8952.26, 98550.5, -8.349, 0.38333, -959.765, 0.0013253, 0.34196, 1.03299, 0.34851, 0.655882, 0.0001, 45.5, 246, 11.6378, 0.0279583, 0, 0, 1, 0, -7.68855e-05, 36662
-8952.26, 98550.5, -8.349, 0.38333, -959.765, 0.0013253, 0.34196, 1.03299, 0.34851, 0.655882, 3, 45.5, 246, 11.6378, 0.0279583, 0, 0, 1, 0, 0.00011692, 36662
-6419.75, 531771, -202.807, 0.443194, -1193.24, 0.268041, 0.347498, 0.958125, 0.351078, 0.648177, 0.0001, 182, 246, 31.6076, 0.0949595, 0, 0, 0, 0, 2.42142e-05, 36664
-9178.17, 55629.4, -16.3082, 3.44797, -943.863, 0.295292, 0.167333, 1.03299, 0.34851, 0.655882, 0.0001, 45.5, 246, 18.8944, 0.0555554, 0, 0, 0, 0, 5.11079e-06, 36666
-11650.5, 381773, -287.987, 0.852586, -646.104, 0.096601, 0.53443, 1.03299, 0.34851, 0.655882, 3, 45.5, 246, 35.1646, 0.189766, 0, 0, 0, 0, 6.06166e-06, 36667
-7484.8, 404454, -326.858, 0.945302, -681.969, 0.10696, 0.50604, 0.958125, 0.351078, 0.648177, 3, 182, 246, 35.1646, 0.189766, 0, 0, 0, 0, -2.28868e-05, 36667
-7995.03, 257936, -364.455, 3.40366, -796.99, 0.00333642, 0.436916, 0.993198, 0.349787, 0.651995, 0.0001, 91, 246, 47.8915, 0.223786, 1.0662, 1, 1, 0, 6.66302e-06, 36669
-2634.78, 272456, -425.638, 3.73161, -837.966, 0.0592792, 0.472353, 0.958125, 0.351078, 0.648177, 0.0001, 182, 246, 47.8915, 0.223786, 2.44258, 1, 0, 0, -1.45872e-05, 36669
-2634.78, 272456, -425.638, 3.73161, -837.966, 0.0592792, 0.472353, 0.958125, 0.351078, 0.648177, 3, 182, 246, 47.8915, 0.223786, 2.26155, 1, 0, 0, -9.94595e-06, 36669
-6516.12, 103050, -193.149, 2.29742, -613.305, -0.0247154, 0.393651, 1.03299, 0.34851, 0.655882, 0.0001, 45.5, 246, 50.2333, 0.249138, 1.06248, 1, 1, 0, 5.907e-06, 36671
-3541.84, 118112, -251.379, 2.6447, -642.291, 0.0287855, 0.390398, 0.958125, 0.351078, 0.648177, 0.0001, 182, 246, 50.2333, 0.249138, 1.1097, 1, 1, 0, 2.04445e-05, 36671
-735.038, 130215, -299.282, 2.92453, -675.901, 0.0742545, 0.410207, 0.9175, 0.352806, 0.64323, 0.0001, 455, 246, 50.2333, 0.249138, 1.6876, 1, 0, 0, -6.64237e-06, 36671
-735.038, 130215, -299.282, 2.92453, -675.901, 0.0742545, 0.410207, 0.9175, 0.352806, 0.64323, 3, 455, 246, 50.2333, 0.249138, 1.65637, 1, 0, 0, -1.37661e-05, 36671
-9233.44, 95210.8, -25.3603, 2.59196, -1135.55, 0.0163903, 0.251718, 0.993198, 0.349787, 0.651995, 0.0001, 91, 246, 16.2274, 0.0484822, 0, 0, 1, 0, 1.82285e-05, 36672
-9233.44, 95210.8, -25.3603, 2.59196, -1135.55, 0.0163903, 0.251718, 0.993198, 0.349787, 0.651995, 3, 91, 246, 16.2274, 0.0484822, 0, 0, 1, 0, 2.25894e-06, 36672
-6016.72, 149121, -101.652, 3.07765, -1169.64, 0.0991159, 0.261725, 0.9175, 0.352806, 0.64323, 3, 455, 246, 16.2274, 0.0484822, 0, 0, 1, 0, -3.3999e-06, 36672
-10403.7, 190078, -65.8463, 1.33225, -1161.03, 0.0286055, 0.340807, 1.03299, 0.34851, 0.655882, 0.0001, 45.5, 246, 25.4198, 0.0851724, 0, 0, 1, 0, -2.96644e-06, 36673
-10403.7, 190078, -65.8463, 1.33225, -1161.03, 0.0286055, 0.340807, 1.03299, 0.34851, 0.655882, 3, 45.5, 246, 25.4198, 0.0851724, 0, 0, 1, 0, 1.07022e-05, 36673
-9124.16, 45347.5, -0.691403, 2.8072, -916.526, -0.0338715, 0.236256, 1.03299, 0.34851, 0.655882, 0.0001, 45.5, 246, 14.2638, 0.046608, 1.09795, 1, 1, 0, -3.65258e-07, 36675
-9124.16, 45347.5, -0.691403, 2.8072, -916.526, -0.0338715, 0.236256, 1.03299, 0.34851, 0.655882, 3, 45.5, 246, 14.2638, 0.046608, 1.03372, 1, 1, 0, 1.11478e-05, 36675
-8663.64, 59562.7, -25.0448, 3.02346, -915.237, 0.00345226, 0.231411, 0.993198, 0.349787, 0.651995, 0.0001, 91, 246, 14.2638, 0.046608, 0, 0, 1, 0, 5.84352e-06, 36675
-8967.82, 159121, -197.803, 2.95361, -1035.86, -0.0406493, 0.339749, 1.03299, 0.34851, 0.655882, 0.0001, 45.5, 246, 44.7519, 0.195773, 0, 0, 0, 0, 6.4477e-06, 36678
-8967.82, 159121, -197.803, 2.95361, -1035.86, -0.0406493, 0.339749, 1.03299, 0.34851, 0.655882, 3, 45.5, 246, 44.7519, 0.195773, 0, 0, 0, 0, -1.37508e-05, 36678
-6356.1, -62782.1, 16.022, 3.2434, -1040.8, 0.411026, 0.233528, 1.03299, 0.34851, 0.655882, 0.0001, 45.5, 246, 11.7813, 0.0393212, 1.29356, 1, 1, 0, -1.59749e-05, 36686
-6356.1, -62782.1, 16.022, 3.2434, -1040.8, 0.411026, 0.233528, 1.03299, 0.34851, 0.655882, 3, 45.5, 246, 11.7813, 0.0393212, 1.10855, 1, 1, 0, 3.48496e-05, 36686
-10684.3, 244384, -165.418, 1.58073, -1090.95, -0.0115634, 0.40533, 1.03299, 0.34851, 0.655882, 0.0001, 45.5, 246, 35.9049, 0.156922, 0, 0, 0, 0, 1.58706e-07, 36689
-10684.3, 244384, -165.418, 1.58073, -1090.95, -0.0115634, 0.40533, 1.03299, 0.34851, 0.655882, 3, 45.5, 246, 35.9049, 0.156922, 0, 0, 0, 0, -2.38591e-06, 36689
-8066.71, -12644.5, -4.92336, 2.87322, -1080.84, 0.0279211, 0.260185, 0.993198, 0.349787, 0.651995, 0.0001, 91, 246, 7.63294, 0.0638608, 0, 0, 1, 1, -1.24867e-05, 36690
-8066.71, -12644.5, -4.92336, 2.87322, -1080.84, 0.0279211, 0.260185, 0.993198, 0.349787, 0.651995, 3, 91, 246, 7.63294, 0.0638608, 0, 0, 1, 1, 1.13935e-06, 36690
-1624.07, 324311, -426.293, 3.82532, -1430.96, 1.07213, 0.455082, 0.958125, 0.351078, 0.648177, 0.0001, 182, 246, 47.7191, 0.20655, 1.97887, 1, 0, 0, -8.4802e-05, 36693
-1624.07, 324311, -426.293, 3.82532, -1430.96, 1.07213, 0.455082, 0.958125, 0.351078, 0.648177, 3, 182, 246, 47.7191, 0.20655, 2.28073, 1, 0, 0, 9.0889e-06, 36693
-7632.59, -9963.2, -5.42644, 2.67831, -765.396, -0.0266501, 0.260012, 1.03299, 0.34851, 0.655882, 3, 45.5, 246, 14.1741, 0.0408318, 0, 0, 1, 1, 5.21101e-06, 36700
-9348.82, 83772.7, -57.7787, 2.79248, -1038.22, 0.412424, 0.248608, 1.03299, 0.34851, 0.655882, 0.0001, 45.5, 246, 26.5444, 0.0936008, 0, 0, 1, 0, 1.83899e-05, 36701
-9348.82, 83772.7, -57.7787, 2.79248, -1038.22, 0.412424, 0.248608, 1.03299, 0.34851, 0.655882, 3, 45.5, 246, 26.5444, 0.0936008, 0, 0, 1, 0, -4.5455e-06, 36701
-8350.62, 155116, -93.0176, 0.19408, -1055.95, 0.0190529, 0.401406, 1.03299, 0.34851, 0.655882, 0.0001, 45.5, 246, 28.8897, 0.163373, 0, 0, 1, 0, 4.36045e-05, 36706
-8350.62, 155116, -93.0176, 0.19408, -1055.95, 0.0190529, 0.401406, 1.03299, 0.34851, 0.655882, 3, 45.5, 246, 28.8897, 0.163373, 0, 0, 1, 0, -5.90191e-05, 36706
-9624.31, 165582, -193.59, 2.49132, -812.372, 0.246331, 0.366402, 1.03299, 0.34851, 0.655882, 0.0001, 45.5, 246, 40.8829, 0.190945, 0, 0, 1, 0, 9.01814e-06, 36708
-9624.31, 165582, -193.59, 2.49132, -812.372, 0.246331, 0.366402, 1.03299, 0.34851, 0.655882, 3, 45.5, 246, 40.8829, 0.190945, 0, 0, 1, 0, 1.21872e-05, 36708
170.315, 228313, -337.201, 3.40131, -1035.88, 0.427429, 0.404044, 0.9175, 0.352806, 0.64323, 0.0001, 455, 246, 40.8829, 0.190945, 1.50003, 1, 0, 0, -1.09638e-05, 36708
170.315, 228313, -337.201, 3.40131, -1035.88, 0.427429, 0.404044, 0.9175, 0.352806, 0.64323, 3, 455, 246, 40.8829, 0.190945, 1.71666, 1, 0, 0, -1.10246e-05, 36708
-10383.9, 605967, -377.349, 0.241249, -613.634, 0.00359725, 0.570016, 1.03299, 0.34851, 0.655882, 3, 45.5, 246, 32.4721, 0.163786, 0, 0, 0, 0, 1.27578e-05, 36717
-11532.9, 248831, -105.091, 1.35896, -752.069, 0.00430867, 0.35341, 1.03299, 0.34851, 0.655882, 3, 45.5, 246, 24.3712, 0.10015, 0, 0, 1, 0, 5.60718e-06, 36721
-10157.8, 258897, -120.087, 1.43098, -757.219, 0.0128621, 0.326867, 0.993198, 0.349787, 0.651995, 3, 91, 246, 24.3712, 0.10015, 0, 0, 1, 0, 5.39231e-06, 36721
-6998.06, 396320, -327.958, 0.505141, -1044.77, 0.0720019, 0.583671, 0.993198, 0.349787, 0.651995, 0.0001, 91, 246, 43.2021, 0.219943, 0, 0, 1, 0, 8.07171e-06, 36724
238.174, 231270, -311.803, 4.63405, -1278.96, 1.10642, 0.344372, 0.9175, 0.352806, 0.64323, 0.0001, 455, 246, 32.8192, 0.126044, 1.33999, 1, 0, 0, -3.04061e-05, 36725
238.174, 231270, -311.803, 4.63405, -1278.96, 1.10642, 0.344372, 0.9175, 0.352806, 0.64323, 3, 455, 246, 32.8192, 0.126044, 1.49259, 1, 0, 0, -4.99139e-05, 36725
-3488.04, 251503, -405.776, 3.28858, -678.779, 0.0435857, 0.498151, 0.958125, 0.351078, 0.648177, 0.0001, 182, 246, 47.194, 0.236671, 1.59071, 1, 0, 0, -8.10804e-06, 36727
-3488.04, 251503, -405.776, 3.28858, -678.779, 0.0435857, 0.498151, 0.958125, 0.351078, 0.648177, 3, 182, 246, 47.194, 0.236671, 1.4046, 1, 0, 0, -1.50934e-05, 36727
-6973.8, -63060, 9.04059, 2.76073, -600.032, 0.628981, 0.274362, 1.03299, 0.34851, 0.655882, 0.0001, 45.5, 246, 7.15532, 0.0449383, 3.04766, 1, 1, 0, 1.69526e-05, 36734
-6973.8, -63060, 9.04059, 2.76073, -600.032, 0.628981, 0.274362, 1.03299, 0.34851, 0.655882, 3, 45.5, 246, 7.15532, 0.0449383, 3.04656, 1, 1, 0, -1.04921e-08, 36734
-5748.86, 105922, -216.592, 2.84491, -633.809, -0.0385771, 0.344585, 1.03299, 0.34851, 0.655882, 0.0001, 45.5, 246, 51.5101, 0.22527, 1.30955, 1, 1, 0, -1.05287e-05, 36740
-5748.86, 105922, -216.592, 2.84491, -633.809, -0.0385771, 0.344585, 1.03299, 0.34851, 0.655882, 3, 45.5, 246, 51.5101, 0.22527, 1.13241, 1, 1, 0, 9.81491e-06, 36740
-3974.87, 113737, -251.662, 3.07489, -650.031, -8.57821e-05, 0.348306, 0.993198, 0.349787, 0.651995, 0.0001, 91, 246, 51.5101, 0.22527, 1.35406, 1, 1, 0, -1.13291e-05, 36740
-3974.87, 113737, -251.662, 3.07489, -650.031, -8.57821e-05, 0.348306, 0.993198, 0.349787, 0.651995, 3, 91, 246, 51.5101, 0.22527, 1.1939, 1, 1, 0, 7.15099e-06, 36740
-1738.19, 122700, -292.428, 3.33992, -675.266, 0.0451032, 0.36584, 0.958125, 0.351078, 0.648177, 0.0001, 182, 246, 51.5101, 0.22527, 1.68846, 1, 1, 0, -2.97957e-06, 36740
-1738.19, 122700, -292.428, 3.33992, -675.266, 0.0451032, 0.36584, 0.958125, 0.351078, 0.648177, 3, 182, 246, 51.5101, 0.22527, 1.54092, 1, 1, 0, -7.85744e-06, 36740
2157.18, 137242, -358.313, 3.76566, -727.178, 0.119539, 0.412631, 0.9175, 0.352806, 0.64323, 0.0001, 455, 246, 51.5101, 0.22527, 3.74059, 1, 0, 0, -4.67898e-06, 36740
2157.18, 137242, -358.313, 3.76566, -727.178, 0.119539, 0.412631, 0.9175, 0.352806, 0.64323, 3, 455, 246, 51.5101, 0.22527, 3.74214, 1, 0, 0, -1.77311e-05, 36740
-9488.9, 513391, -265.328, 0.25554, -597.875, 0.757118, 0.456609, 1.03299, 0.34851, 0.655882, 0.0001, 45.5, 246, 26.4473, 0.117893, 0, 0, 1, 0, -3.19851e-05, 36748
-9488.9, 513391, -265.328, 0.25554, -597.875, 0.757118, 0.456609, 1.03299, 0.34851, 0.655882, 3, 45.5, 246, 26.4473, 0.117893, 0, 0, 1, 0, -9.0832e-05, 36748
-10732.5, 284017, -246.299, 1.3994, -950.831, 0.180951, 0.500547, 1.03299, 0.34851, 0.655882, 0.0001, 45.5, 246, 41.0041, 0.204391, 0, 0, 0, 0, 1.72347e-05, 36750
-10732.5, 284017, -246.299, 1.3994, -950.831, 0.180951, 0.500547, 1.03299, 0.34851, 0.655882, 3, 45.5, 246, 41.0041, 0.204391, 0, 0, 0, 0, 1.14171e-05, 36750
-8133.02, 60356.1, -82.6794, 1.4767, -779.01, 0.0643375, 0.367952, 1.03299, 0.34851, 0.655882, 3, 45.5, 246, 36.9062, 0.217656, 0, 0, 1, 0, -1.34746e-05, 36751
-9761.84, 469325, -127.982, 0.957994, -654.032, 0.207817, 0.294942, 0.958125, 0.351078, 0.648177, 3, 182, 246, 19.1762, 0.0610692, 0, 0, 1, 0, 5.74675e-05, 36754
-11232.4, 610028, -25.5245, 0.324544, -640.551, 0.00308074, 0.340007, 1.03299, 0.34851, 0.655882, 0.0001, 45.5, 246, 14.6295, 0.01177, 0, 0, 1, 0, 1.28949e-05, 36755
-11232.4, 610028, -25.5245, 0.324544, -640.551, 0.00308074, 0.340007, 1.03299, 0.34851, 0.655882, 3, 45.5, 246, 14.6295, 0.01177, 0, 0, 1, 0, 6.45124e-05, 36755
-10624.5, 617295, -28.2406, 0.335165, -641.12, 0.00356024, 0.304144, 0.993198, 0.349787, 0.651995, 0.0001, 91, 246, 14.6295, 0.01177, 0, 0, 1, 0, -6.35239e-05, 36755
-11592.6, 320126, -284.816, 1.62143, -1043.94, 0.278564, 0.523206, 1.03299, 0.34851, 0.655882, 0.0001, 45.5, 246, 43.793, 0.206329, 0, 0, 0, 0, -3.23616e-06, 36761
-11592.6, 320126, -284.816, 1.62143, -1043.94, 0.278564, 0.523206, 1.03299, 0.34851, 0.655882, 3, 45.5, 246, 43.793, 0.206329, 0, 0, 0, 0, 1.44312e-05, 36761
-11349.1, 616281, -25.2254, 0.441795, -656.774, 0.719488, 0.30252, 0.993198, 0.349787, 0.651995, 3, 91, 246, 13.6465, 0.00978362, 0, 0, 1, 0, 4.01497e-05, 36762
-9066.96, 627627, -121.62, 0.277578, -748.609, 7.12957e-05, 0.326661, 0.993198, 0.349787, 0.651995, 0.0001, 91, 246, 21.2665, 0.0486966, 0, 0, 1, 0, -7.45853e-05, 36763
-11058.2, 228461, -241.864, 2.06381, -749.317, 0.0303034, 0.45853, 1.03299, 0.34851, 0.655882, 0.0001, 45.5, 246, 41.8759, 0.215761, 0, 0, 0, 0, 3.25127e-06, 36765
-11027.9, 502315, -450.349, 0.440828, -790.761, -0.000890785, 0.742138, 1.03299, 0.34851, 0.655882, 3, 45.5, 246, 44.2079, 0.240094, 0, 0, 0, 0, 0.00011059, 36766
-9684.02, 597091, -88.9921, 0.30401, -680.8, 0.457352, 0.31559, 0.993198, 0.349787, 0.651995, 0.0001, 91, 246, 17.4465, 0.0354852, 0, 0, 1, 0, -1.77823e-05, 36770
-2534.24, 268318, -354.632, 4.14544, -1262.64, 0.26288, 0.356002, 0.958125, 0.351078, 0.648177, 0.0001, 182, 246, 44.5192, 0.177462, 1.56951, 1, 0, 0, 7.52439e-06, 36771
-2534.24, 268318, -354.632, 4.14544, -1262.64, 0.26288, 0.356002, 0.958125, 0.351078, 0.648177, 3, 182, 246, 44.5192, 0.177462, 1.38245, 1, 0, 0, -9.53147e-06, 36771
-8206.62, 105328, -131.636, 2.02451, -898.819, -0.0106745, 0.370306, 1.03299, 0.34851, 0.655882, 0.0001, 45.5, 246, 39.9282, 0.202908, 0, 0, 1, 0, -3.26999e-07, 36774
-8206.62, 105328, -131.636, 2.02451, -898.819, -0.0106745, 0.370306, 1.03299, 0.34851, 0.655882, 3, 45.5, 246, 39.9282, 0.202908, 0, 0, 1, 0, 1.11411e-06, 36774
-8968.33, 509375, -412.9, 0.476433, -1045.04, 0.316394, 0.656964, 1.03299, 0.34851, 0.655882, 3, 45.5, 246, 44.6223, 0.205591, 0, 0, 0, 0, -4.93174e-05, 36775
-5914.81, 933218, -319.19, 0.170856, -1184.56, 0.00198107, 0.444376, 1.03299, 0.34851, 0.655882, 0.0001, 45.5, 246, 37.3168, 0.0872255, 0, 0, 0, 0, -0.000233006, 36778
-5914.81, 933218, -319.19, 0.170856, -1184.56, 0.00198107, 0.444376, 1.03299, 0.34851, 0.655882, 3, 45.5, 246, 37.3168, 0.0872255, 0, 0, 0, 0, -0.000148473, 36778
-10007.9, 292598, -197.452, 0.976203, -950.59, 0.190425, 0.451292, 1.03299, 0.34851, 0.655882, 0.0001, 45.5, 246, 35.2621, 0.165089, 0, 0, 0, 0, 4.48289e-06, 36779
-10007.9, 292598, -197.452, 0.976203, -950.59, 0.190425, 0.451292, 1.03299, 0.34851, 0.655882, 3, 45.5, 246, 35.2621, 0.165089, 0, 0, 0, 0, -1.18035e-05, 36779
-8572.3, 312753, -215.687, 1.03375, -985.975, 0.200903, 0.428272, 0.993198, 0.349787, 0.651995, 3, 91, 246, 35.2621, 0.165089, 0, 0, 1, 0, 1.91349e-05, 36779
-10245.1, 95149.3, -44.699, 3.56651, -1131.14, -0.0593243, 0.166257, 1.03299, 0.34851, 0.655882, 0.0001, 45.5, 246, 25.4568, 0.0789322, 0, 0, 0, 0, 1.15788e-05, 36781
-10245.1, 95149.3, -44.699, 3.56651, -1131.14, -0.0593243, 0.166257, 1.03299, 0.34851, 0.655882, 3, 45.5, 246, 25.4568, 0.0789322, 0, 0, 0, 0, -7.59477e-06, 36781
-8684.53, 116882, -87.3888, 3.88717, -1132.29, 0.00171862, 0.181558, 0.993198, 0.349787, 0.651995, 0.0001, 91, 246, 25.4568, 0.0789322, 0, 0, 1, 0, 9.36287e-06, 36781
-8684.53, 116882, -87.3888, 3.88717, -1132.29, 0.00171862, 0.181558, 0.993198, 0.349787, 0.651995, 3, 91, 246, 25.4568, 0.0789322, 0, 0, 1, 0, 3.31288e-06, 36781
-9205.74, 178635, -118.971, 1.66864, -789.064, 0.387396, 0.327548, 0.993198, 0.349787, 0.651995, 0.0001, 91, 246, 26.7505, 0.123577, 0, 0, 1, 0, -1.90145e-05, 36783
-9205.74, 178635, -118.971, 1.66864, -789.064, 0.387396, 0.327548, 0.993198, 0.349787, 0.651995, 3, 91, 246, 26.7505, 0.123577, 0, 0, 1, 0, -5.29623e-05, 36783
-11612.2, 188203, -63.8681, 1.79474, -948.114, 0.609647, 0.310508, 1.03299, 0.34851, 0.655882, 0.0001, 45.5, 246, 23.3631, 0.0747488, 0, 0, 1, 0, 1.96342e-05, 36784
-11612.2, 188203, -63.8681, 1.79474, -948.114, 0.609647, 0.310508, 1.03299, 0.34851, 0.655882, 3, 45.5, 246, 23.3631, 0.0747488, 0, 0, 1, 0, 0.000120717, 36784
-10194.3, 212323, -84.7052, 1.9693, -1054.38, 0.691837, 0.288108, 0.993198, 0.349787, 0.651995, 3, 91, 246, 23.3631, 0.0747488, 0, 0, 1, 0, -3.376e-05, 36784
-9772.48, 326671, -463.949, 3.74309, -856.971, 0.441995, 0.494853, 0.993198, 0.349787, 0.651995, 0.0001, 91, 246, 49.83, 0.229055, 1.38627, 1, 1, 0, -3.63384e-05, 36785
-9772.48, 326671, -463.949, 3.74309, -856.971, 0.441995, 0.494853, 0.993198, 0.349787, 0.651995, 3, 91, 246, 49.83, 0.229055, 1.30787, 1, 1, 0, 2.48464e-05, 36785
-10416.2, 774303, -129.688, 0.391769, -1192.01, -0.000528612, 0.359973, 1.03299, 0.34851, 0.655882, 0.0001, 45.5, 246, 30.6997, 0.04348, 0, 0, 0, 0, -6.14919e-05, 36791
-10416.2, 774303, -129.688, 0.391769, -1192.01, -0.000528612, 0.359973, 1.03299, 0.34851, 0.655882, 3, 45.5, 246, 30.6997, 0.04348, 0, 0, 0, 0, -6.27293e-06, 36791
-8921.3, 471761, -232.715, 0.43574, -948.435, 0.560188, 0.441297, 1.03299, 0.34851, 0.655882, 0.0001, 45.5, 246, 32.1991, 0.116937, 0, 0, 0, 0, -9.74348e-06, 36796
-8921.3, 471761, -232.715, 0.43574, -948.435, 0.560188, 0.441297, 1.03299, 0.34851, 0.655882, 3, 45.5, 246, 32.1991, 0.116937, 0, 0, 0, 0, 1.72838e-05, 36796
-6748.5, 7496.26, -33.6994, 3.60965, -1085.41, -0.0203387, 0.178123, 1.03299, 0.34851, 0.655882, 0.0001, 45.5, 246, 25.7887, 0.0686254, 0, 0, 1, 0, 8.58558e-06, 36797
-6748.5, 7496.26, -33.6994, 3.60965, -1085.41, -0.0203387, 0.178123, 1.03299, 0.34851, 0.655882, 3, 45.5, 246, 25.7887, 0.0686254, 0, 0, 1, 0, 9.6941e-06, 36797
-11366.8, 278593, -10.2553, 0.842071, -980.854, 0.177943, 0.3308, 1.03299, 0.34851, 0.655882, 0.0001, 45.5, 246, 17.0528, 0.0174595, 0, 0, 1, 0, 2.34509e-06, 36798
-10556.5, 298587, -18.389, 0.885937, -1009.82, 0.186463, 0.297174, 0.993198, 0.349787, 0.651995, 0.0001, 91, 246, 17.0528, 0.0174595, 0, 0, 1, 0, 1.34936e-05, 36798
-11173.4, 240401, -267.058, 2.33565, -875.597, -0.0256369, 0.470656, 1.03299, 0.34851, 0.655882, 0.0001, 45.5, 246, 45.6124, 0.225731, 0, 0, 0, 0, 1.46867e-05, 36802
-11173.4, 240401, -267.058, 2.33565, -875.597, -0.0256369, 0.470656, 1.03299, 0.34851, 0.655882, 3, 45.5, 246, 45.6124, 0.225731, 0, 0, 0, 0, -1.19946e-05, 36802
882.097, 244578, -349.302, 4.23988, -886.679, 0.152075, 0.369524, 0.9175, 0.352806, 0.64323, 0.0001, 455, 246, 36.225, 0.150685, 1.59695, 1, 0, 0, 8.92075e-07, 36810
882.097, 244578, -349.302, 4.23988, -886.679, 0.152075, 0.369524, 0.9175, 0.352806, 0.64323, 3, 455, 246, 36.225, 0.150685, 1.70578, 1, 0, 0, 1.16908e-05, 36810
-7124.68, 456757, -471.93, 4.06268, -965.926, 0.118653, 0.4297, 0.958125, 0.351078, 0.648177, 3, 182, 246, 41.9296, 0.172488, 1.0428, 1, 0, 0, 1.0964e-05, 36811
290.002, 530772, -395.92, 4.22222, -843.375, 0.539521, 0.351587, 0.9175, 0.352806, 0.64323, 3, 455, 246, 27.7724, 0.10902, 0, 0, 0, 0, 0.000112814, 36812
-10970.2, 436672, -298.021, 0.560603, -624.118, 0.150914, 0.530229, 1.03299, 0.34851, 0.655882, 0.0001, 45.5, 246, 32.9173, 0.173686, 0, 0, 0, 0, -5.2871e-05, 36823
-10970.2, 436672, -298.021, 0.560603, -624.118, 0.150914, 0.530229, 1.03299, 0.34851, 0.655882, 3, 45.5, 246, 32.9173, 0.173686, 0, 0, 0, 0, -4.50009e-05, 36823
-10594, 104666, -39.0919, 2.65587, -656.224, 0.0877985, 0.244132, 1.03299, 0.34851, 0.655882, 0.0001, 45.5, 246, 17.6662, 0.0597039, 0, 0, 1, 0, -7.37125e-06, 36827
-10594, 104666, -39.0919, 2.65587, -656.224, 0.0877985, 0.244132, 1.03299, 0.34851, 0.655882, 3, 45.5, 246, 17.6662, 0.0597039, 0, 0, 1, 0, 1.18423e-05, 36827
-4266.85, 79351, -195.149, 3.59163, -816.567, -0.0502009, 0.224683, 1.03299, 0.34851, 0.655882, 0.0001, 45.5, 246, 51.1595, 0.170768, 1.40049, 1, 1, 0, 8.03475e-06, 36833
-4266.85, 79351, -195.149, 3.59163, -816.567, -0.0502009, 0.224683, 1.03299, 0.34851, 0.655882, 3, 45.5, 246, 51.1595, 0.170768, 1.24342, 1, 1, 0, 2.49409e-06, 36833
-2521.22, 91820.5, -241.911, 3.92492, -835.534, 0.0117931, 0.244453, 0.993198, 0.349787, 0.651995, 0.0001, 91, 246, 51.1595, 0.170768, 1.51702, 1, 1, 0, -5.64027e-06, 36833
-2521.22, 91820.5, -241.911, 3.92492, -835.534, 0.0117931, 0.244453, 0.993198, 0.349787, 0.651995, 3, 91, 246, 51.1595, 0.170768, 1.38889, 1, 1, 0, -1.0713e-05, 36833
-127.318, 105994, -298.371, 4.32766, -871.281, 0.0867775, 0.285469, 0.958125, 0.351078, 0.648177, 0.0001, 182, 246, 51.1595, 0.170768, 2.02246, 1, 1, 1, 1.40134e-05, 36833
-127.318, 105994, -298.371, 4.32766, -871.281, 0.0867775, 0.285469, 0.958125, 0.351078, 0.648177, 3, 182, 246, 51.1595, 0.170768, 1.89243, 1, 1, 1, 3.69933e-06, 36833
-8027.31, 175949, -122.147, 2.90234, -799.257, 0.537557, 0.259131, 0.958125, 0.351078, 0.648177, 3, 182, 246, 22.1738, 0.0829524, 0, 0, 1, 0, 6.28878e-05, 36835
-3395.87, 142246, -276.053, 2.86979, -701.977, 0.0753831, 0.397768, 0.958125, 0.351078, 0.648177, 0.0001, 182, 246, 48.3638, 0.236663, 1.14484, 1, 1, 0, -7.13276e-06, 36837
254.996, 157519, -332.92, 3.20474, -749.538, 0.130994, 0.427173, 0.9175, 0.352806, 0.64323, 0.0001, 455, 246, 48.3638, 0.236663, 2.21783, 1, 0, 0, -1.47212e-07, 36837
254.996, 157519, -332.92, 3.20474, -749.538, 0.130994, 0.427173, 0.9175, 0.352806, 0.64323, 3, 455, 246, 48.3638, 0.236663, 2.21795, 1, 0, 0, 9.23599e-06, 36837
-12715.6, 149909, -66.4704, 3.54576, -915.158, 0.119208, 0.155047, 1.03299, 0.34851, 0.655882, 0.0001, 45.5, 246, 24.776, 0.0752451, 0, 0, 0, 0, -1.13341e-05, 36838
-12715.6, 149909, -66.4704, 3.54576, -915.158, 0.119208, 0.155047, 1.03299, 0.34851, 0.655882, 3, 45.5, 246, 24.776, 0.0752451, 0, 0, 0, 0, 4.92528e-06, 36838
-8828.14, 762056, -476.144, 0.00491635, -694.533, 0.00851118, 0.627078, 1.03299, 0.34851, 0.655882, 3, 45.5, 246, 34.9778, 0.163951, 0, 0, 0, 0, 9.10397e-06, 36841
-7262.67, 643440, -280.524, 0.21562, -1014.15, 0.241988, 0.454082, 1.03299, 0.34851, 0.655882, 0.0001, 45.5, 246, 33.9001, 0.108116, 0, 0, 0, 0, -1.66635e-05, 36843
-7262.67, 643440, -280.524, 0.21562, -1014.15, 0.241988, 0.454082, 1.03299, 0.34851, 0.655882, 3, 45.5, 246, 33.9001, 0.108116, 0, 0, 0, 0, -0.000105828, 36843
-7384.01, 83502.6, -128.425, 2.33859, -878.538, -0.00504512, 0.337926, 1.03299, 0.34851, 0.655882, 3, 45.5, 246, 41.7586, 0.193886, 0, 0, 1, 0, -2.23417e-06, 36844
-2577.17, 189148, -324.108, 3.38613, -960.801, 0.672044, 0.399787, 0.958125, 0.351078, 0.648177, 0.0001, 182, 246, 47.0162, 0.217229, 1.40235, 1, 0, 0, 5.05369e-05, 36849
-2577.17, 189148, -324.108, 3.38613, -960.801, 0.672044, 0.399787, 0.958125, 0.351078, 0.648177, 3, 182, 246, 47.0162, 0.217229, 1.18452, 1, 0, 0, 3.44483e-05, 36849
-8483.62, 2490.77, 6.61873, 1.93184, -930.96, -0.0174726, 0.303774, 1.03299, 0.34851, 0.655882, 0.0001, 45.5, 246, 9.33189, 0.0496991, 0, 0, 1, 1, -8.61489e-06, 36854
-5936, -6121.34, -51.5749, 3.62833, -725.186, -0.0443555, 0.173506, 1.03299, 0.34851, 0.655882, 0.0001, 45.5, 246, 28.3021, 0.0175307, 0, 0, 1, 1, 1.0698e-05, 36861
-5936, -6121.34, -51.5749, 3.62833, -725.186, -0.0443555, 0.173506, 1.03299, 0.34851, 0.655882, 3, 45.5, 246, 28.3021, 0.0175307, 0, 0, 1, 1, -1.32702e-05, 36861
-7961.2, 48090.2, -61.9756, 2.35018, -1197.94, 0.149481, 0.288382, 0.993198, 0.349787, 0.651995, 0.0001, 91, 246, 25.8891, 0.107792, 0, 0, 1, 1, -1.58712e-05, 36866
-7961.2, 48090.2, -61.9756, 2.35018, -1197.94, 0.149481, 0.288382, 0.993198, 0.349787, 0.651995, 3, 91, 246, 25.8891, 0.107792, 0, 0, 1, 1, 9.73984e-06, 36866
-8413.87, 436258, -514.21, 3.90282, -662.821, 0.124276, 0.503876, 0.958125, 0.351078, 0.648177, 0.0001, 182, 246, 40.474, 0.194901, 1.49977, 1, 0, 0, 5.60957e-05, 36870
-8413.87, 436258, -514.21, 3.90282, -662.821, 0.124276, 0.503876, 0.958125, 0.351078, 0.648177, 3, 182, 246, 40.474, 0.194901, 1.44624, 1, 0, 0, -3.17091e-05, 36870
-11552.1, 608521, -13.5177, 0.369382, -1178.87, -0.000620469, 0.338764, 1.03299, 0.34851, 0.655882, 0.0001, 45.5, 246, 24.1684, 0.00796752, 0, 0, 1, 0, 0.000149422, 36873
-11552.1, 608521, -13.5177, 0.369382, -1178.87, -0.000620469, 0.338764, 1.03299, 0.34851, 0.655882, 3, 45.5, 246, 24.1684, 0.00796752, 0, 0, 1, 0, -0.000130972, 36873
-10820.1, 632843, -17.9186, 0.381691, -1178.96, -1.19505e-06, 0.302958, 0.993198, 0.349787, 0.651995, 0.0001, 91, 246, 24.1684, 0.00796752, 0, 0, 1, 0, -1.5009e-05, 36873
-9963.2, 657199, -22.5414, 0.393425, -1179.23, 0.000658322, 0.271555, 0.958125, 0.351078, 0.648177, 0.0001, 182, 246, 24.1684, 0.00796752, 0, 0, 1, 0, 6.6948e-05, 36873
-10674.1, 177949, -166.47, 1.99916, -643.342, 0.742098, 0.363682, 1.03299, 0.34851, 0.655882, 0.0001, 45.5, 246, 32.8145, 0.156864, 0, 0, 1, 0, -2.58036e-05, 36878
-10674.1, 177949, -166.47, 1.99916, -643.342, 0.742098, 0.363682, 1.03299, 0.34851, 0.655882, 3, 45.5, 246, 32.8145, 0.156864, 0, 0, 1, 0, 6.57631e-05, 36878
-11423.2, 288170, -38.6392, 0.906658, -750.797, -0.000586576, 0.334259, 1.03299, 0.34851, 0.655882, 0.0001, 45.5, 246, 16.5097, 0.0378286, 0, 0, 1, 0, 2.3469e-06, 36881
-11423.2, 288170, -38.6392, 0.906658, -750.797, -0.000586576, 0.334259, 1.03299, 0.34851, 0.655882, 3, 45.5, 246, 16.5097, 0.0378286, 0, 0, 1, 0, -3.12616e-05, 36881
-11392, 331523, -53.0775, 0.799554, -794.13, 0.0879631, 0.340052, 1.03299, 0.34851, 0.655882, 0.0001, 45.5, 246, 18.5194, 0.0430503, 0, 0, 1, 0, -1.28537e-05, 36883
-11392, 331523, -53.0775, 0.799554, -794.13, 0.0879631, 0.340052, 1.03299, 0.34851, 0.655882, 3, 45.5, 246, 18.5194, 0.0430503, 0, 0, 1, 0, 2.95507e-06, 36883
-10437.3, 344273, -61.1431, 0.836668, -806.748, 0.0921828, 0.306738, 0.993198, 0.349787, 0.651995, 0.0001, 91, 246, 18.5194, 0.0430503, 0, 0, 1, 0, 1.40466e-06, 36883
-6110.24, -51820.6, 16.8168, 3.54545, -1009.33, -0.0605609, 0.198685, 1.03299, 0.34851, 0.655882, 0.0001, 45.5, 246, 11.2983, 0.0528629, 1.05601, 1, 1, 0, 3.96162e-06, 36884
-6958.95, -34409.8, -15.7848, 3.86582, -1004.29, -0.00019495, 0.215123, 0.993198, 0.349787, 0.651995, 3, 91, 246, 11.2983, 0.0528629, 0, 0, 1, 1, -4.42995e-06, 36884
-11539.9, 530641, -25.0474, 0.417791, -806.729, 0.441444, 0.338853, 1.03299, 0.34851, 0.655882, 0.0001, 45.5, 246, 17.6744, 0.0130036, 0, 0, 1, 0, 3.25565e-05, 36887
-11539.9, 530641, -25.0474, 0.417791, -806.729, 0.441444, 0.338853, 1.03299, 0.34851, 0.655882, 3, 45.5, 246, 17.6744, 0.0130036, 0, 0, 1, 0, -6.38094e-05, 36887
-10801.2, 555962, -29.119, 0.442687, -867.598, 0.475421, 0.303254, 0.993198, 0.349787, 0.651995, 0.0001, 91, 246, 17.6744, 0.0130036, 0, 0, 1, 0, 5.53543e-05, 36887
-9895.26, 585054, -33.7154, 0.468899, -938.532, 0.515024, 0.272129, 0.958125, 0.351078, 0.648177, 0.0001, 182, 246, 17.6744, 0.0130036, 0, 0, 1, 0, -4.36647e-05, 36887
-7946.31, 12362.3, -34.1705, 1.92294, -627.735, 0.0686758, 0.30642, 1.03299, 0.34851, 0.655882, 3, 45.5, 246, 24.3834, 0.0644764, 0, 0, 1, 1, 7.94948e-06, 36889
-9221.29, 422045, -254.969, 0.629528, -1048.01, 0.220241, 0.483053, 1.03299, 0.34851, 0.655882, 0.0001, 45.5, 246, 36.9583, 0.151704, 0, 0, 0, 0, 1.44797e-05, 36897
-9221.29, 422045, -254.969, 0.629528, -1048.01, 0.220241, 0.483053, 1.03299, 0.34851, 0.655882, 3, 45.5, 246, 36.9583, 0.151704, 0, 0, 0, 0, 6.29381e-05, 36897
-9362.46, 384645, -81.6406, 1.35205, -1165.73, 0.0530589, 0.272505, 0.958125, 0.351078, 0.648177, 3, 182, 246, 23.8358, 0.0440466, 0, 0, 1, 0, -2.96638e-06, 36900
-10875.3, 195738, -168.257, 2.24417, -1005.06, 0.72904, 0.355478, 1.03299, 0.34851, 0.655882, 0.0001, 45.5, 246, 36.7426, 0.155029, 0, 0, 0, 0, 4.36938e-06, 36904
-10875.3, 195738, -168.257, 2.24417, -1005.06, 0.72904, 0.355478, 1.03299, 0.34851, 0.655882, 3, 45.5, 246, 36.7426, 0.155029, 0, 0, 0, 0, 3.21153e-05, 36904
-11999.5, 375572, -481.026, 3.68546, -836.541, 0.0180964, 0.528483, 0.993198, 0.349787, 0.651995, 0.0001, 91, 246, 49.5719, 0.229419, 1.21323, 1, 1, 0, -1.21004e-05, 36909
-11999.5, 375572, -481.026, 3.68546, -836.541, 0.0180964, 0.528483, 0.993198, 0.349787, 0.651995, 3, 91, 246, 49.5719, 0.229419, 1.13561, 1, 1, 0, 1.59225e-05, 36909
-12602.9, 127901, 15.9017, 2.91922, -963.395, 0.660264, 0.19851, 1.03299, 0.34851, 0.655882, 0.0001, 45.5, 246, 14.7145, 0.0249369, 0, 0, 0, 0, 4.10455e-05, 36911
-12602.9, 127901, 15.9017, 2.91922, -963.395, 0.660264, 0.19851, 1.03299, 0.34851, 0.655882, 3, 45.5, 246, 14.7145, 0.0249369, 0, 0, 0, 0, 4.48844e-05, 36911
-10987.4, 150757, -11.548, 3.27522, -1079.07, 0.784154, 0.196243, 0.993198, 0.349787, 0.651995, 0.0001, 91, 246, 14.7145, 0.0249369, 0, 0, 1, 0, -3.24483e-05, 36911
-10987.4, 150757, -11.548, 3.27522, -1079.07, 0.784154, 0.196243, 0.993198, 0.349787, 0.651995, 3, 91, 246, 14.7145, 0.0249369, 0, 0, 1, 0, 6.11376e-05, 36911
-11381.3, 402355, -164.005, 0.849465, -844.757, 0.113484, 0.394565, 1.03299, 0.34851, 0.655882, 0.0001, 45.5, 246, 27.7721, 0.102672, 0, 0, 0, 0, 5.50525e-06, 36916
-11381.3, 402355, -164.005, 0.849465, -844.757, 0.113484, 0.394565, 1.03299, 0.34851, 0.655882, 3, 45.5, 246, 27.7721, 0.102672, 0, 0, 0, 0, 1.34876e-05, 36916
-9662.08, 79253.8, -31.7756, 2.45653, -836.978, 0.0334719, 0.266176, 1.03299, 0.34851, 0.655882, 0.0001, 45.5, 246, 19.2078, 0.0674453, 0, 0, 1, 0, 1.24774e-05, 36922
-9662.08, 79253.8, -31.7756, 2.45653, -836.978, 0.0334719, 0.266176, 1.03299, 0.34851, 0.655882, 3, 45.5, 246, 19.2078, 0.0674453, 0, 0, 1, 0, -3.12704e-06, 36922
-12688.2, 278228, -30.3296, 1.35742, -1103.95, 0.0200606, 0.318154, 1.03299, 0.34851, 0.655882, 0.0001, 45.5, 246, 21.1914, 0.0377604, 0, 0, 1, 0, -1.47435e-05, 36923
-12688.2, 278228, -30.3296, 1.35742, -1103.95, 0.0200606, 0.318154, 1.03299, 0.34851, 0.655882, 3, 45.5, 246, 21.1914, 0.0377604, 0, 0, 1, 0, -4.0591e-05, 36923
-7149.13, 128107, -201.583, 2.87162, -1029.02, 0.247487, 0.352992, 1.03299, 0.34851, 0.655882, 3, 45.5, 246, 48.766, 0.218347, 0, 0, 1, 0, 1.35739e-05, 36930
-2086, 176849, -303.54, 3.49187, -1175.64, 0.364729, 0.380463, 0.958125, 0.351078, 0.648177, 0.0001, 182, 246, 48.766, 0.218347, 1.49092, 1, 0, 0, -1.79214e-06, 36930
-2086, 176849, -303.54, 3.49187, -1175.64, 0.364729, 0.380463, 0.958125, 0.351078, 0.648177, 3, 182, 246, 48.766, 0.218347, 1.22957, 1, 0, 0, -1.66983e-05, 36930
-11896.8, 185095, -41.4825, 1.89534, -930.4, 0.0564198, 0.298244, 1.03299, 0.34851, 0.655882, 0.0001, 45.5, 246, 20.2908, 0.0592554, 0, 0, 1, 0, -7.23034e-06, 36936
-11896.8, 185095, -41.4825, 1.89534, -930.4, 0.0564198, 0.298244, 1.03299, 0.34851, 0.655882, 3, 45.5, 246, 20.2908, 0.0592554, 0, 0, 1, 0, -8.07828e-07, 36936
-8765.66, 217328, -82.2308, 2.15214, -959.133, 0.0940877, 0.262223, 0.958125, 0.351078, 0.648177, 3, 182, 246, 20.2908, 0.0592554, 0, 0, 1, 0, 1.80656e-05, 36936
-8596.28, 33435.2, -35.2712, 1.07606, -1016.74, -0.00485956, 0.351923, 1.03299, 0.34851, 0.655882, 0.0001, 45.5, 246, 25.559, 0.186345, 0, 0, 1, 1, -1.29449e-05, 36941
-8596.28, 33435.2, -35.2712, 1.07606, -1016.74, -0.00485956, 0.351923, 1.03299, 0.34851, 0.655882, 3, 45.5, 246, 25.559, 0.186345, 0, 0, 1, 1, -9.20266e-06, 36941
-11187.5, 224625, -128.088, 1.66284, -976.419, 0.273993, 0.361136, 1.03299, 0.34851, 0.655882, 0.0001, 45.5, 246, 30.6716, 0.124898, 0, 0, 1, 0, 1.73714e-05, 36944
-11187.5, 224625, -128.088, 1.66284, -976.419, 0.273993, 0.361136, 1.03299, 0.34851, 0.655882, 3, 45.5, 246, 30.6716, 0.124898, 0, 0, 1, 0, 1.17577e-05, 36944
954.302, 270016, -364.218, 3.69516, -955.593, 0.23259, 0.40198, 0.9175, 0.352806, 0.64323, 0.0001, 455, 246, 38.5101, 0.171041, 1.01872, 1, 0, 0, 1.26563e-05, 36948
954.302, 270016, -364.218, 3.69516, -955.593, 0.23259, 0.40198, 0.9175, 0.352806, 0.64323, 3, 455, 246, 38.5101, 0.171041, 2.18439, 1, 0, 0, 9.32287e-06, 36948
-11094.2, 205904, -298.216, 3.48844, -633.988, 0.050303, 0.328788, 1.03299, 0.34851, 0.655882, 0.0001, 45.5, 246, 46.5239, 0.206736, 1.1103, 1, 0, 0, -2.37993e-07, 36949
-11094.2, 205904, -298.216, 3.48844, -633.988, 0.050303, 0.328788, 1.03299, 0.34851, 0.655882, 3, 45.5, 246, 46.5239, 0.206736, 1.00737, 1, 0, 0, 6.56912e-06, 36949
-7042.76, 215506, -348.516, 3.83635, -673.288, 0.110094, 0.352391, 0.993198, 0.349787, 0.651995, 0.0001, 91, 246, 46.5239, 0.206736, 1.35326, 1, 1, 0, 2.77269e-06, 36949
-7042.76, 215506, -348.516, 3.83635, -673.288, 0.110094, 0.352391, 0.993198, 0.349787, 0.651995, 3, 91, 246, 46.5239, 0.206736, 1.2393, 1, 1, 0, -4.36322e-06, 36949
-1974.2, 228012, -409.939, 4.25833, -729.795, 0.185251, 0.397755, 0.958125, 0.351078, 0.648177, 0.0001, 182, 246, 46.5239, 0.206736, 2.54431, 1, 0, 0, 8.93331e-07, 36949
-1974.2, 228012, -409.939, 4.25833, -729.795, 0.185251, 0.397755, 0.958125, 0.351078, 0.648177, 3, 182, 246, 46.5239, 0.206736, 2.36731, 1, 0, 0, 9.83234e-06, 36949
-12032, 234070, -84.6788, 1.35944, -526.975, 0.796341, 0.333108, 1.03299, 0.34851, 0.655882, 0.0001, 45.5, 246, 18.4092, 0.0737251, 0, 0, 1, 0, -2.45536e-05, 36952
-12032, 234070, -84.6788, 1.35944, -526.975, 0.796341, 0.333108, 1.03299, 0.34851, 0.655882, 3, 45.5, 246, 18.4092, 0.0737251, 0, 0, 1, 0, -1.18481e-05, 36952
-10743.7, 250458, -96.387, 1.49683, -606.919, 0.92122, 0.305493, 0.993198, 0.349787, 0.651995, 3, 91, 246, 18.4092, 0.0737251, 0, 0, 1, 0, -2.73139e-05, 36952
-9081.1, 271759, -110.814, 1.66102, -715.627, 1.09099, 0.284819, 0.958125, 0.351078, 0.648177, 0.0001, 182, 246, 18.4092, 0.0737251, 0, 0, 1, 0, 6.91548e-06, 36952
1819.39, 206487, -375.929, 4.48849, -889.004, 0.794527, 0.399194, 0.9175, 0.352806, 0.64323, 0.0001, 455, 246, 39.6581, 0.171945, 4.09286, 1, 0, 0, -162.424, 36958
1819.39, 206487, -375.929, 4.48849, -889.004, 0.794527, 0.399194, 0.9175, 0.352806, 0.64323, 3, 455, 246, 39.6581, 0.171945, 4.15465, 1, 0, 0, -162.435, 36958
-8968.1, 918286, -76.9716, 0.171453, -1041.67, 0.0647896, 0.310322, 0.993198, 0.349787, 0.651995, 0.0001, 91, 246, 25.8377, 0.0207981, 0, 0, 1, 0, -2.54834e-05, 36960
-8293.76, 99148.3, -127.958, 2.58153, -734.735, -0.025693, 0.303738, 1.03299, 0.34851, 0.655882, 0.0001, 45.5, 246, 36.4176, 0.15673, 0, 0, 1, 0, 2.00604e-06, 36963
-8293.76, 99148.3, -127.958, 2.58153, -734.735, -0.025693, 0.303738, 1.03299, 0.34851, 0.655882, 3, 45.5, 246, 36.4176, 0.15673, 0, 0, 1, 0, -1.46095e-07, 36963
-10470.6, 87007.1, -17.6155, 3.14124, -736.544, 0.0456245, 0.195354, 1.03299, 0.34851, 0.655882, 0.0001, 45.5, 246, 15.5637, 0.0449498, 0, 0, 1, 0, 1.35376e-05, 36970
-10470.6, 87007.1, -17.6155, 3.14124, -736.544, 0.0456245, 0.195354, 1.03299, 0.34851, 0.655882, 3, 45.5, 246, 15.5637, 0.0449498, 0, 0, 1, 0, 1.86796e-05, 36970
-6379.61, 133603, -244.877, 3.4654, -855.586, 0.287164, 0.288031, 1.03299, 0.34851, 0.655882, 0.0001, 45.5, 246, 50.8512, 0.204687, 1.32006, 1, 0, 0, -9.42808e-06, 36981
-6379.61, 133603, -244.877, 3.4654, -855.586, 0.287164, 0.288031, 1.03299, 0.34851, 0.655882, 3, 45.5, 246, 50.8512, 0.204687, 1.21545, 1, 0, 0, -2.60646e-05, 36981
-3586.48, 150888, -297.715, 3.8558, -927.134, 0.362405, 0.308628, 0.993198, 0.349787, 0.651995, 0.0001, 91, 246, 50.8512, 0.204687, 1.55626, 1, 1, 0, -1.38339e-05, 36981
-3586.48, 150888, -297.715, 3.8558, -927.134, 0.362405, 0.308628, 0.993198, 0.349787, 0.651995, 3, 91, 246, 50.8512, 0.204687, 1.44115, 1, 1, 0, -3.75532e-06, 36981
226.85, 172835, -364.497, 4.33835, -1025.91, 0.462526, 0.35265, 0.958125, 0.351078, 0.648177, 0.0001, 182, 246, 50.8512, 0.204687, 3.13799, 1, 0, 0, 5.08116e-06, 36981
226.85, 172835, -364.497, 4.33835, -1025.91, 0.462526, 0.35265, 0.958125, 0.351078, 0.648177, 3, 182, 246, 50.8512, 0.204687, 2.93525, 1, 0, 0, 1.80575e-05, 36981
-9325.32, -58788.9, -5.79218, 0.219906, -969.921, 0.341515, 0.355782, 1.03299, 0.34851, 0.655882, 0.0001, 45.5, 246, -25.4851, 0.247339, 0, 0, 1, 0, 1.87947e-06, 36983
-9325.32, -58788.9, -5.79218, 0.219906, -969.921, 0.341515, 0.355782, 1.03299, 0.34851, 0.655882, 3, 45.5, 246, -25.4851, 0.247339, 0, 0, 1, 0, 1.98287e-06, 36983
-11999.2, 253860, -68.4826, 1.41602, -902.257, -0.00326012, 0.330091, 1.03299, 0.34851, 0.655882, 0.0001, 45.5, 246, 22.3129, 0.0690724, 0, 0, 1, 0, -2.3943e-05, 36991
-11999.2, 253860, -68.4826, 1.41602, -902.257, -0.00326012, 0.330091, 1.03299, 0.34851, 0.655882, 3, 45.5, 246, 22.3129, 0.0690724, 0, 0, 1, 0, 9.18303e-06, 36991
-8885.22, 282547, -100.779, 1.56915, -910.667, 0.0163108, 0.281099, 0.958125, 0.351078, 0.648177, 0.0001, 182, 246, 22.3129, 0.0690724, 0, 0, 1, 0, 5.25855e-06, 36991
-3656, 290739, -416.679, 4.57663, -953.746, 1.23259, 0.363909, 0.958125, 0.351078, 0.648177, 0.0001, 182, 246, 40.6571, 0.173301, 2.23502, 1, 0, 0, 8.80755e-05, 36994
-3656, 290739, -416.679, 4.57663, -953.746, 1.23259, 0.363909, 0.958125, 0.351078, 0.648177, 3, 182, 246, 40.6571, 0.173301, 2.0736, 1, 0, 0, -2.86986e-05, 36994
