-12341.3, 178693, -79.6995, 2.70969, -1059.85, -0.0137447, 0.259255, 1.03299, 0.34851, 0.655882, 0.0001, 45.5, 246, 27.547, 0.0923678, 0, 0, 0, 0, -1.61661e-05, 136501
-12341.3, 178693, -79.6995, 2.70969, -1059.85, -0.0137447, 0.259255, 1.03299, 0.34851, 0.655882, 3, 45.5, 246, 27.547, 0.0923678, 0, 0, 0, 0, 1.43796e-05, 136501
-10211, 198170, -113.029, 2.91787, -1067.51, 0.0209904, 0.253236, 0.993198, 0.349787, 0.651995, 0.0001, 91, 246, 27.547, 0.0923678, 0, 0, 1, 0, 1.7533e-05, 136501
-10211, 198170, -113.029, 2.91787, -1067.51, 0.0209904, 0.253236, 0.993198, 0.349787, 0.651995, 3, 91, 246, 27.547, 0.0923678, 0, 0, 1, 0, -1.07292e-05, 136501
-7236.96, 668397, -347.869, 0.240869, -1044.59, 0.455052, 0.502713, 1.03299, 0.34851, 0.655882, 0.0001, 45.5, 246, 36.9957, 0.125021, 0, 0, 0, 0, -0.000137015, 136511
-7236.96, 668397, -347.869, 0.240869, -1044.59, 0.455052, 0.502713, 1.03299, 0.34851, 0.655882, 3, 45.5, 246, 36.9957, 0.125021, 0, 0, 0, 0, 6.3908e-05, 136511
-6218.99, 438543, -324.578, 0.317215, -1098.6, 0.108146, 0.554368, 0.993198, 0.349787, 0.651995, 0.0001, 91, 246, 41.7738, 0.196988, 0, 0, 1, 0, -3.25781e-05, 136512
-9965.55, 436093, -323.074, 0.69361, -967.802, 0.678124, 0.54624, 1.03299, 0.34851, 0.655882, 3, 45.5, 246, 39.2728, 0.174053, 0, 0, 0, 0, 2.61906e-05, 136516
-11265.6, 170790, -127.117, 2.79024, -1007.54, 0.115925, 0.281543, 1.03299, 0.34851, 0.655882, 0.0001, 45.5, 246, 33.3087, 0.12896, 0, 0, 0, 0, -5.21194e-06, 136518
-11265.6, 170790, -127.117, 2.79024, -1007.54, 0.115925, 0.281543, 1.03299, 0.34851, 0.655882, 3, 45.5, 246, 33.3087, 0.12896, 0, 0, 0, 0, 2.27628e-06, 136518
-11981.3, 351165, -130.913, 1.19609, -1108.74, 0.245961, 0.367133, 1.03299, 0.34851, 0.655882, 0.0001, 45.5, 246, 29.9759, 0.0917797, 0, 0, 0, 0, 1.83094e-05, 136519
-11981.3, 351165, -130.913, 1.19609, -1108.74, 0.245961, 0.367133, 1.03299, 0.34851, 0.655882, 3, 45.5, 246, 29.9759, 0.0917797, 0, 0, 0, 0, -1.04881e-05, 136519
-3967.36, 69538.4, -189.749, 2.64917, -633.812, 0.148439, 0.325559, 1.03299, 0.34851, 0.655882, 0.0001, 45.5, 246, 56.8567, 0.221857, 1.41801, 1, 1, 0, 1.32542e-05, 136520
-3967.36, 69538.4, -189.749, 2.64917, -633.812, 0.148439, 0.325559, 1.03299, 0.34851, 0.655882, 3, 45.5, 246, 56.8567, 0.221857, 1.25866, 1, 1, 0, -1.11957e-05, 136520
-2793.03, 78161.4, -220.818, 2.88002, -665.854, 0.186359, 0.322809, 0.993198, 0.349787, 0.651995, 0.0001, 91, 246, 56.8567, 0.221857, 1.48313, 1, 1, 0, -1.13348e-05, 136520
-2793.03, 78161.4, -220.818, 2.88002, -665.854, 0.186359, 0.322809, 0.993198, 0.349787, 0.651995, 3, 91, 246, 56.8567, 0.221857, 1.33221, 1, 1, 0, -6.30378e-06, 136520
-1244.68, 88229.3, -257.408, 3.14605, -707.445, 0.233067, 0.333074, 0.958125, 0.351078, 0.648177, 0.0001, 182, 246, 56.8567, 0.221857, 1.74003, 1, 1, 0, -7.02033e-06, 136520
-1244.68, 88229.3, -257.408, 3.14605, -707.445, 0.233067, 0.333074, 0.958125, 0.351078, 0.648177, 3, 182, 246, 56.8567, 0.221857, 1.59921, 1, 1, 0, -5.49202e-07, 136520
1583.98, 104791, -317.436, 3.57365, -783.111, 0.313812, 0.368766, 0.9175, 0.352806, 0.64323, 0.0001, 455, 246, 56.8567, 0.221857, 3.00254, 1, 1, 0, -1.8647e-05, 136520
1583.98, 104791, -317.436, 3.57365, -783.111, 0.313812, 0.368766, 0.9175, 0.352806, 0.64323, 3, 455, 246, 56.8567, 0.221857, 2.89547, 1, 1, 0, -6.64441e-06, 136520
-8874.88, 37987.2, -5.51597, 2.54462, -876.794, 0.180231, 0.257988, 1.03299, 0.34851, 0.655882, 0.0001, 45.5, 246, 14.5751, 0.0503711, 1.13048, 1, 1, 0, 1.18992e-05, 136523
-6653.83, 90721.4, -97.5669, 3.39964, -1013.47, 0.341056, 0.272586, 0.9175, 0.352806, 0.64323, 3, 455, 246, 14.5751, 0.0503711, 0, 0, 1, 0, 1.19149e-05, 136523
-11396.9, 674997, -99.6701, 0.43075, -942.809, 0.329307, 0.35158, 1.03299, 0.34851, 0.655882, 0.0001, 45.5, 246, 24.4377, 0.0367525, 0, 0, 1, 0, 2.33148e-05, 136533
-11396.9, 674997, -99.6701, 0.43075, -942.809, 0.329307, 0.35158, 1.03299, 0.34851, 0.655882, 3, 45.5, 246, 24.4377, 0.0367525, 0, 0, 1, 0, 6.96635e-05, 136533
-8903.5, 736071, -114.712, 0.477514, -1055.35, 0.369582, 0.286756, 0.958125, 0.351078, 0.648177, 3, 182, 246, 24.4377, 0.0367525, 0, 0, 1, 0, 5.60836e-05, 136533
-12139.8, 153529, -30.1105, 2.55921, -996.831, -0.024232, 0.250835, 1.03299, 0.34851, 0.655882, 0.0001, 45.5, 246, 20.3433, 0.0568219, 0, 0, 1, 0, -4.84553e-06, 136534
-12139.8, 153529, -30.1105, 2.55921, -996.831, -0.024232, 0.250835, 1.03299, 0.34851, 0.655882, 3, 45.5, 246, 20.3433, 0.0568219, 0, 0, 1, 0, 1.79862e-05, 136534
-12216.3, 185835, -41.121, 1.98791, -1058.17, 0.647786, 0.289682, 1.03299, 0.34851, 0.655882, 0.0001, 45.5, 246, 22.3086, 0.0580819, 0, 0, 1, 0, 3.07061e-05, 136542
-12216.3, 185835, -41.121, 1.98791, -1058.17, 0.647786, 0.289682, 1.03299, 0.34851, 0.655882, 3, 45.5, 246, 22.3086, 0.0580819, 0, 0, 1, 0, -0.000125422, 136542
-10747.9, 243016, -234.828, 1.77899, -904.616, 0.153001, 0.474135, 1.03299, 0.34851, 0.655882, 3, 45.5, 246, 41.8768, 0.211182, 0, 0, 0, 0, 9.57825e-07, 136553
-11419.6, 746194, 0.0314637, 0.233536, -589.217, 0.357058, 0.339591, 1.03299, 0.34851, 0.655882, 0.0001, 45.5, 246, 13.2084, 0.000665041, 0, 0, 1, 0, 4.64986e-05, 136554
-10917.4, 767260, -1.26189, 0.245457, -624.467, 0.378676, 0.303464, 0.993198, 0.349787, 0.651995, 0.0001, 91, 246, 13.2084, 0.000665041, 0, 0, 1, 0, 0.000141028, 136554
-5929.13, 872536, -336.927, 0.0924245, -1016.2, 0.15244, 0.461898, 1.03299, 0.34851, 0.655882, 3, 45.5, 246, 34.5271, 0.0963919, 0, 0, 0, 0, -0.000116965, 136563
-5710.76, 29281.1, -109.74, 3.52442, -1021.95, 0.00541272, 0.232938, 0.993198, 0.349787, 0.651995, 0.0001, 91, 246, 37.476, 0.0634447, 0, 0, 1, 1, 9.42981e-06, 136564
-5710.76, 29281.1, -109.74, 3.52442, -1021.95, 0.00541272, 0.232938, 0.993198, 0.349787, 0.651995, 3, 91, 246, 37.476, 0.0634447, 0, 0, 1, 1, 6.71972e-07, 136564
-3284.98, 75129.1, -228.888, 4.39474, -1092.88, 0.166276, 0.321432, 0.9175, 0.352806, 0.64323, 0.0001, 455, 246, 37.476, 0.0634447, 1.01003, 1, 1, 0, -2.08806e-06, 136564
-8427.23, 518190, -93.1136, 0.529787, -1178.68, 0.0189674, 0.285859, 0.958125, 0.351078, 0.648177, 0.0001, 182, 246, 26.2727, 0.0430561, 0, 0, 1, 0, -7.76344e-06, 136565
102.414, 237955, -287.997, 5.47358, -1495.82, 1.50235, 0.329095, 0.9175, 0.352806, 0.64323, 3, 455, 246, 27.3806, 0.089329, 1.05385, 1, 0, 0, -3.26953e-05, 136571
-10729.3, 436711, -377.76, 0.498064, -718.072, 0.0052357, 0.662696, 1.03299, 0.34851, 0.655882, 0.0001, 45.5, 246, 41.0367, 0.22979, 0, 0, 0, 0, -7.52053e-06, 136594
-10729.3, 436711, -377.76, 0.498064, -718.072, 0.0052357, 0.662696, 1.03299, 0.34851, 0.655882, 3, 45.5, 246, 41.0367, 0.22979, 0, 0, 0, 0, 1.81419e-05, 136594
-6489.86, 460836, -418.835, 0.54348, -730.465, 0.00763048, 0.656173, 0.958125, 0.351078, 0.648177, 3, 182, 246, 41.0367, 0.22979, 0, 0, 0, 0, -4.0464e-05, 136594
-5115.28, 88567.2, -185.681, 3.43344, -1007.06, 0.21173, 0.254085, 1.03299, 0.34851, 0.655882, 0.0001, 45.5, 246, 49.9762, 0.184709, 1.25918, 1, 1, 0, 9.80102e-06, 136599
-5115.28, 88567.2, -185.681, 3.43344, -1007.06, 0.21173, 0.254085, 1.03299, 0.34851, 0.655882, 3, 45.5, 246, 49.9762, 0.184709, 1.03903, 1, 1, 0, 6.33475e-06, 136599
-3264.22, 109179, -237.055, 3.79776, -1067.03, 0.278425, 0.270947, 0.993198, 0.349787, 0.651995, 0.0001, 91, 246, 49.9762, 0.184709, 1.391, 1, 1, 0, -1.91397e-06, 136599
-3264.22, 109179, -237.055, 3.79776, -1067.03, 0.278425, 0.270947, 0.993198, 0.349787, 0.651995, 3, 91, 246, 49.9762, 0.184709, 1.223, 1, 1, 0, 2.64953e-05, 136599
-541.201, 133875, -301.269, 4.2427, -1151.44, 0.365427, 0.309686, 0.958125, 0.351078, 0.648177, 0.0001, 182, 246, 49.9762, 0.184709, 2.12667, 1, 1, 1, -1.63252e-05, 136599
-541.201, 133875, -301.269, 4.2427, -1151.44, 0.365427, 0.309686, 0.958125, 0.351078, 0.648177, 3, 182, 246, 49.9762, 0.184709, 1.99218, 1, 1, 0, 1.26535e-05, 136599
-10049.9, 267846, -13.0326, 1.59491, -718.222, 0.527647, 0.257244, 0.958125, 0.351078, 0.648177, 0.0001, 182, 246, 10.2881, 0.00683076, 0, 0, 1, 0, 5.61507e-06, 136602
-11052.1, 405800, -257.667, 1.04059, -1043.93, -0.00499791, 0.485721, 1.03299, 0.34851, 0.655882, 0.0001, 45.5, 246, 38.2307, 0.161936, 0, 0, 0, 0, 1.18627e-05, 136607
-11052.1, 405800, -257.667, 1.04059, -1043.93, -0.00499791, 0.485721, 1.03299, 0.34851, 0.655882, 3, 45.5, 246, 38.2307, 0.161936, 0, 0, 0, 0, -2.25057e-05, 136607
-9326.34, 792674, -116.292, 0.416508, -798.146, 0.00312422, 0.286798, 0.958125, 0.351078, 0.648177, 3, 182, 246, 21.7632, 0.0353879, 0, 0, 1, 0, -1.58872e-05, 136609
-10808, 364232, -216.309, 1.11164, -1112.26, 0.0255106, 0.448187, 1.03299, 0.34851, 0.655882, 0.0001, 45.5, 246, 36.9487, 0.148944, 0, 0, 0, 0, 3.33516e-07, 136617
-10808, 364232, -216.309, 1.11164, -1112.26, 0.0255106, 0.448187, 1.03299, 0.34851, 0.655882, 3, 45.5, 246, 36.9487, 0.148944, 0, 0, 0, 0, 1.73328e-05, 136617
-9086.33, 476341, -304.777, 0.318775, -760.574, 0.437739, 0.518854, 1.03299, 0.34851, 0.655882, 0.0001, 45.5, 246, 33.5459, 0.157061, 0, 0, 0, 0, 5.09421e-05, 136620
-9086.33, 476341, -304.777, 0.318775, -760.574, 0.437739, 0.518854, 1.03299, 0.34851, 0.655882, 3, 45.5, 246, 33.5459, 0.157061, 0, 0, 0, 0, 8.51818e-05, 136620
-7792.6, 500623, -318.556, 0.338763, -819.922, 0.470778, 0.497732, 0.993198, 0.349787, 0.651995, 3, 91, 246, 33.5459, 0.157061, 0, 0, 1, 0, -0.000120442, 136620
-7813.44, 36825, -63.1122, 1.4999, -640.249, -0.0103032, 0.341549, 1.03299, 0.34851, 0.655882, 0.0001, 45.5, 246, 35.3345, 0.183451, 0, 0, 1, 1, -1.79896e-06, 136621
-9779.32, 71044, -17.1589, 3.26785, -1072.24, 0.239432, 0.189203, 1.03299, 0.34851, 0.655882, 0.0001, 45.5, 246, 20.3825, 0.0613456, 0, 0, 0, 0, -5.62024e-06, 136622
-9779.32, 71044, -17.1589, 3.26785, -1072.24, 0.239432, 0.189203, 1.03299, 0.34851, 0.655882, 3, 45.5, 246, 20.3825, 0.0613456, 0, 0, 0, 0, -7.22702e-07, 136622
-9411.89, 47985.2, 13.2141, 2.98962, -1052.78, 0.210408, 0.214727, 1.03299, 0.34851, 0.655882, 0.0001, 45.5, 246, 13.9062, 0.0421818, 1.09797, 1, 1, 0, -1.74906e-05, 136628
-9411.89, 47985.2, 13.2141, 2.98962, -1052.78, 0.210408, 0.214727, 1.03299, 0.34851, 0.655882, 3, 45.5, 246, 13.9062, 0.0421818, 1.03662, 1, 1, 0, 6.74588e-06, 136628
-8826.55, 68376.4, -16.3114, 3.27343, -1092.76, 0.262168, 0.21444, 0.993198, 0.349787, 0.651995, 0.0001, 91, 246, 13.9062, 0.0421818, 0, 0, 1, 0, -8.4623e-07, 136628
-8826.55, 68376.4, -16.3114, 3.27343, -1092.76, 0.262168, 0.21444, 0.993198, 0.349787, 0.651995, 3, 91, 246, 13.9062, 0.0421818, 0, 0, 1, 0, -1.54828e-05, 136628
-7794.57, 601924, -235.676, 0.316309, -1121.2, 0.34922, 0.42419, 1.03299, 0.34851, 0.655882, 0.0001, 45.5, 246, 33.9566, 0.094847, 0, 0, 0, 0, 5.53998e-05, 136629
-7794.57, 601924, -235.676, 0.316309, -1121.2, 0.34922, 0.42419, 1.03299, 0.34851, 0.655882, 3, 45.5, 246, 33.9566, 0.094847, 0, 0, 0, 0, 0.000161611, 136629
-6605.01, 638046, -247.234, 0.333583, -1188.85, 0.370107, 0.394779, 0.993198, 0.349787, 0.651995, 3, 91, 246, 33.9566, 0.094847, 0, 0, 1, 0, -5.0052e-05, 136629
-5207.27, 678773, -259.011, 0.351413, -1265.11, 0.393643, 0.369592, 0.958125, 0.351078, 0.648177, 3, 182, 246, 33.9566, 0.094847, 0, 0, 0, 0, 1.34502e-05, 136629
-8874.13, 118038, -99.0365, 0.586323, -1106.55, 0.0358624, 0.427014, 1.03299, 0.34851, 0.655882, 0.0001, 45.5, 246, 34.2021, 0.227388, 0, 0, 1, 0, 1.25117e-05, 136631
-8874.13, 118038, -99.0365, 0.586323, -1106.55, 0.0358624, 0.427014, 1.03299, 0.34851, 0.655882, 3, 45.5, 246, 34.2021, 0.227388, 0, 0, 1, 0, -1.20222e-05, 136631
-5013.66, 72696.3, -172.836, 3.37675, -757.559, -0.0158171, 0.235185, 1.03299, 0.34851, 0.655882, 0.0001, 45.5, 246, 47.8291, 0.159345, 1.25042, 1, 1, 0, -8.25833e-07, 136636
-5013.66, 72696.3, -172.836, 3.37675, -757.559, -0.0158171, 0.235185, 1.03299, 0.34851, 0.655882, 3, 45.5, 246, 47.8291, 0.159345, 1.0363, 1, 1, 0, 2.1141e-05, 136636
-3584.38, 83434.5, -213.106, 3.68201, -776.759, 0.0388234, 0.248098, 0.993198, 0.349787, 0.651995, 0.0001, 91, 246, 47.8291, 0.159345, 1.28462, 1, 1, 0, -1.10174e-05, 136636
-3584.38, 83434.5, -213.106, 3.68201, -776.759, 0.0388234, 0.248098, 0.993198, 0.349787, 0.651995, 3, 91, 246, 47.8291, 0.159345, 1.10706, 1, 1, 0, 7.69749e-06, 136636
-1637.61, 95589.7, -261.372, 4.04604, -809.712, 0.105063, 0.279914, 0.958125, 0.351078, 0.648177, 0.0001, 182, 246, 47.8291, 0.159345, 1.56901, 1, 1, 0, -3.13688e-06, 136636
-1637.61, 95589.7, -261.372, 4.04604, -809.712, 0.105063, 0.279914, 0.958125, 0.351078, 0.648177, 3, 182, 246, 47.8291, 0.159345, 1.42806, 1, 1, 0, -2.73835e-06, 136636
2066.65, 115393, -343.056, 4.66037, -883.389, 0.21996, 0.35689, 0.9175, 0.352806, 0.64323, 0.0001, 455, 246, 47.8291, 0.159345, 2.92251, 1, 0, 0, -3.02549e-06, 136636
2066.65, 115393, -343.056, 4.66037, -883.389, 0.21996, 0.35689, 0.9175, 0.352806, 0.64323, 3, 455, 246, 47.8291, 0.159345, 2.92226, 1, 0, 0, 4.97841e-07, 136636
-7624.34, -23191.4, 24.6967, 2.85974, -1107.67, 0.0741775, 0.246609, 1.03299, 0.34851, 0.655882, 0.0001, 45.5, 246, 8.36502, 0.058077, 0, 0, 1, 0, 1.15277e-05, 136640
-7624.34, -23191.4, 24.6967, 2.85974, -1107.67, 0.0741775, 0.246609, 1.03299, 0.34851, 0.655882, 3, 45.5, 246, 8.36502, 0.058077, 0, 0, 1, 0, 1.6936e-05, 136640
948.042, 222475, -344.889, 4.09471, -1037.59, 0.446961, 0.379232, 0.9175, 0.352806, 0.64323, 0.0001, 455, 246, 38.6549, 0.164584, 2.82795, 1, 0, 0, 4.5386e-06, 136646
948.042, 222475, -344.889, 4.09471, -1037.59, 0.446961, 0.379232, 0.9175, 0.352806, 0.64323, 3, 455, 246, 38.6549, 0.164584, 2.97992, 1, 0, 0, 5.9072e-06, 136646
-7980.55, 238362, -235.248, 1.55422, -1028.86, 0.0782043, 0.467256, 0.993198, 0.349787, 0.651995, 0.0001, 91, 246, 42.198, 0.221267, 0, 0, 1, 0, -1.82734e-05, 136650
-4463.97, 681365, -330.542, 0.0294598, -1080.06, 0.274383, 0.460998, 0.993198, 0.349787, 0.651995, 0.0001, 91, 246, 35.8447, 0.121699, 0, 0, 1, 0, 1600, 136654
-3494.57, 715068, -340.323, 0.0307562, -1129.28, 0.286823, 0.440483, 0.958125, 0.351078, 0.648177, 0.0001, 182, 246, 35.8447, 0.121699, 0, 0, 0, 0, 1532.4, 136654
-2059.23, 764581, -352.632, 0.0324917, -1201.65, 0.305109, 0.418284, 0.9175, 0.352806, 0.64323, 0.0001, 455, 246, 35.8447, 0.121699, 3.68966, 1, 0, 0, 1477.49, 136654
-2059.23, 764581, -352.632, 0.0324917, -1201.65, 0.305109, 0.418284, 0.9175, 0.352806, 0.64323, 3, 455, 246, 35.8447, 0.121699, 3.57668, 1, 0, 0, 1477.39, 136654
-9060.67, 120852, -130.246, 2.9711, -998.893, -0.0227967, 0.275482, 1.03299, 0.34851, 0.655882, 0.0001, 45.5, 246, 36.8068, 0.147595, 0, 0, 1, 0, 1.93908e-05, 136658
-9060.67, 120852, -130.246, 2.9711, -998.893, -0.0227967, 0.275482, 1.03299, 0.34851, 0.655882, 3, 45.5, 246, 36.8068, 0.147595, 0, 0, 1, 0, 1.92412e-05, 136658
-598.938, 186060, -290.185, 3.95992, -1091.38, 0.151899, 0.343384, 0.9175, 0.352806, 0.64323, 0.0001, 455, 246, 36.8068, 0.147595, 1.25322, 1, 0, 0, -3.95976e-06, 136658
-598.938, 186060, -290.185, 3.95992, -1091.38, 0.151899, 0.343384, 0.9175, 0.352806, 0.64323, 3, 455, 246, 36.8068, 0.147595, 1.27591, 1, 0, 0, -8.09463e-06, 136658
-9221.77, 319138, -174.228, 0.468493, -737.09, 0.0146811, 0.431713, 1.03299, 0.34851, 0.655882, 0.0001, 45.5, 246, 29.0112, 0.142021, 0, 0, 1, 0, 5.2423e-06, 136659
-10602.5, 220409, -313.625, 3.58801, -881.179, -0.0269256, 0.358791, 1.03299, 0.34851, 0.655882, 0.0001, 45.5, 246, 51.1967, 0.222751, 1.04044, 1, 0, 0, 9.69934e-06, 136669
-6031.4, 236103, -375.398, 3.94052, -915.715, 0.0351929, 0.388097, 0.993198, 0.349787, 0.651995, 0.0001, 91, 246, 51.1967, 0.222751, 1.47217, 1, 1, 0, -2.25732e-05, 136669
-6031.4, 236103, -375.398, 3.94052, -915.715, 0.0351929, 0.388097, 0.993198, 0.349787, 0.651995, 3, 91, 246, 51.1967, 0.222751, 1.37378, 1, 1, 0, 4.71621e-06, 136669
-9652.09, 100289, -92.3571, 3.039, -738.237, 0.799292, 0.216487, 1.03299, 0.34851, 0.655882, 3, 45.5, 246, 27.5434, 0.0941429, 0, 0, 0, 0, 1.59787e-05, 136674
-10708.9, 161692, -64.3026, 1.86277, -1168.12, -0.0157909, 0.318564, 1.03299, 0.34851, 0.655882, 0.0001, 45.5, 246, 26.2143, 0.0917341, 0, 0, 1, 0, -6.96481e-06, 136675
-10708.9, 161692, -64.3026, 1.86277, -1168.12, -0.0157909, 0.318564, 1.03299, 0.34851, 0.655882, 3, 45.5, 246, 26.2143, 0.0917341, 0, 0, 1, 0, -2.15127e-05, 136675
1566.16, 247131, -371.465, 4.84856, -882.458, 0.749932, 0.378086, 0.9175, 0.352806, 0.64323, 0.0001, 455, 246, 34.4357, 0.144687, 2.27698, 1, 0, 0, 6.03204e-05, 136678
1566.16, 247131, -371.465, 4.84856, -882.458, 0.749932, 0.378086, 0.9175, 0.352806, 0.64323, 3, 455, 246, 34.4357, 0.144687, 2.35882, 1, 0, 0, -9.17079e-05, 136678
-9623.38, 90411.1, -3.14854, 1.2625, -1171.26, -0.00693915, 0.32396, 1.03299, 0.34851, 0.655882, 0.0001, 45.5, 246, 14.6492, 0.0382053, 0, 0, 1, 0, -1.5447e-05, 136682
-9623.38, 90411.1, -3.14854, 1.2625, -1171.26, -0.00693915, 0.32396, 1.03299, 0.34851, 0.655882, 3, 45.5, 246, 14.6492, 0.0382053, 0, 0, 1, 0, -4.45214e-06, 136682
-9285.99, 114255, -16.9281, 1.32514, -1170.98, 0.000411208, 0.294059, 0.993198, 0.349787, 0.651995, 0.0001, 91, 246, 14.6492, 0.0382053, 0, 0, 1, 0, -8.9458e-06, 136682
-9285.99, 114255, -16.9281, 1.32514, -1170.98, 0.000411208, 0.294059, 0.993198, 0.349787, 0.651995, 3, 91, 246, 14.6492, 0.0382053, 0, 0, 1, 0, -1.0691e-05, 136682
-9463, 428697, -227.439, 0.367426, -668.645, 0.536917, 0.447289, 1.03299, 0.34851, 0.655882, 0.0001, 45.5, 246, 27.962, 0.126848, 0, 0, 1, 0, -9.77812e-06, 136685
-7382.61, 477711, -249.08, 0.419132, -810.894, 0.648281, 0.396922, 0.958125, 0.351078, 0.648177, 0.0001, 182, 246, 27.962, 0.126848, 0, 0, 1, 0, -0.000131934, 136685
-7498.51, 662671, -329.888, 0.333943, -715.026, 0.770148, 0.427632, 0.958125, 0.351078, 0.648177, 3, 182, 246, 26.5236, 0.118434, 0, 0, 1, 0, -1.69901e-05, 136686
-8098.44, 47343.4, -56.9681, 2.49223, -1119.04, -0.020621, 0.288091, 1.03299, 0.34851, 0.655882, 0.0001, 45.5, 246, 29.5225, 0.117813, 0, 0, 1, 0, -1.15663e-05, 136688
-11710.6, 620447, -2.72497, 0.310084, -633.792, 0.833279, 0.338723, 1.03299, 0.34851, 0.655882, 0.0001, 45.5, 246, 13.9205, 0.00203904, 0, 0, 1, 0, -0.000146159, 136690
-11710.6, 620447, -2.72497, 0.310084, -633.792, 0.833279, 0.338723, 1.03299, 0.34851, 0.655882, 3, 45.5, 246, 13.9205, 0.00203904, 0, 0, 1, 0, -4.47459e-05, 136690
-11105, 658599, -4.76876, 0.335553, -729.962, 0.960166, 0.302746, 0.993198, 0.349787, 0.651995, 0.0001, 91, 246, 13.9205, 0.00203904, 0, 0, 1, 0, 4.79506e-05, 136690
-10308.7, 707006, -7.38131, 0.365124, -860.624, 1.13254, 0.271204, 0.958125, 0.351078, 0.648177, 0.0001, 182, 246, 13.9205, 0.00203904, 0, 0, 1, 0, 6.41517e-05, 136690
-9985.48, 168571, -197.856, 2.86751, -789.88, 0.0206895, 0.328936, 1.03299, 0.34851, 0.655882, 0.0001, 45.5, 246, 40.7182, 0.181237, 0, 0, 0, 0, -1.43354e-05, 136700
974.738, 216269, -353.683, 3.84204, -911.318, 0.187597, 0.397866, 0.9175, 0.352806, 0.64323, 0.0001, 455, 246, 40.7182, 0.181237, 2.76727, 1, 0, 0, 4.82756e-06, 136700
974.738, 216269, -353.683, 3.84204, -911.318, 0.187597, 0.397866, 0.9175, 0.352806, 0.64323, 3, 455, 246, 40.7182, 0.181237, 2.84216, 1, 0, 0, 1.23367e-05, 136700
-10294.6, 132037, -39.9976, 1.68428, -959.126, -0.0128786, 0.31501, 1.03299, 0.34851, 0.655882, 0.0001, 45.5, 246, 20.4872, 0.0721072, 0, 0, 1, 0, 3.93622e-05, 136707
-10294.6, 132037, -39.9976, 1.68428, -959.126, -0.0128786, 0.31501, 1.03299, 0.34851, 0.655882, 3, 45.5, 246, 20.4872, 0.0721072, 0, 0, 1, 0, 1.02803e-05, 136707
-10255.1, 314024, -328.963, 3.16253, -980.764, 0.275785, 0.400795, 0.993198, 0.349787, 0.651995, 0.0001, 91, 246, 42.7738, 0.185454, 0, 0, 1, 0, 6.8459e-06, 136709
-10255.1, 314024, -328.963, 3.16253, -980.764, 0.275785, 0.400795, 0.993198, 0.349787, 0.651995, 3, 91, 246, 42.7738, 0.185454, 0, 0, 1, 0, 5.82532e-05, 136709
-8317.27, -3253.82, 1.77246, 2.04087, -926.738, 0.365213, 0.300013, 1.03299, 0.34851, 0.655882, 0.0001, 45.5, 246, 11.9007, 0.0564256, 0, 0, 1, 1, -5.06642e-06, 136718
-6956.76, 109513, -174.604, 3.12708, -1041.57, -0.0383529, 0.299982, 1.03299, 0.34851, 0.655882, 3, 45.5, 246, 46.3493, 0.192591, 0, 0, 1, 0, -5.33757e-07, 136725
-5064.4, 129030, -220.932, 3.39471, -1055.93, 0.00832103, 0.308961, 0.993198, 0.349787, 0.651995, 3, 91, 246, 46.3493, 0.192591, 0, 0, 1, 0, 4.23159e-07, 136725
-2444.19, 150206, -275.688, 3.70871, -1085.06, 0.0638241, 0.334268, 0.958125, 0.351078, 0.648177, 0.0001, 182, 246, 46.3493, 0.192591, 1.37175, 1, 1, 0, -6.58809e-06, 136725
-2444.19, 150206, -275.688, 3.70871, -1085.06, 0.0638241, 0.334268, 0.958125, 0.351078, 0.648177, 3, 182, 246, 46.3493, 0.192591, 1.17009, 1, 1, 0, 8.72629e-06, 136725
-8437.08, 187175, -294.324, 3.17359, -913.113, 0.340286, 0.397358, 1.03299, 0.34851, 0.655882, 0.0001, 45.5, 246, 52.541, 0.235906, 1.17741, 1, 0, 0, -1.93253e-05, 136732
-8437.08, 187175, -294.324, 3.17359, -913.113, 0.340286, 0.397358, 1.03299, 0.34851, 0.655882, 3, 45.5, 246, 52.541, 0.235906, 1.06148, 1, 0, 0, 6.03611e-06, 136732
-4816.17, 208476, -350.412, 3.53173, -997.985, 0.411728, 0.416389, 0.993198, 0.349787, 0.651995, 0.0001, 91, 246, 52.541, 0.235906, 1.44982, 1, 1, 0, 5.79144e-07, 136732
-4816.17, 208476, -350.412, 3.53173, -997.985, 0.411728, 0.416389, 0.993198, 0.349787, 0.651995, 3, 91, 246, 52.541, 0.235906, 1.25993, 1, 1, 0, 3.24815e-06, 136732
9450.59, 286620, -547.875, 4.74273, -1335.37, 0.689127, 0.550329, 0.9175, 0.352806, 0.64323, 0.0001, 455, 246, 52.541, 0.235906, 0, 0, 0, 0, 2.39096e-05, 136732
9450.59, 286620, -547.875, 4.74273, -1335.37, 0.689127, 0.550329, 0.9175, 0.352806, 0.64323, 3, 455, 246, 52.541, 0.235906, 0, 0, 0, 0, 2.10691e-05, 136732
-8538.6, 306288, -216.165, 0.500793, -954.817, 0.774346, 0.473553, 1.03299, 0.34851, 0.655882, 0.0001, 45.5, 246, 35.3716, 0.16603, 0, 0, 0, 0, 3.80353e-05, 136734
-3072, 316934, -428.71, 3.42353, -1006, 0.148207, 0.498666, 0.958125, 0.351078, 0.648177, 0.0001, 182, 246, 47.7068, 0.220701, 1.63759, 1, 0, 0, 6.40458e-06, 136738
-3072, 316934, -428.71, 3.42353, -1006, 0.148207, 0.498666, 0.958125, 0.351078, 0.648177, 3, 182, 246, 47.7068, 0.220701, 1.47489, 1, 0, 0, 2.38341e-06, 136738
-4704.69, 75492.9, -179.734, 2.71033, -786.219, -0.00661172, 0.330854, 1.03299, 0.34851, 0.655882, 0.0001, 45.5, 246, 54.6966, 0.22846, 1.24181, 1, 1, 0, -3.43406e-06, 136739
-4704.69, 75492.9, -179.734, 2.71033, -786.219, -0.00661172, 0.330854, 1.03299, 0.34851, 0.655882, 3, 45.5, 246, 54.6966, 0.22846, 1.01908, 1, 1, 0, 3.12231e-06, 136739
-3468.98, 87071.4, -214.272, 2.92557, -802.121, 0.0282392, 0.329847, 0.993198, 0.349787, 0.651995, 0.0001, 91, 246, 54.6966, 0.22846, 1.32477, 1, 1, 0, -1.41794e-05, 136739
-3468.98, 87071.4, -214.272, 2.92557, -802.121, 0.0282392, 0.329847, 0.993198, 0.349787, 0.651995, 3, 91, 246, 54.6966, 0.22846, 1.13198, 1, 1, 0, -2.57785e-05, 136739
-1805.95, 99757.7, -254.322, 3.17153, -827.106, 0.0693656, 0.341584, 0.958125, 0.351078, 0.648177, 0.0001, 182, 246, 54.6966, 0.22846, 1.63579, 1, 1, 0, -4.63998e-07, 136739
-1805.95, 99757.7, -254.322, 3.17153, -827.106, 0.0693656, 0.341584, 0.958125, 0.351078, 0.648177, 3, 182, 246, 54.6966, 0.22846, 1.48363, 1, 1, 0, 1.15608e-05, 136739
1262.3, 119217, -318.663, 3.56213, -878.687, 0.137172, 0.378374, 0.9175, 0.352806, 0.64323, 0.0001, 455, 246, 54.6966, 0.22846, 3.63571, 1, 0, 0, 7.73059e-06, 136739
1262.3, 119217, -318.663, 3.56213, -878.687, 0.137172, 0.378374, 0.9175, 0.352806, 0.64323, 3, 455, 246, 54.6966, 0.22846, 3.63576, 1, 0, 0, 8.08239e-07, 136739
-11017.9, 270712, -238.34, 1.27261, -684.333, 0.0148596, 0.499713, 1.03299, 0.34851, 0.655882, 0.0001, 45.5, 246, 37.7824, 0.209398, 0, 0, 0, 0, 1.67076e-06, 136741
-11017.9, 270712, -238.34, 1.27261, -684.333, 0.0148596, 0.499713, 1.03299, 0.34851, 0.655882, 3, 45.5, 246, 37.7824, 0.209398, 0, 0, 0, 0, -7.56998e-08, 136741
-9705.1, 183433, -187.431, 2.30763, -1114.23, 0.00978472, 0.397856, 1.03299, 0.34851, 0.655882, 3, 45.5, 246, 42.5375, 0.197498, 0, 0, 0, 0, -1.23956e-06, 136742
-8357.82, 231504, -176.955, 1.30557, -1064.74, 8.91318e-05, 0.402252, 0.993198, 0.349787, 0.651995, 0.0001, 91, 246, 36.0467, 0.175567, 0, 0, 1, 0, 3.00831e-05, 136743
-2292.95, 238985, -267.379, 2.59232, -1565.59, 1.10948, 0.381926, 0.9175, 0.352806, 0.64323, 0.0001, 455, 246, 40.5748, 0.210673, 0, 0, 0, 0, 2.08566e-05, 136745
-2292.95, 238985, -267.379, 2.59232, -1565.59, 1.10948, 0.381926, 0.9175, 0.352806, 0.64323, 3, 455, 246, 40.5748, 0.210673, 0, 0, 0, 0, -2.62141e-05, 136745
-8699.12, 15924.6, -8.8003, 1.70176, -1116.87, 0.0838304, 0.293315, 0.993198, 0.349787, 0.651995, 0.0001, 91, 246, 8.9774, 0.0571607, 0, 0, 1, 1, -1.87785e-05, 136747
-8699.12, 15924.6, -8.8003, 1.70176, -1116.87, 0.0838304, 0.293315, 0.993198, 0.349787, 0.651995, 3, 91, 246, 8.9774, 0.0571607, 0, 0, 1, 1, -1.19375e-06, 136747
-8472.19, 49221.6, -56.2775, 1.19001, -919.6, 0.13564, 0.329207, 0.993198, 0.349787, 0.651995, 3, 91, 246, 30.8094, 0.246462, 0, 0, 1, 1, 3.17271e-05, 136749
-12529.7, 145722, -48.0617, 3.36869, -987.372, -0.0526624, 0.176562, 1.03299, 0.34851, 0.655882, 0.0001, 45.5, 246, 23.3577, 0.0687314, 0, 0, 0, 0, 1.07241e-05, 136752
-12529.7, 145722, -48.0617, 3.36869, -987.372, -0.0526624, 0.176562, 1.03299, 0.34851, 0.655882, 3, 45.5, 246, 23.3577, 0.0687314, 0, 0, 0, 0, 1.07842e-05, 136752
-10378.5, 161999, -84.0115, 3.65927, -989.362, 0.00159931, 0.185517, 0.993198, 0.349787, 0.651995, 0.0001, 91, 246, 23.3577, 0.0687314, 0, 0, 1, 0, -9.79137e-06, 136752
-10378.5, 161999, -84.0115, 3.65927, -989.362, 0.00159931, 0.185517, 0.993198, 0.349787, 0.651995, 3, 91, 246, 23.3577, 0.0687314, 0, 0, 1, 0, -1.192e-05, 136752
-11441.6, 451024, -112.786, 0.612322, -736.944, 0.754302, 0.359107, 1.03299, 0.34851, 0.655882, 0.0001, 45.5, 246, 21.3915, 0.0572613, 0, 0, 1, 0, 2.77318e-05, 136754
-11441.6, 451024, -112.786, 0.612322, -736.944, 0.754302, 0.359107, 1.03299, 0.34851, 0.655882, 3, 45.5, 246, 21.3915, 0.0572613, 0, 0, 1, 0, 1.71585e-05, 136754
-9222.7, 427787, -165.566, 1.02964, -651.064, 0.0321753, 0.319185, 0.958125, 0.351078, 0.648177, 3, 182, 246, 22.5655, 0.0871446, 0, 0, 1, 0, 2.13463e-05, 136756
-9287.76, 172336, -103.292, 1.83561, -878.177, 0.0601526, 0.311278, 0.993198, 0.349787, 0.651995, 0.0001, 91, 246, 26.0128, 0.109962, 0, 0, 1, 0, -3.24108e-06, 136758
-8554.63, 67187.8, -73.0434, 1.26997, -815.932, 0.038384, 0.371221, 1.03299, 0.34851, 0.655882, 3, 45.5, 246, 32.6367, 0.200702, 0, 0, 1, 0, 6.68088e-06, 136759
-10928, 98270.2, 20.7434, 2.37617, -1067.57, 0.188135, 0.257514, 1.03299, 0.34851, 0.655882, 0.0001, 45.5, 246, 12.8656, 0.0231784, 0, 0, 1, 0, 1.0954e-05, 136760
-10928, 98270.2, 20.7434, 2.37617, -1067.57, 0.188135, 0.257514, 1.03299, 0.34851, 0.655882, 3, 45.5, 246, 12.8656, 0.0231784, 0, 0, 1, 0, -4.8538e-06, 136760
-10000.6, 119627, -2.12922, 2.57017, -1101.97, 0.221569, 0.243246, 0.993198, 0.349787, 0.651995, 3, 91, 246, 12.8656, 0.0231784, 0, 0, 1, 0, -1.59528e-06, 136760
-6080.89, 178353, -75.1458, 3.13373, -1224.24, 0.331293, 0.252917, 0.9175, 0.352806, 0.64323, 3, 455, 246, 12.8656, 0.0231784, 0, 0, 1, 0, 7.73708e-06, 136760
-11038.3, 740784, -112.889, 0.389112, -1027.23, 0.432245, 0.354026, 1.03299, 0.34851, 0.655882, 0.0001, 45.5, 246, 26.8101, 0.0369122, 0, 0, 1, 0, -0.00010283, 136764
-11038.3, 740784, -112.889, 0.389112, -1027.23, 0.432245, 0.354026, 1.03299, 0.34851, 0.655882, 3, 45.5, 246, 26.8101, 0.0369122, 0, 0, 1, 0, -7.77562e-06, 136764
-7323.75, 14213.9, -59.7087, 2.97693, -997.004, 0.0290556, 0.257901, 0.993198, 0.349787, 0.651995, 0.0001, 91, 246, 26.3608, 0.0528713, 0, 0, 1, 1, 6.36505e-08, 136766
-7323.75, 14213.9, -59.7087, 2.97693, -997.004, 0.0290556, 0.257901, 0.993198, 0.349787, 0.651995, 3, 91, 246, 26.3608, 0.0528713, 0, 0, 1, 1, 3.42658e-06, 136766
-7500.21, 728528, -280.616, 0.0768919, -653.052, 0.508353, 0.40464, 0.993198, 0.349787, 0.651995, 0.0001, 91, 246, 24.3777, 0.0919395, 0, 0, 1, 0, 5.37909e-05, 136768
1704.97, 279870, -361.049, 5.07829, -912.951, 0.234107, 0.348039, 0.9175, 0.352806, 0.64323, 0.0001, 455, 246, 32.7745, 0.123364, 1.47682, 1, 0, 0, 5.44863e-06, 136771
1704.97, 279870, -361.049, 5.07829, -912.951, 0.234107, 0.348039, 0.9175, 0.352806, 0.64323, 3, 455, 246, 32.7745, 0.123364, 1.98959, 1, 0, 0, 1.34474e-05, 136771
-6700.81, 420153, -544.593, 3.41624, -705.622, 0.430002, 0.608474, 0.958125, 0.351078, 0.648177, 0.0001, 182, 246, 43.5478, 0.221829, 1.72128, 1, 0, 0, 5.60787e-05, 136773
-6700.81, 420153, -544.593, 3.41624, -705.622, 0.430002, 0.608474, 0.958125, 0.351078, 0.648177, 3, 182, 246, 43.5478, 0.221829, 1.64827, 1, 0, 0, 4.27985e-05, 136773
-9404.97, 92771.4, -67.3007, 2.51653, -932.183, 0.157769, 0.276566, 1.03299, 0.34851, 0.655882, 0.0001, 45.5, 246, 26.8168, 0.102941, 0, 0, 1, 0, 2.40691e-06, 136778
-9404.97, 92771.4, -67.3007, 2.51653, -932.183, 0.157769, 0.276566, 1.03299, 0.34851, 0.655882, 3, 45.5, 246, 26.8168, 0.102941, 0, 0, 1, 0, 2.21847e-06, 136778
-9583.95, 390011, -355.886, 0.399278, -777.664, 0.349554, 0.650473, 1.03299, 0.34851, 0.655882, 0.0001, 45.5, 246, 41.7351, 0.233586, 0, 0, 0, 0, -4.17161e-05, 136779
-9583.95, 390011, -355.886, 0.399278, -777.664, 0.349554, 0.650473, 1.03299, 0.34851, 0.655882, 3, 45.5, 246, 41.7351, 0.233586, 0, 0, 0, 0, -2.00726e-06, 136779
-8634.07, 126651, -165.087, 2.6293, -751.58, 0.267041, 0.322786, 1.03299, 0.34851, 0.655882, 3, 45.5, 246, 39.4676, 0.175073, 0, 0, 1, 0, -7.62275e-06, 136781
-703.412, 180474, -301.246, 3.63433, -974.394, 0.475891, 0.366681, 0.9175, 0.352806, 0.64323, 0.0001, 455, 246, 39.4676, 0.175073, 1.42254, 1, 0, 0, -4.19468e-06, 136781
-703.412, 180474, -301.246, 3.63433, -974.394, 0.475891, 0.366681, 0.9175, 0.352806, 0.64323, 3, 455, 246, 39.4676, 0.175073, 1.42709, 1, 0, 0, 1.62995e-06, 136781
-7017.73, 771558, -214.61, 0.0702722, -848.11, 0.65547, 0.394077, 1.03299, 0.34851, 0.655882, 0.0001, 45.5, 246, 26.6034, 0.062726, 0, 0, 1, 0, -5.97284e-05, 136784
-9449.64, 148878, -193.925, 3.40479, -758.669, -0.055675, 0.253817, 1.03299, 0.34851, 0.655882, 3, 45.5, 246, 40.6476, 0.164356, 0, 0, 0, 0, -6.3616e-06, 136789
-3550.35, 171319, -287.358, 4.07113, -806.106, 0.0664152, 0.302807, 0.958125, 0.351078, 0.648177, 0.0001, 182, 246, 40.6476, 0.164356, 1.09505, 1, 1, 0, -7.90986e-06, 136789
-10243, 197765, -157.743, 1.7326, -938.372, -0.0139196, 0.397435, 1.03299, 0.34851, 0.655882, 0.0001, 45.5, 246, 35.7462, 0.171515, 0, 0, 1, 0, -4.4428e-06, 136791
-10243, 197765, -157.743, 1.7326, -938.372, -0.0139196, 0.397435, 1.03299, 0.34851, 0.655882, 3, 45.5, 246, 35.7462, 0.171515, 0, 0, 1, 0, 1.27267e-05, 136791
-8643.41, 213465, -182.575, 1.83779, -945.317, 7.52647e-05, 0.379908, 0.993198, 0.349787, 0.651995, 3, 91, 246, 35.7462, 0.171515, 0, 0, 1, 0, -5.147e-06, 136791
-7775.94, 86220.2, -117.416, 2.27461, -1154.03, -0.0234883, 0.349982, 1.03299, 0.34851, 0.655882, 3, 45.5, 246, 40.8029, 0.197447, 0, 0, 1, 0, 1.43186e-07, 136802
-6802.79, 109660, -150.407, 2.4335, -1160.21, 0.000848531, 0.339506, 0.993198, 0.349787, 0.651995, 0.0001, 91, 246, 40.8029, 0.197447, 0, 0, 1, 0, -2.24619e-06, 136802
-6802.79, 109660, -150.407, 2.4335, -1160.21, 0.000848531, 0.339506, 0.993198, 0.349787, 0.651995, 3, 91, 246, 40.8029, 0.197447, 0, 0, 1, 0, -4.60256e-06, 136802
-5356.5, 133876, -187.867, 2.60946, -1174.09, 0.0287746, 0.338637, 0.958125, 0.351078, 0.648177, 3, 182, 246, 40.8029, 0.197447, 0, 0, 1, 0, 1.16013e-07, 136802
-8488.81, 43709.1, -29.4989, 2.60581, -751.266, 0.992565, 0.254588, 0.993198, 0.349787, 0.651995, 0.0001, 91, 246, 13.7906, 0.0453747, 0, 0, 1, 0, 7.02241e-06, 136803
-8488.81, 43709.1, -29.4989, 2.60581, -751.266, 0.992565, 0.254588, 0.993198, 0.349787, 0.651995, 3, 91, 246, 13.7906, 0.0453747, 0, 0, 1, 0, -5.93626e-06, 136803
-8044.62, 58081.9, -52.4, 2.96511, -896.8, 1.2176, 0.254401, 0.958125, 0.351078, 0.648177, 0.0001, 182, 246, 13.7906, 0.0453747, 0, 0, 1, 0, -1.70141e-05, 136803
-8044.62, 58081.9, -52.4, 2.96511, -896.8, 1.2176, 0.254401, 0.958125, 0.351078, 0.648177, 3, 182, 246, 13.7906, 0.0453747, 0, 0, 1, 0, 3.5082e-05, 136803
-6800.73, 90375.2, -99.9439, 3.6368, -1221.51, 1.71793, 0.280612, 0.9175, 0.352806, 0.64323, 0.0001, 455, 246, 13.7906, 0.0453747, 0, 0, 1, 0, -5.49635e-05, 136803
-6800.73, 90375.2, -99.9439, 3.6368, -1221.51, 1.71793, 0.280612, 0.9175, 0.352806, 0.64323, 3, 455, 246, 13.7906, 0.0453747, 0, 0, 1, 0, 5.72394e-05, 136803
-14355, 287253, -59.7319, 3.10541, -996.362, 0.290147, 0.202999, 0.993198, 0.349787, 0.651995, 0.0001, 91, 246, 20.6425, 0.0411714, 0, 0, 1, 0, -1.54195e-05, 136808
-14355, 287253, -59.7319, 3.10541, -996.362, 0.290147, 0.202999, 0.993198, 0.349787, 0.651995, 3, 91, 246, 20.6425, 0.0411714, 0, 0, 1, 0, -2.80148e-06, 136808
-10287.9, 216785, -231.029, 1.51779, -662.052, 0.0277647, 0.498412, 1.03299, 0.34851, 0.655882, 0.0001, 45.5, 246, 41.1753, 0.234951, 0, 0, 1, 0, 9.56133e-06, 136809
-10287.9, 216785, -231.029, 1.51779, -662.052, 0.0277647, 0.498412, 1.03299, 0.34851, 0.655882, 3, 45.5, 246, 41.1753, 0.234951, 0, 0, 1, 0, -4.94806e-06, 136809
-8681.96, 246362, -131.649, 1.98772, -727.212, 0.043411, 0.288939, 0.958125, 0.351078, 0.648177, 3, 182, 246, 23.2303, 0.092874, 0, 0, 1, 0, 4.19365e-06, 136814
-9233.1, 236865, -124.956, 1.27766, -973.694, 0.268442, 0.341682, 0.993198, 0.349787, 0.651995, 0.0001, 91, 246, 27.8113, 0.115544, 0, 0, 1, 0, 9.25473e-06, 136817
-7909.9, 553940, -299.014, 0.305271, -998.939, 0.00102439, 0.49841, 1.03299, 0.34851, 0.655882, 0.0001, 45.5, 246, 36.261, 0.140816, 0, 0, 0, 0, 0.000162101, 136820
-7909.9, 553940, -299.014, 0.305271, -998.939, 0.00102439, 0.49841, 1.03299, 0.34851, 0.655882, 3, 45.5, 246, 36.261, 0.140816, 0, 0, 0, 0, 4.76823e-05, 136820
-6540.84, 573148, -312.764, 0.316492, -1001.64, 0.00144898, 0.475357, 0.993198, 0.349787, 0.651995, 3, 91, 246, 36.261, 0.140816, 0, 0, 1, 0, -0.000104927, 136820
-4983.23, 592627, -326.404, 0.327406, -1004.61, 0.0019045, 0.456508, 0.958125, 0.351078, 0.648177, 3, 182, 246, 36.261, 0.140816, 0, 0, 0, 0, -0.000166566, 136820
-7553.72, 385139, -424.561, 4.35447, -776.587, 0.153938, 0.362898, 0.958125, 0.351078, 0.648177, 0.0001, 182, 246, 38.1002, 0.163121, 1.04326, 1, 0, 0, 6.40348e-05, 136822
-9701.9, 633723, -122.789, 0.583523, -657.061, 0.0151928, 0.291366, 0.958125, 0.351078, 0.648177, 3, 182, 246, 19.1404, 0.046024, 0, 0, 1, 0, -1.88696e-06, 136824
-12876.7, 163346, -67.1755, 3.32981, -1034.45, -0.0472187, 0.188309, 1.03299, 0.34851, 0.655882, 0.0001, 45.5, 246, 26.2333, 0.0809036, 0, 0, 0, 0, 9.06301e-06, 136825
-12876.7, 163346, -67.1755, 3.32981, -1034.45, -0.0472187, 0.188309, 1.03299, 0.34851, 0.655882, 3, 45.5, 246, 26.2333, 0.0809036, 0, 0, 0, 0, -9.13392e-07, 136825
-10452.1, 181405, -105.929, 3.61645, -1038.84, 0.00575547, 0.196646, 0.993198, 0.349787, 0.651995, 0.0001, 91, 246, 26.2333, 0.0809036, 0, 0, 1, 0, -9.85581e-06, 136825
-10452.1, 181405, -105.929, 3.61645, -1038.84, 0.00575547, 0.196646, 0.993198, 0.349787, 0.651995, 3, 91, 246, 26.2333, 0.0809036, 0, 0, 1, 0, -5.40011e-06, 136825
-6697.39, 418345, -226.539, 0.645395, -1142.2, 0.600191, 0.388479, 0.958125, 0.351078, 0.648177, 0.0001, 182, 246, 32.561, 0.134281, 0, 0, 0, 0, -2.48615e-05, 136829
-9567.66, 189313, -221.506, 2.38719, -1000.93, 0.159502, 0.422866, 1.03299, 0.34851, 0.655882, 3, 45.5, 246, 45.3905, 0.21776, 0, 0, 0, 0, -1.7735e-06, 136840
-4794.54, 66102.1, -159.994, 3.29308, -953.213, -0.0295304, 0.25274, 1.03299, 0.34851, 0.655882, 0.0001, 45.5, 246, 49.5998, 0.17072, 1.11215, 1, 1, 0, 8.08009e-07, 136841
-3485.16, 82600.8, -204.359, 3.58381, -969.019, 0.0223197, 0.263915, 0.993198, 0.349787, 0.651995, 0.0001, 91, 246, 49.5998, 0.17072, 1.248, 1, 1, 0, 2.07345e-06, 136841
-3485.16, 82600.8, -204.359, 3.58381, -969.019, 0.0223197, 0.263915, 0.993198, 0.349787, 0.651995, 3, 91, 246, 49.5998, 0.17072, 1.03687, 1, 1, 0, -1.21075e-05, 136841
-1571.33, 100590, -257.238, 3.92841, -999.947, 0.0846025, 0.293015, 0.958125, 0.351078, 0.648177, 0.0001, 182, 246, 49.5998, 0.17072, 1.64301, 1, 1, 0, 5.89132e-06, 136841
-1571.33, 100590, -257.238, 3.92841, -999.947, 0.0846025, 0.293015, 0.958125, 0.351078, 0.648177, 3, 182, 246, 49.5998, 0.17072, 1.49538, 1, 1, 0, -3.83632e-06, 136841
-12297.8, 118367, 4.17589, 3.46188, -972.54, -0.0519532, 0.153079, 1.03299, 0.34851, 0.655882, 0.0001, 45.5, 246, 16.1403, 0.0364088, 0, 0, 0, 0, -7.65683e-06, 136843
-12297.8, 118367, 4.17589, 3.46188, -972.54, -0.0519532, 0.153079, 1.03299, 0.34851, 0.655882, 3, 45.5, 246, 16.1403, 0.0364088, 0, 0, 0, 0, -3.93655e-06, 136843
-8261.74, 150355, -65.367, 4.12718, -980.673, 0.073901, 0.193889, 0.958125, 0.351078, 0.648177, 3, 182, 246, 16.1403, 0.0364088, 0, 0, 1, 0, 7.44049e-06, 136843
-10697.3, 235364, -354.791, 2.82854, -833.602, 0.814997, 0.490921, 1.03299, 0.34851, 0.655882, 0.0001, 45.5, 246, 51.8318, 0.244308, 1.10229, 1, 0, 0, 5.1272e-06, 136851
-6383.73, 263729, -410.954, 3.22426, -992.618, 0.981563, 0.5085, 0.993198, 0.349787, 0.651995, 0.0001, 91, 246, 51.8318, 0.244308, 1.27488, 1, 1, 0, -3.66447e-05, 136851
-6383.73, 263729, -410.954, 3.22426, -992.618, 0.981563, 0.5085, 0.993198, 0.349787, 0.651995, 3, 91, 246, 51.8318, 0.244308, 1.14505, 1, 1, 0, -9.13316e-06, 136851
-8538.13, 132894, -171.505, 2.02483, -760.528, 0.449397, 0.393415, 1.03299, 0.34851, 0.655882, 0.0001, 45.5, 246, 41.2731, 0.209899, 0, 0, 1, 0, 1.92817e-06, 136867
-8538.13, 132894, -171.505, 2.02483, -760.528, 0.449397, 0.393415, 1.03299, 0.34851, 0.655882, 3, 45.5, 246, 41.2731, 0.209899, 0, 0, 1, 0, -1.42495e-05, 136867
-7155.43, 147804, -198.309, 2.216, -830.659, 0.504979, 0.381503, 0.993198, 0.349787, 0.651995, 0.0001, 91, 246, 41.2731, 0.209899, 0, 0, 1, 0, 1.59986e-05, 136867
-7155.43, 147804, -198.309, 2.216, -830.659, 0.504979, 0.381503, 0.993198, 0.349787, 0.651995, 3, 91, 246, 41.2731, 0.209899, 0, 0, 1, 0, -1.41146e-05, 136867
-9775.14, 214431, -232.932, 1.78132, -1011.86, 0.60391, 0.480013, 1.03299, 0.34851, 0.655882, 3, 45.5, 246, 44.3186, 0.222808, 0, 0, 0, 0, -6.30557e-05, 136868
-7710.64, 46775.3, -72.655, 3.4001, -612.061, -0.0344235, 0.186196, 1.03299, 0.34851, 0.655882, 0.0001, 45.5, 246, 26.4072, 0.0721512, 0, 0, 1, 0, -8.2829e-06, 136871
-7710.64, 46775.3, -72.655, 3.4001, -612.061, -0.0344235, 0.186196, 1.03299, 0.34851, 0.655882, 3, 45.5, 246, 26.4072, 0.0721512, 0, 0, 1, 0, -4.93289e-06, 136871
-9057.25, 460791, -227.395, 0.374481, -810.608, 0.26168, 0.444946, 1.03299, 0.34851, 0.655882, 0.0001, 45.5, 246, 30.1227, 0.123452, 0, 0, 0, 0, 7.21983e-05, 136882
-9057.25, 460791, -227.395, 0.374481, -810.608, 0.26168, 0.444946, 1.03299, 0.34851, 0.655882, 3, 45.5, 246, 30.1227, 0.123452, 0, 0, 0, 0, 2.52883e-05, 136882
-8036.99, 480387, -238.54, 0.393659, -848.023, 0.273643, 0.41745, 0.993198, 0.349787, 0.651995, 0.0001, 91, 246, 30.1227, 0.123452, 0, 0, 1, 0, 3.20965e-05, 136882
-6842.41, 501863, -249.832, 0.413187, -889.053, 0.286757, 0.394193, 0.958125, 0.351078, 0.648177, 0.0001, 182, 246, 30.1227, 0.123452, 0, 0, 1, 0, -3.5192e-06, 136882
-2724.86, 285836, -434.691, 3.42038, -921.241, 0.561919, 0.513156, 0.958125, 0.351078, 0.648177, 0.0001, 182, 246, 47.9927, 0.232869, 2.07588, 1, 0, 0, 5.14888e-06, 136883
-2724.86, 285836, -434.691, 3.42038, -921.241, 0.561919, 0.513156, 0.958125, 0.351078, 0.648177, 3, 182, 246, 47.9927, 0.232869, 1.90281, 1, 0, 0, -0.000120492, 136883
1212.29, 249129, -328.488, 5.44482, -1242.89, 1.16205, 0.342533, 0.9175, 0.352806, 0.64323, 0.0001, 455, 246, 30.3163, 0.107714, 1.56402, 1, 0, 0, 1.05702e-05, 136885
1212.29, 249129, -328.488, 5.44482, -1242.89, 1.16205, 0.342533, 0.9175, 0.352806, 0.64323, 3, 455, 246, 30.3163, 0.107714, 1.88735, 1, 0, 0, -5.19839e-06, 136885
-310.557, 128955, -296.816, 5.02085, -1253.19, 0.20591, 0.34372, 0.9175, 0.352806, 0.64323, 0.0001, 455, 246, 36.8871, 0.114777, 1.95177, 1, 0, 0, -8.40805e-06, 136887
-310.557, 128955, -296.816, 5.02085, -1253.19, 0.20591, 0.34372, 0.9175, 0.352806, 0.64323, 3, 455, 246, 36.8871, 0.114777, 1.95263, 1, 0, 0, 4.69377e-06, 136887
-8895.92, 34880.6, -2.12503, 0.955264, -1137.89, 0.214354, 0.301677, 0.993198, 0.349787, 0.651995, 3, 91, 246, 6.17557, 0.0322377, 0, 0, 1, 1, -2.66564e-05, 136893
-8366.69, 655800, -434.9, 0.00654508, -703.572, 0.0109591, 0.62155, 1.03299, 0.34851, 0.655882, 0.0001, 45.5, 246, 35.6962, 0.17511, 0, 0, 0, 0, 6.08383e-06, 136897
-8366.69, 655800, -434.9, 0.00654508, -703.572, 0.0109591, 0.62155, 1.03299, 0.34851, 0.655882, 3, 45.5, 246, 35.6962, 0.17511, 0, 0, 0, 0, -1.847e-05, 136897
-5224.72, 681130, -464.693, 0.00700024, -706.179, 0.0109976, 0.603242, 0.958125, 0.351078, 0.648177, 3, 182, 246, 35.6962, 0.17511, 0, 0, 0, 0, 7.13675e-05, 136897
-6138.41, 663832, -408.722, 0.0394143, -960.001, 0.420159, 0.567469, 1.03299, 0.34851, 0.655882, 0.0001, 45.5, 246, 38.1001, 0.150162, 0, 0, 0, 0, -0.00013202, 136899
-6138.41, 663832, -408.722, 0.0394143, -960.001, 0.420159, 0.567469, 1.03299, 0.34851, 0.655882, 3, 45.5, 246, 38.1001, 0.150162, 0, 0, 0, 0, -5.19204e-05, 136899
-9457.29, 448863, -314.869, 0.3025, -679.857, 0.00678505, 0.559418, 1.03299, 0.34851, 0.655882, 0.0001, 45.5, 246, 34.918, 0.186096, 0, 0, 0, 0, -2.55286e-05, 136914
-9457.29, 448863, -314.869, 0.3025, -679.857, 0.00678505, 0.559418, 1.03299, 0.34851, 0.655882, 3, 45.5, 246, 34.918, 0.186096, 0, 0, 0, 0, -6.4737e-06, 136914
-8219.08, 458956, -328.837, 0.314229, -683.225, 0.00721027, 0.542112, 0.993198, 0.349787, 0.651995, 0.0001, 91, 246, 34.918, 0.186096, 0, 0, 1, 0, 1.35447e-05, 136914
-6803.18, 469315, -342.718, 0.325749, -686.86, 0.00766854, 0.529145, 0.958125, 0.351078, 0.648177, 0.0001, 182, 246, 34.918, 0.186096, 0, 0, 0, 0, 2.61733e-05, 136914
-9667.27, 550079, -303.419, 0.472564, -898.528, 3.26374e-05, 0.503068, 1.03299, 0.34851, 0.655882, 0.0001, 45.5, 246, 35.0611, 0.144162, 0, 0, 0, 0, 8.00283e-05, 136915
-9667.27, 550079, -303.419, 0.472564, -898.528, 3.26374e-05, 0.503068, 1.03299, 0.34851, 0.655882, 3, 45.5, 246, 35.0611, 0.144162, 0, 0, 0, 0, -2.37281e-05, 136915
-12234.3, 282175, -361.215, 2.96561, -1036.85, 0.18532, 0.519956, 1.03299, 0.34851, 0.655882, 3, 45.5, 246, 53.6528, 0.248467, 0, 0, 0, 0, -1.03814e-05, 136925
-7168.19, 307664, -424.31, 3.26897, -1104.39, 0.234837, 0.542915, 0.993198, 0.349787, 0.651995, 0.0001, 91, 246, 53.6528, 0.248467, 1.045, 1, 1, 0, -2.03027e-05, 136925
-9440.76, 80949.6, -51.8471, 2.77306, -860.953, 0.156263, 0.24581, 1.03299, 0.34851, 0.655882, 0.0001, 45.5, 246, 23.537, 0.0825605, 0, 0, 1, 0, 2.96719e-07, 136936
-9440.76, 80949.6, -51.8471, 2.77306, -860.953, 0.156263, 0.24581, 1.03299, 0.34851, 0.655882, 3, 45.5, 246, 23.537, 0.0825605, 0, 0, 1, 0, -4.56808e-06, 136936
-10630, 301466, -182.585, 1.04139, -862.591, 0.0248623, 0.429237, 1.03299, 0.34851, 0.655882, 0.0001, 45.5, 246, 32.4615, 0.150074, 0, 0, 0, 0, 3.96759e-06, 136947
-10630, 301466, -182.585, 1.04139, -862.591, 0.0248623, 0.429237, 1.03299, 0.34851, 0.655882, 3, 45.5, 246, 32.4615, 0.150074, 0, 0, 0, 0, 6.93067e-06, 136947
-9148.69, 315566, -199.78, 1.0936, -871.717, 0.0299833, 0.404959, 0.993198, 0.349787, 0.651995, 3, 91, 246, 32.4615, 0.150074, 0, 0, 1, 0, 6.08507e-06, 136947
-7105.88, -16759, 3.06883, 3.24661, -930.298, -0.0493341, 0.213364, 1.03299, 0.34851, 0.655882, 0.0001, 45.5, 246, 14.1986, 0.0485584, 0, 0, 1, 1, -1.17748e-06, 136948
-7105.88, -16759, 3.06883, 3.24661, -930.298, -0.0493341, 0.213364, 1.03299, 0.34851, 0.655882, 3, 45.5, 246, 14.1986, 0.0485584, 0, 0, 1, 1, 9.88902e-06, 136948
-5423.79, 382450, -462.023, 3.47096, -879.44, 0.355077, 0.503124, 0.958125, 0.351078, 0.648177, 0.0001, 182, 246, 43.2494, 0.202356, 1.00036, 1, 0, 0, 4.59507e-05, 136949
-2906.39, 103171, -230.815, 4.36758, -1088.95, 0.0842319, 0.25871, 0.958125, 0.351078, 0.648177, 0.0001, 182, 246, 41.0838, 0.132577, 1.19445, 1, 1, 0, 1.02202e-05, 136961
-2906.39, 103171, -230.815, 4.36758, -1088.95, 0.0842319, 0.25871, 0.958125, 0.351078, 0.648177, 3, 182, 246, 41.0838, 0.132577, 1.02045, 1, 1, 0, -1.13449e-05, 136961
1218.36, 135476, -330.741, 5.06631, -1169.34, 0.217353, 0.353594, 0.9175, 0.352806, 0.64323, 0.0001, 455, 246, 41.0838, 0.132577, 3.15247, 1, 0, 0, -3.2847e-06, 136961
1218.36, 135476, -330.741, 5.06631, -1169.34, 0.217353, 0.353594, 0.9175, 0.352806, 0.64323, 3, 455, 246, 41.0838, 0.132577, 3.15973, 1, 0, 0, 1.45465e-05, 136961
-8562.2, 425540, -380.247, 0.375843, -987.148, 0.228142, 0.674574, 1.03299, 0.34851, 0.655882, 0.0001, 45.5, 246, 45.312, 0.234393, 0, 0, 0, 0, -765.725, 136966
-6754.97, 451353, -400.138, 0.39689, -1028.16, 0.237353, 0.669615, 0.993198, 0.349787, 0.651995, 3, 91, 246, 45.312, 0.234393, 0, 0, 1, 0, -743.412, 136966
-6634.77, -14877.7, -9.62565, 3.54653, -1020.77, -0.0432404, 0.185953, 1.03299, 0.34851, 0.655882, 0.0001, 45.5, 246, 19.6125, 0.0512484, 0, 0, 1, 0, -3.41597e-06, 136968
-6634.77, -14877.7, -9.62565, 3.54653, -1020.77, -0.0432404, 0.185953, 1.03299, 0.34851, 0.655882, 3, 45.5, 246, 19.6125, 0.0512484, 0, 0, 1, 0, 1.4666e-05, 136968
-9925.75, 869116, -205.54, 0.343339, -1021.32, 0.0403916, 0.386304, 1.03299, 0.34851, 0.655882, 3, 45.5, 246, 30.3061, 0.0606928, 0, 0, 0, 0, 1.28757e-05, 136974
-6848.07, 405825, -213.708, 0.130807, -975.415, 0.291883, 0.419003, 0.993198, 0.349787, 0.651995, 0.0001, 91, 246, 32.0355, 0.135886, 2.39927, 1, 1, 0, -998.873, 136975
-6848.07, 405825, -213.708, 0.130807, -975.415, 0.291883, 0.419003, 0.993198, 0.349787, 0.651995, 3, 91, 246, 32.0355, 0.135886, 2.39858, 1, 1, 0, -999.364, 136975
-6363.4, 430749, -221.178, 0.136787, -1023.37, 0.306079, 0.395207, 0.958125, 0.351078, 0.648177, 0.0001, 182, 246, 32.0355, 0.135886, 2.8315, 1, 1, 0, -963.39, 136975
-6363.4, 430749, -221.178, 0.136787, -1023.37, 0.306079, 0.395207, 0.958125, 0.351078, 0.648177, 3, 182, 246, 32.0355, 0.135886, 2.7321, 1, 1, 0, -963.291, 136975
-5594.97, 467803, -230.857, 0.14484, -1094.43, 0.327108, 0.368674, 0.9175, 0.352806, 0.64323, 0.0001, 455, 246, 32.0355, 0.135886, 4.61509, 1, 0, 0, -940.873, 136975
-5594.97, 467803, -230.857, 0.14484, -1094.43, 0.327108, 0.368674, 0.9175, 0.352806, 0.64323, 3, 455, 246, 32.0355, 0.135886, 4.44339, 1, 0, 0, -933.231, 136975
-9495.64, 148809, -126.112, 1.82099, -978.028, 0.0341825, 0.370913, 1.03299, 0.34851, 0.655882, 0.0001, 45.5, 246, 34.681, 0.166388, 0, 0, 1, 0, -9.94763e-07, 136978
-9495.64, 148809, -126.112, 1.82099, -978.028, 0.0341825, 0.370913, 1.03299, 0.34851, 0.655882, 3, 45.5, 246, 34.681, 0.166388, 0, 0, 1, 0, -8.49308e-06, 136978
-10365.9, 177171, -175.439, 2.10965, -711.553, 0.392179, 0.374203, 1.03299, 0.34851, 0.655882, 0.0001, 45.5, 246, 35.8912, 0.173653, 0, 0, 1, 0, -5.12213e-05, 136981
-10365.9, 177171, -175.439, 2.10965, -711.553, 0.392179, 0.374203, 1.03299, 0.34851, 0.655882, 3, 45.5, 246, 35.8912, 0.173653, 0, 0, 1, 0, 1.97163e-06, 136981
-11382.5, 138531, -63.9653, 2.67442, -739.021, -0.00423359, 0.250648, 1.03299, 0.34851, 0.655882, 0.0001, 45.5, 246, 22.022, 0.0788414, 0, 0, 1, 0, 8.82799e-06, 136987
-11382.5, 138531, -63.9653, 2.67442, -739.021, -0.00423359, 0.250648, 1.03299, 0.34851, 0.655882, 3, 45.5, 246, 22.022, 0.0788414, 0, 0, 1, 0, -5.48854e-06, 136987
-2301.25, 143546, -264.598, 3.72336, -1290.94, 0.509998, 0.327316, 0.958125, 0.351078, 0.648177, 0.0001, 182, 246, 46.9608, 0.19193, 1.41035, 1, 1, 0, 6.90283e-06, 136999
-2301.25, 143546, -264.598, 3.72336, -1290.94, 0.509998, 0.327316, 0.958125, 0.351078, 0.648177, 3, 182, 246, 46.9608, 0.19193, 1.20877, 1, 0, 0, -1.01987e-05, 136999
