-9026.53, 88408.4, -76.634, 3.00452, -1118.67, -0.0345773, 0.246468, 1.03299, 0.34851, 0.655882, 0.0001, 45.5, 246, 30.6903, 0.112781, 0, 0, 1, 0, -5.66299e-06, 142505
-9026.53, 88408.4, -76.634, 3.00452, -1118.67, -0.0345773, 0.246468, 1.03299, 0.34851, 0.655882, 3, 45.5, 246, 30.6903, 0.112781, 0, 0, 1, 0, -8.78124e-06, 142505
-7788.55, 110081, -114.909, 3.24947, -1124.11, 0.00834184, 0.248026, 0.993198, 0.349787, 0.651995, 0.0001, 91, 246, 30.6903, 0.112781, 0, 0, 1, 0, 1.01498e-05, 142505
-7788.55, 110081, -114.909, 3.24947, -1124.11, 0.00834184, 0.248026, 0.993198, 0.349787, 0.651995, 3, 91, 246, 30.6903, 0.112781, 0, 0, 1, 0, -2.08128e-05, 142505
-2949.37, 106686, -231.639, 3.03984, -987.178, 0.0420159, 0.342022, 0.958125, 0.351078, 0.648177, 0.0001, 182, 246, 51.4588, 0.228822, 1.25446, 1, 1, 0, 1.13207e-06, 142507
-2949.37, 106686, -231.639, 3.03984, -987.178, 0.0420159, 0.342022, 0.958125, 0.351078, 0.648177, 3, 182, 246, 51.4588, 0.228822, 1.07352, 1, 1, 0, -1.66151e-05, 142507
35.0469, 132348, -297.003, 3.39501, -1031.71, 0.103036, 0.372944, 0.9175, 0.352806, 0.64323, 0.0001, 455, 246, 51.4588, 0.228822, 2.96139, 1, 0, 0, 1.69003e-07, 142507
35.0469, 132348, -297.003, 3.39501, -1031.71, 0.103036, 0.372944, 0.9175, 0.352806, 0.64323, 3, 455, 246, 51.4588, 0.228822, 2.963, 1, 0, 0, -3.42725e-06, 142507
-7967.24, 161748, -180.175, 2.10654, -801.404, -5.78812e-05, 0.369952, 0.993198, 0.349787, 0.651995, 0.0001, 91, 246, 37.5763, 0.189872, 0, 0, 1, 0, 1.51586e-05, 142508
-9087.73, 291395, -142.806, 0.849973, -851.801, 0.0826958, 0.361021, 0.993198, 0.349787, 0.651995, 0.0001, 91, 246, 27.3529, 0.117503, 0, 0, 1, 0, 9.19563e-06, 142510
-8768.58, 347669, -311.207, 0.294896, -810.9, 0.237107, 0.618582, 1.03299, 0.34851, 0.655882, 0.0001, 45.5, 246, 41.4113, 0.237403, 2.24458, 1, 0, 0, -844.741, 142515
-8768.58, 347669, -311.207, 0.294896, -810.9, 0.237107, 0.618582, 1.03299, 0.34851, 0.655882, 3, 45.5, 246, 41.4113, 0.237403, 2.24471, 1, 0, 0, -845.746, 142515
-7683.11, 365983, -325.894, 0.31062, -845.08, 0.246754, 0.607272, 0.993198, 0.349787, 0.651995, 0.0001, 91, 246, 41.4113, 0.237403, 2.66695, 1, 1, 0, -814.214, 142515
-7683.11, 365983, -325.894, 0.31062, -845.08, 0.246754, 0.607272, 0.993198, 0.349787, 0.651995, 3, 91, 246, 41.4113, 0.237403, 2.66663, 1, 1, 0, 814.353, 142515
-6406.58, 385973, -340.77, 0.326761, -882.253, 0.25723, 0.600565, 0.958125, 0.351078, 0.648177, 0.0001, 182, 246, 41.4113, 0.237403, 3.68978, 1, 0, 0, 796.877, 142515
-6406.58, 385973, -340.77, 0.326761, -882.253, 0.25723, 0.600565, 0.958125, 0.351078, 0.648177, 3, 182, 246, 41.4113, 0.237403, 3.60231, 1, 0, 0, 796.815, 142515
-11706.6, 230638, -121.011, 1.39873, -551.519, 0.717587, 0.355123, 1.03299, 0.34851, 0.655882, 0.0001, 45.5, 246, 23.0102, 0.105402, 0, 0, 1, 0, 3.96116e-06, 142519
-11706.6, 230638, -121.011, 1.39873, -551.519, 0.717587, 0.355123, 1.03299, 0.34851, 0.655882, 3, 45.5, 246, 23.0102, 0.105402, 0, 0, 1, 0, -1.63773e-05, 142519
-10326, 246346, -135.297, 1.53484, -627.791, 0.820015, 0.329621, 0.993198, 0.349787, 0.651995, 3, 91, 246, 23.0102, 0.105402, 0, 0, 1, 0, -1.7397e-05, 142519
-8563.02, 266404, -152.432, 1.69493, -728.486, 0.955245, 0.311069, 0.958125, 0.351078, 0.648177, 0.0001, 182, 246, 23.0102, 0.105402, 0, 0, 1, 0, -2.71941e-05, 142519
-11050.7, 125971, 13.4895, 1.81723, -1109.8, 0.208583, 0.292877, 1.03299, 0.34851, 0.655882, 0.0001, 45.5, 246, 14.1377, 0.0209263, 0, 0, 1, 0, -1.45284e-05, 142521
-11050.7, 125971, 13.4895, 1.81723, -1109.8, 0.208583, 0.292877, 1.03299, 0.34851, 0.655882, 3, 45.5, 246, 14.1377, 0.0209263, 0, 0, 1, 0, -9.17507e-06, 142521
-10602, 235870, -234.12, 1.76953, -927.221, 0.622805, 0.464455, 1.03299, 0.34851, 0.655882, 0.0001, 45.5, 246, 41.4718, 0.203135, 0, 0, 0, 0, -1.10766e-05, 142524
-10602, 235870, -234.12, 1.76953, -927.221, 0.622805, 0.464455, 1.03299, 0.34851, 0.655882, 3, 45.5, 246, 41.4718, 0.203135, 0, 0, 0, 0, 4.03461e-05, 142524
-6256.54, 270304, -405.484, 3.575, -1024.03, 0.0127219, 0.487274, 0.993198, 0.349787, 0.651995, 0.0001, 91, 246, 53.9497, 0.246131, 1.33975, 1, 1, 0, 1.32678e-05, 142530
-6256.54, 270304, -405.484, 3.575, -1024.03, 0.0127219, 0.487274, 0.993198, 0.349787, 0.651995, 3, 91, 246, 53.9497, 0.246131, 1.22877, 1, 1, 0, -1.9926e-05, 142530
-10843.9, 126354, -24.8862, 2.17077, -1137.68, -0.0196918, 0.28369, 1.03299, 0.34851, 0.655882, 0.0001, 45.5, 246, 20.6634, 0.0611968, 0, 0, 1, 0, -2.03124e-06, 142533
-10843.9, 126354, -24.8862, 2.17077, -1137.68, -0.0196918, 0.28369, 1.03299, 0.34851, 0.655882, 3, 45.5, 246, 20.6634, 0.0611968, 0, 0, 1, 0, -9.95029e-07, 142533
-8967.56, 489695, -170.907, 0.482482, -1181.45, 0.0680898, 0.395956, 1.03299, 0.34851, 0.655882, 0.0001, 45.5, 246, 32.2985, 0.0882789, 0, 0, 0, 0, 2.94928e-05, 142537
-8967.56, 489695, -170.907, 0.482482, -1181.45, 0.0680898, 0.395956, 1.03299, 0.34851, 0.655882, 3, 45.5, 246, 32.2985, 0.0882789, 0, 0, 0, 0, 2.28529e-05, 142537
-7839.84, 516822, -182.478, 0.502197, -1196.71, 0.0699062, 0.364906, 0.993198, 0.349787, 0.651995, 3, 91, 246, 32.2985, 0.0882789, 0, 0, 1, 0, -3.9932e-06, 142537
-5377.1, 634664, -291.277, 0.218733, -1158.95, 0.0304251, 0.437614, 0.993198, 0.349787, 0.651995, 3, 91, 246, 36.8059, 0.117411, 0, 0, 1, 0, 1.72987e-06, 142538
-11581.8, 207219, -142.367, 1.81479, -633.483, 0.467509, 0.35482, 1.03299, 0.34851, 0.655882, 0.0001, 45.5, 246, 28.2064, 0.131752, 0, 0, 1, 0, -3.03284e-06, 142550
-14642.2, 161147, 30.6177, 3.3551, -1182.32, -0.0365897, 0.155977, 1.03299, 0.34851, 0.655882, 0.0001, 45.5, 246, 16.688, 0.022747, 0, 0, 0, 0, 5.0842e-07, 142554
-14642.2, 161147, 30.6177, 3.3551, -1182.32, -0.0365897, 0.155977, 1.03299, 0.34851, 0.655882, 3, 45.5, 246, 16.688, 0.022747, 0, 0, 0, 0, -9.40215e-06, 142554
-12281.1, 184666, -4.46655, 3.64459, -1179.15, 0.0171461, 0.16336, 0.993198, 0.349787, 0.651995, 0.0001, 91, 246, 16.688, 0.022747, 0, 0, 1, 0, 4.18874e-06, 142554
-12281.1, 184666, -4.46655, 3.64459, -1179.15, 0.0171461, 0.16336, 0.993198, 0.349787, 0.651995, 3, 91, 246, 16.688, 0.022747, 0, 0, 1, 0, 3.06862e-06, 142554
-12844.1, 368308, -434.007, 3.87644, -855.629, 0.080844, 0.433077, 0.993198, 0.349787, 0.651995, 0.0001, 91, 246, 46.1159, 0.202928, 1.00259, 1, 1, 0, 1.06771e-05, 142557
-11445.1, 316714, -321.546, 1.76984, -1081.58, 0.0893529, 0.584037, 1.03299, 0.34851, 0.655882, 0.0001, 45.5, 246, 48.6147, 0.239517, 0, 0, 0, 0, -5.50049e-06, 142559
-11445.1, 316714, -321.546, 1.76984, -1081.58, 0.0893529, 0.584037, 1.03299, 0.34851, 0.655882, 3, 45.5, 246, 48.6147, 0.239517, 0, 0, 0, 0, -1.72588e-05, 142559
-12222.1, 294002, -51.3087, 1.08914, -761.308, 0.548782, 0.330469, 1.03299, 0.34851, 0.655882, 0.0001, 45.5, 246, 18.1937, 0.0438926, 0, 0, 1, 0, 6.38821e-05, 142561
-12222.1, 294002, -51.3087, 1.08914, -761.308, 0.548782, 0.330469, 1.03299, 0.34851, 0.655882, 3, 45.5, 246, 18.1937, 0.0438926, 0, 0, 1, 0, -6.50666e-05, 142561
-10987.5, 314235, -61.823, 1.17549, -835.74, 0.607051, 0.299244, 0.993198, 0.349787, 0.651995, 3, 91, 246, 18.1937, 0.0438926, 0, 0, 1, 0, -1.02097e-05, 142561
-10965.6, 501723, -246.852, 0.496668, -603.739, 0.0435747, 0.455011, 1.03299, 0.34851, 0.655882, 0.0001, 45.5, 246, 27.2855, 0.126963, 0, 0, 0, 0, -5.11115e-08, 142569
-10965.6, 501723, -246.852, 0.496668, -603.739, 0.0435747, 0.455011, 1.03299, 0.34851, 0.655882, 3, 45.5, 246, 27.2855, 0.126963, 0, 0, 0, 0, 7.49952e-06, 142569
-9279.24, 793889, -256.063, 0.199236, -681.234, 0.000357289, 0.420082, 1.03299, 0.34851, 0.655882, 0.0001, 45.5, 246, 25.314, 0.0835162, 0, 0, 0, 0, 9.41782e-05, 142571
-9279.24, 793889, -256.063, 0.199236, -681.234, 0.000357289, 0.420082, 1.03299, 0.34851, 0.655882, 3, 45.5, 246, 25.314, 0.0835162, 0, 0, 0, 0, -7.568e-05, 142571
-9292.12, 428808, -188.49, 0.610644, -1133.34, 0.00196983, 0.417819, 1.03299, 0.34851, 0.655882, 0.0001, 45.5, 246, 33.4183, 0.112562, 0, 0, 0, 0, -2.93638e-05, 142585
-9292.12, 428808, -188.49, 0.610644, -1133.34, 0.00196983, 0.417819, 1.03299, 0.34851, 0.655882, 3, 45.5, 246, 33.4183, 0.112562, 0, 0, 0, 0, -8.04705e-05, 142585
-7998.41, 452074, -202.378, 0.635224, -1137.06, 0.00367483, 0.389178, 0.993198, 0.349787, 0.651995, 3, 91, 246, 33.4183, 0.112562, 0, 0, 1, 0, 1.99179e-05, 142585
-10308.6, 418473, -49.2955, 1.18299, -935.809, 0.037433, 0.26598, 0.958125, 0.351078, 0.648177, 3, 182, 246, 19.03, 0.0244556, 0, 0, 1, 0, -2.2408e-06, 142593
-13504.8, -165987, 1.97349, 0.582522, -1106.67, 0.00100063, 0.384028, 1.03299, 0.34851, 0.655882, 0.0001, 45.5, 246, -103.054, 0.149347, 0, 0, 1, 0, 4.95048e-05, 142595
-13504.8, -165987, 1.97349, 0.582522, -1106.67, 0.00100063, 0.384028, 1.03299, 0.34851, 0.655882, 3, 45.5, 246, -103.054, 0.149347, 0, 0, 1, 0, 3.8651e-05, 142595
-6127.5, 340042, -434.86, 3.93668, -691.605, 0.0621256, 0.434206, 0.958125, 0.351078, 0.648177, 0.0001, 182, 246, 40.9356, 0.190887, 1.33829, 1, 0, 0, -7.4228e-05, 142598
-6127.5, 340042, -434.86, 3.93668, -691.605, 0.0621256, 0.434206, 0.958125, 0.351078, 0.648177, 3, 182, 246, 40.9356, 0.190887, 1.16807, 1, 0, 0, -8.82288e-05, 142598
-10124.3, 350447, -489.924, 3.65619, -852.414, 0.0141556, 0.560949, 0.993198, 0.349787, 0.651995, 0.0001, 91, 246, 52.3277, 0.245905, 1.40847, 1, 1, 0, -3.61308e-06, 142599
-10124.3, 350447, -489.924, 3.65619, -852.414, 0.0141556, 0.560949, 0.993198, 0.349787, 0.651995, 3, 91, 246, 52.3277, 0.245905, 1.33994, 1, 1, 0, -3.09296e-06, 142599
-10331.7, 584899, -105.7, 0.330153, -711.086, 0.422897, 0.356446, 1.03299, 0.34851, 0.655882, 0.0001, 45.5, 246, 20.0302, 0.0436539, 0, 0, 1, 0, -4.41114e-05, 142604
-10331.7, 584899, -105.7, 0.330153, -711.086, 0.422897, 0.356446, 1.03299, 0.34851, 0.655882, 3, 45.5, 246, 20.0302, 0.0436539, 0, 0, 1, 0, -1.32056e-05, 142604
-9605.72, 608334, -111.439, 0.349069, -763.044, 0.453724, 0.32181, 0.993198, 0.349787, 0.651995, 0.0001, 91, 246, 20.0302, 0.0436539, 0, 0, 1, 0, -1.02219e-05, 142604
-8732.08, 634956, -117.397, 0.368835, -823.138, 0.489376, 0.291536, 0.958125, 0.351078, 0.648177, 0.0001, 182, 246, 20.0302, 0.0436539, 0, 0, 1, 0, 4.59664e-06, 142604
-6418.3, 79017.4, -133.193, 2.99949, -1022.88, 0.00188196, 0.27738, 0.993198, 0.349787, 0.651995, 0.0001, 91, 246, 37.5738, 0.145445, 0, 0, 1, 0, 1.69327e-05, 142605
-6418.3, 79017.4, -133.193, 2.99949, -1022.88, 0.00188196, 0.27738, 0.993198, 0.349787, 0.651995, 3, 91, 246, 37.5738, 0.145445, 0, 0, 1, 0, -1.15564e-06, 142605
-8390.52, 493096, -526.928, 3.89321, -856.463, 0.495588, 0.494409, 0.958125, 0.351078, 0.648177, 3, 182, 246, 40.3542, 0.182488, 1.05376, 1, 0, 0, -2.58311e-05, 142608
-10361.8, 341515, -196.816, 0.820881, -831.377, -0.0031011, 0.441044, 1.03299, 0.34851, 0.655882, 0.0001, 45.5, 246, 31.9023, 0.146887, 0, 0, 0, 0, -2.31996e-07, 142610
-10361.8, 341515, -196.816, 0.820881, -831.377, -0.0031011, 0.441044, 1.03299, 0.34851, 0.655882, 3, 45.5, 246, 31.9023, 0.146887, 0, 0, 0, 0, -2.13704e-05, 142610
-8995.4, 354273, -211.896, 0.857535, -835.687, -8.77428e-06, 0.415763, 0.993198, 0.349787, 0.651995, 3, 91, 246, 31.9023, 0.146887, 0, 0, 1, 0, 1.06117e-05, 142610
-9042.53, 598994, -332.092, 0.133348, -609.975, 0.220407, 0.513546, 1.03299, 0.34851, 0.655882, 0.0001, 45.5, 246, 29.5013, 0.140066, 0, 0, 0, 0, -2.79129e-05, 142612
-9042.53, 598994, -332.092, 0.133348, -609.975, 0.220407, 0.513546, 1.03299, 0.34851, 0.655882, 3, 45.5, 246, 29.5013, 0.140066, 0, 0, 0, 0, -3.95821e-05, 142612
-7938.94, 614936, -344.122, 0.139513, -633.227, 0.228445, 0.491522, 0.993198, 0.349787, 0.651995, 3, 91, 246, 29.5013, 0.140066, 0, 0, 1, 0, 0.000124828, 142612
-8378.77, 607491, -208.318, 0.356297, -1123.96, -0.000125497, 0.409077, 1.03299, 0.34851, 0.655882, 0.0001, 45.5, 246, 32.8715, 0.0879298, 0, 0, 0, 0, 3.93203e-05, 142614
-8378.77, 607491, -208.318, 0.356297, -1123.96, -0.000125497, 0.409077, 1.03299, 0.34851, 0.655882, 3, 45.5, 246, 32.8715, 0.0879298, 0, 0, 0, 0, 1.97525e-05, 142614
-7212.08, 630469, -219.27, 0.368803, -1126.03, 0.000451657, 0.378562, 0.993198, 0.349787, 0.651995, 3, 91, 246, 32.8715, 0.0879298, 0, 0, 1, 0, 0.000151226, 142614
-9425.84, 783492, -220.163, 0.198917, -665.143, 0.69873, 0.392048, 1.03299, 0.34851, 0.655882, 3, 45.5, 246, 22.8853, 0.0633118, 0, 0, 1, 0, -4.84106e-06, 142615
-8505.84, 824440, -228.452, 0.213398, -749.001, 0.785664, 0.359782, 0.993198, 0.349787, 0.651995, 3, 91, 246, 22.8853, 0.0633118, 0, 0, 1, 0, -1.90196e-05, 142615
-6887.08, 780581, -394.736, 0.141155, -740.821, 1.08669, 0.461356, 0.958125, 0.351078, 0.648177, 3, 182, 246, 26.7004, 0.119433, 0, 0, 1, 0, -6.50886e-06, 142617
-9531.51, 313043, -132.816, 0.771127, -717.213, 0.632075, 0.346948, 0.993198, 0.349787, 0.651995, 0.0001, 91, 246, 22.8587, 0.0967878, 0, 0, 1, 0, 1.33488e-05, 142619
-9524.19, 54664.3, 9.96267, 2.65533, -817.358, -0.0333979, 0.243699, 1.03299, 0.34851, 0.655882, 0.0001, 45.5, 246, 10.5063, 0.0309273, 0, 0, 1, 0, -1.27367e-05, 142622
-6852.77, 92943.9, -68.7442, 3.42258, -836.67, 0.100591, 0.262176, 0.9175, 0.352806, 0.64323, 3, 455, 246, 10.5063, 0.0309273, 0, 0, 1, 0, 6.08957e-06, 142622
-9704.74, 179346, -13.8, 0.645913, -1165.53, 0.0783628, 0.338145, 1.03299, 0.34851, 0.655882, 0.0001, 45.5, 246, 17.285, 0.0277373, 0, 0, 1, 0, 1.11191e-05, 142627
-9704.74, 179346, -13.8, 0.645913, -1165.53, 0.0783628, 0.338145, 1.03299, 0.34851, 0.655882, 3, 45.5, 246, 17.285, 0.0277373, 0, 0, 1, 0, 1.39286e-05, 142627
-10901.1, 572541, -201.873, 0.49511, -741.305, 0.0682691, 0.406346, 1.03299, 0.34851, 0.655882, 0.0001, 45.5, 246, 26.02, 0.0905947, 0, 0, 0, 0, -2.01486e-05, 142628
-7966.24, 598165, -223.912, 0.535815, -763.776, 0.0721602, 0.350345, 0.958125, 0.351078, 0.648177, 3, 182, 246, 26.02, 0.0905947, 0, 0, 1, 0, -4.32063e-05, 142628
-10379.6, 288667, -221.436, 0.738485, -573.599, 0.729937, 0.474046, 1.03299, 0.34851, 0.655882, 0.0001, 45.5, 246, 31.1895, 0.173031, 0, 0, 1, 0, 5.82531e-05, 142630
-10379.6, 288667, -221.436, 0.738485, -573.599, 0.729937, 0.474046, 1.03299, 0.34851, 0.655882, 3, 45.5, 246, 31.1895, 0.173031, 0, 0, 1, 0, -5.1925e-05, 142630
-9207.28, 308241, -235.5, 0.803504, -653.458, 0.828059, 0.451092, 0.993198, 0.349787, 0.651995, 0.0001, 91, 246, 31.1895, 0.173031, 0, 0, 1, 0, 6.89256e-06, 142630
-12121.7, 189781, -157.21, 3.44565, -1107.38, 0.0171387, 0.231246, 1.03299, 0.34851, 0.655882, 0.0001, 45.5, 246, 37.4763, 0.137385, 0, 0, 0, 0, 8.82908e-07, 142632
-12121.7, 189781, -157.21, 3.44565, -1107.38, 0.0171387, 0.231246, 1.03299, 0.34851, 0.655882, 3, 45.5, 246, 37.4763, 0.137385, 0, 0, 0, 0, -4.12639e-08, 142632
-8385.68, 1803.46, -12.9286, 2.36078, -1075.8, 0.0865709, 0.278907, 0.993198, 0.349787, 0.651995, 0.0001, 91, 246, 10.655, 0.060831, 0, 0, 1, 1, -2.87702e-06, 142635
-8385.68, 1803.46, -12.9286, 2.36078, -1075.8, 0.0865709, 0.278907, 0.993198, 0.349787, 0.651995, 3, 91, 246, 10.655, 0.060831, 0, 0, 1, 1, -1.80011e-05, 142635
-9436.1, 88008.5, 1.47509, 0.97956, -969.661, -0.00293176, 0.330717, 1.03299, 0.34851, 0.655882, 0.0001, 45.5, 246, 10.9054, 0.0232835, 0, 0, 1, 0, -4.76068e-06, 142636
-9436.1, 88008.5, 1.47509, 0.97956, -969.661, -0.00293176, 0.330717, 1.03299, 0.34851, 0.655882, 3, 45.5, 246, 10.9054, 0.0232835, 0, 0, 1, 0, -4.35509e-05, 142636
-15250, 702049, -484.416, 4.38973, -1026.87, 0.142076, 0.331169, 0.958125, 0.351078, 0.648177, 3, 182, 246, 37.7418, 0.126637, 0, 0, 0, 0, -0.000824358, 142637
-6904.28, 619280, -334.409, 0.147473, -967.305, 0.0778923, 0.514384, 1.03299, 0.34851, 0.655882, 0.0001, 45.5, 246, 36.2284, 0.139167, 0, 0, 0, 0, 2.82747e-05, 142648
-6904.28, 619280, -334.409, 0.147473, -967.305, 0.0778923, 0.514384, 1.03299, 0.34851, 0.655882, 3, 45.5, 246, 36.2284, 0.139167, 0, 0, 0, 0, -1.87726e-05, 142648
-5664.37, 640561, -347.16, 0.153151, -980.725, 0.0789634, 0.492454, 0.993198, 0.349787, 0.651995, 3, 91, 246, 36.2284, 0.139167, 0, 0, 1, 0, -0.00013994, 142648
-6738.42, 71878.5, -145.489, 3.33586, -599.637, 0.783066, 0.194996, 1.03299, 0.34851, 0.655882, 0.0001, 45.5, 246, 37.161, 0.112324, 1.0314, 1, 0, 0, -3.12069e-05, 142663
-3555.14, 99007.2, -226.529, 4.42037, -858.069, 1.21544, 0.244554, 0.958125, 0.351078, 0.648177, 0.0001, 182, 246, 37.161, 0.112324, 1.05475, 1, 1, 0, -2.92684e-05, 142663
628.528, 136983, -325.36, 5.66369, -1225.1, 1.82661, 0.355444, 0.9175, 0.352806, 0.64323, 0.0001, 455, 246, 37.161, 0.112324, 2.24249, 1, 0, 0, -206.369, 142663
628.528, 136983, -325.36, 5.66369, -1225.1, 1.82661, 0.355444, 0.9175, 0.352806, 0.64323, 3, 455, 246, 37.161, 0.112324, 2.24361, 1, 0, 0, -206.197, 142663
-11286, 282830, -182.064, 1.4389, -972.687, 0.206587, 0.414013, 1.03299, 0.34851, 0.655882, 0.0001, 45.5, 246, 34.4772, 0.149685, 0, 0, 0, 0, 1.39676e-05, 142665
-11286, 282830, -182.064, 1.4389, -972.687, 0.206587, 0.414013, 1.03299, 0.34851, 0.655882, 3, 45.5, 246, 34.4772, 0.149685, 0, 0, 0, 0, 5.50493e-06, 142665
-8547.41, 554540, -281.665, 0.410307, -1032.12, 0.337572, 0.471711, 1.03299, 0.34851, 0.655882, 0.0001, 45.5, 246, 35.4217, 0.124921, 0, 0, 0, 0, 3.45114e-05, 142670
-8547.41, 554540, -281.665, 0.410307, -1032.12, 0.337572, 0.471711, 1.03299, 0.34851, 0.655882, 3, 45.5, 246, 35.4217, 0.124921, 0, 0, 0, 0, 4.38863e-05, 142670
-7599.83, 454679, -248.143, 0.300622, -824.854, 0.00895963, 0.440369, 0.993198, 0.349787, 0.651995, 0.0001, 91, 246, 31.7933, 0.141022, 0, 0, 1, 0, 3.56584e-05, 142675
-12191.2, 422931, -72.3679, 0.686198, -564.567, 0.599938, 0.343797, 1.03299, 0.34851, 0.655882, 0.0001, 45.5, 246, 15.8603, 0.0407107, 0, 0, 1, 0, 6.56096e-05, 142677
-12191.2, 422931, -72.3679, 0.686198, -564.567, 0.599938, 0.343797, 1.03299, 0.34851, 0.655882, 3, 45.5, 246, 15.8603, 0.0407107, 0, 0, 1, 0, 3.99342e-05, 142677
-10208.4, 286696, -278.712, 1.06171, -859.13, 0.387024, 0.565904, 1.03299, 0.34851, 0.655882, 0.0001, 45.5, 246, 42.698, 0.233032, 0, 0, 0, 0, -1.03207e-05, 142678
-10208.4, 286696, -278.712, 1.06171, -859.13, 0.387024, 0.565904, 1.03299, 0.34851, 0.655882, 3, 45.5, 246, 42.698, 0.233032, 0, 0, 0, 0, 0.125355, 142678
-8468.43, 4744.68, -13.347, 2.13881, -1016.97, 0.0315676, 0.284269, 0.993198, 0.349787, 0.651995, 0.0001, 91, 246, 10.7445, 0.0593346, 0, 0, 1, 1, -1.11535e-06, 142681
-8468.43, 4744.68, -13.347, 2.13881, -1016.97, 0.0315676, 0.284269, 0.993198, 0.349787, 0.651995, 3, 91, 246, 10.7445, 0.0593346, 0, 0, 1, 1, 5.41565e-06, 142681
-9115.98, 94406, -90.9902, 3.07204, -864.736, -0.0393364, 0.235089, 1.03299, 0.34851, 0.655882, 0.0001, 45.5, 246, 30.1819, 0.110185, 0, 0, 1, 0, 2.53411e-06, 142684
-9115.98, 94406, -90.9902, 3.07204, -864.736, -0.0393364, 0.235089, 1.03299, 0.34851, 0.655882, 3, 45.5, 246, 30.1819, 0.110185, 0, 0, 1, 0, 1.09607e-06, 142684
-9487.25, 187975, -235.036, 2.23736, -828.932, 0.0699027, 0.451665, 1.03299, 0.34851, 0.655882, 3, 45.5, 246, 45.9281, 0.234813, 0, 0, 0, 0, -4.98763e-06, 142695
-8594.93, 253503, -152.05, 4.1513, -1004.39, 0.360587, 0.204317, 0.958125, 0.351078, 0.648177, 0.0001, 182, 246, 24.081, 0.0681745, 0, 0, 0, 0, 4.96794e-05, 142704
-8594.93, 253503, -152.05, 4.1513, -1004.39, 0.360587, 0.204317, 0.958125, 0.351078, 0.648177, 3, 182, 246, 24.081, 0.0681745, 0, 0, 0, 0, -4.13599e-05, 142704
-8551.21, 662483, -200.227, 0.297693, -1015.67, -0.000403567, 0.398535, 1.03299, 0.34851, 0.655882, 0.0001, 45.5, 246, 30.3028, 0.0777153, 0, 0, 0, 0, -5.32249e-05, 142716
-8551.21, 662483, -200.227, 0.297693, -1015.67, -0.000403567, 0.398535, 1.03299, 0.34851, 0.655882, 3, 45.5, 246, 30.3028, 0.0777153, 0, 0, 0, 0, 9.90579e-06, 142716
-9064.03, 771743, -356.341, 0.132646, -661.298, 0.148478, 0.495081, 1.03299, 0.34851, 0.655882, 0.0001, 45.5, 246, 28.8663, 0.117001, 0, 0, 0, 0, -5.2282e-05, 142723
-9064.03, 771743, -356.341, 0.132646, -661.298, 0.148478, 0.495081, 1.03299, 0.34851, 0.655882, 3, 45.5, 246, 28.8663, 0.117001, 0, 0, 0, 0, 4.81429e-05, 142723
-9422.8, 417689, -220.086, 0.599373, -984.734, 0.00191123, 0.450531, 1.03299, 0.34851, 0.655882, 0.0001, 45.5, 246, 33.81, 0.136229, 0, 0, 0, 0, 1.7605e-05, 142725
-9422.8, 417689, -220.086, 0.599373, -984.734, 0.00191123, 0.450531, 1.03299, 0.34851, 0.655882, 3, 45.5, 246, 33.81, 0.136229, 0, 0, 0, 0, -3.08856e-05, 142725
-5487.73, 741263, -369.591, 0.1261, -1143.14, 0.0408068, 0.516668, 1.03299, 0.34851, 0.655882, 3, 45.5, 246, 39.4522, 0.127735, 0, 0, 0, 0, 9.05597e-05, 142730
-3321.66, 311378, -457.437, 3.55711, -823.597, 0.0605094, 0.522975, 0.958125, 0.351078, 0.648177, 0.0001, 182, 246, 47.8265, 0.229639, 2.43626, 1, 0, 0, 1.27812e-06, 142732
-3321.66, 311378, -457.437, 3.55711, -823.597, 0.0605094, 0.522975, 0.958125, 0.351078, 0.648177, 3, 182, 246, 47.8265, 0.229639, 2.25784, 1, 0, 0, -1.60756e-05, 142732
-11076.9, 94198.5, -5.26539, 3.20826, -782.175, 0.556753, 0.175492, 1.03299, 0.34851, 0.655882, 0.0001, 45.5, 246, 14.6507, 0.0362847, 0, 0, 0, 0, 1.01644e-05, 142735
-11076.9, 94198.5, -5.26539, 3.20826, -782.175, 0.556753, 0.175492, 1.03299, 0.34851, 0.655882, 3, 45.5, 246, 14.6507, 0.0362847, 0, 0, 0, 0, 3.71496e-05, 142735
-9799.12, 108660, -31.1996, 3.59598, -862.807, 0.666122, 0.180826, 0.993198, 0.349787, 0.651995, 0.0001, 91, 246, 14.6507, 0.0362847, 0, 0, 1, 0, -2.45796e-05, 142735
-9799.12, 108660, -31.1996, 3.59598, -862.807, 0.666122, 0.180826, 0.993198, 0.349787, 0.651995, 3, 91, 246, 14.6507, 0.0362847, 0, 0, 1, 0, 9.41508e-06, 142735
-11327.8, 436765, -198.996, 0.70119, -678.586, 0.0162219, 0.421539, 1.03299, 0.34851, 0.655882, 0.0001, 45.5, 246, 26.9727, 0.116984, 0, 0, 1, 0, 2.09018e-05, 142738
-11327.8, 436765, -198.996, 0.70119, -678.586, 0.0162219, 0.421539, 1.03299, 0.34851, 0.655882, 3, 45.5, 246, 26.9727, 0.116984, 0, 0, 1, 0, 4.761e-05, 142738
-10663.3, 773446, -206.419, 0.283461, -592.413, 0.0983818, 0.39203, 1.03299, 0.34851, 0.655882, 0.0001, 45.5, 246, 21.5071, 0.0679804, 0, 0, 1, 0, 5.26226e-05, 142739
-10663.3, 773446, -206.419, 0.283461, -592.413, 0.0983818, 0.39203, 1.03299, 0.34851, 0.655882, 3, 45.5, 246, 21.5071, 0.0679804, 0, 0, 1, 0, -6.83047e-05, 142739
-9054.88, 157115, -36.1396, 3.87107, -683.765, 0.803025, 0.202597, 0.958125, 0.351078, 0.648177, 3, 182, 246, 9.76096, 0.0176756, 0, 0, 1, 0, -2.72965e-05, 142740
-9022.13, 38956.1, 2.87296, 2.52708, -982.674, -0.030125, 0.260244, 1.03299, 0.34851, 0.655882, 0.0001, 45.5, 246, 13.5952, 0.0475077, 1.21397, 1, 1, 0, 7.95827e-06, 142746
-39477.1, 880513, -303.076, 2.4056, -824.335, -0.0255816, 0.343391, 1.03299, 0.34851, 0.655882, 0.0001, 45.5, 246, 31.3717, 0.0930988, 0, 0, 0, 0, 6.69728e-05, 142747
-39477.1, 880513, -303.076, 2.4056, -824.335, -0.0255816, 0.343391, 1.03299, 0.34851, 0.655882, 3, 45.5, 246, 31.3717, 0.0930988, 0, 0, 0, 0, 0.000140804, 142747
-11267, 255150, -275.574, 2.20148, -929.128, -0.0216244, 0.495771, 1.03299, 0.34851, 0.655882, 0.0001, 45.5, 246, 46.255, 0.22982, 0, 0, 0, 0, 1.31316e-05, 142748
-11267, 255150, -275.574, 2.20148, -929.128, -0.0216244, 0.495771, 1.03299, 0.34851, 0.655882, 3, 45.5, 246, 46.255, 0.22982, 0, 0, 0, 0, 7.69318e-06, 142748
-8775.25, 248500, -159.327, 1.28523, -1075.71, 0.467113, 0.371802, 0.993198, 0.349787, 0.651995, 0.0001, 91, 246, 32.1641, 0.142109, 0, 0, 1, 0, 5.86169e-06, 142751
-4368.68, 325681, -214.462, 1.53444, -1320.9, 0.588139, 0.334782, 0.9175, 0.352806, 0.64323, 0.0001, 455, 246, 32.1641, 0.142109, 0, 0, 0, 0, -1.01105e-05, 142751
-4368.68, 325681, -214.462, 1.53444, -1320.9, 0.588139, 0.334782, 0.9175, 0.352806, 0.64323, 3, 455, 246, 32.1641, 0.142109, 0, 0, 0, 0, 1.95174e-05, 142751
-7742.59, 454413, -326.676, 0.212365, -910.601, 0.338782, 0.563818, 1.03299, 0.34851, 0.655882, 0.0001, 45.5, 246, 38.4354, 0.182301, 0, 0, 0, 0, 6.7216e-06, 142756
-6549.78, 480326, -340.548, 0.224272, -964.094, 0.358165, 0.546727, 0.993198, 0.349787, 0.651995, 0.0001, 91, 246, 38.4354, 0.182301, 0, 0, 1, 0, 2.16854e-05, 142756
-11654.7, 170180, -17.6733, 1.79729, -942.851, 0.0354115, 0.297273, 1.03299, 0.34851, 0.655882, 0.0001, 45.5, 246, 17.1245, 0.0404518, 0, 0, 1, 0, 1.07709e-05, 142761
-11654.7, 170180, -17.6733, 1.79729, -942.851, 0.0354115, 0.297273, 1.03299, 0.34851, 0.655882, 3, 45.5, 246, 17.1245, 0.0404518, 0, 0, 1, 0, -2.90424e-06, 142761
-10480.9, 185962, -34.5625, 1.90851, -950.542, 0.0507708, 0.273499, 0.993198, 0.349787, 0.651995, 0.0001, 91, 246, 17.1245, 0.0404518, 0, 0, 1, 0, 1.68616e-06, 142761
-11090.5, 194737, -120.056, 1.70448, -651.255, 0.0353032, 0.352287, 1.03299, 0.34851, 0.655882, 0.0001, 45.5, 246, 26.8924, 0.127381, 0, 0, 1, 0, -7.6774e-06, 142762
-9691.55, 202709, -137.584, 1.80952, -661.575, 0.0491317, 0.330842, 0.993198, 0.349787, 0.651995, 3, 91, 246, 26.8924, 0.127381, 0, 0, 1, 0, 5.44751e-06, 142762
-7284.8, -10292, 0.601215, 3.22142, -1107.75, 0.144644, 0.215275, 1.03299, 0.34851, 0.655882, 0.0001, 45.5, 246, 17.1426, 0.0608634, 0, 0, 1, 0, -1.31666e-05, 142763
-7284.8, -10292, 0.601215, 3.22142, -1107.75, 0.144644, 0.215275, 1.03299, 0.34851, 0.655882, 3, 45.5, 246, 17.1426, 0.0608634, 0, 0, 1, 0, -5.38377e-06, 142763
-7007.53, 71228.9, -100.579, 3.95397, -1072.7, 0.0476355, 0.189962, 0.993198, 0.349787, 0.651995, 0.0001, 91, 246, 28.4206, 0.0882958, 0, 0, 1, 0, 2.4718e-06, 142764
-8783.95, 142629, -76.2495, 0.599502, -1106.08, 0.121859, 0.377442, 1.03299, 0.34851, 0.655882, 0.0001, 45.5, 246, 26.7702, 0.129995, 0, 0, 1, 0, 9.31262e-06, 142766
-8783.95, 142629, -76.2495, 0.599502, -1106.08, 0.121859, 0.377442, 1.03299, 0.34851, 0.655882, 3, 45.5, 246, 26.7702, 0.129995, 0, 0, 1, 0, 2.12489e-05, 142766
-2931.95, 295162, -422.955, 3.70937, -960.554, 0.301726, 0.463725, 0.958125, 0.351078, 0.648177, 0.0001, 182, 246, 46.6538, 0.213525, 2.12492, 1, 0, 0, -2.61827e-05, 142771
-2931.95, 295162, -422.955, 3.70937, -960.554, 0.301726, 0.463725, 0.958125, 0.351078, 0.648177, 3, 182, 246, 46.6538, 0.213525, 1.95751, 1, 0, 0, 4.26623e-05, 142771
-9960.28, 62467.5, 16.3361, 3.22227, -978.413, 0.00370233, 0.188685, 1.03299, 0.34851, 0.655882, 0.0001, 45.5, 246, 12.9482, 0.0348175, 0, 0, 1, 0, -9.03798e-06, 142780
-8076.31, 187304, -212.425, 1.65657, -756.184, 0.0370625, 0.441661, 0.993198, 0.349787, 0.651995, 0.0001, 91, 246, 40.6782, 0.228793, 0, 0, 1, 0, 2.32568e-06, 142785
-7178.76, -8523.16, -25.2266, 2.86939, -701.803, 0.00763196, 0.246249, 1.03299, 0.34851, 0.655882, 0.0001, 45.5, 246, 21.2393, 0.0237749, 0, 0, 1, 1, 1.55306e-05, 142790
-7178.76, -8523.16, -25.2266, 2.86939, -701.803, 0.00763196, 0.246249, 1.03299, 0.34851, 0.655882, 3, 45.5, 246, 21.2393, 0.0237749, 0, 0, 1, 1, 4.27583e-06, 142790
-8745.89, 22794.3, 0.39536, 0.766919, -661.013, -0.00269597, 0.336719, 1.03299, 0.34851, 0.655882, 3, 45.5, 246, 5.45908, 0.0333647, 0, 0, 1, 1, -1.96952e-05, 142800
-11504.5, 175582, -62.1231, 2.03626, -1032.62, 0.0900181, 0.301485, 1.03299, 0.34851, 0.655882, 3, 45.5, 246, 24.4828, 0.0814024, 0, 0, 1, 0, 5.38807e-06, 142801
-8820, 163188, -253.193, 2.94967, -586.671, -0.0396327, 0.367535, 1.03299, 0.34851, 0.655882, 0.0001, 45.5, 246, 46.4937, 0.217657, 1.0988, 1, 1, 0, 5.25189e-06, 142802
-6132.28, 170152, -291.405, 3.19663, -606.853, 0.0018493, 0.376097, 0.993198, 0.349787, 0.651995, 0.0001, 91, 246, 46.4937, 0.217657, 1.09107, 1, 1, 0, 2.81454e-07, 142802
-2836.21, 178620, -336.123, 3.48373, -636.93, 0.0508731, 0.399607, 0.958125, 0.351078, 0.648177, 0.0001, 182, 246, 46.4937, 0.217657, 1.49387, 1, 1, 0, -2.03476e-06, 142802
-2836.21, 178620, -336.123, 3.48373, -636.93, 0.0508731, 0.399607, 0.958125, 0.351078, 0.648177, 3, 182, 246, 46.4937, 0.217657, 1.28438, 1, 1, 0, -2.48097e-07, 142802
-4115.27, 58582.8, -172.029, 2.62245, -621.09, 0.519646, 0.298704, 1.03299, 0.34851, 0.655882, 0.0001, 45.5, 246, 53.9515, 0.184008, 1.35314, 1, 1, 0, 3.8643e-05, 142805
-4115.27, 58582.8, -172.029, 2.62245, -621.09, 0.519646, 0.298704, 1.03299, 0.34851, 0.655882, 3, 45.5, 246, 53.9515, 0.184008, 1.19196, 1, 1, 0, -1.53528e-06, 142805
-3134.83, 68433.9, -201.731, 2.90836, -692.665, 0.602675, 0.294045, 0.993198, 0.349787, 0.651995, 0.0001, 91, 246, 53.9515, 0.184008, 1.37492, 1, 1, 0, -2.33996e-06, 142805
-3134.83, 68433.9, -201.731, 2.90836, -692.665, 0.602675, 0.294045, 0.993198, 0.349787, 0.651995, 3, 91, 246, 53.9515, 0.184008, 1.22057, 1, 1, 0, -2.47676e-06, 142805
-1762.03, 81288.3, -238.743, 3.25376, -786.908, 0.712125, 0.3042, 0.958125, 0.351078, 0.648177, 0.0001, 182, 246, 53.9515, 0.184008, 1.58643, 1, 1, 0, -1.55595e-05, 142805
-1762.03, 81288.3, -238.743, 3.25376, -786.908, 0.712125, 0.3042, 0.958125, 0.351078, 0.648177, 3, 182, 246, 53.9515, 0.184008, 1.44739, 1, 1, 0, -5.27311e-06, 142805
979.099, 105854, -304.819, 3.84991, -968.067, 0.922407, 0.345069, 0.9175, 0.352806, 0.64323, 0.0001, 455, 246, 53.9515, 0.184008, 2.91758, 1, 1, 0, -2.21618e-05, 142805
979.099, 105854, -304.819, 3.84991, -968.067, 0.922407, 0.345069, 0.9175, 0.352806, 0.64323, 3, 455, 246, 53.9515, 0.184008, 2.82327, 1, 1, 0, -1.00024e-05, 142805
-8407.8, 50761.4, -52.6853, 2.23341, -772.78, 0.276371, 0.291231, 1.03299, 0.34851, 0.655882, 0.0001, 45.5, 246, 25.1825, 0.0975125, 0, 0, 1, 0, -2.51153e-05, 142812
-11986.2, 195907, -25.6775, 1.68433, -904.993, 0.0934274, 0.30345, 1.03299, 0.34851, 0.655882, 0.0001, 45.5, 246, 17.7501, 0.0425827, 0, 0, 1, 0, -2.14492e-06, 142819
-11986.2, 195907, -25.6775, 1.68433, -904.993, 0.0934274, 0.30345, 1.03299, 0.34851, 0.655882, 3, 45.5, 246, 17.7501, 0.0425827, 0, 0, 1, 0, 1.70314e-05, 142819
-10713.1, 211289, -41.4632, 1.79063, -921.049, 0.108279, 0.278218, 0.993198, 0.349787, 0.651995, 3, 91, 246, 17.7501, 0.0425827, 0, 0, 1, 0, -1.92739e-05, 142819
-9822.6, 337041, -203.037, 0.698729, -858.302, 0.783324, 0.438914, 1.03299, 0.34851, 0.655882, 0.0001, 45.5, 246, 31.6948, 0.137166, 0, 0, 1, 0, 0.000199689, 142821
-9822.6, 337041, -203.037, 0.698729, -858.302, 0.783324, 0.438914, 1.03299, 0.34851, 0.655882, 3, 45.5, 246, 31.6948, 0.137166, 0, 0, 1, 0, -9.33256e-05, 142821
-8574.54, 368070, -217.702, 0.761389, -984.062, 0.896653, 0.412667, 0.993198, 0.349787, 0.651995, 3, 91, 246, 31.6948, 0.137166, 0, 0, 1, 0, 5.75935e-06, 142821
-10181.3, 211947, -218.939, 1.20494, -565.496, 0.55995, 0.487743, 1.03299, 0.34851, 0.655882, 0.0001, 45.5, 246, 37.2642, 0.218567, 0, 0, 1, 0, -0.000116453, 142822
-10181.3, 211947, -218.939, 1.20494, -565.496, 0.55995, 0.487743, 1.03299, 0.34851, 0.655882, 3, 45.5, 246, 37.2642, 0.218567, 0, 0, 1, 0, -1.55206e-05, 142822
-8807.91, 225689, -237.472, 1.30987, -628.65, 0.621916, 0.470514, 0.993198, 0.349787, 0.651995, 0.0001, 91, 246, 37.2642, 0.218567, 0, 0, 1, 0, 5.30323e-05, 142822
-2444.75, 325053, -434.18, 3.96272, -1114.08, 0.110881, 0.446878, 0.958125, 0.351078, 0.648177, 0.0001, 182, 246, 47.6241, 0.203409, 0, 0, 0, 0, 1.27079e-05, 142825
-2444.75, 325053, -434.18, 3.96272, -1114.08, 0.110881, 0.446878, 0.958125, 0.351078, 0.648177, 3, 182, 246, 47.6241, 0.203409, 0, 0, 0, 0, 7.18345e-06, 142825
179.35, 201888, -302.707, 4.84349, -1347.36, 0.765734, 0.338159, 0.9175, 0.352806, 0.64323, 0.0001, 455, 246, 33.2482, 0.118904, 1.74774, 1, 0, 0, 7.83821e-06, 142832
179.35, 201888, -302.707, 4.84349, -1347.36, 0.765734, 0.338159, 0.9175, 0.352806, 0.64323, 3, 455, 246, 33.2482, 0.118904, 1.81504, 1, 0, 0, 7.8364e-07, 142832
-10640.9, 168052, -101.099, 2.12528, -1118.09, -0.0187991, 0.325975, 1.03299, 0.34851, 0.655882, 0.0001, 45.5, 246, 31.0291, 0.122898, 0, 0, 1, 0, 2.8207e-06, 142836
-10640.9, 168052, -101.099, 2.12528, -1118.09, -0.0187991, 0.325975, 1.03299, 0.34851, 0.655882, 3, 45.5, 246, 31.0291, 0.122898, 0, 0, 1, 0, -2.25334e-06, 142836
-9057.31, 189861, -130.141, 2.26623, -1123.27, 0.00236953, 0.310485, 0.993198, 0.349787, 0.651995, 3, 91, 246, 31.0291, 0.122898, 0, 0, 1, 0, 6.40386e-06, 142836
-7615.82, 183398, -321.644, 3.47514, -915.717, 0.673971, 0.359872, 1.03299, 0.34851, 0.655882, 0.0001, 45.5, 246, 54.4994, 0.230944, 1.38813, 1, 0, 0, -4.91473e-05, 142839
-7615.82, 183398, -321.644, 3.47514, -915.717, 0.673971, 0.359872, 1.03299, 0.34851, 0.655882, 3, 45.5, 246, 54.4994, 0.230944, 1.31419, 1, 0, 0, 7.38553e-05, 142839
-3481.22, 210049, -386.562, 3.96499, -1066.53, 0.822198, 0.387613, 0.993198, 0.349787, 0.651995, 0.0001, 91, 246, 54.4994, 0.230944, 1.82898, 1, 1, 0, 3.64128e-05, 142839
-3481.22, 210049, -386.562, 3.96499, -1066.53, 0.822198, 0.387613, 0.993198, 0.349787, 0.651995, 3, 91, 246, 54.4994, 0.230944, 1.74145, 1, 1, 0, -2.07193e-05, 142839
-11430.1, 223567, -150.205, 2.04464, -1103.44, 0.31656, 0.358877, 1.03299, 0.34851, 0.655882, 3, 45.5, 246, 34.9212, 0.140138, 0, 0, 0, 0, 1.45591e-05, 142840
-12158.3, 289268, -336.867, 2.37273, -963.111, 0.085513, 0.556626, 1.03299, 0.34851, 0.655882, 0.0001, 45.5, 246, 50.3635, 0.24812, 0, 0, 0, 0, 1.58238e-05, 142843
-12158.3, 289268, -336.867, 2.37273, -963.111, 0.085513, 0.556626, 1.03299, 0.34851, 0.655882, 3, 45.5, 246, 50.3635, 0.24812, 0, 0, 0, 0, 1.36153e-06, 142843
-9411.31, 173260, -203.852, 1.67819, -680.428, 0.228562, 0.459397, 1.03299, 0.34851, 0.655882, 3, 45.5, 246, 41.6771, 0.232731, 0, 0, 1, 0, 1.90139e-05, 142848
-7894.47, 184626, -227.5, 1.805, -716.736, 0.250933, 0.446308, 0.993198, 0.349787, 0.651995, 0.0001, 91, 246, 41.6771, 0.232731, 0, 0, 1, 0, -6.97863e-07, 142848
-12072.7, 185200, -44.1366, 3.76586, -963.42, 0.430142, 0.157393, 0.993198, 0.349787, 0.651995, 0.0001, 91, 246, 17.9778, 0.038502, 0, 0, 1, 0, 4.03609e-05, 142854
-12072.7, 185200, -44.1366, 3.76586, -963.42, 0.430142, 0.157393, 0.993198, 0.349787, 0.651995, 3, 91, 246, 17.9778, 0.038502, 0, 0, 1, 0, -6.344e-05, 142854
-2282.33, 243606, -346.981, 4.42638, -1240.25, 0.442715, 0.327476, 0.958125, 0.351078, 0.648177, 0.0001, 182, 246, 43.6428, 0.170212, 1.82634, 1, 0, 0, 1.21998e-06, 142857
-2282.33, 243606, -346.981, 4.42638, -1240.25, 0.442715, 0.327476, 0.958125, 0.351078, 0.648177, 3, 182, 246, 43.6428, 0.170212, 1.65777, 1, 0, 0, 5.43174e-06, 142857
-9285.39, 460009, -295.835, 0.262225, -640.37, 0.704124, 0.505821, 1.03299, 0.34851, 0.655882, 0.0001, 45.5, 246, 30.5996, 0.150252, 0, 0, 1, 0, -5.51872e-05, 142859
-9285.39, 460009, -295.835, 0.262225, -640.37, 0.704124, 0.505821, 1.03299, 0.34851, 0.655882, 3, 45.5, 246, 30.5996, 0.150252, 0, 0, 1, 0, -7.82338e-05, 142859
-6882.6, 523112, -320.739, 0.30559, -828.995, 0.906574, 0.465088, 0.958125, 0.351078, 0.648177, 0.0001, 182, 246, 30.5996, 0.150252, 0, 0, 1, 0, -8.43751e-05, 142859
-7231.21, -4848.81, -21.1554, 2.88623, -998.773, 0.507445, 0.244038, 1.03299, 0.34851, 0.655882, 0.0001, 45.5, 246, 22.5537, 0.0574787, 0, 0, 1, 0, -1.27826e-05, 142863
-6860.2, 18687, -65.3574, 2.67903, -752.7, -0.0187428, 0.263955, 1.03299, 0.34851, 0.655882, 0.0001, 45.5, 246, 33.5424, 0.0724152, 0, 0, 1, 1, 5.76305e-06, 142869
-6860.2, 18687, -65.3574, 2.67903, -752.7, -0.0187428, 0.263955, 1.03299, 0.34851, 0.655882, 3, 45.5, 246, 33.5424, 0.0724152, 0, 0, 1, 1, 9.97199e-06, 142869
-4018.96, 309060, -469.471, 3.29624, -733.733, 0.728955, 0.557976, 0.958125, 0.351078, 0.648177, 0.0001, 182, 246, 45.8265, 0.235241, 1.8313, 1, 0, 0, -9.58478e-05, 142870
-4018.96, 309060, -469.471, 3.29624, -733.733, 0.728955, 0.557976, 0.958125, 0.351078, 0.648177, 3, 182, 246, 45.8265, 0.235241, 1.66359, 1, 0, 0, 2.06178e-06, 142870
-11135.6, 918511, -124.523, 0.288988, -793.768, 0.177666, 0.35515, 1.03299, 0.34851, 0.655882, 0.0001, 45.5, 246, 22.5997, 0.0341245, 0, 0, 1, 0, 3.85243e-05, 142872
-7454.3, -13158.2, -6.93687, 2.79096, -779.018, -0.0370124, 0.252746, 1.03299, 0.34851, 0.655882, 3, 45.5, 246, 15.195, 0.0382607, 0, 0, 1, 1, -1.62653e-06, 142875
-3819.24, 389760, -480.632, 3.73257, -1026.64, 0.0643848, 0.506827, 0.958125, 0.351078, 0.648177, 3, 182, 246, 47.1638, 0.207169, 0, 0, 0, 0, 6.02299e-06, 142881
-8309.48, 173944, -95.3662, 0.291444, -1168.57, 0.00437469, 0.395027, 1.03299, 0.34851, 0.655882, 0.0001, 45.5, 246, 28.9357, 0.140163, 0, 0, 1, 0, 2.26157e-05, 142885
-8309.48, 173944, -95.3662, 0.291444, -1168.57, 0.00437469, 0.395027, 1.03299, 0.34851, 0.655882, 3, 45.5, 246, 28.9357, 0.140163, 0, 0, 1, 0, -7.95959e-05, 142885
-11493.3, 245841, -244.434, 2.12692, -864.431, 0.176931, 0.449889, 1.03299, 0.34851, 0.655882, 0.0001, 45.5, 246, 41.9229, 0.204248, 0, 0, 0, 0, -1.44855e-05, 142890
-10591, 281766, -190.734, 1.30236, -1030.35, -0.00786557, 0.436783, 1.03299, 0.34851, 0.655882, 0.0001, 45.5, 246, 36.3971, 0.164339, 0, 0, 0, 0, -5.42333e-06, 142891
-10591, 281766, -190.734, 1.30236, -1030.35, -0.00786557, 0.436783, 1.03299, 0.34851, 0.655882, 3, 45.5, 246, 36.3971, 0.164339, 0, 0, 0, 0, 8.61597e-06, 142891
-9704.27, 336444, -217.159, 0.901447, -1100.72, 0.283435, 0.461286, 1.03299, 0.34851, 0.655882, 0.0001, 45.5, 246, 37.2113, 0.157779, 0, 0, 0, 0, -5.30464e-06, 142900
-9704.27, 336444, -217.159, 0.901447, -1100.72, 0.283435, 0.461286, 1.03299, 0.34851, 0.655882, 3, 45.5, 246, 37.2113, 0.157779, 0, 0, 0, 0, -1.03212e-05, 142900
-8086.05, 364977, -236.791, 0.958431, -1158.37, 0.300698, 0.43846, 0.993198, 0.349787, 0.651995, 3, 91, 246, 37.2113, 0.157779, 0, 0, 1, 0, 6.11363e-06, 142900
-10921.9, 430488, -55.8117, 0.485546, -823.564, 0.851797, 0.34332, 1.03299, 0.34851, 0.655882, 0.0001, 45.5, 246, 19.4443, 0.030309, 0, 0, 1, 0, -6.81485e-06, 142901
-10175.4, 465824, -61.8155, 0.527798, -952.59, 0.985585, 0.308365, 0.993198, 0.349787, 0.651995, 0.0001, 91, 246, 19.4443, 0.030309, 0, 0, 1, 0, 1.70254e-05, 142901
-9184.58, 512286, -69.0143, 0.57737, -1129.48, 1.16899, 0.278008, 0.958125, 0.351078, 0.648177, 0.0001, 182, 246, 19.4443, 0.030309, 0, 0, 1, 0, -0.000101452, 142901
-5425.21, 816616, -280.334, 0.0602476, -1042.96, 0.60823, 0.421863, 1.03299, 0.34851, 0.655882, 0.0001, 45.5, 246, 32.8065, 0.0779909, 0, 0, 0, 0, 7.45349e-05, 142904
-7863.11, 256681, -348.028, 3.90445, -967.67, 0.167104, 0.352072, 0.993198, 0.349787, 0.651995, 0.0001, 91, 246, 46.9367, 0.19805, 1.10205, 1, 1, 0, -5.20942e-06, 142912
-1850.94, 279484, -422.006, 4.35392, -1042.1, 0.248518, 0.400423, 0.958125, 0.351078, 0.648177, 3, 182, 246, 46.9367, 0.19805, 0, 0, 0, 0, 5.45802e-06, 142912
-5306.36, 386771, -492.986, 4.09035, -888.074, 0.507622, 0.47874, 0.958125, 0.351078, 0.648177, 0.0001, 182, 246, 43.2111, 0.196002, 2.91499, 1, 0, 0, 0.000111921, 142913
-5306.36, 386771, -492.986, 4.09035, -888.074, 0.507622, 0.47874, 0.958125, 0.351078, 0.648177, 3, 182, 246, 43.2111, 0.196002, 2.70109, 1, 0, 0, -0.000139925, 142913
-17470.2, 219558, 8.86447, 3.30207, -1057.67, 0.426093, 0.148314, 1.03299, 0.34851, 0.655882, 0.0001, 45.5, 246, 18.8242, 0.0265122, 0, 0, 0, 0, 5.17087e-05, 142914
-17470.2, 219558, 8.86447, 3.30207, -1057.67, 0.426093, 0.148314, 1.03299, 0.34851, 0.655882, 3, 45.5, 246, 18.8242, 0.0265122, 0, 0, 0, 0, -5.68612e-05, 142914
-8771.93, 171379, -255.003, 2.87076, -753.21, 0.137231, 0.38904, 1.03299, 0.34851, 0.655882, 0.0001, 45.5, 246, 48.05, 0.224784, 1.00137, 1, 0, 0, 8.20524e-06, 142915
-5970.48, 184298, -297.657, 3.13833, -794.377, 0.180776, 0.397384, 0.993198, 0.349787, 0.651995, 0.0001, 91, 246, 48.05, 0.224784, 1.00908, 1, 1, 0, 2.61427e-06, 142915
-2398.07, 199799, -348.602, 3.45219, -849.213, 0.23515, 0.421148, 0.958125, 0.351078, 0.648177, 0.0001, 182, 246, 48.05, 0.224784, 1.62538, 1, 0, 0, -1.31193e-06, 142915
-2398.07, 199799, -348.602, 3.45219, -849.213, 0.23515, 0.421148, 0.958125, 0.351078, 0.648177, 3, 182, 246, 48.05, 0.224784, 1.4462, 1, 0, 0, -2.84769e-06, 142915
-11341.6, 279430, -181.145, 1.33817, -816.272, 0.20799, 0.416029, 1.03299, 0.34851, 0.655882, 0.0001, 45.5, 246, 32.3575, 0.150386, 0, 0, 0, 0, 1.53282e-05, 142916
-11341.6, 279430, -181.145, 1.33817, -816.272, 0.20799, 0.416029, 1.03299, 0.34851, 0.655882, 3, 45.5, 246, 32.3575, 0.150386, 0, 0, 0, 0, -1.03543e-05, 142916
-10479.5, 504925, -162.773, 0.579299, -951.844, -0.00153544, 0.388153, 1.03299, 0.34851, 0.655882, 0.0001, 45.5, 246, 28.2002, 0.0835431, 0, 0, 0, 0, 1.74679e-05, 142917
-10479.5, 504925, -162.773, 0.579299, -951.844, -0.00153544, 0.388153, 1.03299, 0.34851, 0.655882, 3, 45.5, 246, 28.2002, 0.0835431, 0, 0, 0, 0, 3.7667e-05, 142917
-5817.69, 656702, -104.985, 3.04204, -1147.8, 0.317891, 0.225104, 0.9175, 0.352806, 0.64323, 3, 455, 246, 21.872, 0.0159891, 0, 0, 0, 0, 6.83236e-05, 142922
-2411.53, 252081, -399.204, 3.22262, -902.23, 0.0420082, 0.507545, 0.958125, 0.351078, 0.648177, 0.0001, 182, 246, 50.2764, 0.245955, 1.79172, 1, 0, 0, -1.99755e-05, 142927
-2411.53, 252081, -399.204, 3.22262, -902.23, 0.0420082, 0.507545, 0.958125, 0.351078, 0.648177, 3, 182, 246, 50.2764, 0.245955, 1.60403, 1, 0, 0, 3.02901e-07, 142927
-9027.08, 124067, -38.6066, 0.630778, -1188.14, 0.0421423, 0.351056, 1.03299, 0.34851, 0.655882, 0.0001, 45.5, 246, 20.5251, 0.075278, 0, 0, 1, 0, -2.02038e-06, 142929
-9027.08, 124067, -38.6066, 0.630778, -1188.14, 0.0421423, 0.351056, 1.03299, 0.34851, 0.655882, 3, 45.5, 246, 20.5251, 0.075278, 0, 0, 1, 0, 8.4498e-07, 142929
-9726.04, 363259, -270.639, 3.27221, -665.526, 0.0539476, 0.308046, 0.958125, 0.351078, 0.648177, 0.0001, 182, 246, 28.9846, 0.121489, 0, 0, 0, 0, 1.50634e-06, 142932
-9726.04, 363259, -270.639, 3.27221, -665.526, 0.0539476, 0.308046, 0.958125, 0.351078, 0.648177, 3, 182, 246, 28.9846, 0.121489, 0, 0, 0, 0, -1.53547e-05, 142932
-9683.29, 112135, -97.5987, 3.59266, -1131.92, -0.0622225, 0.186873, 1.03299, 0.34851, 0.655882, 0.0001, 45.5, 246, 33.0956, 0.113424, 0, 0, 0, 0, 1.78678e-05, 142933
-9683.29, 112135, -97.5987, 3.59266, -1131.92, -0.0622225, 0.186873, 1.03299, 0.34851, 0.655882, 3, 45.5, 246, 33.0956, 0.113424, 0, 0, 0, 0, 2.97411e-06, 142933
-7724.46, 134182, -145.683, 3.91941, -1138.17, -0.000200337, 0.204314, 0.993198, 0.349787, 0.651995, 0.0001, 91, 246, 33.0956, 0.113424, 0, 0, 1, 0, 3.58794e-06, 142933
-7724.46, 134182, -145.683, 3.91941, -1138.17, -0.000200337, 0.204314, 0.993198, 0.349787, 0.651995, 3, 91, 246, 33.0956, 0.113424, 0, 0, 1, 0, -3.08936e-06, 142933
421.236, 193821, -302, 4.98855, -1237.99, 0.203138, 0.332512, 0.9175, 0.352806, 0.64323, 0.0001, 455, 246, 33.0956, 0.113424, 1.71073, 1, 0, 0, 5.30685e-06, 142933
421.236, 193821, -302, 4.98855, -1237.99, 0.203138, 0.332512, 0.9175, 0.352806, 0.64323, 3, 455, 246, 33.0956, 0.113424, 1.77118, 1, 0, 0, -7.77819e-06, 142933
-11073.6, 91531.6, 24.2581, 2.92606, -968.665, 0.0506049, 0.210978, 1.03299, 0.34851, 0.655882, 0.0001, 45.5, 246, 11.7638, 0.0225712, 0, 0, 1, 0, -6.64472e-06, 142954
-11073.6, 91531.6, 24.2581, 2.92606, -968.665, 0.0506049, 0.210978, 1.03299, 0.34851, 0.655882, 3, 45.5, 246, 11.7638, 0.0225712, 0, 0, 1, 0, 1.05859e-06, 142954
-8576.52, 40385.2, -18.7133, 3.24499, -899.46, 0.053334, 0.198224, 1.03299, 0.34851, 0.655882, 0.0001, 45.5, 246, 18.6402, 0.0578019, 1.18909, 1, 1, 0, -1.64361e-05, 142955
-8576.52, 40385.2, -18.7133, 3.24499, -899.46, 0.053334, 0.198224, 1.03299, 0.34851, 0.655882, 3, 45.5, 246, 18.6402, 0.0578019, 1.12081, 1, 1, 0, 3.62082e-06, 142955
-9288.86, 489886, -314.078, 0.300096, -722.045, 0.0550561, 0.537389, 1.03299, 0.34851, 0.655882, 0.0001, 45.5, 246, 33.9734, 0.167911, 0, 0, 0, 0, -1.40632e-05, 142956
-9288.86, 489886, -314.078, 0.300096, -722.045, 0.0550561, 0.537389, 1.03299, 0.34851, 0.655882, 3, 45.5, 246, 33.9734, 0.167911, 0, 0, 0, 0, -4.69903e-05, 142956
-7991.42, 502366, -327.914, 0.312327, -731.006, 0.0559545, 0.517948, 0.993198, 0.349787, 0.651995, 3, 91, 246, 33.9734, 0.167911, 0, 0, 1, 0, 7.48082e-06, 142956
-11567.7, 141772, -49.8592, 2.67582, -996.681, 0.131136, 0.248516, 1.03299, 0.34851, 0.655882, 0.0001, 45.5, 246, 23.3212, 0.0740781, 0, 0, 1, 0, -8.92217e-06, 142958
-11567.7, 141772, -49.8592, 2.67582, -996.681, 0.131136, 0.248516, 1.03299, 0.34851, 0.655882, 3, 45.5, 246, 23.3212, 0.0740781, 0, 0, 1, 0, 1.36759e-06, 142958
-11362.1, 203749, -201.335, 3.35349, -1183.31, -0.052521, 0.290632, 1.03299, 0.34851, 0.655882, 0.0001, 45.5, 246, 43.1377, 0.169978, 0, 0, 0, 0, -7.46834e-06, 142963
-11362.1, 203749, -201.335, 3.35349, -1183.31, -0.052521, 0.290632, 1.03299, 0.34851, 0.655882, 3, 45.5, 246, 43.1377, 0.169978, 0, 0, 0, 0, 5.76097e-06, 142963
-7827.12, 228650, -257.823, 3.65334, -1199.5, 0.00141038, 0.306375, 0.993198, 0.349787, 0.651995, 0.0001, 91, 246, 43.1377, 0.169978, 0, 0, 1, 0, -6.56648e-06, 142963
-7827.12, 228650, -257.823, 3.65334, -1199.5, 0.00141038, 0.306375, 0.993198, 0.349787, 0.651995, 3, 91, 246, 43.1377, 0.169978, 0, 0, 1, 0, 1.51504e-05, 142963
-3149.87, 256129, -325.288, 4.01051, -1235.12, 0.0659439, 0.340841, 0.958125, 0.351078, 0.648177, 0.0001, 182, 246, 43.1377, 0.169978, 1.0066, 1, 0, 0, -1.22063e-06, 142963
-10765.6, 102372, -13.2277, 2.63837, -882.884, -0.0132565, 0.24336, 1.03299, 0.34851, 0.655882, 0.0001, 45.5, 246, 16.3097, 0.0468486, 0, 0, 1, 0, 6.99405e-06, 142966
-10765.6, 102372, -13.2277, 2.63837, -882.884, -0.0132565, 0.24336, 1.03299, 0.34851, 0.655882, 3, 45.5, 246, 16.3097, 0.0468486, 0, 0, 1, 0, -7.25239e-06, 142966
-9408.4, 372377, -250.783, 0.711368, -1010.5, -0.00218032, 0.501051, 1.03299, 0.34851, 0.655882, 0.0001, 45.5, 246, 38.0744, 0.174613, 0, 0, 0, 0, -4.70341e-05, 142967
-9408.4, 372377, -250.783, 0.711368, -1010.5, -0.00218032, 0.501051, 1.03299, 0.34851, 0.655882, 3, 45.5, 246, 38.0744, 0.174613, 0, 0, 0, 0, -5.36818e-05, 142967
-8867.69, 110231, -102.254, 1.88513, -1094.65, -0.0163605, 0.356473, 1.03299, 0.34851, 0.655882, 3, 45.5, 246, 34.4774, 0.166503, 0, 0, 1, 0, -8.69197e-06, 142971
-5533.56, 105242, -218.092, 3.1307, -694.137, 0.0186139, 0.306543, 1.03299, 0.34851, 0.655882, 0.0001, 45.5, 246, 51.0285, 0.208071, 1.3451, 1, 1, 0, 1.05519e-05, 142977
-5533.56, 105242, -218.092, 3.1307, -694.137, 0.0186139, 0.306543, 1.03299, 0.34851, 0.655882, 3, 45.5, 246, 51.0285, 0.208071, 1.19441, 1, 1, 0, 7.26531e-06, 142977
-3578.21, 114962, -258.136, 3.41005, -719.243, 0.0657889, 0.316256, 0.993198, 0.349787, 0.651995, 0.0001, 91, 246, 51.0285, 0.208071, 1.43975, 1, 1, 0, 4.05659e-06, 142977
-3578.21, 114962, -258.136, 3.41005, -719.243, 0.0657889, 0.316256, 0.993198, 0.349787, 0.651995, 3, 91, 246, 51.0285, 0.208071, 1.30241, 1, 1, 0, -7.75335e-06, 142977
-1051.38, 126335, -305.78, 3.73918, -756.629, 0.123188, 0.34279, 0.958125, 0.351078, 0.648177, 0.0001, 182, 246, 51.0285, 0.208071, 1.8891, 1, 1, 0, 4.05695e-06, 142977
-1051.38, 126335, -305.78, 3.73918, -756.629, 0.123188, 0.34279, 0.958125, 0.351078, 0.648177, 3, 182, 246, 51.0285, 0.208071, 1.75844, 1, 1, 0, 6.08857e-06, 142977
3506.72, 145368, -385.41, 4.28502, -832.87, 0.222359, 0.408257, 0.9175, 0.352806, 0.64323, 0.0001, 455, 246, 51.0285, 0.208071, 0, 0, 0, 0, -1.92649e-06, 142977
3506.72, 145368, -385.41, 4.28502, -832.87, 0.222359, 0.408257, 0.9175, 0.352806, 0.64323, 3, 455, 246, 51.0285, 0.208071, 0, 0, 0, 0, 3.09066e-06, 142977
-8736.16, 55182, -42.7678, 1.67922, -755.592, 0.150384, 0.321701, 1.03299, 0.34851, 0.655882, 0.0001, 45.5, 246, 22.4508, 0.102866, 0, 0, 1, 0, 1.43363e-05, 142980
-8736.16, 55182, -42.7678, 1.67922, -755.592, 0.150384, 0.321701, 1.03299, 0.34851, 0.655882, 3, 45.5, 246, 22.4508, 0.102866, 0, 0, 1, 0, -7.59529e-06, 142980
-1236.76, 83693.3, -271.235, 4.94028, -864.704, 0.430973, 0.324813, 0.9175, 0.352806, 0.64323, 0.0001, 455, 246, 38.772, 0.0983985, 1.33536, 1, 1, 0, -3.28378e-06, 142982
-1236.76, 83693.3, -271.235, 4.94028, -864.704, 0.430973, 0.324813, 0.9175, 0.352806, 0.64323, 3, 455, 246, 38.772, 0.0983985, 1.27551, 1, 1, 0, -8.1231e-06, 142982
-8249.77, 74944.8, -67.1723, 2.41382, -1052.05, 0.0138647, 0.279018, 0.993198, 0.349787, 0.651995, 0.0001, 91, 246, 24.4569, 0.0984377, 0, 0, 1, 0, 8.63838e-06, 142984
-8686.13, 62195.3, -41.6763, 1.13614, -1181.32, 0.00330682, 0.315602, 0.993198, 0.349787, 0.651995, 0.0001, 91, 246, 21.3696, 0.127579, 0, 0, 1, 1, -1.12872e-05, 142988
-8686.13, 62195.3, -41.6763, 1.13614, -1181.32, 0.00330682, 0.315602, 0.993198, 0.349787, 0.651995, 3, 91, 246, 21.3696, 0.127579, 0, 0, 1, 1, -1.36144e-05, 142988
