-3640.43, 112777, -229.941, 3.16345, -1158.11, 0.00304032, 0.35171, 0.993198, 0.349787, 0.651995, 0.0001, 91, 246, 54.1908, 0.244033, 1.23658, 1, 1, 0, 3.92508e-06, 72504
-1307.65, 138025, -285.269, 3.44313, -1185.35, 0.0509973, 0.372313, 0.958125, 0.351078, 0.648177, 0.0001, 182, 246, 54.1908, 0.244033, 1.87297, 1, 1, 0, -1.92776e-06, 72504
-1307.65, 138025, -285.269, 3.44313, -1185.35, 0.0509973, 0.372313, 0.958125, 0.351078, 0.648177, 3, 182, 246, 54.1908, 0.244033, 1.70784, 1, 0, 0, -6.71899e-06, 72504
-9463.36, 203850, -210.1, 1.81803, -1143.9, 0.0743279, 0.468257, 1.03299, 0.34851, 0.655882, 0.0001, 45.5, 246, 44.6645, 0.22431, 0, 0, 0, 0, -1.26349e-05, 72507
-9463.36, 203850, -210.1, 1.81803, -1143.9, 0.0743279, 0.468257, 1.03299, 0.34851, 0.655882, 3, 45.5, 246, 44.6645, 0.22431, 0, 0, 0, 0, -3.90918e-06, 72507
-9541.4, 98187, -66.5496, 2.5523, -1040.74, -0.0261232, 0.277947, 1.03299, 0.34851, 0.655882, 0.0001, 45.5, 246, 27.5659, 0.105587, 0, 0, 1, 0, -1.90844e-06, 72508
-9541.4, 98187, -66.5496, 2.5523, -1040.74, -0.0261232, 0.277947, 1.03299, 0.34851, 0.655882, 3, 45.5, 246, 27.5659, 0.105587, 0, 0, 1, 0, -3.48187e-06, 72508
-9670.9, 790226, -370.542, 0.133877, -606.634, 0.0403751, 0.506928, 1.03299, 0.34851, 0.655882, 0.0001, 45.5, 246, 28.2632, 0.121261, 0, 0, 0, 0, 7.05942e-05, 72516
-9670.9, 790226, -370.542, 0.133877, -606.634, 0.0403751, 0.506928, 1.03299, 0.34851, 0.655882, 3, 45.5, 246, 28.2632, 0.121261, 0, 0, 0, 0, 0.000173948, 72516
-9638.95, 81788.3, -2.3819, 1.4709, -1068.09, 0.0818814, 0.316054, 1.03299, 0.34851, 0.655882, 0.0001, 45.5, 246, 13.9815, 0.0396651, 0, 0, 1, 0, 2.21967e-05, 72518
-9638.95, 81788.3, -2.3819, 1.4709, -1068.09, 0.0818814, 0.316054, 1.03299, 0.34851, 0.655882, 3, 45.5, 246, 13.9815, 0.0396651, 0, 0, 1, 0, 2.19111e-06, 72518
-10605.2, 194876, -193.971, 2.92857, -1166.87, -0.0201542, 0.337597, 1.03299, 0.34851, 0.655882, 0.0001, 45.5, 246, 42.7453, 0.17845, 0, 0, 0, 0, -8.59706e-06, 72529
-10605.2, 194876, -193.971, 2.92857, -1166.87, -0.0201542, 0.337597, 1.03299, 0.34851, 0.655882, 3, 45.5, 246, 42.7453, 0.17845, 0, 0, 0, 0, -1.40223e-05, 72529
-7661.17, 219444, -242.884, 3.17311, -1184.34, 0.0206698, 0.343275, 0.993198, 0.349787, 0.651995, 0.0001, 91, 246, 42.7453, 0.17845, 0, 0, 1, 0, -3.58149e-06, 72529
-7661.17, 219444, -242.884, 3.17311, -1184.34, 0.0206698, 0.343275, 0.993198, 0.349787, 0.651995, 3, 91, 246, 42.7453, 0.17845, 0, 0, 1, 0, -1.13714e-05, 72529
-10582.9, 418419, -121.038, 0.734607, -1167.17, -0.00227136, 0.368923, 1.03299, 0.34851, 0.655882, 0.0001, 45.5, 246, 29.2853, 0.0747926, 0, 0, 0, 0, -3.14193e-06, 72530
-10582.9, 418419, -121.038, 0.734607, -1167.17, -0.00227136, 0.368923, 1.03299, 0.34851, 0.655882, 3, 45.5, 246, 29.2853, 0.0747926, 0, 0, 0, 0, -1.41478e-05, 72530
-9293.16, 442513, -133.847, 0.764707, -1169.49, 0.000196252, 0.337249, 0.993198, 0.349787, 0.651995, 3, 91, 246, 29.2853, 0.0747926, 0, 0, 1, 0, -0.000134318, 72530
-10619.2, 296786, -78.4195, 1.21316, -840.951, 0.282295, 0.306025, 0.993198, 0.349787, 0.651995, 3, 91, 246, 20.3183, 0.0594592, 0, 0, 1, 0, 4.77755e-05, 72533
-9111.92, 314443, -91.7574, 1.28944, -883.563, 0.302668, 0.281221, 0.958125, 0.351078, 0.648177, 0.0001, 182, 246, 20.3183, 0.0594592, 0, 0, 1, 0, 5.43175e-05, 72533
-7957.36, 507292, -360.884, 0.432439, -1132.59, 0.0164451, 0.593865, 1.03299, 0.34851, 0.655882, 0.0001, 45.5, 246, 43.3689, 0.1871, 0, 0, 0, 0, -2.38626e-06, 72540
-7957.36, 507292, -360.884, 0.432439, -1132.59, 0.0164451, 0.593865, 1.03299, 0.34851, 0.655882, 3, 45.5, 246, 43.3689, 0.1871, 0, 0, 0, 0, 1.55149e-05, 72540
-8652.84, 136432, -173.535, 3.5815, -1128.71, 0.136351, 0.234601, 1.03299, 0.34851, 0.655882, 3, 45.5, 246, 42.8406, 0.16205, 0, 0, 0, 0, -4.04805e-06, 72542
-2286.58, 190398, -299.723, 4.41131, -1255.33, 0.289161, 0.299059, 0.958125, 0.351078, 0.648177, 0.0001, 182, 246, 42.8406, 0.16205, 1.45941, 1, 0, 0, 7.65936e-06, 72542
-2286.58, 190398, -299.723, 4.41131, -1255.33, 0.289161, 0.299059, 0.958125, 0.351078, 0.648177, 3, 182, 246, 42.8406, 0.16205, 1.2619, 1, 0, 0, 1.83336e-05, 72542
-8003.52, 978.389, -18.1389, 2.86592, -976.448, 0.000246127, 0.256388, 0.993198, 0.349787, 0.651995, 3, 91, 246, 12.3843, 0.054478, 0, 0, 1, 1, 3.1223e-06, 72548
-9541.71, 198239, -276.652, 3.46509, -982.399, -0.0305038, 0.346887, 1.03299, 0.34851, 0.655882, 0.0001, 45.5, 246, 50.4171, 0.216709, 1.03206, 1, 0, 0, -2.04032e-05, 72564
-5628.16, 216771, -336.097, 3.794, -1011.24, 0.0272544, 0.37077, 0.993198, 0.349787, 0.651995, 0.0001, 91, 246, 50.4171, 0.216709, 1.27011, 1, 1, 0, -1.87561e-06, 72564
-5628.16, 216771, -336.097, 3.794, -1011.24, 0.0272544, 0.37077, 0.993198, 0.349787, 0.651995, 3, 91, 246, 50.4171, 0.216709, 1.1348, 1, 1, 0, 3.98674e-06, 72564
-9873.41, 65700.8, -5.47521, 3.29064, -725.057, 0.658097, 0.16913, 1.03299, 0.34851, 0.655882, 0.0001, 45.5, 246, 13.8456, 0.0365207, 0, 0, 0, 0, -1.86357e-05, 72566
-9873.41, 65700.8, -5.47521, 3.29064, -725.057, 0.658097, 0.16913, 1.03299, 0.34851, 0.655882, 3, 45.5, 246, 13.8456, 0.0365207, 0, 0, 0, 0, 4.77764e-05, 72566
-8979.46, 78212.1, -30.5121, 3.71655, -814.458, 0.794561, 0.177227, 0.993198, 0.349787, 0.651995, 0.0001, 91, 246, 13.8456, 0.0365207, 0, 0, 1, 0, 6.65768e-06, 72566
-8979.46, 78212.1, -30.5121, 3.71655, -814.458, 0.794561, 0.177227, 0.993198, 0.349787, 0.651995, 3, 91, 246, 13.8456, 0.0365207, 0, 0, 1, 0, -8.06292e-07, 72566
-7625.53, 95146.3, -65.3735, 4.26397, -942.049, 0.988494, 0.209241, 0.958125, 0.351078, 0.648177, 0.0001, 182, 246, 13.8456, 0.0365207, 0, 0, 1, 0, 1.30716e-05, 72566
-7625.53, 95146.3, -65.3735, 4.26397, -942.049, 0.988494, 0.209241, 0.958125, 0.351078, 0.648177, 3, 182, 246, 13.8456, 0.0365207, 0, 0, 1, 0, -8.23189e-05, 72566
-11480.9, 155190, 5.19542, 1.71501, -896.33, 0.11901, 0.29723, 1.03299, 0.34851, 0.655882, 0.0001, 45.5, 246, 13.0759, 0.0191319, 0, 0, 1, 0, -2.1429e-06, 72572
-11480.9, 155190, 5.19542, 1.71501, -896.33, 0.11901, 0.29723, 1.03299, 0.34851, 0.655882, 3, 45.5, 246, 13.0759, 0.0191319, 0, 0, 1, 0, 4.26704e-06, 72572
-10494.2, 170323, -8.96864, 1.82654, -914.579, 0.13532, 0.272104, 0.993198, 0.349787, 0.651995, 0.0001, 91, 246, 13.0759, 0.0191319, 0, 0, 1, 0, -4.29893e-06, 72572
1060.1, 279382, -409.063, 3.35071, -890.061, 0.965157, 0.483977, 0.9175, 0.352806, 0.64323, 0.0001, 455, 246, 40.8703, 0.210072, 0, 0, 0, 0, 0.000166257, 72574
-11069.8, 456234, -63.4767, 0.529262, -1009.9, 0.803651, 0.344289, 1.03299, 0.34851, 0.655882, 0.0001, 45.5, 246, 23.2805, 0.0329739, 0, 0, 1, 0, 2.8388e-05, 72577
-11069.8, 456234, -63.4767, 0.529262, -1009.9, 0.803651, 0.344289, 1.03299, 0.34851, 0.655882, 3, 45.5, 246, 23.2805, 0.0329739, 0, 0, 1, 0, -5.75288e-05, 72577
-10157.3, 498350, -71.1306, 0.574115, -1157.98, 0.922087, 0.30962, 0.993198, 0.349787, 0.651995, 3, 91, 246, 23.2805, 0.0329739, 0, 0, 1, 0, -7.92802e-06, 72577
-9990.68, 72639.5, 7.31953, 2.32538, -1130.22, 0.153698, 0.26836, 1.03299, 0.34851, 0.655882, 0.0001, 45.5, 246, 14.8782, 0.0411189, 0, 0, 1, 0, -1.49732e-05, 72578
-6094.66, 158650, -94.1278, 3.03457, -1272.01, 0.280995, 0.259881, 0.9175, 0.352806, 0.64323, 3, 455, 246, 14.8782, 0.0411189, 0, 0, 1, 0, 1.47296e-05, 72578
-3148.07, 280170, -407.472, 3.69595, -990.141, 1.09429, 0.442978, 0.958125, 0.351078, 0.648177, 0.0001, 182, 246, 44.2428, 0.204938, 1.68464, 1, 0, 0, -5.5802e-05, 72579
-3148.07, 280170, -407.472, 3.69595, -990.141, 1.09429, 0.442978, 0.958125, 0.351078, 0.648177, 3, 182, 246, 44.2428, 0.204938, 1.5095, 1, 0, 0, 3.47664e-05, 72579
-7814.44, 786038, -214.889, 0.146488, -868.401, 0.728252, 0.38987, 1.03299, 0.34851, 0.655882, 0.0001, 45.5, 246, 27.0037, 0.0609228, 0, 0, 1, 0, 0.00012422, 72580
-7814.44, 786038, -214.889, 0.146488, -868.401, 0.728252, 0.38987, 1.03299, 0.34851, 0.655882, 3, 45.5, 246, 27.0037, 0.0609228, 0, 0, 1, 0, 0.000137235, 72580
-7060.13, 834853, -222.739, 0.157269, -982.269, 0.82307, 0.357346, 0.993198, 0.349787, 0.651995, 0.0001, 91, 246, 27.0037, 0.0609228, 0, 0, 1, 0, 6.00587e-05, 72580
-9159.33, 573918, -268.016, 0.468649, -1024.64, -0.000722038, 0.461271, 1.03299, 0.34851, 0.655882, 0.0001, 45.5, 246, 34.7817, 0.121176, 0, 0, 0, 0, 2.14173e-05, 72588
-9159.33, 573918, -268.016, 0.468649, -1024.64, -0.000722038, 0.461271, 1.03299, 0.34851, 0.655882, 3, 45.5, 246, 34.7817, 0.121176, 0, 0, 0, 0, -2.81317e-05, 72588
-8773.48, 156863, -77.5093, 1.07137, -1192.59, 0.969612, 0.325848, 0.993198, 0.349787, 0.651995, 0.0001, 91, 246, 24.7875, 0.105886, 0, 0, 1, 0, -5.27538e-06, 72597
-8773.48, 156863, -77.5093, 1.07137, -1192.59, 0.969612, 0.325848, 0.993198, 0.349787, 0.651995, 3, 91, 246, 24.7875, 0.105886, 0, 0, 1, 0, 6.51505e-05, 72597
-6725.45, 119200, -232.567, 3.5845, -598.971, 0.298072, 0.229841, 1.03299, 0.34851, 0.655882, 0.0001, 45.5, 246, 46.0178, 0.172266, 1.36286, 1, 0, 0, 4.31706e-05, 72598
-6725.45, 119200, -232.567, 3.5845, -598.971, 0.298072, 0.229841, 1.03299, 0.34851, 0.655882, 3, 45.5, 246, 46.0178, 0.172266, 1.26378, 1, 0, 0, -1.07628e-05, 72598
-4233.54, 129071, -276.363, 3.99404, -657.686, 0.378926, 0.250929, 0.993198, 0.349787, 0.651995, 0.0001, 91, 246, 46.0178, 0.172266, 1.43751, 1, 1, 0, 1.85345e-05, 72598
-4233.54, 129071, -276.363, 3.99404, -657.686, 0.378926, 0.250929, 0.993198, 0.349787, 0.651995, 3, 91, 246, 46.0178, 0.172266, 1.31165, 1, 1, 0, -2.19225e-05, 72598
-968.557, 142077, -331.863, 4.50391, -739.011, 0.487303, 0.296875, 0.958125, 0.351078, 0.648177, 0.0001, 182, 246, 46.0178, 0.172266, 1.92378, 1, 1, 1, 219.784, 72598
-968.557, 142077, -331.863, 4.50391, -739.011, 0.487303, 0.296875, 0.958125, 0.351078, 0.648177, 3, 182, 246, 46.0178, 0.172266, 1.79517, 1, 1, 0, 2.61449e-05, 72598
-3562.14, 181630, -302.752, 3.16273, -792.201, 0.138512, 0.396595, 0.958125, 0.351078, 0.648177, 0.0001, 182, 246, 45.3498, 0.215447, 1.00913, 1, 1, 0, -2.3471e-05, 72599
-11615.6, 506836, -4.36853, 0.406473, -628.791, 0.382396, 0.337733, 1.03299, 0.34851, 0.655882, 0.0001, 45.5, 246, 12.9402, 0.00381584, 0, 0, 1, 0, 0.000135845, 72600
-11615.6, 506836, -4.36853, 0.406473, -628.791, 0.382396, 0.337733, 1.03299, 0.34851, 0.655882, 3, 45.5, 246, 12.9402, 0.00381584, 0, 0, 1, 0, 7.65596e-05, 72600
-10965.6, 524869, -6.93587, 0.429157, -669.335, 0.407805, 0.302005, 0.993198, 0.349787, 0.651995, 0.0001, 91, 246, 12.9402, 0.00381584, 0, 0, 1, 0, 0.000220276, 72600
-7453.91, 149900, -258.895, 3.28798, -693.664, -0.0519456, 0.33161, 1.03299, 0.34851, 0.655882, 0.0001, 45.5, 246, 49.97, 0.217566, 1.28462, 1, 1, 0, 5.46819e-06, 72601
-7453.91, 149900, -258.895, 3.28798, -693.664, -0.0519456, 0.33161, 1.03299, 0.34851, 0.655882, 3, 45.5, 246, 49.97, 0.217566, 1.18102, 1, 0, 0, -1.84076e-05, 72601
-4593.14, 159410, -304.545, 3.58149, -716.135, -9.94365e-05, 0.348123, 0.993198, 0.349787, 0.651995, 0.0001, 91, 246, 49.97, 0.217566, 1.47396, 1, 1, 0, -2.48332e-06, 72601
-4593.14, 159410, -304.545, 3.58149, -716.135, -9.94365e-05, 0.348123, 0.993198, 0.349787, 0.651995, 3, 91, 246, 49.97, 0.217566, 1.34732, 1, 1, 0, 4.82042e-06, 72601
-986.3, 170847, -358.931, 3.93018, -752.35, 0.0618774, 0.382913, 0.958125, 0.351078, 0.648177, 0.0001, 182, 246, 49.97, 0.217566, 2.23793, 1, 0, 0, -8.02957e-06, 72601
-986.3, 170847, -358.931, 3.93018, -752.35, 0.0618774, 0.382913, 0.958125, 0.351078, 0.648177, 3, 182, 246, 49.97, 0.217566, 2.08838, 1, 0, 0, 8.00212e-06, 72601
-10551.5, 923436, -68.7324, 0.229923, -1012.13, -0.000210035, 0.344801, 1.03299, 0.34851, 0.655882, 0.0001, 45.5, 246, 25.4444, 0.0195088, 0, 0, 1, 0, 2.85559e-06, 72602
-10551.5, 923436, -68.7324, 0.229923, -1012.13, -0.000210035, 0.344801, 1.03299, 0.34851, 0.655882, 3, 45.5, 246, 25.4444, 0.0195088, 0, 0, 1, 0, 8.3732e-05, 72602
-9820.57, 941471, -72.9648, 0.237033, -1012.55, 2.93365e-05, 0.309038, 0.993198, 0.349787, 0.651995, 3, 91, 246, 25.4444, 0.0195088, 0, 0, 1, 0, -1.04156e-05, 72602
-9898.99, 225966, -79.6921, 1.27411, -840.242, 0.826273, 0.309084, 0.993198, 0.349787, 0.651995, 0.0001, 91, 246, 20.3104, 0.0721599, 0, 0, 1, 0, -2.33167e-05, 72619
-12438.1, 277447, -20.4692, 1.22334, -1145, 0.225354, 0.320704, 1.03299, 0.34851, 0.655882, 0.0001, 45.5, 246, 20.8286, 0.029614, 0, 0, 1, 0, 3.75919e-05, 72622
-12438.1, 277447, -20.4692, 1.22334, -1145, 0.225354, 0.320704, 1.03299, 0.34851, 0.655882, 3, 45.5, 246, 20.8286, 0.029614, 0, 0, 1, 0, 3.76547e-05, 72622
-11125.6, 304664, -34.6977, 1.29926, -1188.86, 0.240915, 0.290195, 0.993198, 0.349787, 0.651995, 3, 91, 246, 20.8286, 0.029614, 0, 0, 1, 0, 6.17352e-06, 72622
-8728.53, 451490, -368.933, 0.399343, -965.208, 0.066831, 0.640197, 1.03299, 0.34851, 0.655882, 0.0001, 45.5, 246, 43.3356, 0.216912, 0, 0, 0, 0, 1.26599e-05, 72625
-8728.53, 451490, -368.933, 0.399343, -965.208, 0.066831, 0.640197, 1.03299, 0.34851, 0.655882, 3, 45.5, 246, 43.3356, 0.216912, 0, 0, 0, 0, -3.47605e-05, 72625
-15151.8, 207637, 19.7116, 2.65909, -1158.71, 0.00677752, 0.225427, 1.03299, 0.34851, 0.655882, 0.0001, 45.5, 246, 17.6058, 0.0197527, 0, 0, 0, 0, -7.76226e-06, 72627
-15151.8, 207637, 19.7116, 2.65909, -1158.71, 0.00677752, 0.225427, 1.03299, 0.34851, 0.655882, 3, 45.5, 246, 17.6058, 0.0197527, 0, 0, 0, 0, 3.74713e-07, 72627
-9975.06, 368485, -290.302, 0.917742, -1045.18, 0.130552, 0.549836, 1.03299, 0.34851, 0.655882, 0.0001, 45.5, 246, 42.0119, 0.199683, 0, 0, 0, 0, -2.64875e-05, 72632
-9975.06, 368485, -290.302, 0.917742, -1045.18, 0.130552, 0.549836, 1.03299, 0.34851, 0.655882, 3, 45.5, 246, 42.0119, 0.199683, 0, 0, 0, 0, 5.13329e-06, 72632
-10825.8, 454506, -327.288, 3.26722, -732.854, 0.0446619, 0.342953, 0.958125, 0.351078, 0.648177, 0.0001, 182, 246, 31.3145, 0.127737, 0, 0, 0, 0, -1.04558e-05, 72634
-10825.8, 454506, -327.288, 3.26722, -732.854, 0.0446619, 0.342953, 0.958125, 0.351078, 0.648177, 3, 182, 246, 31.3145, 0.127737, 0, 0, 0, 0, 7.91997e-05, 72634
-7405.37, 352975, -280.005, 0.886461, -1196.99, 0.366599, 0.510494, 0.993198, 0.349787, 0.651995, 3, 91, 246, 41.8567, 0.19882, 0, 0, 1, 0, -2.22624e-05, 72638
-9259.03, 41857.5, 13.7945, 2.46031, -1094.77, 0.0853957, 0.262276, 1.03299, 0.34851, 0.655882, 0.0001, 45.5, 246, 12.4969, 0.0411058, 1.20434, 1, 1, 0, -7.91757e-06, 72642
-6556.69, 117535, -86.6901, 3.19979, -1188.02, 0.211895, 0.265452, 0.9175, 0.352806, 0.64323, 3, 455, 246, 12.4969, 0.0411058, 0, 0, 1, 0, 7.37896e-07, 72642
-7646.36, -10880.3, 8.88411, 3.01239, -1190.65, -0.0429994, 0.236282, 1.03299, 0.34851, 0.655882, 0.0001, 45.5, 246, 14.9119, 0.0633626, 0, 0, 1, 0, -5.66295e-06, 72650
-10364.9, 124940, -66.84, 2.24519, -796.748, -0.0231061, 0.291569, 1.03299, 0.34851, 0.655882, 0.0001, 45.5, 246, 23.7375, 0.0936526, 0, 0, 1, 0, 1.51993e-05, 72651
-10364.9, 124940, -66.84, 2.24519, -796.748, -0.0231061, 0.291569, 1.03299, 0.34851, 0.655882, 3, 45.5, 246, 23.7375, 0.0936526, 0, 0, 1, 0, 1.35601e-05, 72651
-11283.6, 287512, -60.6047, 0.8917, -609.176, -0.000897079, 0.341506, 1.03299, 0.34851, 0.655882, 0.0001, 45.5, 246, 16.5586, 0.0544964, 0, 0, 1, 0, -1.84708e-06, 72659
-11283.6, 287512, -60.6047, 0.8917, -609.176, -0.000897079, 0.341506, 1.03299, 0.34851, 0.655882, 3, 45.5, 246, 16.5586, 0.0544964, 0, 0, 1, 0, 1.57725e-05, 72659
-9677.65, 266267, -107.077, 0.904752, -653.514, 0.0409531, 0.333642, 0.993198, 0.349787, 0.651995, 0.0001, 91, 246, 21.5882, 0.0935608, 0, 0, 1, 0, -2.26037e-06, 72661
-10793.5, 573229, -177.227, 0.522578, -926.317, 0.785786, 0.383475, 1.03299, 0.34851, 0.655882, 0.0001, 45.5, 246, 27.6666, 0.0698239, 0, 0, 0, 0, -7.45828e-06, 72664
-9861.96, 233440, -260.603, 1.65158, -1001.25, 0.518447, 0.528602, 1.03299, 0.34851, 0.655882, 3, 45.5, 246, 46.3397, 0.241339, 0, 0, 0, 0, 0.00134729, 72667
-10422.4, 672679, -81.4678, 0.324672, -973.615, 0.0333038, 0.348888, 1.03299, 0.34851, 0.655882, 0.0001, 45.5, 246, 24.0732, 0.031588, 0, 0, 1, 0, 9.39925e-07, 72685
-10422.4, 672679, -81.4678, 0.324672, -973.615, 0.0333038, 0.348888, 1.03299, 0.34851, 0.655882, 3, 45.5, 246, 24.0732, 0.031588, 0, 0, 1, 0, -9.92785e-06, 72685
-9637.57, 690697, -87.0174, 0.335916, -979.538, 0.0339615, 0.313669, 0.993198, 0.349787, 0.651995, 0.0001, 91, 246, 24.0732, 0.031588, 0, 0, 1, 0, -8.15752e-06, 72685
-8736.69, 709000, -92.6317, 0.346681, -985.672, 0.034659, 0.282805, 0.958125, 0.351078, 0.648177, 0.0001, 182, 246, 24.0732, 0.031588, 0, 0, 1, 0, -1.60858e-06, 72685
-5808.69, -69461.1, 17.3975, 3.56658, -937.681, -0.0592906, 0.209064, 1.03299, 0.34851, 0.655882, 0.0001, 45.5, 246, 9.94357, 0.039964, 2.57628, 1, 1, 0, -1.61155e-05, 72691
-5808.69, -69461.1, 17.3975, 3.56658, -937.681, -0.0592906, 0.209064, 1.03299, 0.34851, 0.655882, 3, 45.5, 246, 9.94357, 0.039964, 2.4571, 1, 1, 0, 3.50628e-06, 72691
-8241.65, 442109, -285.395, 0.539991, -1169.24, 0.0526857, 0.518779, 1.03299, 0.34851, 0.655882, 0.0001, 45.5, 246, 40.5307, 0.166705, 0, 0, 0, 0, 3.11277e-05, 72694
-8241.65, 442109, -285.395, 0.539991, -1169.24, 0.0526857, 0.518779, 1.03299, 0.34851, 0.655882, 3, 45.5, 246, 40.5307, 0.166705, 0, 0, 0, 0, 5.84833e-05, 72694
-10908.6, 254500, -130.474, 1.36674, -1050.16, 0.134913, 0.375769, 1.03299, 0.34851, 0.655882, 0.0001, 45.5, 246, 30.8844, 0.120975, 0, 0, 1, 0, -6.36903e-07, 72699
-10908.6, 254500, -130.474, 1.36674, -1050.16, 0.134913, 0.375769, 1.03299, 0.34851, 0.655882, 3, 45.5, 246, 30.8844, 0.120975, 0, 0, 1, 0, -1.21715e-05, 72699
-9372.18, 276453, -150.946, 1.45047, -1079.04, 0.146751, 0.35108, 0.993198, 0.349787, 0.651995, 3, 91, 246, 30.8844, 0.120975, 0, 0, 1, 0, -8.82959e-06, 72699
-10932.6, 265920, -119.811, 1.258, -1078.21, 0.291547, 0.368331, 1.03299, 0.34851, 0.655882, 0.0001, 45.5, 246, 29.6777, 0.106434, 0, 0, 1, 0, 2.15087e-05, 72703
-10932.6, 265920, -119.811, 1.258, -1078.21, 0.291547, 0.368331, 1.03299, 0.34851, 0.655882, 3, 45.5, 246, 29.6777, 0.106434, 0, 0, 1, 0, -2.14516e-05, 72703
-9472.19, 291909, -138.89, 1.34363, -1135.48, 0.313411, 0.341746, 0.993198, 0.349787, 0.651995, 3, 91, 246, 29.6777, 0.106434, 0, 0, 1, 0, 2.09673e-06, 72703
-11157.3, 100241, 4.16631, 2.98543, -1029.45, -0.030753, 0.209671, 1.03299, 0.34851, 0.655882, 0.0001, 45.5, 246, 15.9507, 0.039398, 0, 0, 1, 0, 1.66331e-05, 72704
-11157.3, 100241, 4.16631, 2.98543, -1029.45, -0.030753, 0.209671, 1.03299, 0.34851, 0.655882, 3, 45.5, 246, 15.9507, 0.039398, 0, 0, 1, 0, -8.67386e-06, 72704
-7954.87, -1441.43, -15.6554, 3.0121, -1189.1, 0.00274023, 0.254097, 0.993198, 0.349787, 0.651995, 0.0001, 91, 246, 12.0512, 0.0645964, 0, 0, 1, 1, 6.30334e-06, 72705
-7954.87, -1441.43, -15.6554, 3.0121, -1189.1, 0.00274023, 0.254097, 0.993198, 0.349787, 0.651995, 3, 91, 246, 12.0512, 0.0645964, 0, 0, 1, 1, 5.46724e-06, 72705
-7317.59, 56784, -107.915, 3.65276, -1225.94, 0.116459, 0.297163, 0.9175, 0.352806, 0.64323, 3, 455, 246, 12.0512, 0.0645964, 0, 0, 1, 1, 6.92789e-06, 72705
-10820.1, 696189, -39.0044, 0.288241, -1038.15, 0.0020031, 0.341624, 1.03299, 0.34851, 0.655882, 0.0001, 45.5, 246, 23.5209, 0.0153658, 0, 0, 1, 0, -8.57236e-05, 72707
-10820.1, 696189, -39.0044, 0.288241, -1038.15, 0.0020031, 0.341624, 1.03299, 0.34851, 0.655882, 3, 45.5, 246, 23.5209, 0.0153658, 0, 0, 1, 0, 0.000139418, 72707
-10174.3, 715181, -42.9611, 0.297476, -1038.82, 0.00238046, 0.305773, 0.993198, 0.349787, 0.651995, 0.0001, 91, 246, 23.5209, 0.0153658, 0, 0, 1, 0, 9.33855e-05, 72707
-14058.1, 263129, -349.72, 3.29698, -593.874, -0.0520174, 0.421497, 1.03299, 0.34851, 0.655882, 0.0001, 45.5, 246, 47.1092, 0.225956, 1.02893, 1, 0, 0, 6.80111e-06, 72712
-9125.81, 271030, -401.759, 3.60106, -625.395, 0.000253648, 0.445557, 0.993198, 0.349787, 0.651995, 0.0001, 91, 246, 47.1092, 0.225956, 1.31251, 1, 1, 0, 6.31231e-06, 72712
-9125.81, 271030, -401.759, 3.60106, -625.395, 0.000253648, 0.445557, 0.993198, 0.349787, 0.651995, 3, 91, 246, 47.1092, 0.225956, 1.20697, 1, 1, 0, 1.69096e-06, 72712
-3081.87, 281706, -464.059, 3.96424, -671.576, 0.0631159, 0.488894, 0.958125, 0.351078, 0.648177, 0.0001, 182, 246, 47.1092, 0.225956, 2.99094, 1, 0, 0, -3.87636e-06, 72712
-3081.87, 281706, -464.059, 3.96424, -671.576, 0.0631159, 0.488894, 0.958125, 0.351078, 0.648177, 3, 182, 246, 47.1092, 0.225956, 2.77249, 1, 0, 0, 4.54159e-06, 72712
-11191.3, 272199, -9.99602, 0.800371, -753.95, 0.0812262, 0.331661, 1.03299, 0.34851, 0.655882, 0.0001, 45.5, 246, 13.4967, 0.0155272, 0, 0, 1, 0, -2.49785e-06, 72718
-931.488, 626822, -499.68, 0.713942, -831.996, 0.00984595, 0.624926, 0.9175, 0.352806, 0.64323, 3, 455, 246, 39.5263, 0.190761, 0, 0, 0, 0, -3.25856e-05, 72721
-8214.41, 268321, -406.337, 3.32339, -683.308, 0.000746578, 0.499598, 0.993198, 0.349787, 0.651995, 0.0001, 91, 246, 49.6125, 0.243766, 1.27966, 1, 1, 0, -3.63838e-06, 72725
-8214.41, 268321, -406.337, 3.32339, -683.308, 0.000746578, 0.499598, 0.993198, 0.349787, 0.651995, 3, 91, 246, 49.6125, 0.243766, 1.16134, 1, 1, 0, -1.61494e-05, 72725
-2518.09, 280410, -467.352, 3.64363, -726.272, 0.0540541, 0.537748, 0.958125, 0.351078, 0.648177, 0.0001, 182, 246, 49.6125, 0.243766, 3.29551, 1, 0, 0, 4.00453e-06, 72725
-2518.09, 280410, -467.352, 3.64363, -726.272, 0.0540541, 0.537748, 0.958125, 0.351078, 0.648177, 3, 182, 246, 49.6125, 0.243766, 3.03645, 1, 0, 0, 1.12788e-05, 72725
-11053.6, 443675, -334.036, 0.571068, -667.036, -0.00149982, 0.58346, 1.03299, 0.34851, 0.655882, 0.0001, 45.5, 246, 36.5022, 0.197395, 0, 0, 0, 0, 6.58351e-05, 72726
-11053.6, 443675, -334.036, 0.571068, -667.036, -0.00149982, 0.58346, 1.03299, 0.34851, 0.655882, 3, 45.5, 246, 36.5022, 0.197395, 0, 0, 0, 0, -2.91924e-05, 72726
-7083.47, 463723, -370.878, 0.621512, -678.115, 0.0016234, 0.560528, 0.958125, 0.351078, 0.648177, 3, 182, 246, 36.5022, 0.197395, 0, 0, 0, 0, -1.27316e-05, 72726
-9959.77, 187088, -48.7895, 1.73964, -1158.22, 0.305145, 0.285985, 0.993198, 0.349787, 0.651995, 0.0001, 91, 246, 20.5918, 0.0549297, 0, 0, 1, 0, 2.08027e-05, 72730
-11604.6, 186693, -126.235, 2.64065, -1057.38, -0.0174995, 0.297455, 1.03299, 0.34851, 0.655882, 0.0001, 45.5, 246, 33.2294, 0.128643, 0, 0, 0, 0, -2.31201e-06, 72733
-11604.6, 186693, -126.235, 2.64065, -1057.38, -0.0174995, 0.297455, 1.03299, 0.34851, 0.655882, 3, 45.5, 246, 33.2294, 0.128643, 0, 0, 0, 0, -1.56969e-06, 72733
-9327, 206333, -162.364, 2.84212, -1067.54, 0.0154705, 0.292161, 0.993198, 0.349787, 0.651995, 0.0001, 91, 246, 33.2294, 0.128643, 0, 0, 1, 0, 7.37261e-06, 72733
-9327, 206333, -162.364, 2.84212, -1067.54, 0.0154705, 0.292161, 0.993198, 0.349787, 0.651995, 3, 91, 246, 33.2294, 0.128643, 0, 0, 1, 0, 8.79635e-06, 72733
-8532.45, 214575, -161.852, 1.75345, -1186.95, 0.529068, 0.362394, 0.993198, 0.349787, 0.651995, 0.0001, 91, 246, 34.4548, 0.152362, 0, 0, 1, 0, -6.50562e-06, 72736
-6591.03, 248908, -192.001, 1.91266, -1305.68, 0.593421, 0.349543, 0.958125, 0.351078, 0.648177, 0.0001, 182, 246, 34.4548, 0.152362, 0, 0, 1, 0, -9.00027e-06, 72736
-5867.6, 570110, -457.679, 0.059793, -1115.85, 0.415286, 0.682019, 1.03299, 0.34851, 0.655882, 3, 45.5, 246, 45.6553, 0.201327, 0, 0, 0, 0, 1280.69, 72743
1394.68, 730084, -516.302, 0.0728494, -1430.13, 0.531135, 0.683924, 0.9175, 0.352806, 0.64323, 0.0001, 455, 246, 45.6553, 0.201327, 3.11777, 1, 0, 0, -1125.57, 72743
1394.68, 730084, -516.302, 0.0728494, -1430.13, 0.531135, 0.683924, 0.9175, 0.352806, 0.64323, 3, 455, 246, 45.6553, 0.201327, 2.99654, 1, 0, 0, 1118.33, 72743
-7670.73, 46952.6, -65.0968, 3.64614, -679.343, 0.631639, 0.194766, 0.993198, 0.349787, 0.651995, 0.0001, 91, 246, 19.7675, 0.0518905, 0, 0, 1, 0, -1.61957e-05, 72744
-7670.73, 46952.6, -65.0968, 3.64614, -679.343, 0.631639, 0.194766, 0.993198, 0.349787, 0.651995, 3, 91, 246, 19.7675, 0.0518905, 0, 0, 1, 0, -8.83035e-06, 72744
-6881.24, 57628.2, -96.891, 4.13724, -767.421, 0.775451, 0.224314, 0.958125, 0.351078, 0.648177, 0.0001, 182, 246, 19.7675, 0.0518905, 0, 0, 1, 0, 7.9092e-08, 72744
-6881.24, 57628.2, -96.891, 4.13724, -767.421, 0.775451, 0.224314, 0.958125, 0.351078, 0.648177, 3, 182, 246, 19.7675, 0.0518905, 0, 0, 1, 0, 9.01908e-05, 72744
-5077.41, 78500.1, -158.866, 5.03727, -950.009, 1.07072, 0.308667, 0.9175, 0.352806, 0.64323, 0.0001, 455, 246, 19.7675, 0.0518905, 0, 0, 1, 0, 1.38175e-05, 72744
-5077.41, 78500.1, -158.866, 5.03727, -950.009, 1.07072, 0.308667, 0.9175, 0.352806, 0.64323, 3, 455, 246, 19.7675, 0.0518905, 0, 0, 1, 0, -5.10802e-05, 72744
-10518.8, 254649, -300.629, 2.04292, -1035.2, 0.457783, 0.545271, 1.03299, 0.34851, 0.655882, 0.0001, 45.5, 246, 49.4189, 0.246828, 0, 0, 0, 0, -7.75271e-05, 72747
-10518.8, 254649, -300.629, 2.04292, -1035.2, 0.457783, 0.545271, 1.03299, 0.34851, 0.655882, 3, 45.5, 246, 49.4189, 0.246828, 0, 0, 0, 0, 5.1795e-05, 72747
-11365.2, 239010, -366.086, 3.52449, -797.922, 0.345508, 0.407261, 1.03299, 0.34851, 0.655882, 0.0001, 45.5, 246, 52.7505, 0.234967, 1.19003, 1, 0, 0, 2.09558e-05, 72748
-11365.2, 239010, -366.086, 3.52449, -797.922, 0.345508, 0.407261, 1.03299, 0.34851, 0.655882, 3, 45.5, 246, 52.7505, 0.234967, 1.11771, 1, 0, 0, -4.22262e-06, 72748
-6161.01, 258693, -431.196, 3.95283, -888.408, 0.430308, 0.439521, 0.993198, 0.349787, 0.651995, 0.0001, 91, 246, 52.7505, 0.234967, 1.6985, 1, 1, 0, 8.36358e-06, 72748
-6161.01, 258693, -431.196, 3.95283, -888.408, 0.430308, 0.439521, 0.993198, 0.349787, 0.651995, 3, 91, 246, 52.7505, 0.234967, 1.6226, 1, 1, 0, -4.25168e-06, 72748
-11565.3, 361402, -41.0166, 0.727868, -933.411, 0.479002, 0.337312, 1.03299, 0.34851, 0.655882, 0.0001, 45.5, 246, 19.9642, 0.0306047, 0, 0, 1, 0, 7.34932e-05, 72752
-11565.3, 361402, -41.0166, 0.727868, -933.411, 0.479002, 0.337312, 1.03299, 0.34851, 0.655882, 3, 45.5, 246, 19.9642, 0.0306047, 0, 0, 1, 0, 6.74345e-05, 72752
-10602.3, 387706, -49.2049, 0.777294, -1010.98, 0.520917, 0.303332, 0.993198, 0.349787, 0.651995, 0.0001, 91, 246, 19.9642, 0.0306047, 0, 0, 1, 0, -1.85681e-05, 72752
-9391.12, 418766, -58.6784, 0.830586, -1103.11, 0.570734, 0.274194, 0.958125, 0.351078, 0.648177, 0.0001, 182, 246, 19.9642, 0.0306047, 0, 0, 1, 0, 3.16876e-05, 72752
-9635.22, 453890, -362.095, 0.686112, -1052.69, 0.371662, 0.606808, 1.03299, 0.34851, 0.655882, 3, 45.5, 246, 43.4438, 0.198787, 0, 0, 0, 0, -2.0891e-05, 72753
-7976.49, 94487.1, -124.799, 1.94215, -1070.24, 0.16694, 0.380825, 1.03299, 0.34851, 0.655882, 0.0001, 45.5, 246, 41.5248, 0.219966, 0, 0, 1, 0, -1.41283e-05, 72758
-7976.49, 94487.1, -124.799, 1.94215, -1070.24, 0.16694, 0.380825, 1.03299, 0.34851, 0.655882, 3, 45.5, 246, 41.5248, 0.219966, 0, 0, 1, 0, -1.28945e-05, 72758
-11428.3, 158505, -48.3055, 2.05511, -852.52, 0.175805, 0.291366, 1.03299, 0.34851, 0.655882, 0.0001, 45.5, 246, 20.573, 0.0681006, 0, 0, 1, 0, 2.01265e-05, 72766
-7598.8, 467221, -489.851, 4.13351, -930.193, 0.301372, 0.435923, 0.958125, 0.351078, 0.648177, 3, 182, 246, 40.9806, 0.173194, 1.14408, 1, 0, 0, -7.56842e-05, 72767
-11796.2, 285234, -27.7098, 0.938658, -854.872, 0.753614, 0.329508, 1.03299, 0.34851, 0.655882, 0.0001, 45.5, 246, 17.4909, 0.027713, 0, 0, 1, 0, -3.84961e-05, 72768
-11796.2, 285234, -27.7098, 0.938658, -854.872, 0.753614, 0.329508, 1.03299, 0.34851, 0.655882, 3, 45.5, 246, 17.4909, 0.027713, 0, 0, 1, 0, 5.83088e-05, 72768
-10798.4, 312292, -36.9372, 1.02252, -971.663, 0.860284, 0.296758, 0.993198, 0.349787, 0.651995, 0.0001, 91, 246, 17.4909, 0.027713, 0, 0, 1, 0, -7.64913e-06, 72768
-9473.52, 347440, -48.5545, 1.11991, -1126.3, 1.00147, 0.269459, 0.958125, 0.351078, 0.648177, 0.0001, 182, 246, 17.4909, 0.027713, 0, 0, 1, 0, -2.30921e-05, 72768
-11653.1, 352972, -121.18, 0.876046, -667.587, 0.264121, 0.367395, 1.03299, 0.34851, 0.655882, 0.0001, 45.5, 246, 22.1557, 0.0837578, 0, 0, 1, 0, 2.5571e-05, 72771
-11653.1, 352972, -121.18, 0.876046, -667.587, 0.264121, 0.367395, 1.03299, 0.34851, 0.655882, 3, 45.5, 246, 22.1557, 0.0837578, 0, 0, 1, 0, 3.72488e-05, 72771
-8891.34, 381308, -143.696, 0.981327, -736.032, 0.296433, 0.311018, 0.958125, 0.351078, 0.648177, 3, 182, 246, 22.1557, 0.0837578, 0, 0, 1, 0, -1.79019e-05, 72771
-11681.6, 264378, -265.289, 2.48556, -1119.49, -0.0120407, 0.454904, 1.03299, 0.34851, 0.655882, 0.0001, 45.5, 246, 46.5522, 0.211027, 0, 0, 0, 0, -7.39927e-06, 72772
-11681.6, 264378, -265.289, 2.48556, -1119.49, -0.0120407, 0.454904, 1.03299, 0.34851, 0.655882, 3, 45.5, 246, 46.5522, 0.211027, 0, 0, 0, 0, 1.06476e-05, 72772
-10425.1, 168381, -146.618, 1.96144, -624.711, 0.140124, 0.360745, 1.03299, 0.34851, 0.655882, 0.0001, 45.5, 246, 31.8382, 0.157732, 0, 0, 1, 0, 7.23645e-06, 72783
-10425.1, 168381, -146.618, 1.96144, -624.711, 0.140124, 0.360745, 1.03299, 0.34851, 0.655882, 3, 45.5, 246, 31.8382, 0.157732, 0, 0, 1, 0, -6.69848e-06, 72783
-6944.9, -19295.8, 11.0203, 3.48011, -1061.58, -0.0548536, 0.190841, 1.03299, 0.34851, 0.655882, 0.0001, 45.5, 246, 14.0299, 0.0553147, 0, 0, 1, 0, -1.08464e-05, 72784
-6944.9, -19295.8, 11.0203, 3.48011, -1061.58, -0.0548536, 0.190841, 1.03299, 0.34851, 0.655882, 3, 45.5, 246, 14.0299, 0.0553147, 0, 0, 1, 0, -9.56816e-06, 72784
-8410.45, 124632, -150.173, 2.25436, -1027.32, 0.0268633, 0.371199, 1.03299, 0.34851, 0.655882, 0.0001, 45.5, 246, 41.5421, 0.201089, 0, 0, 1, 0, -2.33846e-06, 72789
-8410.45, 124632, -150.173, 2.25436, -1027.32, 0.0268633, 0.371199, 1.03299, 0.34851, 0.655882, 3, 45.5, 246, 41.5421, 0.201089, 0, 0, 1, 0, -5.76138e-06, 72789
-9853.56, 78448.2, -15.9986, 2.47447, -1027.38, -0.0225383, 0.263547, 1.03299, 0.34851, 0.655882, 0.0001, 45.5, 246, 18.2816, 0.0595949, 0, 0, 1, 0, -1.1856e-06, 72793
-9853.56, 78448.2, -15.9986, 2.47447, -1027.38, -0.0225383, 0.263547, 1.03299, 0.34851, 0.655882, 3, 45.5, 246, 18.2816, 0.0595949, 0, 0, 1, 0, 7.14524e-06, 72793
-5854.13, 140657, -115.152, 3.15394, -1059.45, 0.0926432, 0.265888, 0.9175, 0.352806, 0.64323, 3, 455, 246, 18.2816, 0.0595949, 0, 0, 1, 0, -6.77697e-07, 72793
-2954.95, 94707, -240.958, 5.02162, -1291.28, 0.276336, 0.335944, 0.9175, 0.352806, 0.64323, 0.0001, 455, 246, 30.5358, 0.0776618, 1.04831, 1, 1, 0, -4.47573e-06, 72797
-2954.95, 94707, -240.958, 5.02162, -1291.28, 0.276336, 0.335944, 0.9175, 0.352806, 0.64323, 3, 455, 246, 30.5358, 0.0776618, 1.03291, 1, 1, 0, 4.86058e-06, 72797
-6485.77, -834.874, -41.9004, 3.37059, -923.204, -0.0287893, 0.204411, 1.03299, 0.34851, 0.655882, 0.0001, 45.5, 246, 27.6692, 0.0473311, 0, 0, 1, 1, 1.05017e-05, 72798
-6485.77, -834.874, -41.9004, 3.37059, -923.204, -0.0287893, 0.204411, 1.03299, 0.34851, 0.655882, 3, 45.5, 246, 27.6692, 0.0473311, 0, 0, 1, 1, -3.57621e-06, 72798
-9181.72, 222771, -149.309, 1.40344, -851.175, 0.679963, 0.357534, 0.993198, 0.349787, 0.651995, 0.0001, 91, 246, 29.0187, 0.13686, 0, 0, 1, 0, -7.26811e-05, 72806
-8910.61, 352084, -133.872, 0.664255, -966.163, 0.113043, 0.348375, 0.993198, 0.349787, 0.651995, 0.0001, 91, 246, 26.8173, 0.0932646, 0, 0, 1, 0, 2.6558e-05, 72807
-10777.1, 140551, -119.388, 3.5695, -1007.78, 0.0772203, 0.187673, 1.03299, 0.34851, 0.655882, 0.0001, 45.5, 246, 33.4216, 0.116448, 0, 0, 0, 0, -7.82349e-06, 72811
-10777.1, 140551, -119.388, 3.5695, -1007.78, 0.0772203, 0.187673, 1.03299, 0.34851, 0.655882, 3, 45.5, 246, 33.4216, 0.116448, 0, 0, 0, 0, -8.03696e-06, 72811
1112.65, 216849, -321.877, 5.09457, -1203.81, 0.366965, 0.337738, 0.9175, 0.352806, 0.64323, 0.0001, 455, 246, 33.4216, 0.116448, 2.2172, 1, 0, 0, -5.54325e-06, 72811
1112.65, 216849, -321.877, 5.09457, -1203.81, 0.366965, 0.337738, 0.9175, 0.352806, 0.64323, 3, 455, 246, 33.4216, 0.116448, 2.37942, 1, 0, 0, 6.44231e-06, 72811
-10461.8, 746632, -119.257, 0.274205, -676.367, 0.0827657, 0.35782, 1.03299, 0.34851, 0.655882, 0.0001, 45.5, 246, 19.8282, 0.0408714, 0, 0, 1, 0, -3.42232e-05, 72818
-10461.8, 746632, -119.257, 0.274205, -676.367, 0.0827657, 0.35782, 1.03299, 0.34851, 0.655882, 3, 45.5, 246, 19.8282, 0.0408714, 0, 0, 1, 0, -0.000101083, 72818
-9678.17, 758302, -124.785, 0.284262, -686.252, 0.0842094, 0.323115, 0.993198, 0.349787, 0.651995, 3, 91, 246, 19.8282, 0.0408714, 0, 0, 1, 0, 3.34502e-05, 72818
-2627.59, 236449, -364.262, 4.49612, -1042.4, 1.00293, 0.330861, 0.958125, 0.351078, 0.648177, 0.0001, 182, 246, 41.9535, 0.170209, 1.85612, 1, 0, 0, -3.12914e-05, 72819
-2627.59, 236449, -364.262, 4.49612, -1042.4, 1.00293, 0.330861, 0.958125, 0.351078, 0.648177, 3, 182, 246, 41.9535, 0.170209, 1.69675, 1, 0, 0, -1.39057e-05, 72819
766.334, 290375, -417.307, 2.77569, -789.547, 0.0677717, 0.529611, 0.9175, 0.352806, 0.64323, 3, 455, 246, 44.0686, 0.230163, 0, 0, 0, 0, 1.39059e-06, 72820
-8276.92, 604383, -372.192, 0.0876588, -719.041, 0.128939, 0.560386, 1.03299, 0.34851, 0.655882, 0.0001, 45.5, 246, 33.7969, 0.159007, 0, 0, 0, 0, 2.06996e-06, 72824
-8276.92, 604383, -372.192, 0.0876588, -719.041, 0.128939, 0.560386, 1.03299, 0.34851, 0.655882, 3, 45.5, 246, 33.7969, 0.159007, 0, 0, 0, 0, 5.87017e-05, 72824
-7023.39, 620372, -385.587, 0.0913011, -734.9, 0.131657, 0.542775, 0.993198, 0.349787, 0.651995, 3, 91, 246, 33.7969, 0.159007, 0, 0, 1, 0, 1600, 72824
-10359.1, 322665, -115.641, 0.896542, -1174.54, 0.0394565, 0.37152, 1.03299, 0.34851, 0.655882, 0.0001, 45.5, 246, 29.4686, 0.0905243, 0, 0, 1, 0, 5.65081e-06, 72825
-9141.35, 347944, -130.458, 0.938206, -1185.23, 0.0434221, 0.341313, 0.993198, 0.349787, 0.651995, 0.0001, 91, 246, 29.4686, 0.0905243, 0, 0, 1, 0, 3.69785e-05, 72825
-9141.35, 347944, -130.458, 0.938206, -1185.23, 0.0434221, 0.341313, 0.993198, 0.349787, 0.651995, 3, 91, 246, 29.4686, 0.0905243, 0, 0, 1, 0, 8.73875e-06, 72825
-10054.6, 219245, -176.661, 2.69299, -795.655, 0.26491, 0.302475, 0.993198, 0.349787, 0.651995, 0.0001, 91, 246, 30.8038, 0.129952, 0, 0, 1, 0, -2.30858e-06, 72827
-10054.6, 219245, -176.661, 2.69299, -795.655, 0.26491, 0.302475, 0.993198, 0.349787, 0.651995, 3, 91, 246, 30.8038, 0.129952, 0, 0, 1, 0, 7.26778e-07, 72827
-5764.74, 226760, -72.5545, 3.39979, -1041.54, 1.07244, 0.25159, 0.9175, 0.352806, 0.64323, 3, 455, 246, 11.5569, 0.0182129, 0, 0, 1, 0, -3.02709e-05, 72833
-9788.31, 496532, -73.0376, 0.901463, -1028.02, 0.00683848, 0.274811, 0.958125, 0.351078, 0.648177, 3, 182, 246, 22.6914, 0.0331046, 0, 0, 1, 0, -1.64719e-05, 72836
-8344.8, 935087, -293.708, 0.152267, -798.243, 0.538732, 0.41971, 1.03299, 0.34851, 0.655882, 0.0001, 45.5, 246, 27.688, 0.0727764, 0, 0, 0, 0, -2.42363e-05, 72841
-8344.8, 935087, -293.708, 0.152267, -798.243, 0.538732, 0.41971, 1.03299, 0.34851, 0.655882, 3, 45.5, 246, 27.688, 0.0727764, 0, 0, 0, 0, 6.89028e-05, 72841
-7496.28, 114432, -168.681, 2.41903, -997.238, 0.00970728, 0.377391, 1.03299, 0.34851, 0.655882, 0.0001, 45.5, 246, 46.2801, 0.225641, 0, 0, 1, 0, -2.71421e-06, 72844
-7496.28, 114432, -168.681, 2.41903, -997.238, 0.00970728, 0.377391, 1.03299, 0.34851, 0.655882, 3, 45.5, 246, 46.2801, 0.225641, 0, 0, 1, 0, -1.11785e-05, 72844
-346.369, 180953, -309.212, 3.1262, -1087.51, 0.12287, 0.403242, 0.9175, 0.352806, 0.64323, 0.0001, 455, 246, 46.2801, 0.225641, 1.93755, 1, 0, 0, -1.0222e-05, 72844
-346.369, 180953, -309.212, 3.1262, -1087.51, 0.12287, 0.403242, 0.9175, 0.352806, 0.64323, 3, 455, 246, 46.2801, 0.225641, 2.00208, 1, 0, 0, 5.22795e-06, 72844
-9214.57, 372802, -96.7109, 1.39406, -1079.13, 0.0968222, 0.27763, 0.958125, 0.351078, 0.648177, 3, 182, 246, 23.6723, 0.0537054, 0, 0, 1, 0, 1.73388e-05, 72845
-10003.8, 511129, -330.017, 0.24076, -559.877, 0.542747, 0.529723, 1.03299, 0.34851, 0.655882, 0.0001, 45.5, 246, 29.9528, 0.154494, 0, 0, 0, 0, 3.21571e-05, 72853
-10003.8, 511129, -330.017, 0.24076, -559.877, 0.542747, 0.529723, 1.03299, 0.34851, 0.655882, 3, 45.5, 246, 29.9528, 0.154494, 0, 0, 0, 0, 0.00010402, 72853
-8732.78, 534753, -343.351, 0.257109, -614.721, 0.59396, 0.509408, 0.993198, 0.349787, 0.651995, 3, 91, 246, 29.9528, 0.154494, 0, 0, 1, 0, -5.45244e-05, 72853
-7766.25, -13374.2, -13.4063, 2.20285, -829.087, 0.50154, 0.29311, 1.03299, 0.34851, 0.655882, 3, 45.5, 246, 19.5439, 0.0221511, 0, 0, 1, 0, -2.06054e-05, 72857
-11910.9, 332114, -14.1423, 0.807083, -708.696, 0.0115506, 0.331244, 1.03299, 0.34851, 0.655882, 0.0001, 45.5, 246, 13.7216, 0.0157088, 0, 0, 1, 0, 2.43045e-06, 72859
-11910.9, 332114, -14.1423, 0.807083, -708.696, 0.0115506, 0.331244, 1.03299, 0.34851, 0.655882, 3, 45.5, 246, 13.7216, 0.0157088, 0, 0, 1, 0, 2.841e-05, 72859
-10989.4, 341024, -19.9638, 0.841014, -710.527, 0.0145589, 0.297344, 0.993198, 0.349787, 0.651995, 0.0001, 91, 246, 13.7216, 0.0157088, 0, 0, 1, 0, 3.85303e-05, 72859
-9731.24, 332022, -319.336, 1.02821, -1106.03, 0.0353914, 0.627592, 1.03299, 0.34851, 0.655882, 0.0001, 45.5, 246, 47.8482, 0.248347, 0, 0, 0, 0, 1.30485e-05, 72860
-9731.24, 332022, -319.336, 1.02821, -1106.03, 0.0353914, 0.627592, 1.03299, 0.34851, 0.655882, 3, 45.5, 246, 47.8482, 0.248347, 0, 0, 0, 0, -1.98795e-05, 72860
-11026.1, 349936, -487.403, 3.88845, -796.664, 0.0087956, 0.516441, 0.993198, 0.349787, 0.651995, 0.0001, 91, 246, 50.7429, 0.235443, 1.4677, 1, 1, 0, -2.58612e-06, 72868
-11026.1, 349936, -487.403, 3.88845, -796.664, 0.0087956, 0.516441, 0.993198, 0.349787, 0.651995, 3, 91, 246, 50.7429, 0.235443, 1.40919, 1, 1, 0, 1.94422e-05, 72868
-7967.67, 738951, -336.722, 0.132788, -784.323, 0.638848, 0.471477, 1.03299, 0.34851, 0.655882, 0.0001, 45.5, 246, 30.1156, 0.104891, 0, 0, 0, 0, -1.04169e-05, 72872
-7967.67, 738951, -336.722, 0.132788, -784.323, 0.638848, 0.471477, 1.03299, 0.34851, 0.655882, 3, 45.5, 246, 30.1156, 0.104891, 0, 0, 0, 0, 2.40599e-05, 72872
-8181.7, 116822, -53.4024, 4.30237, -732.324, 0.390456, 0.191033, 0.958125, 0.351078, 0.648177, 0.0001, 182, 246, 12.179, 0.0287239, 0, 0, 1, 0, -1.22634e-06, 72876
-8181.7, 116822, -53.4024, 4.30237, -732.324, 0.390456, 0.191033, 0.958125, 0.351078, 0.648177, 3, 182, 246, 12.179, 0.0287239, 0, 0, 1, 0, 1.32068e-05, 72876
-4887.72, 134254, -106.002, 5.0889, -821.442, 0.5643, 0.279298, 0.9175, 0.352806, 0.64323, 0.0001, 455, 246, 12.179, 0.0287239, 0, 0, 1, 0, -3.43449e-05, 72876
-4887.72, 134254, -106.002, 5.0889, -821.442, 0.5643, 0.279298, 0.9175, 0.352806, 0.64323, 3, 455, 246, 12.179, 0.0287239, 0, 0, 1, 0, -5.67096e-05, 72876
-8564.08, 24135.7, -23.4049, 0.954702, -633.587, 0.196249, 0.341466, 1.03299, 0.34851, 0.655882, 3, 45.5, 246, 20.1181, 0.135058, 0, 0, 1, 1, -9.15756e-06, 72880
-5538.1, 126820, -264.648, 2.92763, -659.724, 0.375277, 0.374183, 1.03299, 0.34851, 0.655882, 0.0001, 45.5, 246, 54.4192, 0.241555, 1.45576, 1, 1, 0, -2.94269e-05, 72883
-5538.1, 126820, -264.648, 2.92763, -659.724, 0.375277, 0.374183, 1.03299, 0.34851, 0.655882, 3, 45.5, 246, 54.4192, 0.241555, 1.3647, 1, 1, 0, -1.23636e-05, 72883
-3147.62, 139287, -306.725, 3.24624, -727.56, 0.443364, 0.383601, 0.993198, 0.349787, 0.651995, 0.0001, 91, 246, 54.4192, 0.241555, 1.65926, 1, 1, 0, 1.18108e-05, 72883
-3147.62, 139287, -306.725, 3.24624, -727.56, 0.443364, 0.383601, 0.993198, 0.349787, 0.651995, 3, 91, 246, 54.4192, 0.241555, 1.54665, 1, 1, 0, 4.23846e-05, 72883
-7.15084, 155315, -358.7, 3.63158, -816.813, 0.532533, 0.410643, 0.958125, 0.351078, 0.648177, 0.0001, 182, 246, 54.4192, 0.241555, 2.59545, 1, 1, 1, 217.638, 72883
-7.15084, 155315, -358.7, 3.63158, -816.813, 0.532533, 0.410643, 0.958125, 0.351078, 0.648177, 3, 182, 246, 54.4192, 0.241555, 2.44067, 1, 1, 1, 217.29, 72883
-7893.92, 92043.1, -127.984, 2.31152, -754.071, 0.0142329, 0.331998, 1.03299, 0.34851, 0.655882, 0.0001, 45.5, 246, 38.6566, 0.177929, 0, 0, 1, 0, 7.82145e-06, 72885
-7893.92, 92043.1, -127.984, 2.31152, -754.071, 0.0142329, 0.331998, 1.03299, 0.34851, 0.655882, 3, 45.5, 246, 38.6566, 0.177929, 0, 0, 1, 0, 1.11217e-05, 72885
-1143.69, 127567, -292.266, 5.64491, -1661.78, 1.4458, 0.353741, 0.9175, 0.352806, 0.64323, 0.0001, 455, 246, 34.0767, 0.0791045, 1.99892, 1, 0, 0, 8.59432e-06, 72888
-1143.69, 127567, -292.266, 5.64491, -1661.78, 1.4458, 0.353741, 0.9175, 0.352806, 0.64323, 3, 455, 246, 34.0767, 0.0791045, 1.9996, 1, 0, 0, -2.0581e-05, 72888
-6980.52, 684687, -90.5914, 2.62174, -1087.73, 0.0638631, 0.225861, 0.9175, 0.352806, 0.64323, 3, 455, 246, 23.1635, 0.0140919, 0, 0, 0, 0, 8.39034e-06, 72894
-5127.38, 69275.4, -159.398, 3.00451, -930.428, 0.444477, 0.276952, 1.03299, 0.34851, 0.655882, 0.0001, 45.5, 246, 49.0281, 0.179865, 1.14165, 1, 1, 0, 5.37541e-06, 72898
-3865.25, 88230.5, -200.971, 3.34098, -1019.82, 0.525541, 0.281739, 0.993198, 0.349787, 0.651995, 0.0001, 91, 246, 49.0281, 0.179865, 1.20581, 1, 1, 0, 2.39788e-05, 72898
-1930.24, 112359, -253.878, 3.75227, -1139.23, 0.633293, 0.304998, 0.958125, 0.351078, 0.648177, 0.0001, 182, 246, 49.0281, 0.179865, 1.59981, 1, 1, 0, -1.1973e-05, 72898
-1930.24, 112359, -253.878, 3.75227, -1139.23, 0.633293, 0.304998, 0.958125, 0.351078, 0.648177, 3, 182, 246, 49.0281, 0.179865, 1.44706, 1, 1, 0, 2.22344e-05, 72898
-8484.05, 841347, -370.049, 0.0530703, -634.091, 0.00611955, 0.496537, 1.03299, 0.34851, 0.655882, 0.0001, 45.5, 246, 28.1786, 0.114052, 0, 0, 0, 0, -0.000129241, 72902
-8484.05, 841347, -370.049, 0.0530703, -634.091, 0.00611955, 0.496537, 1.03299, 0.34851, 0.655882, 3, 45.5, 246, 28.1786, 0.114052, 0, 0, 0, 0, 0.00032812, 72902
-5938.06, 861182, -393.768, 0.0564182, -636.426, 0.0061578, 0.453369, 0.958125, 0.351078, 0.648177, 3, 182, 246, 28.1786, 0.114052, 0, 0, 0, 0, 0.000205822, 72902
-1691.5, 632635, -390.279, 1.3659, -991.894, 0.286274, 0.433074, 0.9175, 0.352806, 0.64323, 3, 455, 246, 33.8134, 0.135643, 0, 0, 0, 0, 2.97256e-05, 72910
-11298.7, 446834, -179.976, 0.823966, -966.214, 0.143679, 0.401225, 1.03299, 0.34851, 0.655882, 0.0001, 45.5, 246, 30.1985, 0.101531, 0, 0, 0, 0, -5.11301e-06, 72916
-8283.74, 777332, -352.974, 0.235293, -922.213, 0.00396812, 0.49553, 1.03299, 0.34851, 0.655882, 0.0001, 45.5, 246, 34.3812, 0.11791, 0, 0, 0, 0, 5.80946e-05, 72917
-8283.74, 777332, -352.974, 0.235293, -922.213, 0.00396812, 0.49553, 1.03299, 0.34851, 0.655882, 3, 45.5, 246, 34.3812, 0.11791, 0, 0, 0, 0, -6.91304e-05, 72917
-11228, 397035, -152.802, 0.773758, -760.844, 0.0798061, 0.388689, 1.03299, 0.34851, 0.655882, 0.0001, 45.5, 246, 25.6208, 0.0975438, 0, 0, 1, 0, 1.67999e-05, 72920
-11228, 397035, -152.802, 0.773758, -760.844, 0.0798061, 0.388689, 1.03299, 0.34851, 0.655882, 3, 45.5, 246, 25.6208, 0.0975438, 0, 0, 1, 0, -1.8978e-05, 72920
-6637.12, 95774.6, -171.279, 3.40702, -806.219, -0.039002, 0.239124, 1.03299, 0.34851, 0.655882, 0.0001, 45.5, 246, 43.8573, 0.16167, 1.03101, 1, 1, 0, 9.89348e-06, 72922
-6637.12, 95774.6, -171.279, 3.40702, -806.219, -0.039002, 0.239124, 1.03299, 0.34851, 0.655882, 3, 45.5, 246, 43.8573, 0.16167, 0, 0, 1, 0, 7.72165e-06, 72922
-4866.59, 107617, -213.296, 3.71302, -822.672, 0.0165958, 0.253265, 0.993198, 0.349787, 0.651995, 0.0001, 91, 246, 43.8573, 0.16167, 1.06507, 1, 1, 0, -9.37785e-06, 72922
-2504.71, 120950, -263.587, 4.0783, -853.552, 0.0834975, 0.286506, 0.958125, 0.351078, 0.648177, 0.0001, 182, 246, 43.8573, 0.16167, 1.38082, 1, 1, 0, 6.48653e-06, 72922
-2504.71, 120950, -263.587, 4.0783, -853.552, 0.0834975, 0.286506, 0.958125, 0.351078, 0.648177, 3, 182, 246, 43.8573, 0.16167, 1.21976, 1, 1, 0, -9.22646e-06, 72922
1897.34, 142574, -348.595, 4.69548, -925.643, 0.198769, 0.365808, 0.9175, 0.352806, 0.64323, 0.0001, 455, 246, 43.8573, 0.16167, 3.36824, 1, 0, 0, 8.29666e-06, 72922
1897.34, 142574, -348.595, 4.69548, -925.643, 0.198769, 0.365808, 0.9175, 0.352806, 0.64323, 3, 455, 246, 43.8573, 0.16167, 3.37458, 1, 0, 0, -2.00568e-05, 72922
-4239.71, 188452, -205.227, 3.02204, -680.479, 0.181829, 0.304902, 0.9175, 0.352806, 0.64323, 3, 455, 246, 27.4463, 0.122123, 0, 0, 1, 0, -1.96548e-06, 72924
-5901.82, 124977, -238.344, 3.40946, -821.577, -0.0542924, 0.30077, 1.03299, 0.34851, 0.655882, 0.0001, 45.5, 246, 52.0269, 0.213117, 1.32543, 1, 1, 0, -2.72659e-06, 72927
-5901.82, 124977, -238.344, 3.40946, -821.577, -0.0542924, 0.30077, 1.03299, 0.34851, 0.655882, 3, 45.5, 246, 52.0269, 0.213117, 1.21743, 1, 0, 0, 1.01273e-05, 72927
-3365.23, 137835, -287.514, 3.71923, -842.649, 0.00153188, 0.319165, 0.993198, 0.349787, 0.651995, 0.0001, 91, 246, 52.0269, 0.213117, 1.56073, 1, 1, 0, 2.20003e-06, 72927
-3365.23, 137835, -287.514, 3.71923, -842.649, 0.00153188, 0.319165, 0.993198, 0.349787, 0.651995, 3, 91, 246, 52.0269, 0.213117, 1.44261, 1, 1, 0, 2.75812e-06, 72927
-45.8165, 152715, -346.43, 4.08985, -879.784, 0.068537, 0.357043, 0.958125, 0.351078, 0.648177, 0.0001, 182, 246, 52.0269, 0.213117, 2.54569, 1, 0, 0, -6.18119e-06, 72927
-45.8165, 152715, -346.43, 4.08985, -879.784, 0.068537, 0.357043, 0.958125, 0.351078, 0.648177, 3, 182, 246, 52.0269, 0.213117, 2.39361, 1, 0, 0, 1.90936e-05, 72927
-10645.4, 273414, -125.287, 1.1086, -984.037, 0.0116164, 0.37863, 1.03299, 0.34851, 0.655882, 0.0001, 45.5, 246, 28.9582, 0.112991, 0, 0, 1, 0, 2.20162e-05, 72928
-10645.4, 273414, -125.287, 1.1086, -984.037, 0.0116164, 0.37863, 1.03299, 0.34851, 0.655882, 3, 45.5, 246, 28.9582, 0.112991, 0, 0, 1, 0, 2.93352e-05, 72928
-9357, 290846, -141.43, 1.16318, -990.275, 0.0173135, 0.351006, 0.993198, 0.349787, 0.651995, 0.0001, 91, 246, 28.9582, 0.112991, 0, 0, 1, 0, 3.41322e-05, 72928
-7806.06, 308735, -158.682, 1.21894, -998.187, 0.0236067, 0.328564, 0.958125, 0.351078, 0.648177, 0.0001, 182, 246, 28.9582, 0.112991, 0, 0, 1, 0, -3.01222e-06, 72928
-7503.92, 816476, -239.384, 0.106142, -706.965, 0.336293, 0.370175, 0.993198, 0.349787, 0.651995, 0.0001, 91, 246, 23.702, 0.0708583, 0, 0, 1, 0, 7.04297e-05, 72932
-6617.23, -78996.5, 18.4299, 3.08473, -938.958, 0.27414, 0.262421, 1.03299, 0.34851, 0.655882, 0.0001, 45.5, 246, 7.99099, 0.0124078, 2.90081, 1, 1, 0, -1.40146e-05, 72937
-6617.23, -78996.5, 18.4299, 3.08473, -938.958, 0.27414, 0.262421, 1.03299, 0.34851, 0.655882, 3, 45.5, 246, 7.99099, 0.0124078, 2.89997, 1, 1, 0, 7.25509e-06, 72937
-1999.67, 300187, -405.162, 4.06272, -1206.36, 0.120134, 0.411522, 0.958125, 0.351078, 0.648177, 0.0001, 182, 246, 47.4234, 0.196432, 3.37517, 1, 0, 0, 1.19959e-05, 72939
-1999.67, 300187, -405.162, 4.06272, -1206.36, 0.120134, 0.411522, 0.958125, 0.351078, 0.648177, 3, 182, 246, 47.4234, 0.196432, 3.08088, 1, 0, 0, 6.2299e-06, 72939
-7535.89, 96095.4, -124.774, 1.81361, -1127.14, 0.0453084, 0.36542, 0.993198, 0.349787, 0.651995, 3, 91, 246, 40.4431, 0.238306, 0, 0, 1, 0, -5.57817e-06, 72942
-9332.04, 134240, -150.244, 2.1836, -593.517, 0.0720089, 0.350715, 1.03299, 0.34851, 0.655882, 3, 45.5, 246, 35.2285, 0.172803, 0, 0, 1, 0, -1.16212e-05, 72944
-9297, 83773, -56.7194, 1.98529, -686.677, 0.518928, 0.302603, 1.03299, 0.34851, 0.655882, 0.0001, 45.5, 246, 22.4554, 0.0925997, 0, 0, 1, 0, 2.36968e-05, 72946
-9297, 83773, -56.7194, 1.98529, -686.677, 0.518928, 0.302603, 1.03299, 0.34851, 0.655882, 3, 45.5, 246, 22.4554, 0.0925997, 0, 0, 1, 0, -1.5126e-05, 72946
-8674.03, 95186.6, -73.8612, 2.17435, -752.883, 0.585954, 0.283207, 0.993198, 0.349787, 0.651995, 0.0001, 91, 246, 22.4554, 0.0925997, 0, 0, 1, 0, 4.2167e-05, 72946
-8674.03, 95186.6, -73.8612, 2.17435, -752.883, 0.585954, 0.283207, 0.993198, 0.349787, 0.651995, 3, 91, 246, 22.4554, 0.0925997, 0, 0, 1, 0, 7.62623e-05, 72946
-7780.62, 109405, -95.0779, 2.39409, -836.569, 0.67097, 0.273415, 0.958125, 0.351078, 0.648177, 0.0001, 182, 246, 22.4554, 0.0925997, 0, 0, 1, 0, 4.43843e-05, 72946
-7780.62, 109405, -95.0779, 2.39409, -836.569, 0.67097, 0.273415, 0.958125, 0.351078, 0.648177, 3, 182, 246, 22.4554, 0.0925997, 0, 0, 1, 0, -9.81382e-06, 72946
-2007, 95456.5, -252.843, 4.31225, -1257.54, 1.03273, 0.318958, 0.9175, 0.352806, 0.64323, 0.0001, 455, 246, 43.2291, 0.0898299, 1.66284, 1, 1, 0, 7.47142e-06, 72948
-2007, 95456.5, -252.843, 4.31225, -1257.54, 1.03273, 0.318958, 0.9175, 0.352806, 0.64323, 3, 455, 246, 43.2291, 0.0898299, 1.59933, 1, 1, 0, -1.4193e-05, 72948
-12086.1, 106473, 24.7257, 3.54009, -799.195, -0.0569404, 0.139694, 1.03299, 0.34851, 0.655882, 0.0001, 45.5, 246, 10.4257, 0.0174953, 0, 0, 0, 0, -5.45519e-06, 72951
-12086.1, 106473, 24.7257, 3.54009, -799.195, -0.0569404, 0.139694, 1.03299, 0.34851, 0.655882, 3, 45.5, 246, 10.4257, 0.0174953, 0, 0, 0, 0, 8.18889e-06, 72951
-10519.4, 116708, 0.0128443, 3.85393, -794.486, 0.00311659, 0.152579, 0.993198, 0.349787, 0.651995, 0.0001, 91, 246, 10.4257, 0.0174953, 0, 0, 1, 0, -1.05498e-05, 72951
-10519.4, 116708, 0.0128443, 3.85393, -794.486, 0.00311659, 0.152579, 0.993198, 0.349787, 0.651995, 3, 91, 246, 10.4257, 0.0174953, 0, 0, 1, 0, -1.79563e-05, 72951
-8510.11, 63734.1, -37.0618, 3.61425, -818.541, 0.54103, 0.190657, 0.993198, 0.349787, 0.651995, 3, 91, 246, 15.2433, 0.0436012, 0, 0, 1, 0, 1.12012e-05, 72952
-9808.93, 128803, -111.828, 2.96044, -1093.69, -0.0408667, 0.266465, 1.03299, 0.34851, 0.655882, 0.0001, 45.5, 246, 34.2399, 0.13207, 0, 0, 0, 0, -4.23537e-06, 72958
-9808.93, 128803, -111.828, 2.96044, -1093.69, -0.0408667, 0.266465, 1.03299, 0.34851, 0.655882, 3, 45.5, 246, 34.2399, 0.13207, 0, 0, 0, 0, 5.6219e-06, 72958
-7997.27, 149581, -151.802, 3.19969, -1100.8, 0.000812819, 0.267999, 0.993198, 0.349787, 0.651995, 0.0001, 91, 246, 34.2399, 0.13207, 0, 0, 1, 0, -1.42827e-05, 72958
-7997.27, 149581, -151.802, 3.19969, -1100.8, 0.000812819, 0.267999, 0.993198, 0.349787, 0.651995, 3, 91, 246, 34.2399, 0.13207, 0, 0, 1, 0, -1.17156e-05, 72958
-10747.7, 237640, -100.851, 1.16123, -819.03, 0.00641, 0.361291, 1.03299, 0.34851, 0.655882, 0.0001, 45.5, 246, 24.9892, 0.102623, 0, 0, 1, 0, 2.33059e-05, 72969
-10747.7, 237640, -100.851, 1.16123, -819.03, 0.00641, 0.361291, 1.03299, 0.34851, 0.655882, 3, 45.5, 246, 24.9892, 0.102623, 0, 0, 1, 0, 1.02032e-05, 72969
-9648.29, 249593, -114.571, 1.21867, -823.635, 0.0126403, 0.332926, 0.993198, 0.349787, 0.651995, 0.0001, 91, 246, 24.9892, 0.102623, 0, 0, 1, 0, 1.97287e-05, 72969
-10983.2, 223380, -173.381, 1.91113, -962.094, -0.0124136, 0.39485, 1.03299, 0.34851, 0.655882, 3, 45.5, 246, 36.4733, 0.167262, 0, 0, 0, 0, 1.98445e-05, 72979
-6815.64, 15537.7, -59.8039, 2.89841, -809.047, 0.0982497, 0.24475, 1.03299, 0.34851, 0.655882, 3, 45.5, 246, 31.4308, 0.0658188, 0, 0, 1, 1, 2.08655e-05, 72980
-5074.1, 59058.5, -174.465, 3.92145, -923.922, 0.282684, 0.299515, 0.9175, 0.352806, 0.64323, 3, 455, 246, 31.4308, 0.0658188, 0, 0, 1, 0, 1.33258e-05, 72980
-7222.45, 96531.1, -159.865, 1.92024, -778.096, 0.681517, 0.397676, 1.03299, 0.34851, 0.655882, 0.0001, 45.5, 246, 46.2525, 0.243478, 2.6301, 1, 1, 0, -2.51217e-05, 72983
-7222.45, 96531.1, -159.865, 1.92024, -778.096, 0.681517, 0.397676, 1.03299, 0.34851, 0.655882, 3, 45.5, 246, 46.2525, 0.243478, 2.51811, 1, 1, 0, 3.15287e-05, 72983
-15081.5, 315356, -258.869, 2.42333, -827.493, 0.183856, 0.408909, 1.03299, 0.34851, 0.655882, 0.0001, 45.5, 246, 38.5178, 0.17215, 0, 0, 0, 0, -2.98925e-05, 72991
-15081.5, 315356, -258.869, 2.42333, -827.493, 0.183856, 0.408909, 1.03299, 0.34851, 0.655882, 3, 45.5, 246, 38.5178, 0.17215, 0, 0, 0, 0, 4.10241e-05, 72991
-6472.06, 102482, -180.501, 2.99523, -942.711, 0.371564, 0.303524, 1.03299, 0.34851, 0.655882, 0.0001, 45.5, 246, 47.102, 0.194274, 1.0631, 1, 1, 0, -1.09538e-05, 72994
-4708.19, 122178, -224.021, 3.31842, -1022.29, 0.441182, 0.309686, 0.993198, 0.349787, 0.651995, 0.0001, 91, 246, 47.102, 0.194274, 1.04946, 1, 1, 0, 2.48239e-05, 72994
-2176.5, 146704, -278.593, 3.70961, -1127.7, 0.532459, 0.333773, 0.958125, 0.351078, 0.648177, 0.0001, 182, 246, 47.102, 0.194274, 1.50103, 1, 1, 0, 8.66007e-06, 72994
-2176.5, 146704, -278.593, 3.70961, -1127.7, 0.532459, 0.333773, 0.958125, 0.351078, 0.648177, 3, 182, 246, 47.102, 0.194274, 1.33158, 1, 1, 0, 1.86855e-05, 72994
