-21414.8	417897	-139.362	3.97077	-755.898	0.484327	0.129829	0.993198	0.349787	0.651995	0.0001	91	0.0579194	77001	
-3908.56	45993.9	-148.966	3.40583	-954.793	0.279235	0.217708	1.03299	0.34851	0.655882	0.0001	45.5	0.132232	77002	
-3908.56	45993.9	-148.966	3.40583	-954.793	0.279235	0.217708	1.03299	0.34851	0.655882	3	45.5	0.132232	77002	
-2865.39	64271.2	-194.832	3.77571	-1019.9	0.351319	0.231468	0.993198	0.349787	0.651995	0.0001	91	0.132232	77002	
-2865.39	64271.2	-194.832	3.77571	-1019.9	0.351319	0.231468	0.993198	0.349787	0.651995	3	91	0.132232	77002	
-1157.1	86407	-252.749	4.22921	-1110.06	0.446384	0.267112	0.958125	0.351078	0.648177	0.0001	182	0.132232	77002	
-1157.1	86407	-252.749	4.22921	-1110.06	0.446384	0.267112	0.958125	0.351078	0.648177	3	182	0.132232	77002	
-13274.6	763829	-462.656	0.588354	-888.739	0.257426	0.600489	1.03299	0.34851	0.655882	3	45.5	0.152203	77003	
-13417	312582	-273.735	3.88194	-881.374	0.813699	0.243965	0.993198	0.349787	0.651995	0.0001	91	0.129496	77004	
-13417	312582	-273.735	3.88194	-881.374	0.813699	0.243965	0.993198	0.349787	0.651995	3	91	0.129496	77004	
-6827.22	345525	-338.272	4.48312	-1053.79	1.02177	0.28681	0.958125	0.351078	0.648177	0.0001	182	0.129496	77004	
-6827.22	345525	-338.272	4.48312	-1053.79	1.02177	0.28681	0.958125	0.351078	0.648177	3	182	0.129496	77004	
-11256	107920	6.03376	2.52481	-963.591	0.596374	0.242198	1.03299	0.34851	0.655882	3	45.5	0.0319871	77006	
-10129.7	129463	-18.0297	2.80294	-1066.95	0.69279	0.231343	0.993198	0.349787	0.651995	0.0001	91	0.0319871	77006	
-10129.7	129463	-18.0297	2.80294	-1066.95	0.69279	0.231343	0.993198	0.349787	0.651995	3	91	0.0319871	77006	
-10841.9	346694	-224.14	0.952271	-828.151	0.017534	0.466166	1.03299	0.34851	0.655882	3	45.5	0.163204	77007	
-8059.54	-1340.44	-22.4301	1.67809	-706.6	-0.0126506	0.318301	1.03299	0.34851	0.655882	3	45.5	0.00100039	77008	
-7083.49	-20861.9	-11.475	2.96145	-612.617	-0.0414896	0.239917	1.03299	0.34851	0.655882	0.0001	45.5	0.0122143	77009	
-7494.2	-14652.5	-29.5957	3.19837	-612.226	0.000190828	0.239746	0.993198	0.349787	0.651995	3	91	0.0122143	77009	
-16345	792774	-270.463	0.967121	-1071.17	0.118374	0.419122	1.03299	0.34851	0.655882	3	45.5	0.0883159	77010	
-11944.9	179237	-163.237	3.23329	-920.765	0.790431	0.231779	1.03299	0.34851	0.655882	0.0001	45.5	0.12907	77011	
-11944.9	179237	-163.237	3.23329	-920.765	0.790431	0.231779	1.03299	0.34851	0.655882	3	45.5	0.12907	77011	
-8991.28	205375	-209.021	3.68375	-1074.78	0.963194	0.2421	0.993198	0.349787	0.651995	0.0001	91	0.12907	77011	
-8991.28	205375	-209.021	3.68375	-1074.78	0.963194	0.2421	0.993198	0.349787	0.651995	3	91	0.12907	77011	
-20994.2	342701	-26.9132	2.57988	-715.553	0.75929	0.218244	1.03299	0.34851	0.655882	0.0001	45.5	0.0262016	77012	
-17176.1	367519	-47.8959	2.89373	-818.157	0.900155	0.207678	0.993198	0.349787	0.651995	0.0001	91	0.0262016	77012	
-17176.1	367519	-47.8959	2.89373	-818.157	0.900155	0.207678	0.993198	0.349787	0.651995	3	91	0.0262016	77012	
-5409.94	7420.15	-108.797	3.92734	-665.69	0.0133242	0.19471	0.993198	0.349787	0.651995	0.0001	91	0.00488996	77014	
-5409.94	7420.15	-108.797	3.92734	-665.69	0.0133242	0.19471	0.993198	0.349787	0.651995	3	91	0.00488996	77014	
-27941.5	733231	-121.062	1.74052	-604.233	0.182104	0.310096	1.03299	0.34851	0.655882	3	45.5	0.0435383	77015	
-17618.1	950917	-219.359	0.724686	-747.035	0.166299	0.381519	1.03299	0.34851	0.655882	3	45.5	0.0591462	77016	
-13738.1	403609	-168.849	1.49181	-1156.84	0.0981572	0.377401	1.03299	0.34851	0.655882	3	45.5	0.10483	77018	
-21986.3	505044	-308.647	3.94124	-878.894	0.0332857	0.236087	0.993198	0.349787	0.651995	0.0001	91	0.118406	77019	
-21986.3	505044	-308.647	3.94124	-878.894	0.0332857	0.236087	0.993198	0.349787	0.651995	3	91	0.118406	77019	
-19129.2	842328	-291.051	0.872493	-618.643	0.317459	0.422745	1.03299	0.34851	0.655882	3	45.5	0.0853855	77020	
-15964.8	341139	-130.998	2.14418	-1007.6	0.0707124	0.315385	1.03299	0.34851	0.655882	3	45.5	0.0931575	77021	
-14983	979649	-237.995	0.569079	-810.356	0.0750169	0.392462	1.03299	0.34851	0.655882	3	45.5	0.0629504	77022	
-21215.4	439729	-84.105	3.36011	-652.242	0.104356	0.169888	0.993198	0.349787	0.651995	3	91	0.0384431	77023	
-12506.3	407086	-329.725	1.54249	-1147.71	-0.00806574	0.563273	1.03299	0.34851	0.655882	3	45.5	0.202444	77026	
-8797.67	87239.2	-65.5593	3.86328	-673.857	0.307727	0.168546	0.993198	0.349787	0.651995	0.0001	91	0.0528643	77029	
-8797.67	87239.2	-65.5593	3.86328	-673.857	0.307727	0.168546	0.993198	0.349787	0.651995	3	91	0.0528643	77029	
-23510.1	445392	-353.182	3.31049	-990.989	-0.0528143	0.398698	1.03299	0.34851	0.655882	0.0001	45.5	0.17739	77030	
-23510.1	445392	-353.182	3.31049	-990.989	-0.0528143	0.398698	1.03299	0.34851	0.655882	3	45.5	0.17739	77030	
-15875.2	463883	-418.05	3.61431	-1021.77	-0.000131855	0.421286	0.993198	0.349787	0.651995	0.0001	91	0.17739	77030	
-15875.2	463883	-418.05	3.61431	-1021.77	-0.000131855	0.421286	0.993198	0.349787	0.651995	3	91	0.17739	77030	
-6457.65	486739	-495.724	3.97708	-1072.39	0.0631632	0.463066	0.958125	0.351078	0.648177	0.0001	182	0.17739	77030	
-6457.65	486739	-495.724	3.97708	-1072.39	0.0631632	0.463066	0.958125	0.351078	0.648177	3	182	0.17739	77030	
-23665.3	864845	-199.725	1.3272	-961.884	0.000294139	0.361431	1.03299	0.34851	0.655882	3	45.5	0.0628527	77032	
-12699.4	394960	-190.711	1.2634	-987.85	0.119371	0.405125	1.03299	0.34851	0.655882	3	45.5	0.119635	77034	
-25102.3	675948	-96.8247	1.75302	-924.651	0.0495992	0.303302	1.03299	0.34851	0.655882	3	45.5	0.0415774	77035	
-16237	342588	-365.228	2.89352	-881.701	0.00295408	0.502025	1.03299	0.34851	0.655882	0.0001	45.5	0.222886	77038	
-16237	342588	-365.228	2.89352	-881.701	0.00295408	0.502025	1.03299	0.34851	0.655882	3	45.5	0.222886	77038	
-10653.8	359161	-422.137	3.15146	-916.181	0.0430955	0.52065	0.993198	0.349787	0.651995	0.0001	91	0.222886	77038	
-10653.8	359161	-422.137	3.15146	-916.181	0.0430955	0.52065	0.993198	0.349787	0.651995	3	91	0.222886	77038	
-3713.36	379176	-489.363	3.45321	-965.635	0.0916048	0.555107	0.958125	0.351078	0.648177	0.0001	182	0.222886	77038	
-3713.36	379176	-489.363	3.45321	-965.635	0.0916048	0.555107	0.958125	0.351078	0.648177	3	182	0.222886	77038	
-9615.87	202220	-189.458	1.33984	-909.425	0.791853	0.449307	1.03299	0.34851	0.655882	3	45.5	0.196365	77040	
-26069	751293	-324.221	1.95059	-1135.98	-0.0163136	0.435025	1.03299	0.34851	0.655882	3	45.5	0.114388	77041	
-27723.8	896027	-397.376	1.58494	-916.001	-0.0050984	0.486771	1.03299	0.34851	0.655882	3	45.5	0.11809	77042	
-28905.8	774919	-430.914	1.77564	-747.523	0.340232	0.514488	1.03299	0.34851	0.655882	3	45.5	0.136234	77043	
-21500.8	803199	-472.33	1.92839	-813.574	0.375464	0.508168	0.993198	0.349787	0.651995	3	91	0.136234	77043	
-7158.39	-33487.4	2.09751	2.89896	-953.931	-0.0330346	0.254293	1.03299	0.34851	0.655882	0.0001	45.5	0.0370859	77044	
-7158.39	-33487.4	2.09751	2.89896	-953.931	-0.0330346	0.254293	1.03299	0.34851	0.655882	3	45.5	0.0370859	77044	
-10506.6	432000	-344.653	0.459095	-663.857	0.507471	0.587101	1.03299	0.34851	0.655882	3	45.5	0.193764	77045	
-22673.4	605335	-303.629	1.719	-600.041	0.0136334	0.438856	1.03299	0.34851	0.655882	3	45.5	0.126393	77046	
-24145.6	743924	-267.297	2.30737	-716.387	0.00913553	0.320511	0.993198	0.349787	0.651995	3	91	0.084809	77047	
-21468.4	660012	-256.377	2.77658	-1170.51	0.000249855	0.294248	0.993198	0.349787	0.651995	0.0001	91	0.0898041	77048	
-9294.08	567966	-473.71	0.200639	-839.734	0.572994	0.695005	1.03299	0.34851	0.655882	3	45.5	0.202439	77049	
-17383.6	667342	-199.796	1.25511	-1139.55	-0.0045107	0.379094	1.03299	0.34851	0.655882	3	45.5	0.0798918	77050	
-13997.7	340320	-295.462	1.74786	-702.237	0.173491	0.50651	1.03299	0.34851	0.655882	3	45.5	0.19678	77051	
-20798.3	510093	-129.729	1.92178	-1034.4	0.414531	0.310164	1.03299	0.34851	0.655882	3	45.5	0.0647937	77052	
-18363.9	351641	-22.3933	1.95393	-604.968	0.82723	0.271087	1.03299	0.34851	0.655882	3	45.5	0.020418	77057	
-15709.7	295340	-31.2373	1.95276	-874.215	0.444485	0.280497	1.03299	0.34851	0.655882	3	45.5	0.0346084	77058	
-7827.72	61237	-82.6167	2.55294	-1066.07	-0.0301286	0.294228	1.03299	0.34851	0.655882	0.0001	45.5	0.140605	77059	
-7827.72	61237	-82.6167	2.55294	-1066.07	-0.0301286	0.294228	1.03299	0.34851	0.655882	3	45.5	0.140605	77059	
-29498.9	545141	-364.426	2.59942	-539.606	0.653016	0.40215	1.03299	0.34851	0.655882	0.0001	45.5	0.139766	77060	
-29498.9	545141	-364.426	2.59942	-539.606	0.653016	0.40215	1.03299	0.34851	0.655882	3	45.5	0.139766	77060	
-22181.5	573304	-408.121	2.91292	-632.9	0.765297	0.404988	0.993198	0.349787	0.651995	3	91	0.139766	77060	
-17871.3	500068	-388.417	1.40988	-609.038	0.347696	0.574938	1.03299	0.34851	0.655882	3	45.5	0.183024	77061	
-34230.1	580656	-344.205	3.29737	-677.672	-0.0521328	0.323839	1.03299	0.34851	0.655882	0.0001	45.5	0.140065	77062	
-34230.1	580656	-344.205	3.29737	-677.672	-0.0521328	0.323839	1.03299	0.34851	0.655882	3	45.5	0.140065	77062	
-14900.4	270471	-366.599	3.24303	-667.899	0.808607	0.402881	1.03299	0.34851	0.655882	0.0001	45.5	0.207244	77065	
-14900.4	270471	-366.599	3.24303	-667.899	0.808607	0.402881	1.03299	0.34851	0.655882	3	45.5	0.207244	77065	
-9586.61	295221	-424.333	3.71766	-807.823	0.987942	0.426206	0.993198	0.349787	0.651995	0.0001	91	0.207244	77065	
-9586.61	295221	-424.333	3.71766	-807.823	0.987942	0.426206	0.993198	0.349787	0.651995	3	91	0.207244	77065	
-2379.1	331276	-501.676	4.34881	-1016.35	1.2552	0.476505	0.958125	0.351078	0.648177	0.0001	182	0.207244	77065	
-2379.1	331276	-501.676	4.34881	-1016.35	1.2552	0.476505	0.958125	0.351078	0.648177	3	182	0.207244	77065	
-15247.9	338385	-21.1342	1.55847	-696.783	-0.00709016	0.30249	1.03299	0.34851	0.655882	3	45.5	0.0230854	77066	
-10185.4	465497	-330.321	0.364067	-638.431	0.0310224	0.569822	1.03299	0.34851	0.655882	3	45.5	0.186613	77067	
-6805.15	-32241.7	-16.4588	3.03871	-890.983	0.733938	0.243772	1.03299	0.34851	0.655882	0.0001	45.5	0.0496164	77069	
-7644.31	80159.2	-114.313	3.1636	-971.22	0.305869	0.238044	1.03299	0.34851	0.655882	0.0001	45.5	0.132351	77072	
-7644.31	80159.2	-114.313	3.1636	-971.22	0.305869	0.238044	1.03299	0.34851	0.655882	3	45.5	0.132351	77072	
-4394.54	122365	-205.29	3.9011	-1124.62	0.459631	0.270914	0.958125	0.351078	0.648177	3	182	0.132351	77072	
-264.099	162578	-296.218	4.59944	-1296.61	0.624218	0.341634	0.9175	0.352806	0.64323	0.0001	455	0.132351	77072	
-264.099	162578	-296.218	4.59944	-1296.61	0.624218	0.341634	0.9175	0.352806	0.64323	3	455	0.132351	77072	
-20277.8	322424	-172.397	2.87215	-541.227	0.826475	0.245879	1.03299	0.34851	0.655882	0.0001	45.5	0.09388	77073	
-20277.8	322424	-172.397	2.87215	-541.227	0.826475	0.245879	1.03299	0.34851	0.655882	3	45.5	0.09388	77073	
-15944.1	344069	-202.775	3.25671	-640.849	0.998008	0.245532	0.993198	0.349787	0.651995	0.0001	91	0.09388	77073	
-15944.1	344069	-202.775	3.25671	-640.849	0.998008	0.245532	0.993198	0.349787	0.651995	3	91	0.09388	77073	
-10026.8	318835	-292.265	0.753753	-794.924	0.219443	0.587575	1.03299	0.34851	0.655882	3	45.5	0.23259	77077	
-6491.02	354422	-332.656	0.846754	-868.565	0.24183	0.568223	0.958125	0.351078	0.648177	3	182	0.23259	77077	
-13552.3	267428	-163.385	1.90512	-594.818	0.352964	0.354935	1.03299	0.34851	0.655882	3	45.5	0.124768	77078	
-21610.8	621499	-249.135	1.89059	-1161.62	0.109743	0.386316	1.03299	0.34851	0.655882	3	45.5	0.10362	77080	
-17285.5	892186	-163.596	0.709946	-740.097	0.499713	0.359286	1.03299	0.34851	0.655882	3	45.5	0.0442737	77081	
-17415.2	360566	-77.1659	1.99894	-626.174	-0.0187216	0.28981	1.03299	0.34851	0.655882	3	45.5	0.0544478	77082	
-13864.6	825903	-305.574	0.493748	-594.401	0.0241683	0.447395	1.03299	0.34851	0.655882	3	45.5	0.0961215	77083	
-17830.7	688515	-99.8728	0.978026	-636.694	0.0200483	0.338983	1.03299	0.34851	0.655882	3	45.5	0.0391634	77084	
-17577.4	335915	-27.6153	3.40245	-880.768	0.64855	0.164933	0.993198	0.349787	0.651995	0.0001	91	0.0192201	77085	
-17577.4	335915	-27.6153	3.40245	-880.768	0.64855	0.164933	0.993198	0.349787	0.651995	3	91	0.0192201	77085	
-14091.2	276507	-152.571	2.04715	-816.696	0.789319	0.331613	1.03299	0.34851	0.655882	3	45.5	0.109171	77086	
-20824.1	895704	-444.837	0.810357	-578.578	0.235091	0.540262	1.03299	0.34851	0.655882	3	45.5	0.124529	77087	
-20187.1	441584	-175.548	2.08926	-629.753	0.216056	0.326908	1.03299	0.34851	0.655882	3	45.5	0.0926055	77088	
-17234	694495	-217.512	0.872999	-548.007	0.605297	0.38714	1.03299	0.34851	0.655882	3	45.5	0.0727249	77089	
-20879	703293	-191.25	1.42991	-978.219	0.00457954	0.362241	1.03299	0.34851	0.655882	3	45.5	0.0730412	77090	
-29504.6	540195	-41.5453	2.45743	-585.963	0.746708	0.220425	1.03299	0.34851	0.655882	0.0001	45.5	0.0219289	77092	
-29504.6	540195	-41.5453	2.45743	-585.963	0.746708	0.220425	1.03299	0.34851	0.655882	3	45.5	0.0219289	77092	
-23784.9	569575	-59.2847	2.74768	-669.636	0.880296	0.206772	0.993198	0.349787	0.651995	3	91	0.0219289	77092	
-23173.2	667617	-175.613	2.55164	-947.315	0.170106	0.258291	0.993198	0.349787	0.651995	3	91	0.060401	77093	
-37698.1	721459	-233.156	2.91147	-911.347	-0.0403997	0.260658	1.03299	0.34851	0.655882	0.0001	45.5	0.0864912	77094	
-28276.6	734885	-277.366	3.14328	-928.658	-0.000128853	0.260361	0.993198	0.349787	0.651995	3	91	0.0864912	77094	
-1798.73	134523	-257.908	4.77265	-1324.01	0.387011	0.329261	0.9175	0.352806	0.64323	0.0001	455	0.103795	77096	
-1798.73	134523	-257.908	4.77265	-1324.01	0.387011	0.329261	0.9175	0.352806	0.64323	3	455	0.103795	77096	
-17234.9	462531	-211.544	2.84244	-995.266	0.814872	0.276682	0.993198	0.349787	0.651995	0.0001	91	0.0884759	77097	
-26428.8	771257	-181.803	1.62903	-972.986	0.573278	0.337937	1.03299	0.34851	0.655882	3	45.5	0.0582356	77098	
-12011.6	217524	-88.8458	1.78215	-800.879	0.0835736	0.323794	1.03299	0.34851	0.655882	3	45.5	0.091137	77099	
-17426	499633	-181.332	1.51227	-834.242	0.336134	0.36439	1.03299	0.34851	0.655882	3	45.5	0.0882743	77100	
-7746.53	136699	-198.936	2.37485	-985.81	0.210751	0.411424	1.03299	0.34851	0.655882	3	45.5	0.240126	77104	
-5932.84	156912	-236.559	2.583	-1036.37	0.245905	0.408473	0.993198	0.349787	0.651995	0.0001	91	0.240126	77104	
-10009.4	86353.4	-37.6012	2.69084	-778.642	0.764709	0.237028	1.03299	0.34851	0.655882	0.0001	45.5	0.062387	77105	
-10009.4	86353.4	-37.6012	2.69084	-778.642	0.764709	0.237028	1.03299	0.34851	0.655882	3	45.5	0.062387	77105	
-9038.25	102237	-62.1307	3.02754	-892.248	0.910608	0.230678	0.993198	0.349787	0.651995	0.0001	91	0.062387	77105	
-9038.25	102237	-62.1307	3.02754	-892.248	0.910608	0.230678	0.993198	0.349787	0.651995	3	91	0.062387	77105	
-23386.6	456744	-4.74129	3.46363	-700.352	0.863976	0.145351	0.993198	0.349787	0.651995	3	91	0.0052429	77106	
-13373.9	584710	-240.256	0.852871	-838.83	-0.00333885	0.427976	1.03299	0.34851	0.655882	3	45.5	0.106892	77107	
-23181.9	451573	-268.844	2.67696	-731.863	0.189039	0.354312	1.03299	0.34851	0.655882	3	45.5	0.132998	77108	
-17366.3	467081	-309.344	2.92077	-778.054	0.230298	0.354541	0.993198	0.349787	0.651995	0.0001	91	0.132998	77108	
-17366.3	467081	-309.344	2.92077	-778.054	0.230298	0.354541	0.993198	0.349787	0.651995	3	91	0.132998	77108	
-15394.3	280174	-167.069	2.76224	-981.608	0.190129	0.293508	1.03299	0.34851	0.655882	3	45.5	0.122775	77112	
-11335.7	155413	-31.5763	1.89079	-905.362	0.321241	0.295334	1.03299	0.34851	0.655882	3	45.5	0.0540878	77113	
-24584.8	863825	-395.131	1.5499	-1099.64	-0.01011	0.498508	1.03299	0.34851	0.655882	3	45.5	0.121728	77115	
-11374.9	682955	-375.695	0.321441	-619.801	0.370812	0.527241	1.03299	0.34851	0.655882	3	45.5	0.134474	77116	
-31197.8	922028	-110.078	1.62645	-855.306	-0.0116477	0.307747	1.03299	0.34851	0.655882	3	45.5	0.0350183	77120	
-9416.21	838228	-447.936	0.0408285	-621.324	0.181652	0.562213	1.03299	0.34851	0.655882	3	45.5	0.13471	77121	
-23363.6	413669	-257.432	3.53719	-1130.77	0.0633892	0.259742	1.03299	0.34851	0.655882	0.0001	45.5	0.137267	77122	
-23363.6	413669	-257.432	3.53719	-1130.77	0.0633892	0.259742	1.03299	0.34851	0.655882	3	45.5	0.137267	77122	
-16188.9	439228	-320.867	3.88907	-1175.96	0.125205	0.280216	0.993198	0.349787	0.651995	0.0001	91	0.137267	77122	
-16188.9	439228	-320.867	3.88907	-1175.96	0.125205	0.280216	0.993198	0.349787	0.651995	3	91	0.137267	77122	
-7170.9	470191	-398.67	4.3164	-1245.79	0.203143	0.322602	0.958125	0.351078	0.648177	0.0001	182	0.137267	77122	
-7170.9	470191	-398.67	4.3164	-1245.79	0.203143	0.322602	0.958125	0.351078	0.648177	3	182	0.137267	77122	
-18648	403398	-113.47	2.20959	-1026.51	-0.00245676	0.294183	1.03299	0.34851	0.655882	3	45.5	0.0740369	77123	
-16908.2	464649	-322.001	1.97404	-1043.14	-0.0183327	0.494216	1.03299	0.34851	0.655882	3	45.5	0.171321	77124	
-16573.7	782364	-431.36	0.86059	-909.072	0.643153	0.540293	1.03299	0.34851	0.655882	3	45.5	0.128547	77125	
-15143.3	495429	-409.721	1.59374	-1101.62	0.28565	0.619372	1.03299	0.34851	0.655882	3	45.5	0.201443	77126	
-22345.6	372452	-18.1273	2.73842	-662.745	-0.0345245	0.211832	1.03299	0.34851	0.655882	0.0001	45.5	0.022046	77128	
-22345.6	372452	-18.1273	2.73842	-662.745	-0.0345245	0.211832	1.03299	0.34851	0.655882	3	45.5	0.022046	77128	
-18130	378821	-36.6222	2.94328	-662.983	0.000928868	0.203581	0.993198	0.349787	0.651995	3	91	0.022046	77128	
-13314.7	386214	-58.0127	3.17589	-668.988	0.0420583	0.207795	0.958125	0.351078	0.648177	0.0001	182	0.022046	77128	
-8133.17	6893.8	-13.9062	2.77877	-679.258	0.0816968	0.252352	0.993198	0.349787	0.651995	0.0001	91	0.0376639	77130	
-8133.17	6893.8	-13.9062	2.77877	-679.258	0.0816968	0.252352	0.993198	0.349787	0.651995	3	91	0.0376639	77130	
-16697.4	359114	-350.328	2.43326	-714.116	-0.0281489	0.519438	1.03299	0.34851	0.655882	0.0001	45.5	0.214149	77131	
-16697.4	359114	-350.328	2.43326	-714.116	-0.0281489	0.519438	1.03299	0.34851	0.655882	3	45.5	0.214149	77131	
-11893.8	369864	-394.643	2.62307	-737.239	-7.72063e-05	0.527155	0.993198	0.349787	0.651995	0.0001	91	0.214149	77131	
-11893.8	369864	-394.643	2.62307	-737.239	-7.72063e-05	0.527155	0.993198	0.349787	0.651995	3	91	0.214149	77131	
-15714.8	716509	-320.49	0.775142	-653.636	0.152629	0.469146	1.03299	0.34851	0.655882	3	45.5	0.113573	77132	
-23667.7	849680	-382.726	1.17591	-615.829	0.0315382	0.491912	1.03299	0.34851	0.655882	3	45.5	0.117472	77134	
-6762.59	4832.03	-49.5915	3.93575	-1146.7	-0.000176366	0.20221	0.993198	0.349787	0.651995	0.0001	91	0.0582202	77136	
-8708.32	80106.4	-50.6962	3.82517	-792.857	0.00164226	0.173462	0.993198	0.349787	0.651995	0.0001	91	0.0508101	77139	
-8708.32	80106.4	-50.6962	3.82517	-792.857	0.00164226	0.173462	0.993198	0.349787	0.651995	3	91	0.0508101	77139	
-17088.3	226324	28.1547	3.02479	-1151.85	0.0660248	0.184615	1.03299	0.34851	0.655882	0.0001	45.5	0.0163095	77140	
-14143.9	250130	-2.88857	3.28503	-1166.86	0.110898	0.183257	0.993198	0.349787	0.651995	0.0001	91	0.0163095	77140	
-13936	404546	-27.6251	1.04859	-820.749	-0.00306155	0.325135	1.03299	0.34851	0.655882	3	45.5	0.0228356	77141	
-4253.9	58601.2	-168.365	3.31291	-719.789	0.102012	0.229908	1.03299	0.34851	0.655882	0.0001	45.5	0.146304	77142	
-4253.9	58601.2	-168.365	3.31291	-719.789	0.102012	0.229908	1.03299	0.34851	0.655882	3	45.5	0.146304	77142	
-3064.9	68908.1	-206.601	3.63063	-751.857	0.157482	0.240663	0.993198	0.349787	0.651995	0.0001	91	0.146304	77142	
-3064.9	68908.1	-206.601	3.63063	-751.857	0.157482	0.240663	0.993198	0.349787	0.651995	3	91	0.146304	77142	
-1401.14	80948.5	-253.056	4.01094	-798.291	0.227232	0.270516	0.958125	0.351078	0.648177	0.0001	182	0.146304	77142	
-1401.14	80948.5	-253.056	4.01094	-798.291	0.227232	0.270516	0.958125	0.351078	0.648177	3	182	0.146304	77142	
1865.2	101217	-333.033	4.65702	-892.678	0.352968	0.345643	0.9175	0.352806	0.64323	0.0001	455	0.146304	77142	
1865.2	101217	-333.033	4.65702	-892.678	0.352968	0.345643	0.9175	0.352806	0.64323	3	455	0.146304	77142	
-9294.86	520450	-429.243	0.508611	-1048.83	0.266244	0.677696	1.03299	0.34851	0.655882	3	45.5	0.210893	77143	
-20576.3	506795	-153.792	2.00334	-1000.66	0.0658811	0.322184	1.03299	0.34851	0.655882	3	45.5	0.0791783	77145	
-12668.1	454187	-251.845	0.907985	-684.305	0.0365218	0.462414	1.03299	0.34851	0.655882	3	45.5	0.140983	77147	
-21143.4	528273	-328.156	2.07665	-857.816	0.0811736	0.463175	1.03299	0.34851	0.655882	3	45.5	0.151995	77148	
-15463.5	305931	-82.7424	2.13926	-1001.46	-0.0120213	0.291752	1.03299	0.34851	0.655882	3	45.5	0.07039	77152	
-24418.9	420131	15.4285	2.56419	-1024.32	0.39581	0.217006	1.03299	0.34851	0.655882	0.0001	45.5	0.0102899	77153	
-24418.9	420131	15.4285	2.56419	-1024.32	0.39581	0.217006	1.03299	0.34851	0.655882	3	45.5	0.0102899	77153	
-19818.4	448477	-9.2934	2.81361	-1095.18	0.456055	0.205247	0.993198	0.349787	0.651995	3	91	0.0102899	77153	
-29220	920518	-416.621	1.43042	-742.498	0.561723	0.477733	1.03299	0.34851	0.655882	3	45.5	0.107619	77155	
-10177.5	120029	-13.1434	1.465	-868.945	-0.00941561	0.315215	1.03299	0.34851	0.655882	0.0001	45.5	0.0409748	77156	
-10177.5	120029	-13.1434	1.465	-868.945	-0.00941561	0.315215	1.03299	0.34851	0.655882	3	45.5	0.0409748	77156	
-27298.2	702451	-264.633	3.34287	-1101	0.193715	0.236737	0.993198	0.349787	0.651995	3	91	0.0834304	77157	
-24417.1	705426	-279.51	1.68252	-749.447	-0.0126874	0.407345	1.03299	0.34851	0.655882	3	45.5	0.103498	77158	
-27953.1	663606	-84.737	2.92316	-698.745	0.441489	0.193187	0.993198	0.349787	0.651995	3	91	0.0283184	77159	
-10252.3	145308	-169.674	3.45695	-670.265	-0.034927	0.220361	1.03299	0.34851	0.655882	0.0001	45.5	0.140251	77160	
-10252.3	145308	-169.674	3.45695	-670.265	-0.034927	0.220361	1.03299	0.34851	0.655882	3	45.5	0.140251	77160	
-7790.86	153373	-207.548	3.77009	-687.419	0.0223375	0.235064	0.993198	0.349787	0.651995	0.0001	91	0.140251	77160	
-7790.86	153373	-207.548	3.77009	-687.419	0.0223375	0.235064	0.993198	0.349787	0.651995	3	91	0.140251	77160	
-4727.13	162966	-252.991	4.14503	-717.545	0.0914801	0.269382	0.958125	0.351078	0.648177	0.0001	182	0.140251	77160	
-4727.13	162966	-252.991	4.14503	-717.545	0.0914801	0.269382	0.958125	0.351078	0.648177	3	182	0.140251	77160	
-13476.8	522565	-240.97	0.906511	-799.167	0.692018	0.424068	1.03299	0.34851	0.655882	3	45.5	0.105593	77161	
-13400.6	341138	-148.099	1.39204	-731.722	0.288373	0.366951	1.03299	0.34851	0.655882	3	45.5	0.101697	77163	
-33089.9	826509	-83.1793	1.7728	-723.67	0.819571	0.283153	1.03299	0.34851	0.655882	3	45.5	0.0257521	77165	
-10656.1	86863.8	13.5138	2.68752	-1189.35	-0.00875053	0.238811	1.03299	0.34851	0.655882	3	45.5	0.0382419	77166	
-17858.9	324265	-21.4725	2.26845	-768.49	-0.0237691	0.256138	1.03299	0.34851	0.655882	3	45.5	0.0272869	77167	
-14901.2	225988	-1.80984	2.29292	-1019.84	0.530228	0.252884	1.03299	0.34851	0.655882	0.0001	45.5	0.0259747	77168	
-14901.2	225988	-1.80984	2.29292	-1019.84	0.530228	0.252884	1.03299	0.34851	0.655882	3	45.5	0.0259747	77168	
-38388.8	686299	-325.325	3.19078	-1021.48	0.39919	0.289598	1.03299	0.34851	0.655882	0.0001	45.5	0.113588	77170	
-38388.8	686299	-325.325	3.19078	-1021.48	0.39919	0.289598	1.03299	0.34851	0.655882	3	45.5	0.113588	77170	
-34199.3	743433	-374.553	2.38021	-699.11	0.0549303	0.424922	1.03299	0.34851	0.655882	0.0001	45.5	0.128208	77172	
-34199.3	743433	-374.553	2.38021	-699.11	0.0549303	0.424922	1.03299	0.34851	0.655882	3	45.5	0.128208	77172	
-25550.9	756575	-418.733	2.56793	-732.66	0.0825211	0.422985	0.993198	0.349787	0.651995	0.0001	91	0.128208	77172	
-25550.9	756575	-418.733	2.56793	-732.66	0.0825211	0.422985	0.993198	0.349787	0.651995	3	91	0.128208	77172	
-34086.4	826507	-280.728	2.23725	-1058.61	0.324486	0.344644	1.03299	0.34851	0.655882	0.0001	45.5	0.0872651	77173	
-34086.4	826507	-280.728	2.23725	-1058.61	0.324486	0.344644	1.03299	0.34851	0.655882	3	45.5	0.0872651	77173	
-25426.4	863361	-323.635	2.43781	-1137.03	0.367291	0.333403	0.993198	0.349787	0.651995	0.0001	91	0.0872651	77173	
-25426.4	863361	-323.635	2.43781	-1137.03	0.367291	0.333403	0.993198	0.349787	0.651995	3	91	0.0872651	77173	
-22340.5	432789	-252.429	2.72634	-717.228	-0.0353287	0.34254	1.03299	0.34851	0.655882	3	45.5	0.133175	77174	
-16785.4	441939	-291.223	2.94018	-735.411	-6.29883e-05	0.342784	0.993198	0.349787	0.651995	3	91	0.133175	77174	
-6313.13	50171.8	-111.197	2.68298	-844.821	0.238447	0.281351	1.03299	0.34851	0.655882	0.0001	45.5	0.146913	77176	
-6313.13	50171.8	-111.197	2.68298	-844.821	0.238447	0.281351	1.03299	0.34851	0.655882	3	45.5	0.146913	77176	
-4543.16	80269	-178.985	3.2171	-947.877	0.340407	0.285448	0.958125	0.351078	0.648177	0.0001	182	0.146913	77176	
-4543.16	80269	-178.985	3.2171	-947.877	0.340407	0.285448	0.958125	0.351078	0.648177	3	182	0.146913	77176	
-2275.21	106651	-241.672	3.68563	-1053.95	0.4408	0.320747	0.9175	0.352806	0.64323	0.0001	455	0.146913	77176	
-2275.21	106651	-241.672	3.68563	-1053.95	0.4408	0.320747	0.9175	0.352806	0.64323	3	455	0.146913	77176	
-26412.8	694875	-247.947	1.83054	-673.334	0.0571254	0.37415	1.03299	0.34851	0.655882	3	45.5	0.0916388	77177	
-14231.3	239176	-195.837	3.04015	-826.917	0.380037	0.281345	1.03299	0.34851	0.655882	0.0001	45.5	0.140993	77178	
-14231.3	239176	-195.837	3.04015	-826.917	0.380037	0.281345	1.03299	0.34851	0.655882	3	45.5	0.140993	77178	
-10648	257796	-237.693	3.3708	-901.743	0.45227	0.287378	0.993198	0.349787	0.651995	0.0001	91	0.140993	77178	
-10648	257796	-237.693	3.3708	-901.743	0.45227	0.287378	0.993198	0.349787	0.651995	3	91	0.140993	77178	
-17195.9	615080	-346.618	1.34236	-943.79	-0.0064736	0.509061	1.03299	0.34851	0.655882	3	45.5	0.146208	77181	
-8922.66	419518	-283.631	0.389037	-819.856	0.850388	0.503507	1.03299	0.34851	0.655882	3	45.5	0.154826	77182	
-15856.4	292750	-142.108	2.31423	-698.801	0.463587	0.300951	1.03299	0.34851	0.655882	3	45.5	0.0985219	77185	
-30423.8	928548	-443.08	1.50106	-705.695	0.232866	0.509654	1.03299	0.34851	0.655882	3	45.5	0.121049	77186	
-12493.1	222693	3.93798	1.39545	-751.765	0.554171	0.308638	1.03299	0.34851	0.655882	3	45.5	0.0104347	77187	
-17997.1	372758	-140.228	2.14205	-780.09	0.473611	0.306307	1.03299	0.34851	0.655882	3	45.5	0.0842369	77188	
-25623.4	762301	-91.2278	1.594	-1066.54	0.0263625	0.31021	1.03299	0.34851	0.655882	3	45.5	0.0361998	77191	
-11125	144803	-7.04349	1.77291	-982.556	-0.0140814	0.298176	1.03299	0.34851	0.655882	0.0001	45.5	0.034763	77193	
-11125	144803	-7.04349	1.77291	-982.556	-0.0140814	0.298176	1.03299	0.34851	0.655882	3	45.5	0.034763	77193	
-16842.6	425345	-66.4923	1.62455	-1026.83	0.0290195	0.309979	1.03299	0.34851	0.655882	3	45.5	0.0461482	77195	
-14351.5	227207	-19.5187	2.28874	-952.013	-0.0245694	0.261623	1.03299	0.34851	0.655882	0.0001	45.5	0.0373802	77196	
-16580.8	669659	-133.358	1.07718	-1163.24	0.00372684	0.350869	1.03299	0.34851	0.655882	3	45.5	0.0544712	77197	
-23334.8	522286	-94.8467	3.12864	-696.294	0.249751	0.187243	0.993198	0.349787	0.651995	0.0001	91	0.0382552	77198	
-23334.8	522286	-94.8467	3.12864	-696.294	0.249751	0.187243	0.993198	0.349787	0.651995	3	91	0.0382552	77198	
-11675.3	361114	-349.312	0.909825	-688.281	-0.00361814	0.652762	1.03299	0.34851	0.655882	3	45.5	0.248646	77199	
-9925.09	184140	-275.514	2.64921	-539.527	0.4921	0.409841	1.03299	0.34851	0.655882	0.0001	45.5	0.218714	77201	
-9925.09	184140	-275.514	2.64921	-539.527	0.4921	0.409841	1.03299	0.34851	0.655882	3	45.5	0.218714	77201	
-7084.09	196308	-312.347	2.94401	-609.147	0.570781	0.414348	0.993198	0.349787	0.651995	0.0001	91	0.218714	77201	
-7084.09	196308	-312.347	2.94401	-609.147	0.570781	0.414348	0.993198	0.349787	0.651995	3	91	0.218714	77201	
-3456.89	212138	-357.562	3.30087	-700.683	0.674349	0.434354	0.958125	0.351078	0.648177	0.0001	182	0.218714	77201	
-3456.89	212138	-357.562	3.30087	-700.683	0.674349	0.434354	0.958125	0.351078	0.648177	3	182	0.218714	77201	
-20384.3	769784	-210.613	1.18357	-791.646	0.00400643	0.377001	1.03299	0.34851	0.655882	3	45.5	0.0727078	77203	
-8690.31	103995	-122.996	2.9599	-843.856	0.205748	0.260053	1.03299	0.34851	0.655882	0.0001	45.5	0.135579	77204	
-8690.31	103995	-122.996	2.9599	-843.856	0.205748	0.260053	1.03299	0.34851	0.655882	3	45.5	0.135579	77204	
-1321.31	163017	-271.741	4.13083	-1053.58	0.435461	0.331811	0.9175	0.352806	0.64323	0.0001	455	0.135579	77204	
-1321.31	163017	-271.741	4.13083	-1053.58	0.435461	0.331811	0.9175	0.352806	0.64323	3	455	0.135579	77204	
-11124.9	202878	-215.619	3.51688	-1180.3	-0.0569084	0.283083	1.03299	0.34851	0.655882	0.0001	45.5	0.1764	77206	
-11124.9	202878	-215.619	3.51688	-1180.3	-0.0569084	0.283083	1.03299	0.34851	0.655882	3	45.5	0.1764	77206	
-7359.79	227805	-276.008	3.84231	-1198.81	0.00258042	0.304021	0.993198	0.349787	0.651995	0.0001	91	0.1764	77206	
-7359.79	227805	-276.008	3.84231	-1198.81	0.00258042	0.304021	0.993198	0.349787	0.651995	3	91	0.1764	77206	
-2351.33	255647	-348.75	4.23434	-1239.11	0.0742736	0.345652	0.958125	0.351078	0.648177	0.0001	182	0.1764	77206	
-2351.33	255647	-348.75	4.23434	-1239.11	0.0742736	0.345652	0.958125	0.351078	0.648177	3	182	0.1764	77206	
-8486.4	14295.2	4.7448	2.1902	-679.665	0.369365	0.282235	1.03299	0.34851	0.655882	0.0001	45.5	0.0358266	77207	
-10932.5	522378	-383.218	0.500553	-762.658	-0.00114798	0.615568	1.03299	0.34851	0.655882	3	45.5	0.193609	77208	
-32437.6	639906	-225.934	2.59014	-795.494	0.531377	0.2825	1.03299	0.34851	0.655882	0.0001	45.5	0.0829256	77209	
-32437.6	639906	-225.934	2.59014	-795.494	0.531377	0.2825	1.03299	0.34851	0.655882	3	45.5	0.0829256	77209	
-21758.8	371420	-275.583	3.36539	-738.932	-0.040853	0.297745	1.03299	0.34851	0.655882	0.0001	45.5	0.151489	77214	
-21758.8	371420	-275.583	3.36539	-738.932	-0.040853	0.297745	1.03299	0.34851	0.655882	3	45.5	0.151489	77214	
-13297.8	284717	-230.973	2.02343	-747.764	0.264821	0.418236	1.03299	0.34851	0.655882	3	45.5	0.170299	77215	
-18674.1	420257	-327.53	2.38619	-870.488	0.17611	0.466055	1.03299	0.34851	0.655882	3	45.5	0.176511	77218	
-13387.3	440112	-372.865	2.59488	-920.599	0.20915	0.468012	0.993198	0.349787	0.651995	0.0001	91	0.176511	77218	
-13387.3	440112	-372.865	2.59488	-920.599	0.20915	0.468012	0.993198	0.349787	0.651995	3	91	0.176511	77218	
-6905.78	463743	-425.809	2.83367	-983.489	0.249728	0.481657	0.958125	0.351078	0.648177	0.0001	182	0.176511	77218	
-17384.8	303981	-233.054	3.62233	-1106.97	-0.0478701	0.255287	1.03299	0.34851	0.655882	0.0001	45.5	0.150928	77219	
-17384.8	303981	-233.054	3.62233	-1106.97	-0.0478701	0.255287	1.03299	0.34851	0.655882	3	45.5	0.150928	77219	
-11906	325846	-294.207	3.96486	-1130.2	0.0152727	0.278205	0.993198	0.349787	0.651995	0.0001	91	0.150928	77219	
-11906	325846	-294.207	3.96486	-1130.2	0.0152727	0.278205	0.993198	0.349787	0.651995	3	91	0.150928	77219	
-4962.51	351344	-368.325	4.38032	-1176.02	0.0920031	0.323082	0.958125	0.351078	0.648177	0.0001	182	0.150928	77219	
-4962.51	351344	-368.325	4.38032	-1176.02	0.0920031	0.323082	0.958125	0.351078	0.648177	3	182	0.150928	77219	
-22992	721984	-383.506	1.73654	-1053.57	-0.000214526	0.505191	1.03299	0.34851	0.655882	3	45.5	0.139126	77220	
-16331.2	783698	-352.497	0.973761	-999.92	0.00065358	0.487566	1.03299	0.34851	0.655882	3	45.5	0.11834	77221	
-19654.8	372322	-36.8512	3.67006	-874.466	0.607925	0.137506	0.993198	0.349787	0.651995	3	91	0.021422	77222	
-26478	624913	-297.421	3.62466	-886.252	0.00543841	0.241101	0.993198	0.349787	0.651995	0.0001	91	0.101493	77223	
-26478	624913	-297.421	3.62466	-886.252	0.00543841	0.241101	0.993198	0.349787	0.651995	3	91	0.101493	77223	
-34345.4	849559	-207.362	2.15598	-983.268	0.00307531	0.310594	1.03299	0.34851	0.655882	0.0001	45.5	0.0679256	77224	
-34345.4	849559	-207.362	2.15598	-983.268	0.00307531	0.310594	1.03299	0.34851	0.655882	3	45.5	0.0679256	77224	
-26294.4	867099	-241.256	2.30205	-998.578	0.0249079	0.294685	0.993198	0.349787	0.651995	3	91	0.0679256	77224	
-9385.96	168806	-231.018	3.50867	-884.203	0.105455	0.275657	1.03299	0.34851	0.655882	0.0001	45.5	0.18473	77225	
-9385.96	168806	-231.018	3.50867	-884.203	0.105455	0.275657	1.03299	0.34851	0.655882	3	45.5	0.18473	77225	
-6147.05	185105	-283.344	3.8662	-928.517	0.167965	0.29633	0.993198	0.349787	0.651995	0.0001	91	0.18473	77225	
-6147.05	185105	-283.344	3.8662	-928.517	0.167965	0.29633	0.993198	0.349787	0.651995	3	91	0.18473	77225	
-1891.13	204828	-347.831	4.30127	-993.634	0.247759	0.339073	0.958125	0.351078	0.648177	0.0001	182	0.18473	77225	
-1891.13	204828	-347.831	4.30127	-993.634	0.247759	0.339073	0.958125	0.351078	0.648177	3	182	0.18473	77225	
-39275.7	821079	-299.657	2.64364	-921.269	0.0386992	0.324742	1.03299	0.34851	0.655882	0.0001	45.5	0.0971613	77226	
-39275.7	821079	-299.657	2.64364	-921.269	0.0386992	0.324742	1.03299	0.34851	0.655882	3	45.5	0.0971613	77226	
-29256.4	839048	-346.268	2.85636	-952.782	0.0723526	0.321577	0.993198	0.349787	0.651995	3	91	0.0971613	77226	
-19650.9	593421	-431.056	1.87402	-1111.01	0.0505006	0.59764	1.03299	0.34851	0.655882	3	45.5	0.184496	77227	
-13209.1	620703	-481.084	2.01135	-1144.81	0.0676065	0.6011	0.993198	0.349787	0.651995	3	91	0.184496	77227	
-5415.84	651336	-537.263	2.16273	-1187.02	0.0876608	0.613323	0.958125	0.351078	0.648177	3	182	0.184496	77227	
-20059.5	434304	-49.3572	2.11331	-1174.53	-0.0205178	0.274264	1.03299	0.34851	0.655882	3	45.5	0.0404292	77229	
-8788.54	127697	-151.811	1.22835	-590.446	0.321782	0.441831	1.03299	0.34851	0.655882	3	45.5	0.242741	77230	
-5590.92	163722	-208.616	1.55097	-739.755	0.420913	0.393123	0.9175	0.352806	0.64323	0.0001	455	0.242741	77230	
-15031	579363	-424.394	1.07231	-878.412	-0.00504306	0.631417	1.03299	0.34851	0.655882	3	45.5	0.190783	77231	
-29209.5	518911	-170.366	2.97769	-690.077	-0.0345886	0.229625	1.03299	0.34851	0.655882	3	45.5	0.0806051	77232	
-10137.3	164606	-197.526	3.35176	-857.665	0.207756	0.261579	1.03299	0.34851	0.655882	0.0001	45.5	0.163472	77233	
-10137.3	164606	-197.526	3.35176	-857.665	0.207756	0.261579	1.03299	0.34851	0.655882	3	45.5	0.163472	77233	
-7261.27	180783	-243.908	3.70119	-911.382	0.271246	0.276064	0.993198	0.349787	0.651995	0.0001	91	0.163472	77233	
-7261.27	180783	-243.908	3.70119	-911.382	0.271246	0.276064	0.993198	0.349787	0.651995	3	91	0.163472	77233	
-3474.43	200570	-301.449	4.12545	-985.902	0.353605	0.311319	0.958125	0.351078	0.648177	0.0001	182	0.163472	77233	
-3474.43	200570	-301.449	4.12545	-985.902	0.353605	0.311319	0.958125	0.351078	0.648177	3	182	0.163472	77233	
-28934.6	655177	-131.235	2.31676	-1062.78	-0.0250055	0.275453	1.03299	0.34851	0.655882	0.0001	45.5	0.0578153	77234	
-28934.6	655177	-131.235	2.31676	-1062.78	-0.0250055	0.275453	1.03299	0.34851	0.655882	3	45.5	0.0578153	77234	
-22398.3	673980	-163.471	2.47527	-1069.94	0.000210973	0.26066	0.993198	0.349787	0.651995	3	91	0.0578153	77234	
-12638.7	340228	-326.606	1.71173	-974.043	0.645584	0.549969	1.03299	0.34851	0.655882	3	45.5	0.209661	77235	
-23077.3	486918	-360.737	2.66189	-848.212	-0.0310306	0.466823	1.03299	0.34851	0.655882	3	45.5	0.174907	77237	
-16367.1	501195	-412.03	2.87773	-874.38	0.00265464	0.475564	0.993198	0.349787	0.651995	3	91	0.174907	77237	
-6378.46	145025	-279.443	2.91355	-742.745	0.716122	0.388204	1.03299	0.34851	0.655882	0.0001	45.5	0.238556	77238	
-6378.46	145025	-279.443	2.91355	-742.745	0.716122	0.388204	1.03299	0.34851	0.655882	3	45.5	0.238556	77238	
-3622.61	164007	-326.194	3.29711	-866.659	0.855174	0.399184	0.993198	0.349787	0.651995	0.0001	91	0.238556	77238	
-3622.61	164007	-326.194	3.29711	-866.659	0.855174	0.399184	0.993198	0.349787	0.651995	3	91	0.238556	77238	
180.63	190811	-387.253	3.78761	-1042.32	1.0524	0.430584	0.958125	0.351078	0.648177	0.0001	182	0.238556	77238	
180.63	190811	-387.253	3.78761	-1042.32	1.0524	0.430584	0.958125	0.351078	0.648177	3	182	0.238556	77238	
-29404.2	835788	-14.8699	2.22667	-798.458	0.334317	0.231508	0.993198	0.349787	0.651995	3	91	0.0058496	77239	
-12997.3	269335	-138.191	3.46202	-957.502	0.140461	0.20936	0.993198	0.349787	0.651995	0.0001	91	0.0840802	77241	
-12997.3	269335	-138.191	3.46202	-957.502	0.140461	0.20936	0.993198	0.349787	0.651995	3	91	0.0840802	77241	
-13375.7	417527	-355.23	1.43813	-981.395	0.535141	0.573673	1.03299	0.34851	0.655882	3	45.5	0.196974	77243	
-5007.11	493107	-432.169	1.72507	-1221.31	0.670425	0.569152	0.958125	0.351078	0.648177	0.0001	182	0.196974	77243	
-5007.11	493107	-432.169	1.72507	-1221.31	0.670425	0.569152	0.958125	0.351078	0.648177	3	182	0.196974	77243	
-18798	356106	-279.531	2.91743	-756.875	-0.0381063	0.368737	1.03299	0.34851	0.655882	3	45.5	0.165371	77244	
-13633.1	366819	-324.352	3.16003	-778.785	0.00244745	0.376438	0.993198	0.349787	0.651995	0.0001	91	0.165371	77244	
-13633.1	366819	-324.352	3.16003	-778.785	0.00244745	0.376438	0.993198	0.349787	0.651995	3	91	0.165371	77244	
-16093.3	938702	-402.786	0.664126	-856.006	0.319983	0.497504	1.03299	0.34851	0.655882	3	45.5	0.106179	77245	
-17395.2	960932	-244.987	0.664699	-635.904	0.15859	0.393892	1.03299	0.34851	0.655882	3	45.5	0.0650643	77246	
-19658.2	667363	-438.484	1.64554	-1134.52	-0.00762665	0.594285	1.03299	0.34851	0.655882	3	45.5	0.171294	77249	
-27923.4	758433	-130.481	1.79735	-914.551	0.00172204	0.314859	1.03299	0.34851	0.655882	3	45.5	0.0486888	77250	
-22083.6	819220	-256.135	1.43958	-1187.69	-0.00141377	0.394418	1.03299	0.34851	0.655882	3	45.5	0.0842826	77251	
-24696.9	686149	-79.9683	1.63803	-1070.02	0.396706	0.303356	1.03299	0.34851	0.655882	3	45.5	0.0339072	77254	
-16196.4	328348	-332.268	2.71958	-723.611	-0.0336697	0.470796	1.03299	0.34851	0.655882	3	45.5	0.209672	77255	
-11365.6	339078	-378.921	2.94335	-748.181	0.00153842	0.481467	0.993198	0.349787	0.651995	0.0001	91	0.209672	77255	
-11365.6	339078	-378.921	2.94335	-748.181	0.00153842	0.481467	0.993198	0.349787	0.651995	3	91	0.209672	77255	
-11747.4	441496	-344.671	2.31734	-1173.14	0.866285	0.447221	0.993198	0.349787	0.651995	0.0001	91	0.160173	77256	
-11747.4	441496	-344.671	2.31734	-1173.14	0.866285	0.447221	0.993198	0.349787	0.651995	3	91	0.160173	77256	
-8369.86	162982	-242.662	2.74609	-781.568	-0.0181766	0.401879	1.03299	0.34851	0.655882	0.0001	45.5	0.232983	77257	
-8369.86	162982	-242.662	2.74609	-781.568	-0.0181766	0.401879	1.03299	0.34851	0.655882	3	45.5	0.232983	77257	
-5851.13	174807	-283.1	2.97032	-801.242	0.017657	0.407371	0.993198	0.349787	0.651995	0.0001	91	0.232983	77257	
-5851.13	174807	-283.1	2.97032	-801.242	0.017657	0.407371	0.993198	0.349787	0.651995	3	91	0.232983	77257	
-2678.01	188258	-330.124	3.22808	-831.156	0.0600085	0.426245	0.958125	0.351078	0.648177	0.0001	182	0.232983	77257	
-2678.01	188258	-330.124	3.22808	-831.156	0.0600085	0.426245	0.958125	0.351078	0.648177	3	182	0.232983	77257	
-11383.1	135751	-49.4801	2.55166	-815.674	0.248211	0.254498	1.03299	0.34851	0.655882	0.0001	45.5	0.0690739	77258	
-11383.1	135751	-49.4801	2.55166	-815.674	0.248211	0.254498	1.03299	0.34851	0.655882	3	45.5	0.0690739	77258	
-14982	895372	-159.747	0.605749	-913.532	0.378378	0.36127	1.03299	0.34851	0.655882	3	45.5	0.0440923	77259	
-25187.1	482852	7.17248	2.33338	-1134.26	0.241352	0.242879	1.03299	0.34851	0.655882	0.0001	45.5	0.0130143	77260	
-30816.2	660616	-274.124	2.19659	-582.104	0.64707	0.344699	1.03299	0.34851	0.655882	3	45.5	0.0931161	77261	
-23946	692562	-306.295	2.43704	-668.317	0.746996	0.332997	0.993198	0.349787	0.651995	3	91	0.0931161	77261	
-19896.8	433410	-393.369	2.56046	-895.413	0.372093	0.524636	1.03299	0.34851	0.655882	3	45.5	0.197826	77262	
-13602.4	460590	-448.752	2.82976	-984.53	0.429181	0.536804	0.993198	0.349787	0.651995	0.0001	91	0.197826	77262	
-13602.4	460590	-448.752	2.82976	-984.53	0.429181	0.536804	0.993198	0.349787	0.651995	3	91	0.197826	77262	
-16803.6	327696	-301.532	3.0702	-898.535	0.0485435	0.38979	1.03299	0.34851	0.655882	3	45.5	0.185788	77264	
-11529	344785	-355.042	3.35341	-936.519	0.0945707	0.404052	0.993198	0.349787	0.651995	0.0001	91	0.185788	77264	
-11529	344785	-355.042	3.35341	-936.519	0.0945707	0.404052	0.993198	0.349787	0.651995	3	91	0.185788	77264	
-4966.76	365432	-418.991	3.68782	-990.875	0.151252	0.435312	0.958125	0.351078	0.648177	0.0001	182	0.185788	77264	
-4966.76	365432	-418.991	3.68782	-990.875	0.151252	0.435312	0.958125	0.351078	0.648177	3	182	0.185788	77264	
-31924.5	943700	-388.588	1.5152	-586.107	0.27034	0.454772	1.03299	0.34851	0.655882	3	45.5	0.103436	77265	
-10444.4	255895	-249.797	1.94682	-1178.32	-0.0166243	0.493479	1.03299	0.34851	0.655882	3	45.5	0.220268	77268	
-7717.3	281355	-288.45	2.07876	-1191.1	0.00116316	0.488078	0.993198	0.349787	0.651995	3	91	0.220268	77268	
-11594.6	212602	-256.517	2.92442	-805.772	0.769543	0.349702	1.03299	0.34851	0.655882	0.0001	45.5	0.184367	77269	
-11594.6	212602	-256.517	2.92442	-805.772	0.769543	0.349702	1.03299	0.34851	0.655882	3	45.5	0.184367	77269	
-8114.71	236755	-303.179	3.31744	-945.024	0.9247	0.358125	0.993198	0.349787	0.651995	0.0001	91	0.184367	77269	
-8114.71	236755	-303.179	3.31744	-945.024	0.9247	0.358125	0.993198	0.349787	0.651995	3	91	0.184367	77269	
-3335.44	271083	-365.069	3.82501	-1145.79	1.14844	0.387318	0.958125	0.351078	0.648177	0.0001	182	0.184367	77269	
-3335.44	271083	-365.069	3.82501	-1145.79	1.14844	0.387318	0.958125	0.351078	0.648177	3	182	0.184367	77269	
-10454.2	655999	-321.008	0.507963	-958.912	0.775769	0.471086	1.03299	0.34851	0.655882	3	45.5	0.110793	77272	
-11872.1	189108	-168.651	3.08106	-875.416	0.111526	0.272458	1.03299	0.34851	0.655882	0.0001	45.5	0.144172	77273	
-11872.1	189108	-168.651	3.08106	-875.416	0.111526	0.272458	1.03299	0.34851	0.655882	3	45.5	0.144172	77273	
-9041.61	204509	-209.237	3.36659	-910.451	0.159979	0.278464	0.993198	0.349787	0.651995	3	91	0.144172	77273	
-15159.7	332977	-385.453	2.92871	-978.689	0.222052	0.530215	1.03299	0.34851	0.655882	3	45.5	0.234709	77275	
-9371.49	357894	-448.661	3.23351	-1052.01	0.27329	0.553131	0.993198	0.349787	0.651995	0.0001	91	0.234709	77275	
-9371.49	357894	-448.661	3.23351	-1052.01	0.27329	0.553131	0.993198	0.349787	0.651995	3	91	0.234709	77275	
-1890.82	388880	-525.725	3.59827	-1148.66	0.339113	0.594101	0.958125	0.351078	0.648177	0.0001	182	0.234709	77275	
-1890.82	388880	-525.725	3.59827	-1148.66	0.339113	0.594101	0.958125	0.351078	0.648177	3	182	0.234709	77275	
-31922.2	667083	-248.531	2.6167	-996.789	0.296601	0.304865	1.03299	0.34851	0.655882	0.0001	45.5	0.0932284	77276	
-31922.2	667083	-248.531	2.6167	-996.789	0.296601	0.304865	1.03299	0.34851	0.655882	3	45.5	0.0932284	77276	
-23805.6	697212	-293.275	2.86495	-1068.54	0.345766	0.300046	0.993198	0.349787	0.651995	0.0001	91	0.0932284	77276	
-23805.6	697212	-293.275	2.86495	-1068.54	0.345766	0.300046	0.993198	0.349787	0.651995	3	91	0.0932284	77276	
-13479.1	226240	-61.3409	3.43935	-611.563	0.145623	0.179366	0.993198	0.349787	0.651995	0.0001	91	0.0417258	77278	
-13479.1	226240	-61.3409	3.43935	-611.563	0.145623	0.179366	0.993198	0.349787	0.651995	3	91	0.0417258	77278	
-25337.8	771188	-288.362	1.66258	-880.728	-0.00418559	0.409557	1.03299	0.34851	0.655882	3	45.5	0.0989761	77279	
-8065.47	44529.7	-59.0762	2.30067	-715.362	0.503061	0.285251	1.03299	0.34851	0.655882	0.0001	45.5	0.0968179	77281	
-8065.47	44529.7	-59.0762	2.30067	-715.362	0.503061	0.285251	1.03299	0.34851	0.655882	3	45.5	0.0968179	77281	
-14084.2	294939	-339.916	2.88941	-830.677	-0.0313353	0.481952	1.03299	0.34851	0.655882	3	45.5	0.228601	77283	
-9279.46	308974	-392.768	3.1391	-858.129	0.00853384	0.498504	0.993198	0.349787	0.651995	0.0001	91	0.228601	77283	
-9279.46	308974	-392.768	3.1391	-858.129	0.00853384	0.498504	0.993198	0.349787	0.651995	3	91	0.228601	77283	
-3327.14	325801	-454.866	3.43017	-899.107	0.0559929	0.530419	0.958125	0.351078	0.648177	0.0001	182	0.228601	77283	
-3327.14	325801	-454.866	3.43017	-899.107	0.0559929	0.530419	0.958125	0.351078	0.648177	3	182	0.228601	77283	
-7541.82	117336	-147.771	2.91426	-804.117	0.0795398	0.28108	0.993198	0.349787	0.651995	0.0001	91	0.140017	77285	
-7541.82	117336	-147.771	2.91426	-804.117	0.0795398	0.28108	0.993198	0.349787	0.651995	3	91	0.140017	77285	
-10391.6	192901	-231.434	2.70256	-777.493	0.0912806	0.380747	1.03299	0.34851	0.655882	3	45.5	0.202099	77287	
-7628.53	205741	-270.399	2.93644	-809.771	0.128028	0.383545	0.993198	0.349787	0.651995	0.0001	91	0.202099	77287	
-7628.53	205741	-270.399	2.93644	-809.771	0.128028	0.383545	0.993198	0.349787	0.651995	3	91	0.202099	77287	
-4161.46	220720	-316.212	3.20635	-853.113	0.172936	0.399796	0.958125	0.351078	0.648177	0.0001	182	0.202099	77287	
-4161.46	220720	-316.212	3.20635	-853.113	0.172936	0.399796	0.958125	0.351078	0.648177	3	182	0.202099	77287	
-4961.67	20695	-101.673	3.55853	-912.825	-0.0159736	0.189595	1.03299	0.34851	0.655882	3	45.5	0.0689478	77288	
-4480.67	35486.4	-142.399	3.88954	-926.723	0.0448629	0.206113	0.993198	0.349787	0.651995	0.0001	91	0.0689478	77288	
-4480.67	35486.4	-142.399	3.88954	-926.723	0.0448629	0.206113	0.993198	0.349787	0.651995	3	91	0.0689478	77288	
-3546.39	51393.9	-191.657	4.28871	-956.648	0.119176	0.243492	0.958125	0.351078	0.648177	0.0001	182	0.0689478	77288	
-3546.39	51393.9	-191.657	4.28871	-956.648	0.119176	0.243492	0.958125	0.351078	0.648177	3	182	0.0689478	77288	
-1288.4	75959.2	-276.229	4.97356	-1031.56	0.249987	0.332352	0.9175	0.352806	0.64323	0.0001	455	0.0689478	77288	
-1288.4	75959.2	-276.229	4.97356	-1031.56	0.249987	0.332352	0.9175	0.352806	0.64323	3	455	0.0689478	77288	
-3977.39	162751	-217.607	2.26689	-1125.27	0.0481613	0.359285	0.9175	0.352806	0.64323	0.0001	455	0.227014	77289	
-12365.6	225186	-129.307	3.8246	-818.568	0.0187979	0.175472	0.993198	0.349787	0.651995	0.0001	91	0.0807271	77291	
-12365.6	225186	-129.307	3.8246	-818.568	0.0187979	0.175472	0.993198	0.349787	0.651995	3	91	0.0807271	77291	
-9351.6	815674	-395.648	0.190282	-764.47	0.650126	0.503303	1.03299	0.34851	0.655882	3	45.5	0.111359	77292	
-29508.8	721952	-231.628	2.00013	-728.113	0.322713	0.339427	1.03299	0.34851	0.655882	3	45.5	0.0796755	77293	
-31891.9	632510	-232.721	2.44528	-679.778	0.761521	0.29361	1.03299	0.34851	0.655882	0.0001	45.5	0.0813229	77294	
-31891.9	632510	-232.721	2.44528	-679.778	0.761521	0.29361	1.03299	0.34851	0.655882	3	45.5	0.0813229	77294	
-24672.5	670129	-267.062	2.74148	-792.815	0.899237	0.284409	0.993198	0.349787	0.651995	0.0001	91	0.0813229	77294	
-24672.5	670129	-267.062	2.74148	-792.815	0.899237	0.284409	0.993198	0.349787	0.651995	3	91	0.0813229	77294	
-10013.5	102710	-51.2766	2.30597	-763.307	0.0171181	0.280887	1.03299	0.34851	0.655882	0.0001	45.5	0.0812051	77295	
-9090.13	112862	-71.4244	2.46919	-770.719	0.0422677	0.26627	0.993198	0.349787	0.651995	3	91	0.0812051	77295	
-11386.2	223959	-182.493	3.71081	-796.359	0.969698	0.208148	0.993198	0.349787	0.651995	0.0001	91	0.102042	77296	
-11386.2	223959	-182.493	3.71081	-796.359	0.969698	0.208148	0.993198	0.349787	0.651995	3	91	0.102042	77296	
-14744.3	288248	-152.399	2.07432	-672.982	0.414335	0.330013	1.03299	0.34851	0.655882	3	45.5	0.109076	77297	
-29218.6	749843	-124.615	2.82692	-877.574	0.0106311	0.20994	0.993198	0.349787	0.651995	3	91	0.0398796	77298	
-19978.3	565384	-405.943	1.71581	-813.762	-0.0127221	0.577686	1.03299	0.34851	0.655882	3	45.5	0.181961	77299	
-16181.8	491785	-76.8321	1.25404	-993.572	0.321147	0.327123	1.03299	0.34851	0.655882	3	45.5	0.042495	77300	
-11138.4	116914	-31.2708	2.91363	-1082.08	0.0481312	0.225367	1.03299	0.34851	0.655882	0.0001	45.5	0.0661973	77301	
-11138.4	116914	-31.2708	2.91363	-1082.08	0.0481312	0.225367	1.03299	0.34851	0.655882	3	45.5	0.0661973	77301	
-9669.87	137681	-63.8992	3.15779	-1097.59	0.0892857	0.223076	0.993198	0.349787	0.651995	0.0001	91	0.0661973	77301	
-27651.2	720942	-416.263	1.7785	-628.352	0.00422454	0.53233	1.03299	0.34851	0.655882	3	45.5	0.147722	77302	
-14273.2	348993	-310.359	1.64319	-624.742	0.209469	0.527427	1.03299	0.34851	0.655882	3	45.5	0.201691	77304	
-20654.7	351303	-222.609	3.07025	-845.138	0.651149	0.275684	1.03299	0.34851	0.655882	0.0001	45.5	0.121267	77305	
-20654.7	351303	-222.609	3.07025	-845.138	0.651149	0.275684	1.03299	0.34851	0.655882	3	45.5	0.121267	77305	
-15363.3	379350	-268.636	3.46083	-967.903	0.777959	0.283039	0.993198	0.349787	0.651995	0.0001	91	0.121267	77305	
-15363.3	379350	-268.636	3.46083	-967.903	0.777959	0.283039	0.993198	0.349787	0.651995	3	91	0.121267	77305	
-23293.4	486654	-211.651	2.54712	-884.61	-0.025085	0.32064	1.03299	0.34851	0.655882	3	45.5	0.107061	77306	
-17647.1	500318	-248.974	2.73708	-899.193	0.00555735	0.314551	0.993198	0.349787	0.651995	3	91	0.107061	77306	
-25482.6	790579	-73.5576	1.33946	-806.124	0.731553	0.313576	1.03299	0.34851	0.655882	3	45.5	0.0242486	77307	
-21318.6	600004	-285.315	1.82935	-925.059	0.00665174	0.42314	1.03299	0.34851	0.655882	3	45.5	0.1221	77313	
-11010.6	225995	-184.742	1.85848	-871.461	-0.0148703	0.408435	1.03299	0.34851	0.655882	3	45.5	0.176059	77314	
-6533.61	254293	-241.663	2.10408	-894.11	0.0195573	0.38716	0.958125	0.351078	0.648177	3	182	0.176059	77314	
-25580	543807	-175.635	3.88966	-941.411	0.000835017	0.145894	0.993198	0.349787	0.651995	0.0001	91	0.0663916	77316	
-25536.2	515378	-338.357	3.03162	-1055.72	-0.0408225	0.395851	1.03299	0.34851	0.655882	3	45.5	0.157388	77318	
-17674.3	536055	-398.823	3.29324	-1083.09	0.00309768	0.40918	0.993198	0.349787	0.651995	0.0001	91	0.157388	77318	
-17674.3	536055	-398.823	3.29324	-1083.09	0.00309768	0.40918	0.993198	0.349787	0.651995	3	91	0.157388	77318	
-11043.8	253959	-130.338	1.12141	-694.351	0.708424	0.375009	1.03299	0.34851	0.655882	3	45.5	0.11099	77319	
-12337.2	337034	-346.225	2.08939	-1155.31	-0.0199124	0.591817	1.03299	0.34851	0.655882	3	45.5	0.240993	77320	
-8154.76	362672	-394.789	2.24293	-1174.61	0.000689512	0.598899	0.993198	0.349787	0.651995	0.0001	91	0.240993	77320	
-11722.1	191266	-132.689	2.38458	-847.603	0.262154	0.31285	1.03299	0.34851	0.655882	0.0001	45.5	0.127297	77321	
-11722.1	191266	-132.689	2.38458	-847.603	0.262154	0.31285	1.03299	0.34851	0.655882	3	45.5	0.127297	77321	
-9813.01	195506	-238.427	2.4926	-879.794	-0.0272938	0.428561	1.03299	0.34851	0.655882	3	45.5	0.224494	77322	
-6282.29	-40902	-24.57	3.55322	-724.277	-0.0604867	0.211858	1.03299	0.34851	0.655882	0.0001	45.5	0.100983	77324	
-6282.29	-40902	-24.57	3.55322	-724.277	-0.0604867	0.211858	1.03299	0.34851	0.655882	3	45.5	0.100983	77324	
-31200.9	527731	-351.076	3.28181	-625.129	-0.0480142	0.34423	1.03299	0.34851	0.655882	0.0001	45.5	0.151422	77326	
-31200.9	527731	-351.076	3.28181	-625.129	-0.0480142	0.34423	1.03299	0.34851	0.655882	3	45.5	0.151422	77326	
-9380.77	546741	-413.831	0.218129	-769.503	0.012494	0.650904	1.03299	0.34851	0.655882	3	45.5	0.201557	77328	
-18903.8	669661	-17.9605	0.997809	-772.808	0.418638	0.322453	1.03299	0.34851	0.655882	3	45.5	0.00996924	77331	
-12388.5	511831	-426.651	0.461594	-590.979	0.0613665	0.68348	1.03299	0.34851	0.655882	3	45.5	0.217642	77332	
-20026	445523	-205.377	1.98641	-576.104	0.430923	0.35053	1.03299	0.34851	0.655882	3	45.5	0.102577	77334	
-14291.6	311775	-33.9114	1.49473	-939.711	0.553651	0.308118	1.03299	0.34851	0.655882	3	45.5	0.033744	77335	
-24053.8	492901	-403.768	2.55135	-728.995	0.229268	0.515455	1.03299	0.34851	0.655882	3	45.5	0.184667	77336	
-17204.5	511844	-455.149	2.7957	-789.045	0.270423	0.526236	0.993198	0.349787	0.651995	0.0001	91	0.184667	77336	
-17204.5	511844	-455.149	2.7957	-789.045	0.270423	0.526236	0.993198	0.349787	0.651995	3	91	0.184667	77336	
-28268	839785	-435.856	1.92367	-1150.75	0.11794	0.515056	1.03299	0.34851	0.655882	3	45.5	0.135538	77339	
-20365.6	420610	-20.5444	3.39134	-1185.01	0.132068	0.15992	0.993198	0.349787	0.651995	3	91	0.0174952	77340	
-18581.8	433723	-29.1735	1.71857	-840.674	0.10978	0.292428	1.03299	0.34851	0.655882	3	45.5	0.0247392	77343	
-11184.6	116390	-16.4922	2.72411	-1178.14	-0.0352088	0.240451	1.03299	0.34851	0.655882	3	45.5	0.0579416	77344	
-9836.58	140088	-48.0259	2.92929	-1177.17	-0.0001029	0.233572	0.993198	0.349787	0.651995	3	91	0.0579416	77344	
-36789.3	609479	-383.579	3.16106	-696.064	0.63945	0.337485	1.03299	0.34851	0.655882	0.0001	45.5	0.134001	77345	
-36789.3	609479	-383.579	3.16106	-696.064	0.63945	0.337485	1.03299	0.34851	0.655882	3	45.5	0.134001	77345	
-26930	643620	-441.124	3.57351	-815.938	0.766628	0.352244	0.993198	0.349787	0.651995	3	91	0.134001	77345	
-22819.8	550798	-405.438	2.24992	-893.509	0.034815	0.543364	1.03299	0.34851	0.655882	3	45.5	0.180864	77347	
-16082	569145	-455.554	2.42663	-926.702	0.0591443	0.549144	0.993198	0.349787	0.651995	0.0001	91	0.180864	77347	
-16082	569145	-455.554	2.42663	-926.702	0.0591443	0.549144	0.993198	0.349787	0.651995	3	91	0.180864	77347	
-7976.78	590714	-512.759	2.62537	-969.83	0.087976	0.565585	0.958125	0.351078	0.648177	0.0001	182	0.180864	77347	
-14823.6	809615	-246.276	0.627859	-655.822	0.00894256	0.408616	1.03299	0.34851	0.655882	3	45.5	0.079493	77348	
-12612.7	258018	-231.916	2.27627	-931.479	0.832137	0.395156	1.03299	0.34851	0.655882	0.0001	45.5	0.167779	77349	
-12612.7	258018	-231.916	2.27627	-931.479	0.832137	0.395156	1.03299	0.34851	0.655882	3	45.5	0.167779	77349	
-8152.27	266143	-312.599	2.91389	-1007.4	0.0109744	0.43499	0.993198	0.349787	0.651995	3	91	0.210817	77350	
-14308.2	846842	-213.782	0.737069	-1135.48	-0.00171243	0.387604	1.03299	0.34851	0.655882	3	45.5	0.0666822	77352	
-26454.9	702258	-268.393	2.00717	-1044.16	0.158921	0.385948	1.03299	0.34851	0.655882	3	45.5	0.098206	77354	
-8117.48	109510	-173.946	3.13642	-557.611	0.38018	0.249633	1.03299	0.34851	0.655882	0.0001	45.5	0.14798	77355	
-8117.48	109510	-173.946	3.13642	-557.611	0.38018	0.249633	1.03299	0.34851	0.655882	3	45.5	0.14798	77355	
-6328.6	118207	-206.531	3.48128	-612.591	0.455578	0.256617	0.993198	0.349787	0.651995	0.0001	91	0.14798	77355	
-6328.6	118207	-206.531	3.48128	-612.591	0.455578	0.256617	0.993198	0.349787	0.651995	3	91	0.14798	77355	
-3998.67	129419	-247.334	3.90219	-686.129	0.555331	0.283028	0.958125	0.351078	0.648177	0.0001	182	0.14798	77355	
-3998.67	129419	-247.334	3.90219	-686.129	0.555331	0.283028	0.958125	0.351078	0.648177	3	182	0.14798	77355	
-7005.9	83238.1	-153.042	2.56682	-566.889	0.621451	0.299698	1.03299	0.34851	0.655882	0.0001	45.5	0.161976	77356	
-7005.9	83238.1	-153.042	2.56682	-566.889	0.621451	0.299698	1.03299	0.34851	0.655882	3	45.5	0.161976	77356	
-5883.74	92917.1	-179.531	2.86084	-642.763	0.724944	0.293818	0.993198	0.349787	0.651995	0.0001	91	0.161976	77356	
-5883.74	92917.1	-179.531	2.86084	-642.763	0.724944	0.293818	0.993198	0.349787	0.651995	3	91	0.161976	77356	
-4348.64	105854	-213.043	3.22128	-745.002	0.864541	0.302833	0.958125	0.351078	0.648177	0.0001	182	0.161976	77356	
-4348.64	105854	-213.043	3.22128	-745.002	0.864541	0.302833	0.958125	0.351078	0.648177	3	182	0.161976	77356	
-1344.67	131551	-274.445	3.85879	-949.559	1.1437	0.342973	0.9175	0.352806	0.64323	0.0001	455	0.161976	77356	
-1344.67	131551	-274.445	3.85879	-949.559	1.1437	0.342973	0.9175	0.352806	0.64323	3	455	0.161976	77356	
-33493.1	632173	-269.204	2.6999	-814.784	0.798912	0.291596	1.03299	0.34851	0.655882	0.0001	45.5	0.0934705	77357	
-33493.1	632173	-269.204	2.6999	-814.784	0.798912	0.291596	1.03299	0.34851	0.655882	3	45.5	0.0934705	77357	
-25275.8	675946	-313.48	3.04936	-958.844	0.955827	0.289183	0.993198	0.349787	0.651995	3	91	0.0934705	77357	
-12867.4	452735	-392.129	1.21075	-976.721	0.170776	0.641943	1.03299	0.34851	0.655882	3	45.5	0.217015	77358	
-13043	296369	-75.1447	1.30028	-602.558	0.536182	0.329377	1.03299	0.34851	0.655882	3	45.5	0.0583519	77361	
-11487.2	208493	-160.61	3.81247	-672.329	0.0997521	0.191314	0.993198	0.349787	0.651995	0.0001	91	0.0978147	77362	
-11487.2	208493	-160.61	3.81247	-672.329	0.0997521	0.191314	0.993198	0.349787	0.651995	3	91	0.0978147	77362	
-34129.6	635176	-207.319	2.97717	-889.178	-0.0267333	0.244716	1.03299	0.34851	0.655882	3	45.5	0.0853047	77363	
-25681	648387	-249.612	3.21934	-906.912	0.0153781	0.245357	0.993198	0.349787	0.651995	3	91	0.0853047	77363	
-23409.6	948582	-88.1647	1.04355	-826.787	0.0991398	0.330288	1.03299	0.34851	0.655882	3	45.5	0.0262107	77364	
-13993.7	592393	-430.063	0.80291	-809.262	0.512044	0.612051	1.03299	0.34851	0.655882	3	45.5	0.173821	77365	
-12917.4	328444	-271.559	1.70207	-898.046	0.562185	0.477167	1.03299	0.34851	0.655882	3	45.5	0.180131	77366	
-7522.46	-5642.37	-19.8433	3.42486	-950.982	0.00253608	0.227595	0.993198	0.349787	0.651995	0.0001	91	0.0506614	77367	
-7522.46	-5642.37	-19.8433	3.42486	-950.982	0.00253608	0.227595	0.993198	0.349787	0.651995	3	91	0.0506614	77367	
-34962	702825	-257.951	2.81668	-1109.76	0.283108	0.287591	1.03299	0.34851	0.655882	0.0001	45.5	0.0935633	77368	
-34962	702825	-257.951	2.81668	-1109.76	0.283108	0.287591	1.03299	0.34851	0.655882	3	45.5	0.0935633	77368	
-25705.6	737484	-309.514	3.09235	-1187.81	0.336462	0.287084	0.993198	0.349787	0.651995	0.0001	91	0.0935633	77368	
-25705.6	737484	-309.514	3.09235	-1187.81	0.336462	0.287084	0.993198	0.349787	0.651995	3	91	0.0935633	77368	
-11057.1	417408	-311.511	0.569567	-602.219	0.0627591	0.561028	1.03299	0.34851	0.655882	3	45.5	0.192857	77369	
-19966.8	432939	-115.146	2.06291	-647.558	0.0855668	0.296459	1.03299	0.34851	0.655882	3	45.5	0.065889	77370	
-11215.4	141265	-73.0588	2.5248	-696.632	0.03034	0.266657	1.03299	0.34851	0.655882	3	45.5	0.0864608	77371	
-23905.3	615046	-74.6975	1.84406	-1119.11	0.054377	0.293496	1.03299	0.34851	0.655882	3	45.5	0.0383588	77373	
-32585.2	821154	-438.605	1.75777	-603.201	0.613138	0.490893	1.03299	0.34851	0.655882	0.0001	45.5	0.123722	77374	
-32585.2	821154	-438.605	1.75777	-603.201	0.613138	0.490893	1.03299	0.34851	0.655882	3	45.5	0.123722	77374	
-24820.2	860131	-477.905	1.93747	-692.174	0.695497	0.482314	0.993198	0.349787	0.651995	3	91	0.123722	77374	
-6376.47	93981.9	-174.838	3.49173	-813.599	0.0247508	0.227845	1.03299	0.34851	0.655882	0.0001	45.5	0.159637	77376	
-6376.47	93981.9	-174.838	3.49173	-813.599	0.0247508	0.227845	1.03299	0.34851	0.655882	3	45.5	0.159637	77376	
-4562.56	106553	-218.598	3.82396	-839.47	0.0838636	0.244451	0.993198	0.349787	0.651995	0.0001	91	0.159637	77376	
-4562.56	106553	-218.598	3.82396	-839.47	0.0838636	0.244451	0.993198	0.349787	0.651995	3	91	0.159637	77376	
-2109.03	121040	-271.723	4.22438	-881.56	0.157077	0.281715	0.958125	0.351078	0.648177	0.0001	182	0.159637	77376	
-2109.03	121040	-271.723	4.22438	-881.56	0.157077	0.281715	0.958125	0.351078	0.648177	3	182	0.159637	77376	
-37498.4	859800	-297.962	2.41731	-1006.68	0.0690523	0.342576	1.03299	0.34851	0.655882	0.0001	45.5	0.0930872	77377	
-37498.4	859800	-297.962	2.41731	-1006.68	0.0690523	0.342576	1.03299	0.34851	0.655882	3	45.5	0.0930872	77377	
-27879.6	882352	-343.152	2.60584	-1041.29	0.0978158	0.335023	0.993198	0.349787	0.651995	3	91	0.0930872	77377	
-15386.8	591839	-477.341	2.198	-1042.26	0.859299	0.560766	0.993198	0.349787	0.651995	0.0001	91	0.171925	77378	
-15386.8	591839	-477.341	2.198	-1042.26	0.859299	0.560766	0.993198	0.349787	0.651995	3	91	0.171925	77378	
-7140.36	649185	-537.03	2.48099	-1241.99	1.02209	0.574085	0.958125	0.351078	0.648177	3	182	0.171925	77378	
-20106.5	432378	-429.821	2.80478	-908.387	-0.0377188	0.579844	1.03299	0.34851	0.655882	3	45.5	0.226078	77380	
-13141.9	449780	-492.526	3.04944	-941.06	-8.47671e-05	0.603496	0.993198	0.349787	0.651995	0.0001	91	0.226078	77380	
-13141.9	449780	-492.526	3.04944	-941.06	-8.47671e-05	0.603496	0.993198	0.349787	0.651995	3	91	0.226078	77380	
-4538.87	471018	-566.15	3.33457	-988.78	0.044659	0.64273	0.958125	0.351078	0.648177	0.0001	182	0.226078	77380	
-4538.87	471018	-566.15	3.33457	-988.78	0.044659	0.64273	0.958125	0.351078	0.648177	3	182	0.226078	77380	
-24857.2	502289	-386.46	3.19138	-1123.84	-0.0380992	0.448522	1.03299	0.34851	0.655882	3	45.5	0.180997	77381	
-16395	526610	-457.02	3.4836	-1158.27	0.0107753	0.471456	0.993198	0.349787	0.651995	0.0001	91	0.180997	77381	
-16395	526610	-457.02	3.4836	-1158.27	0.0107753	0.471456	0.993198	0.349787	0.651995	3	91	0.180997	77381	
-14485.5	350026	-19.2614	1.38112	-1174.73	0.105666	0.312377	1.03299	0.34851	0.655882	3	45.5	0.0256459	77382	
-17005.4	430861	-173.341	1.73976	-814.177	0.212955	0.355606	1.03299	0.34851	0.655882	3	45.5	0.0971216	77383	
-40695.2	697307	-385.624	3.50368	-1023.89	0.0712746	0.320649	1.03299	0.34851	0.655882	0.0001	45.5	0.137548	77384	
-40695.2	697307	-385.624	3.50368	-1023.89	0.0712746	0.320649	1.03299	0.34851	0.655882	3	45.5	0.137548	77384	
-23324.4	574794	-114.302	2.82693	-776.404	0.493417	0.215284	0.993198	0.349787	0.651995	3	91	0.0422557	77386	
-4596.53	664647	-386.857	0.00316977	-1098.68	0.531238	0.537973	1.03299	0.34851	0.655882	0.0001	45.5	0.138025	77388	
-4596.53	664647	-386.857	0.00316977	-1098.68	0.531238	0.537973	1.03299	0.34851	0.655882	3	45.5	0.138025	77388	
-33621.8	833155	-429.868	2.25415	-996.018	0.0226577	0.484364	1.03299	0.34851	0.655882	3	45.5	0.136323	77389	
-24015.6	855143	-483.285	2.42576	-1029.64	0.0468668	0.484644	0.993198	0.349787	0.651995	3	91	0.136323	77389	
-16858	956381	-258.491	0.626707	-601.949	0.0400539	0.403248	1.03299	0.34851	0.655882	3	45.5	0.070405	77390	
-10939.5	304515	-244.529	1.35155	-974.344	0.161608	0.491281	1.03299	0.34851	0.655882	3	45.5	0.191914	77395	
-15973.6	191710	9.31461	3.1689	-824.007	0.641304	0.160823	1.03299	0.34851	0.655882	0.0001	45.5	0.0201185	77396	
-15973.6	191710	9.31461	3.1689	-824.007	0.641304	0.160823	1.03299	0.34851	0.655882	3	45.5	0.0201185	77396	
-35654.2	813427	-183.961	2.36663	-1056.43	0.0483843	0.282011	1.03299	0.34851	0.655882	0.0001	45.5	0.0636681	77397	
-35654.2	813427	-183.961	2.36663	-1056.43	0.0483843	0.282011	1.03299	0.34851	0.655882	3	45.5	0.0636681	77397	
-27210.6	835471	-220.692	2.54152	-1079.87	0.0754069	0.268922	0.993198	0.349787	0.651995	3	91	0.0636681	77397	
-14174.6	388260	-79.4879	1.38681	-1185.74	0.0478625	0.329832	1.03299	0.34851	0.655882	3	45.5	0.057154	77399	
-34829.2	697921	-379.603	2.67988	-862.213	0.440187	0.395221	1.03299	0.34851	0.655882	0.0001	45.5	0.128401	77400	
-34829.2	697921	-379.603	2.67988	-862.213	0.440187	0.395221	1.03299	0.34851	0.655882	3	45.5	0.128401	77400	
-25390.8	731694	-433.693	2.96968	-960.59	0.510705	0.399268	0.993198	0.349787	0.651995	0.0001	91	0.128401	77400	
-25390.8	731694	-433.693	2.96968	-960.59	0.510705	0.399268	0.993198	0.349787	0.651995	3	91	0.128401	77400	
-25685.4	472647	-429.182	3.33997	-873.183	0.0232011	0.473988	1.03299	0.34851	0.655882	3	45.5	0.200259	77401	
-17060.8	490476	-499.427	3.67163	-922.983	0.0774671	0.50443	0.993198	0.349787	0.651995	0.0001	91	0.200259	77401	
-17060.8	490476	-499.427	3.67163	-922.983	0.0774671	0.50443	0.993198	0.349787	0.651995	3	91	0.200259	77401	
-6331.83	513807	-584.76	4.07186	-994.771	0.145065	0.556019	0.958125	0.351078	0.648177	0.0001	182	0.200259	77401	
-6331.83	513807	-584.76	4.07186	-994.771	0.145065	0.556019	0.958125	0.351078	0.648177	3	182	0.200259	77401	
-21659.9	532672	-271.186	2.3235	-1145.56	0.0496947	0.39143	1.03299	0.34851	0.655882	3	45.5	0.127662	77402	
-15654.9	558808	-316.354	2.50091	-1175.64	0.0758387	0.385394	0.993198	0.349787	0.651995	0.0001	91	0.127662	77402	
-8322.61	68909.8	-84.5786	1.32524	-706.098	0.655538	0.369535	1.03299	0.34851	0.655882	3	45.5	0.199985	77404	
-6423.09	128376	-143.675	1.81797	-1107.33	1.0545	0.309668	0.9175	0.352806	0.64323	0.0001	455	0.199985	77404	
-6423.09	128376	-143.675	1.81797	-1107.33	1.0545	0.309668	0.9175	0.352806	0.64323	3	455	0.199985	77404	
-31135.8	590179	-260.41	3.00158	-909.346	-0.0430491	0.290818	1.03299	0.34851	0.655882	0.0001	45.5	0.110841	77405	
-31135.8	590179	-260.41	3.00158	-909.346	-0.0430491	0.290818	1.03299	0.34851	0.655882	3	45.5	0.110841	77405	
-22936.4	604229	-308.377	3.24865	-929.508	-0.000134811	0.295246	0.993198	0.349787	0.651995	0.0001	91	0.110841	77405	
-22936.4	604229	-308.377	3.24865	-929.508	-0.000134811	0.295246	0.993198	0.349787	0.651995	3	91	0.110841	77405	
-29372.9	667714	-243.068	2.36911	-1062.72	0.432	0.324622	1.03299	0.34851	0.655882	0.0001	45.5	0.0899031	77406	
-29372.9	667714	-243.068	2.36911	-1062.72	0.432	0.324622	1.03299	0.34851	0.655882	3	45.5	0.0899031	77406	
-21953.9	706145	-285.684	2.60274	-1160.97	0.492745	0.315159	0.993198	0.349787	0.651995	0.0001	91	0.0899031	77406	
-21953.9	706145	-285.684	2.60274	-1160.97	0.492745	0.315159	0.993198	0.349787	0.651995	3	91	0.0899031	77406	
-12912.9	193433	-25.8571	1.93311	-582.119	0.723946	0.281635	1.03299	0.34851	0.655882	3	45.5	0.033712	77407	
-31228.7	566277	-417.205	2.64126	-549.081	0.697553	0.445942	1.03299	0.34851	0.655882	0.0001	45.5	0.153344	77409	
-31228.7	566277	-417.205	2.64126	-549.081	0.697553	0.445942	1.03299	0.34851	0.655882	3	45.5	0.153344	77409	
-6327.75	52979.3	-112.251	2.62988	-1109.73	0.185332	0.306077	1.03299	0.34851	0.655882	3	45.5	0.183339	77410	
-4245.82	102240	-193.326	3.13046	-1215.8	0.274168	0.309859	0.958125	0.351078	0.648177	3	182	0.183339	77410	
-1351.76	143233	-267.051	3.56252	-1325.89	0.359703	0.342966	0.9175	0.352806	0.64323	0.0001	455	0.183339	77410	
-1351.76	143233	-267.051	3.56252	-1325.89	0.359703	0.342966	0.9175	0.352806	0.64323	3	455	0.183339	77410	
-17932.8	246445	25.1779	3.01744	-1069.71	0.000128391	0.184449	1.03299	0.34851	0.655882	3	45.5	0.0144908	77411	
-14771.8	265947	-3.43996	3.26478	-1072.39	0.0434774	0.182697	0.993198	0.349787	0.651995	0.0001	91	0.0144908	77411	
-14771.8	265947	-3.43996	3.26478	-1072.39	0.0434774	0.182697	0.993198	0.349787	0.651995	3	91	0.0144908	77411	
-11432.3	233577	-280.553	2.31519	-668.279	0.0661016	0.477728	1.03299	0.34851	0.655882	0.0001	45.5	0.230846	77412	
-11432.3	233577	-280.553	2.31519	-668.279	0.0661016	0.477728	1.03299	0.34851	0.655882	3	45.5	0.230846	77412	
-8433.82	243866	-316.592	2.49983	-695.695	0.092513	0.478874	0.993198	0.349787	0.651995	0.0001	91	0.230846	77412	
-8433.82	243866	-316.592	2.49983	-695.695	0.092513	0.478874	0.993198	0.349787	0.651995	3	91	0.230846	77412	
-16010.3	727926	-403.725	0.714698	-671.321	0.607245	0.528845	1.03299	0.34851	0.655882	3	45.5	0.129257	77416	
-10321.3	227699	-187.985	1.30449	-742.013	0.029394	0.447352	1.03299	0.34851	0.655882	3	45.5	0.191236	77419	
-19512.8	717881	-305.043	1.43807	-1114.58	-0.00721081	0.443821	1.03299	0.34851	0.655882	3	45.5	0.112227	77420	
-9702.81	175528	-3.12755	0.561176	-866.585	0.215773	0.337585	1.03299	0.34851	0.655882	0.0001	45.5	0.0127887	77421	
-7077.73	155179	-293.522	3.57865	-620.11	-0.0452619	0.312063	1.03299	0.34851	0.655882	0.0001	45.5	0.220005	77423	
-7077.73	155179	-293.522	3.57865	-620.11	-0.0452619	0.312063	1.03299	0.34851	0.655882	3	45.5	0.220005	77423	
-3715.35	163529	-343.63	3.92038	-649.979	0.0164117	0.337379	0.993198	0.349787	0.651995	0.0001	91	0.220005	77423	
-3715.35	163529	-343.63	3.92038	-649.979	0.0164117	0.337379	0.993198	0.349787	0.651995	3	91	0.220005	77423	
517.524	174247	-404.406	4.33473	-696.135	0.0915076	0.384629	0.958125	0.351078	0.648177	0.0001	182	0.220005	77423	
517.524	174247	-404.406	4.33473	-696.135	0.0915076	0.384629	0.958125	0.351078	0.648177	3	182	0.220005	77423	
-24584.9	812783	-441.014	1.41777	-823.183	0.137871	0.54956	1.03299	0.34851	0.655882	3	45.5	0.139037	77426	
-34868.4	700547	-440.216	2.65541	-730.222	-0.00242815	0.48514	1.03299	0.34851	0.655882	0.0001	45.5	0.158174	77427	
-34868.4	700547	-440.216	2.65541	-730.222	-0.00242815	0.48514	1.03299	0.34851	0.655882	3	45.5	0.158174	77427	
-25305.9	713242	-495.339	2.87627	-765.904	0.0311561	0.495424	0.993198	0.349787	0.651995	0.0001	91	0.158174	77427	
-25305.9	713242	-495.339	2.87627	-765.904	0.0311561	0.495424	0.993198	0.349787	0.651995	3	91	0.158174	77427	
-30534.7	568519	-428.471	3.08645	-962.767	0.597848	0.432841	1.03299	0.34851	0.655882	0.0001	45.5	0.163613	77428	
-30534.7	568519	-428.471	3.08645	-962.767	0.597848	0.432841	1.03299	0.34851	0.655882	3	45.5	0.163613	77428	
-20951	609756	-498.428	3.48447	-1109.34	0.712476	0.452754	0.993198	0.349787	0.651995	0.0001	91	0.163613	77428	
-20951	609756	-498.428	3.48447	-1109.34	0.712476	0.452754	0.993198	0.349787	0.651995	3	91	0.163613	77428	
-8378.6	665941	-588.746	3.98898	-1312.97	0.871827	0.494965	0.958125	0.351078	0.648177	0.0001	182	0.163613	77428	
-8378.6	665941	-588.746	3.98898	-1312.97	0.871827	0.494965	0.958125	0.351078	0.648177	3	182	0.163613	77428	
-12025	381853	-359.933	2.17648	-724.871	0.371022	0.501225	0.993198	0.349787	0.651995	0.0001	91	0.192695	77429	
-14835.8	646774	-114.482	0.743442	-590.918	0.0746817	0.351288	1.03299	0.34851	0.655882	3	45.5	0.0462052	77430	
-12110	188847	-122.997	2.77498	-977.365	-0.00858579	0.277572	1.03299	0.34851	0.655882	3	45.5	0.120663	77434	
-12783.4	713599	-309.467	0.54001	-691.738	0.0647237	0.466883	1.03299	0.34851	0.655882	3	45.5	0.111906	77436	
-13202.7	244374	-136.673	2.22087	-813.239	-0.0137183	0.324294	1.03299	0.34851	0.655882	3	45.5	0.118499	77438	
-5809.52	38191.7	-107.268	2.91627	-841.7	0.145585	0.254897	1.03299	0.34851	0.655882	0.0001	45.5	0.11895	77439	
-5809.52	38191.7	-107.268	2.91627	-841.7	0.145585	0.254897	1.03299	0.34851	0.655882	3	45.5	0.11895	77439	
-5212.33	51460.4	-139.781	3.18047	-874.278	0.190768	0.254789	0.993198	0.349787	0.651995	0.0001	91	0.11895	77439	
-5212.33	51460.4	-139.781	3.18047	-874.278	0.190768	0.254789	0.993198	0.349787	0.651995	3	91	0.11895	77439	
-4237.96	66387.3	-178.882	3.48948	-919.082	0.247035	0.269864	0.958125	0.351078	0.648177	0.0001	182	0.11895	77439	
-4237.96	66387.3	-178.882	3.48948	-919.082	0.247035	0.269864	0.958125	0.351078	0.648177	3	182	0.11895	77439	
-2125.09	90112	-244.777	3.99708	-1005.5	0.346171	0.316476	0.9175	0.352806	0.64323	0.0001	455	0.11895	77439	
-2125.09	90112	-244.777	3.99708	-1005.5	0.346171	0.316476	0.9175	0.352806	0.64323	3	455	0.11895	77439	
-18350.7	558862	-43.0937	4.39528	-952.426	1.13333	0.139653	0.958125	0.351078	0.648177	3	182	0.00662271	77440	
-32419.3	799262	-310.704	2.15218	-927.119	0.242928	0.377909	1.03299	0.34851	0.655882	3	45.5	0.099259	77441	
-24247	827183	-351.631	2.33265	-985.74	0.275571	0.367212	0.993198	0.349787	0.651995	3	91	0.099259	77441	
-23431.4	670724	-448.104	1.68943	-927.369	0.689448	0.56242	1.03299	0.34851	0.655882	3	45.5	0.15247	77443	
-16730.3	718286	-493.605	1.87191	-1065.31	0.789353	0.559508	0.993198	0.349787	0.651995	3	91	0.15247	77443	
-8252.39	779537	-547.647	2.0902	-1247.85	0.921513	0.565642	0.958125	0.351078	0.648177	0.0001	182	0.15247	77443	
-8252.39	779537	-547.647	2.0902	-1247.85	0.921513	0.565642	0.958125	0.351078	0.648177	3	182	0.15247	77443	
-15492.5	280915	-57.3642	2.1314	-953.652	0.574712	0.276271	1.03299	0.34851	0.655882	3	45.5	0.0529505	77444	
-4266.23	27330.8	-147.687	3.80321	-698.754	0.16831	0.202046	0.993198	0.349787	0.651995	0.0001	91	0.0452087	77445	
-4266.23	27330.8	-147.687	3.80321	-698.754	0.16831	0.202046	0.993198	0.349787	0.651995	3	91	0.0452087	77445	
-3540.76	36949.1	-188.311	4.21453	-739.743	0.245402	0.236259	0.958125	0.351078	0.648177	0.0001	182	0.0452087	77445	
-3540.76	36949.1	-188.311	4.21453	-739.743	0.245402	0.236259	0.958125	0.351078	0.648177	3	182	0.0452087	77445	
-1862.79	52886.7	-259.27	4.92333	-825.873	0.386327	0.321065	0.9175	0.352806	0.64323	0.0001	455	0.0452087	77445	
-1862.79	52886.7	-259.27	4.92333	-825.873	0.386327	0.321065	0.9175	0.352806	0.64323	3	455	0.0452087	77445	
-29237.2	614558	-301.108	2.42728	-612.469	-0.0254601	0.377751	1.03299	0.34851	0.655882	0.0001	45.5	0.121634	77446	
-29237.2	614558	-301.108	2.42728	-612.469	-0.0254601	0.377751	1.03299	0.34851	0.655882	3	45.5	0.121634	77446	
-22234.5	621615	-337.75	2.6063	-632.459	0.00235271	0.372987	0.993198	0.349787	0.651995	0.0001	91	0.121634	77446	
-22234.5	621615	-337.75	2.6063	-632.459	0.00235271	0.372987	0.993198	0.349787	0.651995	3	91	0.121634	77446	
-15638.9	389996	-346.182	1.86823	-763.435	0.180909	0.548947	1.03299	0.34851	0.655882	3	45.5	0.204594	77447	
-11517.6	406686	-383.707	2.01648	-805.856	0.203274	0.547496	0.993198	0.349787	0.651995	0.0001	91	0.204594	77447	
-11517.6	406686	-383.707	2.01648	-805.856	0.203274	0.547496	0.993198	0.349787	0.651995	3	91	0.204594	77447	
-10848.6	181980	-127.861	1.81169	-629.348	-0.00923091	0.354165	1.03299	0.34851	0.655882	3	45.5	0.138858	77448	
-5074.52	207357	-197.331	2.21546	-663.986	0.0498985	0.316671	0.9175	0.352806	0.64323	0.0001	455	0.138858	77448	
-10662.8	192566	-202.849	2.24642	-741.347	0.485859	0.385942	1.03299	0.34851	0.655882	3	45.5	0.183293	77449	
-8317.37	11923	10.8788	2.67958	-846.954	0.39149	0.247269	1.03299	0.34851	0.655882	0.0001	45.5	0.041062	77452	
-8317.37	11923	10.8788	2.67958	-846.954	0.39149	0.247269	1.03299	0.34851	0.655882	3	45.5	0.041062	77452	
-13978.6	383634	-158.983	1.51629	-983.206	-0.00381045	0.370267	1.03299	0.34851	0.655882	3	45.5	0.104114	77454	
-17195.9	392601	-438.765	2.03618	-680.547	0.383609	0.664286	1.03299	0.34851	0.655882	0.0001	45.5	0.243555	77457	
-12071	413398	-485.844	2.23747	-752.436	0.429676	0.678556	0.993198	0.349787	0.651995	0.0001	91	0.243555	77457	
-12071	413398	-485.844	2.23747	-752.436	0.429676	0.678556	0.993198	0.349787	0.651995	3	91	0.243555	77457	
-5672.6	439028	-540.926	2.47143	-841.749	0.487048	0.70437	0.958125	0.351078	0.648177	3	182	0.243555	77457	
-12455.7	478880	-211.964	0.937019	-880.248	0.0181327	0.420057	1.03299	0.34851	0.655882	3	45.5	0.113665	77458	
-13956.7	618617	-407.867	0.899343	-923.032	0.292107	0.583072	1.03299	0.34851	0.655882	3	45.5	0.164239	77459	
-21897.9	417373	-261.56	2.81444	-784.797	0.153354	0.341531	1.03299	0.34851	0.655882	3	45.5	0.137472	77460	
-16223.6	433092	-304.518	3.07196	-828.873	0.19613	0.344563	0.993198	0.349787	0.651995	0.0001	91	0.137472	77460	
-13085.9	472029	-228.357	1.1815	-1079.66	0.29641	0.424785	1.03299	0.34851	0.655882	3	45.5	0.118541	77462	
-13437.1	334718	-35.4367	1.19489	-643.239	-0.00504563	0.322013	1.03299	0.34851	0.655882	3	45.5	0.0309908	77463	
-23303.1	755532	-388.306	1.40676	-730.353	0.074211	0.508232	1.03299	0.34851	0.655882	3	45.5	0.132398	77467	
-11604.3	213252	-265.755	2.95869	-650.64	0.0771405	0.373192	1.03299	0.34851	0.655882	0.0001	45.5	0.202478	77468	
-11604.3	213252	-265.755	2.95869	-650.64	0.0771405	0.373192	1.03299	0.34851	0.655882	3	45.5	0.202478	77468	
-8203.59	223084	-307.285	3.22796	-684.295	0.120626	0.382749	0.993198	0.349787	0.651995	0.0001	91	0.202478	77468	
-8203.59	223084	-307.285	3.22796	-684.295	0.120626	0.382749	0.993198	0.349787	0.651995	3	91	0.202478	77468	
-4002.6	235173	-356.64	3.54384	-730.198	0.174277	0.408141	0.958125	0.351078	0.648177	0.0001	182	0.202478	77468	
-4002.6	235173	-356.64	3.54384	-730.198	0.174277	0.408141	0.958125	0.351078	0.648177	3	182	0.202478	77468	
-41473.6	831727	-384.726	2.81162	-990.793	0.196966	0.37151	1.03299	0.34851	0.655882	0.0001	45.5	0.118686	77469	
-41473.6	831727	-384.726	2.81162	-990.793	0.196966	0.37151	1.03299	0.34851	0.655882	3	45.5	0.118686	77469	
-30037.3	861028	-443.941	3.07878	-1058.3	0.242583	0.376866	0.993198	0.349787	0.651995	0.0001	91	0.118686	77469	
-14922.8	706912	-398.224	0.84526	-928.359	0.705582	0.526003	1.03299	0.34851	0.655882	3	45.5	0.129767	77470	
-17329.2	460798	-206.229	1.81518	-1018.61	0.313028	0.373977	1.03299	0.34851	0.655882	3	45.5	0.107811	77471	
-5858.97	123187	-240.266	3.40506	-780.97	0.103509	0.29251	1.03299	0.34851	0.655882	0.0001	45.5	0.207804	77473	
-5858.97	123187	-240.266	3.40506	-780.97	0.103509	0.29251	1.03299	0.34851	0.655882	3	45.5	0.207804	77473	
-3334.7	136276	-288.682	3.7455	-822.507	0.162296	0.310661	0.993198	0.349787	0.651995	0.0001	91	0.207804	77473	
-3334.7	136276	-288.682	3.7455	-822.507	0.162296	0.310661	0.993198	0.349787	0.651995	3	91	0.207804	77473	
2.5516	152143	-347.939	4.15694	-882.189	0.236912	0.34958	0.958125	0.351078	0.648177	0.0001	182	0.207804	77473	
2.5516	152143	-347.939	4.15694	-882.189	0.236912	0.34958	0.958125	0.351078	0.648177	3	182	0.207804	77473	
-16502.6	899879	-336.427	0.828378	-971.371	0.0181303	0.45768	1.03299	0.34851	0.655882	3	45.5	0.0982884	77474	
-17718.5	467267	-37.9863	1.38764	-854.657	0.659178	0.309224	1.03299	0.34851	0.655882	3	45.5	0.0244156	77479	
-24659.7	628849	-431.17	2.20022	-995.875	-0.0226374	0.561968	1.03299	0.34851	0.655882	3	45.5	0.174701	77480	
-17110.8	649143	-484.6	2.36464	-1021.55	0.000238345	0.5684	0.993198	0.349787	0.651995	3	91	0.174701	77480	
-28903.4	617166	-112.914	2.23567	-788.764	0.480966	0.265407	1.03299	0.34851	0.655882	0.0001	45.5	0.047016	77481	
-28903.4	617166	-112.914	2.23567	-788.764	0.480966	0.265407	1.03299	0.34851	0.655882	3	45.5	0.047016	77481	
-12532.9	577327	-233.432	0.843826	-997.276	0.105359	0.423074	1.03299	0.34851	0.655882	3	45.5	0.103373	77484	
-17825	332998	-351.511	2.89089	-660.787	0.417443	0.442822	1.03299	0.34851	0.655882	0.0001	45.5	0.198149	77485	
-17825	332998	-351.511	2.89089	-660.787	0.417443	0.442822	1.03299	0.34851	0.655882	3	45.5	0.198149	77485	
-12458.7	351411	-401.484	3.21718	-741.058	0.490713	0.456958	0.993198	0.349787	0.651995	0.0001	91	0.198149	77485	
-12458.7	351411	-401.484	3.21718	-741.058	0.490713	0.456958	0.993198	0.349787	0.651995	3	91	0.198149	77485	
-5651.79	375417	-463.247	3.61445	-847.083	0.587415	0.489175	0.958125	0.351078	0.648177	0.0001	182	0.198149	77485	
-5651.79	375417	-463.247	3.61445	-847.083	0.587415	0.489175	0.958125	0.351078	0.648177	3	182	0.198149	77485	
-24664.3	499382	-309.697	2.82657	-948.745	-0.00307999	0.391972	1.03299	0.34851	0.655882	3	45.5	0.147362	77489	
-17716.8	516919	-361.286	3.06389	-977.082	0.0350041	0.398959	0.993198	0.349787	0.651995	0.0001	91	0.147362	77489	
-17716.8	516919	-361.286	3.06389	-977.082	0.0350041	0.398959	0.993198	0.349787	0.651995	3	91	0.147362	77489	
-18441.6	262574	-66.4873	3.44167	-958.326	0.0100838	0.154778	1.03299	0.34851	0.655882	0.0001	45.5	0.0627882	77491	
-18441.6	262574	-66.4873	3.44167	-958.326	0.0100838	0.154778	1.03299	0.34851	0.655882	3	45.5	0.0627882	77491	
-16000.9	878096	-412.971	0.788504	-953.071	0.086671	0.524079	1.03299	0.34851	0.655882	3	45.5	0.121954	77492	
-13898.6	198582	-16.9525	2.44014	-734.537	0.0145708	0.248297	1.03299	0.34851	0.655882	0.0001	45.5	0.0330933	77493	
-13898.6	198582	-16.9525	2.44014	-734.537	0.0145708	0.248297	1.03299	0.34851	0.655882	3	45.5	0.0330933	77493	
-13988	744718	-460.971	0.373975	-569.369	0.652383	0.582232	1.03299	0.34851	0.655882	3	45.5	0.142774	77494	
-18916.6	380516	-136.076	3.79607	-784.836	0.0334163	0.155163	0.993198	0.349787	0.651995	0.0001	91	0.0646313	77495	
-18916.6	380516	-136.076	3.79607	-784.836	0.0334163	0.155163	0.993198	0.349787	0.651995	3	91	0.0646313	77495	
-16253.7	328045	-333.888	2.22889	-571.193	0.696022	0.484329	1.03299	0.34851	0.655882	3	45.5	0.193705	77497	
-12096.4	349706	-371.987	2.49148	-666.287	0.809481	0.484986	0.993198	0.349787	0.651995	0.0001	91	0.193705	77497	
-13962.4	279745	-373.959	3.40656	-761.737	-0.0561514	0.452045	1.03299	0.34851	0.655882	0.0001	45.5	0.238005	77498	
-13962.4	279745	-373.959	3.40656	-761.737	-0.0561514	0.452045	1.03299	0.34851	0.655882	3	45.5	0.238005	77498	
-8395.51	292098	-435.73	3.7314	-796.165	-0.000174719	0.482571	0.993198	0.349787	0.651995	0.0001	91	0.238005	77498	
-8395.51	292098	-435.73	3.7314	-796.165	-0.000174719	0.482571	0.993198	0.349787	0.651995	3	91	0.238005	77498	
-1425.37	308024	-510.308	4.12295	-849.207	0.0675796	0.534174	0.958125	0.351078	0.648177	0.0001	182	0.238005	77498	
-1425.37	308024	-510.308	4.12295	-849.207	0.0675796	0.534174	0.958125	0.351078	0.648177	3	182	0.238005	77498	
-7873.17	742803	-473.485	0.346044	-1171.95	7.92746	0.635219	1.03299	0.34851	0.655882	3	45.5	0.167097	77499	
-9564.34	100039	-30.5335	3.29767	-793.564	0.00159822	0.204455	0.993198	0.349787	0.651995	3	91	0.039657	77500	
