-27709.6	492757	-181.315	2.81343	-738.39	0.632719	0.242379	1.03299	0.34851	0.655882	0.0001	45.5	0.0802731	72001	
-27709.6	492757	-181.315	2.81343	-738.39	0.632719	0.242379	1.03299	0.34851	0.655882	3	45.5	0.0802731	72001	
-19932.4	311087	10.4856	2.60314	-986.556	0.704163	0.214542	1.03299	0.34851	0.655882	3	45.5	0.015202	72002	
-16413.2	342609	-14.9518	2.91105	-1113.24	0.829849	0.204267	0.993198	0.349787	0.651995	0.0001	91	0.015202	72002	
-33219.3	566989	-314.017	3.61981	-1057.94	0.000139825	0.264473	1.03299	0.34851	0.655882	0.0001	45.5	0.132965	72004	
-23260.7	588500	-381.622	3.97331	-1097.88	0.0634792	0.288092	0.993198	0.349787	0.651995	0.0001	91	0.132965	72004	
-23260.7	588500	-381.622	3.97331	-1097.88	0.0634792	0.288092	0.993198	0.349787	0.651995	3	91	0.132965	72004	
-31909.6	571320	-273.11	3.30511	-989.282	-0.0373062	0.26852	1.03299	0.34851	0.655882	0.0001	45.5	0.11803	72005	
-31909.6	571320	-273.11	3.30511	-989.282	-0.0373062	0.26852	1.03299	0.34851	0.655882	3	45.5	0.11803	72005	
-23324.7	520915	-60.2313	2.15592	-1168.94	-0.00464148	0.270878	1.03299	0.34851	0.655882	3	45.5	0.0397092	72006	
-28625.8	539044	-307.188	2.78852	-618.696	0.0504165	0.356151	1.03299	0.34851	0.655882	0.0001	45.5	0.133073	72007	
-28625.8	539044	-307.188	2.78852	-618.696	0.0504165	0.356151	1.03299	0.34851	0.655882	3	45.5	0.133073	72007	
-21433.7	548679	-348.966	3.02614	-650.679	0.0882373	0.359337	0.993198	0.349787	0.651995	0.0001	91	0.133073	72007	
-17261.6	225910	-25.0288	3.42929	-1095.93	0.154911	0.148649	1.03299	0.34851	0.655882	0.0001	45.5	0.0467085	72008	
-17261.6	225910	-25.0288	3.42929	-1095.93	0.154911	0.148649	1.03299	0.34851	0.655882	3	45.5	0.0467085	72008	
-13838.1	249027	-63.8885	3.76959	-1132.64	0.217115	0.158789	0.993198	0.349787	0.651995	0.0001	91	0.0467085	72008	
-13838.1	249027	-63.8885	3.76959	-1132.64	0.217115	0.158789	0.993198	0.349787	0.651995	3	91	0.0467085	72008	
-6125.47	47552	-118.698	3.34282	-632.944	0.084371	0.203263	1.03299	0.34851	0.655882	0.0001	45.5	0.0998593	72009	
-6125.47	47552	-118.698	3.34282	-632.944	0.084371	0.203263	1.03299	0.34851	0.655882	3	45.5	0.0998593	72009	
-5313.57	55098.9	-149.798	3.65932	-656.622	0.140074	0.213329	0.993198	0.349787	0.651995	0.0001	91	0.0998593	72009	
-5313.57	55098.9	-149.798	3.65932	-656.622	0.140074	0.213329	0.993198	0.349787	0.651995	3	91	0.0998593	72009	
-4167.33	63779.8	-187.545	4.03796	-692.151	0.209758	0.242541	0.958125	0.351078	0.648177	0.0001	182	0.0998593	72009	
-4167.33	63779.8	-187.545	4.03796	-692.151	0.209758	0.242541	0.958125	0.351078	0.648177	3	182	0.0998593	72009	
-1914.75	78154.9	-252.421	4.68074	-766.129	0.33471	0.31674	0.9175	0.352806	0.64323	0.0001	455	0.0998593	72009	
-1914.75	78154.9	-252.421	4.68074	-766.129	0.33471	0.31674	0.9175	0.352806	0.64323	3	455	0.0998593	72009	
-14551.4	408751	-422.007	2.11847	-1136.63	0.00146671	0.673984	1.03299	0.34851	0.655882	3	45.5	0.249204	72010	
-9130.76	435325	-477.61	2.28335	-1164.83	0.0227385	0.690652	0.993198	0.349787	0.651995	0.0001	91	0.249204	72010	
-9130.76	435325	-477.61	2.28335	-1164.83	0.0227385	0.690652	0.993198	0.349787	0.651995	3	91	0.249204	72010	
-21050	615342	-364.142	1.87556	-1037.49	-0.0109731	0.503456	1.03299	0.34851	0.655882	3	45.5	0.15228	72011	
-21253.4	915192	-318.182	1.13452	-1069.93	0.517081	0.425279	1.03299	0.34851	0.655882	3	45.5	0.0841643	72012	
-22046.4	432147	-233.848	2.92124	-1023.29	-0.0150279	0.315177	1.03299	0.34851	0.655882	3	45.5	0.126997	72015	
-16072.7	451141	-281.865	3.1636	-1044.69	0.0255754	0.318997	0.993198	0.349787	0.651995	0.0001	91	0.126997	72015	
-16072.7	451141	-281.865	3.1636	-1044.69	0.0255754	0.318997	0.993198	0.349787	0.651995	3	91	0.126997	72015	
-29734.5	696123	-164.604	2.33455	-1181.65	-0.0204382	0.289052	1.03299	0.34851	0.655882	3	45.5	0.0673229	72016	
-22598.4	720009	-202.109	2.49669	-1191.82	0.00517615	0.275591	0.993198	0.349787	0.651995	3	91	0.0673229	72016	
-21158.9	702039	-81.5906	1.23501	-913.735	0.545969	0.322507	1.03299	0.34851	0.655882	3	45.5	0.0308439	72020	
-31773.2	845152	-58.1773	1.71695	-705.045	0.235679	0.288279	1.03299	0.34851	0.655882	3	45.5	0.0209288	72021	
-36278.5	900428	-436.958	2.24908	-1002.49	-0.000396525	0.476954	1.03299	0.34851	0.655882	3	45.5	0.130163	72023	
-26020.1	921622	-490.78	2.41655	-1032.78	0.0234994	0.476418	0.993198	0.349787	0.651995	3	91	0.130163	72023	
-10712.6	133707	-84.4697	2.9851	-1100.28	-0.00756534	0.243808	1.03299	0.34851	0.655882	3	45.5	0.106164	72025	
-8888.65	154890	-122.71	3.23171	-1111.02	0.0348421	0.244674	0.993198	0.349787	0.651995	0.0001	91	0.106164	72025	
-11368.9	180932	-128.019	2.65787	-1062.47	0.0244118	0.297909	1.03299	0.34851	0.655882	0.0001	45.5	0.131515	72026	
-9749.63	118380	-25.066	2.59455	-1003.28	0.00313604	0.246194	0.993198	0.349787	0.651995	0.0001	91	0.0410472	72031	
-9749.63	118380	-25.066	2.59455	-1003.28	0.00313604	0.246194	0.993198	0.349787	0.651995	3	91	0.0410472	72031	
-21989.5	420686	-192.813	2.76392	-949.682	0.292944	0.287197	1.03299	0.34851	0.655882	3	45.5	0.104226	72032	
-16585.7	444664	-233.96	3.03289	-1015.33	0.345811	0.28518	0.993198	0.349787	0.651995	3	91	0.104226	72032	
-32696.4	544285	-293.064	3.08451	-634.524	0.638988	0.275113	1.03299	0.34851	0.655882	0.0001	45.5	0.112206	72033	
-32696.4	544285	-293.064	3.08451	-634.524	0.638988	0.275113	1.03299	0.34851	0.655882	3	45.5	0.112206	72033	
-24525.1	573122	-338.741	3.47531	-737.228	0.763227	0.282855	0.993198	0.349787	0.651995	3	91	0.112206	72033	
-6421.18	211832	-283.307	2.81301	-1160.21	0.658393	0.423309	0.993198	0.349787	0.651995	0.0001	91	0.222463	72034	
-6421.18	211832	-283.307	2.81301	-1160.21	0.658393	0.423309	0.993198	0.349787	0.651995	3	91	0.222463	72034	
-2690.22	248926	-340.522	3.16302	-1324.93	0.778537	0.440291	0.958125	0.351078	0.648177	0.0001	182	0.222463	72034	
-2690.22	248926	-340.522	3.16302	-1324.93	0.778537	0.440291	0.958125	0.351078	0.648177	3	182	0.222463	72034	
-12838.5	386558	-393.038	0.896209	-602.603	0.273482	0.691875	1.03299	0.34851	0.655882	3	45.5	0.249225	72036	
-7066.54	419159	-447.413	1.02515	-682.679	0.308205	0.698464	0.958125	0.351078	0.648177	3	182	0.249225	72036	
-35483	709242	-142.785	2.61144	-806.405	0.0229027	0.240852	1.03299	0.34851	0.655882	3	45.5	0.0557772	72039	
-20218.9	655711	-4.24253	1.18316	-983.142	0.0412833	0.315273	1.03299	0.34851	0.655882	3	45.5	0.00764814	72040	
-24373.7	574417	-3.73653	1.87249	-1049.08	0.0181249	0.277895	1.03299	0.34851	0.655882	3	45.5	0.0123386	72041	
-14353.4	452465	-229.214	1.33603	-934.652	0.419999	0.41849	1.03299	0.34851	0.655882	3	45.5	0.120256	72043	
-25706.4	803759	-173.87	1.57868	-956.851	-0.0107729	0.340873	1.03299	0.34851	0.655882	3	45.5	0.0597079	72044	
-14880.6	288473	11.9574	1.71312	-1180.54	-0.0012948	0.292807	1.03299	0.34851	0.655882	3	45.5	0.0125776	72045	
-15367.9	478008	-238.175	1.47093	-957.84	0.073036	0.422569	1.03299	0.34851	0.655882	3	45.5	0.125088	72046	
-20320.4	389555	-48.0179	2.335	-782.326	0.000191589	0.253855	1.03299	0.34851	0.655882	3	45.5	0.0379545	72047	
-14500.3	333815	-92.6606	1.60287	-769.755	0.1408	0.324062	1.03299	0.34851	0.655882	3	45.5	0.0687881	72048	
-22566.1	529374	-148.853	1.96054	-687.81	0.277961	0.312587	1.03299	0.34851	0.655882	3	45.5	0.0690572	72049	
-15011.9	514894	-461.538	0.875735	-651.98	0.179379	0.718389	1.03299	0.34851	0.655882	3	45.5	0.225933	72051	
-19663.7	682774	-109.533	3.57702	-1065.11	0.0738217	0.172976	0.958125	0.351078	0.648177	0.0001	182	0.0266291	72052	
-9958.72	220007	-259.008	2.13243	-1015.9	0.460447	0.485644	1.03299	0.34851	0.655882	0.0001	45.5	0.233163	72054	
-9958.72	220007	-259.008	2.13243	-1015.9	0.460447	0.485644	1.03299	0.34851	0.655882	3	45.5	0.233163	72054	
-16561	205082	4.74669	3.27712	-916.406	0.326772	0.154223	1.03299	0.34851	0.655882	0.0001	45.5	0.0254	72055	
-16561	205082	4.74669	3.27712	-916.406	0.326772	0.154223	1.03299	0.34851	0.655882	3	45.5	0.0254	72055	
-13648.3	223853	-24.5612	3.62694	-971.185	0.399701	0.159976	0.993198	0.349787	0.651995	0.0001	91	0.0254	72055	
-13648.3	223853	-24.5612	3.62694	-971.185	0.399701	0.159976	0.993198	0.349787	0.651995	3	91	0.0254	72055	
-28403	568388	-242.882	2.68279	-781.974	0.000815476	0.312101	1.03299	0.34851	0.655882	3	45.5	0.105889	72056	
-21428.5	579916	-281.863	2.89391	-803.405	0.0349704	0.308999	0.993198	0.349787	0.651995	0.0001	91	0.105889	72056	
-21428.5	579916	-281.863	2.89391	-803.405	0.0349704	0.308999	0.993198	0.349787	0.651995	3	91	0.105889	72056	
-17612.5	293507	17.5612	2.36806	-968.261	-0.0166922	0.24496	1.03299	0.34851	0.655882	0.0001	45.5	0.0101186	72057	
-17612.5	293507	17.5612	2.36806	-968.261	-0.0166922	0.24496	1.03299	0.34851	0.655882	3	45.5	0.0101186	72057	
-19500.7	788569	-103.925	1.01846	-861.432	0.0252471	0.337491	1.03299	0.34851	0.655882	3	45.5	0.0365781	72059	
-10709.5	572642	-444.498	0.299086	-726.118	8.24522e-05	0.680971	1.03299	0.34851	0.655882	3	45.5	0.20645	72060	
-15546.4	287350	-389.262	3.20959	-639.927	0.553927	0.450991	1.03299	0.34851	0.655882	0.0001	45.5	0.222483	72061	
-15546.4	287350	-389.262	3.20959	-639.927	0.553927	0.450991	1.03299	0.34851	0.655882	3	45.5	0.222483	72061	
-9954.58	307481	-447.415	3.62497	-743.56	0.663166	0.476498	0.993198	0.349787	0.651995	0.0001	91	0.222483	72061	
-9954.58	307481	-447.415	3.62497	-743.56	0.663166	0.476498	0.993198	0.349787	0.651995	3	91	0.222483	72061	
-2629.63	335158	-522.051	4.15226	-887.429	0.814819	0.526028	0.958125	0.351078	0.648177	0.0001	182	0.222483	72061	
-2629.63	335158	-522.051	4.15226	-887.429	0.814819	0.526028	0.958125	0.351078	0.648177	3	182	0.222483	72061	
-6604.72	-44512.2	20.1602	3.2578	-893.819	0.134005	0.219051	1.03299	0.34851	0.655882	0.0001	45.5	0.058264	72062	
-6604.72	-44512.2	20.1602	3.2578	-893.819	0.134005	0.219051	1.03299	0.34851	0.655882	3	45.5	0.058264	72062	
-7331.97	-30892.9	-6.3049	3.57152	-916.133	0.189208	0.227368	0.993198	0.349787	0.651995	0.0001	91	0.058264	72062	
-7331.97	-30892.9	-6.3049	3.57152	-916.133	0.189208	0.227368	0.993198	0.349787	0.651995	3	91	0.058264	72062	
-33613.3	546785	-415.422	3.29301	-558.814	0.155078	0.396584	1.03299	0.34851	0.655882	0.0001	45.5	0.166602	72064	
-33613.3	546785	-415.422	3.29301	-558.814	0.155078	0.396584	1.03299	0.34851	0.655882	3	45.5	0.166602	72064	
-24318.8	559843	-472.789	3.63506	-616.216	0.212968	0.419026	0.993198	0.349787	0.651995	0.0001	91	0.166602	72064	
-24318.8	559843	-472.789	3.63506	-616.216	0.212968	0.419026	0.993198	0.349787	0.651995	3	91	0.166602	72064	
-13009.4	578030	-542.843	4.04914	-693.155	0.28742	0.462193	0.958125	0.351078	0.648177	0.0001	182	0.166602	72064	
-23689.4	614024	-415.358	2.07251	-914.483	-0.019842	0.551643	1.03299	0.34851	0.655882	3	45.5	0.171918	72065	
-8591.78	651410	-517.615	2.38668	-969.377	0.0237112	0.566329	0.958125	0.351078	0.648177	0.0001	182	0.171918	72065	
-10996.9	256728	-336.478	3.14365	-1107.45	-0.00199529	0.480973	1.03299	0.34851	0.655882	0.0001	45.5	0.247585	72067	
-10996.9	256728	-336.478	3.14365	-1107.45	-0.00199529	0.480973	1.03299	0.34851	0.655882	3	45.5	0.247585	72067	
-6193.8	281094	-401.481	3.43809	-1143.12	0.0455596	0.505393	0.993198	0.349787	0.651995	0.0001	91	0.247585	72067	
-6193.8	281094	-401.481	3.43809	-1143.12	0.0455596	0.505393	0.993198	0.349787	0.651995	3	91	0.247585	72067	
81.5947	309435	-479.43	3.7881	-1198.53	0.103633	0.548253	0.958125	0.351078	0.648177	0.0001	182	0.247585	72067	
81.5947	309435	-479.43	3.7881	-1198.53	0.103633	0.548253	0.958125	0.351078	0.648177	3	182	0.247585	72067	
-12283.9	184036	-145.193	3.02565	-745.361	-0.0437251	0.257894	1.03299	0.34851	0.655882	0.0001	45.5	0.127214	72068	
-12283.9	184036	-145.193	3.02565	-745.361	-0.0437251	0.257894	1.03299	0.34851	0.655882	3	45.5	0.127214	72068	
-22159.3	647144	-295.45	1.66058	-800.801	0.0856948	0.429167	1.03299	0.34851	0.655882	3	45.5	0.116288	72069	
-23928.3	430243	-11.4786	2.6208	-1177.35	-0.0303337	0.225267	1.03299	0.34851	0.655882	0.0001	45.5	0.0252452	72070	
-23928.3	430243	-11.4786	2.6208	-1177.35	-0.0303337	0.225267	1.03299	0.34851	0.655882	3	45.5	0.0252452	72070	
-20865.9	505266	-207.657	1.89163	-784.585	0.665688	0.350897	1.03299	0.34851	0.655882	3	45.5	0.0923233	72071	
-15706.3	364724	-332.929	2.76553	-1166.51	-0.028186	0.48097	1.03299	0.34851	0.655882	3	45.5	0.204185	72074	
-10183.1	390537	-392.067	2.99756	-1192.03	0.00824933	0.493862	0.993198	0.349787	0.651995	0.0001	91	0.204185	72074	
-10183.1	390537	-392.067	2.99756	-1192.03	0.00824933	0.493862	0.993198	0.349787	0.651995	3	91	0.204185	72074	
-23022.5	647522	-197.671	1.79124	-954.739	-0.0076186	0.351308	1.03299	0.34851	0.655882	3	45.5	0.0814066	72075	
-11334.2	257613	-218.271	1.51414	-691.327	-0.00711965	0.459734	1.03299	0.34851	0.655882	3	45.5	0.193295	72077	
-12041.2	805932	-336.048	0.378181	-650.356	0.00181822	0.475448	1.03299	0.34851	0.655882	3	45.5	0.108724	72079	
-29618.8	752019	-315.304	2.00743	-808.585	0.19514	0.401028	1.03299	0.34851	0.655882	3	45.5	0.106146	72080	
-8587.88	57988.6	-51.8236	2.4852	-927.803	0.00205325	0.277861	1.03299	0.34851	0.655882	3	45.5	0.0981465	72081	
-9525.98	342105	-310.877	0.645097	-896.634	0.0614229	0.617097	1.03299	0.34851	0.655882	3	45.5	0.240178	72083	
-29480.2	625526	-186.863	2.34765	-922.144	0.728611	0.284867	1.03299	0.34851	0.655882	0.0001	45.5	0.0700615	72084	
-29480.2	625526	-186.863	2.34765	-922.144	0.728611	0.284867	1.03299	0.34851	0.655882	3	45.5	0.0700615	72084	
-22732.9	669111	-222.379	2.62098	-1058.65	0.854014	0.272583	0.993198	0.349787	0.651995	0.0001	91	0.0700615	72084	
-22732.9	669111	-222.379	2.62098	-1058.65	0.854014	0.272583	0.993198	0.349787	0.651995	3	91	0.0700615	72084	
-15989.9	463750	-70.3662	1.25784	-976.822	0.629616	0.324211	1.03299	0.34851	0.655882	3	45.5	0.0396147	72085	
-17978.4	348124	-330.328	2.85752	-757.379	0.282233	0.428279	1.03299	0.34851	0.655882	3	45.5	0.189009	72086	
-12620.8	366271	-380.162	3.15203	-823.945	0.336865	0.439835	0.993198	0.349787	0.651995	0.0001	91	0.189009	72086	
-12620.8	366271	-380.162	3.15203	-823.945	0.336865	0.439835	0.993198	0.349787	0.651995	3	91	0.189009	72086	
-35317	579247	-290.75	3.13408	-538.635	0.395886	0.266863	1.03299	0.34851	0.655882	0.0001	45.5	0.109654	72087	
-15396.9	387138	-151.692	1.80718	-1070.69	0.0859638	0.348193	1.03299	0.34851	0.655882	3	45.5	0.097594	72088	
-10837.1	324813	-268.156	3.10187	-1146.2	0.00175969	0.344804	0.993198	0.349787	0.651995	0.0001	91	0.154834	72089	
-8804.01	298403	-278.859	0.172824	-665.601	0.601926	0.591717	1.03299	0.34851	0.655882	3	45.5	0.238421	72091	
-14969	449363	-135.128	1.43234	-1146.75	0.0975095	0.351176	1.03299	0.34851	0.655882	3	45.5	0.0783106	72092	
-39418.1	906231	-289.755	2.33111	-933.502	0.179287	0.333824	1.03299	0.34851	0.655882	3	45.5	0.0846219	72093	
-29707.2	931967	-331.543	2.52334	-982.804	0.211125	0.323738	0.993198	0.349787	0.651995	3	91	0.0846219	72093	
-28218	543346	-398.39	2.78213	-677.807	0.0257564	0.466996	1.03299	0.34851	0.655882	3	45.5	0.171768	72094	
-20388.2	555027	-450.492	3.02418	-715.043	0.0630242	0.479199	0.993198	0.349787	0.651995	0.0001	91	0.171768	72094	
-20388.2	555027	-450.492	3.02418	-715.043	0.0630242	0.479199	0.993198	0.349787	0.651995	3	91	0.171768	72094	
-26504.5	574606	-56.6869	2.24898	-1131.55	0.0183623	0.263584	1.03299	0.34851	0.655882	3	45.5	0.0351714	72095	
-21861.4	491170	-17.8146	1.86187	-1076.19	0.526286	0.278295	1.03299	0.34851	0.655882	3	45.5	0.019491	72096	
-10378	393316	-342.219	0.969305	-1053.24	0.0335263	0.620412	1.03299	0.34851	0.655882	3	45.5	0.224996	72097	
-10836.1	595435	-314.874	0.439556	-730.601	0.735466	0.480153	1.03299	0.34851	0.655882	3	45.5	0.120714	72098	
-9091.33	369040	-322.426	0.40991	-844.802	0.0612501	0.623726	1.03299	0.34851	0.655882	3	45.5	0.234337	72099	
-17840.3	891266	-239.266	0.767515	-648.947	0.0672358	0.394696	1.03299	0.34851	0.655882	3	45.5	0.0698384	72101	
-11127.7	293973	-290.233	1.58419	-941.691	0.0129042	0.557424	1.03299	0.34851	0.655882	3	45.5	0.234963	72102	
-23258.6	600306	-287.236	1.89236	-799.98	0.348683	0.408247	1.03299	0.34851	0.655882	3	45.5	0.114847	72105	
-16700	292590	-30.4078	3.96609	-1015.16	0.169154	0.118894	0.993198	0.349787	0.651995	0.0001	91	0.0251677	72106	
-17808.8	450041	-387.802	1.90392	-776.972	0.18356	0.578439	1.03299	0.34851	0.655882	3	45.5	0.202709	72107	
-12865	468365	-429.361	2.05843	-822.888	0.206779	0.58062	0.993198	0.349787	0.651995	0.0001	91	0.202709	72107	
-12865	468365	-429.361	2.05843	-822.888	0.206779	0.58062	0.993198	0.349787	0.651995	3	91	0.202709	72107	
-20605	461367	-282.963	3.9021	-828.707	0.30607	0.221639	0.993198	0.349787	0.651995	0.0001	91	0.111497	72108	
-20605	461367	-282.963	3.9021	-828.707	0.30607	0.221639	0.993198	0.349787	0.651995	3	91	0.111497	72108	
-11123.6	302422	-320.482	1.1072	-732.672	0.854523	0.593134	1.03299	0.34851	0.655882	3	45.5	0.231176	72109	
-15036.4	255185	-257.454	3.30922	-825.527	0.768115	0.283407	1.03299	0.34851	0.655882	0.0001	45.5	0.158155	72112	
-15036.4	255185	-257.454	3.30922	-825.527	0.768115	0.283407	1.03299	0.34851	0.655882	3	45.5	0.158155	72112	
-10504.3	281845	-309.971	3.77642	-971.977	0.936864	0.29975	0.993198	0.349787	0.651995	0.0001	91	0.158155	72112	
-10504.3	281845	-309.971	3.77642	-971.977	0.936864	0.29975	0.993198	0.349787	0.651995	3	91	0.158155	72112	
-4284.82	320311	-381.333	4.3927	-1187.95	1.18552	0.342495	0.958125	0.351078	0.648177	0.0001	182	0.158155	72112	
-4284.82	320311	-381.333	4.3927	-1187.95	1.18552	0.342495	0.958125	0.351078	0.648177	3	182	0.158155	72112	
-19768.7	843648	-236.067	1.00272	-732.732	-0.00410594	0.391753	1.03299	0.34851	0.655882	3	45.5	0.0741893	72113	
-6532.12	-9697.78	-41.0557	3.16125	-752.307	0.14338	0.22296	1.03299	0.34851	0.655882	0.0001	45.5	0.00598962	72114	
-6732.27	178.178	-67.6597	3.4611	-777.409	0.195957	0.228382	0.993198	0.349787	0.651995	0.0001	91	0.00598962	72114	
-27996.8	683930	-287.031	1.93779	-628.403	0.335482	0.38766	1.03299	0.34851	0.655882	3	45.5	0.101195	72116	
-12530.9	146946	-12.6287	2.79061	-921.941	-0.0361927	0.224313	1.03299	0.34851	0.655882	3	45.5	0.0417291	72118	
-5102.43	62653.8	-152.402	3.53449	-856.655	-0.0590325	0.209734	1.03299	0.34851	0.655882	0.0001	45.5	0.140811	72119	
-5102.43	62653.8	-152.402	3.53449	-856.655	-0.0590325	0.209734	1.03299	0.34851	0.655882	3	45.5	0.140811	72119	
-3821.03	75832.1	-195.644	3.85452	-869.482	0.000959089	0.226458	0.993198	0.349787	0.651995	0.0001	91	0.140811	72119	
-3821.03	75832.1	-195.644	3.85452	-869.482	0.000959089	0.226458	0.993198	0.349787	0.651995	3	91	0.140811	72119	
-1984.51	90311.4	-247.557	4.2392	-898.027	0.0729433	0.263477	0.958125	0.351078	0.648177	0.0001	182	0.140811	72119	
-1984.51	90311.4	-247.557	4.2392	-898.027	0.0729433	0.263477	0.958125	0.351078	0.648177	3	182	0.140811	72119	
-10702.1	411665	-320.498	0.7547	-843.715	0.471209	0.559746	1.03299	0.34851	0.655882	3	45.5	0.188483	72120	
-20872	386513	-52.9634	2.5227	-957.102	0.0152175	0.240927	1.03299	0.34851	0.655882	0.0001	45.5	0.0436809	72121	
-20872	386513	-52.9634	2.5227	-957.102	0.0152175	0.240927	1.03299	0.34851	0.655882	3	45.5	0.0436809	72121	
-20211.6	408356	-29.6312	3.34447	-880.032	0.447295	0.163723	0.993198	0.349787	0.651995	0.0001	91	0.0179523	72122	
-20211.6	408356	-29.6312	3.34447	-880.032	0.447295	0.163723	0.993198	0.349787	0.651995	3	91	0.0179523	72122	
-14715.4	371966	-297.043	1.81598	-806.208	0.144175	0.494713	1.03299	0.34851	0.655882	3	45.5	0.185248	72123	
-9213.71	374174	-310.136	0.158574	-561.949	0.595228	0.576289	1.03299	0.34851	0.655882	3	45.5	0.20312	72124	
-34119.2	764453	-422.193	2.72143	-1166.25	-0.0250347	0.458503	1.03299	0.34851	0.655882	0.0001	45.5	0.145503	72125	
-34119.2	764453	-422.193	2.72143	-1166.25	-0.0250347	0.458503	1.03299	0.34851	0.655882	3	45.5	0.145503	72125	
-23512.5	790828	-487.744	2.94582	-1198.69	0.0101938	0.46814	0.993198	0.349787	0.651995	0.0001	91	0.145503	72125	
-23512.5	790828	-487.744	2.94582	-1198.69	0.0101938	0.46814	0.993198	0.349787	0.651995	3	91	0.145503	72125	
-12001.3	134536	-6.93343	2.45047	-665.843	0.586041	0.244744	1.03299	0.34851	0.655882	0.0001	45.5	0.0281254	72127	
-14662.1	234194	-13.8694	2.29921	-1074.36	0.0205304	0.259796	1.03299	0.34851	0.655882	0.0001	45.5	0.035436	72128	
-14662.1	234194	-13.8694	2.29921	-1074.36	0.0205304	0.259796	1.03299	0.34851	0.655882	3	45.5	0.035436	72128	
-7563.44	-57996.5	3.26213	3.12458	-1043.78	0.574642	0.278034	1.03299	0.34851	0.655882	0.0001	45.5	0.240561	72129	
-7563.44	-57996.5	3.26213	3.12458	-1043.78	0.574642	0.278034	1.03299	0.34851	0.655882	3	45.5	0.240561	72129	
-25168.6	784251	-153.869	1.42107	-711.547	0.409144	0.334339	1.03299	0.34851	0.655882	3	45.5	0.0493494	72130	
-15070	327886	-367.528	2.7489	-862.658	0.00127211	0.531943	1.03299	0.34851	0.655882	3	45.5	0.234663	72131	
-9883.56	343855	-422.056	2.9876	-895.055	0.0374082	0.549255	0.993198	0.349787	0.651995	0.0001	91	0.234663	72131	
-9883.56	343855	-422.056	2.9876	-895.055	0.0374082	0.549255	0.993198	0.349787	0.651995	3	91	0.234663	72131	
-3445.86	362944	-485.989	3.26454	-940.842	0.0807938	0.581221	0.958125	0.351078	0.648177	0.0001	182	0.234663	72131	
-3445.86	362944	-485.989	3.26454	-940.842	0.0807938	0.581221	0.958125	0.351078	0.648177	3	182	0.234663	72131	
-11624.9	319607	-315.311	2.49396	-619.448	0.133056	0.438957	0.993198	0.349787	0.651995	3	91	0.186942	72132	
-9882.68	78902.4	-27.6141	2.79513	-693.334	-0.0305391	0.234083	1.03299	0.34851	0.655882	3	45.5	0.0542088	72133	
-9040.6	86838.9	-48.0891	3.0101	-694.848	0.00644633	0.228771	0.993198	0.349787	0.651995	0.0001	91	0.0542088	72133	
-30661.4	552775	-394.393	3.37657	-1033.9	0.355741	0.37508	1.03299	0.34851	0.655882	0.0001	45.5	0.159564	72134	
-30661.4	552775	-394.393	3.37657	-1033.9	0.355741	0.37508	1.03299	0.34851	0.655882	3	45.5	0.159564	72134	
-8217.81	631973	-560.015	4.2687	-1289.83	0.544817	0.447238	0.958125	0.351078	0.648177	0.0001	182	0.159564	72134	
-8217.81	631973	-560.015	4.2687	-1289.83	0.544817	0.447238	0.958125	0.351078	0.648177	3	182	0.159564	72134	
-9469.26	88873.2	-0.702981	2.23627	-865.98	0.636988	0.260693	0.993198	0.349787	0.651995	0.0001	91	0.0185319	72135	
-9469.26	88873.2	-0.702981	2.23627	-865.98	0.636988	0.260693	0.993198	0.349787	0.651995	3	91	0.0185319	72135	
-21981.6	752706	-53.3101	1.26305	-1154.27	0.0315288	0.317732	1.03299	0.34851	0.655882	3	45.5	0.0236274	72136	
-4503.27	88679	-198.636	3.61752	-972.282	0.0202967	0.238214	1.03299	0.34851	0.655882	0.0001	45.5	0.185161	72137	
-4503.27	88679	-198.636	3.61752	-972.282	0.0202967	0.238214	1.03299	0.34851	0.655882	3	45.5	0.185161	72137	
-2521.78	106669	-251.846	3.97207	-1002.69	0.0838388	0.260065	0.993198	0.349787	0.651995	0.0001	91	0.185161	72137	
-2521.78	106669	-251.846	3.97207	-1002.69	0.0838388	0.260065	0.993198	0.349787	0.651995	3	91	0.185161	72137	
301.809	127248	-316.938	4.40339	-1053.75	0.163034	0.304334	0.958125	0.351078	0.648177	0.0001	182	0.185161	72137	
301.809	127248	-316.938	4.40339	-1053.75	0.163034	0.304334	0.958125	0.351078	0.648177	3	182	0.185161	72137	
-21647	660360	-339.002	1.40569	-599.038	0.130822	0.475331	1.03299	0.34851	0.655882	3	45.5	0.128873	72138	
-36670.6	845860	-5.40895	1.95746	-929.561	0.538012	0.259716	1.03299	0.34851	0.655882	0.0001	45.5	0.00797038	72139	
-12472	290142	-269.689	1.9901	-858.135	0.0446959	0.483757	1.03299	0.34851	0.655882	3	45.5	0.206031	72140	
-9391.25	305303	-304.511	2.13319	-881.132	0.0638066	0.478384	0.993198	0.349787	0.651995	3	91	0.206031	72140	
-23682.4	404086	-199.603	3.40693	-1059.57	0.149759	0.219712	1.03299	0.34851	0.655882	0.0001	45.5	0.11048	72141	
-23682.4	404086	-199.603	3.40693	-1059.57	0.149759	0.219712	1.03299	0.34851	0.655882	3	45.5	0.11048	72141	
-17196.7	428262	-253.127	3.74968	-1111.56	0.210971	0.233213	0.993198	0.349787	0.651995	3	91	0.11048	72141	
-15211.2	403986	-242.22	2.64082	-695.274	0.00264768	0.328131	0.993198	0.349787	0.651995	0.0001	91	0.121521	72143	
-25918.8	467774	-188.809	3.13904	-992.975	-0.0470916	0.23988	1.03299	0.34851	0.655882	0.0001	45.5	0.0989106	72145	
-25918.8	467774	-188.809	3.13904	-992.975	-0.0470916	0.23988	1.03299	0.34851	0.655882	3	45.5	0.0989106	72145	
-19249.5	484185	-234.681	3.40116	-1007.36	-9.73088e-05	0.24515	0.993198	0.349787	0.651995	0.0001	91	0.0989106	72145	
-19249.5	484185	-234.681	3.40116	-1007.36	-9.73088e-05	0.24515	0.993198	0.349787	0.651995	3	91	0.0989106	72145	
-12404.7	205886	-187.124	2.67189	-592.794	-0.00208313	0.323228	1.03299	0.34851	0.655882	0.0001	45.5	0.155036	72146	
-12404.7	205886	-187.124	2.67189	-592.794	-0.00208313	0.323228	1.03299	0.34851	0.655882	3	45.5	0.155036	72146	
-23562.7	531632	-395.32	2.37941	-814.871	0.00829171	0.522816	1.03299	0.34851	0.655882	3	45.5	0.180075	72148	
-16810.5	546529	-444.784	2.5676	-845.014	0.0352031	0.529601	0.993198	0.349787	0.651995	0.0001	91	0.180075	72148	
-16810.5	546529	-444.784	2.5676	-845.014	0.0352031	0.529601	0.993198	0.349787	0.651995	3	91	0.180075	72148	
-8387.92	265660	-166.912	0.263334	-647.804	0.0390897	0.413656	0.993198	0.349787	0.651995	3	91	0.166842	72150	
-8033.45	274118	-173.749	0.272236	-653.052	0.0396494	0.389692	0.958125	0.351078	0.648177	3	182	0.166842	72150	
-34122.2	762263	-168.081	2.43704	-1096.62	-0.0111605	0.273098	1.03299	0.34851	0.655882	0.0001	45.5	0.0631566	72151	
-34122.2	762263	-168.081	2.43704	-1096.62	-0.0111605	0.273098	1.03299	0.34851	0.655882	3	45.5	0.0631566	72151	
-26010	782980	-205.369	2.61166	-1109.45	0.0168002	0.261003	0.993198	0.349787	0.651995	3	91	0.0631566	72151	
-6968.41	57470.8	-114.215	2.64906	-572.004	0.584639	0.267559	1.03299	0.34851	0.655882	0.0001	45.5	0.121588	72152	
-6968.41	57470.8	-114.215	2.64906	-572.004	0.584639	0.267559	1.03299	0.34851	0.655882	3	45.5	0.121588	72152	
-6237.45	65912.9	-138.364	2.94822	-641.73	0.681998	0.261636	0.993198	0.349787	0.651995	0.0001	91	0.121588	72152	
-6237.45	65912.9	-138.364	2.94822	-641.73	0.681998	0.261636	0.993198	0.349787	0.651995	3	91	0.121588	72152	
-3022.66	98984	-225.733	3.95735	-920.199	1.07091	0.312758	0.9175	0.352806	0.64323	0.0001	455	0.121588	72152	
-3022.66	98984	-225.733	3.95735	-920.199	1.07091	0.312758	0.9175	0.352806	0.64323	3	455	0.121588	72152	
-13934	758066	-350.86	0.826887	-1042.64	-0.00224997	0.494401	1.03299	0.34851	0.655882	3	45.5	0.121417	72153	
-9988.99	453454	-366.979	0.598126	-920.287	0.0213584	0.6318	1.03299	0.34851	0.655882	3	45.5	0.213703	72154	
-27756.5	458229	-155.654	3.53212	-1144.09	-0.0540038	0.169434	1.03299	0.34851	0.655882	0.0001	45.5	0.0868411	72155	
-20420.8	479827	-208.658	3.84845	-1157.23	0.00581047	0.183693	0.993198	0.349787	0.651995	0.0001	91	0.0868411	72155	
-20420.8	479827	-208.658	3.84845	-1157.23	0.00581047	0.183693	0.993198	0.349787	0.651995	3	91	0.0868411	72155	
-27094.9	524668	-41.951	2.48859	-792.411	-0.0109562	0.231679	1.03299	0.34851	0.655882	0.0001	45.5	0.02826	72157	
-7518.63	4371.69	-21.5812	2.89466	-921.318	0.035241	0.243455	1.03299	0.34851	0.655882	3	45.5	0.0593165	72158	
-7533.54	19087.4	-48.7566	3.13543	-932.122	0.0755896	0.241719	0.993198	0.349787	0.651995	0.0001	91	0.0593165	72158	
-7550.41	-69274.8	22.9995	2.44421	-1155.16	-0.0267162	0.298094	1.03299	0.34851	0.655882	0.0001	45.5	0.11858	72160	
-7550.41	-69274.8	22.9995	2.44421	-1155.16	-0.0267162	0.298094	1.03299	0.34851	0.655882	3	45.5	0.11858	72160	
-21190.9	372807	-262.436	3.06834	-752.775	0.278771	0.316302	1.03299	0.34851	0.655882	0.0001	45.5	0.14191	72162	
-21190.9	372807	-262.436	3.06834	-752.775	0.278771	0.316302	1.03299	0.34851	0.655882	3	45.5	0.14191	72162	
-15568.1	390131	-308.162	3.3876	-815.083	0.339443	0.325433	0.993198	0.349787	0.651995	0.0001	91	0.14191	72162	
-15568.1	390131	-308.162	3.3876	-815.083	0.339443	0.325433	0.993198	0.349787	0.651995	3	91	0.14191	72162	
-13288.6	657757	-464.62	0.526925	-723.284	0.0118567	0.659017	1.03299	0.34851	0.655882	3	45.5	0.185693	72163	
-23507.4	445323	-340.574	3.26304	-1033.49	0.213549	0.374456	1.03299	0.34851	0.655882	0.0001	45.5	0.166331	72167	
-23507.4	445323	-340.574	3.26304	-1033.49	0.213549	0.374456	1.03299	0.34851	0.655882	3	45.5	0.166331	72167	
-15936	472508	-405.584	3.60937	-1108.23	0.274632	0.394247	0.993198	0.349787	0.651995	0.0001	91	0.166331	72167	
-15936	472508	-405.584	3.60937	-1108.23	0.274632	0.394247	0.993198	0.349787	0.651995	3	91	0.166331	72167	
-6315.37	506788	-485.991	4.02969	-1210.12	0.354001	0.434647	0.958125	0.351078	0.648177	0.0001	182	0.166331	72167	
-6315.37	506788	-485.991	4.02969	-1210.12	0.354001	0.434647	0.958125	0.351078	0.648177	3	182	0.166331	72167	
-21671.8	752228	-425.987	1.04553	-564.311	0.619133	0.533603	1.03299	0.34851	0.655882	3	45.5	0.130667	72169	
-6543.2	-42622	6.6891	3.31071	-1043.99	-0.0525778	0.221412	1.03299	0.34851	0.655882	0.0001	45.5	0.0417857	72170	
-6543.2	-42622	6.6891	3.31071	-1043.99	-0.0525778	0.221412	1.03299	0.34851	0.655882	3	45.5	0.0417857	72170	
-11905.4	242939	-121.245	1.52652	-728.562	0.483399	0.352304	1.03299	0.34851	0.655882	3	45.5	0.106676	72171	
-4826.72	314808	-193.695	2.02956	-1017.04	0.709284	0.299454	0.9175	0.352806	0.64323	0.0001	455	0.106676	72171	
-14769.1	823283	-141.091	0.715318	-1142.91	0.00914895	0.357644	1.03299	0.34851	0.655882	3	45.5	0.0459524	72172	
-12627.2	252166	-235.661	2.86752	-1093.05	0.136321	0.367468	1.03299	0.34851	0.655882	3	45.5	0.180596	72173	
-8851.59	276853	-285.875	3.13253	-1141.36	0.179699	0.373995	0.993198	0.349787	0.651995	3	91	0.180596	72173	
-24635.2	455724	-131.074	2.92809	-1077.66	-0.0407969	0.231803	1.03299	0.34851	0.655882	0.0001	45.5	0.0763747	72174	
-24635.2	455724	-131.074	2.92809	-1077.66	-0.0407969	0.231803	1.03299	0.34851	0.655882	3	45.5	0.0763747	72174	
-18741.8	474973	-171.592	3.15965	-1086.19	-8.50327e-05	0.230135	0.993198	0.349787	0.651995	0.0001	91	0.0763747	72174	
-18741.8	474973	-171.592	3.15965	-1086.19	-8.50327e-05	0.230135	0.993198	0.349787	0.651995	3	91	0.0763747	72174	
-6531.91	-53809.3	11.1772	3.29096	-1116.93	-0.0405176	0.231873	1.03299	0.34851	0.655882	0.0001	45.5	0.038553	72178	
-6531.91	-53809.3	11.1772	3.29096	-1116.93	-0.0405176	0.231873	1.03299	0.34851	0.655882	3	45.5	0.038553	72178	
-20424.3	462368	-116.165	3.25578	-920.243	0.25535	0.190872	0.993198	0.349787	0.651995	0.0001	91	0.0513749	72180	
-20424.3	462368	-116.165	3.25578	-920.243	0.25535	0.190872	0.993198	0.349787	0.651995	3	91	0.0513749	72180	
-12870.9	248220	-302.329	3.14423	-736.506	-0.0474409	0.397142	1.03299	0.34851	0.655882	0.0001	45.5	0.213284	72182	
-12870.9	248220	-302.329	3.14423	-736.506	-0.0474409	0.397142	1.03299	0.34851	0.655882	3	45.5	0.213284	72182	
-8591.41	258981	-351.964	3.42217	-761.868	-7.61098e-05	0.414113	0.993198	0.349787	0.651995	0.0001	91	0.213284	72182	
-8591.41	258981	-351.964	3.42217	-761.868	-7.61098e-05	0.414113	0.993198	0.349787	0.651995	3	91	0.213284	72182	
-3309.84	272224	-410.807	3.75018	-801.19	0.0564203	0.448296	0.958125	0.351078	0.648177	0.0001	182	0.213284	72182	
-3309.84	272224	-410.807	3.75018	-801.19	0.0564203	0.448296	0.958125	0.351078	0.648177	3	182	0.213284	72182	
-17232.1	414641	-143.007	1.79207	-721.163	0.0279838	0.334553	1.03299	0.34851	0.655882	3	45.5	0.0853114	72183	
-13033.5	286594	-171.136	3.67269	-1038.42	0.0310422	0.210188	0.993198	0.349787	0.651995	0.0001	91	0.0986371	72184	
-13033.5	286594	-171.136	3.67269	-1038.42	0.0310422	0.210188	0.993198	0.349787	0.651995	3	91	0.0986371	72184	
-26117.3	710784	-130.608	1.87865	-1176.19	-0.0162785	0.310769	1.03299	0.34851	0.655882	3	45.5	0.0535366	72185	
-25806.5	455862	-33.2131	2.64784	-857.485	0.36453	0.211771	1.03299	0.34851	0.655882	3	45.5	0.0274228	72187	
-20646.6	478191	-58.0311	2.90456	-915.76	0.422693	0.201851	0.993198	0.349787	0.651995	3	91	0.0274228	72187	
-4528.78	95169.9	-232.782	3.09581	-616.233	0.744781	0.284609	1.03299	0.34851	0.655882	0.0001	45.5	0.191622	72189	
-4528.78	95169.9	-232.782	3.09581	-616.233	0.744781	0.284609	1.03299	0.34851	0.655882	3	45.5	0.191622	72189	
-2592.98	108289	-273.118	3.5124	-724.557	0.898385	0.293684	0.993198	0.349787	0.651995	0.0001	91	0.191622	72189	
-2592.98	108289	-273.118	3.5124	-724.557	0.898385	0.293684	0.993198	0.349787	0.651995	3	91	0.191622	72189	
100.56	127176	-326.526	4.05217	-880.98	1.12013	0.32537	0.958125	0.351078	0.648177	0.0001	182	0.191622	72189	
100.56	127176	-326.526	4.05217	-880.98	1.12013	0.32537	0.958125	0.351078	0.648177	3	182	0.191622	72189	
-25070.6	894990	4.61758	1.11936	-1145.88	0.215445	0.316897	1.03299	0.34851	0.655882	3	45.5	0.00375188	72191	
-18849.2	319419	-66.1671	2.75569	-955.282	0.052731	0.22754	1.03299	0.34851	0.655882	3	45.5	0.0568981	72194	
-28718.1	479593	-214.754	3.56984	-1034.15	-0.0587058	0.199689	1.03299	0.34851	0.655882	3	45.5	0.107245	72195	
-20790.8	497331	-270.316	3.89484	-1053.17	0.0025084	0.217078	0.993198	0.349787	0.651995	0.0001	91	0.107245	72195	
-20790.8	497331	-270.316	3.89484	-1053.17	0.0025084	0.217078	0.993198	0.349787	0.651995	3	91	0.107245	72195	
-24268.1	388467	-300.046	3.56004	-632.985	0.0796732	0.273425	1.03299	0.34851	0.655882	0.0001	45.5	0.15116	72196	
-24268.1	388467	-300.046	3.56004	-632.985	0.0796732	0.273425	1.03299	0.34851	0.655882	3	45.5	0.15116	72196	
-17419.7	398734	-350.983	3.92106	-676.373	0.142926	0.29573	0.993198	0.349787	0.651995	0.0001	91	0.15116	72196	
-17419.7	398734	-350.983	3.92106	-676.373	0.142926	0.29573	0.993198	0.349787	0.651995	3	91	0.15116	72196	
-9108.78	412945	-413.526	4.36103	-738.204	0.223266	0.34056	0.958125	0.351078	0.648177	0.0001	182	0.15116	72196	
-9108.78	412945	-413.526	4.36103	-738.204	0.223266	0.34056	0.958125	0.351078	0.648177	3	182	0.15116	72196	
-14132	342821	-235.645	1.6406	-656.73	0.186237	0.434536	1.03299	0.34851	0.655882	3	45.5	0.156707	72197	
-16111.9	456195	-355.215	1.85957	-1070.28	0.504517	0.529502	1.03299	0.34851	0.655882	3	45.5	0.178665	72199	
-11240.8	493838	-399.301	2.04287	-1184.75	0.566367	0.526317	0.993198	0.349787	0.651995	0.0001	91	0.178665	72199	
-5033.46	540767	-451.63	2.25617	-1328.54	0.644291	0.532551	0.958125	0.351078	0.648177	0.0001	182	0.178665	72199	
-5033.46	540767	-451.63	2.25617	-1328.54	0.644291	0.532551	0.958125	0.351078	0.648177	3	182	0.178665	72199	
-21556.5	664760	-149.393	1.57846	-1147.18	0.200172	0.335013	1.03299	0.34851	0.655882	3	45.5	0.0604431	72200	
-34738.3	670122	-348.528	2.8999	-849.007	0.0734386	0.362639	1.03299	0.34851	0.655882	0.0001	45.5	0.129347	72203	
-25317.8	687607	-401.787	3.15853	-891.758	0.115066	0.369598	0.993198	0.349787	0.651995	0.0001	91	0.129347	72203	
-9735.81	423720	-386.052	0.186731	-650.775	0.271782	0.682121	1.03299	0.34851	0.655882	3	45.5	0.236926	72204	
-33906	865471	-238.499	2.17227	-1145.16	0.0447962	0.327749	1.03299	0.34851	0.655882	0.0001	45.5	0.0762198	72205	
-33906	865471	-238.499	2.17227	-1145.16	0.0447962	0.327749	1.03299	0.34851	0.655882	3	45.5	0.0762198	72205	
-25433.2	891570	-278.283	2.32652	-1170.67	0.0674911	0.313463	0.993198	0.349787	0.651995	3	91	0.0762198	72205	
-12453.6	201590	-200.055	3.45813	-826.59	-0.0474409	0.248919	1.03299	0.34851	0.655882	0.0001	45.5	0.153951	72206	
-12453.6	201590	-200.055	3.45813	-826.59	-0.0474409	0.248919	1.03299	0.34851	0.655882	3	45.5	0.153951	72206	
-8991.49	213804	-246.082	3.77192	-845.206	0.00992314	0.265464	0.993198	0.349787	0.651995	0.0001	91	0.153951	72206	
-8991.49	213804	-246.082	3.77192	-845.206	0.00992314	0.265464	0.993198	0.349787	0.651995	3	91	0.153951	72206	
-4664.14	228159	-301.299	4.14791	-879.575	0.0789515	0.301739	0.958125	0.351078	0.648177	0.0001	182	0.153951	72206	
-4664.14	228159	-301.299	4.14791	-879.575	0.0789515	0.301739	0.958125	0.351078	0.648177	3	182	0.153951	72206	
-19667.5	453730	-89.489	3.26866	-1185.89	0.0158183	0.185554	0.993198	0.349787	0.651995	0.0001	91	0.0445982	72208	
-19667.5	453730	-89.489	3.26866	-1185.89	0.0158183	0.185554	0.993198	0.349787	0.651995	3	91	0.0445982	72208	
-13252.1	480389	-318.674	1.21698	-988.145	-0.000273065	0.52644	1.03299	0.34851	0.655882	3	45.5	0.16975	72209	
-6277.34	150425	-94.8666	3.00542	-853.779	0.23212	0.256677	0.9175	0.352806	0.64323	0.0001	455	0.0478807	72212	
-9900.98	151734	-120.367	2.01364	-921.946	-0.0190286	0.348407	1.03299	0.34851	0.655882	3	45.5	0.150102	72214	
-12507.1	316007	-139.716	1.46082	-964.104	0.0628129	0.367299	1.03299	0.34851	0.655882	3	45.5	0.107668	72216	
-17489.1	535657	-452.726	2.80181	-830.491	-9.80147e-05	0.525096	0.993198	0.349787	0.651995	0.0001	91	0.183316	72217	
-17489.1	535657	-452.726	2.80181	-830.491	-9.80147e-05	0.525096	0.993198	0.349787	0.651995	3	91	0.183316	72217	
-39950.4	736344	-318.177	2.86631	-642.293	0.224196	0.304194	1.03299	0.34851	0.655882	0.0001	45.5	0.105486	72220	
-39950.4	736344	-318.177	2.86631	-642.293	0.224196	0.304194	1.03299	0.34851	0.655882	3	45.5	0.105486	72220	
-30032.1	754089	-362.431	3.14095	-695.351	0.273476	0.306158	0.993198	0.349787	0.651995	0.0001	91	0.105486	72220	
-30032.1	754089	-362.431	3.14095	-695.351	0.273476	0.306158	0.993198	0.349787	0.651995	3	91	0.105486	72220	
-15040.3	552405	-172.969	1.00929	-709.355	0.0538613	0.377654	1.03299	0.34851	0.655882	3	45.5	0.0806585	72221	
-25205.9	620043	-148.454	2.07859	-1076.21	0.104874	0.30704	1.03299	0.34851	0.655882	3	45.5	0.0653301	72223	
-16218.3	512844	-398.483	1.81153	-1172.19	-0.0120587	0.596686	1.03299	0.34851	0.655882	3	45.5	0.19671	72224	
-10784.4	539917	-445.903	1.93537	-1192.16	0.00334551	0.598834	0.993198	0.349787	0.651995	0.0001	91	0.19671	72224	
-11231.4	456891	-319.792	0.591241	-657.838	0.0938196	0.551636	1.03299	0.34851	0.655882	3	45.5	0.179986	72225	
-13409.9	310259	-358.014	2.74665	-1052.99	0.260916	0.528122	1.03299	0.34851	0.655882	0.0001	45.5	0.235526	72227	
-13409.9	310259	-358.014	2.74665	-1052.99	0.260916	0.528122	1.03299	0.34851	0.655882	3	45.5	0.235526	72227	
-8343.7	338091	-417.571	3.02789	-1131.51	0.310276	0.545542	0.993198	0.349787	0.651995	3	91	0.235526	72227	
-1733.89	372238	-489.889	3.3618	-1233.15	0.373345	0.579106	0.958125	0.351078	0.648177	0.0001	182	0.235526	72227	
-1733.89	372238	-489.889	3.3618	-1233.15	0.373345	0.579106	0.958125	0.351078	0.648177	3	182	0.235526	72227	
-8862.08	175189	-241.659	3.14539	-972.523	-0.0318638	0.356927	1.03299	0.34851	0.655882	0.0001	45.5	0.21433	72229	
-8862.08	175189	-241.659	3.14539	-972.523	-0.0318638	0.356927	1.03299	0.34851	0.655882	3	45.5	0.21433	72229	
-5789.79	192872	-292.586	3.42252	-994.21	0.015442	0.37075	0.993198	0.349787	0.651995	0.0001	91	0.21433	72229	
-5789.79	192872	-292.586	3.42252	-994.21	0.015442	0.37075	0.993198	0.349787	0.651995	3	91	0.21433	72229	
-1791.23	212878	-353.031	3.74918	-1031.49	0.0721023	0.401562	0.958125	0.351078	0.648177	0.0001	182	0.21433	72229	
-1791.23	212878	-353.031	3.74918	-1031.49	0.0721023	0.401562	0.958125	0.351078	0.648177	3	182	0.21433	72229	
-5077.78	172869	-193.45	1.84354	-1002.25	0.0306057	0.347086	0.9175	0.352806	0.64323	3	455	0.203516	72233	
-12478.2	464640	-323.041	1.21469	-1085.63	0.199874	0.533639	1.03299	0.34851	0.655882	3	45.5	0.172748	72235	
-28497.8	682596	-60.1549	1.98567	-855.397	-0.0121004	0.277059	1.03299	0.34851	0.655882	3	45.5	0.0287636	72236	
-5656.74	87639.5	-185.413	3.11509	-686.947	-0.0218201	0.278287	1.03299	0.34851	0.655882	0.0001	45.5	0.182819	72237	
-5656.74	87639.5	-185.413	3.11509	-686.947	-0.0218201	0.278287	1.03299	0.34851	0.655882	3	45.5	0.182819	72237	
-4105.5	96570.3	-221.909	3.38185	-704.42	0.0244607	0.285414	0.993198	0.349787	0.651995	0.0001	91	0.182819	72237	
-4105.5	96570.3	-221.909	3.38185	-704.42	0.0244607	0.285414	0.993198	0.349787	0.651995	3	91	0.182819	72237	
-2085.13	106733	-265.01	3.69451	-732.878	0.0797628	0.308727	0.958125	0.351078	0.648177	0.0001	182	0.182819	72237	
-2085.13	106733	-265.01	3.69451	-732.878	0.0797628	0.308727	0.958125	0.351078	0.648177	3	182	0.182819	72237	
-15652.8	292601	-93.3084	2.40175	-1066.38	-0.00998239	0.279478	1.03299	0.34851	0.655882	3	45.5	0.0798481	72240	
-28568.2	564296	-5.47067	2.43561	-1152.45	-0.0279681	0.231247	1.03299	0.34851	0.655882	3	45.5	0.0169893	72241	
-22815.5	586002	-32.1842	2.60465	-1151.08	-6.79296e-05	0.216413	0.993198	0.349787	0.651995	3	91	0.0169893	72241	
-8150.9	72630.1	-88.9643	2.08647	-948.07	0.601307	0.324626	1.03299	0.34851	0.655882	3	45.5	0.153292	72242	
-6236.66	34212.2	-85.241	3.51139	-996.869	0.242122	0.189252	1.03299	0.34851	0.655882	0.0001	45.5	0.0949016	72243	
-6236.66	34212.2	-85.241	3.51139	-996.869	0.242122	0.189252	1.03299	0.34851	0.655882	3	45.5	0.0949016	72243	
-5566.87	53036.5	-127.726	3.88981	-1051.95	0.314253	0.204931	0.993198	0.349787	0.651995	0.0001	91	0.0949016	72243	
-5566.87	53036.5	-127.726	3.88981	-1051.95	0.314253	0.204931	0.993198	0.349787	0.651995	3	91	0.0949016	72243	
-4311.87	75137	-181.535	4.35473	-1130.58	0.409139	0.243407	0.958125	0.351078	0.648177	0.0001	182	0.0949016	72243	
-4311.87	75137	-181.535	4.35473	-1130.58	0.409139	0.243407	0.958125	0.351078	0.648177	3	182	0.0949016	72243	
-1212.89	113006	-279.634	5.17717	-1293	0.591312	0.339556	0.9175	0.352806	0.64323	0.0001	455	0.0949016	72243	
-1212.89	113006	-279.634	5.17717	-1293	0.591312	0.339556	0.9175	0.352806	0.64323	3	455	0.0949016	72243	
-23597.5	715759	-184.783	2.46605	-1015.69	0.0475095	0.266727	0.993198	0.349787	0.651995	3	91	0.0612758	72244	
-4994.49	77944.4	-176.256	2.85622	-848.951	0.0210098	0.314747	1.03299	0.34851	0.655882	0.0001	45.5	0.213322	72245	
-4994.49	77944.4	-176.256	2.85622	-848.951	0.0210098	0.314747	1.03299	0.34851	0.655882	3	45.5	0.213322	72245	
-3669.4	91505.3	-213.9	3.0952	-869.644	0.0601016	0.316718	0.993198	0.349787	0.651995	0.0001	91	0.213322	72245	
-3669.4	91505.3	-213.9	3.0952	-869.644	0.0601016	0.316718	0.993198	0.349787	0.651995	3	91	0.213322	72245	
-1847.41	106492	-258.091	3.37144	-901.285	0.107028	0.332795	0.958125	0.351078	0.648177	0.0001	182	0.213322	72245	
-1847.41	106492	-258.091	3.37144	-901.285	0.107028	0.332795	0.958125	0.351078	0.648177	3	182	0.213322	72245	
-29352.9	480211	-348.646	3.58891	-715.934	-0.0572391	0.312672	1.03299	0.34851	0.655882	0.0001	45.5	0.158403	72246	
-29352.9	480211	-348.646	3.58891	-715.934	-0.0572391	0.312672	1.03299	0.34851	0.655882	3	45.5	0.158403	72246	
-20775.7	489771	-407.577	3.92996	-750.173	0.00484037	0.33837	0.993198	0.349787	0.651995	0.0001	91	0.158403	72246	
-20775.7	489771	-407.577	3.92996	-750.173	0.00484037	0.33837	0.993198	0.349787	0.651995	3	91	0.158403	72246	
-10459.2	503700	-479.002	4.34353	-803.406	0.0800996	0.386036	0.958125	0.351078	0.648177	0.0001	182	0.158403	72246	
-10459.2	503700	-479.002	4.34353	-803.406	0.0800996	0.386036	0.958125	0.351078	0.648177	3	182	0.158403	72246	
-16897.3	486728	-236.126	1.53233	-754.108	-0.0107705	0.413636	1.03299	0.34851	0.655882	3	45.5	0.122136	72247	
-36399.9	679372	-263.257	2.92539	-749.346	-0.0399736	0.281911	1.03299	0.34851	0.655882	0.0001	45.5	0.0993097	72248	
-36399.9	679372	-263.257	2.92539	-749.346	-0.0399736	0.281911	1.03299	0.34851	0.655882	3	45.5	0.0993097	72248	
-27371.6	688470	-305.835	3.16113	-769.712	0.000714862	0.283453	0.993198	0.349787	0.651995	0.0001	91	0.0993097	72248	
-27371.6	688470	-305.835	3.16113	-769.712	0.000714862	0.283453	0.993198	0.349787	0.651995	3	91	0.0993097	72248	
-15578.2	441067	-417.966	1.93571	-1035.95	-0.0172159	0.655841	1.03299	0.34851	0.655882	3	45.5	0.233364	72250	
-10341.2	463067	-467.502	2.07586	-1057.91	0.000447163	0.666689	0.993198	0.349787	0.651995	3	91	0.233364	72250	
-3946.13	487540	-523.135	2.23091	-1087.73	0.0208059	0.687058	0.958125	0.351078	0.648177	0.0001	182	0.233364	72250	
-19707.1	813174	-276.694	1.13873	-922.876	0.051711	0.416435	1.03299	0.34851	0.655882	3	45.5	0.0894219	72251	
-14982.8	531352	-59.9898	0.920904	-1031.87	0.789351	0.332369	1.03299	0.34851	0.655882	3	45.5	0.0290825	72252	
-19571.4	499900	-226.862	1.85196	-839.265	0.386495	0.376374	1.03299	0.34851	0.655882	3	45.5	0.10708	72253	
-25778.1	489301	-186.231	2.89931	-995.061	0.0932228	0.260559	1.03299	0.34851	0.655882	0.0001	45.5	0.0937501	72254	
-25778.1	489301	-186.231	2.89931	-995.061	0.0932228	0.260559	1.03299	0.34851	0.655882	3	45.5	0.0937501	72254	
-19331.4	509811	-229.171	3.15226	-1029.75	0.135419	0.260202	0.993198	0.349787	0.651995	0.0001	91	0.0937501	72254	
-19331.4	509811	-229.171	3.15226	-1029.75	0.135419	0.260202	0.993198	0.349787	0.651995	3	91	0.0937501	72254	
-9030.32	100807	-93.5033	1.87961	-687.174	0.205941	0.33383	1.03299	0.34851	0.655882	3	45.5	0.14123	72256	
-8262.21	110547	-111.7	2.01985	-716.574	0.230112	0.314272	0.993198	0.349787	0.651995	3	91	0.14123	72256	
-19638.8	483815	-162.529	1.86278	-721.603	-0.00922282	0.335855	1.03299	0.34851	0.655882	3	45.5	0.0849731	72257	
-10150.6	454912	-303.717	0.683945	-954.453	0.697638	0.512473	1.03299	0.34851	0.655882	3	45.5	0.155388	72258	
-34182.4	936043	-18.9415	1.7068	-1061.89	0.0066806	0.284667	1.03299	0.34851	0.655882	3	45.5	0.0114566	72260	
-27769.1	677599	-157.142	3.31243	-1195.46	0.463802	0.184212	0.993198	0.349787	0.651995	3	91	0.0510412	72261	
-35590.3	831182	-37.1567	2.07854	-898.363	-0.00298868	0.258129	1.03299	0.34851	0.655882	3	45.5	0.0180448	72264	
-16621.7	362057	-303.81	2.94355	-1174.97	-0.0392082	0.419771	1.03299	0.34851	0.655882	3	45.5	0.185412	72265	
-11007.2	387561	-363.284	3.19438	-1198.31	0.00215701	0.432419	0.993198	0.349787	0.651995	0.0001	91	0.185412	72265	
-11007.2	387561	-363.284	3.19438	-1198.31	0.00215701	0.432419	0.993198	0.349787	0.651995	3	91	0.185412	72265	
-28500.7	672068	-228.556	2.33819	-1046.26	-0.0247435	0.329445	1.03299	0.34851	0.655882	3	45.5	0.0910086	72267	
-6448.84	-1133.59	-60.746	3.95078	-1024.62	0.00104874	0.202449	0.993198	0.349787	0.651995	0.0001	91	0.0375234	72269	
-6448.84	-1133.59	-60.746	3.95078	-1024.62	0.00104874	0.202449	0.993198	0.349787	0.651995	3	91	0.0375234	72269	
-17032.8	440582	-23.5782	1.4136	-1045.64	0.417752	0.307802	1.03299	0.34851	0.655882	3	45.5	0.0216201	72270	
-28682.5	775194	-88.6173	1.64625	-874.997	0.648002	0.30265	1.03299	0.34851	0.655882	3	45.5	0.0303739	72271	
-33798.4	602424	-326.435	3.30324	-909.005	-0.0521916	0.311185	1.03299	0.34851	0.655882	0.0001	45.5	0.133019	72272	
-33798.4	602424	-326.435	3.30324	-909.005	-0.0521916	0.311185	1.03299	0.34851	0.655882	3	45.5	0.133019	72272	
-12598.3	487396	-406.131	0.837307	-805.753	0.132365	0.656103	1.03299	0.34851	0.655882	3	45.5	0.213216	72273	
-8975.59	113977	-24.4072	0.813731	-791.722	0.608897	0.276216	0.958125	0.351078	0.648177	0.0001	182	0.0404871	72274	
-8975.59	113977	-24.4072	0.813731	-791.722	0.608897	0.276216	0.958125	0.351078	0.648177	3	182	0.0404871	72274	
-23577.9	439815	-327.16	2.98141	-760.429	0.0288423	0.397346	1.03299	0.34851	0.655882	3	45.5	0.164162	72275	
-16976.7	452647	-377.584	3.24784	-795.392	0.0717741	0.409428	0.993198	0.349787	0.651995	0.0001	91	0.164162	72275	
-16976.7	452647	-377.584	3.24784	-795.392	0.0717741	0.409428	0.993198	0.349787	0.651995	3	91	0.164162	72275	
-32225.1	770101	-398.571	2.30579	-919.376	-0.0246789	0.46247	1.03299	0.34851	0.655882	3	45.5	0.135955	72276	
-23325.1	786793	-448.51	2.47598	-944.198	0.000424942	0.461904	0.993198	0.349787	0.651995	3	91	0.135955	72276	
-14474.7	376553	-306.098	1.3455	-562.421	0.698977	0.507357	1.03299	0.34851	0.655882	3	45.5	0.17476	72277	
-14069.7	225998	-133.862	2.85412	-803.541	-0.00361607	0.263887	1.03299	0.34851	0.655882	3	45.5	0.112053	72281	
-30910.1	951925	-26.4202	1.46146	-1087.84	-0.00988968	0.312735	1.03299	0.34851	0.655882	3	45.5	0.0126093	72283	
-20974.5	425255	-100.567	3.68865	-871.476	0.503636	0.145956	0.993198	0.349787	0.651995	0.0001	91	0.0444092	72285	
-20974.5	425255	-100.567	3.68865	-871.476	0.503636	0.145956	0.993198	0.349787	0.651995	3	91	0.0444092	72285	
-29601.5	721591	-55.1404	1.99874	-1179.17	0.0718067	0.274152	1.03299	0.34851	0.655882	3	45.5	0.0280659	72286	
-10627.5	108618	-40.2799	2.69858	-816.34	-0.0277593	0.244909	1.03299	0.34851	0.655882	0.0001	45.5	0.0668667	72287	
-10627.5	108618	-40.2799	2.69858	-816.34	-0.0277593	0.244909	1.03299	0.34851	0.655882	3	45.5	0.0668667	72287	
-9442.56	119828	-64.1563	2.9019	-818.765	0.00666084	0.237638	0.993198	0.349787	0.651995	0.0001	91	0.0668667	72287	
-21298.9	356295	-113.422	2.93537	-701.703	0.0191491	0.2238	1.03299	0.34851	0.655882	0.0001	45.5	0.0728056	72288	
-21298.9	356295	-113.422	2.93537	-701.703	0.0191491	0.2238	1.03299	0.34851	0.655882	3	45.5	0.0728056	72288	
-16772.9	365115	-142.264	3.17756	-716.364	0.0603687	0.221986	0.993198	0.349787	0.651995	0.0001	91	0.0728056	72288	
-16772.9	365115	-142.264	3.17756	-716.364	0.0603687	0.221986	0.993198	0.349787	0.651995	3	91	0.0728056	72288	
-27255	827901	-238.846	1.58848	-788.546	0.111022	0.372552	1.03299	0.34851	0.655882	3	45.5	0.0754978	72289	
-33063.4	661115	-425.317	3.06973	-1075.59	-0.0240018	0.44913	1.03299	0.34851	0.655882	0.0001	45.5	0.162139	72290	
-33063.4	661115	-425.317	3.06973	-1075.59	-0.0240018	0.44913	1.03299	0.34851	0.655882	3	45.5	0.162139	72290	
-21131.8	-80398.8	12.2547	2.96193	-744.304	0.494864	0.71831	1.03299	0.34851	0.655882	0.0001	45.5	0.206728	72291	
-21131.8	-80398.8	12.2547	2.96193	-744.304	0.494864	0.71831	1.03299	0.34851	0.655882	3	45.5	0.206728	72291	
-11879.7	299281	-149.464	1.41057	-945.528	-0.00491697	0.381468	1.03299	0.34851	0.655882	3	45.5	0.121293	72292	
-17439.6	284133	-243.699	3.28044	-759.883	0.724295	0.26658	1.03299	0.34851	0.655882	0.0001	45.5	0.141421	72294	
-17439.6	284133	-243.699	3.28044	-759.883	0.724295	0.26658	1.03299	0.34851	0.655882	3	45.5	0.141421	72294	
-12648.6	308734	-291.963	3.72946	-888.081	0.878735	0.280604	0.993198	0.349787	0.651995	0.0001	91	0.141421	72294	
-12648.6	308734	-291.963	3.72946	-888.081	0.878735	0.280604	0.993198	0.349787	0.651995	3	91	0.141421	72294	
-6234.39	343502	-356.763	4.31532	-1074.24	1.10281	0.319847	0.958125	0.351078	0.648177	0.0001	182	0.141421	72294	
-6234.39	343502	-356.763	4.31532	-1074.24	1.10281	0.319847	0.958125	0.351078	0.648177	3	182	0.141421	72294	
-16646.7	376485	-189.62	3.88397	-1095.68	0.110938	0.183114	0.993198	0.349787	0.651995	0.0001	91	0.0905766	72297	
-16646.7	376485	-189.62	3.88397	-1095.68	0.110938	0.183114	0.993198	0.349787	0.651995	3	91	0.0905766	72297	
-9249.66	105986	-97.9472	1.89533	-582.577	0.497741	0.328306	1.03299	0.34851	0.655882	3	45.5	0.132244	72298	
-6193.61	1631.03	-73.167	3.98258	-863.225	0.0217088	0.194484	0.993198	0.349787	0.651995	0.0001	91	0.0257315	72299	
-6193.61	1631.03	-73.167	3.98258	-863.225	0.0217088	0.194484	0.993198	0.349787	0.651995	3	91	0.0257315	72299	
-14623.9	746913	-285.753	0.695254	-740.838	0.305867	0.435636	1.03299	0.34851	0.655882	3	45.5	0.0946219	72300	
-20055.2	436744	-274.223	2.55205	-942.327	-0.0308825	0.391227	1.03299	0.34851	0.655882	0.0001	45.5	0.148328	72302	
-20055.2	436744	-274.223	2.55205	-942.327	-0.0308825	0.391227	1.03299	0.34851	0.655882	3	45.5	0.148328	72302	
-14605.1	452977	-318.373	2.7472	-960.604	-4.38914e-05	0.390642	0.993198	0.349787	0.651995	0.0001	91	0.148328	72302	
-14605.1	452977	-318.373	2.7472	-960.604	-4.38914e-05	0.390642	0.993198	0.349787	0.651995	3	91	0.148328	72302	
-16172.5	383089	6.33689	1.43692	-711.162	0.0850216	0.304736	1.03299	0.34851	0.655882	3	45.5	0.00492477	72304	
-8630.18	138732	-146.619	3.71201	-758.986	0.0378251	0.207325	0.993198	0.349787	0.651995	0.0001	91	0.106304	72305	
-8630.18	138732	-146.619	3.71201	-758.986	0.0378251	0.207325	0.993198	0.349787	0.651995	3	91	0.106304	72305	
-3267.82	70013.2	-204.87	3.41866	-726.86	0.531919	0.222634	1.03299	0.34851	0.655882	0.0001	45.5	0.160637	72306	
-3267.82	70013.2	-204.87	3.41866	-726.86	0.531919	0.222634	1.03299	0.34851	0.655882	3	45.5	0.160637	72306	
-1658.38	83566.9	-249.229	3.84778	-819.906	0.643934	0.23802	0.993198	0.349787	0.651995	0.0001	91	0.160637	72306	
672.054	102033	-307.344	4.39317	-950.065	0.799751	0.278265	0.958125	0.351078	0.648177	0.0001	182	0.160637	72306	
672.054	102033	-307.344	4.39317	-950.065	0.799751	0.278265	0.958125	0.351078	0.648177	3	182	0.160637	72306	
-12681.3	243641	-53.6414	1.58001	-677.358	0.0433656	0.313695	1.03299	0.34851	0.655882	3	45.5	0.0552148	72308	
-8767.56	122707	-122.963	1.52308	-1030.57	0.335254	0.397176	1.03299	0.34851	0.655882	3	45.5	0.199153	72312	
-16701.3	689134	-436.525	1.08361	-947.959	0.19032	0.591682	1.03299	0.34851	0.655882	3	45.5	0.160762	72313	
-10921.6	166499	-119.847	2.57101	-1049.13	0.165035	0.299472	1.03299	0.34851	0.655882	0.0001	45.5	0.129339	72314	
-10921.6	166499	-119.847	2.57101	-1049.13	0.165035	0.299472	1.03299	0.34851	0.655882	3	45.5	0.129339	72314	
-20729.9	400923	13.1045	2.17717	-1096.18	0.063866	0.256735	1.03299	0.34851	0.655882	3	45.5	0.0108658	72316	
-12307.5	711220	-457.585	0.663533	-1009.06	0.0452295	0.625355	1.03299	0.34851	0.655882	3	45.5	0.1681	72318	
-9529.96	654603	-432.712	0.553756	-1144.61	-0.00129045	0.620808	1.03299	0.34851	0.655882	3	45.5	0.173669	72319	
-9740.4	589315	-411.642	0.608965	-1114.99	-0.00156051	0.622337	1.03299	0.34851	0.655882	3	45.5	0.183743	72320	
-16173.7	374997	-300.495	2.07504	-757.75	0.16462	0.472588	1.03299	0.34851	0.655882	3	45.5	0.18027	72323	
-6016.49	99565.5	-177.208	3.9458	-782.503	0.00652374	0.206113	0.993198	0.349787	0.651995	0.0001	91	0.125098	72324	
-6016.49	99565.5	-177.208	3.9458	-782.503	0.00652374	0.206113	0.993198	0.349787	0.651995	3	91	0.125098	72324	
-3857	111246	-225.047	4.3466	-809.817	0.0821613	0.245605	0.958125	0.351078	0.648177	0.0001	182	0.125098	72324	
-3857	111246	-225.047	4.3466	-809.817	0.0821613	0.245605	0.958125	0.351078	0.648177	3	182	0.125098	72324	
169.271	130287	-306.941	5.03552	-878.361	0.213716	0.337979	0.9175	0.352806	0.64323	0.0001	455	0.125098	72324	
169.271	130287	-306.941	5.03552	-878.361	0.213716	0.337979	0.9175	0.352806	0.64323	3	455	0.125098	72324	
-10300.1	479936	-328.072	0.438094	-700.235	0.00247625	0.559711	1.03299	0.34851	0.655882	3	45.5	0.179961	72325	
-10006.5	306508	-274.785	1.14422	-1050.99	0.236234	0.550549	1.03299	0.34851	0.655882	3	45.5	0.219563	72327	
-30688	685307	-374.031	2.42518	-859.255	0.114958	0.437667	1.03299	0.34851	0.655882	0.0001	45.5	0.136804	72328	
-30688	685307	-374.031	2.42518	-859.255	0.114958	0.437667	1.03299	0.34851	0.655882	3	45.5	0.136804	72328	
-22374.6	705285	-422.844	2.62831	-903.815	0.145628	0.437999	0.993198	0.349787	0.651995	3	91	0.136804	72328	
-10551.1	99092.6	-22.3699	2.61374	-751.794	0.00544138	0.246205	1.03299	0.34851	0.655882	0.0001	45.5	0.0502893	72329	
-10551.1	99092.6	-22.3699	2.61374	-751.794	0.00544138	0.246205	1.03299	0.34851	0.655882	3	45.5	0.0502893	72329	
-9547.85	108725	-42.6209	2.81113	-756.633	0.0377905	0.236829	0.993198	0.349787	0.651995	0.0001	91	0.0502893	72329	
-9547.85	108725	-42.6209	2.81113	-756.633	0.0377905	0.236829	0.993198	0.349787	0.651995	3	91	0.0502893	72329	
-29446.9	734584	-191.199	3.29705	-1183.93	0.396367	0.19571	0.993198	0.349787	0.651995	3	91	0.057965	72330	
-8927.33	31996.8	14.0387	2.5119	-786.605	0.824724	0.250509	1.03299	0.34851	0.655882	3	45.5	0.0309227	72332	
-35657.5	934885	-394.239	1.72455	-612.109	0.605786	0.433462	1.03299	0.34851	0.655882	3	45.5	0.0992019	72333	
-27507.2	976791	-429.612	1.89576	-698.336	0.68581	0.419256	0.993198	0.349787	0.651995	3	91	0.0992019	72333	
-17576.3	1.02828	-470.582	2.0963	-809.371	0.788769	0.413493	0.958125	0.351078	0.648177	0.0001	182	0.0992019	72333	
-17576.3	1.02828	-470.582	2.0963	-809.371	0.788769	0.413493	0.958125	0.351078	0.648177	3	182	0.0992019	72333	
-34010	906612	-55.6267	1.73277	-891.385	0.344963	0.284678	1.03299	0.34851	0.655882	3	45.5	0.0197155	72335	
-13848.9	282781	-168.343	3.36895	-641.359	0.00304937	0.227585	0.993198	0.349787	0.651995	0.0001	91	0.0964654	72336	
-13848.9	282781	-168.343	3.36895	-641.359	0.00304937	0.227585	0.993198	0.349787	0.651995	3	91	0.0964654	72336	
-21706.3	820051	-447.662	0.964647	-576.13	0.243982	0.557741	1.03299	0.34851	0.655882	3	45.5	0.136362	72337	
-27624.2	650150	-266.632	3.20058	-603.634	0.00566065	0.253534	0.993198	0.349787	0.651995	3	91	0.0894887	72338	
-22607.4	497330	-425.531	2.51411	-863.453	0.135966	0.56177	1.03299	0.34851	0.655882	3	45.5	0.199334	72339	
-15585.1	518001	-481.734	2.74219	-916.224	0.169929	0.575959	0.993198	0.349787	0.651995	0.0001	91	0.199334	72339	
-15585.1	518001	-481.734	2.74219	-916.224	0.169929	0.575959	0.993198	0.349787	0.651995	3	91	0.199334	72339	
-11520.9	195896	-83.9917	3.37794	-877.185	0.203041	0.199695	0.993198	0.349787	0.651995	0.0001	91	0.062884	72342	
-11520.9	195896	-83.9917	3.37794	-877.185	0.203041	0.199695	0.993198	0.349787	0.651995	3	91	0.062884	72342	
-30013.6	656137	-258.429	2.3832	-962.281	0.6433	0.326264	1.03299	0.34851	0.655882	3	45.5	0.0920007	72348	
-22551.1	699525	-300.687	2.65191	-1093.12	0.74704	0.317612	0.993198	0.349787	0.651995	0.0001	91	0.0920007	72348	
-22551.1	699525	-300.687	2.65191	-1093.12	0.74704	0.317612	0.993198	0.349787	0.651995	3	91	0.0920007	72348	
-10854.8	507784	-299.478	0.563971	-749.462	0.0451362	0.50879	1.03299	0.34851	0.655882	3	45.5	0.152847	72349	
-20038.9	401703	-140.036	2.30966	-845.069	0.615508	0.287599	1.03299	0.34851	0.655882	3	45.5	0.0780148	72351	
-22211.8	405140	-309.33	3.2924	-929.091	0.121252	0.344216	1.03299	0.34851	0.655882	0.0001	45.5	0.161609	72352	
-22211.8	405140	-309.33	3.2924	-929.091	0.121252	0.344216	1.03299	0.34851	0.655882	3	45.5	0.161609	72352	
-15431.8	425233	-367.881	3.62213	-982.214	0.177124	0.36235	0.993198	0.349787	0.651995	0.0001	91	0.161609	72352	
-15431.8	425233	-367.881	3.62213	-982.214	0.177124	0.36235	0.993198	0.349787	0.651995	3	91	0.161609	72352	
-6977.16	450378	-439.365	4.01904	-1056.7	0.248141	0.400375	0.958125	0.351078	0.648177	3	182	0.161609	72352	
-23769.4	507612	-244.838	3.94417	-791.514	0.0216681	0.182954	0.993198	0.349787	0.651995	0.0001	91	0.0935423	72353	
-23769.4	507612	-244.838	3.94417	-791.514	0.0216681	0.182954	0.993198	0.349787	0.651995	3	91	0.0935423	72353	
-14112.2	547670	-187.663	0.95531	-825.974	0.224156	0.388067	1.03299	0.34851	0.655882	3	45.5	0.0858974	72355	
-8576.19	144097	-126.234	3.14567	-1078.38	0.661369	0.249923	0.993198	0.349787	0.651995	3	91	0.107228	72357	
-12898.1	527404	-426.989	2.37593	-1198.61	0.548223	0.523046	0.993198	0.349787	0.651995	0.0001	91	0.175874	72358	
-15139.8	524962	-226.62	1.24397	-1012.99	0.642352	0.403693	1.03299	0.34851	0.655882	3	45.5	0.100378	72359	
-17914.1	476099	-270.862	1.74456	-768.767	0.143492	0.43347	1.03299	0.34851	0.655882	3	45.5	0.137582	72361	
-19076.4	563963	-160.719	1.68858	-1189.71	-0.00482883	0.344818	1.03299	0.34851	0.655882	3	45.5	0.0770327	72363	
-2274.52	121830	-244.26	4.07784	-1069.46	0.187386	0.320847	0.9175	0.352806	0.64323	0.0001	455	0.126196	72364	
-2274.52	121830	-244.26	4.07784	-1069.46	0.187386	0.320847	0.9175	0.352806	0.64323	3	455	0.126196	72364	
-20127.3	503685	-88.8253	1.7268	-865.32	0.365951	0.304474	1.03299	0.34851	0.655882	3	45.5	0.0467547	72365	
-19119.2	501556	4.30377	1.3367	-695.504	0.767119	0.305968	1.03299	0.34851	0.655882	3	45.5	0.00404862	72368	
-28391.1	552208	-311.667	2.82456	-764.647	-0.00619367	0.362656	1.03299	0.34851	0.655882	0.0001	45.5	0.135645	72369	
-28391.1	552208	-311.667	2.82456	-764.647	-0.00619367	0.362656	1.03299	0.34851	0.655882	3	45.5	0.135645	72369	
-20889	563877	-358.135	3.05855	-792.072	0.0317829	0.367249	0.993198	0.349787	0.651995	0.0001	91	0.135645	72369	
-20889	563877	-358.135	3.05855	-792.072	0.0317829	0.367249	0.993198	0.349787	0.651995	3	91	0.135645	72369	
-10969.2	337770	-319.425	1.22104	-964.767	0.416707	0.588521	1.03299	0.34851	0.655882	3	45.5	0.224978	72370	
-29030.6	836943	-136.326	1.71061	-957.459	0.00225424	0.316223	1.03299	0.34851	0.655882	3	45.5	0.0465474	72371	
-16409.9	187156	17.4045	3.40978	-926.888	0.725336	0.127363	1.03299	0.34851	0.655882	3	45.5	0.0203854	72372	
-13555.2	211680	-13.8501	3.87202	-1051.61	0.884902	0.137626	0.993198	0.349787	0.651995	3	91	0.0203854	72372	
-15463.4	293117	-338.882	3.01822	-628.099	-0.0433554	0.444208	1.03299	0.34851	0.655882	0.0001	45.5	0.217166	72373	
-15463.4	293117	-338.882	3.01822	-628.099	-0.0433554	0.444208	1.03299	0.34851	0.655882	3	45.5	0.217166	72373	
-10591.7	301578	-387.388	3.28183	-655.943	0.000237376	0.461228	0.993198	0.349787	0.651995	0.0001	91	0.217166	72373	
-10591.7	301578	-387.388	3.28183	-655.943	0.000237376	0.461228	0.993198	0.349787	0.651995	3	91	0.217166	72373	
-4673.29	312558	-444.579	3.59104	-696.239	0.0521111	0.494531	0.958125	0.351078	0.648177	0.0001	182	0.217166	72373	
-4673.29	312558	-444.579	3.59104	-696.239	0.0521111	0.494531	0.958125	0.351078	0.648177	3	182	0.217166	72373	
-13374.1	270969	-167.008	3.63795	-804.433	0.305482	0.204863	0.993198	0.349787	0.651995	3	91	0.0933521	72374	
-22628.4	380837	-358.685	3.27732	-556.053	0.104126	0.387403	1.03299	0.34851	0.655882	0.0001	45.5	0.183723	72375	
-22628.4	380837	-358.685	3.27732	-556.053	0.104126	0.387403	1.03299	0.34851	0.655882	3	45.5	0.183723	72375	
-16066.6	390780	-410.128	3.60541	-602.763	0.158735	0.408399	0.993198	0.349787	0.651995	3	91	0.183723	72375	
-8072.57	404435	-472.564	4.00019	-666.079	0.22793	0.449361	0.958125	0.351078	0.648177	0.0001	182	0.183723	72375	
-8072.57	404435	-472.564	4.00019	-666.079	0.22793	0.449361	0.958125	0.351078	0.648177	3	182	0.183723	72375	
-3142.21	100312	-227.982	4.08818	-1232.52	0.303556	0.318786	0.9175	0.352806	0.64323	0.0001	455	0.0998236	72376	
-3142.21	100312	-227.982	4.08818	-1232.52	0.303556	0.318786	0.9175	0.352806	0.64323	3	455	0.0998236	72376	
-7923	140652	-215.231	3.09997	-838.814	0.258796	0.31545	1.03299	0.34851	0.655882	0.0001	45.5	0.196451	72377	
-7923	140652	-215.231	3.09997	-838.814	0.258796	0.31545	1.03299	0.34851	0.655882	3	45.5	0.196451	72377	
-5483.48	156717	-259.779	3.42075	-898.585	0.318463	0.325472	0.993198	0.349787	0.651995	0.0001	91	0.196451	72377	
-5483.48	156717	-259.779	3.42075	-898.585	0.318463	0.325472	0.993198	0.349787	0.651995	3	91	0.196451	72377	
-2225.38	176440	-314.712	3.8065	-978.489	0.395662	0.353868	0.958125	0.351078	0.648177	0.0001	182	0.196451	72377	
-2225.38	176440	-314.712	3.8065	-978.489	0.395662	0.353868	0.958125	0.351078	0.648177	3	182	0.196451	72377	
-5962.37	16662.3	-92.9385	3.98595	-741.292	0.000649551	0.1857	0.993198	0.349787	0.651995	0.0001	91	0.0415597	72380	
-5962.37	16662.3	-92.9385	3.98595	-741.292	0.000649551	0.1857	0.993198	0.349787	0.651995	3	91	0.0415597	72380	
-11090.7	480665	-323.106	0.483815	-606.218	-0.000216115	0.550494	1.03299	0.34851	0.655882	3	45.5	0.176008	72382	
-8596.51	34080.9	-8.79619	3.01879	-1019.46	0.206908	0.220882	1.03299	0.34851	0.655882	3	45.5	0.0593187	72383	
-27805.5	501142	-395.75	2.95567	-651.652	0.284076	0.435914	1.03299	0.34851	0.655882	0.0001	45.5	0.17092	72385	
-27805.5	501142	-395.75	2.95567	-651.652	0.284076	0.435914	1.03299	0.34851	0.655882	3	45.5	0.17092	72385	
-19990	519576	-449.883	3.26779	-719.994	0.3419	0.451094	0.993198	0.349787	0.651995	0.0001	91	0.17092	72385	
-19990	519576	-449.883	3.26779	-719.994	0.3419	0.451094	0.993198	0.349787	0.651995	3	91	0.17092	72385	
-10698.3	370815	-332.992	1.07977	-1016.28	0.0413488	0.614166	1.03299	0.34851	0.655882	3	45.5	0.22961	72386	
-22133.4	416025	-106.615	2.5489	-880.302	0.380685	0.251741	1.03299	0.34851	0.655882	0.0001	45.5	0.0630596	72387	
-22133.4	416025	-106.615	2.5489	-880.302	0.380685	0.251741	1.03299	0.34851	0.655882	3	45.5	0.0630596	72387	
-25732.3	529487	-353.217	2.55168	-713.174	0.00886679	0.451344	1.03299	0.34851	0.655882	3	45.5	0.158572	72388	
-18930.3	540879	-398.787	2.75734	-742.187	0.039867	0.455872	0.993198	0.349787	0.651995	0.0001	91	0.158572	72388	
-18930.3	540879	-398.787	2.75734	-742.187	0.039867	0.455872	0.993198	0.349787	0.651995	3	91	0.158572	72388	
-6456.54	132664	-244.006	3.22454	-764.715	0.0755045	0.32668	1.03299	0.34851	0.655882	0.0001	45.5	0.218347	72389	
-6456.54	132664	-244.006	3.22454	-764.715	0.0755045	0.32668	1.03299	0.34851	0.655882	3	45.5	0.218347	72389	
-3916	145070	-290.023	3.53191	-800.842	0.127139	0.341075	0.993198	0.349787	0.651995	0.0001	91	0.218347	72389	
-3916	145070	-290.023	3.53191	-800.842	0.127139	0.341075	0.993198	0.349787	0.651995	3	91	0.218347	72389	
-610.687	159918	-345.578	3.89839	-852.501	0.191587	0.373966	0.958125	0.351078	0.648177	0.0001	182	0.218347	72389	
-610.687	159918	-345.578	3.89839	-852.501	0.191587	0.373966	0.958125	0.351078	0.648177	3	182	0.218347	72389	
-18709.4	835444	-445.946	0.839608	-704.897	-0.00191033	0.567554	1.03299	0.34851	0.655882	3	45.5	0.14032	72395	
-26836.5	714982	-4.46846	1.63598	-677.378	-0.0115422	0.29212	1.03299	0.34851	0.655882	3	45.5	0.00662931	72396	
-16420.1	502972	-51.0514	1.15315	-622.478	0.0816168	0.323243	1.03299	0.34851	0.655882	3	45.5	0.0286528	72398	
-10368.6	566798	-395.003	0.501204	-890.714	0.0652873	0.607406	1.03299	0.34851	0.655882	3	45.5	0.181905	72400	
-15281.3	921397	-287.196	0.765145	-1079.42	0.004604	0.422971	1.03299	0.34851	0.655882	3	45.5	0.0821235	72401	
-21617.7	433779	-351.318	2.64809	-858.016	0.73896	0.435391	1.03299	0.34851	0.655882	0.0001	45.5	0.164097	72402	
-21617.7	433779	-351.318	2.64809	-858.016	0.73896	0.435391	1.03299	0.34851	0.655882	3	45.5	0.164097	72402	
-15347.5	469593	-403.889	2.98873	-1004	0.876091	0.442548	0.993198	0.349787	0.651995	0.0001	91	0.164097	72402	
-15347.5	469593	-403.889	2.98873	-1004	0.876091	0.442548	0.993198	0.349787	0.651995	3	91	0.164097	72402	
-21078.4	347119	-310.958	3.4596	-607.198	0.0468228	0.31508	1.03299	0.34851	0.655882	0.0001	45.5	0.168439	72403	
-21078.4	347119	-310.958	3.4596	-607.198	0.0468228	0.31508	1.03299	0.34851	0.655882	3	45.5	0.168439	72403	
-14974.4	356217	-361.054	3.8002	-646.701	0.10548	0.336613	0.993198	0.349787	0.651995	0.0001	91	0.168439	72403	
-14974.4	356217	-361.054	3.8002	-646.701	0.10548	0.336613	0.993198	0.349787	0.651995	3	91	0.168439	72403	
-7562.7	368753	-422.024	4.21209	-702.905	0.178942	0.379333	0.958125	0.351078	0.648177	0.0001	182	0.168439	72403	
-7562.7	368753	-422.024	4.21209	-702.905	0.178942	0.379333	0.958125	0.351078	0.648177	3	182	0.168439	72403	
-27380.2	937331	-442.898	1.45762	-914.396	0.0653379	0.523606	1.03299	0.34851	0.655882	3	45.5	0.124368	72405	
-19589.6	303317	-46.9999	3.10705	-1071.7	-0.0328799	0.188083	1.03299	0.34851	0.655882	3	45.5	0.0510357	72407	
-36390	928486	-36.5574	1.88208	-970.542	0.015886	0.272527	1.03299	0.34851	0.655882	0.0001	45.5	0.0161534	72408	
-36390	928486	-36.5574	1.88208	-970.542	0.015886	0.272527	1.03299	0.34851	0.655882	3	45.5	0.0161534	72408	
-6066.49	104319	-145.783	2.13486	-940.143	0.192979	0.299305	0.9175	0.352806	0.64323	3	455	0.176609	72410	
-9288.39	290831	-272.534	1.08889	-1183.27	-0.00550368	0.57379	1.03299	0.34851	0.655882	3	45.5	0.239308	72412	
-9047.21	160567	-243.707	3.40564	-766.113	0.665562	0.27015	1.03299	0.34851	0.655882	0.0001	45.5	0.179074	72413	
-9047.21	160567	-243.707	3.40564	-766.113	0.665562	0.27015	1.03299	0.34851	0.655882	3	45.5	0.179074	72413	
-5901.1	179837	-293.752	3.86828	-887.337	0.8086	0.288668	0.993198	0.349787	0.651995	0.0001	91	0.179074	72413	
-5901.1	179837	-293.752	3.86828	-887.337	0.8086	0.288668	0.993198	0.349787	0.651995	3	91	0.179074	72413	
-1541.2	207161	-360.792	4.47026	-1062.05	1.01442	0.333868	0.958125	0.351078	0.648177	0.0001	182	0.179074	72413	
-1541.2	207161	-360.792	4.47026	-1062.05	1.01442	0.333868	0.958125	0.351078	0.648177	3	182	0.179074	72413	
-18104.4	396509	-155.917	2.36266	-1166.06	0.0253749	0.312639	1.03299	0.34851	0.655882	3	45.5	0.0984316	72414	
-18620.3	594069	-364.266	1.36252	-774.012	0.424423	0.514031	1.03299	0.34851	0.655882	3	45.5	0.146327	72415	
-6370.32	-28111.5	-4.91586	3.50897	-657.027	-0.0585476	0.187974	1.03299	0.34851	0.655882	0.0001	45.5	0.0203118	72416	
-6370.32	-28111.5	-4.91586	3.50897	-657.027	-0.0585476	0.187974	1.03299	0.34851	0.655882	3	45.5	0.0203118	72416	
-16200	478678	-406.057	1.26063	-618.815	-0.000263442	0.640949	1.03299	0.34851	0.655882	3	45.5	0.213607	72418	
-21937.8	737043	-204.335	1.4813	-1079.01	0.167185	0.363669	1.03299	0.34851	0.655882	3	45.5	0.0729027	72419	
-27287	617326	-336.27	2.52408	-997.767	0.00473588	0.417353	1.03299	0.34851	0.655882	3	45.5	0.137655	72421	
-19604.4	637124	-386.525	2.72282	-1025.82	0.034988	0.418258	0.993198	0.349787	0.651995	0.0001	91	0.137655	72421	
-9517.16	667085	-408.482	0.399018	-966.206	0.0982736	0.581056	1.03299	0.34851	0.655882	3	45.5	0.15823	72422	
-15357.6	258893	-78.6403	2.44592	-866.12	0.332082	0.262532	1.03299	0.34851	0.655882	3	45.5	0.0691998	72425	
-17938	435324	-423.125	2.11252	-863.636	0.433075	0.612197	1.03299	0.34851	0.655882	0.0001	45.5	0.216941	72426	
-17938	435324	-423.125	2.11252	-863.636	0.433075	0.612197	1.03299	0.34851	0.655882	3	45.5	0.216941	72426	
-12323.5	463619	-473.472	2.32802	-955.813	0.488092	0.62247	0.993198	0.349787	0.651995	0.0001	91	0.216941	72426	
-12323.5	463619	-473.472	2.32802	-955.813	0.488092	0.62247	0.993198	0.349787	0.651995	3	91	0.216941	72426	
-5222.53	498866	-533.249	2.58072	-1071.71	0.5575	0.644498	0.958125	0.351078	0.648177	3	182	0.216941	72426	
-13917.7	324383	-82.997	1.41086	-705.687	0.577969	0.326333	1.03299	0.34851	0.655882	3	45.5	0.059607	72429	
-23126.5	814694	-401.681	1.07929	-562.533	0.571174	0.497908	1.03299	0.34851	0.655882	3	45.5	0.115113	72431	
-6684.05	146313	-268.915	3.47373	-757.614	0.0574669	0.312637	1.03299	0.34851	0.655882	0.0001	45.5	0.217752	72433	
-6684.05	146313	-268.915	3.47373	-757.614	0.0574669	0.312637	1.03299	0.34851	0.655882	3	45.5	0.217752	72433	
-3625.33	158762	-320.23	3.8188	-796.414	0.116926	0.33453	0.993198	0.349787	0.651995	0.0001	91	0.217752	72433	
-3625.33	158762	-320.23	3.8188	-796.414	0.116926	0.33453	0.993198	0.349787	0.651995	3	91	0.217752	72433	
345.93	174048	-382.919	4.23679	-853.511	0.191707	0.377885	0.958125	0.351078	0.648177	0.0001	182	0.217752	72433	
345.93	174048	-382.919	4.23679	-853.511	0.191707	0.377885	0.958125	0.351078	0.648177	3	182	0.217752	72433	
-23493.2	523228	-318.531	3.97169	-803.995	0.016276	0.235151	0.993198	0.349787	0.651995	0.0001	91	0.118667	72434	
-23493.2	523228	-318.531	3.97169	-803.995	0.016276	0.235151	0.993198	0.349787	0.651995	3	91	0.118667	72434	
-14583.5	358288	-258.195	2.06529	-992.155	0.00230126	0.440929	1.03299	0.34851	0.655882	3	45.5	0.168658	72436	
-7126.49	-33878.8	-0.138887	2.92368	-1049.1	-0.0191848	0.254787	1.03299	0.34851	0.655882	3	45.5	0.0360132	72439	
-25684.8	638241	-335.248	1.89592	-691.277	0.428939	0.441588	1.03299	0.34851	0.655882	3	45.5	0.123353	72441	
-15576.1	345203	-206.337	1.89212	-584.427	0.0418505	0.385551	1.03299	0.34851	0.655882	3	45.5	0.135319	72444	
-9048.32	361099	-256.285	2.15571	-620.339	0.0788867	0.362213	0.958125	0.351078	0.648177	3	182	0.135319	72444	
-18571.5	595269	-381.475	1.36028	-732.677	-0.00848551	0.551401	1.03299	0.34851	0.655882	3	45.5	0.164612	72445	
-12945.1	475830	-376.116	1.19096	-997.368	0.0150121	0.611166	1.03299	0.34851	0.655882	3	45.5	0.202933	72447	
-7862.04	-25754.4	2.77887	2.17124	-855.703	0.236446	0.296628	1.03299	0.34851	0.655882	0.0001	45.5	0.041059	72448	
-37567.8	645967	-344.467	3.39636	-937.086	0.127286	0.297696	1.03299	0.34851	0.655882	0.0001	45.5	0.129168	72450	
-37567.8	645967	-344.467	3.39636	-937.086	0.127286	0.297696	1.03299	0.34851	0.655882	3	45.5	0.129168	72450	
-23100.2	734827	-143.279	1.45845	-849.241	0.00130432	0.334566	1.03299	0.34851	0.655882	3	45.5	0.0535252	72451	
-21793.7	497576	-0.578072	1.82041	-889.45	0.17423	0.280608	1.03299	0.34851	0.655882	3	45.5	0.0103532	72452	
-15054.2	279615	-292.533	2.88271	-615.844	-0.00215618	0.400847	1.03299	0.34851	0.655882	0.0001	45.5	0.195531	72454	
-15054.2	279615	-292.533	2.88271	-615.844	-0.00215618	0.400847	1.03299	0.34851	0.655882	3	45.5	0.195531	72454	
-10824.1	287843	-334.507	3.12918	-642.336	0.0375194	0.410192	0.993198	0.349787	0.651995	0.0001	91	0.195531	72454	
-10824.1	287843	-334.507	3.12918	-642.336	0.0375194	0.410192	0.993198	0.349787	0.651995	3	91	0.195531	72454	
-5718.39	298209	-383.707	3.41552	-679.554	0.0850504	0.434293	0.958125	0.351078	0.648177	0.0001	182	0.195531	72454	
-5718.39	298209	-383.707	3.41552	-679.554	0.0850504	0.434293	0.958125	0.351078	0.648177	3	182	0.195531	72454	
-9848.75	196890	-222.726	1.59336	-680.985	0.128777	0.487741	1.03299	0.34851	0.655882	3	45.5	0.238733	72456	
-8057.23	96730.8	-147.095	3.03184	-576.729	0.216247	0.251602	1.03299	0.34851	0.655882	0.0001	45.5	0.138289	72459	
-8057.23	96730.8	-147.095	3.03184	-576.729	0.216247	0.251602	1.03299	0.34851	0.655882	3	45.5	0.138289	72459	
-6607.78	104258	-176.607	3.32699	-612.989	0.269835	0.254953	0.993198	0.349787	0.651995	0.0001	91	0.138289	72459	
-6607.78	104258	-176.607	3.32699	-612.989	0.269835	0.254953	0.993198	0.349787	0.651995	3	91	0.138289	72459	
-4738.15	113410	-212.493	3.67752	-661.321	0.338075	0.275171	0.958125	0.351078	0.648177	0.0001	182	0.138289	72459	
-4738.15	113410	-212.493	3.67752	-661.321	0.338075	0.275171	0.958125	0.351078	0.648177	3	182	0.138289	72459	
-1367.05	129353	-274.177	4.2664	-753.18	0.462169	0.332694	0.9175	0.352806	0.64323	0.0001	455	0.138289	72459	
-1367.05	129353	-274.177	4.2664	-753.18	0.462169	0.332694	0.9175	0.352806	0.64323	3	455	0.138289	72459	
-14322.2	541540	-58.0744	0.83009	-969.032	0.506311	0.335144	1.03299	0.34851	0.655882	3	45.5	0.0285449	72460	
-23107.4	470242	-280.672	2.66481	-801.651	-0.0337877	0.373867	1.03299	0.34851	0.655882	3	45.5	0.140568	72461	
-18836.2	350600	-416.268	2.57636	-540.493	0.787109	0.538049	1.03299	0.34851	0.655882	0.0001	45.5	0.214591	72462	
-18836.2	350600	-416.268	2.57636	-540.493	0.787109	0.538049	1.03299	0.34851	0.655882	3	45.5	0.214591	72462	
-13285.5	375838	-465.928	2.92063	-653.022	0.936739	0.552776	0.993198	0.349787	0.651995	0.0001	91	0.214591	72462	
-6032.36	410420	-528.588	3.36092	-813.717	1.15025	0.585332	0.958125	0.351078	0.648177	0.0001	182	0.214591	72462	
-6032.36	410420	-528.588	3.36092	-813.717	1.15025	0.585332	0.958125	0.351078	0.648177	3	182	0.214591	72462	
-10843.1	195007	-155.896	1.78245	-632.981	0.0115065	0.381	1.03299	0.34851	0.655882	3	45.5	0.161142	72463	
-7275.97	415561	-361.438	2.66203	-962.813	0.644678	0.42891	0.958125	0.351078	0.648177	3	182	0.162056	72465	
-12986.6	429608	-360.639	1.43363	-1050.02	0.0804857	0.599197	1.03299	0.34851	0.655882	3	45.5	0.20963	72466	
-10386.1	354276	-275.026	0.54482	-582.216	0.160728	0.540027	1.03299	0.34851	0.655882	3	45.5	0.197824	72468	
-6862.21	55293.2	-99.4389	3.30462	-981.003	-0.0335206	0.222457	1.03299	0.34851	0.655882	0.0001	45.5	0.120103	72469	
-6862.21	55293.2	-99.4389	3.30462	-981.003	-0.0335206	0.222457	1.03299	0.34851	0.655882	3	45.5	0.120103	72469	
-4471.12	90087.4	-186.629	3.93535	-1014.39	0.0811572	0.259496	0.958125	0.351078	0.648177	0.0001	182	0.120103	72469	
-4471.12	90087.4	-186.629	3.93535	-1014.39	0.0811572	0.259496	0.958125	0.351078	0.648177	3	182	0.120103	72469	
-1442.7	117135	-265.981	4.50667	-1076.17	0.187849	0.328042	0.9175	0.352806	0.64323	0.0001	455	0.120103	72469	
-1442.7	117135	-265.981	4.50667	-1076.17	0.187849	0.328042	0.9175	0.352806	0.64323	3	455	0.120103	72469	
-21639.5	450722	-277.025	2.64892	-973.499	0.342577	0.369248	1.03299	0.34851	0.655882	3	45.5	0.137868	72470	
-15701	478434	-324.63	2.91495	-1054.62	0.398074	0.370173	0.993198	0.349787	0.651995	0.0001	91	0.137868	72470	
-15701	478434	-324.63	2.91495	-1054.62	0.398074	0.370173	0.993198	0.349787	0.651995	3	91	0.137868	72470	
-17071.6	477836	-406.294	1.44849	-701.113	0.544594	0.601555	1.03299	0.34851	0.655882	3	45.5	0.193877	72472	
-12730.6	505134	-441.657	1.58557	-785.462	0.606917	0.598631	0.993198	0.349787	0.651995	3	91	0.193877	72472	
-25682.7	881468	-307.16	1.29184	-591.064	-0.00170608	0.423359	1.03299	0.34851	0.655882	3	45.5	0.0918121	72473	
-14895.5	946353	-459.363	0.658175	-987.837	0.0644555	0.55492	1.03299	0.34851	0.655882	3	45.5	0.126262	72475	
-7589.88	-49340.5	6.47004	2.43329	-812.278	0.360423	0.294317	1.03299	0.34851	0.655882	0.0001	45.5	0.0774861	72476	
-7589.88	-49340.5	6.47004	2.43329	-812.278	0.360423	0.294317	1.03299	0.34851	0.655882	3	45.5	0.0774861	72476	
-27373.8	941828	-25.5709	1.26684	-1046.46	-0.00476226	0.313334	1.03299	0.34851	0.655882	3	45.5	0.0116462	72477	
-7917.51	551725	-350.716	0.129623	-779.316	0.818927	0.529276	1.03299	0.34851	0.655882	3	45.5	0.144884	72480	
-9515.99	86797.8	-49.1089	2.36301	-924.294	0.0355026	0.281472	1.03299	0.34851	0.655882	0.0001	45.5	0.0888383	72482	
-10835.7	151588	-99.9987	2.37248	-772.835	-0.0263224	0.297559	1.03299	0.34851	0.655882	0.0001	45.5	0.114605	72483	
-10835.7	151588	-99.9987	2.37248	-772.835	-0.0263224	0.297559	1.03299	0.34851	0.655882	3	45.5	0.114605	72483	
-31442.1	877556	-209.554	1.95311	-1170.92	-0.0168706	0.329882	1.03299	0.34851	0.655882	3	45.5	0.0673944	72486	
-21902.3	745777	-204.993	1.35555	-796.125	0.0184559	0.368409	1.03299	0.34851	0.655882	3	45.5	0.0729871	72488	
-7375.63	65884.9	-105.885	2.26799	-823.015	-0.0231202	0.322916	1.03299	0.34851	0.655882	0.0001	45.5	0.173464	72489	
-7375.63	65884.9	-105.885	2.26799	-823.015	-0.0231202	0.322916	1.03299	0.34851	0.655882	3	45.5	0.173464	72489	
-12818.7	164824	-16.4619	2.55935	-1008.65	0.135567	0.243483	1.03299	0.34851	0.655882	3	45.5	0.0441996	72492	
-19338.3	467111	-162.437	2.15582	-1177.71	-0.0210176	0.325559	1.03299	0.34851	0.655882	3	45.5	0.0910574	72493	
-23188.1	489392	-183.579	3.82528	-840.203	0.32214	0.159726	0.993198	0.349787	0.651995	0.0001	91	0.0710114	72494	
-23188.1	489392	-183.579	3.82528	-840.203	0.32214	0.159726	0.993198	0.349787	0.651995	3	91	0.0710114	72494	
-17553.9	255568	-20.2403	3.04547	-1063.19	-0.0405033	0.190277	1.03299	0.34851	0.655882	0.0001	45.5	0.0401645	72496	
-17553.9	255568	-20.2403	3.04547	-1063.19	-0.0405033	0.190277	1.03299	0.34851	0.655882	3	45.5	0.0401645	72496	
-14223.6	274257	-52.5804	3.29023	-1063.02	0.00357282	0.189615	0.993198	0.349787	0.651995	0.0001	91	0.0401645	72496	
-14223.6	274257	-52.5804	3.29023	-1063.02	0.00357282	0.189615	0.993198	0.349787	0.651995	3	91	0.0401645	72496	
-19863.9	600671	-428.856	2.43039	-684.168	0.024478	0.500164	0.993198	0.349787	0.651995	0.0001	91	0.160332	72497	
-19863.9	600671	-428.856	2.43039	-684.168	0.024478	0.500164	0.993198	0.349787	0.651995	3	91	0.160332	72497	
-15027.1	644228	-313.103	0.861582	-710.117	0.000759811	0.479767	1.03299	0.34851	0.655882	3	45.5	0.12647	72499	
-35319	744635	-409.614	2.40067	-614.844	-0.00950486	0.459247	1.03299	0.34851	0.655882	0.0001	45.5	0.140366	72500	
-35319	744635	-409.614	2.40067	-614.844	-0.00950486	0.459247	1.03299	0.34851	0.655882	3	45.5	0.140366	72500	
-26417.1	753649	-455.151	2.5845	-643.584	0.017754	0.460665	0.993198	0.349787	0.651995	0.0001	91	0.140366	72500	
-26417.1	753649	-455.151	2.5845	-643.584	0.017754	0.460665	0.993198	0.349787	0.651995	3	91	0.140366	72500	
