-8130.63, -1881.07, 0.385142, 2.29342, -833.701, 0.101199, 0.28377, 1.03299, 0.34851, 0.655882, 3, 45.5, 246, 11.9126, 0.049653, 0, 0, 1, 1, 107501
-11424.2, 469891, -130.143, 0.605064, -719.546, 0.565061, 0.367146, 1.03299, 0.34851, 0.655882, 0.0001, 45.5, 246, 22.0848, 0.0653823, 0, 0, 1, 0, 107504
-11424.2, 469891, -130.143, 0.605064, -719.546, 0.565061, 0.367146, 1.03299, 0.34851, 0.655882, 3, 45.5, 246, 22.0848, 0.0653823, 0, 0, 1, 0, 107504
-8164.43, 115657, -171.559, 2.82926, -624.694, 0.158243, 0.29908, 1.03299, 0.34851, 0.655882, 3, 45.5, 246, 39.8729, 0.169972, 0, 0, 1, 0, 107506
-597.157, 151523, -301.581, 3.87626, -781.133, 0.351018, 0.359848, 0.9175, 0.352806, 0.64323, 0.0001, 455, 246, 39.8729, 0.169972, 1.47348, 1, 0, 0, 107506
-597.157, 151523, -301.581, 3.87626, -781.133, 0.351018, 0.359848, 0.9175, 0.352806, 0.64323, 3, 455, 246, 39.8729, 0.169972, 1.46998, 1, 0, 0, 107506
-8620.17, 469384, -464.203, 4.27211, -885.992, 0.113104, 0.389641, 0.958125, 0.351078, 0.648177, 3, 182, 246, 39.5086, 0.161755, 1.02562, 1, 0, 0, 107509
-10645.2, 98697.1, -21.9827, 2.78525, -755.677, -0.0368427, 0.231493, 1.03299, 0.34851, 0.655882, 0.0001, 45.5, 246, 16.2162, 0.049561, 0, 0, 1, 0, 107510
-10645.2, 98697.1, -21.9827, 2.78525, -755.677, -0.0368427, 0.231493, 1.03299, 0.34851, 0.655882, 3, 45.5, 246, 16.2162, 0.049561, 0, 0, 1, 0, 107510
-11029.3, 228737, -157.86, 1.62013, -842.085, 0.0874792, 0.391091, 1.03299, 0.34851, 0.655882, 0.0001, 45.5, 246, 32.6387, 0.152413, 0, 0, 1, 0, 107511
-11029.3, 228737, -157.86, 1.62013, -842.085, 0.0874792, 0.391091, 1.03299, 0.34851, 0.655882, 3, 45.5, 246, 32.6387, 0.152413, 0, 0, 1, 0, 107511
837.61, 208965, -348.541, 4.05183, -851.384, 0.160252, 0.384357, 0.9175, 0.352806, 0.64323, 0.0001, 455, 246, 39.2303, 0.170274, 2.11843, 1, 0, 0, 107521
837.61, 208965, -348.541, 4.05183, -851.384, 0.160252, 0.384357, 0.9175, 0.352806, 0.64323, 3, 455, 246, 39.2303, 0.170274, 2.14132, 1, 0, 0, 107521
-11043.9, 321345, -301.767, 1.00964, -729.928, 0.0451778, 0.591152, 1.03299, 0.34851, 0.655882, 0.0001, 45.5, 246, 41.6603, 0.236105, 0, 0, 0, 0, 107523
-11043.9, 321345, -301.767, 1.00964, -729.928, 0.0451778, 0.591152, 1.03299, 0.34851, 0.655882, 3, 45.5, 246, 41.6603, 0.236105, 0, 0, 0, 0, 107523
-11003.3, 118343, -12.5863, 2.17495, -585.46, 0.230499, 0.271717, 1.03299, 0.34851, 0.655882, 0.0001, 45.5, 246, 11.6888, 0.0326472, 0, 0, 1, 0, 107530
-11003.3, 118343, -12.5863, 2.17495, -585.46, 0.230499, 0.271717, 1.03299, 0.34851, 0.655882, 3, 45.5, 246, 11.6888, 0.0326472, 0, 0, 1, 0, 107530
-10049.2, 125777, -25.6622, 2.34977, -609.82, 0.262523, 0.253856, 0.993198, 0.349787, 0.651995, 0.0001, 91, 246, 11.6888, 0.0326472, 0, 0, 1, 0, 107530
-10049.2, 125777, -25.6622, 2.34977, -609.82, 0.262523, 0.253856, 0.993198, 0.349787, 0.651995, 3, 91, 246, 11.6888, 0.0326472, 0, 0, 1, 0, 107530
-8857.38, 134159, -41.2448, 2.54603, -639.728, 0.301318, 0.245779, 0.958125, 0.351078, 0.648177, 0.0001, 182, 246, 11.6888, 0.0326472, 0, 0, 1, 0, 107530
-8857.38, 134159, -41.2448, 2.54603, -639.728, 0.301318, 0.245779, 0.958125, 0.351078, 0.648177, 3, 182, 246, 11.6888, 0.0326472, 0, 0, 1, 0, 107530
-6841.68, 147230, -66.8233, 2.85023, -690.934, 0.366605, 0.250315, 0.9175, 0.352806, 0.64323, 0.0001, 455, 246, 11.6888, 0.0326472, 0, 0, 1, 0, 107530
-6841.68, 147230, -66.8233, 2.85023, -690.934, 0.366605, 0.250315, 0.9175, 0.352806, 0.64323, 3, 455, 246, 11.6888, 0.0326472, 0, 0, 1, 0, 107530
-10744.9, 541944, -179.802, 0.417296, -579.53, 0.0996999, 0.395447, 1.03299, 0.34851, 0.655882, 0.0001, 45.5, 246, 21.9581, 0.0846744, 0, 0, 1, 0, 107532
-10744.9, 541944, -179.802, 0.417296, -579.53, 0.0996999, 0.395447, 1.03299, 0.34851, 0.655882, 3, 45.5, 246, 21.9581, 0.0846744, 0, 0, 1, 0, 107532
-9709.48, 551381, -188.477, 0.434564, -590.925, 0.102105, 0.36408, 0.993198, 0.349787, 0.651995, 3, 91, 246, 21.9581, 0.0846744, 0, 0, 1, 0, 107532
-11041.4, 204964, -114.435, 1.37556, -598.404, 0.757377, 0.356334, 1.03299, 0.34851, 0.655882, 0.0001, 45.5, 246, 24.0169, 0.110493, 0, 0, 1, 0, 107543
-11041.4, 204964, -114.435, 1.37556, -598.404, 0.757377, 0.356334, 1.03299, 0.34851, 0.655882, 3, 45.5, 246, 24.0169, 0.110493, 0, 0, 1, 0, 107543
-9844.7, 221260, -128.873, 1.51243, -685.197, 0.870742, 0.33062, 0.993198, 0.349787, 0.651995, 0.0001, 91, 246, 24.0169, 0.110493, 0, 0, 1, 0, 107543
-7812.01, 175751, -154.801, 3.02185, -592.369, 0.219536, 0.268609, 0.958125, 0.351078, 0.648177, 3, 182, 246, 24.5952, 0.103869, 0, 0, 1, 0, 107546
-10558.5, 408245, -229.468, 0.603219, -692.674, 0.687361, 0.446985, 1.03299, 0.34851, 0.655882, 0.0001, 45.5, 246, 28.9225, 0.129631, 0, 0, 1, 0, 107549
-10558.5, 408245, -229.468, 0.603219, -692.674, 0.687361, 0.446985, 1.03299, 0.34851, 0.655882, 3, 45.5, 246, 28.9225, 0.129631, 0, 0, 1, 0, 107549
-8798.04, 427827, -274.955, 0.538991, -1031.59, 0.290749, 0.504941, 1.03299, 0.34851, 0.655882, 0.0001, 45.5, 246, 37.8318, 0.160805, 0, 0, 0, 0, 107551
-8798.04, 427827, -274.955, 0.538991, -1031.59, 0.290749, 0.504941, 1.03299, 0.34851, 0.655882, 3, 45.5, 246, 37.8318, 0.160805, 0, 0, 0, 0, 107551
-7266.9, 455760, -291.575, 0.570158, -1085.62, 0.306165, 0.483448, 0.993198, 0.349787, 0.651995, 3, 91, 246, 37.8318, 0.160805, 0, 0, 1, 0, 107551
-5444.66, 486923, -308.927, 0.602552, -1145.7, 0.323316, 0.466381, 0.958125, 0.351078, 0.648177, 3, 182, 246, 37.8318, 0.160805, 0, 0, 0, 0, 107551
-7341.36, 11494.8, -40.6777, 4.61654, -790.839, 1.25316, 0.220413, 0.958125, 0.351078, 0.648177, 0.0001, 182, 246, 8.38405, 0.0283604, 0, 0, 1, 0, 107553
-7341.36, 11494.8, -40.6777, 4.61654, -790.839, 1.25316, 0.220413, 0.958125, 0.351078, 0.648177, 3, 182, 246, 8.38405, 0.0283604, 0, 0, 1, 0, 107553
-6830.32, 33280.8, -108.169, 5.96934, -1106.77, 1.9176, 0.344455, 0.9175, 0.352806, 0.64323, 0.0001, 455, 246, 8.38405, 0.0283604, 0, 0, 1, 0, 107553
-6830.32, 33280.8, -108.169, 5.96934, -1106.77, 1.9176, 0.344455, 0.9175, 0.352806, 0.64323, 3, 455, 246, 8.38405, 0.0283604, 0, 0, 1, 0, 107553
-10951.5, 431051, -283.468, 0.958578, -1027.6, 0.00764544, 0.511045, 1.03299, 0.34851, 0.655882, 0.0001, 45.5, 246, 39.1473, 0.168839, 0, 0, 0, 0, 107556
-10951.5, 431051, -283.468, 0.958578, -1027.6, 0.00764544, 0.511045, 1.03299, 0.34851, 0.655882, 3, 45.5, 246, 39.1473, 0.168839, 0, 0, 0, 0, 107556
-7848.89, 126495, -176.336, 2.29056, -990.932, -0.0247994, 0.399553, 1.03299, 0.34851, 0.655882, 0.0001, 45.5, 246, 46.302, 0.233374, 0, 0, 1, 0, 107561
-7848.89, 126495, -176.336, 2.29056, -990.932, -0.0247994, 0.399553, 1.03299, 0.34851, 0.655882, 3, 45.5, 246, 46.302, 0.233374, 0, 0, 1, 0, 107561
-618.106, 190027, -309.781, 2.91595, -1056.43, 0.0735789, 0.417086, 0.9175, 0.352806, 0.64323, 0.0001, 455, 246, 46.302, 0.233374, 1.24419, 1, 0, 0, 107561
-618.106, 190027, -309.781, 2.91595, -1056.43, 0.0735789, 0.417086, 0.9175, 0.352806, 0.64323, 3, 455, 246, 46.302, 0.233374, 1.37037, 1, 0, 0, 107561
-3436.51, 1.29627e+06, -324.732, 0.00635533, -1022.89, 0.0553346, 0.382006, 0.993198, 0.349787, 0.651995, 3, 91, 246, 32.8462, 0.0620869, 0, 0, 1, 0, 107562
-9241.51, 303181, -130.803, 0.824434, -904.3, 0.812563, 0.346004, 0.993198, 0.349787, 0.651995, 0.0001, 91, 246, 25.0773, 0.0976335, 0, 0, 1, 0, 107566
-17101, 454951, -526.428, 3.9237, -772.875, 0.127864, 0.509998, 0.993198, 0.349787, 0.651995, 0.0001, 91, 246, 46.4319, 0.212491, 1.21534, 1, 1, 0, 107568
-17101, 454951, -526.428, 3.9237, -772.875, 0.127864, 0.509998, 0.993198, 0.349787, 0.651995, 3, 91, 246, 46.4319, 0.212491, 1.17675, 1, 1, 0, 107568
-9849.18, 127119, -59.2648, 1.6682, -1067.79, -0.00643438, 0.328825, 1.03299, 0.34851, 0.655882, 0.0001, 45.5, 246, 24.9473, 0.0994874, 0, 0, 1, 0, 107571
-9849.18, 127119, -59.2648, 1.6682, -1067.79, -0.00643438, 0.328825, 1.03299, 0.34851, 0.655882, 3, 45.5, 246, 24.9473, 0.0994874, 0, 0, 1, 0, 107571
-6658.69, -80418.4, 25.7894, 3.04245, -1047.65, 0.290595, 0.262411, 1.03299, 0.34851, 0.655882, 0.0001, 45.5, 246, 4.42134, 0.109033, 2.29253, 1, 1, 0, 107573
-6658.69, -80418.4, 25.7894, 3.04245, -1047.65, 0.290595, 0.262411, 1.03299, 0.34851, 0.655882, 3, 45.5, 246, 4.42134, 0.109033, 2.14745, 1, 1, 0, 107573
-6329.61, -61785.9, 6.89382, 3.3594, -940.12, 0.079109, 0.231957, 1.03299, 0.34851, 0.655882, 0.0001, 45.5, 246, 15.1299, 0.0399787, 1.59, 1, 1, 0, 107575
-6329.61, -61785.9, 6.89382, 3.3594, -940.12, 0.079109, 0.231957, 1.03299, 0.34851, 0.655882, 3, 45.5, 246, 15.1299, 0.0399787, 1.45238, 1, 1, 0, 107575
-5718.07, 44872.3, -124.742, 3.41663, -637.736, 0.419067, 0.187544, 1.03299, 0.34851, 0.655882, 0.0001, 45.5, 246, 38.6481, 0.0928326, 1.01422, 1, 1, 0, 107576
-938.683, 88107.1, -281.92, 5.21884, -961.25, 0.882138, 0.33178, 0.9175, 0.352806, 0.64323, 0.0001, 455, 246, 38.6481, 0.0928326, 1.46949, 1, 1, 0, 107576
-938.683, 88107.1, -281.92, 5.21884, -961.25, 0.882138, 0.33178, 0.9175, 0.352806, 0.64323, 3, 455, 246, 38.6481, 0.0928326, 1.41029, 1, 1, 0, 107576
-8296.48, 80961.7, -87.4468, 1.07514, -773.199, 0.776391, 0.327909, 0.958125, 0.351078, 0.648177, 0.0001, 182, 246, 33.0403, 0.239024, 0, 0, 1, 0, 107587
-8296.48, 80961.7, -87.4468, 1.07514, -773.199, 0.776391, 0.327909, 0.958125, 0.351078, 0.648177, 3, 182, 246, 33.0403, 0.239024, 0, 0, 1, 0, 107587
-6838.04, 630971, -288.96, 0.170828, -1001.32, 0.66651, 0.454072, 1.03299, 0.34851, 0.655882, 0.0001, 45.5, 246, 33.5833, 0.105199, 0, 0, 0, 0, 107589
-6838.04, 630971, -288.96, 0.170828, -1001.32, 0.66651, 0.454072, 1.03299, 0.34851, 0.655882, 3, 45.5, 246, 33.5833, 0.105199, 0, 0, 0, 0, 107589
-5754.52, 676419, -300.163, 0.183134, -1120.66, 0.745125, 0.426819, 0.993198, 0.349787, 0.651995, 3, 91, 246, 33.5833, 0.105199, 0, 0, 1, 0, 107589
-9636.92, 73898.7, -31.3395, 3.3597, -1018.54, 0.276062, 0.180597, 1.03299, 0.34851, 0.655882, 0.0001, 45.5, 246, 22.2149, 0.0676999, 0, 0, 0, 0, 107609
-9636.92, 73898.7, -31.3395, 3.3597, -1018.54, 0.276062, 0.180597, 1.03299, 0.34851, 0.655882, 3, 45.5, 246, 22.2149, 0.0676999, 0, 0, 0, 0, 107609
484.758, 471134, -358.538, 3.73611, -1012.94, 0.123636, 0.342062, 0.9175, 0.352806, 0.64323, 3, 455, 246, 32.3331, 0.110974, 0, 0, 0, 0, 107610
-10784.8, 454338, -99.7468, 0.539855, -802.031, 0.0707617, 0.358114, 1.03299, 0.34851, 0.655882, 0.0001, 45.5, 246, 21.8257, 0.0567828, 0, 0, 1, 0, 107614
-10784.8, 454338, -99.7468, 0.539855, -802.031, 0.0707617, 0.358114, 1.03299, 0.34851, 0.655882, 3, 45.5, 246, 21.8257, 0.0567828, 0, 0, 1, 0, 107614
-9852.22, 467614, -107.421, 0.561996, -812.697, 0.0729095, 0.324457, 0.993198, 0.349787, 0.651995, 0.0001, 91, 246, 21.8257, 0.0567828, 0, 0, 1, 0, 107614
-8774.62, 481345, -115.334, 0.583769, -823.952, 0.0752169, 0.295263, 0.958125, 0.351078, 0.648177, 0.0001, 182, 246, 21.8257, 0.0567828, 0, 0, 1, 0, 107614
2038.1, 213510, -381.762, 4.98883, -747.239, 0.324399, 0.380945, 0.9175, 0.352806, 0.64323, 0.0001, 455, 246, 36.7936, 0.152178, 2.52346, 1, 0, 0, 107620
2038.1, 213510, -381.762, 4.98883, -747.239, 0.324399, 0.380945, 0.9175, 0.352806, 0.64323, 3, 455, 246, 36.7936, 0.152178, 2.54406, 1, 0, 0, 107620
-7651.12, -29454.5, -9.71524, 3.21791, -875.724, 0.00449296, 0.248019, 0.993198, 0.349787, 0.651995, 3, 91, 246, 8.63785, 0.0524153, 0, 0, 1, 1, 107626
-3143.72, 235681, -329.341, 4.26636, -1153.05, 0.724824, 0.322423, 0.958125, 0.351078, 0.648177, 0.0001, 182, 246, 41.278, 0.164178, 1.28751, 1, 0, 0, 107633
-3143.72, 235681, -329.341, 4.26636, -1153.05, 0.724824, 0.322423, 0.958125, 0.351078, 0.648177, 3, 182, 246, 41.278, 0.164178, 1.05076, 1, 0, 0, 107633
-9813.11, 660202, -174.08, 0.444277, -1125.19, 0.00614684, 0.383283, 1.03299, 0.34851, 0.655882, 0.0001, 45.5, 246, 31.1923, 0.0679776, 0, 0, 0, 0, 107635
-9813.11, 660202, -174.08, 0.444277, -1125.19, 0.00614684, 0.383283, 1.03299, 0.34851, 0.655882, 3, 45.5, 246, 31.1923, 0.0679776, 0, 0, 0, 0, 107635
-8762.16, 14010.6, -2.78158, 1.52649, -1133.85, 0.00339642, 0.295623, 0.993198, 0.349787, 0.651995, 0.0001, 91, 246, 6.1089, 0.0494313, 0, 0, 1, 1, 107636
-12204.2, 634042, -30.4816, 0.44188, -916.398, -0.000886778, 0.338899, 1.03299, 0.34851, 0.655882, 0.0001, 45.5, 246, 20.4675, 0.014189, 0, 0, 1, 0, 107648
-12204.2, 634042, -30.4816, 0.44188, -916.398, -0.000886778, 0.338899, 1.03299, 0.34851, 0.655882, 3, 45.5, 246, 20.4675, 0.014189, 0, 0, 1, 0, 107648
1257.15, 217940, -388.68, 3.5168, -715.983, 0.129993, 0.457985, 0.9175, 0.352806, 0.64323, 0.0001, 455, 246, 43.7453, 0.214763, 2.93145, 1, 0, 0, 107649
1257.15, 217940, -388.68, 3.5168, -715.983, 0.129993, 0.457985, 0.9175, 0.352806, 0.64323, 3, 455, 246, 43.7453, 0.214763, 2.95682, 1, 0, 0, 107649
-9162.83, 70866.3, -44.6797, 2.74279, -1066.38, 0.492315, 0.249564, 1.03299, 0.34851, 0.655882, 0.0001, 45.5, 246, 24.844, 0.0864862, 0, 0, 1, 0, 107656
-9162.83, 70866.3, -44.6797, 2.74279, -1066.38, 0.492315, 0.249564, 1.03299, 0.34851, 0.655882, 3, 45.5, 246, 24.844, 0.0864862, 0, 0, 1, 0, 107656
-9839.59, 353698, -206.713, 0.642289, -799.422, 0.0324092, 0.452793, 1.03299, 0.34851, 0.655882, 0.0001, 45.5, 246, 31.7782, 0.150297, 0, 0, 0, 0, 107661
-9839.59, 353698, -206.713, 0.642289, -799.422, 0.0324092, 0.452793, 1.03299, 0.34851, 0.655882, 3, 45.5, 246, 31.7782, 0.150297, 0, 0, 0, 0, 107661
-8674.98, 366356, -220.057, 0.670257, -807.354, 0.0344767, 0.427256, 0.993198, 0.349787, 0.651995, 0.0001, 91, 246, 31.7782, 0.150297, 0, 0, 1, 0, 107661
-10879.6, 174831, -17.4961, 2.03274, -563.515, 0.19549, 0.263034, 0.993198, 0.349787, 0.651995, 3, 91, 246, 10.1711, 0.0213385, 0, 0, 1, 0, 107662
-7624.83, 156755, -256.636, 2.96658, -779.718, -0.0132582, 0.387939, 1.03299, 0.34851, 0.655882, 0.0001, 45.5, 246, 51.0616, 0.236781, 1.1428, 1, 1, 0, 107663
-4913.34, 168814, -301.027, 3.22249, -803.306, 0.028748, 0.398701, 0.993198, 0.349787, 0.651995, 0.0001, 91, 246, 51.0616, 0.236781, 1.31338, 1, 1, 0, 107663
-4913.34, 168814, -301.027, 3.22249, -803.306, 0.028748, 0.398701, 0.993198, 0.349787, 0.651995, 3, 91, 246, 51.0616, 0.236781, 1.13832, 1, 1, 0, 107663
-1465.84, 182802, -353.317, 3.52115, -839.194, 0.0790409, 0.4249, 0.958125, 0.351078, 0.648177, 0.0001, 182, 246, 51.0616, 0.236781, 2.06491, 1, 0, 0, 107663
-1465.84, 182802, -353.317, 3.52115, -839.194, 0.0790409, 0.4249, 0.958125, 0.351078, 0.648177, 3, 182, 246, 51.0616, 0.236781, 1.90285, 1, 0, 0, 107663
-8906.05, 638740, -374.43, 0.292161, -881.659, 0.0436131, 0.553658, 1.03299, 0.34851, 0.655882, 0.0001, 45.5, 246, 36.6057, 0.152786, 0, 0, 0, 0, 107672
-8906.05, 638740, -374.43, 0.292161, -881.659, 0.0436131, 0.553658, 1.03299, 0.34851, 0.655882, 3, 45.5, 246, 36.6057, 0.152786, 0, 0, 0, 0, 107672
-9180.97, 94055.8, -78.8722, 2.48986, -931.259, 0.162677, 0.285265, 1.03299, 0.34851, 0.655882, 0.0001, 45.5, 246, 29.0089, 0.115515, 0, 0, 1, 0, 107674
-9180.97, 94055.8, -78.8722, 2.48986, -931.259, 0.162677, 0.285265, 1.03299, 0.34851, 0.655882, 3, 45.5, 246, 29.0089, 0.115515, 0, 0, 1, 0, 107674
-6688.24, 157485, -43.922, 3.26676, -737.156, 0.883596, 0.252229, 0.9175, 0.352806, 0.64323, 3, 455, 246, 7.48737, 0.0110091, 0, 0, 1, 0, 107679
-8006.4, 526396, -202.378, 0.301582, -884.037, 0.733957, 0.374948, 0.993198, 0.349787, 0.651995, 0.0001, 91, 246, 26.5595, 0.0906883, 0, 0, 1, 0, 107680
-11499.2, 129308, -26.9669, 2.62316, -843.217, -0.00981601, 0.244399, 1.03299, 0.34851, 0.655882, 0.0001, 45.5, 246, 17.9419, 0.0530432, 0, 0, 1, 0, 107682
-11499.2, 129308, -26.9669, 2.62316, -843.217, -0.00981601, 0.244399, 1.03299, 0.34851, 0.655882, 3, 45.5, 246, 17.9419, 0.0530432, 0, 0, 1, 0, 107682
-9852.92, 185294, -233.087, 3.01561, -993.513, 0.580606, 0.341394, 1.03299, 0.34851, 0.655882, 3, 45.5, 246, 45.232, 0.19239, 0, 0, 0, 0, 107686
-2313.68, 248236, -350.362, 3.85322, -1295.35, 0.837323, 0.381913, 0.958125, 0.351078, 0.648177, 0.0001, 182, 246, 45.232, 0.19239, 1.46115, 1, 0, 0, 107686
-2313.68, 248236, -350.362, 3.85322, -1295.35, 0.837323, 0.381913, 0.958125, 0.351078, 0.648177, 3, 182, 246, 45.232, 0.19239, 1.23876, 1, 0, 0, 107686
-6884.18, 436096, -553.89, 3.22326, -689.953, 0.0884334, 0.644924, 0.958125, 0.351078, 0.648177, 0.0001, 182, 246, 44.9188, 0.229744, 1.43816, 1, 0, 0, 107692
-6884.18, 436096, -553.89, 3.22326, -689.953, 0.0884334, 0.644924, 0.958125, 0.351078, 0.648177, 3, 182, 246, 44.9188, 0.229744, 1.39161, 1, 0, 0, 107692
-4600.05, 1.42935e+06, -336.144, 0.107228, -806.137, 0.48969, 0.313562, 0.9175, 0.352806, 0.64323, 3, 455, 246, 23.2239, 0.0560112, 0, 0, 0, 0, 107699
-16935.3, 506350, -589.626, 3.56271, -897.108, 0.00107293, 0.672611, 0.993198, 0.349787, 0.651995, 0.0001, 91, 246, 51.3133, 0.235716, 1.02545, 1, 1, 0, 107714
-9424.25, 46184.5, 21.4765, 3.10477, -1017.35, -0.0136545, 0.204279, 1.03299, 0.34851, 0.655882, 0.0001, 45.5, 246, 11.776, 0.0351193, 1.15421, 1, 1, 0, 107715
-9424.25, 46184.5, 21.4765, 3.10477, -1017.35, -0.0136545, 0.204279, 1.03299, 0.34851, 0.655882, 3, 45.5, 246, 11.776, 0.0351193, 1.09559, 1, 1, 0, 107715
-8853.41, 63852.2, -6.76049, 3.36446, -1018.11, 0.0322473, 0.206346, 0.993198, 0.349787, 0.651995, 0.0001, 91, 246, 11.776, 0.0351193, 0, 0, 1, 0, 107715
-13304.9, 211627, -168.908, 3.60133, -1089.93, -0.0609129, 0.21613, 1.03299, 0.34851, 0.655882, 0.0001, 45.5, 246, 37.7698, 0.136807, 0, 0, 0, 0, 107716
-13304.9, 211627, -168.908, 3.60133, -1089.93, -0.0609129, 0.21613, 1.03299, 0.34851, 0.655882, 3, 45.5, 246, 37.7698, 0.136807, 0, 0, 0, 0, 107716
-15631.2, 435073, -550.698, 3.63618, -770.948, 0.732405, 0.566861, 0.993198, 0.349787, 0.651995, 0.0001, 91, 246, 46.4341, 0.220191, 1.25752, 1, 1, 0, 107721
-15631.2, 435073, -550.698, 3.63618, -770.948, 0.732405, 0.566861, 0.993198, 0.349787, 0.651995, 3, 91, 246, 46.4341, 0.220191, 1.20765, 1, 1, 0, 107721
-5483.31, 366341, -478.202, 4.05781, -775.433, 0.0661125, 0.471385, 0.958125, 0.351078, 0.648177, 0.0001, 182, 246, 43.5961, 0.200115, 2.37436, 1, 0, 0, 107724
-5483.31, 366341, -478.202, 4.05781, -775.433, 0.0661125, 0.471385, 0.958125, 0.351078, 0.648177, 3, 182, 246, 43.5961, 0.200115, 2.26476, 1, 0, 0, 107724
-5947.03, 94052.8, -171.943, 3.46043, -1143.14, -0.0574559, 0.261272, 1.03299, 0.34851, 0.655882, 0.0001, 45.5, 246, 48.0592, 0.185131, 1.07127, 1, 0, 0, 107725
-5947.03, 94052.8, -171.943, 3.46043, -1143.14, -0.0574559, 0.261272, 1.03299, 0.34851, 0.655882, 3, 45.5, 246, 48.0592, 0.185131, 0, 0, 1, 0, 107725
-4048.34, 117427, -225.878, 3.77388, -1156.69, 5.25996e-05, 0.278691, 0.993198, 0.349787, 0.651995, 0.0001, 91, 246, 48.0592, 0.185131, 1.16474, 1, 1, 0, 107725
-1271.64, 142734, -290.546, 4.14953, -1189.74, 0.069023, 0.315879, 0.958125, 0.351078, 0.648177, 0.0001, 182, 246, 48.0592, 0.185131, 1.84919, 1, 0, 0, 107725
-1271.64, 142734, -290.546, 4.14953, -1189.74, 0.069023, 0.315879, 0.958125, 0.351078, 0.648177, 3, 182, 246, 48.0592, 0.185131, 1.70408, 1, 0, 0, 107725
-9011.95, 165961, -216.921, 2.02543, -724.043, 0.16726, 0.448897, 1.03299, 0.34851, 0.655882, 3, 45.5, 246, 44.7734, 0.238629, 0, 0, 1, 0, 107732
-6155.69, 64442.2, -124.897, 3.95527, -951.64, 0.0699168, 0.194075, 0.993198, 0.349787, 0.651995, 0.0001, 91, 246, 32.6957, 0.0955862, 0, 0, 1, 0, 107734
-6155.69, 64442.2, -124.897, 3.95527, -951.64, 0.0699168, 0.194075, 0.993198, 0.349787, 0.651995, 3, 91, 246, 32.6957, 0.0955862, 0, 0, 1, 0, 107734
-1726.73, 107563, -259.752, 5.09147, -1065.33, 0.286574, 0.327169, 0.9175, 0.352806, 0.64323, 0.0001, 455, 246, 32.6957, 0.0955862, 1.18517, 1, 1, 0, 107734
-1726.73, 107563, -259.752, 5.09147, -1065.33, 0.286574, 0.327169, 0.9175, 0.352806, 0.64323, 3, 455, 246, 32.6957, 0.0955862, 1.16842, 1, 1, 0, 107734
-8572.06, 1.63179e+06, -102.476, 0.0851868, -942.424, 0.315188, 0.311433, 0.993198, 0.349787, 0.651995, 0.0001, 91, 246, 25.7311, 0.0148701, 0, 0, 1, 0, 107742
-8041.97, 1.67655e+06, -105.84, 0.0888618, -992.07, 0.331744, 0.279931, 0.958125, 0.351078, 0.648177, 0.0001, 182, 246, 25.7311, 0.0148701, 0, 0, 1, 0, 107742
-8163.36, 66290.2, -96.997, 3.35173, -496.407, 0.161862, 0.188181, 1.03299, 0.34851, 0.655882, 0.0001, 45.5, 246, 27.7324, 0.0839554, 0, 0, 1, 0, 107750
-8163.36, 66290.2, -96.997, 3.35173, -496.407, 0.161862, 0.188181, 1.03299, 0.34851, 0.655882, 3, 45.5, 246, 27.7324, 0.0839554, 0, 0, 1, 0, 107750
-3544.65, 87719.8, -205.999, 4.77128, -630.462, 0.439695, 0.304004, 0.9175, 0.352806, 0.64323, 0.0001, 455, 246, 27.7324, 0.0839554, 0, 0, 1, 0, 107750
-3544.65, 87719.8, -205.999, 4.77128, -630.462, 0.439695, 0.304004, 0.9175, 0.352806, 0.64323, 3, 455, 246, 27.7324, 0.0839554, 0, 0, 1, 0, 107750
-7985.66, 291025, -416.865, 3.30226, -860.068, 0.00671267, 0.523761, 0.993198, 0.349787, 0.651995, 0.0001, 91, 246, 51.5265, 0.246808, 1.17476, 1, 1, 0, 107756
-7985.66, 291025, -416.865, 3.30226, -860.068, 0.00671267, 0.523761, 0.993198, 0.349787, 0.651995, 3, 91, 246, 51.5265, 0.246808, 1.04244, 1, 1, 0, 107756
-8741.29, 73705.8, -62.6241, 1.50968, -939.738, 0.147875, 0.345703, 1.03299, 0.34851, 0.655882, 3, 45.5, 246, 27.9521, 0.143471, 0, 0, 1, 0, 107757
-9282.55, 1.40083e+06, -90.5597, 0.0922692, -691.162, 0.724158, 0.30935, 0.993198, 0.349787, 0.651995, 0.0001, 91, 246, 17.8997, 0.0144774, 0, 0, 1, 0, 107758
-9178.47, 79573.9, -56.3988, 2.53778, -981.631, 0.169526, 0.272572, 1.03299, 0.34851, 0.655882, 0.0001, 45.5, 246, 25.8566, 0.0972778, 0, 0, 1, 0, 107759
-9178.47, 79573.9, -56.3988, 2.53778, -981.631, 0.169526, 0.272572, 1.03299, 0.34851, 0.655882, 3, 45.5, 246, 25.8566, 0.0972778, 0, 0, 1, 0, 107759
-6593.91, -15674.4, -13.0581, 3.49697, -916.236, -0.0437808, 0.190001, 1.03299, 0.34851, 0.655882, 0.0001, 45.5, 246, 19.4332, 0.0420031, 0, 0, 1, 1, 107760
-6593.91, -15674.4, -13.0581, 3.49697, -916.236, -0.0437808, 0.190001, 1.03299, 0.34851, 0.655882, 3, 45.5, 246, 19.4332, 0.0420031, 0, 0, 1, 1, 107760
-11767.9, 140349, -11.1305, 2.24124, -870.239, 0.509642, 0.264943, 1.03299, 0.34851, 0.655882, 0.0001, 45.5, 246, 15.9591, 0.0372921, 0, 0, 1, 0, 107763
-11767.9, 140349, -11.1305, 2.24124, -870.239, 0.509642, 0.264943, 1.03299, 0.34851, 0.655882, 3, 45.5, 246, 15.9591, 0.0372921, 0, 0, 1, 0, 107763
-10497.4, 158675, -31.2491, 2.46309, -949.665, 0.580677, 0.248494, 0.993198, 0.349787, 0.651995, 0.0001, 91, 246, 15.9591, 0.0372921, 0, 0, 1, 0, 107763
-10497.4, 158675, -31.2491, 2.46309, -949.665, 0.580677, 0.248494, 0.993198, 0.349787, 0.651995, 3, 91, 246, 15.9591, 0.0372921, 0, 0, 1, 0, 107763
-5476.46, 221679, -103.242, 3.15699, -1238.29, 0.839801, 0.255768, 0.9175, 0.352806, 0.64323, 3, 455, 246, 15.9591, 0.0372921, 0, 0, 0, 0, 107763
-5379.16, 467002, -601.775, 3.07994, -860.373, 0.302792, 0.72607, 0.958125, 0.351078, 0.648177, 3, 182, 246, 48.3975, 0.243401, 0, 0, 0, 0, 107767
-9668.71, 245253, -91.0774, 1.16074, -933.368, 0.479615, 0.318593, 0.993198, 0.349787, 0.651995, 0.0001, 91, 246, 22.9497, 0.081187, 0, 0, 1, 0, 107770
-7270.68, 39102.9, -76.342, 2.88872, -685.019, 0.12562, 0.242722, 1.03299, 0.34851, 0.655882, 0.0001, 45.5, 246, 30.7635, 0.0889924, 1.01658, 1, 1, 0, 107776
-11629.2, 216989, -114.383, 2.03562, -1158.63, 0.0078934, 0.334615, 1.03299, 0.34851, 0.655882, 0.0001, 45.5, 246, 31.7156, 0.117438, 0, 0, 0, 0, 107780
-11629.2, 216989, -114.383, 2.03562, -1158.63, 0.0078934, 0.334615, 1.03299, 0.34851, 0.655882, 3, 45.5, 246, 31.7156, 0.117438, 0, 0, 0, 0, 107780
-8189.06, 5316.8, -8.35188, 2.79287, -1115.2, 0.0143359, 0.258292, 0.993198, 0.349787, 0.651995, 3, 91, 246, 9.68949, 0.0575837, 0, 0, 1, 1, 107786
388.491, 212350, -329.022, 4.59349, -813.033, 0.17405, 0.34969, 0.9175, 0.352806, 0.64323, 0.0001, 455, 246, 34.3414, 0.137648, 1.32107, 1, 0, 0, 107789
388.491, 212350, -329.022, 4.59349, -813.033, 0.17405, 0.34969, 0.9175, 0.352806, 0.64323, 3, 455, 246, 34.3414, 0.137648, 1.33862, 1, 0, 0, 107789
-10505.8, 733823, -229.722, 0.276019, -605.792, 0.782345, 0.399123, 1.03299, 0.34851, 0.655882, 0.0001, 45.5, 246, 22.1833, 0.0696232, 0, 0, 1, 0, 107805
-10505.8, 733823, -229.722, 0.276019, -605.792, 0.782345, 0.399123, 1.03299, 0.34851, 0.655882, 3, 45.5, 246, 22.1833, 0.0696232, 0, 0, 1, 0, 107805
-7981.83, 81941.8, -111.258, 2.06308, -704.209, 0.111706, 0.337629, 1.03299, 0.34851, 0.655882, 3, 45.5, 246, 36.5426, 0.173656, 0, 0, 1, 0, 107809
-6343.02, -51279, 13.6732, 3.20174, -610.243, 0.459411, 0.223328, 1.03299, 0.34851, 0.655882, 0.0001, 45.5, 246, 5.5111, 0.0452238, 2.13419, 1, 1, 0, 107810
-6343.02, -51279, 13.6732, 3.20174, -610.243, 0.459411, 0.223328, 1.03299, 0.34851, 0.655882, 3, 45.5, 246, 5.5111, 0.0452238, 2.0225, 1, 1, 0, 107810
-10085, 204692, -277.137, 2.48863, -687.798, -0.0276911, 0.467622, 1.03299, 0.34851, 0.655882, 3, 45.5, 246, 47.6256, 0.24395, 0, 0, 0, 0, 107812
-3676.06, 225227, -358.96, 2.90065, -733.309, 0.0358801, 0.487848, 0.958125, 0.351078, 0.648177, 0.0001, 182, 246, 47.6256, 0.24395, 1.0699, 1, 0, 0, 107812
-8798, 275930, -262.005, 0.768089, -666.79, 0.392164, 0.526214, 0.993198, 0.349787, 0.651995, 0.0001, 91, 246, 37.9065, 0.229825, 0, 0, 1, 0, 107814
-9848.16, 1.12241e+06, -44.1031, 0.741373, -827.879, 0.0744588, 0.233814, 0.9175, 0.352806, 0.64323, 3, 455, 246, 20.1038, 0.0073041, 0, 0, 1, 0, 107815
-11585.2, 148662, -15.0114, 2.09019, -916.524, -0.0104803, 0.280384, 1.03299, 0.34851, 0.655882, 0.0001, 45.5, 246, 16.5866, 0.0416831, 0, 0, 1, 0, 107822
-11585.2, 148662, -15.0114, 2.09019, -916.524, -0.0104803, 0.280384, 1.03299, 0.34851, 0.655882, 3, 45.5, 246, 16.5866, 0.0416831, 0, 0, 1, 0, 107822
-12752.5, 136697, -27.4415, 3.61442, -1012.38, -0.0521213, 0.140273, 1.03299, 0.34851, 0.655882, 0.0001, 45.5, 246, 21.243, 0.0562779, 0, 0, 0, 0, 107824
-12752.5, 136697, -27.4415, 3.61442, -1012.38, -0.0521213, 0.140273, 1.03299, 0.34851, 0.655882, 3, 45.5, 246, 21.243, 0.0562779, 0, 0, 0, 0, 107824
-10580, 153773, -64.9844, 3.9419, -1013.49, 0.0105443, 0.155905, 0.993198, 0.349787, 0.651995, 0.0001, 91, 246, 21.243, 0.0562779, 0, 0, 1, 0, 107824
-10580, 153773, -64.9844, 3.9419, -1013.49, 0.0105443, 0.155905, 0.993198, 0.349787, 0.651995, 3, 91, 246, 21.243, 0.0562779, 0, 0, 1, 0, 107824
-7746.65, 171935, -110.11, 4.33679, -1030.57, 0.0859927, 0.192432, 0.958125, 0.351078, 0.648177, 0.0001, 182, 246, 21.243, 0.0562779, 0, 0, 1, 0, 107824
-7746.65, 171935, -110.11, 4.33679, -1030.57, 0.0859927, 0.192432, 0.958125, 0.351078, 0.648177, 3, 182, 246, 21.243, 0.0562779, 0, 0, 1, 0, 107824
-9450.01, 1.41282e+06, -211.408, 0.117141, -704.398, 0.840888, 0.365045, 1.03299, 0.34851, 0.655882, 0.0001, 45.5, 246, 22.4251, 0.0317753, 0, 0, 1, 0, 107826
-9450.01, 1.41282e+06, -211.408, 0.117141, -704.398, 0.840888, 0.365045, 1.03299, 0.34851, 0.655882, 3, 45.5, 246, 22.4251, 0.0317753, 0, 0, 1, 0, 107826
-9965.38, 218037, -326.176, 3.14222, -940.124, 0.790889, 0.415358, 1.03299, 0.34851, 0.655882, 0.0001, 45.5, 246, 51.7265, 0.228415, 1.1425, 1, 0, 0, 107830
-9965.38, 218037, -326.176, 3.14222, -940.124, 0.790889, 0.415358, 1.03299, 0.34851, 0.655882, 3, 45.5, 246, 51.7265, 0.228415, 1.01307, 1, 0, 0, 107830
-5650.47, 248842, -387.61, 3.59188, -1112.53, 0.960646, 0.436208, 0.993198, 0.349787, 0.651995, 0.0001, 91, 246, 51.7265, 0.228415, 1.35648, 1, 1, 0, 107830
-5650.47, 248842, -387.61, 3.59188, -1112.53, 0.960646, 0.436208, 0.993198, 0.349787, 0.651995, 3, 91, 246, 51.7265, 0.228415, 1.23986, 1, 1, 0, 107830
-11494, 269339, -140.211, 1.13523, -507.4, -0.00421112, 0.384892, 1.03299, 0.34851, 0.655882, 0.0001, 45.5, 246, 24.0052, 0.123371, 0, 0, 1, 0, 107832
-11494, 269339, -140.211, 1.13523, -507.4, -0.00421112, 0.384892, 1.03299, 0.34851, 0.655882, 3, 45.5, 246, 24.0052, 0.123371, 0, 0, 1, 0, 107832
-10218.8, 274033, -152.425, 1.19091, -511.778, 0.00172755, 0.358035, 0.993198, 0.349787, 0.651995, 3, 91, 246, 24.0052, 0.123371, 0, 0, 1, 0, 107832
-4812.5, 1.10589e+06, -295.028, 0.0273575, -924.452, 0.000676253, 0.380663, 0.993198, 0.349787, 0.651995, 0.0001, 91, 246, 30.3016, 0.0668636, 0, 0, 1, 0, 107833
-10433.9, 471006, -91.6225, 0.470328, -866.005, 0.0424185, 0.35535, 1.03299, 0.34851, 0.655882, 0.0001, 45.5, 246, 22.3042, 0.0506043, 0, 0, 1, 0, 107836
-10433.9, 471006, -91.6225, 0.470328, -866.005, 0.0424185, 0.35535, 1.03299, 0.34851, 0.655882, 3, 45.5, 246, 22.3042, 0.0506043, 0, 0, 1, 0, 107836
-8398.75, 312100, -206.96, 0.823139, -936.101, 0.0475677, 0.427921, 0.993198, 0.349787, 0.651995, 0.0001, 91, 246, 34.3658, 0.164581, 0, 0, 1, 0, 107840
-9682.08, 456493, -532.887, 3.71776, -568.744, 0.0674267, 0.54049, 0.958125, 0.351078, 0.648177, 0.0001, 182, 246, 39.5119, 0.20001, 1.21202, 1, 0, 0, 107845
-9682.08, 456493, -532.887, 3.71776, -568.744, 0.0674267, 0.54049, 0.958125, 0.351078, 0.648177, 3, 182, 246, 39.5119, 0.20001, 1.13674, 1, 0, 0, 107845
-10680.3, 289158, -105.507, 0.938015, -891.897, -0.00329783, 0.366127, 1.03299, 0.34851, 0.655882, 0.0001, 45.5, 246, 25.2853, 0.0921513, 0, 0, 1, 0, 107851
-10680.3, 289158, -105.507, 0.938015, -891.897, -0.00329783, 0.366127, 1.03299, 0.34851, 0.655882, 3, 45.5, 246, 25.2853, 0.0921513, 0, 0, 1, 0, 107851
-9598.25, 303192, -117.918, 0.979977, -894.534, 0.000740087, 0.335869, 0.993198, 0.349787, 0.651995, 0.0001, 91, 246, 25.2853, 0.0921513, 0, 0, 1, 0, 107851
-2556.35, 306664, -441.371, 3.93439, -1013.37, 0.429595, 0.459572, 0.958125, 0.351078, 0.648177, 0.0001, 182, 246, 46.913, 0.210247, 3.58188, 1, 0, 0, 107857
-2556.35, 306664, -441.371, 3.93439, -1013.37, 0.429595, 0.459572, 0.958125, 0.351078, 0.648177, 3, 182, 246, 46.913, 0.210247, 3.22099, 1, 0, 0, 107857
-10452.7, 81808.6, 4.16025, 2.94863, -889.71, -0.0170908, 0.214322, 1.03299, 0.34851, 0.655882, 0.0001, 45.5, 246, 13.687, 0.0360306, 0, 0, 1, 0, 107863
-10452.7, 81808.6, 4.16025, 2.94863, -889.71, -0.0170908, 0.214322, 1.03299, 0.34851, 0.655882, 3, 45.5, 246, 13.687, 0.0360306, 0, 0, 1, 0, 107863
-10997.7, 371396, -283.196, 1.08066, -960.1, -0.000105609, 0.532632, 1.03299, 0.34851, 0.655882, 0.0001, 45.5, 246, 40.4441, 0.193777, 0, 0, 0, 0, 107865
-10997.7, 371396, -283.196, 1.08066, -960.1, -0.000105609, 0.532632, 1.03299, 0.34851, 0.655882, 3, 45.5, 246, 40.4441, 0.193777, 0, 0, 0, 0, 107865
-10045.2, 1.1499e+06, -81.4302, 0.142816, -795.325, 0.182965, 0.345638, 1.03299, 0.34851, 0.655882, 0.0001, 45.5, 246, 21.7531, 0.0176156, 0, 0, 1, 0, 107867
-10045.2, 1.1499e+06, -81.4302, 0.142816, -795.325, 0.182965, 0.345638, 1.03299, 0.34851, 0.655882, 3, 45.5, 246, 21.7531, 0.0176156, 0, 0, 1, 0, 107867
-8865.28, 1.19701e+06, -88.2474, 0.153953, -844.846, 0.1944, 0.278243, 0.958125, 0.351078, 0.648177, 0.0001, 182, 246, 21.7531, 0.0176156, 0, 0, 1, 0, 107867
-1153.47, 132960, -293.39, 3.29621, -580.673, 0.151906, 0.378164, 0.9175, 0.352806, 0.64323, 0.0001, 455, 246, 43.4246, 0.201885, 1.30198, 1, 1, 0, 107869
-1153.47, 132960, -293.39, 3.29621, -580.673, 0.151906, 0.378164, 0.9175, 0.352806, 0.64323, 3, 455, 246, 43.4246, 0.201885, 1.29581, 1, 1, 0, 107869
-7430.79, 636204, -313.678, 0.208364, -966.273, 0.0040383, 0.490924, 1.03299, 0.34851, 0.655882, 0.0001, 45.5, 246, 35.0784, 0.128145, 0, 0, 0, 0, 107871
-7430.79, 636204, -313.678, 0.208364, -966.273, 0.0040383, 0.490924, 1.03299, 0.34851, 0.655882, 3, 45.5, 246, 35.0784, 0.128145, 0, 0, 0, 0, 107871
-6137.44, 654552, -326.386, 0.215636, -968.693, 0.00423834, 0.466959, 0.993198, 0.349787, 0.651995, 3, 91, 246, 35.0784, 0.128145, 0, 0, 1, 0, 107871
-4679.11, 673145, -338.82, 0.222649, -971.279, 0.00445218, 0.447154, 0.958125, 0.351078, 0.648177, 3, 182, 246, 35.0784, 0.128145, 0, 0, 0, 0, 107871
-7073.31, 72218.3, -97.2535, 3.79238, -1193.02, 0.250949, 0.206016, 0.993198, 0.349787, 0.651995, 0.0001, 91, 246, 28.6161, 0.092495, 0, 0, 1, 0, 107872
-9217.03, 325963, -268.684, 0.721746, -983.665, 0.350569, 0.543222, 1.03299, 0.34851, 0.655882, 0.0001, 45.5, 246, 40.7926, 0.205939, 0, 0, 0, 0, 107880
-18924.3, 606572, -695.828, 3.53354, -1031.95, 0.000547276, 0.803661, 0.993198, 0.349787, 0.651995, 0.0001, 91, 246, 55.5357, 0.248063, 1.15467, 1, 1, 0, 107886
-18924.3, 606572, -695.828, 3.53354, -1031.95, 0.000547276, 0.803661, 0.993198, 0.349787, 0.651995, 3, 91, 246, 55.5357, 0.248063, 1.16543, 1, 1, 0, 107886
-4668.47, 47384.2, -146.765, 3.28226, -711.257, 0.645567, 0.207752, 1.03299, 0.34851, 0.655882, 0.0001, 45.5, 246, 45.248, 0.111546, 1.19076, 1, 1, 0, 107900
-3711.73, 59718.3, -183.947, 3.70762, -811.514, 0.778555, 0.217789, 0.993198, 0.349787, 0.651995, 0.0001, 91, 246, 45.248, 0.111546, 1.17473, 1, 1, 0, 107900
-3711.73, 59718.3, -183.947, 3.70762, -811.514, 0.778555, 0.217789, 0.993198, 0.349787, 0.651995, 3, 91, 246, 45.248, 0.111546, 1.0006, 1, 1, 0, 107900
-2213.96, 76950.9, -233.661, 4.25352, -953.917, 0.966998, 0.251715, 0.958125, 0.351078, 0.648177, 0.0001, 182, 246, 45.248, 0.111546, 1.38077, 1, 1, 0, 107900
-2213.96, 76950.9, -233.661, 4.25352, -953.917, 0.966998, 0.251715, 0.958125, 0.351078, 0.648177, 3, 182, 246, 45.248, 0.111546, 1.24542, 1, 1, 0, 107900
1271.94, 114238, -332.959, 5.29424, -1265.27, 1.37714, 0.348235, 0.9175, 0.352806, 0.64323, 0.0001, 455, 246, 45.248, 0.111546, 2.97829, 1, 1, 0, 107900
1271.94, 114238, -332.959, 5.29424, -1265.27, 1.37714, 0.348235, 0.9175, 0.352806, 0.64323, 3, 455, 246, 45.248, 0.111546, 2.9787, 1, 1, 0, 107900
-11553.5, 447321, -27.0823, 0.517704, -816.805, 0.478243, 0.337912, 1.03299, 0.34851, 0.655882, 0.0001, 45.5, 246, 17.4876, 0.0168103, 0, 0, 1, 0, 107903
-11553.5, 447321, -27.0823, 0.517704, -816.805, 0.478243, 0.337912, 1.03299, 0.34851, 0.655882, 3, 45.5, 246, 17.4876, 0.0168103, 0, 0, 1, 0, 107903
-10761.5, 471961, -32.1165, 0.550701, -884.101, 0.518694, 0.302699, 0.993198, 0.349787, 0.651995, 0.0001, 91, 246, 17.4876, 0.0168103, 0, 0, 1, 0, 107903
-9780.16, 500716, -37.8875, 0.585912, -963.692, 0.566548, 0.27206, 0.958125, 0.351078, 0.648177, 0.0001, 182, 246, 17.4876, 0.0168103, 0, 0, 1, 0, 107903
-8822.02, 49562.7, -31.9205, 2.29822, -670.843, -0.0126367, 0.279361, 1.03299, 0.34851, 0.655882, 3, 45.5, 246, 18.3984, 0.0674793, 0, 0, 1, 0, 107905
-8326.32, 58540.9, -66.5081, 2.80508, -732.486, -0.0306883, 0.250048, 1.03299, 0.34851, 0.655882, 0.0001, 45.5, 246, 26.719, 0.0927169, 0, 0, 1, 0, 107906
-8326.32, 58540.9, -66.5081, 2.80508, -732.486, -0.0306883, 0.250048, 1.03299, 0.34851, 0.655882, 3, 45.5, 246, 26.719, 0.0927169, 0, 0, 1, 0, 107906
-10361.1, 117784, -2.50037, 1.57592, -970.61, -0.0101234, 0.308602, 1.03299, 0.34851, 0.655882, 0.0001, 45.5, 246, 13.983, 0.0319027, 0, 0, 1, 0, 107908
-10361.1, 117784, -2.50037, 1.57592, -970.61, -0.0101234, 0.308602, 1.03299, 0.34851, 0.655882, 3, 45.5, 246, 13.983, 0.0319027, 0, 0, 1, 0, 107908
-6721.6, 80849.2, -121.964, 3.3246, -1136.94, 0.00954971, 0.251697, 0.993198, 0.349787, 0.651995, 0.0001, 91, 246, 34.092, 0.123852, 0, 0, 1, 0, 107913
-6721.6, 80849.2, -121.964, 3.3246, -1136.94, 0.00954971, 0.251697, 0.993198, 0.349787, 0.651995, 3, 91, 246, 34.092, 0.123852, 0, 0, 1, 0, 107913
-2173.97, 137965, -246.215, 4.10605, -1210.27, 0.151335, 0.323065, 0.9175, 0.352806, 0.64323, 3, 455, 246, 34.092, 0.123852, 1.01378, 1, 0, 0, 107913
-9834.33, 655363, -123.337, 0.299106, -887.586, 0.605239, 0.359666, 1.03299, 0.34851, 0.655882, 0.0001, 45.5, 246, 24.2388, 0.043636, 0, 0, 1, 0, 107925
-9834.33, 655363, -123.337, 0.299106, -887.586, 0.605239, 0.359666, 1.03299, 0.34851, 0.655882, 3, 45.5, 246, 24.2388, 0.043636, 0, 0, 1, 0, 107925
-9031.99, 693505, -129.947, 0.319423, -982.569, 0.669709, 0.325179, 0.993198, 0.349787, 0.651995, 0.0001, 91, 246, 24.2388, 0.043636, 0, 0, 1, 0, 107925
-9031.99, 693505, -129.947, 0.319423, -982.569, 0.669709, 0.325179, 0.993198, 0.349787, 0.651995, 3, 91, 246, 24.2388, 0.043636, 0, 0, 1, 0, 107925
-4378.62, 89199.1, -223.193, 3.47459, -676.584, 0.765268, 0.219467, 1.03299, 0.34851, 0.655882, 0.0001, 45.5, 246, 49.8034, 0.164018, 1.51759, 1, 0, 0, 107931
-4378.62, 89199.1, -223.193, 3.47459, -676.584, 0.765268, 0.219467, 1.03299, 0.34851, 0.655882, 3, 45.5, 246, 49.8034, 0.164018, 1.41, 1, 0, 0, 107931
-2363.62, 103818, -268.971, 3.97094, -799.157, 0.939671, 0.237549, 0.993198, 0.349787, 0.651995, 0.0001, 91, 246, 49.8034, 0.164018, 1.60878, 1, 1, 0, 107931
-2363.62, 103818, -268.971, 3.97094, -799.157, 0.939671, 0.237549, 0.993198, 0.349787, 0.651995, 3, 91, 246, 49.8034, 0.164018, 1.50776, 1, 1, 0, 107931
544.689, 125460, -331.577, 4.63086, -981.566, 1.19878, 0.284433, 0.958125, 0.351078, 0.648177, 0.0001, 182, 246, 49.8034, 0.164018, 2.34605, 1, 1, 1, 107931
544.689, 125460, -331.577, 4.63086, -981.566, 1.19878, 0.284433, 0.958125, 0.351078, 0.648177, 3, 182, 246, 49.8034, 0.164018, 2.21478, 1, 1, 1, 107931
-6425.85, -36085.2, -13.9312, 3.2634, -657.73, 0.340056, 0.218541, 1.03299, 0.34851, 0.655882, 3, 45.5, 246, 18.61, 0.0309702, 0, 0, 1, 0, 107941
-6833.27, 64156.1, -116.479, 2.36991, -1047.82, 0.53793, 0.327772, 1.03299, 0.34851, 0.655882, 3, 45.5, 246, 43.2545, 0.195402, 0, 0, 1, 0, 107942
-1488.49, 174273, -267.924, 3.42599, -1566.24, 0.918679, 0.3495, 0.9175, 0.352806, 0.64323, 0.0001, 455, 246, 43.2545, 0.195402, 1.30152, 1, 0, 0, 107942
-1488.49, 174273, -267.924, 3.42599, -1566.24, 0.918679, 0.3495, 0.9175, 0.352806, 0.64323, 3, 455, 246, 43.2545, 0.195402, 1.39396, 1, 0, 0, 107942
-7459.81, 45787.6, -78.0219, 3.68847, -933.916, 0.143364, 0.282625, 0.9175, 0.352806, 0.64323, 3, 455, 246, 9.32393, 0.0444326, 0, 0, 1, 1, 107943
-7694.98, 26724.9, -74.0148, 3.88432, -773.435, 0.233982, 0.287166, 0.9175, 0.352806, 0.64323, 3, 455, 246, 9.60337, 0.0379776, 0, 0, 1, 1, 107947
-9677.41, 383101, -304.346, 0.855627, -1085.5, 0.160348, 0.564922, 1.03299, 0.34851, 0.655882, 0.0001, 45.5, 246, 43.0024, 0.201863, 0, 0, 0, 0, 107948
-11392.6, 151381, -13.5894, 1.94058, -1157.58, -0.0170201, 0.291722, 1.03299, 0.34851, 0.655882, 0.0001, 45.5, 246, 19.126, 0.0452472, 0, 0, 1, 0, 107949
-11392.6, 151381, -13.5894, 1.94058, -1157.58, -0.0170201, 0.291722, 1.03299, 0.34851, 0.655882, 3, 45.5, 246, 19.126, 0.0452472, 0, 0, 1, 0, 107949
-8949.18, 157848, -199.824, 2.24035, -794.036, 0.101921, 0.408863, 1.03299, 0.34851, 0.655882, 3, 45.5, 246, 43.5555, 0.219385, 0, 0, 1, 0, 107956
-683.442, 207906, -324.361, 2.91516, -919.613, 0.209968, 0.426584, 0.9175, 0.352806, 0.64323, 0.0001, 455, 246, 43.5555, 0.219385, 1.02754, 1, 0, 0, 107956
-683.442, 207906, -324.361, 2.91516, -919.613, 0.209968, 0.426584, 0.9175, 0.352806, 0.64323, 3, 455, 246, 43.5555, 0.219385, 1.08448, 1, 0, 0, 107956
-11035.2, 337948, -119.303, 0.746546, -574.063, 0.0150879, 0.372696, 1.03299, 0.34851, 0.655882, 0.0001, 45.5, 246, 20.8662, 0.089416, 0, 0, 1, 0, 107965
-11035.2, 337948, -119.303, 0.746546, -574.063, 0.0150879, 0.372696, 1.03299, 0.34851, 0.655882, 3, 45.5, 246, 20.8662, 0.089416, 0, 0, 1, 0, 107965
-10046.2, 344195, -128.171, 0.778102, -578.037, 0.0176818, 0.341394, 0.993198, 0.349787, 0.651995, 0.0001, 91, 246, 20.8662, 0.089416, 0, 0, 1, 0, 107965
-6381.8, 622759, -286.247, 0.196018, -1141.74, 0.134136, 0.464784, 1.03299, 0.34851, 0.655882, 0.0001, 45.5, 246, 36.7112, 0.115608, 0, 0, 0, 0, 107967
-5245.78, 652207, -297.959, 0.20408, -1168.03, 0.13722, 0.438491, 0.993198, 0.349787, 0.651995, 3, 91, 246, 36.7112, 0.115608, 0, 0, 1, 0, 107967
-7371.5, 125928, -191.962, 3.49769, -1058.91, 0.0148423, 0.262718, 1.03299, 0.34851, 0.655882, 3, 45.5, 246, 46.378, 0.182533, 0, 0, 0, 0, 107972
-4915.58, 146853, -245.87, 3.83262, -1087.36, 0.074037, 0.281799, 0.993198, 0.349787, 0.651995, 0.0001, 91, 246, 46.378, 0.182533, 1.10156, 1, 1, 0, 107972
-1511.31, 170525, -311.389, 4.23685, -1136.06, 0.147267, 0.321807, 0.958125, 0.351078, 0.648177, 0.0001, 182, 246, 46.378, 0.182533, 1.85938, 1, 0, 0, 107972
-1511.31, 170525, -311.389, 4.23685, -1136.06, 0.147267, 0.321807, 0.958125, 0.351078, 0.648177, 3, 182, 246, 46.378, 0.182533, 1.69524, 1, 0, 0, 107972
-8435.75, 488366, -316.982, 0.678516, -556.832, 0.347042, 0.459513, 0.958125, 0.351078, 0.648177, 3, 182, 246, 28.4354, 0.152665, 0, 0, 1, 0, 107974
-8720.22, 399222, -274.384, 0.341405, -580.202, 0.12493, 0.490041, 0.993198, 0.349787, 0.651995, 0.0001, 91, 246, 31.1607, 0.174871, 0, 0, 1, 0, 107977
-10987.3, 134442, -54.9646, 2.32238, -854.33, 0.373718, 0.275747, 1.03299, 0.34851, 0.655882, 0.0001, 45.5, 246, 22.1719, 0.0766768, 0, 0, 1, 0, 107978
-10987.3, 134442, -54.9646, 2.32238, -854.33, 0.373718, 0.275747, 1.03299, 0.34851, 0.655882, 3, 45.5, 246, 22.1719, 0.0766768, 0, 0, 1, 0, 107978
-10225.3, 371857, -171.083, 0.742409, -922.173, 0.00642667, 0.410368, 1.03299, 0.34851, 0.655882, 0.0001, 45.5, 246, 30.0845, 0.117727, 0, 0, 0, 0, 107980
-10225.3, 371857, -171.083, 0.742409, -922.173, 0.00642667, 0.410368, 1.03299, 0.34851, 0.655882, 3, 45.5, 246, 30.0845, 0.117727, 0, 0, 0, 0, 107980
-8954.93, 387443, -184.613, 0.774179, -926.846, 0.00896052, 0.381978, 0.993198, 0.349787, 0.651995, 3, 91, 246, 30.0845, 0.117727, 0, 0, 1, 0, 107980
-9776.42, 105272, -48.6297, 2.01192, -1131.17, -0.00335547, 0.307638, 1.03299, 0.34851, 0.655882, 0.0001, 45.5, 246, 24.4867, 0.0932097, 0, 0, 1, 0, 107991
-9776.42, 105272, -48.6297, 2.01192, -1131.17, -0.00335547, 0.307638, 1.03299, 0.34851, 0.655882, 3, 45.5, 246, 24.4867, 0.0932097, 0, 0, 1, 0, 107991
-9592.39, 494319, -341.238, 0.369494, -773.093, 0.120747, 0.568195, 1.03299, 0.34851, 0.655882, 0.0001, 45.5, 246, 36.4028, 0.179113, 0, 0, 0, 0, 107993
-9592.39, 494319, -341.238, 0.369494, -773.093, 0.120747, 0.568195, 1.03299, 0.34851, 0.655882, 3, 45.5, 246, 36.4028, 0.179113, 0, 0, 0, 0, 107993
-6112.93, 527385, -373.894, 0.404045, -811.36, 0.126903, 0.54017, 0.958125, 0.351078, 0.648177, 3, 182, 246, 36.4028, 0.179113, 0, 0, 0, 0, 107993
