-10112.9, 217734, -43.9342, 1.41267, -1133.98, 0.342452, 0.292807, 0.993198, 0.349787, 0.651995, 0.0001, 91, 246, 19.9441, 0.0460442, 0, 0, 1, 0, 4504
-11473.5, 102355, -0.548193, 3.51624, -1151.1, -0.0593468, 0.154837, 1.03299, 0.34851, 0.655882, 0.0001, 45.5, 246, 19.153, 0.0489535, 0, 0, 0, 0, 4519
-11473.5, 102355, -0.548193, 3.51624, -1151.1, -0.0593468, 0.154837, 1.03299, 0.34851, 0.655882, 3, 45.5, 246, 19.153, 0.0489535, 0, 0, 0, 0, 4519
-9875.63, 124639, -39.1918, 3.82725, -1147.46, -8.01708e-05, 0.167688, 0.993198, 0.349787, 0.651995, 0.0001, 91, 246, 19.153, 0.0489535, 0, 0, 1, 0, 4519
-9875.63, 124639, -39.1918, 3.82725, -1147.46, -8.01708e-05, 0.167688, 0.993198, 0.349787, 0.651995, 3, 91, 246, 19.153, 0.0489535, 0, 0, 1, 0, 4519
-7627.24, 147655, -85.3599, 4.19966, -1160.22, 0.0707124, 0.200233, 0.958125, 0.351078, 0.648177, 3, 182, 246, 19.153, 0.0489535, 0, 0, 1, 0, 4519
-3527.51, 55138, -173.942, 2.25116, -549.869, 0.174914, 0.344103, 1.03299, 0.34851, 0.655882, 0.0001, 45.5, 246, 62.5856, 0.244603, 1.44002, 1, 1, 0, 4521
-3527.51, 55138, -173.942, 2.25116, -549.869, 0.174914, 0.344103, 1.03299, 0.34851, 0.655882, 3, 45.5, 246, 62.5856, 0.244603, 1.29, 1, 1, 0, 4521
-2707.71, 61776.2, -198.111, 2.4331, -578.198, 0.204646, 0.332929, 0.993198, 0.349787, 0.651995, 0.0001, 91, 246, 62.5856, 0.244603, 1.46814, 1, 1, 0, 4521
-2707.71, 61776.2, -198.111, 2.4331, -578.198, 0.204646, 0.332929, 0.993198, 0.349787, 0.651995, 3, 91, 246, 62.5856, 0.244603, 1.31904, 1, 1, 0, 4521
-1638.86, 69453.7, -225.986, 2.63788, -613.232, 0.240639, 0.331913, 0.958125, 0.351078, 0.648177, 0.0001, 182, 246, 62.5856, 0.244603, 1.61679, 1, 1, 0, 4521
-1638.86, 69453.7, -225.986, 2.63788, -613.232, 0.240639, 0.331913, 0.958125, 0.351078, 0.648177, 3, 182, 246, 62.5856, 0.244603, 1.47315, 1, 1, 0, 4521
273.485, 81817.8, -270.362, 2.95624, -673.505, 0.301145, 0.346693, 0.9175, 0.352806, 0.64323, 0.0001, 455, 246, 62.5856, 0.244603, 2.16483, 1, 1, 0, 4521
273.485, 81817.8, -270.362, 2.95624, -673.505, 0.301145, 0.346693, 0.9175, 0.352806, 0.64323, 3, 455, 246, 62.5856, 0.244603, 2.03014, 1, 1, 0, 4521
-11359.4, 656454, -3.23821, 0.269095, -785.568, 0.528437, 0.339316, 1.03299, 0.34851, 0.655882, 0.0001, 45.5, 246, 17.0832, 0.00227544, 0, 0, 1, 0, 4527
-10832.5, 687759, -5.36887, 0.28578, -857.198, 0.576953, 0.303258, 0.993198, 0.349787, 0.651995, 0.0001, 91, 246, 17.0832, 0.00227544, 0, 0, 1, 0, 4527
2051.66, 206517, -360.066, 5.14792, -994.639, 0.356337, 0.360791, 0.9175, 0.352806, 0.64323, 0.0001, 455, 246, 36.5415, 0.137201, 0, 0, 0, 0, 4530
2051.66, 206517, -360.066, 5.14792, -994.639, 0.356337, 0.360791, 0.9175, 0.352806, 0.64323, 3, 455, 246, 36.5415, 0.137201, 0, 0, 0, 0, 4530
-10363.9, 214137, -206.527, 1.44904, -687.893, 0.594783, 0.452984, 1.03299, 0.34851, 0.655882, 0.0001, 45.5, 246, 36.8239, 0.197704, 0, 0, 1, 0, 4531
-10363.9, 214137, -206.527, 1.44904, -687.893, 0.594783, 0.452984, 1.03299, 0.34851, 0.655882, 3, 45.5, 246, 36.8239, 0.197704, 0, 0, 1, 0, 4531
-9355.09, 687317, -215.25, 0.197864, -599.011, 0.0299289, 0.405289, 1.03299, 0.34851, 0.655882, 0.0001, 45.5, 246, 22.6426, 0.0807355, 0, 0, 1, 0, 4535
-9355.09, 687317, -215.25, 0.197864, -599.011, 0.0299289, 0.405289, 1.03299, 0.34851, 0.655882, 3, 45.5, 246, 22.6426, 0.0807355, 0, 0, 1, 0, 4535
-8573.82, 695567, -223.227, 0.20453, -603.031, 0.0302497, 0.374057, 0.993198, 0.349787, 0.651995, 0.0001, 91, 246, 22.6426, 0.0807355, 0, 0, 1, 0, 4535
-7689.76, 703993, -230.922, 0.210892, -607.182, 0.0305853, 0.34701, 0.958125, 0.351078, 0.648177, 0.0001, 182, 246, 22.6426, 0.0807355, 0, 0, 1, 0, 4535
-5837.33, 86233, -154.628, 2.48432, -1154.97, 0.395977, 0.338472, 0.993198, 0.349787, 0.651995, 3, 91, 246, 46.9082, 0.231174, 0, 0, 1, 0, 4536
-1753.45, 160525, -261.389, 3.11466, -1409.55, 0.55636, 0.359064, 0.9175, 0.352806, 0.64323, 0.0001, 455, 246, 46.9082, 0.231174, 1.15229, 1, 0, 0, 4536
-1753.45, 160525, -261.389, 3.11466, -1409.55, 0.55636, 0.359064, 0.9175, 0.352806, 0.64323, 3, 455, 246, 46.9082, 0.231174, 1.19686, 1, 0, 0, 4536
-9039.38, 79764.3, -42.6041, 2.87341, -571.505, 4.28748e-05, 0.23507, 0.993198, 0.349787, 0.651995, 3, 91, 246, 14.7087, 0.0487611, 0, 0, 1, 0, 4538
-6567.44, 93181.4, -91.5568, 3.4523, -594.514, 0.102373, 0.263757, 0.9175, 0.352806, 0.64323, 0.0001, 455, 246, 14.7087, 0.0487611, 0, 0, 1, 0, 4538
-6567.44, 93181.4, -91.5568, 3.4523, -594.514, 0.102373, 0.263757, 0.9175, 0.352806, 0.64323, 3, 455, 246, 14.7087, 0.0487611, 0, 0, 1, 0, 4538
-7974.27, 3499.3, -25.0437, 1.94495, -621.036, 0.160303, 0.304069, 1.03299, 0.34851, 0.655882, 3, 45.5, 246, 21.4125, 0.0414868, 0, 0, 1, 1, 4545
-11124.8, 724630, -83.2453, 0.394294, -1132.37, 0.00335845, 0.347924, 1.03299, 0.34851, 0.655882, 0.0001, 45.5, 246, 27.4552, 0.0304351, 0, 0, 1, 0, 4546
-11124.8, 724630, -83.2453, 0.394294, -1132.37, 0.00335845, 0.347924, 1.03299, 0.34851, 0.655882, 3, 45.5, 246, 27.4552, 0.0304351, 0, 0, 1, 0, 4546
-10236.2, 643477, -107.277, 0.307752, -748.623, 0.0111757, 0.356867, 1.03299, 0.34851, 0.655882, 0.0001, 45.5, 246, 20.8534, 0.0432962, 0, 0, 1, 0, 4547
-10236.2, 643477, -107.277, 0.307752, -748.623, 0.0111757, 0.356867, 1.03299, 0.34851, 0.655882, 3, 45.5, 246, 20.8534, 0.0432962, 0, 0, 1, 0, 4547
-9502.63, 653895, -112.879, 0.31801, -750.881, 0.0116261, 0.322183, 0.993198, 0.349787, 0.651995, 0.0001, 91, 246, 20.8534, 0.0432962, 0, 0, 1, 0, 4547
-8669, 664421, -118.439, 0.327784, -753.275, 0.0121062, 0.291823, 0.958125, 0.351078, 0.648177, 0.0001, 182, 246, 20.8534, 0.0432962, 0, 0, 1, 0, 4547
-9942.74, 102184, 4.24493, 1.35706, -918.039, -0.00839853, 0.317177, 1.03299, 0.34851, 0.655882, 3, 45.5, 246, 11.2721, 0.0220225, 0, 0, 1, 0, 4561
-13084.5, 167583, -71.4347, 3.38339, -1021.28, -0.0452606, 0.182653, 1.03299, 0.34851, 0.655882, 0.0001, 45.5, 246, 26.5514, 0.0821874, 0, 0, 0, 0, 4566
-13084.5, 167583, -71.4347, 3.38339, -1021.28, -0.0452606, 0.182653, 1.03299, 0.34851, 0.655882, 3, 45.5, 246, 26.5514, 0.0821874, 0, 0, 0, 0, 4566
-10549.2, 185197, -110.78, 3.67843, -1026.71, 0.00946861, 0.192485, 0.993198, 0.349787, 0.651995, 0.0001, 91, 246, 26.5514, 0.0821874, 0, 0, 1, 0, 4566
-10549.2, 185197, -110.78, 3.67843, -1026.71, 0.00946861, 0.192485, 0.993198, 0.349787, 0.651995, 3, 91, 246, 26.5514, 0.0821874, 0, 0, 1, 0, 4566
-9233.89, 81597.7, -37.158, 1.51156, -1071.41, 0.147634, 0.328608, 1.03299, 0.34851, 0.655882, 0.0001, 45.5, 246, 21.6914, 0.0915354, 0, 0, 1, 0, 4576
-9233.89, 81597.7, -37.158, 1.51156, -1071.41, 0.147634, 0.328608, 1.03299, 0.34851, 0.655882, 3, 45.5, 246, 21.6914, 0.0915354, 0, 0, 1, 0, 4576
-9699.78, 130758, -99.4785, 2.30792, -1143.22, -0.0242017, 0.319209, 1.03299, 0.34851, 0.655882, 0.0001, 45.5, 246, 32.6847, 0.135925, 0, 0, 1, 0, 4582
-9699.78, 130758, -99.4785, 2.30792, -1143.22, -0.0242017, 0.319209, 1.03299, 0.34851, 0.655882, 3, 45.5, 246, 32.6847, 0.135925, 0, 0, 1, 0, 4582
-8328.08, 153551, -131.289, 2.46852, -1148.3, 0.000847533, 0.307235, 0.993198, 0.349787, 0.651995, 0.0001, 91, 246, 32.6847, 0.135925, 0, 0, 1, 0, 4582
-8328.08, 153551, -131.289, 2.46852, -1148.3, 0.000847533, 0.307235, 0.993198, 0.349787, 0.651995, 3, 91, 246, 32.6847, 0.135925, 0, 0, 1, 0, 4582
-10610.9, 112725, -15.3123, 2.10703, -915.736, -0.0208291, 0.28289, 1.03299, 0.34851, 0.655882, 0.0001, 45.5, 246, 16.3979, 0.0479905, 0, 0, 1, 0, 4583
-10610.9, 112725, -15.3123, 2.10703, -915.736, -0.0208291, 0.28289, 1.03299, 0.34851, 0.655882, 3, 45.5, 246, 16.3979, 0.0479905, 0, 0, 1, 0, 4583
-11563.1, 262368, -173.447, 1.81288, -1091.94, -0.0130099, 0.394279, 1.03299, 0.34851, 0.655882, 0.0001, 45.5, 246, 36.199, 0.151527, 0, 0, 0, 0, 4584
-11563.1, 262368, -173.447, 1.81288, -1091.94, -0.0130099, 0.394279, 1.03299, 0.34851, 0.655882, 3, 45.5, 246, 36.199, 0.151527, 0, 0, 0, 0, 4584
1148.32, 196573, -358.656, 4.20052, -765.332, 0.148185, 0.389674, 0.9175, 0.352806, 0.64323, 0.0001, 455, 246, 39.9096, 0.17373, 2.23705, 1, 0, 0, 4591
1148.32, 196573, -358.656, 4.20052, -765.332, 0.148185, 0.389674, 0.9175, 0.352806, 0.64323, 3, 455, 246, 39.9096, 0.17373, 2.24543, 1, 0, 0, 4591
-8817.85, 200339, -136.846, 1.46708, -966.627, 0.00958937, 0.354859, 0.993198, 0.349787, 0.651995, 0.0001, 91, 246, 31.0554, 0.144597, 0, 0, 1, 0, 4592
-11373.1, 222658, -132.402, 1.89434, -1050.74, 0.0198421, 0.355713, 1.03299, 0.34851, 0.655882, 3, 45.5, 246, 32.4187, 0.131175, 0, 0, 0, 0, 4594
-10304.3, 243177, -219.558, 1.63743, -1034.23, 0.092916, 0.470294, 1.03299, 0.34851, 0.655882, 0.0001, 45.5, 246, 41.758, 0.205376, 0, 0, 0, 0, 4601
-10304.3, 243177, -219.558, 1.63743, -1034.23, 0.092916, 0.470294, 1.03299, 0.34851, 0.655882, 3, 45.5, 246, 41.758, 0.205376, 0, 0, 0, 0, 4601
-9649.1, 91693.5, -49.4625, 2.47762, -1126.88, 0.211274, 0.275907, 1.03299, 0.34851, 0.655882, 0.0001, 45.5, 246, 25.4502, 0.0925829, 0, 0, 1, 0, 4610
-9649.1, 91693.5, -49.4625, 2.47762, -1126.88, 0.211274, 0.275907, 1.03299, 0.34851, 0.655882, 3, 45.5, 246, 25.4502, 0.0925829, 0, 0, 1, 0, 4610
-11208.4, 448361, -178.403, 0.699745, -829.813, 0.718105, 0.394868, 1.03299, 0.34851, 0.655882, 0.0001, 45.5, 246, 27.1811, 0.0910754, 0, 0, 1, 0, 4612
-11208.4, 448361, -178.403, 0.699745, -829.813, 0.718105, 0.394868, 1.03299, 0.34851, 0.655882, 3, 45.5, 246, 27.1811, 0.0910754, 0, 0, 1, 0, 4612
-10803.6, 494243, -447.713, 0.0914798, -537.519, 0.401772, 0.716666, 1.03299, 0.34851, 0.655882, 3, 45.5, 246, 37.8616, 0.227034, 0, 0, 0, 0, 4613
-9129.62, 514341, -465.648, 0.0971496, -575.132, 0.42905, 0.715886, 0.993198, 0.349787, 0.651995, 3, 91, 246, 37.8616, 0.227034, 0, 0, 1, 0, 4613
-10275.2, 227819, -252.122, 0.984664, -515.121, 0.761354, 0.538956, 1.03299, 0.34851, 0.655882, 0.0001, 45.5, 246, 38.5532, 0.236285, 0, 0, 1, 0, 4628
-10275.2, 227819, -252.122, 0.984664, -515.121, 0.761354, 0.538956, 1.03299, 0.34851, 0.655882, 3, 45.5, 246, 38.5532, 0.236285, 0, 0, 1, 0, 4628
-8914.98, 244322, -270.139, 1.08032, -593.365, 0.870798, 0.524117, 0.993198, 0.349787, 0.651995, 0.0001, 91, 246, 38.5532, 0.236285, 0, 0, 1, 0, 4628
-11096.3, 1.29804e+06, -24.1179, 0.130453, -909.741, 0.395631, 0.340673, 1.03299, 0.34851, 0.655882, 0.0001, 45.5, 246, 23.6635, 0.00463065, 0, 0, 1, 0, 4629
-11096.3, 1.29804e+06, -24.1179, 0.130453, -909.741, 0.395631, 0.340673, 1.03299, 0.34851, 0.655882, 3, 45.5, 246, 23.6635, 0.00463065, 0, 0, 1, 0, 4629
-10600.8, 1.34193e+06, -25.9366, 0.137158, -970.505, 0.422098, 0.304445, 0.993198, 0.349787, 0.651995, 0.0001, 91, 246, 23.6635, 0.00463065, 0, 0, 1, 0, 4629
-9993.63, 1.39108e+06, -27.8743, 0.144041, -1039.97, 0.452357, 0.272546, 0.958125, 0.351078, 0.648177, 0.0001, 182, 246, 23.6635, 0.00463065, 0, 0, 1, 0, 4629
-7734.59, 600888, -548.993, 0.17143, -1106.9, 0.434234, 0.807304, 1.03299, 0.34851, 0.655882, 0.0001, 45.5, 246, 49.5915, 0.230314, 2.53166, 1, 0, 0, 4633
-7734.59, 600888, -548.993, 0.17143, -1106.9, 0.434234, 0.807304, 1.03299, 0.34851, 0.655882, 3, 45.5, 246, 49.5915, 0.230314, 2.5319, 1, 0, 0, 4633
-4725.89, 644310, -574.513, 0.183119, -1191.18, 0.466373, 0.817776, 0.993198, 0.349787, 0.651995, 0.0001, 91, 246, 49.5915, 0.230314, 3.08283, 1, 1, 0, 4633
-4725.89, 644310, -574.513, 0.183119, -1191.18, 0.466373, 0.817776, 0.993198, 0.349787, 0.651995, 3, 91, 246, 49.5915, 0.230314, 3.08241, 1, 1, 0, 4633
-1253.64, 694397, -600.64, 0.195708, -1289.01, 0.503647, 0.834556, 0.958125, 0.351078, 0.648177, 0.0001, 182, 246, 49.5915, 0.230314, 5.34415, 1, 0, 0, 4633
-1253.64, 694397, -600.64, 0.195708, -1289.01, 0.503647, 0.834556, 0.958125, 0.351078, 0.648177, 3, 182, 246, 49.5915, 0.230314, 5.23674, 1, 0, 0, 4633
-10546.5, 393550, -381.624, 0.336681, -605.646, 0.484616, 0.681939, 1.03299, 0.34851, 0.655882, 0.0001, 45.5, 246, 40.1088, 0.240872, 0, 0, 0, 0, 4637
-10546.5, 393550, -381.624, 0.336681, -605.646, 0.484616, 0.681939, 1.03299, 0.34851, 0.655882, 3, 45.5, 246, 40.1088, 0.240872, 0, 0, 0, 0, 4637
-8937.22, 413911, -399.876, 0.360494, -659.633, 0.525383, 0.67768, 0.993198, 0.349787, 0.651995, 3, 91, 246, 40.1088, 0.240872, 0, 0, 1, 0, 4637
-7040.58, 437482, -418.629, 0.386326, -723.592, 0.573617, 0.678496, 0.958125, 0.351078, 0.648177, 0.0001, 182, 246, 40.1088, 0.240872, 0, 0, 0, 0, 4637
-9495.9, 118399, -104.398, 2.73485, -1058.23, 0.132201, 0.281552, 1.03299, 0.34851, 0.655882, 0.0001, 45.5, 246, 33.2569, 0.131349, 0, 0, 1, 0, 4641
-9495.9, 118399, -104.398, 2.73485, -1058.23, 0.132201, 0.281552, 1.03299, 0.34851, 0.655882, 3, 45.5, 246, 33.2569, 0.131349, 0, 0, 1, 0, 4641
-10662.4, 451080, -34.3781, 1.06154, -877.186, 0.0129553, 0.265214, 0.958125, 0.351078, 0.648177, 3, 182, 246, 17.6199, 0.0158852, 0, 0, 1, 0, 4642
-6753.44, -27892.1, 25.1533, 3.59586, -1109.27, 0.0333887, 0.177713, 1.03299, 0.34851, 0.655882, 0.0001, 45.5, 246, 11.0715, 0.0582618, 0, 0, 1, 0, 4645
-6753.44, -27892.1, 25.1533, 3.59586, -1109.27, 0.0333887, 0.177713, 1.03299, 0.34851, 0.655882, 3, 45.5, 246, 11.0715, 0.0582618, 0, 0, 1, 0, 4645
-11745.9, 650458, -7.74562, 0.32716, -808.655, 0.253433, 0.338763, 1.03299, 0.34851, 0.655882, 0.0001, 45.5, 246, 17.5291, 0.00432024, 0, 0, 1, 0, 4646
-11745.9, 650458, -7.74562, 0.32716, -808.655, 0.253433, 0.338763, 1.03299, 0.34851, 0.655882, 3, 45.5, 246, 17.5291, 0.00432024, 0, 0, 1, 0, 4646
-11073.3, 671366, -10.4626, 0.342463, -842.505, 0.264519, 0.302825, 0.993198, 0.349787, 0.651995, 0.0001, 91, 246, 17.5291, 0.00432024, 0, 0, 1, 0, 4646
-10273.6, 694036, -13.4613, 0.357812, -879.407, 0.276619, 0.271288, 0.958125, 0.351078, 0.648177, 0.0001, 182, 246, 17.5291, 0.00432024, 0, 0, 1, 0, 4646
-9171.33, 144520, -183.346, 2.65096, -669.328, -0.0276257, 0.337872, 1.03299, 0.34851, 0.655882, 3, 45.5, 246, 39.9031, 0.184583, 0, 0, 1, 0, 4653
-866.372, 176590, -307.633, 3.45441, -746.369, 0.107617, 0.379165, 0.9175, 0.352806, 0.64323, 0.0001, 455, 246, 39.9031, 0.184583, 1.21309, 1, 0, 0, 4653
-866.372, 176590, -307.633, 3.45441, -746.369, 0.107617, 0.379165, 0.9175, 0.352806, 0.64323, 3, 455, 246, 39.9031, 0.184583, 1.24132, 1, 0, 0, 4653
-4539.73, 81164.6, -195.321, 3.07549, -723.985, -0.0309901, 0.291487, 1.03299, 0.34851, 0.655882, 0.0001, 45.5, 246, 52.8346, 0.200183, 1.36209, 1, 1, 0, 4656
-4539.73, 81164.6, -195.321, 3.07549, -723.985, -0.0309901, 0.291487, 1.03299, 0.34851, 0.655882, 3, 45.5, 246, 52.8346, 0.200183, 1.18398, 1, 1, 0, 4656
-3024.02, 91116.5, -233.381, 3.3358, -741.009, 0.0140927, 0.298264, 0.993198, 0.349787, 0.651995, 0.0001, 91, 246, 52.8346, 0.200183, 1.45221, 1, 1, 0, 4656
-3024.02, 91116.5, -233.381, 3.3358, -741.009, 0.0140927, 0.298264, 0.993198, 0.349787, 0.651995, 3, 91, 246, 52.8346, 0.200183, 1.29872, 1, 1, 0, 4656
-1022.69, 102328, -278.197, 3.64006, -769.24, 0.0676876, 0.320828, 0.958125, 0.351078, 0.648177, 0.0001, 182, 246, 52.8346, 0.200183, 1.80824, 1, 1, 0, 4656
-1022.69, 102328, -278.197, 3.64006, -769.24, 0.0676876, 0.320828, 0.958125, 0.351078, 0.648177, 3, 182, 246, 52.8346, 0.200183, 1.66892, 1, 1, 0, 4656
2645.09, 120301, -352.011, 4.13885, -830.169, 0.157786, 0.378509, 0.9175, 0.352806, 0.64323, 0.0001, 455, 246, 52.8346, 0.200183, 4.73096, 1, 0, 0, 4656
2645.09, 120301, -352.011, 4.13885, -830.169, 0.157786, 0.378509, 0.9175, 0.352806, 0.64323, 3, 455, 246, 52.8346, 0.200183, 4.73625, 1, 0, 0, 4656
-10832.2, 342741, -232.272, 1.1466, -1031.29, 0.275449, 0.466996, 1.03299, 0.34851, 0.655882, 0.0001, 45.5, 246, 37.5988, 0.163487, 0, 0, 0, 0, 4657
-10832.2, 342741, -232.272, 1.1466, -1031.29, 0.275449, 0.466996, 1.03299, 0.34851, 0.655882, 3, 45.5, 246, 37.5988, 0.163487, 0, 0, 0, 0, 4657
-7695.24, 125709, -190.854, 3.12157, -845.256, -0.0404646, 0.299178, 1.03299, 0.34851, 0.655882, 3, 45.5, 246, 44.7793, 0.187975, 0, 0, 1, 0, 4658
-2843.8, 153309, -282.053, 3.70019, -889.488, 0.0612842, 0.332911, 0.958125, 0.351078, 0.648177, 0.0001, 182, 246, 44.7793, 0.187975, 1.28864, 1, 1, 0, 4658
-2843.8, 153309, -282.053, 3.70019, -889.488, 0.0612842, 0.332911, 0.958125, 0.351078, 0.648177, 3, 182, 246, 44.7793, 0.187975, 1.07641, 1, 1, 0, 4658
-9891.25, 1.08555e+06, -862.07, 0.136059, -945.046, 0.237874, 0.9555, 0.993198, 0.349787, 0.651995, 0.0001, 91, 246, 46.1448, 0.200179, 4.98216, 1, 1, 0, 4659
-9891.25, 1.08555e+06, -862.07, 0.136059, -945.046, 0.237874, 0.9555, 0.993198, 0.349787, 0.651995, 3, 91, 246, 46.1448, 0.200179, 4.9823, 1, 1, 0, 4659
-10625.6, 199647, -117.56, 1.67477, -1033.24, 0.0766722, 0.359902, 1.03299, 0.34851, 0.655882, 0.0001, 45.5, 246, 31.0401, 0.129617, 0, 0, 1, 0, 4661
-10625.6, 199647, -117.56, 1.67477, -1033.24, 0.0766722, 0.359902, 1.03299, 0.34851, 0.655882, 3, 45.5, 246, 31.0401, 0.129617, 0, 0, 1, 0, 4661
-9157.06, 219654, -140.759, 1.78132, -1052.89, 0.0908827, 0.338565, 0.993198, 0.349787, 0.651995, 3, 91, 246, 31.0401, 0.129617, 0, 0, 1, 0, 4661
-9891.32, 324392, -65.6673, 0.821326, -1087.9, 0.661339, 0.309387, 0.993198, 0.349787, 0.651995, 0.0001, 91, 246, 21.6777, 0.047122, 0, 0, 1, 0, 4665
-8000.34, 354215, -250.524, 0.491148, -834.295, 0.0163664, 0.481093, 0.993198, 0.349787, 0.651995, 0.0001, 91, 246, 35.5717, 0.183778, 0, 0, 1, 0, 4666
-13771.5, 175724, 11.9706, 2.65913, -1095.74, -0.0174177, 0.22943, 1.03299, 0.34851, 0.655882, 0.0001, 45.5, 246, 16.8049, 0.0255085, 0, 0, 1, 0, 4674
-13771.5, 175724, 11.9706, 2.65913, -1095.74, -0.0174177, 0.22943, 1.03299, 0.34851, 0.655882, 3, 45.5, 246, 16.8049, 0.0255085, 0, 0, 0, 0, 4674
-11824.2, 196150, -14.6027, 2.85763, -1095.63, 0.0159637, 0.220152, 0.993198, 0.349787, 0.651995, 0.0001, 91, 246, 16.8049, 0.0255085, 0, 0, 1, 0, 4674
-11824.2, 196150, -14.6027, 2.85763, -1095.63, 0.0159637, 0.220152, 0.993198, 0.349787, 0.651995, 3, 91, 246, 16.8049, 0.0255085, 0, 0, 1, 0, 4674
-4920.31, 984292, -305.003, 0.0171009, -901.924, 0.0251974, 0.396489, 0.993198, 0.349787, 0.651995, 0.0001, 91, 246, 30.3107, 0.0777653, 0, 0, 1, 0, 4681
-3397.68, 131959, -260.418, 4.54212, -782.592, 0.666334, 0.250797, 0.958125, 0.351078, 0.648177, 0.0001, 182, 246, 37.608, 0.131304, 1.08356, 1, 1, 0, 4689
1881.05, 159822, -355.856, 5.55138, -981.594, 0.945338, 0.363543, 0.9175, 0.352806, 0.64323, 0.0001, 455, 246, 37.608, 0.131304, 2.64952, 1, 0, 0, 4689
1881.05, 159822, -355.856, 5.55138, -981.594, 0.945338, 0.363543, 0.9175, 0.352806, 0.64323, 3, 455, 246, 37.608, 0.131304, 2.65739, 1, 0, 0, 4689
-410.13, 191952, -311.347, 3.98903, -955.424, 0.760482, 0.363313, 0.9175, 0.352806, 0.64323, 0.0001, 455, 246, 36.9805, 0.15992, 1.42506, 1, 0, 0, 4697
-410.13, 191952, -311.347, 3.98903, -955.424, 0.760482, 0.363313, 0.9175, 0.352806, 0.64323, 3, 455, 246, 36.9805, 0.15992, 1.43109, 1, 0, 0, 4697
-10106, 208615, -224.241, 1.71441, -751.68, -0.00949371, 0.479361, 1.03299, 0.34851, 0.655882, 0.0001, 45.5, 246, 42.1461, 0.230593, 0, 0, 1, 0, 4704
-10106, 208615, -224.241, 1.71441, -751.68, -0.00949371, 0.479361, 1.03299, 0.34851, 0.655882, 3, 45.5, 246, 42.1461, 0.230593, 0, 0, 1, 0, 4704
-12029.9, 388240, -113.57, 0.922314, -968.849, 0.857265, 0.356319, 1.03299, 0.34851, 0.655882, 0.0001, 45.5, 246, 25.9798, 0.0664483, 0, 0, 1, 0, 4710
-12029.9, 388240, -113.57, 0.922314, -968.849, 0.857265, 0.356319, 1.03299, 0.34851, 0.655882, 3, 45.5, 246, 25.9798, 0.0664483, 0, 0, 1, 0, 4710
-8021.79, 7890.53, -13.7004, 2.51252, -992.573, -0.0249374, 0.273113, 1.03299, 0.34851, 0.655882, 0.0001, 45.5, 246, 18.6019, 0.0666992, 0, 0, 1, 1, 4714
-8238.56, 11452.5, -6.99166, 2.496, -1095.5, 0.0900569, 0.272564, 1.03299, 0.34851, 0.655882, 0.0001, 45.5, 246, 17.3188, 0.0678481, 0, 0, 1, 0, 4730
-8238.56, 11452.5, -6.99166, 2.496, -1095.5, 0.0900569, 0.272564, 1.03299, 0.34851, 0.655882, 3, 45.5, 246, 17.3188, 0.0678481, 0, 0, 1, 0, 4730
-5547.38, 241811, -84.5657, 3.55235, -821.02, 0.117024, 0.242383, 0.9175, 0.352806, 0.64323, 3, 455, 246, 14.3439, 0.0241842, 0, 0, 1, 0, 4731
-6652.62, -3540.73, -32.8822, 3.39476, -820.686, -0.0552897, 0.198061, 1.03299, 0.34851, 0.655882, 3, 45.5, 246, 23.7311, 0.0398012, 0, 0, 1, 1, 4734
-5811.37, -77757.1, 25.6809, 3.47949, -1046.46, 0.590596, 0.215965, 1.03299, 0.34851, 0.655882, 0.0001, 45.5, 246, 8.40805, 0.0724858, 2.45112, 1, 1, 0, 4739
-5811.37, -77757.1, 25.6809, 3.47949, -1046.46, 0.590596, 0.215965, 1.03299, 0.34851, 0.655882, 3, 45.5, 246, 8.40805, 0.0724858, 2.31999, 1, 1, 0, 4739
-8130.13, 454887, -218.074, 0.44628, -866.625, 0.000356803, 0.40605, 0.993198, 0.349787, 0.651995, 0.0001, 91, 246, 30.3818, 0.12199, 0, 0, 1, 0, 4753
-6969.14, 468952, -229.19, 0.461846, -869.41, 0.00126211, 0.382117, 0.958125, 0.351078, 0.648177, 0.0001, 182, 246, 30.3818, 0.12199, 0, 0, 1, 0, 4753
-6753.27, 701428, -353.14, 0.172779, -1030.39, 0.0192808, 0.512209, 1.03299, 0.34851, 0.655882, 0.0001, 45.5, 246, 37.2149, 0.130261, 0, 0, 0, 0, 4755
-6753.27, 701428, -353.14, 0.172779, -1030.39, 0.0192808, 0.512209, 1.03299, 0.34851, 0.655882, 3, 45.5, 246, 37.2149, 0.130261, 0, 0, 0, 0, 4755
-11473.2, 322963, -175.278, 1.19111, -896.049, 0.10693, 0.40845, 1.03299, 0.34851, 0.655882, 0.0001, 45.5, 246, 31.441, 0.132258, 0, 0, 0, 0, 4758
-11473.2, 322963, -175.278, 1.19111, -896.049, 0.10693, 0.40845, 1.03299, 0.34851, 0.655882, 3, 45.5, 246, 31.441, 0.132258, 0, 0, 0, 0, 4758
-7567.63, 357641, -214.673, 1.33008, -942.565, 0.125109, 0.365229, 0.958125, 0.351078, 0.648177, 3, 182, 246, 31.441, 0.132258, 0, 0, 1, 0, 4758
14107.3, 631654, -767.526, 3.26073, -1453.54, 0.361819, 0.848068, 0.9175, 0.352806, 0.64323, 0.0001, 455, 246, 53.4725, 0.238278, 0, 0, 0, 0, 4768
14107.3, 631654, -767.526, 3.26073, -1453.54, 0.361819, 0.848068, 0.9175, 0.352806, 0.64323, 3, 455, 246, 53.4725, 0.238278, 0, 0, 0, 0, 4768
-9987.98, 79623.6, 9.65203, 1.94654, -1068.38, -0.0168799, 0.291118, 1.03299, 0.34851, 0.655882, 3, 45.5, 246, 12.7269, 0.0310911, 0, 0, 1, 0, 4769
-8371.09, 235691, -267.537, 3.00273, -980.421, 0.399625, 0.366777, 0.993198, 0.349787, 0.651995, 0.0001, 91, 246, 41.4931, 0.183013, 0, 0, 1, 0, 4775
-8371.09, 235691, -267.537, 3.00273, -980.421, 0.399625, 0.366777, 0.993198, 0.349787, 0.651995, 3, 91, 246, 41.4931, 0.183013, 0, 0, 1, 0, 4775
-11075, 221113, -126.16, 1.53374, -801.163, 0.016543, 0.366791, 1.03299, 0.34851, 0.655882, 0.0001, 45.5, 246, 28.5514, 0.128216, 0, 0, 1, 0, 4782
-11075, 221113, -126.16, 1.53374, -801.163, 0.016543, 0.366791, 1.03299, 0.34851, 0.655882, 3, 45.5, 246, 28.5514, 0.128216, 0, 0, 1, 0, 4782
-6944.12, 50780.1, -95.5487, 3.64245, -648.872, 0.170311, 0.276351, 0.9175, 0.352806, 0.64323, 3, 455, 246, 16.1197, 0.0480234, 0, 0, 1, 0, 4785
-9722.91, 1.12637e+06, -147.714, 0.15455, -701.963, 0.0237279, 0.358727, 1.03299, 0.34851, 0.655882, 0.0001, 45.5, 246, 21.3165, 0.0335708, 0, 0, 1, 0, 4796
-9722.91, 1.12637e+06, -147.714, 0.15455, -701.963, 0.0237279, 0.358727, 1.03299, 0.34851, 0.655882, 3, 45.5, 246, 21.3165, 0.0335708, 0, 0, 1, 0, 4796
-8995.06, 1.13686e+06, -153.12, 0.159377, -705.234, 0.0239258, 0.323847, 0.993198, 0.349787, 0.651995, 3, 91, 246, 21.3165, 0.0335708, 0, 0, 1, 0, 4796
-9111.1, 74567.8, -36.7044, 1.40852, -862.57, 0.0138112, 0.33121, 1.03299, 0.34851, 0.655882, 0.0001, 45.5, 246, 20.1874, 0.09306, 0, 0, 1, 0, 4803
-9111.1, 74567.8, -36.7044, 1.40852, -862.57, 0.0138112, 0.33121, 1.03299, 0.34851, 0.655882, 3, 45.5, 246, 20.1874, 0.09306, 0, 0, 1, 0, 4803
-8573.4, 566303, -227.705, 0.297092, -889.026, 0.0241757, 0.428944, 1.03299, 0.34851, 0.655882, 0.0001, 45.5, 246, 30.0934, 0.103826, 0, 0, 0, 0, 4807
-8573.4, 566303, -227.705, 0.297092, -889.026, 0.0241757, 0.428944, 1.03299, 0.34851, 0.655882, 3, 45.5, 246, 30.0934, 0.103826, 0, 0, 0, 0, 4807
-7567.01, 581910, -237.981, 0.307755, -894.322, 0.0246715, 0.399859, 0.993198, 0.349787, 0.651995, 0.0001, 91, 246, 30.0934, 0.103826, 0, 0, 1, 0, 4807
-7069.04, 149338, -140.824, 4.33037, -866.832, 0.459814, 0.207943, 0.958125, 0.351078, 0.648177, 0.0001, 182, 246, 23.1037, 0.0723561, 0, 0, 1, 0, 4808
-7069.04, 149338, -140.824, 4.33037, -866.832, 0.459814, 0.207943, 0.958125, 0.351078, 0.648177, 3, 182, 246, 23.1037, 0.0723561, 0, 0, 1, 0, 4808
-2398.19, 175817, -216.006, 5.15883, -1002.89, 0.65297, 0.300106, 0.9175, 0.352806, 0.64323, 0.0001, 455, 246, 23.1037, 0.0723561, 0, 0, 0, 0, 4808
-2398.19, 175817, -216.006, 5.15883, -1002.89, 0.65297, 0.300106, 0.9175, 0.352806, 0.64323, 3, 455, 246, 23.1037, 0.0723561, 0, 0, 0, 0, 4808
-9503.79, 87885, -60.5995, 2.4995, -694.654, -0.0295049, 0.270256, 1.03299, 0.34851, 0.655882, 0.0001, 45.5, 246, 23.0362, 0.0884961, 0, 0, 1, 0, 4809
-9503.79, 87885, -60.5995, 2.4995, -694.654, -0.0295049, 0.270256, 1.03299, 0.34851, 0.655882, 3, 45.5, 246, 23.0362, 0.0884961, 0, 0, 1, 0, 4809
-8612.87, 405617, -371.385, 0.199156, -829.739, 0.364147, 0.671798, 1.03299, 0.34851, 0.655882, 0.0001, 45.5, 246, 42.7817, 0.237872, 0, 0, 0, 0, 4812
-5671.9, 455848, -404.196, 0.223871, -942.298, 0.411948, 0.665165, 0.958125, 0.351078, 0.648177, 0.0001, 182, 246, 42.7817, 0.237872, 0, 0, 0, 0, 4812
-9572.52, 576118, -160.573, 0.458774, -1135.16, 0.0645036, 0.381679, 1.03299, 0.34851, 0.655882, 0.0001, 45.5, 246, 30.7489, 0.0709981, 0, 0, 0, 0, 4813
-9572.52, 576118, -160.573, 0.458774, -1135.16, 0.0645036, 0.381679, 1.03299, 0.34851, 0.655882, 3, 45.5, 246, 30.7489, 0.0709981, 0, 0, 0, 0, 4813
-7337.05, 376.885, -32.1367, 2.69876, -751.274, 0.0543609, 0.259245, 1.03299, 0.34851, 0.655882, 0.0001, 45.5, 246, 23.8411, 0.0400294, 0, 0, 1, 1, 4815
-7337.05, 376.885, -32.1367, 2.69876, -751.274, 0.0543609, 0.259245, 1.03299, 0.34851, 0.655882, 3, 45.5, 246, 23.8411, 0.0400294, 0, 0, 1, 1, 4815
-7456.01, 217413, -316.384, 3.65322, -784.422, 0.211134, 0.344047, 0.993198, 0.349787, 0.651995, 0.0001, 91, 246, 44.6659, 0.195847, 1.0434, 1, 1, 0, 4818
-2729.71, 233797, -376.129, 4.06183, -851.387, 0.285984, 0.382006, 0.958125, 0.351078, 0.648177, 0.0001, 182, 246, 44.6659, 0.195847, 1.8723, 1, 0, 0, 4818
-2729.71, 233797, -376.129, 4.06183, -851.387, 0.285984, 0.382006, 0.958125, 0.351078, 0.648177, 3, 182, 246, 44.6659, 0.195847, 1.71128, 1, 0, 0, 4818
-14963.7, 263767, -359.333, 3.52669, -595.402, 0.330766, 0.369541, 1.03299, 0.34851, 0.655882, 0.0001, 45.5, 246, 45.9775, 0.210061, 1.11876, 1, 0, 0, 4822
-14963.7, 263767, -359.333, 3.52669, -595.402, 0.330766, 0.369541, 1.03299, 0.34851, 0.655882, 3, 45.5, 246, 45.9775, 0.210061, 1.04337, 1, 0, 0, 4822
-9562.82, 277871, -416.135, 3.94789, -670.445, 0.413655, 0.398707, 0.993198, 0.349787, 0.651995, 0.0001, 91, 246, 45.9775, 0.210061, 1.41053, 1, 1, 0, 4822
-9562.82, 277871, -416.135, 3.94789, -670.445, 0.413655, 0.398707, 0.993198, 0.349787, 0.651995, 3, 91, 246, 45.9775, 0.210061, 1.32361, 1, 1, 0, 4822
-13301.5, 158194, 3.43586, 2.84901, -966.363, -0.0101035, 0.21372, 1.03299, 0.34851, 0.655882, 0.0001, 45.5, 246, 15.9448, 0.0302506, 0, 0, 1, 0, 4830
-13301.5, 158194, 3.43586, 2.84901, -966.363, -0.0101035, 0.21372, 1.03299, 0.34851, 0.655882, 3, 45.5, 246, 15.9448, 0.0302506, 0, 0, 1, 0, 4830
-2918.68, 83028.3, -225.197, 2.82024, -783.355, 0.566288, 0.337851, 1.03299, 0.34851, 0.655882, 0.0001, 45.5, 246, 60.9307, 0.244914, 1.61674, 1, 1, 0, 4834
-2918.68, 83028.3, -225.197, 2.82024, -783.355, 0.566288, 0.337851, 1.03299, 0.34851, 0.655882, 3, 45.5, 246, 60.9307, 0.244914, 1.49179, 1, 1, 0, 4834
-1259.33, 99048.4, -266.338, 3.15232, -883.278, 0.664891, 0.341714, 0.993198, 0.349787, 0.651995, 0.0001, 91, 246, 60.9307, 0.244914, 1.84752, 1, 1, 0, 4834
-1259.33, 99048.4, -266.338, 3.15232, -883.278, 0.664891, 0.341714, 0.993198, 0.349787, 0.651995, 3, 91, 246, 60.9307, 0.244914, 1.72406, 1, 1, 0, 4834
1093.04, 120513, -318.719, 3.56239, -1018.22, 0.798174, 0.36312, 0.958125, 0.351078, 0.648177, 0.0001, 182, 246, 60.9307, 0.244914, 2.98166, 1, 1, 0, 4834
1093.04, 120513, -318.719, 3.56239, -1018.22, 0.798174, 0.36312, 0.958125, 0.351078, 0.648177, 3, 182, 246, 60.9307, 0.244914, 2.82499, 1, 1, 0, 4834
5934.9, 163363, -415.507, 4.29477, -1288.68, 1.06511, 0.426067, 0.9175, 0.352806, 0.64323, 0.0001, 455, 246, 60.9307, 0.244914, 0, 0, 0, 0, 4834
5934.9, 163363, -415.507, 4.29477, -1288.68, 1.06511, 0.426067, 0.9175, 0.352806, 0.64323, 3, 455, 246, 60.9307, 0.244914, 0, 0, 0, 0, 4834
-11427.3, 417827, -60.7851, 0.654289, -1048.73, 0.650271, 0.342559, 1.03299, 0.34851, 0.655882, 0.0001, 45.5, 246, 23.5709, 0.0361533, 0, 0, 1, 0, 4839
-11427.3, 417827, -60.7851, 0.654289, -1048.73, 0.650271, 0.342559, 1.03299, 0.34851, 0.655882, 3, 45.5, 246, 23.5709, 0.0361533, 0, 0, 1, 0, 4839
-10475.3, 113897, -57.3568, 2.33256, -506.658, -0.0250457, 0.274971, 1.03299, 0.34851, 0.655882, 0.0001, 45.5, 246, 18.5619, 0.074388, 0, 0, 1, 0, 4840
-10475.3, 113897, -57.3568, 2.33256, -506.658, -0.0250457, 0.274971, 1.03299, 0.34851, 0.655882, 3, 45.5, 246, 18.5619, 0.074388, 0, 0, 1, 0, 4840
-9458.66, 118003, -72.4578, 2.49288, -509.771, 0.000522496, 0.26051, 0.993198, 0.349787, 0.651995, 0.0001, 91, 246, 18.5619, 0.074388, 0, 0, 1, 0, 4840
-16946.7, 457739, -569.569, 3.56282, -694.5, 0.188169, 0.629597, 0.993198, 0.349787, 0.651995, 0.0001, 91, 246, 47.7372, 0.23422, 1.22904, 1, 1, 0, 4850
-16946.7, 457739, -569.569, 3.56282, -694.5, 0.188169, 0.629597, 0.993198, 0.349787, 0.651995, 3, 91, 246, 47.7372, 0.23422, 1.18651, 1, 1, 0, 4850
-11628.3, 325901, -411.138, 3.69424, -738.735, 0.263294, 0.425221, 0.993198, 0.349787, 0.651995, 0.0001, 91, 246, 44.3828, 0.204055, 1.03384, 1, 1, 0, 4858
-4370.89, 344801, -480.665, 4.13264, -821.772, 0.344833, 0.471389, 0.958125, 0.351078, 0.648177, 0.0001, 182, 246, 44.3828, 0.204055, 3.69888, 1, 0, 0, 4858
-4370.89, 344801, -480.665, 4.13264, -821.772, 0.344833, 0.471389, 0.958125, 0.351078, 0.648177, 3, 182, 246, 44.3828, 0.204055, 3.24812, 1, 0, 0, 4858
-10134.2, 279696, -226.812, 1.08022, -888.917, -0.00534634, 0.49653, 1.03299, 0.34851, 0.655882, 0.0001, 45.5, 246, 38.7734, 0.202129, 0, 0, 0, 0, 4859
-10134.2, 279696, -226.812, 1.08022, -888.917, -0.00534634, 0.49653, 1.03299, 0.34851, 0.655882, 3, 45.5, 246, 38.7734, 0.202129, 0, 0, 0, 0, 4859
-8531.59, 294431, -247.342, 1.13548, -895.453, 4.24519e-05, 0.478485, 0.993198, 0.349787, 0.651995, 3, 91, 246, 38.7734, 0.202129, 0, 0, 1, 0, 4859
-3076.28, 306152, -435.693, 3.40902, -1007.9, 0.886297, 0.505534, 0.958125, 0.351078, 0.648177, 0.0001, 182, 246, 46.4479, 0.222894, 1.69691, 1, 0, 0, 4863
-3076.28, 306152, -435.693, 3.40902, -1007.9, 0.886297, 0.505534, 0.958125, 0.351078, 0.648177, 3, 182, 246, 46.4479, 0.222894, 1.52258, 1, 0, 0, 4863
-10969.8, 334925, -104.048, 0.843734, -877.465, 0.131376, 0.36202, 1.03299, 0.34851, 0.655882, 0.0001, 45.5, 246, 24.2637, 0.0783627, 0, 0, 1, 0, 4864
-10969.8, 334925, -104.048, 0.843734, -877.465, 0.131376, 0.36202, 1.03299, 0.34851, 0.655882, 3, 45.5, 246, 24.2637, 0.0783627, 0, 0, 1, 0, 4864
-9841.94, 351252, -115.402, 0.886228, -898.825, 0.137515, 0.330674, 0.993198, 0.349787, 0.651995, 3, 91, 246, 24.2637, 0.0783627, 0, 0, 1, 0, 4864
-8501.54, 368583, -127.533, 0.929437, -921.988, 0.144268, 0.304143, 0.958125, 0.351078, 0.648177, 0.0001, 182, 246, 24.2637, 0.0783627, 0, 0, 1, 0, 4864
-8862.24, 87664.8, -66.9531, 1.31631, -1142.22, 0.109051, 0.360518, 1.03299, 0.34851, 0.655882, 0.0001, 45.5, 246, 28.8328, 0.14988, 0, 0, 1, 0, 4867
-12455.9, 329426, -36.565, 1.02782, -839.643, -0.00486063, 0.329256, 1.03299, 0.34851, 0.655882, 3, 45.5, 246, 17.9398, 0.0333678, 0, 0, 1, 0, 4868
-9747.45, 353901, -56.4411, 1.12135, -842.287, 0.0052834, 0.270146, 0.958125, 0.351078, 0.648177, 0.0001, 182, 246, 17.9398, 0.0333678, 0, 0, 1, 0, 4868
-12033.6, 209161, -6.37885, 1.43547, -540.683, -0.0094177, 0.309553, 1.03299, 0.34851, 0.655882, 0.0001, 45.5, 246, 9.76117, 0.0164757, 0, 0, 1, 0, 4878
-12033.6, 209161, -6.37885, 1.43547, -540.683, -0.0094177, 0.309553, 1.03299, 0.34851, 0.655882, 3, 45.5, 246, 9.76117, 0.0164757, 0, 0, 1, 0, 4878
-3255.93, 169922, -201.009, 4.85091, -579.139, 0.193669, 0.286146, 0.9175, 0.352806, 0.64323, 0.0001, 455, 246, 21.8135, 0.0776322, 0, 0, 1, 0, 4880
-3255.93, 169922, -201.009, 4.85091, -579.139, 0.193669, 0.286146, 0.9175, 0.352806, 0.64323, 3, 455, 246, 21.8135, 0.0776322, 0, 0, 1, 0, 4880
-10323.8, 1.22081e+06, -41.9206, 0.24234, -1040.6, 0.000379693, 0.272753, 0.958125, 0.351078, 0.648177, 3, 182, 246, 26.3861, 0.00824498, 0, 0, 1, 0, 4881
5.9583, 219456, -351.298, 2.81636, -1010.51, 0.477229, 0.474423, 0.9175, 0.352806, 0.64323, 0.0001, 455, 246, 47.1508, 0.249273, 1.379, 1, 0, 0, 4882
5.9583, 219456, -351.298, 2.81636, -1010.51, 0.477229, 0.474423, 0.9175, 0.352806, 0.64323, 3, 455, 246, 47.1508, 0.249273, 1.94754, 1, 0, 0, 4882
-4256.33, 31550.2, -140.396, 2.70682, -488.906, 0.361737, 0.258521, 1.03299, 0.34851, 0.655882, 0.0001, 45.5, 246, 51.5418, 0.0944976, 1.05156, 1, 1, 0, 4883
-3724.66, 37021.7, -164.397, 2.97615, -531.739, 0.421238, 0.25313, 0.993198, 0.349787, 0.651995, 0.0001, 91, 246, 51.5418, 0.0944976, 1.00325, 1, 1, 0, 4883
-2966.12, 43844.7, -193.614, 3.29485, -586.898, 0.497477, 0.262268, 0.958125, 0.351078, 0.648177, 0.0001, 182, 246, 51.5418, 0.0944976, 1.04977, 1, 1, 0, 4883
-1455.6, 56074.6, -243.9, 3.82756, -688.655, 0.637165, 0.300222, 0.9175, 0.352806, 0.64323, 0.0001, 455, 246, 51.5418, 0.0944976, 1.30661, 1, 1, 0, 4883
-1455.6, 56074.6, -243.9, 3.82756, -688.655, 0.637165, 0.300222, 0.9175, 0.352806, 0.64323, 3, 455, 246, 51.5418, 0.0944976, 1.1748, 1, 1, 0, 4883
-4744.52, 401369, -432.832, 4.12553, -1173.22, 0.280863, 0.400825, 0.958125, 0.351078, 0.648177, 3, 182, 246, 43.5026, 0.17098, 1.15741, 1, 0, 0, 4886
-7103.58, -27130.1, -11.6217, 2.8681, -692.897, 0.0653098, 0.252913, 1.03299, 0.34851, 0.655882, 0.0001, 45.5, 246, 17.6042, 0.00638928, 0, 0, 1, 1, 4898
-6196.82, 142090, -122.084, 3.02623, -1562.29, 1.35812, 0.275721, 0.9175, 0.352806, 0.64323, 3, 455, 246, 18.5184, 0.0701932, 0, 0, 1, 0, 4900
-10616.3, 1.18429e+06, -216.281, 0.152724, -523.509, 0.58302, 0.373412, 1.03299, 0.34851, 0.655882, 0.0001, 45.5, 246, 18.3506, 0.0415384, 0, 0, 1, 0, 4905
-5596.45, 310210, -89.7126, 3.01864, -975.168, 0.322109, 0.240326, 0.9175, 0.352806, 0.64323, 0.0001, 455, 246, 16.2858, 0.0257289, 0, 0, 0, 0, 4909
-5596.45, 310210, -89.7126, 3.01864, -975.168, 0.322109, 0.240326, 0.9175, 0.352806, 0.64323, 3, 455, 246, 16.2858, 0.0257289, 0, 0, 0, 0, 4909
-8518.76, 1.01896e+06, -280.302, 0.0390599, -505.306, 0.0737338, 0.412943, 1.03299, 0.34851, 0.655882, 0.0001, 45.5, 246, 20.6504, 0.0696811, 0, 0, 1, 0, 4911
-7860.89, 1.02891e+06, -288.706, 0.0403634, -511.563, 0.07461, 0.382146, 0.993198, 0.349787, 0.651995, 0.0001, 91, 246, 20.6504, 0.0696811, 0, 0, 1, 0, 4911
-7114.8, 1.03915e+06, -296.594, 0.0416041, -517.984, 0.0755076, 0.355499, 0.958125, 0.351078, 0.648177, 0.0001, 182, 246, 20.6504, 0.0696811, 0, 0, 1, 0, 4911
-7114.8, 1.03915e+06, -296.594, 0.0416041, -517.984, 0.0755076, 0.355499, 0.958125, 0.351078, 0.648177, 3, 182, 246, 20.6504, 0.0696811, 0, 0, 1, 0, 4911
-12967.6, 371544, -511.432, 3.39263, -667.161, 0.531048, 0.58445, 0.993198, 0.349787, 0.651995, 0.0001, 91, 246, 47.1816, 0.23525, 1.24496, 1, 1, 0, 4913
-12967.6, 371544, -511.432, 3.39263, -667.161, 0.531048, 0.58445, 0.993198, 0.349787, 0.651995, 3, 91, 246, 47.1816, 0.23525, 1.16426, 1, 1, 0, 4913
-12083.5, 360725, -458.483, 3.47687, -747.841, 0.0805922, 0.520293, 0.993198, 0.349787, 0.651995, 0.0001, 91, 246, 47.2922, 0.225947, 1.07547, 1, 1, 0, 4915
-16648.1, 258858, -226.951, 3.45285, -541.054, -0.057208, 0.247734, 1.03299, 0.34851, 0.655882, 0.0001, 45.5, 246, 33.2579, 0.14529, 0, 0, 0, 0, 4924
-16648.1, 258858, -226.951, 3.45285, -541.054, -0.057208, 0.247734, 1.03299, 0.34851, 0.655882, 3, 45.5, 246, 33.2579, 0.14529, 0, 0, 0, 0, 4924
1271.53, 285125, -391.795, 4.76661, -665.591, 0.186364, 0.383654, 0.9175, 0.352806, 0.64323, 0.0001, 455, 246, 33.2579, 0.14529, 1.36409, 1, 0, 0, 4924
1271.53, 285125, -391.795, 4.76661, -665.591, 0.186364, 0.383654, 0.9175, 0.352806, 0.64323, 3, 455, 246, 33.2579, 0.14529, 1.43657, 1, 0, 0, 4924
-9078.46, 659829, -310.155, 0.244787, -759.076, 0.456563, 0.470579, 1.03299, 0.34851, 0.655882, 0.0001, 45.5, 246, 29.9103, 0.112834, 0, 0, 0, 0, 4927
-9078.46, 659829, -310.155, 0.244787, -759.076, 0.456563, 0.470579, 1.03299, 0.34851, 0.655882, 3, 45.5, 246, 29.9103, 0.112834, 0, 0, 0, 0, 4927
-9730.21, 570056, -404.167, 0.0894219, -570.9, 0.443746, 0.600043, 1.03299, 0.34851, 0.655882, 0.0001, 45.5, 246, 32.6648, 0.173579, 0, 0, 0, 0, 4932
-9730.21, 570056, -404.167, 0.0894219, -570.9, 0.443746, 0.600043, 1.03299, 0.34851, 0.655882, 3, 45.5, 246, 32.6648, 0.173579, 0, 0, 0, 0, 4932
-9108.26, 520747, -418.212, 0.448954, -1011.16, 0.257643, 0.660894, 1.03299, 0.34851, 0.655882, 3, 45.5, 246, 44.1441, 0.205558, 0, 0, 0, 0, 4933
-9024.55, 174701, -210.243, 2.4385, -1097.07, 0.0995339, 0.415671, 1.03299, 0.34851, 0.655882, 0.0001, 45.5, 246, 46.3123, 0.220802, 0, 0, 0, 0, 4942
-9024.55, 174701, -210.243, 2.4385, -1097.07, 0.0995339, 0.415671, 1.03299, 0.34851, 0.655882, 3, 45.5, 246, 46.3123, 0.220802, 0, 0, 0, 0, 4942
-6535.51, -44555.8, -8.28848, 3.24806, -622.44, -0.0502795, 0.230693, 1.03299, 0.34851, 0.655882, 0.0001, 45.5, 246, 16.3907, 0.0508209, 0, 0, 1, 0, 4951
-6535.51, -44555.8, -8.28848, 3.24806, -622.44, -0.0502795, 0.230693, 1.03299, 0.34851, 0.655882, 3, 45.5, 246, 16.3907, 0.0508209, 0, 0, 1, 0, 4951
-8426.93, -2813.38, 20.8832, 2.20338, -1139.22, -0.0228248, 0.287532, 1.03299, 0.34851, 0.655882, 0.0001, 45.5, 246, 7.79923, 0.047044, 0, 0, 1, 0, 4954
-10335.7, 428677, -322.516, 0.772971, -960.091, 0.410842, 0.557236, 1.03299, 0.34851, 0.655882, 0.0001, 45.5, 246, 40.1007, 0.184323, 0, 0, 0, 0, 4963
-10335.7, 428677, -322.516, 0.772971, -960.091, 0.410842, 0.557236, 1.03299, 0.34851, 0.655882, 3, 45.5, 246, 40.1007, 0.184323, 0, 0, 0, 0, 4963
-7510.51, 70029.6, -116.133, 3.40298, -663.114, 0.501749, 0.186693, 1.03299, 0.34851, 0.655882, 3, 45.5, 246, 33.1359, 0.100927, 0, 0, 1, 0, 4966
-6325.38, 80648.6, -149.624, 3.81818, -736.648, 0.607057, 0.199222, 0.993198, 0.349787, 0.651995, 0.0001, 91, 246, 33.1359, 0.100927, 0, 0, 1, 0, 4966
-1071.5, 122774, -278.496, 5.31126, -1052.83, 1.05244, 0.334322, 0.9175, 0.352806, 0.64323, 0.0001, 455, 246, 33.1359, 0.100927, 1.35502, 1, 0, 0, 4966
-1071.5, 122774, -278.496, 5.31126, -1052.83, 1.05244, 0.334322, 0.9175, 0.352806, 0.64323, 3, 455, 246, 33.1359, 0.100927, 1.33871, 1, 0, 0, 4966
-6882.78, 1.02764e+06, -248.196, 0.0724439, -737.568, 3.23553e-06, 0.36315, 0.993198, 0.349787, 0.651995, 0.0001, 91, 246, 24.9029, 0.0605711, 0, 0, 1, 0, 4970
-6157.15, 1.0383e+06, -255.311, 0.0743801, -738.057, 2.68997e-05, 0.335151, 0.958125, 0.351078, 0.648177, 0.0001, 182, 246, 24.9029, 0.0605711, 0, 0, 1, 0, 4970
-6184.54, 62301.9, -124.496, 2.68784, -1036.72, 0.00205443, 0.294447, 0.993198, 0.349787, 0.651995, 0.0001, 91, 246, 41.1907, 0.161876, 0, 0, 1, 0, 4974
-6184.54, 62301.9, -124.496, 2.68784, -1036.72, 0.00205443, 0.294447, 0.993198, 0.349787, 0.651995, 3, 91, 246, 41.1907, 0.161876, 0, 0, 1, 1, 4974
-10846.9, 193377, -170.606, 2.23296, -893.482, 0.412407, 0.361256, 1.03299, 0.34851, 0.655882, 0.0001, 45.5, 246, 36.2856, 0.16195, 0, 0, 0, 0, 4976
-10846.9, 193377, -170.606, 2.23296, -893.482, 0.412407, 0.361256, 1.03299, 0.34851, 0.655882, 3, 45.5, 246, 36.2856, 0.16195, 0, 0, 0, 0, 4976
-12693.3, 205676, -282.87, 3.42135, -536.719, 0.764483, 0.275611, 1.03299, 0.34851, 0.655882, 0.0001, 45.5, 246, 40.0895, 0.171646, 1.04804, 1, 0, 0, 4983
-8719.28, 222219, -329.063, 3.91175, -644.865, 0.936566, 0.295437, 0.993198, 0.349787, 0.651995, 0.0001, 91, 246, 40.0895, 0.171646, 1.09717, 1, 1, 0, 4983
-3410.38, 246143, -391.091, 4.5626, -805.245, 1.19163, 0.343588, 0.958125, 0.351078, 0.648177, 0.0001, 182, 246, 40.0895, 0.171646, 1.83532, 1, 0, 0, 4983
-3410.38, 246143, -391.091, 4.5626, -805.245, 1.19163, 0.343588, 0.958125, 0.351078, 0.648177, 3, 182, 246, 40.0895, 0.171646, 1.67912, 1, 0, 0, 4983
-9320.38, 61535.4, -27.6795, 3.31154, -665.083, -0.050933, 0.184379, 1.03299, 0.34851, 0.655882, 0.0001, 45.5, 246, 16.7901, 0.0498691, 0, 0, 1, 0, 4994
-9320.38, 61535.4, -27.6795, 3.31154, -665.083, -0.050933, 0.184379, 1.03299, 0.34851, 0.655882, 3, 45.5, 246, 16.7901, 0.0498691, 0, 0, 1, 0, 4994
-11228.6, 632203, -95.2671, 0.435816, -980.654, 0.62884, 0.350432, 1.03299, 0.34851, 0.655882, 0.0001, 45.5, 246, 24.9177, 0.0355607, 0, 0, 1, 0, 4999
-11228.6, 632203, -95.2671, 0.435816, -980.654, 0.62884, 0.350432, 1.03299, 0.34851, 0.655882, 3, 45.5, 246, 24.9177, 0.0355607, 0, 0, 1, 0, 4999
