-8340.18, 923081, -132.365, 1.05974, -689.522, 0.0405777, 0.246207, 0.9175, 0.352806, 0.64323, 3, 455, 246, 19.1816, 0.0300092, 0, 0, 0, 0, 34006
-10253.4, 90828.2, -23.9866, 2.75828, -963.545, 0.0111026, 0.239279, 1.03299, 0.34851, 0.655882, 0.0001, 45.5, 246, 19.3611, 0.0611099, 0, 0, 1, 0, 34009
-10253.4, 90828.2, -23.9866, 2.75828, -963.545, 0.0111026, 0.239279, 1.03299, 0.34851, 0.655882, 3, 45.5, 246, 19.3611, 0.0611099, 0, 0, 1, 0, 34009
-12150.7, 211232, -65.6339, 1.79278, -816.63, 0.088017, 0.311045, 1.03299, 0.34851, 0.655882, 3, 45.5, 246, 21.5079, 0.0727953, 0, 0, 1, 0, 34014
-9506.35, 164572, -250.829, 3.49265, -615.627, 0.197379, 0.27022, 1.03299, 0.34851, 0.655882, 0.0001, 45.5, 246, 43.8545, 0.183001, 1.08474, 1, 0, 0, 34019
-6320.25, 174596, -295.9, 3.86656, -665.295, 0.265078, 0.290252, 0.993198, 0.349787, 0.651995, 0.0001, 91, 246, 43.8545, 0.183001, 1.21413, 1, 1, 0, 34019
-6320.25, 174596, -295.9, 3.86656, -665.295, 0.265078, 0.290252, 0.993198, 0.349787, 0.651995, 3, 91, 246, 43.8545, 0.183001, 1.06651, 1, 1, 0, 34019
-2262.68, 187605, -351.926, 4.32477, -734.053, 0.353499, 0.333007, 0.958125, 0.351078, 0.648177, 0.0001, 182, 246, 43.8545, 0.183001, 1.77396, 1, 0, 0, 34019
-2262.68, 187605, -351.926, 4.32477, -734.053, 0.353499, 0.333007, 0.958125, 0.351078, 0.648177, 3, 182, 246, 43.8545, 0.183001, 1.62304, 1, 0, 0, 34019
224.455, 501534, -412.506, 2.51875, -953.01, 0.111622, 0.439511, 0.9175, 0.352806, 0.64323, 3, 455, 246, 36.1448, 0.151394, 0, 0, 0, 0, 34022
-8832.52, 66237.1, -29.8224, 0.808365, -1060.4, 0.121828, 0.312345, 0.993198, 0.349787, 0.651995, 3, 91, 246, 17.035, 0.0975261, 0, 0, 1, 0, 34031
-7709.84, 100228, -60.3081, 4.27964, -954.657, 0.758959, 0.204634, 0.958125, 0.351078, 0.648177, 0.0001, 182, 246, 13.47, 0.0344947, 0, 0, 1, 0, 34043
-7709.84, 100228, -60.3081, 4.27964, -954.657, 0.758959, 0.204634, 0.958125, 0.351078, 0.648177, 3, 182, 246, 13.47, 0.0344947, 0, 0, 1, 0, 34043
-4608, 132715, -130.852, 5.22169, -1167.58, 1.05723, 0.296537, 0.9175, 0.352806, 0.64323, 0.0001, 455, 246, 13.47, 0.0344947, 0, 0, 0, 0, 34043
-4608, 132715, -130.852, 5.22169, -1167.58, 1.05723, 0.296537, 0.9175, 0.352806, 0.64323, 3, 455, 246, 13.47, 0.0344947, 0, 0, 0, 0, 34043
-7265.09, 21481, -49.5666, 2.97281, -970.901, -0.00927884, 0.241706, 1.03299, 0.34851, 0.655882, 0.0001, 45.5, 246, 28.4985, 0.082945, 0, 0, 1, 1, 34044
-7265.09, 21481, -49.5666, 2.97281, -970.901, -0.00927884, 0.241706, 1.03299, 0.34851, 0.655882, 3, 45.5, 246, 28.4985, 0.082945, 0, 0, 1, 1, 34044
-7206.83, 76206.8, -113.482, 2.38795, -850.583, 0.000739887, 0.301458, 0.993198, 0.349787, 0.651995, 3, 91, 246, 34.9622, 0.152992, 0, 0, 1, 0, 34048
-12691.3, 233523, -54.9175, 1.78063, -1108.04, 0.420031, 0.306571, 1.03299, 0.34851, 0.655882, 0.0001, 45.5, 246, 24.1759, 0.0618115, 0, 0, 1, 0, 34049
-12691.3, 233523, -54.9175, 1.78063, -1108.04, 0.420031, 0.306571, 1.03299, 0.34851, 0.655882, 3, 45.5, 246, 24.1759, 0.0618115, 0, 0, 1, 0, 34049
-8628.39, 296243, -104.715, 2.10192, -1293.19, 0.522401, 0.268519, 0.958125, 0.351078, 0.648177, 3, 182, 246, 24.1759, 0.0618115, 0, 0, 1, 0, 34049
-14261, 164582, -40.708, 3.49484, -567.274, 0.0252693, 0.142929, 1.03299, 0.34851, 0.655882, 0.0001, 45.5, 246, 15.6899, 0.0450174, 0, 0, 0, 0, 34050
-14261, 164582, -40.708, 3.49484, -567.274, 0.0252693, 0.142929, 1.03299, 0.34851, 0.655882, 3, 45.5, 246, 15.6899, 0.0450174, 0, 0, 0, 0, 34050
-9947.1, 170247, -189.119, 2.20335, -672.194, 0.131801, 0.386372, 1.03299, 0.34851, 0.655882, 0.0001, 45.5, 246, 38.5655, 0.192598, 0, 0, 1, 0, 34058
-10140.1, 562923, -158.881, 0.296971, -514.902, 0.0040969, 0.3832, 1.03299, 0.34851, 0.655882, 0.0001, 45.5, 246, 19.3237, 0.0731932, 0, 0, 1, 0, 34062
-10140.1, 562923, -158.881, 0.296971, -514.902, 0.0040969, 0.3832, 1.03299, 0.34851, 0.655882, 3, 45.5, 246, 19.3237, 0.0731932, 0, 0, 1, 0, 34062
-9427.94, 568131, -165.554, 0.306916, -516.542, 0.00450014, 0.350471, 0.993198, 0.349787, 0.651995, 0.0001, 91, 246, 19.3237, 0.0731932, 0, 0, 1, 0, 34062
-7693.85, 1.17719e+06, -198.219, 0.117224, -940.03, 0.00448853, 0.372134, 1.03299, 0.34851, 0.655882, 0.0001, 45.5, 246, 28.2722, 0.0428808, 0, 0, 0, 0, 34068
-7693.85, 1.17719e+06, -198.219, 0.117224, -940.03, 0.00448853, 0.372134, 1.03299, 0.34851, 0.655882, 3, 45.5, 246, 28.2722, 0.0428808, 0, 0, 0, 0, 34068
-6915.94, 1.19371e+06, -205.088, 0.120725, -941.335, 0.00455391, 0.33821, 0.993198, 0.349787, 0.651995, 3, 91, 246, 28.2722, 0.0428808, 0, 0, 1, 0, 34068
-2465.62, 330087, -432.199, 3.26425, -1212.97, 0.561759, 0.519246, 0.958125, 0.351078, 0.648177, 0.0001, 182, 246, 48.7541, 0.226022, 1.09068, 1, 0, 0, 34070
-11054.3, 833517, -88.4549, 0.220038, -480.666, 0.849308, 0.347301, 1.03299, 0.34851, 0.655882, 0.0001, 45.5, 246, 14.1328, 0.0231551, 0, 0, 1, 0, 34073
-11054.3, 833517, -88.4549, 0.220038, -480.666, 0.849308, 0.347301, 1.03299, 0.34851, 0.655882, 3, 45.5, 246, 14.1328, 0.0231551, 0, 0, 1, 0, 34073
-10407, 879444, -92.2429, 0.238005, -555.771, 0.981226, 0.311709, 0.993198, 0.349787, 0.651995, 3, 91, 246, 14.1328, 0.0231551, 0, 0, 1, 0, 34073
-9024.48, 218846, -150.652, 1.40967, -874.532, 0.272035, 0.363335, 0.993198, 0.349787, 0.651995, 0.0001, 91, 246, 30.509, 0.145474, 0, 0, 1, 0, 34075
-10034.4, 117056, -102.636, 3.14724, -774.701, -0.00716798, 0.225293, 1.03299, 0.34851, 0.655882, 0.0001, 45.5, 246, 29.4254, 0.108551, 0, 0, 1, 0, 34082
-10034.4, 117056, -102.636, 3.14724, -774.701, -0.00716798, 0.225293, 1.03299, 0.34851, 0.655882, 3, 45.5, 246, 29.4254, 0.108551, 0, 0, 1, 0, 34082
-6237.24, 139152, -172.715, 3.73251, -809.839, 0.0968545, 0.251059, 0.958125, 0.351078, 0.648177, 0.0001, 182, 246, 29.4254, 0.108551, 0, 0, 1, 0, 34082
-6237.24, 139152, -172.715, 3.73251, -809.839, 0.0968545, 0.251059, 0.958125, 0.351078, 0.648177, 3, 182, 246, 29.4254, 0.108551, 0, 0, 1, 0, 34082
-9337.28, 47437.3, 10.196, 2.97954, -1010.63, 0.0301092, 0.218158, 1.03299, 0.34851, 0.655882, 0.0001, 45.5, 246, 13.6657, 0.0423679, 1.12418, 1, 1, 0, 34085
-9337.28, 47437.3, 10.196, 2.97954, -1010.63, 0.0301092, 0.218158, 1.03299, 0.34851, 0.655882, 3, 45.5, 246, 13.6657, 0.0423679, 1.06234, 1, 1, 0, 34085
-8782.42, 65153.5, -17.6856, 3.22963, -1019.07, 0.0727932, 0.217337, 0.993198, 0.349787, 0.651995, 0.0001, 91, 246, 13.6657, 0.0423679, 0, 0, 1, 0, 34085
-5061.01, 670542, -295.836, 0.141751, -943.187, 0.007281, 0.406489, 0.958125, 0.351078, 0.648177, 0.0001, 182, 246, 32.6136, 0.11216, 0, 0, 0, 0, 34095
-10294.1, 81983.1, -18.781, 3.47434, -851.73, -0.0509405, 0.162695, 1.03299, 0.34851, 0.655882, 0.0001, 45.5, 246, 17.6826, 0.050551, 0, 0, 0, 0, 34099
-10294.1, 81983.1, -18.781, 3.47434, -851.73, -0.0509405, 0.162695, 1.03299, 0.34851, 0.655882, 3, 45.5, 246, 17.6826, 0.050551, 0, 0, 0, 0, 34099
-12840.1, 144186, 11.0645, 2.84372, -941.246, -0.0341588, 0.214511, 1.03299, 0.34851, 0.655882, 0.0001, 45.5, 246, 14.3063, 0.025155, 0, 0, 1, 0, 34105
-12840.1, 144186, 11.0645, 2.84372, -941.246, -0.0341588, 0.214511, 1.03299, 0.34851, 0.655882, 3, 45.5, 246, 14.3063, 0.025155, 0, 0, 1, 0, 34105
-12746.4, 404066, -515.045, 3.26351, -784.488, 0.0385597, 0.627978, 0.993198, 0.349787, 0.651995, 0.0001, 91, 246, 50.0444, 0.244827, 1.06901, 1, 1, 0, 34106
-2813.93, 67875.5, -226.039, 4.09337, -751.625, 0.539438, 0.305836, 0.9175, 0.352806, 0.64323, 0.0001, 455, 246, 40.0344, 0.100373, 1.00737, 1, 1, 0, 34113
-8469.69, 134478, -88.899, 0.201784, -1108.7, 0.0128613, 0.406299, 1.03299, 0.34851, 0.655882, 0.0001, 45.5, 246, 29.8686, 0.186063, 0, 0, 1, 0, 34120
-8469.69, 134478, -88.899, 0.201784, -1108.7, 0.0128613, 0.406299, 1.03299, 0.34851, 0.655882, 3, 45.5, 246, 29.8686, 0.186063, 0, 0, 1, 0, 34120
-3008.44, 359549, -483.806, 3.42149, -1036.72, 0.42276, 0.558202, 0.958125, 0.351078, 0.648177, 0.0001, 182, 246, 48.5077, 0.228542, 2.32787, 1, 0, 0, 34123
-3008.44, 359549, -483.806, 3.42149, -1036.72, 0.42276, 0.558202, 0.958125, 0.351078, 0.648177, 3, 182, 246, 48.5077, 0.228542, 2.40899, 1, 0, 0, 34123
-13715.9, 172093, -43.9356, 3.31571, -1087.34, -0.0281429, 0.179114, 1.03299, 0.34851, 0.655882, 0.0001, 45.5, 246, 24.0483, 0.0655262, 0, 0, 0, 0, 34133
-13715.9, 172093, -43.9356, 3.31571, -1087.34, -0.0281429, 0.179114, 1.03299, 0.34851, 0.655882, 3, 45.5, 246, 24.0483, 0.0655262, 0, 0, 0, 0, 34133
-11199.1, 192203, -82.1831, 3.60292, -1092.6, 0.0243393, 0.186498, 0.993198, 0.349787, 0.651995, 0.0001, 91, 246, 24.0483, 0.0655262, 0, 0, 1, 0, 34133
-11199.1, 192203, -82.1831, 3.60292, -1092.6, 0.0243393, 0.186498, 0.993198, 0.349787, 0.651995, 3, 91, 246, 24.0483, 0.0655262, 0, 0, 1, 0, 34133
-6689.12, 34842.5, -96.0852, 2.22774, -595.7, 0.979441, 0.283451, 0.993198, 0.349787, 0.651995, 0.0001, 91, 246, 37.4501, 0.100008, 0, 0, 1, 0, 34134
-6689.12, 34842.5, -96.0852, 2.22774, -595.7, 0.979441, 0.283451, 0.993198, 0.349787, 0.651995, 3, 91, 246, 37.4501, 0.100008, 0, 0, 1, 0, 34134
-6332.63, 44469.9, -116.489, 2.51559, -713.442, 1.18801, 0.27546, 0.958125, 0.351078, 0.648177, 0.0001, 182, 246, 37.4501, 0.100008, 2.56882, 1, 1, 0, 34134
-6332.63, 44469.9, -116.489, 2.51559, -713.442, 1.18801, 0.27546, 0.958125, 0.351078, 0.648177, 3, 182, 246, 37.4501, 0.100008, 2.40672, 1, 1, 0, 34134
-10709.3, 337692, -100.487, 0.641093, -556.613, 0.0218213, 0.363572, 1.03299, 0.34851, 0.655882, 0.0001, 45.5, 246, 18.8306, 0.0759673, 0, 0, 1, 0, 34151
-10709.3, 337692, -100.487, 0.641093, -556.613, 0.0218213, 0.363572, 1.03299, 0.34851, 0.655882, 3, 45.5, 246, 18.8306, 0.0759673, 0, 0, 1, 0, 34151
-9913.87, 343649, -107.686, 0.666976, -560.417, 0.0237815, 0.330886, 0.993198, 0.349787, 0.651995, 0.0001, 91, 246, 18.8306, 0.0759673, 0, 0, 1, 0, 34151
-9751.33, 111197, -94.8311, 2.95996, -840.765, -0.024492, 0.245839, 1.03299, 0.34851, 0.655882, 0.0001, 45.5, 246, 29.5447, 0.111247, 0, 0, 1, 0, 34152
-9751.33, 111197, -94.8311, 2.95996, -840.765, -0.024492, 0.245839, 1.03299, 0.34851, 0.655882, 3, 45.5, 246, 29.5447, 0.111247, 0, 0, 1, 0, 34152
-11426.2, 117298, 5.35032, 2.49944, -1125.37, 0.174467, 0.249469, 1.03299, 0.34851, 0.655882, 0.0001, 45.5, 246, 16.7114, 0.036753, 0, 0, 1, 0, 34159
-11426.2, 117298, 5.35032, 2.49944, -1125.37, 0.174467, 0.249469, 1.03299, 0.34851, 0.655882, 3, 45.5, 246, 16.7114, 0.036753, 0, 0, 1, 0, 34159
-5304.86, 657715, -261.117, 0.158288, -1169.01, 0.0622872, 0.406903, 0.993198, 0.349787, 0.651995, 0.0001, 91, 246, 35.1938, 0.100611, 0, 0, 1, 0, 34174
-4275.85, 132475, -301.637, 3.22871, -732.997, 0.555658, 0.362916, 1.03299, 0.34851, 0.655882, 0.0001, 45.5, 246, 58.4811, 0.246831, 1.65198, 1, 0, 0, 34185
-4275.85, 132475, -301.637, 3.22871, -732.997, 0.555658, 0.362916, 1.03299, 0.34851, 0.655882, 3, 45.5, 246, 58.4811, 0.246831, 1.5825, 1, 0, 0, 34185
-1299.24, 149466, -353.889, 3.63929, -837.88, 0.665823, 0.381673, 0.993198, 0.349787, 0.651995, 0.0001, 91, 246, 58.4811, 0.246831, 2.07635, 1, 1, 1, 34185
-1299.24, 149466, -353.889, 3.63929, -837.88, 0.665823, 0.381673, 0.993198, 0.349787, 0.651995, 3, 91, 246, 58.4811, 0.246831, 1.98247, 1, 1, 1, 34185
-5871.21, 23362.1, -171.33, 5.59967, -909.639, 1.44616, 0.33922, 0.9175, 0.352806, 0.64323, 0.0001, 455, 246, 24.7444, 0.00739322, 0, 0, 1, 0, 34186
-5871.21, 23362.1, -171.33, 5.59967, -909.639, 1.44616, 0.33922, 0.9175, 0.352806, 0.64323, 3, 455, 246, 24.7444, 0.00739322, 0, 0, 1, 0, 34186
-1489.98, 161466, -279.561, 2.91457, -1061.82, 0.301328, 0.388071, 0.9175, 0.352806, 0.64323, 0.0001, 455, 246, 46.2367, 0.232637, 1.22513, 1, 0, 0, 34188
-1489.98, 161466, -279.561, 2.91457, -1061.82, 0.301328, 0.388071, 0.9175, 0.352806, 0.64323, 3, 455, 246, 46.2367, 0.232637, 1.22925, 1, 0, 0, 34188
-6525.9, 879464, -339.509, 0.0603091, -873.428, 0.388272, 0.458064, 1.03299, 0.34851, 0.655882, 3, 45.5, 246, 31.2255, 0.0923142, 0, 0, 0, 0, 34189
-4163.94, 954329, -361.079, 0.0668034, -996.855, 0.442621, 0.408109, 0.958125, 0.351078, 0.648177, 3, 182, 246, 31.2255, 0.0923142, 0, 0, 0, 0, 34189
-8169.48, 686549, -272.077, 0.252216, -938.17, 0.695001, 0.431804, 1.03299, 0.34851, 0.655882, 0.0001, 45.5, 246, 31.1991, 0.0901903, 0, 0, 0, 0, 34191
-8169.48, 686549, -272.077, 0.252216, -938.17, 0.695001, 0.431804, 1.03299, 0.34851, 0.655882, 3, 45.5, 246, 31.1991, 0.0901903, 0, 0, 0, 0, 34191
-11768.6, 273070, -250.462, 1.5567, -662.427, 0.0701767, 0.491868, 1.03299, 0.34851, 0.655882, 0.0001, 45.5, 246, 38.2882, 0.20731, 0, 0, 0, 0, 34203
-11768.6, 273070, -250.462, 1.5567, -662.427, 0.0701767, 0.491868, 1.03299, 0.34851, 0.655882, 3, 45.5, 246, 38.2882, 0.20731, 0, 0, 0, 0, 34203
-5850.7, 358053, -471.572, 4.40122, -756.894, 0.595838, 0.41955, 0.958125, 0.351078, 0.648177, 0.0001, 182, 246, 40.352, 0.184189, 2.46554, 1, 0, 0, 34205
-5850.7, 358053, -471.572, 4.40122, -756.894, 0.595838, 0.41955, 0.958125, 0.351078, 0.648177, 3, 182, 246, 40.352, 0.184189, 2.34993, 1, 0, 0, 34205
-8689.38, 663030, -481.309, 0.0017335, -739.996, 0.0010704, 0.682072, 1.03299, 0.34851, 0.655882, 3, 45.5, 246, 38.587, 0.192879, 0, 0, 0, 0, 34207
-113.757, 184773, -325.839, 4.18947, -685.233, 0.193359, 0.364988, 0.9175, 0.352806, 0.64323, 0.0001, 455, 246, 36.6363, 0.158298, 1.31895, 1, 0, 0, 34211
-113.757, 184773, -325.839, 4.18947, -685.233, 0.193359, 0.364988, 0.9175, 0.352806, 0.64323, 3, 455, 246, 36.6363, 0.158298, 1.31951, 1, 0, 0, 34211
-5158.48, 343472, -416.746, 3.91974, -906.627, 0.29853, 0.414381, 0.958125, 0.351078, 0.648177, 0.0001, 182, 246, 41.7013, 0.182754, 1.19691, 1, 0, 0, 34212
-5158.48, 343472, -416.746, 3.91974, -906.627, 0.29853, 0.414381, 0.958125, 0.351078, 0.648177, 3, 182, 246, 41.7013, 0.182754, 1.03195, 1, 0, 0, 34212
-10795.7, 91286.7, 14.7293, 2.6907, -968.283, 0.00207367, 0.234918, 1.03299, 0.34851, 0.655882, 0.0001, 45.5, 246, 12.7256, 0.0281168, 0, 0, 1, 0, 34213
-10795.7, 91286.7, 14.7293, 2.6907, -968.283, 0.00207367, 0.234918, 1.03299, 0.34851, 0.655882, 3, 45.5, 246, 12.7256, 0.0281168, 0, 0, 1, 0, 34213
-9823.44, 107369, -8.78522, 2.89685, -970.931, 0.0363712, 0.226861, 0.993198, 0.349787, 0.651995, 0.0001, 91, 246, 12.7256, 0.0281168, 0, 0, 1, 0, 34213
-13042.5, 368574, 3.61635, 0.837963, -573.045, 0.623077, 0.327936, 1.03299, 0.34851, 0.655882, 3, 45.5, 246, 10.7247, 0.00228031, 0, 0, 1, 0, 34217
-4859.23, 683472, -263.362, 1.96146, -796.982, 0.268744, 0.298507, 0.9175, 0.352806, 0.64323, 3, 455, 246, 23.9348, 0.0747988, 0, 0, 0, 0, 34226
-5527.1, 107256, -218.425, 3.48697, -789.227, 0.113829, 0.257199, 1.03299, 0.34851, 0.655882, 0.0001, 45.5, 246, 50.0009, 0.189219, 1.33764, 1, 1, 0, 34227
-5527.1, 107256, -218.425, 3.48697, -789.227, 0.113829, 0.257199, 1.03299, 0.34851, 0.655882, 3, 45.5, 246, 50.0009, 0.189219, 1.22567, 1, 1, 0, 34227
-3298.42, 120347, -265.907, 3.84039, -830.922, 0.175936, 0.275855, 0.993198, 0.349787, 0.651995, 0.0001, 91, 246, 50.0009, 0.189219, 1.50187, 1, 1, 0, 34227
-3298.42, 120347, -265.907, 3.84039, -830.922, 0.175936, 0.275855, 0.993198, 0.349787, 0.651995, 3, 91, 246, 50.0009, 0.189219, 1.37903, 1, 1, 0, 34227
-305.325, 136156, -324.341, 4.26971, -891.424, 0.255223, 0.316197, 0.958125, 0.351078, 0.648177, 0.0001, 182, 246, 50.0009, 0.189219, 2.19678, 1, 1, 0, 34227
-305.325, 136156, -324.341, 4.26971, -891.424, 0.255223, 0.316197, 0.958125, 0.351078, 0.648177, 3, 182, 246, 50.0009, 0.189219, 2.06354, 1, 1, 0, 34227
-5288.42, 1.06558e+06, -196.304, 0.415326, -1057.84, 0.0313004, 0.268446, 0.9175, 0.352806, 0.64323, 3, 455, 246, 29.3968, 0.0431791, 0, 0, 0, 0, 34229
-6557.08, 139847, -285.397, 3.49672, -569.816, 0.403816, 0.286751, 1.03299, 0.34851, 0.655882, 0.0001, 45.5, 246, 50.4312, 0.203878, 1.53981, 1, 0, 0, 34230
-6557.08, 139847, -285.397, 3.49672, -569.816, 0.403816, 0.286751, 1.03299, 0.34851, 0.655882, 3, 45.5, 246, 50.4312, 0.203878, 1.46986, 1, 0, 0, 34230
-3491.51, 151040, -332.99, 3.91937, -642.744, 0.495759, 0.308812, 0.993198, 0.349787, 0.651995, 0.0001, 91, 246, 50.4312, 0.203878, 1.74838, 1, 1, 0, 34230
-3491.51, 151040, -332.99, 3.91937, -642.744, 0.495759, 0.308812, 0.993198, 0.349787, 0.651995, 3, 91, 246, 50.4312, 0.203878, 1.65157, 1, 1, 0, 34230
524.916, 166247, -393.801, 4.45062, -743.313, 0.621222, 0.356084, 0.958125, 0.351078, 0.648177, 0.0001, 182, 246, 50.4312, 0.203878, 3.07271, 1, 0, 0, 34230
524.916, 166247, -393.801, 4.45062, -743.313, 0.621222, 0.356084, 0.958125, 0.351078, 0.648177, 3, 182, 246, 50.4312, 0.203878, 2.87591, 1, 0, 0, 34230
-18068.3, 508096, -534.623, 3.97614, -978.322, 0.310603, 0.491741, 0.993198, 0.349787, 0.651995, 0.0001, 91, 246, 47.4249, 0.19956, 1.03485, 1, 1, 0, 34237
-18068.3, 508096, -534.623, 3.97614, -978.322, 0.310603, 0.491741, 0.993198, 0.349787, 0.651995, 3, 91, 246, 47.4249, 0.19956, 1.00191, 1, 1, 0, 34237
-11733.5, 230427, -156.426, 1.96493, -992.036, 0.664032, 0.359383, 1.03299, 0.34851, 0.655882, 0.0001, 45.5, 246, 33.5995, 0.135348, 0, 0, 0, 0, 34238
-11733.5, 230427, -156.426, 1.96493, -992.036, 0.664032, 0.359383, 1.03299, 0.34851, 0.655882, 3, 45.5, 246, 33.5995, 0.135348, 0, 0, 0, 0, 34238
1710.93, 323790, -382.632, 3.84548, -1070.49, 0.377295, 0.398649, 0.9175, 0.352806, 0.64323, 0.0001, 455, 246, 37.1888, 0.157322, 0, 0, 0, 0, 34243
1710.93, 323790, -382.632, 3.84548, -1070.49, 0.377295, 0.398649, 0.9175, 0.352806, 0.64323, 3, 455, 246, 37.1888, 0.157322, 0, 0, 0, 0, 34243
-9085.86, 83299.6, -42.6724, 1.2235, -1033.55, 0.326865, 0.342233, 1.03299, 0.34851, 0.655882, 0.0001, 45.5, 246, 22.3513, 0.103042, 0, 0, 1, 0, 34250
-9085.86, 83299.6, -42.6724, 1.2235, -1033.55, 0.326865, 0.342233, 1.03299, 0.34851, 0.655882, 3, 45.5, 246, 22.3513, 0.103042, 0, 0, 1, 0, 34250
-4369.97, 204987, -330.219, 3.93257, -626.898, 1.2085, 0.342366, 0.958125, 0.351078, 0.648177, 0.0001, 182, 246, 37.7329, 0.169769, 1.04628, 1, 0, 0, 34256
-7856.1, 103895, -147.997, 3.24139, -883.861, -0.0394292, 0.250966, 1.03299, 0.34851, 0.655882, 0.0001, 45.5, 246, 39.857, 0.153168, 0, 0, 1, 0, 34257
-7856.1, 103895, -147.997, 3.24139, -883.861, -0.0394292, 0.250966, 1.03299, 0.34851, 0.655882, 3, 45.5, 246, 39.857, 0.153168, 0, 0, 1, 0, 34257
449.453, 156816, -316.293, 4.40269, -986.151, 0.172133, 0.353009, 0.9175, 0.352806, 0.64323, 0.0001, 455, 246, 39.857, 0.153168, 2.15825, 1, 0, 0, 34257
449.453, 156816, -316.293, 4.40269, -986.151, 0.172133, 0.353009, 0.9175, 0.352806, 0.64323, 3, 455, 246, 39.857, 0.153168, 2.16192, 1, 0, 0, 34257
-8745.96, 325127, -189.563, 0.48327, -925.716, 0.247793, 0.443797, 1.03299, 0.34851, 0.655882, 0.0001, 45.5, 246, 32.5604, 0.146746, 0, 0, 0, 0, 34259
-5478.23, 138652, -180.556, 2.83585, -1323.95, 0.778527, 0.316267, 0.958125, 0.351078, 0.648177, 3, 182, 246, 37.5447, 0.168464, 0, 0, 1, 0, 34264
-3890.73, 59812.4, -172.712, 2.38055, -648.245, 0.166309, 0.339828, 1.03299, 0.34851, 0.655882, 0.0001, 45.5, 246, 60.0472, 0.241706, 1.36428, 1, 1, 0, 34266
-3890.73, 59812.4, -172.712, 2.38055, -648.245, 0.166309, 0.339828, 1.03299, 0.34851, 0.655882, 3, 45.5, 246, 60.0472, 0.241706, 1.19804, 1, 1, 0, 34266
-2980.3, 68612.7, -200.186, 2.57792, -679.478, 0.198504, 0.331336, 0.993198, 0.349787, 0.651995, 0.0001, 91, 246, 60.0472, 0.241706, 1.41743, 1, 1, 0, 34266
-2980.3, 68612.7, -200.186, 2.57792, -679.478, 0.198504, 0.331336, 0.993198, 0.349787, 0.651995, 3, 91, 246, 60.0472, 0.241706, 1.25673, 1, 1, 0, 34266
-1761.86, 78728, -232.168, 2.80177, -718.779, 0.237713, 0.333857, 0.958125, 0.351078, 0.648177, 0.0001, 182, 246, 60.0472, 0.241706, 1.62654, 1, 1, 0, 34266
-1761.86, 78728, -232.168, 2.80177, -718.779, 0.237713, 0.333857, 0.958125, 0.351078, 0.648177, 3, 182, 246, 60.0472, 0.241706, 1.48004, 1, 1, 0, 34266
479.192, 94959.1, -283.699, 3.15356, -787.763, 0.304237, 0.355076, 0.9175, 0.352806, 0.64323, 0.0001, 455, 246, 60.0472, 0.241706, 2.52545, 1, 1, 1, 34266
479.192, 94959.1, -283.699, 3.15356, -787.763, 0.304237, 0.355076, 0.9175, 0.352806, 0.64323, 3, 455, 246, 60.0472, 0.241706, 2.40083, 1, 1, 1, 34266
-10004.3, 296953, -291.498, 1.1973, -1038.67, 0.0800437, 0.590225, 1.03299, 0.34851, 0.655882, 0.0001, 45.5, 246, 46.4878, 0.245467, 0, 0, 0, 0, 34267
-10004.3, 296953, -291.498, 1.1973, -1038.67, 0.0800437, 0.590225, 1.03299, 0.34851, 0.655882, 3, 45.5, 246, 46.4878, 0.245467, 0, 0, 0, 0, 34267
-8604.73, 93246.3, -37.4896, 0.158945, -933.975, -0.000113945, 0.357503, 1.03299, 0.34851, 0.655882, 0.0001, 45.5, 246, 18.7673, 0.108831, 0, 0, 1, 0, 34269
-8604.73, 93246.3, -37.4896, 0.158945, -933.975, -0.000113945, 0.357503, 1.03299, 0.34851, 0.655882, 3, 45.5, 246, 18.7673, 0.108831, 0, 0, 1, 0, 34269
-8267.66, -8774.98, -2.7919, 2.65851, -1197.84, 0.456926, 0.269555, 0.993198, 0.349787, 0.651995, 0.0001, 91, 246, 6.9494, 0.0656225, 0, 0, 1, 1, 34277
-8267.66, -8774.98, -2.7919, 2.65851, -1197.84, 0.456926, 0.269555, 0.993198, 0.349787, 0.651995, 3, 91, 246, 6.9494, 0.0656225, 0, 0, 1, 1, 34277
-9073.98, 180510, -217.744, 2.28152, -1061.24, 0.10254, 0.439967, 1.03299, 0.34851, 0.655882, 0.0001, 45.5, 246, 46.741, 0.230411, 0, 0, 0, 0, 34280
-9073.98, 180510, -217.744, 2.28152, -1061.24, 0.10254, 0.439967, 1.03299, 0.34851, 0.655882, 3, 45.5, 246, 46.741, 0.230411, 0, 0, 0, 0, 34280
-11349.5, 260696, -251.021, 1.14197, -463.079, 0.478422, 0.508987, 1.03299, 0.34851, 0.655882, 0.0001, 45.5, 246, 35.0464, 0.209425, 0, 0, 1, 0, 34301
-11349.5, 260696, -251.021, 1.14197, -463.079, 0.478422, 0.508987, 1.03299, 0.34851, 0.655882, 3, 45.5, 246, 35.0464, 0.209425, 0, 0, 1, 0, 34301
907.538, 200791, -366.041, 4.21502, -643.058, 0.253009, 0.398208, 0.9175, 0.352806, 0.64323, 0.0001, 455, 246, 38.6491, 0.175046, 1.77977, 1, 0, 0, 34305
907.538, 200791, -366.041, 4.21502, -643.058, 0.253009, 0.398208, 0.9175, 0.352806, 0.64323, 3, 455, 246, 38.6491, 0.175046, 1.78225, 1, 0, 0, 34305
-5897.89, 69897.7, -129.44, 4.39359, -1091.33, 0.141996, 0.226407, 0.958125, 0.351078, 0.648177, 3, 182, 246, 25.509, 0.0750955, 0, 0, 1, 0, 34323
-11553.2, 369437, -487.812, 3.32763, -815.014, 0.445527, 0.571446, 0.993198, 0.349787, 0.651995, 0.0001, 91, 246, 48.753, 0.234555, 1.10882, 1, 1, 0, 34325
-11553.2, 369437, -487.812, 3.32763, -815.014, 0.445527, 0.571446, 0.993198, 0.349787, 0.651995, 3, 91, 246, 48.753, 0.234555, 1.00391, 1, 1, 0, 34325
-10870.2, 135243, -29.6915, 1.99238, -994.045, 0.0483633, 0.293301, 1.03299, 0.34851, 0.655882, 0.0001, 45.5, 246, 19.5983, 0.0599101, 0, 0, 1, 0, 34331
-10870.2, 135243, -29.6915, 1.99238, -994.045, 0.0483633, 0.293301, 1.03299, 0.34851, 0.655882, 3, 45.5, 246, 19.5983, 0.0599101, 0, 0, 1, 0, 34331
-9816.01, 152870, -50.1804, 2.12484, -1005.32, 0.067487, 0.272899, 0.993198, 0.349787, 0.651995, 0.0001, 91, 246, 19.5983, 0.0599101, 0, 0, 1, 0, 34331
-8761.28, 113814, -110.916, 3.70671, -674.434, 0.335113, 0.190639, 0.993198, 0.349787, 0.651995, 0.0001, 91, 246, 24.2851, 0.0808898, 0, 0, 1, 0, 34339
-8761.28, 113814, -110.916, 3.70671, -674.434, 0.335113, 0.190639, 0.993198, 0.349787, 0.651995, 3, 91, 246, 24.2851, 0.0808898, 0, 0, 1, 0, 34339
-6736.28, 124562, -146.545, 4.13734, -729.568, 0.42512, 0.221101, 0.958125, 0.351078, 0.648177, 0.0001, 182, 246, 24.2851, 0.0808898, 0, 0, 1, 0, 34339
-6736.28, 124562, -146.545, 4.13734, -729.568, 0.42512, 0.221101, 0.958125, 0.351078, 0.648177, 3, 182, 246, 24.2851, 0.0808898, 0, 0, 1, 0, 34339
-6295.97, 853609, -305.222, 0.121421, -1021.5, 0.273988, 0.439537, 1.03299, 0.34851, 0.655882, 0.0001, 45.5, 246, 33.4944, 0.0871491, 0, 0, 0, 0, 34341
-6295.97, 853609, -305.222, 0.121421, -1021.5, 0.273988, 0.439537, 1.03299, 0.34851, 0.655882, 3, 45.5, 246, 33.4944, 0.0871491, 0, 0, 0, 0, 34341
-1255.75, 81600.4, -266.64, 4.53582, -818.343, 0.190845, 0.320718, 0.9175, 0.352806, 0.64323, 0.0001, 455, 246, 41.3542, 0.110577, 1.35578, 1, 1, 0, 34346
-1255.75, 81600.4, -266.64, 4.53582, -818.343, 0.190845, 0.320718, 0.9175, 0.352806, 0.64323, 3, 455, 246, 41.3542, 0.110577, 1.28952, 1, 1, 0, 34346
-10445.2, 167240, -156.151, 2.86423, -1027.96, 0.0189055, 0.302647, 1.03299, 0.34851, 0.655882, 0.0001, 45.5, 246, 37.8347, 0.155476, 0, 0, 0, 0, 34348
-10445.2, 167240, -156.151, 2.86423, -1027.96, 0.0189055, 0.302647, 1.03299, 0.34851, 0.655882, 3, 45.5, 246, 37.8347, 0.155476, 0, 0, 0, 0, 34348
495.99, 240329, -323.743, 3.82407, -1149.26, 0.184635, 0.364033, 0.9175, 0.352806, 0.64323, 3, 455, 246, 37.8347, 0.155476, 1.73006, 1, 0, 0, 34348
-9795.62, 89647.7, -23.8867, 1.92125, -923.301, 0.0723293, 0.299151, 1.03299, 0.34851, 0.655882, 0.0001, 45.5, 246, 17.8951, 0.0630013, 0, 0, 1, 0, 34349
-9795.62, 89647.7, -23.8867, 1.92125, -923.301, 0.0723293, 0.299151, 1.03299, 0.34851, 0.655882, 3, 45.5, 246, 17.8951, 0.0630013, 0, 0, 1, 0, 34349
-7519.39, 423077, -481.55, 4.08311, -824.203, 1.1107, 0.439899, 0.958125, 0.351078, 0.648177, 0.0001, 182, 246, 37.5768, 0.174076, 1.01777, 1, 0, 0, 34352
-7519.39, 423077, -481.55, 4.08311, -824.203, 1.1107, 0.439899, 0.958125, 0.351078, 0.648177, 3, 182, 246, 37.5768, 0.174076, 1.09051, 1, 0, 0, 34352
-9449.57, 190251, -229.485, 2.38013, -970.034, -0.0236997, 0.438357, 1.03299, 0.34851, 0.655882, 3, 45.5, 246, 46.5708, 0.229047, 0, 0, 0, 0, 34353
-9180.55, 147260, -237.766, 3.42684, -559.5, 0.741028, 0.239626, 1.03299, 0.34851, 0.655882, 0.0001, 45.5, 246, 41.066, 0.162132, 1.11747, 1, 0, 0, 34354
-6313.11, 161087, -280.19, 3.90882, -663.333, 0.906121, 0.257148, 0.993198, 0.349787, 0.651995, 0.0001, 91, 246, 41.066, 0.162132, 1.14725, 1, 1, 0, 34354
-2431.8, 181095, -337.297, 4.54506, -816.233, 1.14897, 0.302438, 0.958125, 0.351078, 0.648177, 0.0001, 182, 246, 41.066, 0.162132, 1.59997, 1, 0, 0, 34354
-2431.8, 181095, -337.297, 4.54506, -816.233, 1.14897, 0.302438, 0.958125, 0.351078, 0.648177, 3, 182, 246, 41.066, 0.162132, 1.44554, 1, 0, 0, 34354
-12479.8, 297470, -33.9179, 1.11104, -680.119, 0.174739, 0.325463, 1.03299, 0.34851, 0.655882, 3, 45.5, 246, 15.1946, 0.0324623, 0, 0, 1, 0, 34355
-9816.16, 320395, -52.25, 1.24026, -723.986, 0.197794, 0.267935, 0.958125, 0.351078, 0.648177, 0.0001, 182, 246, 15.1946, 0.0324623, 0, 0, 1, 0, 34355
-8629.73, 392391, -319.589, 0.5184, -1035.42, 0.00274656, 0.600601, 1.03299, 0.34851, 0.655882, 0.0001, 45.5, 246, 43.3843, 0.21712, 0, 0, 0, 0, 34360
-7004.77, 413205, -338.463, 0.541115, -1040.56, 0.00398041, 0.58829, 0.993198, 0.349787, 0.651995, 3, 91, 246, 43.3843, 0.21712, 0, 0, 1, 0, 34360
-9647.37, -74701.9, -14.2079, 0.0829963, -1075.26, 0.00297167, 0.355267, 1.03299, 0.34851, 0.655882, 0.0001, 45.5, 246, -35.3667, 0.188193, 0, 0, 1, 0, 34361
-9647.37, -74701.9, -14.2079, 0.0829963, -1075.26, 0.00297167, 0.355267, 1.03299, 0.34851, 0.655882, 3, 45.5, 246, -35.3667, 0.188193, 0, 0, 1, 0, 34361
-8937.29, 454345, -344.808, 0.0710148, -582.807, 0.400948, 0.585752, 1.03299, 0.34851, 0.655882, 0.0001, 45.5, 246, 33.7913, 0.1906, 0, 0, 0, 0, 34367
-7986.35, 472987, -357.219, 0.0751111, -622.929, 0.428094, 0.570657, 0.993198, 0.349787, 0.651995, 0.0001, 91, 246, 33.7913, 0.1906, 0, 0, 1, 0, 34367
-3747.37, 350019, -425.326, 4.54706, -1227.49, 0.997967, 0.367608, 0.958125, 0.351078, 0.648177, 0.0001, 182, 246, 42.0237, 0.16756, 2.21733, 1, 0, 0, 34371
-3747.37, 350019, -425.326, 4.54706, -1227.49, 0.997967, 0.367608, 0.958125, 0.351078, 0.648177, 3, 182, 246, 42.0237, 0.16756, 2.3389, 1, 0, 0, 34371
-11171.9, 204707, -221.016, 3.57762, -1173.28, -0.0598525, 0.279028, 1.03299, 0.34851, 0.655882, 0.0001, 45.5, 246, 45.2061, 0.177694, 0, 0, 0, 0, 34375
-11171.9, 204707, -221.016, 3.57762, -1173.28, -0.0598525, 0.279028, 1.03299, 0.34851, 0.655882, 3, 45.5, 246, 45.2061, 0.177694, 0, 0, 0, 0, 34375
-7290.15, 229372, -282.672, 3.91242, -1192.48, 0.00178101, 0.301881, 0.993198, 0.349787, 0.651995, 3, 91, 246, 45.2061, 0.177694, 0, 0, 1, 0, 34375
-2128.9, 257069, -357.159, 4.31739, -1234.28, 0.0762123, 0.346181, 0.958125, 0.351078, 0.648177, 0.0001, 182, 246, 45.2061, 0.177694, 2.03741, 1, 0, 0, 34375
-2128.9, 257069, -357.159, 4.31739, -1234.28, 0.0762123, 0.346181, 0.958125, 0.351078, 0.648177, 3, 182, 246, 45.2061, 0.177694, 1.86842, 1, 0, 0, 34375
-7008.08, 254260, -243.141, 2.1031, -765.802, 0.240501, 0.384803, 0.958125, 0.351078, 0.648177, 0.0001, 182, 246, 34.4447, 0.172142, 0, 0, 1, 0, 34385
-7008.08, 254260, -243.141, 2.1031, -765.802, 0.240501, 0.384803, 0.958125, 0.351078, 0.648177, 3, 182, 246, 34.4447, 0.172142, 0, 0, 1, 0, 34385
-4833.43, 93285.9, -224.123, 3.15754, -526.621, 0.0479024, 0.287881, 1.03299, 0.34851, 0.655882, 0.0001, 45.5, 246, 51.452, 0.196722, 1.48357, 1, 1, 0, 34402
-4833.43, 93285.9, -224.123, 3.15754, -526.621, 0.0479024, 0.287881, 1.03299, 0.34851, 0.655882, 3, 45.5, 246, 51.452, 0.196722, 1.3683, 1, 1, 0, 34402
-3026.7, 99556, -259.877, 3.44485, -553.722, 0.0964981, 0.297212, 0.993198, 0.349787, 0.651995, 0.0001, 91, 246, 51.452, 0.196722, 1.53557, 1, 1, 0, 34402
-3026.7, 99556, -259.877, 3.44485, -553.722, 0.0964981, 0.297212, 0.993198, 0.349787, 0.651995, 3, 91, 246, 51.452, 0.196722, 1.42221, 1, 1, 0, 34402
-744.095, 107243, -302.541, 3.78441, -591.77, 0.156256, 0.323754, 0.958125, 0.351078, 0.648177, 0.0001, 182, 246, 51.452, 0.196722, 1.8417, 1, 1, 0, 34402
-744.095, 107243, -302.541, 3.78441, -591.77, 0.156256, 0.323754, 0.958125, 0.351078, 0.648177, 3, 182, 246, 51.452, 0.196722, 1.7118, 1, 1, 0, 34402
3287.65, 120745, -374.213, 4.35026, -666.426, 0.260786, 0.390137, 0.9175, 0.352806, 0.64323, 0.0001, 455, 246, 51.452, 0.196722, 3.30149, 1, 1, 0, 34402
3287.65, 120745, -374.213, 4.35026, -666.426, 0.260786, 0.390137, 0.9175, 0.352806, 0.64323, 3, 455, 246, 51.452, 0.196722, 3.30136, 1, 1, 0, 34402
-9810.28, 326606, -247.814, 1.02126, -1106.73, 0.253183, 0.502689, 1.03299, 0.34851, 0.655882, 0.0001, 45.5, 246, 40.616, 0.186064, 0, 0, 0, 0, 34405
-9810.28, 326606, -247.814, 1.02126, -1106.73, 0.253183, 0.502689, 1.03299, 0.34851, 0.655882, 3, 45.5, 246, 40.616, 0.186064, 0, 0, 0, 0, 34405
-6674.72, 122927, -203.006, 3.27143, -1087.89, 0.110881, 0.307371, 1.03299, 0.34851, 0.655882, 0.0001, 45.5, 246, 49.4466, 0.20578, 1.0833, 1, 0, 0, 34410
-6674.72, 122927, -203.006, 3.27143, -1087.89, 0.110881, 0.307371, 1.03299, 0.34851, 0.655882, 3, 45.5, 246, 49.4466, 0.20578, 0, 0, 0, 0, 34410
-4336.16, 146081, -256.106, 3.59174, -1132.64, 0.165486, 0.322016, 0.993198, 0.349787, 0.651995, 0.0001, 91, 246, 49.4466, 0.20578, 1.19459, 1, 1, 0, 34410
-1035.95, 172790, -320.911, 3.97569, -1197.84, 0.234465, 0.355876, 0.958125, 0.351078, 0.648177, 0.0001, 182, 246, 49.4466, 0.20578, 2.11299, 1, 0, 0, 34410
-1035.95, 172790, -320.911, 3.97569, -1197.84, 0.234465, 0.355876, 0.958125, 0.351078, 0.648177, 3, 182, 246, 49.4466, 0.20578, 1.95134, 1, 0, 0, 34410
-4344.16, 246528, -354.215, 4.1451, -765.767, 0.224455, 0.345656, 0.958125, 0.351078, 0.648177, 0.0001, 182, 246, 40.2547, 0.174333, 1.25428, 1, 0, 0, 34411
-4344.16, 246528, -354.215, 4.1451, -765.767, 0.224455, 0.345656, 0.958125, 0.351078, 0.648177, 3, 182, 246, 40.2547, 0.174333, 1.02977, 1, 0, 0, 34411
-10439.1, 84988.9, -14.6758, 3.14622, -677.591, -0.0472344, 0.194973, 1.03299, 0.34851, 0.655882, 0.0001, 45.5, 246, 14.1351, 0.0405249, 0, 0, 1, 0, 34422
-10439.1, 84988.9, -14.6758, 3.14622, -677.591, -0.0472344, 0.194973, 1.03299, 0.34851, 0.655882, 3, 45.5, 246, 14.1351, 0.0405249, 0, 0, 1, 0, 34422
-11261, 1.1228e+06, -126.879, 0.201067, -582.52, 0.394215, 0.352564, 1.03299, 0.34851, 0.655882, 0.0001, 45.5, 246, 17.7807, 0.0269637, 0, 0, 1, 0, 34426
-11261, 1.1228e+06, -126.879, 0.201067, -582.52, 0.394215, 0.352564, 1.03299, 0.34851, 0.655882, 3, 45.5, 246, 17.7807, 0.0269637, 0, 0, 1, 0, 34426
-9331.61, 1.18824e+06, -136.818, 0.222708, -667.04, 0.450769, 0.286372, 0.958125, 0.351078, 0.648177, 3, 182, 246, 17.7807, 0.0269637, 0, 0, 1, 0, 34426
-6134.89, 260908, -381.288, 3.64148, -1132.93, 0.440913, 0.436679, 0.993198, 0.349787, 0.651995, 0.0001, 91, 246, 51.9709, 0.22817, 1.23669, 1, 1, 0, 34430
-6134.89, 260908, -381.288, 3.64148, -1132.93, 0.440913, 0.436679, 0.993198, 0.349787, 0.651995, 3, 91, 246, 51.9709, 0.22817, 1.10486, 1, 1, 0, 34430
50.831, 296181, -462.309, 4.11266, -1268.73, 0.544775, 0.482465, 0.958125, 0.351078, 0.648177, 0.0001, 182, 246, 51.9709, 0.22817, 0, 0, 0, 0, 34430
50.831, 296181, -462.309, 4.11266, -1268.73, 0.544775, 0.482465, 0.958125, 0.351078, 0.648177, 3, 182, 246, 51.9709, 0.22817, 0, 0, 0, 0, 34430
-493.762, 185229, -287.987, 5.58639, -1478.49, 1.86106, 0.34068, 0.9175, 0.352806, 0.64323, 0.0001, 455, 246, 29.1322, 0.0950228, 1.45173, 1, 0, 0, 34431
-493.762, 185229, -287.987, 5.58639, -1478.49, 1.86106, 0.34068, 0.9175, 0.352806, 0.64323, 3, 455, 246, 29.1322, 0.0950228, 1.47287, 1, 0, 0, 34431
-8404.16, 525392, -380.912, 0.0754912, -724.668, 0.00644555, 0.615603, 1.03299, 0.34851, 0.655882, 0.0001, 45.5, 246, 37.1294, 0.193819, 0, 0, 0, 0, 34436
-7166.98, 537446, -395.039, 0.0782189, -726.194, 0.00647808, 0.603585, 0.993198, 0.349787, 0.651995, 0.0001, 91, 246, 37.1294, 0.193819, 0, 0, 1, 0, 34436
-12599.2, 181624, -123.372, 3.32662, -1002.7, 0.0479838, 0.215582, 1.03299, 0.34851, 0.655882, 0.0001, 45.5, 246, 32.3128, 0.114068, 0, 0, 0, 0, 34440
-12599.2, 181624, -123.372, 3.32662, -1002.7, 0.0479838, 0.215582, 1.03299, 0.34851, 0.655882, 3, 45.5, 246, 32.3128, 0.114068, 0, 0, 0, 0, 34440
531.451, 254653, -307.717, 4.62066, -1160.73, 0.286688, 0.327295, 0.9175, 0.352806, 0.64323, 3, 455, 246, 32.3128, 0.114068, 1.12021, 1, 0, 0, 34440
-5026.59, 257644, -136.481, 3.44503, -705.447, 0.195258, 0.254752, 0.9175, 0.352806, 0.64323, 0.0001, 455, 246, 17.7434, 0.0539571, 0, 0, 1, 0, 34441
-5026.59, 257644, -136.481, 3.44503, -705.447, 0.195258, 0.254752, 0.9175, 0.352806, 0.64323, 3, 455, 246, 17.7434, 0.0539571, 0, 0, 1, 0, 34441
-4426.64, 866451, -320.834, 0.0237393, -1089.62, 0.552014, 0.441351, 1.03299, 0.34851, 0.655882, 0.0001, 45.5, 246, 34.9454, 0.0849037, 0, 0, 0, 0, 34448
-8871.73, 132501, -79.5165, 0.769442, -1119.38, -0.00269469, 0.380326, 1.03299, 0.34851, 0.655882, 0.0001, 45.5, 246, 28.2109, 0.144111, 0, 0, 1, 0, 34450
-8871.73, 132501, -79.5165, 0.769442, -1119.38, -0.00269469, 0.380326, 1.03299, 0.34851, 0.655882, 3, 45.5, 246, 28.2109, 0.144111, 0, 0, 1, 0, 34450
-8402.81, 342544, -259.84, 0.671583, -802.221, 0.000366481, 0.493328, 0.993198, 0.349787, 0.651995, 0.0001, 91, 246, 36.4391, 0.193287, 0, 0, 1, 0, 34456
-9895.68, 208097, -233.786, 2.08824, -958.606, 0.110417, 0.465, 1.03299, 0.34851, 0.655882, 3, 45.5, 246, 45.3169, 0.228325, 0, 0, 0, 0, 34464
-2017.7, 108399, -257.292, 5.5517, -1096.23, 1.85451, 0.335524, 0.9175, 0.352806, 0.64323, 0.0001, 455, 246, 30.8024, 0.0839694, 1.20009, 1, 1, 0, 34469
-2017.7, 108399, -257.292, 5.5517, -1096.23, 1.85451, 0.335524, 0.9175, 0.352806, 0.64323, 3, 455, 246, 30.8024, 0.0839694, 1.17381, 1, 1, 0, 34469
-10370.2, 194454, -304.643, 2.61926, -485.252, 0.697609, 0.433752, 1.03299, 0.34851, 0.655882, 0.0001, 45.5, 246, 45.1262, 0.223785, 1.0197, 1, 0, 0, 34470
-7257.72, 208764, -342.707, 2.94689, -572.002, 0.822208, 0.439878, 0.993198, 0.349787, 0.651995, 0.0001, 91, 246, 45.1262, 0.223785, 1.09193, 1, 1, 0, 34470
-3220.51, 228170, -390.441, 3.35781, -692.35, 0.995062, 0.462742, 0.958125, 0.351078, 0.648177, 0.0001, 182, 246, 45.1262, 0.223785, 1.56522, 1, 0, 0, 34470
-3220.51, 228170, -390.441, 3.35781, -692.35, 0.995062, 0.462742, 0.958125, 0.351078, 0.648177, 3, 182, 246, 45.1262, 0.223785, 1.38638, 1, 0, 0, 34470
-6332.27, -12353.3, -42.9398, 3.31206, -753.88, -0.0451139, 0.212489, 1.03299, 0.34851, 0.655882, 0.0001, 45.5, 246, 28.2558, 0.00204589, 0, 0, 1, 1, 34472
-6332.27, -12353.3, -42.9398, 3.31206, -753.88, -0.0451139, 0.212489, 1.03299, 0.34851, 0.655882, 3, 45.5, 246, 28.2558, 0.00204589, 0, 0, 1, 1, 34472
-8968.37, 210467, -84.7144, 2.96232, -857.181, 1.02961, 0.240604, 0.958125, 0.351078, 0.648177, 3, 182, 246, 16.6944, 0.0486699, 0, 0, 1, 0, 34475
-10899.2, 136567, -105.002, 3.47359, -965.56, -0.0478552, 0.193185, 1.03299, 0.34851, 0.655882, 0.0001, 45.5, 246, 31.1467, 0.108472, 0, 0, 0, 0, 34479
-10899.2, 136567, -105.002, 3.47359, -965.56, -0.0478552, 0.193185, 1.03299, 0.34851, 0.655882, 3, 45.5, 246, 31.1467, 0.108472, 0, 0, 0, 0, 34479
-8686.4, 152556, -146.698, 3.78397, -974.529, 0.00994941, 0.206769, 0.993198, 0.349787, 0.651995, 0.0001, 91, 246, 31.1467, 0.108472, 0, 0, 1, 0, 34479
-8686.4, 152556, -146.698, 3.78397, -974.529, 0.00994941, 0.206769, 0.993198, 0.349787, 0.651995, 3, 91, 246, 31.1467, 0.108472, 0, 0, 1, 0, 34479
-5929.18, 168789, -108.897, 3.25917, -625.306, 0.156607, 0.256951, 0.9175, 0.352806, 0.64323, 3, 455, 246, 16.0276, 0.0538015, 0, 0, 1, 0, 34486
-11351.1, 341866, -340.106, 1.19061, -866.205, 0.0658369, 0.637168, 1.03299, 0.34851, 0.655882, 0.0001, 45.5, 246, 45.9401, 0.24921, 0, 0, 0, 0, 34487
-11351.1, 341866, -340.106, 1.19061, -866.205, 0.0658369, 0.637168, 1.03299, 0.34851, 0.655882, 3, 45.5, 246, 45.9401, 0.24921, 0, 0, 0, 0, 34487
-10327.4, 127075, -93.861, 2.54576, -683.706, -0.0304213, 0.278543, 1.03299, 0.34851, 0.655882, 0.0001, 45.5, 246, 26.6781, 0.109466, 0, 0, 1, 0, 34490
-10327.4, 127075, -93.861, 2.54576, -683.706, -0.0304213, 0.278543, 1.03299, 0.34851, 0.655882, 3, 45.5, 246, 26.6781, 0.109466, 0, 0, 1, 0, 34490
-7260.43, 143477, -144.017, 2.94036, -701.005, 0.0354917, 0.271603, 0.958125, 0.351078, 0.648177, 3, 182, 246, 26.6781, 0.109466, 0, 0, 1, 0, 34490
-10351.3, 1.02137e+06, -92.8373, 0.204516, -917.774, 0.142848, 0.348737, 1.03299, 0.34851, 0.655882, 0.0001, 45.5, 246, 24.5522, 0.0229283, 0, 0, 1, 0, 34500
-10351.3, 1.02137e+06, -92.8373, 0.204516, -917.774, 0.142848, 0.348737, 1.03299, 0.34851, 0.655882, 3, 45.5, 246, 24.5522, 0.0229283, 0, 0, 1, 0, 34500
