-11213.8, 267899, -314.558, 2.41837, -1051.66, 0.0708911, 0.533293, 1.03299, 0.34851, 0.655882, 0.0001, 45.5, 246, 50.8782, 0.246832, 0, 0, 0, 0, 115002
-11213.8, 267899, -314.558, 2.41837, -1051.66, 0.0708911, 0.533293, 1.03299, 0.34851, 0.655882, 3, 45.5, 246, 50.8782, 0.246832, 0, 0, 0, 0, 115002
-2191.33, 337220, -481.669, 3.42243, -1025.02, 0.18969, 0.572018, 0.958125, 0.351078, 0.648177, 3, 182, 246, 50.828, 0.241126, 0, 0, 0, 0, 115006
-3910.84, 254435, -193.37, 3.90931, -615.176, 0.129735, 0.274254, 0.9175, 0.352806, 0.64323, 0.0001, 455, 246, 21.0453, 0.0778461, 0, 0, 0, 0, 115007
-3910.84, 254435, -193.37, 3.90931, -615.176, 0.129735, 0.274254, 0.9175, 0.352806, 0.64323, 3, 455, 246, 21.0453, 0.0778461, 0, 0, 0, 0, 115007
-10244.6, 107300, -38.017, 2.21368, -897.838, 0.10004, 0.283389, 1.03299, 0.34851, 0.655882, 0.0001, 45.5, 246, 20.3689, 0.0713717, 0, 0, 1, 0, 115015
-10244.6, 107300, -38.017, 2.21368, -897.838, 0.10004, 0.283389, 1.03299, 0.34851, 0.655882, 3, 45.5, 246, 20.3689, 0.0713717, 0, 0, 1, 0, 115015
-4814.62, 360978, -483.934, 4.00915, -856.92, 0.668963, 0.481043, 0.958125, 0.351078, 0.648177, 0.0001, 182, 246, 43.1636, 0.200704, 2.70627, 1, 0, 0, 115017
-4814.62, 360978, -483.934, 4.00915, -856.92, 0.668963, 0.481043, 0.958125, 0.351078, 0.648177, 3, 182, 246, 43.1636, 0.200704, 2.56801, 1, 0, 0, 115017
-6904.06, -1254.53, -48.873, 3.69073, -1012.74, 0.00565526, 0.217494, 0.993198, 0.349787, 0.651995, 3, 91, 246, 21.3819, 0.0436978, 0, 0, 1, 1, 115020
-6725.39, -3420.16, -39.381, 2.98879, -850.08, 0.635575, 0.232159, 1.03299, 0.34851, 0.655882, 3, 45.5, 246, 27.3702, 0.0325837, 0, 0, 1, 0, 115028
-13168.9, 279428, -394.157, 3.43076, -872.387, 0.207061, 0.474945, 1.03299, 0.34851, 0.655882, 0.0001, 45.5, 246, 54.0111, 0.246051, 1.04037, 1, 0, 0, 115037
-7280.87, 300122, -463.321, 3.81736, -947.527, 0.273645, 0.509289, 0.993198, 0.349787, 0.651995, 0.0001, 91, 246, 54.0111, 0.246051, 1.60356, 1, 1, 0, 115037
-7280.87, 300122, -463.321, 3.81736, -947.527, 0.273645, 0.509289, 0.993198, 0.349787, 0.651995, 3, 91, 246, 54.0111, 0.246051, 1.53246, 1, 1, 0, 115037
-12503.2, 268678, -6.26786, 1.12127, -484.004, 0.529486, 0.319799, 1.03299, 0.34851, 0.655882, 0.0001, 45.5, 246, 9.30345, 0.0108995, 0, 0, 1, 0, 115043
-10220.1, 193954, -155.963, 1.43978, -671.38, 0.00909617, 0.408005, 1.03299, 0.34851, 0.655882, 0.0001, 45.5, 246, 32.6865, 0.174963, 0, 0, 1, 0, 115049
-10220.1, 193954, -155.963, 1.43978, -671.38, 0.00909617, 0.408005, 1.03299, 0.34851, 0.655882, 3, 45.5, 246, 32.6865, 0.174963, 0, 0, 1, 0, 115049
-8965.87, 202329, -173.662, 1.52107, -679.28, 0.0187463, 0.386792, 0.993198, 0.349787, 0.651995, 0.0001, 91, 246, 32.6865, 0.174963, 0, 0, 1, 0, 115049
-11392.4, 571991, -41.7377, 0.418746, -996.837, 0.345222, 0.340844, 1.03299, 0.34851, 0.655882, 0.0001, 45.5, 246, 22.2898, 0.0193523, 0, 0, 1, 0, 115051
-11392.4, 571991, -41.7377, 0.418746, -996.837, 0.345222, 0.340844, 1.03299, 0.34851, 0.655882, 3, 45.5, 246, 22.2898, 0.0193523, 0, 0, 1, 0, 115051
-10556.8, 601387, -47.1086, 0.441331, -1054.94, 0.366, 0.305387, 0.993198, 0.349787, 0.651995, 3, 91, 246, 22.2898, 0.0193523, 0, 0, 1, 0, 115051
-6408.54, 23597.9, -84.5181, 3.60643, -1102.71, 0.00196596, 0.226211, 0.993198, 0.349787, 0.651995, 0.0001, 91, 246, 30.3266, 0.0664796, 0, 0, 1, 1, 115054
-6408.54, 23597.9, -84.5181, 3.60643, -1102.71, 0.00196596, 0.226211, 0.993198, 0.349787, 0.651995, 3, 91, 246, 30.3266, 0.0664796, 0, 0, 1, 1, 115054
-10941.7, 85401.9, 15.8068, 3.33258, -928.879, 0.136139, 0.168514, 1.03299, 0.34851, 0.655882, 0.0001, 45.5, 246, 13.2445, 0.0303403, 0, 0, 0, 0, 115056
-10941.7, 85401.9, 15.8068, 3.33258, -928.879, 0.136139, 0.168514, 1.03299, 0.34851, 0.655882, 3, 45.5, 246, 13.2445, 0.0303403, 0, 0, 0, 0, 115056
1103.55, 260371, -324.416, 5.00433, -1065.45, 0.242762, 0.328472, 0.9175, 0.352806, 0.64323, 3, 455, 246, 31.9501, 0.111287, 1.4034, 1, 0, 0, 115074
-6767.39, 410690, -513.723, 4.35916, -749.323, 0.0765354, 0.462007, 0.958125, 0.351078, 0.648177, 3, 182, 246, 42.5038, 0.193172, 0, 0, 0, 0, 115080
-7690.38, 71082.2, -119.927, 3.33906, -497.522, -0.00416817, 0.200986, 1.03299, 0.34851, 0.655882, 0.0001, 45.5, 246, 32.2961, 0.102935, 0, 0, 1, 0, 115081
-7690.38, 71082.2, -119.927, 3.33906, -497.522, -0.00416817, 0.200986, 1.03299, 0.34851, 0.655882, 3, 45.5, 246, 32.2961, 0.102935, 0, 0, 1, 0, 115081
-6580.15, 75498.3, -146.551, 3.63696, -511.473, 0.0492585, 0.210518, 0.993198, 0.349787, 0.651995, 0.0001, 91, 246, 32.2961, 0.102935, 0, 0, 1, 0, 115081
-5172.96, 80685.1, -178.381, 3.99094, -534.406, 0.11405, 0.23839, 0.958125, 0.351078, 0.648177, 0.0001, 182, 246, 32.2961, 0.102935, 0, 0, 1, 0, 115081
-10037.9, 186502, -240.146, 3.49634, -943.36, -0.0210851, 0.29536, 1.03299, 0.34851, 0.655882, 3, 45.5, 246, 46.0763, 0.191073, 0, 0, 0, 0, 115085
-6499, 203329, -294.842, 3.82704, -970.225, 0.0377093, 0.316549, 0.993198, 0.349787, 0.651995, 0.0001, 91, 246, 46.0763, 0.191073, 1.02196, 1, 1, 0, 115085
-1906.2, 222987, -361.026, 4.22584, -1016.26, 0.109588, 0.358602, 0.958125, 0.351078, 0.648177, 0.0001, 182, 246, 46.0763, 0.191073, 2.14552, 1, 0, 0, 115085
-1906.2, 222987, -361.026, 4.22584, -1016.26, 0.109588, 0.358602, 0.958125, 0.351078, 0.648177, 3, 182, 246, 46.0763, 0.191073, 1.98107, 1, 0, 0, 115085
-8982.68, 518011, -201.386, 0.345454, -860.346, 0.0128892, 0.415968, 1.03299, 0.34851, 0.655882, 0.0001, 45.5, 246, 28.6777, 0.10059, 0, 0, 0, 0, 115086
-8040.01, 532121, -211.159, 0.357823, -864.051, 0.0134596, 0.385971, 0.993198, 0.349787, 0.651995, 0.0001, 91, 246, 28.6777, 0.10059, 0, 0, 1, 0, 115086
-6962.45, 546451, -220.858, 0.369765, -868.005, 0.0140706, 0.360199, 0.958125, 0.351078, 0.648177, 0.0001, 182, 246, 28.6777, 0.10059, 0, 0, 1, 0, 115086
-7149.88, -17331.7, -6.52677, 2.91768, -923.076, 0.709521, 0.238335, 1.03299, 0.34851, 0.655882, 0.0001, 45.5, 246, 17.5786, 0.0457595, 0, 0, 1, 0, 115092
-7149.88, -17331.7, -6.52677, 2.91768, -923.076, 0.709521, 0.238335, 1.03299, 0.34851, 0.655882, 3, 45.5, 246, 17.5786, 0.0457595, 0, 0, 1, 0, 115092
-12407.1, 205372, -37.1528, 1.9176, -1125.67, 0.0219436, 0.296291, 1.03299, 0.34851, 0.655882, 0.0001, 45.5, 246, 22.2803, 0.055786, 0, 0, 1, 0, 115098
-12407.1, 205372, -37.1528, 1.9176, -1125.67, 0.0219436, 0.296291, 1.03299, 0.34851, 0.655882, 3, 45.5, 246, 22.2803, 0.055786, 0, 0, 1, 0, 115098
-3119.75, 9142.13, -851.35, 3.07526, -1517.43, 1.38035, 1.01914, 0.9175, 0.352806, 0.64323, 0.0001, 455, 246, 528.712, 0.236265, 0, 0, 0, 0, 115099
-7764.39, 180647, -317.5, 3.4698, -829.857, 0.475206, 0.357048, 1.03299, 0.34851, 0.655882, 0.0001, 45.5, 246, 53.7379, 0.230485, 1.39983, 1, 0, 0, 115100
-7764.39, 180647, -317.5, 3.4698, -829.857, 0.475206, 0.357048, 1.03299, 0.34851, 0.655882, 3, 45.5, 246, 53.7379, 0.230485, 1.32733, 1, 0, 0, 115100
-3787.37, 201279, -377.949, 3.91112, -936.592, 0.578354, 0.383634, 0.993198, 0.349787, 0.651995, 0.0001, 91, 246, 53.7379, 0.230485, 1.8053, 1, 1, 0, 115100
-3787.37, 201279, -377.949, 3.91112, -936.592, 0.578354, 0.383634, 0.993198, 0.349787, 0.651995, 3, 91, 246, 53.7379, 0.230485, 1.71576, 1, 1, 0, 115100
-6948.02, 527336, -290.768, 0.175095, -821.812, 0.00189521, 0.466914, 0.993198, 0.349787, 0.651995, 0.0001, 91, 246, 32.7999, 0.143148, 0, 0, 1, 0, 115111
-7333, -16364.7, 3.07167, 2.98937, -1077.07, 0.498774, 0.234447, 1.03299, 0.34851, 0.655882, 0.0001, 45.5, 246, 15.9572, 0.0598669, 0, 0, 1, 0, 115116
-7333, -16364.7, 3.07167, 2.98937, -1077.07, 0.498774, 0.234447, 1.03299, 0.34851, 0.655882, 3, 45.5, 246, 15.9572, 0.0598669, 0, 0, 1, 0, 115116
-8241.84, 46613.1, -53.2298, 3.33967, -582.62, 0.00750761, 0.187069, 1.03299, 0.34851, 0.655882, 0.0001, 45.5, 246, 21.6233, 0.0599602, 0, 0, 1, 0, 115118
-8241.84, 46613.1, -53.2298, 3.33967, -582.62, 0.00750761, 0.187069, 1.03299, 0.34851, 0.655882, 3, 45.5, 246, 21.6233, 0.0599602, 0, 0, 1, 0, 115118
-12174.7, 598607, -71.3393, 0.451688, -591.692, 0.733784, 0.344291, 1.03299, 0.34851, 0.655882, 0.0001, 45.5, 246, 16.0176, 0.0276056, 0, 0, 1, 0, 115124
-12174.7, 598607, -71.3393, 0.451688, -591.692, 0.733784, 0.344291, 1.03299, 0.34851, 0.655882, 3, 45.5, 246, 16.0176, 0.0276056, 0, 0, 1, 0, 115124
-10352.8, 93481, -47.5726, 3.39655, -710.248, -0.0429556, 0.174321, 1.03299, 0.34851, 0.655882, 0.0001, 45.5, 246, 20.2525, 0.06309, 0, 0, 1, 0, 115131
-10352.8, 93481, -47.5726, 3.39655, -710.248, -0.0429556, 0.174321, 1.03299, 0.34851, 0.655882, 3, 45.5, 246, 20.2525, 0.06309, 0, 0, 1, 0, 115131
-7319.15, 110698, -107.352, 4.04617, -728.406, 0.0781493, 0.212471, 0.958125, 0.351078, 0.648177, 3, 182, 246, 20.2525, 0.06309, 0, 0, 1, 0, 115131
-9528.79, 170535, -207.527, 1.77008, -559.686, 0.00698945, 0.454511, 1.03299, 0.34851, 0.655882, 3, 45.5, 246, 41.3182, 0.233715, 0, 0, 1, 0, 115133
-10947.4, 494745, -175.978, 0.637677, -872.53, 0.0527503, 0.396332, 1.03299, 0.34851, 0.655882, 0.0001, 45.5, 246, 27.7776, 0.0914188, 0, 0, 0, 0, 115138
-10947.4, 494745, -175.978, 0.637677, -872.53, 0.0527503, 0.396332, 1.03299, 0.34851, 0.655882, 3, 45.5, 246, 27.7776, 0.0914188, 0, 0, 0, 0, 115138
-7848.79, 526130, -200.642, 0.69227, -894.513, 0.0575955, 0.340421, 0.958125, 0.351078, 0.648177, 3, 182, 246, 27.7776, 0.0914188, 0, 0, 1, 0, 115138
-14145.3, 225947, -65.3977, 2.63583, -1183.07, -0.0304998, 0.254984, 1.03299, 0.34851, 0.655882, 0.0001, 45.5, 246, 26.9654, 0.0751623, 0, 0, 0, 0, 115140
-14145.3, 225947, -65.3977, 2.63583, -1183.07, -0.0304998, 0.254984, 1.03299, 0.34851, 0.655882, 3, 45.5, 246, 26.9654, 0.0751623, 0, 0, 0, 0, 115140
-11255.4, 358938, -314.625, 0.805117, -658.333, 0.221724, 0.587137, 1.03299, 0.34851, 0.655882, 0.0001, 45.5, 246, 38.594, 0.218131, 0, 0, 0, 0, 115142
-11255.4, 358938, -314.625, 0.805117, -658.333, 0.221724, 0.587137, 1.03299, 0.34851, 0.655882, 3, 45.5, 246, 38.594, 0.218131, 0, 0, 0, 0, 115142
-10200.3, 103650, -54.3779, 2.60485, -727.978, -0.0312776, 0.257421, 1.03299, 0.34851, 0.655882, 0.0001, 45.5, 246, 21.4505, 0.0783363, 0, 0, 1, 0, 115154
-10200.3, 103650, -54.3779, 2.60485, -727.978, -0.0312776, 0.257421, 1.03299, 0.34851, 0.655882, 3, 45.5, 246, 21.4505, 0.0783363, 0, 0, 1, 0, 115154
-8562.93, 69274.8, -55.6122, 1.46591, -1039.27, 0.0703139, 0.314535, 0.993198, 0.349787, 0.651995, 0.0001, 91, 246, 24.1379, 0.127132, 0, 0, 1, 0, 115156
-8562.93, 69274.8, -55.6122, 1.46591, -1039.27, 0.0703139, 0.314535, 0.993198, 0.349787, 0.651995, 3, 91, 246, 24.1379, 0.127132, 0, 0, 1, 0, 115156
-10979.4, 162069, -33.0729, 1.68845, -1123.29, -0.00237761, 0.310957, 1.03299, 0.34851, 0.655882, 0.0001, 45.5, 246, 21.1333, 0.0597968, 0, 0, 1, 0, 115160
-10979.4, 162069, -33.0729, 1.68845, -1123.29, -0.00237761, 0.310957, 1.03299, 0.34851, 0.655882, 3, 45.5, 246, 21.1333, 0.0597968, 0, 0, 1, 0, 115160
-9911.64, 184017, -52.6101, 1.78628, -1125.98, 0.0108736, 0.286242, 0.993198, 0.349787, 0.651995, 0.0001, 91, 246, 21.1333, 0.0597968, 0, 0, 1, 0, 115160
-14136.5, 144697, 22.1227, 3.62813, -1004.74, 0.0539392, 0.12185, 1.03299, 0.34851, 0.655882, 0.0001, 45.5, 246, 15.164, 0.0245226, 0, 0, 0, 0, 115161
-14136.5, 144697, 22.1227, 3.62813, -1004.74, 0.0539392, 0.12185, 1.03299, 0.34851, 0.655882, 3, 45.5, 246, 15.164, 0.0245226, 0, 0, 0, 0, 115161
-9636.07, 227543, -63.2769, 2.55549, -605.547, 0.974579, 0.24489, 0.958125, 0.351078, 0.648177, 3, 182, 246, 12.5569, 0.0373069, 0, 0, 1, 0, 115165
-4678.86, 101428, -197.379, 3.46956, -1070.73, 0.335428, 0.276372, 0.993198, 0.349787, 0.651995, 0.0001, 91, 246, 45.392, 0.172417, 1.00834, 1, 1, 0, 115169
-2498.12, 126052, -252.822, 3.86312, -1158.22, 0.416475, 0.303212, 0.958125, 0.351078, 0.648177, 0.0001, 182, 246, 45.392, 0.172417, 1.37745, 1, 1, 0, 115169
-2498.12, 126052, -252.822, 3.86312, -1158.22, 0.416475, 0.303212, 0.958125, 0.351078, 0.648177, 3, 182, 246, 45.392, 0.172417, 1.19826, 1, 1, 0, 115169
-7992.96, 152094, -230.545, 2.47424, -774.169, -0.028697, 0.426597, 1.03299, 0.34851, 0.655882, 3, 45.5, 246, 49.1957, 0.247077, 0, 0, 1, 0, 115172
-5876.68, 163456, -266.522, 2.66234, -789.167, 0.000274151, 0.426968, 0.993198, 0.349787, 0.651995, 3, 91, 246, 49.1957, 0.247077, 0, 0, 1, 0, 115172
-3219.25, 176064, -307.696, 2.87463, -812.183, 0.0339362, 0.438585, 0.958125, 0.351078, 0.648177, 0.0001, 182, 246, 49.1957, 0.247077, 1.10302, 1, 1, 0, 115172
-1283.05, 142002, -282.586, 2.89564, -895.016, 0.132448, 0.393957, 0.9175, 0.352806, 0.64323, 0.0001, 455, 246, 48.6784, 0.244159, 1.53936, 1, 0, 0, 115173
-1283.05, 142002, -282.586, 2.89564, -895.016, 0.132448, 0.393957, 0.9175, 0.352806, 0.64323, 3, 455, 246, 48.6784, 0.244159, 1.56396, 1, 0, 0, 115173
-7419.69, 386721, -207.873, 0.573222, -1173.6, 0.000266723, 0.412832, 0.993198, 0.349787, 0.651995, 0.0001, 91, 246, 35.3805, 0.137328, 0, 0, 1, 0, 115179
-11968.2, 159120, -14.1433, 2.15808, -1043.54, 0.0212135, 0.275882, 1.03299, 0.34851, 0.655882, 0.0001, 45.5, 246, 18.3344, 0.0429523, 0, 0, 1, 0, 115180
-11968.2, 159120, -14.1433, 2.15808, -1043.54, 0.0212135, 0.275882, 1.03299, 0.34851, 0.655882, 3, 45.5, 246, 18.3344, 0.0429523, 0, 0, 1, 0, 115180
-380.919, 568196, -310.224, 3.78765, -1105.24, 0.121741, 0.284624, 0.9175, 0.352806, 0.64323, 3, 455, 246, 30.2965, 0.0785731, 0, 0, 0, 0, 115186
-1576.81, 105716, -256.171, 3.65805, -1011.13, 0.113646, 0.328249, 0.9175, 0.352806, 0.64323, 0.0001, 455, 246, 45.2637, 0.160275, 1.58132, 1, 1, 0, 115189
-1576.81, 105716, -256.171, 3.65805, -1011.13, 0.113646, 0.328249, 0.9175, 0.352806, 0.64323, 3, 455, 246, 45.2637, 0.160275, 1.54712, 1, 1, 0, 115189
-10768.2, 539304, -439.69, 0.0537417, -498.102, 0.0227638, 0.693362, 1.03299, 0.34851, 0.655882, 0.0001, 45.5, 246, 35.9699, 0.216755, 0, 0, 0, 0, 115191
-9235.06, 547851, -456.474, 0.0558303, -500.549, 0.0228592, 0.689854, 0.993198, 0.349787, 0.651995, 3, 91, 246, 35.9699, 0.216755, 0, 0, 1, 0, 115191
-8469, -4480.04, -4.69334, 2.19266, -899.929, 6.93082e-05, 0.281876, 0.993198, 0.349787, 0.651995, 3, 91, 246, 6.52939, 0.0542415, 0, 0, 1, 1, 115196
-8420.21, 21593, 15.3946, 3.28268, -935.878, -0.0334926, 0.19316, 1.03299, 0.34851, 0.655882, 0.0001, 45.5, 246, 11.5765, 0.0408678, 1.38392, 1, 1, 0, 115199
-4723.45, 305513, -402.031, 3.55697, -800.111, 0.051801, 0.445101, 0.958125, 0.351078, 0.648177, 0.0001, 182, 246, 43.2064, 0.201046, 1.14629, 1, 0, 0, 115203
1435.26, 234988, -383.28, 4.32587, -771.805, 0.542848, 0.406549, 0.9175, 0.352806, 0.64323, 0.0001, 455, 246, 37.6333, 0.170438, 2.38342, 1, 0, 0, 115207
1435.26, 234988, -383.28, 4.32587, -771.805, 0.542848, 0.406549, 0.9175, 0.352806, 0.64323, 3, 455, 246, 37.6333, 0.170438, 2.41299, 1, 0, 0, 115207
-19973.7, 351605, -482.297, 3.18051, -599.146, 0.547782, 0.577939, 1.03299, 0.34851, 0.655882, 0.0001, 45.5, 246, 49.5235, 0.243214, 1.03594, 1, 0, 0, 115223
-12815, 374156, -549.445, 3.60165, -706.715, 0.654864, 0.61474, 0.993198, 0.349787, 0.651995, 0.0001, 91, 246, 49.5235, 0.243214, 1.45852, 1, 1, 0, 115223
-12815, 374156, -549.445, 3.60165, -706.715, 0.654864, 0.61474, 0.993198, 0.349787, 0.651995, 3, 91, 246, 49.5235, 0.243214, 1.40473, 1, 1, 0, 115223
-2968.1, 59307.2, -192.006, 3.00945, -669.242, 0.395712, 0.26586, 1.03299, 0.34851, 0.655882, 0.0001, 45.5, 246, 56.8631, 0.172906, 1.51214, 1, 1, 0, 115225
-2968.1, 59307.2, -192.006, 3.00945, -669.242, 0.395712, 0.26586, 1.03299, 0.34851, 0.655882, 3, 45.5, 246, 56.8631, 0.172906, 1.38064, 1, 1, 0, 115225
-1743.27, 70034.2, -228.362, 3.33628, -734.504, 0.469212, 0.269923, 0.993198, 0.349787, 0.651995, 0.0001, 91, 246, 56.8631, 0.172906, 1.6037, 1, 1, 0, 115225
-1743.27, 70034.2, -228.362, 3.33628, -734.504, 0.469212, 0.269923, 0.993198, 0.349787, 0.651995, 3, 91, 246, 56.8631, 0.172906, 1.47621, 1, 1, 0, 115225
-26.4113, 83737.1, -273.741, 3.73291, -821.046, 0.565968, 0.292058, 0.958125, 0.351078, 0.648177, 0.0001, 182, 246, 56.8631, 0.172906, 1.95686, 1, 1, 0, 115225
-26.4113, 83737.1, -273.741, 3.73291, -821.046, 0.565968, 0.292058, 0.958125, 0.351078, 0.648177, 3, 182, 246, 56.8631, 0.172906, 1.82578, 1, 1, 0, 115225
-11171.4, 218221, -55.4126, 1.20159, -621.493, -0.00662286, 0.332884, 1.03299, 0.34851, 0.655882, 0.0001, 45.5, 246, 17.0482, 0.0625001, 0, 0, 1, 0, 115230
-11171.4, 218221, -55.4126, 1.20159, -621.493, -0.00662286, 0.332884, 1.03299, 0.34851, 0.655882, 3, 45.5, 246, 17.0482, 0.0625001, 0, 0, 1, 0, 115230
-10222.7, 224812, -65.0051, 1.2601, -623.115, 2.96965e-05, 0.302894, 0.993198, 0.349787, 0.651995, 0.0001, 91, 246, 17.0482, 0.0625001, 0, 0, 1, 0, 115230
1362.37, 229027, -361.153, 4.96822, -1004.62, 1.52696, 0.379819, 0.9175, 0.352806, 0.64323, 0.0001, 455, 246, 34.4394, 0.144476, 2.45924, 1, 0, 0, 115235
1362.37, 229027, -361.153, 4.96822, -1004.62, 1.52696, 0.379819, 0.9175, 0.352806, 0.64323, 3, 455, 246, 34.4394, 0.144476, 2.50907, 1, 0, 0, 115235
-6490.1, 678592, -265.916, 0.127823, -936.997, 0.627555, 0.400688, 0.993198, 0.349787, 0.651995, 0.0001, 91, 246, 29.2594, 0.0932156, 0, 0, 1, 0, 115236
-5601.65, 721349, -274.744, 0.136168, -1041.14, 0.696722, 0.375489, 0.958125, 0.351078, 0.648177, 0.0001, 182, 246, 29.2594, 0.0932156, 0, 0, 1, 0, 115236
-10028.1, 263381, -233.717, 1.22399, -951.246, 0.143176, 0.506422, 1.03299, 0.34851, 0.655882, 0.0001, 45.5, 246, 41.1122, 0.213842, 0, 0, 0, 0, 115239
-10028.1, 263381, -233.717, 1.22399, -951.246, 0.143176, 0.506422, 1.03299, 0.34851, 0.655882, 3, 45.5, 246, 41.1122, 0.213842, 0, 0, 0, 0, 115239
-6876.38, 911925, -384.609, 0.0449555, -823.311, 0.192819, 0.489605, 1.03299, 0.34851, 0.655882, 0.0001, 45.5, 246, 31.7349, 0.105052, 0, 0, 0, 0, 115241
-6876.38, 911925, -384.609, 0.0449555, -823.311, 0.192819, 0.489605, 1.03299, 0.34851, 0.655882, 3, 45.5, 246, 31.7349, 0.105052, 0, 0, 0, 0, 115241
-10331.9, 99363.1, -7.89828, 2.06958, -906.168, 0.000870332, 0.284364, 1.03299, 0.34851, 0.655882, 0.0001, 45.5, 246, 14.83, 0.0422604, 0, 0, 1, 0, 115256
-10331.9, 99363.1, -7.89828, 2.06958, -906.168, 0.000870332, 0.284364, 1.03299, 0.34851, 0.655882, 3, 45.5, 246, 14.83, 0.0422604, 0, 0, 1, 0, 115256
-10577.5, 102237, -52.3163, 3.23858, -762.478, 0.166884, 0.190451, 1.03299, 0.34851, 0.655882, 0.0001, 45.5, 246, 21.5401, 0.0684503, 0, 0, 1, 0, 115259
-10577.5, 102237, -52.3163, 3.23858, -762.478, 0.166884, 0.190451, 1.03299, 0.34851, 0.655882, 3, 45.5, 246, 21.5401, 0.0684503, 0, 0, 1, 0, 115259
-9159.96, 113416, -80.8955, 3.55274, -792.238, 0.223397, 0.196497, 0.993198, 0.349787, 0.651995, 0.0001, 91, 246, 21.5401, 0.0684503, 0, 0, 1, 0, 115259
-9159.96, 113416, -80.8955, 3.55274, -792.238, 0.223397, 0.196497, 0.993198, 0.349787, 0.651995, 3, 91, 246, 21.5401, 0.0684503, 0, 0, 1, 0, 115259
-7288.31, 126263, -116.06, 3.92836, -835.023, 0.295236, 0.221072, 0.958125, 0.351078, 0.648177, 3, 182, 246, 21.5401, 0.0684503, 0, 0, 1, 0, 115259
-12128.7, 436876, -17.4656, 0.62592, -758.603, 0.00338572, 0.335094, 1.03299, 0.34851, 0.655882, 0.0001, 45.5, 246, 15.5199, 0.0134999, 0, 0, 1, 0, 115262
-12128.7, 436876, -17.4656, 0.62592, -758.603, 0.00338572, 0.335094, 1.03299, 0.34851, 0.655882, 3, 45.5, 246, 15.5199, 0.0134999, 0, 0, 1, 0, 115262
-11192.7, 446967, -22.4593, 0.649865, -759.451, 0.00517524, 0.300232, 0.993198, 0.349787, 0.651995, 3, 91, 246, 15.5199, 0.0134999, 0, 0, 1, 0, 115262
-10124.2, 457142, -27.7507, 0.67324, -760.624, 0.00710269, 0.269956, 0.958125, 0.351078, 0.648177, 0.0001, 182, 246, 15.5199, 0.0134999, 0, 0, 1, 0, 115262
-9136.34, 86461.9, -36.2354, 1.06492, -904.21, 0.132817, 0.342201, 1.03299, 0.34851, 0.655882, 0.0001, 45.5, 246, 19.5726, 0.0910001, 0, 0, 1, 0, 115269
-9136.34, 86461.9, -36.2354, 1.06492, -904.21, 0.132817, 0.342201, 1.03299, 0.34851, 0.655882, 3, 45.5, 246, 19.5726, 0.0910001, 0, 0, 1, 0, 115269
-7815.19, -13545.5, 14.1366, 2.68609, -965.078, 0.0428175, 0.258295, 1.03299, 0.34851, 0.655882, 3, 45.5, 246, 9.5384, 0.0519688, 0, 0, 1, 1, 115271
-9089.6, 332993, -176.875, 4.10515, -1250.05, 0.434089, 0.211545, 0.958125, 0.351078, 0.648177, 0.0001, 182, 246, 27.6402, 0.0702547, 0, 0, 0, 0, 115277
-9089.6, 332993, -176.875, 4.10515, -1250.05, 0.434089, 0.211545, 0.958125, 0.351078, 0.648177, 3, 182, 246, 27.6402, 0.0702547, 0, 0, 0, 0, 115277
-10599.9, 619446, -36.0626, 0.661418, -989.376, 0.00334773, 0.269987, 0.958125, 0.351078, 0.648177, 3, 182, 246, 21.1747, 0.0132107, 0, 0, 1, 0, 115287
-11875.7, 282620, -100.131, 1.39483, -1064.75, 0.00922917, 0.348194, 1.03299, 0.34851, 0.655882, 0.0001, 45.5, 246, 27.4835, 0.0887948, 0, 0, 1, 0, 115288
-11875.7, 282620, -100.131, 1.39483, -1064.75, 0.00922917, 0.348194, 1.03299, 0.34851, 0.655882, 3, 45.5, 246, 27.4835, 0.0887948, 0, 0, 1, 0, 115288
-9565.18, 347274, -270.095, 0.629248, -840.127, 0.58469, 0.524846, 1.03299, 0.34851, 0.655882, 0.0001, 45.5, 246, 37.1217, 0.186683, 0, 0, 0, 0, 115289
-9565.18, 347274, -270.095, 0.629248, -840.127, 0.58469, 0.524846, 1.03299, 0.34851, 0.655882, 3, 45.5, 246, 37.1217, 0.186683, 0, 0, 0, 0, 115289
-8128.77, 373931, -287.084, 0.678364, -930.826, 0.646277, 0.505746, 0.993198, 0.349787, 0.651995, 3, 91, 246, 37.1217, 0.186683, 0, 0, 1, 0, 115289
-11381.6, 339707, -170.933, 1.05433, -838.01, -0.00513284, 0.406762, 1.03299, 0.34851, 0.655882, 0.0001, 45.5, 246, 29.7939, 0.126106, 0, 0, 0, 0, 115295
-11381.6, 339707, -170.933, 1.05433, -838.01, -0.00513284, 0.406762, 1.03299, 0.34851, 0.655882, 3, 45.5, 246, 29.7939, 0.126106, 0, 0, 0, 0, 115295
-8640.04, 82176.6, -80.9246, 1.34567, -1015.11, 0.0548367, 0.374913, 1.03299, 0.34851, 0.655882, 0.0001, 45.5, 246, 32.9724, 0.191798, 0, 0, 1, 0, 115296
-9616.58, 72001.4, -29.6188, 3.18991, -851.457, -0.0422808, 0.200288, 1.03299, 0.34851, 0.655882, 0.0001, 45.5, 246, 19.5265, 0.0609907, 0, 0, 1, 0, 115298
-9616.58, 72001.4, -29.6188, 3.18991, -851.457, -0.0422808, 0.200288, 1.03299, 0.34851, 0.655882, 3, 45.5, 246, 19.5265, 0.0609907, 0, 0, 1, 0, 115298
-10403.2, 164876, -176.627, 1.8979, -437.76, 0.776698, 0.375529, 1.03299, 0.34851, 0.655882, 0.0001, 45.5, 246, 32.1111, 0.166457, 0, 0, 1, 0, 115306
-4559.59, 739318, -294.714, 0.130827, -1180.42, 0.00346091, 0.420826, 0.993198, 0.349787, 0.651995, 0.0001, 91, 246, 36.635, 0.101456, 0, 0, 1, 0, 115307
-8439.21, 85627.6, -92.8423, 2.18821, -1020.68, 0.0328348, 0.326619, 1.03299, 0.34851, 0.655882, 3, 45.5, 246, 34.0668, 0.155269, 0, 0, 1, 0, 115308
-8356.02, -3991.22, -0.597203, 2.52491, -1128.16, 0.000971868, 0.271499, 0.993198, 0.349787, 0.651995, 0.0001, 91, 246, 6.18244, 0.0603103, 0, 0, 1, 1, 115312
-8356.02, -3991.22, -0.597203, 2.52491, -1128.16, 0.000971868, 0.271499, 0.993198, 0.349787, 0.651995, 3, 91, 246, 6.18244, 0.0603103, 0, 0, 1, 1, 115312
-11793.4, 826642, -57.5053, 0.311484, -946.026, 0.695148, 0.342285, 1.03299, 0.34851, 0.655882, 0.0001, 45.5, 246, 23.5355, 0.0163982, 0, 0, 1, 0, 115313
-11793.4, 826642, -57.5053, 0.311484, -946.026, 0.695148, 0.342285, 1.03299, 0.34851, 0.655882, 3, 45.5, 246, 23.5355, 0.0163982, 0, 0, 1, 0, 115313
-6451.66, 101061, -106.089, 3.26543, -784.105, 0.599494, 0.269636, 0.9175, 0.352806, 0.64323, 0.0001, 455, 246, 17.1672, 0.060591, 0, 0, 1, 0, 115322
-6451.66, 101061, -106.089, 3.26543, -784.105, 0.599494, 0.269636, 0.9175, 0.352806, 0.64323, 3, 455, 246, 17.1672, 0.060591, 0, 0, 1, 0, 115322
-11724.6, 519564, -140.662, 0.604138, -751.237, 0.487658, 0.369514, 1.03299, 0.34851, 0.655882, 0.0001, 45.5, 246, 23.0059, 0.0648645, 0, 0, 1, 0, 115325
-8981.32, 262932, -53.8734, 0.500577, -1175.52, 0.582693, 0.313367, 0.993198, 0.349787, 0.651995, 0.0001, 91, 246, 21.257, 0.0490954, 2.62312, 1, 1, 0, 115328
-8981.32, 262932, -53.8734, 0.500577, -1175.52, 0.582693, 0.313367, 0.993198, 0.349787, 0.651995, 3, 91, 246, 21.257, 0.0490954, 2.46619, 1, 1, 0, 115328
-11145.5, 260069, -297.526, 1.9682, -848.243, 0.0662339, 0.54764, 1.03299, 0.34851, 0.655882, 0.0001, 45.5, 246, 47.3287, 0.248891, 0, 0, 0, 0, 115329
-11145.5, 260069, -297.526, 1.9682, -848.243, 0.0662339, 0.54764, 1.03299, 0.34851, 0.655882, 3, 45.5, 246, 47.3287, 0.248891, 0, 0, 0, 0, 115329
-10063.4, 510690, -257.185, 0.720309, -1131.51, -0.00159592, 0.462396, 1.03299, 0.34851, 0.655882, 0.0001, 45.5, 246, 36.9874, 0.130073, 0, 0, 0, 0, 115342
-10063.4, 510690, -257.185, 0.720309, -1131.51, -0.00159592, 0.462396, 1.03299, 0.34851, 0.655882, 3, 45.5, 246, 36.9874, 0.130073, 0, 0, 0, 0, 115342
-12096.5, 160100, -7.2371, 2.13411, -887.265, -0.010324, 0.274262, 1.03299, 0.34851, 0.655882, 0.0001, 45.5, 246, 15.2718, 0.0326362, 0, 0, 1, 0, 115343
-12096.5, 160100, -7.2371, 2.13411, -887.265, -0.010324, 0.274262, 1.03299, 0.34851, 0.655882, 3, 45.5, 246, 15.2718, 0.0326362, 0, 0, 1, 0, 115343
-10763.9, 173491, -25.4227, 2.2738, -888.222, 0.0109922, 0.255399, 0.993198, 0.349787, 0.651995, 3, 91, 246, 15.2718, 0.0326362, 0, 0, 1, 0, 115343
-7178.88, 18292.8, -122.115, 4.34394, -830.999, 1.42734, 0.306495, 0.9175, 0.352806, 0.64323, 0.0001, 455, 246, 22.6283, 0.00332119, 0, 0, 1, 0, 115349
-7178.88, 18292.8, -122.115, 4.34394, -830.999, 1.42734, 0.306495, 0.9175, 0.352806, 0.64323, 3, 455, 246, 22.6283, 0.00332119, 0, 0, 1, 0, 115349
-6364.51, 135779, -240.22, 3.21115, -921.824, -0.0449732, 0.346088, 1.03299, 0.34851, 0.655882, 0.0001, 45.5, 246, 52.8154, 0.230299, 1.20415, 1, 0, 0, 115350
-6364.51, 135779, -240.22, 3.21115, -921.824, -0.0449732, 0.346088, 1.03299, 0.34851, 0.655882, 3, 45.5, 246, 52.8154, 0.230299, 1.06776, 1, 0, 0, 115350
-3773.62, 151770, -290.324, 3.49514, -942.127, 0.00440254, 0.361171, 0.993198, 0.349787, 0.651995, 0.0001, 91, 246, 52.8154, 0.230299, 1.45345, 1, 1, 0, 115350
-3773.62, 151770, -290.324, 3.49514, -942.127, 0.00440254, 0.361171, 0.993198, 0.349787, 0.651995, 3, 91, 246, 52.8154, 0.230299, 1.31603, 1, 1, 0, 115350
-351.377, 169846, -349.876, 3.83103, -977.94, 0.0633966, 0.393806, 0.958125, 0.351078, 0.648177, 0.0001, 182, 246, 52.8154, 0.230299, 2.6193, 1, 0, 0, 115350
-351.377, 169846, -349.876, 3.83103, -977.94, 0.0633966, 0.393806, 0.958125, 0.351078, 0.648177, 3, 182, 246, 52.8154, 0.230299, 2.45244, 1, 0, 0, 115350
-10247.6, 320157, -462.403, 3.54733, -710.101, 0.253872, 0.522754, 0.993198, 0.349787, 0.651995, 0.0001, 91, 246, 48.96, 0.236924, 1.36403, 1, 1, 0, 115355
-10247.6, 320157, -462.403, 3.54733, -710.101, 0.253872, 0.522754, 0.993198, 0.349787, 0.651995, 3, 91, 246, 48.96, 0.236924, 1.27964, 1, 1, 0, 115355
-6929.67, 162177, -320.682, 3.46626, -565.647, 0.012776, 0.356921, 1.03299, 0.34851, 0.655882, 0.0001, 45.5, 246, 54.1968, 0.2378, 1.60014, 1, 0, 0, 115361
-6929.67, 162177, -320.682, 3.46626, -565.647, 0.012776, 0.356921, 1.03299, 0.34851, 0.655882, 3, 45.5, 246, 54.1968, 0.2378, 1.54376, 1, 0, 0, 115361
-3379.45, 170267, -370.75, 3.80542, -602.469, 0.0709943, 0.381772, 0.993198, 0.349787, 0.651995, 0.0001, 91, 246, 54.1968, 0.2378, 1.95287, 1, 1, 1, 115361
-3379.45, 170267, -370.75, 3.80542, -602.469, 0.0709943, 0.381772, 0.993198, 0.349787, 0.651995, 3, 91, 246, 54.1968, 0.2378, 1.8654, 1, 1, 1, 115361
1078.21, 180891, -431.578, 4.21562, -655.239, 0.143244, 0.428013, 0.958125, 0.351078, 0.648177, 0.0001, 182, 246, 54.1968, 0.2378, 5.26571, 1, 0, 0, 115361
1078.21, 180891, -431.578, 4.21562, -655.239, 0.143244, 0.428013, 0.958125, 0.351078, 0.648177, 3, 182, 246, 54.1968, 0.2378, 4.60648, 1, 0, 0, 115361
-9218.13, 1.00705e+06, -190.187, 0.229621, -1003.01, 0.557381, 0.370748, 1.03299, 0.34851, 0.655882, 0.0001, 45.5, 246, 29.1772, 0.0434784, 0, 0, 0, 0, 115366
-9218.13, 1.00705e+06, -190.187, 0.229621, -1003.01, 0.557381, 0.370748, 1.03299, 0.34851, 0.655882, 3, 45.5, 246, 29.1772, 0.0434784, 0, 0, 0, 0, 115366
-5247.42, 839182, -683.704, 0.0875677, -746.216, 0.146929, 0.839295, 0.958125, 0.351078, 0.648177, 3, 182, 246, 40.7667, 0.205248, 0, 0, 0, 0, 115368
-11398.2, 432837, -279.06, 0.716483, -676.389, -0.00231361, 0.508329, 1.03299, 0.34851, 0.655882, 3, 45.5, 246, 33.0168, 0.166681, 0, 0, 0, 0, 115374
-14432.8, 151858, 19.7811, 3.6217, -862.145, -0.0631201, 0.122929, 1.03299, 0.34851, 0.655882, 0.0001, 45.5, 246, 13.1212, 0.0197573, 0, 0, 0, 0, 115376
-14432.8, 151858, 19.7811, 3.6217, -862.145, -0.0631201, 0.122929, 1.03299, 0.34851, 0.655882, 3, 45.5, 246, 13.1212, 0.0197573, 0, 0, 0, 0, 115376
-9403.88, 826853, -223.127, 0.271478, -875.633, 0.34313, 0.394365, 1.03299, 0.34851, 0.655882, 0.0001, 45.5, 246, 27.7275, 0.0653807, 0, 0, 0, 0, 115379
-9403.88, 826853, -223.127, 0.271478, -875.633, 0.34313, 0.394365, 1.03299, 0.34851, 0.655882, 3, 45.5, 246, 27.7275, 0.0653807, 0, 0, 0, 0, 115379
735.052, 261170, -341.019, 4.86173, -940.115, 0.873929, 0.354604, 0.9175, 0.352806, 0.64323, 0.0001, 455, 246, 31.2771, 0.126805, 1.05836, 1, 0, 0, 115385
735.052, 261170, -341.019, 4.86173, -940.115, 0.873929, 0.354604, 0.9175, 0.352806, 0.64323, 3, 455, 246, 31.2771, 0.126805, 1.20577, 1, 0, 0, 115385
-10247.9, 77950.9, 1.3076, 2.85545, -764.156, -0.00231856, 0.222673, 1.03299, 0.34851, 0.655882, 0.0001, 45.5, 246, 12.2317, 0.0330831, 0, 0, 1, 0, 115390
-10247.9, 77950.9, 1.3076, 2.85545, -764.156, -0.00231856, 0.222673, 1.03299, 0.34851, 0.655882, 3, 45.5, 246, 12.2317, 0.0330831, 0, 0, 1, 0, 115390
-9819.54, -69241.4, -7.22321, 0.246717, -820.003, 0.181416, 0.356475, 1.03299, 0.34851, 0.655882, 0.0001, 45.5, 246, -48.8734, 0.167998, 0, 0, 1, 0, 115394
-9819.54, -69241.4, -7.22321, 0.246717, -820.003, 0.181416, 0.356475, 1.03299, 0.34851, 0.655882, 3, 45.5, 246, -48.8734, 0.167998, 0, 0, 1, 0, 115394
-1228.75, 937095, -581.317, 0.369963, -1193.67, 0.18369, 0.636106, 0.958125, 0.351078, 0.648177, 0.0001, 182, 246, 43.9771, 0.156274, 4.04417, 1, 0, 0, 115397
-1228.75, 937095, -581.317, 0.369963, -1193.67, 0.18369, 0.636106, 0.958125, 0.351078, 0.648177, 3, 182, 246, 43.9771, 0.156274, 4.04402, 1, 0, 0, 115397
-7790.99, 796689, -257.455, 0.0747519, -575.221, 0.154875, 0.384362, 0.993198, 0.349787, 0.651995, 0.0001, 91, 246, 22.2679, 0.0799719, 0, 0, 1, 0, 115400
-11485, 343209, -149.812, 0.91986, -669.964, 0.0908993, 0.389343, 1.03299, 0.34851, 0.655882, 0.0001, 45.5, 246, 25.0363, 0.108307, 0, 0, 1, 0, 115405
-11485, 343209, -149.812, 0.91986, -669.964, 0.0908993, 0.389343, 1.03299, 0.34851, 0.655882, 3, 45.5, 246, 25.0363, 0.108307, 0, 0, 1, 0, 115405
-10848.8, 143218, -113.179, 2.94242, -772.885, -0.0391039, 0.251953, 1.03299, 0.34851, 0.655882, 0.0001, 45.5, 246, 29.7302, 0.116164, 0, 0, 1, 0, 115409
-10848.8, 143218, -113.179, 2.94242, -772.885, -0.0391039, 0.251953, 1.03299, 0.34851, 0.655882, 3, 45.5, 246, 29.7302, 0.116164, 0, 0, 1, 0, 115409
-7694.51, 4417.98, -35.1079, 3.06138, -1128.44, 0.0239039, 0.253773, 0.993198, 0.349787, 0.651995, 0.0001, 91, 246, 18.3071, 0.0603051, 0, 0, 1, 1, 115414
-7694.51, 4417.98, -35.1079, 3.06138, -1128.44, 0.0239039, 0.253773, 0.993198, 0.349787, 0.651995, 3, 91, 246, 18.3071, 0.0603051, 0, 0, 1, 1, 115414
-6853.52, 57706.3, -129.184, 3.73319, -1178.54, 0.143169, 0.301407, 0.9175, 0.352806, 0.64323, 3, 455, 246, 18.3071, 0.0603051, 0, 0, 1, 1, 115414
-11364, 1.03896e+06, -43.353, 0.203002, -756.125, 0.00052534, 0.341746, 1.03299, 0.34851, 0.655882, 0.0001, 45.5, 246, 19.4402, 0.0111038, 0, 0, 1, 0, 115417
-11364, 1.03896e+06, -43.353, 0.203002, -756.125, 0.00052534, 0.341746, 1.03299, 0.34851, 0.655882, 3, 45.5, 246, 19.4402, 0.0111038, 0, 0, 1, 0, 115417
-10692.1, 1.04903e+06, -46.0574, 0.20917, -756.441, 0.0007119, 0.305707, 0.993198, 0.349787, 0.651995, 3, 91, 246, 19.4402, 0.0111038, 0, 0, 1, 0, 115417
-6376.94, -3843, -52.5708, 3.13896, -876.315, -0.0356403, 0.231992, 1.03299, 0.34851, 0.655882, 3, 45.5, 246, 32.9184, 0.0117911, 0, 0, 1, 1, 115422
-2418.92, 613739, -337.497, 2.5565, -877.439, 0.19354, 0.341221, 0.9175, 0.352806, 0.64323, 3, 455, 246, 28.71, 0.100035, 0, 0, 0, 0, 115427
-7918.44, 421763, -491.44, 4.49627, -748.666, 0.411268, 0.409549, 0.958125, 0.351078, 0.648177, 0.0001, 182, 246, 38.8799, 0.174642, 2.27921, 1, 0, 0, 115429
-7918.44, 421763, -491.44, 4.49627, -748.666, 0.411268, 0.409549, 0.958125, 0.351078, 0.648177, 3, 182, 246, 38.8799, 0.174642, 2.26359, 1, 0, 0, 115429
-5834.07, -19102.9, -41.5357, 3.49542, -893.245, 0.632267, 0.190567, 1.03299, 0.34851, 0.655882, 0.0001, 45.5, 246, 29.8424, 0.0157342, 0, 0, 1, 0, 115430
-5834.07, -19102.9, -41.5357, 3.49542, -893.245, 0.632267, 0.190567, 1.03299, 0.34851, 0.655882, 3, 45.5, 246, 29.8424, 0.0157342, 0, 0, 1, 0, 115430
-4779.54, 60032.8, -232.365, 5.73682, -1516.87, 1.40514, 0.369329, 0.9175, 0.352806, 0.64323, 0.0001, 455, 246, 29.8424, 0.0157342, 1.08509, 1, 1, 0, 115430
-4779.54, 60032.8, -232.365, 5.73682, -1516.87, 1.40514, 0.369329, 0.9175, 0.352806, 0.64323, 3, 455, 246, 29.8424, 0.0157342, 1.02767, 1, 1, 0, 115430
-7429.72, 8688.51, -110.041, 5.09, -801.843, 1.3756, 0.324501, 0.9175, 0.352806, 0.64323, 0.0001, 455, 246, 15.4857, 0.0115816, 0, 0, 1, 0, 115432
-7429.72, 8688.51, -110.041, 5.09, -801.843, 1.3756, 0.324501, 0.9175, 0.352806, 0.64323, 3, 455, 246, 15.4857, 0.0115816, 0, 0, 1, 0, 115432
-9378.66, 81039.2, -56.7141, 3.06709, -880.204, -0.0426544, 0.222103, 1.03299, 0.34851, 0.655882, 0.0001, 45.5, 246, 24.7009, 0.0842256, 0, 0, 1, 0, 115438
-9378.66, 81039.2, -56.7141, 3.06709, -880.204, -0.0426544, 0.222103, 1.03299, 0.34851, 0.655882, 3, 45.5, 246, 24.7009, 0.0842256, 0, 0, 1, 0, 115438
1594.72, 177377, -355.613, 4.7731, -813.994, 0.210184, 0.368951, 0.9175, 0.352806, 0.64323, 0.0001, 455, 246, 39.0577, 0.154747, 2.44609, 1, 0, 0, 115439
1594.72, 177377, -355.613, 4.7731, -813.994, 0.210184, 0.368951, 0.9175, 0.352806, 0.64323, 3, 455, 246, 39.0577, 0.154747, 2.45346, 1, 0, 0, 115439
-9752.87, 295231, -403.883, 3.81178, -796.465, 0.33337, 0.409155, 0.993198, 0.349787, 0.651995, 0.0001, 91, 246, 46.3171, 0.208297, 1.21356, 1, 1, 0, 115442
-9752.87, 295231, -403.883, 3.81178, -796.465, 0.33337, 0.409155, 0.993198, 0.349787, 0.651995, 3, 91, 246, 46.3171, 0.208297, 1.10438, 1, 1, 0, 115442
-8294.84, 132227, -194.919, 3.55701, -804.163, -0.015959, 0.234925, 1.03299, 0.34851, 0.655882, 3, 45.5, 246, 42.7396, 0.165399, 0, 0, 0, 0, 115444
-2542.96, 158512, -296.787, 4.29832, -866.978, 0.119444, 0.294681, 0.958125, 0.351078, 0.648177, 0.0001, 182, 246, 42.7396, 0.165399, 1.41143, 1, 1, 0, 115444
-2542.96, 158512, -296.787, 4.29832, -866.978, 0.119444, 0.294681, 0.958125, 0.351078, 0.648177, 3, 182, 246, 42.7396, 0.165399, 1.24032, 1, 1, 0, 115444
-7512.78, -17073.2, 13.0378, 2.94388, -1021.69, 0.223435, 0.237875, 1.03299, 0.34851, 0.655882, 3, 45.5, 246, 11.697, 0.0555377, 0, 0, 1, 1, 115456
-11285.3, 213607, -8.66181, 1.85188, -891.35, 0.0132201, 0.268751, 0.993198, 0.349787, 0.651995, 3, 91, 246, 13.7791, 0.0159411, 0, 0, 1, 0, 115459
-8223.01, 1187.41, -10.5877, 2.65839, -1087.12, 0.272645, 0.265981, 0.993198, 0.349787, 0.651995, 3, 91, 246, 9.9649, 0.0584535, 0, 0, 1, 1, 115462
-7740.83, 149739, -232.048, 3.35835, -917.691, -0.0540433, 0.312232, 1.03299, 0.34851, 0.655882, 0.0001, 45.5, 246, 48.8406, 0.206317, 1.08258, 1, 0, 0, 115475
-4903.45, 165350, -283.109, 3.66091, -937.397, 9.02844e-05, 0.329691, 0.993198, 0.349787, 0.651995, 0.0001, 91, 246, 48.8406, 0.206317, 1.26387, 1, 1, 0, 115475
-4903.45, 165350, -283.109, 3.66091, -937.397, 9.02844e-05, 0.329691, 0.993198, 0.349787, 0.651995, 3, 91, 246, 48.8406, 0.206317, 1.01417, 1, 1, 0, 115475
-1188.96, 183138, -344.149, 4.0218, -973.801, 0.0649274, 0.366098, 0.958125, 0.351078, 0.648177, 0.0001, 182, 246, 48.8406, 0.206317, 2.19976, 1, 0, 0, 115475
-1188.96, 183138, -344.149, 4.0218, -973.801, 0.0649274, 0.366098, 0.958125, 0.351078, 0.648177, 3, 182, 246, 48.8406, 0.206317, 2.03895, 1, 0, 0, 115475
-11598.4, 194729, -98.0044, 1.9021, -857.895, 0.564747, 0.321324, 1.03299, 0.34851, 0.655882, 0.0001, 45.5, 246, 26.3111, 0.100124, 0, 0, 1, 0, 115478
-9082.7, 475264, -350.685, 0.2029, -702.626, 0.0520341, 0.596916, 1.03299, 0.34851, 0.655882, 0.0001, 45.5, 246, 36.6218, 0.195645, 0, 0, 0, 0, 115479
-6338.93, 500323, -379.528, 0.219223, -718.513, 0.0533019, 0.573789, 0.958125, 0.351078, 0.648177, 0.0001, 182, 246, 36.6218, 0.195645, 0, 0, 0, 0, 115479
-9265.71, 520640, -97.6593, 0.403203, -957.277, 0.170894, 0.320271, 0.993198, 0.349787, 0.651995, 0.0001, 91, 246, 23.352, 0.0462553, 0, 0, 1, 0, 115488
-10962.4, 327272, -273.43, 0.984714, -738.82, -0.00448979, 0.542583, 1.03299, 0.34851, 0.655882, 0.0001, 45.5, 246, 38.6501, 0.211225, 0, 0, 0, 0, 115489
-10962.4, 327272, -273.43, 0.984714, -738.82, -0.00448979, 0.542583, 1.03299, 0.34851, 0.655882, 3, 45.5, 246, 38.6501, 0.211225, 0, 0, 0, 0, 115489
-9440.68, 313644, -115.352, 1.04003, -1188.97, 0.808115, 0.329847, 0.993198, 0.349787, 0.651995, 0.0001, 91, 246, 26.9166, 0.0825813, 0, 0, 1, 0, 115495
-6290.46, -89834.6, 25.0155, 3.33391, -1157.22, -0.0470317, 0.25004, 1.03299, 0.34851, 0.655882, 0.0001, 45.5, 246, 8.44443, 0.018418, 3.03084, 1, 1, 0, 115497
-6290.46, -89834.6, 25.0155, 3.33391, -1157.22, -0.0470317, 0.25004, 1.03299, 0.34851, 0.655882, 3, 45.5, 246, 8.44443, 0.018418, 3.02998, 1, 1, 0, 115497
