-8322.29, 438822, -170.232, 0.507238, -1080.76, 0.863178, 0.361738, 0.993198, 0.349787, 0.651995, 0.0001, 91, 246, 28.3337, 0.090643, 0, 0, 1, 0, 62501
-7174.74, 485682, -181.675, 0.551279, -1254.23, 1.00094, 0.334884, 0.958125, 0.351078, 0.648177, 0.0001, 182, 246, 28.3337, 0.090643, 0, 0, 1, 0, 62501
-7174.74, 485682, -181.675, 0.551279, -1254.23, 1.00094, 0.334884, 0.958125, 0.351078, 0.648177, 3, 182, 246, 28.3337, 0.090643, 0, 0, 1, 0, 62501
-11406, 131003, -68.4518, 3.14837, -816.381, 0.0294687, 0.206684, 1.03299, 0.34851, 0.655882, 0.0001, 45.5, 246, 24.0119, 0.0806131, 0, 0, 1, 0, 62503
-11406, 131003, -68.4518, 3.14837, -816.381, 0.0294687, 0.206684, 1.03299, 0.34851, 0.655882, 3, 45.5, 246, 24.0119, 0.0806131, 0, 0, 0, 0, 62503
-9617.35, 142782, -98.8957, 3.42295, -830.446, 0.0772524, 0.210386, 0.993198, 0.349787, 0.651995, 0.0001, 91, 246, 24.0119, 0.0806131, 0, 0, 1, 0, 62503
-9617.35, 142782, -98.8957, 3.42295, -830.446, 0.0772524, 0.210386, 0.993198, 0.349787, 0.651995, 3, 91, 246, 24.0119, 0.0806131, 0, 0, 1, 0, 62503
-13004.6, 166861, 19.8349, 2.33861, -1150.26, -0.0225369, 0.256111, 1.03299, 0.34851, 0.655882, 0.0001, 45.5, 246, 15.8317, 0.0191735, 0, 0, 1, 0, 62507
-13004.6, 166861, 19.8349, 2.33861, -1150.26, -0.0225369, 0.256111, 1.03299, 0.34851, 0.655882, 3, 45.5, 246, 15.8317, 0.0191735, 0, 0, 1, 0, 62507
-6886.67, 104861, -106.186, 2.36735, -765.21, 0.553888, 0.268556, 0.9175, 0.352806, 0.64323, 0.0001, 455, 246, 21.0735, 0.0920419, 0, 0, 1, 0, 62513
-6886.67, 104861, -106.186, 2.36735, -765.21, 0.553888, 0.268556, 0.9175, 0.352806, 0.64323, 3, 455, 246, 21.0735, 0.0920419, 0, 0, 1, 0, 62513
-8327.25, 45803.8, -51.6976, 3.07643, -530.1, -0.0445993, 0.215002, 1.03299, 0.34851, 0.655882, 0.0001, 45.5, 246, 20.9854, 0.0608582, 0, 0, 1, 0, 62521
-8327.25, 45803.8, -51.6976, 3.07643, -530.1, -0.0445993, 0.215002, 1.03299, 0.34851, 0.655882, 3, 45.5, 246, 20.9854, 0.0608582, 0, 0, 1, 0, 62521
-11110.7, 291847, -103.311, 0.914068, -696.579, 0.532576, 0.36005, 1.03299, 0.34851, 0.655882, 0.0001, 45.5, 246, 21.8894, 0.082056, 0, 0, 1, 0, 62527
-11110.7, 291847, -103.311, 0.914068, -696.579, 0.532576, 0.36005, 1.03299, 0.34851, 0.655882, 3, 45.5, 246, 21.8894, 0.082056, 0, 0, 1, 0, 62527
-10039.8, 310065, -114.102, 0.983176, -763.668, 0.585828, 0.329243, 0.993198, 0.349787, 0.651995, 0.0001, 91, 246, 21.8894, 0.082056, 0, 0, 1, 0, 62527
-12125.1, 369021, -41.4025, 0.817504, -706.813, -0.00300724, 0.335285, 1.03299, 0.34851, 0.655882, 0.0001, 45.5, 246, 16.1819, 0.0317472, 0, 0, 1, 0, 62529
-12125.1, 369021, -41.4025, 0.817504, -706.813, -0.00300724, 0.335285, 1.03299, 0.34851, 0.655882, 3, 45.5, 246, 16.1819, 0.0317472, 0, 0, 1, 0, 62529
-11043.2, 377638, -48.4125, 0.851473, -707.632, 5.05676e-05, 0.301751, 0.993198, 0.349787, 0.651995, 3, 91, 246, 16.1819, 0.0317472, 0, 0, 1, 0, 62529
-9808.4, 386369, -55.8263, 0.885152, -709.013, 0.00336115, 0.273003, 0.958125, 0.351078, 0.648177, 0.0001, 182, 246, 16.1819, 0.0317472, 0, 0, 1, 0, 62529
-10121, 332742, -257.938, 0.976175, -996.906, 0.683341, 0.501401, 1.03299, 0.34851, 0.655882, 3, 45.5, 246, 38.9457, 0.178839, 0, 0, 0, 0, 62533
-9180.56, 86898.4, -84.5529, 3.5106, -755.966, -0.0250069, 0.175876, 1.03299, 0.34851, 0.655882, 0.0001, 45.5, 246, 27.5642, 0.0897065, 0, 0, 1, 0, 62539
-9180.56, 86898.4, -84.5529, 3.5106, -755.966, -0.0250069, 0.175876, 1.03299, 0.34851, 0.655882, 3, 45.5, 246, 27.5642, 0.0897065, 0, 0, 1, 0, 62539
-11002, 220659, -89.4513, 1.20266, -618.024, 0.262471, 0.349654, 1.03299, 0.34851, 0.655882, 0.0001, 45.5, 246, 21.1298, 0.0916637, 0, 0, 1, 0, 62540
-11002, 220659, -89.4513, 1.20266, -618.024, 0.262471, 0.349654, 1.03299, 0.34851, 0.655882, 3, 45.5, 246, 21.1298, 0.0916637, 0, 0, 1, 0, 62540
-9972.23, 230850, -100.947, 1.28044, -648.29, 0.280886, 0.320994, 0.993198, 0.349787, 0.651995, 0.0001, 91, 246, 21.1298, 0.0916637, 0, 0, 1, 0, 62540
-15871.6, -163559, -41.7837, 0.268534, -1122.92, 0.0189751, 0.39215, 1.03299, 0.34851, 0.655882, 0.0001, 45.5, 246, -97.0204, 0.172381, 0, 0, 1, 0, 62541
-15871.6, -163559, -41.7837, 0.268534, -1122.92, 0.0189751, 0.39215, 1.03299, 0.34851, 0.655882, 3, 45.5, 246, -97.0204, 0.172381, 0, 0, 1, 0, 62541
-3462.14, 108775, -255.252, 3.24784, -947.67, 0.579538, 0.329576, 1.03299, 0.34851, 0.655882, 0.0001, 45.5, 246, 59.0862, 0.241757, 1.58555, 1, 1, 0, 62543
-3462.14, 108775, -255.252, 3.24784, -947.67, 0.579538, 0.329576, 1.03299, 0.34851, 0.655882, 3, 45.5, 246, 59.0862, 0.241757, 1.46244, 1, 1, 0, 62543
-1008.74, 131906, -310.376, 3.66408, -1074.55, 0.695608, 0.346498, 0.993198, 0.349787, 0.651995, 0.0001, 91, 246, 59.0862, 0.241757, 1.94259, 1, 1, 0, 62543
-1008.74, 131906, -310.376, 3.66408, -1074.55, 0.695608, 0.346498, 0.993198, 0.349787, 0.651995, 3, 91, 246, 59.0862, 0.241757, 1.84261, 1, 1, 0, 62543
-2416.17, 162905, -288.271, 4.16747, -1146.16, 0.973922, 0.303994, 0.958125, 0.351078, 0.648177, 0.0001, 182, 246, 42.8696, 0.164895, 1.42208, 1, 0, 0, 62545
-2416.17, 162905, -288.271, 4.16747, -1146.16, 0.973922, 0.303994, 0.958125, 0.351078, 0.648177, 3, 182, 246, 42.8696, 0.164895, 1.22593, 1, 0, 0, 62545
-7497.39, -17907.2, -11.5843, 3.49322, -1129.55, -0.000155953, 0.232109, 0.993198, 0.349787, 0.651995, 0.0001, 91, 246, 10.4579, 0.0644681, 0, 0, 1, 1, 62550
-7497.39, -17907.2, -11.5843, 3.49322, -1129.55, -0.000155953, 0.232109, 0.993198, 0.349787, 0.651995, 3, 91, 246, 10.4579, 0.0644681, 0, 0, 1, 1, 62550
-7043.61, -25257.1, 18.4128, 3.3503, -1167.86, 0.13927, 0.204636, 1.03299, 0.34851, 0.655882, 0.0001, 45.5, 246, 13.0543, 0.0618519, 0, 0, 1, 0, 62551
-7043.61, -25257.1, 18.4128, 3.3503, -1167.86, 0.13927, 0.204636, 1.03299, 0.34851, 0.655882, 3, 45.5, 246, 13.0543, 0.0618519, 0, 0, 1, 0, 62551
-5438.91, 941059, -272.287, 0.0216938, -913.138, 0.406911, 0.377371, 0.993198, 0.349787, 0.651995, 0.0001, 91, 246, 28.2526, 0.0691248, 0, 0, 1, 0, 62557
1011.43, 288079, -339.152, 4.60979, -1111.88, 0.724399, 0.34897, 0.9175, 0.352806, 0.64323, 3, 455, 246, 32.2386, 0.12469, 1.47521, 1, 0, 0, 62560
-14700.3, 374638, -465.053, 3.50385, -550.081, 0.0238371, 0.512634, 0.993198, 0.349787, 0.651995, 0.0001, 91, 246, 43.4986, 0.21872, 1.03415, 1, 1, 0, 62566
-6727.82, 385152, -530.624, 3.86191, -603.079, 0.0837243, 0.558481, 0.958125, 0.351078, 0.648177, 0.0001, 182, 246, 43.4986, 0.21872, 2.37502, 1, 0, 0, 62566
-6727.82, 385152, -530.624, 3.86191, -603.079, 0.0837243, 0.558481, 0.958125, 0.351078, 0.648177, 3, 182, 246, 43.4986, 0.21872, 2.24443, 1, 0, 0, 62566
-9263.27, 463587, -160.042, 0.908733, -658.977, 0.00436599, 0.31463, 0.958125, 0.351078, 0.648177, 3, 182, 246, 22.0682, 0.0792922, 0, 0, 1, 0, 62567
-9246.31, 371590, -340.491, 0.187304, -625.496, 0.848322, 0.615147, 1.03299, 0.34851, 0.655882, 0.0001, 45.5, 246, 37.0905, 0.21613, 0, 0, 0, 0, 62571
-8149.89, 400141, -354.58, 0.203963, -724.259, 0.979838, 0.60323, 0.993198, 0.349787, 0.651995, 0.0001, 91, 246, 37.0905, 0.21613, 0, 0, 1, 0, 62571
-9603.24, 192719, -142.685, 1.08236, -796.817, 0.154889, 0.415275, 1.03299, 0.34851, 0.655882, 0.0001, 45.5, 246, 32.3724, 0.172318, 0, 0, 1, 0, 62582
-8338.72, 456336, -318.396, 0.0780531, -660.547, 0.154829, 0.558219, 1.03299, 0.34851, 0.655882, 0.0001, 45.5, 246, 34.0042, 0.182556, 0, 0, 0, 0, 62585
-6560.43, 484140, -340.785, 0.0847016, -695.988, 0.162856, 0.526825, 0.958125, 0.351078, 0.648177, 0.0001, 182, 246, 34.0042, 0.182556, 3.46168, 1, 0, 0, 62585
-6560.43, 484140, -340.785, 0.0847016, -695.988, 0.162856, 0.526825, 0.958125, 0.351078, 0.648177, 3, 182, 246, 34.0042, 0.182556, 3.4612, 1, 0, 0, 62585
-5121.93, 504296, -354.978, 0.0890699, -721.573, 0.168636, 0.514064, 0.9175, 0.352806, 0.64323, 0.0001, 455, 246, 34.0042, 0.182556, 4.16932, 1, 0, 0, 62585
-5121.93, 504296, -354.978, 0.0890699, -721.573, 0.168636, 0.514064, 0.9175, 0.352806, 0.64323, 3, 455, 246, 34.0042, 0.182556, 4.03798, 1, 0, 0, 62585
-11503.6, 340175, -221.901, 1.32011, -1037.92, 0.273991, 0.447219, 1.03299, 0.34851, 0.655882, 0.0001, 45.5, 246, 36.9577, 0.155262, 0, 0, 0, 0, 62588
-10868.5, 524350, -108.102, 0.55864, -1071.67, 0.132431, 0.358296, 1.03299, 0.34851, 0.655882, 3, 45.5, 246, 26.9024, 0.0529289, 0, 0, 1, 0, 62592
-2579.97, 255651, -372.715, 4.25153, -1098.27, 0.664964, 0.360626, 0.958125, 0.351078, 0.648177, 0.0001, 182, 246, 43.7355, 0.181453, 1.92334, 1, 0, 0, 62603
-2579.97, 255651, -372.715, 4.25153, -1098.27, 0.664964, 0.360626, 0.958125, 0.351078, 0.648177, 3, 182, 246, 43.7355, 0.181453, 1.75897, 1, 0, 0, 62603
-12156.7, 278325, -115.255, 1.48209, -938.039, 0.207574, 0.351579, 1.03299, 0.34851, 0.655882, 0.0001, 45.5, 246, 27.3733, 0.0979256, 0, 0, 1, 0, 62604
-12156.7, 278325, -115.255, 1.48209, -938.039, 0.207574, 0.351579, 1.03299, 0.34851, 0.655882, 3, 45.5, 246, 27.3733, 0.0979256, 0, 0, 1, 0, 62604
-10111.1, 435963, -166.731, 0.589348, -923.415, 0.402377, 0.394845, 1.03299, 0.34851, 0.655882, 0.0001, 45.5, 246, 28.3506, 0.0926645, 0, 0, 1, 0, 62608
-10111.1, 435963, -166.731, 0.589348, -923.415, 0.402377, 0.394845, 1.03299, 0.34851, 0.655882, 3, 45.5, 246, 28.3506, 0.0926645, 0, 0, 1, 0, 62608
-8917.25, 462271, -178.455, 0.626014, -989.098, 0.431429, 0.364286, 0.993198, 0.349787, 0.651995, 3, 91, 246, 28.3506, 0.0926645, 0, 0, 1, 0, 62608
-9604.02, 57279, 15.4046, 2.3274, -865.78, -0.0254857, 0.267542, 1.03299, 0.34851, 0.655882, 0.0001, 45.5, 246, 9.30952, 0.0252474, 0, 0, 1, 0, 62614
-10406.4, 239428, -256.627, 1.84285, -992.182, 0.670824, 0.491644, 1.03299, 0.34851, 0.655882, 0.0001, 45.5, 246, 44.5453, 0.218898, 0, 0, 0, 0, 62618
-10406.4, 239428, -256.627, 1.84285, -992.182, 0.670824, 0.491644, 1.03299, 0.34851, 0.655882, 3, 45.5, 246, 44.5453, 0.218898, 0, 0, 0, 0, 62618
-10347.2, 369936, -261.605, 0.637633, -698.92, 0.46636, 0.502109, 1.03299, 0.34851, 0.655882, 3, 45.5, 246, 33.3633, 0.170585, 0, 0, 0, 0, 62622
-8906.5, 390134, -277.211, 0.682396, -759.505, 0.505526, 0.480943, 0.993198, 0.349787, 0.651995, 3, 91, 246, 33.3633, 0.170585, 0, 0, 1, 0, 62622
-8273.81, 84374.2, -98.0598, 1.93221, -1117.56, 0.00365447, 0.356696, 1.03299, 0.34851, 0.655882, 3, 45.5, 246, 36.7006, 0.186107, 0, 0, 1, 0, 62623
-7543.12, 106447, -124.561, 2.05695, -1125.57, 0.0211371, 0.339626, 0.993198, 0.349787, 0.651995, 3, 91, 246, 36.7006, 0.186107, 0, 0, 1, 0, 62623
-6726.3, 926780, -293.042, 0.016604, -723.521, 0.715551, 0.416502, 1.03299, 0.34851, 0.655882, 0.0001, 45.5, 246, 25.6777, 0.0701106, 0, 0, 1, 0, 62627
-6059.43, 976753, -301.667, 0.0177833, -815.903, 0.806775, 0.385986, 0.993198, 0.349787, 0.651995, 0.0001, 91, 246, 25.6777, 0.0701106, 0, 0, 1, 0, 62627
-5303.67, 1.03756e+06, -309.767, 0.0191012, -935.276, 0.924657, 0.359615, 0.958125, 0.351078, 0.648177, 0.0001, 182, 246, 25.6777, 0.0701106, 0, 0, 1, 0, 62627
-7102.07, -3604.33, -48.1715, 3.4647, -1045.61, 0.0649411, 0.235183, 0.993198, 0.349787, 0.651995, 3, 91, 246, 22.276, 0.0353335, 0, 0, 1, 1, 62629
-11009.1, 440616, -342.353, 0.45842, -583.466, 0.0121447, 0.599156, 1.03299, 0.34851, 0.655882, 0.0001, 45.5, 246, 35.7152, 0.204106, 0, 0, 0, 0, 62632
-11009.1, 440616, -342.353, 0.45842, -583.466, 0.0121447, 0.599156, 1.03299, 0.34851, 0.655882, 3, 45.5, 246, 35.7152, 0.204106, 0, 0, 0, 0, 62632
-9354.6, 449022, -359.35, 0.478204, -588.964, 0.0131328, 0.586413, 0.993198, 0.349787, 0.651995, 3, 91, 246, 35.7152, 0.204106, 0, 0, 1, 0, 62632
-8940.84, 176699, -225.203, 2.92679, -1130.48, -0.011042, 0.379708, 1.03299, 0.34851, 0.655882, 0.0001, 45.5, 246, 48.1312, 0.21553, 0, 0, 0, 0, 62637
-6079.16, 200315, -276.078, 3.17639, -1152.18, 0.0298123, 0.388619, 0.993198, 0.349787, 0.651995, 3, 91, 246, 48.1312, 0.21553, 0, 0, 1, 0, 62637
-2266.34, 226313, -335.992, 3.46678, -1188.78, 0.0786391, 0.412515, 0.958125, 0.351078, 0.648177, 0.0001, 182, 246, 48.1312, 0.21553, 1.32375, 1, 0, 0, 62637
-2266.34, 226313, -335.992, 3.46678, -1188.78, 0.0786391, 0.412515, 0.958125, 0.351078, 0.648177, 3, 182, 246, 48.1312, 0.21553, 1.02398, 1, 0, 0, 62637
-11189.9, 492721, -46.6192, 0.420967, -499.197, 0.0741378, 0.342191, 1.03299, 0.34851, 0.655882, 0.0001, 45.5, 246, 12.7903, 0.0249886, 0, 0, 1, 0, 62642
-11189.9, 492721, -46.6192, 0.420967, -499.197, 0.0741378, 0.342191, 1.03299, 0.34851, 0.655882, 3, 45.5, 246, 12.7903, 0.0249886, 0, 0, 1, 0, 62642
-10521.2, 499071, -50.1478, 0.437176, -505.697, 0.0758346, 0.306827, 0.993198, 0.349787, 0.651995, 0.0001, 91, 246, 12.7903, 0.0249886, 0, 0, 1, 0, 62642
-9877.55, 392824, -64.8628, 1.35663, -1083.01, 0.00949705, 0.266838, 0.958125, 0.351078, 0.648177, 3, 182, 246, 21.8891, 0.0337682, 0, 0, 1, 0, 62643
-5912.84, 186479, -100.235, 3.40133, -579.659, 0.332533, 0.254199, 0.9175, 0.352806, 0.64323, 3, 455, 246, 13.9479, 0.0450807, 0, 0, 1, 0, 62644
-11343.7, 349176, -212.819, 1.04605, -810.897, 0.00339758, 0.447921, 1.03299, 0.34851, 0.655882, 0.0001, 45.5, 246, 32.8718, 0.15282, 0, 0, 0, 0, 62646
-11343.7, 349176, -212.819, 1.04605, -810.897, 0.00339758, 0.447921, 1.03299, 0.34851, 0.655882, 3, 45.5, 246, 32.8718, 0.15282, 0, 0, 0, 0, 62646
-8171.41, 577833, -368.243, 0.0970789, -744.417, 0.108031, 0.567478, 1.03299, 0.34851, 0.655882, 0.0001, 45.5, 246, 34.8066, 0.165649, 0, 0, 0, 0, 62658
-8171.41, 577833, -368.243, 0.0970789, -744.417, 0.108031, 0.567478, 1.03299, 0.34851, 0.655882, 3, 45.5, 246, 34.8066, 0.165649, 0, 0, 0, 0, 62658
-145.011, 219660, -305.907, 3.66812, -1574.57, 1.0222, 0.367918, 0.9175, 0.352806, 0.64323, 0.0001, 455, 246, 40.5527, 0.17964, 0, 0, 0, 0, 62664
-145.011, 219660, -305.907, 3.66812, -1574.57, 1.0222, 0.367918, 0.9175, 0.352806, 0.64323, 3, 455, 246, 40.5527, 0.17964, 0, 0, 0, 0, 62664
-6268.66, 562760, -162.009, 1.27538, -843.866, 0.154606, 0.26552, 0.9175, 0.352806, 0.64323, 0.0001, 455, 246, 22.3642, 0.0580636, 0, 0, 0, 0, 62665
-6268.66, 562760, -162.009, 1.27538, -843.866, 0.154606, 0.26552, 0.9175, 0.352806, 0.64323, 3, 455, 246, 22.3642, 0.0580636, 0, 0, 0, 0, 62665
-11237.9, 373374, -192.121, 0.871958, -769.22, 0.271734, 0.420736, 1.03299, 0.34851, 0.655882, 0.0001, 45.5, 246, 29.1985, 0.125512, 0, 0, 0, 0, 62668
-11237.9, 373374, -192.121, 0.871958, -769.22, 0.271734, 0.420736, 1.03299, 0.34851, 0.655882, 3, 45.5, 246, 29.1985, 0.125512, 0, 0, 0, 0, 62668
-19256.5, 469219, -558.373, 3.61131, -581.014, 0.392233, 0.569345, 0.993198, 0.349787, 0.651995, 0.0001, 91, 246, 43.1486, 0.21655, 1.18584, 1, 1, 0, 62671
-19256.5, 469219, -558.373, 3.61131, -581.014, 0.392233, 0.569345, 0.993198, 0.349787, 0.651995, 3, 91, 246, 43.1486, 0.21655, 1.14479, 1, 1, 0, 62671
-11385.9, 171566, -93.0612, 2.01245, -665.114, 0.405139, 0.310506, 1.03299, 0.34851, 0.655882, 3, 45.5, 246, 23.8849, 0.0990682, 0, 0, 1, 0, 62672
-8090.46, 198344, -135.122, 2.39541, -782.142, 0.513426, 0.283049, 0.958125, 0.351078, 0.648177, 3, 182, 246, 23.8849, 0.0990682, 0, 0, 1, 0, 62672
-10207.8, 607307, -425.712, 0.152807, -622.102, 0.0664733, 0.62977, 1.03299, 0.34851, 0.655882, 3, 45.5, 246, 34.9676, 0.183479, 0, 0, 0, 0, 62678
-11901.8, 458323, -13.9061, 0.549477, -868.876, 0.10269, 0.336203, 1.03299, 0.34851, 0.655882, 0.0001, 45.5, 246, 17.4123, 0.0109068, 0, 0, 1, 0, 62685
-11901.8, 458323, -13.9061, 0.549477, -868.876, 0.10269, 0.336203, 1.03299, 0.34851, 0.655882, 3, 45.5, 246, 17.4123, 0.0109068, 0, 0, 1, 0, 62685
-11051.4, 474253, -18.809, 0.572751, -883.547, 0.105789, 0.301003, 0.993198, 0.349787, 0.651995, 0.0001, 91, 246, 17.4123, 0.0109068, 0, 0, 1, 0, 62685
-5470.37, 491053, -358.145, 0.203474, -1105.58, 0.000284476, 0.57962, 0.993198, 0.349787, 0.651995, 0.0001, 91, 246, 42.8145, 0.195942, 0, 0, 1, 0, 62687
-8770.3, 80122.3, -43.4558, 0.57237, -1131.79, 0.0224763, 0.361436, 1.03299, 0.34851, 0.655882, 0.0001, 45.5, 246, 22.4212, 0.128539, 0, 0, 1, 0, 62692
-8770.3, 80122.3, -43.4558, 0.57237, -1131.79, 0.0224763, 0.361436, 1.03299, 0.34851, 0.655882, 3, 45.5, 246, 22.4212, 0.128539, 0, 0, 1, 0, 62692
-7189.12, 379692, -491.055, 3.51165, -582.982, 0.0509258, 0.539681, 0.958125, 0.351078, 0.648177, 0.0001, 182, 246, 41.7396, 0.213182, 1.28728, 1, 0, 0, 62696
-7189.12, 379692, -491.055, 3.51165, -582.982, 0.0509258, 0.539681, 0.958125, 0.351078, 0.648177, 3, 182, 246, 41.7396, 0.213182, 1.12005, 1, 0, 0, 62696
-8809.72, 1.33388e+06, -97.4947, 0.453612, -806.28, 0.00600947, 0.24017, 0.9175, 0.352806, 0.64323, 3, 455, 246, 22.297, 0.016366, 0, 0, 1, 0, 62699
-8964.85, 191659, -363.766, 3.50534, -507.633, 0.302585, 0.38004, 1.03299, 0.34851, 0.655882, 0.0001, 45.5, 246, 52.6908, 0.237051, 1.60819, 1, 0, 0, 62702
-8964.85, 191659, -363.766, 3.50534, -507.633, 0.302585, 0.38004, 1.03299, 0.34851, 0.655882, 3, 45.5, 246, 52.6908, 0.237051, 1.56399, 1, 0, 0, 62702
-4620.98, 202533, -417.661, 3.91707, -574.771, 0.381234, 0.409164, 0.993198, 0.349787, 0.651995, 0.0001, 91, 246, 52.6908, 0.237051, 1.99651, 1, 1, 1, 62702
-4620.98, 202533, -417.661, 3.91707, -574.771, 0.381234, 0.409164, 0.993198, 0.349787, 0.651995, 3, 91, 246, 52.6908, 0.237051, 1.89601, 1, 1, 1, 62702
-8458.71, 713495, -207.925, 0.173511, -596.643, 0.0218061, 0.363436, 0.993198, 0.349787, 0.651995, 0.0001, 91, 246, 21.7216, 0.0733028, 0, 0, 1, 0, 62707
-8679.34, 576573, -333.324, 0.466591, -1084.13, 0.0802916, 0.52597, 1.03299, 0.34851, 0.655882, 0.0001, 45.5, 246, 39.2515, 0.148947, 0, 0, 0, 0, 62709
-8679.34, 576573, -333.324, 0.466591, -1084.13, 0.0802916, 0.52597, 1.03299, 0.34851, 0.655882, 3, 45.5, 246, 39.2515, 0.148947, 0, 0, 0, 0, 62709
-12126.2, 261396, -17.9851, 1.19655, -930.898, 0.00425519, 0.321296, 1.03299, 0.34851, 0.655882, 0.0001, 45.5, 246, 17.1684, 0.0271897, 0, 0, 1, 0, 62710
-12126.2, 261396, -17.9851, 1.19655, -930.898, 0.00425519, 0.321296, 1.03299, 0.34851, 0.655882, 3, 45.5, 246, 17.1684, 0.0271897, 0, 0, 1, 0, 62710
-10972.8, 276505, -29.1197, 1.25504, -932.762, 0.0108604, 0.29043, 0.993198, 0.349787, 0.651995, 3, 91, 246, 17.1684, 0.0271897, 0, 0, 1, 0, 62710
-12010.2, 468098, -73.6188, 0.68459, -853.544, -0.00184174, 0.345488, 1.03299, 0.34851, 0.655882, 0.0001, 45.5, 246, 21.0943, 0.0424236, 0, 0, 1, 0, 62711
-12010.2, 468098, -73.6188, 0.68459, -853.544, -0.00184174, 0.345488, 1.03299, 0.34851, 0.655882, 3, 45.5, 246, 21.0943, 0.0424236, 0, 0, 1, 0, 62711
-10995.6, 247495, -237.799, 1.88038, -898.805, -0.0164077, 0.471645, 1.03299, 0.34851, 0.655882, 0.0001, 45.5, 246, 42.1501, 0.21175, 0, 0, 0, 0, 62713
-10995.6, 247495, -237.799, 1.88038, -898.805, -0.0164077, 0.471645, 1.03299, 0.34851, 0.655882, 3, 45.5, 246, 42.1501, 0.21175, 0, 0, 0, 0, 62713
-11220.7, 352434, -295.199, 0.949152, -745.672, 0.219719, 0.555429, 1.03299, 0.34851, 0.655882, 0.0001, 45.5, 246, 38.6642, 0.206497, 0, 0, 0, 0, 62715
-11220.7, 352434, -295.199, 0.949152, -745.672, 0.219719, 0.555429, 1.03299, 0.34851, 0.655882, 3, 45.5, 246, 38.6642, 0.206497, 0, 0, 0, 0, 62715
-5834.12, 14751, -84.8286, 3.08039, -750.302, -0.0350602, 0.231902, 1.03299, 0.34851, 0.655882, 0.0001, 45.5, 246, 39.2956, 0.0476055, 0, 0, 1, 1, 62718
-5834.12, 14751, -84.8286, 3.08039, -750.302, -0.0350602, 0.231902, 1.03299, 0.34851, 0.655882, 3, 45.5, 246, 39.2956, 0.0476055, 0, 0, 1, 1, 62718
-5859.33, 1.01944e+06, -343.642, 0.0955588, -1029.25, 0.0181931, 0.450063, 1.03299, 0.34851, 0.655882, 0.0001, 45.5, 246, 34.543, 0.0859481, 0, 0, 0, 0, 62721
-5859.33, 1.01944e+06, -343.642, 0.0955588, -1029.25, 0.0181931, 0.450063, 1.03299, 0.34851, 0.655882, 3, 45.5, 246, 34.543, 0.0859481, 0, 0, 0, 0, 62721
-10802.7, 907530, -47.5705, 0.272029, -879.144, 0.381885, 0.305477, 0.993198, 0.349787, 0.651995, 3, 91, 246, 20.6208, 0.0126871, 0, 0, 1, 0, 62722
-9395.62, 578082, -358.899, 0.161438, -627.736, 0.0658601, 0.556761, 1.03299, 0.34851, 0.655882, 0.0001, 45.5, 246, 32.2403, 0.161971, 0, 0, 0, 0, 62723
-9395.62, 578082, -358.899, 0.161438, -627.736, 0.0658601, 0.556761, 1.03299, 0.34851, 0.655882, 3, 45.5, 246, 32.2403, 0.161971, 0, 0, 0, 0, 62723
-8080.91, 589452, -372.638, 0.167785, -635.938, 0.066673, 0.538883, 0.993198, 0.349787, 0.651995, 3, 91, 246, 32.2403, 0.161971, 0, 0, 1, 0, 62723
-11570.6, 443812, -36.2828, 0.548893, -729.888, 0.194381, 0.338905, 1.03299, 0.34851, 0.655882, 0.0001, 45.5, 246, 16.3729, 0.0224883, 0, 0, 1, 0, 62726
-11570.6, 443812, -36.2828, 0.548893, -729.888, 0.194381, 0.338905, 1.03299, 0.34851, 0.655882, 3, 45.5, 246, 16.3729, 0.0224883, 0, 0, 1, 0, 62726
-10738, 458093, -41.3402, 0.575029, -753.684, 0.201971, 0.303902, 0.993198, 0.349787, 0.651995, 0.0001, 91, 246, 16.3729, 0.0224883, 0, 0, 1, 0, 62726
-8038.17, 675.272, -76.855, 0.289995, -960.025, 0.902527, 0.314891, 0.993198, 0.349787, 0.651995, 0.0001, 91, 246, 498.413, 0.0348328, 0, 0, 1, 0, 62734
-9515.61, 81706.3, -71.0523, 3.39924, -526.392, -0.0472265, 0.178045, 1.03299, 0.34851, 0.655882, 0.0001, 45.5, 246, 22.0948, 0.0707391, 0, 0, 1, 0, 62738
-9515.61, 81706.3, -71.0523, 3.39924, -526.392, -0.0472265, 0.178045, 1.03299, 0.34851, 0.655882, 3, 45.5, 246, 22.0948, 0.0707391, 0, 0, 1, 0, 62738
-8352.68, 86090.3, -94.4994, 3.69597, -532.408, 0.00803121, 0.188148, 0.993198, 0.349787, 0.651995, 0.0001, 91, 246, 22.0948, 0.0707391, 0, 0, 1, 0, 62738
-8352.68, 86090.3, -94.4994, 3.69597, -532.408, 0.00803121, 0.188148, 0.993198, 0.349787, 0.651995, 3, 91, 246, 22.0948, 0.0707391, 0, 0, 1, 0, 62738
-6908.97, 91063, -122.431, 4.04884, -546.846, 0.0740211, 0.216799, 0.958125, 0.351078, 0.648177, 3, 182, 246, 22.0948, 0.0707391, 0, 0, 1, 0, 62738
-10914.6, 255434, -217.813, 1.05869, -502.531, 0.312019, 0.476657, 1.03299, 0.34851, 0.655882, 0.0001, 45.5, 246, 32.9946, 0.193877, 0, 0, 1, 0, 62739
-10914.6, 255434, -217.813, 1.05869, -502.531, 0.312019, 0.476657, 1.03299, 0.34851, 0.655882, 3, 45.5, 246, 32.9946, 0.193877, 0, 0, 1, 0, 62739
-9524.2, 265280, -233.917, 1.13121, -535.493, 0.333735, 0.456699, 0.993198, 0.349787, 0.651995, 3, 91, 246, 32.9946, 0.193877, 0, 0, 1, 0, 62739
-11511, 162093, -23.0795, 1.77857, -710.943, 0.258188, 0.29707, 1.03299, 0.34851, 0.655882, 3, 45.5, 246, 14.8025, 0.0404892, 0, 0, 1, 0, 62742
-6760.34, -19012, -3.30087, 3.37636, -969.814, 0.222671, 0.199643, 1.03299, 0.34851, 0.655882, 0.0001, 45.5, 246, 17.2359, 0.048217, 0, 0, 1, 1, 62743
-6760.34, -19012, -3.30087, 3.37636, -969.814, 0.222671, 0.199643, 1.03299, 0.34851, 0.655882, 3, 45.5, 246, 17.2359, 0.048217, 0, 0, 1, 1, 62743
-4367.32, 316852, -406.658, 3.97738, -913.218, 0.127622, 0.406465, 0.958125, 0.351078, 0.648177, 0.0001, 182, 246, 43.0674, 0.187045, 1.50838, 1, 0, 0, 62752
-4367.32, 316852, -406.658, 3.97738, -913.218, 0.127622, 0.406465, 0.958125, 0.351078, 0.648177, 3, 182, 246, 43.0674, 0.187045, 1.34648, 1, 0, 0, 62752
-10421.9, 89113.1, -3.53036, 2.55725, -765.599, -0.0307919, 0.248261, 1.03299, 0.34851, 0.655882, 0.0001, 45.5, 246, 12.8166, 0.0354288, 0, 0, 1, 0, 62763
-10421.9, 89113.1, -3.53036, 2.55725, -765.599, -0.0307919, 0.248261, 1.03299, 0.34851, 0.655882, 3, 45.5, 246, 12.8166, 0.0354288, 0, 0, 1, 0, 62763
-6538.11, 122864, -77.6571, 3.27182, -785.914, 0.0925235, 0.256285, 0.9175, 0.352806, 0.64323, 3, 455, 246, 12.8166, 0.0354288, 0, 0, 1, 0, 62763
-6912.79, 115805, -220.358, 3.43024, -638.21, 0.69178, 0.23225, 1.03299, 0.34851, 0.655882, 0.0001, 45.5, 246, 44.3614, 0.163601, 1.29298, 1, 0, 0, 62764
-6912.79, 115805, -220.358, 3.43024, -638.21, 0.69178, 0.23225, 1.03299, 0.34851, 0.655882, 3, 45.5, 246, 44.3614, 0.163601, 1.17628, 1, 0, 0, 62764
-4574.78, 129722, -263.786, 3.90031, -744.68, 0.842819, 0.249239, 0.993198, 0.349787, 0.651995, 0.0001, 91, 246, 44.3614, 0.163601, 1.3256, 1, 1, 0, 62764
-4574.78, 129722, -263.786, 3.90031, -744.68, 0.842819, 0.249239, 0.993198, 0.349787, 0.651995, 3, 91, 246, 44.3614, 0.163601, 1.17799, 1, 1, 0, 62764
-1333.62, 149686, -322.113, 4.51506, -899.351, 1.06186, 0.29334, 0.958125, 0.351078, 0.648177, 0.0001, 182, 246, 44.3614, 0.163601, 1.82445, 1, 0, 0, 62764
-1333.62, 149686, -322.113, 4.51506, -899.351, 1.06186, 0.29334, 0.958125, 0.351078, 0.648177, 3, 182, 246, 44.3614, 0.163601, 1.69322, 1, 0, 0, 62764
-10615.7, 116296, -54.0086, 2.5754, -761.691, 0.00452295, 0.25855, 1.03299, 0.34851, 0.655882, 0.0001, 45.5, 246, 21.3897, 0.0767748, 0, 0, 1, 0, 62766
-10615.7, 116296, -54.0086, 2.5754, -761.691, 0.00452295, 0.25855, 1.03299, 0.34851, 0.655882, 3, 45.5, 246, 21.3897, 0.0767748, 0, 0, 1, 0, 62766
-10486.8, 432357, -331.68, 0.875382, -1034.14, 0.294948, 0.570661, 1.03299, 0.34851, 0.655882, 3, 45.5, 246, 42.1255, 0.190936, 0, 0, 0, 0, 62770
-7545.3, 62430.5, -104.369, 3.26041, -592.68, 0.00810096, 0.208966, 1.03299, 0.34851, 0.655882, 0.0001, 45.5, 246, 31.8723, 0.0989905, 0, 0, 1, 0, 62772
-7545.3, 62430.5, -104.369, 3.26041, -592.68, 0.00810096, 0.208966, 1.03299, 0.34851, 0.655882, 3, 45.5, 246, 31.8723, 0.0989905, 0, 0, 1, 0, 62772
-9372.1, 241780, -345.723, 3.68374, -544.401, 0.0201674, 0.360538, 0.993198, 0.349787, 0.651995, 0.0001, 91, 246, 42.3715, 0.198239, 1.10211, 1, 1, 0, 62774
-4165.49, 250021, -399.758, 4.05677, -586.97, 0.0862481, 0.400182, 0.958125, 0.351078, 0.648177, 0.0001, 182, 246, 42.3715, 0.198239, 1.63534, 1, 0, 0, 62774
-4165.49, 250021, -399.758, 4.05677, -586.97, 0.0862481, 0.400182, 0.958125, 0.351078, 0.648177, 3, 182, 246, 42.3715, 0.198239, 1.47355, 1, 0, 0, 62774
-10557.3, 205603, -102.657, 1.55889, -1179.21, -0.00599282, 0.355609, 1.03299, 0.34851, 0.655882, 3, 45.5, 246, 30.372, 0.115768, 0, 0, 1, 0, 62775
-9175.82, 230050, -125.533, 1.64689, -1183.93, 0.00528455, 0.33206, 0.993198, 0.349787, 0.651995, 0.0001, 91, 246, 30.372, 0.115768, 0, 0, 1, 0, 62775
-7409.3, 255055, -150.647, 1.73954, -1192.24, 0.0178884, 0.314876, 0.958125, 0.351078, 0.648177, 0.0001, 182, 246, 30.372, 0.115768, 0, 0, 1, 0, 62775
-10813.9, 509837, -237.648, 0.588245, -784.134, 0.0134223, 0.444596, 1.03299, 0.34851, 0.655882, 0.0001, 45.5, 246, 29.9088, 0.120799, 0, 0, 0, 0, 62778
-8449.83, 120229, -166.008, 3.60427, -836.055, -0.0438938, 0.209581, 1.03299, 0.34851, 0.655882, 3, 45.5, 246, 39.7295, 0.146844, 0, 0, 0, 0, 62782
-6221.49, 132763, -210.74, 3.93942, -852.914, 0.0185135, 0.22889, 0.993198, 0.349787, 0.651995, 3, 91, 246, 39.7295, 0.146844, 0, 0, 1, 0, 62782
-3297.11, 147044, -264.795, 4.34466, -886.336, 0.0941828, 0.26955, 0.958125, 0.351078, 0.648177, 0.0001, 182, 246, 39.7295, 0.146844, 1.07879, 1, 1, 0, 62782
2096.02, 170703, -357.628, 5.04222, -967.115, 0.226634, 0.36401, 0.9175, 0.352806, 0.64323, 0.0001, 455, 246, 39.7295, 0.146844, 4.26627, 1, 0, 0, 62782
2096.02, 170703, -357.628, 5.04222, -967.115, 0.226634, 0.36401, 0.9175, 0.352806, 0.64323, 3, 455, 246, 39.7295, 0.146844, 4.31856, 1, 0, 0, 62782
-9714.02, 316474, -76.2107, 0.781809, -941.396, 0.0782087, 0.315329, 0.993198, 0.349787, 0.651995, 0.0001, 91, 246, 21.7306, 0.0582812, 0, 0, 1, 0, 62786
-8338.87, 248039, -263.928, 1.31866, -812.384, 0.0474954, 0.522773, 0.993198, 0.349787, 0.651995, 0.0001, 91, 246, 42.8989, 0.246082, 0, 0, 1, 0, 62788
-11300.2, 696554, -2.48372, 0.254406, -749.821, 0.108713, 0.339506, 1.03299, 0.34851, 0.655882, 0.0001, 45.5, 246, 16.2828, 0.00190215, 0, 0, 1, 0, 62801
-10789.5, 710618, -4.30837, 0.263877, -762.968, 0.110914, 0.303418, 0.993198, 0.349787, 0.651995, 0.0001, 91, 246, 16.2828, 0.00190215, 0, 0, 1, 0, 62801
-8861.64, 70230.3, -34.0174, 1.11244, -608.742, 0.531433, 0.279624, 0.958125, 0.351078, 0.648177, 0.0001, 182, 246, 13.484, 0.0698435, 0, 0, 1, 0, 62807
-8861.64, 70230.3, -34.0174, 1.11244, -608.742, 0.531433, 0.279624, 0.958125, 0.351078, 0.648177, 3, 182, 246, 13.484, 0.0698435, 0, 0, 1, 0, 62807
-8570.41, 82751.5, -44.9275, 1.2226, -687.042, 0.606692, 0.251277, 0.9175, 0.352806, 0.64323, 0.0001, 455, 246, 13.484, 0.0698435, 0, 0, 1, 0, 62807
-8570.41, 82751.5, -44.9275, 1.2226, -687.042, 0.606692, 0.251277, 0.9175, 0.352806, 0.64323, 3, 455, 246, 13.484, 0.0698435, 0, 0, 1, 0, 62807
-10128.6, 968205, -40.0821, 0.16625, -699.202, 0.0581527, 0.305618, 0.993198, 0.349787, 0.651995, 0.0001, 91, 246, 17.5369, 0.0103551, 0, 0, 1, 0, 62808
-8385.67, 35617.2, -18.1114, 3.30926, -840.035, 0.301247, 0.186731, 1.03299, 0.34851, 0.655882, 0.0001, 45.5, 246, 17.9943, 0.0531745, 1.16612, 1, 1, 0, 62811
-12280, 247690, -62.5887, 1.33509, -584.05, 0.59199, 0.32516, 1.03299, 0.34851, 0.655882, 0.0001, 45.5, 246, 16.8588, 0.0566791, 0, 0, 1, 0, 62817
-12280, 247690, -62.5887, 1.33509, -584.05, 0.59199, 0.32516, 1.03299, 0.34851, 0.655882, 3, 45.5, 246, 16.8588, 0.0566791, 0, 0, 1, 0, 62817
-9361.39, 280718, -86.6489, 1.58328, -727.061, 0.751225, 0.274442, 0.958125, 0.351078, 0.648177, 0.0001, 182, 246, 16.8588, 0.0566791, 0, 0, 1, 0, 62817
-9023.72, 88820.5, -83.2733, 2.72986, -815.082, -0.00922953, 0.264325, 1.03299, 0.34851, 0.655882, 0.0001, 45.5, 246, 28.8741, 0.111006, 0, 0, 1, 0, 62819
-9023.72, 88820.5, -83.2733, 2.72986, -815.082, -0.00922953, 0.264325, 1.03299, 0.34851, 0.655882, 3, 45.5, 246, 28.8741, 0.111006, 0, 0, 1, 0, 62819
-17238.5, 321032, -449.521, 3.01064, -602.998, 0.610846, 0.557678, 1.03299, 0.34851, 0.655882, 0.0001, 45.5, 246, 49.1332, 0.242795, 1.04864, 1, 0, 0, 62824
-11025, 343454, -510.626, 3.40832, -712.485, 0.726076, 0.586925, 0.993198, 0.349787, 0.651995, 0.0001, 91, 246, 49.1332, 0.242795, 1.41282, 1, 1, 0, 62824
-11025, 343454, -510.626, 3.40832, -712.485, 0.726076, 0.586925, 0.993198, 0.349787, 0.651995, 3, 91, 246, 49.1332, 0.242795, 1.33884, 1, 1, 0, 62824
-8950.44, 109995, -103.405, 3.22317, -501.915, 0.176146, 0.224337, 0.993198, 0.349787, 0.651995, 0.0001, 91, 246, 22.4749, 0.0832806, 0, 0, 1, 0, 62831
-8950.44, 109995, -103.405, 3.22317, -501.915, 0.176146, 0.224337, 0.993198, 0.349787, 0.651995, 3, 91, 246, 22.4749, 0.0832806, 0, 0, 1, 0, 62831
-7647.82, 119313, -179.979, 3.25564, -884.964, -0.0284068, 0.273692, 1.03299, 0.34851, 0.655882, 3, 45.5, 246, 43.7603, 0.176016, 0, 0, 1, 0, 62837
-2826.48, 149570, -275.628, 3.88238, -934.314, 0.0831098, 0.314018, 0.958125, 0.351078, 0.648177, 0.0001, 182, 246, 43.7603, 0.176016, 1.27619, 1, 1, 0, 62837
-2826.48, 149570, -275.628, 3.88238, -934.314, 0.0831098, 0.314018, 0.958125, 0.351078, 0.648177, 3, 182, 246, 43.7603, 0.176016, 1.06906, 1, 1, 0, 62837
-6008.84, 221893, -346.529, 3.19536, -886.468, 0.0198688, 0.459918, 0.993198, 0.349787, 0.651995, 0.0001, 91, 246, 51.5128, 0.245336, 1.12516, 1, 1, 0, 62838
-1501.58, 239060, -405.754, 3.49394, -925.805, 0.069217, 0.490275, 0.958125, 0.351078, 0.648177, 0.0001, 182, 246, 51.5128, 0.245336, 2.62437, 1, 0, 0, 62838
-1501.58, 239060, -405.754, 3.49394, -925.805, 0.069217, 0.490275, 0.958125, 0.351078, 0.648177, 3, 182, 246, 51.5128, 0.245336, 2.42979, 1, 0, 0, 62838
-11127.8, 276673, -108.992, 1.14943, -934.403, 0.186753, 0.362111, 1.03299, 0.34851, 0.655882, 0.0001, 45.5, 246, 26.4979, 0.0954969, 0, 0, 1, 0, 62846
-11127.8, 276673, -108.992, 1.14943, -934.403, 0.186753, 0.362111, 1.03299, 0.34851, 0.655882, 3, 45.5, 246, 26.4979, 0.0954969, 0, 0, 1, 0, 62846
-9805.1, 295457, -124.425, 1.21787, -966.975, 0.198768, 0.333738, 0.993198, 0.349787, 0.651995, 3, 91, 246, 26.4979, 0.0954969, 0, 0, 1, 0, 62846
-8188.86, 315906, -141.421, 1.28956, -1003.33, 0.212336, 0.310799, 0.958125, 0.351078, 0.648177, 0.0001, 182, 246, 26.4979, 0.0954969, 0, 0, 1, 0, 62846
-7089.89, 5368.18, -49.9448, 3.51374, -1057.23, 0.102786, 0.227847, 0.993198, 0.349787, 0.651995, 3, 91, 246, 21.8263, 0.0515469, 0, 0, 1, 1, 62853
-10526, 1.22488e+06, -214.52, 0.122903, -447.146, 0.692397, 0.37096, 1.03299, 0.34851, 0.655882, 0.0001, 45.5, 246, 16.2116, 0.0387197, 0, 0, 1, 0, 62857
-10526, 1.22488e+06, -214.52, 0.122903, -447.146, 0.692397, 0.37096, 1.03299, 0.34851, 0.655882, 3, 45.5, 246, 16.2116, 0.0387197, 0, 0, 1, 0, 62857
-8682.59, 1.34112e+06, -228.094, 0.141145, -574.161, 0.886548, 0.307199, 0.958125, 0.351078, 0.648177, 3, 182, 246, 16.2116, 0.0387197, 0, 0, 1, 0, 62857
-10531.2, 223641, -191.139, 1.54557, -804.607, 0.230406, 0.434174, 1.03299, 0.34851, 0.655882, 0.0001, 45.5, 246, 36.4996, 0.185899, 0, 0, 1, 0, 62858
-10531.2, 223641, -191.139, 1.54557, -804.607, 0.230406, 0.434174, 1.03299, 0.34851, 0.655882, 3, 45.5, 246, 36.4996, 0.185899, 0, 0, 1, 0, 62858
-8827.76, 238942, -214.274, 1.65716, -844.455, 0.250789, 0.4168, 0.993198, 0.349787, 0.651995, 3, 91, 246, 36.4996, 0.185899, 0, 0, 1, 0, 62858
-6679.71, 69018.4, -99.1, 3.48477, -575.171, 0.109607, 0.270087, 0.9175, 0.352806, 0.64323, 3, 455, 246, 16.8132, 0.0550848, 0, 0, 1, 0, 62863
-10766.8, 167825, -104.436, 1.73598, -656.786, 0.657635, 0.335305, 1.03299, 0.34851, 0.655882, 0.0001, 45.5, 246, 25.3869, 0.112906, 0, 0, 1, 0, 62864
-10766.8, 167825, -104.436, 1.73598, -656.786, 0.657635, 0.335305, 1.03299, 0.34851, 0.655882, 3, 45.5, 246, 25.3869, 0.112906, 0, 0, 1, 0, 62864
-9123.09, 508917, -377.95, 0.0436166, -578.342, 0.244323, 0.608252, 1.03299, 0.34851, 0.655882, 0.0001, 45.5, 246, 34.1036, 0.190541, 0, 0, 0, 0, 62865
-8010.86, 524402, -391.408, 0.0457389, -602.029, 0.254144, 0.595448, 0.993198, 0.349787, 0.651995, 0.0001, 91, 246, 34.1036, 0.190541, 0, 0, 1, 0, 62865
-8975.51, 275955, -181.398, 0.914323, -777.758, 0.346627, 0.400485, 0.993198, 0.349787, 0.651995, 0.0001, 91, 246, 30.4027, 0.153603, 0, 0, 1, 0, 62870
-10145.5, 184638, -88.5755, 1.28717, -1008.53, 0.598987, 0.353604, 1.03299, 0.34851, 0.655882, 0.0001, 45.5, 246, 26.9095, 0.104302, 0, 0, 1, 0, 62875
-10145.5, 184638, -88.5755, 1.28717, -1008.53, 0.598987, 0.353604, 1.03299, 0.34851, 0.655882, 3, 45.5, 246, 26.9095, 0.104302, 0, 0, 1, 0, 62875
-10339.7, 305829, -207.097, 1.01913, -923.089, 0.234478, 0.454927, 1.03299, 0.34851, 0.655882, 0.0001, 45.5, 246, 35.2459, 0.164296, 0, 0, 0, 0, 62883
-10339.7, 305829, -207.097, 1.01913, -923.089, 0.234478, 0.454927, 1.03299, 0.34851, 0.655882, 3, 45.5, 246, 35.2459, 0.164296, 0, 0, 0, 0, 62883
-8753.12, 326132, -226.169, 1.0828, -965.084, 0.248534, 0.432648, 0.993198, 0.349787, 0.651995, 3, 91, 246, 35.2459, 0.164296, 0, 0, 1, 0, 62883
-8758.3, 162739, -256.773, 2.52308, -495.942, -0.0298792, 0.42781, 1.03299, 0.34851, 0.655882, 0.0001, 45.5, 246, 47.0502, 0.240043, 1.04612, 1, 1, 0, 62891
-3617.31, 174429, -325.44, 2.93749, -537.83, 0.0353882, 0.442832, 0.958125, 0.351078, 0.648177, 0.0001, 182, 246, 47.0502, 0.240043, 1.19357, 1, 1, 0, 62891
1022.33, 185283, -383.317, 3.28241, -583.434, 0.0922267, 0.479573, 0.9175, 0.352806, 0.64323, 0.0001, 455, 246, 47.0502, 0.240043, 2.27802, 1, 0, 0, 62891
1022.33, 185283, -383.317, 3.28241, -583.434, 0.0922267, 0.479573, 0.9175, 0.352806, 0.64323, 3, 455, 246, 47.0502, 0.240043, 2.2785, 1, 0, 0, 62891
-10598.7, 1.04099e+06, -89.9833, 0.238066, -1086.05, 0.000327373, 0.347254, 1.03299, 0.34851, 0.655882, 0.0001, 45.5, 246, 28.2481, 0.0225002, 0, 0, 1, 0, 62900
-10598.7, 1.04099e+06, -89.9833, 0.238066, -1086.05, 0.000327373, 0.347254, 1.03299, 0.34851, 0.655882, 3, 45.5, 246, 28.2481, 0.0225002, 0, 0, 1, 0, 62900
-8437.53, 742134, -316.113, 0.0529914, -568.438, 0.61048, 0.455495, 1.03299, 0.34851, 0.655882, 0.0001, 45.5, 246, 24.6596, 0.0982195, 0, 0, 1, 0, 62901
-8437.53, 742134, -316.113, 0.0529914, -568.438, 0.61048, 0.455495, 1.03299, 0.34851, 0.655882, 3, 45.5, 246, 24.6596, 0.0982195, 0, 0, 1, 0, 62901
-7585.6, 775882, -326.145, 0.056503, -629.616, 0.675673, 0.428234, 0.993198, 0.349787, 0.651995, 0.0001, 91, 246, 24.6596, 0.0982195, 0, 0, 1, 0, 62901
-7165.79, -17584.1, 4.19076, 3.19431, -976.006, -0.0484912, 0.219412, 1.03299, 0.34851, 0.655882, 0.0001, 45.5, 246, 14.3204, 0.0515114, 0, 0, 1, 1, 62911
-7165.79, -17584.1, 4.19076, 3.19431, -976.006, -0.0484912, 0.219412, 1.03299, 0.34851, 0.655882, 3, 45.5, 246, 14.3204, 0.0515114, 0, 0, 1, 1, 62911
-12778.9, 779557, -8.10716, 0.35709, -978.726, 0.114211, 0.338226, 1.03299, 0.34851, 0.655882, 0.0001, 45.5, 246, 21.8536, 0.00418479, 0, 0, 1, 0, 62923
-9507.97, 581200, -261.964, 0.178958, -508.884, 0.017523, 0.455187, 1.03299, 0.34851, 0.655882, 0.0001, 45.5, 246, 24.5805, 0.117308, 0, 0, 1, 0, 62932
-8684.07, 587534, -271.467, 0.185056, -511.584, 0.0177175, 0.428037, 0.993198, 0.349787, 0.651995, 0.0001, 91, 246, 24.5805, 0.117308, 0, 0, 1, 0, 62932
1289.7, 291197, -371.373, 3.88177, -943.567, 0.128136, 0.392203, 0.9175, 0.352806, 0.64323, 3, 455, 246, 37.4107, 0.159215, 0, 0, 0, 0, 62934
-4805.98, 110934, -241.796, 3.02529, -756.936, 0.314698, 0.342661, 1.03299, 0.34851, 0.655882, 0.0001, 45.5, 246, 55.1816, 0.233809, 1.47118, 1, 1, 0, 62937
-4805.98, 110934, -241.796, 3.02529, -756.936, 0.314698, 0.342661, 1.03299, 0.34851, 0.655882, 3, 45.5, 246, 55.1816, 0.233809, 1.33367, 1, 1, 0, 62937
-2654.03, 124993, -285.591, 3.3465, -822.019, 0.378023, 0.352493, 0.993198, 0.349787, 0.651995, 0.0001, 91, 246, 55.1816, 0.233809, 1.64971, 1, 1, 0, 62937
-2654.03, 124993, -285.591, 3.3465, -822.019, 0.378023, 0.352493, 0.993198, 0.349787, 0.651995, 3, 91, 246, 55.1816, 0.233809, 1.53392, 1, 1, 0, 62937
240.342, 142651, -339.694, 3.73388, -908.071, 0.460502, 0.380429, 0.958125, 0.351078, 0.648177, 0.0001, 182, 246, 55.1816, 0.233809, 2.61449, 1, 1, 0, 62937
240.342, 142651, -339.694, 3.73388, -908.071, 0.460502, 0.380429, 0.958125, 0.351078, 0.648177, 3, 182, 246, 55.1816, 0.233809, 2.46396, 1, 1, 0, 62937
-5808.2, 329121, -448.397, 3.76009, -646.644, 0.368824, 0.469166, 0.958125, 0.351078, 0.648177, 0.0001, 182, 246, 41.1264, 0.201644, 1.43787, 1, 0, 0, 62938
-5808.2, 329121, -448.397, 3.76009, -646.644, 0.368824, 0.469166, 0.958125, 0.351078, 0.648177, 3, 182, 246, 41.1264, 0.201644, 1.26662, 1, 0, 0, 62938
-9346.34, 720728, -336.451, 0.242971, -756.486, -2.31883e-05, 0.492916, 1.03299, 0.34851, 0.655882, 3, 45.5, 246, 31.0553, 0.121749, 0, 0, 0, 0, 62959
-10008.2, 741229, -152.382, 0.402385, -1179.24, 0.0280341, 0.369179, 1.03299, 0.34851, 0.655882, 0.0001, 45.5, 246, 31.2789, 0.0528537, 0, 0, 0, 0, 62965
-10008.2, 741229, -152.382, 0.402385, -1179.24, 0.0280341, 0.369179, 1.03299, 0.34851, 0.655882, 3, 45.5, 246, 31.2789, 0.0528537, 0, 0, 0, 0, 62965
-2354.61, 127136, -243.922, 5.0833, -1354.29, 0.645366, 0.327933, 0.9175, 0.352806, 0.64323, 0.0001, 455, 246, 28.5961, 0.0868935, 1.01132, 1, 0, 0, 62967
-2354.61, 127136, -243.922, 5.0833, -1354.29, 0.645366, 0.327933, 0.9175, 0.352806, 0.64323, 3, 455, 246, 28.5961, 0.0868935, 1.02138, 1, 0, 0, 62967
-10812, 609364, -42.0898, 0.318896, -837.073, 0.0277678, 0.342072, 1.03299, 0.34851, 0.655882, 0.0001, 45.5, 246, 19.2993, 0.0186974, 0, 0, 1, 0, 62972
-10812, 609364, -42.0898, 0.318896, -837.073, 0.0277678, 0.342072, 1.03299, 0.34851, 0.655882, 3, 45.5, 246, 19.2993, 0.0186974, 0, 0, 1, 0, 62972
-10194.4, 622610, -45.8851, 0.329748, -841.169, 0.0283541, 0.306341, 0.993198, 0.349787, 0.651995, 0.0001, 91, 246, 19.2993, 0.0186974, 0, 0, 1, 0, 62972
-8494.54, 818844, -147.294, 0.188367, -1021.23, 0.821879, 0.36183, 1.03299, 0.34851, 0.655882, 0.0001, 45.5, 246, 27.9425, 0.0391773, 0, 0, 1, 0, 62978
-7785.72, 879636, -153.728, 0.20337, -1174.5, 0.944744, 0.327243, 0.993198, 0.349787, 0.651995, 0.0001, 91, 246, 27.9425, 0.0391773, 0, 0, 1, 0, 62978
-9104.48, 287860, -111.24, 0.967197, -1152.7, 0.164375, 0.334439, 0.993198, 0.349787, 0.651995, 0.0001, 91, 246, 27.5706, 0.0911934, 0, 0, 1, 0, 62980
411.387, 215426, -374.342, 3.29661, -661.773, 0.107442, 0.456864, 0.9175, 0.352806, 0.64323, 0.0001, 455, 246, 42.9089, 0.216439, 1.7975, 1, 0, 0, 62982
411.387, 215426, -374.342, 3.29661, -661.773, 0.107442, 0.456864, 0.9175, 0.352806, 0.64323, 3, 455, 246, 42.9089, 0.216439, 1.8032, 1, 0, 0, 62982
-8262.25, 242846, -366.86, 3.3656, -603.792, 0.00339066, 0.436763, 0.993198, 0.349787, 0.651995, 0.0001, 91, 246, 46.4907, 0.225991, 1.18139, 1, 1, 0, 62992
-8262.25, 242846, -366.86, 3.3656, -603.792, 0.00339066, 0.436763, 0.993198, 0.349787, 0.651995, 3, 91, 246, 46.4907, 0.225991, 1.03767, 1, 1, 0, 62992
-3239.21, 252402, -421.39, 3.68703, -643.273, 0.0580448, 0.470856, 0.958125, 0.351078, 0.648177, 0.0001, 182, 246, 46.4907, 0.225991, 1.97622, 1, 0, 0, 62992
-3239.21, 252402, -421.39, 3.68703, -643.273, 0.0580448, 0.470856, 0.958125, 0.351078, 0.648177, 3, 182, 246, 46.4907, 0.225991, 1.81505, 1, 0, 0, 62992
-10026.3, 146662, -136.369, 2.57424, -934.904, 0.53575, 0.304696, 1.03299, 0.34851, 0.655882, 0.0001, 45.5, 246, 34.7719, 0.143022, 0, 0, 0, 0, 62994
-5612.91, 196358, -214.935, 3.19491, -1167.96, 0.732593, 0.308148, 0.958125, 0.351078, 0.648177, 0.0001, 182, 246, 34.7719, 0.143022, 0, 0, 1, 0, 62994
-5612.91, 196358, -214.935, 3.19491, -1167.96, 0.732593, 0.308148, 0.958125, 0.351078, 0.648177, 3, 182, 246, 34.7719, 0.143022, 0, 0, 1, 0, 62994
2.69878, 204481, -322.57, 4.23359, -842.159, 0.310366, 0.358333, 0.9175, 0.352806, 0.64323, 0.0001, 455, 246, 35.6366, 0.149368, 1.32, 1, 0, 0, 62998
2.69878, 204481, -322.57, 4.23359, -842.159, 0.310366, 0.358333, 0.9175, 0.352806, 0.64323, 3, 455, 246, 35.6366, 0.149368, 1.33064, 1, 0, 0, 62998
