-9232.57, 71194.8, 1.14103, 0.81318, -929.291, -0.00302919, 0.337298, 1.03299, 0.34851, 0.655882, 0.0001, 45.5, 246, 9.44439, 0.0227709, 0, 0, 1, 0, 42501
-9232.57, 71194.8, 1.14103, 0.81318, -929.291, -0.00302919, 0.337298, 1.03299, 0.34851, 0.655882, 3, 45.5, 246, 9.44439, 0.0227709, 0, 0, 1, 0, 42501
-12033.8, 207818, -288.211, 3.57406, -615.961, 0.332957, 0.284878, 1.03299, 0.34851, 0.655882, 0.0001, 45.5, 246, 43.4928, 0.186565, 1.07842, 1, 0, 0, 42516
-7883.96, 220483, -338.478, 3.99575, -685.455, 0.417787, 0.309421, 0.993198, 0.349787, 0.651995, 0.0001, 91, 246, 43.4928, 0.186565, 1.24652, 1, 1, 0, 42516
-7883.96, 220483, -338.478, 3.99575, -685.455, 0.417787, 0.309421, 0.993198, 0.349787, 0.651995, 3, 91, 246, 43.4928, 0.186565, 1.12094, 1, 1, 0, 42516
-2550.41, 237568, -402.451, 4.52377, -781.488, 0.532526, 0.359602, 0.958125, 0.351078, 0.648177, 0.0001, 182, 246, 43.4928, 0.186565, 2.31657, 1, 0, 0, 42516
-2550.41, 237568, -402.451, 4.52377, -781.488, 0.532526, 0.359602, 0.958125, 0.351078, 0.648177, 3, 182, 246, 43.4928, 0.186565, 2.15018, 1, 0, 0, 42516
-15069.9, 297486, -401.923, 3.27584, -680.205, -0.047559, 0.504388, 1.03299, 0.34851, 0.655882, 0.0001, 45.5, 246, 51.1763, 0.247943, 1.03202, 1, 0, 0, 42517
-9267.72, 308204, -462.421, 3.58573, -716.718, 0.00412555, 0.535276, 0.993198, 0.349787, 0.651995, 0.0001, 91, 246, 51.1763, 0.247943, 1.47878, 1, 1, 0, 42517
-9267.72, 308204, -462.421, 3.58573, -716.718, 0.00412555, 0.535276, 0.993198, 0.349787, 0.651995, 3, 91, 246, 51.1763, 0.247943, 1.40165, 1, 1, 0, 42517
-6377.05, 117552, -217.527, 2.61846, -780.621, 0.577787, 0.373183, 1.03299, 0.34851, 0.655882, 0.0001, 45.5, 246, 50.4664, 0.231488, 1.1869, 1, 1, 0, 42518
-4513.07, 134441, -255.601, 2.91981, -879.456, 0.672845, 0.374061, 0.993198, 0.349787, 0.651995, 0.0001, 91, 246, 50.4664, 0.231488, 1.19011, 1, 1, 0, 42518
-1940.03, 156855, -303.654, 3.28857, -1011.6, 0.800173, 0.390435, 0.958125, 0.351078, 0.648177, 0.0001, 182, 246, 50.4664, 0.231488, 1.65231, 1, 1, 0, 42518
-1940.03, 156855, -303.654, 3.28857, -1011.6, 0.800173, 0.390435, 0.958125, 0.351078, 0.648177, 3, 182, 246, 50.4664, 0.231488, 1.49054, 1, 1, 0, 42518
-9383.45, 422983, -299.342, 0.346606, -708.72, 0.0100407, 0.550348, 1.03299, 0.34851, 0.655882, 0.0001, 45.5, 246, 35.3173, 0.187636, 0, 0, 0, 0, 42520
-8176.84, 433677, -313.25, 0.360303, -712.731, 0.010606, 0.532296, 0.993198, 0.349787, 0.651995, 0.0001, 91, 246, 35.3173, 0.187636, 0, 0, 1, 0, 42520
-6792.27, 444654, -327.133, 0.37379, -717.059, 0.0112163, 0.518578, 0.958125, 0.351078, 0.648177, 0.0001, 182, 246, 35.3173, 0.187636, 0, 0, 0, 0, 42520
-9502.64, 415491, -271.947, 0.645391, -986.961, 0.825789, 0.488506, 1.03299, 0.34851, 0.655882, 0.0001, 45.5, 246, 36.3774, 0.149218, 0, 0, 0, 0, 42522
-9502.64, 415491, -271.947, 0.645391, -986.961, 0.825789, 0.488506, 1.03299, 0.34851, 0.655882, 3, 45.5, 246, 36.3774, 0.149218, 0, 0, 0, 0, 42522
-11594.3, 210455, -8.99053, 1.23977, -546.097, 0.104233, 0.317904, 1.03299, 0.34851, 0.655882, 0.0001, 45.5, 246, 10.0886, 0.0179646, 0, 0, 1, 0, 42523
-11594.3, 210455, -8.99053, 1.23977, -546.097, 0.104233, 0.317904, 1.03299, 0.34851, 0.655882, 3, 45.5, 246, 10.0886, 0.0179646, 0, 0, 1, 0, 42523
-10685.6, 216760, -15.7428, 1.30831, -555.97, 0.113224, 0.287347, 0.993198, 0.349787, 0.651995, 0.0001, 91, 246, 10.0886, 0.0179646, 0, 0, 1, 0, 42523
-7134.82, 51808.3, -89.3404, 3.11554, -925.904, 0.547926, 0.244346, 0.993198, 0.349787, 0.651995, 3, 91, 246, 28.5764, 0.089014, 0, 0, 1, 0, 42525
-2403.62, 97013.2, -233.743, 3.99591, -1165.96, 0.0676436, 0.283117, 0.958125, 0.351078, 0.648177, 0.0001, 182, 246, 46.4948, 0.151508, 1.38008, 1, 1, 0, 42531
-2403.62, 97013.2, -233.743, 3.99591, -1165.96, 0.0676436, 0.283117, 0.958125, 0.351078, 0.648177, 3, 182, 246, 46.4948, 0.151508, 1.21331, 1, 1, 0, 42531
1339.16, 133057, -329.304, 4.58353, -1237.71, 0.177063, 0.357107, 0.9175, 0.352806, 0.64323, 0.0001, 455, 246, 46.4948, 0.151508, 0, 0, 0, 0, 42531
-12249.4, 237638, -166.989, 3.84992, -802.536, 0.17194, 0.190104, 0.993198, 0.349787, 0.651995, 0.0001, 91, 246, 28.0064, 0.0974276, 0, 0, 1, 0, 42532
-12249.4, 237638, -166.989, 3.84992, -802.536, 0.17194, 0.190104, 0.993198, 0.349787, 0.651995, 3, 91, 246, 28.0064, 0.0974276, 0, 0, 1, 0, 42532
649.744, 372381, -350.949, 3.76725, -1258.59, 1.17365, 0.369445, 0.9175, 0.352806, 0.64323, 3, 455, 246, 32.3339, 0.134241, 0, 0, 0, 0, 42537
-8724.91, 245356, -222.003, 1.19849, -782.081, 0.587501, 0.450529, 0.993198, 0.349787, 0.651995, 0.0001, 91, 246, 36.1015, 0.199495, 0, 0, 1, 0, 42538
-10450.1, 345423, -462.06, 3.4681, -829.537, 0.106716, 0.539092, 0.993198, 0.349787, 0.651995, 0.0001, 91, 246, 49.9401, 0.236536, 1.18495, 1, 1, 0, 42550
-10450.1, 345423, -462.06, 3.4681, -829.537, 0.106716, 0.539092, 0.993198, 0.349787, 0.651995, 3, 91, 246, 49.9401, 0.236536, 1.08478, 1, 1, 0, 42550
-8533.77, 308040, -443.74, 3.78368, -884.155, 0.013292, 0.48706, 0.993198, 0.349787, 0.651995, 0.0001, 91, 246, 51.7863, 0.236408, 1.42494, 1, 1, 0, 42552
-8533.77, 308040, -443.74, 3.78368, -884.155, 0.013292, 0.48706, 0.993198, 0.349787, 0.651995, 3, 91, 246, 51.7863, 0.236408, 1.34382, 1, 1, 0, 42552
-11178.4, 175665, -91.4676, 2.12442, -1094.43, 0.42107, 0.311827, 1.03299, 0.34851, 0.655882, 0.0001, 45.5, 246, 29.109, 0.105257, 0, 0, 1, 0, 42553
-11178.4, 175665, -91.4676, 2.12442, -1094.43, 0.42107, 0.311827, 1.03299, 0.34851, 0.655882, 3, 45.5, 246, 29.109, 0.105257, 0, 0, 1, 0, 42553
-9511.43, 161188, -134.299, 1.80569, -1131.89, 0.0490152, 0.382471, 1.03299, 0.34851, 0.655882, 0.0001, 45.5, 246, 36.4562, 0.170566, 0, 0, 1, 0, 42556
-9511.43, 161188, -134.299, 1.80569, -1131.89, 0.0490152, 0.382471, 1.03299, 0.34851, 0.655882, 3, 45.5, 246, 36.4562, 0.170566, 0, 0, 1, 0, 42556
-8148.87, 184628, -161.875, 1.92369, -1149.38, 0.0647829, 0.365087, 0.993198, 0.349787, 0.651995, 0.0001, 91, 246, 36.4562, 0.170566, 0, 0, 1, 0, 42556
-6340.48, 209330, -192.777, 2.05109, -1172.16, 0.082972, 0.355122, 0.958125, 0.351078, 0.648177, 3, 182, 246, 36.4562, 0.170566, 0, 0, 1, 0, 42556
-11062.9, 143999, -51.004, 2.19655, -942.195, 0.0604707, 0.287068, 1.03299, 0.34851, 0.655882, 0.0001, 45.5, 246, 22.3914, 0.0765108, 0, 0, 1, 0, 42557
-11062.9, 143999, -51.004, 2.19655, -942.195, 0.0604707, 0.287068, 1.03299, 0.34851, 0.655882, 3, 45.5, 246, 22.3914, 0.0765108, 0, 0, 1, 0, 42557
1795.39, 232417, -368.115, 5.09427, -1030.3, 1.2584, 0.377608, 0.9175, 0.352806, 0.64323, 0.0001, 455, 246, 34.7359, 0.141604, 3.91882, 1, 0, 0, 42565
1795.39, 232417, -368.115, 5.09427, -1030.3, 1.2584, 0.377608, 0.9175, 0.352806, 0.64323, 3, 455, 246, 34.7359, 0.141604, 4.13116, 1, 0, 0, 42565
-8744.11, 415161, -142.138, 0.506285, -915.206, 0.00278283, 0.349369, 0.993198, 0.349787, 0.651995, 0.0001, 91, 246, 26.3054, 0.0858153, 0, 0, 1, 0, 42574
-2012.71, 267228, -226.862, 4.97784, -785.832, 0.209754, 0.277635, 0.9175, 0.352806, 0.64323, 0.0001, 455, 246, 22.6264, 0.0713832, 0, 0, 0, 0, 42576
-2012.71, 267228, -226.862, 4.97784, -785.832, 0.209754, 0.277635, 0.9175, 0.352806, 0.64323, 3, 455, 246, 22.6264, 0.0713832, 0, 0, 0, 0, 42576
-10202.3, 437872, -174.925, 0.569035, -832.935, 0.262825, 0.402101, 1.03299, 0.34851, 0.655882, 0.0001, 45.5, 246, 27.4922, 0.0991105, 0, 0, 1, 0, 42583
-10202.3, 437872, -174.925, 0.569035, -832.935, 0.262825, 0.402101, 1.03299, 0.34851, 0.655882, 3, 45.5, 246, 27.4922, 0.0991105, 0, 0, 1, 0, 42583
-1866.41, 294597, -433.378, 3.95748, -1044.16, 0.0810172, 0.456366, 0.958125, 0.351078, 0.648177, 3, 182, 246, 48.8424, 0.214901, 0, 0, 0, 0, 42587
-7335.3, 125878, -209.534, 3.27577, -835.751, 0.646993, 0.26893, 1.03299, 0.34851, 0.655882, 0.0001, 45.5, 246, 45.3504, 0.17781, 1.12594, 1, 0, 0, 42590
-4945.56, 145552, -256.909, 3.70648, -957.535, 0.7802, 0.282695, 0.993198, 0.349787, 0.651995, 0.0001, 91, 246, 45.3504, 0.17781, 1.19195, 1, 1, 0, 42590
-1532.71, 173030, -320.051, 4.26032, -1130.63, 0.969261, 0.320715, 0.958125, 0.351078, 0.648177, 0.0001, 182, 246, 45.3504, 0.17781, 1.85941, 1, 0, 0, 42590
-1532.71, 173030, -320.051, 4.26032, -1130.63, 0.969261, 0.320715, 0.958125, 0.351078, 0.648177, 3, 182, 246, 45.3504, 0.17781, 1.70263, 1, 0, 0, 42590
-8332.6, 142435, -156.654, 1.69465, -563.702, 0.229574, 0.36907, 0.993198, 0.349787, 0.651995, 0.0001, 91, 246, 33.7316, 0.186786, 0, 0, 1, 0, 42599
-8332.6, 142435, -156.654, 1.69465, -563.702, 0.229574, 0.36907, 0.993198, 0.349787, 0.651995, 3, 91, 246, 33.7316, 0.186786, 0, 0, 1, 0, 42599
-7162.21, 150403, -174.87, 1.81552, -593.347, 0.252241, 0.355445, 0.958125, 0.351078, 0.648177, 0.0001, 182, 246, 33.7316, 0.186786, 0, 0, 1, 0, 42599
-7162.21, 150403, -174.87, 1.81552, -593.347, 0.252241, 0.355445, 0.958125, 0.351078, 0.648177, 3, 182, 246, 33.7316, 0.186786, 0, 0, 1, 0, 42599
-11518.1, 174394, -36.762, 1.82136, -973.546, 0.0321257, 0.302329, 1.03299, 0.34851, 0.655882, 0.0001, 45.5, 246, 20.1375, 0.0580864, 0, 0, 1, 0, 42600
-11518.1, 174394, -36.762, 1.82136, -973.546, 0.0321257, 0.302329, 1.03299, 0.34851, 0.655882, 3, 45.5, 246, 20.1375, 0.0580864, 0, 0, 1, 0, 42600
-8501.62, 62469.8, -55.5293, 3.36693, -1147.8, -0.053501, 0.203021, 1.03299, 0.34851, 0.655882, 0.0001, 45.5, 246, 28.2704, 0.0949194, 1.14768, 1, 0, 0, 42606
-7498.08, 85104.4, -97.3357, 3.65977, -1149.93, 0.000747212, 0.213475, 0.993198, 0.349787, 0.651995, 0.0001, 91, 246, 28.2704, 0.0949194, 0, 0, 1, 0, 42606
-7498.08, 85104.4, -97.3357, 3.65977, -1149.93, 0.000747212, 0.213475, 0.993198, 0.349787, 0.651995, 3, 91, 246, 28.2704, 0.0949194, 0, 0, 1, 0, 42606
185.242, 403794, -463.179, 2.06793, -978.106, 0.741648, 0.610294, 0.9175, 0.352806, 0.64323, 3, 455, 246, 42.3692, 0.232087, 0, 0, 0, 0, 42608
-9141.5, 88229.1, -91.8203, 3.28242, -652.579, 0.0219117, 0.201754, 1.03299, 0.34851, 0.655882, 0.0001, 45.5, 246, 27.5604, 0.0940418, 0, 0, 1, 0, 42615
-9141.5, 88229.1, -91.8203, 3.28242, -652.579, 0.0219117, 0.201754, 1.03299, 0.34851, 0.655882, 3, 45.5, 246, 27.5604, 0.0940418, 0, 0, 1, 0, 42615
-10309.6, 102250, -46.1171, 2.82226, -977.163, 0.18296, 0.238241, 1.03299, 0.34851, 0.655882, 0.0001, 45.5, 246, 23.2613, 0.0773424, 0, 0, 1, 0, 42616
-10309.6, 102250, -46.1171, 2.82226, -977.163, 0.18296, 0.238241, 1.03299, 0.34851, 0.655882, 3, 45.5, 246, 23.2613, 0.0773424, 0, 0, 1, 0, 42616
-10511.4, 83233.1, 14.8288, 2.68283, -924.006, -0.0256117, 0.236656, 1.03299, 0.34851, 0.655882, 0.0001, 45.5, 246, 11.8313, 0.0272351, 0, 0, 1, 0, 42629
-10511.4, 83233.1, 14.8288, 2.68283, -924.006, -0.0256117, 0.236656, 1.03299, 0.34851, 0.655882, 3, 45.5, 246, 11.8313, 0.0272351, 0, 0, 1, 0, 42629
-6603.63, 939550, -357.796, 0.0339042, -808.005, 0.669685, 0.453421, 1.03299, 0.34851, 0.655882, 0.0001, 45.5, 246, 29.5174, 0.0856652, 0, 0, 0, 0, 42631
-6603.63, 939550, -357.796, 0.0339042, -808.005, 0.669685, 0.453421, 1.03299, 0.34851, 0.655882, 3, 45.5, 246, 29.5174, 0.0856652, 0, 0, 0, 0, 42631
-12128.7, 371074, -36.4367, 0.799881, -983.292, 0.625292, 0.334185, 1.03299, 0.34851, 0.655882, 0.0001, 45.5, 246, 20.6782, 0.0272652, 0, 0, 1, 0, 42633
-12128.7, 371074, -36.4367, 0.799881, -983.292, 0.625292, 0.334185, 1.03299, 0.34851, 0.655882, 3, 45.5, 246, 20.6782, 0.0272652, 0, 0, 1, 0, 42633
-11006.4, 403241, -45.6589, 0.862571, -1092.32, 0.697216, 0.300544, 0.993198, 0.349787, 0.651995, 3, 91, 246, 20.6782, 0.0272652, 0, 0, 1, 0, 42633
-8348.26, 585850, -150.594, 0.262147, -925.907, 0.996487, 0.337933, 0.993198, 0.349787, 0.651995, 0.0001, 91, 246, 23.5118, 0.0583189, 0, 0, 1, 0, 42637
-9994.9, 524111, -374.958, 0.346677, -739.319, 0.384653, 0.587465, 1.03299, 0.34851, 0.655882, 3, 45.5, 246, 36.1482, 0.177435, 0, 0, 0, 0, 42639
-10126.3, 143057, -78.8465, 1.86738, -1059.32, 0.152334, 0.327426, 1.03299, 0.34851, 0.655882, 0.0001, 45.5, 246, 27.7846, 0.111309, 0, 0, 1, 0, 42643
-10126.3, 143057, -78.8465, 1.86738, -1059.32, 0.152334, 0.327426, 1.03299, 0.34851, 0.655882, 3, 45.5, 246, 27.7846, 0.111309, 0, 0, 1, 0, 42643
-10740.9, 437103, -265.602, 0.598596, -712.209, 0.814659, 0.471883, 1.03299, 0.34851, 0.655882, 3, 45.5, 246, 30.6098, 0.137146, 0, 0, 0, 0, 42645
-7651.7, 83736.8, -135.842, 2.8571, -580.171, 0.387475, 0.261871, 1.03299, 0.34851, 0.655882, 0.0001, 45.5, 246, 36.1505, 0.135369, 0, 0, 1, 0, 42650
-7651.7, 83736.8, -135.842, 2.8571, -580.171, 0.387475, 0.261871, 1.03299, 0.34851, 0.655882, 3, 45.5, 246, 36.1505, 0.135369, 0, 0, 1, 0, 42650
-1936.22, 121825, -257.594, 4.12573, -828.899, 0.707535, 0.326904, 0.9175, 0.352806, 0.64323, 0.0001, 455, 246, 36.1505, 0.135369, 1.10146, 1, 1, 0, 42650
-1936.22, 121825, -257.594, 4.12573, -828.899, 0.707535, 0.326904, 0.9175, 0.352806, 0.64323, 3, 455, 246, 36.1505, 0.135369, 1.09004, 1, 1, 0, 42650
-9890.03, 148617, -88.5282, 3.74423, -1018.68, 0.617201, 0.18062, 0.993198, 0.349787, 0.651995, 0.0001, 91, 246, 23.4042, 0.0686622, 0, 0, 1, 0, 42656
-9890.03, 148617, -88.5282, 3.74423, -1018.68, 0.617201, 0.18062, 0.993198, 0.349787, 0.651995, 3, 91, 246, 23.4042, 0.0686622, 0, 0, 1, 0, 42656
-7138.35, 174544, -136.525, 4.25183, -1147.55, 0.761571, 0.213155, 0.958125, 0.351078, 0.648177, 0.0001, 182, 246, 23.4042, 0.0686622, 0, 0, 0, 0, 42656
-7138.35, 174544, -136.525, 4.25183, -1147.55, 0.761571, 0.213155, 0.958125, 0.351078, 0.648177, 3, 182, 246, 23.4042, 0.0686622, 0, 0, 0, 0, 42656
-10708.8, 270483, -100.855, 0.888236, -647.171, -0.00343204, 0.364843, 1.03299, 0.34851, 0.655882, 0.0001, 45.5, 246, 21.6844, 0.092897, 0, 0, 1, 0, 42657
-10708.8, 270483, -100.855, 0.888236, -647.171, -0.00343204, 0.364843, 1.03299, 0.34851, 0.655882, 3, 45.5, 246, 21.6844, 0.092897, 0, 0, 1, 0, 42657
-9795.14, 277871, -110.551, 0.92708, -649.529, 0.000185376, 0.334052, 0.993198, 0.349787, 0.651995, 0.0001, 91, 246, 21.6844, 0.092897, 0, 0, 1, 0, 42657
-7766.6, 100375, -142.413, 2.1425, -844.542, 0.0747572, 0.367504, 1.03299, 0.34851, 0.655882, 0.0001, 45.5, 246, 42.2544, 0.210958, 0, 0, 1, 0, 42671
-7766.6, 100375, -142.413, 2.1425, -844.542, 0.0747572, 0.367504, 1.03299, 0.34851, 0.655882, 3, 45.5, 246, 42.2544, 0.210958, 0, 0, 1, 0, 42671
-10343.1, 211236, -200.167, 1.92879, -1020.18, 0.727576, 0.417183, 1.03299, 0.34851, 0.655882, 0.0001, 45.5, 246, 40.0475, 0.184113, 0, 0, 0, 0, 42675
-10343.1, 211236, -200.167, 1.92879, -1020.18, 0.727576, 0.417183, 1.03299, 0.34851, 0.655882, 3, 45.5, 246, 40.0475, 0.184113, 0, 0, 0, 0, 42675
1158.91, 253475, -406.681, 3.82392, -624.859, 0.130077, 0.44878, 0.9175, 0.352806, 0.64323, 0.0001, 455, 246, 39.2874, 0.19201, 1.97958, 1, 0, 0, 42676
1158.91, 253475, -406.681, 3.82392, -624.859, 0.130077, 0.44878, 0.9175, 0.352806, 0.64323, 3, 455, 246, 39.2874, 0.19201, 1.99832, 1, 0, 0, 42676
-11059.5, 810777, -115.804, 0.382028, -1080.07, 0.00508273, 0.354832, 1.03299, 0.34851, 0.655882, 0.0001, 45.5, 246, 28.1301, 0.0373404, 0, 0, 1, 0, 42678
-3559.97, 362317, -443.731, 4.33672, -1160.71, 0.473822, 0.404454, 0.958125, 0.351078, 0.648177, 3, 182, 246, 44.4321, 0.180694, 0, 0, 0, 0, 42681
-11171.8, 729951, -11.262, 0.547249, -1104.13, 0.00138807, 0.269324, 0.958125, 0.351078, 0.648177, 3, 182, 246, 23.1838, 0.00325396, 0, 0, 1, 0, 42682
-10330.6, 215433, -164.656, 1.55518, -929.055, 0.0519744, 0.410583, 1.03299, 0.34851, 0.655882, 0.0001, 45.5, 246, 35.4216, 0.170763, 0, 0, 1, 0, 42683
-10330.6, 215433, -164.656, 1.55518, -929.055, 0.0519744, 0.410583, 1.03299, 0.34851, 0.655882, 3, 45.5, 246, 35.4216, 0.170763, 0, 0, 1, 0, 42683
-8756.6, 231797, -187.768, 1.65049, -945.039, 0.0637771, 0.391295, 0.993198, 0.349787, 0.651995, 3, 91, 246, 35.4216, 0.170763, 0, 0, 1, 0, 42683
-6812.72, 249158, -213.211, 1.75183, -964.632, 0.0772599, 0.378465, 0.958125, 0.351078, 0.648177, 0.0001, 182, 246, 35.4216, 0.170763, 0, 0, 1, 0, 42683
-3154.13, 242674, -196.202, 4.41471, -768.605, 0.234704, 0.27415, 0.9175, 0.352806, 0.64323, 0.0001, 455, 246, 21.5073, 0.0700516, 0, 0, 0, 0, 42689
-3154.13, 242674, -196.202, 4.41471, -768.605, 0.234704, 0.27415, 0.9175, 0.352806, 0.64323, 3, 455, 246, 21.5073, 0.0700516, 0, 0, 0, 0, 42689
-10689.8, 227543, -189.333, 1.57084, -779.988, -0.0114858, 0.432487, 1.03299, 0.34851, 0.655882, 0.0001, 45.5, 246, 36.1373, 0.185948, 0, 0, 1, 0, 42690
-4932.18, 385820, -530.731, 3.20161, -745.858, 0.0580311, 0.642546, 0.958125, 0.351078, 0.648177, 0.0001, 182, 246, 47.7513, 0.24306, 2.11281, 1, 0, 0, 42695
-4932.18, 385820, -530.731, 3.20161, -745.858, 0.0580311, 0.642546, 0.958125, 0.351078, 0.648177, 3, 182, 246, 47.7513, 0.24306, 2.0177, 1, 0, 0, 42695
-8985.27, 165430, -212.319, 3.34147, -1119.25, 0.0328274, 0.305961, 1.03299, 0.34851, 0.655882, 0.0001, 45.5, 246, 46.4512, 0.191656, 0, 0, 0, 0, 42698
-5957.33, 189121, -268.059, 3.65791, -1151.93, 0.0870804, 0.322649, 0.993198, 0.349787, 0.651995, 3, 91, 246, 46.4512, 0.191656, 0, 0, 1, 0, 42698
-1846.62, 216026, -335.515, 4.03678, -1204.64, 0.154209, 0.358756, 0.958125, 0.351078, 0.648177, 0.0001, 182, 246, 46.4512, 0.191656, 1.80417, 1, 0, 0, 42698
-1846.62, 216026, -335.515, 4.03678, -1204.64, 0.154209, 0.358756, 0.958125, 0.351078, 0.648177, 3, 182, 246, 46.4512, 0.191656, 1.62829, 1, 0, 0, 42698
-12721.4, 320764, -13.8542, 1.07044, -1065.38, 0.0732922, 0.324065, 1.03299, 0.34851, 0.655882, 0.0001, 45.5, 246, 19.4108, 0.020577, 0, 0, 1, 0, 42699
-2995.16, 72182.5, -213.575, 3.10286, -639.841, 0.39729, 0.308384, 0.9175, 0.352806, 0.64323, 0.0001, 455, 246, 45.9103, 0.161051, 1.03179, 1, 1, 0, 42701
-4949.5, 71760.1, -160.153, 2.49766, -977.009, 0.0405556, 0.331316, 0.993198, 0.349787, 0.651995, 3, 91, 246, 52.9576, 0.248793, 0, 0, 1, 1, 42707
-1704.41, 115083, -249.683, 2.97692, -1039.5, 0.118818, 0.347469, 0.9175, 0.352806, 0.64323, 0.0001, 455, 246, 52.9576, 0.248793, 1.68252, 1, 0, 0, 42707
-1704.41, 115083, -249.683, 2.97692, -1039.5, 0.118818, 0.347469, 0.9175, 0.352806, 0.64323, 3, 455, 246, 52.9576, 0.248793, 1.68927, 1, 0, 0, 42707
-7489.03, 598307, -61.1269, 1.81832, -1007.02, 0.177894, 0.230633, 0.9175, 0.352806, 0.64323, 0.0001, 455, 246, 19.5397, 0.0123165, 0, 0, 0, 0, 42708
-7489.03, 598307, -61.1269, 1.81832, -1007.02, 0.177894, 0.230633, 0.9175, 0.352806, 0.64323, 3, 455, 246, 19.5397, 0.0123165, 0, 0, 0, 0, 42708
-10033.1, 249848, -281.234, 1.9416, -1145.19, 0.184351, 0.544628, 1.03299, 0.34851, 0.655882, 3, 45.5, 246, 49.7073, 0.249293, 0, 0, 0, 0, 42709
-11926.5, 295402, -180.244, 1.65178, -1063.73, -0.0117949, 0.401868, 1.03299, 0.34851, 0.655882, 0.0001, 45.5, 246, 35.3692, 0.144891, 0, 0, 0, 0, 42710
-3645.92, 346814, -389.301, 4.19646, -1256.47, 0.160531, 0.364517, 0.958125, 0.351078, 0.648177, 0.0001, 182, 246, 43.877, 0.167428, 1.05828, 1, 0, 0, 42712
-3645.92, 346814, -389.301, 4.19646, -1256.47, 0.160531, 0.364517, 0.958125, 0.351078, 0.648177, 3, 182, 246, 43.877, 0.167428, 1.09202, 1, 0, 0, 42712
-12378.2, -108005, -33.9231, 0.0928951, -959.834, 0.026592, 0.37191, 1.03299, 0.34851, 0.655882, 0.0001, 45.5, 246, -72.521, 0.182272, 0, 0, 1, 0, 42717
-12378.2, -108005, -33.9231, 0.0928951, -959.834, 0.026592, 0.37191, 1.03299, 0.34851, 0.655882, 3, 45.5, 246, -72.521, 0.182272, 0, 0, 1, 0, 42717
-10455.8, 130585, -88.8679, 2.10222, -581.249, 0.799054, 0.299237, 1.03299, 0.34851, 0.655882, 0.0001, 45.5, 246, 23.6138, 0.0988264, 0, 0, 1, 0, 42718
-9289.7, 143471, -107.354, 2.34661, -672.575, 0.93938, 0.282396, 0.993198, 0.349787, 0.651995, 0.0001, 91, 246, 23.6138, 0.0988264, 0, 0, 1, 0, 42718
-7934.19, 565174, -203.404, 0.291782, -845.336, 0.0422471, 0.375729, 0.993198, 0.349787, 0.651995, 0.0001, 91, 246, 27.4676, 0.090889, 0, 0, 1, 0, 42723
-6699.1, -15596.7, -7.85445, 3.42953, -989.596, 0.305366, 0.19263, 1.03299, 0.34851, 0.655882, 0.0001, 45.5, 246, 18.8824, 0.0498491, 0, 0, 1, 0, 42731
-6699.1, -15596.7, -7.85445, 3.42953, -989.596, 0.305366, 0.19263, 1.03299, 0.34851, 0.655882, 3, 45.5, 246, 18.8824, 0.0498491, 0, 0, 1, 0, 42731
-10634.1, 1.18371e+06, -90.056, 0.210792, -1097.06, 0.015645, 0.346429, 1.03299, 0.34851, 0.655882, 0.0001, 45.5, 246, 29.1067, 0.0197007, 0, 0, 1, 0, 42733
-10634.1, 1.18371e+06, -90.056, 0.210792, -1097.06, 0.015645, 0.346429, 1.03299, 0.34851, 0.655882, 3, 45.5, 246, 29.1067, 0.0197007, 0, 0, 1, 0, 42733
-8660.74, 1.22849e+06, -99.7227, 0.223686, -1103.67, 0.0161397, 0.279382, 0.958125, 0.351078, 0.648177, 3, 182, 246, 29.1067, 0.0197007, 0, 0, 1, 0, 42733
-2851.24, 171533, -309.964, 4.41155, -781.137, 0.0821985, 0.292275, 0.958125, 0.351078, 0.648177, 0.0001, 182, 246, 41.6475, 0.163717, 1.40716, 1, 0, 0, 42739
-2851.24, 171533, -309.964, 4.41155, -781.137, 0.0821985, 0.292275, 0.958125, 0.351078, 0.648177, 3, 182, 246, 41.6475, 0.163717, 1.22902, 1, 1, 0, 42739
-13063.4, 190404, -135.687, 3.59872, -1071.78, 0.0806764, 0.188862, 1.03299, 0.34851, 0.655882, 0.0001, 45.5, 246, 34.3711, 0.118001, 0, 0, 0, 0, 42744
-13063.4, 190404, -135.687, 3.59872, -1071.78, 0.0806764, 0.188862, 1.03299, 0.34851, 0.655882, 3, 45.5, 246, 34.3711, 0.118001, 0, 0, 0, 0, 42744
-8810.36, 90635.8, -35.7738, 0.551842, -1148.3, 0.0053595, 0.317471, 0.993198, 0.349787, 0.651995, 0.0001, 91, 246, 18.5505, 0.0992319, 0, 0, 1, 0, 42745
-11840.8, 302207, -157.457, 1.52312, -1131.04, 0.133949, 0.383868, 1.03299, 0.34851, 0.655882, 0.0001, 45.5, 246, 33.6179, 0.124296, 0, 0, 0, 0, 42749
-11840.8, 302207, -157.457, 1.52312, -1131.04, 0.133949, 0.383868, 1.03299, 0.34851, 0.655882, 3, 45.5, 246, 33.6179, 0.124296, 0, 0, 0, 0, 42749
-7902.45, 775513, -329.319, 0.0720455, -697.61, 0.0857095, 0.473123, 1.03299, 0.34851, 0.655882, 0.0001, 45.5, 246, 28.5452, 0.108481, 0, 0, 0, 0, 42754
-7902.45, 775513, -329.319, 0.0720455, -697.61, 0.0857095, 0.473123, 1.03299, 0.34851, 0.655882, 3, 45.5, 246, 28.5452, 0.108481, 0, 0, 0, 0, 42754
-6887.75, 789699, -340.202, 0.0746645, -707.841, 0.0869102, 0.447399, 0.993198, 0.349787, 0.651995, 3, 91, 246, 28.5452, 0.108481, 0, 0, 1, 0, 42754
-10723.3, 962749, -87.3886, 0.209484, -765.247, 0.541054, 0.346713, 1.03299, 0.34851, 0.655882, 0.0001, 45.5, 246, 20.8124, 0.0211877, 0, 0, 1, 0, 42755
-10723.3, 962749, -87.3886, 0.209484, -765.247, 0.541054, 0.346713, 1.03299, 0.34851, 0.655882, 3, 45.5, 246, 20.8124, 0.0211877, 0, 0, 1, 0, 42755
-9797.98, 293022, -230.133, 1.03635, -1037.92, 0.623861, 0.483694, 1.03299, 0.34851, 0.655882, 0.0001, 45.5, 246, 38.9478, 0.18153, 0, 0, 0, 0, 42756
-9797.98, 293022, -230.133, 1.03635, -1037.92, 0.623861, 0.483694, 1.03299, 0.34851, 0.655882, 3, 45.5, 246, 38.9478, 0.18153, 0, 0, 0, 0, 42756
-8093.57, 325733, -252.401, 1.1271, -1159.14, 0.697785, 0.464224, 0.993198, 0.349787, 0.651995, 3, 91, 246, 38.9478, 0.18153, 0, 0, 1, 0, 42756
-5886.42, 367058, -278.029, 1.23043, -1312.17, 0.791115, 0.450302, 0.958125, 0.351078, 0.648177, 3, 182, 246, 38.9478, 0.18153, 0, 0, 0, 0, 42756
-4724.28, 1.27877e+06, -912.041, 0.5984, -996.835, 0.0109889, 0.915038, 0.958125, 0.351078, 0.648177, 3, 182, 246, 46.1423, 0.178549, 0, 0, 0, 0, 42765
-10926, 205080, -173.137, 2.32628, -1058.8, 0.0954033, 0.366508, 1.03299, 0.34851, 0.655882, 0.0001, 45.5, 246, 38.3508, 0.16646, 0, 0, 0, 0, 42769
-10926, 205080, -173.137, 2.32628, -1058.8, 0.0954033, 0.366508, 1.03299, 0.34851, 0.655882, 3, 45.5, 246, 38.3508, 0.16646, 0, 0, 0, 0, 42769
-9678.02, 116739, -116.222, 2.76118, -612.847, -0.0357364, 0.269734, 1.03299, 0.34851, 0.655882, 0.0001, 45.5, 246, 30.0792, 0.124065, 0, 0, 1, 0, 42770
-9678.02, 116739, -116.222, 2.76118, -612.847, -0.0357364, 0.269734, 1.03299, 0.34851, 0.655882, 3, 45.5, 246, 30.0792, 0.124065, 0, 0, 1, 0, 42770
-5913.91, 414928, -365.047, 0.238377, -1158.64, 0.0575926, 0.65836, 0.993198, 0.349787, 0.651995, 0.0001, 91, 246, 47.248, 0.245568, 0, 0, 1, 0, 42775
-4404.81, 442498, -381.524, 0.248238, -1171.71, 0.0583838, 0.656729, 0.958125, 0.351078, 0.648177, 0.0001, 182, 246, 47.248, 0.245568, 0, 0, 0, 0, 42775
-7855.26, 51100.9, -76.4432, 3.24439, -586.695, -0.00604219, 0.203165, 1.03299, 0.34851, 0.655882, 0.0001, 45.5, 246, 26.8205, 0.0776267, 0, 0, 1, 0, 42780
-7855.26, 51100.9, -76.4432, 3.24439, -586.695, -0.00604219, 0.203165, 1.03299, 0.34851, 0.655882, 3, 45.5, 246, 26.8205, 0.0776267, 0, 0, 1, 0, 42780
-6211.08, 63433.1, -130.898, 3.86042, -614.623, 0.104953, 0.233437, 0.958125, 0.351078, 0.648177, 3, 182, 246, 26.8205, 0.0776267, 0, 0, 1, 0, 42780
-10750.3, 199732, -234.773, 2.09652, -513.618, 0.0146732, 0.441335, 1.03299, 0.34851, 0.655882, 0.0001, 45.5, 246, 40.1049, 0.216991, 0, 0, 1, 0, 42782
-9779.08, 212705, -146.266, 0.798427, -550.322, 0.16809, 0.42045, 1.03299, 0.34851, 0.655882, 0.0001, 45.5, 246, 28.4114, 0.165083, 0, 0, 1, 0, 42787
-10825.5, 183935, -83.0924, 1.70641, -1024.27, 0.047071, 0.33339, 1.03299, 0.34851, 0.655882, 0.0001, 45.5, 246, 26.7997, 0.101421, 0, 0, 1, 0, 42802
-10781.9, 947654, -5.21223, 0.177593, -529.054, 0.855364, 0.303908, 0.993198, 0.349787, 0.651995, 0.0001, 91, 246, 11.3014, 0.00133632, 0, 0, 1, 0, 42805
-7324.02, -8554.22, -23.6426, 2.72879, -757.645, -0.00735942, 0.259182, 1.03299, 0.34851, 0.655882, 0.0001, 45.5, 246, 21.6621, 0.0272113, 0, 0, 1, 1, 42808
-18229, 493520, -641.19, 3.09182, -650.925, 0.680339, 0.757706, 0.993198, 0.349787, 0.651995, 0.0001, 91, 246, 47.2838, 0.245832, 1.17155, 1, 1, 0, 42814
-18229, 493520, -641.19, 3.09182, -650.925, 0.680339, 0.757706, 0.993198, 0.349787, 0.651995, 3, 91, 246, 47.2838, 0.245832, 1.12613, 1, 1, 0, 42814
-10383.8, 201534, -147.471, 1.40013, -774.898, 0.82632, 0.388549, 1.03299, 0.34851, 0.655882, 0.0001, 45.5, 246, 30.8619, 0.14602, 0, 0, 1, 0, 42815
-10383.8, 201534, -147.471, 1.40013, -774.898, 0.82632, 0.388549, 1.03299, 0.34851, 0.655882, 3, 45.5, 246, 30.8619, 0.14602, 0, 0, 1, 0, 42815
-7284.46, 254281, -190.328, 1.72678, -1068.86, 1.1475, 0.34997, 0.958125, 0.351078, 0.648177, 3, 182, 246, 30.8619, 0.14602, 0, 0, 1, 0, 42815
-11000, 158087, -123.642, 3.17552, -1111.65, -0.044552, 0.246597, 1.03299, 0.34851, 0.655882, 0.0001, 45.5, 246, 34.6839, 0.128293, 0, 0, 0, 0, 42816
-11000, 158087, -123.642, 3.17552, -1111.65, -0.044552, 0.246597, 1.03299, 0.34851, 0.655882, 3, 45.5, 246, 34.6839, 0.128293, 0, 0, 0, 0, 42816
-8602.57, 179534, -167.983, 3.44432, -1120.61, 0.00356751, 0.253472, 0.993198, 0.349787, 0.651995, 0.0001, 91, 246, 34.6839, 0.128293, 0, 0, 1, 0, 42816
-8602.57, 179534, -167.983, 3.44432, -1120.61, 0.00356751, 0.253472, 0.993198, 0.349787, 0.651995, 3, 91, 246, 34.6839, 0.128293, 0, 0, 1, 0, 42816
418.346, 237452, -307.014, 4.28024, -1207.32, 0.15648, 0.336911, 0.9175, 0.352806, 0.64323, 3, 455, 246, 34.6839, 0.128293, 1.36554, 1, 0, 0, 42816
-11815.1, 293538, -85.7553, 2.12685, -1165.19, 0.472349, 0.274702, 0.993198, 0.349787, 0.651995, 0.0001, 91, 246, 24.675, 0.0606852, 0, 0, 1, 0, 42822
-11815.1, 293538, -85.7553, 2.12685, -1165.19, 0.472349, 0.274702, 0.993198, 0.349787, 0.651995, 3, 91, 246, 24.675, 0.0606852, 0, 0, 1, 0, 42822
-8528.11, 506943, -277.461, 0.495778, -1116.51, 0.044555, 0.486682, 1.03299, 0.34851, 0.655882, 3, 45.5, 246, 37.7976, 0.140992, 0, 0, 0, 0, 42835
-8664.37, 324328, -438.27, 3.86629, -1017.56, -0.000194709, 0.469993, 0.993198, 0.349787, 0.651995, 0.0001, 91, 246, 52.0261, 0.228179, 1.31209, 1, 1, 0, 42836
-8664.37, 324328, -438.27, 3.86629, -1017.56, -0.000194709, 0.469993, 0.993198, 0.349787, 0.651995, 3, 91, 246, 52.0261, 0.228179, 1.22482, 1, 1, 0, 42836
-8755.22, 56136, -15.3677, 3.39849, -604.771, 0.994488, 0.200865, 0.993198, 0.349787, 0.651995, 3, 91, 246, 9.16843, 0.024482, 0, 0, 1, 0, 42837
-2147.48, 104600, -246.145, 2.99589, -761.762, 0.101012, 0.34547, 0.9175, 0.352806, 0.64323, 0.0001, 455, 246, 47.184, 0.209947, 1.25896, 1, 1, 0, 42840
-2147.48, 104600, -246.145, 2.99589, -761.762, 0.101012, 0.34547, 0.9175, 0.352806, 0.64323, 3, 455, 246, 47.184, 0.209947, 1.25046, 1, 1, 0, 42840
-3572.32, 54047.2, -181.775, 3.56217, -632.958, 0.436132, 0.182753, 1.03299, 0.34851, 0.655882, 0.0001, 45.5, 246, 49.2484, 0.11979, 1.4261, 1, 1, 0, 42848
-3572.32, 54047.2, -181.775, 3.56217, -632.958, 0.436132, 0.182753, 1.03299, 0.34851, 0.655882, 3, 45.5, 246, 49.2484, 0.11979, 1.2957, 1, 1, 0, 42848
-2310.77, 63872, -221.76, 3.994, -703.968, 0.535661, 0.200619, 0.993198, 0.349787, 0.651995, 0.0001, 91, 246, 49.2484, 0.11979, 1.43027, 1, 1, 0, 42848
-2310.77, 63872, -221.76, 3.994, -703.968, 0.535661, 0.200619, 0.993198, 0.349787, 0.651995, 3, 91, 246, 49.2484, 0.11979, 1.30547, 1, 1, 0, 42848
-495.695, 76964, -273.639, 4.53947, -803.016, 0.672412, 0.24421, 0.958125, 0.351078, 0.648177, 0.0001, 182, 246, 49.2484, 0.11979, 1.66214, 1, 1, 0, 42848
-495.695, 76964, -273.639, 4.53947, -803.016, 0.672412, 0.24421, 0.958125, 0.351078, 0.648177, 3, 182, 246, 49.2484, 0.11979, 1.53879, 1, 1, 0, 42848
3331.93, 103252, -372.521, 5.54921, -1009.93, 0.953644, 0.356267, 0.9175, 0.352806, 0.64323, 0.0001, 455, 246, 49.2484, 0.11979, 3.27527, 1, 1, 0, 42848
3331.93, 103252, -372.521, 5.54921, -1009.93, 0.953644, 0.356267, 0.9175, 0.352806, 0.64323, 3, 455, 246, 49.2484, 0.11979, 3.27636, 1, 1, 0, 42848
-7998.83, 551095, -443.452, 0.141414, -923.618, 0.135045, 0.689558, 1.03299, 0.34851, 0.655882, 0.0001, 45.5, 246, 43.2154, 0.211715, 0, 0, 0, 0, 42875
-7998.83, 551095, -443.452, 0.141414, -923.618, 0.135045, 0.689558, 1.03299, 0.34851, 0.655882, 3, 45.5, 246, 43.2154, 0.211715, 0, 0, 0, 0, 42875
-10895.4, 617133, -105.851, 0.442241, -1022.59, 0.539246, 0.354144, 1.03299, 0.34851, 0.655882, 0.0001, 45.5, 246, 26.1229, 0.0409562, 0, 0, 1, 0, 42876
-10895.4, 617133, -105.851, 0.442241, -1022.59, 0.539246, 0.354144, 1.03299, 0.34851, 0.655882, 3, 45.5, 246, 26.1229, 0.0409562, 0, 0, 1, 0, 42876
-8432.93, 702928, -122.818, 0.503389, -1236.19, 0.652394, 0.289846, 0.958125, 0.351078, 0.648177, 3, 182, 246, 26.1229, 0.0409562, 0, 0, 1, 0, 42876
-6713.04, 983161, -370.135, 0.114372, -972.364, 0.0183891, 0.47612, 1.03299, 0.34851, 0.655882, 0.0001, 45.5, 246, 34.3426, 0.0965539, 0, 0, 0, 0, 42878
-6713.04, 983161, -370.135, 0.114372, -972.364, 0.0183891, 0.47612, 1.03299, 0.34851, 0.655882, 3, 45.5, 246, 34.3426, 0.0965539, 0, 0, 0, 0, 42878
-11165.3, 289213, -308.994, 1.90296, -1058.73, 0.181596, 0.563713, 1.03299, 0.34851, 0.655882, 0.0001, 45.5, 246, 48.6876, 0.241622, 0, 0, 0, 0, 42888
-11165.3, 289213, -308.994, 1.90296, -1058.73, 0.181596, 0.563713, 1.03299, 0.34851, 0.655882, 3, 45.5, 246, 48.6876, 0.241622, 0, 0, 0, 0, 42888
-8336.78, 448399, -422.952, 0.361623, -1036.16, 0.720859, 0.701746, 1.03299, 0.34851, 0.655882, 3, 45.5, 246, 46.3816, 0.22906, 0, 0, 0, 0, 42898
-4111.87, 1.09856e+06, -360.67, 0.0342605, -1107.57, 0.292109, 0.44534, 1.03299, 0.34851, 0.655882, 0.0001, 45.5, 246, 36.1292, 0.0788302, 0, 0, 0, 0, 42900
-4111.87, 1.09856e+06, -360.67, 0.0342605, -1107.57, 0.292109, 0.44534, 1.03299, 0.34851, 0.655882, 3, 45.5, 246, 36.1292, 0.0788302, 0, 0, 0, 0, 42900
-4511.8, 913751, -271.985, 0.0914102, -1155.65, 0.000180246, 0.384164, 0.993198, 0.349787, 0.651995, 0.0001, 91, 246, 34.7932, 0.0748639, 0, 0, 1, 0, 42901
-8842.74, 81976.3, -73.9978, 1.06543, -986.917, 0.152259, 0.383761, 1.03299, 0.34851, 0.655882, 0.0001, 45.5, 246, 31.2516, 0.193873, 0, 0, 1, 0, 42918
-8842.74, 81976.3, -73.9978, 1.06543, -986.917, 0.152259, 0.383761, 1.03299, 0.34851, 0.655882, 3, 45.5, 246, 31.2516, 0.193873, 0, 0, 1, 0, 42918
-11566.2, 291466, -184.993, 1.31098, -761.389, 0.00928988, 0.420415, 1.03299, 0.34851, 0.655882, 0.0001, 45.5, 246, 31.7662, 0.151955, 0, 0, 1, 0, 42920
-11566.2, 291466, -184.993, 1.31098, -761.389, 0.00928988, 0.420415, 1.03299, 0.34851, 0.655882, 3, 45.5, 246, 31.7662, 0.151955, 0, 0, 0, 0, 42920
-11453.8, 270351, -226.019, 1.67123, -877.567, 0.152218, 0.455927, 1.03299, 0.34851, 0.655882, 0.0001, 45.5, 246, 38.6334, 0.188041, 0, 0, 0, 0, 42926
-11453.8, 270351, -226.019, 1.67123, -877.567, 0.152218, 0.455927, 1.03299, 0.34851, 0.655882, 3, 45.5, 246, 38.6334, 0.188041, 0, 0, 0, 0, 42926
-11809.5, 712275, -75.1449, 0.415857, -908.348, 0.00779199, 0.345831, 1.03299, 0.34851, 0.655882, 0.0001, 45.5, 246, 22.7429, 0.0281911, 0, 0, 1, 0, 42927
-11809.5, 712275, -75.1449, 0.415857, -908.348, 0.00779199, 0.345831, 1.03299, 0.34851, 0.655882, 3, 45.5, 246, 22.7429, 0.0281911, 0, 0, 1, 0, 42927
-6381.23, -54660.6, -3.10125, 3.43462, -844.203, -0.0567531, 0.227064, 1.03299, 0.34851, 0.655882, 0.0001, 45.5, 246, 18.3487, 0.0779426, 1.24234, 1, 1, 0, 42931
-6381.23, -54660.6, -3.10125, 3.43462, -844.203, -0.0567531, 0.227064, 1.03299, 0.34851, 0.655882, 3, 45.5, 246, 18.3487, 0.0779426, 1.15132, 1, 1, 0, 42931
-8802.27, -13967.9, -120.783, 4.7226, -887.424, 0.183239, 0.354553, 0.9175, 0.352806, 0.64323, 3, 455, 246, 18.3487, 0.0779426, 0, 0, 1, 1, 42931
-12332.5, 129866, -252.923, 0.86815, -1240.95, 0.858156, 0.410568, 0.958125, 0.351078, 0.648177, 3, 182, 246, 572.526, 0.132015, 0, 0, 1, 0, 42932
-11430.9, 420699, -119.819, 0.761453, -971.352, 0.766505, 0.361951, 1.03299, 0.34851, 0.655882, 0.0001, 45.5, 246, 26.1769, 0.065533, 0, 0, 1, 0, 42935
-11430.9, 420699, -119.819, 0.761453, -971.352, 0.766505, 0.361951, 1.03299, 0.34851, 0.655882, 3, 45.5, 246, 26.1769, 0.065533, 0, 0, 1, 0, 42935
-11075.2, 282441, -142.829, 1.12836, -784.102, -0.005537, 0.389224, 1.03299, 0.34851, 0.655882, 0.0001, 45.5, 246, 27.9596, 0.123736, 0, 0, 1, 0, 42936
-11075.2, 282441, -142.829, 1.12836, -784.102, -0.005537, 0.389224, 1.03299, 0.34851, 0.655882, 3, 45.5, 246, 27.9596, 0.123736, 0, 0, 1, 0, 42936
-8095.42, 304775, -174.133, 1.24009, -794.09, 0.00677895, 0.341234, 0.958125, 0.351078, 0.648177, 0.0001, 182, 246, 27.9596, 0.123736, 0, 0, 1, 0, 42936
-13298.1, 138356, 15.2189, 3.35101, -1062.33, -0.0194725, 0.161167, 1.03299, 0.34851, 0.655882, 0.0001, 45.5, 246, 16.2364, 0.0301501, 0, 0, 0, 0, 42942
-13298.1, 138356, 15.2189, 3.35101, -1062.33, -0.0194725, 0.161167, 1.03299, 0.34851, 0.655882, 3, 45.5, 246, 16.2364, 0.0301501, 0, 0, 0, 0, 42942
-10845.8, 308110, -22.7066, 1.89721, -547.977, 0.118433, 0.24866, 0.958125, 0.351078, 0.648177, 3, 182, 246, 10.1869, 0.0117769, 0, 0, 1, 0, 42950
-10444.4, 144216, -2.99415, 2.33059, -990.071, 0.923475, 0.251526, 0.993198, 0.349787, 0.651995, 0.0001, 91, 246, 12.0811, 0.0166393, 0, 0, 1, 0, 42951
-5788.8, 231244, -76.4277, 3.15582, -1529.33, 1.51315, 0.254382, 0.9175, 0.352806, 0.64323, 3, 455, 246, 12.0811, 0.0166393, 0, 0, 0, 0, 42951
-11116.7, 961524, -61.6523, 0.251452, -1071.83, 0.110631, 0.34334, 1.03299, 0.34851, 0.655882, 0.0001, 45.5, 246, 26.7407, 0.0166612, 0, 0, 1, 0, 42952
-11116.7, 961524, -61.6523, 0.251452, -1071.83, 0.110631, 0.34334, 1.03299, 0.34851, 0.655882, 3, 45.5, 246, 26.7407, 0.0166612, 0, 0, 1, 0, 42952
-9922.79, 560907, -239.226, 0.576431, -1054.41, 0.0213553, 0.436904, 1.03299, 0.34851, 0.655882, 0.0001, 45.5, 246, 33.9045, 0.110042, 0, 0, 0, 0, 42955
-7753.78, 327321, -184.647, 0.286532, -1033.09, 0.375677, 0.438733, 1.03299, 0.34851, 0.655882, 0.0001, 45.5, 246, 33.1057, 0.139981, 3.09133, 1, 0, 0, 42956
-7753.78, 327321, -184.647, 0.286532, -1033.09, 0.375677, 0.438733, 1.03299, 0.34851, 0.655882, 3, 45.5, 246, 33.1057, 0.139981, 3.09203, 1, 0, 0, 42956
-8599.33, 14617.8, -16.9333, 0.998207, -994.487, 0.00247136, 0.341601, 1.03299, 0.34851, 0.655882, 0.0001, 45.5, 246, 18.7937, 0.142131, 0, 0, 1, 1, 42959
-8599.33, 14617.8, -16.9333, 0.998207, -994.487, 0.00247136, 0.341601, 1.03299, 0.34851, 0.655882, 3, 45.5, 246, 18.7937, 0.142131, 0, 0, 1, 1, 42959
-9105.06, 1.4779e+06, -142.392, 0.44035, -561.196, 0.13598, 0.246796, 0.9175, 0.352806, 0.64323, 3, 455, 246, 16.3737, 0.0220161, 0, 0, 1, 0, 42960
-9009.59, 705843, -222.177, 0.306722, -929.718, 0.000321686, 0.407659, 1.03299, 0.34851, 0.655882, 0.0001, 45.5, 246, 29.5266, 0.0813067, 0, 0, 0, 0, 42961
-9009.59, 705843, -222.177, 0.306722, -929.718, 0.000321686, 0.407659, 1.03299, 0.34851, 0.655882, 3, 45.5, 246, 29.5266, 0.0813067, 0, 0, 0, 0, 42961
-6470.25, 738193, -242.376, 0.327244, -933.823, 0.00120508, 0.350308, 0.958125, 0.351078, 0.648177, 3, 182, 246, 29.5266, 0.0813067, 0, 0, 0, 0, 42961
-10980.5, 940460, -82.2834, 0.282163, -1104.53, 0.0366226, 0.346363, 1.03299, 0.34851, 0.655882, 0.0001, 45.5, 246, 27.9659, 0.0228304, 0, 0, 1, 0, 42966
-10980.5, 940460, -82.2834, 0.282163, -1104.53, 0.0366226, 0.346363, 1.03299, 0.34851, 0.655882, 3, 45.5, 246, 27.9659, 0.0228304, 0, 0, 1, 0, 42966
-8877.42, 987805, -93.2601, 0.300882, -1118.96, 0.0378071, 0.279661, 0.958125, 0.351078, 0.648177, 3, 182, 246, 27.9659, 0.0228304, 0, 0, 1, 0, 42966
-5395.26, 1.33419e+06, -398.994, 0.0165628, -910.875, 0.0913713, 0.450245, 1.03299, 0.34851, 0.655882, 0.0001, 45.5, 246, 32.2645, 0.0749236, 0, 0, 0, 0, 42978
-5395.26, 1.33419e+06, -398.994, 0.0165628, -910.875, 0.0913713, 0.450245, 1.03299, 0.34851, 0.655882, 3, 45.5, 246, 32.2645, 0.0749236, 0, 0, 0, 0, 42978
-14635.2, 162325, 9.30934, 3.50912, -909.621, -0.0389532, 0.137268, 1.03299, 0.34851, 0.655882, 0.0001, 45.5, 246, 15.2169, 0.0267018, 0, 0, 0, 0, 42980
-14635.2, 162325, 9.30934, 3.50912, -909.621, -0.0389532, 0.137268, 1.03299, 0.34851, 0.655882, 3, 45.5, 246, 15.2169, 0.0267018, 0, 0, 0, 0, 42980
-8429, 153792, -236.273, 3.15964, -798.412, 0.58919, 0.310133, 1.03299, 0.34851, 0.655882, 0.0001, 45.5, 246, 45.7868, 0.192303, 1.08171, 1, 0, 0, 42984
-5625.97, 172802, -283.325, 3.55824, -907.979, 0.704227, 0.322664, 0.993198, 0.349787, 0.651995, 0.0001, 91, 246, 45.7868, 0.192303, 1.09391, 1, 1, 0, 42984
-1769, 198772, -344.702, 4.06265, -1060.31, 0.864029, 0.35735, 0.958125, 0.351078, 0.648177, 0.0001, 182, 246, 45.7868, 0.192303, 1.89726, 1, 0, 0, 42984
-1769, 198772, -344.702, 4.06265, -1060.31, 0.864029, 0.35735, 0.958125, 0.351078, 0.648177, 3, 182, 246, 45.7868, 0.192303, 1.73894, 1, 0, 0, 42984
