-5034.47	88571.9	-206.46	3.4995	-658.999	0.296963	0.223366	1.03299	0.34851	0.655882	0.0001	45.5	0.163847	51501	
-5034.47	88571.9	-206.46	3.4995	-658.999	0.296963	0.223366	1.03299	0.34851	0.655882	3	45.5	0.163847	51501	
-3162.1	99146.3	-248.837	3.89157	-717.378	0.374463	0.240899	0.993198	0.349787	0.651995	0.0001	91	0.163847	51501	
-3162.1	99146.3	-248.837	3.89157	-717.378	0.374463	0.240899	0.993198	0.349787	0.651995	3	91	0.163847	51501	
-628.473	112724	-302.371	4.37657	-797.91	0.477706	0.281908	0.958125	0.351078	0.648177	0.0001	182	0.163847	51501	
-628.473	112724	-302.371	4.37657	-797.91	0.477706	0.281908	0.958125	0.351078	0.648177	3	182	0.163847	51501	
-12543.2	208929	-81.4728	1.99345	-624.437	-0.0174249	0.304227	1.03299	0.34851	0.655882	3	45.5	0.0824116	51503	
-36668.7	849883	-122.383	2.2129	-921.268	0.0140784	0.266442	1.03299	0.34851	0.655882	0.0001	45.5	0.0427103	51505	
-36668.7	849883	-122.383	2.2129	-921.268	0.0140784	0.266442	1.03299	0.34851	0.655882	3	45.5	0.0427103	51505	
-35888.4	902486	11.0299	1.75758	-884.341	0.428674	0.275666	1.03299	0.34851	0.655882	3	45.5	0.00264116	51506	
-36467.8	876091	-448.861	1.98079	-582.034	0.0103009	0.50297	1.03299	0.34851	0.655882	3	45.5	0.134025	51507	
-27602.8	885928	-490.997	2.12004	-609.217	0.0288073	0.499137	0.993198	0.349787	0.651995	3	91	0.134025	51507	
-30815	809403	-154.425	1.78315	-778.267	0.535298	0.308157	1.03299	0.34851	0.655882	3	45.5	0.047845	51509	
-32845.7	810048	-423.651	2.15549	-901.056	0.181227	0.480546	1.03299	0.34851	0.655882	3	45.5	0.133453	51511	
-23846	836015	-473.179	2.33507	-956.123	0.209344	0.478492	0.993198	0.349787	0.651995	3	91	0.133453	51511	
-12398.5	224216	-33.6417	1.4614	-637.982	0.693615	0.310664	1.03299	0.34851	0.655882	3	45.5	0.0375593	51512	
-5189.26	21670.1	-96.3955	3.43707	-1014.59	0.0917277	0.205984	1.03299	0.34851	0.655882	0.0001	45.5	0.0810839	51513	
-4693.36	40379.7	-139.05	3.77151	-1045.29	0.150972	0.219506	0.993198	0.349787	0.651995	0.0001	91	0.0810839	51513	
-4693.36	40379.7	-139.05	3.77151	-1045.29	0.150972	0.219506	0.993198	0.349787	0.651995	3	91	0.0810839	51513	
-3665.38	61093.9	-191.34	4.17466	-1094.07	0.22567	0.253438	0.958125	0.351078	0.648177	0.0001	182	0.0810839	51513	
-3665.38	61093.9	-191.34	4.17466	-1094.07	0.22567	0.253438	0.958125	0.351078	0.648177	3	182	0.0810839	51513	
-1073.44	94002.7	-282.441	4.8667	-1200.21	0.36129	0.337014	0.9175	0.352806	0.64323	0.0001	455	0.0810839	51513	
-1073.44	94002.7	-282.441	4.8667	-1200.21	0.36129	0.337014	0.9175	0.352806	0.64323	3	455	0.0810839	51513	
-16880.9	498208	5.58615	1.15577	-831.295	0.00125201	0.316835	1.03299	0.34851	0.655882	3	45.5	0.00396258	51514	
-16137.1	336844	-5.31781	1.67008	-960.717	0.479389	0.29264	1.03299	0.34851	0.655882	3	45.5	0.0169763	51517	
-11297.2	172550	-36.1915	1.70791	-935.83	0.0061529	0.308141	1.03299	0.34851	0.655882	3	45.5	0.0572901	51518	
-14557.5	319762	-232.769	2.10684	-766.224	-0.0157325	0.410588	1.03299	0.34851	0.655882	3	45.5	0.162592	51521	
-24967.5	463703	-203.123	2.64708	-687.824	0.578376	0.282025	1.03299	0.34851	0.655882	0.0001	45.5	0.0937459	51522	
-24967.5	463703	-203.123	2.64708	-687.824	0.578376	0.282025	1.03299	0.34851	0.655882	3	45.5	0.0937459	51522	
-19270.7	488478	-237.319	2.94599	-776.101	0.674305	0.277006	0.993198	0.349787	0.651995	0.0001	91	0.0937459	51522	
-19270.7	488478	-237.319	2.94599	-776.101	0.674305	0.277006	0.993198	0.349787	0.651995	3	91	0.0937459	51522	
-28708.5	526018	-44.7561	2.55767	-636.404	0.377788	0.217229	1.03299	0.34851	0.655882	3	45.5	0.0258144	51523	
-16208.9	565589	-87.9377	3.091	-741.188	0.508366	0.206511	0.958125	0.351078	0.648177	0.0001	182	0.0258144	51523	
-16208.9	565589	-87.9377	3.091	-741.188	0.508366	0.206511	0.958125	0.351078	0.648177	3	182	0.0258144	51523	
-9717.13	355576	-333.132	0.783496	-987.181	0.0917952	0.640927	1.03299	0.34851	0.655882	3	45.5	0.24486	51526	
-18591.9	401485	-64.619	2.05995	-1101.74	0.131395	0.282762	1.03299	0.34851	0.655882	3	45.5	0.0487438	51527	
-8761.28	676406	-451.432	0.390495	-1082.66	0.326106	0.619699	1.03299	0.34851	0.655882	3	45.5	0.166274	51528	
-32668.7	694517	-292.872	2.46268	-788.016	0.260364	0.346327	1.03299	0.34851	0.655882	3	45.5	0.10388	51529	
-24615.2	717050	-333.804	2.68573	-845.393	0.301858	0.340482	0.993198	0.349787	0.651995	0.0001	91	0.10388	51529	
-24615.2	717050	-333.804	2.68573	-845.393	0.301858	0.340482	0.993198	0.349787	0.651995	3	91	0.10388	51529	
-8286.73	116762	-163.539	1.53573	-570.446	0.675764	0.42327	1.03299	0.34851	0.655882	3	45.5	0.233562	51531	
-3956.42	171078	-240.931	2.16759	-937.689	1.1247	0.392367	0.9175	0.352806	0.64323	3	455	0.233562	51531	
-23730.7	538035	-299.837	3.65397	-721.302	0.0278661	0.251341	0.993198	0.349787	0.651995	3	91	0.111826	51532	
-21232.9	556148	-245.644	2.03458	-1081.03	0.210607	0.379758	1.03299	0.34851	0.655882	3	45.5	0.11001	51533	
-9125.11	64660.6	-37.4181	3.1149	-952.276	-0.0250843	0.214829	1.03299	0.34851	0.655882	3	45.5	0.0736136	51534	
-31547.9	732777	-342.45	1.95476	-584.578	0.762104	0.402617	1.03299	0.34851	0.655882	0.0001	45.5	0.103718	51535	
-31547.9	732777	-342.45	1.95476	-584.578	0.762104	0.402617	1.03299	0.34851	0.655882	3	45.5	0.103718	51535	
-24392.1	773677	-377.069	2.17701	-686.493	0.887737	0.390377	0.993198	0.349787	0.651995	0.0001	91	0.103718	51535	
-24392.1	773677	-377.069	2.17701	-686.493	0.887737	0.390377	0.993198	0.349787	0.651995	3	91	0.103718	51535	
-22587.3	580684	1.25963	1.61307	-884.469	0.0701803	0.293219	1.03299	0.34851	0.655882	3	45.5	0.0075006	51536	
-30930	900597	-382.776	1.80114	-1033.4	0.498929	0.439183	1.03299	0.34851	0.655882	3	45.5	0.104253	51538	
-7511.08	-1262.6	-16.9198	3.57537	-1157.43	0.00103378	0.220911	0.993198	0.349787	0.651995	0.0001	91	0.0611221	51539	
-7511.08	-1262.6	-16.9198	3.57537	-1157.43	0.00103378	0.220911	0.993198	0.349787	0.651995	3	91	0.0611221	51539	
-6113.76	-54305.7	19.2963	3.47664	-832.122	-0.0572306	0.204444	1.03299	0.34851	0.655882	0.0001	45.5	0.055636	51540	
-6113.76	-54305.7	19.2963	3.47664	-832.122	-0.0572306	0.204444	1.03299	0.34851	0.655882	3	45.5	0.055636	51540	
-7035.56	-42578.3	-6.52551	3.7868	-827.69	0.000739219	0.218784	0.993198	0.349787	0.651995	0.0001	91	0.055636	51540	
-7035.56	-42578.3	-6.52551	3.7868	-827.69	0.000739219	0.218784	0.993198	0.349787	0.651995	3	91	0.055636	51540	
-22799.6	778404	-256.919	1.46693	-1001.95	0.172547	0.392574	1.03299	0.34851	0.655882	3	45.5	0.0855844	51541	
-4590.48	481175	-332.462	0.460688	-1270.54	0.37621	0.515067	0.958125	0.351078	0.648177	0.0001	182	0.183457	51542	
-4590.48	481175	-332.462	0.460688	-1270.54	0.37621	0.515067	0.958125	0.351078	0.648177	3	182	0.183457	51542	
-27777.1	646981	-439.877	2.28854	-848.189	0.0216197	0.550673	1.03299	0.34851	0.655882	3	45.5	0.170838	51544	
-19808.3	664082	-492.411	2.46888	-881.983	0.0466218	0.558044	0.993198	0.349787	0.651995	3	91	0.170838	51544	
-27260.9	469544	-182.524	3.0754	-941.734	0.612652	0.219788	1.03299	0.34851	0.655882	3	45.5	0.0861323	51545	
-18849.6	352597	-6.69208	2.22686	-1118.36	0.149873	0.256513	1.03299	0.34851	0.655882	3	45.5	0.0231904	51546	
-19864.9	863380	-272.798	1.11592	-1073.52	0.342779	0.405376	1.03299	0.34851	0.655882	3	45.5	0.0792559	51547	
-15156.7	313513	-369.986	3.60419	-1054.65	-0.051045	0.429555	1.03299	0.34851	0.655882	0.0001	45.5	0.225731	51548	
-15156.7	313513	-369.986	3.60419	-1054.65	-0.051045	0.429555	1.03299	0.34851	0.655882	3	45.5	0.225731	51548	
-8683.24	335428	-444.471	3.96235	-1091.66	0.0117642	0.465292	0.993198	0.349787	0.651995	0.0001	91	0.225731	51548	
-8683.24	335428	-444.471	3.96235	-1091.66	0.0117642	0.465292	0.993198	0.349787	0.651995	3	91	0.225731	51548	
-334.197	362240	-535.48	4.3998	-1154.12	0.0887337	0.524735	0.958125	0.351078	0.648177	0.0001	182	0.225731	51548	
-334.197	362240	-535.48	4.3998	-1154.12	0.0887337	0.524735	0.958125	0.351078	0.648177	3	182	0.225731	51548	
-8136.05	147867	-221.859	3.61729	-913.801	-0.0290735	0.258995	1.03299	0.34851	0.655882	0.0001	45.5	0.185582	51549	
-8136.05	147867	-221.859	3.61729	-913.801	-0.0290735	0.258995	1.03299	0.34851	0.655882	3	45.5	0.185582	51549	
-5176.27	163540	-275.238	3.9634	-938.773	0.0339128	0.282044	0.993198	0.349787	0.651995	0.0001	91	0.185582	51549	
-5176.27	163540	-275.238	3.9634	-938.773	0.0339128	0.282044	0.993198	0.349787	0.651995	3	91	0.185582	51549	
-1272.42	181762	-340.108	4.38356	-983.281	0.11104	0.327201	0.958125	0.351078	0.648177	0.0001	182	0.185582	51549	
-1272.42	181762	-340.108	4.38356	-983.281	0.11104	0.327201	0.958125	0.351078	0.648177	3	182	0.185582	51549	
-28646.8	609694	-113.591	2.46511	-1079.1	-0.0286967	0.25684	1.03299	0.34851	0.655882	0.0001	45.5	0.0549878	51550	
-28646.8	609694	-113.591	2.46511	-1079.1	-0.0286967	0.25684	1.03299	0.34851	0.655882	3	45.5	0.0549878	51550	
-22185.9	628914	-146.789	2.6395	-1085.33	-7.96964e-05	0.244335	0.993198	0.349787	0.651995	3	91	0.0549878	51550	
-12811.8	454469	-249.312	1.27496	-1144.68	0.221465	0.447934	1.03299	0.34851	0.655882	3	45.5	0.135208	51553	
-6214.77	79275.8	-152.401	3.61734	-871.259	-0.063101	0.202055	1.03299	0.34851	0.655882	0.0001	45.5	0.1423	51554	
-6214.77	79275.8	-152.401	3.61734	-871.259	-0.063101	0.202055	1.03299	0.34851	0.655882	3	45.5	0.1423	51554	
-4647.67	92793.2	-197.102	3.94981	-884.128	-0.000165909	0.221316	0.993198	0.349787	0.651995	0.0001	91	0.1423	51554	
-4647.67	92793.2	-197.102	3.94981	-884.128	-0.000165909	0.221316	0.993198	0.349787	0.651995	3	91	0.1423	51554	
-2465.76	107745	-250.974	4.35164	-913.719	0.0755518	0.261855	0.958125	0.351078	0.648177	0.0001	182	0.1423	51554	
-2465.76	107745	-250.974	4.35164	-913.719	0.0755518	0.261855	0.958125	0.351078	0.648177	3	182	0.1423	51554	
-17918.5	412222	-31.6226	1.6696	-889.233	0.465706	0.294636	1.03299	0.34851	0.655882	3	45.5	0.0262063	51556	
-31081.4	909104	-435.892	1.44341	-556.778	0.459902	0.495971	1.03299	0.34851	0.655882	3	45.5	0.115258	51558	
-24023.8	941544	-469.458	1.56748	-619.521	0.506665	0.48262	0.993198	0.349787	0.651995	3	91	0.115258	51558	
-37507.2	896495	-94.2675	2.02426	-685.299	0.152899	0.269156	1.03299	0.34851	0.655882	0.0001	45.5	0.0303685	51559	
-14094.7	252494	-117.162	2.58276	-1137.65	-0.031405	0.286952	1.03299	0.34851	0.655882	0.0001	45.5	0.104678	51563	
-18798.1	376815	-67.055	3.66838	-1037.17	-0.000173484	0.147078	0.993198	0.349787	0.651995	3	91	0.0380262	51564	
-14712.8	495731	-163.781	1.19702	-911.256	0.00150579	0.37299	1.03299	0.34851	0.655882	3	45.5	0.085874	51566	
-2263.99	89853.2	-223.376	3.23397	-1182.08	0.227842	0.322395	0.993198	0.349787	0.651995	0.0001	91	0.246925	51567	
-2263.99	89853.2	-223.376	3.23397	-1182.08	0.227842	0.322395	0.993198	0.349787	0.651995	3	91	0.246925	51567	
-191.368	118281	-280.822	3.5662	-1254.06	0.288979	0.343834	0.958125	0.351078	0.648177	0.0001	182	0.246925	51567	
-191.368	118281	-280.822	3.5662	-1254.06	0.288979	0.343834	0.958125	0.351078	0.648177	3	182	0.246925	51567	
-21874.6	620725	-8.13227	1.31606	-597.355	0.743242	0.306737	1.03299	0.34851	0.655882	3	45.5	0.00671322	51568	
-38398.3	677144	-326.504	3.09505	-672.438	-0.039631	0.312217	1.03299	0.34851	0.655882	0.0001	45.5	0.120159	51569	
-38398.3	677144	-326.504	3.09505	-672.438	-0.039631	0.312217	1.03299	0.34851	0.655882	3	45.5	0.120159	51569	
-28564	685029	-374.858	3.3587	-700.322	0.00608461	0.32106	0.993198	0.349787	0.651995	3	91	0.120159	51569	
-12134.5	424743	-343.906	0.885455	-743.117	0.382064	0.582126	1.03299	0.34851	0.655882	3	45.5	0.196456	51570	
-17187.1	355854	-12.0719	1.83391	-1027.58	0.323211	0.284035	1.03299	0.34851	0.655882	3	45.5	0.0219513	51572	
-12441.4	387038	-279.798	0.937607	-590.529	0.416379	0.504514	1.03299	0.34851	0.655882	3	45.5	0.170388	51574	
-7425.54	297010	-131.053	0.351703	-1349.41	0.676622	0.309741	0.9175	0.352806	0.64323	0.0001	455	0.13888	51575	
-7425.54	297010	-131.053	0.351703	-1349.41	0.676622	0.309741	0.9175	0.352806	0.64323	3	455	0.13888	51575	
-19680	944735	-47.2702	0.800152	-1076.89	0.0395525	0.331913	1.03299	0.34851	0.655882	3	45.5	0.0156464	51576	
-14900.6	700513	-414.852	0.806051	-861.98	0.461247	0.555469	1.03299	0.34851	0.655882	3	45.5	0.142968	51577	
-6598.9	120884	-223.383	3.19369	-673.493	-0.0478489	0.30528	1.03299	0.34851	0.655882	0.0001	45.5	0.203114	51578	
-6598.9	120884	-223.383	3.19369	-673.493	-0.0478489	0.30528	1.03299	0.34851	0.655882	3	45.5	0.203114	51578	
-4393.56	129611	-263.831	3.47038	-692.241	0.000933064	0.316752	0.993198	0.349787	0.651995	0.0001	91	0.203114	51578	
-4393.56	129611	-263.831	3.47038	-692.241	0.000933064	0.316752	0.993198	0.349787	0.651995	3	91	0.203114	51578	
-1599.11	139841	-311.705	3.7965	-722.971	0.0589446	0.345241	0.958125	0.351078	0.648177	0.0001	182	0.203114	51578	
-1599.11	139841	-311.705	3.7965	-722.971	0.0589446	0.345241	0.958125	0.351078	0.648177	3	182	0.203114	51578	
-28047.6	592722	-127.241	3.59722	-778.965	0.00527465	0.148868	0.993198	0.349787	0.651995	3	91	0.0463763	51579	
-3940.23	91398.1	-240.74	3.39356	-550.735	0.2713	0.254884	1.03299	0.34851	0.655882	0.0001	45.5	0.186881	51580	
-3940.23	91398.1	-240.74	3.39356	-550.735	0.2713	0.254884	1.03299	0.34851	0.655882	3	45.5	0.186881	51580	
-1919.58	99764.4	-281.58	3.7634	-603.085	0.342163	0.270586	0.993198	0.349787	0.651995	0.0001	91	0.186881	51580	
-1919.58	99764.4	-281.58	3.7634	-603.085	0.342163	0.270586	0.993198	0.349787	0.651995	3	91	0.186881	51580	
724.836	110636	-332.468	4.21674	-674.213	0.43556	0.3082	0.958125	0.351078	0.648177	0.0001	182	0.186881	51580	
724.836	110636	-332.468	4.21674	-674.213	0.43556	0.3082	0.958125	0.351078	0.648177	3	182	0.186881	51580	
-6377.67	92358.1	-166.14	2.52737	-1114.27	0.34479	0.368476	1.03299	0.34851	0.655882	0.0001	45.5	0.24267	51581	
-6377.67	92358.1	-166.14	2.52737	-1114.27	0.34479	0.368476	1.03299	0.34851	0.655882	3	45.5	0.24267	51581	
-5009.93	118099	-206.693	2.77478	-1194.72	0.397265	0.366118	0.993198	0.349787	0.651995	0.0001	91	0.24267	51581	
-5009.93	118099	-206.693	2.77478	-1194.72	0.397265	0.366118	0.993198	0.349787	0.651995	3	91	0.24267	51581	
-2939.12	149019	-256.285	3.06492	-1296.89	0.463772	0.376929	0.958125	0.351078	0.648177	0.0001	182	0.24267	51581	
-2939.12	149019	-256.285	3.06492	-1296.89	0.463772	0.376929	0.958125	0.351078	0.648177	3	182	0.24267	51581	
-24028.8	893286	-439.998	1.46227	-1118.29	-0.00991295	0.541245	1.03299	0.34851	0.655882	3	45.5	0.130958	51582	
-31340.6	753777	-433.809	2.15793	-785.709	-0.0205721	0.514645	1.03299	0.34851	0.655882	3	45.5	0.149503	51583	
-22897.9	767173	-481.733	2.31446	-811.41	0.00138307	0.515543	0.993198	0.349787	0.651995	3	91	0.149503	51583	
-12296	382589	-335.033	0.957857	-676.922	0.76078	0.57016	1.03299	0.34851	0.655882	3	45.5	0.196147	51584	
-25123.5	614301	-351.028	2.31524	-1016.07	-0.0253941	0.458985	1.03299	0.34851	0.655882	3	45.5	0.145499	51585	
-13075.2	287350	-155.162	1.92125	-1015.63	0.133484	0.358311	1.03299	0.34851	0.655882	3	45.5	0.12327	51587	
-10459.1	197849	-179.051	1.60188	-618.893	0.127104	0.418955	1.03299	0.34851	0.655882	3	45.5	0.18663	51589	
-11817.7	193670	-9.14154	1.42139	-803.49	0.737568	0.309502	1.03299	0.34851	0.655882	3	45.5	0.0236946	51590	
-12501.2	253995	-202.616	1.81105	-609.861	0.439941	0.403045	1.03299	0.34851	0.655882	3	45.5	0.159998	51592	
-7480.14	284831	-253.989	2.1582	-737.972	0.551048	0.380857	0.958125	0.351078	0.648177	3	182	0.159998	51592	
-6463.21	236423	-319.299	2.97661	-1098.8	3.20219e-05	0.458033	0.993198	0.349787	0.651995	3	91	0.235624	51593	
-2138.58	260367	-378.458	3.23684	-1130.93	0.0424232	0.481249	0.958125	0.351078	0.648177	0.0001	182	0.235624	51593	
-2138.58	260367	-378.458	3.23684	-1130.93	0.0424232	0.481249	0.958125	0.351078	0.648177	3	182	0.235624	51593	
-14423.1	177906	3.51924	2.89055	-875.072	0.362563	0.200793	1.03299	0.34851	0.655882	0.0001	45.5	0.0253849	51594	
-11701.8	137171	-52.7166	2.74458	-719.707	0.272029	0.235131	1.03299	0.34851	0.655882	3	45.5	0.0661377	51595	
-17872.4	392981	-420.079	2.79	-1006.8	0.457012	0.56077	1.03299	0.34851	0.655882	3	45.5	0.223066	51598	
-11264.3	426331	-485.851	3.11613	-1125	0.533791	0.583129	0.993198	0.349787	0.651995	0.0001	91	0.223066	51598	
-11264.3	426331	-485.851	3.11613	-1125	0.533791	0.583129	0.993198	0.349787	0.651995	3	91	0.223066	51598	
-2565.27	469795	-567.963	3.51519	-1281.38	0.635585	0.623906	0.958125	0.351078	0.648177	0.0001	182	0.223066	51598	
-2565.27	469795	-567.963	3.51519	-1281.38	0.635585	0.623906	0.958125	0.351078	0.648177	3	182	0.223066	51598	
-17879.9	482420	-49.1634	1.4365	-674.44	0.011248	0.310862	1.03299	0.34851	0.655882	3	45.5	0.0300874	51599	
-11290.1	762078	-411.227	0.364596	-768.913	0.0527446	0.553993	1.03299	0.34851	0.655882	3	45.5	0.140071	51600	
-12375.5	225610	-3.96897	1.42745	-601.839	0.00447565	0.309287	1.03299	0.34851	0.655882	3	45.5	0.0145614	51605	
-28637.1	599577	-349.954	2.60163	-872.328	0.294003	0.407855	1.03299	0.34851	0.655882	0.0001	45.5	0.138036	51606	
-28637.1	599577	-349.954	2.60163	-872.328	0.294003	0.407855	1.03299	0.34851	0.655882	3	45.5	0.138036	51606	
-20789	625551	-400.272	2.85541	-944.772	0.342579	0.410514	0.993198	0.349787	0.651995	0.0001	91	0.138036	51606	
-20789	625551	-400.272	2.85541	-944.772	0.342579	0.410514	0.993198	0.349787	0.651995	3	91	0.138036	51606	
-19287.7	354769	-82.4458	3.95761	-708.792	-0.000201356	0.120221	0.993198	0.349787	0.651995	0.0001	91	0.0418683	51607	
-23975.8	393930	-159.383	2.98228	-556.221	0.395281	0.222623	1.03299	0.34851	0.655882	0.0001	45.5	0.0828023	51608	
-18695.8	408319	-189.098	3.30027	-610.191	0.467788	0.223061	0.993198	0.349787	0.651995	3	91	0.0828023	51608	
-9275.17	137331	-178.227	3.29776	-712.802	0.00715193	0.251611	1.03299	0.34851	0.655882	0.0001	45.5	0.155846	51609	
-9275.17	137331	-178.227	3.29776	-712.802	0.00715193	0.251611	1.03299	0.34851	0.655882	3	45.5	0.155846	51609	
-6986.61	146937	-216.821	3.5963	-734.415	0.0594227	0.262977	0.993198	0.349787	0.651995	0.0001	91	0.155846	51609	
-6986.61	146937	-216.821	3.5963	-734.415	0.0594227	0.262977	0.993198	0.349787	0.651995	3	91	0.155846	51609	
-4090.57	158191	-263.042	3.95107	-768.907	0.123133	0.292608	0.958125	0.351078	0.648177	0.0001	182	0.155846	51609	
-4090.57	158191	-263.042	3.95107	-768.907	0.123133	0.292608	0.958125	0.351078	0.648177	3	182	0.155846	51609	
-9355.61	152699	-207.478	2.74785	-679.13	0.731649	0.326032	1.03299	0.34851	0.655882	0.0001	45.5	0.177227	51610	
-9355.61	152699	-207.478	2.74785	-679.13	0.731649	0.326032	1.03299	0.34851	0.655882	3	45.5	0.177227	51610	
-7071.38	169318	-243.663	3.09667	-788.691	0.869644	0.327294	0.993198	0.349787	0.651995	0.0001	91	0.177227	51610	
-7071.38	169318	-243.663	3.09667	-788.691	0.869644	0.327294	0.993198	0.349787	0.651995	3	91	0.177227	51610	
-3966.75	192435	-290.783	3.53867	-943.069	1.06415	0.34644	0.958125	0.351078	0.648177	0.0001	182	0.177227	51610	
-3966.75	192435	-290.783	3.53867	-943.069	1.06415	0.34644	0.958125	0.351078	0.648177	3	182	0.177227	51610	
-26201.8	625387	-191.283	2.07715	-1011.18	0.668373	0.319664	1.03299	0.34851	0.655882	3	45.5	0.0729722	51611	
-31920.5	815772	-352.234	1.9656	-864.294	0.554764	0.410714	1.03299	0.34851	0.655882	3	45.5	0.103262	51612	
-23933	857916	-392.849	2.16299	-969.959	0.628558	0.399115	0.993198	0.349787	0.651995	3	91	0.103262	51612	
-17094.2	620890	-375.412	1.01242	-681.107	0.659839	0.520616	1.03299	0.34851	0.655882	3	45.5	0.138726	51613	
-17177.9	369765	-158.885	1.90648	-554.21	0.406388	0.333354	1.03299	0.34851	0.655882	3	45.5	0.0938737	51615	
-11813.4	466194	-456.784	0.316935	-594.669	0.320425	0.761066	1.03299	0.34851	0.655882	3	45.5	0.248771	51616	
-11849.4	169897	-136.478	2.92725	-762.328	0.504759	0.253097	1.03299	0.34851	0.655882	0.0001	45.5	0.118614	51617	
-11849.4	169897	-136.478	2.92725	-762.328	0.504759	0.253097	1.03299	0.34851	0.655882	3	45.5	0.118614	51617	
-11909.1	299865	-178.695	1.32293	-726.641	-0.00458088	0.410079	1.03299	0.34851	0.655882	3	45.5	0.142933	51618	
-21631	836885	-332.762	1.21514	-842.042	-0.00193073	0.453615	1.03299	0.34851	0.655882	3	45.5	0.105162	51619	
-6969.59	16851.4	-65.6061	3.37009	-922.875	0.79476	0.228762	0.993198	0.349787	0.651995	0.0001	91	0.0472494	51621	
-13098.6	268110	-316.695	2.75295	-768.235	0.160387	0.461935	1.03299	0.34851	0.655882	0.0001	45.5	0.222446	51623	
-13098.6	268110	-316.695	2.75295	-768.235	0.160387	0.461935	1.03299	0.34851	0.655882	3	45.5	0.222446	51623	
-8934.9	283200	-364.105	3.01253	-816.619	0.201976	0.47314	0.993198	0.349787	0.651995	0.0001	91	0.222446	51623	
-8934.9	283200	-364.105	3.01253	-816.619	0.201976	0.47314	0.993198	0.349787	0.651995	3	91	0.222446	51623	
-3718.18	301631	-420.574	3.31644	-879.651	0.254023	0.499273	0.958125	0.351078	0.648177	0.0001	182	0.222446	51623	
-3718.18	301631	-420.574	3.31644	-879.651	0.254023	0.499273	0.958125	0.351078	0.648177	3	182	0.222446	51623	
-5992.82	8666.49	-90.0455	3.9408	-623.866	0.00990849	0.18746	0.993198	0.349787	0.651995	0.0001	91	0.0240977	51625	
-15576.5	182821	-23.9682	3.33692	-584.004	0.642338	0.143499	1.03299	0.34851	0.655882	3	45.5	0.0319438	51627	
-12933.9	195705	-46.1226	3.7661	-656.319	0.776472	0.15174	0.993198	0.349787	0.651995	3	91	0.0319438	51627	
-15251.3	264547	-231.719	3.18797	-757.233	-0.0407862	0.30185	1.03299	0.34851	0.655882	0.0001	45.5	0.15958	51628	
-15251.3	264547	-231.719	3.18797	-757.233	-0.0407862	0.30185	1.03299	0.34851	0.655882	3	45.5	0.15958	51628	
-11097.1	274973	-275.379	3.46476	-777.333	0.0077847	0.312909	0.993198	0.349787	0.651995	0.0001	91	0.15958	51628	
-11097.1	274973	-275.379	3.46476	-777.333	0.0077847	0.312909	0.993198	0.349787	0.651995	3	91	0.15958	51628	
-11367.1	237001	-229.983	1.68805	-614.471	0.295466	0.458588	1.03299	0.34851	0.655882	3	45.5	0.20028	51630	
-30911.5	639853	-406.48	2.49394	-683.367	0.111556	0.472629	1.03299	0.34851	0.655882	0.0001	45.5	0.154496	51633	
-30911.5	639853	-406.48	2.49394	-683.367	0.111556	0.472629	1.03299	0.34851	0.655882	3	45.5	0.154496	51633	
-22716.9	654930	-455.215	2.70863	-727.013	0.143791	0.477747	0.993198	0.349787	0.651995	3	91	0.154496	51633	
-6595.74	87176.8	-163.415	2.32533	-656.095	0.38309	0.348914	1.03299	0.34851	0.655882	0.0001	45.5	0.209758	51634	
-6595.74	87176.8	-163.415	2.32533	-656.095	0.38309	0.348914	1.03299	0.34851	0.655882	3	45.5	0.209758	51634	
-5498.73	97642	-190.286	2.54698	-711.513	0.435486	0.340117	0.993198	0.349787	0.651995	0.0001	91	0.209758	51634	
-5498.73	97642	-190.286	2.54698	-711.513	0.435486	0.340117	0.993198	0.349787	0.651995	3	91	0.209758	51634	
-4026.2	110471	-222.564	2.80471	-781.069	0.501396	0.342887	0.958125	0.351078	0.648177	0.0001	182	0.209758	51634	
-4026.2	110471	-222.564	2.80471	-781.069	0.501396	0.342887	0.958125	0.351078	0.648177	3	182	0.209758	51634	
-1277.25	132806	-276.932	3.2243	-904.975	0.618858	0.366155	0.9175	0.352806	0.64323	0.0001	455	0.209758	51634	
-1277.25	132806	-276.932	3.2243	-904.975	0.618858	0.366155	0.9175	0.352806	0.64323	3	455	0.209758	51634	
-21400.8	929008	-452.012	0.94465	-859.235	0.852835	0.516147	1.03299	0.34851	0.655882	3	45.5	0.108094	51635	
-21372	335986	-13.4316	2.84318	-848.349	0.234633	0.199653	1.03299	0.34851	0.655882	3	45.5	0.0246556	51636	
-17319.6	352851	-37.94	3.10691	-885.735	0.284008	0.194182	0.993198	0.349787	0.651995	0.0001	91	0.0246556	51636	
-23047	531935	-236.221	3.40698	-789.835	0.796984	0.222934	0.993198	0.349787	0.651995	3	91	0.0833448	51640	
-8564.11	97678	-105.952	2.71486	-1090.63	-0.0168267	0.292116	1.03299	0.34851	0.655882	0.0001	45.5	0.146087	51641	
-8564.11	97678	-105.952	2.71486	-1090.63	-0.0168267	0.292116	1.03299	0.34851	0.655882	3	45.5	0.146087	51641	
-13881.4	469125	-355.026	0.994293	-652.619	-0.00458369	0.583978	1.03299	0.34851	0.655882	3	45.5	0.193668	51643	
-10987	478798	-379.602	1.04608	-662.245	-1.42232e-05	0.573468	0.993198	0.349787	0.651995	3	91	0.193668	51643	
-39835.9	722682	-418.667	2.61461	-551.583	0.812461	0.395146	1.03299	0.34851	0.655882	0.0001	45.5	0.124047	51644	
-39835.9	722682	-418.667	2.61461	-551.583	0.812461	0.395146	1.03299	0.34851	0.655882	3	45.5	0.124047	51644	
-30032.8	765673	-467.585	2.95899	-669.401	0.971211	0.398162	0.993198	0.349787	0.651995	0.0001	91	0.124047	51644	
-30032.8	765673	-467.585	2.95899	-669.401	0.971211	0.398162	0.993198	0.349787	0.651995	3	91	0.124047	51644	
-15240	738538	-175.532	0.727945	-680.738	0.0695206	0.373183	1.03299	0.34851	0.655882	3	45.5	0.0617626	51646	
-11958.1	226902	-75.73	1.71739	-1027.45	-0.00936094	0.323147	1.03299	0.34851	0.655882	3	45.5	0.0820729	51647	
-10854.9	224445	-262.455	3.21732	-1151.83	0.0458588	0.372478	1.03299	0.34851	0.655882	0.0001	45.5	0.207448	51648	
-10854.9	224445	-262.455	3.21732	-1151.83	0.0458588	0.372478	1.03299	0.34851	0.655882	3	45.5	0.207448	51648	
-6849.08	250329	-322.369	3.52228	-1190.74	0.09643	0.390087	0.993198	0.349787	0.651995	0.0001	91	0.207448	51648	
-6849.08	250329	-322.369	3.52228	-1190.74	0.09643	0.390087	0.993198	0.349787	0.651995	3	91	0.207448	51648	
-1536.51	280144	-394.685	3.88574	-1250.01	0.159097	0.426261	0.958125	0.351078	0.648177	0.0001	182	0.207448	51648	
-1536.51	280144	-394.685	3.88574	-1250.01	0.159097	0.426261	0.958125	0.351078	0.648177	3	182	0.207448	51648	
-25263.4	543437	-47.4163	2.25134	-1176.79	-0.00292691	0.26005	1.03299	0.34851	0.655882	3	45.5	0.0336584	51649	
-26234.4	641311	-255.11	2.01086	-673.698	0.00296791	0.374953	1.03299	0.34851	0.655882	3	45.5	0.101442	51650	
-16609.5	473718	-406.975	2.51916	-625.935	0.499495	0.486682	0.993198	0.349787	0.651995	0.0001	91	0.172372	51653	
-16609.5	473718	-406.975	2.51916	-625.935	0.499495	0.486682	0.993198	0.349787	0.651995	3	91	0.172372	51653	
-11567.1	343616	-232.804	1.00939	-676.437	0.100185	0.470819	1.03299	0.34851	0.655882	3	45.5	0.166828	51654	
-11856.4	589818	-431.188	0.775065	-1034.94	0.593907	0.61547	1.03299	0.34851	0.655882	3	45.5	0.173866	51656	
-13276.4	309263	-53.6735	1.45574	-1126.17	0.00664693	0.32034	1.03299	0.34851	0.655882	3	45.5	0.0511613	51657	
-7659.23	177165	-300.804	3.52576	-942.587	0.542016	0.336271	1.03299	0.34851	0.655882	0.0001	45.5	0.223117	51659	
-7659.23	177165	-300.804	3.52576	-942.587	0.542016	0.336271	1.03299	0.34851	0.655882	3	45.5	0.223117	51659	
-3731.16	202381	-364.643	3.99229	-1070.38	0.660542	0.363571	0.993198	0.349787	0.651995	0.0001	91	0.223117	51659	
-3731.16	202381	-364.643	3.99229	-1070.38	0.660542	0.363571	0.993198	0.349787	0.651995	3	91	0.223117	51659	
-13322	172639	-4.05231	2.59548	-1113.3	0.110317	0.237809	1.03299	0.34851	0.655882	3	45.5	0.0372911	51661	
-13194.4	538183	-252.936	0.811368	-679.865	-0.00291893	0.44717	1.03299	0.34851	0.655882	3	45.5	0.121525	51662	
-26296.5	565423	-177.458	2.4168	-961.975	0.23382	0.293528	1.03299	0.34851	0.655882	0.0001	45.5	0.0794329	51664	
-26296.5	565423	-177.458	2.4168	-961.975	0.23382	0.293528	1.03299	0.34851	0.655882	3	45.5	0.0794329	51664	
-18205.4	570262	-423.431	1.23844	-700.101	0.660117	0.585527	1.03299	0.34851	0.655882	3	45.5	0.169108	51665	
-13695	604792	-456.501	1.35883	-797.997	0.745255	0.578129	0.993198	0.349787	0.651995	0.0001	91	0.169108	51665	
-8716.45	437738	-420.768	0.386945	-1014.92	0.457388	0.725281	1.03299	0.34851	0.655882	3	45.5	0.244741	51666	
-16093	277499	-213.374	3.14595	-981.349	0.729732	0.271627	1.03299	0.34851	0.655882	0.0001	45.5	0.135858	51668	
-16093	277499	-213.374	3.14595	-981.349	0.729732	0.271627	1.03299	0.34851	0.655882	3	45.5	0.135858	51668	
-11637.3	309603	-264.364	3.56836	-1136.13	0.880711	0.281423	0.993198	0.349787	0.651995	0.0001	91	0.135858	51668	
-11637.3	309603	-264.364	3.56836	-1136.13	0.880711	0.281423	0.993198	0.349787	0.651995	3	91	0.135858	51668	
-12006.3	339247	-178.509	1.40276	-1082.31	0.0154194	0.402373	1.03299	0.34851	0.655882	3	45.5	0.129599	51670	
-25071.5	624244	-160.392	2.00328	-883.647	0.00741584	0.316691	1.03299	0.34851	0.655882	3	45.5	0.0689892	51671	
-10992	211365	-255.625	1.95098	-541.633	0.641	0.46132	1.03299	0.34851	0.655882	0.0001	45.5	0.213845	51672	
-10992	211365	-255.625	1.95098	-541.633	0.641	0.46132	1.03299	0.34851	0.655882	3	45.5	0.213845	51672	
-8680.22	226064	-283.798	2.16035	-618.976	0.733869	0.453813	0.993198	0.349787	0.651995	0.0001	91	0.213845	51672	
-29346.8	499158	-431.378	3.40974	-726.887	0.0994418	0.433635	1.03299	0.34851	0.655882	0.0001	45.5	0.187609	51675	
-29346.8	499158	-431.378	3.40974	-726.887	0.0994418	0.433635	1.03299	0.34851	0.655882	3	45.5	0.187609	51675	
-8952.61	536187	-579.778	4.19765	-867.714	0.233871	0.514958	0.958125	0.351078	0.648177	0.0001	182	0.187609	51675	
-8952.61	536187	-579.778	4.19765	-867.714	0.233871	0.514958	0.958125	0.351078	0.648177	3	182	0.187609	51675	
-17454	414378	-432.492	2.07199	-744.841	0.102845	0.660062	1.03299	0.34851	0.655882	0.0001	45.5	0.241554	51678	
-17454	414378	-432.492	2.07199	-744.841	0.102845	0.660062	1.03299	0.34851	0.655882	3	45.5	0.241554	51678	
-12159.3	430249	-480.314	2.24265	-784.485	0.125304	0.674283	0.993198	0.349787	0.651995	0.0001	91	0.241554	51678	
-5700.11	449070	-534.927	2.43497	-833.397	0.152322	0.699312	0.958125	0.351078	0.648177	3	182	0.241554	51678	
-19489.2	375915	-230.377	2.7942	-833.485	-0.0225813	0.328609	1.03299	0.34851	0.655882	0.0001	45.5	0.135887	51680	
-19489.2	375915	-230.377	2.7942	-833.485	-0.0225813	0.328609	1.03299	0.34851	0.655882	3	45.5	0.135887	51680	
-14518.8	388507	-271.222	3.0183	-852.056	0.0144718	0.329729	0.993198	0.349787	0.651995	0.0001	91	0.135887	51680	
-14518.8	388507	-271.222	3.0183	-852.056	0.0144718	0.329729	0.993198	0.349787	0.651995	3	91	0.135887	51680	
-22679.5	484777	-71.8681	2.15541	-972.911	0.355606	0.270167	1.03299	0.34851	0.655882	3	45.5	0.0427868	51681	
-16192.5	859508	-361.378	0.679836	-713.492	0.149619	0.480437	1.03299	0.34851	0.655882	3	45.5	0.107258	51682	
-7842.76	245922	-187.836	0.0120146	-820.79	0.478576	0.490145	1.03299	0.34851	0.655882	0.0001	45.5	0.206133	51684	
-7842.76	245922	-187.836	0.0120146	-820.79	0.478576	0.490145	1.03299	0.34851	0.655882	3	45.5	0.206133	51684	
-7745.81	266063	-193.758	0.0127164	-888.004	0.517729	0.465905	0.993198	0.349787	0.651995	0.0001	91	0.206133	51684	
-7745.81	266063	-193.758	0.0127164	-888.004	0.517729	0.465905	0.993198	0.349787	0.651995	3	91	0.206133	51684	
-16226.4	854695	-0.604276	0.511786	-627.591	0.82623	0.334929	1.03299	0.34851	0.655882	3	45.5	0.00141438	51685	
-36576.4	812846	-312.697	2.55502	-1043.47	0.0330933	0.34962	1.03299	0.34851	0.655882	0.0001	45.5	0.102889	51686	
-36576.4	812846	-312.697	2.55502	-1043.47	0.0330933	0.34962	1.03299	0.34851	0.655882	3	45.5	0.102889	51686	
-26839.4	835130	-362.123	2.75688	-1075.13	0.0644076	0.345975	0.993198	0.349787	0.651995	0.0001	91	0.102889	51686	
-26839.4	835130	-362.123	2.75688	-1075.13	0.0644076	0.345975	0.993198	0.349787	0.651995	3	91	0.102889	51686	
-9948.49	224073	-198.171	3.9247	-1094.9	0.103564	0.216965	0.993198	0.349787	0.651995	0.0001	91	0.123194	51687	
-9948.49	224073	-198.171	3.9247	-1094.9	0.103564	0.216965	0.993198	0.349787	0.651995	3	91	0.123194	51687	
-17788.2	265080	-11.5439	2.90401	-1105.01	0.0848581	0.20095	1.03299	0.34851	0.655882	3	45.5	0.0346062	51689	
-14484.9	287578	-43.1944	3.15097	-1125.7	0.126809	0.196983	0.993198	0.349787	0.651995	3	91	0.0346062	51689	
-21452.4	506656	-329.157	1.84871	-572.881	0.577636	0.458078	1.03299	0.34851	0.655882	3	45.5	0.14283	51692	
-16557.3	531424	-361.538	2.03516	-649.783	0.65386	0.448223	0.993198	0.349787	0.651995	3	91	0.14283	51692	
-8862.64	142880	-47.8937	0.0911363	-1243.37	1.1184	0.298191	0.958125	0.351078	0.648177	3	182	0.126692	51693	
-8991.58	205040	-50.9983	0.102686	-1622.6	1.45941	0.263164	0.9175	0.352806	0.64323	0.0001	455	0.126692	51693	
-8991.58	205040	-50.9983	0.102686	-1622.6	1.45941	0.263164	0.9175	0.352806	0.64323	3	455	0.126692	51693	
-17175.1	400539	-145.669	3.44423	-1136.29	0.0343232	0.200287	0.993198	0.349787	0.651995	0.0001	91	0.0723272	51695	
-10357	189577	-187.368	2.65797	-1118.5	0.144928	0.355626	1.03299	0.34851	0.655882	0.0001	45.5	0.178995	51696	
-20123.6	400284	-65.1048	3.67036	-957.568	0.267828	0.141934	0.993198	0.349787	0.651995	0.0001	91	0.0336977	51697	
-20123.6	400284	-65.1048	3.67036	-957.568	0.267828	0.141934	0.993198	0.349787	0.651995	3	91	0.0336977	51697	
-14566.1	311014	-347.008	2.82375	-871.173	0.0197043	0.496027	1.03299	0.34851	0.655882	3	45.5	0.227216	51698	
-9593.75	327309	-400.849	3.07347	-905.546	0.0580651	0.512079	0.993198	0.349787	0.651995	3	91	0.227216	51698	
-3398.3	346785	-464.297	3.36443	-953.976	0.104518	0.543267	0.958125	0.351078	0.648177	0.0001	182	0.227216	51698	
-3398.3	346785	-464.297	3.36443	-953.976	0.104518	0.543267	0.958125	0.351078	0.648177	3	182	0.227216	51698	
-5179.25	81283.5	-173.097	2.90681	-1074.5	0.134837	0.32506	1.03299	0.34851	0.655882	0.0001	45.5	0.226302	51699	
-5179.25	81283.5	-173.097	2.90681	-1074.5	0.134837	0.32506	1.03299	0.34851	0.655882	3	45.5	0.226302	51699	
-3732.27	103519	-217.824	3.17389	-1117.17	0.179236	0.329519	0.993198	0.349787	0.651995	0.0001	91	0.226302	51699	
-3732.27	103519	-217.824	3.17389	-1117.17	0.179236	0.329519	0.993198	0.349787	0.651995	3	91	0.226302	51699	
-1582.44	128692	-271.573	3.48685	-1175.84	0.234561	0.349341	0.958125	0.351078	0.648177	0.0001	182	0.226302	51699	
-1582.44	128692	-271.573	3.48685	-1175.84	0.234561	0.349341	0.958125	0.351078	0.648177	3	182	0.226302	51699	
-12933.3	187725	-166.593	3.16096	-640.348	0.578767	0.233385	1.03299	0.34851	0.655882	0.0001	45.5	0.122859	51700	
-12933.3	187725	-166.593	3.16096	-640.348	0.578767	0.233385	1.03299	0.34851	0.655882	3	45.5	0.122859	51700	
-10050.8	202268	-201.818	3.54996	-724.658	0.691374	0.240705	0.993198	0.349787	0.651995	0.0001	91	0.122859	51700	
-10050.8	202268	-201.818	3.54996	-724.658	0.691374	0.240705	0.993198	0.349787	0.651995	3	91	0.122859	51700	
-7088.99	-21144.1	-15.9168	2.82975	-957.9	0.759128	0.253626	1.03299	0.34851	0.655882	0.0001	45.5	0.0213758	51701	
-7088.99	-21144.1	-15.9168	2.82975	-957.9	0.759128	0.253626	1.03299	0.34851	0.655882	3	45.5	0.0213758	51701	
-29487.8	675354	-28.3782	2.95608	-696.555	0.730084	0.180805	0.993198	0.349787	0.651995	3	91	0.0103377	51702	
-15972.8	678467	-376.616	0.873834	-715.104	0.0410177	0.534463	1.03299	0.34851	0.655882	3	45.5	0.143837	51705	
-25830	418191	-238.492	3.4968	-886.188	0.436099	0.214532	1.03299	0.34851	0.655882	0.0001	45.5	0.116462	51710	
-18746.2	444189	-292.237	3.91891	-983.154	0.533143	0.231907	0.993198	0.349787	0.651995	0.0001	91	0.116462	51710	
-18746.2	444189	-292.237	3.91891	-983.154	0.533143	0.231907	0.993198	0.349787	0.651995	3	91	0.116462	51710	
-11082.2	160098	-109.939	2.50193	-819.429	0.041663	0.292377	1.03299	0.34851	0.655882	0.0001	45.5	0.118702	51711	
-11082.2	160098	-109.939	2.50193	-819.429	0.041663	0.292377	1.03299	0.34851	0.655882	3	45.5	0.118702	51711	
-26277.3	782764	-343.27	1.674	-851.439	0.115147	0.451224	1.03299	0.34851	0.655882	3	45.5	0.112844	51712	
-14647.1	303502	-327.526	3.0836	-943.712	-0.0456921	0.441344	1.03299	0.34851	0.655882	0.0001	45.5	0.214857	51713	
-14647.1	303502	-327.526	3.0836	-943.712	-0.0456921	0.441344	1.03299	0.34851	0.655882	3	45.5	0.214857	51713	
-9490.17	320701	-385.144	3.35661	-970.331	-0.000133428	0.46015	0.993198	0.349787	0.651995	0.0001	91	0.214857	51713	
-9490.17	320701	-385.144	3.35661	-970.331	-0.000133428	0.46015	0.993198	0.349787	0.651995	3	91	0.214857	51713	
-3033.81	341067	-453.412	3.67824	-1013.2	0.0542128	0.495923	0.958125	0.351078	0.648177	0.0001	182	0.214857	51713	
-3033.81	341067	-453.412	3.67824	-1013.2	0.0542128	0.495923	0.958125	0.351078	0.648177	3	182	0.214857	51713	
-15820	540824	-70.8234	1.00899	-986.52	0.840149	0.331335	1.03299	0.34851	0.655882	3	45.5	0.0326634	51715	
-22822.2	466368	-409.323	2.55169	-701.651	0.195882	0.533169	1.03299	0.34851	0.655882	3	45.5	0.1959	51717	
-16230.4	483446	-460.632	2.79227	-756.919	0.234464	0.545606	0.993198	0.349787	0.651995	0.0001	91	0.1959	51717	
-16230.4	483446	-460.632	2.79227	-756.919	0.234464	0.545606	0.993198	0.349787	0.651995	3	91	0.1959	51717	
-8958.47	177478	-236.749	2.74499	-1020.79	0.475615	0.393715	1.03299	0.34851	0.655882	0.0001	45.5	0.216915	51719	
-8958.47	177478	-236.749	2.74499	-1020.79	0.475615	0.393715	1.03299	0.34851	0.655882	3	45.5	0.216915	51719	
-6162.92	203616	-284.538	3.05198	-1127.65	0.5541	0.39955	0.993198	0.349787	0.651995	0.0001	91	0.216915	51719	
-6162.92	203616	-284.538	3.05198	-1127.65	0.5541	0.39955	0.993198	0.349787	0.651995	3	91	0.216915	51719	
-2293.75	237184	-344.637	3.42461	-1268.46	0.657662	0.421735	0.958125	0.351078	0.648177	0.0001	182	0.216915	51719	
-2293.75	237184	-344.637	3.42461	-1268.46	0.657662	0.421735	0.958125	0.351078	0.648177	3	182	0.216915	51719	
-18564.9	316998	-156.128	2.72005	-733.058	0.735075	0.260648	1.03299	0.34851	0.655882	0.0001	45.5	0.0941371	51720	
-14551.4	341428	-188.993	3.05865	-845.821	0.873111	0.256575	0.993198	0.349787	0.651995	0.0001	91	0.0941371	51720	
-14551.4	341428	-188.993	3.05865	-845.821	0.873111	0.256575	0.993198	0.349787	0.651995	3	91	0.0941371	51720	
-16288.6	345226	-203.387	3.93509	-852.68	0.254114	0.183416	0.993198	0.349787	0.651995	0.0001	91	0.0964737	51721	
-16288.6	345226	-203.387	3.93509	-852.68	0.254114	0.183416	0.993198	0.349787	0.651995	3	91	0.0964737	51721	
-26814.2	505695	-230.414	3.08743	-1078.99	0.0824954	0.272547	1.03299	0.34851	0.655882	0.0001	45.5	0.110707	51722	
-26814.2	505695	-230.414	3.08743	-1078.99	0.0824954	0.272547	1.03299	0.34851	0.655882	3	45.5	0.110707	51722	
-19496.7	529570	-282.37	3.36858	-1119.04	0.129948	0.278683	0.993198	0.349787	0.651995	0.0001	91	0.110707	51722	
-9322.65	168212	-189.689	2.08903	-895.861	0.179503	0.412808	1.03299	0.34851	0.655882	0.0001	45.5	0.210236	51724	
-9322.65	168212	-189.689	2.08903	-895.861	0.179503	0.412808	1.03299	0.34851	0.655882	3	45.5	0.210236	51724	
-7511.8	185121	-220.78	2.25565	-935.416	0.206058	0.403484	0.993198	0.349787	0.651995	0.0001	91	0.210236	51724	
-17009.7	503694	-124.903	1.51006	-1088.57	-0.0103055	0.337849	1.03299	0.34851	0.655882	3	45.5	0.0673209	51725	
-18889	292714	-93.4117	2.85836	-685.097	0.715715	0.21269	1.03299	0.34851	0.655882	3	45.5	0.0632372	51726	
-15156.7	313891	-121.076	3.21507	-784.09	0.85259	0.209576	0.993198	0.349787	0.651995	0.0001	91	0.0632372	51726	
-15156.7	313891	-121.076	3.21507	-784.09	0.85259	0.209576	0.993198	0.349787	0.651995	3	91	0.0632372	51726	
-11809.5	530608	-412.605	0.682666	-850.644	0.114418	0.646098	1.03299	0.34851	0.655882	3	45.5	0.201016	51727	
-37202.8	691858	-369.03	3.32786	-1130.35	-0.0530461	0.34277	1.03299	0.34851	0.655882	0.0001	45.5	0.137229	51731	
-37202.8	691858	-369.03	3.32786	-1130.35	-0.0530461	0.34277	1.03299	0.34851	0.655882	3	45.5	0.137229	51731	
-21289.8	492489	-277.116	2.3109	-887.33	-0.0252556	0.401292	1.03299	0.34851	0.655882	3	45.5	0.137771	51733	
-16063.2	378066	-196.279	3.0469	-711.035	0.000488927	0.263164	0.993198	0.349787	0.651995	0.0001	91	0.0990535	51734	
-16063.2	378066	-196.279	3.0469	-711.035	0.000488927	0.263164	0.993198	0.349787	0.651995	3	91	0.0990535	51734	
-17845.4	387771	-139.412	2.16594	-1004.61	0.329519	0.309459	1.03299	0.34851	0.655882	3	45.5	0.0860921	51742	
-15270.1	307125	-353.187	3.59198	-1043.89	0.08007	0.399254	1.03299	0.34851	0.655882	0.0001	45.5	0.214709	51743	
-15270.1	307125	-353.187	3.59198	-1043.89	0.08007	0.399254	1.03299	0.34851	0.655882	3	45.5	0.214709	51743	
-9010.31	330975	-425.601	3.97303	-1101.41	0.144732	0.432399	0.993198	0.349787	0.651995	0.0001	91	0.214709	51743	
-9010.31	330975	-425.601	3.97303	-1101.41	0.144732	0.432399	0.993198	0.349787	0.651995	3	91	0.214709	51743	
-850.986	360716	-515.431	4.44127	-1186.68	0.227645	0.490002	0.958125	0.351078	0.648177	0.0001	182	0.214709	51743	
-850.986	360716	-515.431	4.44127	-1186.68	0.227645	0.490002	0.958125	0.351078	0.648177	3	182	0.214709	51743	
-12046.2	285273	-159.061	1.33841	-627.029	-0.00389511	0.391061	1.03299	0.34851	0.655882	3	45.5	0.131498	51744	
-9017.36	83475.2	-34.5949	2.24329	-897.934	0.939937	0.268157	0.993198	0.349787	0.651995	0.0001	91	0.0526292	51745	
-9017.36	83475.2	-34.5949	2.24329	-897.934	0.939937	0.268157	0.993198	0.349787	0.651995	3	91	0.0526292	51745	
-30116.1	821033	-446.294	1.67526	-616.38	0.0244133	0.538271	1.03299	0.34851	0.655882	3	45.5	0.141078	51746	
-27114.6	837986	-113.012	1.59939	-1190.65	0.00213649	0.317143	1.03299	0.34851	0.655882	3	45.5	0.0403843	51747	
-5191.82	72510.2	-163.354	2.61643	-950.474	0.713349	0.325625	1.03299	0.34851	0.655882	0.0001	45.5	0.218279	51748	
-5191.82	72510.2	-163.354	2.61643	-950.474	0.713349	0.325625	1.03299	0.34851	0.655882	3	45.5	0.218279	51748	
-4011.99	94409.5	-201.733	2.93743	-1088.32	0.842093	0.323121	0.993198	0.349787	0.651995	0.0001	91	0.218279	51748	
-4011.99	94409.5	-201.733	2.93743	-1088.32	0.842093	0.323121	0.993198	0.349787	0.651995	3	91	0.218279	51748	
-2141.75	124903	-252.143	3.33955	-1279.93	1.02118	0.336779	0.958125	0.351078	0.648177	0.0001	182	0.218279	51748	
-2141.75	124903	-252.143	3.33955	-1279.93	1.02118	0.336779	0.958125	0.351078	0.648177	3	182	0.218279	51748	
-4630.73	76932.6	-182.792	2.91582	-822.361	0.127238	0.306083	1.03299	0.34851	0.655882	0.0001	45.5	0.208985	51749	
-4630.73	76932.6	-182.792	2.91582	-822.361	0.127238	0.306083	1.03299	0.34851	0.655882	3	45.5	0.208985	51749	
-3258.19	90464	-221.225	3.18128	-858.273	0.171487	0.309418	0.993198	0.349787	0.651995	0.0001	91	0.208985	51749	
-3258.19	90464	-221.225	3.18128	-858.273	0.171487	0.309418	0.993198	0.349787	0.651995	3	91	0.208985	51749	
-1357.7	106044	-267.191	3.492	-907.28	0.226493	0.328052	0.958125	0.351078	0.648177	0.0001	182	0.208985	51749	
-1357.7	106044	-267.191	3.492	-907.28	0.226493	0.328052	0.958125	0.351078	0.648177	3	182	0.208985	51749	
-12439.2	331189	-211.395	1.50157	-900.988	-0.00200721	0.430888	1.03299	0.34851	0.655882	3	45.5	0.154184	51750	
-11702.5	224910	-137.008	3.63661	-951.709	0.586236	0.196797	0.993198	0.349787	0.651995	0.0001	91	0.0848197	51751	
-11702.5	224910	-137.008	3.63661	-951.709	0.586236	0.196797	0.993198	0.349787	0.651995	3	91	0.0848197	51751	
-23591.3	673914	-114.08	2.4689	-1037.28	0.340287	0.239599	0.993198	0.349787	0.651995	3	91	0.0395214	51752	
-8685.88	53466.8	-40.9806	1.07277	-1175.59	0.269628	0.31877	0.993198	0.349787	0.651995	0.0001	91	0.16092	51753	
-14575.7	439381	-105.263	1.17021	-858.375	0.544019	0.34149	1.03299	0.34851	0.655882	3	45.5	0.0581888	51754	
-6462.71	274313	-209.95	2.43639	-1275.19	0.379582	0.331243	0.958125	0.351078	0.648177	0.0001	182	0.135663	51755	
-6462.71	274313	-209.95	2.43639	-1275.19	0.379582	0.331243	0.958125	0.351078	0.648177	3	182	0.135663	51755	
-13305.9	490725	-401.26	0.839648	-704.702	-0.00325489	0.650529	1.03299	0.34851	0.655882	3	45.5	0.212624	51756	
-13484.9	407898	-356.752	1.4234	-872.817	0.0474837	0.602117	1.03299	0.34851	0.655882	3	45.5	0.216915	51757	
-24102.5	480837	-107.837	2.37359	-788.033	0.356703	0.264181	1.03299	0.34851	0.655882	0.0001	45.5	0.0562884	51758	
-24102.5	480837	-107.837	2.37359	-788.033	0.356703	0.264181	1.03299	0.34851	0.655882	3	45.5	0.0562884	51758	
-23579.7	685852	-297.309	1.52561	-718.776	0.714519	0.413232	1.03299	0.34851	0.655882	3	45.5	0.0983808	51760	
-1372.79	47999	-278.533	4.42836	-914.64	1.03008	0.33842	0.9175	0.352806	0.64323	0.0001	455	0.134872	51761	
-1372.79	47999	-278.533	4.42836	-914.64	1.03008	0.33842	0.9175	0.352806	0.64323	3	455	0.134872	51761	
-11349.9	177226	-228.905	3.07651	-523.412	0.746985	0.28353	1.03299	0.34851	0.655882	0.0001	45.5	0.15956	51762	
-11349.9	177226	-228.905	3.07651	-523.412	0.746985	0.28353	1.03299	0.34851	0.655882	3	45.5	0.15956	51762	
-8421.38	191357	-265.702	3.48949	-618.489	0.900549	0.291905	0.993198	0.349787	0.651995	0.0001	91	0.15956	51762	
-8421.38	191357	-265.702	3.48949	-618.489	0.900549	0.291905	0.993198	0.349787	0.651995	3	91	0.15956	51762	
-4543.66	211234	-314.114	4.02415	-755.703	1.12212	0.322612	0.958125	0.351078	0.648177	0.0001	182	0.15956	51762	
-4543.66	211234	-314.114	4.02415	-755.703	1.12212	0.322612	0.958125	0.351078	0.648177	3	182	0.15956	51762	
-14263.8	766247	-284.581	0.765993	-930.326	-0.002325	0.438189	1.03299	0.34851	0.655882	3	45.5	0.097445	51764	
-10414.8	756385	-451.04	0.431868	-982.266	0.0023936	0.602983	1.03299	0.34851	0.655882	3	45.5	0.156562	51768	
-9889.81	123325	-100.856	2.18928	-695.094	0.64983	0.306018	1.03299	0.34851	0.655882	0.0001	45.5	0.118472	51769	
-9889.81	123325	-100.856	2.18928	-695.094	0.64983	0.306018	1.03299	0.34851	0.655882	3	45.5	0.118472	51769	
-27635.8	618357	-35.7971	3.04396	-657.492	0.0720718	0.176767	0.993198	0.349787	0.651995	3	91	0.0146163	51772	
-11324.1	172505	-72.489	1.90363	-748.621	0.130271	0.310345	1.03299	0.34851	0.655882	3	45.5	0.0864759	51773	
-5664.41	214064	-142.998	2.39855	-838.16	0.21222	0.271394	0.9175	0.352806	0.64323	3	455	0.0864759	51773	
-10466.5	499657	-347.258	0.715151	-1005.62	0.671079	0.547255	1.03299	0.34851	0.655882	3	45.5	0.162776	51774	
-10306.7	162890	-110.833	3.8516	-871.221	0.880897	0.171635	0.993198	0.349787	0.651995	0.0001	91	0.0727301	51775	
-10306.7	162890	-110.833	3.8516	-871.221	0.880897	0.171635	0.993198	0.349787	0.651995	3	91	0.0727301	51775	
-8205.81	74149.7	-95.7998	1.78452	-563.172	0.378478	0.33939	1.03299	0.34851	0.655882	3	45.5	0.159652	51776	
-16375.4	354094	-236.99	2.47764	-974.833	-0.0290282	0.380194	1.03299	0.34851	0.655882	3	45.5	0.151959	51777	
-18393.5	230443	-0.836755	3.50883	-687.437	0.161097	0.120766	1.03299	0.34851	0.655882	0.0001	45.5	0.0207059	51778	
-14943.2	240306	-24.4418	3.86161	-709.887	0.226497	0.132271	0.993198	0.349787	0.651995	3	91	0.0207059	51778	
-21559.6	459805	-210.39	2.36	-926.771	0.561555	0.326855	1.03299	0.34851	0.655882	3	45.5	0.102692	51779	
-8912.73	39198.5	-4.61237	2.61152	-814.577	0.827313	0.244524	1.03299	0.34851	0.655882	3	45.5	0.04539	51780	
-19281.8	565707	-266.147	1.5664	-896.116	0.741107	0.407848	1.03299	0.34851	0.655882	3	45.5	0.106273	51781	
-16015.6	504895	-35.9699	1.08969	-896.652	0.274958	0.323129	1.03299	0.34851	0.655882	3	45.5	0.0224341	51783	
-15348	220242	-34.6424	2.65404	-684.265	0.444011	0.2254	1.03299	0.34851	0.655882	0.0001	45.5	0.0402264	51784	
-11588.4	219471	-212.543	2.6089	-885.403	-0.0319052	0.372401	1.03299	0.34851	0.655882	3	45.5	0.18274	51785	
-8705.95	233703	-251.119	2.8099	-899.648	0.000339983	0.371793	0.993198	0.349787	0.651995	3	91	0.18274	51785	
-5645.81	138377	-271.893	3.30029	-789.67	-0.0456514	0.354516	1.03299	0.34851	0.655882	0.0001	45.5	0.241506	51787	
-5645.81	138377	-271.893	3.30029	-789.67	-0.0456514	0.354516	1.03299	0.34851	0.655882	3	45.5	0.241506	51787	
-2804.63	150772	-322.155	3.59933	-814.049	0.00659946	0.373217	0.993198	0.349787	0.651995	0.0001	91	0.241506	51787	
-2804.63	150772	-322.155	3.59933	-814.049	0.00659946	0.373217	0.993198	0.349787	0.651995	3	91	0.241506	51787	
868.455	165357	-382.213	3.95545	-853.877	0.0693594	0.4106	0.958125	0.351078	0.648177	0.0001	182	0.241506	51787	
868.455	165357	-382.213	3.95545	-853.877	0.0693594	0.4106	0.958125	0.351078	0.648177	3	182	0.241506	51787	
-23096.8	384657	-262.804	3.23104	-579.644	0.0287702	0.287192	1.03299	0.34851	0.655882	0.0001	45.5	0.1386	51788	
-23096.8	384657	-262.804	3.23104	-579.644	0.0287702	0.287192	1.03299	0.34851	0.655882	3	45.5	0.1386	51788	
-9419.68	751792	-403.264	0.0583875	-571.537	0.389873	0.533919	1.03299	0.34851	0.655882	3	45.5	0.130128	51789	
-19397	604078	-264.873	1.4629	-760.366	0.0693422	0.419954	1.03299	0.34851	0.655882	3	45.5	0.111681	51791	
-29539.6	801548	-375.62	1.91415	-858.575	0.0402871	0.460096	1.03299	0.34851	0.655882	3	45.5	0.122563	51792	
-10316.8	265750	-235.032	1.08905	-782.688	0.665596	0.494387	1.03299	0.34851	0.655882	3	45.5	0.19796	51793	
-13560.2	323515	-270.064	1.92818	-841.916	0.16379	0.46987	1.03299	0.34851	0.655882	3	45.5	0.18699	51795	
-9583.81	189498	-254.491	2.80575	-882.193	0.406871	0.394323	1.03299	0.34851	0.655882	0.0001	45.5	0.215757	51796	
-9583.81	189498	-254.491	2.80575	-882.193	0.406871	0.394323	1.03299	0.34851	0.655882	3	45.5	0.215757	51796	
-6552.31	210029	-300.629	3.11091	-968.013	0.475847	0.401807	0.993198	0.349787	0.651995	0.0001	91	0.215757	51796	
-6552.31	210029	-300.629	3.11091	-968.013	0.475847	0.401807	0.993198	0.349787	0.651995	3	91	0.215757	51796	
-2513.23	236090	-357.909	3.479	-1080.36	0.566012	0.425859	0.958125	0.351078	0.648177	0.0001	182	0.215757	51796	
-2513.23	236090	-357.909	3.479	-1080.36	0.566012	0.425859	0.958125	0.351078	0.648177	3	182	0.215757	51796	
-16404.1	555449	-318.944	1.56285	-1123.43	-0.00400209	0.48797	1.03299	0.34851	0.655882	3	45.5	0.147557	51797	
-9303.5	98444.2	-78.0604	2.68593	-1109.51	-0.00674092	0.275612	1.03299	0.34851	0.655882	0.0001	45.5	0.117242	51798	
-9303.5	98444.2	-78.0604	2.68593	-1109.51	-0.00674092	0.275612	1.03299	0.34851	0.655882	3	45.5	0.117242	51798	
-21934.2	461817	-90.0347	2.28692	-964.866	0.0379529	0.270902	1.03299	0.34851	0.655882	3	45.5	0.0549592	51800	
-2924.48	60386.4	-191.764	3.00453	-927.368	0.291951	0.284765	0.958125	0.351078	0.648177	0.0001	182	0.0566411	51802	
-2924.48	60386.4	-191.764	3.00453	-927.368	0.291951	0.284765	0.958125	0.351078	0.648177	3	182	0.0566411	51802	
-1076.49	84915.1	-250.544	3.40867	-1019.15	0.374402	0.310282	0.9175	0.352806	0.64323	0.0001	455	0.0566411	51802	
-1076.49	84915.1	-250.544	3.40867	-1019.15	0.374402	0.310282	0.9175	0.352806	0.64323	3	455	0.0566411	51802	
-22218.9	386171	-88.0708	2.81766	-823.075	0.0173426	0.224969	1.03299	0.34851	0.655882	3	45.5	0.059086	51803	
-20731.1	389209	-377.901	3.2343	-801.729	-0.044253	0.44962	1.03299	0.34851	0.655882	3	45.5	0.203387	51804	
-13924.9	402417	-438.521	3.53243	-835.485	0.00600176	0.474055	0.993198	0.349787	0.651995	0.0001	91	0.203387	51804	
-13924.9	402417	-438.521	3.53243	-835.485	0.00600176	0.474055	0.993198	0.349787	0.651995	3	91	0.203387	51804	
-5560.16	419461	-511.012	3.88761	-886.575	0.066528	0.51736	0.958125	0.351078	0.648177	0.0001	182	0.203387	51804	
-5560.16	419461	-511.012	3.88761	-886.575	0.066528	0.51736	0.958125	0.351078	0.648177	3	182	0.203387	51804	
-6158.47	-45205.4	23.2206	3.47084	-903.827	0.763186	0.187091	1.03299	0.34851	0.655882	0.0001	45.5	0.0586981	51805	
-6158.47	-45205.4	23.2206	3.47084	-903.827	0.763186	0.187091	1.03299	0.34851	0.655882	3	45.5	0.0586981	51805	
-26639.4	506688	-33.2581	2.5507	-938.905	-0.0289938	0.226078	1.03299	0.34851	0.655882	0.0001	45.5	0.0275706	51807	
-26639.4	506688	-33.2581	2.5507	-938.905	-0.0289938	0.226078	1.03299	0.34851	0.655882	3	45.5	0.0275706	51807	
-21232.9	520715	-58.2003	2.73332	-939.998	0.00166386	0.213767	0.993198	0.349787	0.651995	3	91	0.0275706	51807	
-40165	727998	-293.662	3.04078	-800.233	0.0518185	0.282314	1.03299	0.34851	0.655882	0.0001	45.5	0.10295	51808	
-40165	727998	-293.662	3.04078	-800.233	0.0518185	0.282314	1.03299	0.34851	0.655882	3	45.5	0.10295	51808	
-29935.7	742394	-342.111	3.30991	-836.296	0.0968949	0.287585	0.993198	0.349787	0.651995	3	91	0.10295	51808	
-15672.7	262419	-93.9963	2.79565	-1070.92	-0.0357886	0.247884	1.03299	0.34851	0.655882	3	45.5	0.0846873	51811	
-11869.5	238535	-310.911	2.65999	-743.918	0.705288	0.447683	1.03299	0.34851	0.655882	0.0001	45.5	0.217839	51813	
-11869.5	238535	-310.911	2.65999	-743.918	0.705288	0.447683	1.03299	0.34851	0.655882	3	45.5	0.217839	51813	
-8099.19	261375	-357.215	2.99775	-865.983	0.833239	0.456168	0.993198	0.349787	0.651995	0.0001	91	0.217839	51813	
-8099.19	261375	-357.215	2.99775	-865.983	0.833239	0.456168	0.993198	0.349787	0.651995	3	91	0.217839	51813	
-3067.34	292792	-416.433	3.42325	-1036.03	1.01163	0.482064	0.958125	0.351078	0.648177	0.0001	182	0.217839	51813	
-3067.34	292792	-416.433	3.42325	-1036.03	1.01163	0.482064	0.958125	0.351078	0.648177	3	182	0.217839	51813	
-32209.8	581233	-264.031	2.89613	-857.488	0.776861	0.273857	1.03299	0.34851	0.655882	0.0001	45.5	0.0984154	51819	
-32209.8	581233	-264.031	2.89613	-857.488	0.776861	0.273857	1.03299	0.34851	0.655882	3	45.5	0.0984154	51819	
-21097.3	751119	-85.4466	1.19772	-879.331	-0.00452837	0.326672	1.03299	0.34851	0.655882	3	45.5	0.0328928	51820	
-38810.2	959384	-416.703	2.27314	-1044.39	0.0320841	0.441947	1.03299	0.34851	0.655882	0.0001	45.5	0.117284	51821	
-38810.2	959384	-416.703	2.27314	-1044.39	0.0320841	0.441947	1.03299	0.34851	0.655882	3	45.5	0.117284	51821	
-28021.5	983472	-469.997	2.44544	-1079.31	0.0568124	0.438919	0.993198	0.349787	0.651995	3	91	0.117284	51821	
-39237.6	714074	-406.509	3.0961	-888.005	0.213753	0.381664	1.03299	0.34851	0.655882	0.0001	45.5	0.138881	51822	
-39237.6	714074	-406.509	3.0961	-888.005	0.213753	0.381664	1.03299	0.34851	0.655882	3	45.5	0.138881	51822	
-14095.3	213041	-4.55297	2.2922	-995.958	-0.0173028	0.259231	1.03299	0.34851	0.655882	0.0001	45.5	0.0290085	51823	
-14095.3	213041	-4.55297	2.2922	-995.958	-0.0173028	0.259231	1.03299	0.34851	0.655882	3	45.5	0.0290085	51823	
-38023.9	805683	-161.604	2.4159	-1021.82	0.528774	0.256251	1.03299	0.34851	0.655882	0.0001	45.5	0.0527304	51824	
-38023.9	805683	-161.604	2.4159	-1021.82	0.528774	0.256251	1.03299	0.34851	0.655882	3	45.5	0.0527304	51824	
-22664.3	368665	-312.307	3.54716	-689.433	0.256908	0.288611	1.03299	0.34851	0.655882	0.0001	45.5	0.158928	51826	
-22664.3	368665	-312.307	3.54716	-689.433	0.256908	0.288611	1.03299	0.34851	0.655882	3	45.5	0.158928	51826	
-15976.3	384354	-366.95	3.94664	-756.271	0.331996	0.312137	0.993198	0.349787	0.651995	0.0001	91	0.158928	51826	
-15976.3	384354	-366.95	3.94664	-756.271	0.331996	0.312137	0.993198	0.349787	0.651995	3	91	0.158928	51826	
-7617.55	405429	-435.666	4.44158	-848.488	0.431822	0.360032	0.958125	0.351078	0.648177	0.0001	182	0.158928	51826	
-7617.55	405429	-435.666	4.44158	-848.488	0.431822	0.360032	0.958125	0.351078	0.648177	3	182	0.158928	51826	
-8942.79	133036	-127.463	1.51804	-1005.72	0.687252	0.393028	1.03299	0.34851	0.655882	3	45.5	0.18495	51827	
-11839.2	504770	-252.582	0.860299	-939.665	0.000846071	0.455162	1.03299	0.34851	0.655882	3	45.5	0.129343	51828	
-30016.3	710498	-176.151	2.25808	-1083.45	0.0844046	0.297124	1.03299	0.34851	0.655882	0.0001	45.5	0.0681767	51829	
-30016.3	710498	-176.151	2.25808	-1083.45	0.0844046	0.297124	1.03299	0.34851	0.655882	3	45.5	0.0681767	51829	
-22938.8	734891	-211.558	2.4256	-1112.19	0.109949	0.282618	0.993198	0.349787	0.651995	3	91	0.0681767	51829	
-8997.16	35167.1	12.7649	2.60131	-839.548	0.363401	0.247848	1.03299	0.34851	0.655882	0.0001	45.5	0.0335201	51831	
-8997.16	35167.1	12.7649	2.60131	-839.548	0.363401	0.247848	1.03299	0.34851	0.655882	3	45.5	0.0335201	51831	
-29184.4	555048	-243.819	2.73415	-778.771	0.457302	0.293044	1.03299	0.34851	0.655882	0.0001	45.5	0.0999901	51832	
-29184.4	555048	-243.819	2.73415	-778.771	0.457302	0.293044	1.03299	0.34851	0.655882	3	45.5	0.0999901	51832	
-22057.2	581515	-284.535	3.02746	-862.659	0.532158	0.290945	0.993198	0.349787	0.651995	3	91	0.0999901	51832	
-16772.4	325019	-114.533	3.64694	-721.489	0.470256	0.165576	0.993198	0.349787	0.651995	0.0001	91	0.0576639	51833	
-16772.4	325019	-114.533	3.64694	-721.489	0.470256	0.165576	0.993198	0.349787	0.651995	3	91	0.0576639	51833	
-9582.09	77570.5	-36.9358	3.10813	-1109.44	0.00285542	0.217153	1.03299	0.34851	0.655882	3	45.5	0.0786362	51834	
-25206.8	524046	-99.8237	3.5546	-740.706	0.0128617	0.149539	0.993198	0.349787	0.651995	0.0001	91	0.0403183	51835	
-25206.8	524046	-99.8237	3.5546	-740.706	0.0128617	0.149539	0.993198	0.349787	0.651995	3	91	0.0403183	51835	
-21676.6	625539	-289.821	1.86926	-1049.44	0.00572556	0.422795	1.03299	0.34851	0.655882	3	45.5	0.120176	51837	
-7576.82	136154	-251.866	3.43664	-613.339	0.789681	0.250981	1.03299	0.34851	0.655882	0.0001	45.5	0.175426	51838	
-7576.82	136154	-251.866	3.43664	-613.339	0.789681	0.250981	1.03299	0.34851	0.655882	3	45.5	0.175426	51838	
-4754.69	151579	-297.922	3.93393	-732.671	0.970313	0.26979	0.993198	0.349787	0.651995	0.0001	91	0.175426	51838	
-4754.69	151579	-297.922	3.93393	-732.671	0.970313	0.26979	0.993198	0.349787	0.651995	3	91	0.175426	51838	
-849.816	174358	-360.617	4.59736	-911.18	1.24026	0.317321	0.958125	0.351078	0.648177	0.0001	182	0.175426	51838	
-849.816	174358	-360.617	4.59736	-911.18	1.24026	0.317321	0.958125	0.351078	0.648177	3	182	0.175426	51838	
-7050.06	-51533.7	7.81933	2.72908	-602.595	0.169509	0.269664	1.03299	0.34851	0.655882	0.0001	45.5	0.0157447	51839	
-7050.06	-51533.7	7.81933	2.72908	-602.595	0.169509	0.269664	1.03299	0.34851	0.655882	3	45.5	0.0157447	51839	
-26428.4	509646	-152.963	2.36377	-574.54	0.812214	0.268518	1.03299	0.34851	0.655882	0.0001	45.5	0.064142	51840	
-26428.4	509646	-152.963	2.36377	-574.54	0.812214	0.268518	1.03299	0.34851	0.655882	3	45.5	0.064142	51840	
-11268.2	185447	-135.257	2.26781	-793.427	-0.015798	0.329294	1.03299	0.34851	0.655882	0.0001	45.5	0.1375	51841	
-11268.2	185447	-135.257	2.26781	-793.427	-0.015798	0.329294	1.03299	0.34851	0.655882	3	45.5	0.1375	51841	
-7693.94	43735.7	-68.9633	2.26772	-941.338	0.092729	0.304152	1.03299	0.34851	0.655882	0.0001	45.5	0.133695	51842	
-7693.94	43735.7	-68.9633	2.26772	-941.338	0.092729	0.304152	1.03299	0.34851	0.655882	3	45.5	0.133695	51842	
-27885.6	623442	-133.296	2.16918	-619.897	-0.00729509	0.285788	1.03299	0.34851	0.655882	3	45.5	0.0566325	51843	
-10540.4	239776	-208.844	1.73126	-1012.12	0.00844476	0.450019	1.03299	0.34851	0.655882	3	45.5	0.196207	51844	
-12214.8	186705	-86.1081	2.38817	-956.033	0.283628	0.283477	1.03299	0.34851	0.655882	3	45.5	0.0927855	51846	
-10407.2	103379	-33.1164	2.57682	-1036.09	0.109055	0.256915	1.03299	0.34851	0.655882	3	45.5	0.0699701	51847	
-18651.2	318315	-36.9204	2.61963	-960.935	-0.0322739	0.231775	1.03299	0.34851	0.655882	0.0001	45.5	0.0410945	51848	
-18651.2	318315	-36.9204	2.61963	-960.935	-0.0322739	0.231775	1.03299	0.34851	0.655882	3	45.5	0.0410945	51848	
-17917.1	478599	-62.5745	1.44401	-596.522	0.120946	0.312927	1.03299	0.34851	0.655882	3	45.5	0.0355419	51849	
-26651.6	513752	-216.852	2.70105	-925.058	0.65535	0.282382	1.03299	0.34851	0.655882	0.0001	45.5	0.0940708	51850	
-26651.6	513752	-216.852	2.70105	-925.058	0.65535	0.282382	1.03299	0.34851	0.655882	3	45.5	0.0940708	51850	
-20079.7	550574	-259.498	3.02328	-1053.86	0.771137	0.27905	0.993198	0.349787	0.651995	0.0001	91	0.0940708	51850	
-20079.7	550574	-259.498	3.02328	-1053.86	0.771137	0.27905	0.993198	0.349787	0.651995	3	91	0.0940708	51850	
-12210.1	185907	-142.542	2.69218	-631.903	0.0684081	0.285752	1.03299	0.34851	0.655882	3	45.5	0.126364	51852	
-15522	896494	-408.858	0.487178	-585.32	0.152555	0.514468	1.03299	0.34851	0.655882	3	45.5	0.115862	51853	
-10275.1	342256	-274.03	1.06314	-1033.52	0.0613107	0.535489	1.03299	0.34851	0.655882	3	45.5	0.201888	51854	
-14266.4	225192	15.0034	2.01629	-981.789	0.305327	0.273168	1.03299	0.34851	0.655882	0.0001	45.5	0.0120428	51855	
334.706	63384.7	-286.017	3.8724	-931.529	0.908555	0.323605	0.9175	0.352806	0.64323	0.0001	455	0.144038	51856	
334.706	63384.7	-286.017	3.8724	-931.529	0.908555	0.323605	0.9175	0.352806	0.64323	3	455	0.144038	51856	
-18873.2	364951	-12.8307	2.11939	-644.205	-0.00353916	0.263827	1.03299	0.34851	0.655882	3	45.5	0.0178165	51857	
-18948	314327	-139.162	3.05774	-878.144	0.202605	0.229187	1.03299	0.34851	0.655882	0.0001	45.5	0.0936755	51859	
-14591.8	331927	-177.074	3.35248	-923.937	0.255888	0.231873	0.993198	0.349787	0.651995	3	91	0.0936755	51859	
-15032.8	814399	-464.486	0.603809	-771.611	-0.000392663	0.597333	1.03299	0.34851	0.655882	3	45.5	0.149959	51860	
-14249.6	337744	-228.992	1.61237	-599.506	0.35774	0.424192	1.03299	0.34851	0.655882	3	45.5	0.149434	51864	
-30990.4	607184	-394.224	2.74219	-692.437	-0.03579	0.44873	1.03299	0.34851	0.655882	0.0001	45.5	0.158598	51866	
-30990.4	607184	-394.224	2.74219	-692.437	-0.03579	0.44873	1.03299	0.34851	0.655882	3	45.5	0.158598	51866	
-22584.1	617100	-445.354	2.96697	-721.917	5.00276	0.458059	0.993198	0.349787	0.651995	0.0001	91	0.158598	51866	
-22584.1	617100	-445.354	2.96697	-721.917	5.00276	0.458059	0.993198	0.349787	0.651995	3	91	0.158598	51866	
-18529.8	578857	-193.935	1.61474	-1150.65	-0.0114444	0.368195	1.03299	0.34851	0.655882	3	45.5	0.0889238	51868	
-31024.8	769516	-159.293	2.00478	-742.705	0.00220708	0.302261	1.03299	0.34851	0.655882	3	45.5	0.0566945	51869	
-36513.6	922180	-62.7169	1.76573	-578.054	0.615284	0.278607	1.03299	0.34851	0.655882	0.0001	45.5	0.0185024	51870	
-36513.6	922180	-62.7169	1.76573	-578.054	0.615284	0.278607	1.03299	0.34851	0.655882	3	45.5	0.0185024	51870	
-21406.1	1.00648	-93.7622	2.13347	-730.511	0.805192	0.237056	0.958125	0.351078	0.648177	3	182	0.0185024	51870	
-24014.7	634551	-155.441	1.69828	-599.755	0.241733	0.326484	1.03299	0.34851	0.655882	3	45.5	0.0615277	51872	
-14948.2	343784	-325.013	2.3248	-963.676	0.588374	0.487068	1.03299	0.34851	0.655882	3	45.5	0.195354	51873	
-10406.6	375726	-372.713	2.58708	-1088.39	0.677844	0.490088	0.993198	0.349787	0.651995	0.0001	91	0.195354	51873	
-10406.6	375726	-372.713	2.58708	-1088.39	0.677844	0.490088	0.993198	0.349787	0.651995	3	91	0.195354	51873	
-21576.4	912202	-124.874	1.04489	-990.267	0.0535842	0.340584	1.03299	0.34851	0.655882	3	45.5	0.0379423	51874	
-29086	672832	-310.057	3.99709	-1138.77	0.326338	0.199271	0.993198	0.349787	0.651995	0.0001	91	0.0956033	51876	
-29086	672832	-310.057	3.99709	-1138.77	0.326338	0.199271	0.993198	0.349787	0.651995	3	91	0.0956033	51876	
-11538.1	317120	-344.393	1.79047	-1076.99	0.509519	0.602837	1.03299	0.34851	0.655882	3	45.5	0.242367	51877	
-7945.19	351152	-387.414	1.96895	-1191.62	0.570986	0.605708	0.993198	0.349787	0.651995	0.0001	91	0.242367	51877	
-28468	725355	-315.759	1.90015	-627.886	-0.0155792	0.420239	1.03299	0.34851	0.655882	3	45.5	0.11237	51878	
-3958.09	67758	-186.079	3.82208	-1172.57	0.0587515	0.271251	0.958125	0.351078	0.648177	0.0001	182	0.0905035	51881	
-3958.09	67758	-186.079	3.82208	-1172.57	0.0587515	0.271251	0.958125	0.351078	0.648177	3	182	0.0905035	51881	
-1422.62	102688	-270.927	4.35733	-1231.46	0.157867	0.334252	0.9175	0.352806	0.64323	0.0001	455	0.0905035	51881	
-1422.62	102688	-270.927	4.35733	-1231.46	0.157867	0.334252	0.9175	0.352806	0.64323	3	455	0.0905035	51881	
-8168.88	20983.4	-12.3696	3.02127	-1086.12	0.326543	0.241568	0.993198	0.349787	0.651995	3	91	0.0509903	51882	
-25365	480106	-53.1871	2.44497	-854.105	0.453131	0.236311	1.03299	0.34851	0.655882	0.0001	45.5	0.0337263	51883	
-30088.4	852804	-219.016	1.64483	-649.086	0.317658	0.346671	1.03299	0.34851	0.655882	3	45.5	0.0647302	51884	
-8537.26	54210.3	-15.2698	3.93917	-639.16	0.10202	0.161224	0.993198	0.349787	0.651995	3	91	0.0271536	51885	
-32309	864183	-431.154	1.58121	-538.852	0.646219	0.483021	1.03299	0.34851	0.655882	3	45.5	0.114884	51890	
-24979.7	904805	-466.229	1.73994	-621.423	0.733186	0.470736	0.993198	0.349787	0.651995	3	91	0.114884	51890	
-982.952	1.04245	-570.891	2.23555	-930.478	1.05802	0.473046	0.9175	0.352806	0.64323	0.0001	455	0.114884	51890	
-982.952	1.04245	-570.891	2.23555	-930.478	1.05802	0.473046	0.9175	0.352806	0.64323	3	455	0.114884	51890	
-31069.2	551678	-281.411	3.51417	-1147.67	-0.0591017	0.259261	1.03299	0.34851	0.655882	0.0001	45.5	0.125638	51891	
-21797	574369	-346.713	3.8361	-1172.47	0.000265636	0.278454	0.993198	0.349787	0.651995	0.0001	91	0.125638	51891	
-21797	574369	-346.713	3.8361	-1172.47	0.000265636	0.278454	0.993198	0.349787	0.651995	3	91	0.125638	51891	
-25694	593953	-122.435	1.86664	-593.433	0.827553	0.297149	1.03299	0.34851	0.655882	3	45.5	0.0467773	51892	
-3904.97	70316.8	-168.377	2.77006	-1180.28	0.729604	0.304577	0.993198	0.349787	0.651995	0.0001	91	0.221366	51894	
-3904.97	70316.8	-168.377	2.77006	-1180.28	0.729604	0.304577	0.993198	0.349787	0.651995	3	91	0.221366	51894	
-2556.3	102424	-215.399	3.11515	-1354	0.86761	0.311645	0.958125	0.351078	0.648177	0.0001	182	0.221366	51894	
-2556.3	102424	-215.399	3.11515	-1354	0.86761	0.311645	0.958125	0.351078	0.648177	3	182	0.221366	51894	
-14903.9	722954	-77.8241	0.681311	-841.975	0.0184619	0.341453	1.03299	0.34851	0.655882	3	45.5	0.0295797	51895	
-17638.5	549567	-179.076	1.31204	-647.27	0.0789136	0.36882	1.03299	0.34851	0.655882	3	45.5	0.0828398	51896	
-12223.2	437387	-273.67	1.04184	-878.763	0.0526525	0.489991	1.03299	0.34851	0.655882	3	45.5	0.15857	51897	
-16891.3	295498	-26.1465	2.29285	-734.669	0.011594	0.256015	1.03299	0.34851	0.655882	3	45.5	0.0312711	51898	
-5990.11	448094	-201.642	0.123324	-1089.74	0.20735	0.342188	0.9175	0.352806	0.64323	0.0001	455	0.124044	51899	
-16673.2	487117	-355.6	1.25443	-592.482	0.628205	0.532707	1.03299	0.34851	0.655882	3	45.5	0.164133	51901	
-7655.11	89276.3	-151.971	3.27939	-553.502	0.442739	0.214316	1.03299	0.34851	0.655882	0.0001	45.5	0.125143	51903	
-7655.11	89276.3	-151.971	3.27939	-553.502	0.442739	0.214316	1.03299	0.34851	0.655882	3	45.5	0.125143	51903	
-6152.2	97691.9	-183.801	3.66028	-613.528	0.532827	0.224006	0.993198	0.349787	0.651995	0.0001	91	0.125143	51903	
-6152.2	97691.9	-183.801	3.66028	-613.528	0.532827	0.224006	0.993198	0.349787	0.651995	3	91	0.125143	51903	
-4145.03	108752	-224.49	4.13321	-695.362	0.654527	0.255417	0.958125	0.351078	0.648177	0.0001	182	0.125143	51903	
-4145.03	108752	-224.49	4.13321	-695.362	0.654527	0.255417	0.958125	0.351078	0.648177	3	182	0.125143	51903	
-296.099	130288	-300.09	4.98482	-860.528	0.897579	0.340833	0.9175	0.352806	0.64323	0.0001	455	0.125143	51903	
-296.099	130288	-300.09	4.98482	-860.528	0.897579	0.340833	0.9175	0.352806	0.64323	3	455	0.125143	51903	
-34505.2	880922	-438.897	1.90699	-827.602	0.644614	0.471271	1.03299	0.34851	0.655882	0.0001	45.5	0.11703	51907	
-34505.2	880922	-438.897	1.90699	-827.602	0.644614	0.471271	1.03299	0.34851	0.655882	3	45.5	0.11703	51907	
-25576	930239	-484.617	2.11087	-948.548	0.737432	0.463772	0.993198	0.349787	0.651995	0.0001	91	0.11703	51907	
-25576	930239	-484.617	2.11087	-948.548	0.737432	0.463772	0.993198	0.349787	0.651995	3	91	0.11703	51907	
-3992.48	23151	-154.215	3.40915	-776.849	0.99546	0.233573	0.993198	0.349787	0.651995	3	91	0.0406284	51908	
-1328.45	74324.8	-286.106	4.99694	-1339.84	1.85176	0.337846	0.9175	0.352806	0.64323	0.0001	455	0.0406284	51908	
-1328.45	74324.8	-286.106	4.99694	-1339.84	1.85176	0.337846	0.9175	0.352806	0.64323	3	455	0.0406284	51908	
-28599.7	526641	-257.029	2.62881	-570.494	0.675896	0.305168	1.03299	0.34851	0.655882	0.0001	45.5	0.102449	51909	
-28599.7	526641	-257.029	2.62881	-570.494	0.675896	0.305168	1.03299	0.34851	0.655882	3	45.5	0.102449	51909	
-22001	554194	-292.483	2.94367	-661.79	0.794837	0.301455	0.993198	0.349787	0.651995	0.0001	91	0.102449	51909	
-17624.8	860703	-47.3913	0.736003	-981.458	0.000468647	0.333907	1.03299	0.34851	0.655882	3	45.5	0.0167383	51910	
-6206.66	-54276.6	1.21394	3.52796	-1136.42	-0.0566236	0.217134	1.03299	0.34851	0.655882	0.0001	45.5	0.0202653	51911	
-6206.66	-54276.6	1.21394	3.52796	-1136.42	-0.0566236	0.217134	1.03299	0.34851	0.655882	3	45.5	0.0202653	51911	
-7662.34	285369	-346.713	2.70241	-1070.52	0.00501434	0.507466	0.993198	0.349787	0.651995	3	91	0.235143	51913	
-12247.5	232033	-280.735	2.35521	-552.296	0.581437	0.440346	1.03299	0.34851	0.655882	0.0001	45.5	0.206128	51916	
-12247.5	232033	-280.735	2.35521	-552.296	0.581437	0.440346	1.03299	0.34851	0.655882	3	45.5	0.206128	51916	
-9177.32	247098	-315.297	2.61799	-629.966	0.67012	0.439947	0.993198	0.349787	0.651995	0.0001	91	0.206128	51916	
-9177.32	247098	-315.297	2.61799	-629.966	0.67012	0.439947	0.993198	0.349787	0.651995	3	91	0.206128	51916	
-2955.14	124901	-245.04	2.47914	-737.38	0.132805	0.381111	0.9175	0.352806	0.64323	0.0001	455	0.246985	51917	
-2955.14	124901	-245.04	2.47914	-737.38	0.132805	0.381111	0.9175	0.352806	0.64323	3	455	0.246985	51917	
-12346.7	317939	-168.566	1.61477	-1136.44	0.105271	0.386412	1.03299	0.34851	0.655882	3	45.5	0.126915	51918	
-10154.9	118911	-89.8353	2.97916	-895.71	-0.0420855	0.24235	1.03299	0.34851	0.655882	3	45.5	0.107146	51920	
-8573.23	132609	-122.547	3.21875	-901.306	0.000112789	0.242862	0.993198	0.349787	0.651995	0.0001	91	0.107146	51920	
-8573.23	132609	-122.547	3.21875	-901.306	0.000112789	0.242862	0.993198	0.349787	0.651995	3	91	0.107146	51920	
-5567.53	81843.8	-181.871	2.84127	-590.902	-0.00180708	0.302794	1.03299	0.34851	0.655882	0.0001	45.5	0.191524	51923	
-5567.53	81843.8	-181.871	2.84127	-590.902	-0.00180708	0.302794	1.03299	0.34851	0.655882	3	45.5	0.191524	51923	
-4248.3	88642.4	-212.689	3.07324	-607.846	0.0365985	0.303431	0.993198	0.349787	0.651995	0.0001	91	0.191524	51923	
-4248.3	88642.4	-212.689	3.07324	-607.846	0.0365985	0.303431	0.993198	0.349787	0.651995	3	91	0.191524	51923	
-2564.77	96411.9	-248.611	3.3405	-633.05	0.082242	0.317847	0.958125	0.351078	0.648177	0.0001	182	0.191524	51923	
-2564.77	96411.9	-248.611	3.3405	-633.05	0.082242	0.317847	0.958125	0.351078	0.648177	3	182	0.191524	51923	
400.715	108956	-306.848	3.76986	-683.584	0.158353	0.360342	0.9175	0.352806	0.64323	0.0001	455	0.191524	51923	
400.715	108956	-306.848	3.76986	-683.584	0.158353	0.360342	0.9175	0.352806	0.64323	3	455	0.191524	51923	
-7232.59	8768.52	-52.8838	3.2734	-930.094	-0.000139448	0.238225	0.993198	0.349787	0.651995	3	91	0.0481722	51925	
-24937.3	558248	-203.277	2.23295	-874.097	0.397968	0.324976	1.03299	0.34851	0.655882	3	45.5	0.087348	51926	
-25168.6	778536	6.8532	1.33073	-744.67	0.0389114	0.30763	1.03299	0.34851	0.655882	3	45.5	0.0021817	51927	
-9870.73	182428	-189.742	2.46667	-1049.68	-0.0274482	0.381714	1.03299	0.34851	0.655882	0.0001	45.5	0.193402	51928	
-9870.73	182428	-189.742	2.46667	-1049.68	-0.0274482	0.381714	1.03299	0.34851	0.655882	3	45.5	0.193402	51928	
-20648.9	521472	-406.375	1.74865	-706.745	0.709691	0.550475	1.03299	0.34851	0.655882	3	45.5	0.170576	51929	
-15286.4	555808	-446.173	1.94148	-818.95	0.816151	0.547456	0.993198	0.349787	0.651995	3	91	0.170576	51929	
-20344.7	378913	-356.12	3.4659	-968.552	0.0744267	0.394468	1.03299	0.34851	0.655882	0.0001	45.5	0.191837	51931	
-20344.7	378913	-356.12	3.4659	-968.552	0.0744267	0.394468	1.03299	0.34851	0.655882	3	45.5	0.191837	51931	
-13280.5	399956	-423.819	3.82199	-1022.13	0.134318	0.422553	0.993198	0.349787	0.651995	0.0001	91	0.191837	51931	
-13280.5	399956	-423.819	3.82199	-1022.13	0.134318	0.422553	0.993198	0.349787	0.651995	3	91	0.191837	51931	
-4328.87	426523	-507.011	4.25536	-1100.09	0.210393	0.473046	0.958125	0.351078	0.648177	0.0001	182	0.191837	51931	
-4328.87	426523	-507.011	4.25536	-1100.09	0.210393	0.473046	0.958125	0.351078	0.648177	3	182	0.191837	51931	
-11035	226315	-320.88	3.57134	-833.465	-0.0543897	0.366698	1.03299	0.34851	0.655882	0.0001	45.5	0.224173	51932	
-11035	226315	-320.88	3.57134	-833.465	-0.0543897	0.366698	1.03299	0.34851	0.655882	3	45.5	0.224173	51932	
-6374.08	240219	-381.444	3.9159	-864.736	0.00714567	0.395921	0.993198	0.349787	0.651995	0.0001	91	0.224173	51932	
-6374.08	240219	-381.444	3.9159	-864.736	0.00714567	0.395921	0.993198	0.349787	0.651995	3	91	0.224173	51932	
-445.117	257463	-455.004	4.33436	-916.141	0.082008	0.447497	0.958125	0.351078	0.648177	0.0001	182	0.224173	51932	
-445.117	257463	-455.004	4.33436	-916.141	0.082008	0.447497	0.958125	0.351078	0.648177	3	182	0.224173	51932	
-23442.9	730359	-362.303	2.25962	-647.82	0.05151	0.399741	0.993198	0.349787	0.651995	0.0001	91	0.1158	51933	
-23442.9	730359	-362.303	2.25962	-647.82	0.05151	0.399741	0.993198	0.349787	0.651995	3	91	0.1158	51933	
-6948.95	136227	-225.975	2.72509	-926.852	0.170053	0.396145	1.03299	0.34851	0.655882	0.0001	45.5	0.244124	51935	
-6948.95	136227	-225.975	2.72509	-926.852	0.170053	0.396145	1.03299	0.34851	0.655882	3	45.5	0.244124	51935	
-4764.84	154287	-269.042	2.97647	-973.922	0.211402	0.400966	0.993198	0.349787	0.651995	0.0001	91	0.244124	51935	
-4764.84	154287	-269.042	2.97647	-973.922	0.211402	0.400966	0.993198	0.349787	0.651995	3	91	0.244124	51935	
-1839.91	175357	-320.484	3.26943	-1035.59	0.262983	0.419991	0.958125	0.351078	0.648177	0.0001	182	0.244124	51935	
-1839.91	175357	-320.484	3.26943	-1035.59	0.262983	0.419991	0.958125	0.351078	0.648177	3	182	0.244124	51935	
-25093.6	705874	-38.2934	1.55797	-1070.56	0.299671	0.299461	1.03299	0.34851	0.655882	3	45.5	0.0199241	51937	
-18975.8	382670	-38.7346	3.28489	-813.998	0.340539	0.172442	0.993198	0.349787	0.651995	3	91	0.0225795	51938	
-23424.2	559337	-261.681	3.88687	-1127.1	0.00683021	0.201561	0.993198	0.349787	0.651995	0.0001	91	0.0965643	51940	
-23424.2	559337	-261.681	3.88687	-1127.1	0.00683021	0.201561	0.993198	0.349787	0.651995	3	91	0.0965643	51940	
-24232	815074	-317.847	1.41088	-798.458	0.130734	0.433762	1.03299	0.34851	0.655882	3	45.5	0.100577	51941	
-18124.2	425422	-124.5	1.88621	-763.064	-0.0160622	0.317587	1.03299	0.34851	0.655882	3	45.5	0.0744886	51943	
-13837.6	494493	-411.22	1.37708	-1102.34	0.312775	0.633376	1.03299	0.34851	0.655882	3	45.5	0.203802	51944	
-10377.7	181162	-184.869	2.75369	-971.554	-0.0297551	0.339409	1.03299	0.34851	0.655882	0.0001	45.5	0.176595	51945	
-10377.7	181162	-184.869	2.75369	-971.554	-0.0297551	0.339409	1.03299	0.34851	0.655882	3	45.5	0.176595	51945	
-7873.46	198096	-225.155	2.97192	-985.103	0.00621984	0.340184	0.993198	0.349787	0.651995	0.0001	91	0.176595	51945	
-12197.3	159708	7.0492	2.08287	-728.63	-0.0196604	0.274399	1.03299	0.34851	0.655882	0.0001	45.5	0.0154062	51946	
-17718.1	348908	-376.091	3.49154	-1002.24	0.0602013	0.432059	1.03299	0.34851	0.655882	0.0001	45.5	0.213493	51947	
-17718.1	348908	-376.091	3.49154	-1002.24	0.0602013	0.432059	1.03299	0.34851	0.655882	3	45.5	0.213493	51947	
-10867.6	371194	-447.789	3.85335	-1056.51	0.120578	0.46424	0.993198	0.349787	0.651995	0.0001	91	0.213493	51947	
-10867.6	371194	-447.789	3.85335	-1056.51	0.120578	0.46424	0.993198	0.349787	0.651995	3	91	0.213493	51947	
-2074.68	399171	-536.04	4.29486	-1136.36	0.197209	0.519556	0.958125	0.351078	0.648177	0.0001	182	0.213493	51947	
-2074.68	399171	-536.04	4.29486	-1136.36	0.197209	0.519556	0.958125	0.351078	0.648177	3	182	0.213493	51947	
-20178.9	325297	-68.0704	2.91097	-796.467	0.144634	0.207227	1.03299	0.34851	0.655882	0.0001	45.5	0.0532425	51948	
-20178.9	325297	-68.0704	2.91097	-796.467	0.144634	0.207227	1.03299	0.34851	0.655882	3	45.5	0.0532425	51948	
-10207.7	234239	-255.138	1.32149	-742.557	0.684539	0.526963	1.03299	0.34851	0.655882	3	45.5	0.232734	51949	
-20552.7	511258	-116.498	1.85493	-842.684	-0.00263682	0.3105	1.03299	0.34851	0.655882	3	45.5	0.0612883	51950	
-37662.8	957385	-246.248	2.03256	-856.18	0.122798	0.328722	1.03299	0.34851	0.655882	0.0001	45.5	0.0693551	51951	
-37662.8	957385	-246.248	2.03256	-856.18	0.122798	0.328722	1.03299	0.34851	0.655882	3	45.5	0.0693551	51951	
-28995.7	977526	-278.931	2.18033	-889.159	0.145091	0.311681	0.993198	0.349787	0.651995	3	91	0.0693551	51951	
-13053.1	239751	-244.986	2.47354	-638.639	0.645589	0.382097	1.03299	0.34851	0.655882	3	45.5	0.174705	51952	
-9920.71	257754	-279.974	2.76209	-732	0.752399	0.379967	0.993198	0.349787	0.651995	0.0001	91	0.174705	51952	
-22175.2	371972	-144.971	3.40631	-1164.56	-0.054991	0.195894	1.03299	0.34851	0.655882	3	45.5	0.0943008	51953	
-32186.7	763826	-65.8223	2.12223	-1176.06	-0.0138594	0.264611	1.03299	0.34851	0.655882	0.0001	45.5	0.0307902	51954	
-32186.7	763826	-65.8223	2.12223	-1176.06	-0.0138594	0.264611	1.03299	0.34851	0.655882	3	45.5	0.0307902	51954	
-25383.8	787032	-93.4539	2.25959	-1179.99	0.0072076	0.244864	0.993198	0.349787	0.651995	3	91	0.0307902	51954	
-27507	581190	-92.876	2.39357	-1094.1	0.157849	0.255041	1.03299	0.34851	0.655882	0.0001	45.5	0.0477851	51955	
-27507	581190	-92.876	2.39357	-1094.1	0.157849	0.255041	1.03299	0.34851	0.655882	3	45.5	0.0477851	51955	
-21512.6	607469	-124.529	2.58536	-1131.68	0.189787	0.240983	0.993198	0.349787	0.651995	3	91	0.0477851	51955	
-10421.8	121740	-26.6725	3.90424	-755.536	0.00589014	0.150852	0.993198	0.349787	0.651995	0.0001	91	0.031388	51956	
-10421.8	121740	-26.6725	3.90424	-755.536	0.00589014	0.150852	0.993198	0.349787	0.651995	3	91	0.031388	51956	
-19476.6	632493	-327.252	1.32008	-654.124	-0.00780558	0.479578	1.03299	0.34851	0.655882	3	45.5	0.133303	51957	
-26203	615795	-328.192	2.25605	-1014.73	0.718083	0.404801	1.03299	0.34851	0.655882	3	45.5	0.120366	51958	
-19075.5	663973	-375.664	2.52095	-1170.44	0.83822	0.399263	0.993198	0.349787	0.651995	0.0001	91	0.120366	51958	
-19075.5	663973	-375.664	2.52095	-1170.44	0.83822	0.399263	0.993198	0.349787	0.651995	3	91	0.120366	51958	
-18049.9	445946	-305.874	1.78151	-732.042	0.824442	0.451794	1.03299	0.34851	0.655882	3	45.5	0.144656	51959	
-9268.39	111764	-89.4651	1.7078	-732.135	0.00971344	0.344035	1.03299	0.34851	0.655882	0.0001	45.5	0.140753	51961	
-7872.69	95145.4	-133.529	1.81164	-1037.75	0.564065	0.398431	1.03299	0.34851	0.655882	0.0001	45.5	0.240086	51963	
-5655.94	150710	-194.089	2.19358	-1289.19	0.729179	0.376099	0.958125	0.351078	0.648177	3	182	0.240086	51963	
-15814.4	485662	-242.324	1.48303	-923.702	0.134042	0.422294	1.03299	0.34851	0.655882	3	45.5	0.124031	51964	
-16072.7	573676	-35.3113	0.958436	-1023.26	0.260203	0.327279	1.03299	0.34851	0.655882	3	45.5	0.0198394	51965	
-35697.9	972406	-211.394	1.79993	-632.318	-0.0149976	0.327884	1.03299	0.34851	0.655882	3	45.5	0.0594429	51966	
-18631.3	536583	-252.307	1.49473	-622.505	0.031363	0.41746	1.03299	0.34851	0.655882	3	45.5	0.117964	51967	
-15945.2	949553	-217.36	0.693367	-938.643	0.0175396	0.38347	1.03299	0.34851	0.655882	3	45.5	0.0604132	51969	
-20249.1	432176	-114.438	3.72025	-1154.88	0.876151	0.149593	0.993198	0.349787	0.651995	0.0001	91	0.0494403	51970	
-20249.1	432176	-114.438	3.72025	-1154.88	0.876151	0.149593	0.993198	0.349787	0.651995	3	91	0.0494403	51970	
-3831.51	44046.5	-160.748	3.21014	-635.589	0.511886	0.217314	1.03299	0.34851	0.655882	0.0001	45.5	0.112017	51971	
-3831.51	44046.5	-160.748	3.21014	-635.589	0.511886	0.217314	1.03299	0.34851	0.655882	3	45.5	0.112017	51971	
-2907.39	53761.9	-195.551	3.59284	-710.956	0.612147	0.225061	0.993198	0.349787	0.651995	0.0001	91	0.112017	51971	
-2907.39	53761.9	-195.551	3.59284	-710.956	0.612147	0.225061	0.993198	0.349787	0.651995	3	91	0.112017	51971	
-1535.54	66733.3	-240.478	4.07088	-814.281	0.748982	0.254264	0.958125	0.351078	0.648177	0.0001	182	0.112017	51971	
-1535.54	66733.3	-240.478	4.07088	-814.281	0.748982	0.254264	0.958125	0.351078	0.648177	3	182	0.112017	51971	
1426.83	92713.6	-325.216	4.94065	-1025.71	1.02723	0.336617	0.9175	0.352806	0.64323	0.0001	455	0.112017	51971	
1426.83	92713.6	-325.216	4.94065	-1025.71	1.02723	0.336617	0.9175	0.352806	0.64323	3	455	0.112017	51971	
-8887.66	194855	-181.134	3.83921	-1182.13	0.114884	0.223399	0.993198	0.349787	0.651995	0.0001	91	0.123847	51973	
-8887.66	194855	-181.134	3.83921	-1182.13	0.114884	0.223399	0.993198	0.349787	0.651995	3	91	0.123847	51973	
-9000.64	849556	-435.919	0.0820341	-698.913	0.421042	0.53824	1.03299	0.34851	0.655882	3	45.5	0.123274	51974	
-25266.4	571300	-135.798	2.12952	-994.895	0.594096	0.292639	1.03299	0.34851	0.655882	3	45.5	0.0592882	51976	
-9849.18	227071	-214.019	1.74483	-1166.79	0.0326915	0.468785	1.03299	0.34851	0.655882	3	45.5	0.212151	51977	
-9104.16	288150	-320.495	2.53951	-880.633	0.0999243	0.468842	0.993198	0.349787	0.651995	0.0001	91	0.212332	51978	
-11375.3	181132	-85.5875	3.43355	-699.923	0.150596	0.194779	0.993198	0.349787	0.651995	0.0001	91	0.0625127	51980	
-11375.3	181132	-85.5875	3.43355	-699.923	0.150596	0.194779	0.993198	0.349787	0.651995	3	91	0.0625127	51980	
-26127.8	650436	-414.554	1.92296	-680.364	0.0719253	0.537487	1.03299	0.34851	0.655882	3	45.5	0.159238	51981	
-19448.4	664260	-455.803	2.06472	-712.1	0.0904027	0.535858	0.993198	0.349787	0.651995	3	91	0.159238	51981	
-16742.4	285160	-49.0269	2.32015	-891.78	0.764161	0.254224	1.03299	0.34851	0.655882	3	45.5	0.0452817	51982	
-8253.87	97372.5	-101.736	3.41658	-740.949	0.0505099	0.217283	0.993198	0.349787	0.651995	0.0001	91	0.0874534	51983	
-8253.87	97372.5	-101.736	3.41658	-740.949	0.0505099	0.217283	0.993198	0.349787	0.651995	3	91	0.0874534	51983	
-13615.8	245824	-118.61	2.3199	-904.264	0.0360084	0.303973	1.03299	0.34851	0.655882	3	45.5	0.104418	51986	
-35110.6	787067	-43.7576	2.23066	-1124.29	-0.0181117	0.248387	1.03299	0.34851	0.655882	3	45.5	0.0232729	51987	
-31367.5	895906	-122.1	1.67556	-939.08	0.298122	0.305918	1.03299	0.34851	0.655882	3	45.5	0.0377318	51989	
-41940.4	836494	-348.622	2.98694	-1155.89	0.00156562	0.332551	1.03299	0.34851	0.655882	0.0001	45.5	0.112415	51991	
-41940.4	836494	-348.622	2.98694	-1155.89	0.00156562	0.332551	1.03299	0.34851	0.655882	3	45.5	0.112415	51991	
-30038.6	862181	-411.471	3.24347	-1191.16	0.0442061	0.339654	0.993198	0.349787	0.651995	0.0001	91	0.112415	51991	
-30038.6	862181	-411.471	3.24347	-1191.16	0.0442061	0.339654	0.993198	0.349787	0.651995	3	91	0.112415	51991	
-21291.3	838076	-189.179	1.23574	-1096.42	0.0356052	0.361657	1.03299	0.34851	0.655882	3	45.5	0.0612224	51992	
-7704.99	-467.4	-17.0163	3.27801	-877.96	0.611615	0.23114	0.993198	0.349787	0.651995	0.0001	91	0.0439664	51993	
-7704.99	-467.4	-17.0163	3.27801	-877.96	0.611615	0.23114	0.993198	0.349787	0.651995	3	91	0.0439664	51993	
-22392.4	499522	-256.004	3.48704	-681.678	0.846288	0.229726	0.993198	0.349787	0.651995	3	91	0.0922308	51995	
-20802.3	672431	-257.047	1.37208	-764.368	0.453825	0.399935	1.03299	0.34851	0.655882	3	45.5	0.0919912	51996	
-16114.8	390789	-186.806	2.04952	-1085.12	0.0226471	0.360842	1.03299	0.34851	0.655882	3	45.5	0.116881	51997	
-7302.25	-11324.4	16.815	3.18602	-781.499	0.754946	0.200707	1.03299	0.34851	0.655882	3	45.5	0.0414967	51998	
-7558.99	182.533	-7.59514	3.61522	-890.559	0.914796	0.207386	0.993198	0.349787	0.651995	0.0001	91	0.0414967	51998	
-7558.99	182.533	-7.59514	3.61522	-890.559	0.914796	0.207386	0.993198	0.349787	0.651995	3	91	0.0414967	51998	
-9738.72	610067	-460.452	0.297379	-872.017	0.0168749	0.682765	1.03299	0.34851	0.655882	3	45.5	0.200191	52000	
