-12353.6	230415	-47.3776	1.6643	-1046.42	0.0904441	0.311341	1.03299	0.34851	0.655882	3	45.5	0.0575303	40001	
-18243.2	313350	-174.366	3.24785	-1017.43	-0.0346641	0.244038	1.03299	0.34851	0.655882	0.0001	45.5	0.11815	40002	
-18243.2	313350	-174.366	3.24785	-1017.43	-0.0346641	0.244038	1.03299	0.34851	0.655882	3	45.5	0.11815	40002	
-13499	331342	-221.329	3.52953	-1033.41	0.0157123	0.253127	0.993198	0.349787	0.651995	0.0001	91	0.11815	40002	
-13499	331342	-221.329	3.52953	-1033.41	0.0157123	0.253127	0.993198	0.349787	0.651995	3	91	0.11815	40002	
-14244.7	243552	-80.4879	2.12347	-585.929	0.330865	0.286429	1.03299	0.34851	0.655882	3	45.5	0.068804	40003	
-11249	304743	-210.39	1.43662	-1027.3	-0.00880032	0.445454	1.03299	0.34851	0.655882	3	45.5	0.167074	40005	
-38468.7	764059	-153.626	2.64355	-832.92	0.0656733	0.237789	1.03299	0.34851	0.655882	0.0001	45.5	0.0558241	40006	
-38468.7	764059	-153.626	2.64355	-832.92	0.0656733	0.237789	1.03299	0.34851	0.655882	3	45.5	0.0558241	40006	
-29736	778766	-186.202	2.85353	-856.18	0.0998842	0.228775	0.993198	0.349787	0.651995	3	91	0.0558241	40006	
-31523.4	586249	-326.222	2.87365	-765.325	0.397916	0.343232	1.03299	0.34851	0.655882	0.0001	45.5	0.126302	40009	
-31523.4	586249	-326.222	2.87365	-765.325	0.397916	0.343232	1.03299	0.34851	0.655882	3	45.5	0.126302	40009	
-25121.8	581364	-243.808	3.38392	-747.032	0.431939	0.226373	0.993198	0.349787	0.651995	0.0001	91	0.0840631	40010	
-25121.8	581364	-243.808	3.38392	-747.032	0.431939	0.226373	0.993198	0.349787	0.651995	3	91	0.0840631	40010	
-24420.5	971418	-137.955	1.14262	-889.066	-0.00528669	0.34006	1.03299	0.34851	0.655882	3	45.5	0.0396095	40011	
-8718.67	141969	-172.804	2.13542	-915.32	0.540573	0.388397	1.03299	0.34851	0.655882	0.0001	45.5	0.203094	40012	
-7130.13	163197	-204.415	2.35426	-1014.24	0.615229	0.378548	0.993198	0.349787	0.651995	0.0001	91	0.203094	40012	
-7130.13	163197	-204.415	2.35426	-1014.24	0.615229	0.378548	0.993198	0.349787	0.651995	3	91	0.203094	40012	
-7613.67	329082	-120.548	0.14008	-1064.42	0.270115	0.382976	1.03299	0.34851	0.655882	3	45.5	0.0894217	40014	
-10682.7	126313	-30.3402	3.99176	-636.693	0.00807486	0.14101	0.993198	0.349787	0.651995	3	91	0.029927	40015	
-11695.8	340334	-361.434	1.28713	-877.149	0.657615	0.638583	1.03299	0.34851	0.655882	3	45.5	0.241219	40016	
-8693.01	370979	-394.496	1.41546	-993.708	0.742815	0.637389	0.993198	0.349787	0.651995	0.0001	91	0.241219	40016	
-8693.01	370979	-394.496	1.41546	-993.708	0.742815	0.637389	0.993198	0.349787	0.651995	3	91	0.241219	40016	
-7740.18	278175	-342.432	2.71357	-1045.76	0.245303	0.494104	0.993198	0.349787	0.651995	3	91	0.230568	40017	
-7645.92	416136	-360.4	2.53009	-917.157	1.03897	0.433527	0.958125	0.351078	0.648177	3	182	0.160849	40018	
-9720.24	217986	-312.776	3.30646	-974.026	-0.0527007	0.419813	1.03299	0.34851	0.655882	0.0001	45.5	0.241186	40019	
-9720.24	217986	-312.776	3.30646	-974.026	-0.0527007	0.419813	1.03299	0.34851	0.655882	3	45.5	0.241186	40019	
-5469.48	236340	-373.432	3.61181	-1001	-0.000119024	0.444049	0.993198	0.349787	0.651995	0.0001	91	0.241186	40019	
-5469.48	236340	-373.432	3.61181	-1001	-0.000119024	0.444049	0.993198	0.349787	0.651995	3	91	0.241186	40019	
26.3204	257839	-446.142	3.97669	-1046.78	0.0631261	0.487658	0.958125	0.351078	0.648177	0.0001	182	0.241186	40019	
26.3204	257839	-446.142	3.97669	-1046.78	0.0631261	0.487658	0.958125	0.351078	0.648177	3	182	0.241186	40019	
-13654.2	738846	-389.128	0.599411	-790.28	0.650341	0.513772	1.03299	0.34851	0.655882	3	45.5	0.122028	40022	
-27263.9	751372	-436.683	1.80215	-819.04	0.0014501	0.554497	1.03299	0.34851	0.655882	3	45.5	0.15046	40023	
-24060.1	411070	-303.808	3.31229	-674.152	-0.025901	0.320458	1.03299	0.34851	0.655882	0.0001	45.5	0.155056	40024	
-24060.1	411070	-303.808	3.31229	-674.152	-0.025901	0.320458	1.03299	0.34851	0.655882	3	45.5	0.155056	40024	
-17358	420007	-353.282	3.61369	-704.031	0.0266845	0.337036	0.993198	0.349787	0.651995	3	91	0.155056	40024	
-24765.3	856467	-304.996	1.51143	-1038.69	0.048024	0.420449	1.03299	0.34851	0.655882	3	45.5	0.0944867	40026	
-22795.1	534713	-352.144	1.81457	-551.048	0.759486	0.468953	1.03299	0.34851	0.655882	3	45.5	0.140491	40028	
-17590.1	566380	-385.606	2.01875	-646.864	0.881381	0.45959	0.993198	0.349787	0.651995	0.0001	91	0.140491	40028	
-17590.1	566380	-385.606	2.01875	-646.864	0.881381	0.45959	0.993198	0.349787	0.651995	3	91	0.140491	40028	
-23798.1	562581	-220.217	2.03061	-623.491	0.00772714	0.353518	1.03299	0.34851	0.655882	3	45.5	0.0978624	40029	
-15933.1	282137	-401.451	3.42151	-544.057	0.367186	0.435857	1.03299	0.34851	0.655882	0.0001	45.5	0.226325	40030	
-15933.1	282137	-401.451	3.42151	-544.057	0.367186	0.435857	1.03299	0.34851	0.655882	3	45.5	0.226325	40030	
-10101.1	296700	-460.037	3.83712	-622.594	0.451126	0.466877	0.993198	0.349787	0.651995	0.0001	91	0.226325	40030	
-10101.1	296700	-460.037	3.83712	-622.594	0.451126	0.466877	0.993198	0.349787	0.651995	3	91	0.226325	40030	
-2634.58	316686	-534.154	4.35773	-729.902	0.565007	0.5232	0.958125	0.351078	0.648177	0.0001	182	0.226325	40030	
-2634.58	316686	-534.154	4.35773	-729.902	0.565007	0.5232	0.958125	0.351078	0.648177	3	182	0.226325	40030	
-23850.3	431639	-102.82	2.80018	-1042.2	0.294394	0.226332	1.03299	0.34851	0.655882	0.0001	45.5	0.0627409	40032	
-18902.9	319580	-172.33	3.15255	-835.86	-0.0472853	0.245813	1.03299	0.34851	0.655882	0.0001	45.5	0.112831	40034	
-18902.9	319580	-172.33	3.15255	-835.86	-0.0472853	0.245813	1.03299	0.34851	0.655882	3	45.5	0.112831	40034	
-14297.3	331295	-212.297	3.41725	-849.253	0.000133667	0.251895	0.993198	0.349787	0.651995	0.0001	91	0.112831	40034	
-14297.3	331295	-212.297	3.41725	-849.253	0.000133667	0.251895	0.993198	0.349787	0.651995	3	91	0.112831	40034	
-15565.4	760574	-364.733	0.751473	-747.113	0.145681	0.50133	1.03299	0.34851	0.655882	3	45.5	0.122371	40035	
-16270.4	868304	-395.018	0.967167	-1157.38	-0.00248838	0.511228	1.03299	0.34851	0.655882	3	45.5	0.120093	40036	
-21217	403891	-16.7975	2.38897	-1172.31	-0.0247525	0.245021	1.03299	0.34851	0.655882	0.0001	45.5	0.027768	40037	
-21332.6	356383	15.9561	2.62311	-1073.27	0.0523931	0.218952	1.03299	0.34851	0.655882	0.0001	45.5	0.0129486	40038	
-21332.6	356383	15.9561	2.62311	-1073.27	0.0523931	0.218952	1.03299	0.34851	0.655882	3	45.5	0.0129486	40038	
-17402.3	377201	-9.57529	2.8268	-1084.72	0.0857125	0.208214	0.993198	0.349787	0.651995	3	91	0.0129486	40038	
-14754.6	289595	-348.673	3.27827	-803.527	0.0497874	0.429596	1.03299	0.34851	0.655882	0.0001	45.5	0.220631	40039	
-14754.6	289595	-348.673	3.27827	-803.527	0.0497874	0.429596	1.03299	0.34851	0.655882	3	45.5	0.220631	40039	
-9385.5	304475	-407.37	3.60002	-847.514	0.102537	0.454022	0.993198	0.349787	0.651995	0.0001	91	0.220631	40039	
-9385.5	304475	-407.37	3.60002	-847.514	0.102537	0.454022	0.993198	0.349787	0.651995	3	91	0.220631	40039	
-2630.45	323236	-478.493	3.9864	-910.279	0.168439	0.498423	0.958125	0.351078	0.648177	0.0001	182	0.220631	40039	
-2630.45	323236	-478.493	3.9864	-910.279	0.168439	0.498423	0.958125	0.351078	0.648177	3	182	0.220631	40039	
-12184.7	294164	-91.0471	1.36543	-1111.5	0.34304	0.340935	1.03299	0.34851	0.655882	3	45.5	0.0763436	40040	
-13848.4	476722	-372.367	1.30132	-968.824	0.183349	0.59087	1.03299	0.34851	0.655882	3	45.5	0.19416	40041	
-17349.8	323095	-81.5736	2.52353	-1158.83	0.0115894	0.261125	1.03299	0.34851	0.655882	3	45.5	0.0691685	40042	
-7135.43	-24938.5	-17.074	2.88044	-756.99	0.0138584	0.256046	1.03299	0.34851	0.655882	0.0001	45.5	0.0159286	40043	
-29809.7	658788	-242.373	3.73235	-866.161	0.0433704	0.184616	0.993198	0.349787	0.651995	0.0001	91	0.0789801	40046	
-29809.7	658788	-242.373	3.73235	-866.161	0.0433704	0.184616	0.993198	0.349787	0.651995	3	91	0.0789801	40046	
-20091.4	438138	-307.269	2.72819	-1048.83	-0.035502	0.416306	1.03299	0.34851	0.655882	0.0001	45.5	0.164518	40048	
-20091.4	438138	-307.269	2.72819	-1048.83	-0.035502	0.416306	1.03299	0.34851	0.655882	3	45.5	0.164518	40048	
-14031.5	458491	-359.799	2.94836	-1070.68	-0.00011318	0.422465	0.993198	0.349787	0.651995	3	91	0.164518	40048	
-27409.8	675807	-448.228	1.90665	-646.874	-0.0171334	0.5779	1.03299	0.34851	0.655882	3	45.5	0.168555	40049	
-20372.9	686143	-491.364	2.03907	-670.358	-4.29802e-05	0.579884	0.993198	0.349787	0.651995	3	91	0.168555	40049	
-10994.9	167036	-148.304	3.09563	-956.211	-0.044511	0.265848	1.03299	0.34851	0.655882	0.0001	45.5	0.141159	40050	
-10994.9	167036	-148.304	3.09563	-956.211	-0.044511	0.265848	1.03299	0.34851	0.655882	3	45.5	0.141159	40050	
-8513.76	182986	-189.176	3.35412	-967.136	0.00118074	0.271462	0.993198	0.349787	0.651995	0.0001	91	0.141159	40050	
-8513.76	182986	-189.176	3.35412	-967.136	0.00118074	0.271462	0.993198	0.349787	0.651995	3	91	0.141159	40050	
-15409.2	440084	-419.742	1.28474	-648.607	0.143198	0.680422	1.03299	0.34851	0.655882	3	45.5	0.233594	40051	
-11614.8	454349	-453.239	1.37358	-679.478	0.154445	0.683599	0.993198	0.349787	0.651995	3	91	0.233594	40051	
-18638.9	521607	-113.502	1.51383	-859.592	0.322429	0.32602	1.03299	0.34851	0.655882	3	45.5	0.0558789	40052	
-11720.8	280575	-212.515	1.6858	-914.031	-0.00996183	0.438096	1.03299	0.34851	0.655882	3	45.5	0.175297	40055	
-9382.54	295916	-239.989	1.78897	-923.876	0.00328771	0.423127	0.993198	0.349787	0.651995	0.0001	91	0.175297	40055	
-30704.8	563220	-257.283	3.1526	-998.023	0.110353	0.27111	1.03299	0.34851	0.655882	0.0001	45.5	0.111261	40056	
-30704.8	563220	-257.283	3.1526	-998.023	0.110353	0.27111	1.03299	0.34851	0.655882	3	45.5	0.111261	40056	
-23477.9	647604	-56.13	1.58398	-696.82	-0.00349343	0.301692	1.03299	0.34851	0.655882	3	45.5	0.0264318	40057	
-12352	141944	-22.9838	2.71922	-946.511	0.763818	0.224475	1.03299	0.34851	0.655882	3	45.5	0.048396	40058	
-35660.3	785425	-95.0427	2.13809	-684.472	0.522784	0.258169	1.03299	0.34851	0.655882	0.0001	45.5	0.0321807	40059	
-28472.2	816911	-115.856	2.34635	-753.926	0.593903	0.239008	0.993198	0.349787	0.651995	3	91	0.0321807	40059	
-35820.9	979602	-56.5191	1.7194	-663.218	-0.0019519	0.285858	1.03299	0.34851	0.655882	3	45.5	0.0184668	40060	
-6520.28	-27148.4	-7.54892	3.31649	-660.666	0.29855	0.203767	1.03299	0.34851	0.655882	0.0001	45.5	0.0161793	40061	
-6520.28	-27148.4	-7.54892	3.31649	-660.666	0.29855	0.203767	1.03299	0.34851	0.655882	3	45.5	0.0161793	40061	
-7034.75	-19886.8	-29.8903	3.67259	-698.044	0.369572	0.213628	0.993198	0.349787	0.651995	0.0001	91	0.0161793	40061	
-7034.75	-19886.8	-29.8903	3.67259	-698.044	0.369572	0.213628	0.993198	0.349787	0.651995	3	91	0.0161793	40061	
-9861.16	269122	-222.249	1.25057	-1103.79	0.374462	0.48177	1.03299	0.34851	0.655882	3	45.5	0.193176	40062	
-12685	258310	-230.529	2.55892	-972.237	0.0399792	0.390813	1.03299	0.34851	0.655882	3	45.5	0.18057	40063	
-8072.03	162736	-262.479	3.4531	-873.069	0.487946	0.300716	1.03299	0.34851	0.655882	0.0001	45.5	0.202073	40065	
-8072.03	162736	-262.479	3.4531	-873.069	0.487946	0.300716	1.03299	0.34851	0.655882	3	45.5	0.202073	40065	
-4723.42	183690	-318.335	3.8877	-979.644	0.592725	0.322479	0.993198	0.349787	0.651995	0.0001	91	0.202073	40065	
-4723.42	183690	-318.335	3.8877	-979.644	0.592725	0.322479	0.993198	0.349787	0.651995	3	91	0.202073	40065	
-92.135	211958	-391.247	4.43923	-1128.26	0.737822	0.369858	0.958125	0.351078	0.648177	0.0001	182	0.202073	40065	
-92.135	211958	-391.247	4.43923	-1128.26	0.737822	0.369858	0.958125	0.351078	0.648177	3	182	0.202073	40065	
-27579.8	660898	-354.847	2.07162	-712.745	0.0681949	0.46197	1.03299	0.34851	0.655882	3	45.5	0.134299	40066	
-36982.1	714377	-280.454	2.66416	-617.535	0.176343	0.309031	1.03299	0.34851	0.655882	0.0001	45.5	0.0969029	40068	
-36982.1	714377	-280.454	2.66416	-617.535	0.176343	0.309031	1.03299	0.34851	0.655882	3	45.5	0.0969029	40068	
-28240.7	728929	-318.332	2.90033	-659.169	0.216348	0.305548	0.993198	0.349787	0.651995	0.0001	91	0.0969029	40068	
-28240.7	728929	-318.332	2.90033	-659.169	0.216348	0.305548	0.993198	0.349787	0.651995	3	91	0.0969029	40068	
-11693.8	570748	-424.921	0.553673	-805.157	0.148506	0.641586	1.03299	0.34851	0.655882	3	45.5	0.191682	40069	
-18765.1	529524	-87.319	1.43076	-596.92	0.00310775	0.320231	1.03299	0.34851	0.655882	3	45.5	0.0443299	40070	
-24575.3	554187	-229.605	2.18323	-734.705	0.258401	0.347318	1.03299	0.34851	0.655882	3	45.5	0.0993437	40071	
-9501.61	691330	-386.736	0.427984	-1005.48	0.140618	0.546279	1.03299	0.34851	0.655882	3	45.5	0.142942	40072	
-18679.4	941533	-320.035	0.930329	-1049.9	0.488331	0.429153	1.03299	0.34851	0.655882	3	45.5	0.0822389	40076	
-8194.72	156939	-240.074	2.40249	-762.553	0.529437	0.426899	1.03299	0.34851	0.655882	0.0001	45.5	0.23758	40078	
-8194.72	156939	-240.074	2.40249	-762.553	0.529437	0.426899	1.03299	0.34851	0.655882	3	45.5	0.23758	40078	
-5981.29	174137	-276.91	2.66385	-852.05	0.608483	0.426435	0.993198	0.349787	0.651995	0.0001	91	0.23758	40078	
-5981.29	174137	-276.91	2.66385	-852.05	0.608483	0.426435	0.993198	0.349787	0.651995	3	91	0.23758	40078	
-3035.59	196377	-322.303	2.9776	-968.728	0.711813	0.43927	0.958125	0.351078	0.648177	0.0001	182	0.23758	40078	
-3035.59	196377	-322.303	2.9776	-968.728	0.711813	0.43927	0.958125	0.351078	0.648177	3	182	0.23758	40078	
-19078.4	307599	-50.88	2.69388	-990.796	0.781801	0.218071	1.03299	0.34851	0.655882	0.0001	45.5	0.0461028	40079	
-19078.4	307599	-50.88	2.69388	-990.796	0.781801	0.218071	1.03299	0.34851	0.655882	3	45.5	0.0461028	40079	
-25294.9	526990	-270.589	2.69913	-1006.83	0.0183564	0.362856	1.03299	0.34851	0.655882	3	45.5	0.125814	40080	
-18524.3	546682	-318.231	2.9194	-1034.27	0.0531709	0.364012	0.993198	0.349787	0.651995	0.0001	91	0.125814	40080	
-18524.3	546682	-318.231	2.9194	-1034.27	0.0531709	0.364012	0.993198	0.349787	0.651995	3	91	0.125814	40080	
-20426.5	386489	-224.965	3.20357	-1178.58	-0.0492218	0.289999	1.03299	0.34851	0.655882	0.0001	45.5	0.133013	40081	
-20426.5	386489	-224.965	3.20357	-1178.58	-0.0492218	0.289999	1.03299	0.34851	0.655882	3	45.5	0.133013	40081	
-26358.5	654797	-213.634	2.16333	-1144.62	0.164898	0.342901	1.03299	0.34851	0.655882	3	45.5	0.0851713	40082	
-7037.23	287975	-213.158	0.354972	-677.289	0.00126131	0.405966	0.9175	0.352806	0.64323	3	455	0.192817	40083	
-22807.2	511289	-315.358	2.66952	-1129.29	0.0538747	0.412044	1.03299	0.34851	0.655882	3	45.5	0.149588	40084	
-15940.7	537461	-369.854	2.89527	-1167.19	0.0886219	0.416416	0.993198	0.349787	0.651995	0.0001	91	0.149588	40084	
-15940.7	537461	-369.854	2.89527	-1167.19	0.0886219	0.416416	0.993198	0.349787	0.651995	3	91	0.149588	40084	
-20243.2	500625	-243.958	2.11618	-975.18	0.0982758	0.382103	1.03299	0.34851	0.655882	3	45.5	0.120167	40085	
-38199.8	648076	-372.781	3.35745	-957.337	0.497924	0.310879	1.03299	0.34851	0.655882	0.0001	45.5	0.130671	40086	
-38199.8	648076	-372.781	3.35745	-957.337	0.497924	0.310879	1.03299	0.34851	0.655882	3	45.5	0.130671	40086	
-27200.9	686318	-440.567	3.77588	-1083.47	0.600994	0.329974	0.993198	0.349787	0.651995	0.0001	91	0.130671	40086	
-27200.9	686318	-440.567	3.77588	-1083.47	0.600994	0.329974	0.993198	0.349787	0.651995	3	91	0.130671	40086	
-31466.4	507587	-377.803	3.60562	-679.71	-0.0628967	0.334944	1.03299	0.34851	0.655882	0.0001	45.5	0.164308	40087	
-31466.4	507587	-377.803	3.60562	-679.71	-0.0628967	0.334944	1.03299	0.34851	0.655882	3	45.5	0.164308	40087	
-22258.9	516379	-438.87	3.95088	-716.702	-0.000146984	0.362918	0.993198	0.349787	0.651995	0.0001	91	0.164308	40087	
-22258.9	516379	-438.87	3.95088	-716.702	-0.000146984	0.362918	0.993198	0.349787	0.651995	3	91	0.164308	40087	
-11187.8	529824	-513.006	4.37039	-773.035	0.0759213	0.413287	0.958125	0.351078	0.648177	0.0001	182	0.164308	40087	
-11187.8	529824	-513.006	4.37039	-773.035	0.0759213	0.413287	0.958125	0.351078	0.648177	3	182	0.164308	40087	
-19424.2	374763	-421.448	2.7701	-573.174	-0.0366821	0.571461	1.03299	0.34851	0.655882	3	45.5	0.235977	40088	
-13414.8	383148	-473.816	3.00911	-605.451	-6.95261	0.593256	0.993198	0.349787	0.651995	0.0001	91	0.235977	40088	
-13414.8	383148	-473.816	3.00911	-605.451	-6.95261	0.593256	0.993198	0.349787	0.651995	3	91	0.235977	40088	
-6139.79	394386	-535.036	3.28687	-649.301	0.0435118	0.630172	0.958125	0.351078	0.648177	0.0001	182	0.235977	40088	
-6139.79	394386	-535.036	3.28687	-649.301	0.0435118	0.630172	0.958125	0.351078	0.648177	3	182	0.235977	40088	
-22478.5	447941	-390.831	2.8969	-825.124	0.0142465	0.49133	1.03299	0.34851	0.655882	3	45.5	0.195834	40089	
-15482.2	463308	-448.407	3.15633	-863.035	0.0545984	0.509077	0.993198	0.349787	0.651995	0.0001	91	0.195834	40089	
-15482.2	463308	-448.407	3.15633	-863.035	0.0545984	0.509077	0.993198	0.349787	0.651995	3	91	0.195834	40089	
-16105.8	480097	-154.888	1.28893	-630.449	0.119107	0.360844	1.03299	0.34851	0.655882	3	45.5	0.0807152	40091	
-18070.9	421919	-278.983	2.39201	-1052.64	0.115324	0.415672	1.03299	0.34851	0.655882	3	45.5	0.154543	40094	
-12982.7	446004	-324.21	2.58912	-1094.41	0.145197	0.413338	0.993198	0.349787	0.651995	0.0001	91	0.154543	40094	
-19746.9	418839	-303.045	2.8398	-1062.68	0.00689188	0.403506	1.03299	0.34851	0.655882	3	45.5	0.165726	40095	
-13691.2	440815	-357.52	3.08172	-1092.76	0.0454431	0.411841	0.993198	0.349787	0.651995	0.0001	91	0.165726	40095	
-13691.2	440815	-357.52	3.08172	-1092.76	0.0454431	0.411841	0.993198	0.349787	0.651995	3	91	0.165726	40095	
-14555.4	513053	-418.785	1.04576	-776.171	0.127046	0.650461	1.03299	0.34851	0.655882	3	45.5	0.206761	40096	
-25890.4	675340	-273.796	1.80468	-588.069	0.0134827	0.396368	1.03299	0.34851	0.655882	3	45.5	0.103545	40098	
-36451.9	722767	-400.91	2.53416	-565.698	0.0803982	0.434399	1.03299	0.34851	0.655882	0.0001	45.5	0.137574	40100	
-36451.9	722767	-400.91	2.53416	-565.698	0.0803982	0.434399	1.03299	0.34851	0.655882	3	45.5	0.137574	40100	
-27382.2	734106	-446.413	2.74683	-603.99	0.112435	0.437132	0.993198	0.349787	0.651995	3	91	0.137574	40100	
-20864.4	635247	-71.5561	1.31252	-594.419	0.308195	0.317398	1.03299	0.34851	0.655882	3	45.5	0.0299716	40101	
-16295.9	835341	-203.21	0.766894	-889.404	0.47337	0.376732	1.03299	0.34851	0.655882	3	45.5	0.0589739	40102	
-17337.6	799655	-195.759	0.999978	-1102.64	0.00252301	0.37515	1.03299	0.34851	0.655882	3	45.5	0.0655993	40104	
-17222.1	351290	-156.582	2.34826	-856.648	-0.0141274	0.31333	1.03299	0.34851	0.655882	3	45.5	0.104195	40109	
-10007.1	157082	-217.306	3.47231	-590.537	0.112898	0.244572	1.03299	0.34851	0.655882	0.0001	45.5	0.163385	40110	
-10007.1	157082	-217.306	3.47231	-590.537	0.112898	0.244572	1.03299	0.34851	0.655882	3	45.5	0.163385	40110	
-7149.66	165215	-257.68	3.82154	-626.998	0.174415	0.261861	0.993198	0.349787	0.651995	0.0001	91	0.163385	40110	
-7149.66	165215	-257.68	3.82154	-626.998	0.174415	0.261861	0.993198	0.349787	0.651995	3	91	0.163385	40110	
-3569.63	175585	-307.193	4.24505	-678.761	0.252802	0.300518	0.958125	0.351078	0.648177	0.0001	182	0.163385	40110	
-3569.63	175585	-307.193	4.24505	-678.761	0.252802	0.300518	0.958125	0.351078	0.648177	3	182	0.163385	40110	
-13732	275183	-371.49	3.45822	-882.254	0.510809	0.415198	1.03299	0.34851	0.655882	0.0001	45.5	0.22286	40111	
-13732	275183	-371.49	3.45822	-882.254	0.510809	0.415198	1.03299	0.34851	0.655882	3	45.5	0.22286	40111	
-7967.29	301447	-439.762	3.91181	-1005.28	0.620418	0.446274	0.993198	0.349787	0.651995	0.0001	91	0.22286	40111	
-7967.29	301447	-439.762	3.91181	-1005.28	0.620418	0.446274	0.993198	0.349787	0.651995	3	91	0.22286	40111	
-177.213	337639	-529.002	4.49236	-1177.81	0.773647	0.504701	0.958125	0.351078	0.648177	0.0001	182	0.22286	40111	
-177.213	337639	-529.002	4.49236	-1177.81	0.773647	0.504701	0.958125	0.351078	0.648177	3	182	0.22286	40111	
-16844.6	740380	-265.376	0.974676	-874.936	0.188598	0.418828	1.03299	0.34851	0.655882	3	45.5	0.091209	40112	
-19279.5	498876	-423.202	1.71486	-659.046	0.0237769	0.625869	1.03299	0.34851	0.655882	3	45.5	0.208339	40114	
-14207.6	510506	-462.596	1.83374	-682.975	0.0377386	0.629419	0.993198	0.349787	0.651995	3	91	0.208339	40114	
-2618.21	115881	-233.105	3.1696	-1079.8	0.427374	0.328265	0.9175	0.352806	0.64323	0.0001	455	0.186735	40115	
-2618.21	115881	-233.105	3.1696	-1079.8	0.427374	0.328265	0.9175	0.352806	0.64323	3	455	0.186735	40115	
-9077.68	153095	-36.0548	0.417721	-609.535	0.201172	0.313958	0.993198	0.349787	0.651995	0.0001	91	0.057539	40116	
-12148.5	460945	-407.846	1.05684	-991.287	0.0568709	0.677572	1.03299	0.34851	0.655882	3	45.5	0.228241	40117	
-14419.8	258618	-352.804	3.5413	-568.384	0.0195108	0.376407	1.03299	0.34851	0.655882	0.0001	45.5	0.216944	40118	
-14419.8	258618	-352.804	3.5413	-568.384	0.0195108	0.376407	1.03299	0.34851	0.655882	3	45.5	0.216944	40118	
-9206.28	267127	-407.362	3.89734	-610.104	0.0805297	0.405564	0.993198	0.349787	0.651995	0.0001	91	0.216944	40118	
-9206.28	267127	-407.362	3.89734	-610.104	0.0805297	0.405564	0.993198	0.349787	0.651995	3	91	0.216944	40118	
-2756.09	278930	-474.071	4.33089	-669.573	0.156862	0.457481	0.958125	0.351078	0.648177	0.0001	182	0.216944	40118	
-2756.09	278930	-474.071	4.33089	-669.573	0.156862	0.457481	0.958125	0.351078	0.648177	3	182	0.216944	40118	
-19703.1	475349	-201.755	2.02064	-860.113	0.146311	0.353668	1.03299	0.34851	0.655882	3	45.5	0.103598	40120	
-10994.3	134799	-127.905	3.13525	-549.65	0.620989	0.21361	1.03299	0.34851	0.655882	0.0001	45.5	0.104294	40122	
-10994.3	134799	-127.905	3.13525	-549.65	0.620989	0.21361	1.03299	0.34851	0.655882	3	45.5	0.104294	40122	
-9009.81	145600	-156.602	3.52622	-624.966	0.742503	0.218974	0.993198	0.349787	0.651995	0.0001	91	0.104294	40122	
-9009.81	145600	-156.602	3.52622	-624.966	0.742503	0.218974	0.993198	0.349787	0.651995	3	91	0.104294	40122	
-21520.4	447486	-15.7429	2.00487	-920.846	0.505124	0.267842	1.03299	0.34851	0.655882	3	45.5	0.0188996	40123	
-26915.4	733566	-347.474	1.76385	-680.472	-0.0123575	0.458761	1.03299	0.34851	0.655882	3	45.5	0.122684	40124	
-25047.2	643115	-318.076	3.62231	-1181.27	0.531814	0.251785	0.993198	0.349787	0.651995	0.0001	91	0.101602	40127	
-25047.2	643115	-318.076	3.62231	-1181.27	0.531814	0.251785	0.993198	0.349787	0.651995	3	91	0.101602	40127	
-12152.6	299039	-122.206	1.26456	-712.899	0.0303667	0.362459	1.03299	0.34851	0.655882	3	45.5	0.099207	40128	
-19045.8	438593	-219.951	3.88142	-1125.29	0.811036	0.184353	0.993198	0.349787	0.651995	0.0001	91	0.0880656	40129	
-19045.8	438593	-219.951	3.88142	-1125.29	0.811036	0.184353	0.993198	0.349787	0.651995	3	91	0.0880656	40129	
-7013.24	363035	-343.274	0.0512519	-1007.55	0.805162	0.646791	1.03299	0.34851	0.655882	0.0001	45.5	0.236561	40130	
-7013.24	363035	-343.274	0.0512519	-1007.55	0.805162	0.646791	1.03299	0.34851	0.655882	3	45.5	0.236561	40130	
-34183.2	902493	-67.6981	1.85981	-1043.1	-0.0161049	0.281165	1.03299	0.34851	0.655882	3	45.5	0.0255998	40131	
-9890.15	187894	-201.172	2.43524	-1079.32	0.390309	0.389114	1.03299	0.34851	0.655882	3	45.5	0.193971	40134	
-27714.1	678667	-375.355	2.09063	-885.988	0.535334	0.453309	1.03299	0.34851	0.655882	3	45.5	0.129523	40135	
-20321.5	716917	-420.532	2.30633	-993.576	0.607961	0.447883	0.993198	0.349787	0.651995	3	91	0.129523	40135	
-31842.8	749117	-13.0197	1.91923	-697.096	0.286267	0.267988	1.03299	0.34851	0.655882	0.0001	45.5	0.00953521	40136	
-31842.8	749117	-13.0197	1.91923	-697.096	0.286267	0.267988	1.03299	0.34851	0.655882	3	45.5	0.00953521	40136	
-6119.93	15.6425	-81.8272	3.88878	-647.658	0.218966	0.195105	0.993198	0.349787	0.651995	0.0001	91	0.00454043	40137	
-6119.93	15.6425	-81.8272	3.88878	-647.658	0.218966	0.195105	0.993198	0.349787	0.651995	3	91	0.00454043	40137	
-18077	347005	-135.852	2.43779	-836.836	0.27299	0.285606	1.03299	0.34851	0.655882	0.0001	45.5	0.0883923	40138	
-18077	347005	-135.852	2.43779	-836.836	0.27299	0.285606	1.03299	0.34851	0.655882	3	45.5	0.0883923	40138	
-9287.72	211547	-189.248	1.08611	-969.783	0.33921	0.473606	1.03299	0.34851	0.655882	3	45.5	0.21151	40139	
-26436	696894	-412.076	2.01934	-1017.13	0.530371	0.498262	1.03299	0.34851	0.655882	3	45.5	0.139978	40140	
-18778.3	741055	-461.799	2.22673	-1137.44	0.600462	0.495353	0.993198	0.349787	0.651995	3	91	0.139978	40140	
-18322.4	547855	-207.016	1.40037	-603.424	0.00578425	0.384216	1.03299	0.34851	0.655882	3	45.5	0.0961611	40141	
-8429.09	659936	-396.438	0.0663119	-684.612	0.703744	0.542776	1.03299	0.34851	0.655882	3	45.5	0.138239	40143	
-19725.5	638275	-185.749	1.363	-762.404	0.110491	0.363593	1.03299	0.34851	0.655882	3	45.5	0.0751844	40145	
-11796	268860	-186.935	3.79935	-1162.47	0.378216	0.211967	0.993198	0.349787	0.651995	0.0001	91	0.107271	40146	
-11796	268860	-186.935	3.79935	-1162.47	0.378216	0.211967	0.993198	0.349787	0.651995	3	91	0.107271	40146	
-13996.2	357731	-92.2518	1.28644	-724.968	0.627522	0.33405	1.03299	0.34851	0.655882	3	45.5	0.060112	40147	
-9883.1	133851	-105.242	2.43071	-1010.98	-0.0172708	0.307908	1.03299	0.34851	0.655882	0.0001	45.5	0.133612	40148	
-9883.1	133851	-105.242	2.43071	-1010.98	-0.0172708	0.307908	1.03299	0.34851	0.655882	3	45.5	0.133612	40148	
-15447.7	680059	-321.821	1.13353	-1121.51	0.00643299	0.476716	1.03299	0.34851	0.655882	3	45.5	0.123759	40149	
-29443.6	822890	-12.9977	1.61061	-1059.82	-0.00464577	0.297572	1.03299	0.34851	0.655882	3	45.5	0.010822	40150	
-17124.2	327875	-330.646	3.23959	-886.205	0.153353	0.398035	1.03299	0.34851	0.655882	0.0001	45.5	0.195617	40151	
-17124.2	327875	-330.646	3.23959	-886.205	0.153353	0.398035	1.03299	0.34851	0.655882	3	45.5	0.195617	40151	
-11362.4	347164	-389.646	3.57202	-944.496	0.209341	0.41878	0.993198	0.349787	0.651995	0.0001	91	0.195617	40151	
-11362.4	347164	-389.646	3.57202	-944.496	0.209341	0.41878	0.993198	0.349787	0.651995	3	91	0.195617	40151	
-4058.76	371386	-461.886	3.97291	-1024.55	0.281094	0.459524	0.958125	0.351078	0.648177	0.0001	182	0.195617	40151	
-4058.76	371386	-461.886	3.97291	-1024.55	0.281094	0.459524	0.958125	0.351078	0.648177	3	182	0.195617	40151	
-12693	362650	-353.068	1.36456	-787.071	-0.00658477	0.630355	1.03299	0.34851	0.655882	3	45.5	0.241143	40152	
-15064.7	533709	-243.988	1.29686	-1016.26	0.0103082	0.426898	1.03299	0.34851	0.655882	3	45.5	0.117768	40154	
-15738.7	783841	-179.446	0.758135	-813.885	0.207285	0.37123	1.03299	0.34851	0.655882	3	45.5	0.0583699	40155	
-19473.4	387940	-267.87	2.64925	-794.501	0.205547	0.371379	1.03299	0.34851	0.655882	3	45.5	0.149034	40156	
-14395.8	405059	-309.724	2.89299	-844.757	0.247277	0.37221	0.993198	0.349787	0.651995	3	91	0.149034	40156	
-9655.6	130906	-103.503	3.69856	-628.708	0.822047	0.182612	0.993198	0.349787	0.651995	0.0001	91	0.0694668	40158	
-9655.6	130906	-103.503	3.69856	-628.708	0.822047	0.182612	0.993198	0.349787	0.651995	3	91	0.0694668	40158	
-13364.8	286535	-123.898	1.9006	-1079.54	0.254948	0.334429	1.03299	0.34851	0.655882	3	45.5	0.100564	40159	
-28608.3	920766	0.908769	1.31477	-1049.66	0.173405	0.309242	1.03299	0.34851	0.655882	3	45.5	0.00488339	40160	
-6207.98	86643.3	-155.847	3.16415	-1166.22	-0.0464383	0.289395	1.03299	0.34851	0.655882	0.0001	45.5	0.190807	40162	
-6207.98	86643.3	-155.847	3.16415	-1166.22	-0.0464383	0.289395	1.03299	0.34851	0.655882	3	45.5	0.190807	40162	
-4632.89	110845	-204.709	3.43498	-1177.57	0.00139401	0.298789	0.993198	0.349787	0.651995	0.0001	91	0.190807	40162	
-4632.89	110845	-204.709	3.43498	-1177.57	0.00139401	0.298789	0.993198	0.349787	0.651995	3	91	0.190807	40162	
-2290.4	136630	-262.502	3.75328	-1205.07	0.0581613	0.324782	0.958125	0.351078	0.648177	0.0001	182	0.190807	40162	
-2290.4	136630	-262.502	3.75328	-1205.07	0.0581613	0.324782	0.958125	0.351078	0.648177	3	182	0.190807	40162	
-26379.3	736038	-106.389	1.6653	-733.506	-0.00817911	0.309654	1.03299	0.34851	0.655882	3	45.5	0.0408023	40163	
-17428.1	438040	-201.016	1.87363	-918.994	0.295682	0.367739	1.03299	0.34851	0.655882	3	45.5	0.109007	40164	
-9763.09	492898	-332.22	0.602997	-981.797	0.150037	0.553083	1.03299	0.34851	0.655882	3	45.5	0.172667	40165	
-19732.4	417083	-158.005	2.45965	-1116.16	0.156278	0.299173	1.03299	0.34851	0.655882	3	45.5	0.0934976	40166	
-22811.7	661141	-305.401	1.93683	-1149.92	0.0654415	0.427255	1.03299	0.34851	0.655882	3	45.5	0.11964	40167	
-7394.98	-15468.9	25.5535	3.25819	-961.873	-0.0441039	0.206753	1.03299	0.34851	0.655882	3	45.5	0.0481487	40170	
-7680.38	243.989	-2.0179	3.53599	-957.857	0.00656794	0.213815	0.993198	0.349787	0.651995	0.0001	91	0.0481487	40170	
-7680.38	243.989	-2.0179	3.53599	-957.857	0.00656794	0.213815	0.993198	0.349787	0.651995	3	91	0.0481487	40170	
-14147.5	183888	12.5801	2.48766	-964.799	0.690533	0.234734	1.03299	0.34851	0.655882	0.0001	45.5	0.0194865	40173	
-14147.5	183888	12.5801	2.48766	-964.799	0.690533	0.234734	1.03299	0.34851	0.655882	3	45.5	0.0194865	40173	
-11198	182483	-82.977	1.68635	-697.515	0.360819	0.325902	1.03299	0.34851	0.655882	3	45.5	0.0924311	40176	
-11613.5	242384	-183.743	3.91404	-989.29	0.565299	0.195153	0.993198	0.349787	0.651995	0.0001	91	0.103887	40177	
-11613.5	242384	-183.743	3.91404	-989.29	0.565299	0.195153	0.993198	0.349787	0.651995	3	91	0.103887	40177	
-24067.9	676215	-13.96	1.54775	-1184.85	0.027857	0.298498	1.03299	0.34851	0.655882	3	45.5	0.013852	40178	
-20082.6	686557	-97.8893	3.70516	-982.243	0.599754	0.169624	0.958125	0.351078	0.648177	0.0001	182	0.0220253	40179	
-20082.6	686557	-97.8893	3.70516	-982.243	0.599754	0.169624	0.958125	0.351078	0.648177	3	182	0.0220253	40179	
-5557.14	35387.5	-106.768	3.21331	-909.698	0.289254	0.224071	1.03299	0.34851	0.655882	0.0001	45.5	0.105565	40181	
-5557.14	35387.5	-106.768	3.21331	-909.698	0.289254	0.224071	1.03299	0.34851	0.655882	3	45.5	0.105565	40181	
-4900.34	51530.6	-144.989	3.55102	-968.487	0.355708	0.231678	0.993198	0.349787	0.651995	0.0001	91	0.105565	40181	
-4900.34	51530.6	-144.989	3.55102	-968.487	0.355708	0.231678	0.993198	0.349787	0.651995	3	91	0.105565	40181	
-3744.36	70811.6	-192.959	3.96012	-1048.35	0.442456	0.258739	0.958125	0.351078	0.648177	0.0001	182	0.105565	40181	
-3744.36	70811.6	-192.959	3.96012	-1048.35	0.442456	0.258739	0.958125	0.351078	0.648177	3	182	0.105565	40181	
-1009.99	104192	-279.002	4.66841	-1205.23	0.60634	0.331739	0.9175	0.352806	0.64323	0.0001	455	0.105565	40181	
-1009.99	104192	-279.002	4.66841	-1205.23	0.60634	0.331739	0.9175	0.352806	0.64323	3	455	0.105565	40181	
-6935.82	880.848	-57.1215	3.46812	-808.52	0.467646	0.224835	0.993198	0.349787	0.651995	0.0001	91	0.0222343	40182	
-6935.82	880.848	-57.1215	3.46812	-808.52	0.467646	0.224835	0.993198	0.349787	0.651995	3	91	0.0222343	40182	
-17127.8	261975	20.4629	2.54808	-988.565	0.0748481	0.229685	1.03299	0.34851	0.655882	0.0001	45.5	0.011232	40184	
-17127.8	261975	20.4629	2.54808	-988.565	0.0748481	0.229685	1.03299	0.34851	0.655882	3	45.5	0.011232	40184	
-14354	279913	-1.97305	2.74607	-1002.13	0.106881	0.217707	0.993198	0.349787	0.651995	3	91	0.011232	40184	
-12442.9	347866	-276.893	1.29431	-772.345	0.592086	0.498287	1.03299	0.34851	0.655882	3	45.5	0.178435	40186	
-5895.22	147539	-151.848	2.28861	-671.101	0.0716562	0.289261	0.9175	0.352806	0.64323	3	455	0.123904	40187	
-17929.3	333939	-406.986	3.26688	-648.27	-0.0328926	0.49517	1.03299	0.34851	0.655882	0.0001	45.5	0.233426	40191	
-17929.3	333939	-406.986	3.26688	-648.27	-0.0328926	0.49517	1.03299	0.34851	0.655882	3	45.5	0.233426	40191	
-11639.5	344048	-466.755	3.57718	-686.743	0.018459	0.524919	0.993198	0.349787	0.651995	0.0001	91	0.233426	40191	
-11639.5	344048	-466.755	3.57718	-686.743	0.018459	0.524919	0.993198	0.349787	0.651995	3	91	0.233426	40191	
-3884.82	357778	-538.605	3.94886	-741.939	0.0808907	0.574627	0.958125	0.351078	0.648177	0.0001	182	0.233426	40191	
-3884.82	357778	-538.605	3.94886	-741.939	0.0808907	0.574627	0.958125	0.351078	0.648177	3	182	0.233426	40191	
-23552.6	544493	-285.388	3.79486	-906.594	0.114544	0.225391	0.993198	0.349787	0.651995	0.0001	91	0.104757	40192	
-23552.6	544493	-285.388	3.79486	-906.594	0.114544	0.225391	0.993198	0.349787	0.651995	3	91	0.104757	40192	
-21061.6	495814	-98.7486	3.16695	-1159.1	0.884676	0.190161	0.993198	0.349787	0.651995	3	91	0.040896	40193	
-26179	856239	-73.7582	1.33578	-811.624	0.225997	0.31581	1.03299	0.34851	0.655882	3	45.5	0.0248172	40194	
-36777.6	742397	-363.764	2.68188	-773.223	0.0221091	0.386847	1.03299	0.34851	0.655882	0.0001	45.5	0.125403	40195	
-36777.6	742397	-363.764	2.68188	-773.223	0.0221091	0.386847	1.03299	0.34851	0.655882	3	45.5	0.125403	40195	
-27183.4	755938	-412.936	2.90229	-806.596	0.0565427	0.389434	0.993198	0.349787	0.651995	3	91	0.125403	40195	
-12580.3	699860	-379.429	0.421364	-607.184	0.0941495	0.535734	1.03299	0.34851	0.655882	3	45.5	0.139422	40198	
-38428	876106	-449.764	2.19949	-667.037	-0.0205198	0.490455	1.03299	0.34851	0.655882	3	45.5	0.135476	40200	
-28687.4	886379	-496.778	2.35934	-694.423	0.00229026	0.490011	0.993198	0.349787	0.651995	3	91	0.135476	40200	
-12416.6	176634	-67.0149	2.53733	-891.118	0.0150229	0.263129	1.03299	0.34851	0.655882	0.0001	45.5	0.0792381	40202	
-12416.6	176634	-67.0149	2.53733	-891.118	0.0150229	0.263129	1.03299	0.34851	0.655882	3	45.5	0.0792381	40202	
-11015.6	173588	-124.217	2.47891	-1014.82	0.110857	0.309758	1.03299	0.34851	0.655882	0.0001	45.5	0.132044	40203	
-11015.6	173588	-124.217	2.47891	-1014.82	0.110857	0.309758	1.03299	0.34851	0.655882	3	45.5	0.132044	40203	
-6669.67	77096.7	-137.591	3.42705	-886.724	-0.0489382	0.220554	1.03299	0.34851	0.655882	0.0001	45.5	0.140293	40204	
-6669.67	77096.7	-137.591	3.42705	-886.724	-0.0489382	0.220554	1.03299	0.34851	0.655882	3	45.5	0.140293	40204	
-5272.74	91024.4	-179.243	3.7324	-898.584	0.00732834	0.234177	0.993198	0.349787	0.651995	0.0001	91	0.140293	40204	
-5272.74	91024.4	-179.243	3.7324	-898.584	0.00732834	0.234177	0.993198	0.349787	0.651995	3	91	0.140293	40204	
-3313.88	106226	-229.041	4.09693	-925.327	0.0747555	0.266926	0.958125	0.351078	0.648177	0.0001	182	0.140293	40204	
-3313.88	106226	-229.041	4.09693	-925.327	0.0747555	0.266926	0.958125	0.351078	0.648177	3	182	0.140293	40204	
491.393	130033	-313.09	4.71284	-992.553	0.19047	0.345536	0.9175	0.352806	0.64323	0.0001	455	0.140293	40204	
491.393	130033	-313.09	4.71284	-992.553	0.19047	0.345536	0.9175	0.352806	0.64323	3	455	0.140293	40204	
-23995.4	642004	-34.5287	1.54053	-880.526	0.66039	0.29779	1.03299	0.34851	0.655882	3	45.5	0.0178836	40205	
-15959.7	606719	-312.102	1.26602	-1015.77	0.00856852	0.477998	1.03299	0.34851	0.655882	3	45.5	0.133419	40206	
-28049.2	528077	-181.128	2.8504	-812.783	-0.0381577	0.254694	1.03299	0.34851	0.655882	0.0001	45.5	0.0862041	40207	
-28049.2	528077	-181.128	2.8504	-812.783	-0.0381577	0.254694	1.03299	0.34851	0.655882	3	45.5	0.0862041	40207	
-21379.2	538710	-217.596	3.07348	-825.811	0.000386649	0.252244	0.993198	0.349787	0.651995	0.0001	91	0.0862041	40207	
-21379.2	538710	-217.596	3.07348	-825.811	0.000386649	0.252244	0.993198	0.349787	0.651995	3	91	0.0862041	40207	
-12106.7	144901	-34.0008	2.76218	-888.681	0.00196265	0.23285	1.03299	0.34851	0.655882	0.0001	45.5	0.0574222	40208	
-12106.7	144901	-34.0008	2.76218	-888.681	0.00196265	0.23285	1.03299	0.34851	0.655882	3	45.5	0.0574222	40208	
-8078.03	420864	-352.203	0.294959	-964.74	0.348565	0.62457	1.03299	0.34851	0.655882	0.0001	45.5	0.214954	40211	
-8078.03	420864	-352.203	0.294959	-964.74	0.348565	0.62457	1.03299	0.34851	0.655882	3	45.5	0.214954	40211	
-12722.4	213796	-94.9675	2.36988	-1082.07	0.0911127	0.292631	1.03299	0.34851	0.655882	3	45.5	0.0975239	40212	
-11937.7	210915	-102.363	3.58855	-860.529	0.00498172	0.187762	0.993198	0.349787	0.651995	0.0001	91	0.0708916	40213	
-11937.7	210915	-102.363	3.58855	-860.529	0.00498172	0.187762	0.993198	0.349787	0.651995	3	91	0.0708916	40213	
-39418.8	657305	-382.784	3.3111	-753.51	0.23703	0.331299	1.03299	0.34851	0.655882	0.0001	45.5	0.136189	40216	
-39418.8	657305	-382.784	3.3111	-753.51	0.23703	0.331299	1.03299	0.34851	0.655882	3	45.5	0.136189	40216	
-28632.5	678526	-443.093	3.66651	-824.761	0.301745	0.349446	0.993198	0.349787	0.651995	0.0001	91	0.136189	40216	
-28632.5	678526	-443.093	3.66651	-824.761	0.301745	0.349446	0.993198	0.349787	0.651995	3	91	0.136189	40216	
-15409.2	706846	-517.609	4.0995	-920.86	0.386314	0.388668	0.958125	0.351078	0.648177	3	182	0.136189	40216	
-10770	376844	-377.766	2.22083	-847.783	0.00517538	0.544721	0.993198	0.349787	0.651995	3	91	0.214844	40217	
-16565	284034	-265.819	3.61167	-845.147	-0.044853	0.278292	1.03299	0.34851	0.655882	0.0001	45.5	0.167862	40220	
-16565	284034	-265.819	3.61167	-845.147	-0.044853	0.278292	1.03299	0.34851	0.655882	3	45.5	0.167862	40220	
-11348.9	297304	-321.124	3.95554	-872.384	0.0179423	0.302404	0.993198	0.349787	0.651995	0.0001	91	0.167862	40220	
-11348.9	297304	-321.124	3.95554	-872.384	0.0179423	0.302404	0.993198	0.349787	0.651995	3	91	0.167862	40220	
-4877.87	313823	-388.227	4.37282	-918.933	0.0944065	0.348575	0.958125	0.351078	0.648177	0.0001	182	0.167862	40220	
-4877.87	313823	-388.227	4.37282	-918.933	0.0944065	0.348575	0.958125	0.351078	0.648177	3	182	0.167862	40220	
-21116.6	573132	-397.483	1.38893	-520.047	0.799589	0.53154	1.03299	0.34851	0.655882	3	45.5	0.150254	40222	
-16431.4	607975	-428.363	1.53894	-612.744	0.925995	0.52092	0.993198	0.349787	0.651995	0.0001	91	0.150254	40222	
-20376	645913	-250.18	1.6436	-1093.11	0.0735405	0.3975	1.03299	0.34851	0.655882	3	45.5	0.100858	40224	
-22441.9	486006	-382.414	2.32805	-650.693	-0.0257259	0.520168	1.03299	0.34851	0.655882	3	45.5	0.186071	40225	
-16423.8	495408	-426.313	2.50488	-675.025	-8.09602e-05	0.525426	0.993198	0.349787	0.651995	0.0001	91	0.186071	40225	
-16423.8	495408	-426.313	2.50488	-675.025	-8.09602e-05	0.525426	0.993198	0.349787	0.651995	3	91	0.186071	40225	
-32788.4	605979	-239.766	3.02722	-1059.76	0.440353	0.255362	1.03299	0.34851	0.655882	0.0001	45.5	0.0950034	40226	
-32788.4	605979	-239.766	3.02722	-1059.76	0.440353	0.255362	1.03299	0.34851	0.655882	3	45.5	0.0950034	40226	
-19870.2	451801	-387.307	2.83114	-1134.82	-0.0296748	0.514438	1.03299	0.34851	0.655882	3	45.5	0.200615	40230	
-12835.1	476947	-451.98	3.07533	-1165.41	0.00859443	0.532341	0.993198	0.349787	0.651995	0.0001	91	0.200615	40230	
-12835.1	476947	-451.98	3.07533	-1165.41	0.00859443	0.532341	0.993198	0.349787	0.651995	3	91	0.200615	40230	
-24219.4	482102	-81.7742	3.93767	-1078.99	0.460411	0.111111	0.993198	0.349787	0.651995	3	91	0.0351795	40231	
-15350	516794	-133.056	4.43894	-1183.01	0.579528	0.147179	0.958125	0.351078	0.648177	3	182	0.0351795	40231	
-17000.3	863328	-391.632	0.885321	-946.71	0.0126426	0.508599	1.03299	0.34851	0.655882	3	45.5	0.119328	40232	
-13998.6	317587	-86.5618	1.53784	-791.448	0.397722	0.324101	1.03299	0.34851	0.655882	3	45.5	0.065408	40234	
-37299.5	830884	-415.967	2.55113	-1038.09	0.158214	0.436494	1.03299	0.34851	0.655882	3	45.5	0.129438	40236	
-26623.5	860692	-474.728	2.7782	-1098.94	0.194231	0.439983	0.993198	0.349787	0.651995	3	91	0.129438	40236	
-29358.1	826616	-108.081	1.61888	-645.927	0.190031	0.309873	1.03299	0.34851	0.655882	3	45.5	0.0354647	40237	
-18686.3	410983	-193.584	3.65084	-859.296	0.385836	0.195527	0.993198	0.349787	0.651995	0.0001	91	0.0844769	40238	
-18772.6	665103	-260.017	1.31432	-1010.05	0.658188	0.404502	1.03299	0.34851	0.655882	3	45.5	0.0915551	40239	
-9242.45	147996	-176.706	3.03727	-992.152	0.354131	0.294235	1.03299	0.34851	0.655882	0.0001	45.5	0.168704	40244	
-9242.45	147996	-176.706	3.03727	-992.152	0.354131	0.294235	1.03299	0.34851	0.655882	3	45.5	0.168704	40244	
-6874.4	170123	-221.852	3.3636	-1071.96	0.42272	0.301006	0.993198	0.349787	0.651995	0.0001	91	0.168704	40244	
-6874.4	170123	-221.852	3.3636	-1071.96	0.42272	0.301006	0.993198	0.349787	0.651995	3	91	0.168704	40244	
-3592.72	197524	-278.476	3.75861	-1178	0.512579	0.326014	0.958125	0.351078	0.648177	0.0001	182	0.168704	40244	
-3592.72	197524	-278.476	3.75861	-1178	0.512579	0.326014	0.958125	0.351078	0.648177	3	182	0.168704	40244	
-29772.7	676594	-372.907	2.4723	-1041.52	0.389177	0.427436	1.03299	0.34851	0.655882	0.0001	45.5	0.133015	40245	
-29772.7	676594	-372.907	2.4723	-1041.52	0.389177	0.427436	1.03299	0.34851	0.655882	3	45.5	0.133015	40245	
-21199.5	714333	-427.52	2.72276	-1140.61	0.44621	0.428533	0.993198	0.349787	0.651995	0.0001	91	0.133015	40245	
-21199.5	714333	-427.52	2.72276	-1140.61	0.44621	0.428533	0.993198	0.349787	0.651995	3	91	0.133015	40245	
-23502.8	409669	-7.42554	2.44651	-685.748	0.626845	0.229139	1.03299	0.34851	0.655882	0.0001	45.5	0.0141537	40248	
-24416.4	437154	-113.561	2.81494	-776.874	0.0514711	0.227758	1.03299	0.34851	0.655882	0.0001	45.5	0.0651178	40249	
-19097.3	448795	-143.374	3.04562	-795.479	0.0899133	0.22278	0.993198	0.349787	0.651995	0.0001	91	0.0651178	40249	
-19097.3	448795	-143.374	3.04562	-795.479	0.0899133	0.22278	0.993198	0.349787	0.651995	3	91	0.0651178	40249	
-20625.2	918287	-214.26	1.09126	-1103.59	0.0555924	0.374351	1.03299	0.34851	0.655882	3	45.5	0.062522	40250	
-28218	714346	-237.354	2.11785	-997.15	0.0259011	0.347829	1.03299	0.34851	0.655882	3	45.5	0.088453	40253	
-34499.2	837360	-443.141	1.96984	-607.843	0.0264182	0.50763	1.03299	0.34851	0.655882	3	45.5	0.137416	40256	
-26011.5	848412	-485.285	2.10998	-636.249	0.0448751	0.504031	0.993198	0.349787	0.651995	3	91	0.137416	40256	
-13465	421487	-384.298	1.10938	-711.653	0.0331082	0.653934	1.03299	0.34851	0.655882	3	45.5	0.230663	40258	
-8880.75	54941.1	-31.8292	2.77831	-1161.61	0.150998	0.250893	1.03299	0.34851	0.655882	0.0001	45.5	0.0838556	40260	
-8880.75	54941.1	-31.8292	2.77831	-1161.61	0.150998	0.250893	1.03299	0.34851	0.655882	3	45.5	0.0838556	40260	
-8275.58	130105	-157.177	3.64236	-634.88	0.0144536	0.216456	0.993198	0.349787	0.651995	0.0001	91	0.113208	40261	
-8275.58	130105	-157.177	3.64236	-634.88	0.0144536	0.216456	0.993198	0.349787	0.651995	3	91	0.113208	40261	
-1882.11	150650	-256.664	4.57344	-709.19	0.188244	0.315212	0.9175	0.352806	0.64323	0.0001	455	0.113208	40261	
-1882.11	150650	-256.664	4.57344	-709.19	0.188244	0.315212	0.9175	0.352806	0.64323	3	455	0.113208	40261	
-15516.6	517256	-93.1458	1.06601	-663.713	0.00265527	0.338907	1.03299	0.34851	0.655882	3	45.5	0.0481106	40262	
-15082.4	547859	-335.293	1.14424	-902.958	0.78142	0.495687	1.03299	0.34851	0.655882	3	45.5	0.137877	40263	
-26015	800939	-377.121	1.69149	-944.373	-0.0133867	0.484952	1.03299	0.34851	0.655882	3	45.5	0.124284	40264	
-12830.8	186583	-56.0014	2.44832	-1073.73	0.526067	0.262256	1.03299	0.34851	0.655882	0.0001	45.5	0.0700145	40265	
-12830.8	186583	-56.0014	2.44832	-1073.73	0.526067	0.262256	1.03299	0.34851	0.655882	3	45.5	0.0700145	40265	
-6890.52	28222.8	-74.7492	2.97672	-641.353	0.0431152	0.233894	1.03299	0.34851	0.655882	3	45.5	0.073942	40267	
-6551.73	35460.5	-99.1684	3.23011	-654.988	0.0860035	0.233998	0.993198	0.349787	0.651995	0.0001	91	0.073942	40267	
-24979.2	909500	-333.869	1.46611	-1085.64	-0.00994477	0.440934	1.03299	0.34851	0.655882	3	45.5	0.098455	40269	
-10697.4	346528	-316.161	1.03131	-910.326	0.0571584	0.602012	1.03299	0.34851	0.655882	3	45.5	0.232166	40270	
-15386	229536	8.00339	2.50425	-1130.3	-0.0250677	0.23957	1.03299	0.34851	0.655882	3	45.5	0.0239007	40272	
-12707.1	199216	-24.7283	1.9407	-857.776	0.182711	0.286992	1.03299	0.34851	0.655882	3	45.5	0.0407143	40274	
-29521.3	743097	-410.405	3.91269	-1179.85	0.00658819	0.290438	0.993198	0.349787	0.651995	0.0001	91	0.122548	40275	
-29521.3	743097	-410.405	3.91269	-1179.85	0.00658819	0.290438	0.993198	0.349787	0.651995	3	91	0.122548	40275	
-19942.3	872846	-315.562	0.973402	-747.482	0.112871	0.438962	1.03299	0.34851	0.655882	3	45.5	0.0934245	40276	
-17792.6	242880	-62.3673	3.40792	-880.621	0.342962	0.150074	1.03299	0.34851	0.655882	0.0001	45.5	0.0584435	40279	
-17792.6	242880	-62.3673	3.40792	-880.621	0.342962	0.150074	1.03299	0.34851	0.655882	3	45.5	0.0584435	40279	
-14113.3	261598	-97.8242	3.78486	-943.023	0.422619	0.160161	0.993198	0.349787	0.651995	3	91	0.0584435	40279	
-13977.3	839139	-417.494	0.709379	-1001.57	0.000824171	0.541434	1.03299	0.34851	0.655882	3	45.5	0.130734	40280	
-19296	563179	-377.106	1.33991	-625.525	0.770691	0.519775	1.03299	0.34851	0.655882	3	45.5	0.147516	40281	
-4479.44	100082	-223.483	3.07568	-822.684	0.0293907	0.33076	1.03299	0.34851	0.655882	0.0001	45.5	0.23369	40282	
-4479.44	100082	-223.483	3.07568	-822.684	0.0293907	0.33076	1.03299	0.34851	0.655882	3	45.5	0.23369	40282	
-2542.71	113487	-267.342	3.35068	-850.225	0.0750875	0.340536	0.993198	0.349787	0.651995	0.0001	91	0.23369	40282	
-2542.71	113487	-267.342	3.35068	-850.225	0.0750875	0.340536	0.993198	0.349787	0.651995	3	91	0.23369	40282	
42.1113	128844	-319.535	3.67405	-891.336	0.130816	0.366773	0.958125	0.351078	0.648177	0.0001	182	0.23369	40282	
42.1113	128844	-319.535	3.67405	-891.336	0.130816	0.366773	0.958125	0.351078	0.648177	3	182	0.23369	40282	
-12526.2	209912	-207.49	3.09175	-811.812	0.409922	0.28957	1.03299	0.34851	0.655882	0.0001	45.5	0.15607	40283	
-12526.2	209912	-207.49	3.09175	-811.812	0.409922	0.28957	1.03299	0.34851	0.655882	3	45.5	0.15607	40283	
-9215.76	228055	-250.726	3.43836	-891.609	0.488313	0.297896	0.993198	0.349787	0.651995	0.0001	91	0.15607	40283	
-9215.76	228055	-250.726	3.43836	-891.609	0.488313	0.297896	0.993198	0.349787	0.651995	3	91	0.15607	40283	
-4885.04	251342	-305.293	3.8626	-998.444	0.592467	0.325585	0.958125	0.351078	0.648177	0.0001	182	0.15607	40283	
-4885.04	251342	-305.293	3.8626	-998.444	0.592467	0.325585	0.958125	0.351078	0.648177	3	182	0.15607	40283	
-24505.8	481242	-426.593	2.86062	-893.206	0.610301	0.495371	1.03299	0.34851	0.655882	3	45.5	0.185418	40284	
-16663.8	517390	-490.763	3.22278	-1030.38	0.720326	0.513827	0.993198	0.349787	0.651995	0.0001	91	0.185418	40284	
-16663.8	517390	-490.763	3.22278	-1030.38	0.720326	0.513827	0.993198	0.349787	0.651995	3	91	0.185418	40284	
-6374.95	566247	-572.53	3.67755	-1218.88	0.871719	0.552074	0.958125	0.351078	0.648177	0.0001	182	0.185418	40284	
-6374.95	566247	-572.53	3.67755	-1218.88	0.871719	0.552074	0.958125	0.351078	0.648177	3	182	0.185418	40284	
-32158	561780	-346.691	3.44787	-1037.78	0.318092	0.308281	1.03299	0.34851	0.655882	0.0001	45.5	0.140262	40285	
-32158	561780	-346.691	3.44787	-1037.78	0.318092	0.308281	1.03299	0.34851	0.655882	3	45.5	0.140262	40285	
-22380.1	594036	-415.58	3.84393	-1135.23	0.39633	0.329808	0.993198	0.349787	0.651995	0.0001	91	0.140262	40285	
-22380.1	594036	-415.58	3.84393	-1135.23	0.39633	0.329808	0.993198	0.349787	0.651995	3	91	0.140262	40285	
-9945.38	636244	-502.867	4.33509	-1269.12	0.501061	0.37502	0.958125	0.351078	0.648177	0.0001	182	0.140262	40285	
-9945.38	636244	-502.867	4.33509	-1269.12	0.501061	0.37502	0.958125	0.351078	0.648177	3	182	0.140262	40285	
-18819	484184	-38.9378	1.56149	-788.573	0.0420624	0.30244	1.03299	0.34851	0.655882	3	45.5	0.0263342	40286	
-12985.2	241769	-318.639	3.33277	-630.54	-0.0392514	0.379993	1.03299	0.34851	0.655882	0.0001	45.5	0.214867	40288	
-12985.2	241769	-318.639	3.33277	-630.54	-0.0392514	0.379993	1.03299	0.34851	0.655882	3	45.5	0.214867	40288	
-8494.26	250305	-368.961	3.64103	-660.704	0.0140877	0.401846	0.993198	0.349787	0.651995	0.0001	91	0.214867	40288	
-8494.26	250305	-368.961	3.64103	-660.704	0.0140877	0.401846	0.993198	0.349787	0.651995	3	91	0.214867	40288	
-2970.34	261482	-429.304	4.00958	-705.712	0.0785469	0.44309	0.958125	0.351078	0.648177	0.0001	182	0.214867	40288	
-2970.34	261482	-429.304	4.00958	-705.712	0.0785469	0.44309	0.958125	0.351078	0.648177	3	182	0.214867	40288	
-28193.6	793398	-203.28	1.82623	-969.975	0.011051	0.342002	1.03299	0.34851	0.655882	3	45.5	0.0698842	40290	
-14030	212524	-36.2968	2.38361	-800.659	0.139682	0.25659	1.03299	0.34851	0.655882	0.0001	45.5	0.0470173	40291	
-14030	212524	-36.2968	2.38361	-800.659	0.139682	0.25659	1.03299	0.34851	0.655882	3	45.5	0.0470173	40291	
-35961	951581	-310.255	2.0227	-1082.09	0.419306	0.365175	1.03299	0.34851	0.655882	0.0001	45.5	0.0830424	40293	
-35961	951581	-310.255	2.0227	-1082.09	0.419306	0.365175	1.03299	0.34851	0.655882	3	45.5	0.0830424	40293	
-26820.6	997518	-352.486	2.208	-1179.78	0.470082	0.350978	0.993198	0.349787	0.651995	3	91	0.0830424	40293	
-11428.6	403306	-358.878	1.04052	-936.171	0.0352855	0.63533	1.03299	0.34851	0.655882	3	45.5	0.228603	40294	
-12347.7	257617	-325.776	2.11304	-563.636	0.306556	0.543288	1.03299	0.34851	0.655882	0.0001	45.5	0.245068	40296	
-12347.7	257617	-325.776	2.11304	-563.636	0.306556	0.543288	1.03299	0.34851	0.655882	3	45.5	0.245068	40296	
-9103.88	269855	-361.504	2.30736	-613.826	0.34468	0.546377	0.993198	0.349787	0.651995	0.0001	91	0.245068	40296	
-9103.88	269855	-361.504	2.30736	-613.826	0.34468	0.546377	0.993198	0.349787	0.651995	3	91	0.245068	40296	
-23087.7	536540	-369.915	2.52557	-1085.66	0.213989	0.47624	1.03299	0.34851	0.655882	3	45.5	0.164207	40299	
-15902.7	567163	-426.356	2.76061	-1154.53	0.253202	0.482673	0.993198	0.349787	0.651995	0.0001	91	0.164207	40299	
-15902.7	567163	-426.356	2.76061	-1154.53	0.253202	0.482673	0.993198	0.349787	0.651995	3	91	0.164207	40299	
-20951.4	477620	-128.273	3.13973	-786.1	0.609136	0.201332	0.993198	0.349787	0.651995	0.0001	91	0.0522624	40300	
-24240.3	603618	-349.672	2.24279	-987.667	-0.0237938	0.463764	1.03299	0.34851	0.655882	3	45.5	0.147233	40301	
-27501.3	576941	-289.629	3.83231	-686.377	0.888445	0.20117	0.993198	0.349787	0.651995	0.0001	91	0.0913053	40302	
-27501.3	576941	-289.629	3.83231	-686.377	0.888445	0.20117	0.993198	0.349787	0.651995	3	91	0.0913053	40302	
-24314.6	889360	-435.363	2.28476	-1072.05	0.400358	0.428365	0.993198	0.349787	0.651995	0.0001	91	0.114115	40304	
-24314.6	889360	-435.363	2.28476	-1072.05	0.400358	0.428365	0.993198	0.349787	0.651995	3	91	0.114115	40304	
-28921.9	613507	-427.442	2.23896	-567.739	0.214335	0.523028	1.03299	0.34851	0.655882	0.0001	45.5	0.16486	40305	
-28921.9	613507	-427.442	2.23896	-567.739	0.214335	0.523028	1.03299	0.34851	0.655882	3	45.5	0.16486	40305	
-21578	629692	-472.193	2.43683	-616.915	0.246669	0.526834	0.993198	0.349787	0.651995	3	91	0.16486	40305	
-38753.5	667374	-421.002	3.03756	-563.331	0.0571958	0.411359	1.03299	0.34851	0.655882	0.0001	45.5	0.151226	40306	
-38753.5	667374	-421.002	3.03756	-563.331	0.0571958	0.411359	1.03299	0.34851	0.655882	3	45.5	0.151226	40306	
-23954.9	492071	-13.4044	3.42364	-1030.86	0.0647459	0.149282	0.993198	0.349787	0.651995	0.0001	91	0.0114548	40307	
-8455.27	24290.7	7.96329	2.99804	-567.149	0.692532	0.207872	1.03299	0.34851	0.655882	3	45.5	0.0255729	40310	
-14602	512992	-441.95	3.1206	-1186.78	0.14085	0.493442	0.993198	0.349787	0.651995	0.0001	91	0.182148	40311	
-14602	512992	-441.95	3.1206	-1186.78	0.14085	0.493442	0.993198	0.349787	0.651995	3	91	0.182148	40311	
-18216.7	557601	-451.134	1.10407	-587.93	0.732077	0.625433	1.03299	0.34851	0.655882	3	45.5	0.180934	40312	
-13935.7	591764	-483.003	1.21487	-680.322	0.834515	0.620611	0.993198	0.349787	0.651995	0.0001	91	0.180934	40312	
-26383.8	684199	-382.918	1.80752	-618.789	-0.0152776	0.500639	1.03299	0.34851	0.655882	3	45.5	0.143011	40313	
-13596.8	305615	-344.477	2.15342	-693.971	-0.00378372	0.569509	1.03299	0.34851	0.655882	0.0001	45.5	0.24428	40315	
-13596.8	305615	-344.477	2.15342	-693.971	-0.00378372	0.569509	1.03299	0.34851	0.655882	3	45.5	0.24428	40315	
-9770.7	316315	-384.518	2.31508	-716.172	0.0181242	0.575696	0.993198	0.349787	0.651995	0.0001	91	0.24428	40315	
-9770.7	316315	-384.518	2.31508	-716.172	0.0181242	0.575696	0.993198	0.349787	0.651995	3	91	0.24428	40315	
-22107.5	774158	-272.671	1.53965	-1161.83	-0.000401766	0.40609	1.03299	0.34851	0.655882	3	45.5	0.0942613	40318	
-16149.6	410061	-221.67	1.70757	-693.737	-0.0135175	0.403809	1.03299	0.34851	0.655882	3	45.5	0.131038	40319	
-24889.4	464707	-384.703	2.84146	-617.888	-0.0374196	0.476605	1.03299	0.34851	0.655882	3	45.5	0.185574	40321	
-17986.5	473090	-434.869	3.08258	-647.956	0.00111475	0.491249	0.993198	0.349787	0.651995	0.0001	91	0.185574	40321	
-17986.5	473090	-434.869	3.08258	-647.956	0.00111475	0.491249	0.993198	0.349787	0.651995	3	91	0.185574	40321	
-37602.9	733254	-366.713	2.71832	-762.127	0.270474	0.374688	1.03299	0.34851	0.655882	3	45.5	0.121979	40323	
-27858.4	756923	-416.952	2.98365	-828.444	0.319803	0.377807	0.993198	0.349787	0.651995	3	91	0.121979	40323	
-26144.6	614209	-159.259	3.332	-967.407	0.232034	0.187354	0.993198	0.349787	0.651995	3	91	0.0560893	40324	
-6814.55	463758	-352.844	0.00310309	-877.312	0.520674	0.589901	1.03299	0.34851	0.655882	0.0001	45.5	0.189296	40325	
-6814.55	463758	-352.844	0.00310309	-877.312	0.520674	0.589901	1.03299	0.34851	0.655882	3	45.5	0.189296	40325	
-23064	660722	-259.804	1.77375	-947.954	0.177799	0.391237	1.03299	0.34851	0.655882	3	45.5	0.10003	40327	
-15672.2	552986	-448.004	2.02491	-805.882	0.784521	0.545662	0.993198	0.349787	0.651995	3	91	0.171375	40328	
-8700.68	595521	-496.517	2.26631	-949.934	0.918591	0.55359	0.958125	0.351078	0.648177	0.0001	182	0.171375	40328	
-9623.41	66692.3	-14.1356	2.66902	-708.746	-0.0336315	0.244116	1.03299	0.34851	0.655882	0.0001	45.5	0.0454315	40329	
-9623.41	66692.3	-14.1356	2.66902	-708.746	-0.0336315	0.244116	1.03299	0.34851	0.655882	3	45.5	0.0454315	40329	
-6969.81	134849	-223.642	2.60555	-932.165	0.301103	0.407152	1.03299	0.34851	0.655882	0.0001	45.5	0.248599	40332	
-6969.81	134849	-223.642	2.60555	-932.165	0.301103	0.407152	1.03299	0.34851	0.655882	3	45.5	0.248599	40332	
-4885.38	154422	-265.418	2.86103	-999.281	0.350556	0.409871	0.993198	0.349787	0.651995	0.0001	91	0.248599	40332	
-4885.38	154422	-265.418	2.86103	-999.281	0.350556	0.409871	0.993198	0.349787	0.651995	3	91	0.248599	40332	
-2050.07	178058	-316.006	3.16104	-1084.9	0.413212	0.426461	0.958125	0.351078	0.648177	0.0001	182	0.248599	40332	
-2050.07	178058	-316.006	3.16104	-1084.9	0.413212	0.426461	0.958125	0.351078	0.648177	3	182	0.248599	40332	
-34393.6	803318	-310.338	2.168	-646.88	-0.00979912	0.377063	1.03299	0.34851	0.655882	3	45.5	0.101318	40334	
-26346.8	811607	-345.159	2.31811	-666.334	0.0122781	0.366325	0.993198	0.349787	0.651995	3	91	0.101318	40334	
-22526.7	738615	-204.09	1.44249	-855.645	0.0764814	0.364255	1.03299	0.34851	0.655882	3	45.5	0.0729193	40335	
-23858.9	679649	-150.218	2.55452	-1029.65	0.648754	0.244067	0.993198	0.349787	0.651995	3	91	0.0486335	40336	
-12275.3	244814	-241.965	2.27768	-688.814	-0.0242054	0.426652	1.03299	0.34851	0.655882	0.0001	45.5	0.197343	40337	
-12275.3	244814	-241.965	2.27768	-688.814	-0.0242054	0.426652	1.03299	0.34851	0.655882	3	45.5	0.197343	40337	
-18074.7	590508	-442.977	2.13723	-694.671	0.399955	0.527193	0.993198	0.349787	0.651995	0.0001	91	0.16424	40338	
-18074.7	590508	-442.977	2.13723	-694.671	0.399955	0.527193	0.993198	0.349787	0.651995	3	91	0.16424	40338	
-19727.3	384704	-127.242	2.48398	-820.893	-0.0104464	0.276451	1.03299	0.34851	0.655882	0.0001	45.5	0.0806475	40339	
-19727.3	384704	-127.242	2.48398	-820.893	-0.0104464	0.276451	1.03299	0.34851	0.655882	3	45.5	0.0806475	40339	
-18851.9	379645	-82.8533	2.21663	-761.521	-0.021355	0.276331	1.03299	0.34851	0.655882	3	45.5	0.0572313	40340	
-3734.47	114950	-259.681	3.30962	-997.187	0.678586	0.326476	1.03299	0.34851	0.655882	0.0001	45.5	0.238793	40341	
-3734.47	114950	-259.681	3.30962	-997.187	0.678586	0.326476	1.03299	0.34851	0.655882	3	45.5	0.238793	40341	
-1094.91	141398	-318.322	3.7607	-1150.33	0.821462	0.345644	0.993198	0.349787	0.651995	0.0001	91	0.238793	40341	
-1094.91	141398	-318.322	3.7607	-1150.33	0.821462	0.345644	0.993198	0.349787	0.651995	3	91	0.238793	40341	
-30360.5	741859	-24.7335	1.91782	-938.569	-0.0103595	0.273662	1.03299	0.34851	0.655882	3	45.5	0.0158087	40342	
-8604.14	30502.4	-11.2143	2.46726	-883.365	0.437182	0.264888	1.03299	0.34851	0.655882	3	45.5	0.057258	40343	
-29958.9	676225	-110.689	2.08873	-617.195	0.284707	0.275602	1.03299	0.34851	0.655882	3	45.5	0.0427563	40345	
-14393.7	368418	-198.889	1.51977	-765.345	0.65504	0.390954	1.03299	0.34851	0.655882	3	45.5	0.118251	40346	
-11656.4	207068	-275.58	3.33735	-603.253	-0.0146972	0.327537	1.03299	0.34851	0.655882	0.0001	45.5	0.197309	40347	
-11656.4	207068	-275.58	3.33735	-603.253	-0.0146972	0.327537	1.03299	0.34851	0.655882	3	45.5	0.197309	40347	
-7912.86	214824	-320.596	3.64583	-631.718	0.0387784	0.345529	0.993198	0.349787	0.651995	0.0001	91	0.197309	40347	
-7912.86	214824	-320.596	3.64583	-631.718	0.0387784	0.345529	0.993198	0.349787	0.651995	3	91	0.197309	40347	
-3312.91	224829	-374.608	4.01432	-673.942	0.103854	0.382671	0.958125	0.351078	0.648177	0.0001	182	0.197309	40347	
-3312.91	224829	-374.608	4.01432	-673.942	0.103854	0.382671	0.958125	0.351078	0.648177	3	182	0.197309	40347	
-24367.1	543027	-178.251	3.77821	-1100.51	0.520057	0.158436	0.993198	0.349787	0.651995	0.0001	91	0.0648478	40348	
-36908.2	723403	-150.8	2.6332	-761.598	0.145819	0.237583	1.03299	0.34851	0.655882	0.0001	45.5	0.0559474	40349	
-6740.78	82546.6	-134.253	3.93942	-838.384	0.785242	0.185472	0.993198	0.349787	0.651995	0.0001	91	0.0908304	40351	
-6740.78	82546.6	-134.253	3.93942	-838.384	0.785242	0.185472	0.993198	0.349787	0.651995	3	91	0.0908304	40351	
-886.013	141652	-283.219	5.70566	-1304.18	1.43381	0.341906	0.9175	0.352806	0.64323	0.0001	455	0.0908304	40351	
-886.013	141652	-283.219	5.70566	-1304.18	1.43381	0.341906	0.9175	0.352806	0.64323	3	455	0.0908304	40351	
-15369.8	800110	-304.825	0.938376	-1138.22	0.0455374	0.445518	1.03299	0.34851	0.655882	3	45.5	0.0995616	40352	
-27331.8	728794	-438.479	2.11716	-1045.29	-0.0190842	0.544091	1.03299	0.34851	0.655882	3	45.5	0.157047	40354	
-19064.7	750979	-491.64	2.27101	-1070.68	0.00204927	0.546949	0.993198	0.349787	0.651995	3	91	0.157047	40354	
-7573.5	315.654	-30.6226	2.45282	-630.84	-0.00884855	0.276052	1.03299	0.34851	0.655882	0.0001	45.5	0.0307514	40359	
-7573.5	315.654	-30.6226	2.45282	-630.84	-0.00884855	0.276052	1.03299	0.34851	0.655882	3	45.5	0.0307514	40359	
-25858.7	599147	-259.126	3.56811	-837.498	0.00280744	0.222039	0.993198	0.349787	0.651995	0.0001	91	0.091474	40364	
-25858.7	599147	-259.126	3.56811	-837.498	0.00280744	0.222039	0.993198	0.349787	0.651995	3	91	0.091474	40364	
-24667	539098	8.29169	1.95186	-607.51	0.21791	0.269761	1.03299	0.34851	0.655882	3	45.5	0.00333735	40365	
-32926.4	664152	-64.145	2.25119	-665.021	0.794543	0.240717	1.03299	0.34851	0.655882	0.0001	45.5	0.0257456	40366	
-32926.4	664152	-64.145	2.25119	-665.021	0.794543	0.240717	1.03299	0.34851	0.655882	3	45.5	0.0257456	40366	
-26457.3	702985	-83.8953	2.51554	-767.021	0.937132	0.223375	0.993198	0.349787	0.651995	3	91	0.0257456	40366	
-17433.1	637791	-140.023	1.18592	-1028.85	0.0902694	0.35001	1.03299	0.34851	0.655882	3	45.5	0.0587364	40367	
-7713.07	-15701.3	-9.79127	3.19	-843.9	0.00225595	0.24145	0.993198	0.349787	0.651995	3	91	0.0487426	40368	
-6697	87995	-152.143	2.73538	-946.515	0.346866	0.312874	1.03299	0.34851	0.655882	0.0001	45.5	0.189924	40369	
-6697	87995	-152.143	2.73538	-946.515	0.346866	0.312874	1.03299	0.34851	0.655882	3	45.5	0.189924	40369	
-5372.53	107016	-189.878	3.01127	-1017.57	0.4053	0.311973	0.993198	0.349787	0.651995	0.0001	91	0.189924	40369	
-5372.53	107016	-189.878	3.01127	-1017.57	0.4053	0.311973	0.993198	0.349787	0.651995	3	91	0.189924	40369	
-3437.05	130110	-236.421	3.33849	-1109.41	0.480271	0.325994	0.958125	0.351078	0.648177	0.0001	182	0.189924	40369	
-3437.05	130110	-236.421	3.33849	-1109.41	0.480271	0.325994	0.958125	0.351078	0.648177	3	182	0.189924	40369	
-17953.9	775935	-399.386	0.803325	-606.236	0.197284	0.526378	1.03299	0.34851	0.655882	3	45.5	0.129746	40373	
-25663.7	566194	4.27416	1.99833	-1075.14	0.197806	0.26758	1.03299	0.34851	0.655882	3	45.5	0.0101253	40374	
-6876.92	-85840.6	22.7604	2.9133	-948.892	0.470869	0.278659	1.03299	0.34851	0.655882	0.0001	45.5	0.129094	40375	
-6876.92	-85840.6	22.7604	2.9133	-948.892	0.470869	0.278659	1.03299	0.34851	0.655882	3	45.5	0.129094	40375	
-26638.2	460277	-239.873	3.32987	-860.73	-0.042231	0.251644	1.03299	0.34851	0.655882	0.0001	45.5	0.119478	40376	
-26638.2	460277	-239.873	3.32987	-860.73	-0.042231	0.251644	1.03299	0.34851	0.655882	3	45.5	0.119478	40376	
-14394.8	840229	-404.888	0.577989	-766.151	0.000541669	0.528751	1.03299	0.34851	0.655882	3	45.5	0.126371	40377	
-12875.1	226500	-224.029	2.78343	-735.478	0.507131	0.335202	1.03299	0.34851	0.655882	0.0001	45.5	0.164476	40378	
-12875.1	226500	-224.029	2.78343	-735.478	0.507131	0.335202	1.03299	0.34851	0.655882	3	45.5	0.164476	40378	
-9626.59	244348	-263.052	3.09776	-821.622	0.592537	0.337655	0.993198	0.349787	0.651995	0.0001	91	0.164476	40378	
-9626.59	244348	-263.052	3.09776	-821.622	0.592537	0.337655	0.993198	0.349787	0.651995	3	91	0.164476	40378	
-12972.4	252350	-62.3283	1.63109	-659.218	0.0407846	0.313731	1.03299	0.34851	0.655882	3	45.5	0.0602816	40379	
-24598.6	659925	-313.146	1.70144	-678.392	0.500094	0.425896	1.03299	0.34851	0.655882	3	45.5	0.111115	40380	
-11056.2	405317	-285.884	0.701891	-679.673	0.0031363	0.529758	1.03299	0.34851	0.655882	3	45.5	0.182544	40381	
-20525.2	474956	-233.833	2.43533	-1131.52	-0.0145909	0.358669	1.03299	0.34851	0.655882	3	45.5	0.122514	40382	
-21011.3	863636	-414.41	1.3282	-1152.68	-0.00104667	0.522898	1.03299	0.34851	0.655882	3	45.5	0.127349	40383	
-21353.2	874012	-378.416	1.23382	-1007.67	0.0135417	0.487493	1.03299	0.34851	0.655882	3	45.5	0.11459	40385	
-15902.3	220120	-31.2661	2.88784	-801.072	0.450397	0.201853	1.03299	0.34851	0.655882	0.0001	45.5	0.0410806	40386	
-20167.4	837575	-279.505	1.04973	-742.077	-0.00498525	0.418084	1.03299	0.34851	0.655882	3	45.5	0.0882077	40387	
-14921.5	286859	-147.205	3.94099	-810.718	0.470524	0.157721	0.993198	0.349787	0.651995	0.0001	91	0.0759237	40388	
-14921.5	286859	-147.205	3.94099	-810.718	0.470524	0.157721	0.993198	0.349787	0.651995	3	91	0.0759237	40388	
-26467.3	451116	-290.582	2.99258	-553.477	0.430835	0.3124	1.03299	0.34851	0.655882	0.0001	45.5	0.130957	40389	
-26467.3	451116	-290.582	2.99258	-553.477	0.430835	0.3124	1.03299	0.34851	0.655882	3	45.5	0.130957	40389	
-23417.6	422448	-328.181	3.11512	-817.121	0.444205	0.359435	1.03299	0.34851	0.655882	0.0001	45.5	0.157928	40390	
-23417.6	422448	-328.181	3.11512	-817.121	0.444205	0.359435	1.03299	0.34851	0.655882	3	45.5	0.157928	40390	
-16580.9	447706	-383.393	3.47976	-914.15	0.529022	0.373787	0.993198	0.349787	0.651995	3	91	0.157928	40390	
-19207.2	343786	-36.6397	3.84648	-688.604	0.127835	0.121991	0.993198	0.349787	0.651995	3	91	0.0219144	40393	
-20333.6	400123	-419.442	3.3201	-963.262	0.104979	0.500066	1.03299	0.34851	0.655882	0.0001	45.5	0.219034	40400	
-20333.6	400123	-419.442	3.3201	-963.262	0.104979	0.500066	1.03299	0.34851	0.655882	3	45.5	0.219034	40400	
-12741.2	422916	-491.97	3.66753	-1025.84	0.161241	0.532521	0.993198	0.349787	0.651995	0.0001	91	0.219034	40400	
-12741.2	422916	-491.97	3.66753	-1025.84	0.161241	0.532521	0.993198	0.349787	0.651995	3	91	0.219034	40400	
-3045.35	451925	-581.03	4.08931	-1113.53	0.2332	0.586941	0.958125	0.351078	0.648177	0.0001	182	0.219034	40400	
-3045.35	451925	-581.03	4.08931	-1113.53	0.2332	0.586941	0.958125	0.351078	0.648177	3	182	0.219034	40400	
-9307.02	134911	-176.436	3.29774	-656.689	-0.0513555	0.24835	1.03299	0.34851	0.655882	0.0001	45.5	0.153151	40402	
-9307.02	134911	-176.436	3.29774	-656.689	-0.0513555	0.24835	1.03299	0.34851	0.655882	3	45.5	0.153151	40402	
-7083.17	142615	-212.925	3.58454	-671.575	0.000681765	0.259329	0.993198	0.349787	0.651995	0.0001	91	0.153151	40402	
-7083.17	142615	-212.925	3.58454	-671.575	0.000681765	0.259329	0.993198	0.349787	0.651995	3	91	0.153151	40402	
-4314.06	151650	-256.247	3.9241	-698.04	0.0626219	0.288084	0.958125	0.351078	0.648177	0.0001	182	0.153151	40402	
-4314.06	151650	-256.247	3.9241	-698.04	0.0626219	0.288084	0.958125	0.351078	0.648177	3	182	0.153151	40402	
-14922.2	262902	-194.472	3.02529	-888.699	-0.0426634	0.29346	1.03299	0.34851	0.655882	0.0001	45.5	0.143187	40403	
-14922.2	262902	-194.472	3.02529	-888.699	-0.0426634	0.29346	1.03299	0.34851	0.655882	3	45.5	0.143187	40403	
-11121.9	276763	-236.593	3.27617	-903.527	0.000950195	0.298796	0.993198	0.349787	0.651995	0.0001	91	0.143187	40403	
-16003.8	472325	-60.8263	1.16392	-875.077	0.823828	0.32395	1.03299	0.34851	0.655882	3	45.5	0.0326898	40404	
-24356.2	576200	-278.837	3.84493	-1052.71	0.108949	0.212598	0.993198	0.349787	0.651995	0.0001	91	0.0991982	40405	
-24356.2	576200	-278.837	3.84493	-1052.71	0.108949	0.212598	0.993198	0.349787	0.651995	3	91	0.0991982	40405	
-12743.7	178876	7.60284	2.02993	-795.489	0.185737	0.275602	1.03299	0.34851	0.655882	0.0001	45.5	0.015315	40406	
-15474.5	734644	-241.538	0.834803	-807.686	-0.0009729	0.40967	1.03299	0.34851	0.655882	3	45.5	0.0863311	40408	
-22006.2	588653	-108.428	1.82252	-1145.02	-0.0155055	0.308589	1.03299	0.34851	0.655882	3	45.5	0.053579	40409	
-19934.2	337498	-1.59962	2.45755	-656.987	0.29493	0.232111	1.03299	0.34851	0.655882	3	45.5	0.0133819	40410	
-14196.9	381568	-84.7906	1.17028	-554.249	0.497235	0.334126	1.03299	0.34851	0.655882	3	45.5	0.052559	40412	
-26234.6	550853	-108.806	3.61751	-840.285	0.0046506	0.144814	0.993198	0.349787	0.651995	3	91	0.0425824	40413	
-6248.61	8507.53	-78.4376	3.92492	-733.989	0.0031621	0.191144	0.993198	0.349787	0.651995	0.0001	91	0.0318691	40414	
-6248.61	8507.53	-78.4376	3.92492	-733.989	0.0031621	0.191144	0.993198	0.349787	0.651995	3	91	0.0318691	40414	
-24865.5	610922	-159.853	2.12964	-1096.19	-0.00555083	0.311699	1.03299	0.34851	0.655882	3	45.5	0.0718317	40415	
-18383	937757	-267.375	0.934419	-1045.7	0.00290909	0.406163	1.03299	0.34851	0.655882	3	45.5	0.075877	40416	
-10367.5	630105	-449.402	0.222468	-704.58	0.815934	0.608193	1.03299	0.34851	0.655882	3	45.5	0.161633	40417	
-12927.2	284572	-147.394	1.9998	-1169.48	-0.00833293	0.352645	1.03299	0.34851	0.655882	3	45.5	0.12159	40419	
-20168.3	625999	-424.02	1.62444	-937.969	0.0869069	0.582183	1.03299	0.34851	0.655882	3	45.5	0.172164	40422	
-37944.7	834453	-285.581	2.59273	-1088.54	0.0133129	0.323065	1.03299	0.34851	0.655882	0.0001	45.5	0.0932359	40423	
-37944.7	834453	-285.581	2.59273	-1088.54	0.0133129	0.323065	1.03299	0.34851	0.655882	3	45.5	0.0932359	40423	
-27979.4	857155	-334.334	2.79455	-1115.53	0.045275	0.318392	0.993198	0.349787	0.651995	3	91	0.0932359	40423	
-23081	571275	-84.2833	1.85883	-841.589	0.0573833	0.29436	1.03299	0.34851	0.655882	3	45.5	0.0423418	40424	
-2450.97	56865.4	-187.02	2.9972	-920.338	0.682581	0.272016	0.993198	0.349787	0.651995	0.0001	91	0.139674	40426	
-2450.97	56865.4	-187.02	2.9972	-920.338	0.682581	0.272016	0.993198	0.349787	0.651995	3	91	0.139674	40426	
-1182.63	77159.1	-230.951	3.37339	-1053.86	0.814982	0.283686	0.958125	0.351078	0.648177	0.0001	182	0.139674	40426	
-1182.63	77159.1	-230.951	3.37339	-1053.86	0.814982	0.283686	0.958125	0.351078	0.648177	3	182	0.139674	40426	
-9034.66	131430	-107.481	3.26561	-818.383	0.000707041	0.228829	0.993198	0.349787	0.651995	3	91	0.0923247	40427	
-10858.1	334421	-223.859	0.962807	-786.881	0.00101645	0.469783	1.03299	0.34851	0.655882	3	45.5	0.168728	40429	
-21450.7	396338	-334.253	2.97215	-867.497	0.719676	0.391954	1.03299	0.34851	0.655882	0.0001	45.5	0.163271	40431	
-21450.7	396338	-334.253	2.97215	-867.497	0.719676	0.391954	1.03299	0.34851	0.655882	3	45.5	0.163271	40431	
-15092.9	430174	-390.59	3.36854	-1014.41	0.861743	0.405081	0.993198	0.349787	0.651995	0.0001	91	0.163271	40431	
-15092.9	430174	-390.59	3.36854	-1014.41	0.861743	0.405081	0.993198	0.349787	0.651995	3	91	0.163271	40431	
-38500.8	816494	-201.825	2.50762	-826.298	-0.0297344	0.274479	1.03299	0.34851	0.655882	0.0001	45.5	0.0682039	40432	
-38500.8	816494	-201.825	2.50762	-826.298	-0.0297344	0.274479	1.03299	0.34851	0.655882	3	45.5	0.0682039	40432	
-29563.9	827282	-236.195	2.68841	-839.265	-8.30967e-05	0.26418	0.993198	0.349787	0.651995	3	91	0.0682039	40432	
-17957.5	437337	-373.672	2.26864	-1041.57	0.66644	0.517977	1.03299	0.34851	0.655882	0.0001	45.5	0.184515	40434	
-17957.5	437337	-373.672	2.26864	-1041.57	0.66644	0.517977	1.03299	0.34851	0.655882	3	45.5	0.184515	40434	
-12220.7	478609	-426.521	2.53579	-1193.29	0.773166	0.522657	0.993198	0.349787	0.651995	0.0001	91	0.184515	40434	
-12220.7	478609	-426.521	2.53579	-1193.29	0.773166	0.522657	0.993198	0.349787	0.651995	3	91	0.184515	40434	
-8061.64	120505	-163.42	1.92183	-871.562	-0.0147446	0.416857	1.03299	0.34851	0.655882	0.0001	45.5	0.243668	40437	
-8061.64	120505	-163.42	1.92183	-871.562	-0.0147446	0.416857	1.03299	0.34851	0.655882	3	45.5	0.243668	40437	
-8968.16	100204	-66.5602	3.89962	-852.55	0.00501249	0.168063	0.993198	0.349787	0.651995	0.0001	91	0.0596394	40438	
-8729.32	148265	-196.396	1.84323	-640.579	-0.0158627	0.446411	1.03299	0.34851	0.655882	0.0001	45.5	0.245218	40439	
-14086	217873	-38.8986	2.44122	-970.76	-0.0210816	0.25651	1.03299	0.34851	0.655882	3	45.5	0.0530786	40440	
-25484.8	837475	-21.8835	1.22774	-593.359	0.353934	0.312805	1.03299	0.34851	0.655882	3	45.5	0.00899634	40444	
-16344	281480	-207.774	3.38801	-1056.05	0.225474	0.255156	1.03299	0.34851	0.655882	0.0001	45.5	0.139758	40445	
-16344	281480	-207.774	3.38801	-1056.05	0.225474	0.255156	1.03299	0.34851	0.655882	3	45.5	0.139758	40445	
-11615.9	306319	-262.222	3.74707	-1122.3	0.291729	0.270531	0.993198	0.349787	0.651995	0.0001	91	0.139758	40445	
-11615.9	306319	-262.222	3.74707	-1122.3	0.291729	0.270531	0.993198	0.349787	0.651995	3	91	0.139758	40445	
-9493.35	266884	-209.132	0.759783	-816.025	0.750158	0.473689	1.03299	0.34851	0.655882	3	45.5	0.180556	40446	
-41059.4	673024	-392.668	3.35847	-608.164	-0.0167097	0.333048	1.03299	0.34851	0.655882	0.0001	45.5	0.141007	40447	
-41059.4	673024	-392.668	3.35847	-608.164	-0.0167097	0.333048	1.03299	0.34851	0.655882	3	45.5	0.141007	40447	
-30035.6	681178	-449.142	3.67064	-648.016	0.0374646	0.352174	0.993198	0.349787	0.651995	0.0001	91	0.141007	40447	
-30035.6	681178	-449.142	3.67064	-648.016	0.0374646	0.352174	0.993198	0.349787	0.651995	3	91	0.141007	40447	
-9580.89	157906	-176.155	2.94496	-1084.42	0.462867	0.307284	1.03299	0.34851	0.655882	0.0001	45.5	0.168978	40448	
-9580.89	157906	-176.155	2.94496	-1084.42	0.462867	0.307284	1.03299	0.34851	0.655882	3	45.5	0.168978	40448	
-7114.8	185326	-223.134	3.27711	-1190.92	0.545191	0.312399	0.993198	0.349787	0.651995	0.0001	91	0.168978	40448	
-7114.8	185326	-223.134	3.27711	-1190.92	0.545191	0.312399	0.993198	0.349787	0.651995	3	91	0.168978	40448	
-3603.93	220316	-283.064	3.6832	-1332.95	0.654702	0.33558	0.958125	0.351078	0.648177	0.0001	182	0.168978	40448	
-3603.93	220316	-283.064	3.6832	-1332.95	0.654702	0.33558	0.958125	0.351078	0.648177	3	182	0.168978	40448	
-24919.2	529712	-270.514	2.35933	-878.27	0.831617	0.353751	1.03299	0.34851	0.655882	0.0001	45.5	0.109452	40449	
-24919.2	529712	-270.514	2.35933	-878.27	0.831617	0.353751	1.03299	0.34851	0.655882	3	45.5	0.109452	40449	
-18723.2	572461	-312.066	2.65648	-1034.06	0.989205	0.34687	0.993198	0.349787	0.651995	0.0001	91	0.109452	40449	
-18723.2	572461	-312.066	2.65648	-1034.06	0.989205	0.34687	0.993198	0.349787	0.651995	3	91	0.109452	40449	
-19501.8	349007	-50.7945	3.96037	-751.638	0.805036	0.111927	0.993198	0.349787	0.651995	0.0001	91	0.0258106	40450	
-17199.7	336080	-196.922	2.73927	-1063.52	0.28919	0.311889	1.03299	0.34851	0.655882	3	45.5	0.126272	40451	
-14746.3	247750	-118.142	2.4924	-614.415	-0.0229743	0.280759	1.03299	0.34851	0.655882	3	45.5	0.095881	40452	
-21594	417246	-302.698	2.89843	-847.586	0.175602	0.378617	1.03299	0.34851	0.655882	3	45.5	0.157472	40453	
-15495	435976	-352.478	3.17617	-901.094	0.222258	0.38703	0.993198	0.349787	0.651995	0.0001	91	0.157472	40453	
-15495	435976	-352.478	3.17617	-901.094	0.222258	0.38703	0.993198	0.349787	0.651995	3	91	0.157472	40453	
-17935.4	446212	-424.62	1.92456	-768.544	0.218601	0.634425	1.03299	0.34851	0.655882	3	45.5	0.221981	40454	
-12702.8	465806	-469.775	2.08892	-821.188	0.24472	0.642936	0.993198	0.349787	0.651995	0.0001	91	0.221981	40454	
-12702.8	465806	-469.775	2.08892	-821.188	0.24472	0.642936	0.993198	0.349787	0.651995	3	91	0.221981	40454	
-12405.3	238438	-56.4515	1.66613	-1098.67	0.211949	0.314448	1.03299	0.34851	0.655882	3	45.5	0.063152	40455	
-8014.82	118928	-164.811	1.88588	-853.008	0.345044	0.414703	1.03299	0.34851	0.655882	0.0001	45.5	0.239602	40456	
-8014.82	118928	-164.811	1.88588	-853.008	0.345044	0.414703	1.03299	0.34851	0.655882	3	45.5	0.239602	40456	
-31645.7	782357	-11.0028	1.88192	-952.586	-0.00651888	0.273625	1.03299	0.34851	0.655882	3	45.5	0.0108435	40457	
-22648.1	387274	-272.85	2.92004	-599.03	0.670845	0.313079	1.03299	0.34851	0.655882	0.0001	45.5	0.132608	40458	
-22648.1	387274	-272.85	2.92004	-599.03	0.670845	0.313079	1.03299	0.34851	0.655882	3	45.5	0.132608	40458	
-16224.2	610268	-281.015	1.15268	-853.164	0.0868509	0.44739	1.03299	0.34851	0.655882	3	45.5	0.117869	40459	
-16400.1	297214	-132.616	2.67524	-973.805	0.0860133	0.274799	1.03299	0.34851	0.655882	3	45.5	0.0994484	40460	
-21916	389593	-369.516	3.27845	-760.726	0.260183	0.408269	1.03299	0.34851	0.655882	0.0001	45.5	0.187793	40463	
-21916	389593	-369.516	3.27845	-760.726	0.260183	0.408269	1.03299	0.34851	0.655882	3	45.5	0.187793	40463	
-15009.4	408511	-429.306	3.64063	-833.748	0.3261	0.431512	0.993198	0.349787	0.651995	0.0001	91	0.187793	40463	
-15009.4	408511	-429.306	3.64063	-833.748	0.3261	0.431512	0.993198	0.349787	0.651995	3	91	0.187793	40463	
-6293.62	433355	-503.565	4.08359	-932.24	0.412796	0.476375	0.958125	0.351078	0.648177	0.0001	182	0.187793	40463	
-6293.62	433355	-503.565	4.08359	-932.24	0.412796	0.476375	0.958125	0.351078	0.648177	3	182	0.187793	40463	
-9741.5	149679	-146.765	2.51902	-919.717	-0.0231162	0.329392	1.03299	0.34851	0.655882	3	45.5	0.162883	40465	
-27016.2	727020	-227.84	1.93436	-967.743	-0.013943	0.360136	1.03299	0.34851	0.655882	3	45.5	0.0839256	40467	
-23894.5	666937	-374.419	1.39633	-511.34	0.851248	0.479423	1.03299	0.34851	0.655882	3	45.5	0.121417	40468	
-13580.6	200132	-42.2485	2.37821	-653.358	0.0533123	0.25883	1.03299	0.34851	0.655882	3	45.5	0.0497545	40472	
-28471.9	594673	-129.655	2.51851	-1018.71	0.0115068	0.258284	1.03299	0.34851	0.655882	0.0001	45.5	0.0612963	40473	
-28471.9	594673	-129.655	2.51851	-1018.71	0.0115068	0.258284	1.03299	0.34851	0.655882	3	45.5	0.0612963	40473	
-21983.2	613179	-163.416	2.70545	-1033.01	0.0415476	0.247261	0.993198	0.349787	0.651995	3	91	0.0612963	40473	
-14581.7	831228	-350.615	0.608154	-787.126	0.622596	0.464558	1.03299	0.34851	0.655882	3	45.5	0.0979575	40474	
-26582.9	585474	-322.504	3.95992	-812.619	-0.00018638	0.227881	0.993198	0.349787	0.651995	0.0001	91	0.111947	40477	
-26582.9	585474	-322.504	3.95992	-812.619	-0.00018638	0.227881	0.993198	0.349787	0.651995	3	91	0.111947	40477	
-18402.3	802436	-366.869	1.16414	-1082.07	0.109923	0.489678	1.03299	0.34851	0.655882	3	45.5	0.11848	40478	
-15353.9	559641	-465.248	2.58764	-1028.47	0.052664	0.556484	0.993198	0.349787	0.651995	0.0001	91	0.186568	40479	
-15353.9	559641	-465.248	2.58764	-1028.47	0.052664	0.556484	0.993198	0.349787	0.651995	3	91	0.186568	40479	
-14333.5	773649	-249.486	0.563173	-588.124	0.4796	0.407448	1.03299	0.34851	0.655882	3	45.5	0.0767354	40480	
-27260.2	612962	-252.183	3.91791	-1052.86	0.298555	0.176515	0.993198	0.349787	0.651995	0.0001	91	0.0838182	40483	
-27260.2	612962	-252.183	3.91791	-1052.86	0.298555	0.176515	0.993198	0.349787	0.651995	3	91	0.0838182	40483	
-23240.6	415442	-198.308	3.043	-899.125	0.189704	0.258576	1.03299	0.34851	0.655882	0.0001	45.5	0.106831	40485	
-23240.6	415442	-198.308	3.043	-899.125	0.189704	0.258576	1.03299	0.34851	0.655882	3	45.5	0.106831	40485	
-17376.4	434915	-241.801	3.33566	-948.896	0.241595	0.262664	0.993198	0.349787	0.651995	0.0001	91	0.106831	40485	
-17376.4	434915	-241.801	3.33566	-948.896	0.241595	0.262664	0.993198	0.349787	0.651995	3	91	0.106831	40485	
-29721.4	544549	-395.563	3.39168	-984.87	-0.0197117	0.399539	1.03299	0.34851	0.655882	0.0001	45.5	0.170501	40487	
-29721.4	544549	-395.563	3.39168	-984.87	-0.0197117	0.399539	1.03299	0.34851	0.655882	3	45.5	0.170501	40487	
-8445.04	589349	-550.969	4.10578	-1089.91	0.10343	0.471213	0.958125	0.351078	0.648177	0.0001	182	0.170501	40487	
-8445.04	589349	-550.969	4.10578	-1089.91	0.10343	0.471213	0.958125	0.351078	0.648177	3	182	0.170501	40487	
-8567.52	86718.8	-92.0019	2.74091	-1001.63	-0.0354282	0.277081	1.03299	0.34851	0.655882	0.0001	45.5	0.130328	40488	
-8567.52	86718.8	-92.0019	2.74091	-1001.63	-0.0354282	0.277081	1.03299	0.34851	0.655882	3	45.5	0.130328	40488	
-12378.9	712618	-439.687	0.802387	-1148.92	0.0961381	0.599603	1.03299	0.34851	0.655882	3	45.5	0.159477	40491	
-25119.6	385132	-286.01	3.31937	-517.613	0.746876	0.255238	1.03299	0.34851	0.655882	0.0001	45.5	0.129673	40492	
-25119.6	385132	-286.01	3.31937	-517.613	0.746876	0.255238	1.03299	0.34851	0.655882	3	45.5	0.129673	40492	
-18673.1	408262	-330.323	3.78082	-620.162	0.909477	0.269944	0.993198	0.349787	0.651995	0.0001	91	0.129673	40492	
-18673.1	408262	-330.323	3.78082	-620.162	0.909477	0.269944	0.993198	0.349787	0.651995	3	91	0.129673	40492	
-17264.3	413377	-163.973	1.80468	-734.001	0.264005	0.344632	1.03299	0.34851	0.655882	3	45.5	0.0935596	40493	
-35362.7	628846	-286.476	3.13467	-767.382	-0.025211	0.282739	1.03299	0.34851	0.655882	0.0001	45.5	0.1129	40494	
-35362.7	628846	-286.476	3.13467	-767.382	-0.025211	0.282739	1.03299	0.34851	0.655882	3	45.5	0.1129	40494	
-26213	639359	-334.446	3.40424	-793.782	0.0216698	0.290784	0.993198	0.349787	0.651995	0.0001	91	0.1129	40494	
-3774.06	96235.8	-231.747	3.43122	-801.746	-0.056198	0.280876	1.03299	0.34851	0.655882	0.0001	45.5	0.212545	40495	
-3774.06	96235.8	-231.747	3.43122	-801.746	-0.056198	0.280876	1.03299	0.34851	0.655882	3	45.5	0.212545	40495	
-1661.57	108600	-279.778	3.74213	-822.183	0.000340635	0.298616	0.993198	0.349787	0.651995	0.0001	91	0.212545	40495	
-1661.57	108600	-279.778	3.74213	-822.183	0.000340635	0.298616	0.993198	0.349787	0.651995	3	91	0.212545	40495	
1154.26	122807	-337.329	4.11432	-858.429	0.0681507	0.335928	0.958125	0.351078	0.648177	0.0001	182	0.212545	40495	
1154.26	122807	-337.329	4.11432	-858.429	0.0681507	0.335928	0.958125	0.351078	0.648177	3	182	0.212545	40495	
-28050.2	710810	-300.345	2.26639	-1129.64	-0.018952	0.39024	1.03299	0.34851	0.655882	3	45.5	0.112051	40496	
-10779.8	171464	-65.1151	3.5387	-1148.82	0.640579	0.18804	0.993198	0.349787	0.651995	3	91	0.0558942	40499	
-32452	715822	-111.504	2.35925	-1020.14	-0.0258843	0.257799	1.03299	0.34851	0.655882	0.0001	45.5	0.0470169	40500	
