-7015.5	-13558.7	-36.0435	3.66864	-834.393	0.0542268	0.216042	0.993198	0.349787	0.651995	3	91	0.0280794	8502	
-20484.6	404881	-76.3528	2.42844	-1111.58	0.0930193	0.25826	1.03299	0.34851	0.655882	3	45.5	0.0554371	8503	
-13992.5	763468	-473.778	0.437862	-660.381	0.207306	0.614497	1.03299	0.34851	0.655882	3	45.5	0.156886	8504	
-14061.9	506792	-257.664	1.18231	-932.587	0.0306634	0.448514	1.03299	0.34851	0.655882	3	45.5	0.129916	8506	
-8571.53	89868.5	-98.0408	2.7577	-943.951	-0.0324444	0.27621	1.03299	0.34851	0.655882	3	45.5	0.132015	8510	
-12270.2	681640	-363.263	0.386577	-588.19	0.75871	0.500835	1.03299	0.34851	0.655882	3	45.5	0.120196	8511	
-6989.14	556558	-442.964	2.62644	-1118.05	0.121045	0.487502	0.958125	0.351078	0.648177	0.0001	182	0.164147	8513	
-6989.14	556558	-442.964	2.62644	-1118.05	0.121045	0.487502	0.958125	0.351078	0.648177	3	182	0.164147	8513	
-27856	585020	-196.824	3.91217	-866.396	0.0339776	0.14757	0.993198	0.349787	0.651995	0.0001	91	0.0694926	8514	
-15239	665101	-440.53	0.651498	-610.724	0.0573685	0.61719	1.03299	0.34851	0.655882	0.0001	45.5	0.171512	8516	
-15239	665101	-440.53	0.651498	-610.724	0.0573685	0.61719	1.03299	0.34851	0.655882	3	45.5	0.171512	8516	
-10054.4	74984.4	-0.148188	2.41264	-746.295	0.744715	0.253597	1.03299	0.34851	0.655882	0.0001	45.5	0.0326219	8518	
-9373.32	89140.7	-18.5826	2.69734	-848.471	0.876502	0.24088	0.993198	0.349787	0.651995	0.0001	91	0.0326219	8518	
-9373.32	89140.7	-18.5826	2.69734	-848.471	0.876502	0.24088	0.993198	0.349787	0.651995	3	91	0.0326219	8518	
-17578	399987	-163.103	1.97597	-713.38	-0.0160388	0.337795	1.03299	0.34851	0.655882	3	45.5	0.0986195	8519	
-17526.2	287680	-156.904	3.1243	-791.251	-0.0147126	0.23953	1.03299	0.34851	0.655882	0.0001	45.5	0.109184	8520	
-17526.2	287680	-156.904	3.1243	-791.251	-0.0147126	0.23953	1.03299	0.34851	0.655882	3	45.5	0.109184	8520	
-13445.4	298649	-193.933	3.3901	-807.273	0.0318282	0.244395	0.993198	0.349787	0.651995	0.0001	91	0.109184	8520	
-13445.4	298649	-193.933	3.3901	-807.273	0.0318282	0.244395	0.993198	0.349787	0.651995	3	91	0.109184	8520	
-37523.4	906966	-18.2748	1.99553	-1148.99	0.0537577	0.261311	1.03299	0.34851	0.655882	0.0001	45.5	0.0130441	8524	
-37523.4	906966	-18.2748	1.99553	-1148.99	0.0537577	0.261311	1.03299	0.34851	0.655882	3	45.5	0.0130441	8524	
-11030.6	651699	-401.645	0.629272	-1029.42	0.256698	0.57061	1.03299	0.34851	0.655882	3	45.5	0.154871	8525	
-17593.8	466675	-127.007	1.57434	-816.182	0.36727	0.331471	1.03299	0.34851	0.655882	3	45.5	0.0670552	8526	
-18671.2	683492	-170.24	1.20041	-873.976	0.021231	0.36092	1.03299	0.34851	0.655882	3	45.5	0.0663496	8527	
-5843.7	-7015.78	-47.5473	3.54931	-1120.71	0.297577	0.191395	1.03299	0.34851	0.655882	0.0001	45.5	0.0443089	8528	
-3113.02	90565.4	-254.2	5.32769	-1486.03	0.690809	0.353556	0.9175	0.352806	0.64323	0.0001	455	0.0443089	8528	
-3113.02	90565.4	-254.2	5.32769	-1486.03	0.690809	0.353556	0.9175	0.352806	0.64323	3	455	0.0443089	8528	
-18545.9	339395	-370.784	3.43819	-758.193	-0.0338736	0.419854	1.03299	0.34851	0.655882	0.0001	45.5	0.210415	8530	
-18545.9	339395	-370.784	3.43819	-758.193	-0.0338736	0.419854	1.03299	0.34851	0.655882	3	45.5	0.210415	8530	
-12129	351696	-432.316	3.76957	-795.474	0.0230728	0.448739	0.993198	0.349787	0.651995	0.0001	91	0.210415	8530	
-12129	351696	-432.316	3.76957	-795.474	0.0230728	0.448739	0.993198	0.349787	0.651995	3	91	0.210415	8530	
-4180.89	367919	-506.811	4.16971	-851.814	0.092634	0.498926	0.958125	0.351078	0.648177	0.0001	182	0.210415	8530	
-4180.89	367919	-506.811	4.16971	-851.814	0.092634	0.498926	0.958125	0.351078	0.648177	3	182	0.210415	8530	
-24376.3	777563	-428.181	1.54606	-942.343	0.383393	0.532275	1.03299	0.34851	0.655882	3	45.5	0.134842	8531	
-25416.4	479148	-345.735	2.78331	-611.3	-0.0283861	0.425476	1.03299	0.34851	0.655882	0.0001	45.5	0.164082	8532	
-25416.4	479148	-345.735	2.78331	-611.3	-0.0283861	0.425476	1.03299	0.34851	0.655882	3	45.5	0.164082	8532	
-18734	486977	-390.999	3.01314	-638.359	0.00847373	0.433964	0.993198	0.349787	0.651995	0.0001	91	0.164082	8532	
-18734	486977	-390.999	3.01314	-638.359	0.00847373	0.433964	0.993198	0.349787	0.651995	3	91	0.164082	8532	
-29670.3	604742	-358.746	2.49783	-628.85	0.132861	0.424506	1.03299	0.34851	0.655882	0.0001	45.5	0.141817	8533	
-29670.3	604742	-358.746	2.49783	-628.85	0.132861	0.424506	1.03299	0.34851	0.655882	3	45.5	0.141817	8533	
-22171.5	618280	-401.931	2.71258	-670.198	0.166139	0.425561	0.993198	0.349787	0.651995	0.0001	91	0.141817	8533	
-22171.5	618280	-401.931	2.71258	-670.198	0.166139	0.425561	0.993198	0.349787	0.651995	3	91	0.141817	8533	
-5658.48	74649.7	-164.259	3.42016	-727.955	0.0189102	0.222353	1.03299	0.34851	0.655882	0.0001	45.5	0.147547	8534	
-5658.48	74649.7	-164.259	3.42016	-727.955	0.0189102	0.222353	1.03299	0.34851	0.655882	3	45.5	0.147547	8534	
-4231.41	84697	-203.298	3.73836	-750.645	0.0754221	0.236064	0.993198	0.349787	0.651995	0.0001	91	0.147547	8534	
-4231.41	84697	-203.298	3.73836	-750.645	0.0754221	0.236064	0.993198	0.349787	0.651995	3	91	0.147547	8534	
-2299.15	96239.4	-250.426	4.11965	-787.283	0.144959	0.269421	0.958125	0.351078	0.648177	0.0001	182	0.147547	8534	
-2299.15	96239.4	-250.426	4.11965	-787.283	0.144959	0.269421	0.958125	0.351078	0.648177	3	182	0.147547	8534	
-27001.5	483590	-414.351	3.32562	-865.411	0.280253	0.427981	1.03299	0.34851	0.655882	0.0001	45.5	0.183122	8535	
-27001.5	483590	-414.351	3.32562	-865.411	0.280253	0.427981	1.03299	0.34851	0.655882	3	45.5	0.183122	8535	
-18277.7	508342	-483.017	3.70286	-951.808	0.349928	0.454609	0.993198	0.349787	0.651995	0.0001	91	0.183122	8535	
-18277.7	508342	-483.017	3.70286	-951.808	0.349928	0.454609	0.993198	0.349787	0.651995	3	91	0.183122	8535	
-7194.85	541006	-568.894	4.16724	-1068.93	0.442295	0.503984	0.958125	0.351078	0.648177	0.0001	182	0.183122	8535	
-7194.85	541006	-568.894	4.16724	-1068.93	0.442295	0.503984	0.958125	0.351078	0.648177	3	182	0.183122	8535	
-11746.1	226626	-270.707	2.58308	-633.147	0.0154135	0.429975	1.03299	0.34851	0.655882	3	45.5	0.215646	8536	
-8588.51	235280	-307.937	2.79231	-656.753	0.0472515	0.433485	0.993198	0.349787	0.651995	3	91	0.215646	8536	
-4754.26	245602	-350.955	3.031	-688.955	0.0851116	0.449323	0.958125	0.351078	0.648177	0.0001	182	0.215646	8536	
-4754.26	245602	-350.955	3.031	-688.955	0.0851116	0.449323	0.958125	0.351078	0.648177	3	182	0.215646	8536	
-15722.1	342841	-368.113	2.77828	-955.27	0.293074	0.511719	1.03299	0.34851	0.655882	3	45.5	0.220455	8539	
-10198.5	368259	-426.396	3.06887	-1035.91	0.346616	0.528536	0.993198	0.349787	0.651995	0.0001	91	0.220455	8539	
-10198.5	368259	-426.396	3.06887	-1035.91	0.346616	0.528536	0.993198	0.349787	0.651995	3	91	0.220455	8539	
-3085.11	400002	-497.406	3.41558	-1140.44	0.41547	0.561886	0.958125	0.351078	0.648177	0.0001	182	0.220455	8539	
-3085.11	400002	-497.406	3.41558	-1140.44	0.41547	0.561886	0.958125	0.351078	0.648177	3	182	0.220455	8539	
-12341.1	237905	-139.009	3.37732	-727.983	0.00128899	0.217522	0.993198	0.349787	0.651995	0.0001	91	0.0888705	8541	
-15057	788736	-308.211	0.923353	-1143.03	0.158685	0.447578	1.03299	0.34851	0.655882	3	45.5	0.100039	8542	
-6698.21	855754	-358.477	1.02852	-1222.54	0.175863	0.404805	0.958125	0.351078	0.648177	3	182	0.100039	8542	
-8312.83	125480	-169.201	3.37453	-1017.51	0.401203	0.245111	1.03299	0.34851	0.655882	0.0001	45.5	0.159096	8546	
-8312.83	125480	-169.201	3.37453	-1017.51	0.401203	0.245111	1.03299	0.34851	0.655882	3	45.5	0.159096	8546	
-6018.18	148677	-219.27	3.76792	-1110.04	0.488091	0.259926	0.993198	0.349787	0.651995	0.0001	91	0.159096	8546	
-6018.18	148677	-219.27	3.76792	-1110.04	0.488091	0.259926	0.993198	0.349787	0.651995	3	91	0.159096	8546	
-2704.14	178208	-283.851	4.25725	-1237.19	0.605393	0.297636	0.958125	0.351078	0.648177	0.0001	182	0.159096	8546	
-2704.14	178208	-283.851	4.25725	-1237.19	0.605393	0.297636	0.958125	0.351078	0.648177	3	182	0.159096	8546	
-6913.54	-28425.7	24.8706	3.40568	-1003.91	-0.0421101	0.1981	1.03299	0.34851	0.655882	0.0001	45.5	0.0549662	8547	
-6913.54	-28425.7	24.8706	3.40568	-1003.91	-0.0421101	0.1981	1.03299	0.34851	0.655882	3	45.5	0.0549662	8547	
-7384.48	-11247.1	-5.49665	3.70656	-1000.59	0.0133819	0.209623	0.993198	0.349787	0.651995	0.0001	91	0.0549662	8547	
-7384.48	-11247.1	-5.49665	3.70656	-1000.59	0.0133819	0.209623	0.993198	0.349787	0.651995	3	91	0.0549662	8547	
-8185.86	83580.3	-101.427	2.34925	-1015.06	0.678137	0.311958	1.03299	0.34851	0.655882	0.0001	45.5	0.15105	8548	
-8185.86	83580.3	-101.427	2.34925	-1015.06	0.678137	0.311958	1.03299	0.34851	0.655882	3	45.5	0.15105	8548	
-15853.2	241863	-13.353	2.59606	-997.966	0.041143	0.232895	1.03299	0.34851	0.655882	3	45.5	0.0338843	8551	
-6935.36	76529.3	-130.024	2.77412	-950.629	0.815534	0.281441	1.03299	0.34851	0.655882	0.0001	45.5	0.157434	8553	
-6935.36	76529.3	-130.024	2.77412	-950.629	0.815534	0.281441	1.03299	0.34851	0.655882	3	45.5	0.157434	8553	
-5770.39	99167.1	-168.005	3.14026	-1107.1	0.980215	0.280507	0.993198	0.349787	0.651995	3	91	0.157434	8553	
-3861.35	132059	-219.84	3.61237	-1334.16	1.21905	0.298265	0.958125	0.351078	0.648177	0.0001	182	0.157434	8553	
-3861.35	132059	-219.84	3.61237	-1334.16	1.21905	0.298265	0.958125	0.351078	0.648177	3	182	0.157434	8553	
-22999	869539	-261.82	1.41609	-1187.59	-0.00568822	0.394848	1.03299	0.34851	0.655882	3	45.5	0.0814838	8554	
-14817.3	453182	-209.501	1.29969	-759.571	0.122991	0.405517	1.03299	0.34851	0.655882	3	45.5	0.114494	8555	
-32296	776639	-427.193	2.10951	-846.64	0.48711	0.478161	1.03299	0.34851	0.655882	0.0001	45.5	0.131575	8557	
-32296	776639	-427.193	2.10951	-846.64	0.48711	0.478161	1.03299	0.34851	0.655882	3	45.5	0.131575	8557	
-23634.4	814885	-475.78	2.32308	-946.236	0.551069	0.475282	0.993198	0.349787	0.651995	3	91	0.131575	8557	
-7027.49	123839	-219.51	3.00018	-632.244	-0.0406096	0.326994	1.03299	0.34851	0.655882	0.0001	45.5	0.207421	8559	
-7027.49	123839	-219.51	3.00018	-632.244	-0.0406096	0.326994	1.03299	0.34851	0.655882	3	45.5	0.207421	8559	
-4941.11	131569	-256.37	3.25077	-649.811	0.00229705	0.333985	0.993198	0.349787	0.651995	0.0001	91	0.207421	8559	
-4941.11	131569	-256.37	3.25077	-649.811	0.00229705	0.333985	0.993198	0.349787	0.651995	3	91	0.207421	8559	
-2330.96	140610	-299.569	3.54248	-677.455	0.0529988	0.356153	0.958125	0.351078	0.648177	0.0001	182	0.207421	8559	
-2330.96	140610	-299.569	3.54248	-677.455	0.0529988	0.356153	0.958125	0.351078	0.648177	3	182	0.207421	8559	
-24467.5	550423	-25.8162	2.9298	-640.733	0.210284	0.188677	0.993198	0.349787	0.651995	3	91	0.0121195	8560	
-27581.1	706013	-245.995	3.39684	-1158.1	0.0168939	0.222177	0.993198	0.349787	0.651995	3	91	0.0791539	8561	
-14246.6	551385	-446.69	0.649773	-600.175	0.351668	0.665429	1.03299	0.34851	0.655882	3	45.5	0.199124	8562	
-15649.4	198599	7.23944	3.08258	-913.032	0.0995542	0.181435	1.03299	0.34851	0.655882	3	45.5	0.0236738	8563	
-30196.1	556893	-237.768	2.87009	-904.023	0.650575	0.268614	1.03299	0.34851	0.655882	0.0001	45.5	0.0953416	8564	
-30196.1	556893	-237.768	2.87009	-904.023	0.650575	0.268614	1.03299	0.34851	0.655882	3	45.5	0.0953416	8564	
-22862.5	598884	-90.7472	1.79638	-986.227	-0.0109288	0.301523	1.03299	0.34851	0.655882	3	45.5	0.0446872	8566	
-6632.28	102821	-183.427	2.73138	-795.053	0.485194	0.325676	1.03299	0.34851	0.655882	0.0001	45.5	0.199561	8567	
-6632.28	102821	-183.427	2.73138	-795.053	0.485194	0.325676	1.03299	0.34851	0.655882	3	45.5	0.199561	8567	
-5035.54	118550	-220.006	3.03193	-879.49	0.564925	0.325888	0.993198	0.349787	0.651995	0.0001	91	0.199561	8567	
-5035.54	118550	-220.006	3.03193	-879.49	0.564925	0.325888	0.993198	0.349787	0.651995	3	91	0.199561	8567	
-2810.26	138803	-265.909	3.39588	-990.728	0.670033	0.341955	0.958125	0.351078	0.648177	0.0001	182	0.199561	8567	
-2810.26	138803	-265.909	3.39588	-990.728	0.670033	0.341955	0.958125	0.351078	0.648177	3	182	0.199561	8567	
-8040.4	508210	-387.62	0.325935	-1030.34	0.0569888	0.633136	1.03299	0.34851	0.655882	3	45.5	0.201606	8568	
-21806.6	345767	-24.0885	2.92659	-809.119	0.0575174	0.191839	1.03299	0.34851	0.655882	0.0001	45.5	0.0293879	8569	
-25106.9	886575	-185.64	1.43626	-1162.55	0.0821966	0.350202	1.03299	0.34851	0.655882	3	45.5	0.0574267	8572	
-15941.3	544978	-210.078	1.327	-1036.36	0.253993	0.39192	1.03299	0.34851	0.655882	3	45.5	0.0963729	8573	
-12321.2	310860	-166.482	1.23288	-668.883	0.672791	0.388438	1.03299	0.34851	0.655882	3	45.5	0.116639	8574	
-14544.4	623760	-382.015	1.09011	-1036.16	0.0179485	0.557355	1.03299	0.34851	0.655882	3	45.5	0.159289	8575	
-17330.8	450485	-399.679	1.76568	-732.744	0.0709023	0.612397	1.03299	0.34851	0.655882	3	45.5	0.213911	8576	
-12625.1	464782	-439.352	1.89401	-762.222	0.0865684	0.615438	0.993198	0.349787	0.651995	0.0001	91	0.213911	8576	
-12625.1	464782	-439.352	1.89401	-762.222	0.0865684	0.615438	0.993198	0.349787	0.651995	3	91	0.213911	8576	
-13118.1	200160	-192.712	3.26622	-600.143	0.133394	0.249586	1.03299	0.34851	0.655882	0.0001	45.5	0.141595	8577	
-13118.1	200160	-192.712	3.26622	-600.143	0.133394	0.249586	1.03299	0.34851	0.655882	3	45.5	0.141595	8577	
-9944.44	208644	-229.016	3.5843	-634.739	0.188889	0.260133	0.993198	0.349787	0.651995	0.0001	91	0.141595	8577	
-9944.44	208644	-229.016	3.5843	-634.739	0.188889	0.260133	0.993198	0.349787	0.651995	3	91	0.141595	8577	
-8410.15	717574	-441.585	0.268097	-990.395	0.178646	0.597497	1.03299	0.34851	0.655882	3	45.5	0.156692	8581	
-5980.07	745888	-461.22	0.28119	-1022.5	0.184176	0.583922	0.993198	0.349787	0.651995	0.0001	91	0.156692	8581	
-5980.07	745888	-461.22	0.28119	-1022.5	0.184176	0.583922	0.993198	0.349787	0.651995	3	91	0.156692	8581	
-11660.1	263619	-193.483	1.80773	-1046.37	0.614289	0.402898	1.03299	0.34851	0.655882	3	45.5	0.154246	8582	
-8869.17	164642	-214.834	2.82664	-957.275	-0.0202419	0.368961	1.03299	0.34851	0.655882	0.0001	45.5	0.210418	8584	
-8869.17	164642	-214.834	2.82664	-957.275	-0.0202419	0.368961	1.03299	0.34851	0.655882	3	45.5	0.210418	8584	
-6355.61	181580	-258.451	3.05915	-975.323	0.0177464	0.374077	0.993198	0.349787	0.651995	0.0001	91	0.210418	8584	
-6355.61	181580	-258.451	3.05915	-975.323	0.0177464	0.374077	0.993198	0.349787	0.651995	3	91	0.210418	8584	
-3101.64	200308	-309.39	3.32742	-1005.35	0.0627093	0.393086	0.958125	0.351078	0.648177	0.0001	182	0.210418	8584	
-3101.64	200308	-309.39	3.32742	-1005.35	0.0627093	0.393086	0.958125	0.351078	0.648177	3	182	0.210418	8584	
-9606.54	122312	-115.929	2.51844	-730.333	0.0514081	0.297101	1.03299	0.34851	0.655882	3	45.5	0.134799	8585	
-33431	652634	-290.015	3.04248	-1078.81	-0.0434474	0.306959	1.03299	0.34851	0.655882	0.0001	45.5	0.115163	8586	
-33431	652634	-290.015	3.04248	-1078.81	-0.0434474	0.306959	1.03299	0.34851	0.655882	3	45.5	0.115163	8586	
-21234	320635	-30.278	3.19855	-984.69	-0.0489041	0.166887	1.03299	0.34851	0.655882	0.0001	45.5	0.0388792	8587	
-16842.4	336124	-62.7373	3.46236	-984.839	-0.000153961	0.169669	0.993198	0.349787	0.651995	0.0001	91	0.0388792	8587	
-16842.4	336124	-62.7373	3.46236	-984.839	-0.000153961	0.169669	0.993198	0.349787	0.651995	3	91	0.0388792	8587	
-34073.6	895858	-285.551	1.89015	-800.004	0.375918	0.362147	1.03299	0.34851	0.655882	3	45.5	0.0800799	8589	
-26212.4	927621	-318.559	2.05272	-867.844	0.417786	0.345055	0.993198	0.349787	0.651995	3	91	0.0800799	8589	
-9620.67	380922	-340.058	0.649907	-944.138	-0.00132017	0.64077	1.03299	0.34851	0.655882	3	45.5	0.237744	8590	
-28370.7	596703	-192.117	2.63292	-1133.02	0.169384	0.281343	1.03299	0.34851	0.655882	0.0001	45.5	0.0840177	8592	
-28370.7	596703	-192.117	2.63292	-1133.02	0.169384	0.281343	1.03299	0.34851	0.655882	3	45.5	0.0840177	8592	
-21233.1	625865	-235.629	2.86122	-1182.87	0.208077	0.275086	0.993198	0.349787	0.651995	0.0001	91	0.0840177	8592	
-21233.1	625865	-235.629	2.86122	-1182.87	0.208077	0.275086	0.993198	0.349787	0.651995	3	91	0.0840177	8592	
-20127.8	484683	-328.018	2.11257	-778.407	-0.0209699	0.474307	1.03299	0.34851	0.655882	3	45.5	0.164433	8593	
-8729.4	510708	-410.539	2.42536	-822.557	0.024144	0.475846	0.958125	0.351078	0.648177	0.0001	182	0.164433	8593	
-5204.37	5918.72	-90.0792	3.46929	-714.539	0.0808322	0.191615	1.03299	0.34851	0.655882	0.0001	45.5	0.0111562	8594	
-5056.16	15079.3	-122.384	3.80553	-737.264	0.140744	0.205374	0.993198	0.349787	0.651995	0.0001	91	0.0111562	8594	
-5056.16	15079.3	-122.384	3.80553	-737.264	0.140744	0.205374	0.993198	0.349787	0.651995	3	91	0.0111562	8594	
-3427.72	41575.4	-230.67	4.90832	-851.68	0.35269	0.324363	0.9175	0.352806	0.64323	0.0001	455	0.0111562	8594	
-3427.72	41575.4	-230.67	4.90832	-851.68	0.35269	0.324363	0.9175	0.352806	0.64323	3	455	0.0111562	8594	
-26701.9	652676	-403.648	3.93992	-1152.81	0.980702	0.274099	0.993198	0.349787	0.651995	0.0001	91	0.118318	8596	
-26701.9	652676	-403.648	3.93992	-1152.81	0.980702	0.274099	0.993198	0.349787	0.651995	3	91	0.118318	8596	
-12585.5	723715	-495.702	4.60862	-1428.21	1.25535	0.322232	0.958125	0.351078	0.648177	0.0001	182	0.118318	8596	
-12585.5	723715	-495.702	4.60862	-1428.21	1.25535	0.322232	0.958125	0.351078	0.648177	3	182	0.118318	8596	
-10517.8	179177	-169.231	1.72223	-551.915	0.803458	0.385559	1.03299	0.34851	0.655882	3	45.5	0.163256	8597	
-22962.6	606872	-295.92	1.80735	-674.463	-0.00706099	0.428019	1.03299	0.34851	0.655882	3	45.5	0.123717	8598	
-10042.9	203262	-286.313	2.79923	-744.098	0.245499	0.428707	1.03299	0.34851	0.655882	0.0001	45.5	0.230914	8599	
-10042.9	203262	-286.313	2.79923	-744.098	0.245499	0.428707	1.03299	0.34851	0.655882	3	45.5	0.230914	8599	
-6744.26	217930	-331.058	3.07777	-800.781	0.294821	0.438512	0.993198	0.349787	0.651995	0.0001	91	0.230914	8599	
-6744.26	217930	-331.058	3.07777	-800.781	0.294821	0.438512	0.993198	0.349787	0.651995	3	91	0.230914	8599	
-2530.51	236067	-385.067	3.40725	-874.247	0.3576	0.463984	0.958125	0.351078	0.648177	0.0001	182	0.230914	8599	
-2530.51	236067	-385.067	3.40725	-874.247	0.3576	0.463984	0.958125	0.351078	0.648177	3	182	0.230914	8599	
-11848.7	155856	-98.2261	3.17127	-881.801	-0.0465402	0.219442	1.03299	0.34851	0.655882	0.0001	45.5	0.101103	8600	
-11848.7	155856	-98.2261	3.17127	-881.801	-0.0465402	0.219442	1.03299	0.34851	0.655882	3	45.5	0.101103	8600	
-11573.7	262633	-204.623	1.2941	-549.637	0.459745	0.438584	1.03299	0.34851	0.655882	3	45.5	0.168092	8601	
-15188.5	512917	-401.119	1.75903	-599.829	0.702341	0.516871	0.993198	0.349787	0.651995	0.0001	91	0.165715	8605	
-15188.5	512917	-401.119	1.75903	-599.829	0.702341	0.516871	0.993198	0.349787	0.651995	3	91	0.165715	8605	
-5915.28	99123.5	-206.105	3.40369	-613.864	-0.0252517	0.248958	1.03299	0.34851	0.655882	0.0001	45.5	0.174742	8606	
-5915.28	99123.5	-206.105	3.40369	-613.864	-0.0252517	0.248958	1.03299	0.34851	0.655882	3	45.5	0.174742	8606	
-3988.3	106544	-245.131	3.71294	-635.14	0.0302691	0.26367	0.993198	0.349787	0.651995	0.0001	91	0.174742	8606	
-3988.3	106544	-245.131	3.71294	-635.14	0.0302691	0.26367	0.993198	0.349787	0.651995	3	91	0.174742	8606	
-1528.16	115424	-291.922	4.08247	-669.104	0.0974821	0.297629	0.958125	0.351078	0.648177	0.0001	182	0.174742	8606	
-1528.16	115424	-291.922	4.08247	-669.104	0.0974821	0.297629	0.958125	0.351078	0.648177	3	182	0.174742	8606	
-21512.7	358432	-161.033	3.03179	-627.924	0.000378969	0.239211	1.03299	0.34851	0.655882	0.0001	45.5	0.0955241	8607	
-21512.7	358432	-161.033	3.03179	-627.924	0.000378969	0.239211	1.03299	0.34851	0.655882	3	45.5	0.0955241	8607	
-16687.7	365429	-192.678	3.2863	-644.797	0.0442242	0.241218	0.993198	0.349787	0.651995	0.0001	91	0.0955241	8607	
-16687.7	365429	-192.678	3.2863	-644.797	0.0442242	0.241218	0.993198	0.349787	0.651995	3	91	0.0955241	8607	
-25390.4	445265	-272.429	3.41295	-948.544	0.0212787	0.276457	1.03299	0.34851	0.655882	0.0001	45.5	0.136467	8608	
-25390.4	445265	-272.429	3.41295	-948.544	0.0212787	0.276457	1.03299	0.34851	0.655882	3	45.5	0.136467	8608	
-5267.44	540082	-348.379	0.0353973	-794.77	0.459759	0.489578	0.9175	0.352806	0.64323	3	455	0.169379	8610	
-5211.12	20328.8	-117.86	3.88958	-821.005	0.516773	0.196534	0.993198	0.349787	0.651995	0.0001	91	0.0325879	8611	
-5211.12	20328.8	-117.86	3.88958	-821.005	0.516773	0.196534	0.993198	0.349787	0.651995	3	91	0.0325879	8611	
-2964.84	60810.2	-247.69	5.34886	-1110.58	0.904419	0.337015	0.9175	0.352806	0.64323	0.0001	455	0.0325879	8611	
-2964.84	60810.2	-247.69	5.34886	-1110.58	0.904419	0.337015	0.9175	0.352806	0.64323	3	455	0.0325879	8611	
-22717.2	604593	-308.65	1.89334	-910.87	0.435271	0.426945	1.03299	0.34851	0.655882	3	45.5	0.121411	8612	
-25827.8	515601	-336.228	2.68029	-767.098	0.212639	0.408561	1.03299	0.34851	0.655882	0.0001	45.5	0.149184	8613	
-25827.8	515601	-336.228	2.68029	-767.098	0.212639	0.408561	1.03299	0.34851	0.655882	3	45.5	0.149184	8613	
-18877.3	534294	-383.737	2.93292	-822.974	0.255798	0.41325	0.993198	0.349787	0.651995	0.0001	91	0.149184	8613	
-18877.3	534294	-383.737	2.93292	-822.974	0.255798	0.41325	0.993198	0.349787	0.651995	3	91	0.149184	8613	
-7146.25	-10631.1	-18.3719	2.96012	-569.735	0.339038	0.231442	1.03299	0.34851	0.655882	0.0001	45.5	0.0185593	8614	
-7420.88	-5112.73	-36.5327	3.26449	-606.308	0.403135	0.231611	0.993198	0.349787	0.651995	0.0001	91	0.0185593	8614	
-7420.88	-5112.73	-36.5327	3.26449	-606.308	0.403135	0.231611	0.993198	0.349787	0.651995	3	91	0.0185593	8614	
-28051.9	670559	-369.447	2.13876	-797.834	0.00775006	0.483287	1.03299	0.34851	0.655882	3	45.5	0.139232	8615	
-14466.6	274478	-302.305	3.55313	-936.396	-0.0531913	0.342201	1.03299	0.34851	0.655882	0.0001	45.5	0.197549	8617	
-14466.6	274478	-302.305	3.55313	-936.396	-0.0531913	0.342201	1.03299	0.34851	0.655882	3	45.5	0.197549	8617	
-9205.72	291125	-364.004	3.89205	-965.445	0.00765161	0.36883	0.993198	0.349787	0.651995	0.0001	91	0.197549	8617	
-9205.72	291125	-364.004	3.89205	-965.445	0.00765161	0.36883	0.993198	0.349787	0.651995	3	91	0.197549	8617	
-2549.09	311365	-438.769	4.30264	-1015.42	0.0815173	0.417279	0.958125	0.351078	0.648177	0.0001	182	0.197549	8617	
-2549.09	311365	-438.769	4.30264	-1015.42	0.0815173	0.417279	0.958125	0.351078	0.648177	3	182	0.197549	8617	
-14113.2	358636	-255.104	1.57777	-668.964	0.0631402	0.460694	1.03299	0.34851	0.655882	3	45.5	0.167611	8618	
-22108	813911	-372.809	2.07715	-997.921	0.912421	0.391688	0.993198	0.349787	0.651995	3	91	0.0996687	8619	
-16951.9	413265	-249.802	2.93625	-648.308	0.559794	0.300882	0.993198	0.349787	0.651995	0.0001	91	0.11153	8622	
-16951.9	413265	-249.802	2.93625	-648.308	0.559794	0.300882	0.993198	0.349787	0.651995	3	91	0.11153	8622	
-18904.7	888830	-186.773	0.913355	-892.94	0.100624	0.366863	1.03299	0.34851	0.655882	3	45.5	0.0553587	8623	
-21150.7	640490	-498.585	2.94863	-896.183	-2.26176e-05	0.527078	0.993198	0.349787	0.651995	0.0001	91	0.174534	8624	
-21150.7	640490	-498.585	2.94863	-896.183	-2.26176e-05	0.527078	0.993198	0.349787	0.651995	3	91	0.174534	8624	
-8221.41	157133	-218.044	2.37329	-975.79	0.0836835	0.434385	1.03299	0.34851	0.655882	0.0001	45.5	0.244986	8626	
-8221.41	157133	-218.044	2.37329	-975.79	0.0836835	0.434385	1.03299	0.34851	0.655882	3	45.5	0.244986	8626	
-6661.77	213166	-272.124	3.0984	-1161.06	0.0256472	0.388362	0.993198	0.349787	0.651995	3	91	0.207897	8627	
-2783	239389	-330.545	3.37557	-1195.65	0.0719582	0.409724	0.958125	0.351078	0.648177	0.0001	182	0.207897	8627	
-2783	239389	-330.545	3.37557	-1195.65	0.0719582	0.409724	0.958125	0.351078	0.648177	3	182	0.207897	8627	
-13884.3	278090	-284.897	3.12786	-1004.27	0.0727708	0.38331	1.03299	0.34851	0.655882	0.0001	45.5	0.19564	8629	
-13884.3	278090	-284.897	3.12786	-1004.27	0.0727708	0.38331	1.03299	0.34851	0.655882	3	45.5	0.19564	8629	
-9210.59	299025	-341.025	3.42429	-1046.81	0.121294	0.398945	0.993198	0.349787	0.651995	0.0001	91	0.19564	8629	
-9210.59	299025	-341.025	3.42429	-1046.81	0.121294	0.398945	0.993198	0.349787	0.651995	3	91	0.19564	8629	
-3240.38	323871	-408.618	3.77626	-1107.84	0.181682	0.432371	0.958125	0.351078	0.648177	0.0001	182	0.19564	8629	
-3240.38	323871	-408.618	3.77626	-1107.84	0.181682	0.432371	0.958125	0.351078	0.648177	3	182	0.19564	8629	
-6493.17	-3433.41	-64.5059	3.80769	-934.268	0.00578334	0.212288	0.993198	0.349787	0.651995	0.0001	91	0.0183564	8632	
-6493.17	-3433.41	-64.5059	3.80769	-934.268	0.00578334	0.212288	0.993198	0.349787	0.651995	3	91	0.0183564	8632	
-12649	375282	-383.632	0.93568	-618.739	0.379065	0.675999	1.03299	0.34851	0.655882	3	45.5	0.245389	8633	
-21335.2	493166	-0.676916	1.70463	-644.926	0.474733	0.286009	1.03299	0.34851	0.655882	3	45.5	0.00707677	8634	
-17137.4	303196	-274.421	3.56793	-920.057	-0.0607212	0.29686	1.03299	0.34851	0.655882	0.0001	45.5	0.170798	8635	
-17137.4	303196	-274.421	3.56793	-920.057	-0.0607212	0.29686	1.03299	0.34851	0.655882	3	45.5	0.170798	8635	
-11616.6	318589	-332.593	3.90283	-945.304	0.000605462	0.32062	0.993198	0.349787	0.651995	0.0001	91	0.170798	8635	
-11616.6	318589	-332.593	3.90283	-945.304	0.000605462	0.32062	0.993198	0.349787	0.651995	3	91	0.170798	8635	
-4743.63	337382	-402.902	4.30796	-990.526	0.0746776	0.36586	0.958125	0.351078	0.648177	0.0001	182	0.170798	8635	
-4743.63	337382	-402.902	4.30796	-990.526	0.0746776	0.36586	0.958125	0.351078	0.648177	3	182	0.170798	8635	
-20582.3	792698	-345.212	1.2216	-972.914	0.623887	0.454044	1.03299	0.34851	0.655882	3	45.5	0.102472	8637	
-26464.6	632742	-35.0379	1.88616	-623.814	-0.00340226	0.279702	1.03299	0.34851	0.655882	3	45.5	0.0189705	8638	
-18619.5	607634	-233.78	1.33089	-722.087	0.0855774	0.399913	1.03299	0.34851	0.655882	3	45.5	0.0981559	8640	
-11657.6	898092	-371.173	0.499232	-1028.43	0.503762	0.474739	1.03299	0.34851	0.655882	3	45.5	0.0981244	8641	
-12018.4	228588	-173.063	2.27087	-893.041	-0.0125506	0.359895	1.03299	0.34851	0.655882	0.0001	45.5	0.154443	8642	
-12018.4	228588	-173.063	2.27087	-893.041	-0.0125506	0.359895	1.03299	0.34851	0.655882	3	45.5	0.154443	8642	
-15900.1	859366	-31.8544	0.56034	-675.107	0.107346	0.335854	1.03299	0.34851	0.655882	3	45.5	0.0107767	8643	
-20087.7	790776	-358.981	1.32956	-1074.54	-0.00757954	0.483141	1.03299	0.34851	0.655882	3	45.5	0.120169	8645	
-14447.7	859551	-408.183	0.667291	-934.048	0.303076	0.51694	1.03299	0.34851	0.655882	3	45.5	0.117983	8648	
-17717.5	457869	-116.978	1.69768	-953.65	0.182817	0.3235	1.03299	0.34851	0.655882	3	45.5	0.0663639	8649	
-25113	655488	-133.925	1.89974	-1110.02	0.260087	0.308852	1.03299	0.34851	0.655882	3	45.5	0.055744	8650	
-14611.8	698728	-187.381	0.914348	-1157.63	0.0196784	0.379806	1.03299	0.34851	0.655882	3	45.5	0.0708505	8651	
-14976.9	646958	-123.1	0.755772	-595.521	0.190734	0.353498	1.03299	0.34851	0.655882	3	45.5	0.0485343	8652	
-14163.6	808477	-195.605	0.626914	-836.591	0.197188	0.380075	1.03299	0.34851	0.655882	3	45.5	0.06139	8653	
-26430.8	577765	-187.888	2.38183	-856.594	-0.0248912	0.306292	1.03299	0.34851	0.655882	3	45.5	0.0844787	8654	
-32792.3	843862	-96.0559	1.82331	-664.024	0.210411	0.287663	1.03299	0.34851	0.655882	3	45.5	0.0317447	8656	
-15194.5	738538	-348.999	0.69657	-692.278	0.430835	0.48328	1.03299	0.34851	0.655882	3	45.5	0.114019	8657	
-16780.7	347842	-106.564	2.13024	-863.734	0.00120182	0.298552	1.03299	0.34851	0.655882	3	45.5	0.0763294	8658	
-24757.5	499777	-423.311	2.85182	-851.4	-0.0307422	0.531124	1.03299	0.34851	0.655882	3	45.5	0.197834	8659	
-17006.1	515184	-484.098	3.10035	-885.294	0.00812271	0.551244	0.993198	0.349787	0.651995	0.0001	91	0.197834	8659	
-17006.1	515184	-484.098	3.10035	-885.294	0.00812271	0.551244	0.993198	0.349787	0.651995	3	91	0.197834	8659	
-28637.7	651949	-259.671	3.79961	-1052.24	0.56095	0.185767	0.993198	0.349787	0.651995	0.0001	91	0.0805231	8660	
-28637.7	651949	-259.671	3.79961	-1052.24	0.56095	0.185767	0.993198	0.349787	0.651995	3	91	0.0805231	8660	
-11502.4	473500	-436.764	0.894054	-1013	0.0200693	0.730259	1.03299	0.34851	0.655882	3	45.5	0.2426	8661	
-15568.7	277308	-14.7741	1.9267	-770.531	0.73033	0.276689	1.03299	0.34851	0.655882	3	45.5	0.0231464	8662	
-12532.8	451210	-451.948	1.04711	-961.079	0.473317	0.738068	1.03299	0.34851	0.655882	3	45.5	0.243511	8663	
-8753.97	484843	-488.101	1.13716	-1053.26	0.517234	0.745314	0.993198	0.349787	0.651995	0.0001	91	0.243511	8663	
-17379.5	346245	-82.8547	2.20117	-964.79	0.219245	0.280401	1.03299	0.34851	0.655882	3	45.5	0.0622202	8664	
-25277.2	709615	-243.755	1.69661	-675.022	0.000703516	0.377917	1.03299	0.34851	0.655882	3	45.5	0.089618	8665	
-22855.7	832382	-154.014	1.2104	-805.342	0.239953	0.344169	1.03299	0.34851	0.655882	3	45.5	0.0483121	8667	
-9331.15	783567	-464.356	0.462262	-1160.3	0.0580463	0.6066	1.03299	0.34851	0.655882	3	45.5	0.153692	8668	
-27013.3	462794	-283.84	3.08937	-742.763	0.649377	0.288807	1.03299	0.34851	0.655882	0.0001	45.5	0.123788	8669	
-27013.3	462794	-283.84	3.08937	-742.763	0.649377	0.288807	1.03299	0.34851	0.655882	3	45.5	0.123788	8669	
-19917.1	492130	-332.366	3.48466	-858.987	0.776427	0.297683	0.993198	0.349787	0.651995	3	91	0.123788	8669	
-32186.7	572291	-236.008	2.95471	-689.143	0.284084	0.259773	1.03299	0.34851	0.655882	0.0001	45.5	0.0957231	8670	
-32186.7	572291	-236.008	2.95471	-689.143	0.284084	0.259773	1.03299	0.34851	0.655882	3	45.5	0.0957231	8670	
-29852.8	666391	-329.479	2.33627	-722.411	-0.0209914	0.406813	1.03299	0.34851	0.655882	3	45.5	0.125761	8671	
-22395	676547	-369.802	2.50677	-743.718	0.00474677	0.402219	0.993198	0.349787	0.651995	0.0001	91	0.125761	8671	
-22395	676547	-369.802	2.50677	-743.718	0.00474677	0.402219	0.993198	0.349787	0.651995	3	91	0.125761	8671	
-24731.9	639831	-380.012	1.86952	-722.769	0.133731	0.500896	1.03299	0.34851	0.655882	3	45.5	0.147435	8672	
-9946.67	225736	-160.515	1.38609	-1130.83	0.282223	0.413568	1.03299	0.34851	0.655882	3	45.5	0.161275	8673	
-3964.14	84689.5	-199.086	3.1732	-1107.28	-0.0379258	0.320055	1.03299	0.34851	0.655882	0.0001	45.5	0.240075	8675	
-3964.14	84689.5	-199.086	3.1732	-1107.28	-0.0379258	0.320055	1.03299	0.34851	0.655882	3	45.5	0.240075	8675	
-2211.26	107136	-250.379	3.44998	-1124.29	0.0102014	0.331964	0.993198	0.349787	0.651995	0.0001	91	0.240075	8675	
-2211.26	107136	-250.379	3.44998	-1124.29	0.0102014	0.331964	0.993198	0.349787	0.651995	3	91	0.240075	8675	
343.039	131497	-311.23	3.77615	-1157.8	0.0676602	0.360844	0.958125	0.351078	0.648177	0.0001	182	0.240075	8675	
343.039	131497	-311.23	3.77615	-1157.8	0.0676602	0.360844	0.958125	0.351078	0.648177	3	182	0.240075	8675	
-14398	244077	-270.544	3.23975	-623.692	0.345877	0.31512	1.03299	0.34851	0.655882	0.0001	45.5	0.174682	8676	
-14398	244077	-270.544	3.23975	-623.692	0.345877	0.31512	1.03299	0.34851	0.655882	3	45.5	0.174682	8676	
-10215.3	257415	-315.406	3.60302	-689.556	0.420194	0.329967	0.993198	0.349787	0.651995	0.0001	91	0.174682	8676	
-10215.3	257415	-315.406	3.60302	-689.556	0.420194	0.329967	0.993198	0.349787	0.651995	3	91	0.174682	8676	
-4920.44	274919	-371.493	4.04876	-778.136	0.518838	0.365777	0.958125	0.351078	0.648177	0.0001	182	0.174682	8676	
-4920.44	274919	-371.493	4.04876	-778.136	0.518838	0.365777	0.958125	0.351078	0.648177	3	182	0.174682	8676	
-18547	350563	-115.049	2.40879	-652.683	-0.0166626	0.276033	1.03299	0.34851	0.655882	3	45.5	0.076595	8679	
-30918	817436	-210.329	1.81979	-634.911	0.117935	0.335217	1.03299	0.34851	0.655882	3	45.5	0.0672359	8680	
-11503.3	428568	-352.968	0.587558	-620.972	0.78267	0.582009	1.03299	0.34851	0.655882	3	45.5	0.187831	8681	
-24121.1	433279	-13.9387	2.55456	-993.001	0.200226	0.225641	1.03299	0.34851	0.655882	0.0001	45.5	0.0224191	8682	
-24121.1	433279	-13.9387	2.55456	-993.001	0.200226	0.225641	1.03299	0.34851	0.655882	3	45.5	0.0224191	8682	
-19440.4	455332	-39.4044	2.77225	-1029.84	0.238921	0.213801	0.993198	0.349787	0.651995	3	91	0.0224191	8682	
-22967.8	442750	-421.441	3.05086	-798.852	-0.0338235	0.521015	1.03299	0.34851	0.655882	3	45.5	0.210736	8684	
-15502.1	456665	-483.922	3.32843	-835.26	0.0108114	0.546185	0.993198	0.349787	0.651995	0.0001	91	0.210736	8684	
-6342.71	474642	-558.15	3.65639	-888.1	0.0644895	0.588943	0.958125	0.351078	0.648177	0.0001	182	0.210736	8684	
-6342.71	474642	-558.15	3.65639	-888.1	0.0644895	0.588943	0.958125	0.351078	0.648177	3	182	0.210736	8684	
-12524.2	162798	-78.896	3.12903	-938.59	0.137975	0.210936	1.03299	0.34851	0.655882	0.0001	45.5	0.0862194	8686	
-12524.2	162798	-78.896	3.12903	-938.59	0.137975	0.210936	1.03299	0.34851	0.655882	3	45.5	0.0862194	8686	
-10250.6	179756	-114.058	3.42143	-971.422	0.189199	0.21457	0.993198	0.349787	0.651995	0.0001	91	0.0862194	8686	
-10250.6	179756	-114.058	3.42143	-971.422	0.189199	0.21457	0.993198	0.349787	0.651995	3	91	0.0862194	8686	
-16309.1	292357	-97.044	3.91617	-656.345	0.00168943	0.137099	0.993198	0.349787	0.651995	0.0001	91	0.0530328	8687	
-24327	798907	-440.962	1.72052	-1152.4	0.00542712	0.554843	1.03299	0.34851	0.655882	3	45.5	0.145459	8688	
-17595.3	379707	-288.467	2.74927	-1060.33	0.00614862	0.407852	1.03299	0.34851	0.655882	0.0001	45.5	0.170768	8689	
-17595.3	379707	-288.467	2.74927	-1060.33	0.00614862	0.407852	1.03299	0.34851	0.655882	3	45.5	0.170768	8689	
-12255	401399	-340.154	2.97837	-1088.02	0.0422103	0.413974	0.993198	0.349787	0.651995	3	91	0.170768	8689	
-27832.1	696565	-117.128	2.86139	-833.932	0.309532	0.206398	0.993198	0.349787	0.651995	3	91	0.0381625	8690	
-21152.5	314564	-33.1163	3.1797	-741.284	-0.0163943	0.165991	1.03299	0.34851	0.655882	3	45.5	0.0349531	8691	
-16923.9	323306	-58.3555	3.44664	-746.085	0.0317587	0.168206	0.993198	0.349787	0.651995	0.0001	91	0.0349531	8691	
-16923.9	323306	-58.3555	3.44664	-746.085	0.0317587	0.168206	0.993198	0.349787	0.651995	3	91	0.0349531	8691	
-6385.61	-23016.5	-14.3146	3.49912	-1048.04	-0.0588274	0.1977	1.03299	0.34851	0.655882	0.0001	45.5	0.0408845	8693	
-6743.59	-4183.93	-50.6409	3.81197	-1046.14	-8.5424e-05	0.212424	0.993198	0.349787	0.651995	0.0001	91	0.0408845	8693	
-6743.59	-4183.93	-50.6409	3.81197	-1046.14	-8.5424e-05	0.212424	0.993198	0.349787	0.651995	3	91	0.0408845	8693	
-34301	636272	-307.539	2.71225	-729.594	0.794044	0.315897	1.03299	0.34851	0.655882	0.0001	45.5	0.104271	8694	
-34301	636272	-307.539	2.71225	-729.594	0.794044	0.315897	1.03299	0.34851	0.655882	3	45.5	0.104271	8694	
-8696.88	141820	-100.779	0.914773	-782.435	0.480533	0.354947	0.993198	0.349787	0.651995	3	91	0.159208	8695	
-31473.1	648635	-389.332	2.49804	-634.688	-0.0140659	0.454212	1.03299	0.34851	0.655882	0.0001	45.5	0.149102	8696	
-31473.1	648635	-389.332	2.49804	-634.688	-0.0140659	0.454212	1.03299	0.34851	0.655882	3	45.5	0.149102	8696	
-23368.4	657752	-435.097	2.69341	-662.88	0.0154914	0.457584	0.993198	0.349787	0.651995	0.0001	91	0.149102	8696	
-23368.4	657752	-435.097	2.69341	-662.88	0.0154914	0.457584	0.993198	0.349787	0.651995	3	91	0.149102	8696	
-21174.4	451137	-151.646	3.72807	-899.771	0.122901	0.161712	0.993198	0.349787	0.651995	0.0001	91	0.0650545	8698	
-21174.4	451137	-151.646	3.72807	-899.771	0.122901	0.161712	0.993198	0.349787	0.651995	3	91	0.0650545	8698	
-27133.6	668413	-178.021	2.08097	-1028.45	0.256402	0.315588	1.03299	0.34851	0.655882	3	45.5	0.069683	8699	
-14515.8	370843	-60.6181	1.3984	-931.46	0.0130289	0.320992	1.03299	0.34851	0.655882	3	45.5	0.0466479	8700	
-9641.1	308423	-243.824	0.956925	-1038.24	-0.00422011	0.515551	1.03299	0.34851	0.655882	3	45.5	0.201668	8702	
-29880.9	553906	-271.28	3.31368	-1144.01	-0.0524558	0.27737	1.03299	0.34851	0.655882	0.0001	45.5	0.122069	8703	
-29880.9	553906	-271.28	3.31368	-1144.01	-0.0524558	0.27737	1.03299	0.34851	0.655882	3	45.5	0.122069	8703	
-21159.4	576530	-332.149	3.60575	-1166.56	0.000148523	0.290835	0.993198	0.349787	0.651995	0.0001	91	0.122069	8703	
-21159.4	576530	-332.149	3.60575	-1166.56	0.000148523	0.290835	0.993198	0.349787	0.651995	3	91	0.122069	8703	
-23761.1	611496	-213.518	3.16664	-1015.19	0.0918679	0.233394	0.993198	0.349787	0.651995	0.0001	91	0.0766949	8704	
-10449.6	178631	-248.932	2.74211	-550.377	0.793016	0.352584	1.03299	0.34851	0.655882	0.0001	45.5	0.186617	8705	
-10449.6	178631	-248.932	2.74211	-550.377	0.793016	0.352584	1.03299	0.34851	0.655882	3	45.5	0.186617	8705	
-7690.23	194230	-285.146	3.10386	-653.112	0.949467	0.355813	0.993198	0.349787	0.651995	0.0001	91	0.186617	8705	
-7690.23	194230	-285.146	3.10386	-653.112	0.949467	0.355813	0.993198	0.349787	0.651995	3	91	0.186617	8705	
-4021.69	216119	-332.105	3.56831	-800.873	1.1745	0.377512	0.958125	0.351078	0.648177	0.0001	182	0.186617	8705	
-4021.69	216119	-332.105	3.56831	-800.873	1.1745	0.377512	0.958125	0.351078	0.648177	3	182	0.186617	8705	
-20317.5	335410	-6.34331	2.65864	-1126.16	0.275557	0.217384	1.03299	0.34851	0.655882	0.0001	45.5	0.0261188	8706	
-20317.5	335410	-6.34331	2.65864	-1126.16	0.275557	0.217384	1.03299	0.34851	0.655882	3	45.5	0.0261188	8706	
-16486.1	363363	-35.9651	2.90274	-1182.14	0.323578	0.207917	0.993198	0.349787	0.651995	3	91	0.0261188	8706	
-21715.6	707005	-459.581	1.35148	-782.724	0.24422	0.597973	1.03299	0.34851	0.655882	3	45.5	0.162105	8707	
-15800	273526	-132.408	2.65748	-805.606	0.148931	0.273274	1.03299	0.34851	0.655882	3	45.5	0.100188	8709	
-22704.8	599259	-168.242	2.99526	-1091	0.0173851	0.227352	0.993198	0.349787	0.651995	0.0001	91	0.0636522	8710	
-22704.8	599259	-168.242	2.99526	-1091	0.0173851	0.227352	0.993198	0.349787	0.651995	3	91	0.0636522	8710	
-15445.6	322381	-427.487	2.72917	-767.286	0.647317	0.584113	1.03299	0.34851	0.655882	0.0001	45.5	0.246376	8712	
-15445.6	322381	-427.487	2.72917	-767.286	0.647317	0.584113	1.03299	0.34851	0.655882	3	45.5	0.246376	8712	
-9770.1	349860	-487.068	3.0811	-894.144	0.762281	0.607527	0.993198	0.349787	0.651995	0.0001	91	0.246376	8712	
-9770.1	349860	-487.068	3.0811	-894.144	0.762281	0.607527	0.993198	0.349787	0.651995	3	91	0.246376	8712	
-2244.13	387345	-562.621	3.52407	-1069.15	0.921017	0.650323	0.958125	0.351078	0.648177	0.0001	182	0.246376	8712	
-2244.13	387345	-562.621	3.52407	-1069.15	0.921017	0.650323	0.958125	0.351078	0.648177	3	182	0.246376	8712	
-40116	790457	-396.004	2.79573	-810.059	-0.0373041	0.400351	1.03299	0.34851	0.655882	3	45.5	0.130785	8713	
-18122.8	390456	-310.493	2.76467	-1028.61	0.0484962	0.427295	1.03299	0.34851	0.655882	3	45.5	0.177751	8717	
-12500.2	412285	-363.783	3.00452	-1065.19	0.0856897	0.435571	0.993198	0.349787	0.651995	3	91	0.177751	8717	
-35620.9	718281	-303.976	2.52642	-647.899	0.265197	0.339881	1.03299	0.34851	0.655882	0.0001	45.5	0.103136	8719	
-35620.9	718281	-303.976	2.52642	-647.899	0.265197	0.339881	1.03299	0.34851	0.655882	3	45.5	0.103136	8719	
-27110	737598	-343.175	2.75897	-700.868	0.30878	0.335178	0.993198	0.349787	0.651995	0.0001	91	0.103136	8719	
-27110	737598	-343.175	2.75897	-700.868	0.30878	0.335178	0.993198	0.349787	0.651995	3	91	0.103136	8719	
-27240.7	562369	-335.692	2.9011	-1095.42	0.176494	0.384336	1.03299	0.34851	0.655882	0.0001	45.5	0.143166	8720	
-27240.7	562369	-335.692	2.9011	-1095.42	0.176494	0.384336	1.03299	0.34851	0.655882	3	45.5	0.143166	8720	
-19033.2	591800	-395.392	3.17995	-1160.09	0.223296	0.393289	0.993198	0.349787	0.651995	0.0001	91	0.143166	8720	
-19033.2	591800	-395.392	3.17995	-1160.09	0.223296	0.393289	0.993198	0.349787	0.651995	3	91	0.143166	8720	
-11236	217087	-303.682	2.84381	-569.602	0.0505603	0.434709	1.03299	0.34851	0.655882	0.0001	45.5	0.230426	8723	
-11236	217087	-303.682	2.84381	-569.602	0.0505603	0.434709	1.03299	0.34851	0.655882	3	45.5	0.230426	8723	
-7714.1	225254	-345.305	3.09639	-601.394	0.0900148	0.445892	0.993198	0.349787	0.651995	0.0001	91	0.230426	8723	
-7714.1	225254	-345.305	3.09639	-601.394	0.0900148	0.445892	0.993198	0.349787	0.651995	3	91	0.230426	8723	
-3400.06	235494	-394.322	3.39068	-644.069	0.138168	0.472032	0.958125	0.351078	0.648177	0.0001	182	0.230426	8723	
-3400.06	235494	-394.322	3.39068	-644.069	0.138168	0.472032	0.958125	0.351078	0.648177	3	182	0.230426	8723	
-24102.7	514708	-44.9304	3.46742	-1156.28	0.0416382	0.149226	0.993198	0.349787	0.651995	0.0001	91	0.0235173	8725	
-24102.7	514708	-44.9304	3.46742	-1156.28	0.0416382	0.149226	0.993198	0.349787	0.651995	3	91	0.0235173	8725	
-31505.6	935596	-299.999	1.72302	-895.801	0.144164	0.387615	1.03299	0.34851	0.655882	3	45.5	0.084518	8726	
-9530.81	187390	-191.474	1.86309	-1067.45	0.574701	0.429218	1.03299	0.34851	0.655882	3	45.5	0.201938	8727	
-19897	436880	-219.67	3.60006	-707.792	0.012263	0.214063	0.993198	0.349787	0.651995	0.0001	91	0.0949154	8728	
-19897	436880	-219.67	3.60006	-707.792	0.012263	0.214063	0.993198	0.349787	0.651995	3	91	0.0949154	8728	
-13065.7	253454	-103.845	3.71813	-1161.53	0.773435	0.173468	0.993198	0.349787	0.651995	0.0001	91	0.0639382	8729	
-13065.7	253454	-103.845	3.71813	-1161.53	0.773435	0.173468	0.993198	0.349787	0.651995	3	91	0.0639382	8729	
-5883.32	-9113.69	-53.3861	3.48881	-943.455	-0.05223	0.201411	1.03299	0.34851	0.655882	0.0001	45.5	0.00629509	8730	
-5883.32	-9113.69	-53.3861	3.48881	-943.455	-0.05223	0.201411	1.03299	0.34851	0.655882	3	45.5	0.00629509	8730	
-19333.8	707965	-5.92338	0.990747	-889.452	0.10565	0.322541	1.03299	0.34851	0.655882	3	45.5	0.00635988	8732	
-13689.5	255652	-218.871	2.89734	-914.198	-0.0389653	0.337483	1.03299	0.34851	0.655882	0.0001	45.5	0.165363	8733	
-13689.5	255652	-218.871	2.89734	-914.198	-0.0389653	0.337483	1.03299	0.34851	0.655882	3	45.5	0.165363	8733	
-10020.6	270678	-262.361	3.13412	-930.443	0.000986227	0.34219	0.993198	0.349787	0.651995	3	91	0.165363	8733	
-16418.7	279660	-188.589	3.19617	-893.501	-0.0122592	0.262409	1.03299	0.34851	0.655882	0.0001	45.5	0.131648	8734	
-16418.7	279660	-188.589	3.19617	-893.501	-0.0122592	0.262409	1.03299	0.34851	0.655882	3	45.5	0.131648	8734	
-12191.5	294075	-232.488	3.47577	-913.601	0.0365665	0.271081	0.993198	0.349787	0.651995	0.0001	91	0.131648	8734	
-12191.5	294075	-232.488	3.47577	-913.601	0.0365665	0.271081	0.993198	0.349787	0.651995	3	91	0.131648	8734	
-21327.4	856551	-30.389	0.942308	-687.58	0.185302	0.325232	1.03299	0.34851	0.655882	3	45.5	0.0112473	8735	
-30058.1	522946	-261.264	2.83436	-551.831	0.63344	0.284148	1.03299	0.34851	0.655882	0.0001	45.5	0.103941	8737	
-30058.1	522946	-261.264	2.83436	-551.831	0.63344	0.284148	1.03299	0.34851	0.655882	3	45.5	0.103941	8737	
-14411.4	489594	-309.849	1.47357	-1098.74	0.0102284	0.501644	1.03299	0.34851	0.655882	3	45.5	0.160632	8739	
-32582.6	653979	-112.981	2.49851	-694.837	0.0930075	0.241363	1.03299	0.34851	0.655882	0.0001	45.5	0.0471499	8740	
-32582.6	653979	-112.981	2.49851	-694.837	0.0930075	0.241363	1.03299	0.34851	0.655882	3	45.5	0.0471499	8740	
-25633.8	665408	-137.722	2.69359	-715.455	0.124427	0.228895	0.993198	0.349787	0.651995	3	91	0.0471499	8740	
-17439.2	300984	-209.911	3.43581	-1065.06	0.0974122	0.251475	1.03299	0.34851	0.655882	0.0001	45.5	0.137765	8741	
-17439.2	300984	-209.911	3.43581	-1065.06	0.0974122	0.251475	1.03299	0.34851	0.655882	3	45.5	0.137765	8741	
-12378.9	323798	-265.029	3.77605	-1109.2	0.156931	0.267871	0.993198	0.349787	0.651995	0.0001	91	0.137765	8741	
-12378.9	323798	-265.029	3.77605	-1109.2	0.156931	0.267871	0.993198	0.349787	0.651995	3	91	0.137765	8741	
-33786.5	781344	-241.148	2.33636	-936.589	0.0195063	0.31998	1.03299	0.34851	0.655882	3	45.5	0.0831854	8742	
-25581.3	798340	-279.055	2.50626	-957.969	0.0453928	0.308779	0.993198	0.349787	0.651995	3	91	0.0831854	8742	
-27187	594847	-194.339	2.40511	-871.308	-0.0264433	0.305523	1.03299	0.34851	0.655882	3	45.5	0.0852736	8743	
-8370.45	20901.4	-1.91781	2.83642	-1000.72	0.219569	0.238683	1.03299	0.34851	0.655882	3	45.5	0.0559248	8744	
-6863.86	219452	-170.903	2.61862	-1175.51	0.188457	0.29955	0.958125	0.351078	0.648177	0.0001	182	0.120575	8745	
-4696.21	47401.2	-137.001	2.89879	-923.88	-0.0396333	0.277263	1.03299	0.34851	0.655882	0.0001	45.5	0.16505	8747	
-4696.21	47401.2	-137.001	2.89879	-923.88	-0.0396333	0.277263	1.03299	0.34851	0.655882	3	45.5	0.16505	8747	
-3864.69	62653.1	-173.608	3.13038	-933.232	0.000294318	0.277709	0.993198	0.349787	0.651995	0.0001	91	0.16505	8747	
-3864.69	62653.1	-173.608	3.13038	-933.232	0.000294318	0.277709	0.993198	0.349787	0.651995	3	91	0.16505	8747	
-2595.9	78811.9	-216.264	3.39731	-953.389	0.0470945	0.292119	0.958125	0.351078	0.648177	0.0001	182	0.16505	8747	
-2595.9	78811.9	-216.264	3.39731	-953.389	0.0470945	0.292119	0.958125	0.351078	0.648177	3	182	0.16505	8747	
-14.6517	102768	-285.319	3.82636	-1001.91	0.124093	0.334852	0.9175	0.352806	0.64323	0.0001	455	0.16505	8747	
-14.6517	102768	-285.319	3.82636	-1001.91	0.124093	0.334852	0.9175	0.352806	0.64323	3	455	0.16505	8747	
-2543.07	49887.8	-189.609	2.8734	-581.349	0.664969	0.25996	1.03299	0.34851	0.655882	0.0001	45.5	0.149055	8749	
-2543.07	49887.8	-189.609	2.8734	-581.349	0.664969	0.25996	1.03299	0.34851	0.655882	3	45.5	0.149055	8749	
-1494.39	59427.1	-222.314	3.22727	-669.226	0.788645	0.260159	0.993198	0.349787	0.651995	0.0001	91	0.149055	8749	
-1494.39	59427.1	-222.314	3.22727	-669.226	0.788645	0.260159	0.993198	0.349787	0.651995	3	91	0.149055	8749	
-1.34984	72726.8	-264.536	3.67222	-791.362	0.96054	0.278944	0.958125	0.351078	0.648177	0.0001	182	0.149055	8749	
-1.34984	72726.8	-264.536	3.67222	-791.362	0.96054	0.278944	0.958125	0.351078	0.648177	3	182	0.149055	8749	
-11826.8	401161	-382.875	3.29515	-1134.41	0.002317	0.439282	0.993198	0.349787	0.651995	0.0001	91	0.187668	8750	
-11826.8	401161	-382.875	3.29515	-1134.41	0.002317	0.439282	0.993198	0.349787	0.651995	3	91	0.187668	8750	
-21420.1	851694	-384.219	1.28017	-1017.11	0.0354492	0.494782	1.03299	0.34851	0.655882	3	45.5	0.11882	8751	
-12469.7	276219	-353.798	1.69212	-569.482	0.792663	0.60246	1.03299	0.34851	0.655882	3	45.5	0.248893	8752	
-9385.41	297901	-387.575	1.88889	-670.454	0.922244	0.60377	0.993198	0.349787	0.651995	0.0001	91	0.248893	8752	
-9385.41	297901	-387.575	1.88889	-670.454	0.922244	0.60377	0.993198	0.349787	0.651995	3	91	0.248893	8752	
-15697.1	882473	-398.801	0.558674	-680.903	0.591334	0.493564	1.03299	0.34851	0.655882	3	45.5	0.105317	8753	
-17280.7	437331	-217.1	1.73304	-657.895	-0.00989945	0.391452	1.03299	0.34851	0.655882	3	45.5	0.121132	8755	
-13672.5	182648	-9.91571	2.31821	-524.333	0.834297	0.248095	1.03299	0.34851	0.655882	0.0001	45.5	0.0212276	8756	
-13672.5	182648	-9.91571	2.31821	-524.333	0.834297	0.248095	1.03299	0.34851	0.655882	3	45.5	0.0212276	8756	
-19664.1	458660	-201.501	1.95684	-643.944	0.152454	0.355512	1.03299	0.34851	0.655882	3	45.5	0.10427	8757	
-21719.5	466152	-67.9419	3.25959	-795.54	0.00213439	0.174078	0.993198	0.349787	0.651995	0.0001	91	0.0321628	8758	
-21719.5	466152	-67.9419	3.25959	-795.54	0.00213439	0.174078	0.993198	0.349787	0.651995	3	91	0.0321628	8758	
-27593	641302	-329.746	2.313	-879.547	0.0983989	0.416963	1.03299	0.34851	0.655882	3	45.5	0.128749	8759	
-15255.4	726179	-162.107	0.779596	-897.795	0.496796	0.364062	1.03299	0.34851	0.655882	3	45.5	0.0541601	8760	
-13957.5	434955	-44.7304	1.02995	-985.171	0.0354842	0.329181	1.03299	0.34851	0.655882	3	45.5	0.0313301	8763	
-18237.9	379619	-344.299	2.92344	-983.094	0.159668	0.449692	1.03299	0.34851	0.655882	3	45.5	0.193514	8764	
-12216.8	402955	-402.643	3.20876	-1042.31	0.206128	0.464793	0.993198	0.349787	0.651995	0.0001	91	0.193514	8764	
-12216.8	402955	-402.643	3.20876	-1042.31	0.206128	0.464793	0.993198	0.349787	0.651995	3	91	0.193514	8764	
-4612.31	431437	-472.971	3.54649	-1121.18	0.264812	0.496551	0.958125	0.351078	0.648177	0.0001	182	0.193514	8764	
-4612.31	431437	-472.971	3.54649	-1121.18	0.264812	0.496551	0.958125	0.351078	0.648177	3	182	0.193514	8764	
-12774.8	566299	-282.008	0.71206	-740.319	0.671298	0.454739	1.03299	0.34851	0.655882	3	45.5	0.114705	8765	
-20174.1	744865	-51.6078	1.07125	-870.188	0.112819	0.324226	1.03299	0.34851	0.655882	3	45.5	0.021054	8766	
-31562.2	697168	-55.969	2.19204	-755.091	0.0065647	0.254749	1.03299	0.34851	0.655882	0.0001	45.5	0.0263102	8767	
-31562.2	697168	-55.969	2.19204	-755.091	0.0065647	0.254749	1.03299	0.34851	0.655882	3	45.5	0.0263102	8767	
-25237.3	706846	-75.2165	2.33899	-761.106	0.0291367	0.235874	0.993198	0.349787	0.651995	3	91	0.0263102	8767	
-30579	721163	4.9225	1.7907	-728.804	0.720596	0.275065	1.03299	0.34851	0.655882	3	45.5	0.00401874	8768	
-27470.6	480799	-291.386	3.07646	-826.318	0.693022	0.29569	1.03299	0.34851	0.655882	0.0001	45.5	0.124208	8769	
-27470.6	480799	-291.386	3.07646	-826.318	0.693022	0.29569	1.03299	0.34851	0.655882	3	45.5	0.124208	8769	
-24650.3	619128	-75.7738	1.87373	-927.135	-0.0163995	0.290914	1.03299	0.34851	0.655882	3	45.5	0.0375185	8770	
-30619.3	597062	-151.256	2.46325	-786.914	0.828104	0.251965	1.03299	0.34851	0.655882	0.0001	45.5	0.0580964	8771	
-30619.3	597062	-151.256	2.46325	-786.914	0.828104	0.251965	1.03299	0.34851	0.655882	3	45.5	0.0580964	8771	
-23967	638374	-182.419	2.7708	-919.945	0.98736	0.240576	0.993198	0.349787	0.651995	3	91	0.0580964	8771	
-9886.33	66719.8	-0.497297	3.23102	-921.777	-0.038263	0.190428	1.03299	0.34851	0.655882	0.0001	45.5	0.0434929	8773	
-14505.5	389783	-376.347	1.61975	-766.786	0.0814376	0.625003	1.03299	0.34851	0.655882	3	45.5	0.231675	8774	
-10650.2	404685	-412.94	1.73425	-795.069	0.0950032	0.626912	0.993198	0.349787	0.651995	0.0001	91	0.231675	8774	
-10650.2	404685	-412.94	1.73425	-795.069	0.0950032	0.626912	0.993198	0.349787	0.651995	3	91	0.231675	8774	
-14816.9	720665	-285.184	0.700106	-636.315	-0.00159242	0.444615	1.03299	0.34851	0.655882	3	45.5	0.103289	8775	
-18567.4	496873	-327.071	1.82443	-807.617	0.0191243	0.490993	1.03299	0.34851	0.655882	3	45.5	0.162555	8776	
-30339.9	577316	-258.825	2.84562	-739.683	-0.00390618	0.303166	1.03299	0.34851	0.655882	0.0001	45.5	0.109883	8777	
-30339.9	577316	-258.825	2.84562	-739.683	-0.00390618	0.303166	1.03299	0.34851	0.655882	3	45.5	0.109883	8777	
-25409.9	537482	-387.836	2.9984	-1146.44	-0.0431599	0.465189	1.03299	0.34851	0.655882	3	45.5	0.175001	8778	
-16952.4	562435	-455.524	3.26096	-1177.07	-0.000127193	0.48347	0.993198	0.349787	0.651995	0.0001	91	0.175001	8778	
-16952.4	562435	-455.524	3.26096	-1177.07	-0.000127193	0.48347	0.993198	0.349787	0.651995	3	91	0.175001	8778	
-22432.1	958180	-358.65	0.944957	-664.539	0.410385	0.451811	1.03299	0.34851	0.655882	3	45.5	0.0911005	8781	
-14759.1	432369	-85.7578	1.23766	-1015.3	0.496963	0.332562	1.03299	0.34851	0.655882	3	45.5	0.050756	8782	
-15642.9	342299	-184.292	3.58224	-889.371	0.504765	0.209099	0.993198	0.349787	0.651995	3	91	0.0899927	8784	
-5935.44	100369	-192.49	3.42472	-856.396	-0.0523903	0.257047	1.03299	0.34851	0.655882	0.0001	45.5	0.182088	8786	
-5935.44	100369	-192.49	3.42472	-856.396	-0.0523903	0.257047	1.03299	0.34851	0.655882	3	45.5	0.182088	8786	
-3972.39	113829	-238.398	3.73281	-873.245	0.00386994	0.272943	0.993198	0.349787	0.651995	0.0001	91	0.182088	8786	
-3972.39	113829	-238.398	3.73281	-873.245	0.00386994	0.272943	0.993198	0.349787	0.651995	3	91	0.182088	8786	
-1334.77	128965	-293.347	4.10111	-905.733	0.0713319	0.308173	0.958125	0.351078	0.648177	0.0001	182	0.182088	8786	
-1334.77	128965	-293.347	4.10111	-905.733	0.0713319	0.308173	0.958125	0.351078	0.648177	3	182	0.182088	8786	
-12327.6	182072	-58.2157	3.81941	-607.037	0.0763477	0.151911	0.993198	0.349787	0.651995	3	91	0.0416118	8787	
-3958.92	69704.1	-178.227	2.92168	-1015.64	-0.00129809	0.31885	1.03299	0.34851	0.655882	0.0001	45.5	0.237	8788	
-3958.92	69704.1	-178.227	2.92168	-1015.64	-0.00129809	0.31885	1.03299	0.34851	0.655882	3	45.5	0.237	8788	
-2638.79	88724.3	-221.445	3.16677	-1034.63	0.039403	0.322981	0.993198	0.349787	0.651995	0.0001	91	0.237	8788	
-2638.79	88724.3	-221.445	3.16677	-1034.63	0.039403	0.322981	0.993198	0.349787	0.651995	3	91	0.237	8788	
-711.41	109360	-272.257	3.45105	-1066.55	0.0880393	0.341722	0.958125	0.351078	0.648177	0.0001	182	0.237	8788	
-711.41	109360	-272.257	3.45105	-1066.55	0.0880393	0.341722	0.958125	0.351078	0.648177	3	182	0.237	8788	
-35745.3	824391	-110.6	2.18327	-795.281	-0.0206374	0.265523	1.03299	0.34851	0.655882	0.0001	45.5	0.0395885	8789	
-35745.3	824391	-110.6	2.18327	-795.281	-0.0206374	0.265523	1.03299	0.34851	0.655882	3	45.5	0.0395885	8789	
-28196.8	834142	-134.217	2.32653	-801.32	0.00169034	0.247119	0.993198	0.349787	0.651995	3	91	0.0395885	8789	
-10005	159622	-189.739	3.01272	-801.94	0.469793	0.290222	1.03299	0.34851	0.655882	0.0001	45.5	0.162863	8790	
-10005	159622	-189.739	3.01272	-801.94	0.469793	0.290222	1.03299	0.34851	0.655882	3	45.5	0.162863	8790	
-7498.36	176908	-230.305	3.35688	-887.604	0.555517	0.296248	0.993198	0.349787	0.651995	0.0001	91	0.162863	8790	
-7498.36	176908	-230.305	3.35688	-887.604	0.555517	0.296248	0.993198	0.349787	0.651995	3	91	0.162863	8790	
-4132.21	199327	-281.869	3.77965	-1002.53	0.670178	0.32114	0.958125	0.351078	0.648177	0.0001	182	0.162863	8790	
-4132.21	199327	-281.869	3.77965	-1002.53	0.670178	0.32114	0.958125	0.351078	0.648177	3	182	0.162863	8790	
-22159.4	887588	-242.454	1.11365	-778.97	0.174701	0.386471	1.03299	0.34851	0.655882	3	45.5	0.0704998	8791	
-13924.5	412386	-257.015	1.47002	-951.313	0.438681	0.449534	1.03299	0.34851	0.655882	3	45.5	0.145218	8792	
-6885.43	475138	-318.359	1.73116	-1134.54	0.535344	0.422199	0.958125	0.351078	0.648177	3	182	0.145218	8792	
-12060.7	546070	-335.908	0.553255	-633.964	0.428236	0.523306	1.03299	0.34851	0.655882	3	45.5	0.148871	8793	
-35963.5	763604	-372.815	2.77167	-1060.35	-0.033808	0.39516	1.03299	0.34851	0.655882	0.0001	45.5	0.128888	8794	
-35963.5	763604	-372.815	2.77167	-1060.35	-0.033808	0.39516	1.03299	0.34851	0.655882	3	45.5	0.128888	8794	
-25632.2	784451	-431.622	2.99642	-1088.15	0.00271716	0.400785	0.993198	0.349787	0.651995	0.0001	91	0.128888	8794	
-25632.2	784451	-431.622	2.99642	-1088.15	0.00271716	0.400785	0.993198	0.349787	0.651995	3	91	0.128888	8794	
-27111.7	623049	-132.377	3.45546	-1081.02	0.00270039	0.166213	0.993198	0.349787	0.651995	3	91	0.0483985	8795	
-17735.3	558558	-383.883	3.08377	-1171.92	0.114731	0.421297	0.993198	0.349787	0.651995	0.0001	91	0.147431	8796	
-17735.3	558558	-383.883	3.08377	-1171.92	0.114731	0.421297	0.993198	0.349787	0.651995	3	91	0.147431	8796	
-22424.1	478418	-112.583	3.42513	-742.411	0.0861747	0.170411	0.993198	0.349787	0.651995	3	91	0.0479382	8798	
-28639.9	766208	-133.826	1.64221	-690.712	0.770547	0.311898	1.03299	0.34851	0.655882	3	45.5	0.0414303	8800	
-11364.1	384909	-337.48	1.17989	-1003.97	0.218737	0.597694	1.03299	0.34851	0.655882	3	45.5	0.216794	8801	
-12131.5	504487	-240.512	0.933433	-994.79	-0.00356828	0.442143	1.03299	0.34851	0.655882	3	45.5	0.123146	8805	
-13367.8	840193	-323.028	0.520086	-742.385	0.0539395	0.457977	1.03299	0.34851	0.655882	3	45.5	0.0995269	8806	
-30860.8	707197	-278.649	2.32238	-887.727	0.18412	0.352722	1.03299	0.34851	0.655882	0.0001	45.5	0.0999993	8807	
-30860.8	707197	-278.649	2.32238	-887.727	0.18412	0.352722	1.03299	0.34851	0.655882	3	45.5	0.0999993	8807	
-23189.9	729731	-318.663	2.51545	-935.47	0.216085	0.343845	0.993198	0.349787	0.651995	0.0001	91	0.0999993	8807	
-23189.9	729731	-318.663	2.51545	-935.47	0.216085	0.343845	0.993198	0.349787	0.651995	3	91	0.0999993	8807	
-17965.2	323447	-401.863	3.16016	-662.161	0.639372	0.461956	1.03299	0.34851	0.655882	0.0001	45.5	0.213649	8812	
-17965.2	323447	-401.863	3.16016	-662.161	0.639372	0.461956	1.03299	0.34851	0.655882	3	45.5	0.213649	8812	
-11843.2	347240	-461.575	3.585	-779.935	0.766689	0.487031	0.993198	0.349787	0.651995	0.0001	91	0.213649	8812	
-11843.2	347240	-461.575	3.585	-779.935	0.766689	0.487031	0.993198	0.349787	0.651995	3	91	0.213649	8812	
-3762.11	380332	-538.927	4.13058	-946.282	0.946585	0.536372	0.958125	0.351078	0.648177	0.0001	182	0.213649	8812	
-3762.11	380332	-538.927	4.13058	-946.282	0.946585	0.536372	0.958125	0.351078	0.648177	3	182	0.213649	8812	
-11423.5	327380	-178.18	1.29192	-1067.68	0.0893414	0.408643	1.03299	0.34851	0.655882	3	45.5	0.132919	8814	
-29113.4	595401	-157.863	2.6264	-970.436	-0.0315738	0.261546	1.03299	0.34851	0.655882	3	45.5	0.0719782	8815	
-22270	610903	-193.848	2.82101	-980.623	0.00101245	0.253425	0.993198	0.349787	0.651995	3	91	0.0719782	8815	
-18533.9	614118	-347.151	1.50193	-945.034	-0.00859363	0.502766	1.03299	0.34851	0.655882	3	45.5	0.146256	8816	
-6570.97	510006	-361.424	0.0159285	-880.83	0.802878	0.561871	1.03299	0.34851	0.655882	3	45.5	0.164814	8817	
-18596.6	843101	-231.995	0.911402	-731.712	0.0369769	0.391512	1.03299	0.34851	0.655882	3	45.5	0.0722885	8818	
-35454.9	582537	-381.382	3.40167	-831.2	0.532668	0.320623	1.03299	0.34851	0.655882	0.0001	45.5	0.141051	8819	
-35454.9	582537	-381.382	3.40167	-831.2	0.532668	0.320623	1.03299	0.34851	0.655882	3	45.5	0.141051	8819	
-25272.6	615974	-446.728	3.83807	-952.966	0.64436	0.342137	0.993198	0.349787	0.651995	0.0001	91	0.141051	8819	
-25272.6	615974	-446.728	3.83807	-952.966	0.64436	0.342137	0.993198	0.349787	0.651995	3	91	0.141051	8819	
-12174.5	661701	-531.587	4.39421	-1123.21	0.800092	0.389135	0.958125	0.351078	0.648177	0.0001	182	0.141051	8819	
-12174.5	661701	-531.587	4.39421	-1123.21	0.800092	0.389135	0.958125	0.351078	0.648177	3	182	0.141051	8819	
-16532.7	430369	-148.272	1.46866	-642.373	0.640845	0.346542	1.03299	0.34851	0.655882	3	45.5	0.077524	8820	
-12889.6	649494	-188.122	0.708653	-1007.14	0.685254	0.381036	1.03299	0.34851	0.655882	3	45.5	0.0671712	8821	
-31124.5	553891	-338.042	3.30441	-859.489	-0.0525537	0.333205	1.03299	0.34851	0.655882	0.0001	45.5	0.14501	8823	
-31124.5	553891	-338.042	3.30441	-859.489	-0.0525537	0.333205	1.03299	0.34851	0.655882	3	45.5	0.14501	8823	
-10032.7	181135	-171.485	1.67353	-665.385	-0.0129088	0.41456	1.03299	0.34851	0.655882	3	45.5	0.193399	8825	
-7790.94	93279.8	-134.732	3.47215	-867.441	-0.00255542	0.210352	1.03299	0.34851	0.655882	0.0001	45.5	0.13328	8828	
-7790.94	93279.8	-134.732	3.47215	-867.441	-0.00255542	0.210352	1.03299	0.34851	0.655882	3	45.5	0.13328	8828	
-6150.27	106854	-176.131	3.79345	-885.812	0.0554141	0.225074	0.993198	0.349787	0.651995	0.0001	91	0.13328	8828	
-6150.27	106854	-176.131	3.79345	-885.812	0.0554141	0.225074	0.993198	0.349787	0.651995	3	91	0.13328	8828	
-3911.3	122014	-226.104	4.17916	-919.637	0.126332	0.25982	0.958125	0.351078	0.648177	0.0001	182	0.13328	8828	
-3911.3	122014	-226.104	4.17916	-919.637	0.126332	0.25982	0.958125	0.351078	0.648177	3	182	0.13328	8828	
-22373.8	447870	-215.677	2.65058	-869.799	0.0895725	0.315971	1.03299	0.34851	0.655882	3	45.5	0.11302	8829	
-16881.9	464202	-254.59	2.87152	-901.795	0.12481	0.312452	0.993198	0.349787	0.651995	0.0001	91	0.11302	8829	
-9831.89	540958	-421.765	0.326441	-817.069	0.0768791	0.662585	1.03299	0.34851	0.655882	3	45.5	0.205278	8831	
-18432.7	603259	-328.749	1.43427	-879.465	0.234739	0.479353	1.03299	0.34851	0.655882	3	45.5	0.135181	8832	
-11494.2	199509	-71.5993	1.50577	-653.499	0.596162	0.325278	1.03299	0.34851	0.655882	3	45.5	0.0750121	8833	
-23957.1	782486	-450.872	1.43584	-809.773	0.00591659	0.573364	1.03299	0.34851	0.655882	0.0001	45.5	0.150817	8834	
-23957.1	782486	-450.872	1.43584	-809.773	0.00591659	0.573364	1.03299	0.34851	0.655882	3	45.5	0.150817	8834	
-26236.3	739679	-284.428	1.85708	-941.971	-0.00902493	0.402204	1.03299	0.34851	0.655882	3	45.5	0.101635	8836	
-8943.48	171374	-246.79	2.37619	-657.908	0.035722	0.44474	1.03299	0.34851	0.655882	3	45.5	0.243301	8838	
-6660.21	180555	-280.434	2.56214	-680.204	0.0628466	0.444369	0.993198	0.349787	0.651995	0.0001	91	0.243301	8838	
-3847.41	191117	-318.983	2.77175	-709.843	0.0950164	0.454887	0.958125	0.351078	0.648177	0.0001	182	0.243301	8838	
-3847.41	191117	-318.983	2.77175	-709.843	0.0950164	0.454887	0.958125	0.351078	0.648177	3	182	0.243301	8838	
-12320.3	283863	-212.709	1.73906	-821.427	0.175317	0.425659	1.03299	0.34851	0.655882	3	45.5	0.166899	8840	
-4616.72	267563	-234.716	1.48671	-1561.08	1.00444	0.417596	0.9175	0.352806	0.64323	3	455	0.246561	8841	
-10261.3	204557	-234.753	2.57392	-940.307	0.0114047	0.412842	1.03299	0.34851	0.655882	0.0001	45.5	0.212747	8842	
-10261.3	204557	-234.753	2.57392	-940.307	0.0114047	0.412842	1.03299	0.34851	0.655882	3	45.5	0.212747	8842	
-15551.6	456547	-227.595	1.34403	-745.341	0.647836	0.40747	1.03299	0.34851	0.655882	3	45.5	0.112425	8847	
-19278.4	489966	-273.119	1.76315	-671.526	0.359005	0.42214	1.03299	0.34851	0.655882	3	45.5	0.12933	8848	
-13347.1	252589	-259.862	3.60175	-1116.93	-0.0530539	0.302746	1.03299	0.34851	0.655882	0.0001	45.5	0.183517	8849	
-13347.1	252589	-259.862	3.60175	-1116.93	-0.0530539	0.302746	1.03299	0.34851	0.655882	3	45.5	0.183517	8849	
-8523.24	275374	-324.023	3.94484	-1141.83	0.00944848	0.328206	0.993198	0.349787	0.651995	0.0001	91	0.183517	8849	
-8523.24	275374	-324.023	3.94484	-1141.83	0.00944848	0.328206	0.993198	0.349787	0.651995	3	91	0.183517	8849	
-2261.86	301765	-401.834	4.36117	-1189.9	0.0853655	0.375753	0.958125	0.351078	0.648177	0.0001	182	0.183517	8849	
-2261.86	301765	-401.834	4.36117	-1189.9	0.0853655	0.375753	0.958125	0.351078	0.648177	3	182	0.183517	8849	
-26656.8	662075	-241.878	3.48672	-1109.68	0.0548277	0.214741	0.993198	0.349787	0.651995	3	91	0.0807861	8850	
-8366.49	124874	-156.329	2.35498	-931.816	-0.0221883	0.362904	1.03299	0.34851	0.655882	0.0001	45.5	0.199132	8852	
-8366.49	124874	-156.329	2.35498	-931.816	-0.0221883	0.362904	1.03299	0.34851	0.655882	3	45.5	0.199132	8852	
-17328.8	843928	-396.67	0.968859	-1033.43	0.305688	0.506192	1.03299	0.34851	0.655882	3	45.5	0.117381	8853	
-29675.8	823166	-35.3739	1.63173	-850.109	0.0461093	0.297889	1.03299	0.34851	0.655882	3	45.5	0.0160441	8856	
-8090.94	-8728.61	1.2836	2.19822	-741.861	0.104161	0.291153	1.03299	0.34851	0.655882	0.0001	45.5	0.044133	8857	
-11719.3	341459	-274.951	1.34755	-903.76	-0.00842076	0.520153	1.03299	0.34851	0.655882	3	45.5	0.198693	8858	
-14721.2	565905	-247.744	1.01068	-764.082	-0.00422466	0.432196	1.03299	0.34851	0.655882	3	45.5	0.113323	8860	
-4941.55	55200.1	-143.521	2.33636	-875.885	0.31047	0.338131	1.03299	0.34851	0.655882	0.0001	45.5	0.246097	8862	
-4941.55	55200.1	-143.521	2.33636	-875.885	0.31047	0.338131	1.03299	0.34851	0.655882	3	45.5	0.246097	8862	
-4168.43	70887.6	-173.867	2.54826	-933.435	0.354007	0.328682	0.993198	0.349787	0.651995	0.0001	91	0.246097	8862	
-4168.43	70887.6	-173.867	2.54826	-933.435	0.354007	0.328682	0.993198	0.349787	0.651995	3	91	0.246097	8862	
-2997.9	89423.3	-210.218	2.79215	-1005.08	0.408115	0.330531	0.958125	0.351078	0.648177	0.0001	182	0.246097	8862	
-2997.9	89423.3	-210.218	2.79215	-1005.08	0.408115	0.330531	0.958125	0.351078	0.648177	3	182	0.246097	8862	
-582.238	120256	-270.936	3.18339	-1130.85	0.502701	0.351769	0.9175	0.352806	0.64323	0.0001	455	0.246097	8862	
-582.238	120256	-270.936	3.18339	-1130.85	0.502701	0.351769	0.9175	0.352806	0.64323	3	455	0.246097	8862	
-25282.7	697538	-36.9674	1.56183	-654.398	0.143879	0.298471	1.03299	0.34851	0.655882	3	45.5	0.0173204	8864	
-25602.1	803947	-35.981	1.35495	-754.941	0.145218	0.309141	1.03299	0.34851	0.655882	3	45.5	0.0150635	8865	
-8357.84	12015.5	0.143086	2.33842	-713.886	0.0200483	0.276408	1.03299	0.34851	0.655882	0.0001	45.5	0.0412617	8866	
-8357.84	12015.5	0.143086	2.33842	-713.886	0.0200483	0.276408	1.03299	0.34851	0.655882	3	45.5	0.0412617	8866	
-23452.5	537869	-422.988	2.33294	-838.216	0.0891746	0.560313	1.03299	0.34851	0.655882	3	45.5	0.189064	8867	
-16509.3	556454	-475.064	2.52893	-880.855	0.116758	0.569786	0.993198	0.349787	0.651995	0.0001	91	0.189064	8867	
-16509.3	556454	-475.064	2.52893	-880.855	0.116758	0.569786	0.993198	0.349787	0.651995	3	91	0.189064	8867	
-8092.09	578769	-535.159	2.75183	-934.989	0.150123	0.590907	0.958125	0.351078	0.648177	0.0001	182	0.189064	8867	
-15551.6	862461	-406.558	0.492387	-565.218	0.327977	0.512762	1.03299	0.34851	0.655882	3	45.5	0.115647	8868	
-14877.5	506198	-234.07	1.25706	-997.127	0.683429	0.411151	1.03299	0.34851	0.655882	3	45.5	0.106289	8869	
-9308.4	536221	-431.02	0.370659	-936.63	0.1312	0.678178	1.03299	0.34851	0.655882	3	45.5	0.210317	8871	
-12781.7	238402	-279.316	3.15522	-875.265	0.704558	0.343344	1.03299	0.34851	0.655882	0.0001	45.5	0.185689	8872	
-12781.7	238402	-279.316	3.15522	-875.265	0.704558	0.343344	1.03299	0.34851	0.655882	3	45.5	0.185689	8872	
-8544.84	265274	-333.419	3.58124	-1017.68	0.848798	0.358553	0.993198	0.349787	0.651995	0.0001	91	0.185689	8872	
-8544.84	265274	-333.419	3.58124	-1017.68	0.848798	0.358553	0.993198	0.349787	0.651995	3	91	0.185689	8872	
-2721.49	303215	-405.403	4.13213	-1221.84	1.05558	0.397356	0.958125	0.351078	0.648177	0.0001	182	0.185689	8872	
-2721.49	303215	-405.403	4.13213	-1221.84	1.05558	0.397356	0.958125	0.351078	0.648177	3	182	0.185689	8872	
-22222.4	782988	-88.183	1.29112	-1151.8	-0.00602021	0.324123	1.03299	0.34851	0.655882	3	45.5	0.0339116	8873	
-25546.8	962432	-74.9658	1.1805	-1067.93	0.108749	0.323308	1.03299	0.34851	0.655882	3	45.5	0.0235743	8874	
-7657.67	66640.4	-98.4648	3.12054	-819.512	0.28955	0.227783	1.03299	0.34851	0.655882	0.0001	45.5	0.111702	8879	
-7657.67	66640.4	-98.4648	3.12054	-819.512	0.28955	0.227783	1.03299	0.34851	0.655882	3	45.5	0.111702	8879	
-2125.9	124604	-248.797	4.49459	-1080.23	0.589182	0.320864	0.9175	0.352806	0.64323	0.0001	455	0.111702	8879	
-2125.9	124604	-248.797	4.49459	-1080.23	0.589182	0.320864	0.9175	0.352806	0.64323	3	455	0.111702	8879	
-5556.54	89653.2	-179.655	2.73754	-1054.52	0.3656	0.348604	1.03299	0.34851	0.655882	0.0001	45.5	0.237646	8881	
-5556.54	89653.2	-179.655	2.73754	-1054.52	0.3656	0.348604	1.03299	0.34851	0.655882	3	45.5	0.237646	8881	
-4055.07	113273	-222.832	3.02004	-1138.1	0.426598	0.350442	0.993198	0.349787	0.651995	0.0001	91	0.237646	8881	
-4055.07	113273	-222.832	3.02004	-1138.1	0.426598	0.350442	0.993198	0.349787	0.651995	3	91	0.237646	8881	
-1806.1	142186	-276.31	3.35658	-1246.35	0.505238	0.367524	0.958125	0.351078	0.648177	0.0001	182	0.237646	8881	
-1806.1	142186	-276.31	3.35658	-1246.35	0.505238	0.367524	0.958125	0.351078	0.648177	3	182	0.237646	8881	
-14332.2	482286	-440.026	0.911192	-678.386	0.425098	0.688719	1.03299	0.34851	0.655882	3	45.5	0.219893	8882	
-29542.3	529392	-228.116	2.76371	-625.002	0.63862	0.270075	1.03299	0.34851	0.655882	0.0001	45.5	0.0920516	8883	
-29542.3	529392	-228.116	2.76371	-625.002	0.63862	0.270075	1.03299	0.34851	0.655882	3	45.5	0.0920516	8883	
-16278.7	675590	-27.9785	0.788832	-729.32	0.000720006	0.330777	1.03299	0.34851	0.655882	3	45.5	0.0133016	8884	
-39113.3	917923	-316.085	2.33358	-942.059	-0.00911624	0.357353	1.03299	0.34851	0.655882	0.0001	45.5	0.0939263	8886	
-39113.3	917923	-316.085	2.33358	-942.059	-0.00911624	0.357353	1.03299	0.34851	0.655882	3	45.5	0.0939263	8886	
-29218.4	934568	-359.735	2.50188	-964.072	0.016533	0.348807	0.993198	0.349787	0.651995	3	91	0.0939263	8886	
-16169.8	336876	-227.89	2.69842	-1105.37	0.0660117	0.355272	1.03299	0.34851	0.655882	3	45.5	0.149227	8887	
-11695.2	360895	-274.715	2.92556	-1138.73	0.101794	0.355918	0.993198	0.349787	0.651995	3	91	0.149227	8887	
-19956.9	324997	-114.038	3.04835	-815.387	0.102005	0.214642	1.03299	0.34851	0.655882	0.0001	45.5	0.0782325	8890	
-15593	338525	-147.509	3.32154	-842.659	0.14895	0.215878	0.993198	0.349787	0.651995	3	91	0.0782325	8890	
-15675.8	340591	-229.696	2.42863	-986.216	-0.0274978	0.380941	1.03299	0.34851	0.655882	3	45.5	0.152514	8892	
-29677.3	699867	-221.876	2.12395	-883.45	0.53477	0.322718	1.03299	0.34851	0.655882	0.0001	45.5	0.0767669	8893	
-29677.3	699867	-221.876	2.12395	-883.45	0.53477	0.322718	1.03299	0.34851	0.655882	3	45.5	0.0767669	8893	
-22847.8	736605	-255.609	2.33601	-981.332	0.607958	0.30765	0.993198	0.349787	0.651995	3	91	0.0767669	8893	
-10152.8	942345	-446.836	0.32287	-957.278	0.0374113	0.544409	1.03299	0.34851	0.655882	3	45.5	0.122854	8894	
-14819.9	320853	-145.821	1.90675	-729.535	-0.0107524	0.341059	1.03299	0.34851	0.655882	3	45.5	0.105825	8895	
-12792	223966	-86.0695	2.11647	-1085.24	0.45374	0.300964	1.03299	0.34851	0.655882	3	45.5	0.0859993	8896	
-19118.6	369377	-75.4447	3.93498	-1020.28	0.0403562	0.123226	0.993198	0.349787	0.651995	0.0001	91	0.0409982	8900	
-19118.6	369377	-75.4447	3.93498	-1020.28	0.0403562	0.123226	0.993198	0.349787	0.651995	3	91	0.0409982	8900	
-14382.3	907773	-184.608	0.613299	-999.792	0.126357	0.371785	1.03299	0.34851	0.655882	3	45.5	0.0525304	8901	
-10422.9	108299	-62.2186	2.9706	-819.686	0.144713	0.225094	1.03299	0.34851	0.655882	3	45.5	0.0813846	8905	
-9041.31	121067	-90.8619	3.24039	-847.954	0.191431	0.224707	0.993198	0.349787	0.651995	0.0001	91	0.0813846	8905	
-21671.1	777133	-282.236	1.37242	-952.532	0.116821	0.414995	1.03299	0.34851	0.655882	3	45.5	0.0944193	8906	
-32195.8	630478	-355.18	2.83306	-863.275	0.227511	0.38027	1.03299	0.34851	0.655882	0.0001	45.5	0.13494	8907	
-32195.8	630478	-355.18	2.83306	-863.275	0.227511	0.38027	1.03299	0.34851	0.655882	3	45.5	0.13494	8907	
-23331.1	654130	-408.997	3.10967	-928.624	0.276182	0.38701	0.993198	0.349787	0.651995	0.0001	91	0.13494	8907	
-23720.1	898893	-191.318	1.13451	-657.273	0.252295	0.358647	1.03299	0.34851	0.655882	3	45.5	0.0543518	8908	
-7350.32	167562	-303.656	3.35202	-704.73	0.0968212	0.368802	1.03299	0.34851	0.655882	0.0001	45.5	0.237452	8909	
-7350.32	167562	-303.656	3.35202	-704.73	0.0968212	0.368802	1.03299	0.34851	0.655882	3	45.5	0.237452	8909	
-3881.09	179504	-355.501	3.68975	-749.487	0.153604	0.390836	0.993198	0.349787	0.651995	0.0001	91	0.237452	8909	
-3881.09	179504	-355.501	3.68975	-749.487	0.153604	0.390836	0.993198	0.349787	0.651995	3	91	0.237452	8909	
570.597	194527	-418.791	4.09765	-812.276	0.225635	0.433584	0.958125	0.351078	0.648177	0.0001	182	0.237452	8909	
570.597	194527	-418.791	4.09765	-812.276	0.225635	0.433584	0.958125	0.351078	0.648177	3	182	0.237452	8909	
-18049.2	401450	-178.614	2.14012	-797.17	-0.0215203	0.338918	1.03299	0.34851	0.655882	3	45.5	0.107066	8911	
-27812.7	619030	-313.224	2.23463	-608.753	-0.0222599	0.409549	1.03299	0.34851	0.655882	3	45.5	0.126237	8912	
-21233.8	626303	-348.595	2.39301	-627.855	0.00124927	0.402857	0.993198	0.349787	0.651995	3	91	0.126237	8912	
-22069.8	529513	-363.908	2.14985	-813.087	0.13964	0.495908	1.03299	0.34851	0.655882	3	45.5	0.165109	8913	
-16072.5	547891	-407.253	2.32437	-855.825	0.16525	0.495081	0.993198	0.349787	0.651995	3	91	0.165109	8913	
-23001.2	432812	-229.561	2.90714	-958.059	0.350638	0.297712	1.03299	0.34851	0.655882	0.0001	45.5	0.117327	8914	
-23001.2	432812	-229.561	2.90714	-958.059	0.350638	0.297712	1.03299	0.34851	0.655882	3	45.5	0.117327	8914	
-16979.8	459259	-276.296	3.21073	-1038.49	0.414662	0.300725	0.993198	0.349787	0.651995	0.0001	91	0.117327	8914	
-16979.8	459259	-276.296	3.21073	-1038.49	0.414662	0.300725	0.993198	0.349787	0.651995	3	91	0.117327	8914	
-29403.7	650584	-316.479	2.47845	-914.037	0.137561	0.383534	1.03299	0.34851	0.655882	0.0001	45.5	0.121518	8916	
-29403.7	650584	-316.479	2.47845	-914.037	0.137561	0.383534	1.03299	0.34851	0.655882	3	45.5	0.121518	8916	
-21616	672180	-362.484	2.68812	-959.826	0.17056	0.380753	0.993198	0.349787	0.651995	3	91	0.121518	8916	
-8607.2	153669	-194.341	2.50336	-1012.33	-0.0266793	0.390986	1.03299	0.34851	0.655882	3	45.5	0.216698	8917	
-34392.4	906926	-83.3049	1.78642	-855.872	0.322983	0.285634	1.03299	0.34851	0.655882	3	45.5	0.0268845	8919	
-16396.3	482452	-192.841	1.4919	-1000.9	0.696667	0.372272	1.03299	0.34851	0.655882	3	45.5	0.0918488	8920	
-12078.3	209085	-121.363	2.38601	-1082.25	0.0308086	0.312367	1.03299	0.34851	0.655882	3	45.5	0.120537	8923	
-10471.7	265622	-247.942	1.31281	-842.705	-0.00753708	0.522574	1.03299	0.34851	0.655882	3	45.5	0.225431	8924	
-10835.4	673950	-412.945	0.653304	-1103.56	0.051262	0.584684	1.03299	0.34851	0.655882	3	45.5	0.159313	8925	
-5764.19	152593	-151.485	2.102	-1210.64	0.0403915	0.297296	0.9175	0.352806	0.64323	3	455	0.150113	8930	
-11535.7	304389	-146.148	1.41643	-1177.46	0.0229195	0.380471	1.03299	0.34851	0.655882	3	45.5	0.11758	8932	
-22169.6	536613	-387.87	2.55823	-1158.91	-0.0224083	0.511118	1.03299	0.34851	0.655882	3	45.5	0.178611	8934	
-14808.5	562711	-447.788	2.76476	-1186.82	0.0086717	0.521216	0.993198	0.349787	0.651995	0.0001	91	0.178611	8934	
-14808.5	562711	-447.788	2.76476	-1186.82	0.0086717	0.521216	0.993198	0.349787	0.651995	3	91	0.178611	8934	
-16125	307017	-7.43994	1.93385	-750.656	0.0287751	0.278782	1.03299	0.34851	0.655882	3	45.5	0.01814	8937	
-18921.4	306981	-133.691	2.85405	-666.085	0.560824	0.234988	1.03299	0.34851	0.655882	0.0001	45.5	0.0839326	8938	
-18921.4	306981	-133.691	2.85405	-666.085	0.560824	0.234988	1.03299	0.34851	0.655882	3	45.5	0.0839326	8938	
-14957.1	325296	-163.712	3.18207	-745.565	0.659193	0.232744	0.993198	0.349787	0.651995	0.0001	91	0.0839326	8938	
-14957.1	325296	-163.712	3.18207	-745.565	0.659193	0.232744	0.993198	0.349787	0.651995	3	91	0.0839326	8938	
-17528.4	832261	-209.272	0.922939	-1044.27	0.453042	0.376783	1.03299	0.34851	0.655882	3	45.5	0.0618065	8941	
-19655.5	376231	-347.864	2.76601	-733.573	0.574551	0.436101	1.03299	0.34851	0.655882	0.0001	45.5	0.180592	8942	
-19655.5	376231	-347.864	2.76601	-733.573	0.574551	0.436101	1.03299	0.34851	0.655882	3	45.5	0.180592	8942	
-13944.9	401330	-398.092	3.09839	-839.444	0.673383	0.446319	0.993198	0.349787	0.651995	0.0001	91	0.180592	8942	
-13944.9	401330	-398.092	3.09839	-839.444	0.673383	0.446319	0.993198	0.349787	0.651995	3	91	0.180592	8942	
-12931.7	458516	-390.932	0.879222	-716.983	0.00249082	0.65332	1.03299	0.34851	0.655882	3	45.5	0.22089	8945	
-19302.5	860959	-238.08	0.892627	-631.699	0.119185	0.392338	1.03299	0.34851	0.655882	3	45.5	0.0713215	8946	
-17420.4	295964	-210.865	3.572	-1059.7	-0.0490828	0.239157	1.03299	0.34851	0.655882	0.0001	45.5	0.140054	8947	
-17420.4	295964	-210.865	3.572	-1059.7	-0.0490828	0.239157	1.03299	0.34851	0.655882	3	45.5	0.140054	8947	
-12272.6	315723	-267.302	3.90373	-1079.93	0.0122353	0.259146	0.993198	0.349787	0.651995	0.0001	91	0.140054	8947	
-12272.6	315723	-267.302	3.90373	-1079.93	0.0122353	0.259146	0.993198	0.349787	0.651995	3	91	0.140054	8947	
-5809.24	338675	-335.424	4.3043	-1120.76	0.0864173	0.300249	0.958125	0.351078	0.648177	0.0001	182	0.140054	8947	
-5809.24	338675	-335.424	4.3043	-1120.76	0.0864173	0.300249	0.958125	0.351078	0.648177	3	182	0.140054	8947	
-29600.5	664465	-138.547	2.21427	-736.532	0.0523681	0.280943	1.03299	0.34851	0.655882	0.0001	45.5	0.0561844	8949	
-29600.5	664465	-138.547	2.21427	-736.532	0.0523681	0.280943	1.03299	0.34851	0.655882	3	45.5	0.0561844	8949	
-23323.3	675786	-163.344	2.37131	-753.16	0.0760808	0.264323	0.993198	0.349787	0.651995	3	91	0.0561844	8949	
-8003.55	9244.48	-13.5635	2.5634	-816.081	0.0773704	0.26481	1.03299	0.34851	0.655882	3	45.5	0.0545183	8950	
-16725.4	397601	-375.868	2.2946	-877.244	-0.00648003	0.565849	1.03299	0.34851	0.655882	3	45.5	0.2189	8951	
-11547.3	413829	-424.279	2.47302	-903.137	0.0184536	0.574839	0.993198	0.349787	0.651995	3	91	0.2189	8951	
-17340.9	581182	-395.376	1.19745	-701.581	0.0666717	0.577719	1.03299	0.34851	0.655882	3	45.5	0.172999	8953	
-16559.2	847766	-92.5501	0.665905	-929.733	0.807015	0.341331	1.03299	0.34851	0.655882	3	45.5	0.0257295	8954	
-30189	703992	-131.846	2.16402	-913.34	0.109702	0.281558	1.03299	0.34851	0.655882	0.0001	45.5	0.0522133	8955	
-30189	703992	-131.846	2.16402	-913.34	0.109702	0.281558	1.03299	0.34851	0.655882	3	45.5	0.0522133	8955	
-13794.1	305265	-236.495	1.89177	-652.162	0.042023	0.431911	1.03299	0.34851	0.655882	3	45.5	0.171386	8956	
-11337.1	482025	-309.429	0.82595	-951.956	0.682639	0.505153	1.03299	0.34851	0.655882	3	45.5	0.1488	8958	
-7862.83	86316.1	-124.845	2.02567	-607.189	0.0706385	0.348419	1.03299	0.34851	0.655882	0.0001	45.5	0.186845	8959	
-12300.6	412196	-318.91	1.95265	-767.557	0.258062	0.45672	0.993198	0.349787	0.651995	3	91	0.166564	8960	
-10108.9	145876	-109.194	1.87614	-645.448	-0.0164093	0.3405	1.03299	0.34851	0.655882	3	45.5	0.135911	8961	
-8786.28	30515.7	-2.52774	2.05047	-577.258	0.449072	0.287689	1.03299	0.34851	0.655882	3	45.5	0.0341682	8962	
-14543.9	550375	-128.217	0.998762	-1057.08	0.487663	0.353216	1.03299	0.34851	0.655882	3	45.5	0.0576246	8963	
-7900.34	402858	-371.436	0.200101	-953.605	0.512323	0.668739	1.03299	0.34851	0.655882	0.0001	45.5	0.235352	8964	
-7900.34	402858	-371.436	0.200101	-953.605	0.512323	0.668739	1.03299	0.34851	0.655882	3	45.5	0.235352	8964	
-19775.7	445031	-85.1659	1.92597	-627.376	0.0160957	0.293237	1.03299	0.34851	0.655882	3	45.5	0.0502379	8965	
-20720.7	607006	-156.503	1.5308	-818.109	0.266448	0.340307	1.03299	0.34851	0.655882	3	45.5	0.0656118	8966	
-14236.7	343552	-271.034	2.96082	-618.627	0.646997	0.327216	0.993198	0.349787	0.651995	0.0001	91	0.135088	8967	
-14236.7	343552	-271.034	2.96082	-618.627	0.646997	0.327216	0.993198	0.349787	0.651995	3	91	0.135088	8967	
-4059	51360.3	-175.842	3.29994	-1046.93	1.02034	0.275646	0.958125	0.351078	0.648177	0.0001	182	0.0539405	8968	
-4059	51360.3	-175.842	3.29994	-1046.93	1.02034	0.275646	0.958125	0.351078	0.648177	3	182	0.0539405	8968	
-2160.17	91245.4	-250.282	4.01454	-1372.53	1.39531	0.318397	0.9175	0.352806	0.64323	0.0001	455	0.0539405	8968	
-2160.17	91245.4	-250.282	4.01454	-1372.53	1.39531	0.318397	0.9175	0.352806	0.64323	3	455	0.0539405	8968	
-4065.88	250668	-325.205	2.61338	-1054.48	0.177453	0.467957	0.958125	0.351078	0.648177	3	182	0.229688	8969	
-25954.2	511924	-361.647	3.16925	-1113.89	0.184359	0.397051	1.03299	0.34851	0.655882	0.0001	45.5	0.162562	8970	
-25954.2	511924	-361.647	3.16925	-1113.89	0.184359	0.397051	1.03299	0.34851	0.655882	3	45.5	0.162562	8970	
-17511.5	542422	-429.503	3.49546	-1186.88	0.240089	0.415465	0.993198	0.349787	0.651995	0.0001	91	0.162562	8970	
-17511.5	542422	-429.503	3.49546	-1186.88	0.240089	0.415465	0.993198	0.349787	0.651995	3	91	0.162562	8970	
-21253.8	731005	-298.892	1.45622	-977.484	0.145955	0.430135	1.03299	0.34851	0.655882	3	45.5	0.105193	8971	
-32527.1	716704	-222.731	2.24357	-715.058	0.440846	0.308567	1.03299	0.34851	0.655882	0.0001	45.5	0.0754719	8973	
-25246.2	744416	-254.115	2.4589	-785.386	0.499922	0.295025	0.993198	0.349787	0.651995	3	91	0.0754719	8973	
-15338.1	754510	-200.231	0.761545	-756.953	-0.00109533	0.384816	1.03299	0.34851	0.655882	3	45.5	0.0698582	8975	
-7080.23	48948.4	-92.5609	2.24647	-922.751	-0.0237828	0.319849	1.03299	0.34851	0.655882	0.0001	45.5	0.173503	8976	
-7080.23	48948.4	-92.5609	2.24647	-922.751	-0.0237828	0.319849	1.03299	0.34851	0.655882	3	45.5	0.173503	8976	
-9854.37	149307	-154.142	2.27305	-633.351	0.00653757	0.346256	1.03299	0.34851	0.655882	0.0001	45.5	0.167333	8977	
-11124.8	144852	-25.697	1.8879	-839.518	0.152058	0.294677	1.03299	0.34851	0.655882	3	45.5	0.0495911	8978	
-22770.7	498585	-96.7333	2.08917	-1014.64	0.722989	0.279867	1.03299	0.34851	0.655882	3	45.5	0.0496183	8979	
-12566.9	329340	-169.87	1.42238	-866.303	0.00794813	0.391801	1.03299	0.34851	0.655882	3	45.5	0.125536	8980	
-22378.1	737697	-372.666	1.4526	-931.154	0.605774	0.478841	1.03299	0.34851	0.655882	3	45.5	0.118637	8983	
-20075	835887	-27.7556	0.870373	-664.13	0.232362	0.32733	1.03299	0.34851	0.655882	3	45.5	0.0103996	8984	
-14381.4	409639	-240.242	1.33848	-670.24	0.184471	0.439518	1.03299	0.34851	0.655882	3	45.5	0.140762	8985	
-29302	530169	-408.356	3.35441	-940.719	0.167838	0.411227	1.03299	0.34851	0.655882	0.0001	45.5	0.173629	8986	
-29302	530169	-408.356	3.35441	-940.719	0.167838	0.411227	1.03299	0.34851	0.655882	3	45.5	0.173629	8986	
-19904.6	554398	-478.768	3.71166	-1012.28	0.22869	0.437064	0.993198	0.349787	0.651995	0.0001	91	0.173629	8986	
-8112.18	585892	-565.718	4.14683	-1110.79	0.30755	0.484781	0.958125	0.351078	0.648177	0.0001	182	0.173629	8986	
-8112.18	585892	-565.718	4.14683	-1110.79	0.30755	0.484781	0.958125	0.351078	0.648177	3	182	0.173629	8986	
-20258.3	945453	-325.879	0.941069	-863.293	0.387304	0.433265	1.03299	0.34851	0.655882	3	45.5	0.0848128	8988	
-13295	514304	-439.191	0.937587	-869.942	0.00399254	0.697705	1.03299	0.34851	0.655882	0.0001	45.5	0.223156	8990	
-13295	514304	-439.191	0.937587	-869.942	0.00399254	0.697705	1.03299	0.34851	0.655882	3	45.5	0.223156	8990	
-5151.66	586284	-257.208	0.178648	-1098.31	0.0897433	0.38954	0.958125	0.351078	0.648177	3	182	0.112671	8992	
-22125.5	493844	1.2894	1.93592	-1186.95	0.0237124	0.274493	1.03299	0.34851	0.655882	3	45.5	0.0138802	8993	
-21162.4	946840	-67.2844	0.828202	-625.948	0.446568	0.332261	1.03299	0.34851	0.655882	3	45.5	0.0183978	8995	
-14251.4	314915	-112.242	1.58534	-649.513	0.570811	0.331511	1.03299	0.34851	0.655882	0.0001	45.5	0.0783671	8996	
-14251.4	314915	-112.242	1.58534	-649.513	0.570811	0.331511	1.03299	0.34851	0.655882	3	45.5	0.0783671	8996	
-25478.7	621439	-43.9712	2.73193	-767.719	0.231104	0.204072	0.993198	0.349787	0.651995	3	91	0.0175889	8997	
-12854.8	232271	-188.561	2.60021	-823.342	0.120616	0.335778	1.03299	0.34851	0.655882	3	45.5	0.153166	8998	
-13097.7	917447	-274.647	0.387541	-635.523	0.763644	0.40661	1.03299	0.34851	0.655882	3	45.5	0.066689	8999	
