-7925.75, 31579.8, -46.1488, 2.42096, -999.141, 0.0972846, 0.285398, 1.03299, 0.34851, 0.655882, 0.0001, 45.5, 246, 27.3059, 0.101488, 0, 0, 1, 0, 1.76329e-05, 182507
-7925.75, 31579.8, -46.1488, 2.42096, -999.141, 0.0972846, 0.285398, 1.03299, 0.34851, 0.655882, 3, 45.5, 246, 27.3059, 0.101488, 0, 0, 1, 1, -1.17026e-05, 182507
-10036.9, 185667, -222.633, 1.91884, -603.969, 0.471442, 0.441447, 1.03299, 0.34851, 0.655882, 0.0001, 45.5, 246, 40.3318, 0.214848, 0, 0, 1, 0, -3.73961e-05, 182512
-7238.2, 653423, -294.413, 0.0920262, -809.905, 0.321672, 0.46196, 1.03299, 0.34851, 0.655882, 0.0001, 45.5, 246, 30.3705, 0.110598, 0, 0, 0, 0, 4.53903e-05, 182514
-5395.93, 706635, -314.117, 0.101274, -903.205, 0.358165, 0.412725, 0.958125, 0.351078, 0.648177, 0.0001, 182, 246, 30.3705, 0.110598, 0, 0, 0, 0, 2.40753e-05, 182514
-9625.26, 305703, -90.5416, 0.863482, -965.41, 0.312534, 0.320962, 0.993198, 0.349787, 0.651995, 0.0001, 91, 246, 22.9902, 0.0694976, 0, 0, 1, 0, -4.36211e-06, 182516
-6681.97, -23888.4, -14.7716, 3.09722, -914.057, 0.713519, 0.226748, 1.03299, 0.34851, 0.655882, 0.0001, 45.5, 246, 21.2972, 0.0212844, 0, 0, 1, 0, -5.19606e-06, 182519
-10757.7, 298918, -281.073, 1.39504, -1000.4, 0.633332, 0.532697, 1.03299, 0.34851, 0.655882, 0.0001, 45.5, 246, 43.2047, 0.210745, 0, 0, 0, 0, -1.68786e-05, 182526
-10757.7, 298918, -281.073, 1.39504, -1000.4, 0.633332, 0.532697, 1.03299, 0.34851, 0.655882, 3, 45.5, 246, 43.2047, 0.210745, 0, 0, 0, 0, -2.94008e-05, 182526
-10831.1, 231004, -109.193, 1.48795, -1168.8, 0.00419549, 0.359515, 1.03299, 0.34851, 0.655882, 0.0001, 45.5, 246, 30.4698, 0.112327, 0, 0, 1, 0, -3.61211e-06, 182532
-10831.1, 231004, -109.193, 1.48795, -1168.8, 0.00419549, 0.359515, 1.03299, 0.34851, 0.655882, 3, 45.5, 246, 30.4698, 0.112327, 0, 0, 1, 0, -7.03426e-06, 182532
-9344.31, 255216, -131.377, 1.57087, -1175.35, 0.0144762, 0.335211, 0.993198, 0.349787, 0.651995, 3, 91, 246, 30.4698, 0.112327, 0, 0, 1, 0, -3.30254e-06, 182532
-7474.09, 280070, -155.665, 1.65782, -1185.2, 0.0259785, 0.31706, 0.958125, 0.351078, 0.648177, 3, 182, 246, 30.4698, 0.112327, 0, 0, 1, 0, 7.31446e-06, 182532
-4913.62, 202370, -165.678, 3.08521, -771.258, 0.477531, 0.279399, 0.9175, 0.352806, 0.64323, 3, 455, 246, 22.1577, 0.0886774, 0, 0, 1, 0, -1.67758e-05, 182538
-7728.2, 29733.2, -54.8553, 2.76635, -1196.1, 0.00356883, 0.269429, 0.993198, 0.349787, 0.651995, 0.0001, 91, 246, 24.0382, 0.085041, 0, 0, 1, 1, -5.90298e-06, 182542
-9633.79, 628510, -324.353, 0.228976, -648.481, 0.678567, 0.48341, 1.03299, 0.34851, 0.655882, 3, 45.5, 246, 28.3349, 0.118872, 0, 0, 0, 0, -0.00022199, 182543
-8962.28, 88952.8, -87.1872, 3.63733, -978.935, -0.0618864, 0.171415, 1.03299, 0.34851, 0.655882, 0.0001, 45.5, 246, 30.7662, 0.101146, 0, 0, 0, 0, -1.86198e-05, 182547
-8962.28, 88952.8, -87.1872, 3.63733, -978.935, -0.0618864, 0.171415, 1.03299, 0.34851, 0.655882, 3, 45.5, 246, 30.7662, 0.101146, 0, 0, 0, 0, 7.49684e-06, 182547
-7423.47, 105343, -129.517, 3.97009, -984.952, 0.00170371, 0.189598, 0.993198, 0.349787, 0.651995, 0.0001, 91, 246, 30.7662, 0.101146, 0, 0, 1, 0, -1.81021e-05, 182547
-7423.47, 105343, -129.517, 3.97009, -984.952, 0.00170371, 0.189598, 0.993198, 0.349787, 0.651995, 3, 91, 246, 30.7662, 0.101146, 0, 0, 1, 0, 8.22396e-06, 182547
-1061.21, 150054, -267.645, 5.06449, -1075.13, 0.21104, 0.321707, 0.9175, 0.352806, 0.64323, 0.0001, 455, 246, 30.7662, 0.101146, 1.05937, 1, 0, 0, 1.47988e-06, 182547
-1061.21, 150054, -267.645, 5.06449, -1075.13, 0.21104, 0.321707, 0.9175, 0.352806, 0.64323, 3, 455, 246, 30.7662, 0.101146, 1.06157, 1, 0, 0, -2.22852e-05, 182547
-3077.15, 127910, -237.561, 3.56447, -1228.19, 0.0975872, 0.318865, 0.958125, 0.351078, 0.648177, 0.0001, 182, 246, 45.3835, 0.185478, 1.09982, 1, 1, 0, -9.64816e-06, 182549
-6876.93, 118410, -142.519, 3.66843, -677.063, 0.662761, 0.242691, 0.958125, 0.351078, 0.648177, 3, 182, 246, 24.6105, 0.0883737, 0, 0, 1, 0, 7.94918e-05, 182550
-9810.36, 179682, -172.31, 1.60653, -721.876, -0.00367734, 0.424315, 1.03299, 0.34851, 0.655882, 3, 45.5, 246, 37.0471, 0.200715, 0, 0, 1, 0, 9.68701e-06, 182556
-8440.46, 189273, -193.394, 1.70221, -730.094, 0.00833587, 0.406914, 0.993198, 0.349787, 0.651995, 0.0001, 91, 246, 37.0471, 0.200715, 0, 0, 1, 0, -1.27239e-06, 182556
-11545.2, 326645, -164.872, 1.03043, -684.166, -0.00339327, 0.402812, 1.03299, 0.34851, 0.655882, 0.0001, 45.5, 246, 27.2564, 0.125372, 0, 0, 1, 0, -1.0847e-05, 182558
-11545.2, 326645, -164.872, 1.03043, -684.166, -0.00339327, 0.402812, 1.03299, 0.34851, 0.655882, 3, 45.5, 246, 27.2564, 0.125372, 0, 0, 1, 0, 9.83455e-06, 182558
-8197.37, -15813.9, 12.3733, 2.03205, -884.408, 0.425175, 0.299922, 1.03299, 0.34851, 0.655882, 0.0001, 45.5, 246, 6.66942, 0.0531223, 0, 0, 1, 0, -4.68604e-06, 182560
-8197.37, -15813.9, 12.3733, 2.03205, -884.408, 0.425175, 0.299922, 1.03299, 0.34851, 0.655882, 3, 45.5, 246, 6.66942, 0.0531223, 0, 0, 1, 0, 6.69163e-06, 182560
-10267.8, 148715, -64.9469, 1.64974, -949.346, -0.0105732, 0.328364, 1.03299, 0.34851, 0.655882, 0.0001, 45.5, 246, 24.1557, 0.0953898, 0, 0, 1, 0, -2.60574e-05, 182565
-10267.8, 148715, -64.9469, 1.64974, -949.346, -0.0105732, 0.328364, 1.03299, 0.34851, 0.655882, 3, 45.5, 246, 24.1557, 0.0953898, 0, 0, 1, 0, 1.05168e-05, 182565
-12291.4, 190107, -7.41379, 1.81881, -1126.23, 0.0487439, 0.293656, 1.03299, 0.34851, 0.655882, 0.0001, 45.5, 246, 18.4918, 0.0330065, 0, 0, 1, 0, 4.65446e-06, 182570
-12291.4, 190107, -7.41379, 1.81881, -1126.23, 0.0487439, 0.293656, 1.03299, 0.34851, 0.655882, 3, 45.5, 246, 18.4918, 0.0330065, 0, 0, 1, 0, 5.07797e-06, 182570
-10922.9, 212806, -27.0298, 1.93335, -1137.19, 0.0646963, 0.270029, 0.993198, 0.349787, 0.651995, 3, 91, 246, 18.4918, 0.0330065, 0, 0, 1, 0, -1.19201e-05, 182570
-9173.88, 236349, -49.2563, 2.05634, -1152.51, 0.0830165, 0.253866, 0.958125, 0.351078, 0.648177, 0.0001, 182, 246, 18.4918, 0.0330065, 0, 0, 1, 0, 4.32928e-07, 182570
-8257.14, 142128, -230.355, 3.28936, -633.675, 0.226395, 0.28434, 1.03299, 0.34851, 0.655882, 0.0001, 45.5, 246, 44.4612, 0.185073, 1.14694, 1, 0, 0, 3.64832e-05, 182571
-5650.92, 152386, -271.883, 3.63384, -683.19, 0.289335, 0.298302, 0.993198, 0.349787, 0.651995, 0.0001, 91, 246, 44.4612, 0.185073, 1.14604, 1, 1, 0, 2.67937e-05, 182571
-2302.73, 165394, -323.141, 4.05148, -750.362, 0.371091, 0.332546, 0.958125, 0.351078, 0.648177, 0.0001, 182, 246, 44.4612, 0.185073, 1.59937, 1, 1, 0, 6.24799e-07, 182571
-2302.73, 165394, -323.141, 4.05148, -750.362, 0.371091, 0.332546, 0.958125, 0.351078, 0.648177, 3, 182, 246, 44.4612, 0.185073, 1.41639, 1, 1, 0, 5.13977e-06, 182571
-11928.7, 200371, -0.635865, 2.60767, -1063.46, 0.550688, 0.232179, 0.993198, 0.349787, 0.651995, 0.0001, 91, 246, 14.3955, 0.01369, 0, 0, 1, 0, -1.41887e-05, 182576
-11928.7, 200371, -0.635865, 2.60767, -1063.46, 0.550688, 0.232179, 0.993198, 0.349787, 0.651995, 3, 91, 246, 14.3955, 0.01369, 0, 0, 1, 0, -4.29951e-05, 182576
-11522.8, 272582, -264.957, 1.30823, -572.308, 0.259387, 0.524038, 1.03299, 0.34851, 0.655882, 3, 45.5, 246, 38.1058, 0.219007, 0, 0, 1, 0, -9.19597e-06, 182583
-9469.03, 200875, -198.078, 1.62554, -1066.38, 0.00334295, 0.465476, 1.03299, 0.34851, 0.655882, 0.0001, 45.5, 246, 42.7593, 0.22129, 0, 0, 0, 0, 3.47881e-06, 182598
-9469.03, 200875, -198.078, 1.62554, -1066.38, 0.00334295, 0.465476, 1.03299, 0.34851, 0.655882, 3, 45.5, 246, 42.7593, 0.22129, 0, 0, 0, 0, 9.25127e-06, 182598
-8611.3, -1721.12, -0.825892, 1.91897, -1060.73, 0.288137, 0.289063, 0.993198, 0.349787, 0.651995, 0.0001, 91, 246, 4.77975, 0.0569016, 0, 0, 1, 1, -4.42432e-06, 182602
-8611.3, -1721.12, -0.825892, 1.91897, -1060.73, 0.288137, 0.289063, 0.993198, 0.349787, 0.651995, 3, 91, 246, 4.77975, 0.0569016, 0, 0, 1, 1, -1.09298e-05, 182602
-7128.34, 517682, -391.513, 0.0841761, -937.379, 0.137967, 0.630835, 1.03299, 0.34851, 0.655882, 0.0001, 45.5, 246, 41.3476, 0.19876, 0, 0, 0, 0, -3.07964e-05, 182603
-10597, 358676, -239.512, 0.862703, -829.575, 0.0424234, 0.483876, 1.03299, 0.34851, 0.655882, 0.0001, 45.5, 246, 35.0481, 0.16966, 0, 0, 0, 0, -9.12289e-07, 182610
-10597, 358676, -239.512, 0.862703, -829.575, 0.0424234, 0.483876, 1.03299, 0.34851, 0.655882, 3, 45.5, 246, 35.0481, 0.16966, 0, 0, 0, 0, 1.69697e-05, 182610
-9214.65, 194043, -263.23, 3.31562, -1090.61, -0.00718749, 0.364719, 1.03299, 0.34851, 0.655882, 3, 45.5, 246, 50.6475, 0.21941, 0, 0, 0, 0, -6.86271e-06, 182611
-5545.27, 216705, -322.696, 3.62579, -1120.56, 0.0456824, 0.384858, 0.993198, 0.349787, 0.651995, 0.0001, 91, 246, 50.6475, 0.21941, 1.09931, 1, 1, 0, -1.0001e-05, 182611
-672.473, 242640, -394.289, 3.99657, -1170.35, 0.110278, 0.424283, 0.958125, 0.351078, 0.648177, 0.0001, 182, 246, 50.6475, 0.21941, 0, 0, 0, 0, -1.23594e-05, 182611
-672.473, 242640, -394.289, 3.99657, -1170.35, 0.110278, 0.424283, 0.958125, 0.351078, 0.648177, 3, 182, 246, 50.6475, 0.21941, 4.52915, 1, 0, 0, 3.75797e-06, 182611
-11914.1, 292665, -145.822, 1.26502, -680.033, -0.00132719, 0.382129, 1.03299, 0.34851, 0.655882, 0.0001, 45.5, 246, 26.4404, 0.119785, 0, 0, 1, 0, -1.96748e-06, 182614
-6448.92, 634643, -389.638, 0.0408559, -934.856, -2.67201e-06, 0.574292, 1.03299, 0.34851, 0.655882, 0.0001, 45.5, 246, 38.2672, 0.161524, 0, 0, 0, 0, 0.00319561, 182628
-5141.43, 652751, -403.215, 0.0422432, -935.29, 4.90808e-06, 0.558028, 0.993198, 0.349787, 0.651995, 3, 91, 246, 38.2672, 0.161524, 0, 0, 1, 0, -0.00288129, 182628
-8114.66, 666485, -363.326, 0.128981, -781.914, 0.00395415, 0.533384, 1.03299, 0.34851, 0.655882, 3, 45.5, 246, 33.5559, 0.142741, 0, 0, 0, 0, 0.000170214, 182629
-5237.02, 693294, -389.783, 0.137759, -785.561, 0.00411562, 0.497244, 0.958125, 0.351078, 0.648177, 3, 182, 246, 33.5559, 0.142741, 0, 0, 0, 0, -0.000154736, 182629
-11785.6, 319153, -100.538, 1.14386, -974.757, -0.000343102, 0.353642, 1.03299, 0.34851, 0.655882, 0.0001, 45.5, 246, 25.7663, 0.0806756, 0, 0, 1, 0, 1.60749e-05, 182634
-11785.6, 319153, -100.538, 1.14386, -974.757, -0.000343102, 0.353642, 1.03299, 0.34851, 0.655882, 3, 45.5, 246, 25.7663, 0.0806756, 0, 0, 1, 0, -2.01758e-05, 182634
-5423.52, 490253, -372.943, 0.0356798, -1090.53, 0.738815, 0.589154, 0.993198, 0.349787, 0.651995, 0.0001, 91, 246, 40.8722, 0.194686, 0, 0, 1, 0, 3.07316e-05, 182635
-10206.6, 420369, -264.986, 0.919017, -1148.93, 0.196761, 0.489457, 1.03299, 0.34851, 0.655882, 0.0001, 45.5, 246, 39.4578, 0.157169, 0, 0, 0, 0, 2.20777e-05, 182636
-10206.6, 420369, -264.986, 0.919017, -1148.93, 0.196761, 0.489457, 1.03299, 0.34851, 0.655882, 3, 45.5, 246, 39.4578, 0.157169, 0, 0, 0, 0, 1.36958e-05, 182636
-400.501, 178524, -289.703, 5.28985, -1159.34, 1.02911, 0.333725, 0.9175, 0.352806, 0.64323, 0.0001, 455, 246, 30.4483, 0.104269, 1.25183, 1, 0, 0, -1.83334e-05, 182641
-400.501, 178524, -289.703, 5.28985, -1159.34, 1.02911, 0.333725, 0.9175, 0.352806, 0.64323, 3, 455, 246, 30.4483, 0.104269, 1.26375, 1, 0, 0, -7.59067e-05, 182641
-10642.9, 74532.8, 26.0316, 3.42792, -1061.77, 0.0187088, 0.161647, 1.03299, 0.34851, 0.655882, 0.0001, 45.5, 246, 13.3331, 0.031317, 0, 0, 0, 0, -4.79902e-06, 182645
-10642.9, 74532.8, 26.0316, 3.42792, -1061.77, 0.0187088, 0.161647, 1.03299, 0.34851, 0.655882, 3, 45.5, 246, 13.3331, 0.031317, 0, 0, 0, 0, -5.58297e-06, 182645
-9531.26, 482705, -224.143, 0.463132, -854.343, 0.00328576, 0.440429, 1.03299, 0.34851, 0.655882, 0.0001, 45.5, 246, 30.6472, 0.120635, 0, 0, 0, 0, 5.3983e-05, 182648
-9531.26, 482705, -224.143, 0.463132, -854.343, 0.00328576, 0.440429, 1.03299, 0.34851, 0.655882, 3, 45.5, 246, 30.6472, 0.120635, 0, 0, 0, 0, 2.41816e-05, 182648
-9265.5, 368537, -321.344, 0.453744, -812.975, 0.652353, 0.592558, 1.03299, 0.34851, 0.655882, 0.0001, 45.5, 246, 39.6757, 0.211233, 0, 0, 0, 0, 1.6041e-05, 182650
-9265.5, 368537, -321.344, 0.453744, -812.975, 0.652353, 0.592558, 1.03299, 0.34851, 0.655882, 3, 45.5, 246, 39.6757, 0.211233, 0, 0, 0, 0, 1.8833e-05, 182650
-6784.01, 7532.21, -43.6544, 3.25862, -976.066, -0.0495341, 0.215947, 1.03299, 0.34851, 0.655882, 0.0001, 45.5, 246, 27.9298, 0.0644454, 0, 0, 1, 1, 1.19212e-05, 182651
-6784.01, 7532.21, -43.6544, 3.25862, -976.066, -0.0495341, 0.215947, 1.03299, 0.34851, 0.655882, 3, 45.5, 246, 27.9298, 0.0644454, 0, 0, 1, 1, 3.83042e-06, 182651
-4549.8, 884329, -284.022, 0.096181, -1157.2, 0.178552, 0.391811, 0.993198, 0.349787, 0.651995, 0.0001, 91, 246, 34.5507, 0.0793325, 0, 0, 1, 0, -7.39405e-06, 182661
-5973.1, 54259.6, -121.178, 3.15608, -1086.91, 0.00714707, 0.262459, 0.993198, 0.349787, 0.651995, 3, 91, 246, 38.5704, 0.124017, 0, 0, 1, 1, -6.12426e-07, 182668
-2726.89, 106021, -234.228, 3.86269, -1151.39, 0.133492, 0.319615, 0.9175, 0.352806, 0.64323, 0.0001, 455, 246, 38.5704, 0.124017, 1.13991, 1, 1, 0, -4.57893e-06, 182668
-2726.89, 106021, -234.228, 3.86269, -1151.39, 0.133492, 0.319615, 0.9175, 0.352806, 0.64323, 3, 455, 246, 38.5704, 0.124017, 1.13759, 1, 1, 0, 8.42379e-06, 182668
-8667.58, 60249.9, -54.7107, 1.14983, -883.111, 0.161916, 0.359017, 1.03299, 0.34851, 0.655882, 0.0001, 45.5, 246, 27.7646, 0.170001, 0, 0, 1, 0, 2.58292e-06, 182669
-8667.58, 60249.9, -54.7107, 1.14983, -883.111, 0.161916, 0.359017, 1.03299, 0.34851, 0.655882, 3, 45.5, 246, 27.7646, 0.170001, 0, 0, 1, 0, 1.01844e-05, 182669
-9968.42, 615615, -256.059, 0.394509, -810.611, 0.492081, 0.434023, 1.03299, 0.34851, 0.655882, 0.0001, 45.5, 246, 29.0489, 0.0991362, 0, 0, 0, 0, 3.40296e-05, 182672
-6378.8, 576191, -317.222, 0.130478, -1005.29, 0.838903, 0.486959, 1.03299, 0.34851, 0.655882, 0.0001, 45.5, 246, 35.3672, 0.123761, 0, 0, 0, 0, 0.000191026, 182673
-6378.8, 576191, -317.222, 0.130478, -1005.29, 0.838903, 0.486959, 1.03299, 0.34851, 0.655882, 3, 45.5, 246, 35.3672, 0.123761, 0, 0, 0, 0, -2.62777e-05, 182673
-10726.8, 92087, -9.05145, 3.21327, -1167.66, -0.0157179, 0.194219, 1.03299, 0.34851, 0.655882, 0.0001, 45.5, 246, 20.0377, 0.0566213, 0, 0, 0, 0, 8.35214e-06, 182680
-10726.8, 92087, -9.05145, 3.21327, -1167.66, -0.0157179, 0.194219, 1.03299, 0.34851, 0.655882, 3, 45.5, 246, 20.0377, 0.0566213, 0, 0, 0, 0, -9.44582e-06, 182680
-9424.48, 115533, -45.591, 3.48824, -1171.57, 0.033534, 0.19914, 0.993198, 0.349787, 0.651995, 0.0001, 91, 246, 20.0377, 0.0566213, 0, 0, 1, 0, -4.73727e-06, 182680
-9424.48, 115533, -45.591, 3.48824, -1171.57, 0.033534, 0.19914, 0.993198, 0.349787, 0.651995, 3, 91, 246, 20.0377, 0.0566213, 0, 0, 1, 0, 2.16205e-05, 182680
-7522.12, 139909, -89.0404, 3.81165, -1189.58, 0.0925524, 0.220885, 0.958125, 0.351078, 0.648177, 3, 182, 246, 20.0377, 0.0566213, 0, 0, 1, 0, -6.18072e-06, 182680
-10639.7, 235517, -112.152, 1.24438, -967.044, 0.283286, 0.366701, 1.03299, 0.34851, 0.655882, 0.0001, 45.5, 246, 28.1398, 0.110536, 0, 0, 1, 0, -3.04641e-06, 182681
-9395.61, 256614, -129.329, 1.32807, -1017.13, 0.304162, 0.339822, 0.993198, 0.349787, 0.651995, 0.0001, 91, 246, 28.1398, 0.110536, 0, 0, 1, 0, 1.62359e-05, 182681
-11423.5, 298495, -264.121, 1.45757, -840.559, -0.00627289, 0.517327, 1.03299, 0.34851, 0.655882, 0.0001, 45.5, 246, 40.932, 0.211923, 0, 0, 0, 0, 1.03382e-05, 182688
-11423.5, 298495, -264.121, 1.45757, -840.559, -0.00627289, 0.517327, 1.03299, 0.34851, 0.655882, 3, 45.5, 246, 40.932, 0.211923, 0, 0, 0, 0, 3.05576e-05, 182688
294.336, 372212, -364.304, 2.72351, -1092.43, 0.175545, 0.419957, 0.9175, 0.352806, 0.64323, 3, 455, 246, 38.4121, 0.167119, 0, 0, 0, 0, 2.51999e-06, 182689
-6448.07, 22142.1, -83.2969, 3.5521, -1083.31, 0.115824, 0.228532, 0.993198, 0.349787, 0.651995, 0.0001, 91, 246, 30.311, 0.0621136, 0, 0, 1, 1, -8.95215e-06, 182692
-6448.07, 22142.1, -83.2969, 3.5521, -1083.31, 0.115824, 0.228532, 0.993198, 0.349787, 0.651995, 3, 91, 246, 30.311, 0.0621136, 0, 0, 1, 1, -9.76146e-06, 182692
-12343.2, 701269, -10.8427, 0.380945, -1182, 0.0262038, 0.33822, 1.03299, 0.34851, 0.655882, 0.0001, 45.5, 246, 25.1626, 0.00610763, 0, 0, 1, 0, -6.67081e-05, 182699
-12343.2, 701269, -10.8427, 0.380945, -1182, 0.0262038, 0.33822, 1.03299, 0.34851, 0.655882, 3, 45.5, 246, 25.1626, 0.00610763, 0, 0, 1, 0, -2.73042e-05, 182699
-11438.5, 726827, -15.3035, 0.394274, -1187.11, 0.0269752, 0.302416, 0.993198, 0.349787, 0.651995, 3, 91, 246, 25.1626, 0.00610763, 0, 0, 1, 0, 1.69066e-06, 182699
-10865, 390964, -215.323, 0.731185, -707.351, -0.00157298, 0.448043, 1.03299, 0.34851, 0.655882, 0.0001, 45.5, 246, 29.9467, 0.141427, 0, 0, 0, 0, -1.41228e-05, 182706
-10865, 390964, -215.323, 0.731185, -707.351, -0.00157298, 0.448043, 1.03299, 0.34851, 0.655882, 3, 45.5, 246, 29.9467, 0.141427, 0, 0, 0, 0, -5.26693e-06, 182706
-8221.73, 316476, -192.103, 1.68866, -799.687, 0.0157835, 0.336639, 0.958125, 0.351078, 0.648177, 3, 182, 246, 28.5971, 0.122042, 0, 0, 1, 0, 7.21648e-07, 182707
-19960.2, 483731, -406.213, 1.83051, -589.005, 0.0387272, 0.593903, 1.03299, 0.34851, 0.655882, 0.0001, 45.5, 246, 38.7298, 0.201965, 2.33058, 1, 0, 0, 3.69625e-05, 182714
-19960.2, 483731, -406.213, 1.83051, -589.005, 0.0387272, 0.593903, 1.03299, 0.34851, 0.655882, 3, 45.5, 246, 38.7298, 0.201965, 2.36127, 1, 0, 0, 8.69506e-06, 182714
-9109.06, 497721, -295.702, 0.351645, -802.556, 0.576511, 0.49606, 1.03299, 0.34851, 0.655882, 0.0001, 45.5, 246, 32.8493, 0.141498, 0, 0, 0, 0, 5.22674e-05, 182716
-2080.91, 305965, -404.916, 4.06163, -1261.94, 0.361468, 0.40919, 0.958125, 0.351078, 0.648177, 0.0001, 182, 246, 46.7801, 0.193534, 2.79479, 1, 0, 0, 1.06901e-05, 182717
-2080.91, 305965, -404.916, 4.06163, -1261.94, 0.361468, 0.40919, 0.958125, 0.351078, 0.648177, 3, 182, 246, 46.7801, 0.193534, 2.67027, 1, 0, 0, 4.56143e-06, 182717
-8758.66, 65414.6, -60.4453, 3.512, -741.332, -0.00958337, 0.169989, 1.03299, 0.34851, 0.655882, 0.0001, 45.5, 246, 24.1134, 0.0727655, 0, 0, 1, 0, -1.44361e-05, 182718
-8758.66, 65414.6, -60.4453, 3.512, -741.332, -0.00958337, 0.169989, 1.03299, 0.34851, 0.655882, 3, 45.5, 246, 24.1134, 0.0727655, 0, 0, 1, 0, 4.94541e-06, 182718
-6399.63, 85030, -127.849, 4.22143, -772.612, 0.121871, 0.217614, 0.958125, 0.351078, 0.648177, 3, 182, 246, 24.1134, 0.0727655, 0, 0, 1, 0, -4.92047e-07, 182718
-9554.22, 363524, -242.965, 0.749809, -1003.75, 0.1961, 0.488623, 1.03299, 0.34851, 0.655882, 0.0001, 45.5, 246, 37.3108, 0.16792, 0, 0, 0, 0, -9.2451e-06, 182723
-9554.22, 363524, -242.965, 0.749809, -1003.75, 0.1961, 0.488623, 1.03299, 0.34851, 0.655882, 3, 45.5, 246, 37.3108, 0.16792, 0, 0, 0, 0, 7.47587e-06, 182723
-7995.38, 386830, -260.928, 0.791749, -1041.26, 0.205061, 0.466965, 0.993198, 0.349787, 0.651995, 3, 91, 246, 37.3108, 0.16792, 0, 0, 1, 0, -1.73113e-05, 182723
-3378.46, 241400, -335.457, 3.54836, -1023.69, 0.109251, 0.390769, 0.958125, 0.351078, 0.648177, 0.0001, 182, 246, 44.4278, 0.195566, 1.03169, 1, 0, 0, 5.17267e-06, 182724
-9542.56, 142266, -105.379, 1.79454, -1108.99, 0.05362, 0.356872, 1.03299, 0.34851, 0.655882, 0.0001, 45.5, 246, 32.6834, 0.147532, 0, 0, 1, 0, 1.94544e-05, 182727
-9542.56, 142266, -105.379, 1.79454, -1108.99, 0.05362, 0.356872, 1.03299, 0.34851, 0.655882, 3, 45.5, 246, 32.6834, 0.147532, 0, 0, 1, 0, 2.23261e-06, 182727
-8742.88, 82006.4, -4.91741, 0.168548, -954.205, 0.0104121, 0.341978, 1.03299, 0.34851, 0.655882, 0.0001, 45.5, 246, 9.44537, 0.0185981, 0, 0, 1, 0, -3.85153e-05, 182728
-8742.88, 82006.4, -4.91741, 0.168548, -954.205, 0.0104121, 0.341978, 1.03299, 0.34851, 0.655882, 3, 45.5, 246, 9.44537, 0.0185981, 0, 0, 1, 0, -0.000137013, 182728
-6610.05, -11743.5, -17.3067, 3.509, -817.543, 0.0108688, 0.184472, 1.03299, 0.34851, 0.655882, 3, 45.5, 246, 19.2737, 0.0368244, 0, 0, 1, 1, 1.14723e-06, 182733
-10475.1, 352905, -134.572, 0.69202, -785.748, 0.325088, 0.381538, 1.03299, 0.34851, 0.655882, 0.0001, 45.5, 246, 25.0285, 0.0930712, 0, 0, 1, 0, -0.000106926, 182742
-10475.1, 352905, -134.572, 0.69202, -785.748, 0.325088, 0.381538, 1.03299, 0.34851, 0.655882, 3, 45.5, 246, 25.0285, 0.0930712, 0, 0, 1, 0, 3.06996e-05, 182742
-9445.43, 370972, -145.204, 0.733004, -831.139, 0.345041, 0.350575, 0.993198, 0.349787, 0.651995, 0.0001, 91, 246, 25.0285, 0.0930712, 0, 0, 1, 0, 4.70589e-05, 182742
-8203.52, 391276, -156.608, 0.775824, -882.328, 0.36758, 0.324249, 0.958125, 0.351078, 0.648177, 0.0001, 182, 246, 25.0285, 0.0930712, 0, 0, 1, 0, -9.96331e-05, 182742
-11213.2, 353876, -233.73, 0.88048, -717.401, 0.786804, 0.457389, 1.03299, 0.34851, 0.655882, 0.0001, 45.5, 246, 31.3715, 0.147322, 0, 0, 0, 0, 2.83625e-05, 182743
-11213.2, 353876, -233.73, 0.88048, -717.401, 0.786804, 0.457389, 1.03299, 0.34851, 0.655882, 3, 45.5, 246, 31.3715, 0.147322, 0, 0, 0, 0, 1.45888e-05, 182743
-10461.4, -114039, -17.5976, 0.0564236, -1021.46, 0.00368587, 0.348245, 1.03299, 0.34851, 0.655882, 0.0001, 45.5, 246, -78.83, 0.0736843, 0, 0, 1, 0, 6.20066e-05, 182744
-10461.4, -114039, -17.5976, 0.0564236, -1021.46, 0.00368587, 0.348245, 1.03299, 0.34851, 0.655882, 3, 45.5, 246, -78.83, 0.0736843, 0, 0, 1, 0, -0.000115592, 182744
-7382.05, -2535.92, -27.5743, 3.53529, -1094.74, 0.00893637, 0.225321, 0.993198, 0.349787, 0.651995, 3, 91, 246, 15.4296, 0.0574958, 0, 0, 1, 1, -4.09013e-06, 182745
-9481.7, 472702, -89.0941, 0.970053, -1043.98, 0.147601, 0.279112, 0.958125, 0.351078, 0.648177, 3, 182, 246, 23.0713, 0.0420284, 0, 0, 1, 0, 1.43314e-05, 182748
-10295.6, 137764, 4.00963, 1.16977, -1161.7, -0.000719657, 0.323057, 1.03299, 0.34851, 0.655882, 3, 45.5, 246, 14.6503, 0.0206638, 0, 0, 1, 0, 4.12077e-06, 182759
-2833.71, 342334, -440.175, 3.90812, -1111.41, 0.10951, 0.45371, 0.958125, 0.351078, 0.648177, 0.0001, 182, 246, 47.223, 0.201327, 0, 0, 0, 0, 8.75398e-06, 182760
-2833.71, 342334, -440.175, 3.90812, -1111.41, 0.10951, 0.45371, 0.958125, 0.351078, 0.648177, 3, 182, 246, 47.223, 0.201327, 2.95843, 1, 0, 0, -2.54321e-06, 182760
-9543.12, 557020, -170.287, 0.330967, -795.518, 0.784547, 0.383208, 1.03299, 0.34851, 0.655882, 0.0001, 45.5, 246, 24.7769, 0.0686982, 0, 0, 1, 0, 1.28538, 182767
-9543.12, 557020, -170.287, 0.330967, -795.518, 0.784547, 0.383208, 1.03299, 0.34851, 0.655882, 3, 45.5, 246, 24.7769, 0.0686982, 0, 0, 1, 0, 0.000153924, 182767
-8656.38, 595632, -178.692, 0.357669, -909.828, 0.896169, 0.350603, 0.993198, 0.349787, 0.651995, 3, 91, 246, 24.7769, 0.0686982, 0, 0, 1, 0, -5.88103e-05, 182767
-3044.48, 89198, -215.04, 3.85666, -1128.83, 0.000686053, 0.255425, 0.993198, 0.349787, 0.651995, 0.0001, 91, 246, 50.3249, 0.172657, 1.3303, 1, 1, 0, 1.31802e-06, 182778
-3044.48, 89198, -215.04, 3.85666, -1128.83, 0.000686053, 0.255425, 0.993198, 0.349787, 0.651995, 3, 91, 246, 50.3249, 0.172657, 1.13511, 1, 1, 0, 1.17576e-05, 182778
-759.575, 113275, -278.813, 4.24514, -1161.53, 0.072809, 0.294349, 0.958125, 0.351078, 0.648177, 0.0001, 182, 246, 50.3249, 0.172657, 1.94169, 1, 1, 0, 7.45923e-07, 182778
-759.575, 113275, -278.813, 4.24514, -1161.53, 0.072809, 0.294349, 0.958125, 0.351078, 0.648177, 3, 182, 246, 50.3249, 0.172657, 1.7998, 1, 1, 0, -4.60617e-07, 182778
-9115.74, 622416, -217.157, 0.395339, -1025.95, 0.146134, 0.411152, 1.03299, 0.34851, 0.655882, 0.0001, 45.5, 246, 31.486, 0.0879085, 0, 0, 0, 0, -8.45947e-06, 182784
-9115.74, 622416, -217.157, 0.395339, -1025.95, 0.146134, 0.411152, 1.03299, 0.34851, 0.655882, 3, 45.5, 246, 31.486, 0.0879085, 0, 0, 0, 0, 1.0818e-05, 182784
-14727.3, 281786, -65.2297, 3.43551, -995.842, 0.275348, 0.179449, 0.993198, 0.349787, 0.651995, 0.0001, 91, 246, 21.0738, 0.043363, 0, 0, 1, 0, 1.91553e-06, 182786
-14727.3, 281786, -65.2297, 3.43551, -995.842, 0.275348, 0.179449, 0.993198, 0.349787, 0.651995, 3, 91, 246, 21.0738, 0.043363, 0, 0, 1, 0, -1.05134e-05, 182786
-7802.82, 3093.84, -19.6613, 2.46998, -857.927, 0.151584, 0.274992, 1.03299, 0.34851, 0.655882, 0.0001, 45.5, 246, 19.9435, 0.05766, 0, 0, 1, 1, 1.11413e-05, 182788
-7802.82, 3093.84, -19.6613, 2.46998, -857.927, 0.151584, 0.274992, 1.03299, 0.34851, 0.655882, 3, 45.5, 246, 19.9435, 0.05766, 0, 0, 1, 1, 1.09499e-05, 182788
-9544.66, 112156, -27.9139, 1.17628, -1195.96, -0.00626778, 0.33407, 1.03299, 0.34851, 0.655882, 0.0001, 45.5, 246, 19.7281, 0.0664462, 0, 0, 1, 0, 3.48034e-05, 182790
-9544.66, 112156, -27.9139, 1.17628, -1195.96, -0.00626778, 0.33407, 1.03299, 0.34851, 0.655882, 3, 45.5, 246, 19.7281, 0.0664462, 0, 0, 1, 0, 9.42968e-06, 182790
-10126.6, 441766, -381.614, 0.951353, -1185.93, 0.000434719, 0.657677, 1.03299, 0.34851, 0.655882, 3, 45.5, 246, 48.4453, 0.225762, 0, 0, 0, 0, -3.1621e-05, 182791
-4319.32, 81234, -188.092, 3.31382, -1058.98, 0.015705, 0.282226, 1.03299, 0.34851, 0.655882, 0.0001, 45.5, 246, 54.0086, 0.207152, 1.26666, 1, 1, 0, -2.03366e-05, 182793
-4319.32, 81234, -188.092, 3.31382, -1058.98, 0.015705, 0.282226, 1.03299, 0.34851, 0.655882, 3, 45.5, 246, 54.0086, 0.207152, 1.11548, 1, 1, 0, 3.31977e-06, 182793
-2615.56, 102161, -238.998, 3.61979, -1085.44, 0.068676, 0.296235, 0.993198, 0.349787, 0.651995, 0.0001, 91, 246, 54.0086, 0.207152, 1.48963, 1, 1, 0, -3.35712e-06, 182793
-2615.56, 102161, -238.998, 3.61979, -1085.44, 0.068676, 0.296235, 0.993198, 0.349787, 0.651995, 3, 91, 246, 54.0086, 0.207152, 1.32578, 1, 1, 0, 3.02502e-07, 182793
-119.103, 125420, -300.272, 3.98456, -1129.85, 0.133623, 0.328986, 0.958125, 0.351078, 0.648177, 0.0001, 182, 246, 54.0086, 0.207152, 2.31481, 1, 1, 1, 3.67268e-06, 182793
-119.103, 125420, -300.272, 3.98456, -1129.85, 0.133623, 0.328986, 0.958125, 0.351078, 0.648177, 3, 182, 246, 54.0086, 0.207152, 2.17245, 1, 1, 1, 1.28708e-05, 182793
-11134.7, 224056, -245.136, 2.96455, -1074.58, 0.0144548, 0.379595, 1.03299, 0.34851, 0.655882, 0.0001, 45.5, 246, 46.0382, 0.200661, 0, 0, 0, 0, 3.5683e-06, 182798
-2945.29, 270849, -358.113, 3.5277, -1146.13, 0.107655, 0.415316, 0.958125, 0.351078, 0.648177, 0.0001, 182, 246, 46.0382, 0.200661, 1.06634, 1, 0, 0, -1.773e-05, 182798
-10602.5, 369414, -28.6085, 1.50014, -962.686, 0.16075, 0.257671, 0.958125, 0.351078, 0.648177, 3, 182, 246, 16.8378, 0.0138807, 0, 0, 1, 0, -7.3366e-06, 182800
-10299.9, 347866, -177.046, 0.686691, -718.847, 0.00881268, 0.421326, 1.03299, 0.34851, 0.655882, 0.0001, 45.5, 246, 28.132, 0.130229, 0, 0, 1, 0, 8.9666e-06, 182806
-10299.9, 347866, -177.046, 0.686691, -718.847, 0.00881268, 0.421326, 1.03299, 0.34851, 0.655882, 3, 45.5, 246, 28.132, 0.130229, 0, 0, 1, 0, -8.69829e-06, 182806
-9198.45, 357646, -188.946, 0.715654, -723.353, 0.0109867, 0.393442, 0.993198, 0.349787, 0.651995, 0.0001, 91, 246, 28.132, 0.130229, 0, 0, 1, 0, 2.13572e-05, 182806
-10028.6, 608701, -33.8124, 0.32209, -1148.95, 0.000679125, 0.305085, 0.993198, 0.349787, 0.651995, 0.0001, 91, 246, 24.1291, 0.0144147, 0, 0, 1, 0, 4.56158e-05, 182808
-8101.53, 23675.1, -40.8746, 2.4392, -1025.01, 0.0257887, 0.277266, 0.993198, 0.349787, 0.651995, 0.0001, 91, 246, 20.3499, 0.073995, 0, 0, 1, 1, 1.4128e-05, 182813
-8101.53, 23675.1, -40.8746, 2.4392, -1025.01, 0.0257887, 0.277266, 0.993198, 0.349787, 0.651995, 3, 91, 246, 20.3499, 0.073995, 0, 0, 1, 1, -7.04372e-09, 182813
-10183.9, 289563, -39.251, 0.872203, -945.15, 0.00253202, 0.301677, 0.993198, 0.349787, 0.651995, 0.0001, 91, 246, 18.3423, 0.0339638, 0, 0, 1, 0, -3.65775e-05, 182815
-8618.44, 17045.5, -6.61109, 2.12158, -1158.9, 0.302775, 0.282201, 0.993198, 0.349787, 0.651995, 3, 91, 246, 8.88275, 0.0533173, 0, 0, 1, 1, 9.54098e-06, 182828
-10061.2, 555702, -118.24, 0.351145, -754.802, 0.0178029, 0.363706, 1.03299, 0.34851, 0.655882, 0.0001, 45.5, 246, 21.6929, 0.0551319, 0, 0, 1, 0, 9.34464e-06, 182830
-10061.2, 555702, -118.24, 0.351145, -754.802, 0.0178029, 0.363706, 1.03299, 0.34851, 0.655882, 3, 45.5, 246, 21.6929, 0.0551319, 0, 0, 1, 0, -5.35278e-05, 182830
-9312.61, 566482, -124.637, 0.363328, -758.109, 0.0184151, 0.329665, 0.993198, 0.349787, 0.651995, 0.0001, 91, 246, 21.6929, 0.0551319, 0, 0, 1, 0, -1.37012e-05, 182830
-3550.79, 312140, -423.423, 3.05206, -934.578, 0.127174, 0.533583, 0.958125, 0.351078, 0.648177, 0.0001, 182, 246, 47.8367, 0.23307, 1.03526, 1, 0, 0, -1.81766e-05, 182831
-9981.6, 103277, -81.8248, 3.50731, -833.248, -0.0449527, 0.176157, 1.03299, 0.34851, 0.655882, 0.0001, 45.5, 246, 27.3064, 0.0905948, 0, 0, 0, 0, 9.45014e-06, 182835
-9981.6, 103277, -81.8248, 3.50731, -833.248, -0.0449527, 0.176157, 1.03299, 0.34851, 0.655882, 3, 45.5, 246, 27.3064, 0.0905948, 0, 0, 0, 0, 4.51077e-06, 182835
-9470.87, 358224, -113.561, 0.410317, -732.929, 0.142165, 0.373454, 1.03299, 0.34851, 0.655882, 0.0001, 45.5, 246, 22.3002, 0.0803485, 0, 0, 1, 0, -9.9821e-06, 182842
-10672.3, 444364, -288.232, 0.582241, -708.632, 0.171622, 0.514358, 1.03299, 0.34851, 0.655882, 0.0001, 45.5, 246, 33.3584, 0.164629, 0, 0, 0, 0, -2.96784e-05, 182843
-10672.3, 444364, -288.232, 0.582241, -708.632, 0.171622, 0.514358, 1.03299, 0.34851, 0.655882, 3, 45.5, 246, 33.3584, 0.164629, 0, 0, 0, 0, 5.8915e-05, 182843
-11144.2, 234944, -162.13, 1.48733, -733.958, 0.306041, 0.395858, 1.03299, 0.34851, 0.655882, 3, 45.5, 246, 31.0348, 0.14954, 0, 0, 1, 0, 1.58117e-05, 182848
-7991.31, 58257, -80.8358, 1.75858, -654.782, -0.0127485, 0.338519, 1.03299, 0.34851, 0.655882, 0.0001, 45.5, 246, 33.7106, 0.16582, 0, 0, 1, 0, -1.0947e-05, 182849
-7991.31, 58257, -80.8358, 1.75858, -654.782, -0.0127485, 0.338519, 1.03299, 0.34851, 0.655882, 3, 45.5, 246, 33.7106, 0.16582, 0, 0, 1, 0, -1.32022e-05, 182849
-9269.45, 178342, -213.991, 2.38933, -1005.14, 0.250829, 0.414252, 1.03299, 0.34851, 0.655882, 3, 45.5, 246, 45.2551, 0.216509, 0, 0, 0, 0, -1.45745e-05, 182850
-5975.02, 730208, -274.558, 0.0768967, -931.449, 0.416756, 0.401797, 0.993198, 0.349787, 0.651995, 0.0001, 91, 246, 29.7616, 0.0912248, 0, 0, 1, 0, 3.49464e-05, 182856
-8485.77, 167951, -71.3632, 1.38196, -994.056, 0.634931, 0.282286, 0.958125, 0.351078, 0.648177, 0.0001, 182, 246, 19.6416, 0.0766539, 0, 0, 1, 0, 3.49064e-05, 182867
-8485.77, 167951, -71.3632, 1.38196, -994.056, 0.634931, 0.282286, 0.958125, 0.351078, 0.648177, 3, 182, 246, 19.6416, 0.0766539, 0, 0, 1, 0, -1.57082e-05, 182867
-8564.49, 294938, -143.39, 1.96538, -924.396, 0.0167724, 0.2919, 0.958125, 0.351078, 0.648177, 3, 182, 246, 25.8807, 0.0901454, 0, 0, 1, 0, 6.05731e-06, 182878
-5771.95, 418136, -493.613, 3.75988, -887.854, 0.0590066, 0.506658, 0.958125, 0.351078, 0.648177, 0.0001, 182, 246, 44.4553, 0.199705, 1.50127, 1, 0, 0, 8.15041e-07, 182880
-5771.95, 418136, -493.613, 3.75988, -887.854, 0.0590066, 0.506658, 0.958125, 0.351078, 0.648177, 3, 182, 246, 44.4553, 0.199705, 1.74349, 1, 0, 0, 3.13625e-06, 182880
-10265.2, 636070, -223.913, 0.38322, -743.908, -0.00050307, 0.415913, 1.03299, 0.34851, 0.655882, 0.0001, 45.5, 246, 26.584, 0.0915053, 0, 0, 0, 0, 7.6729e-05, 182882
-10265.2, 636070, -223.913, 0.38322, -743.908, -0.00050307, 0.415913, 1.03299, 0.34851, 0.655882, 3, 45.5, 246, 26.584, 0.0915053, 0, 0, 0, 0, 8.28377e-05, 182882
-7531.54, 657447, -245.035, 0.410179, -748.854, 0.00088012, 0.360414, 0.958125, 0.351078, 0.648177, 3, 182, 246, 26.584, 0.0915053, 0, 0, 1, 0, -3.80848e-06, 182882
-9362.78, 452215, -96.0271, 0.453349, -860.682, 0.00329403, 0.32214, 0.993198, 0.349787, 0.651995, 0.0001, 91, 246, 22.0389, 0.0531378, 0, 0, 1, 0, 1.42367e-05, 182884
-7748.73, 862681, -323.46, 0.133728, -832.516, 0.63307, 0.443022, 1.03299, 0.34851, 0.655882, 3, 45.5, 246, 29.6263, 0.0855332, 0, 0, 0, 0, 1.67481e-05, 182889
-9697.79, 140778, -170.433, 3.52209, -866.198, 0.48475, 0.20785, 1.03299, 0.34851, 0.655882, 3, 45.5, 246, 38.1333, 0.140129, 0, 0, 0, 0, 3.67663e-05, 182890
-3502.98, 184906, -279.554, 4.51588, -1097.49, 0.739273, 0.269855, 0.958125, 0.351078, 0.648177, 0.0001, 182, 246, 38.1333, 0.140129, 1.02149, 1, 0, 0, -1.40735e-05, 182890
-12163.7, 147904, -72.7503, 3.28155, -866.61, -0.0471847, 0.193581, 1.03299, 0.34851, 0.655882, 0.0001, 45.5, 246, 24.9158, 0.0818992, 0, 0, 0, 0, -1.67544e-05, 182893
-12163.7, 147904, -72.7503, 3.28155, -866.61, -0.0471847, 0.193581, 1.03299, 0.34851, 0.655882, 3, 45.5, 246, 24.9158, 0.0818992, 0, 0, 0, 0, 6.19566e-06, 182893
-13609.5, 154861, -30.1423, 3.6465, -1103.24, -0.0301703, 0.135578, 1.03299, 0.34851, 0.655882, 0.0001, 45.5, 246, 22.9319, 0.0589529, 0, 0, 0, 0, 2.43021e-06, 182897
-13609.5, 154861, -30.1423, 3.6465, -1103.24, -0.0301703, 0.135578, 1.03299, 0.34851, 0.655882, 3, 45.5, 246, 22.9319, 0.0589529, 0, 0, 0, 0, -6.18927e-06, 182897
-11089.4, 175512, -71.545, 3.98371, -1108.46, 0.033648, 0.152221, 0.993198, 0.349787, 0.651995, 0.0001, 91, 246, 22.9319, 0.0589529, 0, 0, 1, 0, -4.9478e-06, 182897
-11089.4, 175512, -71.545, 3.98371, -1108.46, 0.033648, 0.152221, 0.993198, 0.349787, 0.651995, 3, 91, 246, 22.9319, 0.0589529, 0, 0, 1, 0, -9.98479e-06, 182897
-12229.5, 247987, -50.9006, 1.50788, -1072.39, 0.0351863, 0.319862, 1.03299, 0.34851, 0.655882, 3, 45.5, 246, 22.8076, 0.0575962, 0, 0, 1, 0, 5.47426e-06, 182898
-2471.17, 152038, -275.719, 3.14061, -1154.95, 0.107854, 0.389744, 0.958125, 0.351078, 0.648177, 0.0001, 182, 246, 51.1668, 0.244041, 1.29068, 1, 0, 0, -1.585e-05, 182900
-2471.17, 152038, -275.719, 3.14061, -1154.95, 0.107854, 0.389744, 0.958125, 0.351078, 0.648177, 3, 182, 246, 51.1668, 0.244041, 1.03039, 1, 0, 0, -9.54579e-06, 182900
-11833.9, 384429, -69.1592, 0.853437, -1000.35, 0.00156354, 0.34331, 1.03299, 0.34851, 0.655882, 0.0001, 45.5, 246, 23.1258, 0.0489662, 0, 0, 1, 0, 2.60238e-05, 182914
-11833.9, 384429, -69.1592, 0.853437, -1000.35, 0.00156354, 0.34331, 1.03299, 0.34851, 0.655882, 3, 45.5, 246, 23.1258, 0.0489662, 0, 0, 1, 0, -4.63833e-05, 182914
-15557.5, -178555, -5.2038, 0.724596, -1166.52, 0.0483597, 0.409892, 1.03299, 0.34851, 0.655882, 3, 45.5, 246, -97.402, 0.189771, 0, 0, 1, 0, 6.20527e-06, 182915
-10698.7, 316539, -77.134, 0.696531, -686.783, 0.109278, 0.352055, 1.03299, 0.34851, 0.655882, 0.0001, 45.5, 246, 19.0052, 0.0621174, 0, 0, 1, 0, -1.18511e-05, 182921
-9909.5, 326858, -84.6323, 0.728562, -700.505, 0.113466, 0.318879, 0.993198, 0.349787, 0.651995, 0.0001, 91, 246, 19.0052, 0.0621174, 0, 0, 1, 0, 1.93151e-05, 182921
-9553.49, 200666, -331.243, 3.02666, -636.834, 0.39147, 0.436138, 1.03299, 0.34851, 0.655882, 0.0001, 45.5, 246, 51.1367, 0.24253, 1.31018, 1, 0, 0, 6.2494e-05, 182939
-9553.49, 200666, -331.243, 3.02666, -636.834, 0.39147, 0.436138, 1.03299, 0.34851, 0.655882, 3, 45.5, 246, 51.1367, 0.24253, 1.22754, 1, 0, 0, -3.47508e-05, 182939
-5761.62, 215077, -380.508, 3.37181, -712.171, 0.465128, 0.453832, 0.993198, 0.349787, 0.651995, 0.0001, 91, 246, 51.1367, 0.24253, 1.49752, 1, 1, 0, -1.86727e-05, 182939
-5761.62, 215077, -380.508, 3.37181, -712.171, 0.465128, 0.453832, 0.993198, 0.349787, 0.651995, 3, 91, 246, 51.1367, 0.24253, 1.39071, 1, 1, 0, 1.95015e-05, 182939
-860.968, 234017, -441.753, 3.79416, -812.369, 0.562775, 0.491101, 0.958125, 0.351078, 0.648177, 0.0001, 182, 246, 51.1367, 0.24253, 4.17015, 1, 0, 0, -190.476, 182939
-860.968, 234017, -441.753, 3.79416, -812.369, 0.562775, 0.491101, 0.958125, 0.351078, 0.648177, 3, 182, 246, 51.1367, 0.24253, 3.76373, 1, 0, 0, -192.743, 182939
-7186.29, 106337, -192.748, 3.52685, -588.359, 0.0376249, 0.218473, 1.03299, 0.34851, 0.655882, 0.0001, 45.5, 246, 42.1236, 0.154232, 1.15142, 1, 1, 0, 4.82644e-06, 182942
-5160.95, 113450, -230.944, 3.8669, -615.304, 0.0982522, 0.235792, 0.993198, 0.349787, 0.651995, 0.0001, 91, 246, 42.1236, 0.154232, 1.13159, 1, 1, 0, 1.28128e-05, 182942
-2583.59, 122205, -277.423, 4.27799, -655.999, 0.173796, 0.274284, 0.958125, 0.351078, 0.648177, 0.0001, 182, 246, 42.1236, 0.154232, 1.35307, 1, 1, 0, -4.00727e-06, 182942
-2583.59, 122205, -277.423, 4.27799, -655.999, 0.173796, 0.274284, 0.958125, 0.351078, 0.648177, 3, 182, 246, 42.1236, 0.154232, 1.21016, 1, 1, 0, -1.78923e-06, 182942
2038.28, 137869, -357.917, 4.9863, -741.494, 0.309602, 0.365686, 0.9175, 0.352806, 0.64323, 0.0001, 455, 246, 42.1236, 0.154232, 2.34462, 1, 0, 0, -9.71046e-06, 182942
2038.28, 137869, -357.917, 4.9863, -741.494, 0.309602, 0.365686, 0.9175, 0.352806, 0.64323, 3, 455, 246, 42.1236, 0.154232, 2.34474, 1, 0, 0, 1.08231e-05, 182942
-8775.41, 68450.8, -36.9332, 0.18914, -847.139, 0.00174595, 0.365728, 1.03299, 0.34851, 0.655882, 3, 45.5, 246, 20.743, 0.171417, 0, 0, 1, 0, -9.81641e-05, 182943
-9578.25, 585644, -370.715, 0.280644, -752.941, 0.00365047, 0.570757, 1.03299, 0.34851, 0.655882, 0.0001, 45.5, 246, 35.3331, 0.166828, 0, 0, 0, 0, 7.06655e-05, 182944
-9578.25, 585644, -370.715, 0.280644, -752.941, 0.00365047, 0.570757, 1.03299, 0.34851, 0.655882, 3, 45.5, 246, 35.3331, 0.166828, 0, 0, 0, 0, -7.60735e-05, 182944
-10394.4, 357152, -103.35, 0.934302, -812.109, 0.558635, 0.320526, 0.993198, 0.349787, 0.651995, 3, 91, 246, 21.1475, 0.0657852, 0, 0, 1, 0, -1.44015e-05, 182945
-8745.08, 39735.5, -8.27713, 3.36133, -578.917, 0.740264, 0.163763, 1.03299, 0.34851, 0.655882, 0.0001, 45.5, 246, 12.1849, 0.0319424, 0, 0, 0, 0, -2.61738e-05, 182946
-8745.08, 39735.5, -8.27713, 3.36133, -578.917, 0.740264, 0.163763, 1.03299, 0.34851, 0.655882, 3, 45.5, 246, 12.1849, 0.0319424, 0, 0, 0, 0, 1.26772e-05, 182946
-8244.55, 47786.9, -29.2733, 3.82057, -660.49, 0.902374, 0.174317, 0.993198, 0.349787, 0.651995, 0.0001, 91, 246, 12.1849, 0.0319424, 7.75947, 1, 1, 0, -7.87611e-05, 182946
-8244.55, 47786.9, -29.2733, 3.82057, -660.49, 0.902374, 0.174317, 0.993198, 0.349787, 0.651995, 3, 91, 246, 12.1849, 0.0319424, 6.89464, 1, 1, 0, 4.1079e-06, 182946
306.064, 190406, -331.923, 4.42915, -872.095, 0.915349, 0.368904, 0.9175, 0.352806, 0.64323, 0.0001, 455, 246, 36.4972, 0.154494, 1.68404, 1, 0, 0, -3.41983e-07, 182951
306.064, 190406, -331.923, 4.42915, -872.095, 0.915349, 0.368904, 0.9175, 0.352806, 0.64323, 3, 455, 246, 36.4972, 0.154494, 1.68833, 1, 0, 0, 7.07089e-05, 182951
-8835.74, 89735.8, -42.4708, 3.50702, -1160.28, 0.0956654, 0.202393, 0.993198, 0.349787, 0.651995, 0.0001, 91, 246, 19.1954, 0.0580736, 0, 0, 1, 0, 1.03802e-05, 182953
-8835.74, 89735.8, -42.4708, 3.50702, -1160.28, 0.0956654, 0.202393, 0.993198, 0.349787, 0.651995, 3, 91, 246, 19.1954, 0.0580736, 0, 0, 1, 0, 6.43393e-06, 182953
1488.83, 350604, -424.799, 3.56533, -832.023, 0.196636, 0.450665, 0.9175, 0.352806, 0.64323, 0.0001, 455, 246, 37.6892, 0.174974, 0, 0, 0, 0, 7.02384e-06, 182960
1488.83, 350604, -424.799, 3.56533, -832.023, 0.196636, 0.450665, 0.9175, 0.352806, 0.64323, 3, 455, 246, 37.6892, 0.174974, 0, 0, 0, 0, 2.92334e-06, 182960
-9788.19, 177861, -175.054, 2.27136, -1108.43, 0.270146, 0.381853, 1.03299, 0.34851, 0.655882, 3, 45.5, 246, 40.7382, 0.184357, 0, 0, 0, 0, -1.45142e-05, 182961
-4460.07, 98593.8, -223.85, 2.83399, -803.769, 0.381771, 0.353685, 1.03299, 0.34851, 0.655882, 0.0001, 45.5, 246, 56.4879, 0.244133, 1.43644, 1, 1, 0, -2.29843e-05, 182967
-4460.07, 98593.8, -223.85, 2.83399, -803.769, 0.381771, 0.353685, 1.03299, 0.34851, 0.655882, 3, 45.5, 246, 56.4879, 0.244133, 1.27457, 1, 1, 0, -1.27856e-05, 182967
-2645, 114142, -265.209, 3.13586, -877.83, 0.447869, 0.358721, 0.993198, 0.349787, 0.651995, 0.0001, 91, 246, 56.4879, 0.244133, 1.60177, 1, 1, 0, 2.64392e-05, 182967
-2645, 114142, -265.209, 3.13586, -877.83, 0.447869, 0.358721, 0.993198, 0.349787, 0.651995, 3, 91, 246, 56.4879, 0.244133, 1.45798, 1, 1, 0, 3.08073e-07, 182967
-145.252, 133728, -316.383, 3.49868, -974.638, 0.533913, 0.38019, 0.958125, 0.351078, 0.648177, 0.0001, 182, 246, 56.4879, 0.244133, 2.38923, 1, 1, 0, 4.04182e-06, 182967
-145.252, 133728, -316.383, 3.49868, -974.638, 0.533913, 0.38019, 0.958125, 0.351078, 0.648177, 3, 182, 246, 56.4879, 0.244133, 2.24821, 1, 1, 0, -5.47245e-06, 182967
-10578.8, 289369, -88.0929, 1.18196, -701.077, 0.382008, 0.311075, 0.993198, 0.349787, 0.651995, 3, 91, 246, 19.2006, 0.066772, 0, 0, 1, 0, 4.37161e-05, 182968
-9143.51, 304754, -100.117, 1.26278, -749.631, 0.413527, 0.286273, 0.958125, 0.351078, 0.648177, 0.0001, 182, 246, 19.2006, 0.066772, 0, 0, 1, 0, 2.8252e-05, 182968
-10001.9, 78734.1, 4.27802, 2.13369, -1086.89, -0.0178259, 0.281595, 1.03299, 0.34851, 0.655882, 0.0001, 45.5, 246, 14.4137, 0.0396675, 0, 0, 1, 0, 1.12968e-06, 182979
-10001.9, 78734.1, 4.27802, 2.13369, -1086.89, -0.0178259, 0.281595, 1.03299, 0.34851, 0.655882, 3, 45.5, 246, 14.4137, 0.0396675, 0, 0, 1, 0, 3.71745e-06, 182979
-8942.21, 627308, -341.975, 0.38085, -966, 0.0391186, 0.521141, 1.03299, 0.34851, 0.655882, 0.0001, 45.5, 246, 36.7808, 0.141573, 0, 0, 0, 0, -2.67518e-05, 182990
-8942.21, 627308, -341.975, 0.38085, -966, 0.0391186, 0.521141, 1.03299, 0.34851, 0.655882, 3, 45.5, 246, 36.7808, 0.141573, 0, 0, 0, 0, -2.20028e-05, 182990
-12292.5, 391617, -350.758, 1.38273, -988.446, -0.00501845, 0.612417, 1.03299, 0.34851, 0.655882, 3, 45.5, 246, 45.8324, 0.225317, 0, 0, 0, 0, 2.92548e-05, 182993
-4218.6, 623356, -176.138, 3.69371, -908.476, 0.628095, 0.238322, 0.9175, 0.352806, 0.64323, 3, 455, 246, 18.9695, 0.0372286, 0, 0, 0, 0, 4.47958e-05, 182994
1944.8, 251114, -361.017, 5.39964, -1013.27, 0.7354, 0.356248, 0.9175, 0.352806, 0.64323, 0.0001, 455, 246, 32.5373, 0.122841, 2.83886, 1, 0, 0, 0.000188908, 182996
1944.8, 251114, -361.017, 5.39964, -1013.27, 0.7354, 0.356248, 0.9175, 0.352806, 0.64323, 3, 455, 246, 32.5373, 0.122841, 3.2032, 1, 0, 0, 118.425, 182996
-8929.67, 163402, -258.532, 2.81205, -563.747, 0.395134, 0.374297, 1.03299, 0.34851, 0.655882, 0.0001, 45.5, 246, 45.5127, 0.213275, 1.10372, 1, 1, 0, 6.34789e-06, 182998
-6277.19, 174338, -295.995, 3.11442, -625.458, 0.462526, 0.38033, 0.993198, 0.349787, 0.651995, 0.0001, 91, 246, 45.5127, 0.213275, 1.06308, 1, 1, 0, -8.55981e-05, 182998
-2892.48, 188415, -341.917, 3.47834, -706.072, 0.550403, 0.402777, 0.958125, 0.351078, 0.648177, 0.0001, 182, 246, 45.5127, 0.213275, 1.45843, 1, 1, 0, 1.5164e-05, 182998
-2892.48, 188415, -341.917, 3.47834, -706.072, 0.550403, 0.402777, 0.958125, 0.351078, 0.648177, 3, 182, 246, 45.5127, 0.213275, 1.27282, 1, 1, 0, -8.52994e-06, 182998
