-8348.35, 24441, -29.957, 2.29712, -1069.98, 0.14246, 0.280129, 0.993198, 0.349787, 0.651995, 0.0001, 91, 246, 16.739, 0.0698276, 0, 0, 1, 1, -3.57417e-06, 40505
-8348.35, 24441, -29.957, 2.29712, -1069.98, 0.14246, 0.280129, 0.993198, 0.349787, 0.651995, 3, 91, 246, 16.739, 0.0698276, 0, 0, 1, 1, 7.75009e-06, 40505
-10633.9, 311251, -183.066, 0.766117, -615.131, 0.699851, 0.422324, 1.03299, 0.34851, 0.655882, 0.0001, 45.5, 246, 27.1671, 0.132813, 0, 0, 1, 0, -4.24238e-05, 40508
-10633.9, 311251, -183.066, 0.766117, -615.131, 0.699851, 0.422324, 1.03299, 0.34851, 0.655882, 3, 45.5, 246, 27.1671, 0.132813, 0, 0, 1, 0, 3.76003e-05, 40508
-9481.34, 331837, -195.7, 0.831312, -696, 0.79002, 0.395184, 0.993198, 0.349787, 0.651995, 0.0001, 91, 246, 27.1671, 0.132813, 0, 0, 1, 0, 2.69929e-05, 40508
-8038.16, 357551, -209.739, 0.905768, -800.456, 0.9065, 0.372917, 0.958125, 0.351078, 0.648177, 0.0001, 182, 246, 27.1671, 0.132813, 0, 0, 1, 0, -3.56273e-05, 40508
-9437.21, 157014, -78.8945, 1.07479, -1044.58, -0.00474868, 0.363254, 1.03299, 0.34851, 0.655882, 3, 45.5, 246, 26.6798, 0.117485, 0, 0, 1, 0, -2.3403e-05, 40512
-7584.94, 68637.2, -89.4816, 3.02602, -909.162, 0.000100983, 0.250415, 0.993198, 0.349787, 0.651995, 0.0001, 91, 246, 27.6425, 0.0981114, 0, 0, 1, 0, -6.81773e-06, 40530
-7584.94, 68637.2, -89.4816, 3.02602, -909.162, 0.000100983, 0.250415, 0.993198, 0.349787, 0.651995, 3, 91, 246, 27.6425, 0.0981114, 0, 0, 1, 0, 1.45127e-07, 40530
-10813.9, 234023, -128.752, 1.51509, -1078.23, -0.0062299, 0.373255, 1.03299, 0.34851, 0.655882, 0.0001, 45.5, 246, 31.7563, 0.128585, 0, 0, 1, 0, -8.08714e-06, 40531
-10813.9, 234023, -128.752, 1.51509, -1078.23, -0.0062299, 0.373255, 1.03299, 0.34851, 0.655882, 3, 45.5, 246, 31.7563, 0.128585, 0, 0, 1, 0, -5.88701e-06, 40531
-7668.47, 62817.4, -83.5225, 3.52379, -1091.81, -0.0217722, 0.194022, 1.03299, 0.34851, 0.655882, 0.0001, 45.5, 246, 33.1373, 0.109229, 1.14459, 1, 0, 0, 8.02977e-06, 40532
-6549.85, 83686.1, -128.192, 3.84811, -1103.29, 0.0378078, 0.20953, 0.993198, 0.349787, 0.651995, 0.0001, 91, 246, 33.1373, 0.109229, 0, 0, 1, 0, -6.81747e-08, 40532
-6549.85, 83686.1, -128.192, 3.84811, -1103.29, 0.0378078, 0.20953, 0.993198, 0.349787, 0.651995, 3, 91, 246, 33.1373, 0.109229, 0, 0, 1, 0, -5.4024e-06, 40532
-1027.71, 139921, -274.224, 4.90466, -1210.18, 0.237158, 0.331177, 0.9175, 0.352806, 0.64323, 0.0001, 455, 246, 33.1373, 0.109229, 1.39045, 1, 0, 0, -6.15015e-06, 40532
-1027.71, 139921, -274.224, 4.90466, -1210.18, 0.237158, 0.331177, 0.9175, 0.352806, 0.64323, 3, 455, 246, 33.1373, 0.109229, 1.39198, 1, 0, 0, -6.56448e-06, 40532
-12449.2, 470698, -48.2338, 0.716367, -1005.75, 0.0857934, 0.338059, 1.03299, 0.34851, 0.655882, 0.0001, 45.5, 246, 22.1453, 0.0292612, 0, 0, 1, 0, -3.5157e-06, 40535
-4321.69, 1.07754e+06, -328.951, 0.314189, -1179.55, 1.41412, 0.336936, 0.9175, 0.352806, 0.64323, 3, 455, 246, 24.9113, 0.0753935, 0, 0, 0, 0, -0.000134905, 40536
-7350.92, 466553, -419.35, 0.164786, -1049.36, 0.288604, 0.710173, 1.03299, 0.34851, 0.655882, 0.0001, 45.5, 246, 46.748, 0.235507, 0, 0, 0, 0, -1214.97, 40539
-7850.86, -1985.52, 0.875351, 2.82698, -1086.92, -0.0267003, 0.249328, 1.03299, 0.34851, 0.655882, 0.0001, 45.5, 246, 15.6879, 0.0612619, 0, 0, 1, 0, 6.00766e-06, 40548
-7850.86, -1985.52, 0.875351, 2.82698, -1086.92, -0.0267003, 0.249328, 1.03299, 0.34851, 0.655882, 3, 45.5, 246, 15.6879, 0.0612619, 0, 0, 1, 0, 4.25431e-06, 40548
-7847.95, 558825, -322.702, 0.26668, -948.971, 0.70111, 0.501717, 1.03299, 0.34851, 0.655882, 0.0001, 45.5, 246, 35.3213, 0.133953, 0, 0, 0, 0, 6.18633e-05, 40561
-7847.95, 558825, -322.702, 0.26668, -948.971, 0.70111, 0.501717, 1.03299, 0.34851, 0.655882, 3, 45.5, 246, 35.3213, 0.133953, 0, 0, 0, 0, 9.91593e-05, 40561
-9471.16, 115936, -113.769, 2.81557, -845.801, 0.332003, 0.26629, 1.03299, 0.34851, 0.655882, 3, 45.5, 246, 32.3272, 0.12641, 0, 0, 1, 0, -1.24983e-05, 40562
-10706.3, 104199, -46.2278, 3.3058, -880.455, 0.0677752, 0.185438, 1.03299, 0.34851, 0.655882, 0.0001, 45.5, 246, 22.2033, 0.0690372, 0, 0, 0, 0, -6.54406e-06, 40566
-10706.3, 104199, -46.2278, 3.3058, -880.455, 0.0677752, 0.185438, 1.03299, 0.34851, 0.655882, 3, 45.5, 246, 22.2033, 0.0690372, 0, 0, 0, 0, -4.48867e-08, 40566
299.41, 152682, -315.562, 5.11306, -1169.42, 1.3699, 0.350024, 0.9175, 0.352806, 0.64323, 0.0001, 455, 246, 36.7811, 0.126991, 2.11576, 1, 0, 0, 199.254, 40580
299.41, 152682, -315.562, 5.11306, -1169.42, 1.3699, 0.350024, 0.9175, 0.352806, 0.64323, 3, 455, 246, 36.7811, 0.126991, 2.11813, 1, 0, 0, 199.109, 40580
-8639.93, 373681, -158.448, 0.577635, -980.995, 0.85066, 0.361622, 0.993198, 0.349787, 0.651995, 0.0001, 91, 246, 27.0513, 0.0989041, 0, 0, 1, 0, -9.31153e-05, 40583
-11007.5, 216143, -141.99, 1.46157, -659.83, 0.374202, 0.378984, 1.03299, 0.34851, 0.655882, 0.0001, 45.5, 246, 28.3942, 0.138024, 0, 0, 1, 0, -1.35753e-05, 40584
-11007.5, 216143, -141.99, 1.46157, -659.83, 0.374202, 0.378984, 1.03299, 0.34851, 0.655882, 3, 45.5, 246, 28.3942, 0.138024, 0, 0, 1, 0, 6.45264e-05, 40584
-9610.29, 229048, -159.228, 1.57486, -708.07, 0.408468, 0.355994, 0.993198, 0.349787, 0.651995, 3, 91, 246, 28.3942, 0.138024, 0, 0, 1, 0, -2.70918e-05, 40584
-7881.43, 244143, -178.881, 1.69977, -765.171, 0.449226, 0.339616, 0.958125, 0.351078, 0.648177, 3, 182, 246, 28.3942, 0.138024, 0, 0, 1, 0, -3.04727e-05, 40584
-2963.38, 307984, -190.383, 3.29961, -1551.93, 0.846169, 0.276764, 0.9175, 0.352806, 0.64323, 0.0001, 455, 246, 24.9167, 0.0730359, 0, 0, 0, 0, -1.82856e-05, 40586
-2963.38, 307984, -190.383, 3.29961, -1551.93, 0.846169, 0.276764, 0.9175, 0.352806, 0.64323, 3, 455, 246, 24.9167, 0.0730359, 0, 0, 0, 0, -1.32586e-05, 40586
-3055.97, 166927, -279.72, 3.48235, -1082.91, 0.842739, 0.348928, 0.958125, 0.351078, 0.648177, 0.0001, 182, 246, 44.444, 0.193114, 1.12788, 1, 1, 0, -7.32062e-05, 40588
-11467.5, 176607, -79.285, 2.05512, -855.813, 0.0807984, 0.306279, 1.03299, 0.34851, 0.655882, 0.0001, 45.5, 246, 24.6198, 0.0929799, 0, 0, 1, 0, -7.3215e-06, 40595
-5452.57, 74789.8, -162.043, 3.12468, -910.989, 0.644578, 0.257413, 1.03299, 0.34851, 0.655882, 0.0001, 45.5, 246, 46.7253, 0.166132, 1.16403, 1, 1, 0, -8.09829e-06, 40596
-4046.12, 94778.2, -205.476, 3.5229, -1035.21, 0.771617, 0.265292, 0.993198, 0.349787, 0.651995, 0.0001, 91, 246, 46.7253, 0.166132, 1.19903, 1, 1, 0, 6.25067e-06, 40596
-1851.85, 122372, -263.312, 4.02962, -1209.78, 0.949974, 0.294988, 0.958125, 0.351078, 0.648177, 0.0001, 182, 246, 46.7253, 0.166132, 1.62127, 1, 1, 0, -1.75082e-05, 40596
-1851.85, 122372, -263.312, 4.02962, -1209.78, 0.949974, 0.294988, 0.958125, 0.351078, 0.648177, 3, 182, 246, 46.7253, 0.166132, 1.47256, 1, 1, 0, -8.35553e-06, 40596
-8698.87, 128140, -192.565, 2.99152, -580.853, 0.649474, 0.276422, 1.03299, 0.34851, 0.655882, 3, 45.5, 246, 38.907, 0.159302, 0, 0, 0, 0, 3.68866e-05, 40598
1468.83, 191714, -356.378, 4.72033, -1047.79, 1.31057, 0.38104, 0.9175, 0.352806, 0.64323, 0.0001, 455, 246, 38.907, 0.159302, 3.6776, 1, 0, 0, -170.401, 40598
1468.83, 191714, -356.378, 4.72033, -1047.79, 1.31057, 0.38104, 0.9175, 0.352806, 0.64323, 3, 455, 246, 38.907, 0.159302, 3.7148, 1, 0, 0, -170.351, 40598
-10649.8, 283061, -269.664, 1.49452, -1030.86, 0.723903, 0.515491, 1.03299, 0.34851, 0.655882, 0.0001, 45.5, 246, 43.2444, 0.207658, 0, 0, 0, 0, 3.60796e-05, 40606
-10649.8, 283061, -269.664, 1.49452, -1030.86, 0.723903, 0.515491, 1.03299, 0.34851, 0.655882, 3, 45.5, 246, 43.2444, 0.207658, 0, 0, 0, 0, -8.16e-05, 40606
-10642.3, 346581, -139.118, 0.706787, -680.837, 0.0764628, 0.386943, 1.03299, 0.34851, 0.655882, 0.0001, 45.5, 246, 24.1082, 0.101351, 0, 0, 1, 0, -6.96107e-06, 40612
-10642.3, 346581, -139.118, 0.706787, -680.837, 0.0764628, 0.386943, 1.03299, 0.34851, 0.655882, 3, 45.5, 246, 24.1082, 0.101351, 0, 0, 1, 0, -5.5806e-06, 40612
-9624.09, 356535, -149.271, 0.738833, -692.05, 0.0797197, 0.356466, 0.993198, 0.349787, 0.651995, 0.0001, 91, 246, 24.1082, 0.101351, 0, 0, 1, 0, -2.13375e-05, 40612
-5350.05, 55528.1, -143.901, 3.5254, -712.46, 0.196949, 0.189851, 1.03299, 0.34851, 0.655882, 0.0001, 45.5, 246, 42.3836, 0.11579, 1.13284, 1, 1, 0, 9.42336e-06, 40613
-4242.58, 65838.2, -182.035, 3.89652, -754.977, 0.265674, 0.205917, 0.993198, 0.349787, 0.651995, 0.0001, 91, 246, 42.3836, 0.11579, 1.07347, 1, 1, 0, -2.07365e-05, 40613
-2648.72, 78280.4, -229.655, 4.35079, -815.476, 0.355219, 0.244512, 0.958125, 0.351078, 0.648177, 0.0001, 182, 246, 42.3836, 0.11579, 1.23804, 1, 1, 0, 9.04845e-06, 40613
-2648.72, 78280.4, -229.655, 4.35079, -815.476, 0.355219, 0.244512, 0.958125, 0.351078, 0.648177, 3, 182, 246, 42.3836, 0.11579, 1.0895, 1, 1, 0, -1.80975e-05, 40613
607.47, 100243, -315.036, 5.14953, -939.466, 0.524987, 0.339908, 0.9175, 0.352806, 0.64323, 0.0001, 455, 246, 42.3836, 0.11579, 1.91433, 1, 1, 0, 1.55573e-05, 40613
607.47, 100243, -315.036, 5.14953, -939.466, 0.524987, 0.339908, 0.9175, 0.352806, 0.64323, 3, 455, 246, 42.3836, 0.11579, 1.91408, 1, 1, 0, 2.71243e-06, 40613
-5944.92, 253113, -92.6358, 2.46331, -1716.91, 1.29405, 0.252181, 0.9175, 0.352806, 0.64323, 0.0001, 455, 246, 16.223, 0.0359951, 0, 0, 0, 0, -1.60069e-05, 40616
-5944.92, 253113, -92.6358, 2.46331, -1716.91, 1.29405, 0.252181, 0.9175, 0.352806, 0.64323, 3, 455, 246, 16.223, 0.0359951, 0, 0, 0, 0, 2.21131e-05, 40616
-8426.2, 659341, -248.167, 0.351917, -1078.45, 0.21512, 0.427036, 1.03299, 0.34851, 0.655882, 0.0001, 45.5, 246, 33.5929, 0.0935489, 0, 0, 0, 0, 1.51494e-05, 40619
-8426.2, 659341, -248.167, 0.351917, -1078.45, 0.21512, 0.427036, 1.03299, 0.34851, 0.655882, 3, 45.5, 246, 33.5929, 0.0935489, 0, 0, 0, 0, 3.05297e-05, 40619
-9416.91, 417153, -194.556, 0.477728, -837.155, 0.0683281, 0.426253, 1.03299, 0.34851, 0.655882, 0.0001, 45.5, 246, 29.4721, 0.119786, 0, 0, 0, 0, 1.06728e-05, 40626
-8412.3, 431805, -205.598, 0.497627, -848.946, 0.0701294, 0.397614, 0.993198, 0.349787, 0.651995, 0.0001, 91, 246, 29.4721, 0.119786, 0, 0, 1, 0, -2.81717e-05, 40626
-7246.42, 447002, -216.787, 0.51726, -861.374, 0.0720584, 0.373277, 0.958125, 0.351078, 0.648177, 0.0001, 182, 246, 29.4721, 0.119786, 0, 0, 1, 0, 4.78118e-05, 40626
-9996.76, 273070, -216.627, 0.870297, -755.664, 0.633055, 0.476735, 1.03299, 0.34851, 0.655882, 0.0001, 45.5, 246, 34.7834, 0.182677, 0, 0, 1, 0, 4.12973e-05, 40629
-9996.76, 273070, -216.627, 0.870297, -755.664, 0.633055, 0.476735, 1.03299, 0.34851, 0.655882, 3, 45.5, 246, 34.7834, 0.182677, 0, 0, 1, 0, 2.11025e-05, 40629
-8705.38, 295030, -233.314, 0.943881, -845.57, 0.707434, 0.455062, 0.993198, 0.349787, 0.651995, 0.0001, 91, 246, 34.7834, 0.182677, 0, 0, 1, 0, -3.21542e-05, 40629
-10282.8, 118326, -62.747, 2.61574, -1154.21, -0.0187083, 0.270553, 1.03299, 0.34851, 0.655882, 0.0001, 45.5, 246, 27.3721, 0.0980541, 0, 0, 1, 0, -1.04549e-05, 40641
-10282.8, 118326, -62.747, 2.61574, -1154.21, -0.0187083, 0.270553, 1.03299, 0.34851, 0.655882, 3, 45.5, 246, 27.3721, 0.0980541, 0, 0, 1, 0, 1.7444e-05, 40641
-8919.07, 141427, -95.9893, 2.81164, -1159.33, 0.0136012, 0.262771, 0.993198, 0.349787, 0.651995, 0.0001, 91, 246, 27.3721, 0.0980541, 0, 0, 1, 0, 3.89848e-06, 40641
-8919.07, 141427, -95.9893, 2.81164, -1159.33, 0.0136012, 0.262771, 0.993198, 0.349787, 0.651995, 3, 91, 246, 27.3721, 0.0980541, 0, 0, 1, 0, -8.36678e-06, 40641
-7019.15, 165374, -134.384, 3.03302, -1174.06, 0.0512216, 0.266726, 0.958125, 0.351078, 0.648177, 3, 182, 246, 27.3721, 0.0980541, 0, 0, 1, 0, -4.33374e-06, 40641
-7196.51, -19913.9, 17.4668, 3.29826, -1086.3, 0.0816491, 0.207018, 1.03299, 0.34851, 0.655882, 0.0001, 45.5, 246, 12.1557, 0.0570384, 0, 0, 1, 0, -5.42424e-06, 40644
-7196.51, -19913.9, 17.4668, 3.29826, -1086.3, 0.0816491, 0.207018, 1.03299, 0.34851, 0.655882, 3, 45.5, 246, 12.1557, 0.0570384, 0, 0, 1, 0, -6.97241e-06, 40644
-11534, 484633, -125.272, 0.593923, -650.711, 0.0691908, 0.366848, 1.03299, 0.34851, 0.655882, 0.0001, 45.5, 246, 20.6854, 0.0664658, 0, 0, 1, 0, -1.64051e-05, 40649
-11534, 484633, -125.272, 0.593923, -650.711, 0.0691908, 0.366848, 1.03299, 0.34851, 0.655882, 3, 45.5, 246, 20.6854, 0.0664658, 0, 0, 1, 0, 2.66363e-05, 40649
-6020.12, 101998, -145.258, 4.63162, -1018.62, 1.24612, 0.214324, 0.958125, 0.351078, 0.648177, 3, 182, 246, 24.4172, 0.0696399, 0, 0, 1, 0, 5.22843e-05, 40652
-10313.8, 807351, -108.35, 0.267781, -862.571, 0.167457, 0.353317, 1.03299, 0.34851, 0.655882, 0.0001, 45.5, 246, 23.3354, 0.0338057, 0, 0, 1, 0, -8.28628e-05, 40654
-10313.8, 807351, -108.35, 0.267781, -862.571, 0.167457, 0.353317, 1.03299, 0.34851, 0.655882, 3, 45.5, 246, 23.3354, 0.0338057, 0, 0, 1, 0, 9.64247e-05, 40654
-6880.15, 305080, -446.981, 3.50316, -1140.21, 0.894033, 0.51949, 0.993198, 0.349787, 0.651995, 0.0001, 91, 246, 53.2261, 0.24039, 1.31905, 1, 1, 0, 9.59033e-05, 40659
-6880.15, 305080, -446.981, 3.50316, -1140.21, 0.894033, 0.51949, 0.993198, 0.349787, 0.651995, 3, 91, 246, 53.2261, 0.24039, 1.21468, 1, 1, 0, 7.92643e-05, 40659
-9608.94, 316512, -410.473, 3.78929, -955.978, 0.335062, 0.425249, 0.993198, 0.349787, 0.651995, 0.0001, 91, 246, 47.9853, 0.209634, 1.12453, 1, 1, 0, 8.28895e-05, 40667
-9608.94, 316512, -410.473, 3.78929, -955.978, 0.335062, 0.425249, 0.993198, 0.349787, 0.651995, 3, 91, 246, 47.9853, 0.209634, 1.00602, 1, 1, 0, 1.79933e-05, 40667
-7503.19, 79448.4, -122.222, 2.03271, -776.411, -0.0188625, 0.356821, 1.03299, 0.34851, 0.655882, 3, 45.5, 246, 41.5275, 0.207963, 0, 0, 1, 0, 3.45961e-06, 40668
-3040.65, 158928, -294.095, 3.55292, -776.359, 0.281422, 0.351294, 0.958125, 0.351078, 0.648177, 0.0001, 182, 246, 44.5874, 0.195689, 1.27716, 1, 1, 0, -4.32989e-06, 40676
-3040.65, 158928, -294.095, 3.55292, -776.359, 0.281422, 0.351294, 0.958125, 0.351078, 0.648177, 3, 182, 246, 44.5874, 0.195689, 1.06382, 1, 1, 0, -8.28945e-06, 40676
-6539.24, 109329, -188.029, 2.69059, -966.402, -0.0342381, 0.366087, 1.03299, 0.34851, 0.655882, 3, 45.5, 246, 50.192, 0.234547, 0, 0, 1, 0, 4.36499e-06, 40678
-2626.1, 144522, -273.668, 3.1426, -1002, 0.0402244, 0.38084, 0.958125, 0.351078, 0.648177, 0.0001, 182, 246, 50.192, 0.234547, 1.31956, 1, 1, 0, 5.11862e-07, 40678
-2626.1, 144522, -273.668, 3.1426, -1002, 0.0402244, 0.38084, 0.958125, 0.351078, 0.648177, 3, 182, 246, 50.192, 0.234547, 1.09654, 1, 1, 0, 1.75325e-05, 40678
-11634.5, 354683, -134.743, 0.996078, -963.192, 0.826494, 0.369554, 1.03299, 0.34851, 0.655882, 0.0001, 45.5, 246, 27.7068, 0.0852704, 0, 0, 1, 0, -0.000113929, 40682
-11634.5, 354683, -134.743, 0.996078, -963.192, 0.826494, 0.369554, 1.03299, 0.34851, 0.655882, 3, 45.5, 246, 27.7068, 0.0852704, 0, 0, 0, 0, 7.784e-06, 40682
-9686.56, 72836.7, -34.2247, 3.2813, -653.185, -0.0448014, 0.186623, 1.03299, 0.34851, 0.655882, 0.0001, 45.5, 246, 17.5926, 0.0535389, 0, 0, 1, 0, 1.15369e-05, 40687
-9686.56, 72836.7, -34.2247, 3.2813, -653.185, -0.0448014, 0.186623, 1.03299, 0.34851, 0.655882, 3, 45.5, 246, 17.5926, 0.0535389, 0, 0, 1, 0, 1.11789e-05, 40687
-6899.54, 115545, -197.872, 3.11345, -867.519, 0.64108, 0.286667, 1.03299, 0.34851, 0.655882, 0.0001, 45.5, 246, 45.9587, 0.183728, 1.08296, 1, 0, 0, 3.51898e-05, 40688
-4807.06, 135734, -243.087, 3.51158, -989.313, 0.766883, 0.296157, 0.993198, 0.349787, 0.651995, 0.0001, 91, 246, 45.9587, 0.183728, 1.14242, 1, 1, 0, 1.32452e-05, 40688
-1781.31, 163625, -302.859, 4.01802, -1160.24, 0.943341, 0.327463, 0.958125, 0.351078, 0.648177, 0.0001, 182, 246, 45.9587, 0.183728, 1.6991, 1, 0, 0, -1.84526e-05, 40688
-1781.31, 163625, -302.859, 4.01802, -1160.24, 0.943341, 0.327463, 0.958125, 0.351078, 0.648177, 3, 182, 246, 45.9587, 0.183728, 1.53943, 1, 0, 0, 6.32978e-06, 40688
-8628.96, 134402, -205.631, 3.40975, -710.401, 0.740892, 0.229905, 1.03299, 0.34851, 0.655882, 0.0001, 45.5, 246, 40.8883, 0.154765, 1.05289, 1, 0, 0, -6.38524e-06, 40693
-2496.49, 175886, -310.748, 4.51574, -1010.13, 1.14665, 0.289818, 0.958125, 0.351078, 0.648177, 0.0001, 182, 246, 40.8883, 0.154765, 1.46483, 1, 0, 0, 2.81808e-05, 40693
-2496.49, 175886, -310.748, 4.51574, -1010.13, 1.14665, 0.289818, 0.958125, 0.351078, 0.648177, 3, 182, 246, 40.8883, 0.154765, 1.29539, 1, 0, 0, 1.2229e-05, 40693
-11590.8, 294785, -291.527, 1.60815, -835.766, -0.0120961, 0.55251, 1.03299, 0.34851, 0.655882, 0.0001, 45.5, 246, 44.0516, 0.233037, 0, 0, 0, 0, 1.37162e-06, 40694
-11590.8, 294785, -291.527, 1.60815, -835.766, -0.0120961, 0.55251, 1.03299, 0.34851, 0.655882, 3, 45.5, 246, 44.0516, 0.233037, 0, 0, 0, 0, 3.17693e-06, 40694
-6906.1, 488999, -253.097, 0.332456, -1050.38, 0.30973, 0.431918, 0.993198, 0.349787, 0.651995, 0.0001, 91, 246, 33.9989, 0.129993, 0, 0, 1, 0, -0.000206544, 40702
-5734.48, 518987, -264.857, 0.349395, -1106.86, 0.326205, 0.40958, 0.958125, 0.351078, 0.648177, 0.0001, 182, 246, 33.9989, 0.129993, 0, 0, 0, 0, -1.8702e-05, 40702
-7368.79, 233866, -349.908, 3.32293, -756.604, 0.205724, 0.425649, 0.993198, 0.349787, 0.651995, 0.0001, 91, 246, 47.423, 0.223335, 1.09764, 1, 1, 0, 6.16952e-06, 40710
-2544.58, 249957, -407.666, 3.67704, -820.786, 0.268198, 0.457963, 0.958125, 0.351078, 0.648177, 0.0001, 182, 246, 47.423, 0.223335, 2.1132, 1, 0, 0, -5.26435e-05, 40710
-2544.58, 249957, -407.666, 3.67704, -820.786, 0.268198, 0.457963, 0.958125, 0.351078, 0.648177, 3, 182, 246, 47.423, 0.223335, 1.94592, 1, 0, 0, 2.43947e-05, 40710
-8989.88, 95461.8, -63.5199, 1.12291, -880.955, -0.00579445, 0.359617, 1.03299, 0.34851, 0.655882, 0.0001, 45.5, 246, 25.9447, 0.140227, 0, 0, 1, 0, 6.01125e-06, 40711
-8989.88, 95461.8, -63.5199, 1.12291, -880.955, -0.00579445, 0.359617, 1.03299, 0.34851, 0.655882, 3, 45.5, 246, 25.9447, 0.140227, 0, 0, 1, 0, -2.27126e-05, 40711
-8667.74, 857781, -155.652, 0.242716, -1146.43, 0.0116876, 0.367104, 1.03299, 0.34851, 0.655882, 0.0001, 45.5, 246, 30.9455, 0.0462589, 0, 0, 0, 0, 3.34301e-05, 40715
-8667.74, 857781, -155.652, 0.242716, -1146.43, 0.0116876, 0.367104, 1.03299, 0.34851, 0.655882, 3, 45.5, 246, 30.9455, 0.0462589, 0, 0, 0, 0, -1.8449e-05, 40715
-7724.29, 881873, -163.126, 0.250589, -1149.62, 0.0119769, 0.333014, 0.993198, 0.349787, 0.651995, 3, 91, 246, 30.9455, 0.0462589, 0, 0, 1, 0, 8.72089e-05, 40715
-11212.2, 200709, -123.378, 1.8268, -777.019, -0.0153102, 0.349765, 1.03299, 0.34851, 0.655882, 3, 45.5, 246, 28.7887, 0.1291, 0, 0, 1, 0, -1.56158e-06, 40717
-11180, 119884, -22.1705, 2.52625, -757.449, -0.0136873, 0.251028, 1.03299, 0.34851, 0.655882, 0.0001, 45.5, 246, 15.9482, 0.0475537, 0, 0, 1, 0, 6.78968e-06, 40723
-11180, 119884, -22.1705, 2.52625, -757.449, -0.0136873, 0.251028, 1.03299, 0.34851, 0.655882, 3, 45.5, 246, 15.9482, 0.0475537, 0, 0, 1, 0, 1.28911e-06, 40723
-6022.08, 154038, -100.198, 3.23535, -789.204, 0.107363, 0.256574, 0.9175, 0.352806, 0.64323, 3, 455, 246, 15.9482, 0.0475537, 0, 0, 1, 0, 1.02671e-05, 40723
-11308, 375349, -5.86495, 0.542327, -831.195, 0.334927, 0.336041, 1.03299, 0.34851, 0.655882, 0.0001, 45.5, 246, 15.5358, 0.0077406, 0, 0, 1, 0, 1.24685e-05, 40738
-10652.8, 395047, -10.3329, 0.572465, -877.862, 0.355084, 0.30081, 0.993198, 0.349787, 0.651995, 0.0001, 91, 246, 15.5358, 0.0077406, 0, 0, 1, 0, -6.41895e-06, 40738
-8822.03, 130917, -111.6, 0.498692, -1160.19, 0.0911183, 0.44387, 1.03299, 0.34851, 0.655882, 0.0001, 45.5, 246, 35.7504, 0.238081, 0, 0, 1, 0, 8.17995e-06, 40743
-8822.03, 130917, -111.6, 0.498692, -1160.19, 0.0911183, 0.44387, 1.03299, 0.34851, 0.655882, 3, 45.5, 246, 35.7504, 0.238081, 0, 0, 1, 0, 4.20844e-06, 40743
-8183.3, 260689, -386.629, 3.55488, -739.781, 0.214123, 0.433926, 0.993198, 0.349787, 0.651995, 0.0001, 91, 246, 47.722, 0.222854, 1.25435, 1, 1, 0, 1.82647e-05, 40744
-8183.3, 260689, -386.629, 3.55488, -739.781, 0.214123, 0.433926, 0.993198, 0.349787, 0.651995, 3, 91, 246, 47.722, 0.222854, 1.13351, 1, 1, 0, -2.576e-06, 40744
-2374.97, 277449, -451.268, 3.95523, -811.512, 0.285664, 0.475314, 0.958125, 0.351078, 0.648177, 0.0001, 182, 246, 47.722, 0.222854, 3.55997, 1, 0, 0, -176.2, 40744
-2374.97, 277449, -451.268, 3.95523, -811.512, 0.285664, 0.475314, 0.958125, 0.351078, 0.648177, 3, 182, 246, 47.722, 0.222854, 3.25343, 1, 0, 0, 180.125, 40744
-8975.42, 93612.9, -100.236, 3.28265, -797.369, 0.00770745, 0.211597, 1.03299, 0.34851, 0.655882, 0.0001, 45.5, 246, 30.7658, 0.108134, 0, 0, 1, 0, -4.22635e-06, 40745
-8975.42, 93612.9, -100.236, 3.28265, -797.369, 0.00770745, 0.211597, 1.03299, 0.34851, 0.655882, 3, 45.5, 246, 30.7658, 0.108134, 0, 0, 1, 0, -2.41945e-06, 40745
-10534.3, 157245, -102.434, 2.05367, -967.691, 0.704317, 0.321191, 1.03299, 0.34851, 0.655882, 0.0001, 45.5, 246, 29.6101, 0.117296, 0, 0, 1, 0, 3.60456e-06, 40746
-10633.1, 189078, -172.322, 1.95547, -667.606, 0.0443647, 0.387277, 1.03299, 0.34851, 0.655882, 0.0001, 45.5, 246, 34.765, 0.175745, 0, 0, 1, 0, 1.96547e-05, 40747
-10633.1, 189078, -172.322, 1.95547, -667.606, 0.0443647, 0.387277, 1.03299, 0.34851, 0.655882, 3, 45.5, 246, 34.765, 0.175745, 0, 0, 1, 0, -1.78763e-05, 40747
-6596.03, 452068, -363.614, 0.272573, -974.471, 0.0852739, 0.61028, 0.993198, 0.349787, 0.651995, 0.0001, 91, 246, 42.3788, 0.214948, 0, 0, 1, 0, -1.63945e-05, 40748
-5142.63, 81580.7, -191.25, 3.45764, -677.382, 0.375073, 0.217718, 1.03299, 0.34851, 0.655882, 0.0001, 45.5, 246, 46.8151, 0.153863, 1.34583, 1, 1, 0, -9.23252e-06, 40749
-5142.63, 81580.7, -191.25, 3.45764, -677.382, 0.375073, 0.217718, 1.03299, 0.34851, 0.655882, 3, 45.5, 246, 46.8151, 0.153863, 1.19677, 1, 1, 0, -1.18929e-06, 40749
-3457.35, 92836.6, -232.552, 3.85846, -744.425, 0.461106, 0.233653, 0.993198, 0.349787, 0.651995, 0.0001, 91, 246, 46.8151, 0.153863, 1.36053, 1, 1, 0, -5.46423e-06, 40749
-3457.35, 92836.6, -232.552, 3.85846, -744.425, 0.461106, 0.233653, 0.993198, 0.349787, 0.651995, 3, 91, 246, 46.8151, 0.153863, 1.23074, 1, 1, 0, -2.14133e-05, 40749
-1127.11, 107474, -285.322, 4.3576, -836.705, 0.577177, 0.273237, 0.958125, 0.351078, 0.648177, 0.0001, 182, 246, 46.8151, 0.153863, 1.71377, 1, 1, 0, 1.27641e-05, 40749
-1127.11, 107474, -285.322, 4.3576, -836.705, 0.577177, 0.273237, 0.958125, 0.351078, 0.648177, 3, 182, 246, 46.8151, 0.153863, 1.58549, 1, 1, 0, -1.12998e-05, 40749
3537.44, 135740, -383.366, 5.25999, -1024.41, 0.808545, 0.374088, 0.9175, 0.352806, 0.64323, 0.0001, 455, 246, 46.8151, 0.153863, 0, 0, 0, 0, -2.28615e-05, 40749
3537.44, 135740, -383.366, 5.25999, -1024.41, 0.808545, 0.374088, 0.9175, 0.352806, 0.64323, 3, 455, 246, 46.8151, 0.153863, 0, 0, 0, 0, 1.71113e-05, 40749
918.065, 448498, -464.946, 3.77542, -698.142, 0.119963, 0.455205, 0.9175, 0.352806, 0.64323, 3, 455, 246, 33.8363, 0.156599, 0, 0, 0, 0, -5.38323e-05, 40754
-10169.4, 548754, -130.728, 0.478888, -1062.32, 0.179404, 0.367616, 1.03299, 0.34851, 0.655882, 0.0001, 45.5, 246, 27.9489, 0.0599954, 0, 0, 1, 0, 3.1877e-05, 40757
-10169.4, 548754, -130.728, 0.478888, -1062.32, 0.179404, 0.367616, 1.03299, 0.34851, 0.655882, 3, 45.5, 246, 27.9489, 0.0599954, 0, 0, 1, 0, -3.13297e-06, 40757
-9060.45, 574820, -140.187, 0.501036, -1095.18, 0.185723, 0.334379, 0.993198, 0.349787, 0.651995, 3, 91, 246, 27.9489, 0.0599954, 0, 0, 1, 0, -1.36011e-05, 40757
-12234.7, 143691, -0.749801, 2.50747, -1121.6, 0.197375, 0.246896, 1.03299, 0.34851, 0.655882, 0.0001, 45.5, 246, 18.0912, 0.0379766, 0, 0, 1, 0, -5.09382e-06, 40760
-12234.7, 143691, -0.749801, 2.50747, -1121.6, 0.197375, 0.246896, 1.03299, 0.34851, 0.655882, 3, 45.5, 246, 18.0912, 0.0379766, 0, 0, 1, 0, 7.05805e-06, 40760
-2028.77, 57405.7, -244.052, 4.37669, -673.236, 0.189024, 0.307944, 0.9175, 0.352806, 0.64323, 0.0001, 455, 246, 42.875, 0.0864102, 1.04162, 1, 1, 0, -5.43577e-06, 40761
-4009.54, 346431, -469.573, 2.97775, -896.086, 0.442495, 0.5895, 0.958125, 0.351078, 0.648177, 0.0001, 182, 246, 47.3847, 0.238837, 1.0852, 1, 0, 0, -9.58022e-05, 40766
-10928, 99851.6, -23.3722, 3.33112, -897.047, -0.0506938, 0.178215, 1.03299, 0.34851, 0.655882, 0.0001, 45.5, 246, 18.8603, 0.0543125, 0, 0, 0, 0, 1.03763e-06, 40768
-10928, 99851.6, -23.3722, 3.33112, -897.047, -0.0506938, 0.178215, 1.03299, 0.34851, 0.655882, 3, 45.5, 246, 18.8603, 0.0543125, 0, 0, 0, 0, 1.81141e-05, 40768
-7663.64, 127229, -90.0573, 3.95362, -908.859, 0.0653006, 0.211532, 0.958125, 0.351078, 0.648177, 3, 182, 246, 18.8603, 0.0543125, 0, 0, 1, 0, -3.70268e-06, 40768
-2942.66, 286997, -406.28, 3.76706, -1066.49, 0.977194, 0.435519, 0.958125, 0.351078, 0.648177, 0.0001, 182, 246, 44.7012, 0.202226, 1.7569, 1, 0, 0, -1.61739e-05, 40771
-2942.66, 286997, -406.28, 3.76706, -1066.49, 0.977194, 0.435519, 0.958125, 0.351078, 0.648177, 3, 182, 246, 44.7012, 0.202226, 1.58657, 1, 0, 0, 5.19372e-06, 40771
-9935.59, 71826.1, -8.72188, 2.67764, -654.922, 0.551023, 0.23395, 1.03299, 0.34851, 0.655882, 0.0001, 45.5, 246, 12.6788, 0.0362987, 0, 0, 1, 0, -4.37995e-06, 40774
-9935.59, 71826.1, -8.72188, 2.67764, -654.922, 0.551023, 0.23395, 1.03299, 0.34851, 0.655882, 3, 45.5, 246, 12.6788, 0.0362987, 0, 0, 1, 0, -2.77021e-05, 40774
-9209.74, 82042.4, -27.0196, 2.97299, -720.785, 0.641931, 0.226578, 0.993198, 0.349787, 0.651995, 0.0001, 91, 246, 12.6788, 0.0362987, 0, 0, 1, 0, 2.64506e-05, 40774
-9209.74, 82042.4, -27.0196, 2.97299, -720.785, 0.641931, 0.226578, 0.993198, 0.349787, 0.651995, 3, 91, 246, 12.6788, 0.0362987, 0, 0, 1, 0, -3.45437e-05, 40774
-8846.24, 41244.9, -5.28411, 3.27684, -730.336, 0.21984, 0.185169, 1.03299, 0.34851, 0.655882, 0.0001, 45.5, 246, 13.5598, 0.0396281, 0, 0, 1, 0, -1.97472e-06, 40777
-11650.7, 306607, -237.324, 1.67814, -1067.01, 0.0168068, 0.465237, 1.03299, 0.34851, 0.655882, 0.0001, 45.5, 246, 40.6558, 0.183113, 0, 0, 0, 0, -5.73662e-06, 40778
-11650.7, 306607, -237.324, 1.67814, -1067.01, 0.0168068, 0.465237, 1.03299, 0.34851, 0.655882, 3, 45.5, 246, 40.6558, 0.183113, 0, 0, 0, 0, 2.60235e-06, 40778
-9066.33, 445433, -403.062, 0.0966868, -686.938, 0.678928, 0.669519, 1.03299, 0.34851, 0.655882, 0.0001, 45.5, 246, 39.1504, 0.219471, 0, 0, 0, 0, -1.96021e-05, 40782
-9066.33, 445433, -403.062, 0.0966868, -686.938, 0.678928, 0.669519, 1.03299, 0.34851, 0.655882, 3, 45.5, 246, 39.1504, 0.219471, 0, 0, 0, 0, -2.42752e-05, 40782
-6072.98, 511179, -434.758, 0.112651, -877.221, 0.864522, 0.662034, 0.958125, 0.351078, 0.648177, 0.0001, 182, 246, 39.1504, 0.219471, 0, 0, 0, 0, 6.4971e-05, 40782
-9583, 411555, -370.027, 0.356352, -785.411, 0.0462536, 0.67509, 1.03299, 0.34851, 0.655882, 0.0001, 45.5, 246, 42.7832, 0.241669, 0, 0, 0, 0, -2.10502e-05, 40789
-11723.5, 161396, -49.3678, 2.24363, -875.617, 0.0167231, 0.279946, 1.03299, 0.34851, 0.655882, 0.0001, 45.5, 246, 21.1028, 0.0690738, 0, 0, 1, 0, 1.02781e-05, 40797
-11723.5, 161396, -49.3678, 2.24363, -875.617, 0.0167231, 0.279946, 1.03299, 0.34851, 0.655882, 3, 45.5, 246, 21.1028, 0.0690738, 0, 0, 1, 0, -5.39092e-06, 40797
-8422.25, 188947, -96.145, 2.57132, -896.28, 0.0680597, 0.257232, 0.958125, 0.351078, 0.648177, 3, 182, 246, 21.1028, 0.0690738, 0, 0, 1, 0, -6.7338e-06, 40797
-10624.2, 148994, -84.3612, 2.31811, -1101.56, -0.0212079, 0.301876, 1.03299, 0.34851, 0.655882, 0.0001, 45.5, 246, 29.1412, 0.1108, 0, 0, 1, 0, 8.76178e-06, 40802
-10624.2, 148994, -84.3612, 2.31811, -1101.56, -0.0212079, 0.301876, 1.03299, 0.34851, 0.655882, 3, 45.5, 246, 29.1412, 0.1108, 0, 0, 1, 0, 8.1308e-06, 40802
-9111.17, 170053, -114.278, 2.4791, -1106.28, 0.00404945, 0.288917, 0.993198, 0.349787, 0.651995, 3, 91, 246, 29.1412, 0.1108, 0, 0, 1, 0, -7.47819e-06, 40802
-9617.78, 69628.9, -13.2047, 2.35294, -905.864, -0.0214666, 0.270916, 1.03299, 0.34851, 0.655882, 0.0001, 45.5, 246, 16.1607, 0.053982, 0, 0, 1, 0, -6.26193e-06, 40809
-9617.78, 69628.9, -13.2047, 2.35294, -905.864, -0.0214666, 0.270916, 1.03299, 0.34851, 0.655882, 3, 45.5, 246, 16.1607, 0.053982, 0, 0, 1, 0, 5.82614e-06, 40809
-11223.8, 323519, -100.561, 0.962968, -926.822, -0.00424945, 0.35878, 1.03299, 0.34851, 0.655882, 0.0001, 45.5, 246, 24.9004, 0.0797964, 0, 0, 1, 0, -8.37461e-06, 40813
-11223.8, 323519, -100.561, 0.962968, -926.822, -0.00424945, 0.35878, 1.03299, 0.34851, 0.655882, 3, 45.5, 246, 24.9004, 0.0797964, 0, 0, 1, 0, -1.12068e-05, 40813
-8512.55, 353964, -126.759, 1.0498, -932.866, 0.00464787, 0.302556, 0.958125, 0.351078, 0.648177, 0.0001, 182, 246, 24.9004, 0.0797964, 0, 0, 1, 0, -2.84328e-05, 40813
-9691.86, 337160, -113.092, 1.66542, -715.88, 0.371279, 0.279608, 0.958125, 0.351078, 0.648177, 3, 182, 246, 19.2529, 0.0645217, 0, 0, 1, 0, -1.75481e-05, 40817
-10888.9, 454717, -336.543, 0.690609, -824.452, 0.0582806, 0.577624, 1.03299, 0.34851, 0.655882, 3, 45.5, 246, 38.7852, 0.191938, 0, 0, 0, 0, -2.43332e-05, 40819
-9634.56, 109492, -57.2355, 1.48865, -621.491, 0.359833, 0.329221, 1.03299, 0.34851, 0.655882, 0.0001, 45.5, 246, 20.5325, 0.0942113, 0, 0, 1, 0, 3.55293e-05, 40821
-9634.56, 109492, -57.2355, 1.48865, -621.491, 0.359833, 0.329221, 1.03299, 0.34851, 0.655882, 3, 45.5, 246, 20.5325, 0.0942113, 0, 0, 1, 0, -3.06469e-05, 40821
-9070.52, 118790, -69.2881, 1.60135, -662.159, 0.392633, 0.302918, 0.993198, 0.349787, 0.651995, 0.0001, 91, 246, 20.5325, 0.0942113, 0, 0, 1, 0, -1.36033e-05, 40821
-9070.52, 118790, -69.2881, 1.60135, -662.159, 0.392633, 0.302918, 0.993198, 0.349787, 0.651995, 3, 91, 246, 20.5325, 0.0942113, 0, 0, 1, 0, 3.75139e-05, 40821
-8887.8, 165173, -212.871, 3.32914, -1133.46, -0.0412393, 0.312172, 1.03299, 0.34851, 0.655882, 0.0001, 45.5, 246, 46.8667, 0.19486, 0, 0, 0, 0, 3.39506e-06, 40824
-5877.9, 188483, -268.645, 3.62945, -1152.7, 0.0118811, 0.328666, 0.993198, 0.349787, 0.651995, 3, 91, 246, 46.8667, 0.19486, 0, 0, 1, 0, -1.04423e-05, 40824
-1817.97, 214314, -335.351, 3.98713, -1190.82, 0.0757427, 0.363857, 0.958125, 0.351078, 0.648177, 0.0001, 182, 246, 46.8667, 0.19486, 1.80931, 1, 0, 0, 9.66978e-07, 40824
-1817.97, 214314, -335.351, 3.98713, -1190.82, 0.0757427, 0.363857, 0.958125, 0.351078, 0.648177, 3, 182, 246, 46.8667, 0.19486, 1.63276, 1, 0, 0, 9.75602e-07, 40824
-9368.88, 588411, -231.595, 0.531011, -1156.72, 0.00075493, 0.427054, 1.03299, 0.34851, 0.655882, 0.0001, 45.5, 246, 34.9193, 0.101423, 0, 0, 0, 0, -9.7589e-06, 40825
-9368.88, 588411, -231.595, 0.531011, -1156.72, 0.00075493, 0.427054, 1.03299, 0.34851, 0.655882, 3, 45.5, 246, 34.9193, 0.101423, 0, 0, 0, 0, -3.75819e-05, 40825
-8627.26, 693293, -339.181, 0.18706, -770.959, 0.000144137, 0.501787, 1.03299, 0.34851, 0.655882, 0.0001, 45.5, 246, 31.8055, 0.127696, 0, 0, 0, 0, -0.000158677, 40830
-8627.26, 693293, -339.181, 0.18706, -770.959, 0.000144137, 0.501787, 1.03299, 0.34851, 0.655882, 3, 45.5, 246, 31.8055, 0.127696, 0, 0, 0, 0, -1.77427e-05, 40830
-8483.88, 48183.2, -48.4333, 2.30039, -643.674, 0.813217, 0.276311, 1.03299, 0.34851, 0.655882, 0.0001, 45.5, 246, 22.2957, 0.0773519, 0, 0, 1, 0, -7.33873e-05, 40831
-8483.88, 48183.2, -48.4333, 2.30039, -643.674, 0.813217, 0.276311, 1.03299, 0.34851, 0.655882, 3, 45.5, 246, 22.2957, 0.0773519, 0, 0, 1, 0, -5.78025e-05, 40831
-8091.48, 58775, -67.1064, 2.57855, -744.136, 0.963093, 0.262454, 0.993198, 0.349787, 0.651995, 0.0001, 91, 246, 22.2957, 0.0773519, 0, 0, 1, 0, 3.21345e-05, 40831
-8091.48, 58775, -67.1064, 2.57855, -744.136, 0.963093, 0.262454, 0.993198, 0.349787, 0.651995, 3, 91, 246, 22.2957, 0.0773519, 0, 0, 1, 0, 3.60881e-05, 40831
-9449.21, -81158, -5.47043, 0.247111, -997.165, 0.323599, 0.350299, 1.03299, 0.34851, 0.655882, 0.0001, 45.5, 246, -43.3919, 0.110184, 0, 0, 1, 0, -3.49161e-05, 40832
-9449.21, -81158, -5.47043, 0.247111, -997.165, 0.323599, 0.350299, 1.03299, 0.34851, 0.655882, 3, 45.5, 246, -43.3919, 0.110184, 0, 0, 1, 0, -4.00721e-05, 40832
-8577.52, 748480, -76.4618, 2.31768, -758.487, 0.0502562, 0.225905, 0.9175, 0.352806, 0.64323, 3, 455, 246, 17.7502, 0.0135144, 0, 0, 0, 0, 5.44734e-05, 40833
-11356.9, 116550, -41.3124, 3.39958, -945.136, -0.050253, 0.174271, 1.03299, 0.34851, 0.655882, 0.0001, 45.5, 246, 22.1645, 0.0664698, 0, 0, 0, 0, -8.84571e-06, 40841
-11356.9, 116550, -41.3124, 3.39958, -945.136, -0.050253, 0.174271, 1.03299, 0.34851, 0.655882, 3, 45.5, 246, 22.1645, 0.0664698, 0, 0, 0, 0, -9.41001e-06, 40841
-7711.75, 136313, -238.101, 3.5018, -593.057, 0.0104142, 0.26224, 1.03299, 0.34851, 0.655882, 0.0001, 45.5, 246, 45.7655, 0.185122, 1.27648, 1, 0, 0, 7.5996e-08, 40843
-7711.75, 136313, -238.101, 3.5018, -593.057, 0.0104142, 0.26224, 1.03299, 0.34851, 0.655882, 3, 45.5, 246, 45.7655, 0.185122, 1.1647, 1, 0, 0, -9.18076e-07, 40843
-5030.95, 143827, -280.717, 3.83646, -621.83, 0.0696799, 0.281422, 0.993198, 0.349787, 0.651995, 0.0001, 91, 246, 45.7655, 0.185122, 1.35251, 1, 1, 0, 9.30819e-06, 40843
-5030.95, 143827, -280.717, 3.83646, -621.83, 0.0696799, 0.281422, 0.993198, 0.349787, 0.651995, 3, 91, 246, 45.7655, 0.185122, 1.17888, 1, 1, 0, 3.34476e-06, 40843
-1663.27, 153294, -332.388, 4.24037, -665.013, 0.142893, 0.32154, 0.958125, 0.351078, 0.648177, 0.0001, 182, 246, 45.7655, 0.185122, 1.78787, 1, 1, 0, 1.93282e-05, 40843
-1663.27, 153294, -332.388, 4.24037, -665.013, 0.142893, 0.32154, 0.958125, 0.351078, 0.648177, 3, 182, 246, 45.7655, 0.185122, 1.65111, 1, 1, 0, 4.22241e-06, 40843
-10245.1, 360279, -335.484, 0.876015, -943.32, 0.255607, 0.62699, 1.03299, 0.34851, 0.655882, 0.0001, 45.5, 246, 44.7672, 0.234947, 0, 0, 0, 0, -2.08913e-05, 40852
-10245.1, 360279, -335.484, 0.876015, -943.32, 0.255607, 0.62699, 1.03299, 0.34851, 0.655882, 3, 45.5, 246, 44.7672, 0.234947, 0, 0, 0, 0, 3.33078e-05, 40852
-6159.68, -19461.6, -28.8771, 3.55062, -789.203, -0.0518796, 0.1871, 1.03299, 0.34851, 0.655882, 0.0001, 45.5, 246, 23.5534, 0.0111829, 0, 0, 1, 1, 4.83502e-06, 40856
-6159.68, -19461.6, -28.8771, 3.55062, -789.203, -0.0518796, 0.1871, 1.03299, 0.34851, 0.655882, 3, 45.5, 246, 23.5534, 0.0111829, 0, 0, 1, 1, -8.73966e-06, 40856
-4268.48, 1.06473e+06, -239.834, 0.336751, -1141.69, 0.272338, 0.287443, 0.9175, 0.352806, 0.64323, 3, 455, 246, 29.6483, 0.0539423, 0, 0, 0, 0, -5.96168e-05, 40864
-9437.33, 178103, -214.893, 2.22417, -817.032, -0.0108847, 0.429047, 1.03299, 0.34851, 0.655882, 3, 45.5, 246, 44.1041, 0.224142, 0, 0, 1, 0, -1.45813e-05, 40867
-357.578, 224874, -341.875, 2.83252, -892.088, 0.0822425, 0.448752, 0.9175, 0.352806, 0.64323, 3, 455, 246, 44.1041, 0.224142, 1.0664, 1, 0, 0, -7.27391e-06, 40867
-5664.42, 327210, -455.223, 4.28157, -664.419, 0.187255, 0.428947, 0.958125, 0.351078, 0.648177, 0.0001, 182, 246, 41.4392, 0.192697, 1.90596, 1, 0, 0, -1.81704e-06, 40869
-5664.42, 327210, -455.223, 4.28157, -664.419, 0.187255, 0.428947, 0.958125, 0.351078, 0.648177, 3, 182, 246, 41.4392, 0.192697, 1.76274, 1, 0, 0, -6.22456e-05, 40869
-7222.88, 451705, -318.905, 0.246775, -829.706, 1.22464e-06, 0.536839, 0.993198, 0.349787, 0.651995, 0.0001, 91, 246, 37.0765, 0.186523, 0, 0, 1, 0, 0.000122843, 40870
-845.583, 191147, -297.978, 3.02234, -1261.88, 0.526886, 0.399131, 0.9175, 0.352806, 0.64323, 0.0001, 455, 246, 45.8157, 0.230416, 1.11238, 1, 0, 0, -1.30642e-05, 40874
-845.583, 191147, -297.978, 3.02234, -1261.88, 0.526886, 0.399131, 0.9175, 0.352806, 0.64323, 3, 455, 246, 45.8157, 0.230416, 1.3643, 1, 0, 0, -3.12306e-07, 40874
-9797.58, 119051, -108.712, 3.1023, -977.23, 0.577143, 0.231232, 1.03299, 0.34851, 0.655882, 3, 45.5, 246, 32.4394, 0.116269, 0, 0, 0, 0, 1.56602e-05, 40875
400.69, 232470, -305.681, 4.81953, -1574.27, 1.15232, 0.339013, 0.9175, 0.352806, 0.64323, 0.0001, 455, 246, 32.4394, 0.116269, 1.52598, 1, 0, 0, 2.02742e-05, 40875
400.69, 232470, -305.681, 4.81953, -1574.27, 1.15232, 0.339013, 0.9175, 0.352806, 0.64323, 3, 455, 246, 32.4394, 0.116269, 2.11051, 1, 0, 0, 1.49389e-05, 40875
-10592.4, 686546, -17.7965, 0.280819, -860.68, 0.736511, 0.303727, 0.993198, 0.349787, 0.651995, 0.0001, 91, 246, 17.3373, 0.00630033, 0, 0, 1, 0, -9.0566e-05, 40878
-9430.3, 244493, -118.686, 1.3129, -1032.55, 0.94972, 0.331272, 0.993198, 0.349787, 0.651995, 0.0001, 91, 246, 26.2743, 0.101008, 0, 0, 1, 0, 4.09284e-05, 40880
-37818.1, 809056, -434.58, 2.54632, -841.069, -0.0108198, 0.464241, 1.03299, 0.34851, 0.655882, 0.0001, 45.5, 246, 37.9466, 0.140608, 0, 0, 0, 0, 2.09472e-05, 40881
-37818.1, 809056, -434.58, 2.54632, -841.069, -0.0108198, 0.464241, 1.03299, 0.34851, 0.655882, 3, 45.5, 246, 37.9466, 0.140608, 0, 0, 0, 0, -4.25756e-06, 40881
1723.68, 209914, -356.55, 5.19177, -1020.21, 0.80817, 0.364005, 0.9175, 0.352806, 0.64323, 0.0001, 455, 246, 35.2796, 0.135362, 3.11534, 1, 0, 0, 155.592, 40884
1723.68, 209914, -356.55, 5.19177, -1020.21, 0.80817, 0.364005, 0.9175, 0.352806, 0.64323, 3, 455, 246, 35.2796, 0.135362, 3.18168, 1, 0, 0, 155.586, 40884
-9652.46, 798705, -265.618, 0.231859, -690.34, 0.00451212, 0.425547, 1.03299, 0.34851, 0.655882, 0.0001, 45.5, 246, 25.8758, 0.086152, 0, 0, 0, 0, -9.0809e-05, 40886
-9652.46, 798705, -265.618, 0.231859, -690.34, 0.00451212, 0.425547, 1.03299, 0.34851, 0.655882, 3, 45.5, 246, 25.8758, 0.086152, 0, 0, 0, 0, 1.57786e-05, 40886
-9515.06, 118916, -125.655, 3.5298, -898.068, -0.0541075, 0.197707, 1.03299, 0.34851, 0.655882, 0.0001, 45.5, 246, 34.3177, 0.122905, 0, 0, 0, 0, -3.2844e-06, 40887
-9515.06, 118916, -125.655, 3.5298, -898.068, -0.0541075, 0.197707, 1.03299, 0.34851, 0.655882, 3, 45.5, 246, 34.3177, 0.122905, 0, 0, 0, 0, -8.46454e-06, 40887
-7488.02, 132872, -167.688, 3.84877, -908.712, 0.00567374, 0.213544, 0.993198, 0.349787, 0.651995, 0.0001, 91, 246, 34.3177, 0.122905, 0, 0, 1, 0, -6.39572e-06, 40887
-7488.02, 132872, -167.688, 3.84877, -908.712, 0.00567374, 0.213544, 0.993198, 0.349787, 0.651995, 3, 91, 246, 34.3177, 0.122905, 0, 0, 1, 0, 3.31666e-06, 40887
126.42, 172754, -303.877, 4.88515, -1003.73, 0.201502, 0.334977, 0.9175, 0.352806, 0.64323, 0.0001, 455, 246, 34.3177, 0.122905, 1.53444, 1, 0, 0, 1.06186e-05, 40887
126.42, 172754, -303.877, 4.88515, -1003.73, 0.201502, 0.334977, 0.9175, 0.352806, 0.64323, 3, 455, 246, 34.3177, 0.122905, 1.54327, 1, 0, 0, 3.78178e-06, 40887
-3424.22, 248578, -126.568, 4.82824, -1271.57, 0.726541, 0.265279, 0.9175, 0.352806, 0.64323, 0.0001, 455, 246, 15.6267, 0.0243812, 0, 0, 0, 0, 2.80998e-05, 40894
-3424.22, 248578, -126.568, 4.82824, -1271.57, 0.726541, 0.265279, 0.9175, 0.352806, 0.64323, 3, 455, 246, 15.6267, 0.0243812, 0, 0, 0, 0, 5.67414e-05, 40894
-15004.4, 173094, -2.39274, 3.5419, -1016.58, -0.0419892, 0.135749, 1.03299, 0.34851, 0.655882, 0.0001, 45.5, 246, 18.429, 0.0368124, 0, 0, 0, 0, 7.75116e-06, 40898
-15004.4, 173094, -2.39274, 3.5419, -1016.58, -0.0419892, 0.135749, 1.03299, 0.34851, 0.655882, 3, 45.5, 246, 18.429, 0.0368124, 0, 0, 0, 0, -3.26804e-06, 40898
-9772.53, 402574, -281.413, 0.923, -1184.53, 0.013954, 0.523323, 1.03299, 0.34851, 0.655882, 0.0001, 45.5, 246, 41.9884, 0.179074, 0, 0, 0, 0, 2.28011e-05, 40905
-9772.53, 402574, -281.413, 0.923, -1184.53, 0.013954, 0.523323, 1.03299, 0.34851, 0.655882, 3, 45.5, 246, 41.9884, 0.179074, 0, 0, 0, 0, 3.41074e-05, 40905
-10837.7, 140639, -89.2766, 2.63542, -1034.11, 0.79566, 0.265147, 1.03299, 0.34851, 0.655882, 0.0001, 45.5, 246, 29.2638, 0.10267, 0, 0, 0, 0, 3.69335e-05, 40906
-10837.7, 140639, -89.2766, 2.63542, -1034.11, 0.79566, 0.265147, 1.03299, 0.34851, 0.655882, 3, 45.5, 246, 29.2638, 0.10267, 0, 0, 0, 0, 5.95475e-05, 40906
-11011.4, 150981, -101.895, 2.72736, -905.48, -0.015875, 0.27079, 1.03299, 0.34851, 0.655882, 0.0001, 45.5, 246, 29.4932, 0.11362, 0, 0, 1, 0, -1.02015e-05, 40911
-11011.4, 150981, -101.895, 2.72736, -905.48, -0.015875, 0.27079, 1.03299, 0.34851, 0.655882, 3, 45.5, 246, 29.4932, 0.11362, 0, 0, 1, 0, -5.59919e-06, 40911
-9840.36, 215190, -157.552, 1.48664, -1187.55, -0.0100905, 0.413646, 1.03299, 0.34851, 0.655882, 0.0001, 45.5, 246, 37.1713, 0.16853, 0, 0, 0, 0, 3.20091e-05, 40912
-9840.36, 215190, -157.552, 1.48664, -1187.55, -0.0100905, 0.413646, 1.03299, 0.34851, 0.655882, 3, 45.5, 246, 37.1713, 0.16853, 0, 0, 0, 0, 1.80087e-05, 40912
-8316.75, 240268, -182.907, 1.5706, -1193.45, 0.000169941, 0.393548, 0.993198, 0.349787, 0.651995, 0.0001, 91, 246, 37.1713, 0.16853, 0, 0, 1, 0, 1.7505e-05, 40912
-8316.75, 240268, -182.907, 1.5706, -1193.45, 0.000169941, 0.393548, 0.993198, 0.349787, 0.651995, 3, 91, 246, 37.1713, 0.16853, 0, 0, 1, 0, -4.14998e-06, 40912
-11088.3, 273210, -254.716, 1.87838, -1071.59, 0.0757619, 0.489795, 1.03299, 0.34851, 0.655882, 0.0001, 45.5, 246, 44.2622, 0.210794, 0, 0, 0, 0, -6.90021e-06, 40916
-11088.3, 273210, -254.716, 1.87838, -1071.59, 0.0757619, 0.489795, 1.03299, 0.34851, 0.655882, 3, 45.5, 246, 44.2622, 0.210794, 0, 0, 0, 0, 9.05669e-06, 40916
-7326.59, 535258, -337.683, 0.266345, -1040.43, 0.410117, 0.536626, 1.03299, 0.34851, 0.655882, 0.0001, 45.5, 246, 38.7887, 0.155164, 0, 0, 0, 0, -0.000104065, 40919
-7326.59, 535258, -337.683, 0.266345, -1040.43, 0.410117, 0.536626, 1.03299, 0.34851, 0.655882, 3, 45.5, 246, 38.7887, 0.155164, 0, 0, 0, 0, 0.606834, 40919
-12524.2, 784379, -69.7807, 0.351501, -548.229, 0.685638, 0.34351, 1.03299, 0.34851, 0.655882, 0.0001, 45.5, 246, 15.1052, 0.0205655, 0, 0, 1, 0, 9.88315e-06, 40920
-12522, 589823, -41.7691, 0.543076, -1006.87, 0.149734, 0.338896, 1.03299, 0.34851, 0.655882, 0.0001, 45.5, 246, 22.5704, 0.0200903, 0, 0, 1, 0, -3.24853e-05, 40923
-10154.4, 454402, -196.592, 0.645592, -1018.95, 0.851353, 0.407415, 1.03299, 0.34851, 0.655882, 0.0001, 45.5, 246, 31.2924, 0.0969376, 0, 0, 0, 0, 4.85687e-05, 40926
-10154.4, 454402, -196.592, 0.645592, -1018.95, 0.851353, 0.407415, 1.03299, 0.34851, 0.655882, 3, 45.5, 246, 31.2924, 0.0969376, 0, 0, 0, 0, 9.54404e-05, 40926
-8934.21, 633386, -343.549, 0.122986, -633.953, 0.00051069, 0.522344, 1.03299, 0.34851, 0.655882, 0.0001, 45.5, 246, 30.3365, 0.142282, 0, 0, 0, 0, -9.05402e-05, 40932
-8934.21, 633386, -343.549, 0.122986, -633.953, 0.00051069, 0.522344, 1.03299, 0.34851, 0.655882, 3, 45.5, 246, 30.3365, 0.142282, 0, 0, 0, 0, -2.88179e-06, 40932
-7771.23, 642604, -355.934, 0.12717, -635.16, 0.000579429, 0.501124, 0.993198, 0.349787, 0.651995, 3, 91, 246, 30.3365, 0.142282, 0, 0, 1, 0, 3.52441e-05, 40932
-14632, 212278, -100.297, 3.4092, -1101.05, -0.0486039, 0.191082, 1.03299, 0.34851, 0.655882, 0.0001, 45.5, 246, 30.2963, 0.0952283, 0, 0, 0, 0, -8.86918e-07, 40937
-14632, 212278, -100.297, 3.4092, -1101.05, -0.0486039, 0.191082, 1.03299, 0.34851, 0.655882, 3, 45.5, 246, 30.2963, 0.0952283, 0, 0, 0, 0, 4.14665e-06, 40937
-5564.37, 983941, -365.627, 0.228663, -1085.22, 0.134301, 0.435077, 0.993198, 0.349787, 0.651995, 0.0001, 91, 246, 35.6995, 0.0925851, 2.6786, 1, 1, 0, -1123.11, 40940
-5564.37, 983941, -365.627, 0.228663, -1085.22, 0.134301, 0.435077, 0.993198, 0.349787, 0.651995, 3, 91, 246, 35.6995, 0.0925851, 2.67795, 1, 1, 0, -1123.81, 40940
-9216.39, 47617.7, 4.56245, 3.32753, -759.306, 0.215027, 0.176419, 1.03299, 0.34851, 0.655882, 0.0001, 45.5, 246, 12.0898, 0.0344874, 0, 0, 1, 0, 6.90879e-06, 40944
-9216.39, 47617.7, 4.56245, 3.32753, -759.306, 0.215027, 0.176419, 1.03299, 0.34851, 0.655882, 3, 45.5, 246, 12.0898, 0.0344874, 0, 0, 1, 0, 1.35796e-05, 40944
-9429.33, 400425, -79.0614, 0.624883, -1197.44, 0.0160053, 0.315702, 0.993198, 0.349787, 0.651995, 0.0001, 91, 246, 25.6283, 0.049154, 0, 0, 1, 0, 8.15121e-05, 40945
-8343.19, 603654, -133.833, 0.369239, -1159.43, 0.0357055, 0.331995, 0.993198, 0.349787, 0.651995, 0.0001, 91, 246, 29.1093, 0.0553991, 0, 0, 1, 0, 3.51737e-05, 40956
-7351.45, 628873, -141.917, 0.381528, -1167.44, 0.0365302, 0.302456, 0.958125, 0.351078, 0.648177, 0.0001, 182, 246, 29.1093, 0.0553991, 0, 0, 1, 0, 5.40845e-05, 40956
-8919.67, 293646, -432.147, 3.63299, -748.765, 0.0700252, 0.484732, 0.993198, 0.349787, 0.651995, 0.0001, 91, 246, 49.7779, 0.235378, 1.3849, 1, 1, 0, -1.9188e-06, 40965
-8919.67, 293646, -432.147, 3.63299, -748.765, 0.0700252, 0.484732, 0.993198, 0.349787, 0.651995, 3, 91, 246, 49.7779, 0.235378, 1.29436, 1, 1, 0, -1.13666e-05, 40965
9820.41, 338654, -625.126, 4.68574, -927.883, 0.253033, 0.636406, 0.9175, 0.352806, 0.64323, 0.0001, 455, 246, 49.7779, 0.235378, 0, 0, 0, 0, 1.68277e-05, 40965
9820.41, 338654, -625.126, 4.68574, -927.883, 0.253033, 0.636406, 0.9175, 0.352806, 0.64323, 3, 455, 246, 49.7779, 0.235378, 0, 0, 0, 0, 1.03566e-05, 40965
-10372.9, 108253, 4.43367, 1.68751, -1123.32, 0.0622536, 0.303253, 1.03299, 0.34851, 0.655882, 0.0001, 45.5, 246, 14.6115, 0.0307085, 0, 0, 1, 0, -2.07641e-05, 40972
-10372.9, 108253, 4.43367, 1.68751, -1123.32, 0.0622536, 0.303253, 1.03299, 0.34851, 0.655882, 3, 45.5, 246, 14.6115, 0.0307085, 0, 0, 1, 0, 7.75399e-06, 40972
-11615.4, 162923, -34.9564, 1.85968, -760.531, 0.62885, 0.293853, 1.03299, 0.34851, 0.655882, 3, 45.5, 246, 17.3657, 0.0505708, 0, 0, 1, 0, -4.96836e-07, 40973
-10192.5, 176057, -74.8952, 1.4442, -1196.97, -0.00642152, 0.344689, 1.03299, 0.34851, 0.655882, 0.0001, 45.5, 246, 27.2782, 0.0999486, 0, 0, 1, 0, -5.33578e-07, 40975
-10192.5, 176057, -74.8952, 1.4442, -1196.97, -0.00642152, 0.344689, 1.03299, 0.34851, 0.655882, 3, 45.5, 246, 27.2782, 0.0999486, 0, 0, 1, 0, 5.68454e-07, 40975
-8740.91, 79282.3, -69.8949, 1.63398, -911.447, 0.123934, 0.34284, 1.03299, 0.34851, 0.655882, 0.0001, 45.5, 246, 28.9763, 0.144758, 0, 0, 1, 0, -9.67693e-06, 40978
-8740.91, 79282.3, -69.8949, 1.63398, -911.447, 0.123934, 0.34284, 1.03299, 0.34851, 0.655882, 3, 45.5, 246, 28.9763, 0.144758, 0, 0, 1, 0, 1.0445e-05, 40978
-1181.58, 348967, -298.956, 2.57903, -1320.84, 0.546589, 0.367211, 0.9175, 0.352806, 0.64323, 0.0001, 455, 246, 35.4494, 0.149437, 0, 0, 0, 0, 2.44537e-05, 40980
-1181.58, 348967, -298.956, 2.57903, -1320.84, 0.546589, 0.367211, 0.9175, 0.352806, 0.64323, 3, 455, 246, 35.4494, 0.149437, 0, 0, 0, 0, -1.00244e-05, 40980
-12199.6, 357637, -25.7426, 0.883796, -1146.29, 0.0295896, 0.331532, 1.03299, 0.34851, 0.655882, 0.0001, 45.5, 246, 21.7801, 0.0252076, 0, 0, 1, 0, -1.01804e-05, 40983
-12199.6, 357637, -25.7426, 0.883796, -1146.29, 0.0295896, 0.331532, 1.03299, 0.34851, 0.655882, 3, 45.5, 246, 21.7801, 0.0252076, 0, 0, 1, 0, 1.82934e-05, 40983
-11029, 381278, -36.1516, 0.923146, -1152.73, 0.0333294, 0.298275, 0.993198, 0.349787, 0.651995, 3, 91, 246, 21.7801, 0.0252076, 0, 0, 1, 0, -1.42568e-06, 40983
-9160.87, 167983, -159.708, 1.63367, -1117.49, -0.0110077, 0.426175, 1.03299, 0.34851, 0.655882, 0.0001, 45.5, 246, 40.1709, 0.205644, 0, 0, 1, 0, -1.13463e-05, 40987
-9160.87, 167983, -159.708, 1.63367, -1117.49, -0.0110077, 0.426175, 1.03299, 0.34851, 0.655882, 3, 45.5, 246, 40.1709, 0.205644, 0, 0, 1, 0, 3.00136e-05, 40987
-10240, 395578, -217.653, 0.496724, -600.744, 0.581729, 0.442807, 1.03299, 0.34851, 0.655882, 0.0001, 45.5, 246, 26.9788, 0.129573, 0, 0, 1, 0, -1.62616e-05, 40996
-10240, 395578, -217.653, 0.496724, -600.744, 0.581729, 0.442807, 1.03299, 0.34851, 0.655882, 3, 45.5, 246, 26.9788, 0.129573, 0, 0, 1, 0, 9.05874e-06, 40996
-9168.33, 416438, -229.012, 0.532881, -664.797, 0.641899, 0.415667, 0.993198, 0.349787, 0.651995, 0.0001, 91, 246, 26.9788, 0.129573, 0, 0, 1, 0, 3.31275e-05, 40996
-7871.3, 441305, -240.933, 0.57262, -743.531, 0.715851, 0.39292, 0.958125, 0.351078, 0.648177, 0.0001, 182, 246, 26.9788, 0.129573, 0, 0, 1, 0, -2.57728e-05, 40996
-12802.1, 197191, -11.9458, 1.99168, -1154.57, 0.156056, 0.283548, 1.03299, 0.34851, 0.655882, 0.0001, 45.5, 246, 19.9024, 0.0375295, 0, 0, 1, 0, -4.74128e-06, 40997
-12802.1, 197191, -11.9458, 1.99168, -1154.57, 0.156056, 0.283548, 1.03299, 0.34851, 0.655882, 3, 45.5, 246, 19.9024, 0.0375295, 0, 0, 1, 0, 1.14179e-05, 40997
-8868.12, 72091.1, -25.5747, 3.08106, -971.047, 0.00400184, 0.226243, 0.993198, 0.349787, 0.651995, 0.0001, 91, 246, 14.8995, 0.0463432, 0, 0, 1, 0, 3.03269e-06, 41000
-8868.12, 72091.1, -25.5747, 3.08106, -971.047, 0.00400184, 0.226243, 0.993198, 0.349787, 0.651995, 3, 91, 246, 14.8995, 0.0463432, 0, 0, 1, 0, 9.71961e-06, 41000
