-6983.14, 80673.2, -151.043, 3.47765, -594.498, 0.0566504, 0.199466, 1.03299, 0.34851, 0.655882, 3, 45.5, 246, 38.2717, 0.125844, 0, 0, 1, 0, 2.39928e-06, 1507
-5538.46, 87588.6, -184.999, 3.81109, -618.764, 0.116033, 0.213913, 0.993198, 0.349787, 0.651995, 3, 91, 246, 38.2717, 0.125844, 0, 0, 1, 0, -8.51891e-06, 1507
-3659.26, 95841.2, -226.303, 4.21299, -655.694, 0.190215, 0.248924, 0.958125, 0.351078, 0.648177, 0.0001, 182, 246, 38.2717, 0.125844, 1.00004, 1, 1, 0, 2.32828e-06, 1507
-221.535, 110127, -297.71, 4.90257, -733.607, 0.323658, 0.334164, 0.9175, 0.352806, 0.64323, 0.0001, 455, 246, 38.2717, 0.125844, 1.45549, 1, 1, 0, -1.4293e-05, 1507
-221.535, 110127, -297.71, 4.90257, -733.607, 0.323658, 0.334164, 0.9175, 0.352806, 0.64323, 3, 455, 246, 38.2717, 0.125844, 1.41677, 1, 1, 0, -9.71078e-06, 1507
-6588.69, 333763, -411.537, 4.09012, -695.693, 0.229796, 0.392618, 0.958125, 0.351078, 0.648177, 0.0001, 182, 246, 38.6104, 0.17602, 1.05956, 1, 0, 0, -2.75924e-06, 1510
-11161.2, 432759, -106.175, 0.540004, -565.069, 0.566572, 0.359114, 1.03299, 0.34851, 0.655882, 0.0001, 45.5, 246, 17.9648, 0.057755, 0, 0, 1, 0, 2.16136e-05, 1525
-11161.2, 432759, -106.175, 0.540004, -565.069, 0.566572, 0.359114, 1.03299, 0.34851, 0.655882, 3, 45.5, 246, 17.9648, 0.057755, 0, 0, 1, 0, -6.05994e-05, 1525
-10257.4, 452898, -113.092, 0.577931, -622.395, 0.623791, 0.325569, 0.993198, 0.349787, 0.651995, 3, 91, 246, 17.9648, 0.057755, 0, 0, 1, 0, 8.16374e-05, 1525
-9151.93, 476696, -120.579, 0.619353, -692.483, 0.693748, 0.296584, 0.958125, 0.351078, 0.648177, 0.0001, 182, 246, 17.9648, 0.057755, 0, 0, 1, 0, 3.07115e-05, 1525
-6589.24, -9272.19, -24.7807, 3.4528, -898.958, -0.046393, 0.194392, 1.03299, 0.34851, 0.655882, 0.0001, 45.5, 246, 22.5528, 0.0416698, 0, 0, 1, 1, 7.02594e-06, 1526
-6589.24, -9272.19, -24.7807, 3.4528, -898.958, -0.046393, 0.194392, 1.03299, 0.34851, 0.655882, 3, 45.5, 246, 22.5528, 0.0416698, 0, 0, 1, 1, -1.50307e-05, 1526
-9636.77, 685728, -97.0975, 0.3031, -1175.71, 0.0720381, 0.352834, 1.03299, 0.34851, 0.655882, 0.0001, 45.5, 246, 28.5761, 0.0361063, 0, 0, 1, 0, 3.0619e-06, 1528
-9636.77, 685728, -97.0975, 0.3031, -1175.71, 0.0720381, 0.352834, 1.03299, 0.34851, 0.655882, 3, 45.5, 246, 28.5761, 0.0361063, 0, 0, 1, 0, -6.51911e-06, 1528
-8846.96, 713098, -103.511, 0.314157, -1190.11, 0.0732906, 0.317841, 0.993198, 0.349787, 0.651995, 0.0001, 91, 246, 28.5761, 0.0361063, 0, 0, 1, 0, 4.81423e-05, 1528
-7520.18, -5434.04, -25.5972, 2.45657, -808.459, 0.528412, 0.2772, 1.03299, 0.34851, 0.655882, 0.0001, 45.5, 246, 23.4164, 0.0322012, 0, 0, 1, 0, 1.51778e-05, 1535
-8253.12, -8318.06, 5.67389, 2.00447, -711.879, 0.128873, 0.301187, 1.03299, 0.34851, 0.655882, 3, 45.5, 246, 7.38913, 0.0434213, 0, 0, 1, 1, 9.35158e-06, 1536
-6681.17, 86303.8, -157.398, 3.26932, -795.021, 0.535265, 0.231092, 1.03299, 0.34851, 0.655882, 0.0001, 45.5, 246, 41.5159, 0.145409, 1.04108, 1, 1, 0, -3.48403e-06, 1546
-2854.46, 122472, -251.063, 4.17466, -1019.33, 0.790053, 0.275114, 0.958125, 0.351078, 0.648177, 0.0001, 182, 246, 41.5159, 0.145409, 1.27035, 1, 1, 0, -7.04617e-06, 1546
-2854.46, 122472, -251.063, 4.17466, -1019.33, 0.790053, 0.275114, 0.958125, 0.351078, 0.648177, 3, 182, 246, 41.5159, 0.145409, 1.10513, 1, 1, 0, -9.24953e-06, 1546
1969.4, 164143, -353.3, 5.10516, -1290.49, 1.09545, 0.366392, 0.9175, 0.352806, 0.64323, 0.0001, 455, 246, 41.5159, 0.145409, 0, 0, 0, 0, 8.46543e-06, 1546
1969.4, 164143, -353.3, 5.10516, -1290.49, 1.09545, 0.366392, 0.9175, 0.352806, 0.64323, 3, 455, 246, 41.5159, 0.145409, 0, 0, 0, 0, 8.46543e-06, 1546
-12400.2, 132225, -15.6486, 3.16977, -790.682, -0.0479032, 0.186336, 1.03299, 0.34851, 0.655882, 0.0001, 45.5, 246, 15.9662, 0.0410312, 0, 0, 1, 0, 7.11441e-06, 1553
-12400.2, 132225, -15.6486, 3.16977, -790.682, -0.0479032, 0.186336, 1.03299, 0.34851, 0.655882, 3, 45.5, 246, 15.9662, 0.0410312, 0, 0, 1, 0, 2.60748e-06, 1553
-5316.03, 641015, -288.76, 0.070025, -1135.31, 0.00259808, 0.465201, 1.03299, 0.34851, 0.655882, 0.0001, 45.5, 246, 36.5537, 0.115292, 0, 0, 0, 0, -7.301e-05, 1560
-4500.78, 665264, -298.543, 0.0722328, -1136.32, 0.00262138, 0.438785, 0.993198, 0.349787, 0.651995, 0.0001, 91, 246, 36.5537, 0.115292, 0, 0, 1, 0, 0.000588604, 1560
-3585.63, 689659, -307.897, 0.0743269, -1137.38, 0.00264605, 0.416488, 0.958125, 0.351078, 0.648177, 0.0001, 182, 246, 36.5537, 0.115292, 0, 0, 0, 0, 0.000587831, 1560
-8521.91, 141122, -175.103, 2.46252, -1050.05, 0.223329, 0.37184, 1.03299, 0.34851, 0.655882, 0.0001, 45.5, 246, 43.5505, 0.20325, 0, 0, 1, 0, -5.03039e-06, 1561
-8521.91, 141122, -175.103, 2.46252, -1050.05, 0.223329, 0.37184, 1.03299, 0.34851, 0.655882, 3, 45.5, 246, 43.5505, 0.20325, 0, 0, 1, 0, -2.14281e-06, 1561
-9640.36, 204922, -236.825, 2.32203, -1092.48, 0.0839752, 0.454974, 1.03299, 0.34851, 0.655882, 3, 45.5, 246, 47.315, 0.229071, 0, 0, 0, 0, 8.23446e-06, 1564
-2777.34, 217614, -368.844, 3.31485, -769.181, 0.0866293, 0.457429, 0.958125, 0.351078, 0.648177, 0.0001, 182, 246, 48.2013, 0.234191, 1.58695, 1, 0, 0, -3.45828e-06, 1567
-2777.34, 217614, -368.844, 3.31485, -769.181, 0.0866293, 0.457429, 0.958125, 0.351078, 0.648177, 3, 182, 246, 48.2013, 0.234191, 1.39964, 1, 0, 0, 1.30663e-05, 1567
-8081.01, 40929.8, -44.0859, 3.08822, -872.103, 0.532624, 0.2136, 1.03299, 0.34851, 0.655882, 0.0001, 45.5, 246, 23.9778, 0.0728332, 1.02691, 1, 1, 0, -1.32855e-05, 1570
-9379.72, 219493, -131.507, 1.32968, -783.64, 0.611785, 0.344471, 0.993198, 0.349787, 0.651995, 0.0001, 91, 246, 26.3656, 0.122742, 0, 0, 1, 0, 3.63063e-05, 1577
-9569.01, 488047, -95.3989, 0.910093, -936.93, 0.26997, 0.281653, 0.958125, 0.351078, 0.648177, 3, 182, 246, 21.4235, 0.0437684, 0, 0, 1, 0, -4.38044e-06, 1579
-6870.46, 110326, -181.185, 3.4041, -981.938, -0.0216633, 0.261723, 1.03299, 0.34851, 0.655882, 3, 45.5, 246, 45.8995, 0.179098, 0, 0, 0, 0, 7.4454e-06, 1581
-4786.95, 127971, -230.005, 3.71547, -1002, 0.0339063, 0.277311, 0.993198, 0.349787, 0.651995, 0.0001, 91, 246, 45.8995, 0.179098, 1.08925, 1, 1, 0, 3.39615e-06, 1581
-4786.95, 127971, -230.005, 3.71547, -1002, 0.0339063, 0.277311, 0.993198, 0.349787, 0.651995, 3, 91, 246, 45.8995, 0.179098, 0, 0, 1, 0, -5.09831e-06, 1581
-1924.19, 147636, -288.667, 4.08785, -1039.29, 0.101329, 0.312279, 0.958125, 0.351078, 0.648177, 0.0001, 182, 246, 45.8995, 0.179098, 1.61058, 1, 1, 0, -4.4099e-06, 1581
-1924.19, 147636, -288.667, 4.08785, -1039.29, 0.101329, 0.312279, 0.958125, 0.351078, 0.648177, 3, 182, 246, 45.8995, 0.179098, 1.45446, 1, 1, 0, 1.3418e-05, 1581
-8186.9, 96355.3, -52.3639, 3.48778, -690.859, 0.434258, 0.226254, 0.958125, 0.351078, 0.648177, 0.0001, 182, 246, 12.5488, 0.0357047, 0, 0, 1, 0, 1.21393e-05, 1582
-8186.9, 96355.3, -52.3639, 3.48778, -690.859, 0.434258, 0.226254, 0.958125, 0.351078, 0.648177, 3, 182, 246, 12.5488, 0.0357047, 0, 0, 1, 0, 8.27731e-06, 1582
-6058.44, 111854, -92.421, 4.04776, -776.249, 0.568056, 0.270502, 0.9175, 0.352806, 0.64323, 0.0001, 455, 246, 12.5488, 0.0357047, 0, 0, 1, 0, -4.27454e-05, 1582
-6058.44, 111854, -92.421, 4.04776, -776.249, 0.568056, 0.270502, 0.9175, 0.352806, 0.64323, 3, 455, 246, 12.5488, 0.0357047, 0, 0, 1, 0, 5.8961e-05, 1582
-4041.84, 149280, -154.961, 4.98704, -847.353, 0.516964, 0.283811, 0.9175, 0.352806, 0.64323, 0.0001, 455, 246, 17.6799, 0.0509631, 0, 0, 1, 0, -6.63009e-07, 1583
-4041.84, 149280, -154.961, 4.98704, -847.353, 0.516964, 0.283811, 0.9175, 0.352806, 0.64323, 3, 455, 246, 17.6799, 0.0509631, 0, 0, 1, 0, -1.68864e-05, 1583
-9571.83, 163583, -179.65, 2.45993, -905.782, 0.0416198, 0.365542, 1.03299, 0.34851, 0.655882, 3, 45.5, 246, 40.6437, 0.188929, 0, 0, 1, 0, 4.95602e-07, 1585
-7545.97, 179109, -214.375, 2.65174, -927.104, 0.0707693, 0.360732, 0.993198, 0.349787, 0.651995, 0.0001, 91, 246, 40.6437, 0.188929, 0, 0, 1, 0, -1.63663e-05, 1585
-7545.97, 179109, -214.375, 2.65174, -927.104, 0.0707693, 0.360732, 0.993198, 0.349787, 0.651995, 3, 91, 246, 40.6437, 0.188929, 0, 0, 1, 0, 5.76723e-06, 1585
-418.436, 222310, -318.259, 3.20628, -1014.64, 0.16251, 0.393511, 0.9175, 0.352806, 0.64323, 3, 455, 246, 40.6437, 0.188929, 1.03075, 1, 0, 0, 1.72825e-06, 1585
-7585.09, 130099, -220.779, 3.43155, -675.093, 0.122744, 0.260417, 1.03299, 0.34851, 0.655882, 0.0001, 45.5, 246, 45.1407, 0.179852, 1.18686, 1, 0, 0, -5.62993e-07, 1587
-7585.09, 130099, -220.779, 3.43155, -675.093, 0.122744, 0.260417, 1.03299, 0.34851, 0.655882, 3, 45.5, 246, 45.1407, 0.179852, 1.04563, 1, 0, 0, 3.68963e-07, 1587
-5095.32, 140260, -263.995, 3.77729, -714.72, 0.183348, 0.277343, 0.993198, 0.349787, 0.651995, 0.0001, 91, 246, 45.1407, 0.179852, 1.25251, 1, 1, 0, 2.65853e-06, 1587
-5095.32, 140260, -263.995, 3.77729, -714.72, 0.183348, 0.277343, 0.993198, 0.349787, 0.651995, 3, 91, 246, 45.1407, 0.179852, 1.03814, 1, 1, 0, -1.46416e-05, 1587
-1884.18, 152842, -317.014, 4.19602, -770.979, 0.260673, 0.315305, 0.958125, 0.351078, 0.648177, 0.0001, 182, 246, 45.1407, 0.179852, 1.69211, 1, 1, 0, -1.21895e-05, 1587
-1884.18, 152842, -317.014, 4.19602, -770.979, 0.260673, 0.315305, 0.958125, 0.351078, 0.648177, 3, 182, 246, 45.1407, 0.179852, 1.55008, 1, 1, 0, -1.04602e-05, 1587
-4935.82, 270921, -103.371, 3.49207, -1089.78, 0.37198, 0.246913, 0.9175, 0.352806, 0.64323, 3, 455, 246, 16.7528, 0.028556, 0, 0, 0, 0, 1.93801e-06, 1594
-9642.8, 85744.9, -30.6584, 2.01734, -949.592, -0.0157109, 0.297598, 1.03299, 0.34851, 0.655882, 0.0001, 45.5, 246, 19.6911, 0.0731179, 0, 0, 1, 0, 1.12772e-05, 1596
-9642.8, 85744.9, -30.6584, 2.01734, -949.592, -0.0157109, 0.297598, 1.03299, 0.34851, 0.655882, 3, 45.5, 246, 19.6911, 0.0731179, 0, 0, 1, 0, 2.45203e-05, 1596
-9171.34, 701234, -128.105, 0.264643, -1012.98, 0.00402417, 0.362594, 1.03299, 0.34851, 0.655882, 0.0001, 45.5, 246, 26.9235, 0.0469221, 0, 0, 1, 0, -1.48411e-05, 1598
-8417.53, 719697, -134.645, 0.273191, -1014.58, 0.00434448, 0.328219, 0.993198, 0.349787, 0.651995, 0.0001, 91, 246, 26.9235, 0.0469221, 0, 0, 1, 0, 0.000103073, 1598
-7556.49, 738269, -141.115, 0.281299, -1016.31, 0.0046852, 0.298137, 0.958125, 0.351078, 0.648177, 0.0001, 182, 246, 26.9235, 0.0469221, 0, 0, 1, 0, 5.88198e-06, 1598
-3613.33, 247953, -380.688, 3.6092, -755.934, 0.150469, 0.429112, 0.958125, 0.351078, 0.648177, 0.0001, 182, 246, 44.5998, 0.209793, 1.4784, 1, 0, 0, -1.24293e-05, 1602
-3613.33, 247953, -380.688, 3.6092, -755.934, 0.150469, 0.429112, 0.958125, 0.351078, 0.648177, 3, 182, 246, 44.5998, 0.209793, 1.28362, 1, 0, 0, -1.24185e-05, 1602
-10879.5, 341807, -113.045, 0.834533, -899.184, 0.116465, 0.367251, 1.03299, 0.34851, 0.655882, 0.0001, 45.5, 246, 25.2934, 0.083428, 0, 0, 1, 0, -1.10681e-06, 1605
-10879.5, 341807, -113.045, 0.834533, -899.184, 0.116465, 0.367251, 1.03299, 0.34851, 0.655882, 3, 45.5, 246, 25.2934, 0.083428, 0, 0, 1, 0, -6.65042e-06, 1605
-9719.79, 358605, -124.864, 0.875834, -918.978, 0.12192, 0.33622, 0.993198, 0.349787, 0.651995, 3, 91, 246, 25.2934, 0.083428, 0, 0, 1, 0, -8.6381e-06, 1605
-8343.55, 376353, -137.442, 0.917723, -940.418, 0.127914, 0.309973, 0.958125, 0.351078, 0.648177, 0.0001, 182, 246, 25.2934, 0.083428, 0, 0, 1, 0, -1.50364e-05, 1605
-2187.64, 70015.8, -256.154, 5.05258, -1012.97, 0.48658, 0.328025, 0.9175, 0.352806, 0.64323, 0.0001, 455, 246, 38.2336, 0.0636287, 1.19882, 1, 1, 0, 8.48848e-06, 1608
-2187.64, 70015.8, -256.154, 5.05258, -1012.97, 0.48658, 0.328025, 0.9175, 0.352806, 0.64323, 3, 455, 246, 38.2336, 0.0636287, 1.13002, 1, 1, 0, 1.60483e-06, 1608
-10694.6, 296011, -72.1927, 0.767231, -755.79, 0.0666034, 0.349827, 1.03299, 0.34851, 0.655882, 0.0001, 45.5, 246, 19.7949, 0.0626765, 0, 0, 1, 0, 6.58562e-07, 1610
-9878.25, 307215, -80.5051, 0.801663, -765.577, 0.0700422, 0.316977, 0.993198, 0.349787, 0.651995, 0.0001, 91, 246, 19.7949, 0.0626765, 0, 0, 1, 0, -2.40262e-05, 1610
-8013.43, 105098, -142.718, 3.04544, -917.239, 0.00650658, 0.272704, 1.03299, 0.34851, 0.655882, 0.0001, 45.5, 246, 39.5419, 0.157864, 0, 0, 1, 0, 9.62283e-06, 1611
-8013.43, 105098, -142.718, 3.04544, -917.239, 0.00650658, 0.272704, 1.03299, 0.34851, 0.655882, 3, 45.5, 246, 39.5419, 0.157864, 0, 0, 1, 0, -5.26028e-07, 1611
-110.269, 163054, -303.451, 4.10972, -1031.14, 0.195012, 0.351915, 0.9175, 0.352806, 0.64323, 0.0001, 455, 246, 39.5419, 0.157864, 1.88129, 1, 0, 0, -1.2367e-06, 1611
-110.269, 163054, -303.451, 4.10972, -1031.14, 0.195012, 0.351915, 0.9175, 0.352806, 0.64323, 3, 455, 246, 39.5419, 0.157864, 1.8861, 1, 0, 0, -1.24189e-06, 1611
-11440, 251616, -98.0327, 1.16992, -581.333, 0.193182, 0.352947, 1.03299, 0.34851, 0.655882, 0.0001, 45.5, 246, 20.7771, 0.0903961, 0, 0, 1, 0, 2.48737e-05, 1618
-11440, 251616, -98.0327, 1.16992, -581.333, 0.193182, 0.352947, 1.03299, 0.34851, 0.655882, 3, 45.5, 246, 20.7771, 0.0903961, 0, 0, 1, 0, 3.72571e-06, 1618
-10282.3, 260419, -109.247, 1.24018, -603.279, 0.205839, 0.324125, 0.993198, 0.349787, 0.651995, 0.0001, 91, 246, 20.7771, 0.0903961, 0, 0, 1, 0, 0.000101263, 1618
-10282.3, 260419, -109.247, 1.24018, -603.279, 0.205839, 0.324125, 0.993198, 0.349787, 0.651995, 3, 91, 246, 20.7771, 0.0903961, 0, 0, 1, 0, -2.95022e-05, 1618
-5583.85, 20950.2, -87.6214, 3.63747, -874.693, -0.0550654, 0.175952, 1.03299, 0.34851, 0.655882, 0.0001, 45.5, 246, 36.6662, 0.0699688, 0, 0, 1, 1, -2.70323e-06, 1619
-5583.85, 20950.2, -87.6214, 3.63747, -874.693, -0.0550654, 0.175952, 1.03299, 0.34851, 0.655882, 3, 45.5, 246, 36.6662, 0.0699688, 0, 0, 1, 1, 1.2427e-05, 1619
-2252.49, 69902, -253.328, 5.07446, -968.653, 0.218899, 0.327749, 0.9175, 0.352806, 0.64323, 0.0001, 455, 246, 36.6662, 0.0699688, 1.10185, 1, 1, 0, -7.37637e-06, 1619
-2252.49, 69902, -253.328, 5.07446, -968.653, 0.218899, 0.327749, 0.9175, 0.352806, 0.64323, 3, 455, 246, 36.6662, 0.0699688, 1.04571, 1, 1, 0, 7.89529e-06, 1619
-6606.22, -40586.9, 25.7203, 3.37472, -976.056, 0.188685, 0.203929, 1.03299, 0.34851, 0.655882, 3, 45.5, 246, 7.74244, 0.0607792, 0, 0, 1, 0, -4.34833e-06, 1623
-7268.33, -24121.5, -4.15883, 3.71827, -1009.33, 0.251396, 0.215459, 0.993198, 0.349787, 0.651995, 3, 91, 246, 7.74244, 0.0607792, 0, 0, 1, 1, 1.56272e-05, 1623
-9463.48, 456366, -328.915, 0.434845, -822.819, 0.522383, 0.554171, 1.03299, 0.34851, 0.655882, 0.0001, 45.5, 246, 36.7452, 0.17502, 0, 0, 0, 0, -1.12436e-05, 1625
-9463.48, 456366, -328.915, 0.434845, -822.819, 0.522383, 0.554171, 1.03299, 0.34851, 0.655882, 3, 45.5, 246, 36.7452, 0.17502, 0, 0, 0, 0, -3.45973e-05, 1625
-9677.26, 59507.6, 16.5374, 2.36796, -790.657, 0.0921958, 0.262793, 1.03299, 0.34851, 0.655882, 0.0001, 45.5, 246, 8.38012, 0.0211157, 0, 0, 1, 0, 3.48879e-06, 1629
-9677.26, 59507.6, 16.5374, 2.36796, -790.657, 0.0921958, 0.262793, 1.03299, 0.34851, 0.655882, 3, 45.5, 246, 8.38012, 0.0211157, 0, 0, 1, 0, 9.60604e-06, 1629
-6125.78, 21401.1, -81.506, 2.86323, -883.637, 0.489687, 0.249113, 1.03299, 0.34851, 0.655882, 0.0001, 45.5, 246, 38.6609, 0.0796744, 0, 0, 1, 0, -1.05437e-05, 1632
-6125.78, 21401.1, -81.506, 2.86323, -883.637, 0.489687, 0.249113, 1.03299, 0.34851, 0.655882, 3, 45.5, 246, 38.6609, 0.0796744, 0, 0, 1, 0, -5.56536e-06, 1632
-3086.38, 94233.8, -230.91, 4.24389, -1303.66, 0.904388, 0.316885, 0.9175, 0.352806, 0.64323, 0.0001, 455, 246, 38.6609, 0.0796744, 1.30165, 1, 1, 0, 6.07216e-06, 1632
-3086.38, 94233.8, -230.91, 4.24389, -1303.66, 0.904388, 0.316885, 0.9175, 0.352806, 0.64323, 3, 455, 246, 38.6609, 0.0796744, 1.2715, 1, 1, 0, 6.1544e-06, 1632
-12259.9, 414853, 0.411605, 0.644643, -672.926, -0.00178304, 0.333575, 1.03299, 0.34851, 0.655882, 0.0001, 45.5, 246, 12.5741, 0.00351722, 0, 0, 1, 0, 4.63504e-05, 1635
-12259.9, 414853, 0.411605, 0.644643, -672.926, -0.00178304, 0.333575, 1.03299, 0.34851, 0.655882, 3, 45.5, 246, 12.5741, 0.00351722, 0, 0, 1, 0, -1.49145e-05, 1635
-11360.6, 422647, -3.52637, 0.669322, -672.863, 0.00011224, 0.298718, 0.993198, 0.349787, 0.651995, 3, 91, 246, 12.5741, 0.00351722, 0, 0, 1, 0, 4.55022e-06, 1635
-10724.3, 410902, -109.382, 0.617874, -897.11, 0.642073, 0.361165, 1.03299, 0.34851, 0.655882, 0.0001, 45.5, 246, 24.1976, 0.0624438, 0, 0, 1, 0, 3.89525e-06, 1643
-10724.3, 410902, -109.382, 0.617874, -897.11, 0.642073, 0.361165, 1.03299, 0.34851, 0.655882, 3, 45.5, 246, 24.1976, 0.0624438, 0, 0, 1, 0, 0.000196196, 1643
-9685.22, 441997, -119.061, 0.665196, -1000.59, 0.716585, 0.328223, 0.993198, 0.349787, 0.651995, 3, 91, 246, 24.1976, 0.0624438, 0, 0, 1, 0, 6.56e-05, 1643
-6594.07, 227670, -260.715, 3.9655, -679.173, 0.142513, 0.278046, 0.958125, 0.351078, 0.648177, 0.0001, 182, 246, 32.2144, 0.133379, 0, 0, 1, 0, -3.98636e-05, 1650
-6594.07, 227670, -260.715, 3.9655, -679.173, 0.142513, 0.278046, 0.958125, 0.351078, 0.648177, 3, 182, 246, 32.2144, 0.133379, 0, 0, 1, 0, -7.19284e-05, 1650
-11022.5, 250816, -119.874, 1.228, -794.33, 0.0829612, 0.370334, 1.03299, 0.34851, 0.655882, 0.0001, 45.5, 246, 26.5014, 0.11335, 0, 0, 1, 0, 6.7408e-06, 1651
-11022.5, 250816, -119.874, 1.228, -794.33, 0.0829612, 0.370334, 1.03299, 0.34851, 0.655882, 3, 45.5, 246, 26.5014, 0.11335, 0, 0, 1, 0, -1.5561e-06, 1651
-9738.74, 263336, -135.033, 1.29598, -809.586, 0.0911476, 0.343452, 0.993198, 0.349787, 0.651995, 3, 91, 246, 26.5014, 0.11335, 0, 0, 1, 0, -7.46666e-06, 1651
-10588, 81071.6, 0.259133, 3.44801, -611.652, -0.0564683, 0.15793, 1.03299, 0.34851, 0.655882, 0.0001, 45.5, 246, 10.7235, 0.026959, 0, 0, 1, 0, -5.57593e-06, 1657
-10588, 81071.6, 0.259133, 3.44801, -611.652, -0.0564683, 0.15793, 1.03299, 0.34851, 0.655882, 3, 45.5, 246, 10.7235, 0.026959, 0, 0, 1, 0, -5.69177e-06, 1657
-9483.53, 86849.2, -19.8059, 3.74871, -609.791, 0.000444943, 0.168555, 0.993198, 0.349787, 0.651995, 0.0001, 91, 246, 10.7235, 0.026959, 0, 0, 1, 0, -1.1343e-05, 1657
-9483.53, 86849.2, -19.8059, 3.74871, -609.791, 0.000444943, 0.168555, 0.993198, 0.349787, 0.651995, 3, 91, 246, 10.7235, 0.026959, 0, 0, 1, 0, 8.53905e-06, 1657
-9174.62, 93861.7, -29.3795, 2.6246, -1100.87, 0.00848818, 0.250984, 0.993198, 0.349787, 0.651995, 0.0001, 91, 246, 16.6936, 0.0514556, 0, 0, 1, 0, 7.10979e-06, 1660
-9174.62, 93861.7, -29.3795, 2.6246, -1100.87, 0.00848818, 0.250984, 0.993198, 0.349787, 0.651995, 3, 91, 246, 16.6936, 0.0514556, 0, 0, 1, 0, -1.32589e-05, 1660
-5990.33, 144337, -105.14, 3.11839, -1132.16, 0.093067, 0.263131, 0.9175, 0.352806, 0.64323, 3, 455, 246, 16.6936, 0.0514556, 0, 0, 1, 0, 3.83074e-06, 1660
-5276.29, 17361, -91.0584, 3.46407, -922.715, 0.267894, 0.19373, 1.03299, 0.34851, 0.655882, 0.0001, 45.5, 246, 39.6976, 0.0634411, 0, 0, 1, 0, 1.26169e-05, 1663
-5276.29, 17361, -91.0584, 3.46407, -922.715, 0.267894, 0.19373, 1.03299, 0.34851, 0.655882, 3, 45.5, 246, 39.6976, 0.0634411, 0, 0, 1, 0, -6.36371e-06, 1663
-1620.19, 85743, -274.526, 5.11734, -1218.62, 0.622431, 0.337855, 0.9175, 0.352806, 0.64323, 0.0001, 455, 246, 39.6976, 0.0634411, 1.52877, 1, 1, 0, 4.02888e-06, 1663
-1620.19, 85743, -274.526, 5.11734, -1218.62, 0.622431, 0.337855, 0.9175, 0.352806, 0.64323, 3, 455, 246, 39.6976, 0.0634411, 1.46259, 1, 1, 0, 7.77587e-06, 1663
-10972.1, 339492, -22.7425, 0.587538, -644.519, 0.00277248, 0.337244, 1.03299, 0.34851, 0.655882, 0.0001, 45.5, 246, 13.2998, 0.0199603, 0, 0, 1, 0, -1.83649e-05, 1665
-9159.04, 169759, -216.913, 2.69915, -979.953, 0.567551, 0.369986, 1.03299, 0.34851, 0.655882, 0.0001, 45.5, 246, 44.9434, 0.201192, 0, 0, 0, 0, -2.48712e-05, 1680
-9159.04, 169759, -216.913, 2.69915, -979.953, 0.567551, 0.369986, 1.03299, 0.34851, 0.655882, 3, 45.5, 246, 44.9434, 0.201192, 0, 0, 0, 0, -3.44085e-05, 1680
-6598.92, 195128, -261.379, 3.01256, -1098.42, 0.662754, 0.372827, 0.993198, 0.349787, 0.651995, 0.0001, 91, 246, 44.9434, 0.201192, 2.35551, 1, 1, 0, -7.13303e-05, 1680
-12684.5, 118380, 21.3402, 3.602, -1183.87, -0.0621231, 0.135355, 1.03299, 0.34851, 0.655882, 0.0001, 45.5, 246, 17.1278, 0.0345582, 0, 0, 0, 0, 7.48914e-07, 1683
-12684.5, 118380, 21.3402, 3.602, -1183.87, -0.0621231, 0.135355, 1.03299, 0.34851, 0.655882, 3, 45.5, 246, 17.1278, 0.0345582, 0, 0, 0, 0, 4.47785e-06, 1683
-10787.9, 141820, -17.3707, 3.92469, -1177.71, 0.000140245, 0.150232, 0.993198, 0.349787, 0.651995, 0.0001, 91, 246, 17.1278, 0.0345582, 0, 0, 1, 0, 2.84041e-06, 1683
-10787.9, 141820, -17.3707, 3.92469, -1177.71, 0.000140245, 0.150232, 0.993198, 0.349787, 0.651995, 3, 91, 246, 17.1278, 0.0345582, 0, 0, 1, 0, 9.63713e-06, 1683
-10776.4, 145669, -48.7255, 1.78676, -845.453, 0.517207, 0.307277, 1.03299, 0.34851, 0.655882, 0.0001, 45.5, 246, 20.5724, 0.0707638, 0, 0, 1, 0, -2.76025e-05, 1696
-10776.4, 145669, -48.7255, 1.78676, -845.453, 0.517207, 0.307277, 1.03299, 0.34851, 0.655882, 3, 45.5, 246, 20.5724, 0.0707638, 0, 0, 1, 0, -3.19313e-05, 1696
-11536.9, 255809, -281.852, 2.17845, -827.277, -0.0207649, 0.501145, 1.03299, 0.34851, 0.655882, 3, 45.5, 246, 45.5464, 0.232113, 0, 0, 0, 0, 1.63299e-05, 1697
-7401.61, 74983.4, -81.158, 3.09975, -1061.62, 1.29335, 0.271191, 0.9175, 0.352806, 0.64323, 0.0001, 455, 246, 12.9797, 0.045765, 0, 0, 1, 0, 4.48156e-05, 1699
-7401.61, 74983.4, -81.158, 3.09975, -1061.62, 1.29335, 0.271191, 0.9175, 0.352806, 0.64323, 3, 455, 246, 12.9797, 0.045765, 0, 0, 1, 0, 5.07927e-05, 1699
-11021.9, 130610, -86.0913, 3.6144, -1095.37, -0.0203411, 0.170547, 1.03299, 0.34851, 0.655882, 0.0001, 45.5, 246, 30.3052, 0.0992312, 0, 0, 0, 0, -6.29276e-06, 1708
-11021.9, 130610, -86.0913, 3.6144, -1095.37, -0.0203411, 0.170547, 1.03299, 0.34851, 0.655882, 3, 45.5, 246, 30.3052, 0.0992312, 0, 0, 0, 0, -1.92662e-06, 1708
-8800.84, 151496, -132.237, 3.95205, -1107.96, 0.0424296, 0.18798, 0.993198, 0.349787, 0.651995, 0.0001, 91, 246, 30.3052, 0.0992312, 0, 0, 1, 0, 3.14001e-07, 1708
-8800.84, 151496, -132.237, 3.95205, -1107.96, 0.0424296, 0.18798, 0.993198, 0.349787, 0.651995, 3, 91, 246, 30.3052, 0.0992312, 0, 0, 1, 0, -2.35341e-06, 1708
10.1671, 209755, -284.393, 5.06425, -1223, 0.254474, 0.318893, 0.9175, 0.352806, 0.64323, 3, 455, 246, 30.3052, 0.0992312, 1.04821, 1, 0, 0, -8.44177e-07, 1708
-6739.87, -17488.4, -29.9056, 3.10824, -687.17, -0.0459923, 0.231057, 1.03299, 0.34851, 0.655882, 0.0001, 45.5, 246, 23.791, 0.00822843, 0, 0, 1, 1, -6.13404e-06, 1709
-6739.87, -17488.4, -29.9056, 3.10824, -687.17, -0.0459923, 0.231057, 1.03299, 0.34851, 0.655882, 3, 45.5, 246, 23.791, 0.00822843, 0, 0, 1, 1, -1.78243e-06, 1709
-6136.64, 1.04416e+06, -188.907, 0.586441, -1010.35, 0.312405, 0.264684, 0.9175, 0.352806, 0.64323, 3, 455, 246, 25.2234, 0.0413211, 0, 0, 0, 0, -1.81558e-05, 1712
-3269.69, 319833, -398.259, 3.72177, -1114.73, 0.0751824, 0.427355, 0.958125, 0.351078, 0.648177, 0.0001, 182, 246, 45.7706, 0.194466, 1.30203, 1, 0, 0, 2.14128e-05, 1713
-3269.69, 319833, -398.259, 3.72177, -1114.73, 0.0751824, 0.427355, 0.958125, 0.351078, 0.648177, 3, 182, 246, 45.7706, 0.194466, 1.14287, 1, 0, 0, 9.1209e-06, 1713
-11482.3, 211689, -35.168, 1.31591, -938.342, 0.592161, 0.321195, 1.03299, 0.34851, 0.655882, 0.0001, 45.5, 246, 19.2764, 0.0454423, 0, 0, 1, 0, 7.80497e-05, 1715
-8281.58, 54242.4, -56.5599, 3.59174, -783.677, -0.0621458, 0.163734, 1.03299, 0.34851, 0.655882, 0.0001, 45.5, 246, 24.5093, 0.0712316, 0, 0, 1, 0, -6.2675e-06, 1716
-8281.58, 54242.4, -56.5599, 3.59174, -783.677, -0.0621458, 0.163734, 1.03299, 0.34851, 0.655882, 3, 45.5, 246, 24.5093, 0.0712316, 0, 0, 1, 0, 1.4708e-06, 1716
-6767.92, 143805, -294.655, 3.34006, -530.634, 0.519586, 0.314939, 1.03299, 0.34851, 0.655882, 0.0001, 45.5, 246, 50.4471, 0.210616, 1.55176, 1, 0, 0, 1.67965e-05, 1721
-6767.92, 143805, -294.655, 3.34006, -530.634, 0.519586, 0.314939, 1.03299, 0.34851, 0.655882, 3, 45.5, 246, 50.4471, 0.210616, 1.48314, 1, 0, 0, 5.79248e-06, 1721
-3701.9, 155427, -340.41, 3.76023, -611.611, 0.626271, 0.33379, 0.993198, 0.349787, 0.651995, 0.0001, 91, 246, 50.4471, 0.210616, 1.7476, 1, 1, 0, 9.41191e-05, 1721
-3701.9, 155427, -340.41, 3.76023, -611.611, 0.626271, 0.33379, 0.993198, 0.349787, 0.651995, 3, 91, 246, 50.4471, 0.210616, 1.64995, 1, 1, 0, -8.88924e-06, 1721
322.612, 171448, -399.175, 4.29229, -723.923, 0.773924, 0.376899, 0.958125, 0.351078, 0.648177, 0.0001, 182, 246, 50.4471, 0.210616, 3.03087, 1, 0, 0, 211.681, 1721
322.612, 171448, -399.175, 4.29229, -723.923, 0.773924, 0.376899, 0.958125, 0.351078, 0.648177, 3, 182, 246, 50.4471, 0.210616, 2.83494, 1, 0, 0, -212.265, 1721
-11278.7, 172263, -30.9709, 1.64991, -1018.49, 0.24657, 0.308938, 1.03299, 0.34851, 0.655882, 0.0001, 45.5, 246, 19.8114, 0.052641, 0, 0, 1, 0, 3.40851e-06, 1723
-10169, 193447, -48.7719, 1.768, -1062.68, 0.269903, 0.283634, 0.993198, 0.349787, 0.651995, 0.0001, 91, 246, 19.8114, 0.052641, 0, 0, 1, 0, -4.97437e-06, 1723
-10465.2, 383602, -292.095, 0.81281, -874.412, 0.255577, 0.540823, 1.03299, 0.34851, 0.655882, 0.0001, 45.5, 246, 38.6813, 0.189966, 0, 0, 0, 0, -9.75042e-06, 1726
-10465.2, 383602, -292.095, 0.81281, -874.412, 0.255577, 0.540823, 1.03299, 0.34851, 0.655882, 3, 45.5, 246, 38.6813, 0.189966, 0, 0, 0, 0, -1.22159e-05, 1726
-5481.7, 103959, -203.862, 2.96653, -963.068, 0.00875801, 0.343582, 1.03299, 0.34851, 0.655882, 0.0001, 45.5, 246, 53.3095, 0.234077, 1.20241, 1, 1, 0, 4.86974e-06, 1727
-3628.17, 121425, -248.609, 3.22226, -985.972, 0.050888, 0.350915, 0.993198, 0.349787, 0.651995, 0.0001, 91, 246, 53.3095, 0.234077, 1.33926, 1, 1, 0, -3.22067e-06, 1727
-3628.17, 121425, -248.609, 3.22226, -985.972, 0.050888, 0.350915, 0.993198, 0.349787, 0.651995, 3, 91, 246, 53.3095, 0.234077, 1.12972, 1, 1, 0, 1.63355e-05, 1727
-1090.6, 140792, -301.461, 3.52042, -1022.3, 0.101621, 0.37351, 0.958125, 0.351078, 0.648177, 0.0001, 182, 246, 53.3095, 0.234077, 1.98025, 1, 1, 0, 3.58107e-06, 1727
-1090.6, 140792, -301.461, 3.52042, -1022.3, 0.101621, 0.37351, 0.958125, 0.351078, 0.648177, 3, 182, 246, 53.3095, 0.234077, 1.83582, 1, 1, 0, 1.56183e-05, 1727
-10696.3, 360918, -299.724, 0.575312, -582.547, 0.433396, 0.561685, 1.03299, 0.34851, 0.655882, 3, 45.5, 246, 35.1453, 0.202117, 0, 0, 0, 0, 8.27404e-06, 1729
-9223.21, 377673, -316.056, 0.614851, -630.453, 0.466927, 0.545791, 0.993198, 0.349787, 0.651995, 3, 91, 246, 35.1453, 0.202117, 0, 0, 1, 0, -4.98511e-05, 1729
-8559.63, 41070, -16.9568, 3.46994, -932.205, 0.0218581, 0.173694, 1.03299, 0.34851, 0.655882, 0.0001, 45.5, 246, 18.8609, 0.0570001, 1.22614, 1, 1, 0, -1.18142e-05, 1731
-8559.63, 41070, -16.9568, 3.46994, -932.205, 0.0218581, 0.173694, 1.03299, 0.34851, 0.655882, 3, 45.5, 246, 18.8609, 0.0570001, 1.16091, 1, 1, 0, -7.36625e-06, 1731
-2897.5, 130976, -248.386, 3.64918, -1123.69, 0.23545, 0.315785, 0.958125, 0.351078, 0.648177, 0.0001, 182, 246, 45.1462, 0.181552, 1.2134, 1, 1, 0, 4.21688e-06, 1733
-2897.5, 130976, -248.386, 3.64918, -1123.69, 0.23545, 0.315785, 0.958125, 0.351078, 0.648177, 3, 182, 246, 45.1462, 0.181552, 1.00436, 1, 1, 0, -5.03031e-06, 1733
-6541.72, 207337, -307.114, 3.81417, -976.455, 0.675198, 0.314803, 0.993198, 0.349787, 0.651995, 0.0001, 91, 246, 45.2666, 0.186364, 1.08516, 1, 1, 0, -6.19709e-05, 1735
-1651.47, 237366, -377.752, 4.36952, -1138.52, 0.838003, 0.358956, 0.958125, 0.351078, 0.648177, 0.0001, 182, 246, 45.2666, 0.186364, 2.5126, 1, 0, 0, 4.14374e-05, 1735
-1651.47, 237366, -377.752, 4.36952, -1138.52, 0.838003, 0.358956, 0.958125, 0.351078, 0.648177, 3, 182, 246, 45.2666, 0.186364, 2.33029, 1, 0, 0, 2.71512e-05, 1735
-7687.73, 792512, -246.43, 0.163425, -899.581, 0.259019, 0.410637, 1.03299, 0.34851, 0.655882, 0.0001, 45.5, 246, 29.1814, 0.0762397, 0, 0, 0, 0, 6.87607e-05, 1737
-7687.73, 792512, -246.43, 0.163425, -899.581, 0.259019, 0.410637, 1.03299, 0.34851, 0.655882, 3, 45.5, 246, 29.1814, 0.0762397, 0, 0, 0, 0, 0.000169234, 1737
-6746.74, 819661, -255.583, 0.170952, -939.11, 0.270201, 0.379775, 0.993198, 0.349787, 0.651995, 3, 91, 246, 29.1814, 0.0762397, 0, 0, 1, 0, -1.6224e-05, 1737
-10517.9, 383179, -485.322, 3.48333, -993.499, 0.0368844, 0.571768, 0.993198, 0.349787, 0.651995, 0.0001, 91, 246, 52.2974, 0.238585, 1.09766, 1, 1, 0, -5.34582e-06, 1739
-9853.81, 171129, -205.173, 2.92968, -835.153, -0.0348852, 0.33323, 1.03299, 0.34851, 0.655882, 0.0001, 45.5, 246, 42.2011, 0.187315, 0, 0, 0, 0, -8.07243e-07, 1747
-9853.81, 171129, -205.173, 2.92968, -835.153, -0.0348852, 0.33323, 1.03299, 0.34851, 0.655882, 3, 45.5, 246, 42.2011, 0.187315, 0, 0, 0, 0, -2.8771e-06, 1747
-12068.8, 244381, -90.1027, 1.4918, -723.575, 0.203142, 0.3356, 1.03299, 0.34851, 0.655882, 3, 45.5, 246, 22.2877, 0.0846494, 0, 0, 1, 0, -1.75371e-06, 1754
-8807.78, 270096, -122.351, 1.69761, -785.136, 0.24092, 0.290289, 0.958125, 0.351078, 0.648177, 0.0001, 182, 246, 22.2877, 0.0846494, 0, 0, 1, 0, 4.53235e-05, 1754
-8807.78, 270096, -122.351, 1.69761, -785.136, 0.24092, 0.290289, 0.958125, 0.351078, 0.648177, 3, 182, 246, 22.2877, 0.0846494, 0, 0, 1, 0, -0.000109317, 1754
-10327.3, 919506, -187.897, 0.216283, -601.34, 0.00186777, 0.377011, 1.03299, 0.34851, 0.655882, 0.0001, 45.5, 246, 20.4658, 0.0528156, 0, 0, 1, 0, 6.95634e-07, 1759
-10327.3, 919506, -187.897, 0.216283, -601.34, 0.00186777, 0.377011, 1.03299, 0.34851, 0.655882, 3, 45.5, 246, 20.4658, 0.0528156, 0, 0, 1, 0, -4.25602e-05, 1759
-11499.8, 252492, -257.673, 2.15292, -876.119, -0.00716881, 0.470396, 1.03299, 0.34851, 0.655882, 0.0001, 45.5, 246, 43.6096, 0.215891, 0, 0, 0, 0, -3.26938e-06, 1769
-11499.8, 252492, -257.673, 2.15292, -876.119, -0.00716881, 0.470396, 1.03299, 0.34851, 0.655882, 3, 45.5, 246, 43.6096, 0.215891, 0, 0, 0, 0, 1.25499e-06, 1769
-11786.1, 303486, -147.416, 1.49327, -1175.63, 0.0851833, 0.377425, 1.03299, 0.34851, 0.655882, 0.0001, 45.5, 246, 33.202, 0.11754, 0, 0, 0, 0, -1.35132e-05, 1771
-11786.1, 303486, -147.416, 1.49327, -1175.63, 0.0851833, 0.377425, 1.03299, 0.34851, 0.655882, 3, 45.5, 246, 33.202, 0.11754, 0, 0, 0, 0, 1.65273e-05, 1771
-8658.19, 1888.3, -0.974774, 1.79394, -1026.42, -4.13913e-05, 0.291099, 0.993198, 0.349787, 0.651995, 0.0001, 91, 246, 4.79631, 0.0535712, 0, 0, 1, 1, -1.0976e-05, 1772
-8658.19, 1888.3, -0.974774, 1.79394, -1026.42, -4.13913e-05, 0.291099, 0.993198, 0.349787, 0.651995, 3, 91, 246, 4.79631, 0.0535712, 0, 0, 1, 1, 1.17026e-05, 1772
-11636.8, 199634, -28.7508, 1.53125, -963.665, -0.0071739, 0.312768, 1.03299, 0.34851, 0.655882, 0.0001, 45.5, 246, 18.6715, 0.0456454, 0, 0, 1, 0, 1.79839e-05, 1773
-11636.8, 199634, -28.7508, 1.53125, -963.665, -0.0071739, 0.312768, 1.03299, 0.34851, 0.655882, 3, 45.5, 246, 18.6715, 0.0456454, 0, 0, 1, 0, -3.5218e-05, 1773
-10475.4, 215651, -43.9902, 1.61483, -964.889, 0.00368832, 0.285714, 0.993198, 0.349787, 0.651995, 0.0001, 91, 246, 18.6715, 0.0456454, 0, 0, 1, 0, -2.40668e-05, 1773
-9606.1, 330436, -434.294, 3.9275, -1006.29, 0.320465, 0.437928, 0.993198, 0.349787, 0.651995, 0.0001, 91, 246, 49.6427, 0.214311, 1.24565, 1, 1, 0, 3.21024e-05, 1777
-9606.1, 330436, -434.294, 3.9275, -1006.29, 0.320465, 0.437928, 0.993198, 0.349787, 0.651995, 3, 91, 246, 49.6427, 0.214311, 1.1541, 1, 1, 0, -1.9989e-05, 1777
-15931, 317693, -78.9797, 3.65673, -1131.96, 0.31191, 0.160518, 0.993198, 0.349787, 0.651995, 0.0001, 91, 246, 24.022, 0.0474868, 0, 0, 1, 0, -1.62227e-05, 1780
-15931, 317693, -78.9797, 3.65673, -1131.96, 0.31191, 0.160518, 0.993198, 0.349787, 0.651995, 3, 91, 246, 24.022, 0.0474868, 0, 0, 1, 0, -6.38246e-06, 1780
-5858.04, 814819, -449.911, 0.021296, -978.795, 0.0252373, 0.577435, 1.03299, 0.34851, 0.655882, 3, 45.5, 246, 38.7063, 0.143022, 0, 0, 0, 0, 3.83465e-05, 1782
-6224.04, 228638, -350.524, 3.72104, -933.845, 0.0943278, 0.388751, 0.993198, 0.349787, 0.651995, 0.0001, 91, 246, 49.8791, 0.219238, 1.27461, 1, 1, 0, -1.58425e-05, 1784
-6224.04, 228638, -350.524, 3.72104, -933.845, 0.0943278, 0.388751, 0.993198, 0.349787, 0.651995, 3, 91, 246, 49.8791, 0.219238, 1.14487, 1, 1, 0, -9.27777e-06, 1784
-924.622, 248835, -420.267, 4.12114, -993.003, 0.164293, 0.432317, 0.958125, 0.351078, 0.648177, 3, 182, 246, 49.8791, 0.219238, 0, 0, 0, 0, 4.55271e-06, 1784
-10295.7, 105108, -50.459, 2.61539, -773.534, -0.032219, 0.255813, 1.03299, 0.34851, 0.655882, 0.0001, 45.5, 246, 21.29, 0.0760822, 0, 0, 1, 0, 2.5906e-06, 1793
-10295.7, 105108, -50.459, 2.61539, -773.534, -0.032219, 0.255813, 1.03299, 0.34851, 0.655882, 3, 45.5, 246, 21.29, 0.0760822, 0, 0, 1, 0, -2.55762e-06, 1793
-10430.6, 638257, -193.992, 0.360118, -690.439, 0.298664, 0.393391, 1.03299, 0.34851, 0.655882, 0.0001, 45.5, 246, 23.7279, 0.074831, 0, 0, 1, 0, 0.000122499, 1796
-10430.6, 638257, -193.992, 0.360118, -690.439, 0.298664, 0.393391, 1.03299, 0.34851, 0.655882, 3, 45.5, 246, 23.7279, 0.074831, 0, 0, 1, 0, -5.19307e-05, 1796
-13617.5, 492985, -156.378, 3.08217, -812.438, 0.060846, 0.230839, 0.958125, 0.351078, 0.648177, 0.0001, 182, 246, 22.6953, 0.0557755, 0, 0, 0, 0, -1.40344e-05, 1809
-13617.5, 492985, -156.378, 3.08217, -812.438, 0.060846, 0.230839, 0.958125, 0.351078, 0.648177, 3, 182, 246, 22.6953, 0.0557755, 0, 0, 0, 0, -2.46564e-05, 1809
-11289.7, 347199, -138.227, 0.914684, -846.445, 0.52854, 0.377357, 1.03299, 0.34851, 0.655882, 0.0001, 45.5, 246, 26.3679, 0.0933432, 0, 0, 1, 0, 1.21929e-05, 1821
-11289.7, 347199, -138.227, 0.914684, -846.445, 0.52854, 0.377357, 1.03299, 0.34851, 0.655882, 3, 45.5, 246, 26.3679, 0.0933432, 0, 0, 1, 0, 2.09304e-05, 1821
-7778.53, -13446.7, 1.14457, 2.48808, -861.349, 0.392163, 0.272416, 1.03299, 0.34851, 0.655882, 0.0001, 45.5, 246, 12.8201, 0.0491604, 0, 0, 1, 0, -2.08583e-05, 1823
-7778.53, -13446.7, 1.14457, 2.48808, -861.349, 0.392163, 0.272416, 1.03299, 0.34851, 0.655882, 3, 45.5, 246, 12.8201, 0.0491604, 0, 0, 1, 0, 1.32412e-05, 1823
-10753.2, 324379, -140.862, 0.76577, -626.367, 0.0176615, 0.390415, 1.03299, 0.34851, 0.655882, 0.0001, 45.5, 246, 24.0302, 0.109588, 0, 0, 1, 0, -2.5185e-05, 1827
-10753.2, 324379, -140.862, 0.76577, -626.367, 0.0176615, 0.390415, 1.03299, 0.34851, 0.655882, 3, 45.5, 246, 24.0302, 0.109588, 0, 0, 1, 0, -2.714e-05, 1827
-9722.71, 331883, -151.221, 0.798919, -631.266, 0.0204058, 0.360615, 0.993198, 0.349787, 0.651995, 0.0001, 91, 246, 24.0302, 0.109588, 0, 0, 1, 0, -1.93447e-05, 1827
-7690.95, 255822, -197.739, 0.18036, -1076.84, 0.540687, 0.479997, 0.993198, 0.349787, 0.651995, 0.0001, 91, 246, 38.0338, 0.222301, 1.28078, 1, 1, 0, 698.382, 1828
-7324.67, 286867, -205.945, 0.191767, -1178.49, 0.591364, 0.461224, 0.958125, 0.351078, 0.648177, 0.0001, 182, 246, 38.0338, 0.222301, 1.56704, 1, 1, 0, 679.494, 1828
-7324.67, 286867, -205.945, 0.191767, -1178.49, 0.591364, 0.461224, 0.958125, 0.351078, 0.648177, 3, 182, 246, 38.0338, 0.222301, 1.47431, 1, 1, 0, 679.39, 1828
-6684.97, 338413, -217.106, 0.208347, -1346.19, 0.674976, 0.441409, 0.9175, 0.352806, 0.64323, 0.0001, 455, 246, 38.0338, 0.222301, 2.30435, 1, 0, 0, 666.342, 1828
-6684.97, 338413, -217.106, 0.208347, -1346.19, 0.674976, 0.441409, 0.9175, 0.352806, 0.64323, 3, 455, 246, 38.0338, 0.222301, 2.18199, 1, 0, 0, 660.849, 1828
-9577.9, 175126, -200.592, 2.76284, -1056.92, 0.093514, 0.360812, 1.03299, 0.34851, 0.655882, 0.0001, 45.5, 246, 43.9269, 0.194836, 0, 0, 0, 0, 6.1221e-07, 1835
-9577.9, 175126, -200.592, 2.76284, -1056.92, 0.093514, 0.360812, 1.03299, 0.34851, 0.655882, 3, 45.5, 246, 43.9269, 0.194836, 0, 0, 0, 0, 1.84384e-05, 1835
-11502.9, 373737, -271.33, 1.11895, -892.771, -0.0045975, 0.51125, 1.03299, 0.34851, 0.655882, 0.0001, 45.5, 246, 38.3515, 0.183405, 0, 0, 0, 0, -3.37038e-05, 1838
-11502.9, 373737, -271.33, 1.11895, -892.771, -0.0045975, 0.51125, 1.03299, 0.34851, 0.655882, 3, 45.5, 246, 38.3515, 0.183405, 0, 0, 0, 0, -2.14782e-05, 1838
-9821.44, -87294.5, 3.343, 0.464149, -908.766, 0.216079, 0.357056, 1.03299, 0.34851, 0.655882, 0.0001, 45.5, 246, -55.3268, 0.138984, 0, 0, 1, 0, 4.1924e-06, 1839
-9821.44, -87294.5, 3.343, 0.464149, -908.766, 0.216079, 0.357056, 1.03299, 0.34851, 0.655882, 3, 45.5, 246, -55.3268, 0.138984, 0, 0, 1, 0, 2.15412e-05, 1839
-3764.47, 58663.4, -177.785, 3.51206, -751.8, 0.484559, 0.196888, 1.03299, 0.34851, 0.655882, 0.0001, 45.5, 246, 49.6808, 0.133783, 1.4028, 1, 1, 0, -1.03875e-05, 1841
-3764.47, 58663.4, -177.785, 3.51206, -751.8, 0.484559, 0.196888, 1.03299, 0.34851, 0.655882, 3, 45.5, 246, 49.6808, 0.133783, 1.26068, 1, 1, 0, -3.96096e-05, 1841
-2424.56, 72042.6, -221.309, 3.94656, -838.46, 0.590796, 0.213918, 0.993198, 0.349787, 0.651995, 0.0001, 91, 246, 49.6808, 0.133783, 1.45318, 1, 1, 0, -1.5761e-05, 1841
-2424.56, 72042.6, -221.309, 3.94656, -838.46, 0.590796, 0.213918, 0.993198, 0.349787, 0.651995, 3, 91, 246, 49.6808, 0.133783, 1.3226, 1, 1, 0, 1.10805e-05, 1841
-421.727, 89933.7, -278.338, 4.4977, -959.711, 0.737844, 0.256555, 0.958125, 0.351078, 0.648177, 0.0001, 182, 246, 49.6808, 0.133783, 1.81281, 1, 1, 0, -2.41288e-05, 1841
-421.727, 89933.7, -278.338, 4.4977, -959.711, 0.737844, 0.256555, 0.958125, 0.351078, 0.648177, 3, 182, 246, 49.6808, 0.133783, 1.68686, 1, 1, 0, 4.30046e-07, 1841
-8031.72, 148797, -223.171, 3.4029, -1002.21, 0.536322, 0.280913, 1.03299, 0.34851, 0.655882, 0.0001, 45.5, 246, 47.0101, 0.187811, 1.06448, 1, 0, 0, 5.70857e-07, 1848
-5094.69, 174255, -279.043, 3.83609, -1125.02, 0.64875, 0.29962, 0.993198, 0.349787, 0.651995, 0.0001, 91, 246, 47.0101, 0.187811, 1.12507, 1, 1, 0, -3.93335e-05, 1848
-865.389, 208621, -352.812, 4.38766, -1297.04, 0.805439, 0.343485, 0.958125, 0.351078, 0.648177, 0.0001, 182, 246, 47.0101, 0.187811, 2.58706, 1, 0, 0, -1.37454e-05, 1848
-865.389, 208621, -352.812, 4.38766, -1297.04, 0.805439, 0.343485, 0.958125, 0.351078, 0.648177, 3, 182, 246, 47.0101, 0.187811, 2.40536, 1, 0, 0, -1.88423e-06, 1848
-8514.74, 269390, -223.385, 0.013705, -583.523, 0.245098, 0.535949, 1.03299, 0.34851, 0.655882, 0.0001, 45.5, 246, 34.8348, 0.228114, 3.56017, 1, 1, 0, -999.133, 1852
-8514.74, 269390, -223.385, 0.013705, -583.523, 0.245098, 0.535949, 1.03299, 0.34851, 0.655882, 3, 45.5, 246, 34.8348, 0.228114, 3.56171, 1, 1, 0, -1001.37, 1852
-8311.24, 280131, -230.689, 0.014336, -607.119, 0.254974, 0.515941, 0.993198, 0.349787, 0.651995, 0.0001, 91, 246, 34.8348, 0.228114, 4.84801, 1, 1, 0, 0.000140452, 1852
-8311.24, 280131, -230.689, 0.014336, -607.119, 0.254974, 0.515941, 0.993198, 0.349787, 0.651995, 3, 91, 246, 34.8348, 0.228114, 4.85044, 1, 1, 0, 2.86337e-05, 1852
-7568.96, -16307.9, 18.5856, 2.99842, -1030.29, 0.0129204, 0.233503, 1.03299, 0.34851, 0.655882, 3, 45.5, 246, 10.0307, 0.053788, 0, 0, 1, 0, 8.60648e-06, 1857
-6871.78, 134588, -234.219, 2.64348, -799.504, 0.39137, 0.397941, 1.03299, 0.34851, 0.655882, 0.0001, 45.5, 246, 51.1383, 0.242197, 1.09402, 1, 1, 0, 4.04171e-06, 1861
-4733.84, 150851, -274.135, 2.91917, -873.706, 0.453334, 0.401106, 0.993198, 0.349787, 0.651995, 0.0001, 91, 246, 51.1383, 0.242197, 1.18098, 1, 1, 0, 1.92767e-05, 1861
-1871.29, 171251, -323.05, 3.24753, -969.385, 0.533222, 0.418995, 0.958125, 0.351078, 0.648177, 0.0001, 182, 246, 51.1383, 0.242197, 1.71688, 1, 0, 0, -3.39108e-06, 1861
-1871.29, 171251, -323.05, 3.24753, -969.385, 0.533222, 0.418995, 0.958125, 0.351078, 0.648177, 3, 182, 246, 51.1383, 0.242197, 1.54019, 1, 0, 0, -2.01368e-07, 1861
3537.43, 208067, -408.03, 3.80113, -1146.69, 0.680993, 0.469648, 0.9175, 0.352806, 0.64323, 0.0001, 455, 246, 51.1383, 0.242197, 0, 0, 0, 0, 1.15024e-05, 1861
3537.43, 208067, -408.03, 3.80113, -1146.69, 0.680993, 0.469648, 0.9175, 0.352806, 0.64323, 3, 455, 246, 51.1383, 0.242197, 0, 0, 0, 0, -8.58029e-06, 1861
-10263.6, 620152, -141.713, 0.285427, -582.162, 0.649425, 0.367286, 1.03299, 0.34851, 0.655882, 0.0001, 45.5, 246, 18.8918, 0.0524703, 0, 0, 1, 0, 9.58865e-05, 1866
-10263.6, 620152, -141.713, 0.285427, -582.162, 0.649425, 0.367286, 1.03299, 0.34851, 0.655882, 3, 45.5, 246, 18.8918, 0.0524703, 0, 0, 1, 0, -7.79391e-06, 1866
-9523.84, 650036, -147.965, 0.305592, -649.947, 0.724119, 0.333329, 0.993198, 0.349787, 0.651995, 0.0001, 91, 246, 18.8918, 0.0524703, 0, 0, 1, 0, 0.000144686, 1866
-8616.48, 685834, -154.395, 0.327867, -735.293, 0.818179, 0.303696, 0.958125, 0.351078, 0.648177, 0.0001, 182, 246, 18.8918, 0.0524703, 0, 0, 1, 0, -5.5667e-05, 1866
-8854.25, 92159.9, -38.9306, 0.905869, -1152.51, 0.00770591, 0.31456, 0.993198, 0.349787, 0.651995, 0.0001, 91, 246, 19.1223, 0.0914475, 0, 0, 1, 0, 3.89368e-05, 1872
-8854.25, 92159.9, -38.9306, 0.905869, -1152.51, 0.00770591, 0.31456, 0.993198, 0.349787, 0.651995, 3, 91, 246, 19.1223, 0.0914475, 0, 0, 1, 0, 4.46627e-05, 1872
-6548.79, 126176, -239.206, 3.25191, -629.032, -0.0504178, 0.308381, 1.03299, 0.34851, 0.655882, 0.0001, 45.5, 246, 49.4993, 0.207761, 1.32867, 1, 1, 0, 1.12495e-05, 1875
-6548.79, 126176, -239.206, 3.25191, -629.032, -0.0504178, 0.308381, 1.03299, 0.34851, 0.655882, 3, 45.5, 246, 49.4993, 0.207761, 1.2238, 1, 1, 0, -6.82891e-06, 1875
-4162.67, 134021, -280.411, 3.53761, -649.625, 0.00022562, 0.321979, 0.993198, 0.349787, 0.651995, 0.0001, 91, 246, 49.4993, 0.207761, 1.45954, 1, 1, 0, -1.55877e-05, 1875
-4162.67, 134021, -280.411, 3.53761, -649.625, 0.00022562, 0.321979, 0.993198, 0.349787, 0.651995, 3, 91, 246, 49.4993, 0.207761, 1.33049, 1, 1, 0, -1.90753e-05, 1875
-1163.78, 143453, -329.337, 3.87576, -682.43, 0.0605944, 0.353257, 0.958125, 0.351078, 0.648177, 0.0001, 182, 246, 49.4993, 0.207761, 1.93246, 1, 1, 0, -7.32779e-07, 1875
-1163.78, 143453, -329.337, 3.87576, -682.43, 0.0605944, 0.353257, 0.958125, 0.351078, 0.648177, 3, 182, 246, 49.4993, 0.207761, 1.79876, 1, 1, 0, -7.96217e-06, 1875
-13312.9, 131916, 16.3386, 3.62189, -964.265, -0.0620595, 0.127721, 1.03299, 0.34851, 0.655882, 0.0001, 45.5, 246, 14.8308, 0.0275302, 0, 0, 0, 0, -1.4061e-05, 1877
-13312.9, 131916, 16.3386, 3.62189, -964.265, -0.0620595, 0.127721, 1.03299, 0.34851, 0.655882, 3, 45.5, 246, 14.8308, 0.0275302, 0, 0, 0, 0, -8.62796e-06, 1877
-11259.1, 147081, -15.4754, 3.94713, -959.425, 0.000899986, 0.142923, 0.993198, 0.349787, 0.651995, 0.0001, 91, 246, 14.8308, 0.0275302, 0, 0, 1, 0, 2.08732e-05, 1877
-11259.1, 147081, -15.4754, 3.94713, -959.425, 0.000899986, 0.142923, 0.993198, 0.349787, 0.651995, 3, 91, 246, 14.8308, 0.0275302, 0, 0, 1, 0, -5.20949e-06, 1877
-7126.38, 41785.1, -79.4383, 3.07532, -1162.14, 0.120419, 0.25623, 0.993198, 0.349787, 0.651995, 3, 91, 246, 28.9932, 0.0950153, 0, 0, 1, 1, -1.76994e-06, 1878
-9501.38, 405472, -223.637, 0.566173, -891.043, 0.000123011, 0.458246, 1.03299, 0.34851, 0.655882, 0.0001, 45.5, 246, 32.9738, 0.14321, 0, 0, 0, 0, -3.92589e-05, 1885
-9501.38, 405472, -223.637, 0.566173, -891.043, 0.000123011, 0.458246, 1.03299, 0.34851, 0.655882, 3, 45.5, 246, 32.9738, 0.14321, 0, 0, 0, 0, 1.16306e-05, 1885
-8250.48, 420328, -237.293, 0.589084, -894.669, 0.00158805, 0.432732, 0.993198, 0.349787, 0.651995, 3, 91, 246, 32.9738, 0.14321, 0, 0, 1, 0, 5.34579e-05, 1885
-11700.6, 259422, -106.138, 1.34333, -804.749, 0.311253, 0.351645, 1.03299, 0.34851, 0.655882, 0.0001, 45.5, 246, 24.7846, 0.0944388, 0, 0, 1, 0, -1.93191e-05, 1886
-11700.6, 259422, -106.138, 1.34333, -804.749, 0.311253, 0.351645, 1.03299, 0.34851, 0.655882, 3, 45.5, 246, 24.7846, 0.0944388, 0, 0, 1, 0, 5.4039e-06, 1886
-9541.42, 94401.8, -66.2435, 2.81269, -1019.71, 0.118367, 0.25245, 1.03299, 0.34851, 0.655882, 0.0001, 45.5, 246, 27.4697, 0.0996086, 0, 0, 1, 0, -3.16023e-06, 1888
-9541.42, 94401.8, -66.2435, 2.81269, -1019.71, 0.118367, 0.25245, 1.03299, 0.34851, 0.655882, 3, 45.5, 246, 27.4697, 0.0996086, 0, 0, 1, 0, 2.6598e-06, 1888
-5805.9, 69611.4, -139.776, 3.73763, -1008.22, 0.0566071, 0.252904, 0.958125, 0.351078, 0.648177, 3, 182, 246, 30.5245, 0.094313, 0, 0, 1, 0, -7.106e-06, 1896
-10980.4, 102451, -4.75541, 2.82232, -1116.89, -0.034835, 0.228793, 1.03299, 0.34851, 0.655882, 0.0001, 45.5, 246, 18.1931, 0.0488414, 0, 0, 1, 0, 5.85333e-06, 1900
-10980.4, 102451, -4.75541, 2.82232, -1116.89, -0.034835, 0.228793, 1.03299, 0.34851, 0.655882, 3, 45.5, 246, 18.1931, 0.0488414, 0, 0, 1, 0, 1.17495e-05, 1900
-9768.34, 123675, -34.9014, 3.03986, -1115.51, 0.00289669, 0.223905, 0.993198, 0.349787, 0.651995, 0.0001, 91, 246, 18.1931, 0.0488414, 0, 0, 1, 0, 1.25053e-05, 1900
-9768.34, 123675, -34.9014, 3.03986, -1115.51, 0.00289669, 0.223905, 0.993198, 0.349787, 0.651995, 3, 91, 246, 18.1931, 0.0488414, 0, 0, 1, 0, -8.09026e-06, 1900
-6679.45, 62668.1, -112.708, 2.11711, -932.658, 0.0192476, 0.296779, 0.958125, 0.351078, 0.648177, 3, 182, 246, 39.6064, 0.185979, 0, 0, 1, 0, -5.04521e-06, 1902
-7647.95, 48917, -76.5032, 2.7598, -747.517, 0.433541, 0.252805, 1.03299, 0.34851, 0.655882, 3, 45.5, 246, 30.2143, 0.0986144, 0, 0, 1, 0, 1.09872e-05, 1903
-7370.18, 104205, -144.349, 3.08635, -718.666, 0.290137, 0.260979, 0.993198, 0.349787, 0.651995, 0.0001, 91, 246, 32.7101, 0.127096, 0, 0, 1, 0, 7.40863e-06, 1909
-7370.18, 104205, -144.349, 3.08635, -718.666, 0.290137, 0.260979, 0.993198, 0.349787, 0.651995, 3, 91, 246, 32.7101, 0.127096, 0, 0, 1, 0, 1.39001e-05, 1909
-7004.09, 56108.5, -138.94, 3.83343, -1401.66, 1.33579, 0.307064, 0.9175, 0.352806, 0.64323, 3, 455, 246, 23.9949, 0.00286405, 0, 0, 1, 0, 1.05991e-05, 1916
-7883.16, 647661, -356.584, 0.122968, -782.585, 0.831476, 0.503345, 1.03299, 0.34851, 0.655882, 3, 45.5, 246, 31.7351, 0.123244, 0, 0, 0, 0, -2.96692e-05, 1922
-5056.43, 752690, -382.235, 0.145074, -1064.61, 1.12806, 0.461563, 0.958125, 0.351078, 0.648177, 3, 182, 246, 31.7351, 0.123244, 0, 0, 0, 0, -1.83596e-05, 1922
-10149.5, -157158, 0.129881, 0.241342, -1184.16, 0.000685053, 0.34807, 1.03299, 0.34851, 0.655882, 0.0001, 45.5, 246, -94.821, 0.0587707, 0, 0, 1, 0, -3.99827e-05, 1933
-10149.5, -157158, 0.129881, 0.241342, -1184.16, 0.000685053, 0.34807, 1.03299, 0.34851, 0.655882, 3, 45.5, 246, -94.821, 0.0587707, 0, 0, 1, 0, -2.59731e-05, 1933
-5289.64, 81078, -175.042, 2.81928, -867.87, 0.17196, 0.317664, 1.03299, 0.34851, 0.655882, 0.0001, 45.5, 246, 51.2599, 0.211955, 1.15762, 1, 1, 0, -1.52073e-05, 1934
-3935.76, 96247.8, -213.085, 3.07867, -910.038, 0.216001, 0.319113, 0.993198, 0.349787, 0.651995, 0.0001, 91, 246, 51.2599, 0.211955, 1.21789, 1, 1, 0, 7.57102e-06, 1934
-2037.55, 113802, -258.718, 3.38174, -965.976, 0.271043, 0.335244, 0.958125, 0.351078, 0.648177, 0.0001, 182, 246, 51.2599, 0.211955, 1.57734, 1, 1, 0, 1.49744e-05, 1934
-2037.55, 113802, -258.718, 3.38174, -965.976, 0.271043, 0.335244, 0.958125, 0.351078, 0.648177, 3, 182, 246, 51.2599, 0.211955, 1.41809, 1, 1, 0, -2.31097e-06, 1934
-5512.67, 518249, -301.367, 0.279092, -953.884, 0.000333187, 0.454935, 0.958125, 0.351078, 0.648177, 0.0001, 182, 246, 35.5328, 0.150431, 0, 0, 0, 0, -8.85616e-05, 1936
-11157.5, 264412, -207.198, 1.46777, -797.487, -0.00605358, 0.448892, 1.03299, 0.34851, 0.655882, 0.0001, 45.5, 246, 36.1526, 0.182711, 0, 0, 0, 0, -1.04345e-05, 1937
-11157.5, 264412, -207.198, 1.46777, -797.487, -0.00605358, 0.448892, 1.03299, 0.34851, 0.655882, 3, 45.5, 246, 36.1526, 0.182711, 0, 0, 0, 0, 9.6514e-06, 1937
-10692.5, 515070, -213.671, 0.460786, -619.422, 0.0004253, 0.424419, 1.03299, 0.34851, 0.655882, 0.0001, 45.5, 246, 25.2737, 0.107757, 0, 0, 1, 0, 4.6203e-05, 1938
-10692.5, 515070, -213.671, 0.460786, -619.422, 0.0004253, 0.424419, 1.03299, 0.34851, 0.655882, 3, 45.5, 246, 25.2737, 0.107757, 0, 0, 1, 0, -3.38468e-05, 1938
-8412.8, 201131, -176.373, 1.84023, -1030.98, 0.48135, 0.374255, 0.993198, 0.349787, 0.651995, 0.0001, 91, 246, 35.6457, 0.169954, 0, 0, 1, 0, 1.39511e-05, 1949
-11186.7, 102955, -5.7105, 3.08391, -944.638, -0.0444523, 0.20055, 1.03299, 0.34851, 0.655882, 0.0001, 45.5, 246, 16.4953, 0.0433529, 0, 0, 1, 0, -4.03599e-06, 1952
-11186.7, 102955, -5.7105, 3.08391, -944.638, -0.0444523, 0.20055, 1.03299, 0.34851, 0.655882, 3, 45.5, 246, 16.4953, 0.0433529, 0, 0, 1, 0, 1.88182e-05, 1952
-6539.98, 82958.5, -152.323, 3.04239, -859.267, 0.690372, 0.258654, 1.03299, 0.34851, 0.655882, 0.0001, 45.5, 246, 42.5118, 0.155721, 1.01125, 1, 1, 0, 1.17827e-05, 1957
-2957.15, 127726, -245.919, 3.93403, -1159.65, 1.01915, 0.290592, 0.958125, 0.351078, 0.648177, 0.0001, 182, 246, 42.5118, 0.155721, 1.23812, 1, 1, 0, 8.33065e-06, 1957
-2957.15, 127726, -245.919, 3.93403, -1159.65, 1.01915, 0.290592, 0.958125, 0.351078, 0.648177, 3, 182, 246, 42.5118, 0.155721, 1.05878, 1, 1, 0, -5.04061e-06, 1957
1946.53, 184127, -352.752, 4.87985, -1543.27, 1.43774, 0.37038, 0.9175, 0.352806, 0.64323, 0.0001, 455, 246, 42.5118, 0.155721, 0, 0, 0, 0, -1.77338e-05, 1957
1946.53, 184127, -352.752, 4.87985, -1543.27, 1.43774, 0.37038, 0.9175, 0.352806, 0.64323, 3, 455, 246, 42.5118, 0.155721, 0, 0, 0, 0, -1.77338e-05, 1957
-12842.1, 190821, -36.7215, 2.11541, -616.288, 0.163444, 0.276673, 1.03299, 0.34851, 0.655882, 0.0001, 45.5, 246, 15.3139, 0.0458992, 0, 0, 1, 0, -1.41197e-05, 1959
-12842.1, 190821, -36.7215, 2.11541, -616.288, 0.163444, 0.276673, 1.03299, 0.34851, 0.655882, 3, 45.5, 246, 15.3139, 0.0458992, 0, 0, 1, 0, -3.32354e-05, 1959
-9337.68, 208287, -68.8401, 2.45124, -660.955, 0.220597, 0.248105, 0.958125, 0.351078, 0.648177, 0.0001, 182, 246, 15.3139, 0.0458992, 0, 0, 1, 0, 2.58782e-05, 1959
-6778.53, -4023.26, -33.9709, 3.16498, -871.498, 0.0981615, 0.221671, 1.03299, 0.34851, 0.655882, 0.0001, 45.5, 246, 25.2765, 0.0410472, 0, 0, 1, 1, 6.60412e-06, 1960
-6778.53, -4023.26, -33.9709, 3.16498, -871.498, 0.0981615, 0.221671, 1.03299, 0.34851, 0.655882, 3, 45.5, 246, 25.2765, 0.0410472, 0, 0, 1, 1, -8.86546e-06, 1960
-8077.22, 222068, -153.362, 0.286248, -1003.36, 0.560508, 0.443267, 1.03299, 0.34851, 0.655882, 0.0001, 45.5, 246, 33.532, 0.174672, 2.81228, 1, 1, 0, 3.81063e-05, 1962
-8077.22, 222068, -153.362, 0.286248, -1003.36, 0.560508, 0.443267, 1.03299, 0.34851, 0.655882, 3, 45.5, 246, 33.532, 0.174672, 2.88436, 1, 1, 0, -5.79136e-06, 1962
-13636.1, 377397, -498.449, 3.68839, -660.207, 0.0219787, 0.544526, 0.993198, 0.349787, 0.651995, 0.0001, 91, 246, 47.6078, 0.231716, 1.28939, 1, 1, 0, 2.07063e-05, 1969
-13636.1, 377397, -498.449, 3.68839, -660.207, 0.0219787, 0.544526, 0.993198, 0.349787, 0.651995, 3, 91, 246, 47.6078, 0.231716, 1.22347, 1, 1, 0, 1.48762e-05, 1969
-1608.76, 64128, -263.989, 4.88156, -882.012, 0.326028, 0.322494, 0.9175, 0.352806, 0.64323, 0.0001, 455, 246, 42.181, 0.0671651, 1.23762, 1, 1, 0, 2.01791e-05, 1971
-1608.76, 64128, -263.989, 4.88156, -882.012, 0.326028, 0.322494, 0.9175, 0.352806, 0.64323, 3, 455, 246, 42.181, 0.0671651, 1.14072, 1, 1, 0, 3.63887e-06, 1971
-2969.25, 284392, -394.206, 3.84576, -1063.1, 0.539023, 0.41671, 0.958125, 0.351078, 0.648177, 0.0001, 182, 246, 44.9356, 0.197436, 1.72571, 1, 0, 0, -7.63198e-05, 1972
-2969.25, 284392, -394.206, 3.84576, -1063.1, 0.539023, 0.41671, 0.958125, 0.351078, 0.648177, 3, 182, 246, 44.9356, 0.197436, 1.55387, 1, 0, 0, 3.11575e-05, 1972
-10849, 319377, -226.886, 1.13893, -902.075, 0.0181557, 0.47354, 1.03299, 0.34851, 0.655882, 0.0001, 45.5, 246, 36.7367, 0.176303, 0, 0, 0, 0, -1.62111e-05, 1974
-10849, 319377, -226.886, 1.13893, -902.075, 0.0181557, 0.47354, 1.03299, 0.34851, 0.655882, 3, 45.5, 246, 36.7367, 0.176303, 0, 0, 0, 0, -2.07771e-05, 1974
-6747.86, 351296, -270.876, 1.26163, -924.824, 0.0309911, 0.439897, 0.958125, 0.351078, 0.648177, 3, 182, 246, 36.7367, 0.176303, 0, 0, 0, 0, 1.45464e-05, 1974
-10746.7, 178565, -8.83402, 1.09543, -1066.36, 0.686882, 0.32462, 1.03299, 0.34851, 0.655882, 0.0001, 45.5, 246, 17.1381, 0.0265268, 0, 0, 1, 0, 3.03881e-05, 1982
-10746.7, 178565, -8.83402, 1.09543, -1066.36, 0.686882, 0.32462, 1.03299, 0.34851, 0.655882, 3, 45.5, 246, 17.1381, 0.0265268, 0, 0, 1, 0, 2.99726e-05, 1982
-2678.47, 81681.5, -248.626, 4.78794, -1204.1, 0.439869, 0.331128, 0.9175, 0.352806, 0.64323, 0.0001, 455, 246, 37.5867, 0.059402, 1.24809, 1, 1, 0, -4.46228e-06, 1985
-2678.47, 81681.5, -248.626, 4.78794, -1204.1, 0.439869, 0.331128, 0.9175, 0.352806, 0.64323, 3, 455, 246, 37.5867, 0.059402, 1.20064, 1, 1, 0, -1.43401e-05, 1985
-6629.18, 126734, -247.633, 3.45194, -570.28, 0.029651, 0.275017, 1.03299, 0.34851, 0.655882, 0.0001, 45.5, 246, 48.4913, 0.195024, 1.40628, 1, 1, 0, 7.33134e-06, 1987
-6629.18, 126734, -247.633, 3.45194, -570.28, 0.029651, 0.275017, 1.03299, 0.34851, 0.655882, 3, 45.5, 246, 48.4913, 0.195024, 1.31686, 1, 1, 0, -2.22354e-06, 1987
-4066.17, 134060, -289.972, 3.78335, -601.177, 0.0875556, 0.293357, 0.993198, 0.349787, 0.651995, 0.0001, 91, 246, 48.4913, 0.195024, 1.52696, 1, 1, 0, 1.02139e-05, 1987
-4066.17, 134060, -289.972, 3.78335, -601.177, 0.0875556, 0.293357, 0.993198, 0.349787, 0.651995, 3, 91, 246, 48.4913, 0.195024, 1.4111, 1, 1, 0, 5.1909e-06, 1987
-836.677, 143326, -341.292, 4.18265, -646.233, 0.159439, 0.332257, 0.958125, 0.351078, 0.648177, 0.0001, 182, 246, 48.4913, 0.195024, 2.0163, 1, 1, 0, 1.79658e-06, 1987
-836.677, 143326, -341.292, 4.18265, -646.233, 0.159439, 0.332257, 0.958125, 0.351078, 0.648177, 3, 182, 246, 48.4913, 0.195024, 1.88519, 1, 1, 0, -4.1777e-06, 1987
-5236.79, 60438.4, -143.916, 3.04927, -973.936, 0.656067, 0.258546, 1.03299, 0.34851, 0.655882, 0.0001, 45.5, 246, 46.8832, 0.16036, 1.07597, 1, 1, 0, -4.52174e-06, 1988
-4106.11, 82212.6, -186.785, 3.43509, -1105.52, 0.783378, 0.264087, 0.993198, 0.349787, 0.651995, 0.0001, 91, 246, 46.8832, 0.16036, 1.13086, 1, 1, 0, 4.8428e-06, 1988
-2219.97, 112243, -244.025, 3.92473, -1290.05, 0.96182, 0.29048, 0.958125, 0.351078, 0.648177, 0.0001, 182, 246, 46.8832, 0.16036, 1.50678, 1, 1, 0, -5.47616e-06, 1988
-2219.97, 112243, -244.025, 3.92473, -1290.05, 0.96182, 0.29048, 0.958125, 0.351078, 0.648177, 3, 182, 246, 46.8832, 0.16036, 1.35183, 1, 1, 0, -1.22132e-05, 1988
-1061.14, 196203, -277.823, 3.96679, -1535.18, 1.04042, 0.339801, 0.9175, 0.352806, 0.64323, 0.0001, 455, 246, 36.1703, 0.145825, 1.17348, 1, 0, 0, -5.1665e-06, 1989
-1061.14, 196203, -277.823, 3.96679, -1535.18, 1.04042, 0.339801, 0.9175, 0.352806, 0.64323, 3, 455, 246, 36.1703, 0.145825, 1.2735, 1, 0, 0, -1.04264e-05, 1989
-7819.39, 54397, -79.0786, 2.01139, -933.507, 0.0970304, 0.329339, 1.03299, 0.34851, 0.655882, 0.0001, 45.5, 246, 35.1035, 0.164799, 0, 0, 1, 0, -6.90999e-06, 1991
-9384.55, 108071, -100.415, 2.70284, -803.984, -0.0317211, 0.274647, 1.03299, 0.34851, 0.655882, 0.0001, 45.5, 246, 30.5957, 0.12294, 0, 0, 1, 0, 5.10805e-07, 1997
-9384.55, 108071, -100.415, 2.70284, -803.984, -0.0317211, 0.274647, 1.03299, 0.34851, 0.655882, 3, 45.5, 246, 30.5957, 0.12294, 0, 0, 1, 0, -1.68114e-05, 1997
-10860.4, 312923, -132.473, 0.920556, -800.427, -0.000933525, 0.382535, 1.03299, 0.34851, 0.655882, 0.0001, 45.5, 246, 26.2218, 0.106563, 0, 0, 1, 0, -2.30441e-05, 1998
-10860.4, 312923, -132.473, 0.920556, -800.427, -0.000933525, 0.382535, 1.03299, 0.34851, 0.655882, 3, 45.5, 246, 26.2218, 0.106563, 0, 0, 1, 0, -2.19476e-05, 1998
-9656.75, 324406, -145.201, 0.961983, -803.993, 0.00295637, 0.353372, 0.993198, 0.349787, 0.651995, 3, 91, 246, 26.2218, 0.106563, 0, 0, 1, 0, 8.4048e-06, 1998
-8252.88, 336155, -158.551, 1.00364, -808.568, 0.00720081, 0.329043, 0.958125, 0.351078, 0.648177, 0.0001, 182, 246, 26.2218, 0.106563, 0, 0, 1, 0, 2.83198e-07, 1998
