-7445.58, 40195.5, -69.6773, 2.60516, -969.08, 0.0468052, 0.278835, 1.03299, 0.34851, 0.655882, 3, 45.5, 246, 32.8484, 0.118587, 0, 0, 1, 0, 1.05255e-05, 95007
-3082.96, 73135.2, -204.018, 3.53108, -993.695, 0.54593, 0.275775, 0.958125, 0.351078, 0.648177, 0.0001, 182, 246, 48.2275, 0.131315, 1.21511, 1, 1, 0, 1.8486e-05, 95008
-3082.96, 73135.2, -204.018, 3.53108, -993.695, 0.54593, 0.275775, 0.958125, 0.351078, 0.648177, 3, 182, 246, 48.2275, 0.131315, 1.05615, 1, 1, 0, -1.44533e-05, 95008
-503.158, 104976, -280.076, 4.14855, -1166.04, 0.712593, 0.327066, 0.9175, 0.352806, 0.64323, 0.0001, 455, 246, 48.2275, 0.131315, 2.22721, 1, 1, 0, -1.23985e-05, 95008
-503.158, 104976, -280.076, 4.14855, -1166.04, 0.712593, 0.327066, 0.9175, 0.352806, 0.64323, 3, 455, 246, 48.2275, 0.131315, 2.15412, 1, 1, 0, -1.17221e-05, 95008
-10513.7, 194922, -208.514, 1.98995, -621.422, 0.110726, 0.423024, 1.03299, 0.34851, 0.655882, 0.0001, 45.5, 246, 38.5489, 0.202855, 0, 0, 1, 0, 3.86211e-06, 95015
-10513.7, 194922, -208.514, 1.98995, -621.422, 0.110726, 0.423024, 1.03299, 0.34851, 0.655882, 3, 45.5, 246, 38.5489, 0.202855, 0, 0, 1, 0, -4.29525e-06, 95015
-7942.08, 37691.4, -59.2309, 1.7441, -747.248, -0.00397335, 0.329054, 1.03299, 0.34851, 0.655882, 0.0001, 45.5, 246, 31.7998, 0.146155, 0, 0, 1, 1, -1.14792e-05, 95016
-8559.94, 354124, -472.857, 3.73774, -1134.18, 0.19039, 0.531783, 0.993198, 0.349787, 0.651995, 0.0001, 91, 246, 54.1315, 0.237774, 1.28415, 1, 1, 0, 1.1321e-05, 95023
-8559.94, 354124, -472.857, 3.73774, -1134.18, 0.19039, 0.531783, 0.993198, 0.349787, 0.651995, 3, 91, 246, 54.1315, 0.237774, 1.20081, 1, 1, 0, 1.3578e-05, 95023
-9786.88, 653636, -264.695, 0.280619, -669.886, 0.147663, 0.44145, 1.03299, 0.34851, 0.655882, 0.0001, 45.5, 246, 26.6481, 0.102677, 0, 0, 0, 0, 7.34368e-05, 95026
-9786.88, 653636, -264.695, 0.280619, -669.886, 0.147663, 0.44145, 1.03299, 0.34851, 0.655882, 3, 45.5, 246, 26.6481, 0.102677, 0, 0, 0, 0, -2.81492e-06, 95026
-3867.39, 286655, -444.58, 3.33145, -689.123, 0.291276, 0.532226, 0.958125, 0.351078, 0.648177, 0.0001, 182, 246, 46.4592, 0.235849, 1.75352, 1, 0, 0, 3.84688e-05, 95027
-3867.39, 286655, -444.58, 3.33145, -689.123, 0.291276, 0.532226, 0.958125, 0.351078, 0.648177, 3, 182, 246, 46.4592, 0.235849, 1.58118, 1, 0, 0, 0.000157532, 95027
-6164.93, 5684.99, -72.4406, 3.02693, -658.162, -0.0363943, 0.234695, 1.03299, 0.34851, 0.655882, 3, 45.5, 246, 36.2588, 0.0154234, 0, 0, 1, 1, -1.06104e-05, 95030
-5201.21, 32230.9, -174.436, 4.02587, -711.224, 0.143881, 0.300208, 0.9175, 0.352806, 0.64323, 3, 455, 246, 36.2588, 0.0154234, 0, 0, 1, 1, 1.33967e-05, 95030
-6931.94, 89873.7, -147.423, 2.48654, -1056.81, -0.0292874, 0.353899, 1.03299, 0.34851, 0.655882, 3, 45.5, 246, 46.4042, 0.220787, 0, 0, 1, 0, 1.19491e-05, 95031
-5734.6, 109735, -183.337, 2.67069, -1065.51, -7.92816e-05, 0.348741, 0.993198, 0.349787, 0.651995, 0.0001, 91, 246, 46.4042, 0.220787, 0, 0, 1, 0, -1.02329e-05, 95031
-785.616, 160706, -289.336, 3.19927, -1124.03, 0.0879564, 0.379917, 0.9175, 0.352806, 0.64323, 0.0001, 455, 246, 46.4042, 0.220787, 1.83315, 1, 0, 0, -8.26481e-06, 95031
-785.616, 160706, -289.336, 3.19927, -1124.03, 0.0879564, 0.379917, 0.9175, 0.352806, 0.64323, 3, 455, 246, 46.4042, 0.220787, 1.84798, 1, 0, 0, 3.04941e-06, 95031
-6626.24, 14662.6, -68.6761, 2.73568, -697.87, -0.0345593, 0.258572, 1.03299, 0.34851, 0.655882, 0.0001, 45.5, 246, 34.9611, 0.054952, 0, 0, 1, 1, -7.57926e-07, 95032
-6626.24, 14662.6, -68.6761, 2.73568, -697.87, -0.0345593, 0.258572, 1.03299, 0.34851, 0.655882, 3, 45.5, 246, 34.9611, 0.054952, 0, 0, 1, 1, -1.32287e-05, 95032
-8556, 390988, -323.869, 0.400737, -921.616, 0.667816, 0.58301, 1.03299, 0.34851, 0.655882, 0.0001, 45.5, 246, 40.3232, 0.200595, 0, 0, 0, 0, 0.000154777, 95040
-8556, 390988, -323.869, 0.400737, -921.616, 0.667816, 0.58301, 1.03299, 0.34851, 0.655882, 3, 45.5, 246, 40.3232, 0.200595, 0, 0, 0, 0, 1.62702e-05, 95040
-9013.12, 235534, -105.115, 2.00874, -681.514, 0.546142, 0.274589, 0.958125, 0.351078, 0.648177, 0.0001, 182, 246, 18.8806, 0.073111, 0, 0, 1, 0, 1.62452e-05, 95042
-4743.39, 326200, -473.383, 3.45795, -666.183, 0.0694464, 0.545959, 0.958125, 0.351078, 0.648177, 0.0001, 182, 246, 45.6315, 0.229879, 1.84786, 1, 0, 0, -6.17932e-06, 95047
-4743.39, 326200, -473.383, 3.45795, -666.183, 0.0694464, 0.545959, 0.958125, 0.351078, 0.648177, 3, 182, 246, 45.6315, 0.229879, 1.68832, 1, 0, 0, 1.47427e-05, 95047
5590.53, 346568, -568.271, 3.94598, -749.035, 0.151191, 0.619106, 0.9175, 0.352806, 0.64323, 0.0001, 455, 246, 45.6315, 0.229879, 0, 0, 0, 0, -1.32542e-05, 95047
5590.53, 346568, -568.271, 3.94598, -749.035, 0.151191, 0.619106, 0.9175, 0.352806, 0.64323, 3, 455, 246, 45.6315, 0.229879, 0, 0, 0, 0, 1.74689e-06, 95047
-13431.8, 184503, 6.01405, 2.38026, -1199.04, -0.0263098, 0.254404, 1.03299, 0.34851, 0.655882, 0.0001, 45.5, 246, 18.6161, 0.029681, 0, 0, 1, 0, 2.11941e-05, 95048
-13431.8, 184503, 6.01405, 2.38026, -1199.04, -0.0263098, 0.254404, 1.03299, 0.34851, 0.655882, 3, 45.5, 246, 18.6161, 0.029681, 0, 0, 1, 0, 5.31885e-06, 95048
-2857.21, 449198, -201.819, 2.80791, -1342.92, 0.439877, 0.268269, 0.9175, 0.352806, 0.64323, 0.0001, 455, 246, 26.9656, 0.0657283, 0, 0, 0, 0, -4.44971e-06, 95051
-2857.21, 449198, -201.819, 2.80791, -1342.92, 0.439877, 0.268269, 0.9175, 0.352806, 0.64323, 3, 455, 246, 26.9656, 0.0657283, 0, 0, 0, 0, -4.65885e-06, 95051
-6403.34, -37472.3, 0.119214, 3.34751, -776.834, 0.104583, 0.209553, 1.03299, 0.34851, 0.655882, 0.0001, 45.5, 246, 14.0584, 0.0214651, 0, 0, 1, 1, -3.13119e-06, 95056
-6403.34, -37472.3, 0.119214, 3.34751, -776.834, 0.104583, 0.209553, 1.03299, 0.34851, 0.655882, 3, 45.5, 246, 14.0584, 0.0214651, 0, 0, 1, 1, 1.04746e-05, 95056
-8526.35, 40738.5, -18.1639, 3.58806, -772.361, -0.0585462, 0.157431, 1.03299, 0.34851, 0.655882, 0.0001, 45.5, 246, 16.9526, 0.0481834, 1.08693, 1, 1, 0, -9.1801e-06, 95058
-8526.35, 40738.5, -18.1639, 3.58806, -772.361, -0.0585462, 0.157431, 1.03299, 0.34851, 0.655882, 3, 45.5, 246, 16.9526, 0.0481834, 1.03352, 1, 1, 0, -2.18982e-06, 95058
-9624, 130498, -101.812, 2.21168, -1080.94, -0.00437461, 0.326343, 1.03299, 0.34851, 0.655882, 0.0001, 45.5, 246, 32.5471, 0.139287, 0, 0, 1, 0, -7.61688e-06, 95059
-9624, 130498, -101.812, 2.21168, -1080.94, -0.00437461, 0.326343, 1.03299, 0.34851, 0.655882, 3, 45.5, 246, 32.5471, 0.139287, 0, 0, 1, 0, 2.59517e-06, 95059
-7862.26, 102118, -138.247, 3.12163, -1056.48, 0.0905208, 0.267817, 1.03299, 0.34851, 0.655882, 0.0001, 45.5, 246, 40.2519, 0.158297, 0, 0, 1, 0, -1.29879e-05, 95070
-7862.26, 102118, -138.247, 3.12163, -1056.48, 0.0905208, 0.267817, 1.03299, 0.34851, 0.655882, 3, 45.5, 246, 40.2519, 0.158297, 0, 0, 1, 0, -1.38379e-05, 95070
-8660.78, 121167, -125.972, 1.58608, -1116.88, 0.0031329, 0.404713, 1.03299, 0.34851, 0.655882, 0.0001, 45.5, 246, 38.9044, 0.212185, 0, 0, 1, 0, 3.01546e-06, 95072
-8660.78, 121167, -125.972, 1.58608, -1116.88, 0.0031329, 0.404713, 1.03299, 0.34851, 0.655882, 3, 45.5, 246, 38.9044, 0.212185, 0, 0, 1, 0, 5.96352e-06, 95072
-7161.33, 453587, -313.728, 0.227199, -1006.46, 0.795945, 0.530067, 1.03299, 0.34851, 0.655882, 0.0001, 45.5, 246, 38.0541, 0.161253, 0, 0, 0, 0, 3.56931e-05, 95076
-5973.77, 497030, -327.372, 0.246222, -1153.42, 0.910738, 0.509758, 0.993198, 0.349787, 0.651995, 0.0001, 91, 246, 38.0541, 0.161253, 0, 0, 1, 0, 1.70463e-05, 95076
-9233.27, 78756, -67.5785, 3.01601, -707.301, 0.598054, 0.215341, 1.03299, 0.34851, 0.655882, 0.0001, 45.5, 246, 24.3146, 0.079582, 0, 0, 1, 0, -1.17441e-05, 95078
-9233.27, 78756, -67.5785, 3.01601, -707.301, 0.598054, 0.215341, 1.03299, 0.34851, 0.655882, 3, 45.5, 246, 24.3146, 0.079582, 0, 0, 1, 0, 1.90456e-05, 95078
-8192.87, 91103.2, -94.9521, 3.37937, -791.114, 0.709998, 0.216914, 0.993198, 0.349787, 0.651995, 0.0001, 91, 246, 24.3146, 0.079582, 0, 0, 1, 0, -4.35648e-06, 95078
-8192.87, 91103.2, -94.9521, 3.37937, -791.114, 0.709998, 0.216914, 0.993198, 0.349787, 0.651995, 3, 91, 246, 24.3146, 0.079582, 0, 0, 1, 0, -5.81922e-05, 95078
-10401, 441497, -407.024, 0.497075, -823.418, -0.00112041, 0.71556, 1.03299, 0.34851, 0.655882, 0.0001, 45.5, 246, 44.8476, 0.247502, 0, 0, 0, 0, 5.35197e-05, 95081
-10401, 441497, -407.024, 0.497075, -823.418, -0.00112041, 0.71556, 1.03299, 0.34851, 0.655882, 3, 45.5, 246, 44.8476, 0.247502, 0, 0, 0, 0, -1.61238e-05, 95081
-10216.5, 387280, -262.509, 0.747286, -869.102, 0.00837677, 0.507383, 1.03299, 0.34851, 0.655882, 0.0001, 45.5, 246, 36.5065, 0.175297, 0, 0, 0, 0, -3.72875e-06, 95084
-8854.88, 232174, -109.989, 3.90934, -1019.64, 0.40946, 0.204828, 0.958125, 0.351078, 0.648177, 0.0001, 182, 246, 20.7721, 0.0520445, 0, 0, 1, 0, 1.4743e-05, 95094
-8854.88, 232174, -109.989, 3.90934, -1019.64, 0.40946, 0.204828, 0.958125, 0.351078, 0.648177, 3, 182, 246, 20.7721, 0.0520445, 0, 0, 1, 0, -8.26436e-06, 95094
-10018.9, 564173, -189.741, 0.436251, -862.937, 0.386273, 0.396684, 1.03299, 0.34851, 0.655882, 0.0001, 45.5, 246, 27.3701, 0.0816425, 0, 0, 0, 0, 2.69236e-05, 95099
-10018.9, 564173, -189.741, 0.436251, -862.937, 0.386273, 0.396684, 1.03299, 0.34851, 0.655882, 3, 45.5, 246, 27.3701, 0.0816425, 0, 0, 0, 0, -1.23152e-05, 95099
-11220, 107815, -37.8689, 3.65441, -880.147, -0.0627157, 0.141006, 1.03299, 0.34851, 0.655882, 0.0001, 45.5, 246, 20.9798, 0.0608069, 0, 0, 0, 0, -3.06616e-07, 95102
-11220, 107815, -37.8689, 3.65441, -880.147, -0.0627157, 0.141006, 1.03299, 0.34851, 0.655882, 3, 45.5, 246, 20.9798, 0.0608069, 0, 0, 0, 0, 1.17229e-05, 95102
-9505.11, 120573, -72.1811, 3.98655, -881.273, 0.00144169, 0.158118, 0.993198, 0.349787, 0.651995, 0.0001, 91, 246, 20.9798, 0.0608069, 0, 0, 1, 0, 1.29837e-06, 95102
-9505.11, 120573, -72.1811, 3.98655, -881.273, 0.00144169, 0.158118, 0.993198, 0.349787, 0.651995, 3, 91, 246, 20.9798, 0.0608069, 0, 0, 1, 0, 4.68465e-06, 95102
-6997.27, 696563, -344.893, 0.202247, -1031.45, 0.258492, 0.498607, 1.03299, 0.34851, 0.655882, 0.0001, 45.5, 246, 36.5614, 0.122875, 0, 0, 0, 0, 8.66466e-05, 95105
-6997.27, 696563, -344.893, 0.202247, -1031.45, 0.258492, 0.498607, 1.03299, 0.34851, 0.655882, 3, 45.5, 246, 36.5614, 0.122875, 0, 0, 0, 0, 6.13357e-06, 95105
-11392.2, 464869, -46.644, 0.565791, -1031.11, 0.00704702, 0.340993, 1.03299, 0.34851, 0.655882, 0.0001, 45.5, 246, 22.2283, 0.0282985, 0, 0, 1, 0, 1.18811e-05, 95108
-11392.2, 464869, -46.644, 0.565791, -1031.11, 0.00704702, 0.340993, 1.03299, 0.34851, 0.655882, 3, 45.5, 246, 22.2283, 0.0282985, 0, 0, 1, 0, 1.65055e-05, 95108
-10457.5, 483699, -53.6903, 0.587002, -1033.14, 0.00851534, 0.306216, 0.993198, 0.349787, 0.651995, 3, 91, 246, 22.2283, 0.0282985, 0, 0, 1, 0, -2.4192e-06, 95108
-9369.35, 502678, -61.0655, 0.607627, -1035.56, 0.0100955, 0.275957, 0.958125, 0.351078, 0.648177, 0.0001, 182, 246, 22.2283, 0.0282985, 0, 0, 1, 0, 1.40148e-05, 95108
-8277.55, 85760.3, -105.121, 1.77733, -749.234, 0.675886, 0.351409, 1.03299, 0.34851, 0.655882, 3, 45.5, 246, 34.7798, 0.17357, 0, 0, 1, 0, 4.72848e-05, 95114
-7614.2, 100392, -124.991, 1.95949, -845.854, 0.773854, 0.331704, 0.993198, 0.349787, 0.651995, 0.0001, 91, 246, 34.7798, 0.17357, 0, 0, 1, 0, -3.7415e-05, 95114
-7614.2, 100392, -124.991, 1.95949, -845.854, 0.773854, 0.331704, 0.993198, 0.349787, 0.651995, 3, 91, 246, 34.7798, 0.17357, 0, 0, 1, 0, 1.00243e-05, 95114
-9876.48, 695396, -255.109, 0.357886, -829.239, 0.110325, 0.428752, 1.03299, 0.34851, 0.655882, 0.0001, 45.5, 246, 29.0547, 0.0934713, 0, 0, 0, 0, 4.48142e-05, 95118
-6858.47, -18437.2, -26.4127, 3.98564, -1173.59, 1.73033e-06, 0.205396, 0.993198, 0.349787, 0.651995, 0.0001, 91, 246, 15.133, 0.058507, 0, 0, 1, 1, -4.39444e-06, 95125
-6858.47, -18437.2, -26.4127, 3.98564, -1173.59, 1.73033e-06, 0.205396, 0.993198, 0.349787, 0.651995, 3, 91, 246, 15.133, 0.058507, 0, 0, 1, 1, 3.16594e-06, 95125
-6899.33, 121419, -131.365, 3.95461, -844.104, 0.525793, 0.227695, 0.958125, 0.351078, 0.648177, 0.0001, 182, 246, 23.4291, 0.0766544, 0, 0, 1, 0, 4.96113e-06, 95129
-6899.33, 121419, -131.365, 3.95461, -844.104, 0.525793, 0.227695, 0.958125, 0.351078, 0.648177, 3, 182, 246, 23.4291, 0.0766544, 0, 0, 1, 0, 1.30082e-05, 95129
-3404.58, 146435, -197.609, 4.6877, -985.206, 0.712174, 0.298552, 0.9175, 0.352806, 0.64323, 0.0001, 455, 246, 23.4291, 0.0766544, 0, 0, 0, 0, 3.74434e-06, 95129
-3404.58, 146435, -197.609, 4.6877, -985.206, 0.712174, 0.298552, 0.9175, 0.352806, 0.64323, 3, 455, 246, 23.4291, 0.0766544, 0, 0, 0, 0, 1.86636e-06, 95129
-11633.2, 219935, -105.144, 1.7768, -985.814, 0.264458, 0.336841, 1.03299, 0.34851, 0.655882, 3, 45.5, 246, 28.2673, 0.105388, 0, 0, 1, 0, -1.85745e-05, 95133
-11173.7, 131578, -31.0167, 2.45101, -1171.46, -0.0264716, 0.266201, 1.03299, 0.34851, 0.655882, 0.0001, 45.5, 246, 22.3958, 0.0668882, 0, 0, 1, 0, -1.86799e-06, 95135
-11173.7, 131578, -31.0167, 2.45101, -1171.46, -0.0264716, 0.266201, 1.03299, 0.34851, 0.655882, 3, 45.5, 246, 22.3958, 0.0668882, 0, 0, 1, 0, 8.53278e-06, 95135
-9817.04, 155137, -60.228, 2.62467, -1172.15, 0.00181336, 0.253966, 0.993198, 0.349787, 0.651995, 0.0001, 91, 246, 22.3958, 0.0668882, 0, 0, 1, 0, 5.9395e-06, 95135
-9817.04, 155137, -60.228, 2.62467, -1172.15, 0.00181336, 0.253966, 0.993198, 0.349787, 0.651995, 3, 91, 246, 22.3958, 0.0668882, 0, 0, 1, 0, -3.18773e-06, 95135
-7448.44, 312073, -268.975, 0.744551, -1098.27, -1.89377e-06, 0.536011, 0.993198, 0.349787, 0.651995, 0.0001, 91, 246, 43.1583, 0.228019, 0, 0, 1, 0, -2.15893e-05, 95140
-4081.49, 376719, -451.849, 4.05966, -1176.51, 1.07141, 0.434034, 0.958125, 0.351078, 0.648177, 0.0001, 182, 246, 42.8388, 0.182937, 1.39413, 1, 0, 0, -6.94075e-06, 95148
-4081.49, 376719, -451.849, 4.05966, -1176.51, 1.07141, 0.434034, 0.958125, 0.351078, 0.648177, 3, 182, 246, 42.8388, 0.182937, 1.71773, 1, 0, 0, 0.000143553, 95148
-11640.3, 149500, 7.02298, 1.92765, -1150.44, -0.016315, 0.287389, 1.03299, 0.34851, 0.655882, 0.0001, 45.5, 246, 16.1745, 0.0266499, 0, 0, 1, 0, 1.08181e-05, 95149
-11640.3, 149500, 7.02298, 1.92765, -1150.44, -0.016315, 0.287389, 1.03299, 0.34851, 0.655882, 3, 45.5, 246, 16.1745, 0.0266499, 0, 0, 1, 0, -2.07896e-06, 95149
-11360.6, 381222, -133.566, 0.853832, -838.849, 0.0127269, 0.376127, 1.03299, 0.34851, 0.655882, 0.0001, 45.5, 246, 25.6865, 0.0897248, 0, 0, 1, 0, -2.29289e-05, 95150
-11360.6, 381222, -133.566, 0.853832, -838.849, 0.0127269, 0.376127, 1.03299, 0.34851, 0.655882, 3, 45.5, 246, 25.6865, 0.0897248, 0, 0, 1, 0, 2.35387e-05, 95150
-12575.5, 238800, -357.097, 3.34527, -615.861, 0.433234, 0.40027, 1.03299, 0.34851, 0.655882, 0.0001, 45.5, 246, 48.3151, 0.222821, 1.18325, 1, 0, 0, -5.53332e-05, 95160
-12575.5, 238800, -357.097, 3.34527, -615.861, 0.433234, 0.40027, 1.03299, 0.34851, 0.655882, 3, 45.5, 246, 48.3151, 0.222821, 1.10717, 1, 0, 0, 1.94404e-06, 95160
-7741.15, 254521, -412.419, 3.7564, -701.268, 0.524423, 0.425725, 0.993198, 0.349787, 0.651995, 0.0001, 91, 246, 48.3151, 0.222821, 1.50665, 1, 1, 0, 8.75439e-07, 95160
-7741.15, 254521, -412.419, 3.7564, -701.268, 0.524423, 0.425725, 0.993198, 0.349787, 0.651995, 3, 91, 246, 48.3151, 0.222821, 1.41733, 1, 1, 0, -6.71214e-05, 95160
-1627.68, 89111.8, -240.016, 3.77788, -1090.18, 0.0327632, 0.273226, 0.993198, 0.349787, 0.651995, 0.0001, 91, 246, 56.6524, 0.195052, 1.63048, 1, 1, 0, 1.32853e-05, 95164
-1627.68, 89111.8, -240.016, 3.77788, -1090.18, 0.0327632, 0.273226, 0.993198, 0.349787, 0.651995, 3, 91, 246, 56.6524, 0.195052, 1.48709, 1, 1, 0, -1.45906e-05, 95164
758.344, 112301, -303.845, 4.16111, -1130.18, 0.102523, 0.310335, 0.958125, 0.351078, 0.648177, 0.0001, 182, 246, 56.6524, 0.195052, 2.57717, 1, 1, 1, 5.06053e-06, 95164
758.344, 112301, -303.845, 4.16111, -1130.18, 0.102523, 0.310335, 0.958125, 0.351078, 0.648177, 3, 182, 246, 56.6524, 0.195052, 2.43067, 1, 1, 1, 1.92791e-05, 95164
-8514.47, 218832, -180.155, 1.57276, -1003.9, 0.276563, 0.391298, 0.993198, 0.349787, 0.651995, 0.0001, 91, 246, 35.5934, 0.173666, 0, 0, 1, 0, 1.66392e-05, 95168
-9669.19, 488195, -243.2, 0.675224, -1132.54, -0.000513053, 0.454773, 1.03299, 0.34851, 0.655882, 0.0001, 45.5, 246, 36.3984, 0.128433, 0, 0, 0, 0, 2.13804e-05, 95169
-9669.19, 488195, -243.2, 0.675224, -1132.54, -0.000513053, 0.454773, 1.03299, 0.34851, 0.655882, 3, 45.5, 246, 36.3984, 0.128433, 0, 0, 0, 0, -5.09506e-05, 95169
-8921.69, 68486.5, -7.59836, 0.529833, -998.023, 0.00265647, 0.341031, 1.03299, 0.34851, 0.655882, 3, 45.5, 246, 11.3197, 0.0378973, 0, 0, 1, 0, 4.76744e-05, 95172
-7680.8, 161289, -245.75, 3.58596, -1102.41, -0.0534106, 0.308862, 1.03299, 0.34851, 0.655882, 0.0001, 45.5, 246, 51.2613, 0.211898, 1.10321, 1, 0, 0, -2.27511e-05, 95180
-4329.28, 183752, -307.806, 3.92689, -1125.62, 0.0085397, 0.334184, 0.993198, 0.349787, 0.651995, 0.0001, 91, 246, 51.2613, 0.211898, 1.40188, 1, 1, 0, -2.49875e-06, 95180
-4329.28, 183752, -307.806, 3.92689, -1125.62, 0.0085397, 0.334184, 0.993198, 0.349787, 0.651995, 3, 91, 246, 51.2613, 0.211898, 1.25698, 1, 1, 0, 8.40575e-06, 95180
216.269, 209230, -383.014, 4.34022, -1171.25, 0.0837332, 0.381429, 0.958125, 0.351078, 0.648177, 3, 182, 246, 51.2613, 0.211898, 0, 0, 0, 0, 1.22722e-06, 95180
-4010.09, 201372, -328.05, 4.31667, -645.76, 0.112288, 0.309422, 0.958125, 0.351078, 0.648177, 0.0001, 182, 246, 39.466, 0.166541, 1.23432, 1, 0, 0, 1.4545e-05, 95181
-4010.09, 201372, -328.05, 4.31667, -645.76, 0.112288, 0.309422, 0.958125, 0.351078, 0.648177, 3, 182, 246, 39.466, 0.166541, 1.01604, 1, 0, 0, 1.61231e-05, 95181
3213.41, 217953, -416.525, 5.0202, -730.959, 0.24462, 0.405937, 0.9175, 0.352806, 0.64323, 0.0001, 455, 246, 39.466, 0.166541, 0, 0, 0, 0, 1.3282e-05, 95181
3213.41, 217953, -416.525, 5.0202, -730.959, 0.24462, 0.405937, 0.9175, 0.352806, 0.64323, 3, 455, 246, 39.466, 0.166541, 0, 0, 0, 0, 1.33097e-05, 95181
-9283.2, 46940.6, 11.8108, 2.74002, -648.92, -0.0240211, 0.236193, 1.03299, 0.34851, 0.655882, 0.0001, 45.5, 246, 7.67743, 0.0229399, 0, 0, 1, 0, -2.38801e-06, 95183
-9283.2, 46940.6, 11.8108, 2.74002, -648.92, -0.0240211, 0.236193, 1.03299, 0.34851, 0.655882, 3, 45.5, 246, 7.67743, 0.0229399, 0, 0, 1, 0, -6.348e-06, 95183
-10223.3, 364026, -331.878, 1.03224, -1070.35, 0.359361, 0.607781, 1.03299, 0.34851, 0.655882, 0.0001, 45.5, 246, 45.7225, 0.224277, 0, 0, 0, 0, -3.19547e-05, 95184
-10223.3, 364026, -331.878, 1.03224, -1070.35, 0.359361, 0.607781, 1.03299, 0.34851, 0.655882, 3, 45.5, 246, 45.7225, 0.224277, 0, 0, 0, 0, -1.97536e-05, 95184
-8151.58, 596991, -361.76, 0.308267, -989.149, 0.000622996, 0.555601, 1.03299, 0.34851, 0.655882, 0.0001, 45.5, 246, 38.8142, 0.15905, 0, 0, 0, 0, 2.13386e-05, 95191
-8151.58, 596991, -361.76, 0.308267, -989.149, 0.000622996, 0.555601, 1.03299, 0.34851, 0.655882, 3, 45.5, 246, 38.8142, 0.15905, 0, 0, 0, 0, 5.90807e-05, 95191
-5722.89, -54469.4, 11.4694, 3.61482, -657.291, 0.0778612, 0.186679, 1.03299, 0.34851, 0.655882, 0.0001, 45.5, 246, 8.05868, 0.0315298, 2.52309, 1, 1, 0, -7.25942e-07, 95193
-5722.89, -54469.4, 11.4694, 3.61482, -657.291, 0.0778612, 0.186679, 1.03299, 0.34851, 0.655882, 3, 45.5, 246, 8.05868, 0.0315298, 2.4261, 1, 1, 0, 1.89667e-06, 95193
-11656, 393151, -244.587, 0.964447, -781.987, 0.0223583, 0.472894, 1.03299, 0.34851, 0.655882, 0.0001, 45.5, 246, 33.5264, 0.157579, 0, 0, 0, 0, 4.19604e-06, 95195
-11656, 393151, -244.587, 0.964447, -781.987, 0.0223583, 0.472894, 1.03299, 0.34851, 0.655882, 3, 45.5, 246, 33.5264, 0.157579, 0, 0, 0, 0, -1.39455e-05, 95195
-10798.1, 132545, -7.64639, 1.76077, -1166.93, 0.00861615, 0.301305, 1.03299, 0.34851, 0.655882, 0.0001, 45.5, 246, 17.7089, 0.0413701, 0, 0, 1, 0, 5.07548e-06, 95199
-10798.1, 132545, -7.64639, 1.76077, -1166.93, 0.00861615, 0.301305, 1.03299, 0.34851, 0.655882, 3, 45.5, 246, 17.7089, 0.0413701, 0, 0, 1, 0, -2.77874e-05, 95199
-3277.03, 85998.5, -215.766, 3.74956, -1031.81, 1.08807, 0.305596, 0.9175, 0.352806, 0.64323, 0.0001, 455, 246, 40.1891, 0.114319, 1.16335, 1, 1, 0, 3.67815e-06, 95203
-3277.03, 85998.5, -215.766, 3.74956, -1031.81, 1.08807, 0.305596, 0.9175, 0.352806, 0.64323, 3, 455, 246, 40.1891, 0.114319, 1.13613, 1, 1, 0, -4.65958e-06, 95203
-8299.3, 77314.9, -68.5317, 2.0726, -1057.34, 0.000756843, 0.296035, 0.993198, 0.349787, 0.651995, 0.0001, 91, 246, 25.4525, 0.112335, 0, 0, 1, 0, -6.88465e-06, 95205
-9109.62, 35490.5, 16.1533, 2.27854, -1000.34, 0.295153, 0.273138, 1.03299, 0.34851, 0.655882, 0.0001, 45.5, 246, 10.3097, 0.0351482, 1.18741, 1, 1, 0, 1.58531e-05, 95207
-14504.8, -132767, -31.8728, 0.324482, -1012.8, 0.000264626, 0.396809, 1.03299, 0.34851, 0.655882, 0.0001, 45.5, 246, -84.6834, 0.211835, 0, 0, 1, 0, 1.11458e-05, 95208
-14504.8, -132767, -31.8728, 0.324482, -1012.8, 0.000264626, 0.396809, 1.03299, 0.34851, 0.655882, 3, 45.5, 246, -84.6834, 0.211835, 0, 0, 1, 0, 0.000162687, 95208
-8861.06, 166108, -121.237, 2.23371, -1068.05, 0.449465, 0.306051, 0.993198, 0.349787, 0.651995, 0.0001, 91, 246, 29.5846, 0.120847, 0, 0, 1, 0, 2.42589e-05, 95211
-10291.9, 491350, -46.1025, 0.941897, -1059.99, 0.00702806, 0.268519, 0.958125, 0.351078, 0.648177, 3, 182, 246, 21.529, 0.0204707, 0, 0, 1, 0, -5.28479e-06, 95227
-9559.52, 77306.4, -30.2937, 2.33205, -1012.64, 0.218769, 0.277395, 1.03299, 0.34851, 0.655882, 0.0001, 45.5, 246, 20.8589, 0.0739302, 0, 0, 1, 0, 4.54296e-06, 95233
-9559.52, 77306.4, -30.2937, 2.33205, -1012.64, 0.218769, 0.277395, 1.03299, 0.34851, 0.655882, 3, 45.5, 246, 20.8589, 0.0739302, 0, 0, 1, 0, 2.49693e-06, 95233
-9009.37, -67727.9, -4.91643, 0.134395, -1088.78, 0.142205, 0.345613, 1.03299, 0.34851, 0.655882, 0.0001, 45.5, 246, -31.1313, 0.0917062, 0, 0, 1, 0, 1.05004e-05, 95234
-9009.37, -67727.9, -4.91643, 0.134395, -1088.78, 0.142205, 0.345613, 1.03299, 0.34851, 0.655882, 3, 45.5, 246, -31.1313, 0.0917062, 0, 0, 1, 0, -1.63529e-05, 95234
-13978.3, 276638, -388.301, 3.30287, -805.094, 0.718961, 0.443158, 1.03299, 0.34851, 0.655882, 0.0001, 45.5, 246, 50.352, 0.225624, 1.0502, 1, 0, 0, 1.45785e-05, 95243
-8269.82, 304630, -454, 3.77425, -953.949, 0.873026, 0.471767, 0.993198, 0.349787, 0.651995, 0.0001, 91, 246, 50.352, 0.225624, 1.45275, 1, 1, 0, -2.94261e-05, 95243
-8269.82, 304630, -454, 3.77425, -953.949, 0.873026, 0.471767, 0.993198, 0.349787, 0.651995, 3, 91, 246, 50.352, 0.225624, 1.37127, 1, 1, 0, -6.64323e-05, 95243
-9813.86, 137406, -136.351, 2.32254, -604.133, -0.0175567, 0.325879, 1.03299, 0.34851, 0.655882, 0.0001, 45.5, 246, 32.4054, 0.151903, 0, 0, 1, 0, 1.11607e-05, 95246
-9813.86, 137406, -136.351, 2.32254, -604.133, -0.0175567, 0.325879, 1.03299, 0.34851, 0.655882, 3, 45.5, 246, 32.4054, 0.151903, 0, 0, 1, 0, 1.27154e-05, 95246
-3761.7, 161737, -225.439, 2.94523, -654.788, 0.0834084, 0.32699, 0.9175, 0.352806, 0.64323, 3, 455, 246, 32.4054, 0.151903, 0, 0, 1, 0, -6.62005e-06, 95246
-6639.52, 404879, -515.998, 3.37283, -677.896, 0.0561918, 0.5837, 0.958125, 0.351078, 0.648177, 0.0001, 182, 246, 43.8946, 0.22098, 1.41421, 1, 0, 0, -6.90702e-05, 95248
-6639.52, 404879, -515.998, 3.37283, -677.896, 0.0561918, 0.5837, 0.958125, 0.351078, 0.648177, 3, 182, 246, 43.8946, 0.22098, 1.29966, 1, 0, 0, -1.59639e-05, 95248
-10478.3, 211070, -187.617, 1.64029, -744.481, -0.0107315, 0.430166, 1.03299, 0.34851, 0.655882, 0.0001, 45.5, 246, 36.6626, 0.192365, 0, 0, 1, 0, 2.34472e-06, 95255
-10478.3, 211070, -187.617, 1.64029, -744.481, -0.0107315, 0.430166, 1.03299, 0.34851, 0.655882, 3, 45.5, 246, 36.6626, 0.192365, 0, 0, 1, 0, -1.21907e-05, 95255
-8807.62, 221260, -210.347, 1.73871, -752.789, 0.00179958, 0.413785, 0.993198, 0.349787, 0.651995, 3, 91, 246, 36.6626, 0.192365, 0, 0, 1, 0, -1.76318e-05, 95255
-9572.02, 306239, -247.356, 0.954448, -1052.62, 0.446816, 0.510414, 1.03299, 0.34851, 0.655882, 0.0001, 45.5, 246, 40.5002, 0.194175, 0, 0, 0, 0, 8.61355e-05, 95259
-9572.02, 306239, -247.356, 0.954448, -1052.62, 0.446816, 0.510414, 1.03299, 0.34851, 0.655882, 3, 45.5, 246, 40.5002, 0.194175, 0, 0, 0, 0, -5.78103e-05, 95259
-7862.92, 336198, -269.355, 1.02659, -1139.97, 0.485392, 0.492508, 0.993198, 0.349787, 0.651995, 3, 91, 246, 40.5002, 0.194175, 0, 0, 1, 0, 2.84274e-05, 95259
-10172.5, 658450, -38.5288, 0.275877, -786.936, 0.392452, 0.305561, 0.993198, 0.349787, 0.651995, 0.0001, 91, 246, 17.3598, 0.0142199, 0, 0, 1, 0, 5.40036e-05, 95260
-8321.91, 416107, -369.293, 0.339936, -994.273, 0.176578, 0.666938, 1.03299, 0.34851, 0.655882, 0.0001, 45.5, 246, 45.1847, 0.23532, 0, 0, 0, 0, -4.10069e-05, 95263
-8997.47, 73787.2, -19.3301, 0.723512, -916.323, 0.00592451, 0.342995, 1.03299, 0.34851, 0.655882, 0.0001, 45.5, 246, 14.8357, 0.0662504, 0, 0, 1, 0, 4.56267e-05, 95265
-8997.47, 73787.2, -19.3301, 0.723512, -916.323, 0.00592451, 0.342995, 1.03299, 0.34851, 0.655882, 3, 45.5, 246, 14.8357, 0.0662504, 0, 0, 1, 0, 1.14539e-05, 95265
-11825.5, 176224, -109.538, 2.86868, -1116.47, 0.10531, 0.263876, 1.03299, 0.34851, 0.655882, 0.0001, 45.5, 246, 32.117, 0.115082, 0, 0, 0, 0, 2.01561e-05, 95266
-11825.5, 176224, -109.538, 2.86868, -1116.47, 0.10531, 0.263876, 1.03299, 0.34851, 0.655882, 3, 45.5, 246, 32.117, 0.115082, 0, 0, 0, 0, 1.64259e-05, 95266
-9475.57, 199693, -149.214, 3.11942, -1149.1, 0.147118, 0.262871, 0.993198, 0.349787, 0.651995, 0.0001, 91, 246, 32.117, 0.115082, 0, 0, 1, 0, 1.10156e-05, 95266
-9475.57, 199693, -149.214, 3.11942, -1149.1, 0.147118, 0.262871, 0.993198, 0.349787, 0.651995, 3, 91, 246, 32.117, 0.115082, 0, 0, 1, 0, -1.72108e-05, 95266
-7142.22, 501178, -408.436, 0.0783024, -974.3, 0.0433807, 0.675121, 1.03299, 0.34851, 0.655882, 0.0001, 45.5, 246, 43.9643, 0.21934, 0, 0, 0, 0, -0.000171885, 95267
-11275.6, 209595, -169.412, 1.84082, -609.806, -0.0101732, 0.386618, 1.03299, 0.34851, 0.655882, 0.0001, 45.5, 246, 32.1315, 0.164093, 0, 0, 1, 0, 2.45872e-06, 95273
-8954.62, 181948, -288.12, 2.88254, -738.184, 0.701277, 0.399694, 1.03299, 0.34851, 0.655882, 0.0001, 45.5, 246, 48.7981, 0.224095, 1.15826, 1, 0, 0, -2.76461e-05, 95284
-8954.62, 181948, -288.12, 2.88254, -738.184, 0.701277, 0.399694, 1.03299, 0.34851, 0.655882, 3, 45.5, 246, 48.7981, 0.224095, 1.01939, 1, 0, 0, 1.59031e-05, 95284
-5739.01, 202112, -335.103, 3.25805, -859.651, 0.835156, 0.410622, 0.993198, 0.349787, 0.651995, 0.0001, 91, 246, 48.7981, 0.224095, 1.21603, 1, 1, 0, -4.58893e-05, 95284
-5739.01, 202112, -335.103, 3.25805, -859.651, 0.835156, 0.410622, 0.993198, 0.349787, 0.651995, 3, 91, 246, 48.7981, 0.224095, 1.05695, 1, 1, 0, 3.40953e-05, 95284
-1371.09, 230280, -396.122, 3.7362, -1030.78, 1.0239, 0.441491, 0.958125, 0.351078, 0.648177, 0.0001, 182, 246, 48.7981, 0.224095, 2.52289, 1, 0, 0, 190.234, 95284
-1371.09, 230280, -396.122, 3.7362, -1030.78, 1.0239, 0.441491, 0.958125, 0.351078, 0.648177, 3, 182, 246, 48.7981, 0.224095, 2.34022, 1, 0, 0, 2.16932e-06, 95284
-10643.6, 95678.2, 12.7784, 2.32256, -785.778, -0.0246946, 0.262813, 1.03299, 0.34851, 0.655882, 0.0001, 45.5, 246, 9.87469, 0.0191798, 0, 0, 1, 0, 1.66166e-05, 95285
-10643.6, 95678.2, 12.7784, 2.32256, -785.778, -0.0246946, 0.262813, 1.03299, 0.34851, 0.655882, 3, 45.5, 246, 9.87469, 0.0191798, 0, 0, 1, 0, -1.2798e-05, 95285
-9115.82, 83775.9, -83.2256, 2.90899, -604.826, 0.192099, 0.235848, 1.03299, 0.34851, 0.655882, 0.0001, 45.5, 246, 25.9857, 0.0928673, 0, 0, 1, 0, 1.11763e-05, 95291
-9115.82, 83775.9, -83.2256, 2.90899, -604.826, 0.192099, 0.235848, 1.03299, 0.34851, 0.655882, 3, 45.5, 246, 25.9857, 0.0928673, 0, 0, 1, 0, 6.31929e-06, 95291
-9118.94, 781079, -162.79, 0.198645, -765.053, 0.0432777, 0.372945, 1.03299, 0.34851, 0.655882, 0.0001, 45.5, 246, 23.3702, 0.0532855, 0, 0, 1, 0, 3.49416e-06, 95292
-9118.94, 781079, -162.79, 0.198645, -765.053, 0.0432777, 0.372945, 1.03299, 0.34851, 0.655882, 3, 45.5, 246, 23.3702, 0.0532855, 0, 0, 1, 0, 2.16243e-05, 95292
-8416.99, 793696, -169.243, 0.205303, -771.218, 0.0437561, 0.339203, 0.993198, 0.349787, 0.651995, 0.0001, 91, 246, 23.3702, 0.0532855, 0, 0, 1, 0, 1.2755e-05, 95292
-7620.09, 806571, -175.503, 0.211643, -777.549, 0.0442529, 0.309711, 0.958125, 0.351078, 0.648177, 0.0001, 182, 246, 23.3702, 0.0532855, 0, 0, 1, 0, 3.09211e-05, 95292
-8156.33, 572401, -270.922, 0.18499, -773.943, 0.761119, 0.449176, 1.03299, 0.34851, 0.655882, 0.0001, 45.5, 246, 29.0308, 0.107506, 0, 0, 1, 0, -0.000325551, 95300
-8156.33, 572401, -270.922, 0.18499, -773.943, 0.761119, 0.449176, 1.03299, 0.34851, 0.655882, 3, 45.5, 246, 29.0308, 0.107506, 0, 0, 1, 0, -1.47618e-05, 95300
-7213.58, 610954, -281.312, 0.19946, -881.254, 0.865359, 0.421533, 0.993198, 0.349787, 0.651995, 0.0001, 91, 246, 29.0308, 0.107506, 0, 0, 1, 0, 3.38623e-05, 95300
-6874.12, 148787, -289.968, 2.79806, -616.46, 0.823561, 0.399523, 1.03299, 0.34851, 0.655882, 0.0001, 45.5, 246, 51.5753, 0.234955, 1.4198, 1, 0, 0, 2.79535e-05, 95301
-6874.12, 148787, -289.968, 2.79806, -616.46, 0.823561, 0.399523, 1.03299, 0.34851, 0.655882, 3, 45.5, 246, 51.5753, 0.234955, 1.33128, 1, 0, 0, -7.70545e-05, 95301
-4130.88, 165641, -332.707, 3.18101, -737.215, 0.991829, 0.408193, 0.993198, 0.349787, 0.651995, 0.0001, 91, 246, 51.5753, 0.234955, 1.58384, 1, 1, 0, -1.42267e-05, 95301
-4130.88, 165641, -332.707, 3.18101, -737.215, 0.991829, 0.408193, 0.993198, 0.349787, 0.651995, 3, 91, 246, 51.5753, 0.234955, 1.46853, 1, 1, 0, 1.87948e-05, 95301
-399.895, 189942, -388.641, 3.67829, -913.394, 1.23735, 0.436706, 0.958125, 0.351078, 0.648177, 0.0001, 182, 246, 51.5753, 0.234955, 2.81366, 1, 0, 0, -205.483, 95301
-399.895, 189942, -388.641, 3.67829, -913.394, 1.23735, 0.436706, 0.958125, 0.351078, 0.648177, 3, 182, 246, 51.5753, 0.234955, 2.6276, 1, 0, 0, -205.975, 95301
-11979.9, 123041, -17.0398, 3.11499, -677.547, -0.0432882, 0.192232, 1.03299, 0.34851, 0.655882, 0.0001, 45.5, 246, 14.3746, 0.0386317, 0, 0, 1, 0, 1.26042e-05, 95309
-11979.9, 123041, -17.0398, 3.11499, -677.547, -0.0432882, 0.192232, 1.03299, 0.34851, 0.655882, 3, 45.5, 246, 14.3746, 0.0386317, 0, 0, 1, 0, 7.47488e-06, 95309
-8536.1, 138137, -63.7091, 3.66657, -685.551, 0.0573005, 0.211048, 0.958125, 0.351078, 0.648177, 3, 182, 246, 14.3746, 0.0386317, 0, 0, 1, 0, 1.77243e-05, 95309
-12454.4, 364693, -0.0816677, 0.772445, -642.25, 0.293153, 0.330417, 1.03299, 0.34851, 0.655882, 0.0001, 45.5, 246, 11.9106, 0.00473126, 0, 0, 1, 0, 7.40537e-06, 95314
-12454.4, 364693, -0.0816677, 0.772445, -642.25, 0.293153, 0.330417, 1.03299, 0.34851, 0.655882, 3, 45.5, 246, 11.9106, 0.00473126, 0, 0, 1, 0, 7.93809e-06, 95314
-11471.1, 378020, -4.76351, 0.816802, -673.646, 0.310298, 0.296241, 0.993198, 0.349787, 0.651995, 3, 91, 246, 11.9106, 0.00473126, 0, 0, 1, 0, -0.000138153, 95314
-10304.8, 392731, -10.1376, 0.862888, -708.724, 0.329553, 0.26692, 0.958125, 0.351078, 0.648177, 0.0001, 182, 246, 11.9106, 0.00473126, 0, 0, 1, 0, -5.30507e-05, 95314
-8171.29, 447074, -359.342, 0.535886, -1179.18, 0.0344668, 0.626698, 1.03299, 0.34851, 0.655882, 0.0001, 45.5, 246, 46.0124, 0.212106, 0, 0, 0, 0, -1.1134e-05, 95315
-8171.29, 447074, -359.342, 0.535886, -1179.18, 0.0344668, 0.626698, 1.03299, 0.34851, 0.655882, 3, 45.5, 246, 46.0124, 0.212106, 0, 0, 0, 0, 3.3916e-06, 95315
-9116.58, 81832.3, -47.2586, 1.49706, -931.989, 0.237011, 0.332752, 1.03299, 0.34851, 0.655882, 0.0001, 45.5, 246, 23.047, 0.105249, 0, 0, 1, 0, 4.47711e-06, 95316
-9116.58, 81832.3, -47.2586, 1.49706, -931.989, 0.237011, 0.332752, 1.03299, 0.34851, 0.655882, 3, 45.5, 246, 23.047, 0.105249, 0, 0, 1, 0, 1.87718e-05, 95316
-7340.43, -12034, -16.7763, 2.68342, -804.536, 0.545762, 0.25854, 1.03299, 0.34851, 0.655882, 3, 45.5, 246, 19.8077, 0.0315534, 0, 0, 1, 0, -6.79452e-06, 95317
-8937.11, 142085, -156.709, 2.05241, -927.28, 0.0524666, 0.387364, 1.03299, 0.34851, 0.655882, 0.0001, 45.5, 246, 40.0306, 0.199633, 0, 0, 1, 0, -1.85168e-05, 95320
-8937.11, 142085, -156.709, 2.05241, -927.28, 0.0524666, 0.387364, 1.03299, 0.34851, 0.655882, 3, 45.5, 246, 40.0306, 0.199633, 0, 0, 1, 0, 1.3164e-05, 95320
-10631, 291880, -162.707, 1.13576, -1017.07, 0.351681, 0.404428, 1.03299, 0.34851, 0.655882, 0.0001, 45.5, 246, 32.4892, 0.131268, 0, 0, 0, 0, -1.1711e-05, 95334
-10631, 291880, -162.707, 1.13576, -1017.07, 0.351681, 0.404428, 1.03299, 0.34851, 0.655882, 3, 45.5, 246, 32.4892, 0.131268, 0, 0, 0, 0, -1.75334e-05, 95334
-3815.57, 393341, -236.459, 1.42817, -1280.14, 0.460589, 0.340888, 0.9175, 0.352806, 0.64323, 0.0001, 455, 246, 32.4892, 0.131268, 0, 0, 0, 0, 1.96975e-05, 95334
-3815.57, 393341, -236.459, 1.42817, -1280.14, 0.460589, 0.340888, 0.9175, 0.352806, 0.64323, 3, 455, 246, 32.4892, 0.131268, 0, 0, 0, 0, 2.3057e-05, 95334
-12234.8, 340103, -40.2208, 0.911231, -867.055, 0.50894, 0.332417, 1.03299, 0.34851, 0.655882, 3, 45.5, 246, 18.904, 0.0322574, 0, 0, 1, 0, -0.000108943, 95335
-11063.2, 364194, -49.6313, 0.977989, -944.347, 0.557709, 0.299564, 0.993198, 0.349787, 0.651995, 3, 91, 246, 18.904, 0.0322574, 0, 0, 1, 0, 6.03441e-06, 95335
-5202.26, 49138.1, -138.096, 2.84443, -656.294, 0.0646902, 0.266966, 1.03299, 0.34851, 0.655882, 0.0001, 45.5, 246, 46.9829, 0.142783, 1.00492, 1, 1, 0, -1.51634e-06, 95338
-3344.65, 66494.7, -201.272, 3.36292, -706.58, 0.152507, 0.277836, 0.958125, 0.351078, 0.648177, 0.0001, 182, 246, 46.9829, 0.142783, 1.08777, 1, 1, 0, 4.66878e-06, 95338
-1278.52, 80989.5, -257.334, 3.81185, -764.485, 0.234674, 0.318304, 0.9175, 0.352806, 0.64323, 0.0001, 455, 246, 46.9829, 0.142783, 1.46431, 1, 1, 0, 8.21064e-06, 95338
-1278.52, 80989.5, -257.334, 3.81185, -764.485, 0.234674, 0.318304, 0.9175, 0.352806, 0.64323, 3, 455, 246, 46.9829, 0.142783, 1.37495, 1, 1, 0, -2.25004e-06, 95338
-10915.1, 241818, -76.9996, 1.20013, -1035.91, 0.000179595, 0.345766, 1.03299, 0.34851, 0.655882, 0.0001, 45.5, 246, 24.8559, 0.0804676, 0, 0, 1, 0, 1.7747e-05, 95340
-9375.56, 133506, -143.737, 2.44577, -730.06, 0.0055946, 0.326529, 1.03299, 0.34851, 0.655882, 0.0001, 45.5, 246, 35.5711, 0.162331, 0, 0, 1, 0, -8.88623e-06, 95341
-9375.56, 133506, -143.737, 2.44577, -730.06, 0.0055946, 0.326529, 1.03299, 0.34851, 0.655882, 3, 45.5, 246, 35.5711, 0.162331, 0, 0, 1, 0, 3.61954e-06, 95341
-7845.42, 143209, -171.24, 2.62774, -742.826, 0.0338873, 0.318389, 0.993198, 0.349787, 0.651995, 0.0001, 91, 246, 35.5711, 0.162331, 0, 0, 1, 0, -1.01436e-05, 95341
-7845.42, 143209, -171.24, 2.62774, -742.826, 0.0338873, 0.318389, 0.993198, 0.349787, 0.651995, 3, 91, 246, 35.5711, 0.162331, 0, 0, 1, 0, -8.97724e-06, 95341
-4558.41, 243226, -186.274, 2.2671, -1307.63, 0.76909, 0.302056, 0.9175, 0.352806, 0.64323, 0.0001, 455, 246, 28.7232, 0.124348, 0, 0, 0, 0, 4.92444e-06, 95345
-4558.41, 243226, -186.274, 2.2671, -1307.63, 0.76909, 0.302056, 0.9175, 0.352806, 0.64323, 3, 455, 246, 28.7232, 0.124348, 0, 0, 0, 0, -3.60279e-05, 95345
-7903.46, 149034, -152.122, 2.60344, -1074.97, 0.3084, 0.311729, 0.993198, 0.349787, 0.651995, 0.0001, 91, 246, 34.9298, 0.149894, 0, 0, 1, 0, 6.57303e-06, 95347
-9932.04, 386706, -300.799, 0.442366, -656.29, 0.687041, 0.544039, 1.03299, 0.34851, 0.655882, 0.0001, 45.5, 246, 34.2861, 0.18338, 0, 0, 0, 0, 2.21448e-05, 95353
-9932.04, 386706, -300.799, 0.442366, -656.29, 0.687041, 0.544039, 1.03299, 0.34851, 0.655882, 3, 45.5, 246, 34.2861, 0.18338, 0, 0, 0, 0, 0.000110758, 95353
-8587.15, 412137, -315.918, 0.478371, -740.234, 0.771758, 0.525776, 0.993198, 0.349787, 0.651995, 3, 91, 246, 34.2861, 0.18338, 0, 0, 1, 0, -3.20113e-05, 95353
-8007.58, 810176, -85.6035, 1.38391, -994.439, 0.099548, 0.234572, 0.9175, 0.352806, 0.64323, 3, 455, 246, 22.6406, 0.0181807, 0, 0, 0, 0, 7.79658e-06, 95354
-8275.81, 505225, -203.057, 0.172383, -713.862, 0.500976, 0.413727, 1.03299, 0.34851, 0.655882, 0.0001, 45.5, 246, 25.6582, 0.0959519, 0, 0, 1, 0, -1.0682e-05, 95356
-8824.11, 69331.5, -35.0041, 0.58977, -798.675, 0.0303774, 0.354919, 1.03299, 0.34851, 0.655882, 0.0001, 45.5, 246, 19.4732, 0.123935, 0, 0, 1, 0, -1.9677e-05, 95358
-8824.11, 69331.5, -35.0041, 0.58977, -798.675, 0.0303774, 0.354919, 1.03299, 0.34851, 0.655882, 3, 45.5, 246, 19.4732, 0.123935, 0, 0, 1, 0, 3.1561e-05, 95358
-7372.89, 367581, -246.337, 0.584914, -1079.15, 0.00120089, 0.468107, 0.993198, 0.349787, 0.651995, 0.0001, 91, 246, 38.0161, 0.174088, 0, 0, 1, 0, 8.37467e-05, 95361
-8791.57, 9684.6, 14.6342, 1.56067, -1094.92, 0.228261, 0.317436, 1.03299, 0.34851, 0.655882, 0.0001, 45.5, 246, 7.10912, 0.0376372, 0, 0, 1, 0, -1.15577e-05, 95362
-10736.5, 676585, -0.641807, 0.267201, -835.185, 0.0536547, 0.303415, 0.993198, 0.349787, 0.651995, 0.0001, 91, 246, 17.4102, 0.000749796, 0, 0, 1, 0, 4.20867e-06, 95370
-9585.56, 315385, -96.2474, 0.897486, -1048.27, 0.382912, 0.322597, 0.993198, 0.349787, 0.651995, 0.0001, 91, 246, 24.3558, 0.0713244, 0, 0, 1, 0, -0.000102213, 95372
-9585.56, 315385, -96.2474, 0.897486, -1048.27, 0.382912, 0.322597, 0.993198, 0.349787, 0.651995, 3, 91, 246, 24.3558, 0.0713244, 0, 0, 1, 0, -5.96612e-05, 95372
-5715.79, 80141.4, -147.483, 3.47788, -950.836, 0.211586, 0.287618, 0.9175, 0.352806, 0.64323, 3, 455, 246, 25.2549, 0.0839684, 0, 0, 1, 0, 1.48298e-05, 95373
-11111, 211775, -301.541, 3.32193, -640.852, -0.0389375, 0.366367, 1.03299, 0.34851, 0.655882, 0.0001, 45.5, 246, 47.2125, 0.216926, 1.04644, 1, 0, 0, -4.53418e-07, 95386
-7145.01, 220440, -350.294, 3.62705, -669.264, 0.0140234, 0.386756, 0.993198, 0.349787, 0.651995, 0.0001, 91, 246, 47.2125, 0.216926, 1.29406, 1, 1, 0, 4.79609e-07, 95386
-7145.01, 220440, -350.294, 3.62705, -669.264, 0.0140234, 0.386756, 0.993198, 0.349787, 0.651995, 3, 91, 246, 47.2125, 0.216926, 1.16909, 1, 1, 0, 1.87881e-07, 95386
-2241.64, 231527, -408.682, 3.99132, -712.155, 0.0779405, 0.426263, 0.958125, 0.351078, 0.648177, 0.0001, 182, 246, 47.2125, 0.216926, 2.33481, 1, 0, 0, -6.7377e-06, 95386
-2241.64, 231527, -408.682, 3.99132, -712.155, 0.0779405, 0.426263, 0.958125, 0.351078, 0.648177, 3, 182, 246, 47.2125, 0.216926, 2.16768, 1, 0, 0, 1.44471e-05, 95386
-8726.67, 347200, -169.074, 0.806953, -1004.04, 0.00789162, 0.375968, 0.993198, 0.349787, 0.651995, 0.0001, 91, 246, 30.6762, 0.119888, 0, 0, 1, 0, 3.20501e-05, 95391
-7371.27, 365595, -183.386, 0.840245, -1009.36, 0.0108834, 0.351946, 0.958125, 0.351078, 0.648177, 0.0001, 182, 246, 30.6762, 0.119888, 0, 0, 1, 0, -3.65341e-05, 95391
-9678.36, 346726, -296.074, 0.661789, -861.714, 0.00824436, 0.586603, 1.03299, 0.34851, 0.655882, 0.0001, 45.5, 246, 41.4435, 0.225302, 0, 0, 0, 0, -1.644e-05, 95397
-8100.99, 361569, -314.934, 0.69253, -868.426, 0.0102709, 0.57368, 0.993198, 0.349787, 0.651995, 3, 91, 246, 41.4435, 0.225302, 0, 0, 1, 0, -1.03553e-05, 95397
-11964.9, 380547, -111.715, 0.814448, -685.386, 0.835103, 0.357521, 1.03299, 0.34851, 0.655882, 0.0001, 45.5, 246, 20.9853, 0.0656861, 0, 0, 1, 0, -0.000111536, 95404
-11964.9, 380547, -111.715, 0.814448, -685.386, 0.835103, 0.357521, 1.03299, 0.34851, 0.655882, 3, 45.5, 246, 20.9853, 0.0656861, 0, 0, 1, 0, 2.22866e-05, 95404
-694.014, 139071, -289.74, 4.04422, -945.464, 0.550369, 0.34629, 0.9175, 0.352806, 0.64323, 0.0001, 455, 246, 40.3054, 0.159076, 1.64596, 1, 0, 0, 1.47925e-05, 95418
-694.014, 139071, -289.74, 4.04422, -945.464, 0.550369, 0.34629, 0.9175, 0.352806, 0.64323, 3, 455, 246, 40.3054, 0.159076, 1.63602, 1, 0, 0, -3.98685e-07, 95418
-11845.6, 460313, -84.5707, 0.676332, -934.985, 0.653823, 0.34768, 1.03299, 0.34851, 0.655882, 0.0001, 45.5, 246, 23.2965, 0.0441098, 0, 0, 1, 0, -8.5272e-05, 95422
-11845.6, 460313, -84.5707, 0.676332, -934.985, 0.653823, 0.34768, 1.03299, 0.34851, 0.655882, 3, 45.5, 246, 23.2965, 0.0441098, 0, 0, 1, 0, -0.000103698, 95422
-9033.68, 537757, -105.218, 0.788399, -1183.56, 0.830063, 0.285358, 0.958125, 0.351078, 0.648177, 3, 182, 246, 23.2965, 0.0441098, 0, 0, 1, 0, 2.55596e-05, 95422
518.201, 314402, -389.097, 2.97629, -876.041, 0.0763427, 0.458021, 0.9175, 0.352806, 0.64323, 3, 455, 246, 40.1576, 0.192503, 1.25922, 1, 0, 0, 8.95349e-06, 95426
-7778.46, 149618, -233.611, 2.89119, -916.146, 0.699391, 0.356768, 1.03299, 0.34851, 0.655882, 0.0001, 45.5, 246, 48.2014, 0.212163, 1.02744, 1, 0, 0, -3.31189e-05, 95427
-5204.18, 173875, -280.939, 3.26408, -1055.52, 0.832982, 0.364527, 0.993198, 0.349787, 0.651995, 0.0001, 91, 246, 48.2014, 0.212163, 1.07045, 1, 1, 0, -2.65987e-05, 95427
-1530.67, 207780, -343.263, 3.73821, -1251.69, 1.02114, 0.391989, 0.958125, 0.351078, 0.648177, 0.0001, 182, 246, 48.2014, 0.212163, 1.87936, 1, 0, 0, -2.15041e-05, 95427
-1530.67, 207780, -343.263, 3.73821, -1251.69, 1.02114, 0.391989, 0.958125, 0.351078, 0.648177, 3, 182, 246, 48.2014, 0.212163, 1.70791, 1, 0, 0, 2.86196e-05, 95427
-11760, 177680, 13.4767, 1.53318, -1100.44, 0.0708234, 0.305371, 1.03299, 0.34851, 0.655882, 0.0001, 45.5, 246, 14.8337, 0.0127635, 0, 0, 1, 0, -3.10695e-06, 95429
-10739.4, 199639, -1.52847, 1.62338, -1113.59, 0.082685, 0.277881, 0.993198, 0.349787, 0.651995, 0.0001, 91, 246, 14.8337, 0.0127635, 0, 0, 1, 0, -5.01344e-06, 95429
-3807, 56283.3, -206.372, 4.03199, -1022.6, 1.60603, 0.30058, 0.9175, 0.352806, 0.64323, 0.0001, 455, 246, 43.918, 0.0325952, 1.17379, 1, 1, 0, -2.27501e-05, 95430
-3807, 56283.3, -206.372, 4.03199, -1022.6, 1.60603, 0.30058, 0.9175, 0.352806, 0.64323, 3, 455, 246, 43.918, 0.0325952, 1.07577, 1, 1, 0, 1.61468e-05, 95430
-11302, 177363, -142.432, 2.93028, -1027.09, -0.0351187, 0.281775, 1.03299, 0.34851, 0.655882, 0.0001, 45.5, 246, 35.3894, 0.139049, 0, 0, 0, 0, -3.2914e-06, 95432
-11302, 177363, -142.432, 2.93028, -1027.09, -0.0351187, 0.281775, 1.03299, 0.34851, 0.655882, 3, 45.5, 246, 35.3894, 0.139049, 0, 0, 0, 0, -7.52645e-06, 95432
-8829.84, 195820, -182.777, 3.16754, -1037.64, 0.00569315, 0.283464, 0.993198, 0.349787, 0.651995, 0.0001, 91, 246, 35.3894, 0.139049, 0, 0, 1, 0, 1.34528e-05, 95432
-8829.84, 195820, -182.777, 3.16754, -1037.64, 0.00569315, 0.283464, 0.993198, 0.349787, 0.651995, 3, 91, 246, 35.3894, 0.139049, 0, 0, 1, 0, 2.02872e-05, 95432
-8981.65, 478299, -277.436, 0.569919, -1086.7, 0.0608948, 0.49451, 1.03299, 0.34851, 0.655882, 0.0001, 45.5, 246, 37.9605, 0.149306, 0, 0, 0, 0, 1.48702e-05, 95435
-9196.87, 37378.6, 24.3963, 3.02902, -1060.67, 0.557216, 0.206204, 1.03299, 0.34851, 0.655882, 0.0001, 45.5, 246, 12.218, 0.0377445, 1.16646, 1, 0, 0, 1.34877e-05, 95437
-4404.99, 36890, -139.931, 2.82841, -610.005, 0.546804, 0.25047, 1.03299, 0.34851, 0.655882, 0.0001, 45.5, 246, 49.5762, 0.106261, 1.08648, 1, 1, 0, -2.03006e-05, 95439
-3757.33, 45679.1, -168.637, 3.15059, -682.493, 0.641425, 0.248427, 0.993198, 0.349787, 0.651995, 0.0001, 91, 246, 49.5762, 0.106261, 1.08284, 1, 1, 0, -2.70297e-05, 95439
-2774.25, 57330.4, -205.176, 3.54595, -779.848, 0.768481, 0.263438, 0.958125, 0.351078, 0.648177, 0.0001, 182, 246, 49.5762, 0.106261, 1.21487, 1, 1, 0, -9.80357e-06, 95439
-2774.25, 57330.4, -205.176, 3.54595, -779.848, 0.768481, 0.263438, 0.958125, 0.351078, 0.648177, 3, 182, 246, 49.5762, 0.106261, 1.06278, 1, 1, 0, 1.56375e-05, 95439
-639.022, 80265.5, -272.48, 4.24557, -973.095, 1.02014, 0.31613, 0.9175, 0.352806, 0.64323, 0.0001, 455, 246, 49.5762, 0.106261, 1.80174, 1, 1, 0, -3.85967e-06, 95439
-639.022, 80265.5, -272.48, 4.24557, -973.095, 1.02014, 0.31613, 0.9175, 0.352806, 0.64323, 3, 455, 246, 49.5762, 0.106261, 1.69239, 1, 1, 0, 3.24819e-06, 95439
-8527.9, 104701, -123.913, 3.28946, -1027.16, -0.00124824, 0.236318, 1.03299, 0.34851, 0.655882, 0.0001, 45.5, 246, 36.9163, 0.137821, 0, 0, 0, 0, -2.85467e-06, 95445
-8527.9, 104701, -123.913, 3.28946, -1027.16, -0.00124824, 0.236318, 1.03299, 0.34851, 0.655882, 3, 45.5, 246, 36.9163, 0.137821, 0, 0, 0, 0, 1.4362e-06, 95445
-6808.01, 123549, -167.336, 3.58347, -1044.22, 0.0506288, 0.246386, 0.993198, 0.349787, 0.651995, 0.0001, 91, 246, 36.9163, 0.137821, 0, 0, 1, 0, -5.8342e-06, 95445
-6808.01, 123549, -167.336, 3.58347, -1044.22, 0.0506288, 0.246386, 0.993198, 0.349787, 0.651995, 3, 91, 246, 36.9163, 0.137821, 0, 0, 1, 0, -5.02882e-06, 95445
230.459, 176017, -306.894, 4.51626, -1153.72, 0.222478, 0.344372, 0.9175, 0.352806, 0.64323, 0.0001, 455, 246, 36.9163, 0.137821, 2.02954, 1, 0, 0, 3.43515e-06, 95445
230.459, 176017, -306.894, 4.51626, -1153.72, 0.222478, 0.344372, 0.9175, 0.352806, 0.64323, 3, 455, 246, 36.9163, 0.137821, 2.04845, 1, 0, 0, -2.59292e-06, 95445
-9316.96, 76223.7, -47.1751, 3.44898, -1117.26, -0.0361091, 0.18506, 1.03299, 0.34851, 0.655882, 0.0001, 45.5, 246, 25.9989, 0.0839793, 0, 0, 0, 0, -1.5066e-05, 95446
-8100.31, 97685, -88.2965, 3.75683, -1122.16, 0.0208251, 0.197335, 0.993198, 0.349787, 0.651995, 0.0001, 91, 246, 25.9989, 0.0839793, 0, 0, 1, 0, 1.06261e-05, 95446
-8100.31, 97685, -88.2965, 3.75683, -1122.16, 0.0208251, 0.197335, 0.993198, 0.349787, 0.651995, 3, 91, 246, 25.9989, 0.0839793, 0, 0, 1, 0, -1.85642e-06, 95446
-8935.75, 121538, -145.986, 2.50565, -703.767, 0.328398, 0.315985, 1.03299, 0.34851, 0.655882, 3, 45.5, 246, 36.1543, 0.159976, 0, 0, 1, 0, -9.47279e-06, 95451
-11221.3, 381215, -76.3693, 0.628397, -710.505, 0.84646, 0.347551, 1.03299, 0.34851, 0.655882, 0.0001, 45.5, 246, 18.8464, 0.0457558, 0, 0, 1, 0, -2.54608e-05, 95457
-11221.3, 381215, -76.3693, 0.628397, -710.505, 0.84646, 0.347551, 1.03299, 0.34851, 0.655882, 3, 45.5, 246, 18.8464, 0.0457558, 0, 0, 1, 0, 1.05754e-05, 95457
-10312.3, 410410, -83.8063, 0.684755, -821.831, 0.979349, 0.313694, 0.993198, 0.349787, 0.651995, 0.0001, 91, 246, 18.8464, 0.0457558, 0, 0, 1, 0, 3.53833e-05, 95457
-9126.47, 448559, -92.6401, 0.751089, -974.301, 1.16134, 0.284631, 0.958125, 0.351078, 0.648177, 0.0001, 182, 246, 18.8464, 0.0457558, 0, 0, 1, 0, 8.6631e-05, 95457
-11059.3, 185594, -28.7502, 1.38218, -970.017, 0.0537312, 0.319952, 1.03299, 0.34851, 0.655882, 0.0001, 45.5, 246, 18.5054, 0.0472155, 0, 0, 1, 0, -2.03052e-05, 95458
-11059.3, 185594, -28.7502, 1.38218, -970.017, 0.0537312, 0.319952, 1.03299, 0.34851, 0.655882, 3, 45.5, 246, 18.5054, 0.0472155, 0, 0, 1, 0, -6.00813e-07, 95458
-10111.5, 202641, -42.7113, 1.45859, -980.34, 0.0631249, 0.291326, 0.993198, 0.349787, 0.651995, 0.0001, 91, 246, 18.5054, 0.0472155, 0, 0, 1, 0, -9.04813e-06, 95458
-8400.18, 388375, -322.999, 0.352201, -912.886, 0.604937, 0.587603, 1.03299, 0.34851, 0.655882, 0.0001, 45.5, 246, 40.4109, 0.204436, 0, 0, 0, 0, -3.93383e-05, 95465
-7046.5, 420020, -339.141, 0.378858, -1012.77, 0.669524, 0.573284, 0.993198, 0.349787, 0.651995, 0.0001, 91, 246, 40.4109, 0.204436, 0, 0, 1, 0, -1.0355e-05, 95465
-8936.21, 136760, -177.562, 2.79852, -700.452, -0.029499, 0.317045, 1.03299, 0.34851, 0.655882, 0.0001, 45.5, 246, 39.9203, 0.177475, 0, 0, 1, 0, -8.20123e-06, 95467
-8936.21, 136760, -177.562, 2.79852, -700.452, -0.029499, 0.317045, 1.03299, 0.34851, 0.655882, 3, 45.5, 246, 39.9203, 0.177475, 0, 0, 1, 0, 1.93376e-05, 95467
-497.574, 171658, -310.432, 3.68445, -783.69, 0.122948, 0.371648, 0.9175, 0.352806, 0.64323, 0.0001, 455, 246, 39.9203, 0.177475, 1.42039, 1, 0, 0, 1.43391e-05, 95467
-497.574, 171658, -310.432, 3.68445, -783.69, 0.122948, 0.371648, 0.9175, 0.352806, 0.64323, 3, 455, 246, 39.9203, 0.177475, 1.42074, 1, 0, 0, 7.83214e-06, 95467
-12129.3, 313444, -105.065, 1.19766, -809.774, -0.00663312, 0.35347, 1.03299, 0.34851, 0.655882, 0.0001, 45.5, 246, 23.896, 0.0843171, 0, 0, 1, 0, -1.40729e-05, 95475
-12129.3, 313444, -105.065, 1.19766, -809.774, -0.00663312, 0.35347, 1.03299, 0.34851, 0.655882, 3, 45.5, 246, 23.896, 0.0843171, 0, 0, 1, 0, -3.00683e-06, 95475
-4260.31, 335841, -428.267, 4.07407, -942.623, 0.124736, 0.417777, 0.958125, 0.351078, 0.648177, 0.0001, 182, 246, 43.8665, 0.188864, 1.94632, 1, 0, 0, -8.12541e-06, 95476
-4260.31, 335841, -428.267, 4.07407, -942.623, 0.124736, 0.417777, 0.958125, 0.351078, 0.648177, 3, 182, 246, 43.8665, 0.188864, 1.8183, 1, 0, 0, -1.38444e-05, 95476
-11479.3, 383057, -107.434, 0.804198, -872.9, 0.549882, 0.358392, 1.03299, 0.34851, 0.655882, 0.0001, 45.5, 246, 23.9676, 0.0668692, 0, 0, 1, 0, 5.41709e-07, 95477
-11479.3, 383057, -107.434, 0.804198, -872.9, 0.549882, 0.358392, 1.03299, 0.34851, 0.655882, 3, 45.5, 246, 23.9676, 0.0668692, 0, 0, 1, 0, -0.000106132, 95477
-12658.7, 124217, 13.638, 3.39407, -1021.32, -0.0308041, 0.158438, 1.03299, 0.34851, 0.655882, 0.0001, 45.5, 246, 15.6054, 0.0312857, 0, 0, 0, 0, -1.11041e-05, 95484
-12658.7, 124217, 13.638, 3.39407, -1021.32, -0.0308041, 0.158438, 1.03299, 0.34851, 0.655882, 3, 45.5, 246, 15.6054, 0.0312857, 0, 0, 0, 0, -2.85006e-06, 95484
-10566.9, 216920, -280.686, 2.34816, -678.768, -0.0143673, 0.485938, 1.03299, 0.34851, 0.655882, 0.0001, 45.5, 246, 46.7802, 0.24441, 0, 0, 0, 0, 1.73366e-05, 95487
-10566.9, 216920, -280.686, 2.34816, -678.768, -0.0143673, 0.485938, 1.03299, 0.34851, 0.655882, 3, 45.5, 246, 46.7802, 0.24441, 0, 0, 0, 0, 7.43742e-06, 95487
-7573.25, -39449.2, -2.46822, 3.405, -1004.11, 0.0431842, 0.244849, 0.993198, 0.349787, 0.651995, 0.0001, 91, 246, 5.73095, 0.0771991, 0, 0, 1, 1, 1.52238e-05, 95488
-8656.01, 1917.86, -90.826, 4.24219, -1057.22, 0.195777, 0.323803, 0.9175, 0.352806, 0.64323, 3, 455, 246, 5.73095, 0.0771991, 0, 0, 1, 1, 2.86148e-06, 95488
-10236.4, 757091, -65.9085, 0.484486, -829.999, 0.289463, 0.275127, 0.958125, 0.351078, 0.648177, 3, 182, 246, 18.973, 0.0202495, 0, 0, 1, 0, 3.05004e-05, 95490
-5891.95, 138102, -257.67, 3.52874, -966.843, 0.32351, 0.301714, 1.03299, 0.34851, 0.655882, 0.0001, 45.5, 246, 53.5582, 0.217387, 1.35847, 1, 0, 0, 1.25907e-05, 95491
-5891.95, 138102, -257.67, 3.52874, -966.843, 0.32351, 0.301714, 1.03299, 0.34851, 0.655882, 3, 45.5, 246, 53.5582, 0.217387, 1.26083, 1, 0, 0, 2.72793e-05, 95491
-2851.57, 159936, -316.861, 3.94112, -1052.81, 0.405435, 0.325739, 0.993198, 0.349787, 0.651995, 0.0001, 91, 246, 53.5582, 0.217387, 1.69526, 1, 1, 0, -1.77412e-05, 95491
-2851.57, 159936, -316.861, 3.94112, -1052.81, 0.405435, 0.325739, 0.993198, 0.349787, 0.651995, 3, 91, 246, 53.5582, 0.217387, 1.59083, 1, 1, 0, 6.7054e-06, 95491
-8750.09, 87026.2, -102.728, 3.34923, -678.642, -0.0530917, 0.201127, 1.03299, 0.34851, 0.655882, 0.0001, 45.5, 246, 30.0585, 0.102814, 0, 0, 1, 0, -7.16343e-06, 95493
-8750.09, 87026.2, -102.728, 3.34923, -678.642, -0.0530917, 0.201127, 1.03299, 0.34851, 0.655882, 3, 45.5, 246, 30.0585, 0.102814, 0, 0, 1, 0, 1.36036e-05, 95493
-12247.7, 150564, -39.9172, 2.87254, -1078.19, 0.0364636, 0.227577, 1.03299, 0.34851, 0.655882, 0.0001, 45.5, 246, 23.0801, 0.0667723, 0, 0, 0, 0, -5.73884e-06, 95494
-12247.7, 150564, -39.9172, 2.87254, -1078.19, 0.0364636, 0.227577, 1.03299, 0.34851, 0.655882, 3, 45.5, 246, 23.0801, 0.0667723, 0, 0, 0, 0, 6.47529e-06, 95494
-2517, 181722, -215.429, 4.86414, -995.429, 0.558163, 0.296824, 0.9175, 0.352806, 0.64323, 0.0001, 455, 246, 23.8458, 0.0770947, 0, 0, 0, 0, 4.90947e-06, 95498
-2517, 181722, -215.429, 4.86414, -995.429, 0.558163, 0.296824, 0.9175, 0.352806, 0.64323, 3, 455, 246, 23.8458, 0.0770947, 0, 0, 0, 0, 5.05004e-06, 95498
-9535.68, 122136, 4.70751, 0.685586, -1168.15, 0.00672324, 0.33617, 1.03299, 0.34851, 0.655882, 0.0001, 45.5, 246, 12.6501, 0.0116589, 0, 0, 1, 0, -1.33225e-05, 95500
-9535.68, 122136, 4.70751, 0.685586, -1168.15, 0.00672324, 0.33617, 1.03299, 0.34851, 0.655882, 3, 45.5, 246, 12.6501, 0.0116589, 0, 0, 1, 0, 5.94711e-05, 95500
