-4558.56, 79436.5, -196.917, 4.1179, -1335.51, 1.35583, 0.309088, 0.9175, 0.352806, 0.64323, 0.0001, 455, 246, 35.2338, 0.048516, 1.02944, 1, 1, 0, -1.53949e-05, 5006
-4558.56, 79436.5, -196.917, 4.1179, -1335.51, 1.35583, 0.309088, 0.9175, 0.352806, 0.64323, 3, 455, 246, 35.2338, 0.048516, 1.01275, 1, 1, 0, -4.35765e-06, 5006
-8994.52, 404542, -400.266, 0.423767, -960.7, 0.644424, 0.7059, 1.03299, 0.34851, 0.655882, 0.0001, 45.5, 246, 46.2938, 0.244793, 0, 0, 0, 0, -6.40932e-05, 5009
-8994.52, 404542, -400.266, 0.423767, -960.7, 0.644424, 0.7059, 1.03299, 0.34851, 0.655882, 3, 45.5, 246, 46.2938, 0.244793, 0, 0, 0, 0, -0.025301, 5009
-4560.11, 485560, -445.741, 0.498784, -1218.29, 0.811582, 0.70894, 0.958125, 0.351078, 0.648177, 3, 182, 246, 46.2938, 0.244793, 0, 0, 0, 0, -2.76017e-05, 5009
-5782.19, 549804, -371.956, 0.104225, -939.674, 0.00068582, 0.564904, 0.993198, 0.349787, 0.651995, 0.0001, 91, 246, 39.1782, 0.179082, 0, 0, 1, 0, -4.44885e-05, 5011
-5290.22, 331904, -458.7, 3.15356, -661.185, 0.0717016, 0.555902, 0.958125, 0.351078, 0.648177, 0.0001, 182, 246, 44.782, 0.230269, 1.22112, 1, 0, 0, -4.30254e-06, 5019
-9263.96, 439104, -366.804, 0.383994, -858.028, 0.0118458, 0.647864, 1.03299, 0.34851, 0.655882, 0.0001, 45.5, 246, 42.2665, 0.224015, 0, 0, 0, 0, -1.19415e-05, 5022
-9263.96, 439104, -366.804, 0.383994, -858.028, 0.0118458, 0.647864, 1.03299, 0.34851, 0.655882, 3, 45.5, 246, 42.2665, 0.224015, 0, 0, 0, 0, 3.14447e-05, 5022
-7545.13, 454825, -385.409, 0.40056, -863.572, 0.0125449, 0.639976, 0.993198, 0.349787, 0.651995, 3, 91, 246, 42.2665, 0.224015, 0, 0, 1, 0, 1.84926e-05, 5022
-10415, 988799, -80.1105, 0.22784, -667.811, 0.144934, 0.309665, 0.993198, 0.349787, 0.651995, 3, 91, 246, 17.9136, 0.0199455, 0, 0, 1, 0, 0.000123811, 5023
-10164.4, 210429, -248.778, 2.41695, -905.32, -0.0251127, 0.44902, 1.03299, 0.34851, 0.655882, 3, 45.5, 246, 46.3448, 0.22801, 0, 0, 0, 0, 1.43627e-05, 5041
-8995.57, 310092, -188.864, 0.803636, -757.954, 0.0914506, 0.404096, 0.993198, 0.349787, 0.651995, 0.0001, 91, 246, 30.0733, 0.147927, 0, 0, 1, 0, -1.31974e-05, 5045
-10746.2, 427127, -311.367, 1.02934, -1115.79, 0.0111315, 0.549491, 1.03299, 0.34851, 0.655882, 0.0001, 45.5, 246, 42.6971, 0.187078, 0, 0, 0, 0, -2.72022e-05, 5049
-10746.2, 427127, -311.367, 1.02934, -1115.79, 0.0111315, 0.549491, 1.03299, 0.34851, 0.655882, 3, 45.5, 246, 42.6971, 0.187078, 0, 0, 0, 0, 1.30917e-06, 5049
-6684.86, 105998, -203.548, 3.30435, -639.608, 0.585929, 0.243553, 1.03299, 0.34851, 0.655882, 0.0001, 45.5, 246, 44.0437, 0.162885, 1.22633, 1, 0, 0, -4.13318e-05, 5050
-6684.86, 105998, -203.548, 3.30435, -639.608, 0.585929, 0.243553, 1.03299, 0.34851, 0.655882, 3, 45.5, 246, 44.0437, 0.162885, 1.08799, 1, 0, 0, 1.04789e-05, 5050
-4662.25, 118501, -243.73, 3.72458, -729.64, 0.705404, 0.256419, 0.993198, 0.349787, 0.651995, 0.0001, 91, 246, 44.0437, 0.162885, 1.24052, 1, 1, 0, 3.06993e-05, 5050
-4662.25, 118501, -243.73, 3.72458, -729.64, 0.705404, 0.256419, 0.993198, 0.349787, 0.651995, 3, 91, 246, 44.0437, 0.162885, 1.06826, 1, 1, 0, -7.68303e-06, 5050
-1887.95, 135734, -296.372, 4.25975, -855.89, 0.872537, 0.293105, 0.958125, 0.351078, 0.648177, 0.0001, 182, 246, 44.0437, 0.162885, 1.59664, 1, 1, 0, 3.24281e-05, 5050
-1887.95, 135734, -296.372, 4.25975, -855.89, 0.872537, 0.293105, 0.958125, 0.351078, 0.648177, 3, 182, 246, 44.0437, 0.162885, 1.4644, 1, 1, 0, 8.33717e-05, 5050
-11271.1, 221988, -191.893, 2.0118, -803.468, 0.0923698, 0.400229, 1.03299, 0.34851, 0.655882, 0.0001, 45.5, 246, 36.642, 0.176384, 0, 0, 0, 0, 3.15117e-06, 5052
-8503.31, 115974, -145.47, 2.49685, -771.015, -0.027376, 0.328174, 1.03299, 0.34851, 0.655882, 0.0001, 45.5, 246, 38.4629, 0.174737, 0, 0, 1, 0, -1.59465e-05, 5057
-8503.31, 115974, -145.47, 2.49685, -771.015, -0.027376, 0.328174, 1.03299, 0.34851, 0.655882, 3, 45.5, 246, 38.4629, 0.174737, 0, 0, 1, 0, 7.07585e-06, 5057
-4170.52, 129804, -195.19, 3.62072, -1290.7, 1.28966, 0.303474, 0.9175, 0.352806, 0.64323, 0.0001, 455, 246, 30.3232, 0.1136, 0, 0, 1, 0, -4.39061e-06, 5059
-4170.52, 129804, -195.19, 3.62072, -1290.7, 1.28966, 0.303474, 0.9175, 0.352806, 0.64323, 3, 455, 246, 30.3232, 0.1136, 0, 0, 1, 0, -4.93901e-06, 5059
-4463.85, 50440.1, -149.479, 2.18276, -603.471, 0.0918409, 0.33791, 1.03299, 0.34851, 0.655882, 0.0001, 45.5, 246, 58.9928, 0.233525, 1.19818, 1, 1, 0, 4.79048e-06, 5060
-4463.85, 50440.1, -149.479, 2.18276, -603.471, 0.0918409, 0.33791, 1.03299, 0.34851, 0.655882, 3, 45.5, 246, 58.9928, 0.233525, 1.00645, 1, 1, 0, 1.45824e-05, 5060
-3810.52, 57620.2, -172.289, 2.34489, -623.091, 0.116024, 0.324652, 0.993198, 0.349787, 0.651995, 0.0001, 91, 246, 58.9928, 0.233525, 1.19675, 1, 1, 0, 1.59424e-06, 5060
-3810.52, 57620.2, -172.289, 2.34489, -623.091, 0.116024, 0.324652, 0.993198, 0.349787, 0.651995, 3, 91, 246, 58.9928, 0.233525, 1.00873, 1, 1, 0, 1.27072e-05, 5060
-2934.83, 65581.2, -198.273, 2.52484, -648.005, 0.144701, 0.320813, 0.958125, 0.351078, 0.648177, 0.0001, 182, 246, 58.9928, 0.233525, 1.29385, 1, 1, 0, -1.16055e-05, 5060
-2934.83, 65581.2, -198.273, 2.52484, -648.005, 0.144701, 0.320813, 0.958125, 0.351078, 0.648177, 3, 182, 246, 58.9928, 0.233525, 1.13481, 1, 1, 0, 9.54578e-06, 5060
-1343.63, 77768.2, -238.886, 2.79946, -691.588, 0.191613, 0.330222, 0.9175, 0.352806, 0.64323, 0.0001, 455, 246, 58.9928, 0.233525, 1.65189, 1, 1, 0, 1.36047e-06, 5060
-1343.63, 77768.2, -238.886, 2.79946, -691.588, 0.191613, 0.330222, 0.9175, 0.352806, 0.64323, 3, 455, 246, 58.9928, 0.233525, 1.53518, 1, 1, 0, -1.39982e-05, 5060
-4107.74, 394770, -498.91, 3.39281, -946.647, 0.0722902, 0.568353, 0.958125, 0.351078, 0.648177, 0.0001, 182, 246, 47.7359, 0.222625, 1.4798, 1, 0, 0, -1.29405e-05, 5063
-4107.74, 394770, -498.91, 3.39281, -946.647, 0.0722902, 0.568353, 0.958125, 0.351078, 0.648177, 3, 182, 246, 47.7359, 0.222625, 1.85339, 1, 0, 0, 2.23985e-07, 5063
-9825.43, 349938, -220.58, 0.772293, -941.144, 0.145476, 0.465793, 1.03299, 0.34851, 0.655882, 0.0001, 45.5, 246, 35.07, 0.158646, 0, 0, 0, 0, -7.06375e-06, 5072
-9825.43, 349938, -220.58, 0.772293, -941.144, 0.145476, 0.465793, 1.03299, 0.34851, 0.655882, 3, 45.5, 246, 35.07, 0.158646, 0, 0, 0, 0, 1.81761e-05, 5072
-8385.57, 369545, -237.203, 0.813066, -968.331, 0.151722, 0.442278, 0.993198, 0.349787, 0.651995, 3, 91, 246, 35.07, 0.158646, 0, 0, 1, 0, -1.1626e-05, 5072
1360.77, 249415, -382.608, 3.79067, -841.783, 0.182797, 0.422922, 0.9175, 0.352806, 0.64323, 0.0001, 455, 246, 40.2064, 0.184991, 0, 0, 0, 0, 3.33918e-06, 5073
1360.77, 249415, -382.608, 3.79067, -841.783, 0.182797, 0.422922, 0.9175, 0.352806, 0.64323, 3, 455, 246, 40.2064, 0.184991, 0, 0, 0, 0, -7.62523e-06, 5073
-1173.08, 142601, -273.439, 3.50109, -1129.46, 0.10467, 0.350519, 0.9175, 0.352806, 0.64323, 0.0001, 455, 246, 43.6486, 0.186413, 1.66919, 1, 0, 0, -5.88709e-06, 5075
-1173.08, 142601, -273.439, 3.50109, -1129.46, 0.10467, 0.350519, 0.9175, 0.352806, 0.64323, 3, 455, 246, 43.6486, 0.186413, 1.67024, 1, 0, 0, -8.12644e-06, 5075
-5614.12, 108081, -143.939, 3.28309, -714.464, 0.36978, 0.279731, 0.9175, 0.352806, 0.64323, 3, 455, 246, 23.2334, 0.0891974, 0, 0, 1, 0, -1.39378e-05, 5086
-2176.09, 336372, -431.668, 3.60772, -1203.61, 0.0560608, 0.482071, 0.958125, 0.351078, 0.648177, 0.0001, 182, 246, 49.1247, 0.21265, 1.56354, 1, 0, 0, -4.39091e-06, 5089
-2176.09, 336372, -431.668, 3.60772, -1203.61, 0.0560608, 0.482071, 0.958125, 0.351078, 0.648177, 3, 182, 246, 49.1247, 0.21265, 2.02436, 1, 0, 0, -1.75913e-07, 5089
-8887.09, 120886, -60.7361, 0.652258, -1093.52, -0.00184451, 0.367799, 1.03299, 0.34851, 0.655882, 0.0001, 45.5, 246, 24.6097, 0.120989, 0, 0, 1, 0, 3.05747e-05, 5093
-8887.09, 120886, -60.7361, 0.652258, -1093.52, -0.00184451, 0.367799, 1.03299, 0.34851, 0.655882, 3, 45.5, 246, 24.6097, 0.120989, 0, 0, 1, 0, 3.25483e-05, 5093
-11243.8, 780568, -123.076, 0.309252, -603.184, 0.16018, 0.357433, 1.03299, 0.34851, 0.655882, 0.0001, 45.5, 246, 18.3809, 0.0398486, 0, 0, 1, 0, 0.000126652, 5095
-11243.8, 780568, -123.076, 0.309252, -603.184, 0.16018, 0.357433, 1.03299, 0.34851, 0.655882, 3, 45.5, 246, 18.3809, 0.0398486, 0, 0, 1, 0, 0.000117382, 5095
-8331.5, 536910, -352.342, 0.112963, -711.025, 0.502393, 0.549514, 1.03299, 0.34851, 0.655882, 0.0001, 45.5, 246, 33.3856, 0.159462, 0, 0, 0, 0, -2.82451e-05, 5100
-8331.5, 536910, -352.342, 0.112963, -711.025, 0.502393, 0.549514, 1.03299, 0.34851, 0.655882, 3, 45.5, 246, 33.3856, 0.159462, 0, 0, 0, 0, -1.12568e-06, 5100
-5777.33, 35067.7, -103.45, 2.66516, -885.322, 0.61122, 0.272125, 1.03299, 0.34851, 0.655882, 0.0001, 45.5, 246, 43.9448, 0.123347, 0, 0, 1, 0, -1.91265e-05, 5102
-5777.33, 35067.7, -103.45, 2.66516, -885.322, 0.61122, 0.272125, 1.03299, 0.34851, 0.655882, 3, 45.5, 246, 43.9448, 0.123347, 0, 0, 1, 0, 9.77642e-06, 5102
-1806.87, 119381, -255.58, 4.02066, -1425.92, 1.13769, 0.321946, 0.9175, 0.352806, 0.64323, 0.0001, 455, 246, 43.9448, 0.123347, 1.92325, 1, 0, 0, 1.04854e-05, 5102
-1806.87, 119381, -255.58, 4.02066, -1425.92, 1.13769, 0.321946, 0.9175, 0.352806, 0.64323, 3, 455, 246, 43.9448, 0.123347, 1.90434, 1, 0, 0, 1.05573e-05, 5102
-9056.54, 437073, -12.9764, 0.205771, -872.662, 0.193028, 0.236943, 0.9175, 0.352806, 0.64323, 0.0001, 455, 246, 14.6302, 0.0059928, 0, 0, 1, 0, -6.93547e-05, 5107
-9056.54, 437073, -12.9764, 0.205771, -872.662, 0.193028, 0.236943, 0.9175, 0.352806, 0.64323, 3, 455, 246, 14.6302, 0.0059928, 0, 0, 1, 0, 9.19902e-07, 5107
-10553.1, 614879, -157.584, 0.395168, -760.537, 0.371225, 0.375431, 1.03299, 0.34851, 0.655882, 0.0001, 45.5, 246, 23.4974, 0.0623579, 0, 0, 1, 0, -5.04883e-05, 5113
-10553.1, 614879, -157.584, 0.395168, -760.537, 0.371225, 0.375431, 1.03299, 0.34851, 0.655882, 3, 45.5, 246, 23.4974, 0.0623579, 0, 0, 1, 0, -3.48826e-05, 5113
-8722.45, 27652.9, 14.0556, 3.00321, -972.189, 0.145242, 0.217905, 1.03299, 0.34851, 0.655882, 0.0001, 45.5, 246, 12.0696, 0.0418733, 1.30845, 1, 1, 0, -1.26199e-05, 5119
-19497, -208905, -15.0733, 0.646535, -1150.66, -0.00172719, 0.423969, 1.03299, 0.34851, 0.655882, 0.0001, 45.5, 246, -127.373, 0.188734, 0, 0, 1, 0, 1.51805e-05, 5123
-19497, -208905, -15.0733, 0.646535, -1150.66, -0.00172719, 0.423969, 1.03299, 0.34851, 0.655882, 3, 45.5, 246, -127.373, 0.188734, 0, 0, 1, 0, 4.13663e-05, 5123
-6350.46, -9791.28, -43.5864, 3.32719, -729.845, -0.0495781, 0.208417, 1.03299, 0.34851, 0.655882, 0.0001, 45.5, 246, 27.5458, 0.00742482, 0, 0, 1, 1, -2.32883e-06, 5141
-6350.46, -9791.28, -43.5864, 3.32719, -729.845, -0.0495781, 0.208417, 1.03299, 0.34851, 0.655882, 3, 45.5, 246, 27.5458, 0.00742482, 0, 0, 1, 1, -7.39735e-06, 5141
-8374.06, -6830.92, 7.27277, 1.68776, -628.412, -0.0132106, 0.313942, 1.03299, 0.34851, 0.655882, 3, 45.5, 246, 4.15754, 0.0394099, 0, 0, 1, 1, -9.64312e-07, 5146
-9166.23, 118900, -98.4659, 1.71882, -935.03, 0.01636, 0.356144, 1.03299, 0.34851, 0.655882, 0.0001, 45.5, 246, 31.7533, 0.155123, 0, 0, 1, 0, 4.27915e-06, 5147
-9166.23, 118900, -98.4659, 1.71882, -935.03, 0.01636, 0.356144, 1.03299, 0.34851, 0.655882, 3, 45.5, 246, 31.7533, 0.155123, 0, 0, 1, 0, -8.9573e-06, 5147
-2220.29, 106397, -243.786, 3.5901, -908.091, 0.22369, 0.324258, 0.9175, 0.352806, 0.64323, 0.0001, 455, 246, 41.4704, 0.156278, 1.21811, 1, 1, 0, 1.75428e-05, 5149
-2220.29, 106397, -243.786, 3.5901, -908.091, 0.22369, 0.324258, 0.9175, 0.352806, 0.64323, 3, 455, 246, 41.4704, 0.156278, 1.21518, 1, 1, 0, 4.50736e-06, 5149
-4058.91, 631477, -249.504, 2.92539, -871.001, 0.0806883, 0.272894, 0.9175, 0.352806, 0.64323, 3, 455, 246, 25.2887, 0.0648371, 0, 0, 0, 0, -1.91869e-06, 5151
209.381, 210368, -325.541, 4.37223, -889.518, 0.410885, 0.356602, 0.9175, 0.352806, 0.64323, 0.0001, 455, 246, 35.1275, 0.144733, 1.39548, 1, 0, 0, -9.89081e-06, 5159
209.381, 210368, -325.541, 4.37223, -889.518, 0.410885, 0.356602, 0.9175, 0.352806, 0.64323, 3, 455, 246, 35.1275, 0.144733, 1.41381, 1, 0, 0, 2.75499e-06, 5159
-8484.66, 94478.4, -113.672, 2.51022, -723.694, -0.012721, 0.299877, 1.03299, 0.34851, 0.655882, 0.0001, 45.5, 246, 34.0094, 0.145218, 0, 0, 1, 0, -6.19528e-06, 5160
-8484.66, 94478.4, -113.672, 2.51022, -723.694, -0.012721, 0.299877, 1.03299, 0.34851, 0.655882, 3, 45.5, 246, 34.0094, 0.145218, 0, 0, 1, 0, 1.41783e-05, 5160
-7351.24, 101303, -117.516, 3.95031, -1175.85, 0.0124908, 0.195391, 0.993198, 0.349787, 0.651995, 0.0001, 91, 246, 30.5728, 0.100944, 0, 0, 1, 0, -1.14944e-05, 5163
-7351.24, 101303, -117.516, 3.95031, -1175.85, 0.0124908, 0.195391, 0.993198, 0.349787, 0.651995, 3, 91, 246, 30.5728, 0.100944, 0, 0, 1, 0, -2.95041e-07, 5163
-813.295, 163926, -271.741, 5.04294, -1276.09, 0.220709, 0.326315, 0.9175, 0.352806, 0.64323, 0.0001, 455, 246, 30.5728, 0.100944, 1.17714, 1, 0, 0, 4.82192e-07, 5163
-813.295, 163926, -271.741, 5.04294, -1276.09, 0.220709, 0.326315, 0.9175, 0.352806, 0.64323, 3, 455, 246, 30.5728, 0.100944, 1.19255, 1, 0, 0, -7.64823e-06, 5163
-9625.57, 55789.4, 10.3332, 2.72804, -1135.67, -0.0342858, 0.241252, 1.03299, 0.34851, 0.655882, 0.0001, 45.5, 246, 14.7027, 0.0447705, 1.10931, 1, 1, 0, -1.9699e-05, 5169
-9625.57, 55789.4, 10.3332, 2.72804, -1135.67, -0.0342858, 0.241252, 1.03299, 0.34851, 0.655882, 3, 45.5, 246, 14.7027, 0.0447705, 1.04479, 1, 1, 0, 6.64413e-06, 5169
-9018.16, 77831.1, -18.0826, 2.93396, -1132.89, 0.00092118, 0.234533, 0.993198, 0.349787, 0.651995, 0.0001, 91, 246, 14.7027, 0.0447705, 0, 0, 1, 0, -1.50432e-06, 5169
-9018.16, 77831.1, -18.0826, 2.93396, -1132.89, 0.00092118, 0.234533, 0.993198, 0.349787, 0.651995, 3, 91, 246, 14.7027, 0.0447705, 0, 0, 1, 0, -6.52259e-06, 5169
-12618.6, 313881, -330.01, 2.3356, -1092.03, 0.0688793, 0.543933, 1.03299, 0.34851, 0.655882, 0.0001, 45.5, 246, 49.6776, 0.232804, 0, 0, 0, 0, -1.6646e-05, 5171
-11251.2, 385424, -43.9863, 0.667633, -1071.93, 0.111535, 0.339784, 1.03299, 0.34851, 0.655882, 0.0001, 45.5, 246, 22.1932, 0.0322347, 0, 0, 1, 0, 5.70025e-06, 5181
-11251.2, 385424, -43.9863, 0.667633, -1071.93, 0.111535, 0.339784, 1.03299, 0.34851, 0.655882, 3, 45.5, 246, 22.1932, 0.0322347, 0, 0, 1, 0, -8.84546e-06, 5181
-10325.4, 408263, -52.309, 0.697816, -1092.21, 0.115619, 0.305528, 0.993198, 0.349787, 0.651995, 0.0001, 91, 246, 22.1932, 0.0322347, 0, 0, 1, 0, 2.69086e-05, 5181
-9212.81, 432162, -61.2559, 0.727943, -1113.81, 0.120043, 0.275909, 0.958125, 0.351078, 0.648177, 0.0001, 182, 246, 22.1932, 0.0322347, 0, 0, 1, 0, 3.37052e-05, 5181
-10290.7, 119830, -90.8066, 2.29545, -525.389, 0.748888, 0.284061, 1.03299, 0.34851, 0.655882, 0.0001, 45.5, 246, 23.6219, 0.0974028, 0, 0, 1, 0, 9.74624e-05, 5182
-10290.7, 119830, -90.8066, 2.29545, -525.389, 0.748888, 0.284061, 1.03299, 0.34851, 0.655882, 3, 45.5, 246, 23.6219, 0.0974028, 0, 0, 1, 0, 2.75385e-05, 5182
-9116.11, 130500, -109.554, 2.56316, -603.986, 0.878774, 0.270503, 0.993198, 0.349787, 0.651995, 0.0001, 91, 246, 23.6219, 0.0974028, 0, 0, 1, 0, -1.07739e-05, 5182
-2913.87, 266155, -353.714, 3.9094, -1261.32, 0.936893, 0.373282, 0.958125, 0.351078, 0.648177, 0.0001, 182, 246, 43.3154, 0.181772, 1.21829, 1, 0, 0, 5.21749e-05, 5184
-10021.7, 463943, -161.283, 0.446149, -749.19, 0.541219, 0.388022, 1.03299, 0.34851, 0.655882, 0.0001, 45.5, 246, 24.4847, 0.0822532, 0, 0, 1, 0, -6.31447e-05, 5185
-10021.7, 463943, -161.283, 0.446149, -749.19, 0.541219, 0.388022, 1.03299, 0.34851, 0.655882, 3, 45.5, 246, 24.4847, 0.0822532, 0, 0, 1, 0, 9.05593e-05, 5185
-9079.93, 489366, -170.367, 0.476337, -821.424, 0.592856, 0.356218, 0.993198, 0.349787, 0.651995, 0.0001, 91, 246, 24.4847, 0.0822532, 0, 0, 1, 0, 5.59328e-06, 5185
-7933.5, 519486, -179.978, 0.509026, -908.798, 0.655313, 0.328806, 0.958125, 0.351078, 0.648177, 0.0001, 182, 246, 24.4847, 0.0822532, 0, 0, 1, 0, -2.11532e-05, 5185
-9285.64, 45082.6, 11.5964, 2.83489, -959.987, 0.252811, 0.228401, 1.03299, 0.34851, 0.655882, 0.0001, 45.5, 246, 12.6138, 0.0390576, 1.04278, 1, 1, 0, 7.05565e-06, 5186
-12119.7, 377962, -0.00731489, 0.702105, -981.848, 0.0721043, 0.332568, 1.03299, 0.34851, 0.655882, 0.0001, 45.5, 246, 17.4647, 0.00639127, 0, 0, 1, 0, 3.36812e-06, 5189
-11204.7, 396441, -6.34667, 0.732608, -993.4, 0.0752206, 0.298015, 0.993198, 0.349787, 0.651995, 0.0001, 91, 246, 17.4647, 0.00639127, 0, 0, 1, 0, -2.11623e-06, 5189
-10347.7, 114612, -81.2579, 3.20519, -868.525, -0.0125009, 0.211637, 1.03299, 0.34851, 0.655882, 0.0001, 45.5, 246, 27.3013, 0.0951779, 0, 0, 1, 0, -1.66623e-06, 5193
-10347.7, 114612, -81.2579, 3.20519, -868.525, -0.0125009, 0.211637, 1.03299, 0.34851, 0.655882, 3, 45.5, 246, 27.3013, 0.0951779, 0, 0, 1, 0, -8.1849e-06, 5193
-7283.56, 446739, -389.025, 0.021299, -918.066, 0.248756, 0.676813, 1.03299, 0.34851, 0.655882, 0.0001, 45.5, 246, 43.5345, 0.230896, 0, 0, 0, 0, 1512.22, 5194
-6099.29, 471034, -403.422, 0.0223743, -955.862, 0.258936, 0.671417, 0.993198, 0.349787, 0.651995, 0.0001, 91, 246, 43.5345, 0.230896, 0, 0, 1, 0, 1437.92, 5194
-6856.94, -731.789, -50.6259, 3.72243, -1102.94, 0.0673808, 0.218942, 0.993198, 0.349787, 0.651995, 0.0001, 91, 246, 22.0865, 0.0471138, 0, 0, 1, 1, -1.33323e-05, 5197
-6856.94, -731.789, -50.6259, 3.72243, -1102.94, 0.0673808, 0.218942, 0.993198, 0.349787, 0.651995, 3, 91, 246, 22.0865, 0.0471138, 0, 0, 1, 1, -1.28305e-05, 5197
-9274.14, 134482, -132.487, 2.56515, -1104.4, -0.00908264, 0.323607, 1.03299, 0.34851, 0.655882, 0.0001, 45.5, 246, 37.5548, 0.161415, 0, 0, 1, 0, -1.23786e-05, 5198
-9274.14, 134482, -132.487, 2.56515, -1104.4, -0.00908264, 0.323607, 1.03299, 0.34851, 0.655882, 3, 45.5, 246, 37.5548, 0.161415, 0, 0, 1, 0, -1.53412e-06, 5198
-10619.1, 465003, -61.8716, 0.679648, -1000.89, 0.00579103, 0.307024, 0.993198, 0.349787, 0.651995, 3, 91, 246, 22.1302, 0.0336199, 0, 0, 1, 0, 2.49668e-05, 5203
-1091.13, 94022.9, -270.182, 4.25276, -815.566, 0.191134, 0.325076, 0.9175, 0.352806, 0.64323, 0.0001, 455, 246, 42.0243, 0.133188, 1.4455, 1, 1, 0, 1.53305e-06, 5204
-1091.13, 94022.9, -270.182, 4.25276, -815.566, 0.191134, 0.325076, 0.9175, 0.352806, 0.64323, 3, 455, 246, 42.0243, 0.133188, 1.38991, 1, 1, 0, -5.2812e-06, 5204
-181.414, 566280, -274.238, 3.73829, -1574.06, 1.41025, 0.28778, 0.9175, 0.352806, 0.64323, 3, 455, 246, 26.287, 0.0690683, 0, 0, 0, 0, 0.000152186, 5206
-9481.26, 212701, -55.1899, 2.31877, -699.411, 0.0262622, 0.247389, 0.958125, 0.351078, 0.648177, 0.0001, 182, 246, 14.7662, 0.0373351, 0, 0, 1, 0, -5.97223e-06, 5208
-6840.46, 213873, -319.787, 3.61947, -823.165, -7.88676e-05, 0.361943, 0.993198, 0.349787, 0.651995, 0.0001, 91, 246, 46.8218, 0.207018, 1.10199, 1, 1, 0, 1.37163e-05, 5209
-2208.54, 228497, -380.099, 3.97649, -862.164, 0.0632972, 0.399188, 0.958125, 0.351078, 0.648177, 0.0001, 182, 246, 46.8218, 0.207018, 2.11165, 1, 0, 0, 9.27955e-06, 5209
-2208.54, 228497, -380.099, 3.97649, -862.164, 0.0632972, 0.399188, 0.958125, 0.351078, 0.648177, 3, 182, 246, 46.8218, 0.207018, 1.94838, 1, 0, 0, 8.21917e-06, 5209
-6647.87, 30397.5, -82.0508, 3.50822, -1167.24, -0.000160103, 0.233077, 0.993198, 0.349787, 0.651995, 0.0001, 91, 246, 29.3928, 0.0795751, 0, 0, 1, 1, -7.1816e-06, 5214
-6647.87, 30397.5, -82.0508, 3.50822, -1167.24, -0.000160103, 0.233077, 0.993198, 0.349787, 0.651995, 3, 91, 246, 29.3928, 0.0795751, 0, 0, 1, 1, -1.81135e-05, 5214
-2362.52, 92256.8, -237.37, 3.74254, -1004.75, 0.258527, 0.315307, 0.9175, 0.352806, 0.64323, 0.0001, 455, 246, 43.2215, 0.130704, 1.31842, 1, 1, 0, 3.31961e-06, 5216
-2362.52, 92256.8, -237.37, 3.74254, -1004.75, 0.258527, 0.315307, 0.9175, 0.352806, 0.64323, 3, 455, 246, 43.2215, 0.130704, 1.28536, 1, 1, 0, 5.50184e-06, 5216
-10989.9, 147750, -112.825, 3.10201, -931.945, 0.00485625, 0.23922, 1.03299, 0.34851, 0.655882, 0.0001, 45.5, 246, 31.4371, 0.116945, 0, 0, 0, 0, -4.98864e-06, 5217
-10989.9, 147750, -112.825, 3.10201, -931.945, 0.00485625, 0.23922, 1.03299, 0.34851, 0.655882, 3, 45.5, 246, 31.4371, 0.116945, 0, 0, 0, 0, -1.01706e-05, 5217
-6843.18, -2496.59, -51.6815, 3.69951, -1070.52, 0.00222105, 0.220881, 0.993198, 0.349787, 0.651995, 3, 91, 246, 22.5921, 0.0413805, 0, 0, 1, 1, -4.6262e-06, 5229
-7603.56, 270914, -271.004, 1.27916, -1169.63, 0.450832, 0.530271, 0.993198, 0.349787, 0.651995, 0.0001, 91, 246, 45.1536, 0.241416, 0, 0, 1, 0, 2.28726e-05, 5230
-10348.7, 319544, -175.07, 0.889634, -880.055, 0.0192121, 0.421802, 1.03299, 0.34851, 0.655882, 0.0001, 45.5, 246, 31.2598, 0.13801, 0, 0, 0, 0, 1.66399e-05, 5233
-10348.7, 319544, -175.07, 0.889634, -880.055, 0.0192121, 0.421802, 1.03299, 0.34851, 0.655882, 3, 45.5, 246, 31.2598, 0.13801, 0, 0, 0, 0, -3.58892e-06, 5233
-9026.89, 334046, -190.255, 0.931144, -887.372, 0.0229207, 0.395495, 0.993198, 0.349787, 0.651995, 3, 91, 246, 31.2598, 0.13801, 0, 0, 1, 0, -4.22015e-06, 5233
-7470.2, 349001, -206.172, 0.973079, -895.854, 0.0269984, 0.37395, 0.958125, 0.351078, 0.648177, 0.0001, 182, 246, 31.2598, 0.13801, 0, 0, 1, 0, 2.56379e-05, 5233
-10255, 399502, -106.442, 0.576603, -937.865, 0.240361, 0.363458, 1.03299, 0.34851, 0.655882, 0.0001, 45.5, 246, 24.708, 0.0666483, 0, 0, 1, 0, -7.95621e-06, 5235
-8252.55, 444517, -125.214, 0.636547, -1019.34, 0.263616, 0.301874, 0.958125, 0.351078, 0.648177, 0.0001, 182, 246, 24.708, 0.0666483, 0, 0, 1, 0, -4.75811e-05, 5235
-927.01, 144905, -277.937, 3.30176, -1221.82, 0.531206, 0.362004, 0.9175, 0.352806, 0.64323, 0.0001, 455, 246, 48.5654, 0.221716, 2.24984, 1, 0, 0, 1.32542e-05, 5242
-927.01, 144905, -277.937, 3.30176, -1221.82, 0.531206, 0.362004, 0.9175, 0.352806, 0.64323, 3, 455, 246, 48.5654, 0.221716, 2.25471, 1, 0, 0, 6.01622e-06, 5242
-6310.62, 102343, -180.283, 3.23293, -1059.78, 0.396124, 0.280145, 1.03299, 0.34851, 0.655882, 0.0001, 45.5, 246, 47.466, 0.188055, 1.09716, 1, 0, 0, 1.46221e-05, 5246
-6310.62, 102343, -180.283, 3.23293, -1059.78, 0.396124, 0.280145, 1.03299, 0.34851, 0.655882, 3, 45.5, 246, 47.466, 0.188055, 0, 0, 1, 0, -1.36332e-06, 5246
-4365.39, 126824, -230.836, 3.60185, -1154.21, 0.477223, 0.292422, 0.993198, 0.349787, 0.651995, 0.0001, 91, 246, 47.466, 0.188055, 1.13445, 1, 1, 0, 1.94471e-05, 5246
-1453.04, 157726, -295.502, 4.05668, -1282.28, 0.585693, 0.325768, 0.958125, 0.351078, 0.648177, 0.0001, 182, 246, 47.466, 0.188055, 1.79945, 1, 0, 0, 8.9037e-06, 5246
-1453.04, 157726, -295.502, 4.05668, -1282.28, 0.585693, 0.325768, 0.958125, 0.351078, 0.648177, 3, 182, 246, 47.466, 0.188055, 1.64361, 1, 0, 0, -2.63641e-05, 5246
-8358.75, 580549, -187.255, 0.288446, -1011.58, 0.619534, 0.392386, 1.03299, 0.34851, 0.655882, 0.0001, 45.5, 246, 29.5765, 0.0744055, 0, 0, 1, 0, 1.39104e-05, 5248
-7468.69, 621741, -196.355, 0.308512, -1122.99, 0.687201, 0.360358, 0.993198, 0.349787, 0.651995, 0.0001, 91, 246, 29.5765, 0.0744055, 0, 0, 1, 0, -9.40079e-06, 5248
-8821.4, 65445.1, -1.59894, 0.317559, -870.046, 0.0014287, 0.341117, 1.03299, 0.34851, 0.655882, 0.0001, 45.5, 246, 7.70595, 0.017055, 0, 0, 1, 0, -5.57225e-06, 5250
-7695.7, 536813, -333.831, 0.00612904, -686.858, 0.00299063, 0.546041, 1.03299, 0.34851, 0.655882, 0.0001, 45.5, 246, 33.0782, 0.165082, 0, 0, 0, 0, -0.00143988, 5254
-14164.5, 153289, 0.26817, 3.65035, -1038.58, -0.0625045, 0.12505, 1.03299, 0.34851, 0.655882, 0.0001, 45.5, 246, 18.3202, 0.0382051, 0, 0, 0, 0, -8.57126e-06, 5256
-14164.5, 153289, 0.26817, 3.65035, -1038.58, -0.0625045, 0.12505, 1.03299, 0.34851, 0.655882, 3, 45.5, 246, 18.3202, 0.0382051, 0, 0, 0, 0, 1.1085e-06, 5256
-11723.7, 170998, -35.9145, 3.98005, -1035.2, 0.00147581, 0.141161, 0.993198, 0.349787, 0.651995, 0.0001, 91, 246, 18.3202, 0.0382051, 0, 0, 1, 0, -1.35479e-05, 5256
-11723.7, 170998, -35.9145, 3.98005, -1035.2, 0.00147581, 0.141161, 0.993198, 0.349787, 0.651995, 3, 91, 246, 18.3202, 0.0382051, 0, 0, 1, 0, -9.41352e-06, 5256
-9024.02, 285368, -383.097, 3.67876, -833.943, 0.00354052, 0.417644, 0.993198, 0.349787, 0.651995, 0.0001, 91, 246, 47.3919, 0.213795, 1.11336, 1, 1, 0, -1.37814e-05, 5264
-2695.26, 301430, -451.783, 4.05373, -881.135, 0.0692511, 0.46158, 0.958125, 0.351078, 0.648177, 0.0001, 182, 246, 47.3919, 0.213795, 0, 0, 0, 0, -1.04275e-05, 5264
-2695.26, 301430, -451.783, 4.05373, -881.135, 0.0692511, 0.46158, 0.958125, 0.351078, 0.648177, 3, 182, 246, 47.3919, 0.213795, 4.00946, 1, 0, 0, 8.45167e-07, 5264
-6790.31, 264802, -371.59, 3.74371, -1068.59, 0.000294259, 0.416712, 0.993198, 0.349787, 0.651995, 0.0001, 91, 246, 51.0787, 0.221839, 1.18179, 1, 1, 0, 1.22968e-05, 5265
-6790.31, 264802, -371.59, 3.74371, -1068.59, 0.000294259, 0.416712, 0.993198, 0.349787, 0.651995, 3, 91, 246, 51.0787, 0.221839, 1.0453, 1, 1, 0, 7.85792e-06, 5265
-6687.64, 708261, -327.168, 0.136192, -970.397, 0.533416, 0.472716, 1.03299, 0.34851, 0.655882, 3, 45.5, 246, 34.0043, 0.108572, 0, 0, 0, 0, -0.00012717, 5269
277.068, 272391, -328.029, 3.76429, -1086.35, 0.325182, 0.363421, 0.9175, 0.352806, 0.64323, 3, 455, 246, 35.7739, 0.147921, 1.05672, 1, 0, 0, 5.28132e-06, 5273
-10737.3, 160863, -52.6211, 2.87312, -755.324, 0.307377, 0.228159, 0.993198, 0.349787, 0.651995, 0.0001, 91, 246, 16.8444, 0.0485003, 0, 0, 1, 0, 9.98109e-06, 5275
-10737.3, 160863, -52.6211, 2.87312, -755.324, 0.307377, 0.228159, 0.993198, 0.349787, 0.651995, 3, 91, 246, 16.8444, 0.0485003, 0, 0, 1, 0, 5.59628e-06, 5275
-8704.3, 173994, -78.0223, 3.15125, -801.677, 0.364913, 0.232431, 0.958125, 0.351078, 0.648177, 0.0001, 182, 246, 16.8444, 0.0485003, 0, 0, 1, 0, 2.64342e-05, 5275
-8704.3, 173994, -78.0223, 3.15125, -801.677, 0.364913, 0.232431, 0.958125, 0.351078, 0.648177, 3, 182, 246, 16.8444, 0.0485003, 0, 0, 1, 0, -5.64403e-05, 5275
-9595.71, 493706, -139.941, 0.421872, -935.172, 0.0017842, 0.377566, 1.03299, 0.34851, 0.655882, 0.0001, 45.5, 246, 26.4309, 0.0732274, 0, 0, 1, 0, 7.60045e-05, 5289
-8717.78, 509446, -148.488, 0.436863, -937.127, 0.00259444, 0.344829, 0.993198, 0.349787, 0.651995, 0.0001, 91, 246, 26.4309, 0.0732274, 0, 0, 1, 0, -4.528e-05, 5289
-7706.58, 525330, -157.094, 0.451319, -939.362, 0.00346179, 0.31642, 0.958125, 0.351078, 0.648177, 0.0001, 182, 246, 26.4309, 0.0732274, 0, 0, 1, 0, 2.33e-05, 5289
-8619.71, 82661.5, -21.3072, 0.124384, -962.629, 0.00663673, 0.347166, 1.03299, 0.34851, 0.655882, 0.0001, 45.5, 246, 14.1528, 0.0652759, 0, 0, 1, 0, -5.27412e-05, 5296
-8619.71, 82661.5, -21.3072, 0.124384, -962.629, 0.00663673, 0.347166, 1.03299, 0.34851, 0.655882, 3, 45.5, 246, 14.1528, 0.0652759, 0, 0, 1, 0, 5.87516e-05, 5296
-419.438, 181255, -314.953, 4.01003, -721.937, 0.137077, 0.361776, 0.9175, 0.352806, 0.64323, 0.0001, 455, 246, 37.0484, 0.160216, 1.25177, 1, 0, 0, -6.7762e-06, 5297
-419.438, 181255, -314.953, 4.01003, -721.937, 0.137077, 0.361776, 0.9175, 0.352806, 0.64323, 3, 455, 246, 37.0484, 0.160216, 1.27454, 1, 0, 0, -6.8233e-06, 5297
-5014.85, 145922, -331.682, 3.50095, -559.606, 0.148323, 0.351222, 1.03299, 0.34851, 0.655882, 0.0001, 45.5, 246, 57.707, 0.243895, 1.76933, 1, 0, 0, -4.59888e-06, 5306
-5014.85, 145922, -331.682, 3.50095, -559.606, 0.148323, 0.351222, 1.03299, 0.34851, 0.655882, 3, 45.5, 246, 57.707, 0.243895, 1.71719, 1, 0, 0, 1.05379e-05, 5306
-1555.46, 155359, -383.391, 3.87458, -610.829, 0.213019, 0.377339, 0.993198, 0.349787, 0.651995, 0.0001, 91, 246, 57.707, 0.243895, 2.23532, 1, 1, 1, -245.87, 5306
-1555.46, 155359, -383.391, 3.87458, -610.829, 0.213019, 0.377339, 0.993198, 0.349787, 0.651995, 3, 91, 246, 57.707, 0.243895, 2.14882, 1, 1, 1, -246.029, 5306
-9525.72, 412178, -302.475, 0.61587, -936.503, 0.686591, 0.532513, 1.03299, 0.34851, 0.655882, 0.0001, 45.5, 246, 38.1129, 0.172735, 0, 0, 0, 0, -7.13496e-05, 5313
-9525.72, 412178, -302.475, 0.61587, -936.503, 0.686591, 0.532513, 1.03299, 0.34851, 0.655882, 3, 45.5, 246, 38.1129, 0.172735, 0, 0, 0, 0, 9.93662e-06, 5313
-9123.36, 156342, -147.225, 1.65235, -1099.82, 0.138925, 0.4098, 1.03299, 0.34851, 0.655882, 0.0001, 45.5, 246, 38.7549, 0.196038, 0, 0, 1, 0, 9.19448e-06, 5316
-9123.36, 156342, -147.225, 1.65235, -1099.82, 0.138925, 0.4098, 1.03299, 0.34851, 0.655882, 3, 45.5, 246, 38.7549, 0.196038, 0, 0, 1, 0, -6.0304e-06, 5316
-6143.84, 696368, -272.915, 0.130858, -962.21, 0.282855, 0.407131, 0.993198, 0.349787, 0.651995, 0.0001, 91, 246, 31.0039, 0.0967947, 0, 0, 1, 0, 5.30192e-05, 5321
-5199.9, 725576, -282.017, 0.136728, -1008.24, 0.296171, 0.382423, 0.958125, 0.351078, 0.648177, 0.0001, 182, 246, 31.0039, 0.0967947, 0, 0, 0, 0, 1.48401e-05, 5321
-11575.5, 238374, -58.9839, 1.21948, -816.453, 0.739406, 0.330743, 1.03299, 0.34851, 0.655882, 0.0001, 45.5, 246, 20.0883, 0.057631, 0, 0, 1, 0, -3.8975e-05, 5323
-11575.5, 238374, -58.9839, 1.21948, -816.453, 0.739406, 0.330743, 1.03299, 0.34851, 0.655882, 3, 45.5, 246, 20.0883, 0.057631, 0, 0, 1, 0, 1.68248e-05, 5323
-10427, 261894, -71.8893, 1.33442, -927.351, 0.845335, 0.30111, 0.993198, 0.349787, 0.651995, 0.0001, 91, 246, 20.0883, 0.057631, 0, 0, 1, 0, 9.18223e-05, 5323
-8899.07, 292556, -87.9858, 1.46906, -1074.26, 0.985625, 0.277776, 0.958125, 0.351078, 0.648177, 0.0001, 182, 246, 20.0883, 0.057631, 0, 0, 1, 0, -3.86118e-05, 5323
-9921.39, 177838, -135.574, 3.91227, -1042.38, 0.563047, 0.18136, 0.993198, 0.349787, 0.651995, 0.0001, 91, 246, 28.4493, 0.0903729, 0, 0, 1, 0, -1.28026e-05, 5335
-9921.39, 177838, -135.574, 3.91227, -1042.38, 0.563047, 0.18136, 0.993198, 0.349787, 0.651995, 3, 91, 246, 28.4493, 0.0903729, 0, 0, 1, 0, -1.06274e-05, 5335
798.038, 258670, -299.301, 5.42546, -1437.11, 0.987902, 0.324215, 0.9175, 0.352806, 0.64323, 3, 455, 246, 28.4493, 0.0903729, 1.29686, 1, 0, 0, -1.12686e-05, 5335
-7960.76, 620851, -269.5, 0.167973, -798.933, 0.390597, 0.446542, 1.03299, 0.34851, 0.655882, 0.0001, 45.5, 246, 29.3554, 0.105312, 0, 0, 0, 0, -0.000103957, 5340
-7960.76, 620851, -269.5, 0.167973, -798.933, 0.390597, 0.446542, 1.03299, 0.34851, 0.655882, 3, 45.5, 246, 29.3554, 0.105312, 0, 0, 0, 0, -6.88204e-05, 5340
-7037.75, 647583, -279.582, 0.17719, -852.785, 0.416431, 0.418643, 0.993198, 0.349787, 0.651995, 0.0001, 91, 246, 29.3554, 0.105312, 0, 0, 1, 0, -4.27966e-05, 5340
-9499.49, 78264.8, -43.7805, 3.11181, -1046.89, 0.239176, 0.213841, 1.03299, 0.34851, 0.655882, 0.0001, 45.5, 246, 24.4293, 0.0800218, 0, 0, 1, 0, -3.70697e-06, 5341
-9499.49, 78264.8, -43.7805, 3.11181, -1046.89, 0.239176, 0.213841, 1.03299, 0.34851, 0.655882, 3, 45.5, 246, 24.4293, 0.0800218, 0, 0, 0, 0, 8.47065e-07, 5341
-5850.15, 133916, -249.352, 3.35874, -925.795, -0.0417767, 0.332851, 1.03299, 0.34851, 0.655882, 0.0001, 45.5, 246, 54.1797, 0.230408, 1.30243, 1, 0, 0, 1.8803e-06, 5344
-5850.15, 133916, -249.352, 3.35874, -925.795, -0.0417767, 0.332851, 1.03299, 0.34851, 0.655882, 3, 45.5, 246, 54.1797, 0.230408, 1.19072, 1, 0, 0, 1.19891e-05, 5344
-3117.92, 150246, -302.512, 3.66594, -948.982, 0.0123547, 0.351894, 0.993198, 0.349787, 0.651995, 0.0001, 91, 246, 54.1797, 0.230408, 1.61012, 1, 1, 0, 8.20775e-07, 5344
-3117.92, 150246, -302.512, 3.66594, -948.982, 0.0123547, 0.351894, 0.993198, 0.349787, 0.651995, 3, 91, 246, 54.1797, 0.230408, 1.49437, 1, 1, 0, -3.57107e-06, 5344
515.547, 168926, -366.241, 4.03298, -989.521, 0.07761, 0.390177, 0.958125, 0.351078, 0.648177, 0.0001, 182, 246, 54.1797, 0.230408, 3.50192, 1, 0, 0, -8.17259e-06, 5344
515.547, 168926, -366.241, 4.03298, -989.521, 0.07761, 0.390177, 0.958125, 0.351078, 0.648177, 3, 182, 246, 54.1797, 0.230408, 3.26934, 1, 0, 0, 2.16523e-06, 5344
-9872.82, 361168, -245.715, 0.647131, -798.315, 0.0196097, 0.498775, 1.03299, 0.34851, 0.655882, 0.0001, 45.5, 246, 35.0049, 0.176431, 0, 0, 0, 0, 2.96039e-05, 5364
-9872.82, 361168, -245.715, 0.647131, -798.315, 0.0196097, 0.498775, 1.03299, 0.34851, 0.655882, 3, 45.5, 246, 35.0049, 0.176431, 0, 0, 0, 0, 3.15849e-06, 5364
-8524.39, 373873, -261.064, 0.675768, -805.338, 0.0215975, 0.477316, 0.993198, 0.349787, 0.651995, 3, 91, 246, 35.0049, 0.176431, 0, 0, 1, 0, 3.59522e-06, 5364
-6956.39, 386999, -276.815, 0.704436, -813.124, 0.0237694, 0.460335, 0.958125, 0.351078, 0.648177, 0.0001, 182, 246, 35.0049, 0.176431, 0, 0, 0, 0, -8.8187e-06, 5364
-6931.82, 96791.7, -128.432, 3.46982, -1183.58, 0.000127181, 0.243648, 0.993198, 0.349787, 0.651995, 0.0001, 91, 246, 33.8031, 0.123019, 0, 0, 1, 0, -6.08704e-06, 5365
-6931.82, 96791.7, -128.432, 3.46982, -1183.58, 0.000127181, 0.243648, 0.993198, 0.349787, 0.651995, 3, 91, 246, 33.8031, 0.123019, 0, 0, 1, 0, 7.84284e-06, 5365
-1361.64, 158867, -264.292, 4.3132, -1261.48, 0.155194, 0.32805, 0.9175, 0.352806, 0.64323, 0.0001, 455, 246, 33.8031, 0.123019, 1.13755, 1, 0, 0, -5.05791e-06, 5365
-1361.64, 158867, -264.292, 4.3132, -1261.48, 0.155194, 0.32805, 0.9175, 0.352806, 0.64323, 3, 455, 246, 33.8031, 0.123019, 1.14399, 1, 0, 0, 1.29542e-05, 5365
-11451.5, 127354, -19.5967, 2.45903, -874.004, 0.381015, 0.252661, 1.03299, 0.34851, 0.655882, 3, 45.5, 246, 17.3173, 0.0470362, 0, 0, 1, 0, -1.73209e-05, 5367
-16537.7, -188952, -15.2181, 0.618118, -1174.1, 0.0624039, 0.408016, 1.03299, 0.34851, 0.655882, 0.0001, 45.5, 246, -104.969, 0.178383, 0, 0, 1, 0, -2.30591e-05, 5370
-16537.7, -188952, -15.2181, 0.618118, -1174.1, 0.0624039, 0.408016, 1.03299, 0.34851, 0.655882, 3, 45.5, 246, -104.969, 0.178383, 0, 0, 1, 0, -4.54488e-06, 5370
-11370.2, 218415, -37.2363, 1.28932, -991.934, 0.202498, 0.324421, 1.03299, 0.34851, 0.655882, 0.0001, 45.5, 246, 19.9785, 0.048684, 0, 0, 1, 0, 1.70761e-05, 5372
-10301.7, 238600, -51.1798, 1.36944, -1026.92, 0.217205, 0.294972, 0.993198, 0.349787, 0.651995, 0.0001, 91, 246, 19.9785, 0.048684, 0, 0, 1, 0, 4.44804e-06, 5372
-8770.38, 884366, -166.561, 0.246763, -1115.96, 0.0944265, 0.369616, 1.03299, 0.34851, 0.655882, 0.0001, 45.5, 246, 30.7822, 0.0473945, 0, 0, 0, 0, 4.29892e-05, 5374
-8770.38, 884366, -166.561, 0.246763, -1115.96, 0.0944265, 0.369616, 1.03299, 0.34851, 0.655882, 3, 45.5, 246, 30.7822, 0.0473945, 0, 0, 0, 0, 3.05045e-05, 5374
-6586.18, 939773, -182.171, 0.264786, -1152.78, 0.0979236, 0.306107, 0.958125, 0.351078, 0.648177, 3, 182, 246, 30.7822, 0.0473945, 0, 0, 0, 0, 1.31671e-05, 5374
-9408.1, 218142, -50.7098, 2.05902, -762.992, 0.274619, 0.254083, 0.958125, 0.351078, 0.648177, 0.0001, 182, 246, 14.5571, 0.035114, 0, 0, 1, 0, 6.2085e-05, 5375
-9408.1, 218142, -50.7098, 2.05902, -762.992, 0.274619, 0.254083, 0.958125, 0.351078, 0.648177, 3, 182, 246, 14.5571, 0.035114, 0, 0, 1, 0, -3.15983e-05, 5375
-9347.49, 326581, -98.4024, 0.777368, -1034.11, 0.0906603, 0.32619, 0.993198, 0.349787, 0.651995, 0.0001, 91, 246, 24.8677, 0.0729709, 0, 0, 1, 0, 1.08853e-05, 5379
-9579.21, 163720, -63.6046, 1.00933, -1078.94, 0.0600802, 0.352583, 1.03299, 0.34851, 0.655882, 3, 45.5, 246, 24.2397, 0.0932467, 0, 0, 1, 0, 2.11045e-05, 5382
-10688.2, 278262, -200.542, 1.19012, -837.484, 0.12672, 0.44977, 1.03299, 0.34851, 0.655882, 0.0001, 45.5, 246, 34.9443, 0.1725, 0, 0, 0, 0, 6.12465e-07, 5386
-10688.2, 278262, -200.542, 1.19012, -837.484, 0.12672, 0.44977, 1.03299, 0.34851, 0.655882, 3, 45.5, 246, 34.9443, 0.1725, 0, 0, 0, 0, -1.98747e-06, 5386
-9574.73, 58592.5, -5.22364, 3.51894, -610.429, 0.390434, 0.146264, 1.03299, 0.34851, 0.655882, 0.0001, 45.5, 246, 11.9616, 0.0311933, 0, 0, 0, 0, -1.30441e-05, 5387
-9574.73, 58592.5, -5.22364, 3.51894, -610.429, 0.390434, 0.146264, 1.03299, 0.34851, 0.655882, 3, 45.5, 246, 11.9616, 0.0311933, 0, 0, 0, 0, -1.30096e-05, 5387
-8753.23, 66435.1, -27.2251, 3.92746, -655.317, 0.480923, 0.160294, 0.993198, 0.349787, 0.651995, 0.0001, 91, 246, 11.9616, 0.0311933, 0, 0, 1, 0, 5.35686e-05, 5387
-8753.23, 66435.1, -27.2251, 3.92746, -655.317, 0.480923, 0.160294, 0.993198, 0.349787, 0.651995, 3, 91, 246, 11.9616, 0.0311933, 0, 0, 1, 0, -1.66706e-05, 5387
-7602.95, 76131.3, -56.205, 4.438, -718.288, 0.603526, 0.198552, 0.958125, 0.351078, 0.648177, 0.0001, 182, 246, 11.9616, 0.0311933, 0, 0, 1, 0, -3.26355e-06, 5387
-7602.95, 76131.3, -56.205, 4.438, -718.288, 0.603526, 0.198552, 0.958125, 0.351078, 0.648177, 3, 182, 246, 11.9616, 0.0311933, 0, 0, 1, 0, 8.38055e-05, 5387
-5306.03, 93864.4, -111.882, 5.3668, -849.25, 0.849838, 0.29885, 0.9175, 0.352806, 0.64323, 0.0001, 455, 246, 11.9616, 0.0311933, 0, 0, 1, 0, -4.35843e-05, 5387
-5306.03, 93864.4, -111.882, 5.3668, -849.25, 0.849838, 0.29885, 0.9175, 0.352806, 0.64323, 3, 455, 246, 11.9616, 0.0311933, 0, 0, 1, 0, -1.80578e-05, 5387
-10009.6, 511571, -346.848, 0.493784, -850.469, -0.00111019, 0.570722, 1.03299, 0.34851, 0.655882, 0.0001, 45.5, 246, 37.9438, 0.17857, 0, 0, 0, 0, -8.87597e-06, 5390
-10009.6, 511571, -346.848, 0.493784, -850.469, -0.00111019, 0.570722, 1.03299, 0.34851, 0.655882, 3, 45.5, 246, 37.9438, 0.17857, 0, 0, 0, 0, -9.3463e-06, 5390
-11106.9, 408285, -43.5782, 0.570093, -873.269, 0.00236979, 0.3409, 1.03299, 0.34851, 0.655882, 0.0001, 45.5, 246, 19.0608, 0.0298386, 0, 0, 1, 0, 4.31385e-06, 5391
-11106.9, 408285, -43.5782, 0.570093, -873.269, 0.00236979, 0.3409, 1.03299, 0.34851, 0.655882, 3, 45.5, 246, 19.0608, 0.0298386, 0, 0, 1, 0, -6.62693e-05, 5391
-10311.6, 421688, -49.7327, 0.591363, -874.411, 0.00385209, 0.306139, 0.993198, 0.349787, 0.651995, 0.0001, 91, 246, 19.0608, 0.0298386, 0, 0, 1, 0, 4.82113e-05, 5391
-11209.5, 603228, -51.9301, 0.389652, -953.729, 0.302117, 0.342582, 1.03299, 0.34851, 0.655882, 0.0001, 45.5, 246, 22.1452, 0.022289, 0, 0, 1, 0, -2.7904e-05, 5393
-11209.5, 603228, -51.9301, 0.389652, -953.729, 0.302117, 0.342582, 1.03299, 0.34851, 0.655882, 3, 45.5, 246, 22.1452, 0.022289, 0, 0, 1, 0, 1.0733, 5393
-10386.8, 630050, -57.1751, 0.409485, -1002.19, 0.318, 0.307135, 0.993198, 0.349787, 0.651995, 3, 91, 246, 22.1452, 0.022289, 0, 0, 1, 0, 3.59235e-05, 5393
-9445.02, 282043, -138.316, 0.954061, -790.314, 0.60711, 0.351967, 0.993198, 0.349787, 0.651995, 0.0001, 91, 246, 25.1965, 0.109868, 0, 0, 1, 0, 7.27564e-05, 5399
-12822.7, 751359, -255.773, 2.23299, -1181.5, 0.169549, 0.304685, 0.958125, 0.351078, 0.648177, 0.0001, 182, 246, 32.6202, 0.0722187, 0, 0, 0, 0, -3.47939e-05, 5402
-12822.7, 751359, -255.773, 2.23299, -1181.5, 0.169549, 0.304685, 0.958125, 0.351078, 0.648177, 3, 182, 246, 32.6202, 0.0722187, 0, 0, 0, 0, 4.97311e-05, 5402
-8206.83, 612537, -418.511, 0.279189, -990.789, 0.106179, 0.617246, 1.03299, 0.34851, 0.655882, 3, 45.5, 246, 41.3021, 0.177481, 0, 0, 0, 0, -1.5429e-05, 5409
-11866.6, 714016, -59.2143, 0.383032, -905.667, 0.395412, 0.342712, 1.03299, 0.34851, 0.655882, 0.0001, 45.5, 246, 22.1471, 0.0209213, 0, 0, 1, 0, 2.13228e-06, 5413
-11866.6, 714016, -59.2143, 0.383032, -905.667, 0.395412, 0.342712, 1.03299, 0.34851, 0.655882, 3, 45.5, 246, 22.1471, 0.0209213, 0, 0, 1, 0, -3.54372e-05, 5413
-6401.15, 128789, -190.768, 3.61806, -1006.28, 0.724894, 0.247523, 0.993198, 0.349787, 0.651995, 3, 91, 246, 38.3448, 0.142066, 0, 0, 1, 0, -3.28462e-05, 5418
-12031.3, 212845, -61.6738, 1.76104, -921.27, -0.00758061, 0.312983, 1.03299, 0.34851, 0.655882, 0.0001, 45.5, 246, 22.3985, 0.0717062, 0, 0, 1, 0, -7.52409e-06, 5419
-2260.34, 266998, -377.28, 3.97574, -1143.13, 0.171052, 0.394807, 0.958125, 0.351078, 0.648177, 0.0001, 182, 246, 46.4185, 0.195667, 2.01449, 1, 0, 0, 1.19408e-05, 5422
-2260.34, 266998, -377.28, 3.97574, -1143.13, 0.171052, 0.394807, 0.958125, 0.351078, 0.648177, 3, 182, 246, 46.4185, 0.195667, 1.84334, 1, 0, 0, -3.46284e-08, 5422
-9546.75, 228709, -116.758, 1.28912, -827.797, 0.741619, 0.332082, 0.993198, 0.349787, 0.651995, 0.0001, 91, 246, 24.5453, 0.105007, 0, 0, 1, 0, -5.22133e-05, 5424
-7008.74, 284973, -215.2, 0.0532127, -1055.61, 0.700426, 0.497521, 1.03299, 0.34851, 0.655882, 0.0001, 45.5, 246, 37.5071, 0.190508, 3.49544, 1, 0, 0, 1.9517e-05, 5428
-7008.74, 284973, -215.2, 0.0532127, -1055.61, 0.700426, 0.497521, 1.03299, 0.34851, 0.655882, 3, 45.5, 246, 37.5071, 0.190508, 3.49686, 1, 0, 0, -3.40208e-05, 5428
-11592.8, 333852, -319.245, 1.55872, -1010.58, -0.00987963, 0.586293, 1.03299, 0.34851, 0.655882, 0.0001, 45.5, 246, 46.6313, 0.233705, 0, 0, 0, 0, -2.79558e-06, 5429
-11592.8, 333852, -319.245, 1.55872, -1010.58, -0.00987963, 0.586293, 1.03299, 0.34851, 0.655882, 3, 45.5, 246, 46.6313, 0.233705, 0, 0, 0, 0, -1.86809e-05, 5429
-9737.44, 482861, -323.101, 0.443878, -801.881, 0.109332, 0.548692, 1.03299, 0.34851, 0.655882, 0.0001, 45.5, 246, 36.154, 0.173288, 0, 0, 0, 0, -4.28307e-06, 5432
-9737.44, 482861, -323.101, 0.443878, -801.881, 0.109332, 0.548692, 1.03299, 0.34851, 0.655882, 3, 45.5, 246, 36.154, 0.173288, 0, 0, 0, 0, -9.08429e-06, 5432
-6171.47, 516315, -356.255, 0.485582, -839.291, 0.115209, 0.51742, 0.958125, 0.351078, 0.648177, 3, 182, 246, 36.154, 0.173288, 0, 0, 0, 0, 1.83636e-05, 5432
-6053.49, -7525.27, -46.8674, 3.47863, -801.627, 0.265457, 0.187741, 1.03299, 0.34851, 0.655882, 3, 45.5, 246, 28.4641, 0.018802, 0, 0, 1, 0, 9.93452e-06, 5436
-8836.2, 96566.4, -58.8119, 0.72198, -1154.81, 0.0899347, 0.370827, 1.03299, 0.34851, 0.655882, 0.0001, 45.5, 246, 25.8019, 0.141183, 0, 0, 1, 0, 2.69242e-05, 5439
-8836.2, 96566.4, -58.8119, 0.72198, -1154.81, 0.0899347, 0.370827, 1.03299, 0.34851, 0.655882, 3, 45.5, 246, 25.8019, 0.141183, 0, 0, 1, 0, -1.65151e-05, 5439
-9921.66, 539055, -295.154, 0.405387, -752.66, 0.00432153, 0.49756, 1.03299, 0.34851, 0.655882, 0.0001, 45.5, 246, 32.1664, 0.143228, 0, 0, 0, 0, -1.1317e-05, 5442
-9921.66, 539055, -295.154, 0.405387, -752.66, 0.00432153, 0.49756, 1.03299, 0.34851, 0.655882, 3, 45.5, 246, 32.1664, 0.143228, 0, 0, 0, 0, 3.58223e-05, 5442
-6698.65, 562689, -323.46, 0.436535, -760.74, 0.00588689, 0.456238, 0.958125, 0.351078, 0.648177, 3, 182, 246, 32.1664, 0.143228, 0, 0, 0, 0, 9.37314e-06, 5442
-9433.59, 87949.7, -32.8345, 1.61993, -1161.03, 0.00352747, 0.322376, 1.03299, 0.34851, 0.655882, 0.0001, 45.5, 246, 21.3964, 0.0831278, 0, 0, 1, 0, -8.61477e-06, 5445
-9433.59, 87949.7, -32.8345, 1.61993, -1161.03, 0.00352747, 0.322376, 1.03299, 0.34851, 0.655882, 3, 45.5, 246, 21.3964, 0.0831278, 0, 0, 1, 0, 2.55605e-06, 5445
-8926.24, 111494, -52.1704, 1.71265, -1164.64, 0.0157288, 0.297362, 0.993198, 0.349787, 0.651995, 0.0001, 91, 246, 21.3964, 0.0831278, 0, 0, 1, 0, -1.17677e-05, 5445
-8926.24, 111494, -52.1704, 1.71265, -1164.64, 0.0157288, 0.297362, 0.993198, 0.349787, 0.651995, 3, 91, 246, 21.3964, 0.0831278, 0, 0, 1, 0, -1.50696e-05, 5445
-9251.5, 341700, -318.163, 0.71021, -1014.3, 0.192706, 0.625269, 1.03299, 0.34851, 0.655882, 0.0001, 45.5, 246, 45.4771, 0.241771, 0, 0, 0, 0, 1.10316e-05, 5450
-7451.38, 365910, -340.24, 0.7521, -1052.78, 0.201178, 0.616709, 0.993198, 0.349787, 0.651995, 3, 91, 246, 45.4771, 0.241771, 0, 0, 1, 0, -5.97256e-07, 5450
-9024.22, 200950, -33.7068, 1.55243, -1132.55, 0.687171, 0.264011, 0.958125, 0.351078, 0.648177, 0.0001, 182, 246, 14.8563, 0.0270729, 0, 0, 1, 0, 5.96822e-06, 5458
-9024.22, 200950, -33.7068, 1.55243, -1132.55, 0.687171, 0.264011, 0.958125, 0.351078, 0.648177, 3, 182, 246, 14.8563, 0.0270729, 0, 0, 1, 0, 3.95626e-05, 5458
1020.56, 202632, -362.866, 3.88549, -778.651, 0.244089, 0.409202, 0.9175, 0.352806, 0.64323, 0.0001, 455, 246, 41.2873, 0.188948, 2.37872, 1, 0, 0, 6.24096e-06, 5462
1020.56, 202632, -362.866, 3.88549, -778.651, 0.244089, 0.409202, 0.9175, 0.352806, 0.64323, 3, 455, 246, 41.2873, 0.188948, 2.39038, 1, 0, 0, 1.35151e-05, 5462
-4293.11, 375990, -434.38, 3.81808, -1069.39, 0.0743483, 0.440856, 0.958125, 0.351078, 0.648177, 0.0001, 182, 246, 44.9038, 0.188036, 1.12658, 1, 0, 0, -8.4972e-06, 5463
-4293.11, 375990, -434.38, 3.81808, -1069.39, 0.0743483, 0.440856, 0.958125, 0.351078, 0.648177, 3, 182, 246, 44.9038, 0.188036, 1.19182, 1, 0, 0, 5.53434e-06, 5463
-10777.2, 479878, -69.2925, 0.525688, -1129.23, 0.0562564, 0.347138, 1.03299, 0.34851, 0.655882, 0.0001, 45.5, 246, 25.3118, 0.0383833, 0, 0, 1, 0, -4.15968e-05, 5471
-10777.2, 479878, -69.2925, 0.525688, -1129.23, 0.0562564, 0.347138, 1.03299, 0.34851, 0.655882, 3, 45.5, 246, 25.3118, 0.0383833, 0, 0, 1, 0, -5.20113e-06, 5471
-9845.51, 503967, -77.2582, 0.546519, -1140.51, 0.0580342, 0.312602, 0.993198, 0.349787, 0.651995, 0.0001, 91, 246, 25.3118, 0.0383833, 0, 0, 1, 0, -2.78261e-06, 5471
-8746.62, 528672, -85.5868, 0.566897, -1152.39, 0.0599446, 0.282545, 0.958125, 0.351078, 0.648177, 0.0001, 182, 246, 25.3118, 0.0383833, 0, 0, 1, 0, 8.89976e-06, 5471
-11813.8, 732536, -63.4619, 0.371602, -798.782, 0.0384426, 0.343781, 1.03299, 0.34851, 0.655882, 0.0001, 45.5, 246, 20.0887, 0.0230773, 0, 0, 1, 0, -6.57251e-06, 5472
-11813.8, 732536, -63.4619, 0.371602, -798.782, 0.0384426, 0.343781, 1.03299, 0.34851, 0.655882, 3, 45.5, 246, 20.0887, 0.0230773, 0, 0, 1, 0, -4.70951e-06, 5472
-10040.8, 95791.2, -58.8714, 2.9752, -706.43, -0.0406169, 0.224669, 1.03299, 0.34851, 0.655882, 0.0001, 45.5, 246, 22.1949, 0.0769453, 0, 0, 1, 0, -1.2332e-05, 5482
-10040.8, 95791.2, -58.8714, 2.9752, -706.43, -0.0406169, 0.224669, 1.03299, 0.34851, 0.655882, 3, 45.5, 246, 22.1949, 0.0769453, 0, 0, 1, 0, 1.13308e-05, 5482
-5455.53, 829937, -412.222, 0.0455851, -1018.51, 0.243261, 0.527571, 1.03299, 0.34851, 0.655882, 0.0001, 45.5, 246, 37.4449, 0.122923, 0, 0, 0, 0, -4.41443e-05, 5490
-5455.53, 829937, -412.222, 0.0455851, -1018.51, 0.243261, 0.527571, 1.03299, 0.34851, 0.655882, 3, 45.5, 246, 37.4449, 0.122923, 0, 0, 0, 0, 1.60913e-05, 5490
1115.87, 320711, -348.151, 5.01707, -1078.41, 1.41329, 0.353959, 0.9175, 0.352806, 0.64323, 3, 455, 246, 28.8801, 0.115914, 1.20596, 1, 0, 0, -3.02763e-05, 5499
