-5435.7, 86754.5, -172.344, 3.57636, -1308.7, 0.292485, 0.305612, 0.9175, 0.352806, 0.64323, 3, 455, 246, 29.9678, 0.0644477, 0, 0, 1, 0, 8.26477e-06, 65502
-14910.1, -231711, -25.9677, 0.101002, -1124.89, 8.10278e-05, 0.352111, 1.03299, 0.34851, 0.655882, 0.0001, 45.5, 246, -165.988, 0.0579094, 0, 0, 1, 0, -0.000570498, 65503
-14910.1, -231711, -25.9677, 0.101002, -1124.89, 8.10278e-05, 0.352111, 1.03299, 0.34851, 0.655882, 3, 45.5, 246, -165.988, 0.0579094, 0, 0, 1, 0, -6.18229e-05, 65503
-11694.7, 232100, -141.335, 1.54486, -610.681, 0.367152, 0.368408, 1.03299, 0.34851, 0.655882, 0.0001, 45.5, 246, 26.7289, 0.12725, 0, 0, 1, 0, 2.35201e-05, 65516
-11694.7, 232100, -141.335, 1.54486, -610.681, 0.367152, 0.368408, 1.03299, 0.34851, 0.655882, 3, 45.5, 246, 26.7289, 0.12725, 0, 0, 1, 0, -4.90101e-05, 65516
-5689.27, 328107, -392.109, 4.25435, -867.954, 0.25597, 0.359155, 0.958125, 0.351078, 0.648177, 0.0001, 182, 246, 39.516, 0.166546, 1.09636, 1, 0, 0, -1.88278e-05, 65521
-9496.55, 482745, -214.495, 0.541958, -1004.15, 0.0421368, 0.430361, 1.03299, 0.34851, 0.655882, 0.0001, 45.5, 246, 32.4702, 0.114127, 0, 0, 0, 0, 1.89757e-05, 65523
-9496.55, 482745, -214.495, 0.541958, -1004.15, 0.0421368, 0.430361, 1.03299, 0.34851, 0.655882, 3, 45.5, 246, 32.4702, 0.114127, 0, 0, 0, 0, -1.42248e-05, 65523
-11118.8, 324615, -279.705, 1.52336, -1121.29, 0.222011, 0.524611, 1.03299, 0.34851, 0.655882, 0.0001, 45.5, 246, 44.1767, 0.204285, 0, 0, 0, 0, 1.1225e-05, 65527
-11118.8, 324615, -279.705, 1.52336, -1121.29, 0.222011, 0.524611, 1.03299, 0.34851, 0.655882, 3, 45.5, 246, 44.1767, 0.204285, 0, 0, 0, 0, -3.28886e-05, 65527
-10212.7, 294872, -307.931, 1.05909, -890.631, 0.582911, 0.605401, 1.03299, 0.34851, 0.655882, 0.0001, 45.5, 246, 44.9899, 0.245732, 0, 0, 0, 0, -1.19559e-05, 65544
-10212.7, 294872, -307.931, 1.05909, -890.631, 0.582911, 0.605401, 1.03299, 0.34851, 0.655882, 3, 45.5, 246, 44.9899, 0.245732, 0, 0, 0, 0, 6.949e-06, 65544
-1994.67, 122820, -254.613, 4.09826, -892.779, 0.584131, 0.324952, 0.9175, 0.352806, 0.64323, 0.0001, 455, 246, 36.1679, 0.134057, 1.10578, 1, 1, 0, -7.15873e-06, 65546
-1994.67, 122820, -254.613, 4.09826, -892.779, 0.584131, 0.324952, 0.9175, 0.352806, 0.64323, 3, 455, 246, 36.1679, 0.134057, 1.09863, 1, 1, 0, -1.56859e-05, 65546
-7270.36, 97716.3, -156.153, 2.95911, -887.156, 0.744383, 0.273477, 1.03299, 0.34851, 0.655882, 3, 45.5, 246, 41.486, 0.160811, 0, 0, 1, 0, -4.44521e-05, 65558
-5674.39, 118471, -196.571, 3.3468, -1024.55, 0.893025, 0.277411, 0.993198, 0.349787, 0.651995, 3, 91, 246, 41.486, 0.160811, 0, 0, 1, 0, -5.72429e-05, 65558
-3258.95, 147946, -251.024, 3.84469, -1221.27, 1.10577, 0.301863, 0.958125, 0.351078, 0.648177, 0.0001, 182, 246, 41.486, 0.160811, 1.06128, 1, 1, 0, -0.000102384, 65558
-9960.31, 77202.6, -24.9647, 3.17604, -726.618, -0.0454912, 0.196603, 1.03299, 0.34851, 0.655882, 0.0001, 45.5, 246, 16.8227, 0.0510205, 0, 0, 1, 0, -3.55405e-06, 65562
-9960.31, 77202.6, -24.9647, 3.17604, -726.618, -0.0454912, 0.196603, 1.03299, 0.34851, 0.655882, 3, 45.5, 246, 16.8227, 0.0510205, 0, 0, 1, 0, -1.79214e-05, 65562
-8493.65, 301900, -282.348, 0.768794, -776.077, 0.177272, 0.551781, 0.993198, 0.349787, 0.651995, 0.0001, 91, 246, 40.3453, 0.235095, 0, 0, 1, 0, 5.72791e-06, 65564
-10961, 349911, -303.549, 0.821586, -698.143, 0.0368952, 0.583414, 1.03299, 0.34851, 0.655882, 0.0001, 45.5, 246, 39.4111, 0.222302, 0, 0, 0, 0, -8.02918e-06, 65571
-10961, 349911, -303.549, 0.821586, -698.143, 0.0368952, 0.583414, 1.03299, 0.34851, 0.655882, 3, 45.5, 246, 39.4111, 0.222302, 0, 0, 0, 0, 3.87378e-06, 65571
-9628.17, 586909, -262.687, 0.256378, -610.882, -0.000130046, 0.454801, 1.03299, 0.34851, 0.655882, 0.0001, 45.5, 246, 26.5922, 0.116786, 0, 0, 0, 0, -7.96846e-05, 65575
-9628.17, 586909, -262.687, 0.256378, -610.882, -0.000130046, 0.454801, 1.03299, 0.34851, 0.655882, 3, 45.5, 246, 26.5922, 0.116786, 0, 0, 0, 0, -0.000175557, 65575
-8589.45, 594701, -273.184, 0.265233, -612.725, 0.00016862, 0.427779, 0.993198, 0.349787, 0.651995, 3, 91, 246, 26.5922, 0.116786, 0, 0, 1, 0, 0.000144387, 65575
-10340.3, 198349, -187.861, 2.30165, -1067.47, 0.0718051, 0.389517, 1.03299, 0.34851, 0.655882, 0.0001, 45.5, 246, 40.8791, 0.185512, 0, 0, 0, 0, -6.91873e-06, 65582
-10340.3, 198349, -187.861, 2.30165, -1067.47, 0.0718051, 0.389517, 1.03299, 0.34851, 0.655882, 3, 45.5, 246, 40.8791, 0.185512, 0, 0, 0, 0, 8.23607e-06, 65582
-10488.8, 245942, -24.2023, 1.23816, -1165.03, 0.500077, 0.291309, 0.993198, 0.349787, 0.651995, 0.0001, 91, 246, 18.2508, 0.0261709, 0, 0, 1, 0, 9.59504e-06, 65587
-8356.26, 156221, -215.984, 3.64053, -1142.64, -0.0640433, 0.271674, 1.03299, 0.34851, 0.655882, 3, 45.5, 246, 47.759, 0.190065, 0, 0, 0, 0, 1.23163e-05, 65588
-5189.13, 179778, -277.07, 3.9846, -1161.33, -0.000143211, 0.296332, 0.993198, 0.349787, 0.651995, 0.0001, 91, 246, 47.759, 0.190065, 1.08327, 1, 1, 0, 1.75169e-05, 65588
-858.693, 206108, -351.069, 4.40245, -1202.86, 0.0771396, 0.343201, 0.958125, 0.351078, 0.648177, 0.0001, 182, 246, 47.759, 0.190065, 2.70323, 1, 0, 0, -2.16022e-06, 65588
-858.693, 206108, -351.069, 4.40245, -1202.86, 0.0771396, 0.343201, 0.958125, 0.351078, 0.648177, 3, 182, 246, 47.759, 0.190065, 2.51317, 1, 0, 0, -1.98051e-05, 65588
-8557.61, 302864, -383.344, 3.91492, -1187.57, 0.899446, 0.372517, 0.993198, 0.349787, 0.651995, 0.0001, 91, 246, 47.4933, 0.192982, 1.03778, 1, 1, 0, 7.56312e-06, 65589
-9679, 362335, -198.695, 0.79735, -1092.53, 0.00557634, 0.439385, 1.03299, 0.34851, 0.655882, 0.0001, 45.5, 246, 35.0061, 0.139702, 0, 0, 0, 0, -1.1731e-05, 65591
-9679, 362335, -198.695, 0.79735, -1092.53, 0.00557634, 0.439385, 1.03299, 0.34851, 0.655882, 3, 45.5, 246, 35.0061, 0.139702, 0, 0, 0, 0, -6.61828e-05, 65591
-9344.81, 199089, -187.706, 1.55509, -1148.35, -0.0112785, 0.458799, 1.03299, 0.34851, 0.655882, 0.0001, 45.5, 246, 42.15, 0.214632, 0, 0, 0, 0, 5.95143e-06, 65600
-9344.81, 199089, -187.706, 1.55509, -1148.35, -0.0112785, 0.458799, 1.03299, 0.34851, 0.655882, 3, 45.5, 246, 42.15, 0.214632, 0, 0, 0, 0, -3.27381e-07, 65600
-11051.2, 187805, -117.648, 2.10784, -1006.2, -0.0188852, 0.33385, 1.03299, 0.34851, 0.655882, 0.0001, 45.5, 246, 31.3942, 0.128707, 0, 0, 1, 0, -8.45609e-06, 65606
-11051.2, 187805, -117.648, 2.10784, -1006.2, -0.0188852, 0.33385, 1.03299, 0.34851, 0.655882, 3, 45.5, 246, 31.3942, 0.128707, 0, 0, 1, 0, 3.71861e-06, 65606
-7466.14, 997473, -139.809, 0.173802, -1191.94, 0.00271848, 0.323026, 0.993198, 0.349787, 0.651995, 0.0001, 91, 246, 31.4542, 0.0349244, 0, 0, 1, 0, -0.000128725, 65607
-10666.5, 427551, -151.85, 0.731241, -1006.76, 0.0362007, 0.386693, 1.03299, 0.34851, 0.655882, 0.0001, 45.5, 246, 29.0593, 0.091056, 0, 0, 0, 0, -1.24822e-05, 65615
-10666.5, 427551, -151.85, 0.731241, -1006.76, 0.0362007, 0.386693, 1.03299, 0.34851, 0.655882, 3, 45.5, 246, 29.0593, 0.091056, 0, 0, 0, 0, 3.39077e-05, 65615
588.938, 162071, -319.408, 4.66554, -1251.67, 0.834349, 0.353298, 0.9175, 0.352806, 0.64323, 0.0001, 455, 246, 39.6226, 0.145011, 3.06251, 1, 0, 0, 1.99221e-05, 65622
588.938, 162071, -319.408, 4.66554, -1251.67, 0.834349, 0.353298, 0.9175, 0.352806, 0.64323, 3, 455, 246, 39.6226, 0.145011, 3.07766, 1, 0, 0, 1.53717e-06, 65622
-5850.15, 31396.6, -93.1027, 3.41854, -997.344, -0.0554632, 0.208742, 1.03299, 0.34851, 0.655882, 0.0001, 45.5, 246, 38.7107, 0.100089, 0, 0, 1, 0, 2.20923e-05, 65628
-5850.15, 31396.6, -93.1027, 3.41854, -997.344, -0.0554632, 0.208742, 1.03299, 0.34851, 0.655882, 3, 45.5, 246, 38.7107, 0.100089, 0, 0, 1, 0, -4.27384e-06, 65628
-1599.62, 94223.3, -265.353, 4.6849, -1085.75, 0.181499, 0.329049, 0.9175, 0.352806, 0.64323, 0.0001, 455, 246, 38.7107, 0.100089, 1.43069, 1, 1, 0, -1.5247e-06, 65628
-1599.62, 94223.3, -265.353, 4.6849, -1085.75, 0.181499, 0.329049, 0.9175, 0.352806, 0.64323, 3, 455, 246, 38.7107, 0.100089, 1.38485, 1, 1, 0, 1.22948e-05, 65628
-9871.64, 73954.5, 3.60931, 1.96358, -806.572, 0.837792, 0.285211, 1.03299, 0.34851, 0.655882, 3, 45.5, 246, 11.6269, 0.0298871, 0, 0, 1, 0, -4.79547e-05, 65630
-9365.54, 90716.1, -12.414, 2.19024, -931.348, 0.987453, 0.264559, 0.993198, 0.349787, 0.651995, 0.0001, 91, 246, 11.6269, 0.0298871, 0, 0, 1, 0, 2.61939e-05, 65630
-9365.54, 90716.1, -12.414, 2.19024, -931.348, 0.987453, 0.264559, 0.993198, 0.349787, 0.651995, 3, 91, 246, 11.6269, 0.0298871, 0, 0, 1, 0, -3.30265e-05, 65630
-3313.41, 391122, -440.619, 3.98284, -1258.58, 0.15245, 0.430811, 0.958125, 0.351078, 0.648177, 3, 182, 246, 46.4074, 0.18383, 0, 0, 0, 0, 7.70177e-06, 65635
-12091.4, 403525, -111.023, 0.904438, -863.32, 0.0699777, 0.3588, 1.03299, 0.34851, 0.655882, 0.0001, 45.5, 246, 24.1456, 0.0708701, 0, 0, 1, 0, 2.04322e-05, 65640
-10593.2, 206561, -155.852, 1.77476, -923.316, -0.00459574, 0.388694, 1.03299, 0.34851, 0.655882, 0.0001, 45.5, 246, 34.7195, 0.162352, 0, 0, 1, 0, -4.77812e-06, 65641
-10593.2, 206561, -155.852, 1.77476, -923.316, -0.00459574, 0.388694, 1.03299, 0.34851, 0.655882, 3, 45.5, 246, 34.7195, 0.162352, 0, 0, 1, 0, 1.07244e-07, 65641
-8208.58, 312853, -218.831, 0.745603, -956.903, 0.362289, 0.44349, 0.993198, 0.349787, 0.651995, 0.0001, 91, 246, 35.0348, 0.172529, 0, 0, 1, 0, -3.17912e-05, 65645
-2707.35, 104139, -230.624, 3.56233, -1141.51, 0.0642907, 0.307262, 0.958125, 0.351078, 0.648177, 0.0001, 182, 246, 48.234, 0.182304, 1.31132, 1, 1, 0, -5.29003e-06, 65646
-2707.35, 104139, -230.624, 3.56233, -1141.51, 0.0642907, 0.307262, 0.958125, 0.351078, 0.648177, 3, 182, 246, 48.234, 0.182304, 1.13379, 1, 1, 0, -1.20466e-05, 65646
779.733, 138393, -314.105, 4.03841, -1203.11, 0.150197, 0.359647, 0.9175, 0.352806, 0.64323, 0.0001, 455, 246, 48.234, 0.182304, 0, 0, 0, 0, 1.30675e-05, 65646
779.733, 138393, -314.105, 4.03841, -1203.11, 0.150197, 0.359647, 0.9175, 0.352806, 0.64323, 3, 455, 246, 48.234, 0.182304, 0, 0, 0, 0, 1.38088e-05, 65646
-3629.74, 71213.9, -184.634, 3.42289, -1074.83, 0.0849843, 0.268823, 0.993198, 0.349787, 0.651995, 0.0001, 91, 246, 50.5297, 0.165569, 1.11179, 1, 1, 0, 1.95729e-05, 65659
-2014.26, 93287.7, -237.149, 3.75321, -1114.27, 0.14345, 0.292667, 0.958125, 0.351078, 0.648177, 0.0001, 182, 246, 50.5297, 0.165569, 1.52507, 1, 1, 0, -2.40824e-05, 65659
-2014.26, 93287.7, -237.149, 3.75321, -1114.27, 0.14345, 0.292667, 0.958125, 0.351078, 0.648177, 3, 182, 246, 50.5297, 0.165569, 1.36794, 1, 1, 0, -9.03364e-06, 65659
-11476.9, 135276, -13.8612, 2.10122, -817.912, 0.765256, 0.273665, 1.03299, 0.34851, 0.655882, 0.0001, 45.5, 246, 15.5894, 0.0376873, 0, 0, 1, 0, 3.23262e-05, 65661
-10335.4, 154560, -32.3077, 2.33893, -933.504, 0.895129, 0.255034, 0.993198, 0.349787, 0.651995, 0.0001, 91, 246, 15.5894, 0.0376873, 0, 0, 1, 0, -1.23822e-05, 65661
-5400.86, 234368, -106.426, 3.15181, -1426.1, 1.44756, 0.258593, 0.9175, 0.352806, 0.64323, 3, 455, 246, 15.5894, 0.0376873, 0, 0, 0, 0, 2.78492e-05, 65661
-8617.42, 188582, -343.594, 3.40496, -561.73, 0.0794339, 0.395063, 1.03299, 0.34851, 0.655882, 0.0001, 45.5, 246, 53.255, 0.243582, 3.80705, 1, 0, 0, -4.19719e-05, 65663
-8617.42, 188582, -343.594, 3.40496, -561.73, 0.0794339, 0.395063, 1.03299, 0.34851, 0.655882, 3, 45.5, 246, 53.255, 0.243582, 3.88818, 1, 0, 0, 2.91389e-05, 65663
-4585.76, 197617, -395.538, 3.75123, -606.39, 0.137378, 0.421037, 0.993198, 0.349787, 0.651995, 0.0001, 91, 246, 53.255, 0.243582, 1.90033, 1, 1, 1, 245.86, 65663
-4585.76, 197617, -395.538, 3.75123, -606.39, 0.137378, 0.421037, 0.993198, 0.349787, 0.651995, 3, 91, 246, 53.255, 0.243582, 1.81634, 1, 1, 0, 5.55562e-08, 65663
-8869.56, 45010.9, -15.2427, 0.695053, -1016.07, -6.19355e-06, 0.307344, 0.993198, 0.349787, 0.651995, 0.0001, 91, 246, 11.7822, 0.0733233, 0, 0, 1, 1, 4.45969e-06, 65665
-8869.56, 45010.9, -15.2427, 0.695053, -1016.07, -6.19355e-06, 0.307344, 0.993198, 0.349787, 0.651995, 3, 91, 246, 11.7822, 0.0733233, 0, 0, 1, 1, -6.23334e-05, 65665
-6355.77, 557886, -380.907, 0.0712925, -976.374, 0.620021, 0.571139, 1.03299, 0.34851, 0.655882, 0.0001, 45.5, 246, 38.8758, 0.162884, 0, 0, 0, 0, -5.82306e-05, 65673
-6355.77, 557886, -380.907, 0.0712925, -976.374, 0.620021, 0.571139, 1.03299, 0.34851, 0.655882, 3, 45.5, 246, 38.8758, 0.162884, 0, 0, 0, 0, -4.87357e-05, 65673
-5034.24, 598962, -394.706, 0.0763274, -1083.22, 0.687392, 0.554578, 0.993198, 0.349787, 0.651995, 3, 91, 246, 38.8758, 0.162884, 0, 0, 1, 0, -8.60744e-05, 65673
-6486.58, 812633, -374.33, 0.14246, -788.752, 0.922033, 0.436528, 0.958125, 0.351078, 0.648177, 3, 182, 246, 26.8985, 0.109414, 0, 0, 1, 0, 3.46636e-05, 65675
-8844.06, 72727.1, -28.0047, 0.652118, -1133.88, 0.0293747, 0.312857, 0.993198, 0.349787, 0.651995, 0.0001, 91, 246, 16.4499, 0.0909645, 0, 0, 1, 0, 2.30722e-06, 65676
-8844.06, 72727.1, -28.0047, 0.652118, -1133.88, 0.0293747, 0.312857, 0.993198, 0.349787, 0.651995, 3, 91, 246, 16.4499, 0.0909645, 0, 0, 1, 0, -2.35197e-05, 65676
-5749.82, 86237.7, -152.659, 3.90454, -1119.21, -0.000108262, 0.217065, 0.993198, 0.349787, 0.651995, 0.0001, 91, 246, 37.4462, 0.124863, 0, 0, 1, 0, 2.06844e-06, 65679
288.798, 143850, -308.508, 4.96985, -1219.74, 0.201684, 0.345499, 0.9175, 0.352806, 0.64323, 0.0001, 455, 246, 37.4462, 0.124863, 2.2778, 1, 0, 0, -6.30252e-06, 65679
288.798, 143850, -308.508, 4.96985, -1219.74, 0.201684, 0.345499, 0.9175, 0.352806, 0.64323, 3, 455, 246, 37.4462, 0.124863, 2.28273, 1, 0, 0, 4.41067e-06, 65679
-10405.7, 68159.2, 25.6051, 3.62983, -1094.26, 0.0407362, 0.138768, 1.03299, 0.34851, 0.655882, 0.0001, 45.5, 246, 14.1491, 0.0352259, 0, 0, 0, 0, 7.94482e-06, 65686
-9305.76, 89006.4, -10.3414, 3.97994, -1105.94, 0.105022, 0.155218, 0.993198, 0.349787, 0.651995, 0.0001, 91, 246, 14.1491, 0.0352259, 0, 0, 1, 0, 6.02633e-06, 65686
-9305.76, 89006.4, -10.3414, 3.97994, -1105.94, 0.105022, 0.155218, 0.993198, 0.349787, 0.651995, 3, 91, 246, 14.1491, 0.0352259, 0, 0, 1, 0, -1.92873e-05, 65686
-8502.36, 91834.6, -40.6974, 0.077052, -1101.5, 0.0840905, 0.359874, 1.03299, 0.34851, 0.655882, 0.0001, 45.5, 246, 20.0648, 0.114847, 0, 0, 1, 0, -9.43323e-05, 65688
-8502.36, 91834.6, -40.6974, 0.077052, -1101.5, 0.0840905, 0.359874, 1.03299, 0.34851, 0.655882, 3, 45.5, 246, 20.0648, 0.114847, 0, 0, 1, 0, -8.21648e-05, 65688
-8742.52, 102208, -97.7671, 1.28625, -913, -0.00274278, 0.388913, 1.03299, 0.34851, 0.655882, 0.0001, 45.5, 246, 34.1691, 0.199761, 0, 0, 1, 0, 3.14093e-05, 65706
-8742.52, 102208, -97.7671, 1.28625, -913, -0.00274278, 0.388913, 1.03299, 0.34851, 0.655882, 3, 45.5, 246, 34.1691, 0.199761, 0, 0, 1, 0, -1.98719e-05, 65706
115.72, 270326, -405.607, 2.71219, -718.696, 0.155542, 0.529275, 0.9175, 0.352806, 0.64323, 3, 455, 246, 43.7596, 0.236058, 1.12798, 1, 0, 0, 9.94259e-06, 65708
-11433.1, 254517, -202.19, 1.77391, -884.897, 0.0258829, 0.426317, 1.03299, 0.34851, 0.655882, 0.0001, 45.5, 246, 37.1867, 0.177197, 0, 0, 0, 0, 2.26836e-06, 65709
-11433.1, 254517, -202.19, 1.77391, -884.897, 0.0258829, 0.426317, 1.03299, 0.34851, 0.655882, 3, 45.5, 246, 37.1867, 0.177197, 0, 0, 0, 0, 4.28802e-06, 65709
-10084.6, 606699, -171.577, 0.364029, -761.451, 0.160306, 0.385071, 1.03299, 0.34851, 0.655882, 3, 45.5, 246, 24.357, 0.0713802, 0, 0, 1, 0, 5.85604e-05, 65711
-9073.05, 622915, -180.074, 0.379859, -783.023, 0.165095, 0.3527, 0.993198, 0.349787, 0.651995, 3, 91, 246, 24.357, 0.0713802, 0, 0, 1, 0, 1.73651e-05, 65711
-10515, 139947, -99.0564, 2.69358, -997.637, 0.117531, 0.275533, 1.03299, 0.34851, 0.655882, 0.0001, 45.5, 246, 30.603, 0.117028, 0, 0, 1, 0, -6.61238e-06, 65715
-10515, 139947, -99.0564, 2.69358, -997.637, 0.117531, 0.275533, 1.03299, 0.34851, 0.655882, 3, 45.5, 246, 30.603, 0.117028, 0, 0, 1, 0, 7.82527e-07, 65715
-9631.11, 218137, -128.139, 1.10199, -1115.31, 0.0799466, 0.3948, 1.03299, 0.34851, 0.655882, 0.0001, 45.5, 246, 32.2718, 0.140023, 0, 0, 1, 0, 3.59862e-06, 65719
-9631.11, 218137, -128.139, 1.10199, -1115.31, 0.0799466, 0.3948, 1.03299, 0.34851, 0.655882, 3, 45.5, 246, 32.2718, 0.140023, 0, 0, 1, 0, 1.15347e-05, 65719
-7788.06, 60091.5, -81.8556, 1.78891, -1024.22, 0.00363923, 0.320938, 0.993198, 0.349787, 0.651995, 0.0001, 91, 246, 33.9977, 0.186787, 0, 0, 1, 1, -1.06194e-05, 65721
-7788.06, 60091.5, -81.8556, 1.78891, -1024.22, 0.00363923, 0.320938, 0.993198, 0.349787, 0.651995, 3, 91, 246, 33.9977, 0.186787, 0, 0, 1, 1, 1.24306e-05, 65721
-6705.2, -96742, 26.8925, 3.05076, -1014.59, 0.792548, 0.275682, 1.03299, 0.34851, 0.655882, 0.0001, 45.5, 246, 2.89295, 0.152403, 3.88586, 1, 1, 0, -7.99498e-06, 65726
-6705.2, -96742, 26.8925, 3.05076, -1014.59, 0.792548, 0.275682, 1.03299, 0.34851, 0.655882, 3, 45.5, 246, 2.89295, 0.152403, 3.88446, 1, 1, 0, -2.30629e-06, 65726
-11459.3, 341664, -73.8106, 0.931775, -1081.78, -0.00393587, 0.345475, 1.03299, 0.34851, 0.655882, 0.0001, 45.5, 246, 24.6459, 0.0579798, 0, 0, 1, 0, 2.95624e-05, 65727
-11459.3, 341664, -73.8106, 0.931775, -1081.78, -0.00393587, 0.345475, 1.03299, 0.34851, 0.655882, 3, 45.5, 246, 24.6459, 0.0579798, 0, 0, 1, 0, -2.9204e-05, 65727
-10219.1, 362134, -86.3098, 0.972758, -1083.45, 4.59805e-05, 0.313632, 0.993198, 0.349787, 0.651995, 3, 91, 246, 24.6459, 0.0579798, 0, 0, 1, 0, 4.27721e-06, 65727
-10338.4, 160650, -148.504, 2.41159, -758.549, 0.0208131, 0.330723, 1.03299, 0.34851, 0.655882, 0.0001, 45.5, 246, 34.2544, 0.155451, 0, 0, 1, 0, 1.28173e-05, 65729
-6518.26, 13363.3, -51.9824, 3.53796, -1007.9, -0.0582564, 0.187283, 1.03299, 0.34851, 0.655882, 0.0001, 45.5, 246, 29.4836, 0.0706038, 0, 0, 1, 0, -3.43387e-06, 65734
-6518.26, 13363.3, -51.9824, 3.53796, -1007.9, -0.0582564, 0.187283, 1.03299, 0.34851, 0.655882, 3, 45.5, 246, 29.4836, 0.0706038, 0, 0, 1, 0, -1.99548e-05, 65734
-11319.3, 132572, -12.2728, 2.0006, -586.165, 0.634425, 0.279433, 1.03299, 0.34851, 0.655882, 0.0001, 45.5, 246, 11.7114, 0.0296517, 0, 0, 1, 0, -4.57262e-06, 65735
-11319.3, 132572, -12.2728, 2.0006, -586.165, 0.634425, 0.279433, 1.03299, 0.34851, 0.655882, 3, 45.5, 246, 11.7114, 0.0296517, 0, 0, 1, 0, 1.62045e-05, 65735
-10312.6, 143838, -24.8151, 2.20536, -653.58, 0.72668, 0.25891, 0.993198, 0.349787, 0.651995, 0.0001, 91, 246, 11.7114, 0.0296517, 0, 0, 1, 0, -9.44652e-06, 65735
-8773.59, 68245.7, -58.6451, 3.56627, -928.024, -0.0612235, 0.170108, 1.03299, 0.34851, 0.655882, 0.0001, 45.5, 246, 26.1158, 0.08152, 0, 0, 0, 0, 1.33826e-05, 65739
-8773.59, 68245.7, -58.6451, 3.56627, -928.024, -0.0612235, 0.170108, 1.03299, 0.34851, 0.655882, 3, 45.5, 246, 26.1158, 0.08152, 0, 0, 0, 0, 8.95885e-06, 65739
-7671, 82823, -95.7204, 3.8869, -930.943, -0.000170839, 0.185613, 0.993198, 0.349787, 0.651995, 0.0001, 91, 246, 26.1158, 0.08152, 0, 0, 1, 0, 6.30425e-06, 65739
-7671, 82823, -95.7204, 3.8869, -930.943, -0.000170839, 0.185613, 0.993198, 0.349787, 0.651995, 3, 91, 246, 26.1158, 0.08152, 0, 0, 1, 0, -4.1504e-06, 65739
-7724.89, 11479, -48.3763, 2.65501, -908.748, 0.00852198, 0.269717, 0.993198, 0.349787, 0.651995, 3, 91, 246, 23.7193, 0.0500048, 0, 0, 1, 1, 1.09189e-05, 65742
-10807.6, 241380, -214.752, 1.44066, -741.89, 0.544073, 0.455479, 1.03299, 0.34851, 0.655882, 0.0001, 45.5, 246, 36.5308, 0.189, 0, 0, 1, 0, -9.0801e-06, 65743
-10807.6, 241380, -214.752, 1.44066, -741.89, 0.544073, 0.455479, 1.03299, 0.34851, 0.655882, 3, 45.5, 246, 36.5308, 0.189, 0, 0, 1, 0, -2.68078e-05, 65743
-11585.6, 249102, -117.328, 1.27717, -609.904, 0.428433, 0.360142, 1.03299, 0.34851, 0.655882, 3, 45.5, 246, 23.235, 0.103441, 0, 0, 1, 0, -1.82965e-05, 65744
-10258.2, 262200, -130.922, 1.37488, -659.086, 0.46782, 0.33324, 0.993198, 0.349787, 0.651995, 3, 91, 246, 23.235, 0.103441, 0, 0, 1, 0, 3.35527e-05, 65744
-8630.41, 277575, -146.392, 1.48241, -717.629, 0.514835, 0.312386, 0.958125, 0.351078, 0.648177, 0.0001, 182, 246, 23.235, 0.103441, 0, 0, 1, 0, -4.49289e-05, 65744
-8528.98, 573198, -281.814, 0.415406, -1056.96, 0.0204735, 0.474445, 1.03299, 0.34851, 0.655882, 0.0001, 45.5, 246, 36.0191, 0.127152, 0, 0, 0, 0, 2.56323e-05, 65746
-8528.98, 573198, -281.814, 0.415406, -1056.96, 0.0204735, 0.474445, 1.03299, 0.34851, 0.655882, 3, 45.5, 246, 36.0191, 0.127152, 0, 0, 0, 0, 3.42252e-05, 65746
-9188.64, 47698.9, 5.43163, 1.60976, -915.755, -0.0114065, 0.311041, 1.03299, 0.34851, 0.655882, 0.0001, 45.5, 246, 9.91051, 0.0334828, 1.03332, 1, 1, 0, 3.83248e-06, 65750
-3051.3, 74644.2, -214.203, 3.40933, -705.256, 0.000713574, 0.248661, 1.03299, 0.34851, 0.655882, 0.0001, 45.5, 246, 56.0844, 0.184695, 1.5702, 1, 1, 0, 1.05131e-05, 65754
-3051.3, 74644.2, -214.203, 3.40933, -705.256, 0.000713574, 0.248661, 1.03299, 0.34851, 0.655882, 3, 45.5, 246, 56.0844, 0.184695, 1.44685, 1, 1, 0, 2.56662e-06, 65754
-1375.7, 84618.7, -257.096, 3.72475, -730.507, 0.0566267, 0.263631, 0.993198, 0.349787, 0.651995, 0.0001, 91, 246, 56.0844, 0.184695, 1.72292, 1, 1, 0, 5.23105e-06, 65754
-1375.7, 84618.7, -257.096, 3.72475, -730.507, 0.0566267, 0.263631, 0.993198, 0.349787, 0.651995, 3, 91, 246, 56.0844, 0.184695, 1.60665, 1, 1, 0, -1.02068e-05, 65754
867.319, 96280.1, -308.733, 4.10241, -770.214, 0.125028, 0.298142, 0.958125, 0.351078, 0.648177, 0.0001, 182, 246, 56.0844, 0.184695, 2.2396, 1, 1, 1, -8.05885e-06, 65754
867.319, 96280.1, -308.733, 4.10241, -770.214, 0.125028, 0.298142, 0.958125, 0.351078, 0.648177, 3, 182, 246, 56.0844, 0.184695, 2.1073, 1, 1, 1, 2.49564e-06, 65754
-7892.07, -256.899, -24.1165, 2.95672, -1112.77, 0.00293402, 0.257375, 0.993198, 0.349787, 0.651995, 0.0001, 91, 246, 14.7413, 0.0606461, 0, 0, 1, 1, -3.00719e-06, 65757
-7892.07, -256.899, -24.1165, 2.95672, -1112.77, 0.00293402, 0.257375, 0.993198, 0.349787, 0.651995, 3, 91, 246, 14.7413, 0.0606461, 0, 0, 1, 1, -1.08967e-05, 65757
-10729, 440042, -149.618, 0.72732, -1028.21, -0.00136455, 0.384187, 1.03299, 0.34851, 0.655882, 0.0001, 45.5, 246, 29.1436, 0.0877824, 0, 0, 0, 0, 3.2357e-05, 65758
-10729, 440042, -149.618, 0.72732, -1028.21, -0.00136455, 0.384187, 1.03299, 0.34851, 0.655882, 3, 45.5, 246, 29.1436, 0.0877824, 0, 0, 0, 0, -7.27326e-05, 65758
-7586.42, -31326.4, 9.08964, 2.4383, -827.055, 0.736056, 0.278611, 1.03299, 0.34851, 0.655882, 0.0001, 45.5, 246, 9.23942, 0.0507061, 0, 0, 1, 0, 1.73488e-05, 65759
-10405.6, 354384, -191.347, 0.782029, -829.084, 0.191939, 0.429481, 1.03299, 0.34851, 0.655882, 0.0001, 45.5, 246, 30.6671, 0.134126, 0, 0, 0, 0, -6.66161e-06, 65771
-10405.6, 354384, -191.347, 0.782029, -829.084, 0.191939, 0.429481, 1.03299, 0.34851, 0.655882, 3, 45.5, 246, 30.6671, 0.134126, 0, 0, 0, 0, -7.54024e-06, 65771
-9060.76, 371200, -205.797, 0.824724, -859.475, 0.200864, 0.402967, 0.993198, 0.349787, 0.651995, 3, 91, 246, 30.6671, 0.134126, 0, 0, 1, 0, 1.91643e-06, 65771
-7465.32, 389467, -221.07, 0.868669, -892.706, 0.210699, 0.381122, 0.958125, 0.351078, 0.648177, 3, 182, 246, 30.6671, 0.134126, 0, 0, 1, 0, -1.6107e-05, 65771
-9666.87, 206695, -222.676, 1.8056, -974.395, -0.0151864, 0.482033, 1.03299, 0.34851, 0.655882, 3, 45.5, 246, 44.7533, 0.234682, 0, 0, 0, 0, -6.70544e-06, 65772
-5443.96, 98781.2, -155.636, 3.30974, -1075.51, 0.194543, 0.289717, 0.9175, 0.352806, 0.64323, 3, 455, 246, 26.2988, 0.0963447, 0, 0, 1, 0, 1.41822e-05, 65773
-11869.9, 271668, -157.159, 1.43361, -779.913, 0.530744, 0.382413, 1.03299, 0.34851, 0.655882, 0.0001, 45.5, 246, 29.1726, 0.125917, 0, 0, 1, 0, 6.30563e-05, 65774
-11869.9, 271668, -157.159, 1.43361, -779.913, 0.530744, 0.382413, 1.03299, 0.34851, 0.655882, 3, 45.5, 246, 29.1726, 0.125917, 0, 0, 1, 0, 3.28031e-05, 65774
-7672.64, 324623, -268.317, 0.654334, -1021.45, 0.370027, 0.520092, 0.993198, 0.349787, 0.651995, 0.0001, 91, 246, 40.3091, 0.21225, 0, 0, 1, 0, 0.000106595, 65783
-8284.41, 287893, -236.988, 0.119625, -733.121, 0.30053, 0.540513, 1.03299, 0.34851, 0.655882, 0.0001, 45.5, 246, 36.7754, 0.221531, 3.54264, 1, 0, 0, -875.802, 65788
-8284.41, 287893, -236.988, 0.119625, -733.121, 0.30053, 0.540513, 1.03299, 0.34851, 0.655882, 3, 45.5, 246, 36.7754, 0.221531, 3.54368, 1, 0, 0, -877.256, 65788
-7869.72, 303614, -245.978, 0.125772, -770.476, 0.315583, 0.521008, 0.993198, 0.349787, 0.651995, 0.0001, 91, 246, 36.7754, 0.221531, 4.94781, 1, 1, 0, -6.96926e-06, 65788
-7869.72, 303614, -245.978, 0.125772, -770.476, 0.315583, 0.521008, 0.993198, 0.349787, 0.651995, 3, 91, 246, 36.7754, 0.221531, 4.96371, 1, 1, 0, -4.68045e-05, 65788
-10243.9, 189187, -200.921, 2.86434, -1088.81, -0.0298686, 0.350208, 1.03299, 0.34851, 0.655882, 0.0001, 45.5, 246, 43.2802, 0.187051, 0, 0, 0, 0, -9.69949e-06, 65791
-10243.9, 189187, -200.921, 2.86434, -1088.81, -0.0298686, 0.350208, 1.03299, 0.34851, 0.655882, 3, 45.5, 246, 43.2802, 0.187051, 0, 0, 0, 0, -1.32948e-05, 65791
-7430.62, 210570, -247.32, 3.09902, -1104.5, 0.00914581, 0.354936, 0.993198, 0.349787, 0.651995, 0.0001, 91, 246, 43.2802, 0.187051, 0, 0, 1, 0, 2.21145e-05, 65791
-7430.62, 210570, -247.32, 3.09902, -1104.5, 0.00914581, 0.354936, 0.993198, 0.349787, 0.651995, 3, 91, 246, 43.2802, 0.187051, 0, 0, 1, 0, -5.27109e-07, 65791
-17758.6, 796290, -16.1305, 1.08319, -1098.05, 0.153277, 0.288426, 0.993198, 0.349787, 0.651995, 0.0001, 91, 246, 23.9949, 0.00672643, 0, 0, 1, 0, -2.90633e-06, 65793
-17758.6, 796290, -16.1305, 1.08319, -1098.05, 0.153277, 0.288426, 0.993198, 0.349787, 0.651995, 3, 91, 246, 23.9949, 0.00672643, 0, 0, 1, 0, 3.80668e-06, 65793
-9739.09, 308710, -257.443, 0.719478, -799.921, 0.820161, 0.517129, 1.03299, 0.34851, 0.655882, 0.0001, 45.5, 246, 36.8655, 0.191172, 0, 0, 0, 0, 0.000157676, 65796
-9739.09, 308710, -257.443, 0.719478, -799.921, 0.820161, 0.517129, 1.03299, 0.34851, 0.655882, 3, 45.5, 246, 36.8655, 0.191172, 0, 0, 0, 0, 1.8938e-05, 65796
-11575.8, 250394, -245.798, 1.93589, -748.927, -0.0176301, 0.468812, 1.03299, 0.34851, 0.655882, 0.0001, 45.5, 246, 40.7573, 0.21072, 0, 0, 0, 0, -3.00334e-06, 65803
-4282.13, 365529, -440.281, 4.17797, -1049.54, 0.211743, 0.414099, 0.958125, 0.351078, 0.648177, 0.0001, 182, 246, 44.0837, 0.182768, 2.11212, 1, 0, 0, 2.7566e-06, 65817
-4282.13, 365529, -440.281, 4.17797, -1049.54, 0.211743, 0.414099, 0.958125, 0.351078, 0.648177, 3, 182, 246, 44.0837, 0.182768, 2.19366, 1, 0, 0, 1.29764e-05, 65817
-11806.5, 438768, -403.562, 1.27878, -1151.7, -0.00763167, 0.683335, 1.03299, 0.34851, 0.655882, 3, 45.5, 246, 50.0624, 0.237059, 0, 0, 0, 0, 1.89896e-05, 65820
-7026.01, 810662, -167.509, 1.21696, -794.782, 0.108067, 0.257366, 0.9175, 0.352806, 0.64323, 3, 455, 246, 21.7518, 0.0427798, 0, 0, 0, 0, 1.58395e-05, 65821
-14920.5, 161972, 15.1715, 3.65096, -1128.56, -0.0641764, 0.123199, 1.03299, 0.34851, 0.655882, 0.0001, 45.5, 246, 18.0772, 0.031598, 0, 0, 0, 0, 4.59464e-06, 65822
-14920.5, 161972, 15.1715, 3.65096, -1128.56, -0.0641764, 0.123199, 1.03299, 0.34851, 0.655882, 3, 45.5, 246, 18.0772, 0.031598, 0, 0, 0, 0, -1.19294e-05, 65822
-12322.4, 182969, -22.7477, 3.98021, -1123.04, -0.000165979, 0.13923, 0.993198, 0.349787, 0.651995, 0.0001, 91, 246, 18.0772, 0.031598, 0, 0, 1, 0, -2.9918e-06, 65822
-12322.4, 182969, -22.7477, 3.98021, -1123.04, -0.000165979, 0.13923, 0.993198, 0.349787, 0.651995, 3, 91, 246, 18.0772, 0.031598, 0, 0, 1, 0, -4.17796e-06, 65822
1312.19, 282859, -379.047, 4.37563, -1019.88, 1.42401, 0.401022, 0.9175, 0.352806, 0.64323, 0.0001, 455, 246, 34.6025, 0.15701, 2.07429, 1, 0, 0, 8.6911e-05, 65825
1312.19, 282859, -379.047, 4.37563, -1019.88, 1.42401, 0.401022, 0.9175, 0.352806, 0.64323, 3, 455, 246, 34.6025, 0.15701, 0, 0, 0, 0, -1.32984e-05, 65825
-12288, 263348, -88.355, 1.322, -664.755, 0.734143, 0.336366, 1.03299, 0.34851, 0.655882, 0.0001, 45.5, 246, 20.4962, 0.0727025, 0, 0, 1, 0, -6.94083e-05, 65830
-12288, 263348, -88.355, 1.322, -664.755, 0.734143, 0.336366, 1.03299, 0.34851, 0.655882, 3, 45.5, 246, 20.4962, 0.0727025, 0, 0, 1, 0, -6.64948e-05, 65830
-11882.6, 301184, -104.827, 1.28828, -1029.28, 0.0672449, 0.352766, 1.03299, 0.34851, 0.655882, 0.0001, 45.5, 246, 27.189, 0.0871906, 0, 0, 1, 0, 1.2177e-05, 65831
-11882.6, 301184, -104.827, 1.28828, -1029.28, 0.0672449, 0.352766, 1.03299, 0.34851, 0.655882, 3, 45.5, 246, 27.189, 0.0871906, 0, 0, 1, 0, 1.30556e-05, 65831
-8569.62, 498.855, -2.01239, 2.0436, -921.077, 0.0116751, 0.284876, 0.993198, 0.349787, 0.651995, 3, 91, 246, 5.47291, 0.0512657, 0, 0, 1, 1, -3.70311e-06, 65832
-6603.87, 658403, -465.613, 0.0920091, -1023.47, 0.36569, 0.642989, 1.03299, 0.34851, 0.655882, 0.0001, 45.5, 246, 42.2647, 0.17581, 3.68956, 1, 0, 0, -1251.42, 65835
-6603.87, 658403, -465.613, 0.0920091, -1023.47, 0.36569, 0.642989, 1.03299, 0.34851, 0.655882, 3, 45.5, 246, 42.2647, 0.17581, 3.69038, 1, 0, 0, -1254.23, 65835
-7591.35, 134583, -227.224, 3.42026, -726.427, 0.309301, 0.265135, 1.03299, 0.34851, 0.655882, 0.0001, 45.5, 246, 45.8387, 0.182605, 1.20134, 1, 0, 0, -3.39907e-06, 65837
-7591.35, 134583, -227.224, 3.42026, -726.427, 0.309301, 0.265135, 1.03299, 0.34851, 0.655882, 3, 45.5, 246, 45.8387, 0.182605, 1.06725, 1, 0, 0, 1.01433e-05, 65837
-4968.38, 147927, -273.248, 3.80443, -791.584, 0.385391, 0.282599, 0.993198, 0.349787, 0.651995, 0.0001, 91, 246, 45.8387, 0.182605, 1.29129, 1, 1, 0, -6.53949e-06, 65837
-4968.38, 147927, -273.248, 3.80443, -791.584, 0.385391, 0.282599, 0.993198, 0.349787, 0.651995, 3, 91, 246, 45.8387, 0.182605, 1.08649, 1, 1, 0, 7.64941e-06, 65837
-1482.9, 165081, -331.319, 4.27856, -880.85, 0.486677, 0.322836, 0.958125, 0.351078, 0.648177, 0.0001, 182, 246, 45.8387, 0.182605, 1.90082, 1, 0, 0, -7.80886e-06, 65837
-1482.9, 165081, -331.319, 4.27856, -880.85, 0.486677, 0.322836, 0.958125, 0.351078, 0.648177, 3, 182, 246, 45.8387, 0.182605, 1.75594, 1, 0, 0, 5.35788e-07, 65837
-9236.33, 91580.1, -18.6519, 2.59744, -1185.65, 2.96092e-05, 0.250865, 0.993198, 0.349787, 0.651995, 0.0001, 91, 246, 15.3072, 0.0444457, 0, 0, 1, 0, 8.88749e-06, 65845
-9236.33, 91580.1, -18.6519, 2.59744, -1185.65, 2.96092e-05, 0.250865, 0.993198, 0.349787, 0.651995, 3, 91, 246, 15.3072, 0.0444457, 0, 0, 1, 0, -2.31879e-05, 65845
-6072.08, 149638, -96.7269, 3.07822, -1212.45, 0.0823682, 0.26095, 0.9175, 0.352806, 0.64323, 3, 455, 246, 15.3072, 0.0444457, 0, 0, 1, 0, -2.18363e-05, 65845
-11476.7, 244177, -226.583, 1.81949, -740.439, 0.269311, 0.446114, 1.03299, 0.34851, 0.655882, 0.0001, 45.5, 246, 38.1295, 0.193439, 0, 0, 0, 0, 5.74499e-06, 65846
-10349.9, 111114, -56.4839, 2.51938, -749.662, -0.0298886, 0.265212, 1.03299, 0.34851, 0.655882, 0.0001, 45.5, 246, 21.8435, 0.0808777, 0, 0, 1, 0, -2.5715e-06, 65847
-10349.9, 111114, -56.4839, 2.51938, -749.662, -0.0298886, 0.265212, 1.03299, 0.34851, 0.655882, 3, 45.5, 246, 21.8435, 0.0808777, 0, 0, 1, 0, -3.02692e-07, 65847
-5371.73, 144711, -143, 3.21939, -784.135, 0.0896425, 0.272771, 0.9175, 0.352806, 0.64323, 3, 455, 246, 21.8435, 0.0808777, 0, 0, 1, 0, -7.35067e-06, 65847
-11477.4, 274126, -182.947, 1.32183, -689.459, 0.0769814, 0.41987, 1.03299, 0.34851, 0.655882, 0.0001, 45.5, 246, 31.1759, 0.155754, 0, 0, 1, 0, -4.8517e-06, 65851
-11477.4, 274126, -182.947, 1.32183, -689.459, 0.0769814, 0.41987, 1.03299, 0.34851, 0.655882, 3, 45.5, 246, 31.1759, 0.155754, 0, 0, 1, 0, -1.70695e-07, 65851
-11202.2, 101568, 26.0596, 2.52856, -1199.15, -0.030097, 0.247264, 1.03299, 0.34851, 0.655882, 0.0001, 45.5, 246, 13.8957, 0.0243524, 0, 0, 1, 0, 6.675e-06, 65853
-11202.2, 101568, 26.0596, 2.52856, -1199.15, -0.030097, 0.247264, 1.03299, 0.34851, 0.655882, 3, 45.5, 246, 13.8957, 0.0243524, 0, 0, 1, 0, -2.13207e-06, 65853
-10148.7, 126133, -0.524078, 2.70986, -1195.35, 4.05172e-05, 0.235715, 0.993198, 0.349787, 0.651995, 0.0001, 91, 246, 13.8957, 0.0243524, 0, 0, 1, 0, -8.92714e-06, 65853
-10148.7, 126133, -0.524078, 2.70986, -1195.35, 4.05172e-05, 0.235715, 0.993198, 0.349787, 0.651995, 3, 91, 246, 13.8957, 0.0243524, 0, 0, 1, 0, -2.48985e-05, 65853
-5815.83, 185144, -79.5243, 3.22734, -1221.11, 0.0901641, 0.251818, 0.9175, 0.352806, 0.64323, 3, 455, 246, 13.8957, 0.0243524, 0, 0, 1, 0, 1.03945e-06, 65853
-465.102, 120364, -293.435, 4.71147, -1261.69, 0.197465, 0.342932, 0.9175, 0.352806, 0.64323, 0.0001, 455, 246, 40.3747, 0.119109, 2.06745, 1, 0, 0, 1.97636e-05, 65854
-465.102, 120364, -293.435, 4.71147, -1261.69, 0.197465, 0.342932, 0.9175, 0.352806, 0.64323, 3, 455, 246, 40.3747, 0.119109, 2.06732, 1, 0, 0, 1.97495e-05, 65854
-10768.6, 507054, -54.0563, 0.388733, -770.348, 0.356626, 0.343862, 1.03299, 0.34851, 0.655882, 0.0001, 45.5, 246, 18.3986, 0.0269373, 0, 0, 1, 0, 0.000100392, 65856
-10109.3, 528102, -58.7155, 0.40977, -817.009, 0.378665, 0.308507, 0.993198, 0.349787, 0.651995, 0.0001, 91, 246, 18.3986, 0.0269373, 0, 0, 1, 0, -1.66318e-05, 65856
-6056.32, 107637, -173.974, 2.50209, -1055.07, -8.15122e-05, 0.354789, 0.993198, 0.349787, 0.651995, 0.0001, 91, 246, 45.6716, 0.225257, 0, 0, 1, 0, 6.27058e-06, 65858
-6056.32, 107637, -173.974, 2.50209, -1055.07, -8.15122e-05, 0.354789, 0.993198, 0.349787, 0.651995, 3, 91, 246, 45.6716, 0.225257, 0, 0, 1, 0, -2.14869e-06, 65858
-1614.29, 157029, -270.73, 2.97181, -1106.19, 0.0764563, 0.374852, 0.9175, 0.352806, 0.64323, 0.0001, 455, 246, 45.6716, 0.225257, 1.12815, 1, 0, 0, -4.95879e-06, 65858
-1614.29, 157029, -270.73, 2.97181, -1106.19, 0.0764563, 0.374852, 0.9175, 0.352806, 0.64323, 3, 455, 246, 45.6716, 0.225257, 1.1326, 1, 0, 0, 4.68411e-06, 65858
-8153.61, 1904.86, -12.6959, 2.77113, -1174.76, 0.303015, 0.26286, 0.993198, 0.349787, 0.651995, 0.0001, 91, 246, 10.9644, 0.0621116, 0, 0, 1, 1, -9.17864e-06, 65861
-8153.61, 1904.86, -12.6959, 2.77113, -1174.76, 0.303015, 0.26286, 0.993198, 0.349787, 0.651995, 3, 91, 246, 10.9644, 0.0621116, 0, 0, 1, 1, 1.88839e-05, 65861
-7424.84, 67083.9, -101.754, 3.4618, -1356.79, 0.451986, 0.291932, 0.9175, 0.352806, 0.64323, 3, 455, 246, 10.9644, 0.0621116, 0, 0, 1, 0, -7.88059e-06, 65861
-5567.7, 81260, -180.035, 3.06214, -641.136, 0.122494, 0.272359, 1.03299, 0.34851, 0.655882, 0.0001, 45.5, 246, 47.1567, 0.173857, 1.23002, 1, 1, 0, -3.50466e-06, 65865
-5567.7, 81260, -180.035, 3.06214, -641.136, 0.122494, 0.272359, 1.03299, 0.34851, 0.655882, 3, 45.5, 246, 47.1567, 0.173857, 1.0139, 1, 1, 0, 2.34551e-06, 65865
-4147.71, 89886.6, -214.458, 3.34666, -672.885, 0.170885, 0.277793, 0.993198, 0.349787, 0.651995, 0.0001, 91, 246, 47.1567, 0.173857, 1.22084, 1, 1, 0, -1.47964e-06, 65865
-4147.71, 89886.6, -214.458, 3.34666, -672.885, 0.170885, 0.277793, 0.993198, 0.349787, 0.651995, 3, 91, 246, 47.1567, 0.173857, 1.01936, 1, 1, 0, -9.09393e-06, 65865
-2278.25, 100104, -255.803, 3.68246, -716.534, 0.231355, 0.299845, 0.958125, 0.351078, 0.648177, 0.0001, 182, 246, 47.1567, 0.173857, 1.43725, 1, 1, 0, -2.73366e-06, 65865
-2278.25, 100104, -255.803, 3.68246, -716.534, 0.231355, 0.299845, 0.958125, 0.351078, 0.648177, 3, 182, 246, 47.1567, 0.173857, 1.28893, 1, 1, 0, -4.93854e-06, 65865
1161.83, 117399, -325.704, 4.24119, -801.031, 0.338776, 0.359018, 0.9175, 0.352806, 0.64323, 0.0001, 455, 246, 47.1567, 0.173857, 2.32546, 1, 1, 0, 1.75679e-05, 65865
1161.83, 117399, -325.704, 4.24119, -801.031, 0.338776, 0.359018, 0.9175, 0.352806, 0.64323, 3, 455, 246, 47.1567, 0.173857, 2.32509, 1, 1, 0, 8.01786e-06, 65865
-8598.04, 48603.5, -40.974, 2.90129, -669.294, 0.692886, 0.222189, 1.03299, 0.34851, 0.655882, 3, 45.5, 246, 20.192, 0.0604388, 0, 0, 1, 0, 5.57141e-06, 65866
-8044.58, 59246.8, -64.2571, 3.26253, -758.635, 0.824859, 0.22089, 0.993198, 0.349787, 0.651995, 0.0001, 91, 246, 20.192, 0.0604388, 0, 0, 1, 0, 9.5515e-06, 65866
-8044.58, 59246.8, -64.2571, 3.26253, -758.635, 0.824859, 0.22089, 0.993198, 0.349787, 0.651995, 3, 91, 246, 20.192, 0.0604388, 0, 0, 1, 0, -2.66255e-06, 65866
-7143.15, 73837.4, -95.8769, 3.71938, -884.022, 1.00995, 0.238608, 0.958125, 0.351078, 0.648177, 0.0001, 182, 246, 20.192, 0.0604388, 0, 0, 1, 0, 3.57556e-06, 65866
-7143.15, 73837.4, -95.8769, 3.71938, -884.022, 1.00995, 0.238608, 0.958125, 0.351078, 0.648177, 3, 182, 246, 20.192, 0.0604388, 0, 0, 1, 0, -2.31808e-05, 65866
-5024.76, 104535, -159.614, 4.57067, -1153.44, 1.40621, 0.300954, 0.9175, 0.352806, 0.64323, 0.0001, 455, 246, 20.192, 0.0604388, 0, 0, 1, 0, -2.18062e-05, 65866
-5024.76, 104535, -159.614, 4.57067, -1153.44, 1.40621, 0.300954, 0.9175, 0.352806, 0.64323, 3, 455, 246, 20.192, 0.0604388, 0, 0, 1, 0, 1.03146e-05, 65866
-11691.6, 186128, -85.9476, 2.1129, -953.544, 0.253616, 0.3055, 1.03299, 0.34851, 0.655882, 3, 45.5, 246, 26.4906, 0.0958424, 0, 0, 1, 0, 7.40494e-06, 65872
-12391.8, 297851, 1.71598, 1.01695, -1112.97, 0.0631087, 0.324459, 1.03299, 0.34851, 0.655882, 0.0001, 45.5, 246, 18.2671, 0.0110964, 0, 0, 1, 0, -2.38632e-05, 65874
-11284.3, 320680, -8.66277, 1.06655, -1124.69, 0.068557, 0.291922, 0.993198, 0.349787, 0.651995, 3, 91, 246, 18.2671, 0.0110964, 0, 0, 1, 0, -5.20889e-06, 65874
-9936.41, 344199, -20.108, 1.11693, -1137.89, 0.0745978, 0.26453, 0.958125, 0.351078, 0.648177, 0.0001, 182, 246, 18.2671, 0.0110964, 0, 0, 1, 0, 3.7515e-06, 65874
-10095, 69740, 4.38132, 3.13548, -602.798, 0.194185, 0.190995, 1.03299, 0.34851, 0.655882, 0.0001, 45.5, 246, 9.63165, 0.0245172, 0, 0, 1, 0, -5.31222e-06, 65879
-10095, 69740, 4.38132, 3.13548, -602.798, 0.194185, 0.190995, 1.03299, 0.34851, 0.655882, 3, 45.5, 246, 9.63165, 0.0245172, 0, 0, 1, 0, -1.68811e-05, 65879
-9261.38, 76633.2, -13.6424, 3.4378, -624.576, 0.249252, 0.193797, 0.993198, 0.349787, 0.651995, 0.0001, 91, 246, 9.63165, 0.0245172, 0, 0, 1, 0, -3.43725e-05, 65879
-9261.38, 76633.2, -13.6424, 3.4378, -624.576, 0.249252, 0.193797, 0.993198, 0.349787, 0.651995, 3, 91, 246, 9.63165, 0.0245172, 0, 0, 1, 0, 4.49559e-06, 65879
-8830.82, 70975.8, -37.4012, 0.699535, -1008.72, -0.0010202, 0.355415, 1.03299, 0.34851, 0.655882, 0.0001, 45.5, 246, 20.9812, 0.121887, 0, 0, 1, 0, -7.7772e-05, 65880
-8830.82, 70975.8, -37.4012, 0.699535, -1008.72, -0.0010202, 0.355415, 1.03299, 0.34851, 0.655882, 3, 45.5, 246, 20.9812, 0.121887, 0, 0, 1, 0, 5.9501e-06, 65880
-3940.99, 119031, -288.558, 3.47138, -579.998, -0.0574279, 0.313426, 1.03299, 0.34851, 0.655882, 0.0001, 45.5, 246, 57.7082, 0.231349, 1.73019, 1, 1, 0, -6.3013e-06, 65883
-3940.99, 119031, -288.558, 3.47138, -579.998, -0.0574279, 0.313426, 1.03299, 0.34851, 0.655882, 3, 45.5, 246, 57.7082, 0.231349, 1.66535, 1, 1, 0, -2.58354e-06, 65883
-1203.95, 126548, -335.45, 3.79223, -607.055, 0.000540684, 0.334915, 0.993198, 0.349787, 0.651995, 0.0001, 91, 246, 57.7082, 0.231349, 2.05913, 1, 1, 0, 2.74797e-06, 65883
-1203.95, 126548, -335.45, 3.79223, -607.055, 0.000540684, 0.334915, 0.993198, 0.349787, 0.651995, 3, 91, 246, 57.7082, 0.231349, 1.96711, 1, 1, 0, -1.39097e-05, 65883
2255.46, 136027, -391.858, 4.17803, -648.539, 0.0703309, 0.376774, 0.958125, 0.351078, 0.648177, 0.0001, 182, 246, 57.7082, 0.231349, 3.74294, 1, 1, 1, 1.22909e-05, 65883
2255.46, 136027, -391.858, 4.17803, -648.539, 0.0703309, 0.376774, 0.958125, 0.351078, 0.648177, 3, 182, 246, 57.7082, 0.231349, 3.5026, 1, 1, 1, 6.08156e-06, 65883
-10699.3, 194264, -138.676, 2.15006, -1182.71, 0.0155986, 0.3542, 1.03299, 0.34851, 0.655882, 0.0001, 45.5, 246, 35.7822, 0.147623, 0, 0, 0, 0, -1.6354e-05, 65891
-10699.3, 194264, -138.676, 2.15006, -1182.71, 0.0155986, 0.3542, 1.03299, 0.34851, 0.655882, 3, 45.5, 246, 35.7822, 0.147623, 0, 0, 0, 0, 9.89322e-06, 65891
-5088.33, 52499.2, -149.98, 3.34082, -635.519, 0.651952, 0.198133, 1.03299, 0.34851, 0.655882, 0.0001, 45.5, 246, 42.8714, 0.109827, 1.19099, 1, 1, 0, -9.88501e-07, 65892
-4051.56, 62995.6, -185.47, 3.77878, -728.266, 0.788786, 0.209653, 0.993198, 0.349787, 0.651995, 0.0001, 91, 246, 42.8714, 0.109827, 1.13498, 1, 1, 0, -4.63429e-05, 65892
-2497.5, 77767.5, -232.967, 4.34344, -860.735, 0.983714, 0.246004, 0.958125, 0.351078, 0.648177, 0.0001, 182, 246, 42.8714, 0.109827, 1.2948, 1, 1, 0, 6.75527e-06, 65892
-2497.5, 77767.5, -232.967, 4.34344, -860.735, 0.983714, 0.246004, 0.958125, 0.351078, 0.648177, 3, 182, 246, 42.8714, 0.109827, 1.16138, 1, 1, 0, 0.000121897, 65892
979.883, 110064, -328.232, 5.42856, -1153.22, 1.41212, 0.348413, 0.9175, 0.352806, 0.64323, 0.0001, 455, 246, 42.8714, 0.109827, 2.35109, 1, 1, 1, 219.587, 65892
979.883, 110064, -328.232, 5.42856, -1153.22, 1.41212, 0.348413, 0.9175, 0.352806, 0.64323, 3, 455, 246, 42.8714, 0.109827, 2.35029, 1, 1, 1, 219.431, 65892
-12409.9, 241705, -373.889, 3.41527, -687.34, 0.682169, 0.399917, 1.03299, 0.34851, 0.655882, 0.0001, 45.5, 246, 49.8308, 0.223258, 1.22392, 1, 0, 0, -2.81304e-05, 65893
-12409.9, 241705, -373.889, 3.41527, -687.34, 0.682169, 0.399917, 1.03299, 0.34851, 0.655882, 3, 45.5, 246, 49.8308, 0.223258, 1.1548, 1, 0, 0, -1.88559e-05, 65893
-7224.74, 263772, -435.268, 3.89821, -815.227, 0.830281, 0.428736, 0.993198, 0.349787, 0.651995, 0.0001, 91, 246, 49.8308, 0.223258, 1.62423, 1, 1, 0, 8.06743e-07, 65893
-7224.74, 263772, -435.268, 3.89821, -815.227, 0.830281, 0.428736, 0.993198, 0.349787, 0.651995, 3, 91, 246, 49.8308, 0.223258, 1.54626, 1, 1, 0, -5.0471e-05, 65893
-8243.15, 178368, -168.322, 2.19626, -1034.89, 0.507926, 0.347061, 0.993198, 0.349787, 0.651995, 0.0001, 91, 246, 35.396, 0.162092, 0, 0, 1, 0, 1.99372e-05, 65895
-7934.33, -30453, 1.77159, 1.98114, -642.433, 0.33266, 0.306907, 1.03299, 0.34851, 0.655882, 3, 45.5, 246, 9.71521, 0.0032992, 0, 0, 1, 0, 9.35745e-06, 65898
-8261.36, 94533.3, -80.0916, 2.62312, -1142.99, 0.0247627, 0.273367, 0.993198, 0.349787, 0.651995, 0.0001, 91, 246, 26.3243, 0.102453, 0, 0, 1, 0, 3.53332e-06, 65902
-8261.36, 94533.3, -80.0916, 2.62312, -1142.99, 0.0247627, 0.273367, 0.993198, 0.349787, 0.651995, 3, 91, 246, 26.3243, 0.102453, 0, 0, 1, 0, 6.55833e-07, 65902
-1038.26, 73362.1, -279.437, 5.21109, -923.58, 0.739951, 0.329213, 0.9175, 0.352806, 0.64323, 0.0001, 455, 246, 40.8027, 0.0777087, 1.40644, 1, 1, 0, 8.66981e-06, 65907
-1038.26, 73362.1, -279.437, 5.21109, -923.58, 0.739951, 0.329213, 0.9175, 0.352806, 0.64323, 3, 455, 246, 40.8027, 0.0777087, 1.3237, 1, 1, 0, -1.05806e-06, 65907
-8987.34, 671037, -237.549, 0.322316, -921.896, 0.0485177, 0.420811, 1.03299, 0.34851, 0.655882, 0.0001, 45.5, 246, 30.2572, 0.0908508, 0, 0, 0, 0, 3.70819e-05, 65910
-8987.34, 671037, -237.549, 0.322316, -921.896, 0.0485177, 0.420811, 1.03299, 0.34851, 0.655882, 3, 45.5, 246, 30.2572, 0.0908508, 0, 0, 0, 0, -9.2872e-06, 65910
-9152.25, 243938, -90.907, 2.05835, -781.304, 0.0221147, 0.26514, 0.958125, 0.351078, 0.648177, 3, 182, 246, 19.6103, 0.0619835, 0, 0, 1, 0, -1.38501e-06, 65926
-10191, 417229, -300.382, 0.604107, -794.377, 0.171967, 0.543569, 1.03299, 0.34851, 0.655882, 0.0001, 45.5, 246, 36.7443, 0.183745, 0, 0, 0, 0, 9.15682e-05, 65932
-10191, 417229, -300.382, 0.604107, -794.377, 0.171967, 0.543569, 1.03299, 0.34851, 0.655882, 3, 45.5, 246, 36.7443, 0.183745, 0, 0, 0, 0, 2.05055e-05, 65932
-6614.83, -20646.4, 5.41927, 3.63558, -1022.52, 3.05411e-05, 0.173775, 1.03299, 0.34851, 0.655882, 0.0001, 45.5, 246, 15.5376, 0.0521016, 0, 0, 1, 0, 1.50502e-05, 65936
-6614.83, -20646.4, 5.41927, 3.63558, -1022.52, 3.05411e-05, 0.173775, 1.03299, 0.34851, 0.655882, 3, 45.5, 246, 15.5376, 0.0521016, 0, 0, 1, 0, -7.80935e-06, 65936
-9325.25, 259695, -109.739, 1.18309, -1120.22, 0.440344, 0.329831, 0.993198, 0.349787, 0.651995, 0.0001, 91, 246, 26.8799, 0.0943504, 0, 0, 1, 0, -1.56567e-05, 65937
-10693.7, 280097, -214.886, 1.5548, -1145.73, 0.00355354, 0.456845, 1.03299, 0.34851, 0.655882, 0.0001, 45.5, 246, 40.465, 0.182118, 0, 0, 0, 0, -3.3261e-06, 65938
-11896.1, 118923, -24.2746, 3.56089, -994.987, -0.0447004, 0.149088, 1.03299, 0.34851, 0.655882, 0.0001, 45.5, 246, 20.5308, 0.0558807, 0, 0, 0, 0, 8.11624e-06, 65939
-11896.1, 118923, -24.2746, 3.56089, -994.987, -0.0447004, 0.149088, 1.03299, 0.34851, 0.655882, 3, 45.5, 246, 20.5308, 0.0558807, 0, 0, 0, 0, -2.29624e-06, 65939
-10043.8, 135514, -60.3864, 3.88182, -996.722, 0.0160609, 0.163275, 0.993198, 0.349787, 0.651995, 0.0001, 91, 246, 20.5308, 0.0558807, 0, 0, 1, 0, 1.09554e-05, 65939
-10043.8, 135514, -60.3864, 3.88182, -996.722, 0.0160609, 0.163275, 0.993198, 0.349787, 0.651995, 3, 91, 246, 20.5308, 0.0558807, 0, 0, 1, 0, -3.62367e-08, 65939
-9717.63, 233469, -85.5592, 1.17751, -866.218, 0.404499, 0.315842, 0.993198, 0.349787, 0.651995, 0.0001, 91, 246, 21.8416, 0.0794643, 0, 0, 1, 0, -6.97238e-05, 65945
-9908.71, 198078, -294.969, 2.79313, -617.001, 0.0704911, 0.439466, 1.03299, 0.34851, 0.655882, 0.0001, 45.5, 246, 48.4892, 0.239523, 1.0522, 1, 0, 0, -9.20695e-06, 65964
-6688.89, 207384, -336.588, 3.04187, -650.154, 0.109077, 0.449643, 0.993198, 0.349787, 0.651995, 0.0001, 91, 246, 48.4892, 0.239523, 1.11536, 1, 1, 0, 1.0206e-06, 65964
-2705.81, 218797, -385.608, 3.33119, -694.407, 0.156346, 0.474427, 0.958125, 0.351078, 0.648177, 0.0001, 182, 246, 48.4892, 0.239523, 1.73203, 1, 0, 0, -1.45901e-05, 65964
-2705.81, 218797, -385.608, 3.33119, -694.407, 0.156346, 0.474427, 0.958125, 0.351078, 0.648177, 3, 182, 246, 48.4892, 0.239523, 1.56177, 1, 0, 0, 5.31904e-07, 65964
-9586.77, 369555, -324.62, 0.417712, -727.681, 0.519282, 0.602528, 1.03299, 0.34851, 0.655882, 0.0001, 45.5, 246, 38.9384, 0.217206, 0, 0, 0, 0, -0.000868566, 65976
-9586.77, 369555, -324.62, 0.417712, -727.681, 0.519282, 0.602528, 1.03299, 0.34851, 0.655882, 3, 45.5, 246, 38.9384, 0.217206, 0, 0, 0, 0, 5.8939e-05, 65976
-6520.2, 419587, -358.385, 0.480662, -879.64, 0.623354, 0.582088, 0.958125, 0.351078, 0.648177, 0.0001, 182, 246, 38.9384, 0.217206, 0, 0, 0, 0, 1.91423e-05, 65976
-8953.81, 168013, -145.582, 1.21572, -1175.82, 0.0245185, 0.434085, 1.03299, 0.34851, 0.655882, 3, 45.5, 246, 38.3433, 0.202589, 0, 0, 1, 0, -2.57935e-05, 65978
-10368.2, 269098, -93.878, 1.32725, -792.653, 0.12362, 0.312457, 0.993198, 0.349787, 0.651995, 3, 91, 246, 21.7024, 0.0766711, 0, 0, 1, 0, -5.91498e-06, 65981
-10672.4, 100067, -29.6356, 3.12955, -1097.19, 0.234311, 0.203355, 1.03299, 0.34851, 0.655882, 0.0001, 45.5, 246, 22.429, 0.0671748, 0, 0, 0, 0, 1.45267e-05, 65986
-10672.4, 100067, -29.6356, 3.12955, -1097.19, 0.234311, 0.203355, 1.03299, 0.34851, 0.655882, 3, 45.5, 246, 22.429, 0.0671748, 0, 0, 0, 0, -7.90669e-07, 65986
-10894.1, 472407, -316.568, 0.423823, -568.443, 0.57558, 0.525402, 1.03299, 0.34851, 0.655882, 3, 45.5, 246, 30.5762, 0.158673, 0, 0, 0, 0, -5.16045e-06, 65987
-15070.9, 227122, -178.112, 3.57599, -790.999, 0.154382, 0.199162, 1.03299, 0.34851, 0.655882, 0.0001, 45.5, 246, 33.4471, 0.125582, 0, 0, 0, 0, -1.61075e-05, 65988
-15070.9, 227122, -178.112, 3.57599, -790.999, 0.154382, 0.199162, 1.03299, 0.34851, 0.655882, 3, 45.5, 246, 33.4471, 0.125582, 0, 0, 0, 0, 2.30291e-05, 65988
-5245.95, 82106.4, -179.178, 2.97956, -836.508, 0.335783, 0.29246, 1.03299, 0.34851, 0.655882, 0.0001, 45.5, 246, 49.8628, 0.193175, 1.22134, 1, 1, 0, -3.26586e-05, 65996
-3782.57, 97532, -219.047, 3.29221, -903.269, 0.400157, 0.297265, 0.993198, 0.349787, 0.651995, 0.0001, 91, 246, 49.8628, 0.193175, 1.27908, 1, 1, 0, -6.11611e-06, 65996
-3782.57, 97532, -219.047, 3.29221, -903.269, 0.400157, 0.297265, 0.993198, 0.349787, 0.651995, 3, 91, 246, 49.8628, 0.193175, 1.07542, 1, 1, 0, 4.44424e-06, 65996
-1700.88, 116578, -268.556, 3.66825, -991.357, 0.48388, 0.319465, 0.958125, 0.351078, 0.648177, 0.0001, 182, 246, 49.8628, 0.193175, 1.67682, 1, 1, 0, 5.64366e-06, 65996
-1700.88, 116578, -268.556, 3.66825, -991.357, 0.48388, 0.319465, 0.958125, 0.351078, 0.648177, 3, 182, 246, 49.8628, 0.193175, 1.52808, 1, 1, 0, 5.65975e-06, 65996
