-11406.8, 141191, -32.1122, 2.15365, -925.232, 0.731787, 0.27642, 1.03299, 0.34851, 0.655882, 0.0001, 45.5, 246, 19.6634, 0.05561, 0, 0, 1, 0, 6.89926e-05, 104007
-10907.7, 236456, -134.735, 1.25994, -719.727, 0.321612, 0.380801, 1.03299, 0.34851, 0.655882, 0.0001, 45.5, 246, 27.486, 0.12762, 0, 0, 1, 0, 6.17064e-05, 104008
-10907.7, 236456, -134.735, 1.25994, -719.727, 0.321612, 0.380801, 1.03299, 0.34851, 0.655882, 3, 45.5, 246, 27.486, 0.12762, 0, 0, 1, 0, -0.0612025, 104008
-9619.14, 250506, -150.388, 1.34848, -763.737, 0.346696, 0.355208, 0.993198, 0.349787, 0.651995, 0.0001, 91, 246, 27.486, 0.12762, 0, 0, 1, 0, 1.90866e-05, 104008
-9619.14, 250506, -150.388, 1.34848, -763.737, 0.346696, 0.355208, 0.993198, 0.349787, 0.651995, 3, 91, 246, 27.486, 0.12762, 0, 0, 1, 0, -4.55238e-05, 104008
-6874.1, -15308.2, -5.05587, 3.38669, -1153.86, 0.186223, 0.202717, 1.03299, 0.34851, 0.655882, 3, 45.5, 246, 19.7375, 0.0620684, 0, 0, 1, 0, -1.0485e-05, 104009
-7084.13, 8419.59, -43.7296, 3.73173, -1196.29, 0.249168, 0.214582, 0.993198, 0.349787, 0.651995, 0.0001, 91, 246, 19.7375, 0.0620684, 0, 0, 1, 1, -1.11339e-05, 104009
-7084.13, 8419.59, -43.7296, 3.73173, -1196.29, 0.249168, 0.214582, 0.993198, 0.349787, 0.651995, 3, 91, 246, 19.7375, 0.0620684, 0, 0, 1, 1, 1.39064e-05, 104009
-8764.84, 944039, -148.508, 0.171692, -936.714, 0.285378, 0.361476, 1.03299, 0.34851, 0.655882, 0.0001, 45.5, 246, 26.4456, 0.0381466, 0, 0, 1, 0, 0.000322049, 104025
-8764.84, 944039, -148.508, 0.171692, -936.714, 0.285378, 0.361476, 1.03299, 0.34851, 0.655882, 3, 45.5, 246, 26.4456, 0.0381466, 0, 0, 1, 0, -4.38962e-05, 104025
-8049.22, 975324, -154.516, 0.179646, -981.678, 0.298997, 0.326828, 0.993198, 0.349787, 0.651995, 0.0001, 91, 246, 26.4456, 0.0381466, 0, 0, 1, 0, -5.04819e-05, 104025
-10285.4, 235022, -237.229, 1.65027, -897.374, 0.0329072, 0.497599, 1.03299, 0.34851, 0.655882, 0.0001, 45.5, 246, 43.1918, 0.227808, 0, 0, 0, 0, 1.77017e-05, 104029
-10285.4, 235022, -237.229, 1.65027, -897.374, 0.0329072, 0.497599, 1.03299, 0.34851, 0.655882, 3, 45.5, 246, 43.1918, 0.227808, 0, 0, 0, 0, 4.43939e-06, 104029
-11132.4, -114333, -25.617, 0.184336, -1112.93, 0.329969, 0.364847, 1.03299, 0.34851, 0.655882, 0.0001, 45.5, 246, -54.539, 0.14896, 0, 0, 1, 0, -1.49119e-06, 104033
-11132.4, -114333, -25.617, 0.184336, -1112.93, 0.329969, 0.364847, 1.03299, 0.34851, 0.655882, 3, 45.5, 246, -54.539, 0.14896, 0, 0, 1, 0, -3.48335e-05, 104033
-11536.1, 247282, -218.802, 1.96248, -936.608, 0.667797, 0.419914, 1.03299, 0.34851, 0.655882, 3, 45.5, 246, 38.8397, 0.175856, 0, 0, 0, 0, -5.17694e-05, 104034
-9820.34, 192943, -210.136, 1.93225, -832.903, 0.0127476, 0.447813, 1.03299, 0.34851, 0.655882, 3, 45.5, 246, 42.389, 0.221202, 0, 0, 1, 0, 2.73062e-05, 104040
1268.73, 327989, -418.934, 3.66567, -763.561, 0.145245, 0.446075, 0.9175, 0.352806, 0.64323, 3, 455, 246, 37.4648, 0.176264, 0, 0, 0, 0, 1.25355e-05, 104044
-6933.39, 377838, -336.13, 0.360257, -1020.81, 0.0291051, 0.626803, 0.993198, 0.349787, 0.651995, 0.0001, 91, 246, 44.9637, 0.244602, 0, 0, 1, 0, 9.93559e-05, 104050
-11647.4, 270768, -22.2828, 0.963322, -679.775, 0.199313, 0.328578, 1.03299, 0.34851, 0.655882, 0.0001, 45.5, 246, 13.8416, 0.0253782, 0, 0, 1, 0, -2.92565e-05, 104059
-11647.4, 270768, -22.2828, 0.963322, -679.775, 0.199313, 0.328578, 1.03299, 0.34851, 0.655882, 3, 45.5, 246, 13.8416, 0.0253782, 0, 0, 1, 0, -4.70785e-05, 104059
-12129.9, 154696, -74.518, 3.16466, -1039.58, 0.0595795, 0.211093, 1.03299, 0.34851, 0.655882, 0.0001, 45.5, 246, 27.3094, 0.088527, 0, 0, 0, 0, -4.97159e-06, 104065
-12129.9, 154696, -74.518, 3.16466, -1039.58, 0.0595795, 0.211093, 1.03299, 0.34851, 0.655882, 3, 45.5, 246, 27.3094, 0.088527, 0, 0, 0, 0, -1.41897e-05, 104065
-2401.07, 226525, -359.143, 3.45271, -1004.77, 0.381289, 0.432346, 0.958125, 0.351078, 0.648177, 0.0001, 182, 246, 47.8434, 0.222232, 1.5865, 1, 0, 0, 1.61982e-05, 104069
-2401.07, 226525, -359.143, 3.45271, -1004.77, 0.381289, 0.432346, 0.958125, 0.351078, 0.648177, 3, 182, 246, 47.8434, 0.222232, 1.38776, 1, 0, 0, 8.26279e-06, 104069
-7344.47, 176950, -289.466, 3.44613, -1068.33, 0.143807, 0.374082, 1.03299, 0.34851, 0.655882, 0.0001, 45.5, 246, 55.2277, 0.23981, 1.22323, 1, 0, 0, 1.61844e-05, 104073
-7344.47, 176950, -289.466, 3.44613, -1068.33, 0.143807, 0.374082, 1.03299, 0.34851, 0.655882, 3, 45.5, 246, 55.2277, 0.23981, 1.11684, 1, 0, 0, 9.97296e-06, 104073
-3590.04, 201274, -353.732, 3.81113, -1129.14, 0.206297, 0.400015, 0.993198, 0.349787, 0.651995, 0.0001, 91, 246, 55.2277, 0.23981, 1.64178, 1, 1, 0, 2.71354e-06, 104073
-3590.04, 201274, -353.732, 3.81113, -1129.14, 0.206297, 0.400015, 0.993198, 0.349787, 0.651995, 3, 91, 246, 55.2277, 0.23981, 1.53663, 1, 1, 0, -1.10146e-05, 104073
-10734.8, 515948, -77.989, 0.41964, -770.967, 0.184293, 0.349495, 1.03299, 0.34851, 0.655882, 0.0001, 45.5, 246, 19.7821, 0.0386624, 0, 0, 1, 0, -3.16255e-05, 104075
-10734.8, 515948, -77.989, 0.41964, -770.967, 0.184293, 0.349495, 1.03299, 0.34851, 0.655882, 3, 45.5, 246, 19.7821, 0.0386624, 0, 0, 1, 0, -4.57073e-05, 104075
-9965.44, 531919, -83.6873, 0.438474, -795.07, 0.190654, 0.314661, 0.993198, 0.349787, 0.651995, 0.0001, 91, 246, 19.7821, 0.0386624, 0, 0, 1, 0, -4.67311e-05, 104075
-6539.8, 97998.1, -171.914, 2.83475, -898.931, 0.0647847, 0.321278, 1.03299, 0.34851, 0.655882, 3, 45.5, 246, 47.0925, 0.202558, 0, 0, 1, 0, 9.87195e-06, 104080
-2902.98, 130599, -255.98, 3.36095, -964.644, 0.152263, 0.33932, 0.958125, 0.351078, 0.648177, 0.0001, 182, 246, 47.0925, 0.202558, 1.25237, 1, 1, 0, 6.44529e-06, 104080
-2902.98, 130599, -255.98, 3.36095, -964.644, 0.152263, 0.33932, 0.958125, 0.351078, 0.648177, 3, 182, 246, 47.0925, 0.202558, 1.05093, 1, 1, 0, -9.25818e-06, 104080
1046.85, 157651, -330.962, 3.81823, -1041.18, 0.234493, 0.385186, 0.9175, 0.352806, 0.64323, 0.0001, 455, 246, 47.0925, 0.202558, 0, 0, 0, 0, -7.67893e-06, 104080
-9168, 422112, -373.463, 0.220684, -762.867, 0.000333746, 0.678185, 1.03299, 0.34851, 0.655882, 0.0001, 45.5, 246, 42.1855, 0.241065, 0, 0, 0, 0, -7.70665e-05, 104082
-7766.73, 434897, -390.049, 0.22958, -765.184, 0.000556297, 0.673175, 0.993198, 0.349787, 0.651995, 0.0001, 91, 246, 42.1855, 0.241065, 0, 0, 1, 0, 7.05156e-05, 104082
-6154.93, 447984, -406.649, 0.238415, -767.721, 0.000796744, 0.673113, 0.958125, 0.351078, 0.648177, 0.0001, 182, 246, 42.1855, 0.241065, 0, 0, 0, 0, -0.000166512, 104082
-4645.65, 820909, -349.359, 0.00767656, -947.313, 0.162009, 0.448529, 0.993198, 0.349787, 0.651995, 0.0001, 91, 246, 33.1665, 0.106488, 0, 0, 1, 0, 5.73507e-05, 104085
-11370, 175839, -59.3131, 1.78875, -728.272, 0.0120005, 0.310718, 1.03299, 0.34851, 0.655882, 0.0001, 45.5, 246, 20.0529, 0.074521, 0, 0, 1, 0, 2.25223e-06, 104087
-11370, 175839, -59.3131, 1.78875, -728.272, 0.0120005, 0.310718, 1.03299, 0.34851, 0.655882, 3, 45.5, 246, 20.0529, 0.074521, 0, 0, 1, 0, 8.43377e-06, 104087
-11235.9, 223977, -176.264, 1.87438, -834.073, 0.167966, 0.392637, 1.03299, 0.34851, 0.655882, 0.0001, 45.5, 246, 34.8947, 0.164056, 0, 0, 1, 0, -1.04972e-05, 104091
-11235.9, 223977, -176.264, 1.87438, -834.073, 0.167966, 0.392637, 1.03299, 0.34851, 0.655882, 3, 45.5, 246, 34.8947, 0.164056, 0, 0, 0, 0, 2.71713e-06, 104091
-10211.3, 84108.8, -32.9458, 3.34389, -654.555, -0.0527276, 0.177033, 1.03299, 0.34851, 0.655882, 0.0001, 45.5, 246, 17.1129, 0.0514903, 0, 0, 1, 0, 1.63346e-06, 104092
-10211.3, 84108.8, -32.9458, 3.34389, -654.555, -0.0527276, 0.177033, 1.03299, 0.34851, 0.655882, 3, 45.5, 246, 17.1129, 0.0514903, 0, 0, 1, 0, -1.07936e-05, 104092
-5042.41, 74691.9, -176.814, 2.9561, -684.691, -0.0406998, 0.289226, 1.03299, 0.34851, 0.655882, 0.0001, 45.5, 246, 50.1938, 0.187881, 1.24276, 1, 1, 0, -5.06679e-06, 104101
-5042.41, 74691.9, -176.814, 2.9561, -684.691, -0.0406998, 0.289226, 1.03299, 0.34851, 0.655882, 3, 45.5, 246, 50.1938, 0.187881, 1.01616, 1, 1, 0, -3.90369e-07, 104101
-3759.49, 83404.9, -210.808, 3.1968, -698.142, 0.00088051, 0.292182, 0.993198, 0.349787, 0.651995, 0.0001, 91, 246, 50.1938, 0.187881, 1.2689, 1, 1, 0, 1.33154e-05, 104101
-3759.49, 83404.9, -210.808, 3.1968, -698.142, 0.00088051, 0.292182, 0.993198, 0.349787, 0.651995, 3, 91, 246, 50.1938, 0.187881, 1.07567, 1, 1, 0, -4.07353e-07, 104101
-2073.52, 93101.4, -250.497, 3.47553, -721.135, 0.0497829, 0.309677, 0.958125, 0.351078, 0.648177, 0.0001, 182, 246, 50.1938, 0.187881, 1.49154, 1, 1, 0, 4.42421e-07, 104101
-2073.52, 93101.4, -250.497, 3.47553, -721.135, 0.0497829, 0.309677, 0.958125, 0.351078, 0.648177, 3, 182, 246, 50.1938, 0.187881, 1.3422, 1, 1, 0, 9.3835e-06, 104101
985.202, 108373, -315.045, 3.92649, -771.195, 0.130708, 0.357812, 0.9175, 0.352806, 0.64323, 0.0001, 455, 246, 50.1938, 0.187881, 2.31038, 1, 1, 1, 7.50408e-07, 104101
985.202, 108373, -315.045, 3.92649, -771.195, 0.130708, 0.357812, 0.9175, 0.352806, 0.64323, 3, 455, 246, 50.1938, 0.187881, 2.22749, 1, 1, 1, -1.92595e-06, 104101
-3751.87, 194148, -258.594, 4.58087, -1373.83, 0.974174, 0.259167, 0.958125, 0.351078, 0.648177, 3, 182, 246, 36.5411, 0.127641, 0, 0, 0, 0, 1.29638e-05, 104107
-6650.01, 491880, -239.959, 0.684903, -1023.16, 0.00201013, 0.381737, 0.958125, 0.351078, 0.648177, 3, 182, 246, 32.932, 0.119755, 0, 0, 0, 0, 3.63868e-06, 104110
-10972.6, 122857, -19.036, 2.05779, -682.626, 0.514874, 0.27968, 1.03299, 0.34851, 0.655882, 0.0001, 45.5, 246, 14.1992, 0.0407154, 0, 0, 1, 0, -8.8033e-06, 104114
-8382.78, 98067.4, -113.274, 2.3489, -1011.45, 0.184248, 0.326059, 1.03299, 0.34851, 0.655882, 0.0001, 45.5, 246, 36.6706, 0.164229, 0, 0, 1, 0, -9.0544e-06, 104115
-8382.78, 98067.4, -113.274, 2.3489, -1011.45, 0.184248, 0.326059, 1.03299, 0.34851, 0.655882, 3, 45.5, 246, 36.6706, 0.164229, 0, 0, 1, 0, 7.16812e-06, 104115
-11115.1, 290681, -171.299, 1.25518, -922.993, 0.232325, 0.40835, 1.03299, 0.34851, 0.655882, 0.0001, 45.5, 246, 32.33, 0.139082, 0, 0, 0, 0, -5.32641e-06, 104116
-11115.1, 290681, -171.299, 1.25518, -922.993, 0.232325, 0.40835, 1.03299, 0.34851, 0.655882, 3, 45.5, 246, 32.33, 0.139082, 0, 0, 0, 0, -2.48638e-05, 104116
-11086.5, 215660, -65.6103, 1.40096, -1125.23, 0.259932, 0.333663, 1.03299, 0.34851, 0.655882, 0.0001, 45.5, 246, 25.0299, 0.0753578, 0, 0, 1, 0, 2.24382e-05, 104122
-9858.54, 241995, -84.0915, 1.49628, -1177.2, 0.280669, 0.306371, 0.993198, 0.349787, 0.651995, 0.0001, 91, 246, 25.0299, 0.0753578, 0, 0, 1, 0, 3.96956e-06, 104122
-6791.65, -16474.7, -1.13749, 3.48637, -989.815, 0.022057, 0.189376, 1.03299, 0.34851, 0.655882, 0.0001, 45.5, 246, 16.7277, 0.0506745, 0, 0, 1, 0, 4.22439e-06, 104126
-6791.65, -16474.7, -1.13749, 3.48637, -989.815, 0.022057, 0.189376, 1.03299, 0.34851, 0.655882, 3, 45.5, 246, 16.7277, 0.0506745, 0, 0, 1, 1, -2.08311e-05, 104126
-10451.4, 517665, -118.526, 0.459751, -844.929, 0.0724592, 0.364313, 1.03299, 0.34851, 0.655882, 0.0001, 45.5, 246, 23.5124, 0.0589339, 0, 0, 1, 0, -9.46798e-06, 104130
-10451.4, 517665, -118.526, 0.459751, -844.929, 0.0724592, 0.364313, 1.03299, 0.34851, 0.655882, 3, 45.5, 246, 23.5124, 0.0589339, 0, 0, 1, 0, 6.1801e-06, 104130
-9507.95, 532578, -126.327, 0.478035, -856.301, 0.074275, 0.330737, 0.993198, 0.349787, 0.651995, 3, 91, 246, 23.5124, 0.0589339, 0, 0, 1, 0, -4.94188e-06, 104130
-8421.52, 547993, -134.281, 0.49592, -868.223, 0.0762106, 0.30155, 0.958125, 0.351078, 0.648177, 0.0001, 182, 246, 23.5124, 0.0589339, 0, 0, 1, 0, -1.15309e-05, 104130
-11432.6, 379841, -374.309, 1.37309, -1101.61, 0.00589726, 0.669091, 1.03299, 0.34851, 0.655882, 3, 45.5, 246, 50.106, 0.249822, 0, 0, 0, 0, -1.37956e-06, 104132
-9729.93, 59743.2, 6.46884, 3.58232, -678.081, 0.0426439, 0.144398, 1.03299, 0.34851, 0.655882, 0.0001, 45.5, 246, 10.7559, 0.0280755, 0, 0, 1, 0, -8.27552e-06, 104134
-9729.93, 59743.2, 6.46884, 3.58232, -678.081, 0.0426439, 0.144398, 1.03299, 0.34851, 0.655882, 3, 45.5, 246, 10.7559, 0.0280755, 0, 0, 1, 0, 1.10558e-05, 104134
-7128.68, 83051.7, -73.8961, 3.42592, -1140.58, 0.575203, 0.272581, 0.9175, 0.352806, 0.64323, 3, 455, 246, 8.82223, 0.0351526, 0, 0, 1, 0, 3.29386e-06, 104135
100.573, 429027, -423.87, 2.07523, -1012.72, 0.335172, 0.522717, 0.9175, 0.352806, 0.64323, 3, 455, 246, 40.252, 0.197413, 0, 0, 0, 0, 0.425079, 104141
-9449.88, 505048, -391.701, 0.209927, -718.396, -0.000134472, 0.643635, 1.03299, 0.34851, 0.655882, 3, 45.5, 246, 38.6453, 0.207568, 0, 0, 0, 0, -2.31895e-05, 104142
-7864.92, 516914, -408.389, 0.218132, -720.647, 6.66477e-05, 0.634788, 0.993198, 0.349787, 0.651995, 3, 91, 246, 38.6453, 0.207568, 0, 0, 1, 0, -0.000100788, 104142
-5728.47, 87066.5, -177.859, 3.62812, -821.728, -0.0615855, 0.212072, 1.03299, 0.34851, 0.655882, 0.0001, 45.5, 246, 45.9017, 0.15745, 1.21488, 1, 1, 0, -1.51884e-05, 104143
-5728.47, 87066.5, -177.859, 3.62812, -821.728, -0.0615855, 0.212072, 1.03299, 0.34851, 0.655882, 3, 45.5, 246, 45.9017, 0.15745, 1.01849, 1, 1, 0, 7.79684e-06, 104143
-3940.07, 99352.6, -223.481, 3.96389, -837.712, 0.00174435, 0.232355, 0.993198, 0.349787, 0.651995, 0.0001, 91, 246, 45.9017, 0.15745, 1.25834, 1, 1, 0, -6.93347e-06, 104143
-3940.07, 99352.6, -223.481, 3.96389, -837.712, 0.00174435, 0.232355, 0.993198, 0.349787, 0.651995, 3, 91, 246, 45.9017, 0.15745, 1.08481, 1, 1, 0, 1.40651e-05, 104143
-1511.82, 113234, -278.551, 4.37024, -870.394, 0.0780819, 0.274159, 0.958125, 0.351078, 0.648177, 0.0001, 182, 246, 45.9017, 0.15745, 1.64212, 1, 1, 0, -4.22642e-07, 104143
-1511.82, 113234, -278.551, 4.37024, -870.394, 0.0780819, 0.274159, 0.958125, 0.351078, 0.648177, 3, 182, 246, 45.9017, 0.15745, 1.50637, 1, 1, 0, 1.25417e-05, 104143
-9656.89, 584574, -285.94, 0.322177, -719.29, 0.142798, 0.473117, 1.03299, 0.34851, 0.655882, 0.0001, 45.5, 246, 29.7667, 0.124715, 0, 0, 0, 0, 1.43015e-05, 104153
-9656.89, 584574, -285.94, 0.322177, -719.29, 0.142798, 0.473117, 1.03299, 0.34851, 0.655882, 3, 45.5, 246, 29.7667, 0.124715, 0, 0, 0, 0, -2.4689e-05, 104153
-5684.86, 822985, -306.313, 0.0515551, -988.111, 0.435988, 0.44367, 1.03299, 0.34851, 0.655882, 0.0001, 45.5, 246, 32.7446, 0.0878859, 0, 0, 0, 0, 9.27474e-05, 104154
-4791.03, 863156, -316.123, 0.0544041, -1061.67, 0.46826, 0.415405, 0.993198, 0.349787, 0.651995, 0.0001, 91, 246, 32.7446, 0.0878859, 0, 0, 1, 0, -3.35853e-05, 104154
-12121.4, 295758, -93.8181, 1.29155, -913.355, 0.0657246, 0.345225, 1.03299, 0.34851, 0.655882, 3, 45.5, 246, 24.5933, 0.0795879, 0, 0, 1, 0, -1.11849e-05, 104157
-8511.63, 134495, -158.843, 2.00441, -1058.48, 0.0990986, 0.404647, 1.03299, 0.34851, 0.655882, 0.0001, 45.5, 246, 42.6474, 0.218487, 0, 0, 1, 0, -9.91479e-06, 104161
-8511.63, 134495, -158.843, 2.00441, -1058.48, 0.0990986, 0.404647, 1.03299, 0.34851, 0.655882, 3, 45.5, 246, 42.6474, 0.218487, 0, 0, 1, 0, -5.77206e-06, 104161
-11600.6, 162623, -49.3896, 1.90355, -711.956, 0.828259, 0.293934, 1.03299, 0.34851, 0.655882, 0.0001, 45.5, 246, 18.6478, 0.060461, 0, 0, 1, 0, 1.99987e-05, 104173
-11158, 283267, -264.937, 1.70231, -1008, 0.316105, 0.504456, 1.03299, 0.34851, 0.655882, 0.0001, 45.5, 246, 43.4247, 0.209929, 0, 0, 0, 0, -4.12271e-05, 104176
-11158, 283267, -264.937, 1.70231, -1008, 0.316105, 0.504456, 1.03299, 0.34851, 0.655882, 3, 45.5, 246, 43.4247, 0.209929, 0, 0, 0, 0, -9.51195e-06, 104176
-10799.4, 636702, -161.425, 0.344508, -582.499, 0.405988, 0.375837, 1.03299, 0.34851, 0.655882, 0.0001, 45.5, 246, 19.9201, 0.0611154, 0, 0, 1, 0, 3.09919e-05, 104179
-10799.4, 636702, -161.425, 0.344508, -582.499, 0.405988, 0.375837, 1.03299, 0.34851, 0.655882, 3, 45.5, 246, 19.9201, 0.0611154, 0, 0, 1, 0, -3.42197e-05, 104179
-9196.05, 44034.8, 11.4662, 2.24839, -549.914, 0.560495, 0.269473, 1.03299, 0.34851, 0.655882, 0.0001, 45.5, 246, 5.83877, 0.0171483, 0, 0, 1, 0, -1.64473e-06, 104180
-9196.05, 44034.8, 11.4662, 2.24839, -549.914, 0.560495, 0.269473, 1.03299, 0.34851, 0.655882, 3, 45.5, 246, 5.83877, 0.0171483, 0, 0, 1, 0, -1.40554e-05, 104180
-8927.54, 50986.6, -0.0874937, 2.47902, -604.167, 0.641852, 0.253558, 0.993198, 0.349787, 0.651995, 0.0001, 91, 246, 5.83877, 0.0171483, 0, 0, 1, 0, -1.84661e-05, 104180
-8927.54, 50986.6, -0.0874937, 2.47902, -604.167, 0.641852, 0.253558, 0.993198, 0.349787, 0.651995, 3, 91, 246, 5.83877, 0.0171483, 0, 0, 1, 0, -8.75921e-06, 104180
-8489.68, 59752.6, -15.2268, 2.75297, -674.546, 0.747709, 0.249257, 0.958125, 0.351078, 0.648177, 0.0001, 182, 246, 5.83877, 0.0171483, 0, 0, 1, 0, 1.45786e-05, 104180
-8489.68, 59752.6, -15.2268, 2.75297, -674.546, 0.747709, 0.249257, 0.958125, 0.351078, 0.648177, 3, 182, 246, 5.83877, 0.0171483, 0, 0, 1, 0, -2.13239e-06, 104180
-7538.11, 75780, -43.4326, 3.21446, -807.189, 0.947268, 0.26358, 0.9175, 0.352806, 0.64323, 0.0001, 455, 246, 5.83877, 0.0171483, 0, 0, 1, 0, 4.73263e-05, 104180
-7538.11, 75780, -43.4326, 3.21446, -807.189, 0.947268, 0.26358, 0.9175, 0.352806, 0.64323, 3, 455, 246, 5.83877, 0.0171483, 0, 0, 1, 0, 1.44192e-05, 104180
-12816.9, 210742, -106.181, 3.88727, -631.031, 0.044684, 0.158475, 0.993198, 0.349787, 0.651995, 0.0001, 91, 246, 20.4573, 0.0656616, 0, 0, 1, 0, 9.51735e-06, 104183
-12816.9, 210742, -106.181, 3.88727, -631.031, 0.044684, 0.158475, 0.993198, 0.349787, 0.651995, 3, 91, 246, 20.4573, 0.0656616, 0, 0, 1, 0, 1.67333e-05, 104183
-11747.1, 289252, -4.11091, 0.880894, -953.997, 0.184297, 0.32883, 1.03299, 0.34851, 0.655882, 0.0001, 45.5, 246, 16.319, 0.0125668, 0, 0, 1, 0, 9.96946e-06, 104184
-11747.1, 289252, -4.11091, 0.880894, -953.997, 0.184297, 0.32883, 1.03299, 0.34851, 0.655882, 3, 45.5, 246, 16.319, 0.0125668, 0, 0, 1, 0, -1.09598e-05, 104184
-10854.5, 308511, -12.1338, 0.927719, -983.087, 0.193522, 0.295387, 0.993198, 0.349787, 0.651995, 0.0001, 91, 246, 16.319, 0.0125668, 0, 0, 1, 0, 1.65548e-05, 104184
-6084.42, -55786.4, 5.87662, 3.30276, -694.893, 0.712995, 0.217281, 1.03299, 0.34851, 0.655882, 0.0001, 45.5, 246, 11.6319, 0.00248179, 2.16844, 1, 1, 0, 7.19061e-06, 104196
-6084.42, -55786.4, 5.87662, 3.30276, -694.893, 0.712995, 0.217281, 1.03299, 0.34851, 0.655882, 3, 45.5, 246, 11.6319, 0.00248179, 1.80653, 1, 1, 0, 1.5188e-05, 104196
-9550.5, 855142, -195.532, 0.183192, -657.009, 0.821958, 0.37644, 1.03299, 0.34851, 0.655882, 0.0001, 45.5, 246, 21.4953, 0.049909, 0, 0, 1, 0, 5.2102e-05, 104201
-9550.5, 855142, -195.532, 0.183192, -657.009, 0.821958, 0.37644, 1.03299, 0.34851, 0.655882, 3, 45.5, 246, 21.4953, 0.049909, 0, 0, 1, 0, -9.21743e-05, 104201
-8716.42, 905345, -202.796, 0.197844, -756.165, 0.944838, 0.342943, 0.993198, 0.349787, 0.651995, 3, 91, 246, 21.4953, 0.049909, 0, 0, 1, 0, -8.66027e-05, 104201
-2892.49, 606776, -195.8, 3.82983, -1115.03, 0.977213, 0.248524, 0.9175, 0.352806, 0.64323, 3, 455, 246, 20.3543, 0.0414623, 0, 0, 0, 0, 6.33361e-05, 104212
-8852.46, 267789, -389.913, 3.09028, -615.951, 0.0018263, 0.50264, 0.993198, 0.349787, 0.651995, 0.0001, 91, 246, 47.4544, 0.240501, 1.07107, 1, 1, 0, 1.65763e-05, 104215
-3654.52, 277879, -443.755, 3.37267, -653.787, 0.047703, 0.533348, 0.958125, 0.351078, 0.648177, 0.0001, 182, 246, 47.4544, 0.240501, 1.88871, 1, 0, 0, 2.57834e-06, 104215
-3654.52, 277879, -443.755, 3.37267, -653.787, 0.047703, 0.533348, 0.958125, 0.351078, 0.648177, 3, 182, 246, 47.4544, 0.240501, 1.72106, 1, 0, 0, -4.92576e-06, 104215
-5336.67, 721789, -283.487, 0.103939, -1033.66, 0.0561857, 0.414216, 0.993198, 0.349787, 0.651995, 0.0001, 91, 246, 33.3916, 0.0994706, 0, 0, 1, 0, -0.000105588, 104218
-8781.96, 37573.3, -19.2423, 1.08252, -876.951, 0.514246, 0.336958, 1.03299, 0.34851, 0.655882, 3, 45.5, 246, 16.5761, 0.0882217, 0, 0, 1, 0, 2.92832e-06, 104220
-9274.67, 180065, -293.734, 2.86328, -568.996, 0.516057, 0.401957, 1.03299, 0.34851, 0.655882, 0.0001, 45.5, 246, 47.5249, 0.224805, 1.22219, 1, 0, 0, 2.253e-05, 104229
-9274.67, 180065, -293.734, 2.86328, -568.996, 0.516057, 0.401957, 1.03299, 0.34851, 0.655882, 3, 45.5, 246, 47.5249, 0.224805, 1.09979, 1, 0, 0, -4.28717e-06, 104229
-6152.5, 193347, -335.486, 3.19945, -647.698, 0.605746, 0.412027, 0.993198, 0.349787, 0.651995, 0.0001, 91, 246, 47.5249, 0.224805, 1.25988, 1, 1, 0, 1.42634e-05, 104229
-6152.5, 193347, -335.486, 3.19945, -647.698, 0.605746, 0.412027, 0.993198, 0.349787, 0.651995, 3, 91, 246, 47.5249, 0.224805, 1.11261, 1, 1, 0, 1.14898e-05, 104229
-2112.08, 210999, -387.638, 3.61336, -753.259, 0.726118, 0.440238, 0.958125, 0.351078, 0.648177, 0.0001, 182, 246, 47.5249, 0.224805, 1.97947, 1, 0, 0, 9.97299e-05, 104229
-2112.08, 210999, -387.638, 3.61336, -753.259, 0.726118, 0.440238, 0.958125, 0.351078, 0.648177, 3, 182, 246, 47.5249, 0.224805, 1.82082, 1, 0, 0, -9.30259e-05, 104229
-11491.1, 185699, -5.58401, 1.37446, -847.349, 0.463617, 0.312573, 1.03299, 0.34851, 0.655882, 0.0001, 45.5, 246, 14.2401, 0.0222892, 0, 0, 1, 0, -1.02076e-05, 104233
-10552.2, 204026, -17.193, 1.4834, -915.435, 0.509936, 0.283535, 0.993198, 0.349787, 0.651995, 0.0001, 91, 246, 14.2401, 0.0222892, 0, 0, 1, 0, 2.98248e-05, 104233
-10296.6, 383791, -349.965, 0.592229, -770.67, 0.494785, 0.629084, 1.03299, 0.34851, 0.655882, 0.0001, 45.5, 246, 41.0212, 0.223965, 0, 0, 0, 0, 0.000105326, 104235
-10296.6, 383791, -349.965, 0.592229, -770.67, 0.494785, 0.629084, 1.03299, 0.34851, 0.655882, 3, 45.5, 246, 41.0212, 0.223965, 0, 0, 0, 0, -2.50342e-05, 104235
851.168, 55287.7, -438.541, 1.83272, -1134.9, 1.12727, 0.585462, 0.9175, 0.352806, 0.64323, 3, 455, 246, 435.584, 0.227699, 0, 0, 1, 0, -9.51589e-06, 104238
-7468.48, 530604, -475.674, 0.272275, -1172.63, 0.00347935, 0.771721, 1.03299, 0.34851, 0.655882, 0.0001, 45.5, 246, 50.57, 0.242556, 0, 0, 0, 0, 9.99201e-05, 104240
-7468.48, 530604, -475.674, 0.272275, -1172.63, 0.00347935, 0.771721, 1.03299, 0.34851, 0.655882, 3, 45.5, 246, 50.57, 0.242556, 0, 0, 0, 0, 1.50443e-05, 104240
-12445.1, 223694, -203.019, 3.32347, -1161.64, -0.0342847, 0.289218, 1.03299, 0.34851, 0.655882, 0.0001, 45.5, 246, 42.0461, 0.163439, 0, 0, 0, 0, -1.78648e-05, 104241
-12445.1, 223694, -203.019, 3.32347, -1161.64, -0.0342847, 0.289218, 1.03299, 0.34851, 0.655882, 3, 45.5, 246, 42.0461, 0.163439, 0, 0, 0, 0, 2.44605e-06, 104241
-7882.54, 67870.9, -74.6447, 2.95615, -1016.72, 0.203856, 0.251425, 0.993198, 0.349787, 0.651995, 3, 91, 246, 25.0793, 0.0894756, 0, 0, 1, 0, 1.36606e-05, 104242
-10003.1, 137523, -127.518, 3.05537, -980.397, -0.0438274, 0.260373, 1.03299, 0.34851, 0.655882, 0.0001, 45.5, 246, 34.8704, 0.135922, 0, 0, 0, 0, 2.42469e-06, 104244
-10003.1, 137523, -127.518, 3.05537, -980.397, -0.0438274, 0.260373, 1.03299, 0.34851, 0.655882, 3, 45.5, 246, 34.8704, 0.135922, 0, 0, 0, 0, 1.01325e-05, 104244
-609.784, 199461, -288.391, 4.07966, -1064.45, 0.140304, 0.335921, 0.9175, 0.352806, 0.64323, 3, 455, 246, 34.8704, 0.135922, 1.00226, 1, 0, 0, 2.41063e-05, 104244
-6294.19, 700885, -411.459, 0.15048, -784.455, 0.79873, 0.508229, 0.958125, 0.351078, 0.648177, 3, 182, 246, 30.5641, 0.14249, 0, 0, 0, 0, -5.91305e-06, 104250
-11345.4, 335389, -342.117, 1.31134, -926.921, 0.337539, 0.626456, 1.03299, 0.34851, 0.655882, 0.0001, 45.5, 246, 46.5521, 0.243675, 0, 0, 0, 0, 6.00292e-06, 104255
-11345.4, 335389, -342.117, 1.31134, -926.921, 0.337539, 0.626456, 1.03299, 0.34851, 0.655882, 3, 45.5, 246, 46.5521, 0.243675, 0, 0, 0, 0, 5.36615e-05, 104255
-8354.08, 173572, -270.755, 3.28482, -845.397, 0.0686296, 0.355188, 1.03299, 0.34851, 0.655882, 0.0001, 45.5, 246, 50.5315, 0.222682, 1.16556, 1, 0, 0, -4.66812e-06, 104260
-8354.08, 173572, -270.755, 3.28482, -845.397, 0.0686296, 0.355188, 1.03299, 0.34851, 0.655882, 3, 45.5, 246, 50.5315, 0.222682, 1.03952, 1, 0, 0, 8.39205e-06, 104260
-5034.34, 188720, -322.84, 3.60384, -885.168, 0.122052, 0.373757, 0.993198, 0.349787, 0.651995, 0.0001, 91, 246, 50.5315, 0.222682, 1.39568, 1, 1, 0, -3.75857e-06, 104260
-5034.34, 188720, -322.84, 3.60384, -885.168, 0.122052, 0.373757, 0.993198, 0.349787, 0.651995, 3, 91, 246, 50.5315, 0.222682, 1.19909, 1, 1, 0, -1.84772e-05, 104260
-726.175, 206947, -385.99, 3.9862, -942.751, 0.188929, 0.411767, 0.958125, 0.351078, 0.648177, 0.0001, 182, 246, 50.5315, 0.222682, 2.99214, 1, 0, 0, 4.64313e-06, 104260
-726.175, 206947, -385.99, 3.9862, -942.751, 0.188929, 0.411767, 0.958125, 0.351078, 0.648177, 3, 182, 246, 50.5315, 0.222682, 2.78236, 1, 0, 0, -7.2525e-06, 104260
-9398.26, 52691, 1.20181, 2.60361, -1131.76, -0.031229, 0.254429, 1.03299, 0.34851, 0.655882, 0.0001, 45.5, 246, 16.0659, 0.0528267, 1.1482, 1, 1, 0, 4.02588e-06, 104265
-8863.91, 74637.6, -26.4448, 2.79479, -1129.86, 0.000774535, 0.245252, 0.993198, 0.349787, 0.651995, 0.0001, 91, 246, 16.0659, 0.0528267, 0, 0, 1, 0, -1.16878e-05, 104265
-10298.6, 165874, -164.484, 2.53504, -791.592, 0.0286318, 0.333991, 1.03299, 0.34851, 0.655882, 0.0001, 45.5, 246, 36.5347, 0.165014, 0, 0, 1, 0, -1.51814e-05, 104270
-10201.6, 240443, -205.546, 1.54371, -1036.22, 0.050752, 0.458933, 1.03299, 0.34851, 0.655882, 0.0001, 45.5, 246, 40.3247, 0.197273, 0, 0, 0, 0, -3.58186e-06, 104271
-10201.6, 240443, -205.546, 1.54371, -1036.22, 0.050752, 0.458933, 1.03299, 0.34851, 0.655882, 3, 45.5, 246, 40.3247, 0.197273, 0, 0, 0, 0, -1.33532e-05, 104271
-12693, -156628, -10.0263, 0.489868, -1098.62, 0.34166, 0.374388, 1.03299, 0.34851, 0.655882, 0.0001, 45.5, 246, -84.0558, 0.131065, 0, 0, 1, 0, -1.0961e-05, 104272
-12693, -156628, -10.0263, 0.489868, -1098.62, 0.34166, 0.374388, 1.03299, 0.34851, 0.655882, 3, 45.5, 246, -84.0558, 0.131065, 0, 0, 1, 0, 2.74914e-05, 104272
-11178.3, 234045, -112.717, 1.40561, -822.36, 0.0566394, 0.359796, 1.03299, 0.34851, 0.655882, 0.0001, 45.5, 246, 26.6313, 0.11178, 0, 0, 1, 0, -4.55933e-08, 104279
-11178.3, 234045, -112.717, 1.40561, -822.36, 0.0566394, 0.359796, 1.03299, 0.34851, 0.655882, 3, 45.5, 246, 26.6313, 0.11178, 0, 0, 1, 0, 2.33943e-05, 104279
-9806.88, 246867, -129.553, 1.48583, -835.013, 0.0664101, 0.334382, 0.993198, 0.349787, 0.651995, 3, 91, 246, 26.6313, 0.11178, 0, 0, 1, 0, -4.31171e-06, 104279
-8157.85, 260382, -147.954, 1.5699, -850.156, 0.0774711, 0.314942, 0.958125, 0.351078, 0.648177, 3, 182, 246, 26.6313, 0.11178, 0, 0, 1, 0, -8.59896e-06, 104279
-8442.76, 268820, -211.382, 1.27726, -1005.36, 4.37993e-05, 0.432458, 0.993198, 0.349787, 0.651995, 0.0001, 91, 246, 37.4993, 0.184061, 0, 0, 1, 0, -3.41571e-05, 104283
-6612.76, 287459, -234.136, 1.34312, -1013.64, 0.00758077, 0.417455, 0.958125, 0.351078, 0.648177, 0.0001, 182, 246, 37.4993, 0.184061, 0, 0, 0, 0, 5.89508e-06, 104283
-18802.6, 292769, -173.431, 3.3601, -696.207, 0.0145699, 0.21806, 1.03299, 0.34851, 0.655882, 0.0001, 45.5, 246, 29.36, 0.11191, 0, 0, 0, 0, -8.14934e-06, 104286
-18802.6, 292769, -173.431, 3.3601, -696.207, 0.0145699, 0.21806, 1.03299, 0.34851, 0.655882, 3, 45.5, 246, 29.36, 0.11191, 0, 0, 0, 0, 3.39867e-05, 104286
-4358.9, 38106.3, -138.777, 2.39427, -570.493, 0.496972, 0.290972, 1.03299, 0.34851, 0.655882, 0.0001, 45.5, 246, 54.4492, 0.138907, 1.12536, 1, 1, 0, -1.16505e-05, 104288
-3801.97, 45811.3, -162.443, 2.63919, -630.881, 0.569477, 0.279858, 0.993198, 0.349787, 0.651995, 0.0001, 91, 246, 54.4492, 0.138907, 1.11797, 1, 1, 0, -1.88049e-05, 104288
-2990.14, 55676.5, -191.488, 2.92968, -708.755, 0.66316, 0.281276, 0.958125, 0.351078, 0.648177, 0.0001, 182, 246, 54.4492, 0.138907, 1.22158, 1, 1, 0, 8.78507e-06, 104288
-2990.14, 55676.5, -191.488, 2.92968, -708.755, 0.66316, 0.281276, 0.958125, 0.351078, 0.648177, 3, 182, 246, 54.4492, 0.138907, 1.06701, 1, 1, 0, 6.7606e-06, 104288
-1331.84, 73965.8, -242.072, 3.41731, -853.658, 0.837531, 0.305098, 0.9175, 0.352806, 0.64323, 0.0001, 455, 246, 54.4492, 0.138907, 1.68616, 1, 1, 0, -4.39858e-06, 104288
-1331.84, 73965.8, -242.072, 3.41731, -853.658, 0.837531, 0.305098, 0.9175, 0.352806, 0.64323, 3, 455, 246, 54.4492, 0.138907, 1.56568, 1, 1, 0, -3.97475e-06, 104288
-10505.7, 250235, -196.391, 1.25804, -783.885, 0.0356377, 0.452826, 1.03299, 0.34851, 0.655882, 0.0001, 45.5, 246, 35.5799, 0.185885, 0, 0, 1, 0, 4.86322e-06, 104290
-10505.7, 250235, -196.391, 1.25804, -783.885, 0.0356377, 0.452826, 1.03299, 0.34851, 0.655882, 3, 45.5, 246, 35.5799, 0.185885, 0, 0, 1, 0, -7.62788e-06, 104290
-8965.71, 262241, -216.093, 1.32809, -795.819, 0.0432217, 0.432961, 0.993198, 0.349787, 0.651995, 3, 91, 246, 35.5799, 0.185885, 0, 0, 1, 0, -8.98463e-06, 104290
-10189, 212274, -342.951, 3.50966, -667.115, 0.0598991, 0.385586, 1.03299, 0.34851, 0.655882, 0.0001, 45.5, 246, 51.8968, 0.235002, 1.36349, 1, 0, 0, 1.65754e-05, 104293
-10189, 212274, -342.951, 3.50966, -667.115, 0.0598991, 0.385586, 1.03299, 0.34851, 0.655882, 3, 45.5, 246, 51.8968, 0.235002, 1.29822, 1, 0, 0, 7.80067e-06, 104293
-5687.84, 223526, -399.684, 3.86962, -712.849, 0.120832, 0.414474, 0.993198, 0.349787, 0.651995, 0.0001, 91, 246, 51.8968, 0.235002, 1.70806, 1, 1, 0, -1.68968e-05, 104293
-5687.84, 223526, -399.684, 3.86962, -712.849, 0.120832, 0.414474, 0.993198, 0.349787, 0.651995, 3, 91, 246, 51.8968, 0.235002, 1.62426, 1, 1, 0, -2.76224e-06, 104293
-13351, 246845, -96.6499, 3.54383, -860.566, 0.216641, 0.183205, 0.993198, 0.349787, 0.651995, 0.0001, 91, 246, 22.1424, 0.0616383, 0, 0, 1, 0, -9.54571e-05, 104302
-13351, 246845, -96.6499, 3.54383, -860.566, 0.216641, 0.183205, 0.993198, 0.349787, 0.651995, 3, 91, 246, 22.1424, 0.0616383, 0, 0, 1, 0, 7.52323e-05, 104302
-2506.94, 115177, -246.078, 4.70996, -1387.88, 1.80279, 0.324312, 0.9175, 0.352806, 0.64323, 0.0001, 455, 246, 34.5837, 0.0964382, 1.43665, 1, 1, 0, -1.83607e-05, 104308
-2506.94, 115177, -246.078, 4.70996, -1387.88, 1.80279, 0.324312, 0.9175, 0.352806, 0.64323, 3, 455, 246, 34.5837, 0.0964382, 1.41342, 1, 1, 0, 1.33978e-05, 104308
-7059.43, 70016.7, -118.795, 2.6527, -850.837, -0.00680062, 0.296038, 1.03299, 0.34851, 0.655882, 3, 45.5, 246, 40.1507, 0.161905, 0, 0, 1, 0, -9.28331e-06, 104317
-2425.74, 116949, -241.17, 3.45566, -923.448, 0.129586, 0.327318, 0.9175, 0.352806, 0.64323, 0.0001, 455, 246, 40.1507, 0.161905, 1.05968, 1, 1, 0, 1.09717e-05, 104317
-2425.74, 116949, -241.17, 3.45566, -923.448, 0.129586, 0.327318, 0.9175, 0.352806, 0.64323, 3, 455, 246, 40.1507, 0.161905, 1.06884, 1, 1, 0, 5.84802e-06, 104317
-8253.3, 204597, -195.142, 1.70551, -959.713, 0.366075, 0.405779, 0.993198, 0.349787, 0.651995, 0.0001, 91, 246, 37.7884, 0.192969, 0, 0, 1, 0, 2.26222e-06, 104318
-9511.94, 58070.4, -1.75743, 2.62161, -805.296, 0.245889, 0.245332, 1.03299, 0.34851, 0.655882, 3, 45.5, 246, 13.0826, 0.0399716, 0, 0, 1, 0, 1.53824e-06, 104327
-7099.96, 72987.1, -119.062, 2.96887, -955.66, 0.00425204, 0.268629, 1.03299, 0.34851, 0.655882, 3, 45.5, 246, 39.5211, 0.150334, 0, 0, 1, 0, 1.33834e-05, 104334
-5996.42, 89328.4, -156.017, 3.21739, -970.598, 0.0463122, 0.270665, 0.993198, 0.349787, 0.651995, 0.0001, 91, 246, 39.5211, 0.150334, 0, 0, 1, 0, 4.5096e-08, 104334
-1243.94, 133453, -271.115, 3.97478, -1057.15, 0.181559, 0.335536, 0.9175, 0.352806, 0.64323, 0.0001, 455, 246, 39.5211, 0.150334, 1.48781, 1, 0, 0, -5.67248e-06, 104334
-1243.94, 133453, -271.115, 3.97478, -1057.15, 0.181559, 0.335536, 0.9175, 0.352806, 0.64323, 3, 455, 246, 39.5211, 0.150334, 1.48882, 1, 0, 0, 3.76299e-06, 104334
-11503.6, 416115, -179.975, 0.816666, -793.41, 0.328212, 0.402775, 1.03299, 0.34851, 0.655882, 0.0001, 45.5, 246, 27.6366, 0.105337, 0, 0, 1, 0, -5.75825e-06, 104337
-7747.29, 78536.7, -108.414, 2.75578, -964.137, -0.0359371, 0.285487, 1.03299, 0.34851, 0.655882, 0.0001, 45.5, 246, 36.9959, 0.149031, 0, 0, 1, 0, 1.40299e-06, 104338
-7747.29, 78536.7, -108.414, 2.75578, -964.137, -0.0359371, 0.285487, 1.03299, 0.34851, 0.655882, 3, 45.5, 246, 36.9959, 0.149031, 0, 0, 1, 0, -7.78136e-06, 104338
-10336.9, 496815, -163.384, 0.574871, -1005.43, 0.517007, 0.384855, 1.03299, 0.34851, 0.655882, 0.0001, 45.5, 246, 28.9339, 0.0781809, 0, 0, 0, 0, -6.00243e-05, 104339
-10336.9, 496815, -163.384, 0.574871, -1005.43, 0.517007, 0.384855, 1.03299, 0.34851, 0.655882, 3, 45.5, 246, 28.9339, 0.0781809, 0, 0, 0, 0, 1.66729e-05, 104339
-8733.7, 317901, -169.29, 0.863435, -978.265, 0.043671, 0.381137, 0.993198, 0.349787, 0.651995, 0.0001, 91, 246, 30.9658, 0.129839, 0, 0, 1, 0, -2.14348e-07, 104344
-10233.1, 142074, -128.022, 2.7208, -916.76, 0.697921, 0.278762, 1.03299, 0.34851, 0.655882, 0.0001, 45.5, 246, 33.2763, 0.129649, 0, 0, 0, 0, -6.22596e-05, 104346
-10233.1, 142074, -128.022, 2.7208, -916.76, 0.697921, 0.278762, 1.03299, 0.34851, 0.655882, 3, 45.5, 246, 33.2763, 0.129649, 0, 0, 0, 0, 6.18299e-05, 104346
72.8402, 261396, -303.527, 4.24138, -1601.83, 1.37809, 0.342814, 0.9175, 0.352806, 0.64323, 3, 455, 246, 33.2763, 0.129649, 1.4172, 1, 0, 0, 9.94153e-05, 104346
-10554, 307680, -189.671, 0.847301, -680.331, 0.0497762, 0.439994, 1.03299, 0.34851, 0.655882, 0.0001, 45.5, 246, 30.2292, 0.154091, 0, 0, 1, 0, 2.48334e-06, 104349
-10554, 307680, -189.671, 0.847301, -680.331, 0.0497762, 0.439994, 1.03299, 0.34851, 0.655882, 3, 45.5, 246, 30.2292, 0.154091, 0, 0, 1, 0, 2.62677e-05, 104349
-9313.43, 317302, -203.586, 0.888038, -690.414, 0.0535022, 0.414846, 0.993198, 0.349787, 0.651995, 0.0001, 91, 246, 30.2292, 0.154091, 0, 0, 1, 0, 3.68742e-06, 104349
-4021.48, 57898.2, -173.363, 3.37505, -778.901, 0.0144265, 0.249787, 0.993198, 0.349787, 0.651995, 0.0001, 91, 246, 47.5301, 0.134569, 1.01813, 1, 1, 0, -1.02834e-05, 104350
-2786.57, 69425.8, -214.14, 3.68087, -801.984, 0.0692657, 0.270537, 0.958125, 0.351078, 0.648177, 0.0001, 182, 246, 47.5301, 0.134569, 1.21166, 1, 1, 0, -9.99586e-07, 104350
-2786.57, 69425.8, -214.14, 3.68087, -801.984, 0.0692657, 0.270537, 0.958125, 0.351078, 0.648177, 3, 182, 246, 47.5301, 0.134569, 1.04425, 1, 1, 0, -1.76404e-06, 104350
-348.079, 87161.1, -281.34, 4.18259, -855.289, 0.161399, 0.32591, 0.9175, 0.352806, 0.64323, 0.0001, 455, 246, 47.5301, 0.134569, 1.74969, 1, 1, 1, -1.39286e-06, 104350
-348.079, 87161.1, -281.34, 4.18259, -855.289, 0.161399, 0.32591, 0.9175, 0.352806, 0.64323, 3, 455, 246, 47.5301, 0.134569, 1.65511, 1, 1, 1, 3.12957e-06, 104350
-5984.82, 458635, -349.379, 0.244948, -1142.26, 0.711155, 0.569668, 0.993198, 0.349787, 0.651995, 0.0001, 91, 246, 41.3214, 0.194414, 0, 0, 1, 0, -5.70321e-05, 104355
-8869.56, 141332, -173.623, 2.41938, -815.454, 0.122247, 0.361122, 1.03299, 0.34851, 0.655882, 3, 45.5, 246, 40.9027, 0.193397, 0, 0, 1, 0, -1.43502e-05, 104357
-7138.58, 154777, -205.465, 2.61715, -846.009, 0.153041, 0.355106, 0.993198, 0.349787, 0.651995, 0.0001, 91, 246, 40.9027, 0.193397, 0, 0, 1, 0, -7.76248e-06, 104357
-7138.58, 154777, -205.465, 2.61715, -846.009, 0.153041, 0.355106, 0.993198, 0.349787, 0.651995, 3, 91, 246, 40.9027, 0.193397, 0, 0, 1, 0, -1.62583e-05, 104357
-975.073, 193866, -302.208, 3.19324, -956.323, 0.253211, 0.385323, 0.9175, 0.352806, 0.64323, 0.0001, 455, 246, 40.9027, 0.193397, 1.04284, 1, 0, 0, 1.63237e-05, 104357
-975.073, 193866, -302.208, 3.19324, -956.323, 0.253211, 0.385323, 0.9175, 0.352806, 0.64323, 3, 455, 246, 40.9027, 0.193397, 1.05733, 1, 0, 0, -4.204e-06, 104357
-8813.47, 65604, -62.5542, 3.38973, -639.74, -0.0550875, 0.183, 1.03299, 0.34851, 0.655882, 0.0001, 45.5, 246, 23.1913, 0.0709163, 0, 0, 1, 0, -1.08714e-05, 104359
-8813.47, 65604, -62.5542, 3.38973, -639.74, -0.0550875, 0.183, 1.03299, 0.34851, 0.655882, 3, 45.5, 246, 23.1913, 0.0709163, 0, 0, 1, 0, -4.57823e-06, 104359
-6659.65, 79543.7, -120.079, 4.03333, -657.73, 0.065325, 0.22148, 0.958125, 0.351078, 0.648177, 3, 182, 246, 23.1913, 0.0709163, 0, 0, 1, 0, -9.1254e-06, 104359
-8816.58, 193233, -56.1778, 3.65887, -1161.63, 1.20281, 0.215388, 0.958125, 0.351078, 0.648177, 3, 182, 246, 14.8107, 0.0270058, 0, 0, 1, 0, -4.04518e-05, 104366
-3581.52, 304433, -405.162, 4.31946, -1081.67, 1.05017, 0.375009, 0.958125, 0.351078, 0.648177, 0.0001, 182, 246, 41.6576, 0.175474, 1.86793, 1, 0, 0, -2.32035e-05, 104367
-3581.52, 304433, -405.162, 4.31946, -1081.67, 1.05017, 0.375009, 0.958125, 0.351078, 0.648177, 3, 182, 246, 41.6576, 0.175474, 1.72231, 1, 0, 0, 1.58958e-05, 104367
-11356.2, 222365, -84.7028, 1.44309, -978.392, 0.789901, 0.336554, 1.03299, 0.34851, 0.655882, 0.0001, 45.5, 246, 25.4284, 0.0831799, 0, 0, 1, 0, 4.14988e-05, 104370
-11356.2, 222365, -84.7028, 1.44309, -978.392, 0.789901, 0.336554, 1.03299, 0.34851, 0.655882, 3, 45.5, 246, 25.4284, 0.0831799, 0, 0, 1, 0, -4.82392e-05, 104370
-9985.54, 252116, -103.605, 1.59101, -1122.88, 0.914103, 0.310372, 0.993198, 0.349787, 0.651995, 3, 91, 246, 25.4284, 0.0831799, 0, 0, 1, 0, 8.33199e-05, 104370
-9386.84, 43715.2, 25.4708, 3.19225, -1059.28, -0.0460945, 0.19611, 1.03299, 0.34851, 0.655882, 0.0001, 45.5, 246, 11.6911, 0.0351974, 1.22044, 1, 1, 0, -1.73399e-05, 104377
-9386.84, 43715.2, 25.4708, 3.19225, -1059.28, -0.0460945, 0.19611, 1.03299, 0.34851, 0.655882, 3, 45.5, 246, 11.6911, 0.0351974, 1.1605, 1, 1, 0, -1.21918e-06, 104377
-12159.4, 362825, -117.966, 1.05046, -872.891, 0.174655, 0.361088, 1.03299, 0.34851, 0.655882, 0.0001, 45.5, 246, 25.2355, 0.0812314, 0, 0, 1, 0, -9.59548e-06, 104378
-8679.49, 399048, -147.484, 1.17222, -933.451, 0.196332, 0.30727, 0.958125, 0.351078, 0.648177, 3, 182, 246, 25.2355, 0.0812314, 0, 0, 1, 0, 7.80551e-06, 104378
-11711.9, 333047, -210.956, 1.07102, -658.167, 0.00546652, 0.447054, 1.03299, 0.34851, 0.655882, 0.0001, 45.5, 246, 30.9664, 0.156518, 0, 0, 1, 0, -2.80639e-05, 104380
627.653, 211589, -330.19, 4.20325, -1062.78, 0.427179, 0.36455, 0.9175, 0.352806, 0.64323, 0.0001, 455, 246, 37.6515, 0.154921, 2.15424, 1, 0, 0, 1.92948e-05, 104386
627.653, 211589, -330.19, 4.20325, -1062.78, 0.427179, 0.36455, 0.9175, 0.352806, 0.64323, 3, 455, 246, 37.6515, 0.154921, 2.21734, 1, 0, 0, -1.19862e-05, 104386
-10710.8, 786287, -118.34, 0.26654, -689.148, 0.71884, 0.354423, 1.03299, 0.34851, 0.655882, 0.0001, 45.5, 246, 19.8819, 0.0339465, 0, 0, 1, 0, -9.02646e-05, 104388
-10710.8, 786287, -118.34, 0.26654, -689.148, 0.71884, 0.354423, 1.03299, 0.34851, 0.655882, 3, 45.5, 246, 19.8819, 0.0339465, 0, 0, 1, 0, -2.92615e-05, 104388
-9878.17, 828360, -123.928, 0.286346, -778.418, 0.811335, 0.319461, 0.993198, 0.349787, 0.651995, 3, 91, 246, 19.8819, 0.0339465, 0, 0, 1, 0, -3.36777e-05, 104388
-13352.9, 209492, -162.636, 3.20586, -913.19, 0.33993, 0.243, 1.03299, 0.34851, 0.655882, 0.0001, 45.5, 246, 34.3172, 0.128291, 0, 0, 0, 0, 2.08287e-05, 104390
-13352.9, 209492, -162.636, 3.20586, -913.19, 0.33993, 0.243, 1.03299, 0.34851, 0.655882, 3, 45.5, 246, 34.3172, 0.128291, 0, 0, 0, 0, 2.19112e-05, 104390
-6606.84, 131528, -219.073, 2.99308, -1074.22, -0.042897, 0.370146, 1.03299, 0.34851, 0.655882, 0.0001, 45.5, 246, 52.3018, 0.237706, 1.07056, 1, 0, 0, -8.61249e-06, 104391
-6606.84, 131528, -219.073, 2.99308, -1074.22, -0.042897, 0.370146, 1.03299, 0.34851, 0.655882, 3, 45.5, 246, 52.3018, 0.237706, 0, 0, 1, 0, -8.78148e-06, 104391
-4294.07, 152637, -268.698, 3.24615, -1090.46, -0.000136749, 0.380216, 0.993198, 0.349787, 0.651995, 0.0001, 91, 246, 52.3018, 0.237706, 1.17806, 1, 1, 0, -8.78832e-06, 104391
-1148.91, 175661, -327.056, 3.54126, -1121.29, 0.0504557, 0.40567, 0.958125, 0.351078, 0.648177, 0.0001, 182, 246, 52.3018, 0.237706, 2.06253, 1, 0, 0, 3.56122e-06, 104391
-1148.91, 175661, -327.056, 3.54126, -1121.29, 0.0504557, 0.40567, 0.958125, 0.351078, 0.648177, 3, 182, 246, 52.3018, 0.237706, 1.89236, 1, 0, 0, -7.25162e-06, 104391
-8956.06, 36056.9, 12.7606, 2.89183, -765.592, -0.0189137, 0.225867, 1.03299, 0.34851, 0.655882, 0.0001, 45.5, 246, 9.22946, 0.0303502, 1.10641, 1, 1, 0, -2.56705e-06, 104397
-8956.06, 36056.9, 12.7606, 2.89183, -765.592, -0.0189137, 0.225867, 1.03299, 0.34851, 0.655882, 3, 45.5, 246, 9.22946, 0.0303502, 1.04609, 1, 1, 0, -4.11421e-06, 104397
611.058, 251241, -342.568, 4.61898, -812.032, 0.225251, 0.352797, 0.9175, 0.352806, 0.64323, 0.0001, 455, 246, 33.0675, 0.134039, 1.09121, 1, 0, 0, 6.13206e-07, 104402
611.058, 251241, -342.568, 4.61898, -812.032, 0.225251, 0.352797, 0.9175, 0.352806, 0.64323, 3, 455, 246, 33.0675, 0.134039, 1.16716, 1, 0, 0, -2.09681e-07, 104402
-10782.5, 228066, -98.6451, 1.20094, -793.395, 0.179109, 0.3579, 1.03299, 0.34851, 0.655882, 0.0001, 45.5, 246, 24.5557, 0.101108, 0, 0, 1, 0, 1.37244e-05, 104410
-10782.5, 228066, -98.6451, 1.20094, -793.395, 0.179109, 0.3579, 1.03299, 0.34851, 0.655882, 3, 45.5, 246, 24.5557, 0.101108, 0, 0, 1, 0, -3.17149e-06, 104410
-9684.69, 241754, -112.52, 1.273, -820.425, 0.191237, 0.329799, 0.993198, 0.349787, 0.651995, 0.0001, 91, 246, 24.5557, 0.101108, 0, 0, 1, 0, -1.12237e-05, 104410
-8653.35, 148374, -198.675, 3.16777, -985.349, 0.268853, 0.300124, 1.03299, 0.34851, 0.655882, 3, 45.5, 246, 44.3319, 0.183687, 0, 0, 0, 0, -3.07161e-06, 104411
-6089.97, 169499, -247.156, 3.50085, -1052.99, 0.33173, 0.311265, 0.993198, 0.349787, 0.651995, 3, 91, 246, 44.3319, 0.183687, 0, 0, 1, 0, 1.71682e-05, 104411
-2572.11, 195232, -307.444, 3.90347, -1144.24, 0.413535, 0.3416, 0.958125, 0.351078, 0.648177, 0.0001, 182, 246, 44.3319, 0.183687, 1.33964, 1, 0, 0, 1.18593e-05, 104411
-2572.11, 195232, -307.444, 3.90347, -1144.24, 0.413535, 0.3416, 0.958125, 0.351078, 0.648177, 3, 182, 246, 44.3319, 0.183687, 1.10147, 1, 0, 0, 6.79923e-06, 104411
-4210.58, 320301, -459.563, 3.64673, -766.559, 0.291523, 0.50513, 0.958125, 0.351078, 0.648177, 0.0001, 182, 246, 45.1472, 0.218521, 2.02074, 1, 0, 0, 5.06679e-05, 104413
-4210.58, 320301, -459.563, 3.64673, -766.559, 0.291523, 0.50513, 0.958125, 0.351078, 0.648177, 3, 182, 246, 45.1472, 0.218521, 1.86292, 1, 0, 0, 4.15193e-05, 104413
-6505.92, 131295, -241.772, 2.85714, -715.755, 0.103542, 0.376823, 1.03299, 0.34851, 0.655882, 0.0001, 45.5, 246, 51.9078, 0.238128, 1.23457, 1, 1, 0, -6.94128e-07, 104414
-6505.92, 131295, -241.772, 2.85714, -715.755, 0.103542, 0.376823, 1.03299, 0.34851, 0.655882, 3, 45.5, 246, 51.9078, 0.238128, 1.10223, 1, 1, 0, -8.25362e-06, 104414
-4264.39, 142523, -281.904, 3.11571, -750.631, 0.145071, 0.383712, 0.993198, 0.349787, 0.651995, 0.0001, 91, 246, 51.9078, 0.238128, 1.37737, 1, 1, 0, -1.24275e-05, 104414
-4264.39, 142523, -281.904, 3.11571, -750.631, 0.145071, 0.383712, 0.993198, 0.349787, 0.651995, 3, 91, 246, 51.9078, 0.238128, 1.22278, 1, 1, 0, -3.38837e-06, 104414
-1387.36, 155824, -329.549, 3.4176, -797.64, 0.196413, 0.40558, 0.958125, 0.351078, 0.648177, 0.0001, 182, 246, 51.9078, 0.238128, 1.93645, 1, 1, 0, 1.74286e-06, 104414
-1387.36, 155824, -329.549, 3.4176, -797.64, 0.196413, 0.40558, 0.958125, 0.351078, 0.648177, 3, 182, 246, 51.9078, 0.238128, 1.79151, 1, 1, 0, 8.07153e-06, 104414
-10019.5, 566406, -97.825, 0.70315, -663.43, 0.0368459, 0.283197, 0.958125, 0.351078, 0.648177, 3, 182, 246, 18.0136, 0.0402089, 0, 0, 1, 0, 1.1957e-05, 104415
-9253.01, 118806, -63.9852, 1.25823, -1183.92, 0.0562618, 0.353104, 1.03299, 0.34851, 0.655882, 0.0001, 45.5, 246, 26.5266, 0.116837, 0, 0, 1, 0, 1.28548e-05, 104417
-9253.01, 118806, -63.9852, 1.25823, -1183.92, 0.0562618, 0.353104, 1.03299, 0.34851, 0.655882, 3, 45.5, 246, 26.5266, 0.116837, 0, 0, 1, 0, -1.76083e-05, 104417
-8728.34, 49845.7, -33.5614, 3.3325, -671.842, 0.0466237, 0.184423, 1.03299, 0.34851, 0.655882, 0.0001, 45.5, 246, 18.4614, 0.0534845, 0, 0, 1, 0, -7.94936e-07, 104425
-8728.34, 49845.7, -33.5614, 3.3325, -671.842, 0.0466237, 0.184423, 1.03299, 0.34851, 0.655882, 3, 45.5, 246, 18.4614, 0.0534845, 0, 0, 1, 0, -9.21238e-06, 104425
-11980.8, 313256, -133.712, 1.04712, -561.275, 0.369182, 0.372751, 1.03299, 0.34851, 0.655882, 0.0001, 45.5, 246, 22.2543, 0.0989438, 0, 0, 1, 0, -3.0896e-05, 104428
-11980.8, 313256, -133.712, 1.04712, -561.275, 0.369182, 0.372751, 1.03299, 0.34851, 0.655882, 3, 45.5, 246, 22.2543, 0.0989438, 0, 0, 1, 0, -3.39631e-06, 104428
-7986.15, 506797, -462.331, 0.245778, -1050.18, 0.387699, 0.742583, 1.03299, 0.34851, 0.655882, 0.0001, 45.5, 246, 47.5634, 0.233429, 2.74735, 1, 0, 0, -974.212, 104433
-7986.15, 506797, -462.331, 0.245778, -1050.18, 0.387699, 0.742583, 1.03299, 0.34851, 0.655882, 3, 45.5, 246, 47.5634, 0.233429, 2.74785, 1, 0, 0, -975.335, 104433
-5691.35, 542446, -484.53, 0.261727, -1122, 0.413302, 0.745143, 0.993198, 0.349787, 0.651995, 0.0001, 91, 246, 47.5634, 0.233429, 3.66447, 1, 1, 0, 925.801, 104433
-5691.35, 542446, -484.53, 0.261727, -1122, 0.413302, 0.745143, 0.993198, 0.349787, 0.651995, 3, 91, 246, 47.5634, 0.233429, 3.66429, 1, 1, 0, 925.926, 104433
-7871.69, 283442, -229.764, 0.139442, -885.738, 0.366566, 0.530532, 1.03299, 0.34851, 0.655882, 0.0001, 45.5, 246, 38.0649, 0.216623, 1.90726, 1, 0, 0, 881.579, 104440
-7871.69, 283442, -229.764, 0.139442, -885.738, 0.366566, 0.530532, 1.03299, 0.34851, 0.655882, 3, 45.5, 246, 38.0649, 0.216623, 1.90714, 1, 0, 0, -883.037, 104440
-7445.9, 304873, -238.87, 0.147159, -941.116, 0.3892, 0.510103, 0.993198, 0.349787, 0.651995, 0.0001, 91, 246, 38.0649, 0.216623, 2.0465, 1, 1, 0, -837.182, 104440
-7445.9, 304873, -238.87, 0.147159, -941.116, 0.3892, 0.510103, 0.993198, 0.349787, 0.651995, 3, 91, 246, 38.0649, 0.216623, 1.99851, 1, 1, 0, -837.349, 104440
-6925.12, 329186, -247.89, 0.155157, -1003.8, 0.414811, 0.493882, 0.958125, 0.351078, 0.648177, 0.0001, 182, 246, 38.0649, 0.216623, 2.28925, 1, 0, 0, -812.653, 104440
-6925.12, 329186, -247.89, 0.155157, -1003.8, 0.414811, 0.493882, 0.958125, 0.351078, 0.648177, 3, 182, 246, 38.0649, 0.216623, 2.19925, 1, 0, 0, -812.525, 104440
-6084.91, 366805, -259.811, 0.166319, -1100.53, 0.454329, 0.477504, 0.9175, 0.352806, 0.64323, 0.0001, 455, 246, 38.0649, 0.216623, 2.98803, 1, 0, 0, -795.127, 104440
-6084.91, 366805, -259.811, 0.166319, -1100.53, 0.454329, 0.477504, 0.9175, 0.352806, 0.64323, 3, 455, 246, 38.0649, 0.216623, 2.85593, 1, 0, 0, -788.81, 104440
-8647.18, 392803, -350.064, 0.0338166, -638.431, 0.640753, 0.629471, 1.03299, 0.34851, 0.655882, 0.0001, 45.5, 246, 37.543, 0.220421, 0, 0, 0, 0, -7.89803e-05, 104455
-9654.12, 66290.8, -3.7392, 2.34582, -719.881, -0.022808, 0.267186, 1.03299, 0.34851, 0.655882, 0.0001, 45.5, 246, 11.786, 0.0367659, 0, 0, 1, 0, 2.78405e-05, 104456
-9654.12, 66290.8, -3.7392, 2.34582, -719.881, -0.022808, 0.267186, 1.03299, 0.34851, 0.655882, 3, 45.5, 246, 11.786, 0.0367659, 0, 0, 1, 0, -7.46136e-06, 104456
-5675.96, 377398, -468.207, 4.32544, -867.967, 0.228447, 0.427489, 0.958125, 0.351078, 0.648177, 0.0001, 182, 246, 42.4302, 0.18465, 2.41248, 1, 0, 0, -0.000233305, 104458
-5675.96, 377398, -468.207, 4.32544, -867.967, 0.228447, 0.427489, 0.958125, 0.351078, 0.648177, 3, 182, 246, 42.4302, 0.18465, 2.3528, 1, 0, 0, 0.000112929, 104458
-8936.56, 85130.3, -59.007, 0.191603, -901.603, 0.0318772, 0.394866, 1.03299, 0.34851, 0.655882, 3, 45.5, 246, 27.2591, 0.234731, 0, 0, 1, 0, 1.21322e-05, 104461
-12149.9, 893002, -28.4936, 0.283014, -830.822, 0.0748565, 0.339971, 1.03299, 0.34851, 0.655882, 0.0001, 45.5, 246, 20.1011, 0.00888518, 0, 0, 1, 0, -2.18665e-05, 104462
-12149.9, 893002, -28.4936, 0.283014, -830.822, 0.0748565, 0.339971, 1.03299, 0.34851, 0.655882, 3, 45.5, 246, 20.1011, 0.00888518, 0, 0, 1, 0, 3.94788e-05, 104462
-10403.5, 169575, -165.44, 2.40252, -738.392, 0.0261217, 0.345368, 1.03299, 0.34851, 0.655882, 0.0001, 45.5, 246, 35.8292, 0.166698, 0, 0, 1, 0, -7.79227e-06, 104464
-10403.5, 169575, -165.44, 2.40252, -738.392, 0.0261217, 0.345368, 1.03299, 0.34851, 0.655882, 3, 45.5, 246, 35.8292, 0.166698, 0, 0, 1, 0, -5.64547e-06, 104464
-10344.2, -119526, 2.46012, 0.528769, -1160.8, 0.00410403, 0.361852, 1.03299, 0.34851, 0.655882, 0.0001, 45.5, 246, -60.2426, 0.135986, 0, 0, 1, 0, -5.12761e-05, 104465
-10344.2, -119526, 2.46012, 0.528769, -1160.8, 0.00410403, 0.361852, 1.03299, 0.34851, 0.655882, 3, 45.5, 246, -60.2426, 0.135986, 0, 0, 1, 0, 2.22123e-05, 104465
-10883.7, -95978.4, -3.03917, 0.548451, -1161.68, 0.00538135, 0.328411, 0.993198, 0.349787, 0.651995, 0.0001, 91, 246, -60.2426, 0.135986, 0, 0, 1, 0, 9.65939e-06, 104465
-6763.16, 940370, -269.1, 0.00339256, -687.078, 0.150206, 0.411746, 1.03299, 0.34851, 0.655882, 0.0001, 45.5, 246, 24.7336, 0.0711874, 0, 0, 0, 0, 0.000152798, 104466
-8687.74, 147305, -174.436, 2.32103, -1092.7, 0.163137, 0.388756, 1.03299, 0.34851, 0.655882, 0.0001, 45.5, 246, 43.4926, 0.207759, 0, 0, 1, 0, -1.81977e-05, 104471
-8687.74, 147305, -174.436, 2.32103, -1092.7, 0.163137, 0.388756, 1.03299, 0.34851, 0.655882, 3, 45.5, 246, 43.4926, 0.207759, 0, 0, 1, 0, 4.66659e-06, 104471
107.35, 238679, -325.572, 3.0732, -1288.08, 0.29407, 0.410707, 0.9175, 0.352806, 0.64323, 3, 455, 246, 43.4926, 0.207759, 0, 0, 0, 0, -2.29974e-06, 104471
-6019.25, 116705, -208.586, 3.6204, -1067.51, -0.0633412, 0.262966, 1.03299, 0.34851, 0.655882, 0.0001, 45.5, 246, 50.3592, 0.19635, 1.21771, 1, 0, 0, 1.59891e-05, 104478
-6019.25, 116705, -208.586, 3.6204, -1067.51, -0.0633412, 0.262966, 1.03299, 0.34851, 0.655882, 3, 45.5, 246, 50.3592, 0.19635, 1.01974, 1, 0, 0, -1.36177e-05, 104478
-3535.76, 137449, -265.946, 3.96012, -1085.6, -0.000186582, 0.286278, 0.993198, 0.349787, 0.651995, 0.0001, 91, 246, 50.3592, 0.19635, 1.41783, 1, 1, 0, -1.3556e-05, 104478
-3535.76, 137449, -265.946, 3.96012, -1085.6, -0.000186582, 0.286278, 0.993198, 0.349787, 0.651995, 3, 91, 246, 50.3592, 0.19635, 1.27694, 1, 1, 0, -1.68382e-05, 104478
-71.8935, 160559, -335.323, 4.37193, -1124.88, 0.0760855, 0.331441, 0.958125, 0.351078, 0.648177, 0.0001, 182, 246, 50.3592, 0.19635, 2.66475, 1, 0, 0, 9.23576e-06, 104478
-71.8935, 160559, -335.323, 4.37193, -1124.88, 0.0760855, 0.331441, 0.958125, 0.351078, 0.648177, 3, 182, 246, 50.3592, 0.19635, 2.50172, 1, 0, 0, 6.83564e-06, 104478
-8986.22, 175718, -68.8381, 3.0839, -677.322, 0.561913, 0.232377, 0.958125, 0.351078, 0.648177, 3, 182, 246, 14.4177, 0.0421497, 0, 0, 1, 0, -3.44093e-05, 104482
-10061.2, 520972, -178.867, 0.575043, -1067.25, 0.00736897, 0.39713, 1.03299, 0.34851, 0.655882, 0.0001, 45.5, 246, 30.9635, 0.0885416, 0, 0, 0, 0, -4.473e-05, 104489
-10061.2, 520972, -178.867, 0.575043, -1067.25, 0.00736897, 0.39713, 1.03299, 0.34851, 0.655882, 3, 45.5, 246, 30.9635, 0.0885416, 0, 0, 0, 0, 6.34414e-05, 104489
-11072.2, 351297, -299.282, 0.813359, -666.497, 0.0376075, 0.57466, 1.03299, 0.34851, 0.655882, 0.0001, 45.5, 246, 38.4059, 0.217739, 0, 0, 0, 0, -1.74751e-05, 104490
-11072.2, 351297, -299.282, 0.813359, -666.497, 0.0376075, 0.57466, 1.03299, 0.34851, 0.655882, 3, 45.5, 246, 38.4059, 0.217739, 0, 0, 0, 0, 1.89327e-05, 104490
-10128.4, 95998.2, -55.077, 3.43061, -944.826, -0.0303866, 0.179672, 1.03299, 0.34851, 0.655882, 0.0001, 45.5, 246, 24.7099, 0.0787808, 0, 0, 0, 0, -5.72886e-06, 104492
-10128.4, 95998.2, -55.077, 3.43061, -944.826, -0.0303866, 0.179672, 1.03299, 0.34851, 0.655882, 3, 45.5, 246, 24.7099, 0.0787808, 0, 0, 0, 0, 6.92074e-06, 104492
