-8965.23, 193345, -312.042, 3.35897, -742.933, 0.00298034, 0.385969, 1.03299, 0.34851, 0.655882, 0.0001, 45.5, 246, 52.2225, 0.236341, 1.29741, 1, 0, 0, -1.74983e-07, 47002
-8965.23, 193345, -312.042, 3.35897, -742.933, 0.00298034, 0.385969, 1.03299, 0.34851, 0.655882, 3, 45.5, 246, 52.2225, 0.236341, 1.21523, 1, 0, 0, -4.95693e-06, 47002
-5085.42, 205352, -365.904, 3.68066, -777.824, 0.0574341, 0.409341, 0.993198, 0.349787, 0.651995, 0.0001, 91, 246, 52.2225, 0.236341, 1.6197, 1, 1, 0, -4.42532e-06, 47002
-5085.42, 205352, -365.904, 3.68066, -777.824, 0.0574341, 0.409341, 0.993198, 0.349787, 0.651995, 3, 91, 246, 52.2225, 0.236341, 1.51265, 1, 1, 0, -3.02438e-06, 47002
-160.868, 220258, -430.978, 4.06709, -829.767, 0.124475, 0.452868, 0.958125, 0.351078, 0.648177, 3, 182, 246, 52.2225, 0.236341, 6.03588, 1, 0, 0, 6.19478e-06, 47002
-12481, 302841, -376.865, 3.96582, -606.04, 0.390879, 0.336334, 0.993198, 0.349787, 0.651995, 0.0001, 91, 246, 39.736, 0.180145, 1.00428, 1, 1, 0, -2.14413e-05, 47009
-5496.64, 319758, -441.472, 4.4834, -696.892, 0.500042, 0.387077, 0.958125, 0.351078, 0.648177, 0.0001, 182, 246, 39.736, 0.180145, 1.94271, 1, 0, 0, 5.57889e-05, 47009
-5496.64, 319758, -441.472, 4.4834, -696.892, 0.500042, 0.387077, 0.958125, 0.351078, 0.648177, 3, 182, 246, 39.736, 0.180145, 1.80001, 1, 0, 0, -8.5036e-05, 47009
-2544.44, 288526, -429.373, 3.60066, -989.721, 0.594854, 0.485408, 0.958125, 0.351078, 0.648177, 0.0001, 182, 246, 47.4885, 0.222839, 2.26506, 1, 0, 0, -2.38126e-06, 47016
-2544.44, 288526, -429.373, 3.60066, -989.721, 0.594854, 0.485408, 0.958125, 0.351078, 0.648177, 3, 182, 246, 47.4885, 0.222839, 2.08944, 1, 0, 0, 1.00143e-05, 47016
-9317.07, 44324.3, 18.6314, 2.29176, -953.281, -0.0247333, 0.271987, 1.03299, 0.34851, 0.655882, 0.0001, 45.5, 246, 9.11519, 0.027905, 1.11656, 1, 1, 0, 2.246e-05, 47017
-9317.07, 44324.3, 18.6314, 2.29176, -953.281, -0.0247333, 0.271987, 1.03299, 0.34851, 0.655882, 3, 45.5, 246, 9.11519, 0.027905, 1.04912, 1, 1, 0, 8.88322e-06, 47017
-15158.6, 178136, -14.1463, 3.65109, -1137.13, -0.0585194, 0.127232, 1.03299, 0.34851, 0.655882, 0.0001, 45.5, 246, 21.7026, 0.0477311, 0, 0, 0, 0, 4.01402e-08, 47025
-15158.6, 178136, -14.1463, 3.65109, -1137.13, -0.0585194, 0.127232, 1.03299, 0.34851, 0.655882, 3, 45.5, 246, 21.7026, 0.0477311, 0, 0, 0, 0, -5.09093e-06, 47025
-12279.3, 199592, -55.1474, 3.98202, -1135.66, 0.00546892, 0.143499, 0.993198, 0.349787, 0.651995, 0.0001, 91, 246, 21.7026, 0.0477311, 0, 0, 1, 0, -5.01506e-06, 47025
-12279.3, 199592, -55.1474, 3.98202, -1135.66, 0.00546892, 0.143499, 0.993198, 0.349787, 0.651995, 3, 91, 246, 21.7026, 0.0477311, 0, 0, 1, 0, 9.33149e-06, 47025
-10892.2, 196976, -173.25, 2.15953, -891.589, 0.589285, 0.365988, 1.03299, 0.34851, 0.655882, 0.0001, 45.5, 246, 36.0939, 0.160548, 0, 0, 0, 0, -5.80775e-05, 47028
-8900.04, 364917, -137.384, 1.38573, -890.921, 0.0082094, 0.298794, 0.958125, 0.351078, 0.648177, 3, 182, 246, 24.762, 0.0795959, 0, 0, 1, 0, -8.36531e-06, 47038
-11167.4, 123294, -85.0589, 3.59456, -716.391, -0.0522459, 0.158125, 1.03299, 0.34851, 0.655882, 0.0001, 45.5, 246, 25.1854, 0.0836082, 0, 0, 0, 0, 8.21173e-06, 47039
-11167.4, 123294, -85.0589, 3.59456, -716.391, -0.0522459, 0.158125, 1.03299, 0.34851, 0.655882, 3, 45.5, 246, 25.1854, 0.0836082, 0, 0, 0, 0, 4.93595e-06, 47039
-12320.9, 314169, -337.427, 2.02967, -969.961, -0.0190392, 0.586937, 1.03299, 0.34851, 0.655882, 0.0001, 45.5, 246, 49.1561, 0.246977, 0, 0, 0, 0, 8.86469e-06, 47040
-10096.1, 411949, -359.987, 0.897232, -1093.23, 0.299123, 0.629212, 1.03299, 0.34851, 0.655882, 0.0001, 45.5, 246, 46.0183, 0.219185, 0, 0, 0, 0, 1.67271e-05, 47045
-10096.1, 411949, -359.987, 0.897232, -1093.23, 0.299123, 0.629212, 1.03299, 0.34851, 0.655882, 3, 45.5, 246, 46.0183, 0.219185, 0, 0, 0, 0, 7.3109e-06, 47045
-11392.2, 237129, -101.046, 1.31055, -637.754, 0.0146047, 0.352645, 1.03299, 0.34851, 0.655882, 0.0001, 45.5, 246, 22.561, 0.0992715, 0, 0, 1, 0, -1.26571e-06, 47046
-10157.2, 244515, -114.009, 1.37948, -643.438, 0.0226003, 0.325424, 0.993198, 0.349787, 0.651995, 3, 91, 246, 22.561, 0.0992715, 0, 0, 1, 0, -1.60502e-05, 47046
-10232.9, 134024, -51.8403, 3.392, -809.108, 0.422297, 0.19608, 0.993198, 0.349787, 0.651995, 0.0001, 91, 246, 17.1817, 0.0476506, 0, 0, 1, 0, -3.15113e-05, 47048
-10232.9, 134024, -51.8403, 3.392, -809.108, 0.422297, 0.19608, 0.993198, 0.349787, 0.651995, 3, 91, 246, 17.1817, 0.0476506, 0, 0, 1, 0, -6.64957e-05, 47048
-8164.24, 149441, -83.9801, 3.78131, -877.458, 0.512959, 0.215542, 0.958125, 0.351078, 0.648177, 0.0001, 182, 246, 17.1817, 0.0476506, 0, 0, 1, 0, -2.16218e-05, 47048
-8164.24, 149441, -83.9801, 3.78131, -877.458, 0.512959, 0.215542, 0.958125, 0.351078, 0.648177, 3, 182, 246, 17.1817, 0.0476506, 0, 0, 1, 0, 4.1741e-05, 47048
-7466.32, -13893.6, -5.57322, 2.74143, -750.314, 0.211167, 0.25411, 1.03299, 0.34851, 0.655882, 3, 45.5, 246, 14.4307, 0.0367332, 0, 0, 1, 1, -3.25957e-06, 47049
-8800.46, 79281.3, -65.4075, 1.28709, -800.742, 0.0328081, 0.356124, 1.03299, 0.34851, 0.655882, 0.0001, 45.5, 246, 27.5731, 0.15335, 0, 0, 1, 0, 1.58707e-05, 47053
-8800.46, 79281.3, -65.4075, 1.28709, -800.742, 0.0328081, 0.356124, 1.03299, 0.34851, 0.655882, 3, 45.5, 246, 27.5731, 0.15335, 0, 0, 1, 0, -1.83428e-05, 47053
-8307.37, 130883, -179.041, 3.26178, -929.338, -0.0435231, 0.275174, 1.03299, 0.34851, 0.655882, 3, 45.5, 246, 42.8062, 0.173484, 0, 0, 0, 0, 4.83915e-06, 47055
-6063.99, 146409, -224.043, 3.54706, -944.597, 0.00735983, 0.286777, 0.993198, 0.349787, 0.651995, 3, 91, 246, 42.8062, 0.173484, 0, 0, 1, 0, -2.22455e-06, 47055
-3100.12, 163636, -277.52, 3.88452, -974.655, 0.0681026, 0.315986, 0.958125, 0.351078, 0.648177, 0.0001, 182, 246, 42.8062, 0.173484, 1.12686, 1, 1, 0, 6.85867e-06, 47055
-2399.56, 119810, -242.072, 3.68938, -1003.73, 0.402495, 0.32349, 0.9175, 0.352806, 0.64323, 0.0001, 455, 246, 38.4661, 0.14742, 1.101, 1, 1, 0, 4.05879e-07, 47056
-2399.56, 119810, -242.072, 3.68938, -1003.73, 0.402495, 0.32349, 0.9175, 0.352806, 0.64323, 3, 455, 246, 38.4661, 0.14742, 1.10454, 1, 1, 0, 1.60898e-06, 47056
-8882.93, 107376, -137.823, 3.59723, -704.011, -0.038939, 0.184975, 1.03299, 0.34851, 0.655882, 0.0001, 45.5, 246, 34.3451, 0.120773, 0, 0, 0, 0, -7.98191e-06, 47058
-8882.93, 107376, -137.823, 3.59723, -704.011, -0.038939, 0.184975, 1.03299, 0.34851, 0.655882, 3, 45.5, 246, 34.3451, 0.120773, 0, 0, 0, 0, -4.41703e-06, 47058
-7007.91, 116087, -175.123, 3.9295, -718.499, 0.0231723, 0.202552, 0.993198, 0.349787, 0.651995, 0.0001, 91, 246, 34.3451, 0.120773, 0, 0, 1, 0, 7.673e-06, 47058
-7007.91, 116087, -175.123, 3.9295, -718.499, 0.0231723, 0.202552, 0.993198, 0.349787, 0.651995, 3, 91, 246, 34.3451, 0.120773, 0, 0, 1, 0, -7.05376e-06, 47058
-275.91, 142935, -297.365, 5.02017, -814.816, 0.230244, 0.33239, 0.9175, 0.352806, 0.64323, 0.0001, 455, 246, 34.3451, 0.120773, 1.32937, 1, 0, 0, 2.5074e-06, 47058
-275.91, 142935, -297.365, 5.02017, -814.816, 0.230244, 0.33239, 0.9175, 0.352806, 0.64323, 3, 455, 246, 34.3451, 0.120773, 1.32944, 1, 0, 0, -1.5002e-06, 47058
-7743.26, 500716, -277.025, 0.355658, -1088.28, 0.00205603, 0.490348, 1.03299, 0.34851, 0.655882, 0.0001, 45.5, 246, 37.3708, 0.143835, 0, 0, 0, 0, 2.03189e-05, 47060
-6436.97, 523003, -290.915, 0.369004, -1091.4, 0.00263333, 0.466727, 0.993198, 0.349787, 0.651995, 3, 91, 246, 37.3708, 0.143835, 0, 0, 1, 0, 5.24107e-05, 47060
-11291.7, 557448, -51.9211, 0.475278, -1148.63, -0.000709701, 0.342437, 1.03299, 0.34851, 0.655882, 0.0001, 45.5, 246, 25.1631, 0.0258403, 0, 0, 1, 0, 8.62639e-05, 47061
-11291.7, 557448, -51.9211, 0.475278, -1148.63, -0.000709701, 0.342437, 1.03299, 0.34851, 0.655882, 3, 45.5, 246, 25.1631, 0.0258403, 0, 0, 1, 0, -1.92244e-05, 47061
-10341.6, 580581, -58.7233, 0.492104, -1149.3, 0.000317592, 0.307318, 0.993198, 0.349787, 0.651995, 3, 91, 246, 25.1631, 0.0258403, 0, 0, 1, 0, -3.30134e-06, 47061
-11482.4, 194117, -165.65, 2.96495, -1078.3, -0.041986, 0.29847, 1.03299, 0.34851, 0.655882, 0.0001, 45.5, 246, 38.1727, 0.1524, 0, 0, 0, 0, -1.52197e-06, 47072
-11482.4, 194117, -165.65, 2.96495, -1078.3, -0.041986, 0.29847, 1.03299, 0.34851, 0.655882, 3, 45.5, 246, 38.1727, 0.1524, 0, 0, 0, 0, 1.12572e-05, 47072
-8667.59, 214555, -209.916, 3.20753, -1089.84, -0.000133897, 0.302333, 0.993198, 0.349787, 0.651995, 0.0001, 91, 246, 38.1727, 0.1524, 0, 0, 1, 0, -8.10968e-07, 47072
-8667.59, 214555, -209.916, 3.20753, -1089.84, -0.000133897, 0.302333, 0.993198, 0.349787, 0.651995, 3, 91, 246, 38.1727, 0.1524, 0, 0, 1, 0, -3.53274e-06, 47072
-5048.8, 97978.5, -218.067, 3.24393, -667.154, 0.0256202, 0.28439, 1.03299, 0.34851, 0.655882, 0.0001, 45.5, 246, 51.3916, 0.198642, 1.41324, 1, 1, 0, 2.63026e-06, 47074
-5048.8, 97978.5, -218.067, 3.24393, -667.154, 0.0256202, 0.28439, 1.03299, 0.34851, 0.655882, 3, 45.5, 246, 51.3916, 0.198642, 1.27717, 1, 1, 0, 1.17148e-05, 47074
-3132.26, 107110, -258.47, 3.54059, -693.805, 0.0764799, 0.296236, 0.993198, 0.349787, 0.651995, 0.0001, 91, 246, 51.3916, 0.198642, 1.5079, 1, 1, 0, -2.44879e-08, 47074
-3132.26, 107110, -258.47, 3.54059, -693.805, 0.0764799, 0.296236, 0.993198, 0.349787, 0.651995, 3, 91, 246, 51.3916, 0.198642, 1.38481, 1, 1, 0, -9.87165e-06, 47074
-648.357, 117929, -306.858, 3.89275, -733.418, 0.138826, 0.326089, 0.958125, 0.351078, 0.648177, 0.0001, 182, 246, 51.3916, 0.198642, 1.95085, 1, 1, 1, -1.38043e-05, 47074
-648.357, 117929, -306.858, 3.89275, -733.418, 0.138826, 0.326089, 0.958125, 0.351078, 0.648177, 3, 182, 246, 51.3916, 0.198642, 1.82453, 1, 1, 1, 1.24029e-05, 47074
3862.91, 136350, -388.57, 4.48327, -814.564, 0.247835, 0.398657, 0.9175, 0.352806, 0.64323, 0.0001, 455, 246, 51.3916, 0.198642, 0, 0, 0, 0, -1.60353e-05, 47074
3862.91, 136350, -388.57, 4.48327, -814.564, 0.247835, 0.398657, 0.9175, 0.352806, 0.64323, 3, 455, 246, 51.3916, 0.198642, 0, 0, 0, 0, 1.36883e-05, 47074
-7687.09, 459685, -300.876, 0.148279, -845.062, 0.0154376, 0.537325, 1.03299, 0.34851, 0.655882, 0.0001, 45.5, 246, 36.0928, 0.174045, 0, 0, 0, 0, 5.16597e-05, 47076
-10084.1, 107692, -72.9176, 2.55616, -616.439, 0.0136479, 0.265935, 1.03299, 0.34851, 0.655882, 0.0001, 45.5, 246, 23.1397, 0.0908484, 0, 0, 1, 0, 7.57313e-06, 47077
-10084.1, 107692, -72.9176, 2.55616, -616.439, 0.0136479, 0.265935, 1.03299, 0.34851, 0.655882, 3, 45.5, 246, 23.1397, 0.0908484, 0, 0, 1, 0, 7.48669e-06, 47077
-8967.33, 114294, -93.2513, 2.74883, -625.053, 0.0446463, 0.256368, 0.993198, 0.349787, 0.651995, 0.0001, 91, 246, 23.1397, 0.0908484, 0, 0, 1, 0, 1.19823e-05, 47077
-2711.07, 96598.1, -227.687, 2.84211, -793.664, 0.108755, 0.334663, 0.9175, 0.352806, 0.64323, 0.0001, 455, 246, 48.1327, 0.214063, 1.13475, 1, 1, 0, 2.16656e-07, 47082
-2711.07, 96598.1, -227.687, 2.84211, -793.664, 0.108755, 0.334663, 0.9175, 0.352806, 0.64323, 3, 455, 246, 48.1327, 0.214063, 1.14274, 1, 1, 0, -2.19632e-06, 47082
-6667.06, 801497, -385.133, 0.179297, -1063.29, 0.0918768, 0.515918, 1.03299, 0.34851, 0.655882, 0.0001, 45.5, 246, 37.9921, 0.12242, 0, 0, 0, 0, 4.38297e-05, 47088
-6667.06, 801497, -385.133, 0.179297, -1063.29, 0.0918768, 0.515918, 1.03299, 0.34851, 0.655882, 3, 45.5, 246, 37.9921, 0.12242, 0, 0, 0, 0, -7.32334e-05, 47088
-5242.87, 934565, -311.479, 0.111277, -1162.99, 0.0903409, 0.437215, 1.03299, 0.34851, 0.655882, 0.0001, 45.5, 246, 36.4765, 0.083376, 0, 0, 0, 0, 557.27, 47094
-5242.87, 934565, -311.479, 0.111277, -1162.99, 0.0903409, 0.437215, 1.03299, 0.34851, 0.655882, 3, 45.5, 246, 36.4765, 0.083376, 0, 0, 0, 0, 557.372, 47094
-11501.8, 328699, -413.086, 3.97831, -893.407, 0.875146, 0.373603, 0.993198, 0.349787, 0.651995, 0.0001, 91, 246, 43.9295, 0.187516, 1.08098, 1, 1, 0, 2.77016e-05, 47095
-10926.3, 104062, 15.167, 2.28237, -1177.76, -0.0218535, 0.267211, 1.03299, 0.34851, 0.655882, 0.0001, 45.5, 246, 14.7598, 0.0296287, 0, 0, 1, 0, 2.39486e-05, 47103
-10926.3, 104062, 15.167, 2.28237, -1177.76, -0.0218535, 0.267211, 1.03299, 0.34851, 0.655882, 3, 45.5, 246, 14.7598, 0.0296287, 0, 0, 1, 0, -1.46363e-06, 47103
-9981.76, 127863, -8.96439, 2.43675, -1175.72, 0.00259289, 0.251098, 0.993198, 0.349787, 0.651995, 0.0001, 91, 246, 14.7598, 0.0296287, 0, 0, 1, 0, 1.43936e-05, 47103
-9981.76, 127863, -8.96439, 2.43675, -1175.72, 0.00259289, 0.251098, 0.993198, 0.349787, 0.651995, 3, 91, 246, 14.7598, 0.0296287, 0, 0, 1, 0, -2.20332e-06, 47103
-7624.6, 495825, -318.511, 0.308044, -1040.44, 0.0706198, 0.540653, 1.03299, 0.34851, 0.655882, 0.0001, 45.5, 246, 39.2894, 0.167293, 0, 0, 0, 0, -1.6503e-05, 47113
-6211.3, 518827, -333.549, 0.32094, -1054.93, 0.0718559, 0.521548, 0.993198, 0.349787, 0.651995, 3, 91, 246, 39.2894, 0.167293, 0, 0, 1, 0, -2.59773e-05, 47113
-11544, 224455, -82.368, 1.63075, -1094.4, 0.0865453, 0.332377, 1.03299, 0.34851, 0.655882, 0.0001, 45.5, 246, 26.7692, 0.0885441, 0, 0, 1, 0, -6.13027e-06, 47115
-11544, 224455, -82.368, 1.63075, -1094.4, 0.0865453, 0.332377, 1.03299, 0.34851, 0.655882, 3, 45.5, 246, 26.7692, 0.0885441, 0, 0, 1, 0, 2.08656e-06, 47115
-8849.2, 195967, -147.493, 1.66918, -965.392, 0.955072, 0.349203, 0.993198, 0.349787, 0.651995, 0.0001, 91, 246, 30.6802, 0.141891, 0, 0, 1, 0, -5.04461e-05, 47123
-8652.6, 176568, -37.9112, 0.230035, -1142.6, 0.0588316, 0.350305, 1.03299, 0.34851, 0.655882, 0.0001, 45.5, 246, 19.5167, 0.0521719, 0, 0, 1, 0, 6.9905e-05, 47124
-8652.6, 176568, -37.9112, 0.230035, -1142.6, 0.0588316, 0.350305, 1.03299, 0.34851, 0.655882, 3, 45.5, 246, 19.5167, 0.0521719, 0, 0, 1, 0, 1.36661e-05, 47124
-10518.3, 136213, -61.9825, 1.92185, -693.268, -0.0162301, 0.307696, 1.03299, 0.34851, 0.655882, 0.0001, 45.5, 246, 21.1589, 0.0867345, 0, 0, 1, 0, -1.6549e-05, 47132
-10518.3, 136213, -61.9825, 1.92185, -693.268, -0.0162301, 0.307696, 1.03299, 0.34851, 0.655882, 3, 45.5, 246, 21.1589, 0.0867345, 0, 0, 1, 0, -8.06804e-07, 47132
-8926.26, 25468.6, 6.17852, 1.4272, -1020.7, -0.000666077, 0.322263, 1.03299, 0.34851, 0.655882, 0.0001, 45.5, 246, 9.15229, 0.0400194, 0, 0, 1, 0, -4.6865e-07, 47136
-8926.26, 25468.6, 6.17852, 1.4272, -1020.7, -0.000666077, 0.322263, 1.03299, 0.34851, 0.655882, 3, 45.5, 246, 9.15229, 0.0400194, 0, 0, 1, 0, -9.62529e-06, 47136
-11217.7, 325356, -118.016, 1.08453, -1112.97, 0.114932, 0.366531, 1.03299, 0.34851, 0.655882, 0.0001, 45.5, 246, 29.0774, 0.0908028, 0, 0, 0, 0, -1.5138e-05, 47137
-11217.7, 325356, -118.016, 1.08453, -1112.97, 0.114932, 0.366531, 1.03299, 0.34851, 0.655882, 3, 45.5, 246, 29.0774, 0.0908028, 0, 0, 0, 0, 4.12431e-07, 47137
-7290.35, 69431.3, -98.1333, 2.80102, -1072.99, 0.115085, 0.273731, 0.993198, 0.349787, 0.651995, 0.0001, 91, 246, 31.3764, 0.121096, 0, 0, 1, 0, -1.13548e-05, 47148
-9465.63, 489662, -447.504, 0.228803, -817.369, 0.413791, 0.725503, 1.03299, 0.34851, 0.655882, 3, 45.5, 246, 43.3625, 0.231541, 0, 0, 0, 0, 5.13546e-05, 47150
-8376.07, 316318, -187.317, 1.08835, -1196.89, 0.0117307, 0.395105, 0.993198, 0.349787, 0.651995, 0.0001, 91, 246, 35.2874, 0.142833, 0, 0, 1, 0, 1.8331e-06, 47151
-2817.44, 258529, -390.937, 4.03765, -904.982, 0.144294, 0.398726, 0.958125, 0.351078, 0.648177, 0.0001, 182, 246, 45.3167, 0.198428, 2.03598, 1, 0, 0, 5.05557e-07, 47155
-2817.44, 258529, -390.937, 4.03765, -904.982, 0.144294, 0.398726, 0.958125, 0.351078, 0.648177, 3, 182, 246, 45.3167, 0.198428, 1.87171, 1, 0, 0, -1.12517e-06, 47155
-5872.26, 77970.3, -160.963, 2.75157, -761.523, -0.0296305, 0.310492, 1.03299, 0.34851, 0.655882, 0.0001, 45.5, 246, 47.8923, 0.195563, 1.03977, 1, 1, 0, 5.59028e-06, 47158
-4690.24, 88527.9, -193.66, 2.96711, -773.388, 0.00625811, 0.309093, 0.993198, 0.349787, 0.651995, 0.0001, 91, 246, 47.8923, 0.195563, 1.01876, 1, 1, 0, -1.10724e-05, 47158
-3112.41, 100003, -231.512, 3.2135, -793.965, 0.0482545, 0.320576, 0.958125, 0.351078, 0.648177, 0.0001, 182, 246, 47.8923, 0.195563, 1.21354, 1, 1, 0, -1.225e-05, 47158
-3112.41, 100003, -231.512, 3.2135, -793.965, 0.0482545, 0.320576, 0.958125, 0.351078, 0.648177, 3, 182, 246, 47.8923, 0.195563, 1.04348, 1, 1, 0, -1.05921e-06, 47158
-229.525, 117469, -292.218, 3.60499, -838.762, 0.116937, 0.357222, 0.9175, 0.352806, 0.64323, 0.0001, 455, 246, 47.8923, 0.195563, 1.9798, 1, 0, 0, 9.17329e-06, 47158
-229.525, 117469, -292.218, 3.60499, -838.762, 0.116937, 0.357222, 0.9175, 0.352806, 0.64323, 3, 455, 246, 47.8923, 0.195563, 1.92697, 1, 0, 0, -4.53333e-06, 47158
-7406.8, 696513, -154.562, 0.230912, -1149.72, 0.122616, 0.337123, 0.993198, 0.349787, 0.651995, 0.0001, 91, 246, 29.7936, 0.0549158, 0, 0, 1, 0, 2.33269e-05, 47159
-4282.62, 110267, -264.773, 2.72701, -618.159, 0.719821, 0.382215, 1.03299, 0.34851, 0.655882, 0.0001, 45.5, 246, 57.0348, 0.247951, 1.61992, 1, 1, 0, -3.9348e-05, 47160
-4282.62, 110267, -264.773, 2.72701, -618.159, 0.719821, 0.382215, 1.03299, 0.34851, 0.655882, 3, 45.5, 246, 57.0348, 0.247951, 1.50441, 1, 1, 0, 2.23859e-05, 47160
-2180.13, 124189, -304.1, 3.0745, -722.645, 0.853839, 0.387155, 0.993198, 0.349787, 0.651995, 0.0001, 91, 246, 57.0348, 0.247951, 1.79, 1, 1, 0, -4.12026e-05, 47160
-2180.13, 124189, -304.1, 3.0745, -722.645, 0.853839, 0.387155, 0.993198, 0.349787, 0.651995, 3, 91, 246, 57.0348, 0.247951, 1.68579, 1, 1, 0, 4.86319e-05, 47160
671.147, 143704, -354.577, 3.51415, -869.294, 1.04202, 0.409969, 0.958125, 0.351078, 0.648177, 0.0001, 182, 246, 57.0348, 0.247951, 2.87183, 1, 1, 1, -219.133, 47160
671.147, 143704, -354.577, 3.51415, -869.294, 1.04202, 0.409969, 0.958125, 0.351078, 0.648177, 3, 182, 246, 57.0348, 0.247951, 2.70876, 1, 1, 1, -218.599, 47160
-8602.01, 110610, -49.6495, 0.249744, -996.322, 0.00595612, 0.364335, 1.03299, 0.34851, 0.655882, 0.0001, 45.5, 246, 21.5974, 0.117776, 0, 0, 1, 0, -6.38949e-05, 47161
-8602.01, 110610, -49.6495, 0.249744, -996.322, 0.00595612, 0.364335, 1.03299, 0.34851, 0.655882, 3, 45.5, 246, 21.5974, 0.117776, 0, 0, 1, 0, 3.49816e-05, 47161
-12221.8, 198839, -44.3465, 1.77082, -698.232, 0.288426, 0.301305, 1.03299, 0.34851, 0.655882, 3, 45.5, 246, 17.2925, 0.0532368, 0, 0, 1, 0, -3.58586e-05, 47177
-11282.6, 116009, -23.5526, 2.8313, -798.571, -0.0290596, 0.225681, 1.03299, 0.34851, 0.655882, 0.0001, 45.5, 246, 17.0143, 0.0499729, 0, 0, 1, 0, 7.17656e-06, 47186
-11282.6, 116009, -23.5526, 2.8313, -798.571, -0.0290596, 0.225681, 1.03299, 0.34851, 0.655882, 3, 45.5, 246, 17.0143, 0.0499729, 0, 0, 1, 0, -1.41663e-05, 47186
-6715.34, -10267.5, -25.7055, 3.10836, -1006.65, 0.797413, 0.222527, 1.03299, 0.34851, 0.655882, 0.0001, 45.5, 246, 24.7498, 0.0468169, 0, 0, 1, 0, 2.21106e-05, 47199
-6715.34, -10267.5, -25.7055, 3.10836, -1006.65, 0.797413, 0.222527, 1.03299, 0.34851, 0.655882, 3, 45.5, 246, 24.7498, 0.0468169, 0, 0, 1, 0, -7.2305e-06, 47199
-4540.75, 107785, -218.955, 5.18727, -1916.01, 1.80029, 0.345514, 0.9175, 0.352806, 0.64323, 0.0001, 455, 246, 24.7498, 0.0468169, 1.06256, 1, 1, 0, 1.47945e-05, 47199
-4540.75, 107785, -218.955, 5.18727, -1916.01, 1.80029, 0.345514, 0.9175, 0.352806, 0.64323, 3, 455, 246, 24.7498, 0.0468169, 1.06077, 1, 1, 0, -5.59354e-06, 47199
-11362.7, 468638, -25.1345, 0.681648, -949.923, 0.690564, 0.299805, 0.993198, 0.349787, 0.651995, 3, 91, 246, 17.8277, 0.0135555, 0, 0, 1, 0, 4.84624e-05, 47200
-7622.65, -13191.4, -9.41417, 2.55515, -708.73, -0.0187015, 0.270703, 1.03299, 0.34851, 0.655882, 0.0001, 45.5, 246, 15.4203, 0.0304064, 0, 0, 1, 1, -3.09123e-06, 47203
-7622.65, -13191.4, -9.41417, 2.55515, -708.73, -0.0187015, 0.270703, 1.03299, 0.34851, 0.655882, 3, 45.5, 246, 15.4203, 0.0304064, 0, 0, 1, 1, 5.03107e-06, 47203
-9496.88, 730654, -98.5142, 0.244744, -747.39, 0.539013, 0.315773, 0.993198, 0.349787, 0.651995, 0.0001, 91, 246, 18.9495, 0.0316918, 0, 0, 1, 0, 0.000164169, 47209
-10399.7, 216542, -266.172, 3.22604, -1105.21, -0.0241737, 0.377576, 1.03299, 0.34851, 0.655882, 3, 45.5, 246, 49.3731, 0.214057, 0, 0, 0, 0, -1.17506e-05, 47210
-1391.15, 265531, -395.073, 3.86791, -1176.35, 0.085987, 0.431957, 0.958125, 0.351078, 0.648177, 0.0001, 182, 246, 49.3731, 0.214057, 3.16575, 1, 0, 0, -2.61693e-06, 47210
-1391.15, 265531, -395.073, 3.86791, -1176.35, 0.085987, 0.431957, 0.958125, 0.351078, 0.648177, 3, 182, 246, 49.3731, 0.214057, 2.90794, 1, 0, 0, -1.06112e-05, 47210
-10273.9, 187720, -149.803, 1.97531, -1037.34, 0.0165735, 0.376214, 1.03299, 0.34851, 0.655882, 0.0001, 45.5, 246, 36.1902, 0.163884, 0, 0, 1, 0, -6.81435e-06, 47211
-10273.9, 187720, -149.803, 1.97531, -1037.34, 0.0165735, 0.376214, 1.03299, 0.34851, 0.655882, 3, 45.5, 246, 36.1902, 0.163884, 0, 0, 1, 0, 1.07622e-05, 47211
-8527.58, 207239, -178.876, 2.10718, -1050.38, 0.0349614, 0.361482, 0.993198, 0.349787, 0.651995, 0.0001, 91, 246, 36.1902, 0.163884, 0, 0, 1, 0, -1.06903e-05, 47211
-8527.58, 207239, -178.876, 2.10718, -1050.38, 0.0349614, 0.361482, 0.993198, 0.349787, 0.651995, 3, 91, 246, 36.1902, 0.163884, 0, 0, 1, 0, 8.40136e-06, 47211
-10470.3, 233230, -290.338, 2.7015, -1060.4, 0.319555, 0.464188, 1.03299, 0.34851, 0.655882, 3, 45.5, 246, 50.1277, 0.232824, 0, 0, 0, 0, 1.08664e-05, 47221
-1868.13, 293603, -407.395, 3.3108, -1252.21, 0.443407, 0.500155, 0.958125, 0.351078, 0.648177, 0.0001, 182, 246, 50.1277, 0.232824, 1.47478, 1, 0, 0, -2.01853e-05, 47221
-1868.13, 293603, -407.395, 3.3108, -1252.21, 0.443407, 0.500155, 0.958125, 0.351078, 0.648177, 3, 182, 246, 50.1277, 0.232824, 1.27497, 1, 0, 0, -2.00975e-05, 47221
-10369.6, 718341, -141.2, 0.269305, -643.418, 0.63232, 0.363353, 1.03299, 0.34851, 0.655882, 0.0001, 45.5, 246, 19.8324, 0.045136, 0, 0, 1, 0, 2.06513e-06, 47227
-10369.6, 718341, -141.2, 0.269305, -643.418, 0.63232, 0.363353, 1.03299, 0.34851, 0.655882, 3, 45.5, 246, 19.8324, 0.045136, 0, 0, 1, 0, -1.50783e-05, 47227
-9556.38, 752554, -147.441, 0.287926, -715.98, 0.702893, 0.329057, 0.993198, 0.349787, 0.651995, 3, 91, 246, 19.8324, 0.045136, 0, 0, 1, 0, 0.000201694, 47227
-12024.2, 535952, -51.0679, 0.593979, -1166.7, 0.017771, 0.340599, 1.03299, 0.34851, 0.655882, 0.0001, 45.5, 246, 25.3586, 0.0271238, 0, 0, 1, 0, 5.39875e-06, 47228
-12024.2, 535952, -51.0679, 0.593979, -1166.7, 0.017771, 0.340599, 1.03299, 0.34851, 0.655882, 3, 45.5, 246, 25.3586, 0.0271238, 0, 0, 1, 0, 3.62179e-05, 47228
-12945.8, 163979, -19.9457, 2.75465, -1069.8, -0.0358587, 0.230166, 1.03299, 0.34851, 0.655882, 0.0001, 45.5, 246, 20.2553, 0.0496592, 0, 0, 0, 0, 1.02439e-05, 47234
-12945.8, 163979, -19.9457, 2.75465, -1069.8, -0.0358587, 0.230166, 1.03299, 0.34851, 0.655882, 3, 45.5, 246, 20.2553, 0.0496592, 0, 0, 0, 0, -1.66486e-05, 47234
-7835.29, 60312.6, -84.1033, 2.69008, -842.78, 0.658625, 0.262684, 1.03299, 0.34851, 0.655882, 3, 45.5, 246, 31.6883, 0.112885, 0, 0, 1, 0, 1.28289e-05, 47245
-2728.64, 51075, -180.209, 3.06836, -711.938, 0.012915, 0.259289, 1.03299, 0.34851, 0.655882, 0.0001, 45.5, 246, 59.0437, 0.161999, 1.37184, 1, 1, 0, 4.82097e-06, 47252
-1653.45, 60883.9, -216.448, 3.33252, -732.6, 0.0580293, 0.263761, 0.993198, 0.349787, 0.651995, 0.0001, 91, 246, 59.0437, 0.161999, 1.52811, 1, 1, 0, 1.83797e-05, 47252
-1653.45, 60883.9, -216.448, 3.33252, -732.6, 0.0580293, 0.263761, 0.993198, 0.349787, 0.651995, 3, 91, 246, 59.0437, 0.161999, 1.3863, 1, 1, 0, -1.37021e-05, 47252
-165.619, 71924.5, -259.303, 3.64149, -764.373, 0.112466, 0.284073, 0.958125, 0.351078, 0.648177, 0.0001, 182, 246, 59.0437, 0.161999, 1.82891, 1, 1, 1, 1.05732e-05, 47252
-165.619, 71924.5, -259.303, 3.64149, -764.373, 0.112466, 0.284073, 0.958125, 0.351078, 0.648177, 3, 182, 246, 59.0437, 0.161999, 1.69238, 1, 1, 1, 6.66792e-06, 47252
2686.58, 89584.6, -330.253, 4.14875, -830.202, 0.205385, 0.338831, 0.9175, 0.352806, 0.64323, 0.0001, 455, 246, 59.0437, 0.161999, 3.14507, 1, 1, 1, 5.85219e-06, 47252
2686.58, 89584.6, -330.253, 4.14875, -830.202, 0.205385, 0.338831, 0.9175, 0.352806, 0.64323, 3, 455, 246, 59.0437, 0.161999, 3.0285, 1, 1, 1, -1.82125e-06, 47252
-4417.21, 106975, -218.018, 4.71374, -1792.83, 1.51076, 0.334638, 0.9175, 0.352806, 0.64323, 0.0001, 455, 246, 29.6241, 0.0396217, 1.06951, 1, 1, 0, 1.70996e-05, 47254
-4417.21, 106975, -218.018, 4.71374, -1792.83, 1.51076, 0.334638, 0.9175, 0.352806, 0.64323, 3, 455, 246, 29.6241, 0.0396217, 1.06834, 1, 1, 0, -4.36907e-05, 47254
-11297.1, 393607, -320.807, 1.17785, -1036.46, -0.00436216, 0.574933, 1.03299, 0.34851, 0.655882, 3, 45.5, 246, 43.802, 0.20767, 0, 0, 0, 0, -1.65474e-05, 47258
-10488.7, 264787, -242.216, 0.965219, -619.568, 0.387054, 0.516717, 1.03299, 0.34851, 0.655882, 0.0001, 45.5, 246, 36.8335, 0.213813, 0, 0, 1, 0, 4.38846e-05, 47262
-10488.7, 264787, -242.216, 0.965219, -619.568, 0.387054, 0.516717, 1.03299, 0.34851, 0.655882, 3, 45.5, 246, 36.8335, 0.213813, 0, 0, 1, 0, 1.44683e-05, 47262
-9048.28, 278725, -260.078, 1.03504, -666.987, 0.416944, 0.499483, 0.993198, 0.349787, 0.651995, 0.0001, 91, 246, 36.8335, 0.213813, 0, 0, 1, 0, 0.000106136, 47262
-9527.48, 552615, -252.547, 0.444459, -910.378, 0.512462, 0.441878, 1.03299, 0.34851, 0.655882, 0.0001, 45.5, 246, 31.5317, 0.108853, 0, 0, 0, 0, 2.11487e-05, 47263
-9527.48, 552615, -252.547, 0.444459, -910.378, 0.512462, 0.441878, 1.03299, 0.34851, 0.655882, 3, 45.5, 246, 31.5317, 0.108853, 0, 0, 0, 0, -4.18703e-05, 47263
-10034.4, 99261.2, -38.9506, 2.31191, -1018.84, 0.239537, 0.279208, 1.03299, 0.34851, 0.655882, 0.0001, 45.5, 246, 22.161, 0.0771143, 0, 0, 1, 0, -6.46743e-06, 47266
-10034.4, 99261.2, -38.9506, 2.31191, -1018.84, 0.239537, 0.279208, 1.03299, 0.34851, 0.655882, 3, 45.5, 246, 22.161, 0.0771143, 0, 0, 1, 0, -1.87039e-05, 47266
-12011.3, 192628, -8.15191, 1.64529, -995.115, 0.0280347, 0.302214, 1.03299, 0.34851, 0.655882, 0.0001, 45.5, 246, 16.6356, 0.0294098, 0, 0, 1, 0, -1.02344e-05, 47270
-12011.3, 192628, -8.15191, 1.64529, -995.115, 0.0280347, 0.302214, 1.03299, 0.34851, 0.655882, 3, 45.5, 246, 16.6356, 0.0294098, 0, 0, 1, 0, 3.39973e-05, 47270
-8934.21, 41465.7, -8.96485, 1.05066, -1056.63, 0.380043, 0.3348, 1.03299, 0.34851, 0.655882, 0.0001, 45.5, 246, 13.6494, 0.0606538, 0, 0, 1, 0, 3.25006e-05, 47274
-8934.21, 41465.7, -8.96485, 1.05066, -1056.63, 0.380043, 0.3348, 1.03299, 0.34851, 0.655882, 3, 45.5, 246, 13.6494, 0.0606538, 0, 0, 1, 0, 2.0044e-05, 47274
-5754.86, 579528, -323.237, 0.0869131, -936.75, 0.0489133, 0.487259, 0.993198, 0.349787, 0.651995, 0.0001, 91, 246, 35.411, 0.144783, 0, 0, 1, 0, 0.000158395, 47275
-4728.37, 598479, -333.833, 0.0897951, -944.817, 0.0493288, 0.468983, 0.958125, 0.351078, 0.648177, 0.0001, 182, 246, 35.411, 0.144783, 0, 0, 0, 0, -0.000124884, 47275
-6584.17, 111363, -209.64, 2.53941, -625.494, 0.506978, 0.362918, 1.03299, 0.34851, 0.655882, 0.0001, 45.5, 246, 48.1849, 0.219634, 1.16648, 1, 1, 0, -6.12055e-05, 47278
-4922.88, 123006, -241.869, 2.81455, -698.26, 0.585296, 0.360742, 0.993198, 0.349787, 0.651995, 0.0001, 91, 246, 48.1849, 0.219634, 1.11942, 1, 1, 0, 5.63192e-06, 47278
-2721.12, 138080, -281.615, 3.14545, -793.374, 0.687856, 0.372737, 0.958125, 0.351078, 0.648177, 0.0001, 182, 246, 48.1849, 0.219634, 1.39718, 1, 1, 0, -3.42158e-05, 47278
-2721.12, 138080, -281.615, 3.14545, -793.374, 0.687856, 0.372737, 0.958125, 0.351078, 0.648177, 3, 182, 246, 48.1849, 0.219634, 1.22198, 1, 1, 0, 2.39222e-05, 47278
-12923.3, 238807, 2.50745, 1.45451, -876.808, 0.417026, 0.306279, 1.03299, 0.34851, 0.655882, 3, 45.5, 246, 14.6755, 0.0135232, 0, 0, 1, 0, -8.51032e-05, 47284
-7439.28, 565152, -386.906, 0.304387, -1091.98, 0.420008, 0.585246, 1.03299, 0.34851, 0.655882, 0.0001, 45.5, 246, 41.7334, 0.168645, 0, 0, 0, 0, 3.79704e-05, 47294
-7439.28, 565152, -386.906, 0.304387, -1091.98, 0.420008, 0.585246, 1.03299, 0.34851, 0.655882, 3, 45.5, 246, 41.7334, 0.168645, 0, 0, 0, 0, 1.71759e-05, 47294
680.53, 294064, -402.169, 2.88362, -835.843, 0.0846641, 0.494413, 0.9175, 0.352806, 0.64323, 3, 455, 246, 42.5381, 0.214585, 1.78289, 1, 0, 0, -3.65401e-07, 47307
-8630.44, 156196, -246.322, 3.36815, -702.412, 0.332624, 0.288585, 1.03299, 0.34851, 0.655882, 0.0001, 45.5, 246, 45.6199, 0.189896, 1.16531, 1, 0, 0, 9.54246e-06, 47318
-5640.31, 169677, -292.913, 3.74997, -770.568, 0.409731, 0.305906, 0.993198, 0.349787, 0.651995, 0.0001, 91, 246, 45.6199, 0.189896, 1.22603, 1, 1, 0, -2.34332e-05, 47318
-5640.31, 169677, -292.913, 3.74997, -770.568, 0.409731, 0.305906, 0.993198, 0.349787, 0.651995, 3, 91, 246, 45.6199, 0.189896, 1.07474, 1, 1, 0, 3.93521e-05, 47318
-1714.54, 187199, -351.676, 4.22132, -863.397, 0.512591, 0.345675, 0.958125, 0.351078, 0.648177, 0.0001, 182, 246, 45.6199, 0.189896, 1.95592, 1, 0, 0, 1.56526e-05, 47318
-1714.54, 187199, -351.676, 4.22132, -863.397, 0.512591, 0.345675, 0.958125, 0.351078, 0.648177, 3, 182, 246, 45.6199, 0.189896, 1.80426, 1, 0, 0, 8.66748e-05, 47318
-9003.13, 227397, -73.4139, 2.1601, -958.548, 0.34242, 0.258312, 0.958125, 0.351078, 0.648177, 0.0001, 182, 246, 18.6397, 0.0499126, 0, 0, 1, 0, -1.62329e-05, 47320
-7677.22, 77976.3, -113.011, 2.01405, -979.311, -0.0126978, 0.361265, 1.03299, 0.34851, 0.655882, 3, 45.5, 246, 41.1233, 0.212424, 0, 0, 1, 0, 9.39868e-06, 47322
-6947.28, 94907.5, -138.928, 2.14583, -985.676, 0.00628881, 0.346117, 0.993198, 0.349787, 0.651995, 3, 91, 246, 41.1233, 0.212424, 0, 0, 1, 0, 1.0976e-05, 47322
1025.1, 216833, -383.085, 3.38722, -726.773, 0.111218, 0.460984, 0.9175, 0.352806, 0.64323, 0.0001, 455, 246, 44.1669, 0.219115, 2.67714, 1, 0, 0, 1.29541e-06, 47327
1025.1, 216833, -383.085, 3.38722, -726.773, 0.111218, 0.460984, 0.9175, 0.352806, 0.64323, 3, 455, 246, 44.1669, 0.219115, 2.70118, 1, 0, 0, 6.66758e-06, 47327
-10934.1, 253393, -296.092, 1.34782, -639.765, 0.807717, 0.565648, 1.03299, 0.34851, 0.655882, 3, 45.5, 246, 42.3968, 0.240655, 0, 0, 0, 0, -6.52316e-05, 47328
-10563.4, 154971, -115.465, 2.29416, -788.862, -0.0242061, 0.315811, 1.03299, 0.34851, 0.655882, 0.0001, 45.5, 246, 30.0795, 0.130894, 0, 0, 1, 0, -1.50157e-05, 47332
-10563.4, 154971, -115.465, 2.29416, -788.862, -0.0242061, 0.315811, 1.03299, 0.34851, 0.655882, 3, 45.5, 246, 30.0795, 0.130894, 0, 0, 1, 0, -4.89912e-06, 47332
-6640.84, 667648, -340.749, 0.0269289, -814.403, 0.631286, 0.490007, 1.03299, 0.34851, 0.655882, 0.0001, 45.5, 246, 31.7138, 0.118411, 0, 0, 0, 0, 1.90234e-05, 47335
-6640.84, 667648, -340.749, 0.0269289, -814.403, 0.631286, 0.490007, 1.03299, 0.34851, 0.655882, 3, 45.5, 246, 31.7138, 0.118411, 0, 0, 0, 0, -6.51391e-05, 47335
-5692.05, 706754, -351.629, 0.028762, -904.914, 0.701241, 0.465758, 0.993198, 0.349787, 0.651995, 0.0001, 91, 246, 31.7138, 0.118411, 0, 0, 1, 0, -4.38363e-05, 47335
-4623.03, 753737, -362.018, 0.0307724, -1017.98, 0.788633, 0.445637, 0.958125, 0.351078, 0.648177, 3, 182, 246, 31.7138, 0.118411, 0, 0, 0, 0, -8.67346e-05, 47335
-10404.8, 227673, -141.355, 1.4942, -1132.95, 0.0926749, 0.388273, 1.03299, 0.34851, 0.655882, 3, 45.5, 246, 33.9845, 0.142598, 0, 0, 0, 0, 8.41273e-06, 47336
-8844.97, 252075, -165.206, 1.58645, -1156.99, 0.104622, 0.366318, 0.993198, 0.349787, 0.651995, 3, 91, 246, 33.9845, 0.142598, 0, 0, 1, 0, 1.55446e-05, 47336
-10106.5, 86506.4, -22.5406, 2.69485, -1070.38, 0.255539, 0.244743, 1.03299, 0.34851, 0.655882, 0.0001, 45.5, 246, 20.4706, 0.0644504, 0, 0, 1, 0, 1.76118e-06, 47337
-10106.5, 86506.4, -22.5406, 2.69485, -1070.38, 0.255539, 0.244743, 1.03299, 0.34851, 0.655882, 3, 45.5, 246, 20.4706, 0.0644504, 0, 0, 1, 0, -1.132e-05, 47337
-10302.4, 284909, -213.587, 1.33149, -1115.48, 0.00243946, 0.465358, 1.03299, 0.34851, 0.655882, 0.0001, 45.5, 246, 39.6974, 0.182253, 0, 0, 0, 0, -7.65531e-06, 47338
-10302.4, 284909, -213.587, 1.33149, -1115.48, 0.00243946, 0.465358, 1.03299, 0.34851, 0.655882, 3, 45.5, 246, 39.6974, 0.182253, 0, 0, 0, 0, 1.18561e-05, 47338
-8475.44, 89005.1, -41.1255, 0.0503116, -1145.68, 0.2639, 0.360217, 1.03299, 0.34851, 0.655882, 0.0001, 45.5, 246, 20.2753, 0.116061, 0, 0, 1, 0, 2.77964e-05, 47340
-6818.78, 402750, -318.838, 0.633213, -1146.92, 0.0383029, 0.558995, 0.993198, 0.349787, 0.651995, 3, 91, 246, 43.546, 0.208114, 0, 0, 1, 0, -3.16371e-06, 47341
-9736.41, 576975, -278.803, 0.307011, -681.168, 0.654243, 0.456123, 1.03299, 0.34851, 0.655882, 0.0001, 45.5, 246, 27.8205, 0.111988, 0, 0, 0, 0, -1.23753e-05, 47348
-9736.41, 576975, -278.803, 0.307011, -681.168, 0.654243, 0.456123, 1.03299, 0.34851, 0.655882, 3, 45.5, 246, 27.8205, 0.111988, 0, 0, 0, 0, 5.4746e-05, 47348
-6965.91, -7759.01, -20.5785, 3.16337, -833.919, 0.210846, 0.217841, 1.03299, 0.34851, 0.655882, 3, 45.5, 246, 20.5332, 0.0404055, 0, 0, 1, 1, -9.34928e-06, 47349
-8644.82, 47706.5, -27.2483, 3.61126, -779.168, 0.0827842, 0.151976, 1.03299, 0.34851, 0.655882, 0.0001, 45.5, 246, 18.8009, 0.0529426, 0, 0, 1, 0, -2.04549e-06, 47353
-15198.3, 251791, -168.445, 3.01691, -831.351, 0.206483, 0.263501, 1.03299, 0.34851, 0.655882, 0.0001, 45.5, 246, 32.2601, 0.1236, 1.97246, 1, 0, 0, -6.37101e-06, 47354
-15198.3, 251791, -168.445, 3.01691, -831.351, 0.206483, 0.263501, 1.03299, 0.34851, 0.655882, 3, 45.5, 246, 32.2601, 0.1236, 1.95593, 1, 0, 0, 7.7478e-05, 47354
-7562.37, 498992, -343.123, 0.200941, -932.206, 0.361537, 0.561885, 1.03299, 0.34851, 0.655882, 0.0001, 45.5, 246, 38.3269, 0.17245, 0, 0, 0, 0, 0.000383205, 47367
-7562.37, 498992, -343.123, 0.200941, -932.206, 0.361537, 0.561885, 1.03299, 0.34851, 0.655882, 3, 45.5, 246, 38.3269, 0.17245, 0, 0, 0, 0, -2.92304e-05, 47367
-7123.14, 89898.4, -143.833, 2.40082, -949.66, -0.00857265, 0.351207, 1.03299, 0.34851, 0.655882, 3, 45.5, 246, 44.8724, 0.212989, 0, 0, 1, 0, -7.03335e-06, 47369
-1584.94, 148191, -270.283, 3.07814, -1019.81, 0.100965, 0.367429, 0.9175, 0.352806, 0.64323, 0.0001, 455, 246, 44.8724, 0.212989, 1.28595, 1, 0, 0, -1.61789e-05, 47369
-1584.94, 148191, -270.283, 3.07814, -1019.81, 0.100965, 0.367429, 0.9175, 0.352806, 0.64323, 3, 455, 246, 44.8724, 0.212989, 1.32938, 1, 0, 0, 1.9913e-05, 47369
-12302.5, 635078, -77.837, 0.456543, -689.895, 0.740936, 0.345155, 1.03299, 0.34851, 0.655882, 0.0001, 45.5, 246, 18.3733, 0.0284094, 0, 0, 1, 0, 4.12395e-05, 47375
-12302.5, 635078, -77.837, 0.456543, -689.895, 0.740936, 0.345155, 1.03299, 0.34851, 0.655882, 3, 45.5, 246, 18.3733, 0.0284094, 0, 0, 1, 0, 8.15505e-05, 47375
-12770.6, 146145, 2.35085, 2.81926, -885.738, -0.0352538, 0.217689, 1.03299, 0.34851, 0.655882, 0.0001, 45.5, 246, 14.6487, 0.0293535, 0, 0, 1, 0, 1.2646e-05, 47380
-12770.6, 146145, 2.35085, 2.81926, -885.738, -0.0352538, 0.217689, 1.03299, 0.34851, 0.655882, 3, 45.5, 246, 14.6487, 0.0293535, 0, 0, 1, 0, -9.20542e-06, 47380
-11891.6, 156596, -8.99128, 2.10939, -1017.1, -0.0208758, 0.277965, 1.03299, 0.34851, 0.655882, 0.0001, 45.5, 246, 17.1539, 0.0379907, 0, 0, 1, 0, -3.97183e-07, 47385
-11891.6, 156596, -8.99128, 2.10939, -1017.1, -0.0208758, 0.277965, 1.03299, 0.34851, 0.655882, 3, 45.5, 246, 17.1539, 0.0379907, 0, 0, 1, 0, 1.70953e-05, 47385
-8399.35, 90055.3, -100.987, 1.96702, -935.52, -0.0175478, 0.347727, 1.03299, 0.34851, 0.655882, 3, 45.5, 246, 35.3391, 0.173981, 0, 0, 1, 0, 5.66586e-06, 47388
-7833.16, -24607.4, 5.94938, 2.23053, -756.839, 0.437251, 0.290831, 1.03299, 0.34851, 0.655882, 0.0001, 45.5, 246, 8.80726, 0.0451891, 0, 0, 1, 0, -1.79335e-05, 47396
-8109.75, 87391.2, -125.852, 3.34451, -657.857, 0.0322543, 0.209495, 1.03299, 0.34851, 0.655882, 0.0001, 45.5, 246, 33.998, 0.11785, 0, 0, 1, 0, 3.87425e-06, 47397
-8109.75, 87391.2, -125.852, 3.34451, -657.857, 0.0322543, 0.209495, 1.03299, 0.34851, 0.655882, 3, 45.5, 246, 33.998, 0.11785, 0, 0, 1, 0, 6.92108e-06, 47397
-1560.05, 119749, -263.858, 4.63488, -774.706, 0.270428, 0.321959, 0.9175, 0.352806, 0.64323, 0.0001, 455, 246, 33.998, 0.11785, 1.04436, 1, 1, 0, 9.33628e-06, 47397
-1560.05, 119749, -263.858, 4.63488, -774.706, 0.270428, 0.321959, 0.9175, 0.352806, 0.64323, 3, 455, 246, 33.998, 0.11785, 1.03505, 1, 1, 0, 1.58506e-05, 47397
-6864.85, 411114, -317.788, 0.471686, -1049.39, 0.00466161, 0.557374, 0.993198, 0.349787, 0.651995, 0.0001, 91, 246, 41.9615, 0.205318, 0, 0, 1, 0, 0.000164282, 47399
-10668.7, 170679, -101.778, 1.92098, -900.231, -0.00969374, 0.334116, 1.03299, 0.34851, 0.655882, 0.0001, 45.5, 246, 28.6213, 0.121442, 0, 0, 1, 0, 8.81397e-06, 47401
-10668.7, 170679, -101.778, 1.92098, -900.231, -0.00969374, 0.334116, 1.03299, 0.34851, 0.655882, 3, 45.5, 246, 28.6213, 0.121442, 0, 0, 1, 0, -8.79603e-06, 47401
-6505.86, 360475, -468.976, 4.21282, -684.346, 0.130094, 0.444258, 0.958125, 0.351078, 0.648177, 0.0001, 182, 246, 41.166, 0.191347, 1.80166, 1, 0, 0, 4.49404e-05, 47410
-6505.86, 360475, -468.976, 4.21282, -684.346, 0.130094, 0.444258, 0.958125, 0.351078, 0.648177, 3, 182, 246, 41.166, 0.191347, 1.67388, 1, 0, 0, -4.02537e-05, 47410
-9259.66, 868392, -40.198, 1.22247, -983.424, 0.0306895, 0.230822, 0.9175, 0.352806, 0.64323, 3, 455, 246, 22.0802, 0.00589745, 0, 0, 1, 0, 2.20264e-05, 47415
-11289, 228001, -167.082, 1.85098, -924.486, 0.360252, 0.38278, 1.03299, 0.34851, 0.655882, 0.0001, 45.5, 246, 34.4447, 0.152269, 0, 0, 0, 0, -1.30091e-05, 47417
-11289, 228001, -167.082, 1.85098, -924.486, 0.360252, 0.38278, 1.03299, 0.34851, 0.655882, 3, 45.5, 246, 34.4447, 0.152269, 0, 0, 0, 0, 9.0584e-06, 47417
-6684.95, 273991, -226.381, 2.18496, -1071.38, 0.44679, 0.358669, 0.958125, 0.351078, 0.648177, 0.0001, 182, 246, 34.4447, 0.152269, 0, 0, 0, 0, 1.80747e-05, 47417
-6684.95, 273991, -226.381, 2.18496, -1071.38, 0.44679, 0.358669, 0.958125, 0.351078, 0.648177, 3, 182, 246, 34.4447, 0.152269, 0, 0, 0, 0, -4.59753e-06, 47417
-10178.4, 433320, -347.76, 0.518718, -781.798, -0.00122165, 0.615315, 1.03299, 0.34851, 0.655882, 0.0001, 45.5, 246, 39.9505, 0.212781, 0, 0, 0, 0, -3.55042e-05, 47420
-10178.4, 433320, -347.76, 0.518718, -781.798, -0.00122165, 0.615315, 1.03299, 0.34851, 0.655882, 3, 45.5, 246, 39.9505, 0.212781, 0, 0, 0, 0, 2.26348e-05, 47420
-6236.93, 459635, -386.244, 0.564491, -792.28, 0.00135489, 0.598495, 0.958125, 0.351078, 0.648177, 3, 182, 246, 39.9505, 0.212781, 0, 0, 0, 0, -3.27289e-06, 47420
-2011.16, 77996.6, -247.724, 4.35408, -754.989, 0.157774, 0.314114, 0.9175, 0.352806, 0.64323, 0.0001, 455, 246, 39.4521, 0.109844, 1.12703, 1, 1, 0, -5.19551e-06, 47423
-2011.16, 77996.6, -247.724, 4.35408, -754.989, 0.157774, 0.314114, 0.9175, 0.352806, 0.64323, 3, 455, 246, 39.4521, 0.109844, 1.08529, 1, 1, 0, 2.04831e-05, 47423
-7957.69, 102870, -138.676, 3.48827, -1043.71, 0.0750563, 0.220031, 1.03299, 0.34851, 0.655882, 0.0001, 45.5, 246, 39.4468, 0.143745, 0, 0, 0, 0, 1.09736e-05, 47425
-7957.69, 102870, -138.676, 3.48827, -1043.71, 0.0750563, 0.220031, 1.03299, 0.34851, 0.655882, 3, 45.5, 246, 39.4468, 0.143745, 0, 0, 0, 0, -1.18149e-05, 47425
-6080.99, 123193, -186.907, 3.82965, -1076.8, 0.135468, 0.236187, 0.993198, 0.349787, 0.651995, 3, 91, 246, 39.4468, 0.143745, 0, 0, 1, 0, 7.15181e-06, 47425
-193.647, 496815, -443.366, 1.79416, -1299.73, 1.41359, 0.55399, 0.9175, 0.352806, 0.64323, 3, 455, 246, 38.8956, 0.200661, 0, 0, 0, 0, -0.000116511, 47439
-11883.7, 248861, -377.965, 3.3744, -746.761, 0.264338, 0.450678, 1.03299, 0.34851, 0.655882, 0.0001, 45.5, 246, 52.8414, 0.244326, 1.16889, 1, 0, 0, 3.92061e-05, 47440
-11883.7, 248861, -377.965, 3.3744, -746.761, 0.264338, 0.450678, 1.03299, 0.34851, 0.655882, 3, 45.5, 246, 52.8414, 0.244326, 1.09686, 1, 0, 0, 5.23494e-05, 47440
-6681.13, 266001, -440.22, 3.75994, -821.955, 0.334118, 0.480978, 0.993198, 0.349787, 0.651995, 0.0001, 91, 246, 52.8414, 0.244326, 1.65992, 1, 1, 0, 4.75007e-05, 47440
-6681.13, 266001, -440.22, 3.75994, -821.955, 0.334118, 0.480978, 0.993198, 0.349787, 0.651995, 3, 91, 246, 52.8414, 0.244326, 1.58248, 1, 1, 0, 3.69225e-05, 47440
-6310.71, 515943, -349.395, 0.148561, -915.186, 0.126489, 0.54625, 0.993198, 0.349787, 0.651995, 0.0001, 91, 246, 37.8958, 0.177024, 0, 0, 1, 0, 1342.27, 47441
-5019.95, 536723, -362.284, 0.154547, -935.293, 0.129172, 0.533301, 0.958125, 0.351078, 0.648177, 0.0001, 182, 246, 37.8958, 0.177024, 0, 0, 0, 0, 1305.03, 47441
-8829.12, 243206, -215.264, 1.02862, -691.984, 0.338429, 0.454425, 0.993198, 0.349787, 0.651995, 0.0001, 91, 246, 35.206, 0.203021, 0, 0, 1, 0, -6.72103e-06, 47446
-10337.6, 735201, -95.0276, 0.284678, -951.398, 0.769443, 0.349725, 1.03299, 0.34851, 0.655882, 0.0001, 45.5, 246, 24.5745, 0.0291078, 0, 0, 1, 0, 9.82266e-05, 47450
-10337.6, 735201, -95.0276, 0.284678, -951.398, 0.769443, 0.349725, 1.03299, 0.34851, 0.655882, 3, 45.5, 246, 24.5745, 0.0291078, 0, 0, 1, 0, -0.000121998, 47450
-9531.31, 786290, -100.762, 0.306822, -1083.94, 0.876384, 0.314468, 0.993198, 0.349787, 0.651995, 3, 91, 246, 24.5745, 0.0291078, 0, 0, 1, 0, 1.82717e-05, 47450
-11554.7, 370536, -316.724, 0.770107, -597.706, 0.122933, 0.586534, 1.03299, 0.34851, 0.655882, 0.0001, 45.5, 246, 37.3627, 0.215601, 0, 0, 0, 0, -2.49965e-05, 47452
-11554.7, 370536, -316.724, 0.770107, -597.706, 0.122933, 0.586534, 1.03299, 0.34851, 0.655882, 3, 45.5, 246, 37.3627, 0.215601, 0, 0, 0, 0, 1.7391e-05, 47452
-7583.88, 444128, -257.709, 0.294122, -877.235, 0.777006, 0.444372, 0.993198, 0.349787, 0.651995, 0.0001, 91, 246, 31.2711, 0.14025, 0, 0, 1, 0, -1.27258e-05, 47460
-3339.56, 336817, -442.265, 3.80768, -1053.4, 0.488615, 0.463497, 0.958125, 0.351078, 0.648177, 0.0001, 182, 246, 45.6142, 0.202983, 2.16173, 1, 0, 0, -6.88789e-06, 47461
-3339.56, 336817, -442.265, 3.80768, -1053.4, 0.488615, 0.463497, 0.958125, 0.351078, 0.648177, 3, 182, 246, 45.6142, 0.202983, 2.04392, 1, 0, 0, 5.66571e-05, 47461
-11581.8, 182421, -33.894, 1.65775, -721.243, -0.0110684, 0.307084, 1.03299, 0.34851, 0.655882, 0.0001, 45.5, 246, 16.2194, 0.0490624, 0, 0, 1, 0, -8.04181e-06, 47463
-11581.8, 182421, -33.894, 1.65775, -721.243, -0.0110684, 0.307084, 1.03299, 0.34851, 0.655882, 3, 45.5, 246, 16.2194, 0.0490624, 0, 0, 1, 0, 2.22211e-06, 47463
-10451.2, 191218, -46.9249, 1.75178, -722.508, 0.00169162, 0.281594, 0.993198, 0.349787, 0.651995, 0.0001, 91, 246, 16.2194, 0.0490624, 0, 0, 1, 0, -8.40198e-06, 47463
-9879.22, 112951, -63.9878, 2.20732, -1016.38, -0.018748, 0.300081, 1.03299, 0.34851, 0.655882, 0.0001, 45.5, 246, 26.1376, 0.102539, 0, 0, 1, 0, 6.00106e-06, 47466
-9879.22, 112951, -63.9878, 2.20732, -1016.38, -0.018748, 0.300081, 1.03299, 0.34851, 0.655882, 3, 45.5, 246, 26.1376, 0.102539, 0, 0, 1, 0, -1.1458e-05, 47466
-10684.9, 229861, -285.417, 2.59357, -937.091, 0.326884, 0.461525, 1.03299, 0.34851, 0.655882, 0.0001, 45.5, 246, 48.2933, 0.229869, 0, 0, 0, 0, 1.54984e-05, 47469
-10684.9, 229861, -285.417, 2.59357, -937.091, 0.326884, 0.461525, 1.03299, 0.34851, 0.655882, 3, 45.5, 246, 48.2933, 0.229869, 0, 0, 0, 0, 2.02504e-05, 47469
-2740.41, 279743, -389.983, 3.16528, -1110.9, 0.445449, 0.490033, 0.958125, 0.351078, 0.648177, 0.0001, 182, 246, 48.2933, 0.229869, 1.10084, 1, 0, 0, 2.75279e-06, 47469
5518.04, 328032, -487.911, 3.67989, -1288.41, 0.56594, 0.544223, 0.9175, 0.352806, 0.64323, 0.0001, 455, 246, 48.2933, 0.229869, 0, 0, 0, 0, -4.53261e-06, 47469
5518.04, 328032, -487.911, 3.67989, -1288.41, 0.56594, 0.544223, 0.9175, 0.352806, 0.64323, 3, 455, 246, 48.2933, 0.229869, 0, 0, 0, 0, -1.84649e-05, 47469
-2891.09, 313906, -440.18, 3.53391, -985.256, 0.258003, 0.501991, 0.958125, 0.351078, 0.648177, 0.0001, 182, 246, 47.8268, 0.222627, 2.16528, 1, 0, 0, 8.32268e-06, 47470
-2891.09, 313906, -440.18, 3.53391, -985.256, 0.258003, 0.501991, 0.958125, 0.351078, 0.648177, 3, 182, 246, 47.8268, 0.222627, 2.00394, 1, 0, 0, -2.5022e-06, 47470
-5203.62, 98841.1, -136.391, 4.83904, -946.08, 0.825026, 0.295089, 0.9175, 0.352806, 0.64323, 0.0001, 455, 246, 16.2503, 0.0465594, 0, 0, 1, 0, -2.58064e-06, 47472
-5203.62, 98841.1, -136.391, 4.83904, -946.08, 0.825026, 0.295089, 0.9175, 0.352806, 0.64323, 3, 455, 246, 16.2503, 0.0465594, 0, 0, 1, 0, 1.58985e-05, 47472
-8430.66, -6092.19, -6.69041, 2.29427, -1179.57, 0.597042, 0.28223, 0.993198, 0.349787, 0.651995, 0.0001, 91, 246, 7.84731, 0.0653496, 0, 0, 1, 0, -9.34537e-06, 47480
-8430.66, -6092.19, -6.69041, 2.29427, -1179.57, 0.597042, 0.28223, 0.993198, 0.349787, 0.651995, 3, 91, 246, 7.84731, 0.0653496, 0, 0, 1, 0, -2.15709e-06, 47480
-6034.28, 317796, -402.728, 4.40692, -743.803, 0.167373, 0.359339, 0.958125, 0.351078, 0.648177, 0.0001, 182, 246, 39.077, 0.169656, 1.27795, 1, 0, 0, 7.45396e-05, 47482
-6034.28, 317796, -402.728, 4.40692, -743.803, 0.167373, 0.359339, 0.958125, 0.351078, 0.648177, 3, 182, 246, 39.077, 0.169656, 1.10223, 1, 0, 0, 3.34913e-05, 47482
-11135.2, 132786, -48.5436, 2.28167, -796.345, 0.753647, 0.27105, 1.03299, 0.34851, 0.655882, 0.0001, 45.5, 246, 20.4407, 0.066786, 0, 0, 1, 0, 1.68133e-06, 47495
-11135.2, 132786, -48.5436, 2.28167, -796.345, 0.753647, 0.27105, 1.03299, 0.34851, 0.655882, 3, 45.5, 246, 20.4407, 0.066786, 0, 0, 1, 0, 2.08458e-06, 47495
