-7539.63, 110662, -93.3151, 3.39724, -2513.17, 0.752773, 0.288852, 0.958125, 0.351078, 0.648177, 0.0001, 182, 246, 13.8253, 0.0880943, 0, 0, 1, 0, 7.40872e-06, 7001
-7539.63, 110662, -93.3151, 3.39724, -2513.17, 0.752773, 0.288852, 0.958125, 0.351078, 0.648177, 3, 182, 246, 13.8253, 0.0880943, 0, 0, 1, 0, 1.03794e-05, 7001
-8566.42, 177439, -54.9031, 0.542868, -3120.95, 0.522773, 0.292577, 0.958125, 0.351078, 0.648177, 0.0001, 182, 246, 18.7466, 0.0940391, 0, 0, 1, 0, -1.32416e-05, 7002
-8566.42, 177439, -54.9031, 0.542868, -3120.95, 0.522773, 0.292577, 0.958125, 0.351078, 0.648177, 3, 182, 246, 18.7466, 0.0940391, 0, 0, 1, 0, -1.6029e-05, 7002
-10649.8, 685934, -256.185, 1.31504, -2683.89, 0.129163, 0.418067, 1.03299, 0.34851, 0.655882, 0.0001, 45.5, 246, 56.6825, 0.0887136, 0, 0, 0, 0, 1.24214e-05, 7007
-9041.05, 270034, -124.429, 1.31377, -2748.93, 0.0590429, 0.378221, 1.03299, 0.34851, 0.655882, 0.0001, 45.5, 246, 41.592, 0.0902774, 0, 0, 0, 0, -3.91028e-06, 7008
-9041.05, 270034, -124.429, 1.31377, -2748.93, 0.0590429, 0.378221, 1.03299, 0.34851, 0.655882, 3, 45.5, 246, 41.592, 0.0902774, 0, 0, 0, 0, -1.33748e-06, 7008
-7077.25, 405556, -164.565, 1.38724, -2781.71, 0.0676814, 0.352992, 0.993198, 0.349787, 0.651995, 0.0001, 91, 246, 41.592, 0.0902774, 0, 0, 1, 0, 1.85389e-06, 7008
-7077.25, 405556, -164.565, 1.38724, -2781.71, 0.0676814, 0.352992, 0.993198, 0.349787, 0.651995, 3, 91, 246, 41.592, 0.0902774, 0, 0, 1, 0, -2.38516e-06, 7008
-62031.2, 3.3381e+06, -1296.78, 1.43373, -2684.16, 0.230431, 0.826639, 1.03299, 0.34851, 0.655882, 0.0001, 45.5, 246, 91.4322, 0.105146, 0, 0, 0, 0, -0.00029465, 7009
-3916.34, 163445, -218.975, 4.20199, -2162.59, 0.0882626, 0.311707, 0.958125, 0.351078, 0.648177, 0.0001, 182, 246, 35.3538, 0.142919, 0, 0, 0, 0, 1.47503e-05, 7014
-14023.1, 324152, 6.56176, 1.34232, -1871.41, 0.036245, 0.313439, 1.03299, 0.34851, 0.655882, 0.0001, 45.5, 246, 28.4286, 0.0189083, 0, 0, 0, 0, 2.07934e-06, 7015
-14023.1, 324152, 6.56176, 1.34232, -1871.41, 0.036245, 0.313439, 1.03299, 0.34851, 0.655882, 3, 45.5, 246, 28.4286, 0.0189083, 0, 0, 0, 0, -1.70943e-05, 7015
-12610.2, 486506, -442.445, 1.81502, -1567.56, -0.0151057, 0.696501, 1.03299, 0.34851, 0.655882, 3, 45.5, 246, 56.6457, 0.229847, 0, 0, 0, 0, 6.45448e-06, 7016
-8269.9, 280423, -354.577, 2.83309, -2535.24, 0.462, 0.621158, 1.03299, 0.34851, 0.655882, 0.0001, 45.5, 246, 61.6944, 0.244118, 1.14325, 1, 0, 0, -1.81171e-05, 7019
-2452.18, 415619, -459.721, 3.17339, -2776.87, 0.541033, 0.651166, 0.993198, 0.349787, 0.651995, 0.0001, 91, 246, 61.6944, 0.244118, 0, 0, 1, 0, -3.07478e-06, 7019
-2452.18, 415619, -459.721, 3.17339, -2776.87, 0.541033, 0.651166, 0.993198, 0.349787, 0.651995, 3, 91, 246, 61.6944, 0.244118, 0, 0, 1, 0, 1.76705e-05, 7019
-2763.02, 1.13199e+06, -288.689, 0.200685, -1882.88, 0.0818929, 0.409485, 1.03299, 0.34851, 0.655882, 0.0001, 45.5, 246, 50.0297, 0.0614639, 0, 0, 0, 0, 4.22173e-05, 7022
-2763.02, 1.13199e+06, -288.689, 0.200685, -1882.88, 0.0818929, 0.409485, 1.03299, 0.34851, 0.655882, 3, 45.5, 246, 50.0297, 0.0614639, 0, 0, 0, 0, 9.53529e-06, 7022
-27943.8, 2.51479e+06, -1177.99, 0.831599, -2161.42, 0.176845, 0.859422, 1.03299, 0.34851, 0.655882, 3, 45.5, 246, 75.6004, 0.122598, 0, 0, 0, 0, 3.78749e-05, 7026
-5462.1, 529215, -184.104, 0.525851, -2712.01, 0.134779, 0.391322, 1.03299, 0.34851, 0.655882, 0.0001, 45.5, 246, 49.501, 0.0700482, 0, 0, 0, 0, -2.27988e-05, 7028
-5462.1, 529215, -184.104, 0.525851, -2712.01, 0.134779, 0.391322, 1.03299, 0.34851, 0.655882, 3, 45.5, 246, 49.501, 0.0700482, 0, 0, 0, 0, -5.71298e-05, 7028
-3850.74, 666225, -204.247, 0.549668, -2774.08, 0.139009, 0.360123, 0.993198, 0.349787, 0.651995, 3, 91, 246, 49.501, 0.0700482, 0, 0, 1, 0, -8.1535e-05, 7028
-6755.59, 228918, -122.716, 2.55205, -2627.94, 0.208176, 0.296814, 0.958125, 0.351078, 0.648177, 0.0001, 182, 246, 23.6106, 0.093563, 0, 0, 0, 0, 5.86177e-06, 7030
-6755.59, 228918, -122.716, 2.55205, -2627.94, 0.208176, 0.296814, 0.958125, 0.351078, 0.648177, 3, 182, 246, 23.6106, 0.093563, 0, 0, 0, 0, -2.4804e-05, 7030
-45320.5, 1.09906e+06, -651.548, 3.31417, -2165.21, 0.0206135, 0.615764, 1.03299, 0.34851, 0.655882, 3, 45.5, 246, 69.3802, 0.164866, 0, 0, 0, 0, 3.65809e-06, 7034
-6480.05, 278610, -179.954, 0.95399, -2973.56, 0.0867274, 0.414061, 0.993198, 0.349787, 0.651995, 3, 91, 246, 39.1737, 0.154673, 0, 0, 1, 0, 3.09437e-05, 7035
-4751.05, 438581, -214.272, 1.0013, -3020.98, 0.0921863, 0.394152, 0.958125, 0.351078, 0.648177, 0.0001, 182, 246, 39.1737, 0.154673, 0, 0, 0, 0, -3.42387e-05, 7035
-4751.05, 438581, -214.272, 1.0013, -3020.98, 0.0921863, 0.394152, 0.958125, 0.351078, 0.648177, 3, 182, 246, 39.1737, 0.154673, 0, 0, 0, 0, -6.48322e-05, 7035
-28859.7, 2.91403e+06, -941.115, 1.12348, -2725.52, 0.00652504, 0.639639, 1.03299, 0.34851, 0.655882, 3, 45.5, 246, 87.4249, 0.0878603, 0, 0, 0, 0, 3.56941e-05, 7036
-4345.35, 262141, -306.056, 3.39335, -2708.42, 0.166212, 0.474897, 0.993198, 0.349787, 0.651995, 0.0001, 91, 246, 51.9421, 0.225139, 0, 0, 1, 0, -8.29321e-06, 7040
-4345.35, 262141, -306.056, 3.39335, -2708.42, 0.166212, 0.474897, 0.993198, 0.349787, 0.651995, 3, 91, 246, 51.9421, 0.225139, 0, 0, 1, 0, -4.79322e-06, 7040
1985.76, 402068, -426.096, 3.75726, -2828.45, 0.228309, 0.513786, 0.958125, 0.351078, 0.648177, 0.0001, 182, 246, 51.9421, 0.225139, 0, 0, 0, 0, -1.11723e-06, 7040
1985.76, 402068, -426.096, 3.75726, -2828.45, 0.228309, 0.513786, 0.958125, 0.351078, 0.648177, 3, 182, 246, 51.9421, 0.225139, 0, 0, 0, 0, -1.10023e-05, 7040
-6695.24, 197571, -130.037, 1.88231, -2669.34, 0.0296919, 0.328015, 0.958125, 0.351078, 0.648177, 0.0001, 182, 246, 37.8349, 0.183085, 0, 0, 1, 0, -4.32367e-05, 7041
-6695.24, 197571, -130.037, 1.88231, -2669.34, 0.0296919, 0.328015, 0.958125, 0.351078, 0.648177, 3, 182, 246, 37.8349, 0.183085, 0, 0, 0, 0, -1.56201e-05, 7041
-20316.4, 2.52564e+06, -925.976, 0.809534, -2219.07, -0.00248993, 0.674541, 1.03299, 0.34851, 0.655882, 3, 45.5, 246, 74.0895, 0.098286, 0, 0, 0, 0, 7.67138e-06, 7042
-10134.5, 254448, -127.511, 1.6219, -2104.48, -0.0122669, 0.375934, 1.03299, 0.34851, 0.655882, 0.0001, 45.5, 246, 39.4374, 0.112948, 0, 0, 0, 0, 2.94479e-05, 7045
-10134.5, 254448, -127.511, 1.6219, -2104.48, -0.0122669, 0.375934, 1.03299, 0.34851, 0.655882, 3, 45.5, 246, 39.4374, 0.112948, 0, 0, 0, 0, -7.93482e-06, 7045
-8044.47, 332351, -166.674, 1.71589, -2108.86, -3.59205e-05, 0.354902, 0.993198, 0.349787, 0.651995, 0.0001, 91, 246, 39.4374, 0.112948, 0, 0, 1, 0, -3.07762e-05, 7045
-8044.47, 332351, -166.674, 1.71589, -2108.86, -3.59205e-05, 0.354902, 0.993198, 0.349787, 0.651995, 3, 91, 246, 39.4374, 0.112948, 0, 0, 1, 0, -7.05832e-06, 7045
-5016.15, 411352, -209.96, 1.81542, -2119.84, 0.0136533, 0.340437, 0.958125, 0.351078, 0.648177, 0.0001, 182, 246, 39.4374, 0.112948, 0, 0, 0, 0, -1.95442e-05, 7045
-5016.15, 411352, -209.96, 1.81542, -2119.84, 0.0136533, 0.340437, 0.958125, 0.351078, 0.648177, 3, 182, 246, 39.4374, 0.112948, 0, 0, 0, 0, -4.78344e-06, 7045
-13262.4, -265124, -0.661892, 1.48305, -2126.96, 0.367088, 0.433638, 1.03299, 0.34851, 0.655882, 0.0001, 45.5, 246, -40.694, 0.208829, 0, 0, 0, 0, -5.04153e-05, 7059
-13262.4, -265124, -0.661892, 1.48305, -2126.96, 0.367088, 0.433638, 1.03299, 0.34851, 0.655882, 3, 45.5, 246, -40.694, 0.208829, 0, 0, 0, 0, 9.31931e-06, 7059
-15199.3, -185680, -31.1868, 1.60044, -2260.47, 0.400764, 0.415361, 0.993198, 0.349787, 0.651995, 0.0001, 91, 246, -40.694, 0.208829, 0, 0, 1, 0, -1.19132e-05, 7059
-9303.19, 476261, -138.067, 0.807283, -2214.62, 0.841485, 0.368757, 1.03299, 0.34851, 0.655882, 3, 45.5, 246, 43.7952, 0.0619199, 0, 0, 0, 0, 1.13267e-05, 7060
-10955, 345418, -320.308, 2.13073, -1729.51, 0.603675, 0.538513, 1.03299, 0.34851, 0.655882, 0.0001, 45.5, 246, 52.8759, 0.20348, 0, 0, 0, 0, -1.43907e-05, 7063
-10955, 345418, -320.308, 2.13073, -1729.51, 0.603675, 0.538513, 1.03299, 0.34851, 0.655882, 3, 45.5, 246, 52.8759, 0.20348, 0, 0, 0, 0, -1.39575e-05, 7063
-13400.8, 339200, -139.139, 2.19386, -2230.29, 0.157495, 0.344106, 1.03299, 0.34851, 0.655882, 0.0001, 45.5, 246, 43.5063, 0.102073, 0, 0, 0, 0, -1.01053e-05, 7064
-13400.8, 339200, -139.139, 2.19386, -2230.29, 0.157495, 0.344106, 1.03299, 0.34851, 0.655882, 3, 45.5, 246, 43.5063, 0.102073, 0, 0, 0, 0, -2.74172e-05, 7064
-7583.69, 315681, -111.403, 0.991389, -2712.57, 0.000260868, 0.335096, 0.993198, 0.349787, 0.651995, 0.0001, 91, 246, 34.7718, 0.0763042, 0, 0, 1, 0, -1.76639e-05, 7065
-7583.69, 315681, -111.403, 0.991389, -2712.57, 0.000260868, 0.335096, 0.993198, 0.349787, 0.651995, 3, 91, 246, 34.7718, 0.0763042, 0, 0, 1, 0, 1.7531e-05, 7065
-5917.11, 445269, -140.845, 1.03422, -2716.99, 0.004765, 0.309777, 0.958125, 0.351078, 0.648177, 0.0001, 182, 246, 34.7718, 0.0763042, 0, 0, 0, 0, -2.43082e-05, 7065
-5917.11, 445269, -140.845, 1.03422, -2716.99, 0.004765, 0.309777, 0.958125, 0.351078, 0.648177, 3, 182, 246, 34.7718, 0.0763042, 0, 0, 0, 0, -0.000116469, 7065
-2719.82, 363297, -265.428, 0.0178173, -2319.59, 0.14587, 0.493406, 1.03299, 0.34851, 0.655882, 0.0001, 45.5, 246, 48.1564, 0.151058, 0, 0, 0, 0, 2.64481e-06, 7066
-2719.82, 363297, -265.428, 0.0178173, -2319.59, 0.14587, 0.493406, 1.03299, 0.34851, 0.655882, 3, 45.5, 246, 48.1564, 0.151058, 0, 0, 0, 0, -0.000104841, 7066
-2121.74, 464493, -274.097, 0.018517, -2374.45, 0.149313, 0.46946, 0.993198, 0.349787, 0.651995, 0.0001, 91, 246, 48.1564, 0.151058, 0, 0, 1, 0, 5.42715e-05, 7066
-2121.74, 464493, -274.097, 0.018517, -2374.45, 0.149313, 0.46946, 0.993198, 0.349787, 0.651995, 3, 91, 246, 48.1564, 0.151058, 0, 0, 1, 0, 9.85103e-06, 7066
-29357.7, 853127, -676.324, 3.26204, -2260.37, -0.047375, 0.785494, 1.03299, 0.34851, 0.655882, 3, 45.5, 246, 72.6763, 0.210132, 0, 0, 0, 0, -4.50659e-06, 7071
-6511.17, 554441, -221.189, 0.42765, -1689.94, 0.339177, 0.418418, 1.03299, 0.34851, 0.655882, 0.0001, 45.5, 246, 41.9631, 0.0928608, 0, 0, 0, 0, 2.13672e-05, 7073
-8900.96, -130018, -21.4732, 0.484905, -2174.72, 0.407999, 0.371929, 1.03299, 0.34851, 0.655882, 0.0001, 45.5, 246, 13.0779, 0.203677, 0, 0, 1, 0, -1.25862e-06, 7074
-8900.96, -130018, -21.4732, 0.484905, -2174.72, 0.407999, 0.371929, 1.03299, 0.34851, 0.655882, 3, 45.5, 246, 13.0779, 0.203677, 0, 0, 1, 0, -2.62254e-05, 7074
-25895.6, 1.83212e+06, -1100.96, 1.24515, -2374.8, 0.804591, 0.902924, 1.03299, 0.34851, 0.655882, 3, 45.5, 246, 78.1523, 0.140896, 0, 0, 0, 0, -0.000190554, 7076
-41400.5, 2.90121e+06, -710.295, 1.27156, -2653.33, -0.00372055, 0.504207, 1.03299, 0.34851, 0.655882, 3, 45.5, 246, 83.2301, 0.0680145, 0, 0, 0, 0, 1.34177e-05, 7077
-50426.3, 1.86944e+06, -1112.95, 1.90616, -2278.25, 0.68098, 0.925528, 1.03299, 0.34851, 0.655882, 3, 45.5, 246, 77.769, 0.148974, 0, 0, 0, 0, -1.46214e-05, 7082
-9098.18, 154826, -48.6964, 2.57333, -2351.87, 0.0198108, 0.274074, 0.993198, 0.349787, 0.651995, 0.0001, 91, 246, 24.732, 0.0718486, 0, 0, 1, 0, -3.50638e-05, 7083
-6838.34, 252725, -109.437, 2.76475, -2370.5, 0.0512576, 0.272345, 0.958125, 0.351078, 0.648177, 0.0001, 182, 246, 24.732, 0.0718486, 0, 0, 0, 0, -1.73417e-05, 7083
-6838.34, 252725, -109.437, 2.76475, -2370.5, 0.0512576, 0.272345, 0.958125, 0.351078, 0.648177, 3, 182, 246, 24.732, 0.0718486, 0, 0, 0, 0, -1.18606e-06, 7083
-7716.19, 247762, -70.1464, 1.82203, -2653.44, 0.0151492, 0.279692, 0.958125, 0.351078, 0.648177, 0.0001, 182, 246, 18.8809, 0.0544523, 0, 0, 1, 0, 9.45518e-06, 7085
-7716.19, 247762, -70.1464, 1.82203, -2653.44, 0.0151492, 0.279692, 0.958125, 0.351078, 0.648177, 3, 182, 246, 18.8809, 0.0544523, 0, 0, 1, 0, 2.56086e-05, 7085
-8204.82, 168083, -88.7683, 0.126549, -1684.98, 0.004416, 0.363918, 0.993198, 0.349787, 0.651995, 0.0001, 91, 246, 29.8102, 0.162909, 0, 0, 1, 0, 0.000245388, 7088
-8204.82, 168083, -88.7683, 0.126549, -1684.98, 0.004416, 0.363918, 0.993198, 0.349787, 0.651995, 3, 91, 246, 29.8102, 0.162909, 0, 0, 1, 0, -0.000121874, 7088
-8288.82, 250065, -161.769, 3.72729, -2499.67, 0.000929877, 0.267365, 0.993198, 0.349787, 0.651995, 0.0001, 91, 246, 38.9341, 0.118827, 0, 0, 1, 0, -8.73299e-08, 7098
-8288.82, 250065, -161.769, 3.72729, -2499.67, 0.000929877, 0.267365, 0.993198, 0.349787, 0.651995, 3, 91, 246, 38.9341, 0.118827, 0, 0, 1, 0, -1.99763e-05, 7098
-2765.4, 362026, -267.573, 4.09328, -2534.96, 0.0681299, 0.302004, 0.958125, 0.351078, 0.648177, 0.0001, 182, 246, 38.9341, 0.118827, 0, 0, 0, 0, -7.98112e-06, 7098
-2765.4, 362026, -267.573, 4.09328, -2534.96, 0.0681299, 0.302004, 0.958125, 0.351078, 0.648177, 3, 182, 246, 38.9341, 0.118827, 0, 0, 0, 0, 6.1303e-06, 7098
-15461.4, 467732, -239.352, 2.43889, -2266.11, -0.019681, 0.396781, 1.03299, 0.34851, 0.655882, 0.0001, 45.5, 246, 51.496, 0.127707, 0, 0, 0, 0, -7.96489e-06, 7099
-15857.8, -371000, -23.8047, 0.348786, -2862.12, 0.74143, 0.282357, 0.958125, 0.351078, 0.648177, 0.0001, 182, 246, -133.412, 0.0283676, 0, 0, 1, 0, 2.03246e-05, 7100
-15857.8, -371000, -23.8047, 0.348786, -2862.12, 0.74143, 0.282357, 0.958125, 0.351078, 0.648177, 3, 182, 246, -133.412, 0.0283676, 0, 0, 1, 0, -2.98155e-05, 7100
-8058.41, 285130, -146.782, 1.95088, -2382.06, 0.375927, 0.340733, 0.993198, 0.349787, 0.651995, 0.0001, 91, 246, 37.4109, 0.110214, 0, 0, 1, 0, 3.74953e-07, 7102
-8058.41, 285130, -146.782, 1.95088, -2382.06, 0.375927, 0.340733, 0.993198, 0.349787, 0.651995, 3, 91, 246, 37.4109, 0.110214, 0, 0, 1, 0, -2.7102e-05, 7102
-4912.69, 398972, -201.165, 2.11608, -2545.75, 0.418956, 0.329871, 0.958125, 0.351078, 0.648177, 0.0001, 182, 246, 37.4109, 0.110214, 0, 0, 0, 0, 1.68351e-05, 7102
-4912.69, 398972, -201.165, 2.11608, -2545.75, 0.418956, 0.329871, 0.958125, 0.351078, 0.648177, 3, 182, 246, 37.4109, 0.110214, 0, 0, 0, 0, -1.27809e-05, 7102
-5070.35, 1.1933e+06, -120.01, 0.141343, -2540.84, 0.787219, 0.314749, 0.993198, 0.349787, 0.651995, 0.0001, 91, 246, 51.6676, 0.0223701, 0, 0, 1, 0, 3.45144e-05, 7106
-6849.94, 383217, -251.363, 0.733245, -1831.71, -0.00246922, 0.491794, 1.03299, 0.34851, 0.655882, 0.0001, 45.5, 246, 46.1083, 0.157301, 0, 0, 0, 0, -2.97894e-05, 7107
-6849.94, 383217, -251.363, 0.733245, -1831.71, -0.00246922, 0.491794, 1.03299, 0.34851, 0.655882, 3, 45.5, 246, 46.1083, 0.157301, 0, 0, 0, 0, 2.61098e-05, 7107
-5064.49, 443384, -274.89, 0.765855, -1836.55, -2.42405e-06, 0.470274, 0.993198, 0.349787, 0.651995, 3, 91, 246, 46.1083, 0.157301, 0, 0, 1, 0, 2.42297e-05, 7107
-1795.28, 224299, -290.911, 4.16503, -2407.35, 0.208938, 0.367438, 0.958125, 0.351078, 0.648177, 0.0001, 182, 246, 43.5167, 0.196347, 0, 0, 0, 0, 4.88512e-06, 7109
-1795.28, 224299, -290.911, 4.16503, -2407.35, 0.208938, 0.367438, 0.958125, 0.351078, 0.648177, 3, 182, 246, 43.5167, 0.196347, 0, 0, 0, 0, -7.28343e-06, 7109
-3037.82, 376524, -416.158, 3.1155, -2812.56, 0.689695, 0.60976, 0.993198, 0.349787, 0.651995, 0.0001, 91, 246, 59.1912, 0.242232, 0, 0, 1, 0, -6.25935e-06, 7110
-3037.82, 376524, -416.158, 3.1155, -2812.56, 0.689695, 0.60976, 0.993198, 0.349787, 0.651995, 3, 91, 246, 59.1912, 0.242232, 0, 0, 1, 0, -6.59928e-06, 7110
-9892.35, -331590, -6.23105, 0.306975, -2607.66, 0.0707693, 0.347127, 1.03299, 0.34851, 0.655882, 0.0001, 45.5, 246, -56.8382, 0.0362961, 0, 0, 1, 0, -1.00236e-05, 7115
-9892.35, -331590, -6.23105, 0.306975, -2607.66, 0.0707693, 0.347127, 1.03299, 0.34851, 0.655882, 3, 45.5, 246, -56.8382, 0.0362961, 0, 0, 1, 0, -2.07061e-05, 7115
-10534.3, -211920, -13.7431, 0.318124, -2637.33, 0.0720034, 0.311728, 0.993198, 0.349787, 0.651995, 0.0001, 91, 246, -56.8382, 0.0362961, 0, 0, 1, 0, -3.35648e-05, 7115
-10534.3, -211920, -13.7431, 0.318124, -2637.33, 0.0720034, 0.311728, 0.993198, 0.349787, 0.651995, 3, 91, 246, -56.8382, 0.0362961, 0, 0, 1, 0, 1.29568e-05, 7115
-7769.7, 123259, -93.906, 3.38504, -2502.89, 0.935123, 0.271516, 0.993198, 0.349787, 0.651995, 0.0001, 91, 246, 29.1964, 0.112428, 0, 0, 1, 0, -1.21697e-05, 7119
-7769.7, 123259, -93.906, 3.38504, -2502.89, 0.935123, 0.271516, 0.993198, 0.349787, 0.651995, 3, 91, 246, 29.1964, 0.112428, 0, 0, 1, 0, 6.52453e-06, 7119
-12457.5, -374756, -53.1233, 0.268128, -2943.87, 0.00118503, 0.365517, 1.03299, 0.34851, 0.655882, 0.0001, 45.5, 246, -48.2056, 0.0751909, 0, 0, 0, 0, 0.000284425, 7122
-12457.5, -374756, -53.1233, 0.268128, -2943.87, 0.00118503, 0.365517, 1.03299, 0.34851, 0.655882, 3, 45.5, 246, -48.2056, 0.0751909, 0, 0, 0, 0, -0.000208974, 7122
-7030.72, 211500, -119.752, 1.41987, -2740.26, 0.0376084, 0.333173, 0.958125, 0.351078, 0.648177, 0.0001, 182, 246, 36.822, 0.178849, 0, 0, 1, 0, 6.5393e-05, 7127
-7030.72, 211500, -119.752, 1.41987, -2740.26, 0.0376084, 0.333173, 0.958125, 0.351078, 0.648177, 3, 182, 246, 36.822, 0.178849, 0, 0, 1, 0, 1.47498e-05, 7127
-8956.75, -41484.4, -5.57977, 0.0869534, -2977.84, 0.0287707, 0.306015, 0.993198, 0.349787, 0.651995, 0.0001, 91, 246, -9.43559, 0.021254, 0, 0, 1, 0, -0.000111175, 7128
-8956.75, -41484.4, -5.57977, 0.0869534, -2977.84, 0.0287707, 0.306015, 0.993198, 0.349787, 0.651995, 3, 91, 246, -9.43559, 0.021254, 0, 0, 1, 0, -5.38865e-05, 7128
-9155.24, 114963, -8.05941, 0.0892972, -2991.46, 0.0289364, 0.274164, 0.958125, 0.351078, 0.648177, 0.0001, 182, 246, -9.43559, 0.021254, 0, 0, 1, 0, 0.000202806, 7128
-9155.24, 114963, -8.05941, 0.0892972, -2991.46, 0.0289364, 0.274164, 0.958125, 0.351078, 0.648177, 3, 182, 246, -9.43559, 0.021254, 0, 0, 1, 0, -7.61575e-05, 7128
-8514.1, 140832, -16.7807, 0.110334, -1998.83, 0.292782, 0.343224, 1.03299, 0.34851, 0.655882, 0.0001, 45.5, 246, 20.9455, 0.0191461, 0, 0, 1, 0, 2.47093e-05, 7130
-8514.1, 140832, -16.7807, 0.110334, -1998.83, 0.292782, 0.343224, 1.03299, 0.34851, 0.655882, 3, 45.5, 246, 20.9455, 0.0191461, 0, 0, 1, 0, -9.02509e-05, 7130
-8648.72, 217194, -19.3177, 0.115308, -2095.86, 0.307044, 0.307156, 0.993198, 0.349787, 0.651995, 0.0001, 91, 246, 20.9455, 0.0191461, 0, 0, 1, 0, -2.8346e-05, 7130
-8648.72, 217194, -19.3177, 0.115308, -2095.86, 0.307044, 0.307156, 0.993198, 0.349787, 0.651995, 3, 91, 246, 20.9455, 0.0191461, 0, 0, 1, 0, 7.10086e-05, 7130
-6707.42, 184331, -145.186, 2.34912, -2982.03, 0.0226988, 0.334146, 0.958125, 0.351078, 0.648177, 0.0001, 182, 246, 31.0907, 0.163312, 0, 0, 1, 0, 6.39994e-06, 7132
-11075.3, 374421, -332.519, 2.45652, -2125.77, 0.0837068, 0.544899, 1.03299, 0.34851, 0.655882, 0.0001, 45.5, 246, 56.7075, 0.200963, 0, 0, 0, 0, -9.09411e-06, 7133
-11075.3, 374421, -332.519, 2.45652, -2125.77, 0.0837068, 0.544899, 1.03299, 0.34851, 0.655882, 3, 45.5, 246, 56.7075, 0.200963, 0, 0, 0, 0, -3.92689e-06, 7133
-7855.31, 256924, -92.4271, 0.143056, -2961.05, 0.502275, 0.349895, 0.958125, 0.351078, 0.648177, 0.0001, 182, 246, 38.264, 0.206647, 0, 0, 1, 0, 8.24398e-07, 7139
-7855.31, 256924, -92.4271, 0.143056, -2961.05, 0.502275, 0.349895, 0.958125, 0.351078, 0.648177, 3, 182, 246, 38.264, 0.206647, 0, 0, 1, 0, -3.76032e-05, 7139
-8412.67, 202157, -153.46, 1.06033, -1703.74, 0.151414, 0.434674, 1.03299, 0.34851, 0.655882, 0.0001, 45.5, 246, 39.6327, 0.169532, 0, 0, 0, 0, -2.88949e-05, 7140
-8412.67, 202157, -153.46, 1.06033, -1703.74, 0.151414, 0.434674, 1.03299, 0.34851, 0.655882, 3, 45.5, 246, 39.6327, 0.169532, 0, 0, 0, 0, -8.34503e-06, 7140
-7301.61, 256741, -177.948, 1.12168, -1751.04, 0.160478, 0.411077, 0.993198, 0.349787, 0.651995, 0.0001, 91, 246, 39.6327, 0.169532, 0, 0, 1, 0, -1.24598e-05, 7140
-7301.61, 256741, -177.948, 1.12168, -1751.04, 0.160478, 0.411077, 0.993198, 0.349787, 0.651995, 3, 91, 246, 39.6327, 0.169532, 0, 0, 1, 0, -1.45888e-05, 7140
-52189.8, 2.20616e+06, -807.248, 1.82624, -2306.93, -0.0129648, 0.62214, 1.03299, 0.34851, 0.655882, 3, 45.5, 246, 74.9957, 0.104572, 0, 0, 0, 0, -4.39852e-05, 7143
-10300.5, 567618, -187.695, 1.03302, -2180.49, 0.0112738, 0.391477, 1.03299, 0.34851, 0.655882, 0.0001, 45.5, 246, 46.771, 0.0812748, 0, 0, 0, 0, 2.27396e-05, 7148
-10300.5, 567618, -187.695, 1.03302, -2180.49, 0.0112738, 0.391477, 1.03299, 0.34851, 0.655882, 3, 45.5, 246, 46.771, 0.0812748, 0, 0, 0, 0, 2.1658e-05, 7148
-12366.1, 214125, -148.954, 3.63947, -2116.86, -0.0437816, 0.258448, 1.03299, 0.34851, 0.655882, 0.0001, 45.5, 246, 44.9789, 0.143822, 0, 0, 0, 0, -1.46801e-05, 7149
-12366.1, 214125, -148.954, 3.63947, -2116.86, -0.0437816, 0.258448, 1.03299, 0.34851, 0.655882, 3, 45.5, 246, 44.9789, 0.143822, 0, 0, 0, 0, 7.58453e-06, 7149
-8051.6, 292980, -237.51, 3.98626, -2131.88, 0.0199814, 0.282233, 0.993198, 0.349787, 0.651995, 0.0001, 91, 246, 44.9789, 0.143822, 0, 0, 1, 0, -1.31108e-05, 7149
-8051.6, 292980, -237.51, 3.98626, -2131.88, 0.0199814, 0.282233, 0.993198, 0.349787, 0.651995, 3, 91, 246, 44.9789, 0.143822, 0, 0, 1, 0, 3.96713e-09, 7149
-1266.17, 376632, -345.018, 4.40756, -2183.51, 0.0976908, 0.328289, 0.958125, 0.351078, 0.648177, 0.0001, 182, 246, 44.9789, 0.143822, 0, 0, 0, 0, 6.61831e-06, 7149
-1266.17, 376632, -345.018, 4.40756, -2183.51, 0.0976908, 0.328289, 0.958125, 0.351078, 0.648177, 3, 182, 246, 44.9789, 0.143822, 0, 0, 0, 0, 9.90764e-06, 7149
-13394.6, 404112, -370.479, 2.39488, -1607.78, 0.263591, 0.570067, 1.03299, 0.34851, 0.655882, 0.0001, 45.5, 246, 54.5298, 0.211831, 0, 0, 0, 0, -1.52267e-06, 7154
-13394.6, 404112, -370.479, 2.39488, -1607.78, 0.263591, 0.570067, 1.03299, 0.34851, 0.655882, 3, 45.5, 246, 54.5298, 0.211831, 0, 0, 0, 0, -1.89565e-05, 7154
-12997.7, 320970, -125.95, 2.19577, -2415.75, 0.0876508, 0.340795, 1.03299, 0.34851, 0.655882, 3, 45.5, 246, 43.4967, 0.0981368, 0, 0, 0, 0, -1.9988e-06, 7155
-9346.07, 427310, -184.974, 2.35911, -2463.39, 0.111972, 0.328027, 0.993198, 0.349787, 0.651995, 0.0001, 91, 246, 43.4967, 0.0981368, 0, 0, 1, 0, -1.42939e-05, 7155
-9346.07, 427310, -184.974, 2.35911, -2463.39, 0.111972, 0.328027, 0.993198, 0.349787, 0.651995, 3, 91, 246, 43.4967, 0.0981368, 0, 0, 1, 0, 5.95523e-06, 7155
-4161.76, 236029, -210.609, 4.26029, -2686.02, 0.112702, 0.303085, 0.958125, 0.351078, 0.648177, 0.0001, 182, 246, 29.6778, 0.119406, 0, 0, 0, 0, 2.03014e-05, 7157
-4161.76, 236029, -210.609, 4.26029, -2686.02, 0.112702, 0.303085, 0.958125, 0.351078, 0.648177, 3, 182, 246, 29.6778, 0.119406, 0, 0, 0, 0, -7.6452e-06, 7157
-21424.1, 393926, -130.563, 3.60263, -2420.29, 0.063507, 0.212527, 1.03299, 0.34851, 0.655882, 0.0001, 45.5, 246, 47.7849, 0.100182, 0, 0, 0, 0, -1.25079e-05, 7158
-21424.1, 393926, -130.563, 3.60263, -2420.29, 0.063507, 0.212527, 1.03299, 0.34851, 0.655882, 3, 45.5, 246, 47.7849, 0.100182, 0, 0, 0, 0, -1.13798e-06, 7158
-55302.8, 1.25306e+06, -882.455, 3.48036, -2174.83, -0.0492364, 0.888947, 1.03299, 0.34851, 0.655882, 3, 45.5, 246, 76.6154, 0.201304, 0, 0, 0, 0, 2.13021e-06, 7159
-9493.62, 198801, -216.02, 2.99711, -1696.68, 0.0929586, 0.389886, 1.03299, 0.34851, 0.655882, 0.0001, 45.5, 246, 49.286, 0.201958, 0, 0, 0, 0, 2.63965e-05, 7161
-6062.58, 252837, -284.1, 3.27679, -1748.52, 0.138193, 0.401994, 0.993198, 0.349787, 0.651995, 0.0001, 91, 246, 49.286, 0.201958, 0, 0, 1, 0, -1.07267e-05, 7161
-6062.58, 252837, -284.1, 3.27679, -1748.52, 0.138193, 0.401994, 0.993198, 0.349787, 0.651995, 3, 91, 246, 49.286, 0.201958, 0, 0, 1, 0, -1.21001e-05, 7161
-27177.8, 415737, 59.2704, 3.08227, -2691.38, 0.200938, 0.171207, 1.03299, 0.34851, 0.655882, 0.0001, 45.5, 246, 40.6484, 0.0284426, 0, 0, 0, 0, -1.44085e-05, 7164
-27177.8, 415737, 59.2704, 3.08227, -2691.38, 0.200938, 0.171207, 1.03299, 0.34851, 0.655882, 3, 45.5, 246, 40.6484, 0.0284426, 0, 0, 0, 0, -7.31614e-06, 7164
-11502, -340260, -45.6817, 0.121118, -2577.98, 0.643495, 0.35223, 1.03299, 0.34851, 0.655882, 0.0001, 45.5, 246, -49.4878, 0.0460055, 0, 0, 1, 0, 3.21176e-06, 7166
-11502, -340260, -45.6817, 0.121118, -2577.98, 0.643495, 0.35223, 1.03299, 0.34851, 0.655882, 3, 45.5, 246, -49.4878, 0.0460055, 0, 0, 1, 0, 2.82982e-05, 7166
-11948.5, -220417, -50.0434, 0.129188, -2869.97, 0.716412, 0.316831, 0.993198, 0.349787, 0.651995, 0.0001, 91, 246, -49.4878, 0.0460055, 0, 0, 1, 0, -1.96862e-05, 7166
-5869.95, 419162, -396.649, 1.3735, -2459.53, 0.0463006, 0.669564, 1.03299, 0.34851, 0.655882, 3, 45.5, 246, 60.2757, 0.214075, 0, 0, 0, 0, 1.45735e-05, 7171
-12188.6, 423917, -390.776, 3.01135, -2491, -0.0437022, 0.581941, 1.03299, 0.34851, 0.655882, 0.0001, 45.5, 246, 62.796, 0.207174, 0, 0, 0, 0, -5.76241e-06, 7172
-12188.6, 423917, -390.776, 3.01135, -2491, -0.0437022, 0.581941, 1.03299, 0.34851, 0.655882, 3, 45.5, 246, 62.796, 0.207174, 0, 0, 0, 0, 2.70764e-06, 7172
-17865, 444448, -93.2247, 2.25112, -2534.27, 0.270837, 0.300738, 1.03299, 0.34851, 0.655882, 0.0001, 45.5, 246, 45.7083, 0.0674631, 0, 0, 0, 0, -4.18365e-06, 7174
-17865, 444448, -93.2247, 2.25112, -2534.27, 0.270837, 0.300738, 1.03299, 0.34851, 0.655882, 3, 45.5, 246, 45.7083, 0.0674631, 0, 0, 0, 0, 1.19752e-05, 7174
-51110.8, 1.26636e+06, -645.407, 3.25718, -2327.11, -0.0513582, 0.569819, 1.03299, 0.34851, 0.655882, 3, 45.5, 246, 71.7254, 0.146627, 0, 0, 0, 0, -1.41592e-06, 7177
-17653.3, -501944, -39.6551, 0.820995, -2810.56, 0.290351, 0.396405, 1.03299, 0.34851, 0.655882, 0.0001, 45.5, 246, -80.4167, 0.094556, 0, 0, 0, 0, -3.29692e-05, 7183
-17653.3, -501944, -39.6551, 0.820995, -2810.56, 0.290351, 0.396405, 1.03299, 0.34851, 0.655882, 3, 45.5, 246, -80.4167, 0.094556, 0, 0, 0, 0, -5.19164e-06, 7183
-19759, -363557, -63.1997, 0.870363, -2947.62, 0.307603, 0.367542, 0.993198, 0.349787, 0.651995, 0.0001, 91, 246, -80.4167, 0.094556, 0, 0, 1, 0, -1.40532e-05, 7183
-19759, -363557, -63.1997, 0.870363, -2947.62, 0.307603, 0.367542, 0.993198, 0.349787, 0.651995, 3, 91, 246, -80.4167, 0.094556, 0, 0, 1, 0, -5.62872e-06, 7183
-8113.11, 133125, -71.6483, 1.44515, -2509.63, 0.400969, 0.29961, 0.958125, 0.351078, 0.648177, 0.0001, 182, 246, 30.7223, 0.177193, 0, 0, 1, 0, 1.2664e-05, 7184
-8113.11, 133125, -71.6483, 1.44515, -2509.63, 0.400969, 0.29961, 0.958125, 0.351078, 0.648177, 3, 182, 246, 30.7223, 0.177193, 0, 0, 1, 0, -6.14925e-06, 7184
-9429.21, 382774, -98.7423, 0.731352, -1943.14, 0.0472864, 0.360585, 1.03299, 0.34851, 0.655882, 0.0001, 45.5, 246, 36.3599, 0.0621499, 0, 0, 0, 0, -5.13723e-06, 7187
-9429.21, 382774, -98.7423, 0.731352, -1943.14, 0.0472864, 0.360585, 1.03299, 0.34851, 0.655882, 3, 45.5, 246, 36.3599, 0.0621499, 0, 0, 0, 0, -3.85572e-05, 7187
-8198.2, 450801, -115.823, 0.763109, -1960.26, 0.0501123, 0.328269, 0.993198, 0.349787, 0.651995, 0.0001, 91, 246, 36.3599, 0.0621499, 0, 0, 1, 0, 2.11748e-05, 7187
-10270.7, 226106, -155.266, 2.23764, -2149.57, -5.58222e-05, 0.38366, 1.03299, 0.34851, 0.655882, 0.0001, 45.5, 246, 43.2365, 0.144624, 0, 0, 0, 0, 1.98338e-05, 7190
-10270.7, 226106, -155.266, 2.23764, -2149.57, -5.58222e-05, 0.38366, 1.03299, 0.34851, 0.655882, 3, 45.5, 246, 43.2365, 0.144624, 0, 0, 0, 0, 1.02511e-05, 7190
-7505.98, 308123, -211.619, 2.3975, -2164.65, 0.023532, 0.37498, 0.993198, 0.349787, 0.651995, 0.0001, 91, 246, 43.2365, 0.144624, 0, 0, 1, 0, 2.17728e-05, 7190
-7505.98, 308123, -211.619, 2.3975, -2164.65, 0.023532, 0.37498, 0.993198, 0.349787, 0.651995, 3, 91, 246, 43.2365, 0.144624, 0, 0, 1, 0, 1.29983e-05, 7190
-3302.9, 392883, -275.994, 2.57475, -2193.27, 0.0508621, 0.375854, 0.958125, 0.351078, 0.648177, 0.0001, 182, 246, 43.2365, 0.144624, 0, 0, 0, 0, 2.16636e-05, 7190
-3302.9, 392883, -275.994, 2.57475, -2193.27, 0.0508621, 0.375854, 0.958125, 0.351078, 0.648177, 3, 182, 246, 43.2365, 0.144624, 0, 0, 0, 0, 2.84114e-05, 7190
-8911.4, 241674, -225.627, 1.27019, -1369.29, 0.712118, 0.501802, 1.03299, 0.34851, 0.655882, 0.0001, 45.5, 246, 44.6555, 0.210109, 0, 0, 0, 0, -2.87082e-06, 7194
-7101.76, 290454, -255.679, 1.39558, -1552.85, 0.811197, 0.486736, 0.993198, 0.349787, 0.651995, 0.0001, 91, 246, 44.6555, 0.210109, 0, 0, 1, 0, -2.95059e-05, 7194
-11245.3, 201107, -94.2785, 2.33624, -2233.33, 0.146293, 0.326645, 1.03299, 0.34851, 0.655882, 0.0001, 45.5, 246, 38.1886, 0.107751, 0, 0, 0, 0, 1.43143e-05, 7198
-11245.3, 201107, -94.2785, 2.33624, -2233.33, 0.146293, 0.326645, 1.03299, 0.34851, 0.655882, 3, 45.5, 246, 38.1886, 0.107751, 0, 0, 0, 0, 6.8283e-06, 7198
-8743.69, 293096, -150.959, 2.52402, -2298.73, 0.17629, 0.316106, 0.993198, 0.349787, 0.651995, 0.0001, 91, 246, 38.1886, 0.107751, 0, 0, 1, 0, -7.66999e-06, 7198
-8743.69, 293096, -150.959, 2.52402, -2298.73, 0.17629, 0.316106, 0.993198, 0.349787, 0.651995, 3, 91, 246, 38.1886, 0.107751, 0, 0, 1, 0, -1.23043e-05, 7198
-4656.04, 392967, -217.844, 2.73573, -2383.14, 0.212567, 0.316151, 0.958125, 0.351078, 0.648177, 0.0001, 182, 246, 38.1886, 0.107751, 0, 0, 0, 0, -2.09826e-06, 7198
-4656.04, 392967, -217.844, 2.73573, -2383.14, 0.212567, 0.316151, 0.958125, 0.351078, 0.648177, 3, 182, 246, 38.1886, 0.107751, 0, 0, 0, 0, 1.14625e-06, 7198
-45658.5, 2.78471e+06, -1166.8, 0.960844, -1911.67, 0.0258147, 0.821272, 1.03299, 0.34851, 0.655882, 3, 45.5, 246, 69.9669, 0.115002, 0, 0, 0, 0, -9.58009e-05, 7200
-6728.17, 127612, -109.302, 3.83583, -2230.86, 0.129145, 0.272137, 0.958125, 0.351078, 0.648177, 0.0001, 182, 246, 18.2993, 0.0881451, 0, 0, 1, 0, -4.61225e-06, 7201
-47766.2, 1.04134e+06, -758.141, 3.41864, -1846.15, -0.0571147, 0.783763, 1.03299, 0.34851, 0.655882, 3, 45.5, 246, 68.4783, 0.202292, 0, 0, 0, 0, 1.01247e-05, 7203
-23876.3, 429200, -71.2087, 3.42528, -2716.17, -0.0250534, 0.195303, 1.03299, 0.34851, 0.655882, 0.0001, 45.5, 246, 47.4697, 0.0752016, 0, 0, 0, 0, -2.70643e-06, 7209
-23876.3, 429200, -71.2087, 3.42528, -2716.17, -0.0250534, 0.195303, 1.03299, 0.34851, 0.655882, 3, 45.5, 246, 47.4697, 0.0752016, 0, 0, 0, 0, 7.59336e-06, 7209
-35332.5, 3.45981e+06, -1324.04, 0.819056, -2496.57, 0.396947, 0.791846, 1.03299, 0.34851, 0.655882, 3, 45.5, 246, 85.8448, 0.0955366, 0, 0, 0, 0, 1.95656, 7213
-17113.9, 209131, 31.8901, 3.39677, -2168.28, 0.0421448, 0.160839, 1.03299, 0.34851, 0.655882, 0.0001, 45.5, 246, 30.2235, 0.0469828, 0, 0, 0, 0, 1.19886e-06, 7214
-17113.9, 209131, 31.8901, 3.39677, -2168.28, 0.0421448, 0.160839, 1.03299, 0.34851, 0.655882, 3, 45.5, 246, 30.2235, 0.0469828, 0, 0, 0, 0, -3.94379e-06, 7214
-13540.8, 292408, -36.0835, 3.70937, -2192.29, 0.0982608, 0.170159, 0.993198, 0.349787, 0.651995, 0.0001, 91, 246, 30.2235, 0.0469828, 0, 0, 1, 0, 2.9311e-06, 7214
-13540.8, 292408, -36.0835, 3.70937, -2192.29, 0.0982608, 0.170159, 0.993198, 0.349787, 0.651995, 3, 91, 246, 30.2235, 0.0469828, 0, 0, 1, 0, -2.5095e-05, 7214
-7965.53, 380384, -118.587, 4.08289, -2246.27, 0.167537, 0.198664, 0.958125, 0.351078, 0.648177, 0.0001, 182, 246, 30.2235, 0.0469828, 0, 0, 0, 0, -2.02863e-06, 7214
-7965.53, 380384, -118.587, 4.08289, -2246.27, 0.167537, 0.198664, 0.958125, 0.351078, 0.648177, 3, 182, 246, 30.2235, 0.0469828, 0, 0, 0, 0, 5.91597e-06, 7214
-30280.5, 1.90062e+06, -1048.64, 1.0666, -1977.56, 0.565232, 0.850296, 1.03299, 0.34851, 0.655882, 3, 45.5, 246, 69.0716, 0.134965, 0, 0, 0, 0, 0.000200218, 7218
-7225.14, 115282, -121.054, 4.00681, -2717.01, 0.0670306, 0.304545, 0.958125, 0.351078, 0.648177, 0.0001, 182, 246, 13.0172, 0.0949487, 0, 0, 1, 0, 1.33845e-05, 7219
-7225.14, 115282, -121.054, 4.00681, -2717.01, 0.0670306, 0.304545, 0.958125, 0.351078, 0.648177, 3, 182, 246, 13.0172, 0.0949487, 0, 0, 1, 0, 1.07741e-05, 7219
-14299.3, 218723, -43.4722, 2.94793, -2178.03, -0.0413231, 0.243173, 1.03299, 0.34851, 0.655882, 0.0001, 45.5, 246, 35.2275, 0.0797854, 0, 0, 0, 0, -2.80282e-06, 7222
-14299.3, 218723, -43.4722, 2.94793, -2178.03, -0.0413231, 0.243173, 1.03299, 0.34851, 0.655882, 3, 45.5, 246, 35.2275, 0.0797854, 0, 0, 0, 0, 2.34458e-05, 7222
-11056.8, 300983, -107.819, 3.18323, -2176.82, -2.86565e-05, 0.24281, 0.993198, 0.349787, 0.651995, 0.0001, 91, 246, 35.2275, 0.0797854, 0, 0, 1, 0, 4.72393e-06, 7222
-11056.8, 300983, -107.819, 3.18323, -2176.82, -2.86565e-05, 0.24281, 0.993198, 0.349787, 0.651995, 3, 91, 246, 35.2275, 0.0797854, 0, 0, 1, 0, -1.03575e-05, 7222
-6068.81, 385132, -183.097, 3.45489, -2197.6, 0.0483687, 0.256707, 0.958125, 0.351078, 0.648177, 0.0001, 182, 246, 35.2275, 0.0797854, 0, 0, 0, 0, 4.64521e-06, 7222
-6068.81, 385132, -183.097, 3.45489, -2197.6, 0.0483687, 0.256707, 0.958125, 0.351078, 0.648177, 3, 182, 246, 35.2275, 0.0797854, 0, 0, 0, 0, -7.41094e-06, 7222
-8923.95, 210896, -80.0134, 2.88372, -2937.1, 0.00174234, 0.279931, 0.993198, 0.349787, 0.651995, 0.0001, 91, 246, 29.9413, 0.0827506, 0, 0, 1, 0, -1.20257e-05, 7225
-8923.95, 210896, -80.0134, 2.88372, -2937.1, 0.00174234, 0.279931, 0.993198, 0.349787, 0.651995, 3, 91, 246, 29.9413, 0.0827506, 0, 0, 1, 0, 2.17276e-06, 7225
-5171.15, 363375, -166.786, 3.11471, -2956.57, 0.0412665, 0.287011, 0.958125, 0.351078, 0.648177, 0.0001, 182, 246, 29.9413, 0.0827506, 0, 0, 0, 0, 1.27923e-05, 7225
-5171.15, 363375, -166.786, 3.11471, -2956.57, 0.0412665, 0.287011, 0.958125, 0.351078, 0.648177, 3, 182, 246, 29.9413, 0.0827506, 0, 0, 0, 0, -2.23925e-05, 7225
-15058.4, 905327, -672.147, 2.13359, -2596.72, 0.151333, 0.802772, 1.03299, 0.34851, 0.655882, 3, 45.5, 246, 74.0166, 0.186976, 0, 0, 0, 0, -1.1904e-05, 7227
-19233.6, 597905, -541.233, 3.29012, -2252.06, -0.0526489, 0.708357, 1.03299, 0.34851, 0.655882, 0.0001, 45.5, 246, 68.709, 0.222729, 0, 0, 0, 0, 1.52639e-06, 7230
-19233.6, 597905, -541.233, 3.29012, -2252.06, -0.0526489, 0.708357, 1.03299, 0.34851, 0.655882, 3, 45.5, 246, 68.709, 0.222729, 0, 0, 0, 0, -2.48108e-08, 7230
-60065.5, 3.02269e+06, -1315.51, 1.29194, -2264.27, -0.0037503, 0.920115, 1.03299, 0.34851, 0.655882, 0.0001, 45.5, 246, 81.3595, 0.123017, 0, 0, 0, 0, -7.35889e-05, 7231
-8377.48, 129788, -79.363, 1.86667, -2055.15, 0.261359, 0.319433, 0.993198, 0.349787, 0.651995, 0.0001, 91, 246, 27.5451, 0.113456, 0, 0, 1, 0, 2.50394e-05, 7232
-8377.48, 129788, -79.363, 1.86667, -2055.15, 0.261359, 0.319433, 0.993198, 0.349787, 0.651995, 3, 91, 246, 27.5451, 0.113456, 0, 0, 1, 0, -8.93115e-06, 7232
-7036.57, 209756, -120.881, 2.00721, -2151.67, 0.28979, 0.305393, 0.958125, 0.351078, 0.648177, 0.0001, 182, 246, 27.5451, 0.113456, 0, 0, 1, 0, 1.40073e-05, 7232
-7036.57, 209756, -120.881, 2.00721, -2151.67, 0.28979, 0.305393, 0.958125, 0.351078, 0.648177, 3, 182, 246, 27.5451, 0.113456, 0, 0, 1, 0, -2.71364e-05, 7232
-9374.95, 215781, -35.3002, 0.578638, -1591.57, 0.256388, 0.344337, 1.03299, 0.34851, 0.655882, 0.0001, 45.5, 246, 24.6198, 0.0417184, 0, 0, 1, 0, -1.31669e-05, 7233
-9374.95, 215781, -35.3002, 0.578638, -1591.57, 0.256388, 0.344337, 1.03299, 0.34851, 0.655882, 3, 45.5, 246, 24.6198, 0.0417184, 0, 0, 1, 0, 2.41849e-06, 7233
-15675.3, 765323, 13.538, 0.608426, -2801.4, 0.0534986, 0.333838, 1.03299, 0.34851, 0.655882, 3, 45.5, 246, 49.3291, 0.00427495, 0, 0, 0, 0, 9.70174e-05, 7234
-7060.32, 245579, -151.765, 0.897175, -2525.43, 0.00274252, 0.391725, 0.993198, 0.349787, 0.651995, 3, 91, 246, 37.0317, 0.147569, 0, 0, 1, 0, -5.2046e-05, 7235
-5772, 358250, -179.045, 0.935889, -2531.24, 0.00643354, 0.369596, 0.958125, 0.351078, 0.648177, 0.0001, 182, 246, 37.0317, 0.147569, 0, 0, 0, 0, 1.0313e-05, 7235
-5772, 358250, -179.045, 0.935889, -2531.24, 0.00643354, 0.369596, 0.958125, 0.351078, 0.648177, 3, 182, 246, 37.0317, 0.147569, 0, 0, 0, 0, 8.56022e-05, 7235
-12105.8, 634947, -441.886, 2.16183, -2596.41, -0.0175191, 0.604865, 1.03299, 0.34851, 0.655882, 3, 45.5, 246, 64.5203, 0.168428, 0, 0, 0, 0, -7.63282e-06, 7236
-23646.8, 1.25781e+06, -731.518, 1.83709, -2275.49, -0.00969997, 0.755961, 1.03299, 0.34851, 0.655882, 3, 45.5, 246, 71.2703, 0.157536, 0, 0, 0, 0, 5.35588e-06, 7239
-10594.4, 77294.7, 9.73346, 3.20516, -1383, 0.695552, 0.185996, 1.03299, 0.34851, 0.655882, 0.0001, 45.5, 246, 20.5182, 0.0546089, 0, 0, 0, 0, -3.35844e-05, 7242
-15352.2, 514923, -528.494, 3.55447, -2491.45, -0.0616478, 0.722258, 1.03299, 0.34851, 0.655882, 0.0001, 45.5, 246, 71.0366, 0.238759, 0, 0, 0, 0, -3.38693e-07, 7244
-15352.2, 514923, -528.494, 3.55447, -2491.45, -0.0616478, 0.722258, 1.03299, 0.34851, 0.655882, 3, 45.5, 246, 71.0366, 0.238759, 0, 0, 0, 0, -7.4132e-06, 7244
-14043.6, 510166, -54.9364, 1.12296, -2278.29, -0.00570417, 0.332383, 1.03299, 0.34851, 0.655882, 0.0001, 45.5, 246, 40.6012, 0.0360702, 0, 0, 0, 0, -4.70569e-05, 7246
-14043.6, 510166, -54.9364, 1.12296, -2278.29, -0.00570417, 0.332383, 1.03299, 0.34851, 0.655882, 3, 45.5, 246, 40.6012, 0.0360702, 0, 0, 0, 0, -4.27391e-05, 7246
-9703.7, 285209, -6.90462, 0.376538, -2092.46, 0.132778, 0.34035, 1.03299, 0.34851, 0.655882, 0.0001, 45.5, 246, 28.0388, 0.0119686, 0, 0, 1, 0, 7.61054e-06, 7249
-9703.7, 285209, -6.90462, 0.376538, -2092.46, 0.132778, 0.34035, 1.03299, 0.34851, 0.655882, 3, 45.5, 246, 28.0388, 0.0119686, 0, 0, 1, 0, 1.80029e-05, 7249
-9404.85, 365981, -14.3869, 0.391934, -2137.52, 0.136286, 0.304688, 0.993198, 0.349787, 0.651995, 0.0001, 91, 246, 28.0388, 0.0119686, 0, 0, 1, 0, 2.27504e-05, 7249
-9404.85, 365981, -14.3869, 0.391934, -2137.52, 0.136286, 0.304688, 0.993198, 0.349787, 0.651995, 3, 91, 246, 28.0388, 0.0119686, 0, 0, 1, 0, 1.60043e-05, 7249
-9816.77, 127901, -14.5053, 3.84496, -1759.72, 0.733793, 0.171305, 0.993198, 0.349787, 0.651995, 0.0001, 91, 246, 19.673, 0.046541, 0, 0, 1, 0, 6.16668e-06, 7251
-9816.77, 127901, -14.5053, 3.84496, -1759.72, 0.733793, 0.171305, 0.993198, 0.349787, 0.651995, 3, 91, 246, 19.673, 0.046541, 0, 0, 1, 0, -1.27633e-05, 7251
-8008.1, 281592, -189.455, 3.77458, -2645.36, 0.110922, 0.283525, 0.993198, 0.349787, 0.651995, 0.0001, 91, 246, 41.6494, 0.125817, 0, 0, 1, 0, 1.45179e-05, 7253
-8008.1, 281592, -189.455, 3.77458, -2645.36, 0.110922, 0.283525, 0.993198, 0.349787, 0.651995, 3, 91, 246, 41.6494, 0.125817, 0, 0, 1, 0, 6.90345e-06, 7253
-1549.67, 411630, -306.071, 4.17648, -2733.09, 0.183547, 0.321504, 0.958125, 0.351078, 0.648177, 0.0001, 182, 246, 41.6494, 0.125817, 0, 0, 0, 0, 1.3899e-05, 7253
-1549.67, 411630, -306.071, 4.17648, -2733.09, 0.183547, 0.321504, 0.958125, 0.351078, 0.648177, 3, 182, 246, 41.6494, 0.125817, 0, 0, 0, 0, -5.07946e-06, 7253
-33744.2, 1.25364e+06, -642.144, 2.708, -2772.74, 0.0113236, 0.619666, 1.03299, 0.34851, 0.655882, 3, 45.5, 246, 77.2772, 0.140746, 0, 0, 0, 0, -5.35753e-06, 7254
-10978.5, 168919, -67.5213, 2.14669, -1867.1, 0.532053, 0.313272, 1.03299, 0.34851, 0.655882, 0.0001, 45.5, 246, 32.9534, 0.0944696, 0, 0, 0, 0, -1.89058e-05, 7255
-10978.5, 168919, -67.5213, 2.14669, -1867.1, 0.532053, 0.313272, 1.03299, 0.34851, 0.655882, 3, 45.5, 246, 32.9534, 0.0944696, 0, 0, 0, 0, 5.60921e-06, 7255
-9147.35, 241859, -111.975, 2.36107, -2047.69, 0.605221, 0.298024, 0.993198, 0.349787, 0.651995, 0.0001, 91, 246, 32.9534, 0.0944696, 0, 0, 1, 0, 1.28448e-05, 7255
-9147.35, 241859, -111.975, 2.36107, -2047.69, 0.605221, 0.298024, 0.993198, 0.349787, 0.651995, 3, 91, 246, 32.9534, 0.0944696, 0, 0, 1, 0, 1.13606e-05, 7255
-5504.92, 1.69089e+06, -134.17, 0.145977, -2407.15, 0.0956145, 0.349738, 1.03299, 0.34851, 0.655882, 0.0001, 45.5, 246, 61.1233, 0.018801, 0, 0, 0, 0, -7.43412e-05, 7256
-5504.92, 1.69089e+06, -134.17, 0.145977, -2407.15, 0.0956145, 0.349738, 1.03299, 0.34851, 0.655882, 3, 45.5, 246, 61.1233, 0.018801, 0, 0, 0, 0, 3.57882e-05, 7256
-40965.9, 3.59368e+06, -1568.76, 0.227831, -1756.57, 0.309313, 0.919053, 1.03299, 0.34851, 0.655882, 3, 45.5, 246, 67.0896, 0.107725, 0, 0, 0, 0, 1.93932, 7258
-24164.9, 461743, -139.769, 3.64465, -2629.04, -0.0426419, 0.209437, 1.03299, 0.34851, 0.655882, 0.0001, 45.5, 246, 51.1429, 0.0970322, 0, 0, 0, 0, -1.76566e-05, 7263
-24164.9, 461743, -139.769, 3.64465, -2629.04, -0.0426419, 0.209437, 1.03299, 0.34851, 0.655882, 3, 45.5, 246, 51.1429, 0.0970322, 0, 0, 0, 0, -9.13685e-06, 7263
-10513.7, 336792, -100.381, 1.24429, -2430.65, 0.064285, 0.356846, 1.03299, 0.34851, 0.655882, 0.0001, 45.5, 246, 40.2019, 0.0710184, 0, 0, 0, 0, 9.76231e-06, 7264
-10513.7, 336792, -100.381, 1.24429, -2430.65, 0.064285, 0.356846, 1.03299, 0.34851, 0.655882, 3, 45.5, 246, 40.2019, 0.0710184, 0, 0, 0, 0, -2.14403e-05, 7264
-8461.2, 443217, -133.555, 1.31176, -2460.92, 0.072189, 0.329137, 0.993198, 0.349787, 0.651995, 0.0001, 91, 246, 40.2019, 0.0710184, 0, 0, 1, 0, -8.51164e-06, 7264
-8461.2, 443217, -133.555, 1.31176, -2460.92, 0.072189, 0.329137, 0.993198, 0.349787, 0.651995, 3, 91, 246, 40.2019, 0.0710184, 0, 0, 1, 0, 3.87785e-05, 7264
-12649.4, 276509, -54.6481, 1.76365, -2377.16, 0.296229, 0.320343, 1.03299, 0.34851, 0.655882, 0.0001, 45.5, 246, 36.791, 0.0623645, 0, 0, 0, 0, -1.44928e-05, 7270
-12649.4, 276509, -54.6481, 1.76365, -2377.16, 0.296229, 0.320343, 1.03299, 0.34851, 0.655882, 3, 45.5, 246, 36.791, 0.0623645, 0, 0, 0, 0, 1.10569e-05, 7270
-10238.4, 385975, -98.2283, 1.89986, -2500.57, 0.326223, 0.2978, 0.993198, 0.349787, 0.651995, 0.0001, 91, 246, 36.791, 0.0623645, 0, 0, 1, 0, -1.57175e-05, 7270
-10238.4, 385975, -98.2283, 1.89986, -2500.57, 0.326223, 0.2978, 0.993198, 0.349787, 0.651995, 3, 91, 246, 36.791, 0.0623645, 0, 0, 1, 0, 1.25714e-05, 7270
-7006.54, 226882, -198.907, 3.05006, -2150.52, 0.0223972, 0.346996, 0.993198, 0.349787, 0.651995, 0.0001, 91, 246, 42.1791, 0.158912, 0, 0, 1, 0, -2.21557e-05, 7277
-7006.54, 226882, -198.907, 3.05006, -2150.52, 0.0223972, 0.346996, 0.993198, 0.349787, 0.651995, 3, 91, 246, 42.1791, 0.158912, 0, 0, 1, 0, 1.64429e-05, 7277
-2881.68, 310618, -278.655, 3.31525, -2185.58, 0.0671241, 0.363719, 0.958125, 0.351078, 0.648177, 0.0001, 182, 246, 42.1791, 0.158912, 0, 0, 0, 0, -3.88831e-06, 7277
-2881.68, 310618, -278.655, 3.31525, -2185.58, 0.0671241, 0.363719, 0.958125, 0.351078, 0.648177, 3, 182, 246, 42.1791, 0.158912, 0, 0, 0, 0, -7.27014e-06, 7277
-10760.2, 1.01247e+06, -10.1006, 0.25343, -2686.7, 0.0121364, 0.303633, 0.993198, 0.349787, 0.651995, 0.0001, 91, 246, 50.7615, 0.00356957, 0, 0, 1, 0, -0.00013534, 7278
-12348.4, 371598, -241.76, 2.27824, -2065.86, 0.00911401, 0.431963, 1.03299, 0.34851, 0.655882, 0.0001, 45.5, 246, 49.6042, 0.152417, 0, 0, 0, 0, -7.83138e-06, 7279
-12348.4, 371598, -241.76, 2.27824, -2065.86, 0.00911401, 0.431963, 1.03299, 0.34851, 0.655882, 3, 45.5, 246, 49.6042, 0.152417, 0, 0, 0, 0, -2.24675e-06, 7279
-25625.7, 1.25731e+06, -859.403, 1.81844, -2255.5, 0.752012, 0.847966, 1.03299, 0.34851, 0.655882, 3, 45.5, 246, 72.9485, 0.164438, 0, 0, 0, 0, -7.41002e-05, 7281
-22534.5, 669480, -641.417, 3.46239, -2298.57, 0.143553, 0.817749, 1.03299, 0.34851, 0.655882, 3, 45.5, 246, 73.3223, 0.235209, 0, 0, 0, 0, -3.51916e-07, 7286
-17601.8, 814642, -607.352, 2.8333, -2921.6, -0.038415, 0.738034, 1.03299, 0.34851, 0.655882, 3, 45.5, 246, 75.5909, 0.186448, 0, 0, 0, 0, 1.48144e-05, 7291
-28367.1, -329061, -99.5995, 0.479962, -1759.49, 0.0328919, 0.468064, 1.03299, 0.34851, 0.655882, 0.0001, 45.5, 246, -113.258, 0.186843, 0, 0, 0, 0, -2.32095e-05, 7297
-28367.1, -329061, -99.5995, 0.479962, -1759.49, 0.0328919, 0.468064, 1.03299, 0.34851, 0.655882, 3, 45.5, 246, -113.258, 0.186843, 0, 0, 0, 0, 2.99146e-05, 7297
-29783.6, -274965, -111.227, 0.499606, -1770.2, 0.0341224, 0.442971, 0.993198, 0.349787, 0.651995, 0.0001, 91, 246, -113.258, 0.186843, 0, 0, 1, 0, -2.84545e-05, 7297
-29783.6, -274965, -111.227, 0.499606, -1770.2, 0.0341224, 0.442971, 0.993198, 0.349787, 0.651995, 3, 91, 246, -113.258, 0.186843, 0, 0, 1, 0, 3.31394e-05, 7297
-27282.2, 1.94943e+06, -1114.02, 0.86128, -1899.75, 0.279601, 0.929083, 1.03299, 0.34851, 0.655882, 3, 45.5, 246, 68.8016, 0.147046, 0, 0, 0, 0, -1.42726e-05, 7299
-53822, 2.80087e+06, -838.089, 1.6323, -2767.96, 0.229237, 0.564958, 1.03299, 0.34851, 0.655882, 3, 45.5, 246, 86.9356, 0.0812629, 0, 0, 0, 0, 2.23371e-05, 7301
-12694.1, 341665, -253.494, 2.54327, -1851.33, -0.0249726, 0.433652, 1.03299, 0.34851, 0.655882, 0.0001, 45.5, 246, 49.5513, 0.17066, 0, 0, 0, 0, -3.54748e-05, 7302
-12694.1, 341665, -253.494, 2.54327, -1851.33, -0.0249726, 0.433652, 1.03299, 0.34851, 0.655882, 3, 45.5, 246, 49.5513, 0.17066, 0, 0, 0, 0, 1.97382e-05, 7302
-5113.28, 409351, -370.344, 3.13019, -2552.51, 0.480174, 0.492141, 0.993198, 0.349787, 0.651995, 0.0001, 91, 246, 55.0988, 0.191278, 0, 0, 1, 0, 9.04147e-06, 7303
-5113.28, 409351, -370.344, 3.13019, -2552.51, 0.480174, 0.492141, 0.993198, 0.349787, 0.651995, 3, 91, 246, 55.0988, 0.191278, 0, 0, 1, 0, 1.88762e-05, 7303
-7245.59, 710081, -208.512, 0.671247, -2448.83, 0.217055, 0.392329, 1.03299, 0.34851, 0.655882, 0.0001, 45.5, 246, 52.0572, 0.0667785, 0, 0, 0, 0, 1.06196e-05, 7306
-7245.59, 710081, -208.512, 0.671247, -2448.83, 0.217055, 0.392329, 1.03299, 0.34851, 0.655882, 3, 45.5, 246, 52.0572, 0.0667785, 0, 0, 0, 0, -7.2236e-06, 7306
-35365.3, 1.70026e+06, -740.518, 2.00105, -2634.34, 0.11966, 0.638634, 1.03299, 0.34851, 0.655882, 3, 45.5, 246, 78.5683, 0.11884, 0, 0, 0, 0, 2.30078e-06, 7307
-14389.7, 334037, -237.611, 3.24999, -2099.21, -0.0464028, 0.361477, 1.03299, 0.34851, 0.655882, 0.0001, 45.5, 246, 51.1009, 0.160499, 0, 0, 0, 0, -2.39403e-06, 7308
-14389.7, 334037, -237.611, 3.24999, -2099.21, -0.0464028, 0.361477, 1.03299, 0.34851, 0.655882, 3, 45.5, 246, 51.1009, 0.160499, 0, 0, 0, 0, -1.00224e-05, 7308
-8456.7, 412190, -324.711, 3.54144, -2117.04, 0.0042361, 0.379034, 0.993198, 0.349787, 0.651995, 0.0001, 91, 246, 51.1009, 0.160499, 0, 0, 1, 0, 4.6338e-06, 7308
-8456.7, 412190, -324.711, 3.54144, -2117.04, 0.0042361, 0.379034, 0.993198, 0.349787, 0.651995, 3, 91, 246, 51.1009, 0.160499, 0, 0, 1, 0, -1.53722e-05, 7308
-6960.92, 261108, -99.9478, 2.5578, -2980.04, 0.162367, 0.283823, 0.958125, 0.351078, 0.648177, 0.0001, 182, 246, 19.1676, 0.0678519, 0, 0, 0, 0, 1.33652e-05, 7310
-6960.92, 261108, -99.9478, 2.5578, -2980.04, 0.162367, 0.283823, 0.958125, 0.351078, 0.648177, 3, 182, 246, 19.1676, 0.0678519, 0, 0, 0, 0, -7.92041e-06, 7310
-5040.52, 325382, -311.105, 3.9314, -2850.18, 0.0778565, 0.400286, 0.993198, 0.349787, 0.651995, 0.0001, 91, 246, 50.9443, 0.176824, 0, 0, 1, 0, 4.67862e-06, 7317
-5040.52, 325382, -311.105, 3.9314, -2850.18, 0.0778565, 0.400286, 0.993198, 0.349787, 0.651995, 3, 91, 246, 50.9443, 0.176824, 0, 0, 1, 0, -1.67593e-06, 7317
3511.79, 477264, -454.374, 4.37052, -2944.49, 0.155445, 0.453162, 0.958125, 0.351078, 0.648177, 0.0001, 182, 246, 50.9443, 0.176824, 0, 0, 0, 0, -1.17277e-05, 7317
3511.79, 477264, -454.374, 4.37052, -2944.49, 0.155445, 0.453162, 0.958125, 0.351078, 0.648177, 3, 182, 246, 50.9443, 0.176824, 0, 0, 0, 0, 1.7888e-05, 7317
-23190.2, -388120, -105.335, 0.729568, -2496.32, 0.104893, 0.504912, 1.03299, 0.34851, 0.655882, 0.0001, 45.5, 246, -64.7195, 0.218463, 0, 0, 0, 0, -1.55649e-05, 7319
-23190.2, -388120, -105.335, 0.729568, -2496.32, 0.104893, 0.504912, 1.03299, 0.34851, 0.655882, 3, 45.5, 246, -64.7195, 0.218463, 0, 0, 0, 0, -2.87158e-05, 7319
-24907, -278710, -126.966, 0.766629, -2541.19, 0.109159, 0.484573, 0.993198, 0.349787, 0.651995, 3, 91, 246, -64.7195, 0.218463, 0, 0, 1, 0, 1.45012e-05, 7319
-6654.62, 974512, -125.788, 0.242544, -1895.56, 0.00654793, 0.319333, 0.993198, 0.349787, 0.651995, 3, 91, 246, 43.4843, 0.0316346, 0, 0, 1, 0, -0.000140903, 7328
-13518.2, 109853, 33.7697, 3.56805, -2975.05, -0.0157706, 0.183946, 1.03299, 0.34851, 0.655882, 3, 45.5, 246, 32.7113, 0.0728719, 0, 0, 0, 0, -2.23136e-05, 7333
-10708.9, 264725, -64.9379, 3.90013, -2983.05, 0.0453961, 0.200476, 0.993198, 0.349787, 0.651995, 0.0001, 91, 246, 32.7113, 0.0728719, 0, 0, 1, 0, 8.63663e-06, 7333
-10708.9, 264725, -64.9379, 3.90013, -2983.05, 0.0453961, 0.200476, 0.993198, 0.349787, 0.651995, 3, 91, 246, 32.7113, 0.0728719, 0, 0, 1, 0, -5.52527e-06, 7333
-4535.37, 424506, -184.474, 4.30077, -3035.08, 0.120134, 0.237952, 0.958125, 0.351078, 0.648177, 0.0001, 182, 246, 32.7113, 0.0728719, 0, 0, 0, 0, 5.81886e-06, 7333
-4535.37, 424506, -184.474, 4.30077, -3035.08, 0.120134, 0.237952, 0.958125, 0.351078, 0.648177, 3, 182, 246, 32.7113, 0.0728719, 0, 0, 0, 0, 8.5127e-06, 7333
-2114.69, 796991, -670.885, 0.491472, -1603.53, 0.507759, 0.860189, 0.993198, 0.349787, 0.651995, 0.0001, 91, 246, 56.3955, 0.213296, 3.19324, 1, 1, 0, -966.749, 7336
-2114.69, 796991, -670.885, 0.491472, -1603.53, 0.507759, 0.860189, 0.993198, 0.349787, 0.651995, 3, 91, 246, 56.3955, 0.213296, 3.19308, 1, 1, 0, -966.845, 7336
-7452.49, 319165, -144.307, 1.66241, -2962.79, 0.00623005, 0.346167, 0.993198, 0.349787, 0.651995, 0.0001, 91, 246, 37.6305, 0.0949903, 0, 0, 1, 0, 2.97002e-06, 7344
-7452.49, 319165, -144.307, 1.66241, -2962.79, 0.00623005, 0.346167, 0.993198, 0.349787, 0.651995, 3, 91, 246, 37.6305, 0.0949903, 0, 0, 1, 0, -1.43559e-05, 7344
-4363, 474525, -198.217, 1.75722, -2976.38, 0.0190856, 0.330209, 0.958125, 0.351078, 0.648177, 0.0001, 182, 246, 37.6305, 0.0949903, 0, 0, 0, 0, -2.37594e-05, 7344
-4363, 474525, -198.217, 1.75722, -2976.38, 0.0190856, 0.330209, 0.958125, 0.351078, 0.648177, 3, 182, 246, 37.6305, 0.0949903, 0, 0, 0, 0, -2.76452e-05, 7344
-11097.2, 332178, -250.134, 2.69561, -2720.11, -0.00780172, 0.44342, 1.03299, 0.34851, 0.655882, 3, 45.5, 246, 54.0042, 0.158828, 0, 0, 0, 0, -3.85022e-07, 7345
-5677.02, 464449, -340.556, 2.91786, -2745.79, 0.0267651, 0.451054, 0.993198, 0.349787, 0.651995, 0.0001, 91, 246, 54.0042, 0.158828, 0, 0, 1, 0, -9.89681e-07, 7345
-5677.02, 464449, -340.556, 2.91786, -2745.79, 0.0267651, 0.451054, 0.993198, 0.349787, 0.651995, 3, 91, 246, 54.0042, 0.158828, 0, 0, 1, 0, 7.04239e-06, 7345
-6418.7, 229272, -214.907, 2.90146, -2349.45, 0.00452731, 0.383789, 0.993198, 0.349787, 0.651995, 0.0001, 91, 246, 43.9093, 0.175696, 0, 0, 1, 0, -1.28236e-06, 7348
-6418.7, 229272, -214.907, 2.90146, -2349.45, 0.00452731, 0.383789, 0.993198, 0.349787, 0.651995, 3, 91, 246, 43.9093, 0.175696, 0, 0, 1, 0, 1.52189e-05, 7348
-2258.77, 328529, -297.776, 3.14459, -2378.79, 0.0446979, 0.398733, 0.958125, 0.351078, 0.648177, 0.0001, 182, 246, 43.9093, 0.175696, 0, 0, 0, 0, 4.9552e-06, 7348
-2258.77, 328529, -297.776, 3.14459, -2378.79, 0.0446979, 0.398733, 0.958125, 0.351078, 0.648177, 3, 182, 246, 43.9093, 0.175696, 0, 0, 0, 0, 1.04557e-05, 7348
-5036.47, 512036, -226.597, 0.425231, -2115.07, 0.165646, 0.426791, 1.03299, 0.34851, 0.655882, 0.0001, 45.5, 246, 46.4487, 0.0983659, 0, 0, 0, 0, 1.04441e-05, 7349
-11232.6, -279112, 4.55756, 1.46273, -2444.27, 0.427844, 0.406196, 1.03299, 0.34851, 0.655882, 0.0001, 45.5, 246, -29.7515, 0.18948, 0, 0, 0, 0, 2.55362e-06, 7351
-11232.6, -279112, 4.55756, 1.46273, -2444.27, 0.427844, 0.406196, 1.03299, 0.34851, 0.655882, 3, 45.5, 246, -29.7515, 0.18948, 0, 0, 0, 0, 6.51064e-06, 7351
-11014, 852623, -14.281, 0.39169, -2962.24, 0.87744, 0.30272, 0.993198, 0.349787, 0.651995, 0.0001, 91, 246, 46.9343, 0.00578962, 0, 0, 1, 0, 2.47575e-05, 7353
-33553.3, 2.6974e+06, -1150.17, 0.491442, -1533.58, 0.115737, 0.795377, 1.03299, 0.34851, 0.655882, 3, 45.5, 246, 58.7589, 0.111481, 0, 0, 0, 0, -5.71935e-05, 7354
-55313.3, 1.69023e+06, -858.144, 2.69153, -2451.81, -0.0342599, 0.749057, 1.03299, 0.34851, 0.655882, 3, 45.5, 246, 78.9597, 0.147365, 0, 0, 0, 0, -1.73296e-06, 7356
-39523.1, 3.75963e+06, -1375.86, 0.990819, -2812.45, 0.221689, 0.813463, 1.03299, 0.34851, 0.655882, 0.0001, 45.5, 246, 95.6947, 0.0959539, 0, 0, 0, 0, -7.39791e-06, 7359
-15823.2, 492446, -316.62, 2.84684, -2478.95, 0.0678895, 0.451824, 1.03299, 0.34851, 0.655882, 0.0001, 45.5, 246, 58.1367, 0.15382, 0, 0, 0, 0, 2.24578e-05, 7361
-15823.2, 492446, -316.62, 2.84684, -2478.95, 0.0678895, 0.451824, 1.03299, 0.34851, 0.655882, 3, 45.5, 246, 58.1367, 0.15382, 0, 0, 0, 0, 1.99403e-05, 7361
-3399.39, 527905, -375.178, 0.172461, -1643.65, 0.146272, 0.590904, 1.03299, 0.34851, 0.655882, 0.0001, 45.5, 246, 49.7349, 0.177023, 0, 0, 0, 0, 2.54018e-05, 7363
-8799.18, 306944, -228.604, 1.75709, -2413.96, 0.0927783, 0.464198, 1.03299, 0.34851, 0.655882, 0.0001, 45.5, 246, 49.4166, 0.15626, 0, 0, 0, 0, 6.42102e-06, 7366
-8799.18, 306944, -228.604, 1.75709, -2413.96, 0.0927783, 0.464198, 1.03299, 0.34851, 0.655882, 3, 45.5, 246, 49.4166, 0.15626, 0, 0, 0, 0, 2.21097e-05, 7366
-5565.79, 414192, -283.273, 1.87889, -2464.98, 0.108882, 0.452772, 0.993198, 0.349787, 0.651995, 0.0001, 91, 246, 49.4166, 0.15626, 0, 0, 1, 0, 4.03046e-06, 7366
-5565.79, 414192, -283.273, 1.87889, -2464.98, 0.108882, 0.452772, 0.993198, 0.349787, 0.651995, 3, 91, 246, 49.4166, 0.15626, 0, 0, 1, 0, 2.6003e-05, 7366
-11622.1, -264611, -61.2317, 0.689758, -2681.68, 0.052859, 0.440802, 1.03299, 0.34851, 0.655882, 0.0001, 45.5, 246, -6.51928, 0.245272, 0, 0, 0, 0, -7.05366e-06, 7370
-11622.1, -264611, -61.2317, 0.689758, -2681.68, 0.052859, 0.440802, 1.03299, 0.34851, 0.655882, 3, 45.5, 246, -6.51928, 0.245272, 0, 0, 0, 0, 3.89612e-05, 7370
-15323.8, 270226, 1.73147, 2.19835, -2752.77, -0.0142887, 0.280684, 1.03299, 0.34851, 0.655882, 0.0001, 45.5, 246, 36.2778, 0.0451474, 0, 0, 0, 0, 1.63257e-05, 7371
-15323.8, 270226, 1.73147, 2.19835, -2752.77, -0.0142887, 0.280684, 1.03299, 0.34851, 0.655882, 3, 45.5, 246, 36.2778, 0.0451474, 0, 0, 0, 0, -3.77226e-06, 7371
-12304.1, 402592, -54.8018, 2.34507, -2752.95, 0.00835916, 0.263614, 0.993198, 0.349787, 0.651995, 0.0001, 91, 246, 36.2778, 0.0451474, 0, 0, 1, 0, 1.21685e-05, 7371
-12304.1, 402592, -54.8018, 2.34507, -2752.95, 0.00835916, 0.263614, 0.993198, 0.349787, 0.651995, 3, 91, 246, 36.2778, 0.0451474, 0, 0, 1, 0, -2.00611e-07, 7371
-24524.7, 867579, -752.721, 3.39656, -2754.06, -0.0548067, 0.914772, 1.03299, 0.34851, 0.655882, 0.0001, 45.5, 246, 80.8585, 0.224788, 0, 0, 0, 0, 7.77676e-06, 7372
-24524.7, 867579, -752.721, 3.39656, -2754.06, -0.0548067, 0.914772, 1.03299, 0.34851, 0.655882, 3, 45.5, 246, 80.8585, 0.224788, 0, 0, 0, 0, -1.08557e-05, 7372
-31338.1, 1.12207e+06, -661.082, 2.58506, -2361.15, -0.0320302, 0.688778, 1.03299, 0.34851, 0.655882, 3, 45.5, 246, 71.6644, 0.161675, 0, 0, 0, 0, -4.66183e-06, 7375
-24268.6, 491565, -88.3082, 3.12095, -2826.32, -0.0457093, 0.23559, 1.03299, 0.34851, 0.655882, 0.0001, 45.5, 246, 50.1102, 0.0730003, 0, 0, 0, 0, 9.83294e-06, 7384
-24268.6, 491565, -88.3082, 3.12095, -2826.32, -0.0457093, 0.23559, 1.03299, 0.34851, 0.655882, 3, 45.5, 246, 50.1102, 0.0730003, 0, 0, 0, 0, 4.33434e-05, 7384
-15935.4, 317303, -204.376, 3.49836, -1845.48, -0.0406664, 0.285178, 1.03299, 0.34851, 0.655882, 0.0001, 45.5, 246, 46.9934, 0.145324, 0, 0, 0, 0, -6.72284e-06, 7385
-15935.4, 317303, -204.376, 3.49836, -1845.48, -0.0406664, 0.285178, 1.03299, 0.34851, 0.655882, 3, 45.5, 246, 46.9934, 0.145324, 0, 0, 0, 0, -2.70107e-06, 7385
-47216.2, 2.91867e+06, -928.943, 1.19272, -2178.18, 0.000507252, 0.63088, 1.03299, 0.34851, 0.655882, 3, 45.5, 246, 74.4135, 0.0885665, 0, 0, 0, 0, -8.69431e-06, 7387
-11158.5, 461836, -205.355, 1.02791, -1410.56, 0.793711, 0.407039, 1.03299, 0.34851, 0.655882, 3, 45.5, 246, 38.2123, 0.100692, 0, 0, 0, 0, -1.26234e-05, 7388
-7030.9, 327639, -179.967, 1.01371, -2852.39, 0.185167, 0.41194, 1.03299, 0.34851, 0.655882, 0.0001, 45.5, 246, 46.2137, 0.100049, 0, 0, 0, 0, 6.68529e-06, 7390
-7030.9, 327639, -179.967, 1.01371, -2852.39, 0.185167, 0.41194, 1.03299, 0.34851, 0.655882, 3, 45.5, 246, 46.2137, 0.100049, 0, 0, 0, 0, 1.02894e-05, 7390
-5013.32, 479721, -215.7, 1.07273, -2944.98, 0.195669, 0.386014, 0.993198, 0.349787, 0.651995, 0.0001, 91, 246, 46.2137, 0.100049, 0, 0, 1, 0, 1.0847e-05, 7390
-5013.32, 479721, -215.7, 1.07273, -2944.98, 0.195669, 0.386014, 0.993198, 0.349787, 0.651995, 3, 91, 246, 46.2137, 0.100049, 0, 0, 1, 0, -3.38878e-06, 7390
-16454, 339642, -24.8173, 2.19727, -2662.52, -0.0226674, 0.28472, 1.03299, 0.34851, 0.655882, 0.0001, 45.5, 246, 39.6249, 0.0504994, 0, 0, 0, 0, 3.56667e-05, 7393
-16454, 339642, -24.8173, 2.19727, -2662.52, -0.0226674, 0.28472, 1.03299, 0.34851, 0.655882, 3, 45.5, 246, 39.6249, 0.0504994, 0, 0, 0, 0, 1.51754e-05, 7393
-12793.4, 463159, -81.218, 2.34308, -2660.8, -3.04537e-05, 0.267887, 0.993198, 0.349787, 0.651995, 0.0001, 91, 246, 39.6249, 0.0504994, 0, 0, 1, 0, -1.02202e-05, 7393
-12793.4, 463159, -81.218, 2.34308, -2660.8, -3.04537e-05, 0.267887, 0.993198, 0.349787, 0.651995, 3, 91, 246, 39.6249, 0.0504994, 0, 0, 1, 0, -1.34977e-05, 7393
-6668.46, -182830, 66.0131, 3.02316, -2837.8, 0.107746, 0.284848, 1.03299, 0.34851, 0.655882, 0.0001, 45.5, 246, 7.13619, 0.09445, 0, 0, 1, 0, -5.03905e-06, 7394
-8387.79, -39976.9, -11.0973, 3.29995, -2894.41, 0.15426, 0.289891, 0.993198, 0.349787, 0.651995, 0.0001, 91, 246, 7.13619, 0.09445, 0, 0, 1, 0, -7.00047e-06, 7394
-8387.79, -39976.9, -11.0973, 3.29995, -2894.41, 0.15426, 0.289891, 0.993198, 0.349787, 0.651995, 3, 91, 246, 7.13619, 0.09445, 0, 0, 1, 0, -2.17821e-05, 7394
-8007.57, 111323, -105.056, 3.62547, -2984.16, 0.212067, 0.311097, 0.958125, 0.351078, 0.648177, 0.0001, 182, 246, 7.13619, 0.09445, 0, 0, 1, 0, 1.63059e-05, 7394
-8007.57, 111323, -105.056, 3.62547, -2984.16, 0.212067, 0.311097, 0.958125, 0.351078, 0.648177, 3, 182, 246, 7.13619, 0.09445, 0, 0, 1, 0, 2.02022e-05, 7394
-3873.97, 543176, -274.182, 0.44468, -2191.7, 0.47365, 0.454816, 1.03299, 0.34851, 0.655882, 0.0001, 45.5, 246, 49.9133, 0.107917, 0, 0, 0, 0, -1.95167e-05, 7395
-8320.87, 279309, -157.699, 3.65122, -2987.63, 0.0425293, 0.279731, 0.993198, 0.349787, 0.651995, 0.0001, 91, 246, 38.9196, 0.110899, 0, 0, 1, 0, -2.88968e-05, 7396
-8320.87, 279309, -157.699, 3.65122, -2987.63, 0.0425293, 0.279731, 0.993198, 0.349787, 0.651995, 3, 91, 246, 38.9196, 0.110899, 0, 0, 1, 0, -8.83823e-06, 7396
-1975.13, 440564, -278.612, 4.01406, -3044.8, 0.107783, 0.31245, 0.958125, 0.351078, 0.648177, 0.0001, 182, 246, 38.9196, 0.110899, 0, 0, 0, 0, -1.17964e-05, 7396
-1975.13, 440564, -278.612, 4.01406, -3044.8, 0.107783, 0.31245, 0.958125, 0.351078, 0.648177, 3, 182, 246, 38.9196, 0.110899, 0, 0, 0, 0, -1.40109e-05, 7396
-5716.59, 339903, -320.421, 3.9484, -2517.82, -0.000202029, 0.386427, 0.993198, 0.349787, 0.651995, 0.0001, 91, 246, 51.9421, 0.176594, 0, 0, 1, 0, -1.86131e-05, 7398
-5716.59, 339903, -320.421, 3.9484, -2517.82, -0.000202029, 0.386427, 0.993198, 0.349787, 0.651995, 3, 91, 246, 51.9421, 0.176594, 0, 0, 1, 0, 3.66491e-07, 7398
2802.39, 456654, -451.385, 4.37032, -2574.59, 0.0758168, 0.438544, 0.958125, 0.351078, 0.648177, 0.0001, 182, 246, 51.9421, 0.176594, 0, 0, 0, 0, 1.5602e-05, 7398
2802.39, 456654, -451.385, 4.37032, -2574.59, 0.0758168, 0.438544, 0.958125, 0.351078, 0.648177, 3, 182, 246, 51.9421, 0.176594, 0, 0, 0, 0, 1.99883e-05, 7398
-7953.4, 187208, -134.723, 0.517422, -1545.35, 0.263613, 0.429389, 1.03299, 0.34851, 0.655882, 0.0001, 45.5, 246, 36.2619, 0.168996, 0, 0, 0, 0, 2.47493e-05, 7405
-7953.4, 187208, -134.723, 0.517422, -1545.35, 0.263613, 0.429389, 1.03299, 0.34851, 0.655882, 3, 45.5, 246, 36.2619, 0.168996, 0, 0, 0, 0, -9.82978e-06, 7405
-44553.1, 1.59433e+06, -927.235, 2.04877, -2137.84, 0.516227, 0.821466, 1.03299, 0.34851, 0.655882, 3, 45.5, 246, 72.455, 0.149746, 0, 0, 0, 0, -6.82574e-06, 7406
-54484.8, 3.56628e+06, -896.167, 1.1757, -2498.93, 0.21991, 0.544869, 1.03299, 0.34851, 0.655882, 3, 45.5, 246, 83.2816, 0.0669469, 0, 0, 0, 0, 5.86047, 7407
-43758.5, 2.29985e+06, -1086.63, 1.34877, -2215.62, 0.52246, 0.800687, 1.03299, 0.34851, 0.655882, 3, 45.5, 246, 75.4238, 0.118706, 0, 0, 0, 0, -8.51338e-05, 7408
-34660.9, 2.7026e+06, -1339.82, 0.587685, -1935.89, 0.562268, 0.898299, 1.03299, 0.34851, 0.655882, 3, 45.5, 246, 70.1638, 0.11823, 0, 0, 0, 0, 3.81454, 7410
-50485.8, 3.09165e+06, -1120.68, 1.1343, -2197.6, 0.07045, 0.737409, 1.03299, 0.34851, 0.655882, 3, 45.5, 246, 77.1131, 0.0994556, 0, 0, 0, 0, 7.77737e-05, 7411
-8404.7, 357043, -36.9403, 0.0965652, -2855.82, 0.0924913, 0.277701, 0.958125, 0.351078, 0.648177, 0.0001, 182, 246, 22.0252, 0.0274134, 0, 0, 1, 0, 6.63772e-05, 7413
-8404.7, 357043, -36.9403, 0.0965652, -2855.82, 0.0924913, 0.277701, 0.958125, 0.351078, 0.648177, 3, 182, 246, 22.0252, 0.0274134, 0, 0, 1, 0, 9.13002e-05, 7413
-9078.74, 296012, -126.311, 1.16041, -2424.85, -0.00582388, 0.3794, 1.03299, 0.34851, 0.655882, 3, 45.5, 246, 40.563, 0.0911447, 0, 0, 0, 0, 5.49598e-06, 7414
-7310.35, 399504, -158.491, 1.21761, -2428.25, 0.000383574, 0.352397, 0.993198, 0.349787, 0.651995, 0.0001, 91, 246, 40.563, 0.0911447, 0, 0, 1, 0, 1.51798e-05, 7414
-7310.35, 399504, -158.491, 1.21761, -2428.25, 0.000383574, 0.352397, 0.993198, 0.349787, 0.651995, 3, 91, 246, 40.563, 0.0911447, 0, 0, 1, 0, -3.62857e-05, 7414
-16014.6, 288280, -68.4894, 2.82578, -2213.27, 0.204674, 0.255901, 1.03299, 0.34851, 0.655882, 0.0001, 45.5, 246, 39.0404, 0.0803615, 0, 0, 0, 0, 1.89643e-05, 7415
-16014.6, 288280, -68.4894, 2.82578, -2213.27, 0.204674, 0.255901, 1.03299, 0.34851, 0.655882, 3, 45.5, 246, 39.0404, 0.0803615, 0, 0, 0, 0, 1.33714e-05, 7415
-11931.7, 381083, -134.66, 3.08648, -2302.11, 0.251152, 0.253355, 0.993198, 0.349787, 0.651995, 0.0001, 91, 246, 39.0404, 0.0803615, 0, 0, 1, 0, 8.00194e-06, 7415
-11931.7, 381083, -134.66, 3.08648, -2302.11, 0.251152, 0.253355, 0.993198, 0.349787, 0.651995, 3, 91, 246, 39.0404, 0.0803615, 0, 0, 1, 0, 5.99283e-06, 7415
-6863.17, 195109, -128.233, 1.68748, -2696.42, 0.106761, 0.339078, 0.958125, 0.351078, 0.648177, 0.0001, 182, 246, 38.9147, 0.200727, 0, 0, 1, 0, -1.02971e-05, 7419
-30161.8, 2.30191e+06, -907.838, 1.22397, -2354, -0.00699538, 0.695344, 1.03299, 0.34851, 0.655882, 3, 45.5, 246, 76.9991, 0.108167, 0, 0, 0, 0, 0.000105812, 7420
-12698.8, 395575, -227.508, 2.1657, -2236.96, 0.553317, 0.408073, 1.03299, 0.34851, 0.655882, 0.0001, 45.5, 246, 49.8513, 0.129226, 0, 0, 0, 0, 2.72518e-05, 7421
-12698.8, 395575, -227.508, 2.1657, -2236.96, 0.553317, 0.408073, 1.03299, 0.34851, 0.655882, 3, 45.5, 246, 49.8513, 0.129226, 0, 0, 0, 0, -6.45849e-06, 7421
-15188.5, 244412, -29.8241, 2.68119, -1892.42, 0.0474371, 0.246864, 1.03299, 0.34851, 0.655882, 0.0001, 45.5, 246, 31.872, 0.062138, 0, 0, 0, 0, -1.73806e-05, 7424
-15188.5, 244412, -29.8241, 2.68119, -1892.42, 0.0474371, 0.246864, 1.03299, 0.34851, 0.655882, 3, 45.5, 246, 31.872, 0.062138, 0, 0, 0, 0, -1.63296e-05, 7424
-12111.6, 308318, -80.3422, 2.89416, -1915.79, 0.0821816, 0.239394, 0.993198, 0.349787, 0.651995, 0.0001, 91, 246, 31.872, 0.062138, 0, 0, 1, 0, -1.02545e-06, 7424
-12111.6, 308318, -80.3422, 2.89416, -1915.79, 0.0821816, 0.239394, 0.993198, 0.349787, 0.651995, 3, 91, 246, 31.872, 0.062138, 0, 0, 1, 0, -1.82491e-05, 7424
-27819.7, 1.5228e+06, -831.29, 1.64002, -2216.35, 0.0858618, 0.784516, 1.03299, 0.34851, 0.655882, 3, 45.5, 246, 72.2202, 0.147556, 0, 0, 0, 0, -6.42969e-06, 7426
-39756.9, 2.39667e+06, -998.933, 1.32691, -2256.1, 0.025994, 0.754429, 1.03299, 0.34851, 0.655882, 3, 45.5, 246, 76.4235, 0.115263, 0, 0, 0, 0, 3.39967e-07, 7429
-2969.4, 426114, -348.894, 1.41273, -2945.41, 0.160924, 0.572838, 0.993198, 0.349787, 0.651995, 0.0001, 91, 246, 54.1221, 0.201171, 0, 0, 1, 0, 1.14146e-06, 7433
-2969.4, 426114, -348.894, 1.41273, -2945.41, 0.160924, 0.572838, 0.993198, 0.349787, 0.651995, 3, 91, 246, 54.1221, 0.201171, 0, 0, 1, 0, 7.82294e-06, 7433
-6667.18, 284888, -254.394, 1.02015, -1738.18, 0.602364, 0.529803, 0.993198, 0.349787, 0.651995, 0.0001, 91, 246, 47.2035, 0.239871, 0, 0, 1, 0, 1.68702e-05, 7436
-4874.6, 671133, -304.15, 0.248226, -1500.61, 0.0236112, 0.470482, 1.03299, 0.34851, 0.655882, 0.0001, 45.5, 246, 43.0979, 0.113273, 0, 0, 0, 0, 0.000118393, 7438
-4874.6, 671133, -304.15, 0.248226, -1500.61, 0.0236112, 0.470482, 1.03299, 0.34851, 0.655882, 3, 45.5, 246, 43.0979, 0.113273, 0, 0, 0, 0, -4.4942e-05, 7438
-14624.4, 450694, -451.402, 3.51718, -2354.61, 0.108375, 0.609706, 1.03299, 0.34851, 0.655882, 3, 45.5, 246, 66.273, 0.224561, 0, 0, 0, 0, -2.74608e-06, 7439
-39009.3, 3.31597e+06, -1196.36, 0.777323, -2108.27, 0.107789, 0.754111, 1.03299, 0.34851, 0.655882, 3, 45.5, 246, 75.2084, 0.096012, 0, 0, 0, 0, -0.000253027, 7440
-9846.65, 287019, -268.091, 2.43637, -2213.84, 0.586618, 0.484225, 1.03299, 0.34851, 0.655882, 3, 45.5, 246, 53.09, 0.188765, 0, 0, 0, 0, -4.57198e-07, 7441
-10875.5, 274119, -103.716, 1.54312, -2057.83, 0.203688, 0.354998, 1.03299, 0.34851, 0.655882, 0.0001, 45.5, 246, 37.4762, 0.0900866, 0, 0, 0, 0, -1.45452e-05, 7444
-10875.5, 274119, -103.716, 1.54312, -2057.83, 0.203688, 0.354998, 1.03299, 0.34851, 0.655882, 3, 45.5, 246, 37.4762, 0.0900866, 0, 0, 0, 0, -2.47511e-05, 7444
-8811.08, 354671, -139.699, 1.64839, -2133.33, 0.222009, 0.331296, 0.993198, 0.349787, 0.651995, 0.0001, 91, 246, 37.4762, 0.0900866, 0, 0, 1, 0, -1.79932e-05, 7444
-8811.08, 354671, -139.699, 1.64839, -2133.33, 0.222009, 0.331296, 0.993198, 0.349787, 0.651995, 3, 91, 246, 37.4762, 0.0900866, 0, 0, 1, 0, -1.54371e-05, 7444
-9686.02, 505415, -334.394, 1.93009, -2746.42, 0.309126, 0.511602, 1.03299, 0.34851, 0.655882, 0.0001, 45.5, 246, 59.1402, 0.144819, 0, 0, 0, 0, -7.33644e-06, 7445
-9686.02, 505415, -334.394, 1.93009, -2746.42, 0.309126, 0.511602, 1.03299, 0.34851, 0.655882, 3, 45.5, 246, 59.1402, 0.144819, 0, 0, 0, 0, 6.39684e-06, 7445
-9493.52, 177633, -133.407, 1.92693, -1931.82, 0.846416, 0.379626, 1.03299, 0.34851, 0.655882, 3, 45.5, 246, 39.8366, 0.142072, 0, 0, 0, 0, 9.99084e-06, 7446
-18142.1, -487062, -78.6086, 0.125866, -2586.82, 0.255285, 0.363728, 1.03299, 0.34851, 0.655882, 0.0001, 45.5, 246, -98.451, 0.0529309, 0, 0, 0, 0, 3.11518e-05, 7448
-18142.1, -487062, -78.6086, 0.125866, -2586.82, 0.255285, 0.363728, 1.03299, 0.34851, 0.655882, 3, 45.5, 246, -98.451, 0.0529309, 0, 0, 0, 0, -5.21048e-05, 7448
-18823.3, -370439, -83.9572, 0.131378, -2695.86, 0.266091, 0.329184, 0.993198, 0.349787, 0.651995, 0.0001, 91, 246, -98.451, 0.0529309, 0, 0, 1, 0, 7.7211e-05, 7448
-18823.3, -370439, -83.9572, 0.131378, -2695.86, 0.266091, 0.329184, 0.993198, 0.349787, 0.651995, 3, 91, 246, -98.451, 0.0529309, 0, 0, 1, 0, -5.10365e-06, 7448
-19399.6, -241524, -89.4987, 0.136854, -2814.52, 0.277853, 0.298899, 0.958125, 0.351078, 0.648177, 0.0001, 182, 246, -98.451, 0.0529309, 0, 0, 0, 0, 5.01483e-05, 7448
-19399.6, -241524, -89.4987, 0.136854, -2814.52, 0.277853, 0.298899, 0.958125, 0.351078, 0.648177, 3, 182, 246, -98.451, 0.0529309, 0, 0, 0, 0, -4.19272e-05, 7448
-53264, 3.03647e+06, -1323.31, 0.731033, -1693.33, 0.137394, 0.882861, 1.03299, 0.34851, 0.655882, 3, 45.5, 246, 65.0176, 0.11589, 0, 0, 0, 0, -0.00019931, 7449
-11313.2, -289679, 7.25601, 0.653076, -1834.51, 0.680995, 0.358591, 1.03299, 0.34851, 0.655882, 0.0001, 45.5, 246, -76.0355, 0.0679937, 0, 0, 1, 0, -1.5135e-05, 7450
-11313.2, -289679, 7.25601, 0.653076, -1834.51, 0.680995, 0.358591, 1.03299, 0.34851, 0.655882, 3, 45.5, 246, -76.0355, 0.0679937, 0, 0, 1, 0, 3.08809e-05, 7450
-12412.7, -233575, -4.24736, 0.705125, -2056.03, 0.765383, 0.325682, 0.993198, 0.349787, 0.651995, 0.0001, 91, 246, -76.0355, 0.0679937, 0, 0, 1, 0, 3.17662e-05, 7450
-12412.7, -233575, -4.24736, 0.705125, -2056.03, 0.765383, 0.325682, 0.993198, 0.349787, 0.651995, 3, 91, 246, -76.0355, 0.0679937, 0, 0, 1, 0, 7.68168e-05, 7450
-9025.04, 270085, -167.378, 1.63948, -2604.53, 0.0372292, 0.409626, 1.03299, 0.34851, 0.655882, 3, 45.5, 246, 44.8455, 0.123593, 0, 0, 0, 0, 1.93339e-05, 7453
-6466.51, 391526, -217.326, 1.7413, -2631.08, 0.0500692, 0.391574, 0.993198, 0.349787, 0.651995, 0.0001, 91, 246, 44.8455, 0.123593, 0, 0, 1, 0, 4.53294e-05, 7453
-6466.51, 391526, -217.326, 1.7413, -2631.08, 0.0500692, 0.391574, 0.993198, 0.349787, 0.651995, 3, 91, 246, 44.8455, 0.123593, 0, 0, 1, 0, -1.35217e-05, 7453
-36838.1, 1.19594e+06, -781.47, 2.99191, -2652.55, 0.340613, 0.772463, 1.03299, 0.34851, 0.655882, 3, 45.5, 246, 79.4945, 0.171765, 0, 0, 0, 0, -2.03161e-05, 7467
-45413, 1.52956e+06, -761.097, 2.32855, -2163.82, -0.0258103, 0.693686, 1.03299, 0.34851, 0.655882, 3, 45.5, 246, 70.8262, 0.141674, 0, 0, 0, 0, 6.43287e-07, 7475
-4735.12, 224279, -217.78, 2.86654, -2231.41, 0.0608075, 0.367484, 0.958125, 0.351078, 0.648177, 0.0001, 182, 246, 38.8339, 0.190239, 0, 0, 0, 0, 1.52161e-05, 7481
-4735.12, 224279, -217.78, 2.86654, -2231.41, 0.0608075, 0.367484, 0.958125, 0.351078, 0.648177, 3, 182, 246, 38.8339, 0.190239, 0, 0, 0, 0, 1.37026e-05, 7481
-27703.3, -397324, -113.044, 0.361531, -2459.83, 0.117499, 0.370856, 0.993198, 0.349787, 0.651995, 0.0001, 91, 246, -118.121, 0.0963574, 0, 0, 1, 0, 1.00916e-05, 7482
-27703.3, -397324, -113.044, 0.361531, -2459.83, 0.117499, 0.370856, 0.993198, 0.349787, 0.651995, 3, 91, 246, -118.121, 0.0963574, 0, 0, 1, 0, -8.79924e-05, 7482
-37987.8, 2.23986e+06, -1057.18, 1.33887, -2374.36, 0.732149, 0.766768, 1.03299, 0.34851, 0.655882, 3, 45.5, 246, 78.0236, 0.112965, 0, 0, 0, 0, -6.47099e-05, 7484
-5366.22, 376394, -187.787, 0.416542, -2381.57, 0.00497373, 0.415646, 1.03299, 0.34851, 0.655882, 0.0001, 45.5, 246, 44.2042, 0.100762, 0, 0, 0, 0, 1.08952e-05, 7487
-5366.22, 376394, -187.787, 0.416542, -2381.57, 0.00497373, 0.415646, 1.03299, 0.34851, 0.655882, 3, 45.5, 246, 44.2042, 0.100762, 0, 0, 0, 0, -0.000134879, 7487
-4373.73, 476908, -203.657, 0.431827, -2385.78, 0.00576833, 0.38588, 0.993198, 0.349787, 0.651995, 0.0001, 91, 246, 44.2042, 0.100762, 0, 0, 1, 0, 1.46126e-05, 7487
-4373.73, 476908, -203.657, 0.431827, -2385.78, 0.00576833, 0.38588, 0.993198, 0.349787, 0.651995, 3, 91, 246, 44.2042, 0.100762, 0, 0, 1, 0, -8.83657e-05, 7487
-50016.8, 1.89314e+06, -678.916, 2.17964, -2595.03, 0.16388, 0.540813, 1.03299, 0.34851, 0.655882, 3, 45.5, 246, 77.7463, 0.100045, 0, 0, 0, 0, -2.00811e-05, 7488
-4204.13, 505799, -310.57, 0.874235, -2694.98, 0.524868, 0.491422, 1.03299, 0.34851, 0.655882, 0.0001, 45.5, 246, 55.6336, 0.122446, 0, 0, 0, 0, -1.06614e-05, 7489
-4204.13, 505799, -310.57, 0.874235, -2694.98, 0.524868, 0.491422, 1.03299, 0.34851, 0.655882, 3, 45.5, 246, 55.6336, 0.122446, 0, 0, 0, 0, -2.35385e-05, 7489
-5511.41, 312379, -215.52, 0.51342, -2324.28, -0.00120725, 0.461904, 1.03299, 0.34851, 0.655882, 0.0001, 45.5, 246, 45.4232, 0.141822, 0, 0, 0, 0, -1.40018e-05, 7490
-5511.41, 312379, -215.52, 0.51342, -2324.28, -0.00120725, 0.461904, 1.03299, 0.34851, 0.655882, 3, 45.5, 246, 45.4232, 0.141822, 0, 0, 0, 0, 0.000446532, 7490
-4384.92, 408176, -234.937, 0.533701, -2327.16, -3.66001e-06, 0.436433, 0.993198, 0.349787, 0.651995, 0.0001, 91, 246, 45.4232, 0.141822, 0, 0, 1, 0, 4.07146e-05, 7490
-4384.92, 408176, -234.937, 0.533701, -2327.16, -3.66001e-06, 0.436433, 0.993198, 0.349787, 0.651995, 3, 91, 246, 45.4232, 0.141822, 0, 0, 1, 0, -0.000150733, 7490
-21321.1, 358946, -59.4247, 3.38564, -2259.2, -0.0541459, 0.190174, 1.03299, 0.34851, 0.655882, 0.0001, 45.5, 246, 41.0665, 0.0734056, 0, 0, 0, 0, 1.12929e-05, 7491
-21321.1, 358946, -59.4247, 3.38564, -2259.2, -0.0541459, 0.190174, 1.03299, 0.34851, 0.655882, 3, 45.5, 246, 41.0665, 0.0734056, 0, 0, 0, 0, -8.36157e-06, 7491
-9414.19, 172283, -2.76683, 0.432171, -1812.77, 0.213211, 0.340681, 1.03299, 0.34851, 0.655882, 0.0001, 45.5, 246, 20.8546, 0.0142397, 0, 0, 1, 0, -9.71069e-06, 7494
-9414.19, 172283, -2.76683, 0.432171, -1812.77, 0.213211, 0.340681, 1.03299, 0.34851, 0.655882, 3, 45.5, 246, 20.8546, 0.0142397, 0, 0, 1, 0, -4.03261e-05, 7494
-9265.2, 234249, -10.1426, 0.452274, -1876.18, 0.221533, 0.30526, 0.993198, 0.349787, 0.651995, 0.0001, 91, 246, 20.8546, 0.0142397, 0, 0, 1, 0, -1.51885e-05, 7494
-9265.2, 234249, -10.1426, 0.452274, -1876.18, 0.221533, 0.30526, 0.993198, 0.349787, 0.651995, 3, 91, 246, 20.8546, 0.0142397, 0, 0, 1, 0, -7.90638e-06, 7494
-20708.5, 1.38989e+06, -823.126, 1.1701, -1868.72, 0.0486636, 0.819262, 1.03299, 0.34851, 0.655882, 3, 45.5, 246, 65.0601, 0.158579, 0, 0, 0, 0, 7.95661e-06, 7498
-25558.4, 2.20096e+06, -925.473, 1.37228, -2721.54, 0.131758, 0.71612, 1.03299, 0.34851, 0.655882, 3, 45.5, 246, 84.498, 0.111822, 0, 0, 0, 0, -2.44605e-05, 7500
