-6101.62	77020.1	-156.753	2.34262	-701.554	0.101092	0.348825	1.03299	0.34851	0.655882	0.0001	45.5	0.222423	65003	
-6101.62	77020.1	-156.753	2.34262	-701.554	0.101092	0.348825	1.03299	0.34851	0.655882	3	45.5	0.222423	65003	
-5124.75	86708.8	-183.803	2.52651	-725.389	0.129176	0.340006	0.993198	0.349787	0.651995	0.0001	91	0.222423	65003	
-5124.75	86708.8	-183.803	2.52651	-725.389	0.129176	0.340006	0.993198	0.349787	0.651995	3	91	0.222423	65003	
-3826.43	97524.4	-215.015	2.73325	-756.206	0.162859	0.341692	0.958125	0.351078	0.648177	0.0001	182	0.222423	65003	
-3826.43	97524.4	-215.015	2.73325	-756.206	0.162859	0.341692	0.958125	0.351078	0.648177	3	182	0.222423	65003	
-1472.78	114279	-264.65	3.05424	-811.311	0.218885	0.360664	0.9175	0.352806	0.64323	0.0001	455	0.222423	65003	
-1472.78	114279	-264.65	3.05424	-811.311	0.218885	0.360664	0.9175	0.352806	0.64323	3	455	0.222423	65003	
-2548.23	37470.4	-190.165	3.99531	-690.828	0.239311	0.189762	0.993198	0.349787	0.651995	0.0001	91	0.0650263	65004	
-2548.23	37470.4	-190.165	3.99531	-690.828	0.239311	0.189762	0.993198	0.349787	0.651995	3	91	0.0650263	65004	
-1404.68	47786.2	-237.082	4.46152	-746.608	0.330287	0.231378	0.958125	0.351078	0.648177	0.0001	182	0.0650263	65004	
-1404.68	47786.2	-237.082	4.46152	-746.608	0.330287	0.231378	0.958125	0.351078	0.648177	3	182	0.0650263	65004	
1074.12	66032.1	-321.233	5.28491	-862.325	0.502682	0.332779	0.9175	0.352806	0.64323	0.0001	455	0.0650263	65004	
1074.12	66032.1	-321.233	5.28491	-862.325	0.502682	0.332779	0.9175	0.352806	0.64323	3	455	0.0650263	65004	
-9227.92	84295.3	-25.3758	3.67115	-809.489	0.939169	0.178099	0.993198	0.349787	0.651995	0.0001	91	0.0325129	65005	
-10150.2	197546	-250.691	2.37732	-685.004	0.0309342	0.4429	1.03299	0.34851	0.655882	3	45.5	0.228558	65006	
-7590.14	207386	-285.233	2.56262	-707.269	0.0580055	0.44239	0.993198	0.349787	0.651995	0.0001	91	0.228558	65006	
-20877.1	357595	-16.6822	2.57521	-801.095	0.147881	0.225007	1.03299	0.34851	0.655882	0.0001	45.5	0.0238229	65007	
-20877.1	357595	-16.6822	2.57521	-801.095	0.147881	0.225007	1.03299	0.34851	0.655882	3	45.5	0.0238229	65007	
-10986.3	90356.7	16.8369	2.99498	-1170.56	-0.0293026	0.20941	1.03299	0.34851	0.655882	3	45.5	0.0368462	65008	
-33554.1	917237	-13.7324	1.61916	-773.092	0.331268	0.288136	1.03299	0.34851	0.655882	3	45.5	0.00789995	65009	
-23065.8	879527	-290.759	1.09947	-591.477	0.178481	0.414848	1.03299	0.34851	0.655882	3	45.5	0.0841868	65011	
-23854.5	427615	-70.1575	2.80596	-1018.06	-0.0296772	0.217569	1.03299	0.34851	0.655882	3	45.5	0.0503015	65013	
-18715.7	444651	-102.632	3.02116	-1022.82	0.0075838	0.211541	0.993198	0.349787	0.651995	3	91	0.0503015	65013	
-28297.7	821100	-90.8962	1.51245	-646.848	0.376979	0.311225	1.03299	0.34851	0.655882	3	45.5	0.0294288	65016	
-17321.7	464545	-150.37	1.75382	-1103.17	0.160237	0.340838	1.03299	0.34851	0.655882	3	45.5	0.0829812	65017	
-14319.5	420595	-254.891	1.27664	-709.006	0.557313	0.446295	1.03299	0.34851	0.655882	3	45.5	0.137831	65020	
-12816.3	418802	-381.81	1.07296	-785.98	0.193554	0.648055	1.03299	0.34851	0.655882	3	45.5	0.226752	65021	
-38131.8	852550	-432.394	2.3453	-775.932	0.0283241	0.465948	1.03299	0.34851	0.655882	0.0001	45.5	0.132874	65022	
-38131.8	852550	-432.394	2.3453	-775.932	0.0283241	0.465948	1.03299	0.34851	0.655882	3	45.5	0.132874	65022	
-28105.8	867692	-482.596	2.5278	-810.419	0.054636	0.466691	0.993198	0.349787	0.651995	3	91	0.132874	65022	
-9532.74	62902.3	-10.9186	2.69029	-830.756	-0.013883	0.243866	1.03299	0.34851	0.655882	0.0001	45.5	0.0487216	65023	
-9532.74	62902.3	-10.9186	2.69029	-830.756	-0.013883	0.243866	1.03299	0.34851	0.655882	3	45.5	0.0487216	65023	
-15207.8	659843	-283.097	0.992201	-916.136	0.0217436	0.447483	1.03299	0.34851	0.655882	3	45.5	0.111719	65025	
-17490.3	383507	-354.51	2.82968	-1014.74	-0.0333889	0.487353	1.03299	0.34851	0.655882	3	45.5	0.205526	65026	
-11561.8	403560	-412.704	3.07068	-1042.11	0.0048177	0.502653	0.993198	0.349787	0.651995	0.0001	91	0.205526	65026	
-11561.8	403560	-412.704	3.07068	-1042.11	0.0048177	0.502653	0.993198	0.349787	0.651995	3	91	0.205526	65026	
-25307.6	487382	-173.49	2.72429	-803.68	-0.0277278	0.270081	1.03299	0.34851	0.655882	0.0001	45.5	0.0880393	65027	
-25307.6	487382	-173.49	2.72429	-803.68	-0.0277278	0.270081	1.03299	0.34851	0.655882	3	45.5	0.0880393	65027	
-19433.5	498137	-207.736	2.93311	-816.509	0.00739256	0.265147	0.993198	0.349787	0.651995	0.0001	91	0.0880393	65027	
-19433.5	498137	-207.736	2.93311	-816.509	0.00739256	0.265147	0.993198	0.349787	0.651995	3	91	0.0880393	65027	
-14072.4	848099	-448.136	0.780186	-1116.56	0.0913813	0.566677	1.03299	0.34851	0.655882	3	45.5	0.136854	65030	
-6180.34	152750	-313.438	3.51769	-632.789	0.250223	0.33077	1.03299	0.34851	0.655882	0.0001	45.5	0.229498	65031	
-6180.34	152750	-313.438	3.51769	-632.789	0.250223	0.33077	1.03299	0.34851	0.655882	3	45.5	0.229498	65031	
-2710.23	164580	-366.207	3.91465	-695.883	0.323619	0.35628	0.993198	0.349787	0.651995	0.0001	91	0.229498	65031	
-2710.23	164580	-366.207	3.91465	-695.883	0.323619	0.35628	0.993198	0.349787	0.651995	3	91	0.229498	65031	
1805.8	180232	-432.437	4.406	-782.643	0.421082	0.406069	0.958125	0.351078	0.648177	0.0001	182	0.229498	65031	
1805.8	180232	-432.437	4.406	-782.643	0.421082	0.406069	0.958125	0.351078	0.648177	3	182	0.229498	65031	
-13514.3	529625	-406.558	2.52156	-1162.95	0.027487	0.498053	0.993198	0.349787	0.651995	3	91	0.172874	65032	
-25820.6	524952	-359.641	2.87805	-1042.72	0.439006	0.410027	1.03299	0.34851	0.655882	3	45.5	0.153823	65033	
-17889.5	561193	-420.824	3.20312	-1156.42	0.515295	0.421023	0.993198	0.349787	0.651995	0.0001	91	0.153823	65033	
-17889.5	561193	-420.824	3.20312	-1156.42	0.515295	0.421023	0.993198	0.349787	0.651995	3	91	0.153823	65033	
-20850.8	644023	-430.358	1.80123	-1088.07	0.0290877	0.581104	1.03299	0.34851	0.655882	3	45.5	0.171964	65039	
-28995.9	855418	-292.28	1.5503	-666.51	0.459299	0.392467	1.03299	0.34851	0.655882	3	45.5	0.0827937	65042	
-13969.7	318903	-259.54	3.8113	-844.073	0.589893	0.241506	0.993198	0.349787	0.651995	0.0001	91	0.125014	65043	
-13969.7	318903	-259.54	3.8113	-844.073	0.589893	0.241506	0.993198	0.349787	0.651995	3	91	0.125014	65043	
-22881.4	796939	-376.414	1.61128	-1160.24	-0.0121452	0.489728	1.03299	0.34851	0.655882	3	45.5	0.125408	65045	
-11319.4	119281	-11.6175	2.58366	-861.851	-0.0314845	0.245132	1.03299	0.34851	0.655882	0.0001	45.5	0.0421877	65046	
-11319.4	119281	-11.6175	2.58366	-861.851	-0.0314845	0.245132	1.03299	0.34851	0.655882	3	45.5	0.0421877	65046	
-18955.1	399084	-30.7184	1.94879	-611.735	-0.00430133	0.277969	1.03299	0.34851	0.655882	3	45.5	0.0252407	65047	
-25481.4	630454	-301.325	3.55072	-1047.17	0.595272	0.244694	0.993198	0.349787	0.651995	0.0001	91	0.0966171	65048	
-25481.4	630454	-301.325	3.55072	-1047.17	0.595272	0.244694	0.993198	0.349787	0.651995	3	91	0.0966171	65048	
-20695.7	371137	-94.5314	2.78899	-994.054	-0.0365291	0.23488	1.03299	0.34851	0.655882	3	45.5	0.0675054	65051	
-8583.47	336329	-308.161	0.304365	-858.471	0.370535	0.618685	1.03299	0.34851	0.655882	3	45.5	0.239688	65052	
-9173.09	519082	-395.611	0.300993	-844.291	0.107578	0.635269	1.03299	0.34851	0.655882	3	45.5	0.199845	65055	
-28920.2	558372	-216.517	2.71292	-722.665	0.108495	0.284274	1.03299	0.34851	0.655882	0.0001	45.5	0.094115	65056	
-28920.2	558372	-216.517	2.71292	-722.665	0.108495	0.284274	1.03299	0.34851	0.655882	3	45.5	0.094115	65056	
-22079.5	571403	-252.33	2.94314	-754.887	0.146114	0.280257	0.993198	0.349787	0.651995	0.0001	91	0.094115	65056	
-22079.5	571403	-252.33	2.94314	-754.887	0.146114	0.280257	0.993198	0.349787	0.651995	3	91	0.094115	65056	
-21815.3	832289	-454.691	1.29417	-985.942	0.128886	0.565898	1.03299	0.34851	0.655882	3	45.5	0.141093	65057	
-25668.4	596431	-200.404	2.13399	-801.506	0.217565	0.329623	1.03299	0.34851	0.655882	3	45.5	0.0836847	65058	
-11341.9	263268	-279.882	3.99265	-761.537	0.165223	0.255026	0.993198	0.349787	0.651995	0.0001	91	0.149345	65060	
-11341.9	263268	-279.882	3.99265	-761.537	0.165223	0.255026	0.993198	0.349787	0.651995	3	91	0.149345	65060	
-5703.08	278197	-339.079	4.44774	-821.538	0.24995	0.300188	0.958125	0.351078	0.648177	0.0001	182	0.149345	65060	
-5703.08	278197	-339.079	4.44774	-821.538	0.24995	0.300188	0.958125	0.351078	0.648177	3	182	0.149345	65060	
-13463.2	422675	-397.589	1.61216	-1069.21	0.0643684	0.65588	1.03299	0.34851	0.655882	3	45.5	0.233534	65061	
-15636	766370	-391.209	0.865057	-911.931	0.0569593	0.528094	1.03299	0.34851	0.655882	3	45.5	0.132773	65062	
-8496.85	91629.9	-99.3447	2.34628	-1015.22	0.0292749	0.31759	1.03299	0.34851	0.655882	0.0001	45.5	0.152414	65064	
-14335.2	478275	-227.836	1.07033	-623.909	0.00877225	0.426897	1.03299	0.34851	0.655882	3	45.5	0.12083	65065	
-18112.3	348692	-193.883	2.84577	-1020.39	-0.0295695	0.301849	1.03299	0.34851	0.655882	3	45.5	0.125099	65066	
-24906	608919	-160.691	1.86579	-696.012	0.517618	0.317439	1.03299	0.34851	0.655882	3	45.5	0.0631861	65067	
-9796.1	368856	-360.42	2.83525	-1186.38	0.0515449	0.473605	0.993198	0.349787	0.651995	0.0001	91	0.198425	65070	
-9796.1	368856	-360.42	2.83525	-1186.38	0.0515449	0.473605	0.993198	0.349787	0.651995	3	91	0.198425	65070	
-13754.1	284036	-156.877	2.32899	-1167.2	-0.0193678	0.336415	1.03299	0.34851	0.655882	3	45.5	0.125903	65071	
-14445.4	401173	-333.884	1.42025	-675.548	0.0544997	0.561755	1.03299	0.34851	0.655882	3	45.5	0.202488	65072	
-7346.34	425070	-394.49	1.60579	-718.777	0.0759041	0.55291	0.958125	0.351078	0.648177	3	182	0.202488	65072	
-38596.9	834928	-417.411	2.41521	-729.521	0.00230183	0.447643	1.03299	0.34851	0.655882	0.0001	45.5	0.130808	65073	
-38596.9	834928	-417.411	2.41521	-729.521	0.00230183	0.447643	1.03299	0.34851	0.655882	3	45.5	0.130808	65073	
-28630.8	847297	-466.259	2.6017	-760.543	0.0299456	0.448414	0.993198	0.349787	0.651995	0.0001	91	0.130808	65073	
-28630.8	847297	-466.259	2.6017	-760.543	0.0299456	0.448414	0.993198	0.349787	0.651995	3	91	0.130808	65073	
-17079.7	396460	-19.889	1.66213	-1073.22	0.0641869	0.296518	1.03299	0.34851	0.655882	3	45.5	0.024315	65074	
-16840	275699	-158.218	3.13914	-805.24	-0.0471511	0.241982	1.03299	0.34851	0.655882	0.0001	45.5	0.113156	65075	
-16840	275699	-158.218	3.13914	-805.24	-0.0471511	0.241982	1.03299	0.34851	0.655882	3	45.5	0.113156	65075	
-12895.7	286568	-195.87	3.40147	-817.357	-0.000150705	0.24739	0.993198	0.349787	0.651995	0.0001	91	0.113156	65075	
-12895.7	286568	-195.87	3.40147	-817.357	-0.000150705	0.24739	0.993198	0.349787	0.651995	3	91	0.113156	65075	
-23135.1	515231	-155.658	3.32115	-696.989	0.135338	0.193641	0.993198	0.349787	0.651995	0.0001	91	0.0615411	65076	
-23135.1	515231	-155.658	3.32115	-696.989	0.135338	0.193641	0.993198	0.349787	0.651995	3	91	0.0615411	65076	
-26800.9	589472	-238.682	2.29154	-718.017	0.14089	0.341964	1.03299	0.34851	0.655882	3	45.5	0.0994623	65078	
-20629.5	603956	-271.465	2.47389	-751.98	0.169585	0.331504	0.993198	0.349787	0.651995	3	91	0.0994623	65078	
-25576.6	687559	-231.853	1.84718	-788.086	-0.00175458	0.36497	1.03299	0.34851	0.655882	3	45.5	0.0884583	65079	
-27554.5	594228	-153.801	3.51833	-751.722	0.414514	0.164701	0.993198	0.349787	0.651995	0.0001	91	0.0526109	65081	
-27554.5	594228	-153.801	3.51833	-751.722	0.414514	0.164701	0.993198	0.349787	0.651995	3	91	0.0526109	65081	
-8644.9	99544.6	-142.8	3.15996	-535.754	0.63116	0.219712	1.03299	0.34851	0.655882	0.0001	45.5	0.118074	65082	
-8644.9	99544.6	-142.8	3.15996	-535.754	0.63116	0.219712	1.03299	0.34851	0.655882	3	45.5	0.118074	65082	
-7081.64	109057	-172.617	3.55861	-612.169	0.756055	0.226297	0.993198	0.349787	0.651995	0.0001	91	0.118074	65082	
-7081.64	109057	-172.617	3.55861	-612.169	0.756055	0.226297	0.993198	0.349787	0.651995	3	91	0.118074	65082	
-4969.9	122118	-211.793	4.06509	-719.36	0.930997	0.254842	0.958125	0.351078	0.648177	0.0001	182	0.118074	65082	
-4969.9	122118	-211.793	4.06509	-719.36	0.930997	0.254842	0.958125	0.351078	0.648177	3	182	0.118074	65082	
-817.784	149386	-288.068	5.01435	-948.624	1.30392	0.338809	0.9175	0.352806	0.64323	0.0001	455	0.118074	65082	
-817.784	149386	-288.068	5.01435	-948.624	1.30392	0.338809	0.9175	0.352806	0.64323	3	455	0.118074	65082	
-6863.41	6270.01	-56.1139	3.67561	-885.629	0.130411	0.211502	0.993198	0.349787	0.651995	0.0001	91	0.041887	65083	
-6863.41	6270.01	-56.1139	3.67561	-885.629	0.130411	0.211502	0.993198	0.349787	0.651995	3	91	0.041887	65083	
-19138.8	279576	-40.6046	3.04737	-701.932	0.256169	0.183231	1.03299	0.34851	0.655882	0.0001	45.5	0.0394216	65085	
-15502.7	292014	-64.8971	3.34623	-738.64	0.31372	0.182971	0.993198	0.349787	0.651995	0.0001	91	0.0394216	65085	
-15502.7	292014	-64.8971	3.34623	-738.64	0.31372	0.182971	0.993198	0.349787	0.651995	3	91	0.0394216	65085	
-16656	547761	-272.652	1.38485	-890.859	0.163598	0.441333	1.03299	0.34851	0.655882	3	45.5	0.124478	65086	
-29043.9	693651	-224.158	2.1793	-969.554	0.341449	0.326801	1.03299	0.34851	0.655882	3	45.5	0.0814976	65087	
-22125.6	724914	-260.198	2.37308	-1041.61	0.38495	0.312981	0.993198	0.349787	0.651995	3	91	0.0814976	65087	
-17944.1	348959	-86.847	3.9164	-1012.55	0.000184859	0.13165	0.993198	0.349787	0.651995	3	91	0.0477074	65088	
-14574.9	335741	-323.119	2.68943	-1107.71	0.0466591	0.481425	1.03299	0.34851	0.655882	3	45.5	0.209053	65092	
-9584.6	360707	-378.77	2.92256	-1144.95	0.0818332	0.492391	0.993198	0.349787	0.651995	0.0001	91	0.209053	65092	
-9584.6	360707	-378.77	2.92256	-1144.95	0.0818332	0.492391	0.993198	0.349787	0.651995	3	91	0.209053	65092	
-17009.3	373325	-290.069	2.30173	-795.295	0.22098	0.437591	1.03299	0.34851	0.655882	3	45.5	0.17033	65094	
-13596.5	220270	-214.375	3.56653	-824.626	0.0990941	0.237077	1.03299	0.34851	0.655882	0.0001	45.5	0.152169	65095	
-13596.5	220270	-214.375	3.56653	-824.626	0.0990941	0.237077	1.03299	0.34851	0.655882	3	45.5	0.152169	65095	
-9646.84	234563	-263.54	3.92894	-865.504	0.163338	0.257247	0.993198	0.349787	0.651995	0.0001	91	0.152169	65095	
-9646.84	234563	-263.54	3.92894	-865.504	0.163338	0.257247	0.993198	0.349787	0.651995	3	91	0.152169	65095	
-4638.72	252182	-324.172	4.37079	-926.168	0.245284	0.299904	0.958125	0.351078	0.648177	0.0001	182	0.152169	65095	
-4638.72	252182	-324.172	4.37079	-926.168	0.245284	0.299904	0.958125	0.351078	0.648177	3	182	0.152169	65095	
-10468.5	76504.9	25.9673	2.68712	-1137.07	-0.0297141	0.23727	1.03299	0.34851	0.655882	3	45.5	0.0275233	65097	
-39420	636021	-427.641	3.36564	-587.121	-0.0159677	0.387304	1.03299	0.34851	0.655882	0.0001	45.5	0.158834	65099	
-39420	636021	-427.641	3.36564	-587.121	-0.0159677	0.387304	1.03299	0.34851	0.655882	3	45.5	0.158834	65099	
-28663.1	644419	-487.582	3.6848	-630.548	0.0385351	0.410959	0.993198	0.349787	0.651995	0.0001	91	0.158834	65099	
-28663.1	644419	-487.582	3.6848	-630.548	0.0385351	0.410959	0.993198	0.349787	0.651995	3	91	0.158834	65099	
-17072.4	686084	-170.277	1.00912	-794.401	0.050808	0.366748	1.03299	0.34851	0.655882	3	45.5	0.0652521	65102	
-22796.7	611311	-440.381	1.96459	-926.652	0.100761	0.588145	1.03299	0.34851	0.655882	3	45.5	0.180166	65103	
-15978.7	633771	-489.434	2.11744	-968.171	0.12097	0.592425	0.993198	0.349787	0.651995	0.0001	91	0.180166	65103	
-15978.7	633771	-489.434	2.11744	-968.171	0.12097	0.592425	0.993198	0.349787	0.651995	3	91	0.180166	65103	
-19637.3	803251	-52.6588	0.876051	-769.431	0.664495	0.329242	1.03299	0.34851	0.655882	3	45.5	0.017183	65105	
-12452.9	402421	-455.974	2.79246	-828.88	0.472257	0.572018	0.993198	0.349787	0.651995	0.0001	91	0.219562	65106	
-12452.9	402421	-455.974	2.79246	-828.88	0.472257	0.572018	0.993198	0.349787	0.651995	3	91	0.219562	65106	
-13755.9	236041	-83.2992	2.20817	-787.278	0.131449	0.288143	1.03299	0.34851	0.655882	3	45.5	0.0780608	65108	
-5595	241.009	-63.2313	3.54325	-1037.27	0.275807	0.189765	1.03299	0.34851	0.655882	3	45.5	0.0405206	65109	
-5494.33	20128.2	-105.597	3.93527	-1098.22	0.352535	0.206758	0.993198	0.349787	0.651995	3	91	0.0405206	65109	
-2717.13	83829	-260.211	5.28532	-1365.02	0.652816	0.348745	0.9175	0.352806	0.64323	0.0001	455	0.0405206	65109	
-2717.13	83829	-260.211	5.28532	-1365.02	0.652816	0.348745	0.9175	0.352806	0.64323	3	455	0.0405206	65109	
-10209	352798	-271.8	0.696969	-755.909	0.302439	0.52913	1.03299	0.34851	0.655882	3	45.5	0.191391	65110	
-6849.18	390564	-307.256	0.786121	-848.328	0.339734	0.497248	0.958125	0.351078	0.648177	3	182	0.191391	65110	
-22546	570250	-219.186	2.08546	-1011.64	0.0190687	0.35554	1.03299	0.34851	0.655882	3	45.5	0.0994012	65111	
-13484.9	448917	-359.013	2.95286	-1100.31	0.00495881	0.425103	0.993198	0.349787	0.651995	0.0001	91	0.16703	65114	
-13484.9	448917	-359.013	2.95286	-1100.31	0.00495881	0.425103	0.993198	0.349787	0.651995	3	91	0.16703	65114	
-9803.36	189831	-166.423	1.50063	-901.32	0.664903	0.414851	1.03299	0.34851	0.655882	3	45.5	0.178535	65115	
-7864.05	1842.11	-4.62619	2.61812	-705.687	0.735908	0.252946	1.03299	0.34851	0.655882	0.0001	45.5	0.0414556	65116	
-7864.05	1842.11	-4.62619	2.61812	-705.687	0.735908	0.252946	1.03299	0.34851	0.655882	3	45.5	0.0414556	65116	
-7974.45	11663.6	-23.9454	2.93751	-801.852	0.871049	0.245536	0.993198	0.349787	0.651995	0.0001	91	0.0414556	65116	
-14487.8	165751	15.5971	3.05179	-801.404	0.566162	0.178453	1.03299	0.34851	0.655882	3	45.5	0.0168545	65118	
-12322.3	183057	-7.87696	3.4119	-883.021	0.672104	0.178887	0.993198	0.349787	0.651995	0.0001	91	0.0168545	65118	
-14278.9	230253	-176.462	3.42558	-946.1	-0.0519759	0.234672	1.03299	0.34851	0.655882	0.0001	45.5	0.135214	65119	
-14278.9	230253	-176.462	3.42558	-946.1	-0.0519759	0.234672	1.03299	0.34851	0.655882	3	45.5	0.135214	65119	
-10494.8	245797	-223.686	3.73155	-961.211	0.00427588	0.24913	0.993198	0.349787	0.651995	0.0001	91	0.135214	65119	
-29484.5	752825	-123.261	1.88822	-705.476	-0.0153856	0.298726	1.03299	0.34851	0.655882	3	45.5	0.0457201	65120	
-12849.5	232051	-133.333	2.30583	-956.071	0.250379	0.316872	1.03299	0.34851	0.655882	3	45.5	0.117767	65121	
-21496.9	871488	-67.1825	0.996731	-863.669	0.154647	0.328455	1.03299	0.34851	0.655882	3	45.5	0.0221896	65122	
-17988	492460	-220.853	1.70491	-831.913	0.0485489	0.389339	1.03299	0.34851	0.655882	3	45.5	0.112196	65123	
-10216.3	363263	-389.482	2.69623	-967.977	0.000255847	0.526768	0.993198	0.349787	0.651995	0.0001	91	0.21797	65124	
-24168.4	935746	-394.261	1.3317	-1018.98	0.0072898	0.490335	1.03299	0.34851	0.655882	3	45.5	0.112009	65125	
-26167.2	596003	-97.6306	3.26371	-961.618	0.335798	0.172486	0.993198	0.349787	0.651995	3	91	0.0362619	65126	
-21365.8	702530	-270.95	1.61855	-1104.42	-0.00511549	0.409333	1.03299	0.34851	0.655882	3	45.5	0.102252	65127	
-23699	529355	-156.731	2.19918	-794.779	0.0887108	0.303607	1.03299	0.34851	0.655882	3	45.5	0.0753606	65128	
-19751.5	651816	-35.9006	1.10036	-667.858	0.636951	0.31954	1.03299	0.34851	0.655882	3	45.5	0.015627	65129	
-10371.4	169181	-148.96	2.10578	-729.88	0.0500413	0.356334	1.03299	0.34851	0.655882	0.0001	45.5	0.160435	65130	
-10371.4	169181	-148.96	2.10578	-729.88	0.0500413	0.356334	1.03299	0.34851	0.655882	3	45.5	0.160435	65130	
-36353.8	881468	-372.075	2.18228	-821.514	-0.0119156	0.419575	1.03299	0.34851	0.655882	3	45.5	0.112784	65131	
-27106.3	895055	-415.471	2.33653	-844.804	0.0104838	0.412571	0.993198	0.349787	0.651995	3	91	0.112784	65131	
-7665.84	223721	-145.567	0.819184	-1112.03	0.393512	0.358398	0.958125	0.351078	0.648177	0.0001	182	0.165276	65132	
-30875.4	515616	-392.645	3.36572	-624.644	-0.0546065	0.385863	1.03299	0.34851	0.655882	0.0001	45.5	0.170384	65133	
-30875.4	515616	-392.645	3.36572	-624.644	-0.0546065	0.385863	1.03299	0.34851	0.655882	3	45.5	0.170384	65133	
-18376.8	448578	-266.965	3.07273	-647.395	0.0138134	0.303963	0.993198	0.349787	0.651995	0.0001	91	0.118204	65135	
-18376.8	448578	-266.965	3.07273	-647.395	0.0138134	0.303963	0.993198	0.349787	0.651995	3	91	0.118204	65135	
-27684.2	637856	-222.954	3.36186	-771.048	0.523129	0.208504	0.993198	0.349787	0.651995	3	91	0.0713414	65136	
-11729.9	216293	-247.053	2.76568	-781.101	0.605896	0.365405	1.03299	0.34851	0.655882	0.0001	45.5	0.185234	65137	
-11729.9	216293	-247.053	2.76568	-781.101	0.605896	0.365405	1.03299	0.34851	0.655882	3	45.5	0.185234	65137	
-8471.99	237032	-289.543	3.09764	-888.187	0.711726	0.369874	0.993198	0.349787	0.651995	0.0001	91	0.185234	65137	
-8471.99	237032	-289.543	3.09764	-888.187	0.711726	0.369874	0.993198	0.349787	0.651995	3	91	0.185234	65137	
-4139.24	264822	-343.72	3.50946	-1033.82	0.855827	0.391698	0.958125	0.351078	0.648177	0.0001	182	0.185234	65137	
-4139.24	264822	-343.72	3.50946	-1033.82	0.855827	0.391698	0.958125	0.351078	0.648177	3	182	0.185234	65137	
-24668.6	587265	-184.877	3.24761	-840.22	0.0606856	0.20995	0.993198	0.349787	0.651995	3	91	0.0678856	65140	
-13690.8	439568	-342.109	1.38095	-930.764	0.113539	0.563199	1.03299	0.34851	0.655882	3	45.5	0.193041	65142	
-17298.1	890279	-297.457	0.88028	-957.135	0.0326781	0.429679	1.03299	0.34851	0.655882	3	45.5	0.0878305	65143	
-8877.74	929970	-341.002	0.96434	-983.836	0.0405709	0.382959	0.958125	0.351078	0.648177	3	182	0.0878305	65143	
-13946	236356	-252.614	3.50246	-875.906	0.657919	0.260983	1.03299	0.34851	0.655882	0.0001	45.5	0.161502	65145	
-13946	236356	-252.614	3.50246	-875.906	0.657919	0.260983	1.03299	0.34851	0.655882	3	45.5	0.161502	65145	
-9476.08	262019	-308.758	3.98338	-1011.56	0.802806	0.28241	0.993198	0.349787	0.651995	0.0001	91	0.161502	65145	
-9476.08	262019	-308.758	3.98338	-1011.56	0.802806	0.28241	0.993198	0.349787	0.651995	3	91	0.161502	65145	
-3333.77	298320	-384.543	4.61205	-1208.07	1.01217	0.332078	0.958125	0.351078	0.648177	0.0001	182	0.161502	65145	
-3333.77	298320	-384.543	4.61205	-1208.07	1.01217	0.332078	0.958125	0.351078	0.648177	3	182	0.161502	65145	
-12568.8	252269	-308.452	3.28284	-878.511	-0.0411829	0.395403	1.03299	0.34851	0.655882	0.0001	45.5	0.216618	65147	
-12568.8	252269	-308.452	3.28284	-878.511	-0.0411829	0.395403	1.03299	0.34851	0.655882	3	45.5	0.216618	65147	
-7960.62	267368	-365.088	3.58404	-906.652	0.010548	0.416815	0.993198	0.349787	0.651995	0.0001	91	0.216618	65147	
-7960.62	267368	-365.088	3.58404	-906.652	0.010548	0.416815	0.993198	0.349787	0.651995	3	91	0.216618	65147	
-2151.85	285527	-432.879	3.94314	-952.084	0.072895	0.45713	0.958125	0.351078	0.648177	0.0001	182	0.216618	65147	
-2151.85	285527	-432.879	3.94314	-952.084	0.072895	0.45713	0.958125	0.351078	0.648177	3	182	0.216618	65147	
-17683	-95269.8	-171.127	0.829337	-825.636	1.11516	0.345473	0.958125	0.351078	0.648177	3	182	0.0883616	65148	
-7198.38	-21361	9.30889	3.0269	-731.321	0.204798	0.229069	1.03299	0.34851	0.655882	3	45.5	0.0403771	65149	
-7607.85	-12251.3	-11.4561	3.31701	-758.465	0.257286	0.230796	0.993198	0.349787	0.651995	0.0001	91	0.0403771	65149	
-28398.6	666765	-123.777	2.22391	-1152.89	0.0265882	0.280756	1.03299	0.34851	0.655882	3	45.5	0.0544859	65152	
-27325	591227	-277.878	3.94871	-846.987	0.171908	0.191011	0.993198	0.349787	0.651995	0.0001	91	0.0943234	65154	
-27325	591227	-277.878	3.94871	-846.987	0.171908	0.191011	0.993198	0.349787	0.651995	3	91	0.0943234	65154	
-21901.5	370364	-256.923	3.24834	-861.411	0.706332	0.267316	1.03299	0.34851	0.655882	0.0001	45.5	0.130505	65155	
-21901.5	370364	-256.923	3.24834	-861.411	0.706332	0.267316	1.03299	0.34851	0.655882	3	45.5	0.130505	65155	
-15823.7	401510	-309.303	3.68652	-1001.17	0.854416	0.280217	0.993198	0.349787	0.651995	0.0001	91	0.130505	65155	
-15823.7	401510	-309.303	3.68652	-1001.17	0.854416	0.280217	0.993198	0.349787	0.651995	3	91	0.130505	65155	
-20903.8	829850	-261.543	1.18567	-1055.34	0.707638	0.392636	1.03299	0.34851	0.655882	3	45.5	0.0738099	65156	
-26605.8	622349	-162.994	3.411	-1032.53	0.314103	0.180858	0.993198	0.349787	0.651995	3	91	0.056264	65157	
-18287.1	411796	-210.01	2.22444	-870.51	-0.0018937	0.358551	1.03299	0.34851	0.655882	3	45.5	0.121942	65158	
-7042.78	61357.5	-95.549	3.97794	-872.843	-0.00015727	0.180364	0.993198	0.349787	0.651995	0.0001	91	0.07674	65159	
-15116.7	251411	-145.575	3.01756	-941.499	-0.011001	0.255803	1.03299	0.34851	0.655882	0.0001	45.5	0.11526	65160	
-11633.7	267076	-184.846	3.26944	-956.663	0.0323567	0.258422	0.993198	0.349787	0.651995	3	91	0.11526	65160	
-7678.52	58191.2	-90.8741	3.28449	-652.757	0.0697319	0.203136	1.03299	0.34851	0.655882	0.0001	45.5	0.0911452	65162	
-7678.52	58191.2	-90.8741	3.28449	-652.757	0.0697319	0.203136	1.03299	0.34851	0.655882	3	45.5	0.0911452	65162	
-10843.9	442754	-280.067	0.67749	-767.79	0.00614935	0.507846	1.03299	0.34851	0.655882	3	45.5	0.164153	65163	
-8605.15	130933	-192.959	2.9925	-593.686	0.160404	0.293448	1.03299	0.34851	0.655882	0.0001	45.5	0.172748	65165	
-8605.15	130933	-192.959	2.9925	-593.686	0.160404	0.293448	1.03299	0.34851	0.655882	3	45.5	0.172748	65165	
-6560.22	139136	-226.589	3.27482	-628.701	0.208802	0.29828	0.993198	0.349787	0.651995	0.0001	91	0.172748	65165	
-6560.22	139136	-226.589	3.27482	-628.701	0.208802	0.29828	0.993198	0.349787	0.651995	3	91	0.172748	65165	
-3982.44	149133	-267.012	3.60792	-675.529	0.269679	0.319367	0.958125	0.351078	0.648177	0.0001	182	0.172748	65165	
-3982.44	149133	-267.012	3.60792	-675.529	0.269679	0.319367	0.958125	0.351078	0.648177	3	182	0.172748	65165	
-11564.9	225505	-128.331	1.74929	-862.171	0.148435	0.354555	1.03299	0.34851	0.655882	0.0001	45.5	0.123703	65168	
-11564.9	225505	-128.331	1.74929	-862.171	0.148435	0.354555	1.03299	0.34851	0.655882	3	45.5	0.123703	65168	
-7080.88	96819.2	-147.587	3.87592	-733.446	0.622731	0.191787	0.993198	0.349787	0.651995	0.0001	91	0.0989067	65169	
-7080.88	96819.2	-147.587	3.87592	-733.446	0.622731	0.191787	0.993198	0.349787	0.651995	3	91	0.0989067	65169	
-982.492	140884	-278.25	5.42399	-1058.5	1.09087	0.333817	0.9175	0.352806	0.64323	0.0001	455	0.0989067	65169	
-982.492	140884	-278.25	5.42399	-1058.5	1.09087	0.333817	0.9175	0.352806	0.64323	3	455	0.0989067	65169	
-21192.1	403556	-277.038	3.21887	-1071.65	0.00396465	0.332439	1.03299	0.34851	0.655882	0.0001	45.5	0.152376	65170	
-21192.1	403556	-277.038	3.21887	-1071.65	0.00396465	0.332439	1.03299	0.34851	0.655882	3	45.5	0.152376	65170	
-14739.5	425470	-335.284	3.51206	-1103.57	0.0537559	0.346875	0.993198	0.349787	0.651995	0.0001	91	0.152376	65170	
-14739.5	425470	-335.284	3.51206	-1103.57	0.0537559	0.346875	0.993198	0.349787	0.651995	3	91	0.152376	65170	
-12535.7	273147	-198.991	3.03557	-620.442	0.217055	0.277801	0.993198	0.349787	0.651995	3	91	0.118553	65171	
-9084.03	51067.7	-19.6523	2.71157	-644.749	0.473876	0.237723	1.03299	0.34851	0.655882	3	45.5	0.0467702	65172	
-33024.6	571277	-300.094	3.33093	-826.592	-0.0332614	0.282518	1.03299	0.34851	0.655882	0.0001	45.5	0.126072	65173	
-33024.6	571277	-300.094	3.33093	-826.592	-0.0332614	0.282518	1.03299	0.34851	0.655882	3	45.5	0.126072	65173	
-24007.2	583568	-353.936	3.63007	-855.532	0.0198677	0.296981	0.993198	0.349787	0.651995	3	91	0.126072	65173	
-17913.4	890353	-332.813	0.855722	-862.804	0.300658	0.448232	1.03299	0.34851	0.655882	3	45.5	0.0932156	65175	
-20405.1	386215	-12.3352	2.24541	-634.005	0.0513428	0.252507	1.03299	0.34851	0.655882	3	45.5	0.0168476	65176	
-10491.5	385199	-266.451	1.06642	-1138.02	0.174789	0.500898	1.03299	0.34851	0.655882	3	45.5	0.171705	65177	
-20533.4	406077	-402.55	3.00558	-808.938	-0.0146941	0.511697	1.03299	0.34851	0.655882	0.0001	45.5	0.214445	65178	
-13746.4	420532	-462.737	3.2786	-845.516	0.0286043	0.534601	0.993198	0.349787	0.651995	0.0001	91	0.214445	65178	
-13746.4	420532	-462.737	3.2786	-845.516	0.0286043	0.534601	0.993198	0.349787	0.651995	3	91	0.214445	65178	
-5392.97	438824	-534.165	3.60033	-898.003	0.0809204	0.574581	0.958125	0.351078	0.648177	0.0001	182	0.214445	65178	
-5392.97	438824	-534.165	3.60033	-898.003	0.0809204	0.574581	0.958125	0.351078	0.648177	3	182	0.214445	65178	
-14752.7	503935	-345.577	1.39038	-1032.52	0.421337	0.528648	1.03299	0.34851	0.655882	3	45.5	0.164002	65181	
-28885.1	852976	-120.713	1.64839	-996.104	0.0247902	0.315969	1.03299	0.34851	0.655882	3	45.5	0.0410637	65183	
-32874.1	634587	-221.138	2.80323	-825.447	0.0600634	0.270803	1.03299	0.34851	0.655882	0.0001	45.5	0.0887664	65184	
-32874.1	634587	-221.138	2.80323	-825.447	0.0600634	0.270803	1.03299	0.34851	0.655882	3	45.5	0.0887664	65184	
-24867.2	649148	-260.938	3.03733	-854.398	0.0984487	0.268287	0.993198	0.349787	0.651995	0.0001	91	0.0887664	65184	
-11548.4	296436	-277.156	1.78337	-1012.66	0.172113	0.514195	1.03299	0.34851	0.655882	3	45.5	0.213437	65185	
-14994.6	486898	-256.979	1.54808	-1142.32	0.0154298	0.439753	1.03299	0.34851	0.655882	3	45.5	0.134	65186	
-18584.2	267535	-141.284	3.60427	-707.431	0.129359	0.157335	1.03299	0.34851	0.655882	0.0001	45.5	0.0940886	65190	
-14193.1	278411	-179.467	3.97139	-741.876	0.196384	0.174178	0.993198	0.349787	0.651995	0.0001	91	0.0940886	65190	
-14193.1	278411	-179.467	3.97139	-741.876	0.196384	0.174178	0.993198	0.349787	0.651995	3	91	0.0940886	65190	
-12709.2	339600	-354.068	1.62558	-829.253	0.0225064	0.628433	1.03299	0.34851	0.655882	3	45.5	0.249712	65191	
-5223.68	371148	-430.021	1.85435	-874.611	0.0494415	0.640802	0.958125	0.351078	0.648177	3	182	0.249712	65191	
-23580.6	406514	-27.7623	2.74515	-1118.36	0.241925	0.209289	1.03299	0.34851	0.655882	0.0001	45.5	0.0325775	65193	
-23580.6	406514	-27.7623	2.74515	-1118.36	0.241925	0.209289	1.03299	0.34851	0.655882	3	45.5	0.0325775	65193	
-18766	434276	-59.723	2.99597	-1169.47	0.289142	0.201632	0.993198	0.349787	0.651995	3	91	0.0325775	65193	
-31186.5	895125	-385.992	1.94294	-1073.61	0.0412874	0.45288	1.03299	0.34851	0.655882	3	45.5	0.115201	65196	
-11839	242133	-198.323	2.27407	-1043.34	0.228277	0.385017	1.03299	0.34851	0.655882	3	45.5	0.167468	65197	
-9078.26	265898	-235.612	2.4691	-1098.28	0.262423	0.377582	0.993198	0.349787	0.651995	0.0001	91	0.167468	65197	
-18194	348168	-140.047	2.6449	-1035.17	0.0757861	0.277755	1.03299	0.34851	0.655882	0.0001	45.5	0.095232	65198	
-18194	348168	-140.047	2.6449	-1035.17	0.0757861	0.277755	1.03299	0.34851	0.655882	3	45.5	0.095232	65198	
-9157.37	167975	-175.39	2.09018	-1172.4	-0.0201563	0.412703	1.03299	0.34851	0.655882	3	45.5	0.207286	65199	
-7357.81	192518	-210.494	2.23252	-1181.49	0.000358435	0.403162	0.993198	0.349787	0.651995	0.0001	91	0.207286	65199	
-4976.26	218146	-250.011	2.38879	-1197.71	0.0238057	0.402342	0.958125	0.351078	0.648177	0.0001	182	0.207286	65199	
-28487	666381	-193.834	1.98719	-712.894	0.741144	0.315003	1.03299	0.34851	0.655882	3	45.5	0.0666616	65200	
-15847.3	477553	-142.751	1.31596	-762.33	0.0557452	0.354754	1.03299	0.34851	0.655882	3	45.5	0.0766579	65202	
-11912.3	518794	-252.566	0.718982	-798.101	0.563625	0.442323	1.03299	0.34851	0.655882	3	45.5	0.114582	65203	
-31476.3	725200	-444.085	2.30683	-815.284	-0.0251651	0.523971	1.03299	0.34851	0.655882	3	45.5	0.157954	65204	
-22711	739493	-496.06	2.48136	-843.215	6.55122	0.529098	0.993198	0.349787	0.651995	0.0001	91	0.157954	65204	
-22711	739493	-496.06	2.48136	-843.215	6.55122	0.529098	0.993198	0.349787	0.651995	3	91	0.157954	65204	
-36271.1	800857	-255.044	2.50933	-1088.24	0.226935	0.307424	1.03299	0.34851	0.655882	3	45.5	0.0839417	65205	
-27028.4	833310	-300.638	2.73102	-1150.9	0.266623	0.299865	0.993198	0.349787	0.651995	3	91	0.0839417	65205	
-23076	484595	-21.7494	3.35941	-1076.19	0.04326	0.157109	0.993198	0.349787	0.651995	3	91	0.0152135	65207	
-22779.3	699957	-451.424	1.37914	-676.084	0.199581	0.588805	1.03299	0.34851	0.655882	3	45.5	0.161118	65208	
-17695.3	292424	-15.2022	2.39317	-952.079	0.627111	0.240683	1.03299	0.34851	0.655882	3	45.5	0.0278999	65209	
-10311.4	198095	-210.66	2.80127	-1146.84	0.154872	0.365877	1.03299	0.34851	0.655882	3	45.5	0.190906	65210	
-18656.5	268612	15.7076	2.94022	-771.142	-0.0175598	0.19063	1.03299	0.34851	0.655882	0.0001	45.5	0.010423	65211	
-18656.5	268612	15.7076	2.94022	-771.142	-0.0175598	0.19063	1.03299	0.34851	0.655882	3	45.5	0.010423	65211	
-15378.3	278159	-4.50963	3.17384	-770.975	0.0234359	0.186887	0.993198	0.349787	0.651995	0.0001	91	0.010423	65211	
-15378.3	278159	-4.50963	3.17384	-770.975	0.0234359	0.186887	0.993198	0.349787	0.651995	3	91	0.010423	65211	
-7507.94	117963	-172.784	2.81516	-1067.35	0.246937	0.333039	1.03299	0.34851	0.655882	0.0001	45.5	0.199563	65212	
-7507.94	117963	-172.784	2.81516	-1067.35	0.246937	0.333039	1.03299	0.34851	0.655882	3	45.5	0.199563	65212	
-5677.21	141269	-216.383	3.08819	-1129.43	0.296746	0.335663	0.993198	0.349787	0.651995	0.0001	91	0.199563	65212	
-5677.21	141269	-216.383	3.08819	-1129.43	0.296746	0.335663	0.993198	0.349787	0.651995	3	91	0.199563	65212	
-3067.66	168687	-269.514	3.41	-1210.58	0.359939	0.353483	0.958125	0.351078	0.648177	0.0001	182	0.199563	65212	
-3067.66	168687	-269.514	3.41	-1210.58	0.359939	0.353483	0.958125	0.351078	0.648177	3	182	0.199563	65212	
-5060.27	40336.1	-121.652	3.15104	-953.099	0.328053	0.237558	1.03299	0.34851	0.655882	0.0001	45.5	0.124718	65215	
-5060.27	40336.1	-121.652	3.15104	-953.099	0.328053	0.237558	1.03299	0.34851	0.655882	3	45.5	0.124718	65215	
-4281.06	58423.4	-161.967	3.48685	-1021.75	0.396962	0.244088	0.993198	0.349787	0.651995	0.0001	91	0.124718	65215	
-4281.06	58423.4	-161.967	3.48685	-1021.75	0.396962	0.244088	0.993198	0.349787	0.651995	3	91	0.124718	65215	
-2938.63	80354.4	-212.739	3.89411	-1114.05	0.487271	0.269705	0.958125	0.351078	0.648177	0.0001	182	0.124718	65215	
-2938.63	80354.4	-212.739	3.89411	-1114.05	0.487271	0.269705	0.958125	0.351078	0.648177	3	182	0.124718	65215	
212.598	118990	-304.237	4.60045	-1294.13	0.658825	0.340152	0.9175	0.352806	0.64323	0.0001	455	0.124718	65215	
212.598	118990	-304.237	4.60045	-1294.13	0.658825	0.340152	0.9175	0.352806	0.64323	3	455	0.124718	65215	
-19283.5	368491	-117.955	2.28683	-647.199	0.526056	0.278185	1.03299	0.34851	0.655882	3	45.5	0.0699198	65216	
-26443	821575	-123.877	1.49143	-776.735	0.0137381	0.323102	1.03299	0.34851	0.655882	3	45.5	0.0421239	65217	
-8229.4	87075.8	-117.998	3.35543	-756.23	0.374536	0.20108	1.03299	0.34851	0.655882	0.0001	45.5	0.112608	65218	
-8229.4	87075.8	-117.998	3.35543	-756.23	0.374536	0.20108	1.03299	0.34851	0.655882	3	45.5	0.112608	65218	
-6792.75	99839.8	-154.014	3.7347	-820.374	0.456701	0.212366	0.993198	0.349787	0.651995	0.0001	91	0.112608	65218	
-6792.75	99839.8	-154.014	3.7347	-820.374	0.456701	0.212366	0.993198	0.349787	0.651995	3	91	0.112608	65218	
-4774.92	115926	-200.128	4.20334	-908.214	0.566692	0.245673	0.958125	0.351078	0.648177	0.0001	182	0.112608	65218	
-4774.92	115926	-200.128	4.20334	-908.214	0.566692	0.245673	0.958125	0.351078	0.648177	3	182	0.112608	65218	
-709.357	145801	-285.61	5.04035	-1085.12	0.783094	0.333822	0.9175	0.352806	0.64323	0.0001	455	0.112608	65218	
-709.357	145801	-285.61	5.04035	-1085.12	0.783094	0.333822	0.9175	0.352806	0.64323	3	455	0.112608	65218	
-7448.76	-14944	17.721	3.16211	-1022.18	-0.0277505	0.21851	1.03299	0.34851	0.655882	3	45.5	0.0528177	65220	
-7711.97	2919.34	-11.5062	3.42928	-1021.16	0.0198905	0.22322	0.993198	0.349787	0.651995	0.0001	91	0.0528177	65220	
-7711.97	2919.34	-11.5062	3.42928	-1021.16	0.0198905	0.22322	0.993198	0.349787	0.651995	3	91	0.0528177	65220	
-13762.3	192216	-35.7259	2.58677	-702.727	0.0250325	0.240553	1.03299	0.34851	0.655882	0.0001	45.5	0.0467421	65221	
-13762.3	192216	-35.7259	2.58677	-702.727	0.0250325	0.240553	1.03299	0.34851	0.655882	3	45.5	0.0467421	65221	
-11574.7	909772	-392.983	0.300277	-710.301	0.0963924	0.501395	1.03299	0.34851	0.655882	3	45.5	0.110604	65222	
-16746.2	414467	-331.8	1.96151	-861.365	0.567559	0.495751	1.03299	0.34851	0.655882	3	45.5	0.175206	65223	
-12229.3	444403	-371.833	2.16509	-967.673	0.643986	0.491468	0.993198	0.349787	0.651995	3	91	0.175206	65223	
-6495.66	482386	-419.802	2.40565	-1104.41	0.742443	0.497327	0.958125	0.351078	0.648177	0.0001	182	0.175206	65223	
-6495.66	482386	-419.802	2.40565	-1104.41	0.742443	0.497327	0.958125	0.351078	0.648177	3	182	0.175206	65223	
-20666.3	683051	-375.051	1.26792	-631.974	0.0269947	0.517563	1.03299	0.34851	0.655882	3	45.5	0.141353	65224	
-16871.7	327394	-71.9152	3.77497	-1071.7	0.281337	0.14414	0.993198	0.349787	0.651995	0.0001	91	0.0423947	65225	
-14080.7	565710	-346.308	1.18079	-1082.1	0.23563	0.524099	1.03299	0.34851	0.655882	3	45.5	0.152812	65226	
-13182.1	211626	-79.9682	2.10232	-595.825	0.496362	0.289194	1.03299	0.34851	0.655882	3	45.5	0.0733015	65227	
-33444.5	829677	-141.372	1.94447	-801.561	0.394003	0.291015	1.03299	0.34851	0.655882	3	45.5	0.04484	65228	
-17314.9	424886	-200.049	2.05886	-1034.53	0.0154198	0.364427	1.03299	0.34851	0.655882	3	45.5	0.116165	65229	
-10042.9	378602	-343.226	0.431024	-700.85	0.00941264	0.651842	1.03299	0.34851	0.655882	3	45.5	0.243188	65230	
-15905.7	259745	-109.335	2.54326	-724.434	0.783744	0.257805	1.03299	0.34851	0.655882	3	45.5	0.0794172	65232	
-8031.52	212917	-253.241	1.70762	-806.411	0.880987	0.471273	0.993198	0.349787	0.651995	0.0001	91	0.229227	65234	
-25861.8	824990	-283.912	1.30653	-604.301	0.815686	0.395783	1.03299	0.34851	0.655882	3	45.5	0.0767546	65235	
-19557.3	585720	-280.349	1.61264	-841.713	-0.00887307	0.432681	1.03299	0.34851	0.655882	3	45.5	0.122978	65238	
-9925.07	663640	-340.95	0.208188	-608.003	0.344818	0.500002	1.03299	0.34851	0.655882	3	45.5	0.126121	65239	
-19141.2	652487	-321.576	1.37312	-883.756	0.279849	0.462415	1.03299	0.34851	0.655882	3	45.5	0.122204	65240	
-18239.9	647067	-260.616	1.36237	-970.853	-0.00818499	0.41902	1.03299	0.34851	0.655882	3	45.5	0.105616	65241	
-26661.7	483323	-355.472	3.5484	-1083.82	0.0982142	0.344172	1.03299	0.34851	0.655882	0.0001	45.5	0.164352	65242	
-26661.7	483323	-355.472	3.5484	-1083.82	0.0982142	0.344172	1.03299	0.34851	0.655882	3	45.5	0.164352	65242	
-17807.1	509654	-428.092	3.91916	-1144.93	0.161947	0.371306	0.993198	0.349787	0.651995	0.0001	91	0.164352	65242	
-17807.1	509654	-428.092	3.91916	-1144.93	0.161947	0.371306	0.993198	0.349787	0.651995	3	91	0.164352	65242	
-6626.81	542985	-517.914	4.37278	-1234.17	0.243644	0.421725	0.958125	0.351078	0.648177	0.0001	182	0.164352	65242	
-6626.81	542985	-517.914	4.37278	-1234.17	0.243644	0.421725	0.958125	0.351078	0.648177	3	182	0.164352	65242	
-23634.3	468410	-414.757	2.89794	-903.799	0.340348	0.507305	1.03299	0.34851	0.655882	0.0001	45.5	0.192229	65245	
-23634.3	468410	-414.757	2.89794	-903.799	0.340348	0.507305	1.03299	0.34851	0.655882	3	45.5	0.192229	65245	
-16060.3	496010	-478.028	3.21702	-995.18	0.40302	0.527357	0.993198	0.349787	0.651995	3	91	0.192229	65245	
-14262.8	296725	-238.233	3.92209	-674.827	0.408038	0.211768	0.993198	0.349787	0.651995	0.0001	91	0.116857	65249	
-14262.8	296725	-238.233	3.92209	-674.827	0.408038	0.211768	0.993198	0.349787	0.651995	3	91	0.116857	65249	
-16761	558183	-421.633	1.34352	-924.895	0.65625	0.591319	1.03299	0.34851	0.655882	3	45.5	0.173998	65252	
-11964.7	599533	-459.34	1.47698	-1049.91	0.741911	0.5859	0.993198	0.349787	0.651995	3	91	0.173998	65252	
-26292.8	906815	4.6691	1.19965	-1131.29	0.0632594	0.313945	1.03299	0.34851	0.655882	3	45.5	0.00397718	65253	
-20552.8	716969	-444.436	1.30715	-846.932	0.128428	0.585282	1.03299	0.34851	0.655882	3	45.5	0.15845	65255	
-13441.2	730843	-407.901	0.814172	-1064.67	0.234629	0.550388	1.03299	0.34851	0.655882	3	45.5	0.140718	65257	
-13415.4	318596	-344.92	2.19319	-849.762	-0.0227258	0.570465	1.03299	0.34851	0.655882	0.0001	45.5	0.241456	65258	
-13415.4	318596	-344.92	2.19319	-849.762	-0.0227258	0.570465	1.03299	0.34851	0.655882	3	45.5	0.241456	65258	
-9359.98	333268	-388.746	2.35732	-870.147	7.05971	0.577598	0.993198	0.349787	0.651995	3	91	0.241456	65258	
-4410.78	349911	-438.425	2.54082	-898.59	0.0263426	0.595028	0.958125	0.351078	0.648177	3	182	0.241456	65258	
-9748.34	55196.1	19.2967	3.00357	-1127.06	0.0121224	0.213799	1.03299	0.34851	0.655882	0.0001	45.5	0.0392372	65260	
-9748.34	55196.1	19.2967	3.00357	-1127.06	0.0121224	0.213799	1.03299	0.34851	0.655882	3	45.5	0.0392372	65260	
-5487.42	132441	-107.736	4.01641	-1196.15	0.194225	0.273071	0.9175	0.352806	0.64323	3	455	0.0392372	65260	
-22437.3	434994	-119.773	2.59684	-909.325	0.00481389	0.259211	1.03299	0.34851	0.655882	0.0001	45.5	0.0711535	65261	
-38786.5	799544	-196.013	2.57396	-807.982	-0.00604698	0.26481	1.03299	0.34851	0.655882	0.0001	45.5	0.0671893	65262	
-38786.5	799544	-196.013	2.57396	-807.982	-0.00604698	0.26481	1.03299	0.34851	0.655882	3	45.5	0.0671893	65262	
-13166.9	384241	-236.364	1.27954	-736.721	0.0121789	0.451275	1.03299	0.34851	0.655882	3	45.5	0.152	65264	
-23442.7	644688	-188.456	2.51577	-683.855	0.406223	0.264828	0.993198	0.349787	0.651995	3	91	0.0635863	65265	
-11053.8	132399	-69.6456	2.55585	-833.795	0.812007	0.256318	1.03299	0.34851	0.655882	0.0001	45.5	0.0824381	65266	
-6398.58	-6089.14	-77.8359	3.6665	-631.294	0.437759	0.215212	0.993198	0.349787	0.651995	0.0001	91	0.0275567	65270	
-6398.58	-6089.14	-77.8359	3.6665	-631.294	0.437759	0.215212	0.993198	0.349787	0.651995	3	91	0.0275567	65270	
-26879.5	663366	-386.429	3.99771	-1124.45	-0.000174213	0.273716	0.993198	0.349787	0.651995	0.0001	91	0.12458	65271	
-26879.5	663366	-386.429	3.99771	-1124.45	-0.000174213	0.273716	0.993198	0.349787	0.651995	3	91	0.12458	65271	
-6115.5	-62806.9	22.7509	3.43296	-1034.03	0.198446	0.21364	1.03299	0.34851	0.655882	0.0001	45.5	0.0662232	65272	
-6115.5	-62806.9	22.7509	3.43296	-1034.03	0.198446	0.21364	1.03299	0.34851	0.655882	3	45.5	0.0662232	65272	
-7118.46	-44453.9	-9.95245	3.79004	-1071.62	0.26398	0.227839	0.993198	0.349787	0.651995	3	91	0.0662232	65272	
-17667.5	847214	-46.6834	0.715073	-619.74	-0.00104101	0.33394	1.03299	0.34851	0.655882	3	45.5	0.0158348	65273	
-19277.5	326131	-281.147	3.36364	-829.046	0.607028	0.290351	1.03299	0.34851	0.655882	0.0001	45.5	0.152957	65277	
-19277.5	326131	-281.147	3.36364	-829.046	0.607028	0.290351	1.03299	0.34851	0.655882	3	45.5	0.152957	65277	
-13548.5	352513	-336.251	3.80589	-951.772	0.733755	0.308561	0.993198	0.349787	0.651995	0.0001	91	0.152957	65277	
-13548.5	352513	-336.251	3.80589	-951.772	0.733755	0.308561	0.993198	0.349787	0.651995	3	91	0.152957	65277	
-5958.39	388972	-409.005	4.37429	-1125.61	0.912939	0.352197	0.958125	0.351078	0.648177	0.0001	182	0.152957	65277	
-5958.39	388972	-409.005	4.37429	-1125.61	0.912939	0.352197	0.958125	0.351078	0.648177	3	182	0.152957	65277	
-17993.1	565381	-236.157	1.55826	-1003.89	0.0602681	0.401407	1.03299	0.34851	0.655882	3	45.5	0.107256	65278	
-10591.8	747822	-412.272	0.376716	-856.609	0.00920158	0.561382	1.03299	0.34851	0.655882	3	45.5	0.144282	65280	
-19767.7	391727	-424.634	2.87309	-718.689	0.041592	0.56124	1.03299	0.34851	0.655882	3	45.5	0.230161	65283	
-13259	405338	-482.898	3.13978	-761.704	0.081815	0.585154	0.993198	0.349787	0.651995	0.0001	91	0.230161	65283	
-5233.96	422736	-552.022	3.45327	-819.735	0.131215	0.625633	0.958125	0.351078	0.648177	0.0001	182	0.230161	65283	
-5233.96	422736	-552.022	3.45327	-819.735	0.131215	0.625633	0.958125	0.351078	0.648177	3	182	0.230161	65283	
-12211	200101	-83.1305	2.031	-735.289	0.0453567	0.305088	1.03299	0.34851	0.655882	3	45.5	0.0875668	65284	
-28848	697082	-408.182	2.19395	-842.26	0.0115521	0.500546	1.03299	0.34851	0.655882	3	45.5	0.149894	65285	
-20948	713070	-455.865	2.35788	-871.205	0.0343587	0.500952	0.993198	0.349787	0.651995	3	91	0.149894	65285	
-11734.7	139069	-24.4409	2.43081	-1026.12	0.588673	0.255419	1.03299	0.34851	0.655882	3	45.5	0.0532265	65286	
-12871	207606	-212.162	3.02311	-605.049	0.345867	0.292582	1.03299	0.34851	0.655882	0.0001	45.5	0.154812	65289	
-12871	207606	-212.162	3.02311	-605.049	0.345867	0.292582	1.03299	0.34851	0.655882	3	45.5	0.154812	65289	
-9720.44	219174	-248.523	3.34522	-662.13	0.412913	0.298771	0.993198	0.349787	0.651995	0.0001	91	0.154812	65289	
-9720.44	219174	-248.523	3.34522	-662.13	0.412913	0.298771	0.993198	0.349787	0.651995	3	91	0.154812	65289	
-28939.2	787416	-121.853	1.68042	-637.273	0.23574	0.310875	1.03299	0.34851	0.655882	3	45.5	0.0409117	65292	
-20565.9	807707	-294.897	1.1805	-866.182	0.132617	0.426421	1.03299	0.34851	0.655882	3	45.5	0.0943208	65294	
-24964	510238	-220.49	2.43704	-610.607	-0.0177584	0.328602	1.03299	0.34851	0.655882	0.0001	45.5	0.104107	65295	
-24964	510238	-220.49	2.43704	-610.607	-0.0177584	0.328602	1.03299	0.34851	0.655882	3	45.5	0.104107	65295	
-19373.4	516818	-250.8	2.61477	-625.871	0.0102373	0.320363	0.993198	0.349787	0.651995	0.0001	91	0.104107	65295	
-14674	196636	3.08204	2.6417	-814.864	0.309925	0.224091	1.03299	0.34851	0.655882	3	45.5	0.0214498	65296	
-23536.2	624433	-61.942	1.65541	-632.924	-0.00858724	0.298839	1.03299	0.34851	0.655882	3	45.5	0.0291755	65297	
-9443.99	194024	-189.296	1.24095	-845.641	0.542517	0.465089	1.03299	0.34851	0.655882	3	45.5	0.21436	65298	
-16046.3	323681	-120.108	2.21788	-888.851	-0.0135676	0.303142	1.03299	0.34851	0.655882	3	45.5	0.0889414	65299	
-15056.3	245790	-157.621	3.33387	-1050.02	-0.053313	0.233741	1.03299	0.34851	0.655882	0.0001	45.5	0.123702	65300	
-15056.3	245790	-157.621	3.33387	-1050.02	-0.053313	0.233741	1.03299	0.34851	0.655882	3	45.5	0.123702	65300	
-11191.4	264735	-205.193	3.62458	-1062.04	-0.000108799	0.244984	0.993198	0.349787	0.651995	0.0001	91	0.123702	65300	
-5307.61	53644.8	-145.618	3.26783	-651.615	0.570692	0.209907	1.03299	0.34851	0.655882	0.0001	45.5	0.115031	65301	
-5307.61	53644.8	-145.618	3.26783	-651.615	0.570692	0.209907	1.03299	0.34851	0.655882	3	45.5	0.115031	65301	
-4295.55	64147.4	-180.329	3.67382	-734.834	0.685326	0.219336	0.993198	0.349787	0.651995	0.0001	91	0.115031	65301	
-4295.55	64147.4	-180.329	3.67382	-734.834	0.685326	0.219336	0.993198	0.349787	0.651995	3	91	0.115031	65301	
-2792.73	78430.1	-225.923	4.18767	-850.817	0.844533	0.251621	0.958125	0.351078	0.648177	0.0001	182	0.115031	65301	
-2792.73	78430.1	-225.923	4.18767	-850.817	0.844533	0.251621	0.958125	0.351078	0.648177	3	182	0.115031	65301	
483.158	107948	-314.322	5.14355	-1095.41	1.17844	0.3423	0.9175	0.352806	0.64323	0.0001	455	0.115031	65301	
483.158	107948	-314.322	5.14355	-1095.41	1.17844	0.3423	0.9175	0.352806	0.64323	3	455	0.115031	65301	
-19089.2	334038	-265.847	3.15675	-678.972	-0.047799	0.323291	1.03299	0.34851	0.655882	0.0001	45.5	0.158042	65302	
-19089.2	334038	-265.847	3.15675	-678.972	-0.047799	0.323291	1.03299	0.34851	0.655882	3	45.5	0.158042	65302	
-13918.9	342438	-309.944	3.42945	-701.227	-0.000143975	0.334883	0.993198	0.349787	0.651995	0.0001	91	0.158042	65302	
-13918.9	342438	-309.944	3.42945	-701.227	-0.000143975	0.334883	0.993198	0.349787	0.651995	3	91	0.158042	65302	
-22544.7	532901	-3.93073	2.74004	-1046.35	0.00545762	0.204867	0.993198	0.349787	0.651995	0.0001	91	0.00706578	65303	
-22544.7	532901	-3.93073	2.74004	-1046.35	0.00545762	0.204867	0.993198	0.349787	0.651995	3	91	0.00706578	65303	
-15777.2	321736	-362.746	2.88193	-754.003	-0.0355973	0.500549	1.03299	0.34851	0.655882	0.0001	45.5	0.228151	65304	
-15777.2	321736	-362.746	2.88193	-754.003	-0.0355973	0.500549	1.03299	0.34851	0.655882	3	45.5	0.228151	65304	
-10543.8	333756	-415.592	3.13143	-782.806	0.00409077	0.518604	0.993198	0.349787	0.651995	0.0001	91	0.228151	65304	
-10543.8	333756	-415.592	3.13143	-782.806	0.00409077	0.518604	0.993198	0.349787	0.651995	3	91	0.228151	65304	
-4121.14	348623	-477.65	3.42238	-824.711	0.0512848	0.552113	0.958125	0.351078	0.648177	0.0001	182	0.228151	65304	
-4121.14	348623	-477.65	3.42238	-824.711	0.0512848	0.552113	0.958125	0.351078	0.648177	3	182	0.228151	65304	
-38264.5	872280	-232.795	2.31697	-819.89	-0.0210833	0.305825	1.03299	0.34851	0.655882	3	45.5	0.0732651	65305	
-26183.1	677263	-218.009	2.0881	-1097.22	-0.0144115	0.348258	1.03299	0.34851	0.655882	3	45.5	0.0865575	65307	
-15383.2	423880	-413.487	1.38513	-647.965	0.0472921	0.680179	1.03299	0.34851	0.655882	3	45.5	0.23992	65308	
-11541.8	435584	-447.939	1.47602	-669.587	0.0566985	0.684625	0.993198	0.349787	0.651995	3	91	0.23992	65308	
-22210.4	652695	-287.07	1.82849	-1043.78	-0.0154938	0.418455	1.03299	0.34851	0.655882	3	45.5	0.115192	65309	
-13520.6	271754	-215.722	2.16379	-659.62	-0.000804245	0.39469	1.03299	0.34851	0.655882	3	45.5	0.165732	65310	
-19363.1	641576	-409.942	1.6345	-1082.78	0.0518261	0.563155	1.03299	0.34851	0.655882	3	45.5	0.164357	65311	
-20052.7	416855	-86.5892	3.3248	-669.987	0.000475821	0.176499	0.993198	0.349787	0.651995	3	91	0.0416983	65312	
-25420.1	516959	-149.676	2.70097	-1170.37	-0.0249353	0.263772	1.03299	0.34851	0.655882	0.0001	45.5	0.0786638	65315	
-19216.3	540388	-191.123	2.90658	-1181.43	0.00956242	0.257792	0.993198	0.349787	0.651995	0.0001	91	0.0786638	65315	
-19216.3	540388	-191.123	2.90658	-1181.43	0.00956242	0.257792	0.993198	0.349787	0.651995	3	91	0.0786638	65315	
-16881.2	647892	-170.926	1.12716	-949.192	-0.00422077	0.367152	1.03299	0.34851	0.655882	3	45.5	0.0702963	65317	
-23950.7	591661	-191.646	3.14706	-942.571	0.662913	0.21917	0.993198	0.349787	0.651995	0.0001	91	0.0658966	65318	
-23950.7	591661	-191.646	3.14706	-942.571	0.662913	0.21917	0.993198	0.349787	0.651995	3	91	0.0658966	65318	
-22582.1	403459	-188.632	2.91084	-766.383	0.0735241	0.273119	1.03299	0.34851	0.655882	0.0001	45.5	0.104556	65319	
-17251.4	415845	-225.569	3.16321	-794.482	0.115368	0.273894	0.993198	0.349787	0.651995	0.0001	91	0.104556	65319	
-17251.4	415845	-225.569	3.16321	-794.482	0.115368	0.273894	0.993198	0.349787	0.651995	3	91	0.104556	65319	
-12477.3	192474	-82.1396	2.4091	-900.493	-0.0270109	0.281011	1.03299	0.34851	0.655882	3	45.5	0.0895955	65321	
-7453.04	384543	-326.173	2.24913	-856.091	0.41676	0.427349	0.958125	0.351078	0.648177	0.0001	182	0.16438	65322	
-7453.04	384543	-326.173	2.24913	-856.091	0.41676	0.427349	0.958125	0.351078	0.648177	3	182	0.16438	65322	
-15632.1	482186	-124.425	1.1884	-778.456	0.612348	0.345567	1.03299	0.34851	0.655882	3	45.5	0.0610845	65323	
-22582.9	518767	-176.396	2.12207	-828.181	0.24591	0.32029	1.03299	0.34851	0.655882	3	45.5	0.0835048	65324	
-11337	580288	-455.167	0.444045	-797.826	0.00235961	0.691671	1.03299	0.34851	0.655882	3	45.5	0.208089	65326	
-11363.7	296202	-207.285	1.18396	-758.007	0.760278	0.435385	1.03299	0.34851	0.655882	3	45.5	0.151638	65327	
-17004.2	842747	-303.667	0.74045	-667.63	0.306543	0.43462	1.03299	0.34851	0.655882	3	45.5	0.0891681	65330	
-27153.7	494054	-125.825	2.83939	-1017.59	0.437142	0.221274	1.03299	0.34851	0.655882	3	45.5	0.0645695	65331	
-20859.3	525634	-164.638	3.14062	-1108.34	0.511707	0.217455	0.993198	0.349787	0.651995	0.0001	91	0.0645695	65331	
-20859.3	525634	-164.638	3.14062	-1108.34	0.511707	0.217455	0.993198	0.349787	0.651995	3	91	0.0645695	65331	
-10423	146034	-133.8	3.00951	-854.452	-0.0334007	0.26223	1.03299	0.34851	0.655882	3	45.5	0.134233	65332	
-20766.4	668090	-303.316	1.49161	-875.195	0.232562	0.438578	1.03299	0.34851	0.655882	3	45.5	0.113689	65333	
-28510.9	859948	-75.0751	1.55944	-1026.56	-0.0112914	0.308976	1.03299	0.34851	0.655882	3	45.5	0.0277529	65335	
-34121.2	911562	-227.781	1.89559	-812.073	0.0927874	0.333575	1.03299	0.34851	0.655882	3	45.5	0.067259	65336	
-26692.6	861228	-432.748	1.42246	-763.04	0.136808	0.532482	1.03299	0.34851	0.655882	3	45.5	0.128497	65337	
-23046.1	393276	-140.194	3.08125	-920.64	0.19401	0.216239	1.03299	0.34851	0.655882	0.0001	45.5	0.082876	65338	
-23046.1	393276	-140.194	3.08125	-920.64	0.19401	0.216239	1.03299	0.34851	0.655882	3	45.5	0.082876	65338	
-17597.5	412839	-179.662	3.377	-966.951	0.247364	0.218835	0.993198	0.349787	0.651995	0.0001	91	0.082876	65338	
-17597.5	412839	-179.662	3.377	-966.951	0.247364	0.218835	0.993198	0.349787	0.651995	3	91	0.082876	65338	
-28082.3	742909	-24.838	1.71691	-947.094	-0.00271192	0.290659	1.03299	0.34851	0.655882	3	45.5	0.0152454	65339	
-12492.9	302080	-285.554	1.96188	-898.561	0.0299712	0.507239	1.03299	0.34851	0.655882	3	45.5	0.213552	65340	
-27279.9	670752	-248.515	2.01144	-758.953	0.220073	0.362389	1.03299	0.34851	0.655882	3	45.5	0.0924132	65341	
-36566.9	895264	-437.865	1.94524	-591.583	0.0443442	0.488594	1.03299	0.34851	0.655882	3	45.5	0.127632	65342	
-27749.6	906782	-478.75	2.08355	-620.983	0.0625972	0.482777	0.993198	0.349787	0.651995	3	91	0.127632	65342	
-17541.5	921001	-524.182	2.23544	-656.848	0.0838983	0.485373	0.958125	0.351078	0.648177	0.0001	182	0.127632	65342	
-25248.7	483803	-228.19	2.95065	-949.861	-0.0412461	0.291911	1.03299	0.34851	0.655882	0.0001	45.5	0.114139	65345	
-25248.7	483803	-228.19	2.95065	-949.861	-0.0412461	0.291911	1.03299	0.34851	0.655882	3	45.5	0.114139	65345	
-18640.4	499277	-273.857	3.1907	-966.948	0.000182542	0.29489	0.993198	0.349787	0.651995	0.0001	91	0.114139	65345	
-14428.7	586159	-438.104	0.875486	-799.056	0.0147057	0.651699	1.03299	0.34851	0.655882	3	45.5	0.194985	65346	
-28491.4	685210	-274.592	2.08958	-749.543	0.192923	0.371466	1.03299	0.34851	0.655882	3	45.5	0.100193	65347	
-21946.3	520501	-292.149	3.87824	-1021.94	0.347125	0.224851	0.993198	0.349787	0.651995	0.0001	91	0.107819	65348	
-21946.3	520501	-292.149	3.87824	-1021.94	0.347125	0.224851	0.993198	0.349787	0.651995	3	91	0.107819	65348	
-36677.8	623745	-412.934	3.26596	-742.175	0.184617	0.383995	1.03299	0.34851	0.655882	0.0001	45.5	0.153623	65349	
-36677.8	623745	-412.934	3.26596	-742.175	0.184617	0.383995	1.03299	0.34851	0.655882	3	45.5	0.153623	65349	
-26305.6	642915	-475.445	3.60791	-808.36	0.243566	0.40457	0.993198	0.349787	0.651995	0.0001	91	0.153623	65349	
-6821.85	-8779.15	-24.4176	3.27384	-742.789	-0.0513629	0.209295	1.03299	0.34851	0.655882	3	45.5	0.0308187	65350	
-7032.39	509.116	-49.6965	3.55296	-743.004	-0.000153535	0.217007	0.993198	0.349787	0.651995	0.0001	91	0.0308187	65350	
-7032.39	509.116	-49.6965	3.55296	-743.004	-0.000153535	0.217007	0.993198	0.349787	0.651995	3	91	0.0308187	65350	
-18853.1	353779	-39.0401	2.22518	-726.949	0.258464	0.259094	1.03299	0.34851	0.655882	3	45.5	0.0334613	65352	
-24355.8	662129	-180.411	1.77196	-782.019	0.033419	0.33826	1.03299	0.34851	0.655882	3	45.5	0.0719309	65353	
-20953.7	369247	-416.321	3.21952	-575.474	0.0234695	0.494211	1.03299	0.34851	0.655882	0.0001	45.5	0.22145	65354	
-20953.7	369247	-416.321	3.21952	-575.474	0.0234695	0.494211	1.03299	0.34851	0.655882	3	45.5	0.22145	65354	
-14235.9	378864	-474.135	3.53268	-619.509	0.0738015	0.522439	0.993198	0.349787	0.651995	0.0001	91	0.22145	65354	
-14235.9	378864	-474.135	3.53268	-619.509	0.0738015	0.522439	0.993198	0.349787	0.651995	3	91	0.22145	65354	
-5997.78	392224	-543.793	3.90782	-679.918	0.136159	0.570447	0.958125	0.351078	0.648177	0.0001	182	0.22145	65354	
-5997.78	392224	-543.793	3.90782	-679.918	0.136159	0.570447	0.958125	0.351078	0.648177	3	182	0.22145	65354	
-4299.24	85015.6	-230.702	4.10177	-1267.02	0.274863	0.353767	0.9175	0.352806	0.64323	0.0001	455	0.166774	65356	
-4299.24	85015.6	-230.702	4.10177	-1267.02	0.274863	0.353767	0.9175	0.352806	0.64323	3	455	0.166774	65356	
-7000.98	675113	-419.962	0.0805767	-924.959	0.00258135	0.595078	1.03299	0.34851	0.655882	3	45.5	0.163554	65357	
-14797.6	836738	-392.789	0.532622	-682.963	0.629648	0.496169	1.03299	0.34851	0.655882	3	45.5	0.10858	65358	
-10890.1	726226	-409.901	0.622244	-1110.69	0.00166973	0.565486	1.03299	0.34851	0.655882	3	45.5	0.147759	65361	
-36992.8	785006	-186.392	2.62415	-1118.95	-0.0286175	0.262381	1.03299	0.34851	0.655882	0.0001	45.5	0.0679385	65362	
-36992.8	785006	-186.392	2.62415	-1118.95	-0.0286175	0.262381	1.03299	0.34851	0.655882	3	45.5	0.0679385	65362	
-27921.8	805875	-228.198	2.81899	-1131.53	0.00390463	0.254261	0.993198	0.349787	0.651995	3	91	0.0679385	65362	
-16413.8	741299	-73.9973	0.848794	-1192.69	0.00795734	0.336992	1.03299	0.34851	0.655882	3	45.5	0.0290311	65363	
-19768.3	645732	-198.89	1.52536	-1083.03	-0.00313918	0.368259	1.03299	0.34851	0.655882	3	45.5	0.0823268	65365	
-12917.4	400262	-242.557	1.40047	-1008.66	0.0231122	0.452587	1.03299	0.34851	0.655882	3	45.5	0.150838	65366	
-15532.4	748632	-260.482	0.701443	-670.346	0.79124	0.408986	1.03299	0.34851	0.655882	3	45.5	0.0779468	65370	
-15571.9	507535	-250.168	1.48711	-1075.59	0.129245	0.427631	1.03299	0.34851	0.655882	3	45.5	0.123764	65373	
-3906.5	66142.2	-172.525	3.33871	-1106.02	0.157156	0.262431	1.03299	0.34851	0.655882	0.0001	45.5	0.191547	65374	
-3906.5	66142.2	-172.525	3.33871	-1106.02	0.157156	0.262431	1.03299	0.34851	0.655882	3	45.5	0.191547	65374	
-2444.25	89831.1	-224.357	3.67543	-1157.49	0.216531	0.276365	0.993198	0.349787	0.651995	0.0001	91	0.191547	65374	
-2444.25	89831.1	-224.357	3.67543	-1157.49	0.216531	0.276365	0.993198	0.349787	0.651995	3	91	0.191547	65374	
-145.348	117233	-288.293	4.08184	-1231.27	0.292572	0.310434	0.958125	0.351078	0.648177	0.0001	182	0.191547	65374	
-145.348	117233	-288.293	4.08184	-1231.27	0.292572	0.310434	0.958125	0.351078	0.648177	3	182	0.191547	65374	
-10486.2	483633	-380.388	0.724865	-992.208	0.00727843	0.631373	1.03299	0.34851	0.655882	3	45.5	0.206765	65376	
-10093.4	399565	-293.733	0.579734	-761.841	0.120225	0.545526	1.03299	0.34851	0.655882	3	45.5	0.189434	65377	
-12296.8	180218	-162.527	2.99347	-564.792	0.210315	0.260292	1.03299	0.34851	0.655882	0.0001	45.5	0.130306	65378	
-12296.8	180218	-162.527	2.99347	-564.792	0.210315	0.260292	1.03299	0.34851	0.655882	3	45.5	0.130306	65378	
-9759.24	188398	-192.667	3.28205	-601.101	0.262243	0.263018	0.993198	0.349787	0.651995	0.0001	91	0.130306	65378	
-15227.6	657809	-225.678	1.0704	-1120.69	0.0474108	0.402332	1.03299	0.34851	0.655882	3	45.5	0.0896163	65379	
-32733.6	626483	-19.1333	2.54093	-1014	0.194697	0.215329	1.03299	0.34851	0.655882	0.0001	45.5	0.0186192	65381	
-32733.6	626483	-19.1333	2.54093	-1014	0.194697	0.215329	1.03299	0.34851	0.655882	3	45.5	0.0186192	65381	
-25993.1	650995	-45.3244	2.75507	-1050.98	0.232632	0.202505	0.993198	0.349787	0.651995	3	91	0.0186192	65381	
-22846.5	395302	-233.438	2.9885	-621.654	0.0248232	0.302735	1.03299	0.34851	0.655882	0.0001	45.5	0.12567	65382	
-22846.5	395302	-233.438	2.9885	-621.654	0.0248232	0.302735	1.03299	0.34851	0.655882	3	45.5	0.12567	65382	
-17352.4	403325	-271.026	3.24667	-646.911	0.0677799	0.30777	0.993198	0.349787	0.651995	0.0001	91	0.12567	65382	
-17352.4	403325	-271.026	3.24667	-646.911	0.0677799	0.30777	0.993198	0.349787	0.651995	3	91	0.12567	65382	
-11561.5	316011	-184.612	1.42041	-1069.41	-0.00783986	0.413697	1.03299	0.34851	0.655882	3	45.5	0.142545	65383	
-15789.2	543525	-203.92	1.33644	-1110.34	0.322797	0.387025	1.03299	0.34851	0.655882	3	45.5	0.0931125	65384	
-13769.5	547208	-166.05	0.954838	-980.583	0.305376	0.375036	1.03299	0.34851	0.655882	3	45.5	0.0757066	65386	
-20369.2	480793	-296.008	1.98067	-612.264	0.0526437	0.439917	1.03299	0.34851	0.655882	3	45.5	0.146983	65387	
-19382.6	477478	-277.213	3.78406	-1045.99	0.0570689	0.23869	0.993198	0.349787	0.651995	3	91	0.113233	65390	
-6872.59	108780	-200.81	3.62852	-644.205	-0.0552441	0.215911	1.03299	0.34851	0.655882	0.0001	45.5	0.161042	65391	
-6872.59	108780	-200.81	3.62852	-644.205	-0.0552441	0.215911	1.03299	0.34851	0.655882	3	45.5	0.161042	65391	
-4705.61	116597	-242.521	3.96614	-663.804	0.0080738	0.236471	0.993198	0.349787	0.651995	0.0001	91	0.161042	65391	
-4705.61	116597	-242.521	3.96614	-663.804	0.0080738	0.236471	0.993198	0.349787	0.651995	3	91	0.161042	65391	
-1939.92	126004	-292.943	4.37496	-697.98	0.0846223	0.278652	0.958125	0.351078	0.648177	0.0001	182	0.161042	65391	
-1939.92	126004	-292.943	4.37496	-697.98	0.0846223	0.278652	0.958125	0.351078	0.648177	3	182	0.161042	65391	
-22387.5	468028	-210.254	2.35108	-734.248	0.299744	0.327573	1.03299	0.34851	0.655882	0.0001	45.5	0.103193	65392	
-22387.5	468028	-210.254	2.35108	-734.248	0.299744	0.327573	1.03299	0.34851	0.655882	3	45.5	0.103193	65392	
-17323.4	486260	-242.299	2.56275	-787.36	0.342449	0.317683	0.993198	0.349787	0.651995	0.0001	91	0.103193	65392	
-11938.7	225307	-129.879	1.84839	-738.729	-0.0153865	0.348216	1.03299	0.34851	0.655882	3	45.5	0.123794	65395	
-5935.96	7488.02	-92.8104	3.75355	-895.803	0.559989	0.213283	0.993198	0.349787	0.651995	0.0001	91	0.00158795	65400	
-5935.96	7488.02	-92.8104	3.75355	-895.803	0.559989	0.213283	0.993198	0.349787	0.651995	3	91	0.00158795	65400	
-14492.3	488649	-249.4	1.33789	-1003.73	0.125053	0.436986	1.03299	0.34851	0.655882	3	45.5	0.127926	65403	
-32741	580890	-344.186	3.60412	-1153.47	-0.0312862	0.303755	1.03299	0.34851	0.655882	0.0001	45.5	0.144201	65404	
-32741	580890	-344.186	3.60412	-1153.47	-0.0312862	0.303755	1.03299	0.34851	0.655882	3	45.5	0.144201	65404	
-22371.5	605633	-418.068	3.95241	-1191.15	0.031297	0.329453	0.993198	0.349787	0.651995	0.0001	91	0.144201	65404	
-22371.5	605633	-418.068	3.95241	-1191.15	0.031297	0.329453	0.993198	0.349787	0.651995	3	91	0.144201	65404	
-9578.84	636610	-507.961	4.37565	-1254.97	0.108014	0.377498	0.958125	0.351078	0.648177	0.0001	182	0.144201	65404	
-9578.84	636610	-507.961	4.37565	-1254.97	0.108014	0.377498	0.958125	0.351078	0.648177	3	182	0.144201	65404	
-7164.65	141956	-236.112	3.62201	-911.438	-0.00647813	0.271466	1.03299	0.34851	0.655882	0.0001	45.5	0.197907	65407	
-7164.65	141956	-236.112	3.62201	-911.438	-0.00647813	0.271466	1.03299	0.34851	0.655882	3	45.5	0.197907	65407	
-4205.35	158008	-291.058	3.97525	-941.287	0.0568729	0.295625	0.993198	0.349787	0.651995	0.0001	91	0.197907	65407	
-4205.35	158008	-291.058	3.97525	-941.287	0.0568729	0.295625	0.993198	0.349787	0.651995	3	91	0.197907	65407	
-269.204	176853	-358.112	4.40504	-991.432	0.135221	0.342308	0.958125	0.351078	0.648177	0.0001	182	0.197907	65407	
-269.204	176853	-358.112	4.40504	-991.432	0.135221	0.342308	0.958125	0.351078	0.648177	3	182	0.197907	65407	
-9052.28	148618	-202.243	3.34242	-819.066	0.178041	0.267225	1.03299	0.34851	0.655882	0.0001	45.5	0.171613	65408	
-9052.28	148618	-202.243	3.34242	-819.066	0.178041	0.267225	1.03299	0.34851	0.655882	3	45.5	0.171613	65408	
-6404.83	163178	-247.606	3.6846	-867.431	0.238955	0.281675	0.993198	0.349787	0.651995	0.0001	91	0.171613	65408	
-6404.83	163178	-247.606	3.6846	-867.431	0.238955	0.281675	0.993198	0.349787	0.651995	3	91	0.171613	65408	
-2923.09	180896	-303.562	4.09863	-934.92	0.317407	0.316538	0.958125	0.351078	0.648177	0.0001	182	0.171613	65408	
-2923.09	180896	-303.562	4.09863	-934.92	0.317407	0.316538	0.958125	0.351078	0.648177	3	182	0.171613	65408	
-10311.9	259601	-257.271	1.53269	-983.224	0.108262	0.52741	1.03299	0.34851	0.655882	3	45.5	0.231449	65409	
-12599.4	209416	-213.25	2.85293	-693.506	0.72681	0.308331	1.03299	0.34851	0.655882	0.0001	45.5	0.15422	65410	
-12599.4	209416	-213.25	2.85293	-693.506	0.72681	0.308331	1.03299	0.34851	0.655882	3	45.5	0.15422	65410	
-9506.7	228720	-251.463	3.21939	-805.79	0.866787	0.311396	0.993198	0.349787	0.651995	0.0001	91	0.15422	65410	
-9506.7	228720	-251.463	3.21939	-805.79	0.866787	0.311396	0.993198	0.349787	0.651995	3	91	0.15422	65410	
-26835.3	906644	5.11658	1.23737	-1171.53	0.0607519	0.312367	1.03299	0.34851	0.655882	3	45.5	0.00420758	65411	
-12986.5	303832	-194.234	1.63557	-707.473	-0.0109909	0.406379	1.03299	0.34851	0.655882	3	45.5	0.148232	65417	
-32701.3	907276	-350.514	1.77282	-708.169	0.0625669	0.423677	1.03299	0.34851	0.655882	3	45.5	0.101626	65419	
-6722.97	22744.5	-71.8488	2.60048	-882.016	-0.0255876	0.276819	1.03299	0.34851	0.655882	0.0001	45.5	0.0952034	65420	
-6722.97	22744.5	-71.8488	2.60048	-882.016	-0.0255876	0.276819	1.03299	0.34851	0.655882	3	45.5	0.0952034	65420	
-16723.3	464084	-299.086	2.77217	-765.271	0.0422877	0.360002	0.993198	0.349787	0.651995	0.0001	91	0.133796	65421	
-16723.3	464084	-299.086	2.77217	-765.271	0.0422877	0.360002	0.993198	0.349787	0.651995	3	91	0.133796	65421	
-22226.6	374620	-398.097	3.40114	-588.337	-0.039767	0.447779	1.03299	0.34851	0.655882	0.0001	45.5	0.208256	65422	
-22226.6	374620	-398.097	3.40114	-588.337	-0.039767	0.447779	1.03299	0.34851	0.655882	3	45.5	0.208256	65422	
-6804.06	394821	-527.048	4.1219	-682.929	0.0838455	0.52888	0.958125	0.351078	0.648177	0.0001	182	0.208256	65422	
-6804.06	394821	-527.048	4.1219	-682.929	0.0838455	0.52888	0.958125	0.351078	0.648177	3	182	0.208256	65422	
-30404.8	888235	-404.926	1.83035	-956.774	-0.0157283	0.479691	1.03299	0.34851	0.655882	3	45.5	0.122098	65423	
-11932.3	208820	-156.482	2.23221	-821.191	0.63365	0.335577	1.03299	0.34851	0.655882	0.0001	45.5	0.135627	65427	
-33248.1	692518	-41.6009	2.3349	-796.104	0.0737072	0.237801	1.03299	0.34851	0.655882	3	45.5	0.0220077	65428	
-26514.7	705808	-62.0724	2.50628	-810.414	0.100607	0.221146	0.993198	0.349787	0.651995	3	91	0.0220077	65428	
-18689.3	274160	15.1027	2.71488	-865.563	0.591951	0.205578	1.03299	0.34851	0.655882	0.0001	45.5	0.0120314	65429	
-18689.3	274160	15.1027	2.71488	-865.563	0.591951	0.205578	1.03299	0.34851	0.655882	3	45.5	0.0120314	65429	
-15495.2	297462	-7.46345	3.02157	-957.342	0.692846	0.197602	0.993198	0.349787	0.651995	0.0001	91	0.0120314	65429	
-15495.2	297462	-7.46345	3.02157	-957.342	0.692846	0.197602	0.993198	0.349787	0.651995	3	91	0.0120314	65429	
-29999.4	840111	-398.853	2.04659	-1117.12	0.00111119	0.472377	1.03299	0.34851	0.655882	3	45.5	0.126777	65430	
-21279.6	865177	-448.319	2.19028	-1142.65	0.020821	0.467075	0.993198	0.349787	0.651995	0.0001	91	0.126777	65430	
-21279.6	865177	-448.319	2.19028	-1142.65	0.020821	0.467075	0.993198	0.349787	0.651995	3	91	0.126777	65430	
-10792.8	451925	-359.393	0.70807	-871.307	0.0945842	0.61278	1.03299	0.34851	0.655882	3	45.5	0.205906	65431	
-16669.3	305140	-160.034	2.8679	-1042.63	-0.0125361	0.278816	1.03299	0.34851	0.655882	3	45.5	0.115432	65433	
-35007.1	906275	-51.1911	1.69679	-651.849	0.683648	0.282693	1.03299	0.34851	0.655882	3	45.5	0.0160629	65434	
-34122	778890	-422.523	2.43578	-921.271	-0.0216137	0.473861	1.03299	0.34851	0.655882	0.0001	45.5	0.142239	65437	
-34122	778890	-422.523	2.43578	-921.271	-0.0216137	0.473861	1.03299	0.34851	0.655882	3	45.5	0.142239	65437	
-24505.7	796149	-476.802	2.62347	-950.033	0.00646821	0.477419	0.993198	0.349787	0.651995	0.0001	91	0.142239	65437	
-24505.7	796149	-476.802	2.62347	-950.033	0.00646821	0.477419	0.993198	0.349787	0.651995	3	91	0.142239	65437	
-22471	725565	-137.346	1.44561	-931.656	-0.000198999	0.333724	1.03299	0.34851	0.655882	3	45.5	0.0524688	65438	
-22390.5	383854	-230.115	2.83029	-587.264	0.516109	0.302209	1.03299	0.34851	0.655882	0.0001	45.5	0.117384	65440	
-22390.5	383854	-230.115	2.83029	-587.264	0.516109	0.302209	1.03299	0.34851	0.655882	3	45.5	0.117384	65440	
-17215.7	402265	-265.795	3.15164	-661.783	0.604655	0.303653	0.993198	0.349787	0.651995	0.0001	91	0.117384	65440	
-17215.7	402265	-265.795	3.15164	-661.783	0.604655	0.303653	0.993198	0.349787	0.651995	3	91	0.117384	65440	
-11585.2	174619	-19.5065	1.67469	-976.699	0.33383	0.302988	1.03299	0.34851	0.655882	3	45.5	0.0407248	65444	
-8229.53	540726	-361.903	2.84461	-1159.22	0.0345519	0.385563	0.958125	0.351078	0.648177	0.0001	182	0.132761	65445	
-11986.7	242957	-142.202	3.71058	-1087.56	0.58751	0.193352	0.993198	0.349787	0.651995	0.0001	91	0.0859976	65446	
-11986.7	242957	-142.202	3.71058	-1087.56	0.58751	0.193352	0.993198	0.349787	0.651995	3	91	0.0859976	65446	
-15159.4	216189	-40.2627	2.97162	-1091.2	0.00344815	0.209312	1.03299	0.34851	0.655882	0.0001	45.5	0.0572478	65448	
-13667.8	312239	-8.13966	1.22684	-998.859	0.756888	0.315454	1.03299	0.34851	0.655882	3	45.5	0.0168227	65449	
-29502.5	550874	-388.123	2.95405	-911.013	0.742565	0.395687	1.03299	0.34851	0.655882	0.0001	45.5	0.148584	65453	
-29502.5	550874	-388.123	2.95405	-911.013	0.742565	0.395687	1.03299	0.34851	0.655882	3	45.5	0.148584	65453	
-20789	594195	-450.379	3.35184	-1072.79	0.890661	0.408611	0.993198	0.349787	0.651995	3	91	0.148584	65453	
-9515.92	185916	-275.004	3.08258	-705.116	0.110512	0.375403	1.03299	0.34851	0.655882	0.0001	45.5	0.2197	65454	
-9515.92	185916	-275.004	3.08258	-705.116	0.110512	0.375403	1.03299	0.34851	0.655882	3	45.5	0.2197	65454	
-6246.23	197590	-320.635	3.37792	-745.753	0.1591	0.389056	0.993198	0.349787	0.651995	0.0001	91	0.2197	65454	
-6246.23	197590	-320.635	3.37792	-745.753	0.1591	0.389056	0.993198	0.349787	0.651995	3	91	0.2197	65454	
-2112.59	211951	-375.551	3.72843	-801.26	0.220049	0.420183	0.958125	0.351078	0.648177	0.0001	182	0.2197	65454	
-2112.59	211951	-375.551	3.72843	-801.26	0.220049	0.420183	0.958125	0.351078	0.648177	3	182	0.2197	65454	
-11959.9	295054	-215.014	1.24598	-618.564	0.676942	0.438859	1.03299	0.34851	0.655882	3	45.5	0.156252	65455	
-24241.8	597079	-166.001	1.91059	-668.552	0.114245	0.322933	1.03299	0.34851	0.655882	3	45.5	0.070844	65456	
-16750.2	446496	-394.243	2.02756	-984.104	0.120902	0.593864	1.03299	0.34851	0.655882	3	45.5	0.211175	65458	
-11453.7	469971	-442.295	2.19074	-1028.25	0.143159	0.60003	0.993198	0.349787	0.651995	0.0001	91	0.211175	65458	
-11453.7	469971	-442.295	2.19074	-1028.25	0.143159	0.60003	0.993198	0.349787	0.651995	3	91	0.211175	65458	
-4947.8	497008	-497.159	2.37355	-1082.47	0.169854	0.616056	0.958125	0.351078	0.648177	0.0001	182	0.211175	65458	
-10498.2	197821	-109.69	1.58381	-1104.32	0.350343	0.357271	1.03299	0.34851	0.655882	3	45.5	0.120783	65459	
-20885.1	503177	-286.428	3.7853	-977.862	0.0230642	0.239268	0.993198	0.349787	0.651995	0.0001	91	0.112731	65461	
-20885.1	503177	-286.428	3.7853	-977.862	0.0230642	0.239268	0.993198	0.349787	0.651995	3	91	0.112731	65461	
-15016.7	429051	-210.317	1.47009	-799.165	0.0164492	0.404939	1.03299	0.34851	0.655882	3	45.5	0.121961	65462	
-32453.1	782825	-156.928	2.08729	-758.204	-0.0174326	0.293582	1.03299	0.34851	0.655882	0.0001	45.5	0.0555137	65463	
-32453.1	782825	-156.928	2.08729	-758.204	-0.0174326	0.293582	1.03299	0.34851	0.655882	3	45.5	0.0555137	65463	
-10346.4	210078	-159.603	1.13215	-557.625	0.585368	0.412937	1.03299	0.34851	0.655882	3	45.5	0.160519	65464	
-6453.01	-9661.21	-52.9851	3.0369	-626.171	0.500262	0.231639	1.03299	0.34851	0.655882	0.0001	45.5	0.0361339	65467	
-6453.01	-9661.21	-52.9851	3.0369	-626.171	0.500262	0.231639	1.03299	0.34851	0.655882	3	45.5	0.0361339	65467	
-28203.5	632121	-99.6751	2.18697	-772.917	-0.0224839	0.272153	1.03299	0.34851	0.655882	0.0001	45.5	0.0450114	65468	
-28203.5	632121	-99.6751	2.18697	-772.917	-0.0224839	0.272153	1.03299	0.34851	0.655882	3	45.5	0.0450114	65468	
-12933.4	290291	-313.428	1.87094	-606.869	-0.000415468	0.551597	1.03299	0.34851	0.655882	3	45.5	0.236984	65469	
-9850.4	298574	-345.684	1.99982	-624.399	0.0160297	0.550288	0.993198	0.349787	0.651995	3	91	0.236984	65469	
-6182.87	308088	-381.491	2.14081	-646.747	0.0349357	0.557251	0.958125	0.351078	0.648177	3	182	0.236984	65469	
-11118.1	581640	-424.746	0.514012	-847.517	0.020814	0.643415	1.03299	0.34851	0.655882	3	45.5	0.192296	65470	
-32678	584346	-387.346	3.25811	-825.497	-0.0416682	0.386432	1.03299	0.34851	0.655882	0.0001	45.5	0.158458	65472	
-32678	584346	-387.346	3.25811	-825.497	-0.0416682	0.386432	1.03299	0.34851	0.655882	3	45.5	0.158458	65472	
-6713.65	-34046.1	10.5796	3.27834	-983.389	0.222435	0.213974	1.03299	0.34851	0.655882	0.0001	45.5	0.0513858	65473	
-6713.65	-34046.1	10.5796	3.27834	-983.389	0.222435	0.213974	1.03299	0.34851	0.655882	3	45.5	0.0513858	65473	
-7263.72	-17161	-20.07	3.6129	-1023.78	0.284547	0.222928	0.993198	0.349787	0.651995	0.0001	91	0.0513858	65473	
-7263.72	-17161	-20.07	3.6129	-1023.78	0.284547	0.222928	0.993198	0.349787	0.651995	3	91	0.0513858	65473	
-7537.45	-9657.2	-15.1772	2.62157	-843.875	0.0465725	0.267386	1.03299	0.34851	0.655882	0.0001	45.5	0.0407757	65474	
-7537.45	-9657.2	-15.1772	2.62157	-843.875	0.0465725	0.267386	1.03299	0.34851	0.655882	3	45.5	0.0407757	65474	
-13228.7	258472	-40.4091	1.67104	-947.7	0.0410774	0.305859	1.03299	0.34851	0.655882	3	45.5	0.0468547	65475	
-15335.2	246867	-32.9523	2.44842	-897.32	-0.020023	0.250274	1.03299	0.34851	0.655882	0.0001	45.5	0.0437316	65476	
-15335.2	246867	-32.9523	2.44842	-897.32	-0.020023	0.250274	1.03299	0.34851	0.655882	3	45.5	0.0437316	65476	
-13447.6	307278	-138.907	1.49351	-709.969	0.827018	0.352393	1.03299	0.34851	0.655882	3	45.5	0.0947368	65478	
-10809.4	579980	-475.996	0.15648	-628.835	0.831482	0.667446	1.03299	0.34851	0.655882	0.0001	45.5	0.186828	65480	
-10809.4	579980	-475.996	0.15648	-628.835	0.831482	0.667446	1.03299	0.34851	0.655882	3	45.5	0.186828	65480	
-17088.8	665457	6.70471	0.838759	-1153.07	0.031385	0.327524	1.03299	0.34851	0.655882	3	45.5	0.00281679	65481	
-34124.3	781553	-373.184	2.50005	-1046.22	0.0792317	0.414233	1.03299	0.34851	0.655882	3	45.5	0.124522	65482	
-24499.6	806955	-427.257	2.70633	-1089.54	0.110364	0.414394	0.993198	0.349787	0.651995	0.0001	91	0.124522	65482	
-24499.6	806955	-427.257	2.70633	-1089.54	0.110364	0.414394	0.993198	0.349787	0.651995	3	91	0.124522	65482	
-26301	544590	-276.318	3.93392	-636.114	-0.000111016	0.197332	0.993198	0.349787	0.651995	0.0001	91	0.0998282	65483	
-26301	544590	-276.318	3.93392	-636.114	-0.000111016	0.197332	0.993198	0.349787	0.651995	3	91	0.0998282	65483	
-16939.4	336590	-104.13	2.17155	-712.162	-5.82091e-05	0.292291	1.03299	0.34851	0.655882	3	45.5	0.0742344	65486	
-34468.5	579357	-341.301	3.55044	-907.863	0.0181534	0.291579	1.03299	0.34851	0.655882	0.0001	45.5	0.139259	65487	
-34468.5	579357	-341.301	3.55044	-907.863	0.0181534	0.291579	1.03299	0.34851	0.655882	3	45.5	0.139259	65487	
-24415.8	596477	-405.531	3.89848	-951.425	0.0793261	0.314593	0.993198	0.349787	0.651995	0.0001	91	0.139259	65487	
-24415.8	596477	-405.531	3.89848	-951.425	0.0793261	0.314593	0.993198	0.349787	0.651995	3	91	0.139259	65487	
-13810.2	250888	-133.205	2.45577	-1026.27	0.284138	0.301813	1.03299	0.34851	0.655882	0.0001	45.5	0.111258	65489	
-14841.5	386136	-246.798	3.12902	-981.81	0.786825	0.289797	0.993198	0.349787	0.651995	0.0001	91	0.114557	65491	
-14841.5	386136	-246.798	3.12902	-981.81	0.786825	0.289797	0.993198	0.349787	0.651995	3	91	0.114557	65491	
-4089.64	48111.5	-151.709	2.8838	-780.239	0.179017	0.270267	1.03299	0.34851	0.655882	0.0001	45.5	0.157219	65492	
-4089.64	48111.5	-151.709	2.8838	-780.239	0.179017	0.270267	1.03299	0.34851	0.655882	3	45.5	0.157219	65492	
-3215.88	60195.1	-185.946	3.15023	-819.056	0.225346	0.270298	0.993198	0.349787	0.651995	0.0001	91	0.157219	65492	
-3215.88	60195.1	-185.946	3.15023	-819.056	0.225346	0.270298	0.993198	0.349787	0.651995	3	91	0.157219	65492	
-1930.6	74189	-227.135	3.46243	-870.787	0.283414	0.285472	0.958125	0.351078	0.648177	0.0001	182	0.157219	65492	
-1930.6	74189	-227.135	3.46243	-870.787	0.283414	0.285472	0.958125	0.351078	0.648177	3	182	0.157219	65492	
676.141	97190.1	-296.682	3.9766	-968.176	0.386519	0.332285	0.9175	0.352806	0.64323	0.0001	455	0.157219	65492	
676.141	97190.1	-296.682	3.9766	-968.176	0.386519	0.332285	0.9175	0.352806	0.64323	3	455	0.157219	65492	
-15342	508771	-478.347	2.83096	-935.462	0.136839	0.56836	0.993198	0.349787	0.651995	0.0001	91	0.200284	65494	
-15342	508771	-478.347	2.83096	-935.462	0.136839	0.56836	0.993198	0.349787	0.651995	3	91	0.200284	65494	
-16470.5	741007	-298.624	1.01016	-997.861	0.316332	0.440506	1.03299	0.34851	0.655882	3	45.5	0.100283	65496	
-11231.1	198077	-80.4925	1.58052	-873.395	0.506554	0.330442	1.03299	0.34851	0.655882	3	45.5	0.0878108	65497	
-8398.96	6916.84	-8.73172	1.80048	-635.438	0.111116	0.309564	1.03299	0.34851	0.655882	0.0001	45.5	0.0479598	65498	
-21858.1	512686	-33.709	2.89766	-1088.07	0.0993987	0.197074	0.993198	0.349787	0.651995	0.0001	91	0.0189371	65500	
-21858.1	512686	-33.709	2.89766	-1088.07	0.0993987	0.197074	0.993198	0.349787	0.651995	3	91	0.0189371	65500	
-15287.5	536289	-66.511	3.14014	-1112.87	0.141642	0.199816	0.958125	0.351078	0.648177	0.0001	182	0.0189371	65500	
