-24086.7	515752	-219.015	3.8971	-919.898	0.915959	0.163585	0.993198	0.349787	0.651995	0.0001	91	0.0759167	88504	
-24086.7	515752	-219.015	3.8971	-919.898	0.915959	0.163585	0.993198	0.349787	0.651995	3	91	0.0759167	88504	
-34171.7	915282	-242.911	1.9909	-977.303	-0.01362	0.339073	1.03299	0.34851	0.655882	3	45.5	0.073479	88506	
-24407.4	560022	-79.0411	1.98195	-786.816	0.316432	0.281869	1.03299	0.34851	0.655882	3	45.5	0.0389392	88509	
-19944.8	468569	-191.568	1.8941	-629.787	0.338716	0.347392	1.03299	0.34851	0.655882	3	45.5	0.0948397	88511	
-26846.4	623962	-295.881	2.37363	-999.805	0.16443	0.383949	1.03299	0.34851	0.655882	3	45.5	0.118374	88515	
-3864.11	85405.1	-214.265	3.12506	-816.916	0.803945	0.278836	1.03299	0.34851	0.655882	0.0001	45.5	0.195768	88516	
-3864.11	85405.1	-214.265	3.12506	-816.916	0.803945	0.278836	1.03299	0.34851	0.655882	3	45.5	0.195768	88516	
-2066.14	104411	-260.001	3.56019	-961.853	0.97707	0.288657	0.993198	0.349787	0.651995	0.0001	91	0.195768	88516	
-2066.14	104411	-260.001	3.56019	-961.853	0.97707	0.288657	0.993198	0.349787	0.651995	3	91	0.195768	88516	
633.401	132483	-322.211	4.13167	-1175.58	1.23219	0.322158	0.958125	0.351078	0.648177	0.0001	182	0.195768	88516	
633.401	132483	-322.211	4.13167	-1175.58	1.23219	0.322158	0.958125	0.351078	0.648177	3	182	0.195768	88516	
-17043.8	432231	-345.633	1.84852	-849.934	0.787398	0.504674	1.03299	0.34851	0.655882	3	45.5	0.170436	88519	
-12477.1	469025	-385.19	2.06346	-992.152	0.918462	0.499223	0.993198	0.349787	0.651995	3	91	0.170436	88519	
-6552.27	518366	-433.691	2.32749	-1188.21	1.09914	0.503898	0.958125	0.351078	0.648177	0.0001	182	0.170436	88519	
-19548.4	325741	-48.7082	2.73473	-828.023	0.0516212	0.220649	1.03299	0.34851	0.655882	0.0001	45.5	0.0440845	88521	
-19548.4	325741	-48.7082	2.73473	-828.023	0.0516212	0.220649	1.03299	0.34851	0.655882	3	45.5	0.0440845	88521	
-21869.5	548349	-119.414	1.89453	-894.863	-0.0161152	0.307931	1.03299	0.34851	0.655882	3	45.5	0.0596916	88522	
-35810.4	704633	-361.189	2.83866	-828.804	-0.0383642	0.379811	1.03299	0.34851	0.655882	3	45.5	0.131142	88523	
-26150.4	717359	-413.831	3.07083	-856.31	-8.72694	0.386091	0.993198	0.349787	0.651995	0.0001	91	0.131142	88523	
-7339.02	139.383	-22.5452	3.68827	-987.401	0.531755	0.208231	0.993198	0.349787	0.651995	0.0001	91	0.048566	88524	
-7339.02	139.383	-22.5452	3.68827	-987.401	0.531755	0.208231	0.993198	0.349787	0.651995	3	91	0.048566	88524	
-11716.7	146908	-80.3875	3.17395	-974.654	0.016018	0.212944	1.03299	0.34851	0.655882	0.0001	45.5	0.0924471	88525	
-11716.7	146908	-80.3875	3.17395	-974.654	0.016018	0.212944	1.03299	0.34851	0.655882	3	45.5	0.0924471	88525	
-9626.47	163682	-116.894	3.45061	-989.358	0.06438	0.217808	0.993198	0.349787	0.651995	0.0001	91	0.0924471	88525	
-9626.47	163682	-116.894	3.45061	-989.358	0.06438	0.217808	0.993198	0.349787	0.651995	3	91	0.0924471	88525	
-39096.9	693521	-335.294	3.41304	-1068.72	-0.0561005	0.291836	1.03299	0.34851	0.655882	0.0001	45.5	0.124636	88527	
-39096.9	693521	-335.294	3.41304	-1068.72	-0.0561005	0.291836	1.03299	0.34851	0.655882	3	45.5	0.124636	88527	
-19682.7	365001	-13.4648	3.75022	-985.822	0.000765368	0.128663	0.993198	0.349787	0.651995	3	91	0.0146882	88529	
-12792.1	268622	-255.538	2.23237	-772.036	0.141507	0.440187	1.03299	0.34851	0.655882	3	45.5	0.194975	88530	
-9660.94	282662	-290.736	2.41394	-808.051	0.168973	0.436233	0.993198	0.349787	0.651995	0.0001	91	0.194975	88530	
-9660.94	282662	-290.736	2.41394	-808.051	0.168973	0.436233	0.993198	0.349787	0.651995	3	91	0.194975	88530	
-20776.2	385917	-403.873	2.89424	-761.223	0.812639	0.480915	1.03299	0.34851	0.655882	0.0001	45.5	0.194698	88532	
-20776.2	385917	-403.873	2.89424	-761.223	0.812639	0.480915	1.03299	0.34851	0.655882	3	45.5	0.194698	88532	
-14220.2	419372	-463.25	3.30217	-914.224	0.980648	0.499581	0.993198	0.349787	0.651995	0.0001	91	0.194698	88532	
-14220.2	419372	-463.25	3.30217	-914.224	0.980648	0.499581	0.993198	0.349787	0.651995	3	91	0.194698	88532	
-5413.58	466967	-541.193	3.83522	-1138.13	1.22655	0.540226	0.958125	0.351078	0.648177	0.0001	182	0.194698	88532	
-5413.58	466967	-541.193	3.83522	-1138.13	1.22655	0.540226	0.958125	0.351078	0.648177	3	182	0.194698	88532	
-16154.1	280780	-83.6708	2.54607	-1006.05	0.22801	0.258144	1.03299	0.34851	0.655882	3	45.5	0.0722539	88534	
-9439.11	162098	-189.858	3.39206	-1165.85	0.01893	0.279581	1.03299	0.34851	0.655882	0.0001	45.5	0.175176	88537	
-9439.11	162098	-189.858	3.39206	-1165.85	0.01893	0.279581	1.03299	0.34851	0.655882	3	45.5	0.175176	88537	
-6508.21	187255	-245.589	3.71151	-1194.71	0.0745748	0.296101	0.993198	0.349787	0.651995	0.0001	91	0.175176	88537	
-6508.21	187255	-245.589	3.71151	-1194.71	0.0745748	0.296101	0.993198	0.349787	0.651995	3	91	0.175176	88537	
-2494.27	215481	-313.026	4.09452	-1244.06	0.143172	0.332344	0.958125	0.351078	0.648177	0.0001	182	0.175176	88537	
-2494.27	215481	-313.026	4.09452	-1244.06	0.143172	0.332344	0.958125	0.351078	0.648177	3	182	0.175176	88537	
-19056.5	433927	-94.5146	3.23958	-1090.64	0.152299	0.190168	0.993198	0.349787	0.651995	0.0001	91	0.0466663	88538	
-19056.5	433927	-94.5146	3.23958	-1090.64	0.152299	0.190168	0.993198	0.349787	0.651995	3	91	0.0466663	88538	
-19871.9	449899	-294.206	3.85881	-792.785	0.176424	0.239937	0.993198	0.349787	0.651995	0.0001	91	0.119605	88539	
-19871.9	449899	-294.206	3.85881	-792.785	0.176424	0.239937	0.993198	0.349787	0.651995	3	91	0.119605	88539	
-6817.52	-28449.3	-14.9285	2.97914	-855.002	0.774006	0.241464	1.03299	0.34851	0.655882	0.0001	45.5	0.0118487	88542	
-6817.52	-28449.3	-14.9285	2.97914	-855.002	0.774006	0.241464	1.03299	0.34851	0.655882	3	45.5	0.0118487	88542	
-16404.6	351002	-388.743	3.02233	-939.767	-0.0435715	0.525539	1.03299	0.34851	0.655882	3	45.5	0.233039	88543	
-10304.6	368926	-451.806	3.29411	-971.315	0.000244934	0.550232	0.993198	0.349787	0.651995	3	91	0.233039	88543	
-2667.6	390584	-526.591	3.6145	-1019.76	0.0526546	0.59217	0.958125	0.351078	0.648177	0.0001	182	0.233039	88543	
-2667.6	390584	-526.591	3.6145	-1019.76	0.0526546	0.59217	0.958125	0.351078	0.648177	3	182	0.233039	88543	
-10370.4	519669	-464.606	0.74883	-1140.07	-0.00256663	0.751515	1.03299	0.34851	0.655882	3	45.5	0.23787	88544	
-8109.81	74347.4	-93.9611	1.89206	-863.95	0.404557	0.34249	1.03299	0.34851	0.655882	0.0001	45.5	0.172096	88546	
-28220	584218	-36.6161	2.25912	-676.383	0.10451	0.247986	1.03299	0.34851	0.655882	3	45.5	0.0217844	88547	
-17469.9	224655	11.0112	3.23025	-763.626	0.131302	0.159508	1.03299	0.34851	0.655882	0.0001	45.5	0.0158569	88548	
-17469.9	224655	11.0112	3.23025	-763.626	0.131302	0.159508	1.03299	0.34851	0.655882	3	45.5	0.0158569	88548	
-14406.3	236099	-11.9108	3.53293	-782.87	0.185361	0.163414	0.993198	0.349787	0.651995	3	91	0.0158569	88548	
-15281.8	366403	-379.805	2.67141	-1092.14	-0.0308328	0.562199	1.03299	0.34851	0.655882	0.0001	45.5	0.232626	88549	
-9605.05	389892	-440.2	2.8964	-1119.67	0.00319082	0.580309	0.993198	0.349787	0.651995	3	91	0.232626	88549	
-7595.87	-316.567	-24.1508	3.33494	-1087.01	0.400156	0.234752	0.993198	0.349787	0.651995	0.0001	91	0.0559699	88550	
-7595.87	-316.567	-24.1508	3.33494	-1087.01	0.400156	0.234752	0.993198	0.349787	0.651995	3	91	0.0559699	88550	
-9244.47	110851	-82.9935	3.69904	-656.623	0.0776317	0.182773	0.993198	0.349787	0.651995	0.0001	91	0.0653148	88551	
-9244.47	110851	-82.9935	3.69904	-656.623	0.0776317	0.182773	0.993198	0.349787	0.651995	3	91	0.0653148	88551	
-20684.7	685126	-94.7146	1.21514	-587.44	0.192416	0.327381	1.03299	0.34851	0.655882	3	45.5	0.0364896	88552	
-10600.3	105965	-24.4917	2.5494	-1038.21	-0.023233	0.256742	1.03299	0.34851	0.655882	0.0001	45.5	0.062156	88553	
-9497.14	124403	-51.2176	2.73504	-1039.48	0.00740817	0.246339	0.993198	0.349787	0.651995	3	91	0.062156	88553	
-13006.9	204754	0.816523	1.89819	-936.291	-0.0166637	0.285567	1.03299	0.34851	0.655882	3	45.5	0.0216351	88555	
-40258.1	697088	-310.268	3.26943	-815.052	-0.0513016	0.276151	1.03299	0.34851	0.655882	0.0001	45.5	0.113323	88556	
-40258.1	697088	-310.268	3.26943	-815.052	-0.0513016	0.276151	1.03299	0.34851	0.655882	3	45.5	0.113323	88556	
-29640.8	708026	-363.619	3.55452	-841.834	-0.000138206	0.288052	0.993198	0.349787	0.651995	0.0001	91	0.113323	88556	
-29640.8	708026	-363.619	3.55452	-841.834	-0.000138206	0.288052	0.993198	0.349787	0.651995	3	91	0.113323	88556	
-7948.66	48368.4	-60.5625	3.05213	-879.707	0.62975	0.21975	1.03299	0.34851	0.655882	3	45.5	0.0850282	88557	
-15211.4	387437	-238.726	1.69931	-757.13	0.156766	0.424863	1.03299	0.34851	0.655882	3	45.5	0.144722	88559	
-10365.4	367952	-351.475	0.565889	-733.787	0.221232	0.660962	1.03299	0.34851	0.655882	3	45.5	0.246489	88560	
-9753.96	186194	-270.299	3.05157	-788.974	0.775244	0.350517	1.03299	0.34851	0.655882	0.0001	45.5	0.200736	88561	
-9753.96	186194	-270.299	3.05157	-788.974	0.775244	0.350517	1.03299	0.34851	0.655882	3	45.5	0.200736	88561	
-6399.95	208969	-319.544	3.47202	-929.546	0.936636	0.36306	0.993198	0.349787	0.651995	0.0001	91	0.200736	88561	
-6399.95	208969	-319.544	3.47202	-929.546	0.936636	0.36306	0.993198	0.349787	0.651995	3	91	0.200736	88561	
-1744.99	241759	-385.314	4.01985	-1134.16	1.17156	0.398371	0.958125	0.351078	0.648177	0.0001	182	0.200736	88561	
-1744.99	241759	-385.314	4.01985	-1134.16	1.17156	0.398371	0.958125	0.351078	0.648177	3	182	0.200736	88561	
-10809.7	145711	-120.285	3.05175	-878.097	0.185676	0.244044	1.03299	0.34851	0.655882	0.0001	45.5	0.11998	88562	
-27066.5	727655	-150.137	1.83814	-1088.18	0.346058	0.319075	1.03299	0.34851	0.655882	3	45.5	0.0549327	88563	
-19278.6	510508	-121.518	1.60136	-600.232	-0.00926785	0.325714	1.03299	0.34851	0.655882	3	45.5	0.0617261	88565	
-10501.3	294770	-292.246	1.37272	-998.147	0.202022	0.573515	1.03299	0.34851	0.655882	3	45.5	0.237908	88566	
-14104.9	261792	-83.3907	3.40846	-791.002	0.451693	0.186144	0.993198	0.349787	0.651995	0.0001	91	0.0513105	88567	
-14104.9	261792	-83.3907	3.40846	-791.002	0.451693	0.186144	0.993198	0.349787	0.651995	3	91	0.0513105	88567	
-20717.4	852405	-424.604	0.992133	-709.063	0.00477498	0.53824	1.03299	0.34851	0.655882	3	45.5	0.130895	88568	
-14329.3	414133	-9.11346	0.995964	-776.193	0.414489	0.323545	1.03299	0.34851	0.655882	3	45.5	0.0109443	88571	
-3664.18	61855	-171.827	2.71338	-946.59	0.0940274	0.325669	1.03299	0.34851	0.655882	0.0001	45.5	0.248532	88577	
-3664.18	61855	-171.827	2.71338	-946.59	0.0940274	0.325669	1.03299	0.34851	0.655882	3	45.5	0.248532	88577	
-2553.99	78984.1	-210.156	2.94473	-977.817	0.131115	0.324563	0.993198	0.349787	0.651995	0.0001	91	0.248532	88577	
-2553.99	78984.1	-210.156	2.94473	-977.817	0.131115	0.324563	0.993198	0.349787	0.651995	3	91	0.248532	88577	
-929.942	98048.8	-255.352	3.21116	-1020.79	0.176358	0.33674	0.958125	0.351078	0.648177	0.0001	182	0.248532	88577	
-929.942	98048.8	-255.352	3.21116	-1020.79	0.176358	0.33674	0.958125	0.351078	0.648177	3	182	0.248532	88577	
-19951.3	292266	-60.981	3.43528	-1032.18	-0.0423333	0.151644	1.03299	0.34851	0.655882	0.0001	45.5	0.0587148	88578	
-19951.3	292266	-60.981	3.43528	-1032.18	-0.0423333	0.151644	1.03299	0.34851	0.655882	3	45.5	0.0587148	88578	
-23110.7	421987	-271.869	3.43325	-1106.72	-0.0191627	0.291566	1.03299	0.34851	0.655882	0.0001	45.5	0.144405	88583	
-23110.7	421987	-271.869	3.43325	-1106.72	-0.0191627	0.291566	1.03299	0.34851	0.655882	3	45.5	0.144405	88583	
-25580.8	804039	-184.397	1.44009	-795.523	0.513717	0.345171	1.03299	0.34851	0.655882	3	45.5	0.0563447	88584	
-33431.9	575857	-395.019	3.25828	-899.158	0.660761	0.355671	1.03299	0.34851	0.655882	0.0001	45.5	0.145898	88585	
-33431.9	575857	-395.019	3.25828	-899.158	0.660761	0.355671	1.03299	0.34851	0.655882	3	45.5	0.145898	88585	
-23540.7	616652	-462.364	3.69747	-1049.72	0.797006	0.375216	0.993198	0.349787	0.651995	3	91	0.145898	88585	
-10541.4	673370	-551.006	4.26478	-1264.5	0.991324	0.419685	0.958125	0.351078	0.648177	0.0001	182	0.145898	88585	
-10541.4	673370	-551.006	4.26478	-1264.5	0.991324	0.419685	0.958125	0.351078	0.648177	3	182	0.145898	88585	
-22003	479926	-131.08	3.30225	-677.314	0.278634	0.187401	0.993198	0.349787	0.651995	0.0001	91	0.053893	88586	
-22003	479926	-131.08	3.30225	-677.314	0.278634	0.187401	0.993198	0.349787	0.651995	3	91	0.053893	88586	
-7945.7	-1182.01	2.1088	2.48767	-640.214	0.825031	0.261661	1.03299	0.34851	0.655882	0.0001	45.5	0.0365924	88588	
-8110.81	6868.58	-14.2179	2.79985	-738.489	0.983982	0.251524	0.993198	0.349787	0.651995	0.0001	91	0.0365924	88588	
-28394.7	689204	-62.1225	2.97247	-1076.84	0.0046197	0.186069	0.993198	0.349787	0.651995	3	91	0.0236482	88589	
-19600.1	455950	-256.106	3.98277	-1089.74	0.635601	0.195266	0.993198	0.349787	0.651995	0.0001	91	0.0999796	88590	
-19600.1	455950	-256.106	3.98277	-1089.74	0.635601	0.195266	0.993198	0.349787	0.651995	3	91	0.0999796	88590	
-12362.8	272620	-275.409	2.17174	-816.988	0.0653066	0.479022	1.03299	0.34851	0.655882	3	45.5	0.213518	88594	
-10162.7	149799	-110.175	2.25573	-1020.06	-0.0070239	0.32386	1.03299	0.34851	0.655882	3	45.5	0.135717	88595	
-30841.2	604321	-274.785	2.72802	-698.017	-0.0341884	0.325628	1.03299	0.34851	0.655882	0.0001	45.5	0.112857	88597	
-30841.2	604321	-274.785	2.72802	-698.017	-0.0341884	0.325628	1.03299	0.34851	0.655882	3	45.5	0.112857	88597	
-23230.8	612740	-314.758	2.94088	-718.102	0.00110108	0.324667	0.993198	0.349787	0.651995	0.0001	91	0.112857	88597	
-23230.8	612740	-314.758	2.94088	-718.102	0.00110108	0.324667	0.993198	0.349787	0.651995	3	91	0.112857	88597	
-16497.6	916469	-466.722	0.713087	-934.054	0.636875	0.543235	1.03299	0.34851	0.655882	3	45.5	0.118546	88598	
-12692.9	385477	-349.254	1.12785	-712.36	-0.00568396	0.620169	1.03299	0.34851	0.655882	3	45.5	0.228696	88601	
-13500.2	913870	-400.49	0.666066	-1076.4	0.00791767	0.510065	1.03299	0.34851	0.655882	3	45.5	0.114858	88603	
-30753.8	785554	12.4683	1.77387	-1200.46	-0.0138745	0.282065	1.03299	0.34851	0.655882	3	45.5	0.00524651	88605	
-21328.7	617418	-343.052	1.51081	-640.406	0.249524	0.480735	1.03299	0.34851	0.655882	3	45.5	0.135634	88607	
-17690.6	709513	-175.897	1.04321	-817.036	0.013104	0.367529	1.03299	0.34851	0.655882	3	45.5	0.0657748	88608	
-12393.7	282167	-126.819	1.60768	-952.25	-0.00520956	0.355425	1.03299	0.34851	0.655882	3	45.5	0.107803	88610	
-38793.7	739382	-345.933	3.04435	-1008.08	0.0775891	0.333299	1.03299	0.34851	0.655882	0.0001	45.5	0.120114	88611	
-38793.7	739382	-345.933	3.04435	-1008.08	0.0775891	0.333299	1.03299	0.34851	0.655882	3	45.5	0.120114	88611	
-22021.6	379107	-225.789	2.95185	-675.202	0.472361	0.281463	1.03299	0.34851	0.655882	0.0001	45.5	0.117987	88612	
-22021.6	379107	-225.789	2.95185	-675.202	0.472361	0.281463	1.03299	0.34851	0.655882	3	45.5	0.117987	88612	
-16675.8	398513	-264.821	3.28469	-753.071	0.55655	0.285004	0.993198	0.349787	0.651995	0.0001	91	0.117987	88612	
-16675.8	398513	-264.821	3.28469	-753.071	0.55655	0.285004	0.993198	0.349787	0.651995	3	91	0.117987	88612	
-7079.02	-21070.3	27.8989	3.57361	-1192.38	-0.0614653	0.179117	1.03299	0.34851	0.655882	0.0001	45.5	0.0587934	88614	
-6006.06	267904	-295.28	1.64431	-874.11	0.0403457	0.499747	0.958125	0.351078	0.648177	0.0001	182	0.234868	88615	
-26702.7	580732	-384.042	2.347	-757.286	0.342441	0.473815	1.03299	0.34851	0.655882	0.0001	45.5	0.153511	88616	
-19556.6	605073	-431.023	2.57483	-829.433	0.390114	0.475779	0.993198	0.349787	0.651995	0.0001	91	0.153511	88616	
-19556.6	605073	-431.023	2.57483	-829.433	0.390114	0.475779	0.993198	0.349787	0.651995	3	91	0.153511	88616	
-23618.1	539899	-52.866	3.15452	-1144.26	0.415816	0.176893	0.993198	0.349787	0.651995	3	91	0.0242779	88617	
-6926.42	138984	-259.046	2.64421	-643.603	0.731798	0.396143	1.03299	0.34851	0.655882	0.0001	45.5	0.233291	88618	
-6926.42	138984	-259.046	2.64421	-643.603	0.731798	0.396143	1.03299	0.34851	0.655882	3	45.5	0.233291	88618	
-4607.7	154695	-297.712	2.97952	-751.712	0.866693	0.39989	0.993198	0.349787	0.651995	0.0001	91	0.233291	88618	
-4607.7	154695	-297.712	2.97952	-751.712	0.866693	0.39989	0.993198	0.349787	0.651995	3	91	0.233291	88618	
-1474.76	176585	-347.299	3.40291	-903.331	1.05597	0.420659	0.958125	0.351078	0.648177	0.0001	182	0.233291	88618	
-1474.76	176585	-347.299	3.40291	-903.331	1.05597	0.420659	0.958125	0.351078	0.648177	3	182	0.233291	88618	
-16447.8	332919	-87.1448	2.01755	-818.388	0.379242	0.293243	1.03299	0.34851	0.655882	3	45.5	0.0631005	88619	
-13617.4	332468	-31.5348	1.24511	-747.843	0.0847219	0.319349	1.03299	0.34851	0.655882	3	45.5	0.0294069	88620	
-11268.6	203831	-214.36	2.65267	-882.432	0.711505	0.350219	1.03299	0.34851	0.655882	3	45.5	0.172362	88621	
-13488.9	923610	-302.347	0.43357	-675.042	0.447282	0.426443	1.03299	0.34851	0.655882	3	45.5	0.0782092	88623	
-3090.33	68574.8	-206.716	3.12053	-612.358	-0.0464785	0.275778	1.03299	0.34851	0.655882	0.0001	45.5	0.191922	88624	
-3090.33	68574.8	-206.716	3.12053	-612.358	-0.0464785	0.275778	1.03299	0.34851	0.655882	3	45.5	0.191922	88624	
157.156	84506.8	-285.328	3.69108	-656.511	0.0549646	0.305959	0.958125	0.351078	0.648177	0.0001	182	0.191922	88624	
157.156	84506.8	-285.328	3.69108	-656.511	0.0549646	0.305959	0.958125	0.351078	0.648177	3	182	0.191922	88624	
-10798.2	154904	-74.2667	3.87973	-785.578	0.0128885	0.158914	0.993198	0.349787	0.651995	3	91	0.0568923	88625	
-15597	254217	-133.481	3.12276	-1024.84	0.0330377	0.236357	1.03299	0.34851	0.655882	0.0001	45.5	0.107202	88626	
-15597	254217	-133.481	3.12276	-1024.84	0.0330377	0.236357	1.03299	0.34851	0.655882	3	45.5	0.107202	88626	
-29205.3	547228	-170.927	2.93973	-987.459	0.0304659	0.23804	1.03299	0.34851	0.655882	0.0001	45.5	0.0810789	88629	
-29205.3	547228	-170.927	2.93973	-987.459	0.0304659	0.23804	1.03299	0.34851	0.655882	3	45.5	0.0810789	88629	
-22029.8	565476	-212.617	3.18579	-1010.89	0.0720158	0.237272	0.993198	0.349787	0.651995	3	91	0.0810789	88629	
-12176.9	180371	-5.36037	1.81393	-832.153	0.149684	0.291461	1.03299	0.34851	0.655882	3	45.5	0.0256002	88631	
-11882.4	765938	-373.506	0.625247	-1046.08	0.335032	0.505747	1.03299	0.34851	0.655882	3	45.5	0.120256	88635	
-13591.6	570902	-294.904	0.791961	-672.775	0.00728416	0.480378	1.03299	0.34851	0.655882	3	45.5	0.133729	88636	
-14129.1	266941	-338.063	3.52505	-763.653	0.0470886	0.375293	1.03299	0.34851	0.655882	0.0001	45.5	0.213704	88637	
-14129.1	266941	-338.063	3.52505	-763.653	0.0470886	0.375293	1.03299	0.34851	0.655882	3	45.5	0.213704	88637	
-8827.37	280486	-397.682	3.88393	-808.975	0.10817	0.403858	0.993198	0.349787	0.651995	0.0001	91	0.213704	88637	
-8827.37	280486	-397.682	3.88393	-808.975	0.10817	0.403858	0.993198	0.349787	0.651995	3	91	0.213704	88637	
-2136.52	297992	-470.824	4.32123	-875.058	0.185245	0.455204	0.958125	0.351078	0.648177	0.0001	182	0.213704	88637	
-2136.52	297992	-470.824	4.32123	-875.058	0.185245	0.455204	0.958125	0.351078	0.648177	3	182	0.213704	88637	
-29118.4	878558	-51.5801	1.54154	-1179.17	0.0461789	0.306267	1.03299	0.34851	0.655882	3	45.5	0.0211705	88638	
-9340.56	330142	-286.25	0.321169	-641.208	0.371395	0.577834	1.03299	0.34851	0.655882	3	45.5	0.221651	88640	
-16645.8	794203	-435.265	0.968907	-997.009	-0.00353334	0.568473	1.03299	0.34851	0.655882	3	45.5	0.144468	88641	
-15806.8	429567	-418.761	1.41069	-627.333	0.00347958	0.684989	1.03299	0.34851	0.655882	3	45.5	0.240767	88642	
-11859.6	439834	-453.655	1.50066	-644.858	0.0127888	0.690317	0.993198	0.349787	0.651995	3	91	0.240767	88642	
-13973.7	511488	-439.489	1.10329	-905.831	0.0112365	0.693513	1.03299	0.34851	0.655882	3	45.5	0.222802	88643	
-32926.6	589857	-310.371	2.94894	-819.414	0.705797	0.304847	1.03299	0.34851	0.655882	0.0001	45.5	0.113739	88647	
-32926.6	589857	-310.371	2.94894	-819.414	0.705797	0.304847	1.03299	0.34851	0.655882	3	45.5	0.113739	88647	
-6763.94	17774.8	-59.2215	3.16088	-868.008	-0.047185	0.223162	1.03299	0.34851	0.655882	3	45.5	0.0706527	88648	
-11187.4	177418	-92.407	1.82744	-764.927	0.622993	0.322441	1.03299	0.34851	0.655882	3	45.5	0.0992525	88649	
-11338.6	217023	-158.613	1.66481	-604.266	0.138832	0.383753	1.03299	0.34851	0.655882	3	45.5	0.151632	88650	
-12844.4	451260	-256.472	0.788002	-554.467	0.77982	0.451584	1.03299	0.34851	0.655882	3	45.5	0.126426	88651	
-27750.8	804646	-186.563	1.6368	-931.745	0.562494	0.33753	1.03299	0.34851	0.655882	3	45.5	0.0572869	88652	
-26912	449657	-424.749	3.38299	-651.498	0.266296	0.428305	1.03299	0.34851	0.655882	0.0001	45.5	0.190941	88653	
-26912	449657	-424.749	3.38299	-651.498	0.266296	0.428305	1.03299	0.34851	0.655882	3	45.5	0.190941	88653	
-18581.9	467420	-488.258	3.76819	-727.007	0.336547	0.456939	0.993198	0.349787	0.651995	0.0001	91	0.190941	88653	
-18581.9	467420	-488.258	3.76819	-727.007	0.336547	0.456939	0.993198	0.349787	0.651995	3	91	0.190941	88653	
-8128.27	491537	-567.522	4.24352	-829.282	0.429783	0.50907	0.958125	0.351078	0.648177	0.0001	182	0.190941	88653	
-8128.27	491537	-567.522	4.24352	-829.282	0.429783	0.50907	0.958125	0.351078	0.648177	3	182	0.190941	88653	
-12380.8	657473	-464.244	0.649859	-938.848	0.00010306	0.660504	1.03299	0.34851	0.655882	3	45.5	0.186256	88654	
-28447	641237	-359.448	2.45946	-908.267	0.0305836	0.437276	1.03299	0.34851	0.655882	3	45.5	0.14119	88655	
-20584.6	659231	-408.606	2.65496	-940.63	0.0595858	0.438285	0.993198	0.349787	0.651995	0.0001	91	0.14119	88655	
-20584.6	659231	-408.606	2.65496	-940.63	0.0595858	0.438285	0.993198	0.349787	0.651995	3	91	0.14119	88655	
-7696.66	136639	-187.839	3.74472	-680.053	0.461152	0.220546	0.993198	0.349787	0.651995	0.0001	91	0.124745	88657	
-7696.66	136639	-187.839	3.74472	-680.053	0.461152	0.220546	0.993198	0.349787	0.651995	3	91	0.124745	88657	
-4958.22	149903	-232.13	4.21757	-760.39	0.572378	0.254756	0.958125	0.351078	0.648177	0.0001	182	0.124745	88657	
-4958.22	149903	-232.13	4.21757	-760.39	0.572378	0.254756	0.958125	0.351078	0.648177	3	182	0.124745	88657	
-12685.5	333633	-331.882	2.19789	-1147.91	-0.0223636	0.557344	1.03299	0.34851	0.655882	3	45.5	0.22991	88658	
-3169.35	386151	-436.43	2.54486	-1196.1	0.0268884	0.579396	0.958125	0.351078	0.648177	3	182	0.22991	88658	
-11535.1	822510	-320.618	0.52264	-1016.8	0.590861	0.447185	1.03299	0.34851	0.655882	3	45.5	0.0910309	88661	
-14144.8	421618	-380.297	1.11231	-643.523	0.620574	0.610209	1.03299	0.34851	0.655882	3	45.5	0.20491	88662	
-25572.2	528783	-57.5229	2.31502	-928.576	0.0181602	0.257236	1.03299	0.34851	0.655882	0.0001	45.5	0.0357506	88665	
-25572.2	528783	-57.5229	2.31502	-928.576	0.0181602	0.257236	1.03299	0.34851	0.655882	3	45.5	0.0357506	88665	
-9451.4	126022	-112.295	2.50591	-1052.52	-0.0219874	0.310323	1.03299	0.34851	0.655882	0.0001	45.5	0.144349	88666	
-9451.4	126022	-112.295	2.50591	-1052.52	-0.0219874	0.310323	1.03299	0.34851	0.655882	3	45.5	0.144349	88666	
-15486.5	234942	2.86304	2.46996	-939.219	-0.0150732	0.241325	1.03299	0.34851	0.655882	3	45.5	0.0218837	88667	
-10668.3	712006	-423.48	0.503638	-988.028	-0.000416773	0.586473	1.03299	0.34851	0.655882	3	45.5	0.156166	88672	
-21999	341943	-196.14	3.48732	-619.897	-0.0582354	0.203171	1.03299	0.34851	0.655882	0.0001	45.5	0.112603	88673	
-21999	341943	-196.14	3.48732	-619.897	-0.0582354	0.203171	1.03299	0.34851	0.655882	3	45.5	0.112603	88673	
-16535.5	347904	-234.95	3.79891	-637.581	0.000105152	0.217809	0.993198	0.349787	0.651995	0.0001	91	0.112603	88673	
-16535.5	347904	-234.95	3.79891	-637.581	0.000105152	0.217809	0.993198	0.349787	0.651995	3	91	0.112603	88673	
-25297.5	925664	-462.442	1.15218	-733.813	0.313343	0.54617	1.03299	0.34851	0.655882	3	45.5	0.123772	88674	
-22219.4	638514	-324.055	1.68174	-901.762	0.645228	0.440474	1.03299	0.34851	0.655882	3	45.5	0.117035	88675	
-8924.6	161784	-200.299	3.1043	-1147.54	-0.0451508	0.331128	1.03299	0.34851	0.655882	0.0001	45.5	0.195258	88676	
-8924.6	161784	-200.299	3.1043	-1147.54	-0.0451508	0.331128	1.03299	0.34851	0.655882	3	45.5	0.195258	88676	
-6215.27	185422	-251.866	3.37016	-1162.64	0.000891427	0.34164	0.993198	0.349787	0.651995	0.0001	91	0.195258	88676	
-6215.27	185422	-251.866	3.37016	-1162.64	0.000891427	0.34164	0.993198	0.349787	0.651995	3	91	0.195258	88676	
-2566.03	211149	-312.771	3.68195	-1193.89	0.0555204	0.3684	0.958125	0.351078	0.648177	0.0001	182	0.195258	88676	
-2566.03	211149	-312.771	3.68195	-1193.89	0.0555204	0.3684	0.958125	0.351078	0.648177	3	182	0.195258	88676	
-15067.8	360651	-337.384	2.33908	-976.446	0.0671114	0.521795	1.03299	0.34851	0.655882	3	45.5	0.211019	88677	
-10367.2	381297	-385.413	2.53008	-1012.19	0.0941288	0.527605	0.993198	0.349787	0.651995	0.0001	91	0.211019	88677	
-4552	405009	-440.826	2.74645	-1058.82	0.126562	0.544683	0.958125	0.351078	0.648177	3	182	0.211019	88677	
-11240.4	213827	-188.744	2.14837	-799.411	-0.0020544	0.388439	1.03299	0.34851	0.655882	3	45.5	0.175944	88678	
-18771.5	364355	-93.2195	2.17086	-630.663	0.495514	0.277181	1.03299	0.34851	0.655882	3	45.5	0.0581118	88680	
-29942.8	834190	-102.131	1.58553	-796.385	0.731274	0.304457	1.03299	0.34851	0.655882	3	45.5	0.0309378	88681	
-15996.8	436196	-373.632	2.12174	-1110.83	0.0353309	0.569248	1.03299	0.34851	0.655882	3	45.5	0.206786	88682	
-10706.1	461804	-423.856	2.28443	-1142.11	0.0569565	0.574773	0.993198	0.349787	0.651995	3	91	0.206786	88682	
-4189	490518	-481.008	2.46615	-1183.12	0.0824646	0.590292	0.958125	0.351078	0.648177	3	182	0.206786	88682	
-25579.3	432422	-267.258	3.40473	-938.92	0.479075	0.252806	1.03299	0.34851	0.655882	0.0001	45.5	0.127303	88683	
-25579.3	432422	-267.258	3.40473	-938.92	0.479075	0.252806	1.03299	0.34851	0.655882	3	45.5	0.127303	88683	
-18283.1	462253	-324.621	3.82225	-1049.71	0.580268	0.269464	0.993198	0.349787	0.651995	0.0001	91	0.127303	88683	
-18283.1	462253	-324.621	3.82225	-1049.71	0.580268	0.269464	0.993198	0.349787	0.651995	3	91	0.127303	88683	
-14572.4	158175	14.9614	3.24873	-885.078	0.788322	0.152065	1.03299	0.34851	0.655882	3	45.5	0.0216416	88684	
-6533.12	104566	-195.368	3.33014	-694.455	0.0201374	0.257971	1.03299	0.34851	0.655882	0.0001	45.5	0.174849	88686	
-6533.12	104566	-195.368	3.33014	-694.455	0.0201374	0.257971	1.03299	0.34851	0.655882	3	45.5	0.174849	88686	
-4596.72	114055	-235.374	3.63722	-719.322	0.073688	0.270892	0.993198	0.349787	0.651995	0.0001	91	0.174849	88686	
-4596.72	114055	-235.374	3.63722	-719.322	0.073688	0.270892	0.993198	0.349787	0.651995	3	91	0.174849	88686	
-2085.72	125216	-283.468	4.00342	-757.649	0.139416	0.302615	0.958125	0.351078	0.648177	0.0001	182	0.174849	88686	
-2085.72	125216	-283.468	4.00342	-757.649	0.139416	0.302615	0.958125	0.351078	0.648177	3	182	0.174849	88686	
-9213.62	504816	-464.652	0.00956506	-735.498	0.0733621	0.769391	1.03299	0.34851	0.655882	3	45.5	0.248641	88687	
-15282.9	560020	-371.886	1.47575	-1176.86	0.0191774	0.555648	1.03299	0.34851	0.655882	3	45.5	0.170502	88690	
-14528.4	695415	-422.593	0.91883	-996.398	-0.00334105	0.586217	1.03299	0.34851	0.655882	3	45.5	0.159589	88692	
-13634.4	551407	-395.237	0.785292	-713.683	0.103099	0.604474	1.03299	0.34851	0.655882	3	45.5	0.183653	88693	
-28615.3	894578	-358.642	1.71212	-1023.5	0.0893505	0.4427	1.03299	0.34851	0.655882	3	45.5	0.105887	88695	
-11904	155085	-87.8688	3.2217	-1098.49	0.236771	0.210747	1.03299	0.34851	0.655882	0.0001	45.5	0.0980025	88697	
-11904	155085	-87.8688	3.2217	-1098.49	0.236771	0.210747	1.03299	0.34851	0.655882	3	45.5	0.0980025	88697	
-9573.04	179247	-130.261	3.54896	-1155.56	0.298229	0.217655	0.993198	0.349787	0.651995	0.0001	91	0.0980025	88697	
-9573.04	179247	-130.261	3.54896	-1155.56	0.298229	0.217655	0.993198	0.349787	0.651995	3	91	0.0980025	88697	
-12734.9	832678	-264.148	0.518066	-836.557	0.294797	0.41498	1.03299	0.34851	0.655882	3	45.5	0.078451	88698	
-7803.74	890763	-292.989	0.575968	-931.324	0.32798	0.360663	0.958125	0.351078	0.648177	3	182	0.078451	88698	
-11982.2	222638	-287.023	2.51903	-549.162	0.641018	0.426426	1.03299	0.34851	0.655882	0.0001	45.5	0.206794	88699	
-11982.2	222638	-287.023	2.51903	-549.162	0.641018	0.426426	1.03299	0.34851	0.655882	3	45.5	0.206794	88699	
-8776.12	238306	-323.952	2.81818	-635.228	0.748014	0.429109	0.993198	0.349787	0.651995	0.0001	91	0.206794	88699	
-8776.12	238306	-323.952	2.81818	-635.228	0.748014	0.429109	0.993198	0.349787	0.651995	3	91	0.206794	88699	
-4644.09	259134	-369.838	3.18706	-751.876	0.893112	0.446937	0.958125	0.351078	0.648177	0.0001	182	0.206794	88699	
-4644.09	259134	-369.838	3.18706	-751.876	0.893112	0.446937	0.958125	0.351078	0.648177	3	182	0.206794	88699	
-11820.5	134139	-40.8222	2.97317	-983.228	0.265902	0.21448	1.03299	0.34851	0.655882	0.0001	45.5	0.0656106	88700	
-11820.5	134139	-40.8222	2.97317	-983.228	0.265902	0.21448	1.03299	0.34851	0.655882	3	45.5	0.0656106	88700	
-10082.7	153649	-72.7887	3.26454	-1034.54	0.322125	0.213815	0.993198	0.349787	0.651995	0.0001	91	0.0656106	88700	
-18026.1	320426	-73.8246	2.54769	-841.616	-0.0304991	0.249812	1.03299	0.34851	0.655882	3	45.5	0.0598046	88703	
-22514.3	390721	-179.277	2.79176	-688.7	0.657011	0.258304	1.03299	0.34851	0.655882	0.0001	45.5	0.0923381	88704	
-22514.3	390721	-179.277	2.79176	-688.7	0.657011	0.258304	1.03299	0.34851	0.655882	3	45.5	0.0923381	88704	
-17449.5	415000	-213.328	3.12874	-787.023	0.77601	0.25596	0.993198	0.349787	0.651995	0.0001	91	0.0923381	88704	
-17449.5	415000	-213.328	3.12874	-787.023	0.77601	0.25596	0.993198	0.349787	0.651995	3	91	0.0923381	88704	
-28632.5	587838	-251.581	2.45503	-655.174	0.239656	0.328848	1.03299	0.34851	0.655882	3	45.5	0.101819	88706	
-21969.4	604140	-285.946	2.67256	-701	0.279068	0.321485	0.993198	0.349787	0.651995	0.0001	91	0.101819	88706	
-21969.4	604140	-285.946	2.67256	-701	0.279068	0.321485	0.993198	0.349787	0.651995	3	91	0.101819	88706	
-25941	564650	-279.509	2.32501	-798.774	0.462188	0.369076	1.03299	0.34851	0.655882	0.0001	45.5	0.11381	88707	
-25941	564650	-279.509	2.32501	-798.774	0.462188	0.369076	1.03299	0.34851	0.655882	3	45.5	0.11381	88707	
-19592.1	592652	-318.454	2.55971	-883.47	0.526828	0.361932	0.993198	0.349787	0.651995	3	91	0.11381	88707	
-13033.7	856256	-326.836	0.60136	-957.946	0.0994927	0.457471	1.03299	0.34851	0.655882	3	45.5	0.0981514	88708	
-20896	345321	-303.933	3.49389	-814.115	0.696574	0.278567	1.03299	0.34851	0.655882	0.0001	45.5	0.153842	88711	
-20896	345321	-303.933	3.49389	-814.115	0.696574	0.278567	1.03299	0.34851	0.655882	3	45.5	0.153842	88711	
-14496.2	374300	-362.988	3.98431	-954.107	0.851608	0.301031	0.993198	0.349787	0.651995	0.0001	91	0.153842	88711	
-14496.2	374300	-362.988	3.98431	-954.107	0.851608	0.301031	0.993198	0.349787	0.651995	3	91	0.153842	88711	
-5913.68	415633	-442.66	4.62993	-1158.82	1.07799	0.352283	0.958125	0.351078	0.648177	0.0001	182	0.153842	88711	
-5913.68	415633	-442.66	4.62993	-1158.82	1.07799	0.352283	0.958125	0.351078	0.648177	3	182	0.153842	88711	
-10093.8	284549	-230.956	1.05073	-896.769	0.042912	0.500755	1.03299	0.34851	0.655882	3	45.5	0.202143	88714	
-18027.4	508421	-450.251	1.60064	-804.344	0.252334	0.664387	1.03299	0.34851	0.655882	3	45.5	0.21393	88715	
-12828.3	531221	-492.82	1.73124	-859.655	0.275493	0.670418	0.993198	0.349787	0.651995	0.0001	91	0.21393	88715	
-12828.3	531221	-492.82	1.73124	-859.655	0.275493	0.670418	0.993198	0.349787	0.651995	3	91	0.21393	88715	
-6510.28	557834	-540.686	1.87653	-924.882	0.302954	0.684808	0.958125	0.351078	0.648177	3	182	0.21393	88715	
-20638.3	404937	-312.319	3.02477	-1021.83	0.368267	0.37884	1.03299	0.34851	0.655882	0.0001	45.5	0.162676	88716	
-20638.3	404937	-312.319	3.02477	-1021.83	0.368267	0.37884	1.03299	0.34851	0.655882	3	45.5	0.162676	88716	
-14237.8	434921	-370.791	3.35963	-1118.36	0.438478	0.391622	0.993198	0.349787	0.651995	0.0001	91	0.162676	88716	
-14237.8	434921	-370.791	3.35963	-1118.36	0.438478	0.391622	0.993198	0.349787	0.651995	3	91	0.162676	88716	
-33196.2	859546	-280.046	2.16226	-1095.67	-0.0212718	0.357664	1.03299	0.34851	0.655882	3	45.5	0.0894401	88717	
-24653.3	880876	-321.584	2.30904	-1111.54	0.000677945	0.345296	0.993198	0.349787	0.651995	3	91	0.0894401	88717	
-14792.7	880305	-382.404	0.693956	-926.374	-0.000503538	0.500039	1.03299	0.34851	0.655882	3	45.5	0.114161	88718	
-24876.6	584386	-56.4706	1.91989	-919.082	0.360665	0.280451	1.03299	0.34851	0.655882	3	45.5	0.0300238	88719	
-26954.2	897693	-254.137	1.55406	-1039.44	0.00553645	0.384485	1.03299	0.34851	0.655882	3	45.5	0.0765853	88720	
-20680.2	944763	-282.958	0.998552	-980.27	0.578404	0.402975	1.03299	0.34851	0.655882	3	45.5	0.0714507	88721	
-13624.5	331975	-218.727	1.55563	-617.507	-0.00239847	0.427939	1.03299	0.34851	0.655882	3	45.5	0.154551	88724	
-9489.26	76084.2	-35.8193	2.66889	-1027.47	-0.0279521	0.256044	1.03299	0.34851	0.655882	0.0001	45.5	0.0785155	88725	
-9489.26	76084.2	-35.8193	2.66889	-1027.47	-0.0279521	0.256044	1.03299	0.34851	0.655882	3	45.5	0.0785155	88725	
-23341.7	679471	-266.485	1.6015	-843.629	0.668855	0.39062	1.03299	0.34851	0.655882	3	45.5	0.090853	88726	
-14591.4	225575	-58.4803	2.56889	-1002.22	0.435478	0.247307	1.03299	0.34851	0.655882	3	45.5	0.0633486	88728	
-27105.6	587616	-415.632	2.3916	-734.967	-0.027194	0.533258	1.03299	0.34851	0.655882	3	45.5	0.173795	88729	
-19689.7	599380	-465.14	2.5772	-762.107	-8.66384e-05	0.541292	0.993198	0.349787	0.651995	0.0001	91	0.173795	88729	
-22866.8	677278	-184.988	1.73604	-1126.08	0.0614436	0.345733	1.03299	0.34851	0.655882	3	45.5	0.0736992	88730	
-10831.5	139380	-62.198	2.18257	-826.59	0.136737	0.291077	1.03299	0.34851	0.655882	3	45.5	0.0849033	88731	
-5254.24	188731	-147.925	2.81108	-934.469	0.245182	0.272883	0.9175	0.352806	0.64323	3	455	0.0849033	88731	
-14769.4	301885	-82.6546	1.98076	-986.331	-0.0130836	0.30295	1.03299	0.34851	0.655882	3	45.5	0.0709661	88732	
-16082	704358	-455.023	1.01117	-961.493	-0.00456632	0.621074	1.03299	0.34851	0.655882	3	45.5	0.169848	88736	
-8695.43	310640	-332.186	2.34188	-1033.86	0.201601	0.501411	0.993198	0.349787	0.651995	3	91	0.217641	88737	
-4311.05	336125	-380.628	2.54598	-1093.38	0.235303	0.511603	0.958125	0.351078	0.648177	0.0001	182	0.217641	88737	
-4311.05	336125	-380.628	2.54598	-1093.38	0.235303	0.511603	0.958125	0.351078	0.648177	3	182	0.217641	88737	
-26993.4	701073	-338.098	1.87782	-746.244	0.194351	0.44624	1.03299	0.34851	0.655882	3	45.5	0.119837	88738	
-35414.6	776884	-367.776	2.66254	-1082.88	0.0449025	0.396028	1.03299	0.34851	0.655882	0.0001	45.5	0.12421	88739	
-35414.6	776884	-367.776	2.66254	-1082.88	0.0449025	0.396028	1.03299	0.34851	0.655882	3	45.5	0.12421	88739	
-25298.9	802029	-425.005	2.88458	-1122.52	0.0792439	0.398876	0.993198	0.349787	0.651995	0.0001	91	0.12421	88739	
-25298.9	802029	-425.005	2.88458	-1122.52	0.0792439	0.398876	0.993198	0.349787	0.651995	3	91	0.12421	88739	
-32774.9	613082	-93.9625	2.61694	-758.17	0.457684	0.218508	1.03299	0.34851	0.655882	0.0001	45.5	0.0408173	88740	
-25814.7	639093	-120.72	2.88495	-827.506	0.529152	0.208349	0.993198	0.349787	0.651995	3	91	0.0408173	88740	
-24488.7	558124	-381.698	2.1976	-685.029	0.0151797	0.506114	1.03299	0.34851	0.655882	3	45.5	0.166912	88741	
-18091.9	569457	-424.289	2.36279	-712.119	0.0381001	0.507124	0.993198	0.349787	0.651995	0.0001	91	0.166912	88741	
-18091.9	569457	-424.289	2.36279	-712.119	0.0381001	0.507124	0.993198	0.349787	0.651995	3	91	0.166912	88741	
-13116.3	470402	-316.922	1.20084	-966.211	0.0312139	0.527384	1.03299	0.34851	0.655882	3	45.5	0.171421	88743	
-32830.9	905994	-183.08	1.85977	-944.658	0.0151425	0.318029	1.03299	0.34851	0.655882	3	45.5	0.0566479	88744	
-22973.5	451243	-8.78687	2.29704	-1117.75	0.0966588	0.2482	1.03299	0.34851	0.655882	3	45.5	0.0204776	88745	
-5845.35	42769.4	-120.677	3.27548	-600.206	0.345311	0.203877	1.03299	0.34851	0.655882	0.0001	45.5	0.0927314	88746	
-5845.35	42769.4	-120.677	3.27548	-600.206	0.345311	0.203877	1.03299	0.34851	0.655882	3	45.5	0.0927314	88746	
-5106.49	50535.8	-150.924	3.63391	-650.162	0.420627	0.212492	0.993198	0.349787	0.651995	0.0001	91	0.0927314	88746	
-5106.49	50535.8	-150.924	3.63391	-650.162	0.420627	0.212492	0.993198	0.349787	0.651995	3	91	0.0927314	88746	
-4021.15	60274.7	-189.117	4.0727	-717.88	0.520344	0.24176	0.958125	0.351078	0.648177	0.0001	182	0.0927314	88746	
-4021.15	60274.7	-189.117	4.0727	-717.88	0.520344	0.24176	0.958125	0.351078	0.648177	3	182	0.0927314	88746	
-1758.45	78186.3	-258.525	4.84505	-851.907	0.713001	0.320874	0.9175	0.352806	0.64323	0.0001	455	0.0927314	88746	
-1758.45	78186.3	-258.525	4.84505	-851.907	0.713001	0.320874	0.9175	0.352806	0.64323	3	455	0.0927314	88746	
-7901.16	45524.7	-68.3283	1.8671	-697.756	-0.00619279	0.324394	1.03299	0.34851	0.655882	0.0001	45.5	0.143208	88747	
-7901.16	45524.7	-68.3283	1.8671	-697.756	-0.00619279	0.324394	1.03299	0.34851	0.655882	3	45.5	0.143208	88747	
-12365.2	562575	-277.924	0.536238	-543.321	0.619154	0.455112	1.03299	0.34851	0.655882	3	45.5	0.114448	88748	
-19993.6	498564	-178.595	1.74642	-646.278	0.414363	0.344458	1.03299	0.34851	0.655882	3	45.5	0.0839061	88750	
-25067.2	587791	-250.968	2.00806	-625.191	0.330737	0.368787	1.03299	0.34851	0.655882	3	45.5	0.101066	88751	
-9729.34	133006	-159.735	3.21697	-618.502	-0.0175767	0.243613	1.03299	0.34851	0.655882	0.0001	45.5	0.14078	88752	
-9729.34	133006	-159.735	3.21697	-618.502	-0.0175767	0.243613	1.03299	0.34851	0.655882	3	45.5	0.14078	88752	
-7660.72	139962	-192.786	3.497	-634.697	0.0318521	0.25171	0.993198	0.349787	0.651995	0.0001	91	0.14078	88752	
-7660.72	139962	-192.786	3.497	-634.697	0.0318521	0.25171	0.993198	0.349787	0.651995	3	91	0.14078	88752	
-5101.12	148153	-232.015	3.82717	-661.339	0.0912267	0.276913	0.958125	0.351078	0.648177	0.0001	182	0.14078	88752	
-5101.12	148153	-232.015	3.82717	-661.339	0.0912267	0.276913	0.958125	0.351078	0.648177	3	182	0.14078	88752	
-707.67	161976	-297.416	4.37535	-719.006	0.192594	0.340932	0.9175	0.352806	0.64323	0.0001	455	0.14078	88752	
-707.67	161976	-297.416	4.37535	-719.006	0.192594	0.340932	0.9175	0.352806	0.64323	3	455	0.14078	88752	
-38550.8	761510	-282.183	2.65647	-689.153	0.102708	0.30933	1.03299	0.34851	0.655882	0.0001	45.5	0.0945812	88753	
-38550.8	761510	-282.183	2.65647	-689.153	0.102708	0.30933	1.03299	0.34851	0.655882	3	45.5	0.0945812	88753	
-29307.7	775073	-321.767	2.87979	-724.549	0.138599	0.305519	0.993198	0.349787	0.651995	3	91	0.0945812	88753	
-35470.1	883413	-242.397	2.04442	-1044.38	0.712034	0.321053	1.03299	0.34851	0.655882	0.0001	45.5	0.0666142	88754	
-35470.1	883413	-242.397	2.04442	-1044.38	0.712034	0.321053	1.03299	0.34851	0.655882	3	45.5	0.0666142	88754	
-27069.9	942131	-280.145	2.26879	-1194.49	0.8253	0.304397	0.993198	0.349787	0.651995	3	91	0.0666142	88754	
-16957.7	559934	-407.352	2.6892	-995.911	0.19771	0.465039	0.993198	0.349787	0.651995	3	91	0.158529	88757	
-22271.3	652555	-318.507	1.84995	-1034.18	-0.0154747	0.446681	1.03299	0.34851	0.655882	3	45.5	0.127176	88758	
-36124.6	949498	-33.5516	1.7571	-806.944	0.221703	0.27935	1.03299	0.34851	0.655882	3	45.5	0.0132944	88759	
-13765.1	375855	-371.479	1.71226	-871.162	0.00301903	0.628386	1.03299	0.34851	0.655882	3	45.5	0.23908	88761	
-9849.44	391982	-410.726	1.82896	-890.747	0.0167907	0.632146	0.993198	0.349787	0.651995	3	91	0.23908	88761	
-5128.73	409841	-454.194	1.95606	-915.785	0.0325997	0.643986	0.958125	0.351078	0.648177	0.0001	182	0.23908	88761	
-11666.8	390981	-209.37	0.837432	-634.049	0.0577564	0.436498	1.03299	0.34851	0.655882	3	45.5	0.134887	88762	
-11120.2	216340	-209.902	3.96638	-628.546	0.0594894	0.20452	0.993198	0.349787	0.651995	0.0001	91	0.120852	88765	
-11120.2	216340	-209.902	3.96638	-628.546	0.0594894	0.20452	0.993198	0.349787	0.651995	3	91	0.120852	88765	
-13755.6	733087	-252.005	0.820825	-1093.77	0.111863	0.416811	1.03299	0.34851	0.655882	3	45.5	0.0884836	88766	
-19921.4	447521	-177.333	2.24285	-915.136	-0.0209215	0.326104	1.03299	0.34851	0.655882	3	45.5	0.0988066	88768	
-10173	478127	-244.595	2.56661	-942.721	0.0297674	0.309596	0.958125	0.351078	0.648177	3	182	0.0988066	88768	
-24704.5	610314	-133.836	3.1897	-1140.96	0.0132716	0.193994	0.993198	0.349787	0.651995	3	91	0.0505984	88769	
-10931.5	274985	-240.292	1.69856	-1069.96	0.206682	0.477995	1.03299	0.34851	0.655882	3	45.5	0.198589	88771	
-11796.5	189930	-123.463	2.58699	-1002.79	-0.00967299	0.297369	1.03299	0.34851	0.655882	0.0001	45.5	0.124571	88774	
-11796.5	189930	-123.463	2.58699	-1002.79	-0.00967299	0.297369	1.03299	0.34851	0.655882	3	45.5	0.124571	88774	
-11173	492264	-303.906	0.721382	-851.448	0.0172625	0.517825	1.03299	0.34851	0.655882	3	45.5	0.160178	88775	
-29801.5	967026	-296.317	1.36013	-578.428	0.365685	0.395549	1.03299	0.34851	0.655882	3	45.5	0.0757293	88776	
-9910.73	199259	-297.211	2.99432	-742.09	0.527796	0.39885	1.03299	0.34851	0.655882	0.0001	45.5	0.222012	88777	
-9910.73	199259	-297.211	2.99432	-742.09	0.527796	0.39885	1.03299	0.34851	0.655882	3	45.5	0.222012	88777	
-6341.13	217854	-346.174	3.35681	-840.547	0.624058	0.412724	0.993198	0.349787	0.651995	0.0001	91	0.222012	88777	
-6341.13	217854	-346.174	3.35681	-840.547	0.624058	0.412724	0.993198	0.349787	0.651995	3	91	0.222012	88777	
-1602.56	242765	-408.405	3.80768	-974.164	0.754736	0.446548	0.958125	0.351078	0.648177	0.0001	182	0.222012	88777	
-1602.56	242765	-408.405	3.80768	-974.164	0.754736	0.446548	0.958125	0.351078	0.648177	3	182	0.222012	88777	
-23670.1	554620	-361.584	2.30085	-872.786	0.0625843	0.47857	1.03299	0.34851	0.655882	3	45.5	0.159409	88778	
-17082.7	572484	-408.053	2.48323	-907.582	0.0885797	0.479452	0.993198	0.349787	0.651995	0.0001	91	0.159409	88778	
-17082.7	572484	-408.053	2.48323	-907.582	0.0885797	0.479452	0.993198	0.349787	0.651995	3	91	0.159409	88778	
-14580.7	283248	4.94999	1.54212	-550.071	0.706085	0.29828	1.03299	0.34851	0.655882	3	45.5	0.0054684	88779	
-8444.79	150087	-220.479	3.12906	-866	0.559028	0.306754	1.03299	0.34851	0.655882	0.0001	45.5	0.1884	88781	
-8444.79	150087	-220.479	3.12906	-866	0.559028	0.306754	1.03299	0.34851	0.655882	3	45.5	0.1884	88781	
-5780.93	170681	-267.715	3.51492	-975.933	0.666276	0.317938	0.993198	0.349787	0.651995	0.0001	91	0.1884	88781	
-5780.93	170681	-267.715	3.51492	-975.933	0.666276	0.317938	0.993198	0.349787	0.651995	3	91	0.1884	88781	
-2075.46	198407	-329.121	3.9997	-1127.39	0.813854	0.350498	0.958125	0.351078	0.648177	0.0001	182	0.1884	88781	
-2075.46	198407	-329.121	3.9997	-1127.39	0.813854	0.350498	0.958125	0.351078	0.648177	3	182	0.1884	88781	
-8215.75	128001	-133.167	3.20834	-869.834	0.000470541	0.249598	0.993198	0.349787	0.651995	0.0001	91	0.116264	88783	
-12814.8	304114	-58.8157	1.25308	-974.83	0.758883	0.326611	1.03299	0.34851	0.655882	3	45.5	0.0483913	88785	
-24329.1	505628	-47.1977	2.27419	-1011.81	0.0638355	0.256512	1.03299	0.34851	0.655882	3	45.5	0.0333455	88787	
-12453.8	175527	-46.0618	2.19621	-779.703	0.639316	0.272959	1.03299	0.34851	0.655882	3	45.5	0.0569004	88789	
-12330.3	267630	-43.6084	1.34957	-979.853	-0.00779897	0.322349	1.03299	0.34851	0.655882	3	45.5	0.0477149	88796	
-23572	417611	-152.281	2.68323	-676.003	0.654963	0.249825	1.03299	0.34851	0.655882	0.0001	45.5	0.0767288	88797	
-23572	417611	-152.281	2.68323	-676.003	0.654963	0.249825	1.03299	0.34851	0.655882	3	45.5	0.0767288	88797	
-22232.9	562521	-225.026	1.87529	-820.388	0.518071	0.361124	1.03299	0.34851	0.655882	3	45.5	0.0936691	88802	
-12065.7	809878	-308.306	0.540615	-955.612	0.49386	0.442234	1.03299	0.34851	0.655882	3	45.5	0.0906807	88803	
-21656.7	713907	-233.742	1.37353	-705.929	0.0152677	0.386973	1.03299	0.34851	0.655882	3	45.5	0.0857396	88804	
-7959.31	237432	-119.87	0.177016	-979.446	0.465103	0.399395	1.03299	0.34851	0.655882	0.0001	45.5	0.124874	88805	
-7959.31	237432	-119.87	0.177016	-979.446	0.465103	0.399395	1.03299	0.34851	0.655882	3	45.5	0.124874	88805	
-7848.15	262215	-125.303	0.187305	-1057.76	0.502154	0.367663	0.993198	0.349787	0.651995	0.0001	91	0.124874	88805	
-7848.15	262215	-125.303	0.187305	-1057.76	0.502154	0.367663	0.993198	0.349787	0.651995	3	91	0.124874	88805	
-18872.7	540535	-423.693	1.76443	-905.662	0.0281953	0.61244	1.03299	0.34851	0.655882	3	45.5	0.196944	88806	
-13272.8	559343	-467.793	1.88826	-932.233	0.0430296	0.615429	0.993198	0.349787	0.651995	3	91	0.196944	88806	
-6581.41	580582	-516.81	2.0237	-965.282	0.0602325	0.626669	0.958125	0.351078	0.648177	3	182	0.196944	88806	
-32814.5	663957	-389.323	2.83845	-916.378	-0.00821379	0.423756	1.03299	0.34851	0.655882	0.0001	45.5	0.147707	88807	
-32814.5	663957	-389.323	2.83845	-916.378	-0.00821379	0.423756	1.03299	0.34851	0.655882	3	45.5	0.147707	88807	
-23377.1	681200	-447.333	3.0794	-950.481	0.0302033	0.433716	0.993198	0.349787	0.651995	0.0001	91	0.147707	88807	
-23377.1	681200	-447.333	3.0794	-950.481	0.0302033	0.433716	0.993198	0.349787	0.651995	3	91	0.147707	88807	
-13107.4	903576	-404.751	0.626473	-1062.61	0.222018	0.508859	1.03299	0.34851	0.655882	3	45.5	0.112827	88808	
-25118.7	751411	-325.298	1.76755	-1081.14	0.384831	0.432012	1.03299	0.34851	0.655882	3	45.5	0.106981	88810	
-24994.9	783015	-3.52229	1.26527	-1018.14	0.583534	0.309681	1.03299	0.34851	0.655882	3	45.5	0.00636484	88811	
-15760.7	307412	-163.763	2.5241	-953.393	-0.0156141	0.313252	1.03299	0.34851	0.655882	3	45.5	0.11882	88813	
-17642.4	318918	-0.686931	3.44936	-691.739	0.466738	0.158386	0.993198	0.349787	0.651995	0.0001	91	0.00607779	88814	
-17642.4	318918	-0.686931	3.44936	-691.739	0.466738	0.158386	0.993198	0.349787	0.651995	3	91	0.00607779	88814	
-12614.5	649578	-420.865	0.486607	-692.884	0.175435	0.596765	1.03299	0.34851	0.655882	3	45.5	0.165019	88817	
-12096.6	243409	-221.43	3.87827	-675.439	0.632662	0.213982	0.993198	0.349787	0.651995	0.0001	91	0.117011	88818	
-12096.6	243409	-221.43	3.87827	-675.439	0.632662	0.213982	0.993198	0.349787	0.651995	3	91	0.117011	88818	
-18945.2	449259	-332.884	2.1259	-760.37	-0.0172895	0.490538	1.03299	0.34851	0.655882	3	45.5	0.176844	88819	
-13966.9	461038	-372.149	2.27755	-779.96	0.00398755	0.48851	0.993198	0.349787	0.651995	0.0001	91	0.176844	88819	
-16764.6	395078	-92.9431	1.72474	-863.95	0.360652	0.312004	1.03299	0.34851	0.655882	3	45.5	0.0592446	88820	
-7728.96	-8397.98	-7.81639	2.57133	-879.885	-0.0295791	0.270019	1.03299	0.34851	0.655882	3	45.5	0.0496444	88822	
-8412.01	25845.9	-2.27458	3.05479	-678.314	0.0358153	0.213939	1.03299	0.34851	0.655882	3	45.5	0.0370261	88823	
-30755	562016	-320.261	3.17037	-905.684	0.107123	0.325051	1.03299	0.34851	0.655882	0.0001	45.5	0.134659	88826	
-30755	562016	-320.261	3.17037	-905.684	0.107123	0.325051	1.03299	0.34851	0.655882	3	45.5	0.134659	88826	
-22068	581736	-376.815	3.47469	-955.494	0.158272	0.337636	0.993198	0.349787	0.651995	0.0001	91	0.134659	88826	
-10547.2	188019	-259.141	3.248	-612.609	-0.0492757	0.327871	1.03299	0.34851	0.655882	0.0001	45.5	0.198187	88827	
-10547.2	188019	-259.141	3.248	-612.609	-0.0492757	0.327871	1.03299	0.34851	0.655882	3	45.5	0.198187	88827	
-7246.44	195434	-301.768	3.53522	-635.193	0.00126443	0.342777	0.993198	0.349787	0.651995	0.0001	91	0.198187	88827	
-7246.44	195434	-301.768	3.53522	-635.193	0.00126443	0.342777	0.993198	0.349787	0.651995	3	91	0.198187	88827	
-3196.17	204743	-352.422	3.87545	-670.194	0.0615979	0.375478	0.958125	0.351078	0.648177	0.0001	182	0.198187	88827	
-3196.17	204743	-352.422	3.87545	-670.194	0.0615979	0.375478	0.958125	0.351078	0.648177	3	182	0.198187	88827	
-7448.04	-2542.55	-18.9233	3.58202	-1031.26	0.116623	0.217804	0.993198	0.349787	0.651995	0.0001	91	0.0540865	88829	
-7448.04	-2542.55	-18.9233	3.58202	-1031.26	0.116623	0.217804	0.993198	0.349787	0.651995	3	91	0.0540865	88829	
-12231.6	515422	-451.439	0.930908	-1016.73	0.0135979	0.721633	1.03299	0.34851	0.655882	3	45.5	0.22996	88830	
-5039.97	136977	-277.242	3.61042	-882.332	-0.0195223	0.314541	1.03299	0.34851	0.655882	0.0001	45.5	0.232438	88832	
-5039.97	136977	-277.242	3.61042	-882.332	-0.0195223	0.314541	1.03299	0.34851	0.655882	3	45.5	0.232438	88832	
-1910.28	152598	-335.376	3.96359	-914.371	0.0433675	0.34131	0.993198	0.349787	0.651995	0.0001	91	0.232438	88832	
-1910.28	152598	-335.376	3.96359	-914.371	0.0433675	0.34131	0.993198	0.349787	0.651995	3	91	0.232438	88832	
2255.26	171180	-406.289	4.39345	-967.052	0.120903	0.39075	0.958125	0.351078	0.648177	0.0001	182	0.232438	88832	
2255.26	171180	-406.289	4.39345	-967.052	0.120903	0.39075	0.958125	0.351078	0.648177	3	182	0.232438	88832	
-4477.16	28656.5	-128	2.64868	-608.465	0.625878	0.260354	1.03299	0.34851	0.655882	0.0001	45.5	0.0781219	88833	
-4477.16	28656.5	-128	2.64868	-608.465	0.625878	0.260354	1.03299	0.34851	0.655882	3	45.5	0.0781219	88833	
-4004.13	37313.8	-154.246	2.95446	-688.082	0.732776	0.254031	0.993198	0.349787	0.651995	0.0001	91	0.0781219	88833	
-4004.13	37313.8	-154.246	2.95446	-688.082	0.732776	0.254031	0.993198	0.349787	0.651995	3	91	0.0781219	88833	
-3240.01	49049.1	-187.874	3.33094	-795.97	0.877729	0.26337	0.958125	0.351078	0.648177	0.0001	182	0.0781219	88833	
-3240.01	49049.1	-187.874	3.33094	-795.97	0.877729	0.26337	0.958125	0.351078	0.648177	3	182	0.0781219	88833	
-1484.54	72906.1	-250.499	4.00163	-1013.9	1.17017	0.305664	0.9175	0.352806	0.64323	3	455	0.0781219	88833	
-18551.5	418378	-190.381	3.94996	-1166.46	0.477835	0.166724	0.993198	0.349787	0.651995	0.0001	91	0.0820578	88834	
-18551.5	418378	-190.381	3.94996	-1166.46	0.477835	0.166724	0.993198	0.349787	0.651995	3	91	0.0820578	88834	
-14961.6	508828	-176.255	1.00878	-611.381	0.527615	0.377551	1.03299	0.34851	0.655882	3	45.5	0.0811396	88835	
-23159.5	387213	-27.0662	2.79932	-682.58	-0.0279394	0.203525	1.03299	0.34851	0.655882	3	45.5	0.0263393	88836	
-18650.8	394159	-47.2101	3.01272	-684.349	0.0091243	0.196474	0.993198	0.349787	0.651995	3	91	0.0263393	88836	
-17253	768492	-251.722	1.04049	-1006.03	0.0405964	0.408104	1.03299	0.34851	0.655882	3	45.5	0.0861047	88838	
-23180.4	382458	-80.1909	3.11947	-978.445	-0.0427438	0.188047	1.03299	0.34851	0.655882	0.0001	45.5	0.0585067	88839	
-18010.3	397908	-115.886	3.37454	-983.682	0.00356464	0.189541	0.993198	0.349787	0.651995	0.0001	91	0.0585067	88839	
-18010.3	397908	-115.886	3.37454	-983.682	0.00356464	0.189541	0.993198	0.349787	0.651995	3	91	0.0585067	88839	
-20468.9	383974	-343.579	3.27811	-872.073	-0.0517958	0.402149	1.03299	0.34851	0.655882	0.0001	45.5	0.188268	88840	
-20468.9	383974	-343.579	3.27811	-872.073	-0.0517958	0.402149	1.03299	0.34851	0.655882	3	45.5	0.188268	88840	
-13864.6	398610	-403.279	3.57717	-901.992	-0.000166902	0.423932	0.993198	0.349787	0.651995	0.0001	91	0.188268	88840	
-13864.6	398610	-403.279	3.57717	-901.992	-0.000166902	0.423932	0.993198	0.349787	0.651995	3	91	0.188268	88840	
-5744.4	416975	-474.635	3.93351	-949.673	0.0617877	0.464544	0.958125	0.351078	0.648177	0.0001	182	0.188268	88840	
-5744.4	416975	-474.635	3.93351	-949.673	0.0617877	0.464544	0.958125	0.351078	0.648177	3	182	0.188268	88840	
-9343.65	195055	-100.052	1.73661	-1078.72	0.0585837	0.312809	0.993198	0.349787	0.651995	0.0001	91	0.102183	88842	
-23464.2	545300	-105.404	3.26221	-1061.87	0.22321	0.180485	0.993198	0.349787	0.651995	3	91	0.0427723	88843	
-3564.86	75378.3	-208.567	3.16545	-665.317	0.22703	0.270782	1.03299	0.34851	0.655882	0.0001	45.5	0.189033	88844	
-3564.86	75378.3	-208.567	3.16545	-665.317	0.22703	0.270782	1.03299	0.34851	0.655882	3	45.5	0.189033	88844	
-2008.48	85522	-247.6	3.48697	-713.032	0.285841	0.279687	0.993198	0.349787	0.651995	0.0001	91	0.189033	88844	
-2008.48	85522	-247.6	3.48697	-713.032	0.285841	0.279687	0.993198	0.349787	0.651995	3	91	0.189033	88844	
90.0579	98015.2	-295.461	3.8732	-777.158	0.361599	0.307203	0.958125	0.351078	0.648177	0.0001	182	0.189033	88844	
90.0579	98015.2	-295.461	3.8732	-777.158	0.361599	0.307203	0.958125	0.351078	0.648177	3	182	0.189033	88844	
-26338.3	477734	-224.672	2.84696	-622.675	0.133372	0.283378	1.03299	0.34851	0.655882	0.0001	45.5	0.106268	88845	
-26338.3	477734	-224.672	2.84696	-622.675	0.133372	0.283378	1.03299	0.34851	0.655882	3	45.5	0.106268	88845	
-20112.4	488641	-260.067	3.10097	-657.187	0.175908	0.283122	0.993198	0.349787	0.651995	0.0001	91	0.106268	88845	
-20112.4	488641	-260.067	3.10097	-657.187	0.175908	0.283122	0.993198	0.349787	0.651995	3	91	0.106268	88845	
-21529.6	867539	-421.403	1.23719	-987.326	0.0129678	0.529037	1.03299	0.34851	0.655882	3	45.5	0.128338	88850	
-24658.4	451804	6.36511	2.36579	-796.582	0.417004	0.238262	1.03299	0.34851	0.655882	3	45.5	0.00897172	88851	
-11597.6	760506	-347.681	0.31466	-597.042	0.302513	0.48518	1.03299	0.34851	0.655882	3	45.5	0.112645	88853	
-14052.2	294860	-380.235	2.30387	-642.595	0.689142	0.568297	1.03299	0.34851	0.655882	0.0001	45.5	0.239749	88860	
-14052.2	294860	-380.235	2.30387	-642.595	0.689142	0.568297	1.03299	0.34851	0.655882	3	45.5	0.239749	88860	
-9749.06	317639	-425.559	2.58418	-750.1	0.802748	0.578804	0.993198	0.349787	0.651995	0.0001	91	0.239749	88860	
-9749.06	317639	-425.559	2.58418	-750.1	0.802748	0.578804	0.993198	0.349787	0.651995	3	91	0.239749	88860	
-4159.28	348057	-481.481	2.9308	-896.618	0.957549	0.603611	0.958125	0.351078	0.648177	0.0001	182	0.239749	88860	
-4159.28	348057	-481.481	2.9308	-896.618	0.957549	0.603611	0.958125	0.351078	0.648177	3	182	0.239749	88860	
-8883.46	34895.7	10.4736	2.94455	-743.214	-0.0240471	0.221512	1.03299	0.34851	0.655882	3	45.5	0.0312066	88861	
-13594.5	274258	-59.1448	1.73725	-1104.74	0.454262	0.307362	1.03299	0.34851	0.655882	3	45.5	0.0576357	88862	
-38185	755311	-361.445	2.92123	-1099.98	0.341422	0.350691	1.03299	0.34851	0.655882	0.0001	45.5	0.118749	88863	
-38185	755311	-361.445	2.92123	-1099.98	0.341422	0.350691	1.03299	0.34851	0.655882	3	45.5	0.118749	88863	
-9249.51	165203	-177.414	2.3141	-1105.61	-0.0252808	0.391239	1.03299	0.34851	0.655882	0.0001	45.5	0.200606	88867	
-9249.51	165203	-177.414	2.3141	-1105.61	-0.0252808	0.391239	1.03299	0.34851	0.655882	3	45.5	0.200606	88867	
-13181	280620	-209.911	1.83837	-597.715	-0.0156814	0.411853	1.03299	0.34851	0.655882	3	45.5	0.163729	88869	
-25460.4	444879	-349.88	3.39456	-923.135	0.517373	0.335921	1.03299	0.34851	0.655882	0.0001	45.5	0.158883	88870	
-25460.4	444879	-349.88	3.39456	-923.135	0.517373	0.335921	1.03299	0.34851	0.655882	3	45.5	0.158883	88870	
-17481	476837	-415.387	3.82765	-1047.84	0.625704	0.358278	0.993198	0.349787	0.651995	0.0001	91	0.158883	88870	
-17481	476837	-415.387	3.82765	-1047.84	0.625704	0.358278	0.993198	0.349787	0.651995	3	91	0.158883	88870	
-7034.15	520336	-500.656	4.37834	-1221.76	0.776246	0.405982	0.958125	0.351078	0.648177	0.0001	182	0.158883	88870	
-7034.15	520336	-500.656	4.37834	-1221.76	0.776246	0.405982	0.958125	0.351078	0.648177	3	182	0.158883	88870	
-20819.8	310452	-178.192	3.54649	-603.433	0.107158	0.179261	1.03299	0.34851	0.655882	0.0001	45.5	0.104841	88872	
-20819.8	310452	-178.192	3.54649	-603.433	0.107158	0.179261	1.03299	0.34851	0.655882	3	45.5	0.104841	88872	
-15762.8	318945	-215.677	3.90068	-636.196	0.170947	0.195158	0.993198	0.349787	0.651995	0.0001	91	0.104841	88872	
-15762.8	318945	-215.677	3.90068	-636.196	0.170947	0.195158	0.993198	0.349787	0.651995	3	91	0.104841	88872	
-7585.67	78026.2	-106.718	2.74494	-723.798	0.799814	0.265281	0.993198	0.349787	0.651995	0.0001	91	0.106868	88873	
-9279.87	113600	-99.7284	1.77323	-630.579	0.116208	0.343653	1.03299	0.34851	0.655882	3	45.5	0.144988	88874	
-8468.26	121465	-116.343	1.8928	-648.378	0.133406	0.32281	0.993198	0.349787	0.651995	3	91	0.144988	88874	
-11357.1	406296	-277.868	1.23143	-1159.78	0.0482748	0.503878	1.03299	0.34851	0.655882	3	45.5	0.171827	88875	
-11477.1	126194	-25.3346	2.7722	-1034.12	-0.0103789	0.234628	1.03299	0.34851	0.655882	0.0001	45.5	0.0585451	88876	
-11477.1	126194	-25.3346	2.7722	-1034.12	-0.0103789	0.234628	1.03299	0.34851	0.655882	3	45.5	0.0585451	88876	
-10009.1	144561	-54.4379	2.98736	-1038.33	0.0260108	0.228752	0.993198	0.349787	0.651995	0.0001	91	0.0585451	88876	
-10009.1	144561	-54.4379	2.98736	-1038.33	0.0260108	0.228752	0.993198	0.349787	0.651995	3	91	0.0585451	88876	
-14181.1	954827	-212.912	0.584185	-981.24	0.0528528	0.382638	1.03299	0.34851	0.655882	3	45.5	0.058137	88878	
-22698.1	514921	-83.0883	3.23511	-1028.51	0.333162	0.177873	0.993198	0.349787	0.651995	3	91	0.0356718	88879	
-21609.5	404233	-94.7058	2.57395	-966.062	0.32175	0.247164	1.03299	0.34851	0.655882	0.0001	45.5	0.0605559	88881	
-21609.5	404233	-94.7058	2.57395	-966.062	0.32175	0.247164	1.03299	0.34851	0.655882	3	45.5	0.0605559	88881	
-20607.3	653233	-413.91	1.59489	-1014.77	0.533338	0.54152	1.03299	0.34851	0.655882	3	45.5	0.150054	88883	
-14573.9	696169	-456.208	1.74666	-1129.25	0.595794	0.534836	0.993198	0.349787	0.651995	0.0001	91	0.150054	88883	
-11764.5	119135	2.61028	2.8808	-1124.42	-0.0177695	0.218485	1.03299	0.34851	0.655882	0.0001	45.5	0.0410504	88885	
-11764.5	119135	2.61028	2.8808	-1124.42	-0.0177695	0.218485	1.03299	0.34851	0.655882	3	45.5	0.0410504	88885	
-10314.2	140763	-27.856	3.10841	-1125.65	0.0215691	0.214668	0.993198	0.349787	0.651995	0.0001	91	0.0410504	88885	
-10314.2	140763	-27.856	3.10841	-1125.65	0.0215691	0.214668	0.993198	0.349787	0.651995	3	91	0.0410504	88885	
-7781.68	10212.4	-6.20183	3.19833	-855.242	-0.0487426	0.209059	1.03299	0.34851	0.655882	3	45.5	0.048934	88886	
-12974.6	250180	-80.0388	1.67761	-712.608	0.426278	0.317302	1.03299	0.34851	0.655882	3	45.5	0.0715075	88887	
-19739.7	378673	-76.9483	3.72869	-751.532	0.38158	0.138887	0.993198	0.349787	0.651995	0.0001	91	0.0373274	88890	
-12751.9	477387	-229.298	1.19377	-1168.1	0.0493779	0.429668	1.03299	0.34851	0.655882	3	45.5	0.122232	88891	
-29078	662194	-273.934	2.2052	-657.755	0.0574143	0.365694	1.03299	0.34851	0.655882	3	45.5	0.104288	88892	
-18379.2	340281	-47.182	3.89894	-985.928	0.114058	0.122482	0.993198	0.349787	0.651995	0.0001	91	0.029939	88893	
-18379.2	340281	-47.182	3.89894	-985.928	0.114058	0.122482	0.993198	0.349787	0.651995	3	91	0.029939	88893	
-12275.4	700076	-268.08	0.6075	-898.303	0.503377	0.427893	1.03299	0.34851	0.655882	3	45.5	0.0912354	88894	
-30467.3	581693	-128.344	2.53322	-829.377	0.759613	0.237917	1.03299	0.34851	0.655882	0.0001	45.5	0.0527427	88895	
-30467.3	581693	-128.344	2.53322	-829.377	0.759613	0.237917	1.03299	0.34851	0.655882	3	45.5	0.0527427	88895	
-12854.3	677156	-344.802	0.505133	-647.834	0.673728	0.487662	1.03299	0.34851	0.655882	3	45.5	0.117	88897	
-10309.4	537624	-366.894	0.339976	-684.086	0.456478	0.566605	1.03299	0.34851	0.655882	3	45.5	0.166296	88898	
-3173.6	58368.2	-202.446	4.30267	-1145.54	0.483468	0.252493	0.958125	0.351078	0.648177	0.0001	182	0.0528363	88899	
-3173.6	58368.2	-202.446	4.30267	-1145.54	0.483468	0.252493	0.958125	0.351078	0.648177	3	182	0.0528363	88899	
-381.389	98067.7	-304.385	5.14037	-1335.23	0.68142	0.346798	0.9175	0.352806	0.64323	0.0001	455	0.0528363	88899	
-381.389	98067.7	-304.385	5.14037	-1335.23	0.68142	0.346798	0.9175	0.352806	0.64323	3	455	0.0528363	88899	
-6429.04	80668.3	-143.55	3.09192	-1111.32	0.194038	0.278599	1.03299	0.34851	0.655882	0.0001	45.5	0.176112	88901	
-6429.04	80668.3	-143.55	3.09192	-1111.32	0.194038	0.278599	1.03299	0.34851	0.655882	3	45.5	0.176112	88901	
-5015.42	104595	-189.504	3.39535	-1165.03	0.247816	0.285584	0.993198	0.349787	0.651995	0.0001	91	0.176112	88901	
-5015.42	104595	-189.504	3.39535	-1165.03	0.247816	0.285584	0.993198	0.349787	0.651995	3	91	0.176112	88901	
-2842.58	132214	-245.877	3.75684	-1238.72	0.316324	0.310091	0.958125	0.351078	0.648177	0.0001	182	0.176112	88901	
-2842.58	132214	-245.877	3.75684	-1238.72	0.316324	0.310091	0.958125	0.351078	0.648177	3	182	0.176112	88901	
-14593	395573	-402.885	1.26625	-588.107	0.176892	0.680247	1.03299	0.34851	0.655882	3	45.5	0.244777	88903	
-11205.4	408631	-434.397	1.35584	-620.034	0.189737	0.683183	0.993198	0.349787	0.651995	0.0001	91	0.244777	88903	
-14854	339682	-305.111	2.07153	-716.092	-0.0202398	0.499503	1.03299	0.34851	0.655882	3	45.5	0.202416	88904	
-11098.2	350042	-340.84	2.21718	-733.134	-4.67904e-05	0.497154	0.993198	0.349787	0.651995	0.0001	91	0.202416	88904	
-11098.2	350042	-340.84	2.21718	-733.134	-4.67904e-05	0.497154	0.993198	0.349787	0.651995	3	91	0.202416	88904	
-17815.2	462650	-148.306	1.6401	-749.557	0.267004	0.339905	1.03299	0.34851	0.655882	3	45.5	0.0783088	88907	
-6679.59	67237.3	-124.587	2.54601	-887.205	0.365603	0.306847	1.03299	0.34851	0.655882	3	45.5	0.17491	88908	
-1611.95	137931	-262.327	3.56929	-1194.08	0.619745	0.339294	0.9175	0.352806	0.64323	0.0001	455	0.17491	88908	
-1611.95	137931	-262.327	3.56929	-1194.08	0.619745	0.339294	0.9175	0.352806	0.64323	3	455	0.17491	88908	
-20316.8	377280	-342.292	3.02678	-683.389	-0.0254921	0.422749	1.03299	0.34851	0.655882	0.0001	45.5	0.188952	88911	
-20316.8	377280	-342.292	3.02678	-683.389	-0.0254921	0.422749	1.03299	0.34851	0.655882	3	45.5	0.188952	88911	
-14347.3	387143	-392.628	3.29288	-713.465	0.0182971	0.438219	0.993198	0.349787	0.651995	0.0001	91	0.188952	88911	
-14347.3	387143	-392.628	3.29288	-713.465	0.0182971	0.438219	0.993198	0.349787	0.651995	3	91	0.188952	88911	
-29240	516905	-209.767	2.94025	-652.806	0.227285	0.25172	1.03299	0.34851	0.655882	0.0001	45.5	0.0929007	88912	
-9992.33	210929	-241	2.54459	-1091.92	-0.0304908	0.435365	1.03299	0.34851	0.655882	0.0001	45.5	0.221941	88913	
-30952.7	-328524	-7.91139	0.541752	-1161.56	0.155832	0.335097	0.958125	0.351078	0.648177	3	182	0.100602	88915	
-23453.7	726322	-69.6023	1.43801	-931.261	0.00912827	0.312432	1.03299	0.34851	0.655882	3	45.5	0.0294319	88917	
-5823.27	157511	-239.743	2.70254	-1030.07	0.113685	0.400707	0.993198	0.349787	0.651995	0.0001	91	0.235758	88918	
-3261.78	179014	-285.642	2.93633	-1071.43	0.151297	0.411541	0.958125	0.351078	0.648177	0.0001	182	0.235758	88918	
-3261.78	179014	-285.642	2.93633	-1071.43	0.151297	0.411541	0.958125	0.351078	0.648177	3	182	0.235758	88918	
-11741.9	370864	-346.618	2.14272	-721.765	0.329724	0.491813	0.993198	0.349787	0.651995	3	91	0.191419	88919	
-7106.17	389792	-386.365	2.33655	-784.955	0.371058	0.496786	0.958125	0.351078	0.648177	3	182	0.191419	88919	
-32401.9	730134	-43.89	2.15082	-845.125	-0.0124054	0.255758	1.03299	0.34851	0.655882	0.0001	45.5	0.0221328	88920	
-32401.9	730134	-43.89	2.15082	-845.125	-0.0124054	0.255758	1.03299	0.34851	0.655882	3	45.5	0.0221328	88920	
-29394	780689	-300.141	1.91771	-782.766	-0.00735531	0.397633	1.03299	0.34851	0.655882	3	45.5	0.101405	88922	
-9757.11	179391	-222.662	2.62671	-774.259	-0.0189138	0.386675	1.03299	0.34851	0.655882	3	45.5	0.20858	88924	
-7271.39	190713	-259.652	2.83319	-791.211	0.0137805	0.387692	0.993198	0.349787	0.651995	3	91	0.20858	88924	
-4182.1	203469	-302.337	3.06831	-817.136	0.0521335	0.400973	0.958125	0.351078	0.648177	0.0001	182	0.20858	88924	
-4182.1	203469	-302.337	3.06831	-817.136	0.0521335	0.400973	0.958125	0.351078	0.648177	3	182	0.20858	88924	
-6815.24	-25054.2	-18.1799	3.01575	-770.51	0.418692	0.237953	1.03299	0.34851	0.655882	0.0001	45.5	0.00893765	88925	
-25145.3	539194	-101.298	2.06935	-635.985	0.640687	0.278899	1.03299	0.34851	0.655882	3	45.5	0.0449424	88926	
-18816.8	314272	1.34436	2.49726	-658.555	-0.0293974	0.232889	1.03299	0.34851	0.655882	3	45.5	0.0129094	88928	
-15624.2	320834	-13.9998	2.67371	-657.417	-3.07445e-05	0.219659	0.993198	0.349787	0.651995	0.0001	91	0.0129094	88928	
-15624.2	320834	-13.9998	2.67371	-657.417	-3.07445e-05	0.219659	0.993198	0.349787	0.651995	3	91	0.0129094	88928	
-6143.46	-8012.2	-62.4407	3.22148	-685.383	0.0568025	0.223538	1.03299	0.34851	0.655882	0.0001	45.5	0.0393939	88929	
-6143.46	-8012.2	-62.4407	3.22148	-685.383	0.0568025	0.223538	1.03299	0.34851	0.655882	3	45.5	0.0393939	88929	
-24940.3	479375	-11.5348	3.7623	-1001.76	-0.000176969	0.116663	0.993198	0.349787	0.651995	3	91	0.010969	88931	
-26506.5	673766	-401.42	2.24517	-1072.08	0.100258	0.502365	1.03299	0.34851	0.655882	3	45.5	0.150936	88933	
-18561.4	701160	-454.622	2.42712	-1117.91	0.126212	0.504205	0.993198	0.349787	0.651995	3	91	0.150936	88933	
-8953.81	733063	-515.764	2.63227	-1175.8	0.157437	0.516598	0.958125	0.351078	0.648177	3	182	0.150936	88933	
-15511.6	718125	-120.04	0.70497	-720.178	0.765544	0.349055	1.03299	0.34851	0.655882	3	45.5	0.0385301	88934	
-21524	346763	-273.175	3.33468	-717.93	0.780091	0.261551	1.03299	0.34851	0.655882	0.0001	45.5	0.136681	88937	
-21524	346763	-273.175	3.33468	-717.93	0.780091	0.261551	1.03299	0.34851	0.655882	3	45.5	0.136681	88937	
-15582.2	374244	-323.636	3.80798	-852.539	0.953564	0.277338	0.993198	0.349787	0.651995	0.0001	91	0.136681	88937	
-15582.2	374244	-323.636	3.80798	-852.539	0.953564	0.277338	0.993198	0.349787	0.651995	3	91	0.136681	88937	
-7663.57	413606	-391.932	4.43435	-1052.02	1.21042	0.319939	0.958125	0.351078	0.648177	0.0001	182	0.136681	88937	
-7663.57	413606	-391.932	4.43435	-1052.02	1.21042	0.319939	0.958125	0.351078	0.648177	3	182	0.136681	88937	
-16482.8	619221	-164.32	1.12456	-920.551	-0.00355274	0.365492	1.03299	0.34851	0.655882	3	45.5	0.0705119	88938	
-10709.4	205915	-239.925	2.15782	-665.786	0.404889	0.436145	1.03299	0.34851	0.655882	3	45.5	0.210148	88940	
-23293.5	515871	-174.075	3.70834	-971.237	0.0767674	0.168337	0.993198	0.349787	0.651995	0.0001	91	0.0687178	88943	
-23293.5	515871	-174.075	3.70834	-971.237	0.0767674	0.168337	0.993198	0.349787	0.651995	3	91	0.0687178	88943	
-21284.1	404060	-66.5541	2.55115	-1059.82	-0.0287378	0.244197	1.03299	0.34851	0.655882	0.0001	45.5	0.0509121	88944	
-21284.1	404060	-66.5541	2.55115	-1059.82	-0.0287378	0.244197	1.03299	0.34851	0.655882	3	45.5	0.0509121	88944	
-14421	872606	-218.941	0.542809	-683.393	0.295293	0.387171	1.03299	0.34851	0.655882	3	45.5	0.0621186	88945	
-33088.8	954880	-453.462	1.66665	-724.148	0.00244399	0.515521	1.03299	0.34851	0.655882	3	45.5	0.126394	88948	
-13548.5	234929	-83.0154	3.56301	-693.104	0.301167	0.175137	0.993198	0.349787	0.651995	0.0001	91	0.052409	88949	
-13548.5	234929	-83.0154	3.56301	-693.104	0.301167	0.175137	0.993198	0.349787	0.651995	3	91	0.052409	88949	
-12266.4	307331	-305.602	1.43561	-647.795	0.0629593	0.569916	1.03299	0.34851	0.655882	3	45.5	0.233347	88951	
-23323.6	579931	-410.654	2.29286	-1002.98	-0.0219706	0.54379	1.03299	0.34851	0.655882	3	45.5	0.177812	88953	
-16125.1	600250	-464.147	2.46747	-1028.8	0.00289802	0.55052	0.993198	0.349787	0.651995	0.0001	91	0.177812	88953	
-16125.1	600250	-464.147	2.46747	-1028.8	0.00289802	0.55052	0.993198	0.349787	0.651995	3	91	0.177812	88953	
-6191.68	270530	-240.397	1.83407	-1165.93	0.550758	0.402136	0.958125	0.351078	0.648177	3	182	0.182621	88954	
-31316.6	957037	-444.952	1.45178	-618.986	0.149118	0.509998	1.03299	0.34851	0.655882	3	45.5	0.119661	88955	
-16617.4	265003	-139.571	2.78533	-617.953	0.564683	0.250036	1.03299	0.34851	0.655882	0.0001	45.5	0.0942724	88956	
-16617.4	265003	-139.571	2.78533	-617.953	0.564683	0.250036	1.03299	0.34851	0.655882	3	45.5	0.0942724	88956	
-13255.7	280938	-168.098	3.10317	-693.054	0.661752	0.246754	0.993198	0.349787	0.651995	0.0001	91	0.0942724	88956	
-7490.54	196521	-257.769	2.50894	-785.819	0.0343391	0.418862	0.993198	0.349787	0.651995	0.0001	91	0.21942	88958	
-33351	715295	-408.612	2.39696	-705.174	0.129292	0.462573	1.03299	0.34851	0.655882	0.0001	45.5	0.142157	88959	
-33351	715295	-408.612	2.39696	-705.174	0.129292	0.462573	1.03299	0.34851	0.655882	3	45.5	0.142157	88959	
-24656.5	732073	-456.424	2.60015	-750.17	0.15996	0.46441	0.993198	0.349787	0.651995	0.0001	91	0.142157	88959	
-24656.5	732073	-456.424	2.60015	-750.17	0.15996	0.46441	0.993198	0.349787	0.651995	3	91	0.142157	88959	
-13945.2	312771	-346.488	2.69972	-969.077	0.160415	0.512299	1.03299	0.34851	0.655882	0.0001	45.5	0.228411	88960	
-9071.06	335135	-401.436	2.95535	-1025.19	0.200584	0.526661	0.993198	0.349787	0.651995	0.0001	91	0.228411	88960	
-9071.06	335135	-401.436	2.95535	-1025.19	0.200584	0.526661	0.993198	0.349787	0.651995	3	91	0.228411	88960	
-2863.75	361973	-466.962	3.25443	-1098.3	0.250831	0.555881	0.958125	0.351078	0.648177	0.0001	182	0.228411	88960	
-2863.75	361973	-466.962	3.25443	-1098.3	0.250831	0.555881	0.958125	0.351078	0.648177	3	182	0.228411	88960	
-15003.5	585449	-144.364	0.918013	-840.012	0.618574	0.35869	1.03299	0.34851	0.655882	3	45.5	0.0584892	88961	
-31410.6	579748	-371.196	3.33655	-1011.04	-0.0534945	0.36895	1.03299	0.34851	0.655882	0.0001	45.5	0.155281	88963	
-31410.6	579748	-371.196	3.33655	-1011.04	-0.0534945	0.36895	1.03299	0.34851	0.655882	3	45.5	0.155281	88963	
-26170.4	660537	-276.281	3.56528	-1138.64	0.0527698	0.23064	0.993198	0.349787	0.651995	0.0001	91	0.0917924	88965	
-26170.4	660537	-276.281	3.56528	-1138.64	0.0527698	0.23064	0.993198	0.349787	0.651995	3	91	0.0917924	88965	
-21604.6	567732	-325.481	1.96207	-984.41	0.578971	0.443657	1.03299	0.34851	0.655882	3	45.5	0.132074	88966	
-5093.37	48122.7	-135.596	3.39397	-1062.59	0.72233	0.241147	0.993198	0.349787	0.651995	0.0001	91	0.0989254	88967	
-5093.37	48122.7	-135.596	3.39397	-1062.59	0.72233	0.241147	0.993198	0.349787	0.651995	3	91	0.0989254	88967	
-4013.48	73572.4	-185.483	3.85732	-1221.35	0.880472	0.264377	0.958125	0.351078	0.648177	0.0001	182	0.0989254	88967	
-4013.48	73572.4	-185.483	3.85732	-1221.35	0.880472	0.264377	0.958125	0.351078	0.648177	3	182	0.0989254	88967	
-1047.87	125485	-283.01	4.70816	-1552.51	1.20907	0.335783	0.9175	0.352806	0.64323	0.0001	455	0.0989254	88967	
-1047.87	125485	-283.01	4.70816	-1552.51	1.20907	0.335783	0.9175	0.352806	0.64323	3	455	0.0989254	88967	
-7583.43	44252.9	-74.3065	2.26098	-1149.51	0.0409474	0.318112	1.03299	0.34851	0.655882	3	45.5	0.160569	88968	
-25664.6	458153	-35.0719	2.58908	-942.802	0.539525	0.216724	1.03299	0.34851	0.655882	0.0001	45.5	0.0286232	88973	
-30486.3	495053	-287.293	3.44059	-679.576	0.0891579	0.256563	1.03299	0.34851	0.655882	0.0001	45.5	0.127363	88974	
-30486.3	495053	-287.293	3.44059	-679.576	0.0891579	0.256563	1.03299	0.34851	0.655882	3	45.5	0.127363	88974	
-22365.9	506787	-336.865	3.78047	-722.226	0.148501	0.27344	0.993198	0.349787	0.651995	0.0001	91	0.127363	88974	
-22365.9	506787	-336.865	3.78047	-722.226	0.148501	0.27344	0.993198	0.349787	0.651995	3	91	0.127363	88974	
-20308.1	386566	-405.031	3.14832	-803.339	0.187592	0.489493	1.03299	0.34851	0.655882	0.0001	45.5	0.213025	88976	
-20308.1	386566	-405.031	3.14832	-803.339	0.187592	0.489493	1.03299	0.34851	0.655882	3	45.5	0.213025	88976	
-13415.3	405633	-468.123	3.48064	-869.659	0.243003	0.515382	0.993198	0.349787	0.651995	0.0001	91	0.213025	88976	
-4710.95	430249	-545.388	3.88204	-958.656	0.314534	0.561392	0.958125	0.351078	0.648177	0.0001	182	0.213025	88976	
-4710.95	430249	-545.388	3.88204	-958.656	0.314534	0.561392	0.958125	0.351078	0.648177	3	182	0.213025	88976	
-7437.93	77135.2	-127.266	3.32512	-666.584	-0.0495227	0.215121	1.03299	0.34851	0.655882	0.0001	45.5	0.121267	88977	
-7437.93	77135.2	-127.266	3.32512	-666.584	-0.0495227	0.215121	1.03299	0.34851	0.655882	3	45.5	0.121267	88977	
-6186.26	84887.7	-159.763	3.61328	-677.148	0.00334764	0.224909	0.993198	0.349787	0.651995	0.0001	91	0.121267	88977	
-6186.26	84887.7	-159.763	3.61328	-677.148	0.00334764	0.224909	0.993198	0.349787	0.651995	3	91	0.121267	88977	
-4546.11	93536.5	-198.363	3.95463	-698.627	0.0662998	0.252593	0.958125	0.351078	0.648177	0.0001	182	0.121267	88977	
-4546.11	93536.5	-198.363	3.95463	-698.627	0.0662998	0.252593	0.958125	0.351078	0.648177	3	182	0.121267	88977	
-1562.75	107378	-262.86	4.52503	-750.167	0.173148	0.321542	0.9175	0.352806	0.64323	0.0001	455	0.121267	88977	
-1562.75	107378	-262.86	4.52503	-750.167	0.173148	0.321542	0.9175	0.352806	0.64323	3	455	0.121267	88977	
-23104.4	468069	-197.114	2.4429	-943.461	0.822772	0.303412	1.03299	0.34851	0.655882	0.0001	45.5	0.0911329	88979	
-23104.4	468069	-197.114	2.4429	-943.461	0.822772	0.303412	1.03299	0.34851	0.655882	3	45.5	0.0911329	88979	
-15521	379571	-230.867	1.6842	-643.068	0.247639	0.414069	1.03299	0.34851	0.655882	3	45.5	0.139009	88982	
-22394.4	487213	-29.7776	3.07784	-828.943	0.535625	0.180953	0.993198	0.349787	0.651995	3	91	0.0152685	88983	
-15635.4	514817	-57.9506	3.43058	-912.872	0.635897	0.189399	0.958125	0.351078	0.648177	3	182	0.0152685	88983	
-24389.4	799793	-321.87	1.51579	-902.796	0.153384	0.435631	1.03299	0.34851	0.655882	3	45.5	0.103622	88987	
-37026.7	711068	-251.204	2.95369	-966.399	-0.0400037	0.271601	1.03299	0.34851	0.655882	0.0001	45.5	0.0939787	88989	
-37026.7	711068	-251.204	2.95369	-966.399	-0.0400037	0.271601	1.03299	0.34851	0.655882	3	45.5	0.0939787	88989	
-27485.1	726599	-299.14	3.19258	-985.593	0.00148385	0.27328	0.993198	0.349787	0.651995	3	91	0.0939787	88989	
-11133.4	421206	-297.32	0.916116	-947.518	0.722153	0.510619	1.03299	0.34851	0.655882	3	45.5	0.16211	88990	
-10440.7	296086	-244.724	1.31718	-1043.3	0.0460972	0.503317	1.03299	0.34851	0.655882	3	45.5	0.201633	88991	
-12599.1	265863	-86.9035	1.53585	-753.583	-0.0107494	0.331338	1.03299	0.34851	0.655882	3	45.5	0.0792665	88992	
-10308	473407	-394.655	0.432286	-779.402	0.0115147	0.666585	1.03299	0.34851	0.655882	3	45.5	0.222011	88995	
-6248.83	167557	-305.259	3.51433	-996.362	0.204754	0.372126	1.03299	0.34851	0.655882	0.0001	45.5	0.248014	88997	
-6248.83	167557	-305.259	3.51433	-996.362	0.204754	0.372126	1.03299	0.34851	0.655882	3	45.5	0.248014	88997	
-2471.77	190149	-370.071	3.90514	-1068.03	0.274019	0.400592	0.993198	0.349787	0.651995	0.0001	91	0.248014	88997	
-2471.77	190149	-370.071	3.90514	-1068.03	0.274019	0.400592	0.993198	0.349787	0.651995	3	91	0.248014	88997	
-29012.8	746108	-403.468	1.88315	-688.443	0.066823	0.498844	1.03299	0.34851	0.655882	3	45.5	0.138039	88998	
-21785	760048	-443.004	2.01768	-718.55	0.0844134	0.4928	0.993198	0.349787	0.651995	3	91	0.138039	88998	
-12556	583585	-418.044	0.494477	-645.92	0.187397	0.621418	1.03299	0.34851	0.655882	3	45.5	0.182268	88999	
-20381.3	505912	-191.848	3.18564	-938.453	-5.82873e-05	0.232147	0.993198	0.349787	0.651995	0.0001	91	0.0799272	89000	
-20381.3	505912	-191.848	3.18564	-938.453	-5.82873e-05	0.232147	0.993198	0.349787	0.651995	3	91	0.0799272	89000	
