-10297.4	205559	-285.091	2.81166	-686.567	-0.00873106	0.430618	1.03299	0.34851	0.655882	0.0001	45.5	0.232939	39002	
-10297.4	205559	-285.091	2.81166	-686.567	-0.00873106	0.430618	1.03299	0.34851	0.655882	3	45.5	0.232939	39002	
-7025.61	215423	-327.702	3.04922	-711.244	0.0289478	0.440393	0.993198	0.349787	0.651995	0.0001	91	0.232939	39002	
-7025.61	215423	-327.702	3.04922	-711.244	0.0289478	0.440393	0.993198	0.349787	0.651995	3	91	0.232939	39002	
-2987.18	227217	-377.51	3.32418	-746.631	0.0738825	0.464423	0.958125	0.351078	0.648177	0.0001	182	0.232939	39002	
-2987.18	227217	-377.51	3.32418	-746.631	0.0738825	0.464423	0.958125	0.351078	0.648177	3	182	0.232939	39002	
-12470.6	455772	-239.104	0.825097	-621.665	0.00225156	0.451464	1.03299	0.34851	0.655882	3	45.5	0.134291	39010	
-5204.24	-8227.68	-83.4857	3.65983	-692.579	-0.0583757	0.184134	1.03299	0.34851	0.655882	0.0001	45.5	0.0543052	39011	
-5204.24	-8227.68	-83.4857	3.65983	-692.579	-0.0583757	0.184134	1.03299	0.34851	0.655882	3	45.5	0.0543052	39011	
-5305.09	85.6338	-115.759	3.99867	-699.621	0.0060315	0.203911	0.993198	0.349787	0.651995	3	91	0.0543052	39011	
-23597.4	459292	-5.82907	3.48936	-684.995	0.660275	0.142782	0.993198	0.349787	0.651995	0.0001	91	0.00572717	39014	
-23597.4	459292	-5.82907	3.48936	-684.995	0.660275	0.142782	0.993198	0.349787	0.651995	3	91	0.00572717	39014	
-16309.2	485362	-30.9987	3.9476	-770.417	0.804898	0.163734	0.958125	0.351078	0.648177	0.0001	182	0.00572717	39014	
-16309.2	485362	-30.9987	3.9476	-770.417	0.804898	0.163734	0.958125	0.351078	0.648177	3	182	0.00572717	39014	
-11480	264359	-214.257	3.77416	-1059.96	0.81843	0.226166	0.993198	0.349787	0.651995	0.0001	91	0.116388	39015	
-11480	264359	-214.257	3.77416	-1059.96	0.81843	0.226166	0.993198	0.349787	0.651995	3	91	0.116388	39015	
-12295.2	203821	-157.156	3.13796	-1136.34	-0.047143	0.271169	1.03299	0.34851	0.655882	3	45.5	0.140653	39018	
-21388.4	408526	-237.108	2.71539	-939.623	0.806955	0.315378	1.03299	0.34851	0.655882	0.0001	45.5	0.117888	39020	
-15876.1	446780	-282.777	3.07139	-1101.37	0.966979	0.315106	0.993198	0.349787	0.651995	0.0001	91	0.117888	39020	
-15876.1	446780	-282.777	3.07139	-1101.37	0.966979	0.315106	0.993198	0.349787	0.651995	3	91	0.117888	39020	
-23885.4	779337	-193.495	1.2686	-611.365	0.748391	0.353533	1.03299	0.34851	0.655882	3	45.5	0.0568498	39021	
-12023.8	900048	-371.813	0.493247	-971.303	0.417234	0.477231	1.03299	0.34851	0.655882	3	45.5	0.0997824	39022	
-14485.5	456563	-221.842	1.14	-616.288	0.135436	0.420374	1.03299	0.34851	0.655882	3	45.5	0.11985	39023	
-8904.53	92039.5	-63.138	3.29041	-733.736	0.0766879	0.213833	0.993198	0.349787	0.651995	3	91	0.0619053	39024	
-10817.3	214132	-189.35	2.29595	-1114.45	0.166221	0.386601	1.03299	0.34851	0.655882	3	45.5	0.176834	39025	
-12420.4	241515	-199.85	2.36739	-864.596	0.0866947	0.372752	1.03299	0.34851	0.655882	3	45.5	0.165438	39027	
-25056.6	707242	-222.261	2.74654	-953.622	0.0900049	0.263894	0.993198	0.349787	0.651995	3	91	0.0724567	39029	
-15621.3	358449	-31.1701	1.57796	-843.452	0.0230395	0.303477	1.03299	0.34851	0.655882	3	45.5	0.0298095	39030	
-12769	440637	-327.238	1.46772	-1173.66	-0.00871757	0.547299	1.03299	0.34851	0.655882	3	45.5	0.187596	39031	
-5255.61	419971	-380.761	2.01318	-1118.1	0.180694	0.512733	0.958125	0.351078	0.648177	3	182	0.194306	39032	
-11439.7	250800	-278.11	2.3965	-913.936	0.00365402	0.477089	1.03299	0.34851	0.655882	0.0001	45.5	0.226486	39033	
-8125.8	267174	-320.425	2.58293	-936.012	0.0308924	0.480019	0.993198	0.349787	0.651995	3	91	0.226486	39033	
-15701.6	502625	-378.815	1.11186	-603.249	-0.00574607	0.594537	1.03299	0.34851	0.655882	3	45.5	0.191873	39035	
-14963.2	298673	-409.173	3.54162	-769.941	-0.0529391	0.477933	1.03299	0.34851	0.655882	0.0001	45.5	0.246443	39036	
-14963.2	298673	-409.173	3.54162	-769.941	-0.0529391	0.477933	1.03299	0.34851	0.655882	3	45.5	0.246443	39036	
-8639.37	311887	-477.355	3.89356	-810.329	0.00773084	0.515719	0.993198	0.349787	0.651995	0.0001	91	0.246443	39036	
-8639.37	311887	-477.355	3.89356	-810.329	0.00773084	0.515719	0.993198	0.349787	0.651995	3	91	0.246443	39036	
-663.34	329365	-560.53	4.32251	-872.114	0.0819704	0.576953	0.958125	0.351078	0.648177	0.0001	182	0.246443	39036	
-663.34	329365	-560.53	4.32251	-872.114	0.0819704	0.576953	0.958125	0.351078	0.648177	3	182	0.246443	39036	
-25521.2	558436	-73.086	3.28642	-819.044	0.00193043	0.166147	0.993198	0.349787	0.651995	3	91	0.0301093	39038	
-13655.9	369305	-132.063	1.24233	-592.687	0.0251712	0.360245	1.03299	0.34851	0.655882	3	45.5	0.0883594	39039	
-13792	250209	-4.71207	1.77069	-1066.84	0.0139418	0.292591	1.03299	0.34851	0.655882	3	45.5	0.0242295	39040	
-35142.9	950025	-92.3863	1.82581	-950.335	-0.011881	0.287307	1.03299	0.34851	0.655882	3	45.5	0.0303703	39041	
-13737.5	181294	-12.1518	2.51786	-628.774	0.407546	0.236697	1.03299	0.34851	0.655882	0.0001	45.5	0.0271318	39042	
-13737.5	181294	-12.1518	2.51786	-628.774	0.407546	0.236697	1.03299	0.34851	0.655882	3	45.5	0.0271318	39042	
-22752.2	399261	-348.154	3.26239	-680.783	-0.0357285	0.39127	1.03299	0.34851	0.655882	0.0001	45.5	0.18103	39043	
-22752.2	399261	-348.154	3.26239	-680.783	-0.0357285	0.39127	1.03299	0.34851	0.655882	3	45.5	0.18103	39043	
-7909.54	421842	-466.309	3.91627	-761.143	0.0769126	0.450719	0.958125	0.351078	0.648177	0.0001	182	0.18103	39043	
-7909.54	421842	-466.309	3.91627	-761.143	0.0769126	0.450719	0.958125	0.351078	0.648177	3	182	0.18103	39043	
-12115.9	836897	-433.498	0.518086	-950.09	-0.000958398	0.558966	1.03299	0.34851	0.655882	3	45.5	0.135873	39044	
-28138.6	595620	-192.434	3.58139	-600.419	0.0145367	0.176435	0.993198	0.349787	0.651995	0.0001	91	0.0674417	39046	
-28138.6	595620	-192.434	3.58139	-600.419	0.0145367	0.176435	0.993198	0.349787	0.651995	3	91	0.0674417	39046	
-14494.4	284257	-8.46738	1.61482	-905.687	0.567239	0.297207	1.03299	0.34851	0.655882	3	45.5	0.020064	39047	
-28992.4	519886	-123.779	2.69437	-612.188	0.501338	0.224352	1.03299	0.34851	0.655882	3	45.5	0.0554235	39048	
-22843.2	541293	-149.802	2.983	-677.386	0.58286	0.216743	0.993198	0.349787	0.651995	0.0001	91	0.0554235	39048	
-22843.2	541293	-149.802	2.983	-677.386	0.58286	0.216743	0.993198	0.349787	0.651995	3	91	0.0554235	39048	
-9782.23	397091	-329.183	0.271065	-596.771	0.191277	0.6059	1.03299	0.34851	0.655882	3	45.5	0.215801	39050	
-12702.5	387722	-162.676	1.33524	-1140.1	-0.000699766	0.383036	1.03299	0.34851	0.655882	3	45.5	0.106401	39051	
-14532.1	312004	-378.561	2.6269	-803.477	0.420278	0.544557	1.03299	0.34851	0.655882	0.0001	45.5	0.236729	39054	
-14532.1	312004	-378.561	2.6269	-803.477	0.420278	0.544557	1.03299	0.34851	0.655882	3	45.5	0.236729	39054	
-9562.86	334579	-431.871	2.91679	-893.522	0.486259	0.560566	0.993198	0.349787	0.651995	0.0001	91	0.236729	39054	
-9562.86	334579	-431.871	2.91679	-893.522	0.486259	0.560566	0.993198	0.349787	0.651995	3	91	0.236729	39054	
-3154.93	363534	-497.127	3.26569	-1010.44	0.572107	0.592567	0.958125	0.351078	0.648177	0.0001	182	0.236729	39054	
-3154.93	363534	-497.127	3.26569	-1010.44	0.572107	0.592567	0.958125	0.351078	0.648177	3	182	0.236729	39054	
-14516.9	447612	-323.216	1.46473	-888.958	-0.00753601	0.531325	1.03299	0.34851	0.655882	3	45.5	0.181172	39057	
-8460.07	55328.5	-59.9882	2.24142	-589.144	0.0914084	0.28961	1.03299	0.34851	0.655882	0.0001	45.5	0.0952842	39061	
-8460.07	55328.5	-59.9882	2.24142	-589.144	0.0914084	0.28961	1.03299	0.34851	0.655882	3	45.5	0.0952842	39061	
-14521.3	285645	-23.1099	1.6894	-635.181	0.149987	0.296121	1.03299	0.34851	0.655882	3	45.5	0.0266028	39062	
-32544.8	882869	-341.618	1.59327	-523.807	0.721541	0.406507	1.03299	0.34851	0.655882	3	45.5	0.0879992	39063	
-2687.23	1.07966	-458.768	2.28632	-942.963	1.24992	0.376036	0.9175	0.352806	0.64323	3	455	0.0879992	39063	
-20147.6	410778	-164.838	2.39649	-859.024	0.313529	0.300566	1.03299	0.34851	0.655882	3	45.5	0.0926248	39064	
-11506.3	180403	-120.657	2.32944	-781.01	0.144946	0.309693	1.03299	0.34851	0.655882	3	45.5	0.121943	39066	
-29389.8	629251	-329.806	2.43727	-795.361	0.346168	0.391909	1.03299	0.34851	0.655882	0.0001	45.5	0.124199	39067	
-29389.8	629251	-329.806	2.43727	-795.361	0.346168	0.391909	1.03299	0.34851	0.655882	3	45.5	0.124199	39067	
-21836.6	654902	-374.013	2.67305	-867.636	0.396496	0.389117	0.993198	0.349787	0.651995	0.0001	91	0.124199	39067	
-21836.6	654902	-374.013	2.67305	-867.636	0.396496	0.389117	0.993198	0.349787	0.651995	3	91	0.124199	39067	
-16653	292325	-278.831	3.20153	-654.084	-0.0490381	0.339869	1.03299	0.34851	0.655882	0.0001	45.5	0.176422	39068	
-16653	292325	-278.831	3.20153	-654.084	-0.0490381	0.339869	1.03299	0.34851	0.655882	3	45.5	0.176422	39068	
-6170.77	310973	-377.678	3.81468	-714.709	0.0585324	0.385792	0.958125	0.351078	0.648177	0.0001	182	0.176422	39068	
-6170.77	310973	-377.678	3.81468	-714.709	0.0585324	0.385792	0.958125	0.351078	0.648177	3	182	0.176422	39068	
-22077	463413	-132.912	3.82071	-985.671	0.150467	0.1433	0.993198	0.349787	0.651995	3	91	0.0566892	39070	
-21669.4	385474	5.19002	2.47846	-885.855	-0.0110109	0.232225	1.03299	0.34851	0.655882	3	45.5	0.0131459	39071	
-16134.1	279482	9.75461	1.94273	-584.654	0.7786	0.27169	1.03299	0.34851	0.655882	3	45.5	0.00502214	39072	
-13989.9	579370	-365.64	1.09686	-1012.63	-0.005314	0.553549	1.03299	0.34851	0.655882	3	45.5	0.164111	39073	
-20123.6	870209	2.93943	0.809158	-973.409	0.229029	0.327867	1.03299	0.34851	0.655882	3	45.5	0.00240136	39074	
-16528.2	285807	-11.6213	3.99878	-1165.33	0.130267	0.115288	0.993198	0.349787	0.651995	0.0001	91	0.0193605	39075	
-16528.2	285807	-11.6213	3.99878	-1165.33	0.130267	0.115288	0.993198	0.349787	0.651995	3	91	0.0193605	39075	
-25066.8	524594	-259.816	2.76657	-1146.34	0.0504234	0.351555	1.03299	0.34851	0.655882	3	45.5	0.122291	39076	
-18143	550594	-311.342	3.00062	-1180.58	0.087636	0.353771	0.993198	0.349787	0.651995	3	91	0.122291	39076	
-19997.4	326348	-284.102	3.5739	-677.824	0.0435033	0.276218	1.03299	0.34851	0.655882	0.0001	45.5	0.159824	39077	
-19997.4	326348	-284.102	3.5739	-677.824	0.0435033	0.276218	1.03299	0.34851	0.655882	3	45.5	0.159824	39077	
-14143.9	336693	-335.146	3.92988	-716.47	0.106071	0.299099	0.993198	0.349787	0.651995	0.0001	91	0.159824	39077	
-14143.9	336693	-335.146	3.92988	-716.47	0.106071	0.299099	0.993198	0.349787	0.651995	3	91	0.159824	39077	
-6991.59	350572	-397.625	4.36304	-773.283	0.184677	0.344367	0.958125	0.351078	0.648177	0.0001	182	0.159824	39077	
-6991.59	350572	-397.625	4.36304	-773.283	0.184677	0.344367	0.958125	0.351078	0.648177	3	182	0.159824	39077	
-14361.9	568572	-253.137	1.08987	-1035.33	0.537588	0.425492	1.03299	0.34851	0.655882	3	45.5	0.105752	39078	
-3458.2	42275.1	-152.778	3.35945	-911.553	-0.0529584	0.226976	1.03299	0.34851	0.655882	0.0001	45.5	0.127213	39079	
-3458.2	42275.1	-152.778	3.35945	-911.553	-0.0529584	0.226976	1.03299	0.34851	0.655882	3	45.5	0.127213	39079	
-2497.96	57306.4	-195.803	3.65364	-923.753	0.00107563	0.238659	0.993198	0.349787	0.651995	0.0001	91	0.127213	39079	
-2497.96	57306.4	-195.803	3.65364	-923.753	0.00107563	0.238659	0.993198	0.349787	0.651995	3	91	0.127213	39079	
-1011.92	73538.8	-247.021	4.00316	-950.797	0.0654917	0.268676	0.958125	0.351078	0.648177	0.0001	182	0.127213	39079	
-1011.92	73538.8	-247.021	4.00316	-950.797	0.0654917	0.268676	0.958125	0.351078	0.648177	3	182	0.127213	39079	
2103.21	98575.8	-332.897	4.58953	-1018.05	0.175142	0.341803	0.9175	0.352806	0.64323	0.0001	455	0.127213	39079	
2103.21	98575.8	-332.897	4.58953	-1018.05	0.175142	0.341803	0.9175	0.352806	0.64323	3	455	0.127213	39079	
-5127.29	509159	-212.107	1.12172	-1048.55	0.545899	0.304703	0.9175	0.352806	0.64323	0.0001	455	0.0911075	39081	
-18664.8	322625	3.9244	2.29446	-788.466	0.37788	0.246478	1.03299	0.34851	0.655882	0.0001	45.5	0.0127877	39082	
-18664.8	322625	3.9244	2.29446	-788.466	0.37788	0.246478	1.03299	0.34851	0.655882	3	45.5	0.0127877	39082	
-18356.8	495706	-297.788	1.77841	-844.266	0.276	0.452626	1.03299	0.34851	0.655882	3	45.5	0.143215	39083	
-14058	265923	-377.157	3.3108	-581.984	0.101003	0.447843	1.03299	0.34851	0.655882	0.0001	45.5	0.235319	39085	
-14058	265923	-377.157	3.3108	-581.984	0.101003	0.447843	1.03299	0.34851	0.655882	3	45.5	0.235319	39085	
-8834.87	276354	-432.376	3.65033	-631.259	0.15669	0.475143	0.993198	0.349787	0.651995	0.0001	91	0.235319	39085	
-8834.87	276354	-432.376	3.65033	-631.259	0.15669	0.475143	0.993198	0.349787	0.651995	3	91	0.235319	39085	
-2317.19	290346	-499.731	4.06101	-698.474	0.227576	0.52353	0.958125	0.351078	0.648177	0.0001	182	0.235319	39085	
-2317.19	290346	-499.731	4.06101	-698.474	0.227576	0.52353	0.958125	0.351078	0.648177	3	182	0.235319	39085	
-14078	366745	-168.485	1.50153	-766.996	0.0228877	0.377405	1.03299	0.34851	0.655882	3	45.5	0.112112	39086	
-11370.8	426045	-445.621	3.036	-1098.48	0.00181913	0.54981	0.993198	0.349787	0.651995	3	91	0.215756	39087	
-18908.7	312973	-257.765	3.501	-759.264	0.00671426	0.275177	1.03299	0.34851	0.655882	0.0001	45.5	0.15391	39089	
-18908.7	312973	-257.765	3.501	-759.264	0.00671426	0.275177	1.03299	0.34851	0.655882	3	45.5	0.15391	39089	
-13496.8	324441	-307.944	3.83614	-790.869	0.0659176	0.295205	0.993198	0.349787	0.651995	0.0001	91	0.15391	39089	
-13496.8	324441	-307.944	3.83614	-790.869	0.0659176	0.295205	0.993198	0.349787	0.651995	3	91	0.15391	39089	
-6876.63	339115	-368.817	4.24075	-839.783	0.139006	0.336235	0.958125	0.351078	0.648177	0.0001	182	0.15391	39089	
-6876.63	339115	-368.817	4.24075	-839.783	0.139006	0.336235	0.958125	0.351078	0.648177	3	182	0.15391	39089	
-27716.2	719492	-79.123	2.78847	-1141.96	0.217185	0.203667	0.993198	0.349787	0.651995	3	91	0.0275549	39090	
-15736.9	278086	-54.8255	3.90172	-915.326	0.12178	0.131679	0.993198	0.349787	0.651995	0.0001	91	0.0365124	39091	
-28850.4	651103	-334.58	3.93934	-963.523	0.42934	0.222804	0.993198	0.349787	0.651995	0.0001	91	0.103463	39092	
-28850.4	651103	-334.58	3.93934	-963.523	0.42934	0.222804	0.993198	0.349787	0.651995	3	91	0.103463	39092	
-14167.2	239557	-52.9199	2.03379	-732.631	0.660349	0.281213	1.03299	0.34851	0.655882	3	45.5	0.0509525	39093	
-23205.5	546269	-336.923	2.1996	-781.174	0.0115693	0.458628	1.03299	0.34851	0.655882	3	45.5	0.151631	39094	
-17160.7	559397	-377.7	2.36142	-805.469	0.034469	0.455372	0.993198	0.349787	0.651995	3	91	0.151631	39094	
-17176.3	331203	-379.942	3.38353	-818.525	-0.0480015	0.451848	1.03299	0.34851	0.655882	0.0001	45.5	0.222602	39096	
-17176.3	331203	-379.942	3.38353	-818.525	-0.0480015	0.451848	1.03299	0.34851	0.655882	3	45.5	0.222602	39096	
-10863.1	345166	-443.798	3.70606	-854.11	0.00715982	0.481573	0.993198	0.349787	0.651995	0.0001	91	0.222602	39096	
-10863.1	345166	-443.798	3.70606	-854.11	0.00715982	0.481573	0.993198	0.349787	0.651995	3	91	0.222602	39096	
-2985.87	363090	-520.857	4.09435	-909.035	0.0740686	0.532125	0.958125	0.351078	0.648177	0.0001	182	0.222602	39096	
-2985.87	363090	-520.857	4.09435	-909.035	0.0740686	0.532125	0.958125	0.351078	0.648177	3	182	0.222602	39096	
-12594	340525	-181.894	1.50609	-1064	0.334998	0.394767	1.03299	0.34851	0.655882	3	45.5	0.125196	39097	
-17902.4	432110	-242.047	3.07897	-698.759	0.00768709	0.292645	0.993198	0.349787	0.651995	0.0001	91	0.110442	39098	
-17902.4	432110	-242.047	3.07897	-698.759	0.00768709	0.292645	0.993198	0.349787	0.651995	3	91	0.110442	39098	
-41688.7	824496	-419.307	2.914	-993.092	0.025345	0.407133	1.03299	0.34851	0.655882	3	45.5	0.133458	39099	
-29792.9	846182	-483.289	3.17042	-1036.44	0.0662564	0.417986	0.993198	0.349787	0.651995	3	91	0.133458	39099	
-13763.3	360115	-110.579	1.40696	-871.01	-0.00786759	0.343968	1.03299	0.34851	0.655882	3	45.5	0.0785504	39100	
-30800.6	941990	-370.915	1.54188	-764.039	0.432132	0.437199	1.03299	0.34851	0.655882	3	45.5	0.0967051	39101	
-25676.9	514235	-203.793	2.31218	-590.683	0.712719	0.305983	1.03299	0.34851	0.655882	3	45.5	0.0848492	39102	
-15126.7	603230	-343.498	1.07684	-901.624	0.161555	0.512567	1.03299	0.34851	0.655882	0.0001	45.5	0.144073	39103	
-15126.7	603230	-343.498	1.07684	-901.624	0.161555	0.512567	1.03299	0.34851	0.655882	3	45.5	0.144073	39103	
-29464.8	681779	-224.958	3.19828	-624.651	0.533211	0.218885	0.993198	0.349787	0.651995	3	91	0.0683055	39104	
-13382.4	236041	-314.459	3.54142	-643.633	0.318434	0.320358	1.03299	0.34851	0.655882	0.0001	45.5	0.196129	39105	
-13382.4	236041	-314.459	3.54142	-643.633	0.318434	0.320358	1.03299	0.34851	0.655882	3	45.5	0.196129	39105	
-8669.89	249999	-368.151	3.95725	-715.583	0.400246	0.346208	0.993198	0.349787	0.651995	0.0001	91	0.196129	39105	
-8669.89	249999	-368.151	3.95725	-715.583	0.400246	0.346208	0.993198	0.349787	0.651995	3	91	0.196129	39105	
-2620.85	268801	-436.259	4.47661	-814.709	0.510524	0.397372	0.958125	0.351078	0.648177	0.0001	182	0.196129	39105	
-2620.85	268801	-436.259	4.47661	-814.709	0.510524	0.397372	0.958125	0.351078	0.648177	3	182	0.196129	39105	
-26814.3	599890	-37.8815	1.98078	-965.265	0.583133	0.272739	1.03299	0.34851	0.655882	3	45.5	0.0225164	39107	
-25996.5	603745	-131.775	2.09879	-785.935	0.028423	0.296166	1.03299	0.34851	0.655882	3	45.5	0.0587134	39108	
-18656.6	312498	-41.3424	2.49276	-931.525	0.751866	0.234592	1.03299	0.34851	0.655882	0.0001	45.5	0.0395415	39110	
-18656.6	312498	-41.3424	2.49276	-931.525	0.751866	0.234592	1.03299	0.34851	0.655882	3	45.5	0.0395415	39110	
-13013.5	310250	-83.8292	1.26649	-741.895	0.760114	0.33367	1.03299	0.34851	0.655882	3	45.5	0.0612381	39114	
-14015.7	709541	-461.67	0.631924	-802.04	0.151954	0.623884	1.03299	0.34851	0.655882	3	45.5	0.166676	39115	
-7584.68	586.883	-19.6566	3.46406	-1198.78	0.248193	0.228659	0.993198	0.349787	0.651995	0.0001	91	0.0622053	39116	
-7584.68	586.883	-19.6566	3.46406	-1198.78	0.248193	0.228659	0.993198	0.349787	0.651995	3	91	0.0622053	39116	
-15254.6	343580	-82.6574	1.75203	-881.468	0.0127793	0.31238	1.03299	0.34851	0.655882	3	45.5	0.0632571	39117	
-24271.2	522865	-276.307	3.87787	-810.265	0.993378	0.196953	0.993198	0.349787	0.651995	0.0001	91	0.092729	39118	
-24271.2	522865	-276.307	3.87787	-810.265	0.993378	0.196953	0.993198	0.349787	0.651995	3	91	0.092729	39118	
-1855.66	54488.4	-190.599	2.9123	-919.348	0.919246	0.269002	0.993198	0.349787	0.651995	0.0001	91	0.108483	39119	
-1855.66	54488.4	-190.599	2.9123	-919.348	0.919246	0.269002	0.993198	0.349787	0.651995	3	91	0.108483	39119	
-605.222	76406.6	-234.455	3.32039	-1098.21	1.12532	0.278476	0.958125	0.351078	0.648177	0.0001	182	0.108483	39119	
-605.222	76406.6	-234.455	3.32039	-1098.21	1.12532	0.278476	0.958125	0.351078	0.648177	3	182	0.108483	39119	
-25729.8	571944	-216.859	3.67964	-857.521	0.0999137	0.185627	0.993198	0.349787	0.651995	0.0001	91	0.0780467	39120	
-25729.8	571944	-216.859	3.67964	-857.521	0.0999137	0.185627	0.993198	0.349787	0.651995	3	91	0.0780467	39120	
-30861.4	531862	-268.594	3.04449	-683.896	0.451572	0.273467	1.03299	0.34851	0.655882	0.0001	45.5	0.109863	39122	
-30861.4	531862	-268.594	3.04449	-683.896	0.451572	0.273467	1.03299	0.34851	0.655882	3	45.5	0.109863	39122	
-23145.3	555050	-312.584	3.38924	-764.635	0.535146	0.27929	0.993198	0.349787	0.651995	3	91	0.109863	39122	
-30919.5	540044	-289.761	3.59125	-1148.64	0.00528869	0.255546	1.03299	0.34851	0.655882	0.0001	45.5	0.129186	39123	
-30919.5	540044	-289.761	3.59125	-1148.64	0.00528869	0.255546	1.03299	0.34851	0.655882	3	45.5	0.129186	39123	
-21539.2	565057	-357.574	3.93978	-1187.21	0.0676495	0.277518	0.993198	0.349787	0.651995	0.0001	91	0.129186	39123	
-21539.2	565057	-357.574	3.93978	-1187.21	0.0676495	0.277518	0.993198	0.349787	0.651995	3	91	0.129186	39123	
-7513.11	110197	-171.699	3.05798	-801.55	0.0949612	0.28377	1.03299	0.34851	0.655882	0.0001	45.5	0.173723	39124	
-7513.11	110197	-171.699	3.05798	-801.55	0.0949612	0.28377	1.03299	0.34851	0.655882	3	45.5	0.173723	39124	
-5729.16	122885	-210.092	3.33782	-832.785	0.141997	0.289784	0.993198	0.349787	0.651995	0.0001	91	0.173723	39124	
-5729.16	122885	-210.092	3.33782	-832.785	0.141997	0.289784	0.993198	0.349787	0.651995	3	91	0.173723	39124	
-3365.49	137522	-256.134	3.66738	-877.202	0.200354	0.312238	0.958125	0.351078	0.648177	0.0001	182	0.173723	39124	
-3365.49	137522	-256.134	3.66738	-877.202	0.200354	0.312238	0.958125	0.351078	0.648177	3	182	0.173723	39124	
-25744.1	576479	-185.392	3.61448	-914.502	0.0402411	0.175996	0.993198	0.349787	0.651995	0.0001	91	0.0679122	39126	
-25744.1	576479	-185.392	3.61448	-914.502	0.0402411	0.175996	0.993198	0.349787	0.651995	3	91	0.0679122	39126	
-31904.7	775787	-380.588	2.07754	-702.064	-0.00714224	0.454623	1.03299	0.34851	0.655882	3	45.5	0.127631	39128	
-16071.3	323931	-388.771	2.42835	-559.885	0.315375	0.566042	1.03299	0.34851	0.655882	3	45.5	0.236515	39129	
-11342.7	338251	-433.782	2.6712	-618.892	0.361924	0.578784	0.993198	0.349787	0.651995	0.0001	91	0.236515	39129	
-11342.7	338251	-433.782	2.6712	-618.892	0.361924	0.578784	0.993198	0.349787	0.651995	3	91	0.236515	39129	
-5474.59	356212	-487.093	2.95608	-693.348	0.420698	0.605088	0.958125	0.351078	0.648177	0.0001	182	0.236515	39129	
-5474.59	356212	-487.093	2.95608	-693.348	0.420698	0.605088	0.958125	0.351078	0.648177	3	182	0.236515	39129	
-28868.6	802217	-356.105	1.59748	-563.375	0.340624	0.446454	1.03299	0.34851	0.655882	3	45.5	0.108251	39130	
-11868.6	131879	11.5452	2.27589	-750.041	0.582748	0.257379	1.03299	0.34851	0.655882	3	45.5	0.0158396	39131	
-10436	209563	-315.111	3.31053	-739.325	0.367397	0.374546	1.03299	0.34851	0.655882	0.0001	45.5	0.220235	39132	
-10436	209563	-315.111	3.31053	-739.325	0.367397	0.374546	1.03299	0.34851	0.655882	3	45.5	0.220235	39132	
-6303.81	226388	-369.526	3.69784	-820.752	0.447218	0.396455	0.993198	0.349787	0.651995	0.0001	91	0.220235	39132	
-6303.81	226388	-369.526	3.69784	-820.752	0.447218	0.396455	0.993198	0.349787	0.651995	3	91	0.220235	39132	
-888.69	248614	-438.297	4.17799	-931.33	0.554391	0.44114	0.958125	0.351078	0.648177	0.0001	182	0.220235	39132	
-888.69	248614	-438.297	4.17799	-931.33	0.554391	0.44114	0.958125	0.351078	0.648177	3	182	0.220235	39132	
-23663.2	514968	-149.578	3.71818	-984.021	0.000310586	0.156186	0.993198	0.349787	0.651995	0.0001	91	0.0603705	39133	
-23663.2	514968	-149.578	3.71818	-984.021	0.000310586	0.156186	0.993198	0.349787	0.651995	3	91	0.0603705	39133	
-15039.8	281681	-143.512	3.7597	-601.449	0.00159062	0.174215	0.993198	0.349787	0.651995	3	91	0.0780021	39134	
-14882.2	498908	-348.193	1.02608	-611.541	0.129262	0.552377	1.03299	0.34851	0.655882	3	45.5	0.174352	39135	
-13817.6	273488	-36.5718	1.58082	-780.07	0.639659	0.304147	1.03299	0.34851	0.655882	3	45.5	0.0367604	39139	
-8423.56	565908	-415.01	0.181801	-862.847	0.0469192	0.640208	1.03299	0.34851	0.655882	3	45.5	0.194006	39142	
-11080.3	132383	-105.49	3.06714	-584.201	0.327289	0.219329	1.03299	0.34851	0.655882	0.0001	45.5	0.0964181	39148	
-11080.3	132383	-105.49	3.06714	-584.201	0.327289	0.219329	1.03299	0.34851	0.655882	3	45.5	0.0964181	39148	
-13820.1	899607	-408.941	0.405792	-638.436	0.0245215	0.51909	1.03299	0.34851	0.655882	3	45.5	0.118297	39149	
-24507.1	417379	-319.124	3.06001	-657.283	0.698809	0.332319	1.03299	0.34851	0.655882	0.0001	45.5	0.14526	39151	
-24507.1	417379	-319.124	3.06001	-657.283	0.698809	0.332319	1.03299	0.34851	0.655882	3	45.5	0.14526	39151	
-17892.8	444496	-368.225	3.4641	-772.939	0.838003	0.343533	0.993198	0.349787	0.651995	3	91	0.14526	39151	
-20623.6	405192	-82.8118	2.39843	-857.816	-0.0242926	0.260985	1.03299	0.34851	0.655882	3	45.5	0.0558589	39153	
-6663.23	21.3981	-49.4177	3.98168	-937.494	0.116345	0.192209	0.993198	0.349787	0.651995	0.0001	91	0.0421707	39154	
-6663.23	21.3981	-49.4177	3.98168	-937.494	0.116345	0.192209	0.993198	0.349787	0.651995	3	91	0.0421707	39154	
-15855.8	259373	-209.782	3.38815	-951.124	0.675777	0.237927	1.03299	0.34851	0.655882	0.0001	45.5	0.134995	39155	
-15855.8	259373	-209.782	3.38815	-951.124	0.675777	0.237927	1.03299	0.34851	0.655882	3	45.5	0.134995	39155	
-11370.6	288444	-262.683	3.84594	-1093.54	0.820794	0.253701	0.993198	0.349787	0.651995	0.0001	91	0.134995	39155	
-11370.6	288444	-262.683	3.84594	-1093.54	0.820794	0.253701	0.993198	0.349787	0.651995	3	91	0.134995	39155	
-5206.61	329208	-334.291	4.44135	-1299.06	1.02961	0.295694	0.958125	0.351078	0.648177	0.0001	182	0.134995	39155	
-5206.61	329208	-334.291	4.44135	-1299.06	1.02961	0.295694	0.958125	0.351078	0.648177	3	182	0.134995	39155	
-19687.8	315026	-45.7962	3.02059	-1162.86	-0.0422396	0.19793	1.03299	0.34851	0.655882	0.0001	45.5	0.0511751	39157	
-26762.1	540848	-196.155	2.48724	-700.417	0.214809	0.294559	1.03299	0.34851	0.655882	0.0001	45.5	0.086969	39160	
-26762.1	540848	-196.155	2.48724	-700.417	0.214809	0.294559	1.03299	0.34851	0.655882	3	45.5	0.086969	39160	
-20732.2	556399	-227.549	2.70298	-741.434	0.25295	0.285523	0.993198	0.349787	0.651995	0.0001	91	0.086969	39160	
-37411.5	633575	-371.261	3.39889	-810.537	0.0111025	0.328787	1.03299	0.34851	0.655882	0.0001	45.5	0.141383	39162	
-37411.5	633575	-371.261	3.39889	-810.537	0.0111025	0.328787	1.03299	0.34851	0.655882	3	45.5	0.141383	39162	
-7486.23	41802.3	-73.0297	3.14289	-641.623	0.405879	0.209054	1.03299	0.34851	0.655882	0.0001	45.5	0.0745233	39163	
-7486.23	41802.3	-73.0297	3.14289	-641.623	0.405879	0.209054	1.03299	0.34851	0.655882	3	45.5	0.0745233	39163	
-6920.4	50418.1	-99.4368	3.49016	-695.988	0.485254	0.213763	0.993198	0.349787	0.651995	3	91	0.0745233	39163	
-7698.16	56452.3	-80.1726	2.63327	-1183.04	-0.0328952	0.291792	1.03299	0.34851	0.655882	0.0001	45.5	0.142713	39164	
-7698.16	56452.3	-80.1726	2.63327	-1183.04	-0.0328952	0.291792	1.03299	0.34851	0.655882	3	45.5	0.142713	39164	
-15562	542084	-138.697	1.03184	-605.688	0.0435256	0.357966	1.03299	0.34851	0.655882	3	45.5	0.0661098	39171	
-14759.6	315674	-141.001	1.79882	-583.077	0.114178	0.340677	1.03299	0.34851	0.655882	3	45.5	0.100702	39175	
-24641	536199	-373.646	2.52002	-995.68	0.691909	0.450306	1.03299	0.34851	0.655882	3	45.5	0.152055	39176	
-17324.3	580150	-429.412	2.82992	-1150.69	0.812073	0.455169	0.993198	0.349787	0.651995	0.0001	91	0.152055	39176	
-17324.3	580150	-429.412	2.82992	-1150.69	0.812073	0.455169	0.993198	0.349787	0.651995	3	91	0.152055	39176	
-10943.5	286622	-289.438	2.56412	-607.63	0.066497	0.411818	0.993198	0.349787	0.651995	3	91	0.183711	39178	
-7092.34	16772.1	-48.85	3.93657	-708.938	0.0168354	0.181092	0.993198	0.349787	0.651995	0.0001	91	0.0411448	39179	
-7092.34	16772.1	-48.85	3.93657	-708.938	0.0168354	0.181092	0.993198	0.349787	0.651995	3	91	0.0411448	39179	
-9020.96	172297	-262.939	3.12937	-759.325	0.563294	0.339227	1.03299	0.34851	0.655882	0.0001	45.5	0.203713	39180	
-9020.96	172297	-262.939	3.12937	-759.325	0.563294	0.339227	1.03299	0.34851	0.655882	3	45.5	0.203713	39180	
-5864.5	190667	-310.869	3.5194	-863.043	0.671525	0.352836	0.993198	0.349787	0.651995	0.0001	91	0.203713	39180	
-5864.5	190667	-310.869	3.5194	-863.043	0.671525	0.352836	0.993198	0.349787	0.651995	3	91	0.203713	39180	
-1602.05	215615	-372.787	4.01041	-1006.13	0.820755	0.38813	0.958125	0.351078	0.648177	0.0001	182	0.203713	39180	
-1602.05	215615	-372.787	4.01041	-1006.13	0.820755	0.38813	0.958125	0.351078	0.648177	3	182	0.203713	39180	
-33885.4	769893	-376.038	2.48334	-995.933	0.0920467	0.419016	1.03299	0.34851	0.655882	3	45.5	0.126399	39181	
-24442.1	793993	-428.93	2.68961	-1040.55	0.123207	0.419176	0.993198	0.349787	0.651995	3	91	0.126399	39181	
-7956.2	134214	-137.497	3.4801	-1142.34	0.72054	0.232872	0.993198	0.349787	0.651995	3	91	0.111268	39182	
-16615.4	527550	-210.509	1.40584	-885.207	0.0387417	0.392733	1.03299	0.34851	0.655882	3	45.5	0.102201	39183	
-22876.8	384689	-62.4743	2.84082	-675.942	0.0174361	0.207788	1.03299	0.34851	0.655882	0.0001	45.5	0.0437533	39185	
-22876.8	384689	-62.4743	2.84082	-675.942	0.0174361	0.207788	1.03299	0.34851	0.655882	3	45.5	0.0437533	39185	
-18271.8	392583	-85.6363	3.06779	-685.58	0.0559292	0.202256	0.993198	0.349787	0.651995	0.0001	91	0.0437533	39185	
-18271.8	392583	-85.6363	3.06779	-685.58	0.0559292	0.202256	0.993198	0.349787	0.651995	3	91	0.0437533	39185	
-12914.9	291836	-200.402	1.49546	-570.532	0.592565	0.408509	1.03299	0.34851	0.655882	3	45.5	0.143547	39186	
-24546.8	582393	-293.329	3.72	-952.06	0.0976129	0.234679	0.993198	0.349787	0.651995	0.0001	91	0.103829	39188	
-24546.8	582393	-293.329	3.72	-952.06	0.0976129	0.234679	0.993198	0.349787	0.651995	3	91	0.103829	39188	
-19203.8	588899	-298.537	1.43659	-693.761	0.104405	0.452666	1.03299	0.34851	0.655882	3	45.5	0.127309	39189	
-8872.64	126937	-89.6879	3.78035	-1178.63	0.0665873	0.19063	0.993198	0.349787	0.651995	0.0001	91	0.0809498	39192	
-8872.64	126937	-89.6879	3.78035	-1178.63	0.0665873	0.19063	0.993198	0.349787	0.651995	3	91	0.0809498	39192	
-21891.8	902075	-320.223	1.06802	-821.038	0.490711	0.428239	1.03299	0.34851	0.655882	3	45.5	0.0856135	39193	
-23399.9	627894	-267.94	1.76293	-827.848	0.640452	0.389219	1.03299	0.34851	0.655882	3	45.5	0.0983459	39194	
-18377.3	410742	-173.851	3.97948	-1176.01	0.0135803	0.159852	0.993198	0.349787	0.651995	0.0001	91	0.0802653	39196	
-18377.3	410742	-173.851	3.97948	-1176.01	0.0135803	0.159852	0.993198	0.349787	0.651995	3	91	0.0802653	39196	
-26626	570653	-162.537	2.29124	-980.76	0.763	0.284748	1.03299	0.34851	0.655882	3	45.5	0.0670602	39199	
-20642.8	615460	-197.026	2.56049	-1129.81	0.896967	0.271158	0.993198	0.349787	0.651995	3	91	0.0670602	39199	
-11938.7	340408	-292.91	1.16845	-701.745	0.0101344	0.552528	1.03299	0.34851	0.655882	3	45.5	0.212967	39201	
-6969.36	362007	-341.777	1.30074	-726.115	0.0235997	0.534529	0.958125	0.351078	0.648177	0.0001	182	0.212967	39201	
-25331.3	751131	-252.475	1.58097	-655.371	-0.00115685	0.385928	1.03299	0.34851	0.655882	3	45.5	0.0881191	39202	
-10480.9	106619	-43.8076	2.60516	-737.279	-0.0173276	0.252872	1.03299	0.34851	0.655882	0.0001	45.5	0.0681359	39203	
-10480.9	106619	-43.8076	2.60516	-737.279	-0.0173276	0.252872	1.03299	0.34851	0.655882	3	45.5	0.0681359	39203	
-9378.4	115770	-65.2082	2.79851	-740.951	0.0147	0.243659	0.993198	0.349787	0.651995	0.0001	91	0.0681359	39203	
-12845.4	192937	-15.1483	3.71791	-886.277	0.0922416	0.154109	0.993198	0.349787	0.651995	3	91	0.0219618	39205	
-28102.1	568191	-234.042	2.80188	-998.319	-0.0364134	0.299964	1.03299	0.34851	0.655882	0.0001	45.5	0.105024	39208	
-28102.1	568191	-234.042	2.80188	-998.319	-0.0364134	0.299964	1.03299	0.34851	0.655882	3	45.5	0.105024	39208	
-20789.4	585305	-279.397	3.02237	-1015.08	0.000840392	0.299209	0.993198	0.349787	0.651995	3	91	0.105024	39208	
-21630.6	652160	-342.784	1.54577	-754.241	0.148268	0.476641	1.03299	0.34851	0.655882	3	45.5	0.132081	39210	
-13774.9	363141	-115.749	1.26008	-609.008	0.202503	0.348733	1.03299	0.34851	0.655882	3	45.5	0.0770737	39212	
-19826.9	612995	-82.6167	1.26509	-750.521	0.634621	0.32187	1.03299	0.34851	0.655882	3	45.5	0.0339232	39213	
-16880.3	272995	-316.966	3.33014	-574.663	0.801335	0.31971	1.03299	0.34851	0.655882	0.0001	45.5	0.172916	39214	
-16880.3	272995	-316.966	3.33014	-574.663	0.801335	0.31971	1.03299	0.34851	0.655882	3	45.5	0.172916	39214	
-11810.9	294387	-367.094	3.81373	-695.372	0.981566	0.339527	0.993198	0.349787	0.651995	0.0001	91	0.172916	39214	
-11810.9	294387	-367.094	3.81373	-695.372	0.981566	0.339527	0.993198	0.349787	0.651995	3	91	0.172916	39214	
-5039.08	325302	-434.38	4.45749	-875.535	1.25051	0.38691	0.958125	0.351078	0.648177	0.0001	182	0.172916	39214	
-5039.08	325302	-434.38	4.45749	-875.535	1.25051	0.38691	0.958125	0.351078	0.648177	3	182	0.172916	39214	
-17906.7	376288	-274.287	2.34697	-831.735	0.757642	0.39455	1.03299	0.34851	0.655882	3	45.5	0.146849	39215	
-13315.3	408204	-314.947	2.63289	-967.524	0.891578	0.390428	0.993198	0.349787	0.651995	0.0001	91	0.146849	39215	
-13315.3	408204	-314.947	2.63289	-967.524	0.891578	0.390428	0.993198	0.349787	0.651995	3	91	0.146849	39215	
-24063.1	553300	-334.651	3.82844	-815.635	0.0033278	0.261348	0.993198	0.349787	0.651995	0.0001	91	0.121796	39216	
-24063.1	553300	-334.651	3.82844	-815.635	0.0033278	0.261348	0.993198	0.349787	0.651995	3	91	0.121796	39216	
-23939.8	542158	-3.63692	2.99547	-1157.52	0.00404452	0.184064	0.993198	0.349787	0.651995	3	91	0.00783514	39218	
-14035.7	333709	-226.622	1.86515	-897.519	0.495562	0.410565	1.03299	0.34851	0.655882	3	45.5	0.147731	39222	
-12359.3	721617	-332.173	0.425908	-616.639	0.316471	0.478753	1.03299	0.34851	0.655882	3	45.5	0.113265	39225	
-18128.1	485156	-233.823	1.9196	-1064.47	0.186021	0.390175	1.03299	0.34851	0.655882	3	45.5	0.118376	39226	
-9211.21	157762	-188.453	1.82983	-643.349	-0.0152631	0.431642	1.03299	0.34851	0.655882	3	45.5	0.225487	39227	
-30503.6	683867	4.65616	1.99396	-917.088	0.34728	0.262288	1.03299	0.34851	0.655882	0.0001	45.5	0.00674899	39228	
-30503.6	683867	4.65616	1.99396	-917.088	0.34728	0.262288	1.03299	0.34851	0.655882	3	45.5	0.00674899	39228	
-25827.8	823133	-445.837	1.30412	-614.308	0.220174	0.548343	1.03299	0.34851	0.655882	3	45.5	0.135661	39231	
-9535.93	472917	-407.524	0.545779	-1007.48	0.00318289	0.690564	1.03299	0.34851	0.655882	3	45.5	0.230185	39232	
-22207.7	378427	-63.7379	2.90977	-1031.05	-0.0402194	0.210692	1.03299	0.34851	0.655882	0.0001	45.5	0.0517696	39236	
-22207.7	378427	-63.7379	2.90977	-1031.05	-0.0402194	0.210692	1.03299	0.34851	0.655882	3	45.5	0.0517696	39236	
-18855.5	514829	-337.378	2.13536	-1160.51	0.0355273	0.485947	1.03299	0.34851	0.655882	3	45.5	0.162927	39238	
-13068.1	542009	-385.242	2.29434	-1190.14	0.0573871	0.483767	0.993198	0.349787	0.651995	0.0001	91	0.162927	39238	
-26692.7	761636	9.16007	1.47859	-1022.36	0.16139	0.299854	1.03299	0.34851	0.655882	3	45.5	0.00382823	39239	
-12882	417270	-144.842	0.965323	-667.278	0.186094	0.373308	1.03299	0.34851	0.655882	3	45.5	0.086022	39240	
-31486.6	885410	-363.076	1.78381	-831.504	0.257813	0.432112	1.03299	0.34851	0.655882	3	45.5	0.104295	39241	
-19077.3	418783	-66.237	3.20901	-1040.31	0.107814	0.184815	0.993198	0.349787	0.651995	0.0001	91	0.0355872	39243	
-19077.3	418783	-66.237	3.20901	-1040.31	0.107814	0.184815	0.993198	0.349787	0.651995	3	91	0.0355872	39243	
-14123.1	467278	-399.14	1.51762	-1059.45	-0.0093908	0.638294	1.03299	0.34851	0.655882	3	45.5	0.216926	39244	
-4395.84	514394	-484.392	1.71855	-1097.59	0.013569	0.64893	0.958125	0.351078	0.648177	3	182	0.216926	39244	
-27804.7	720647	-360.588	2.11046	-1029.39	0.282279	0.443265	1.03299	0.34851	0.655882	3	45.5	0.1248	39245	
-20100.9	753833	-407.227	2.29482	-1102.04	0.317737	0.43708	0.993198	0.349787	0.651995	3	91	0.1248	39245	
-10740.1	793308	-461.492	2.50432	-1190.76	0.361126	0.440823	0.958125	0.351078	0.648177	3	182	0.1248	39245	
-17001.3	482719	-243.737	2.6923	-950.707	0.673495	0.308431	0.993198	0.349787	0.651995	0.0001	91	0.100838	39246	
-8770.56	135119	-164.725	2.69675	-948.436	0.278902	0.326157	1.03299	0.34851	0.655882	3	45.5	0.177854	39247	
-34695.1	608403	-423.016	2.90546	-682.115	0.702591	0.411729	1.03299	0.34851	0.655882	0.0001	45.5	0.147244	39248	
-34695.1	608403	-423.016	2.90546	-682.115	0.702591	0.411729	1.03299	0.34851	0.655882	3	45.5	0.147244	39248	
-19799.8	755546	-183.441	1.08313	-811.633	0.646143	0.360533	1.03299	0.34851	0.655882	3	45.5	0.0574421	39250	
-34558.5	684162	-64.3065	2.52941	-926.781	0.168034	0.222862	1.03299	0.34851	0.655882	3	45.5	0.0311286	39253	
-13125.3	456032	-375.494	0.937944	-743.184	0.652926	0.594075	1.03299	0.34851	0.655882	3	45.5	0.190131	39255	
-21018.9	628808	-352.141	1.81789	-1041.74	0.00810513	0.488829	1.03299	0.34851	0.655882	3	45.5	0.14437	39256	
-19503.3	630536	-326.453	1.36301	-699.197	-0.000350462	0.477897	1.03299	0.34851	0.655882	3	45.5	0.133339	39257	
-17726.6	362002	-389.041	2.75187	-822.488	0.542511	0.510676	1.03299	0.34851	0.655882	3	45.5	0.211697	39259	
-11873.6	389394	-445.859	3.0823	-935.802	0.634181	0.527186	0.993198	0.349787	0.651995	0.0001	91	0.211697	39259	
-4238.95	425700	-517.074	3.49003	-1087.86	0.757414	0.561661	0.958125	0.351078	0.648177	0.0001	182	0.211697	39259	
-4238.95	425700	-517.074	3.49003	-1087.86	0.757414	0.561661	0.958125	0.351078	0.648177	3	182	0.211697	39259	
-19590.6	340412	-263.507	3.19269	-741.502	0.141936	0.31081	1.03299	0.34851	0.655882	0.0001	45.5	0.151694	39260	
-19590.6	340412	-263.507	3.19269	-741.502	0.141936	0.31081	1.03299	0.34851	0.655882	3	45.5	0.151694	39260	
-14217	354153	-310.207	3.5061	-787.002	0.195573	0.323177	0.993198	0.349787	0.651995	3	91	0.151694	39260	
-18491.8	338210	-198.24	3.04325	-1074.25	0.292515	0.278161	1.03299	0.34851	0.655882	0.0001	45.5	0.123733	39261	
-18491.8	338210	-198.24	3.04325	-1074.25	0.292515	0.278161	1.03299	0.34851	0.655882	3	45.5	0.123733	39261	
-13527.9	365793	-247.455	3.35724	-1149.5	0.353806	0.283842	0.993198	0.349787	0.651995	0.0001	91	0.123733	39261	
-13527.9	365793	-247.455	3.35724	-1149.5	0.353806	0.283842	0.993198	0.349787	0.651995	3	91	0.123733	39261	
-12872.9	489369	-496.224	2.85834	-1117.89	0.32396	0.603791	0.993198	0.349787	0.651995	3	91	0.213654	39263	
-13938.5	411876	-160.215	1.35402	-957.26	0.150779	0.372683	1.03299	0.34851	0.655882	3	45.5	0.0968601	39266	
-20137.1	715793	-247.112	1.40128	-1014.59	-0.00827452	0.398648	1.03299	0.34851	0.655882	3	45.5	0.0917363	39267	
-15962.2	493785	-39.3094	3.60981	-1050.36	0.0563066	0.172891	0.958125	0.351078	0.648177	0.0001	182	0.0090831	39268	
-15962.2	493785	-39.3094	3.60981	-1050.36	0.0563066	0.172891	0.958125	0.351078	0.648177	3	182	0.0090831	39268	
-15133	640594	-160.991	0.860865	-736.932	0.0667962	0.368872	1.03299	0.34851	0.655882	3	45.5	0.0653965	39270	
-15300.2	301379	-407.612	3.30678	-735.495	0.203283	0.494422	1.03299	0.34851	0.655882	0.0001	45.5	0.241789	39271	
-15300.2	301379	-407.612	3.30678	-735.495	0.203283	0.494422	1.03299	0.34851	0.655882	3	45.5	0.241789	39271	
-9262.51	318174	-471.634	3.67135	-804.111	0.265219	0.526183	0.993198	0.349787	0.651995	0.0001	91	0.241789	39271	
-9262.51	318174	-471.634	3.67135	-804.111	0.265219	0.526183	0.993198	0.349787	0.651995	3	91	0.241789	39271	
-1535.35	340284	-550.942	4.11737	-897.184	0.346258	0.580548	0.958125	0.351078	0.648177	0.0001	182	0.241789	39271	
-1535.35	340284	-550.942	4.11737	-897.184	0.346258	0.580548	0.958125	0.351078	0.648177	3	182	0.241789	39271	
-29781.8	868438	-196.445	1.66548	-739.428	0.0118631	0.339795	1.03299	0.34851	0.655882	3	45.5	0.0612845	39272	
-29721.7	500650	-253.046	3.15593	-594.479	0.125894	0.260655	1.03299	0.34851	0.655882	0.0001	45.5	0.112363	39274	
-29721.7	500650	-253.046	3.15593	-594.479	0.125894	0.260655	1.03299	0.34851	0.655882	3	45.5	0.112363	39274	
-36422	646384	-430.657	2.97892	-587.41	-0.0389674	0.445014	1.03299	0.34851	0.655882	3	45.5	0.161721	39275	
-26664.1	654127	-485.656	3.2374	-623.12	0.00345294	0.460911	0.993198	0.349787	0.651995	0.0001	91	0.161721	39275	
-23193.1	409119	-371.041	3.15407	-744.648	0.569503	0.396559	1.03299	0.34851	0.655882	0.0001	45.5	0.175075	39276	
-23193.1	409119	-371.041	3.15407	-744.648	0.569503	0.396559	1.03299	0.34851	0.655882	3	45.5	0.175075	39276	
-16153.7	435812	-429.373	3.55604	-858.556	0.680052	0.415553	0.993198	0.349787	0.651995	0.0001	91	0.175075	39276	
-16153.7	435812	-429.373	3.55604	-858.556	0.680052	0.415553	0.993198	0.349787	0.651995	3	91	0.175075	39276	
-7011.6	472127	-504.346	4.0646	-1016.39	0.833226	0.457214	0.958125	0.351078	0.648177	0.0001	182	0.175075	39276	
-7011.6	472127	-504.346	4.0646	-1016.39	0.833226	0.457214	0.958125	0.351078	0.648177	3	182	0.175075	39276	
-19527.2	482277	-51.0956	1.77893	-1127.7	-0.010216	0.295125	1.03299	0.34851	0.655882	3	45.5	0.0362117	39277	
-16046.5	315201	-418.069	2.65424	-632.318	0.756802	0.55919	1.03299	0.34851	0.655882	0.0001	45.5	0.235386	39278	
-16046.5	315201	-418.069	2.65424	-632.318	0.756802	0.55919	1.03299	0.34851	0.655882	3	45.5	0.235386	39278	
-10693.7	340622	-471.794	3.00985	-755.59	0.899536	0.578136	0.993198	0.349787	0.651995	0.0001	91	0.235386	39278	
-10693.7	340622	-471.794	3.00985	-755.59	0.899536	0.578136	0.993198	0.349787	0.651995	3	91	0.235386	39278	
-3623.1	375790	-540.132	3.46427	-930.617	1.10213	0.615972	0.958125	0.351078	0.648177	0.0001	182	0.235386	39278	
-3623.1	375790	-540.132	3.46427	-930.617	1.10213	0.615972	0.958125	0.351078	0.648177	3	182	0.235386	39278	
-14244.1	416227	-85.4829	1.26819	-1043.7	0.00788235	0.334941	1.03299	0.34851	0.655882	3	45.5	0.0563811	39279	
-29658.8	660676	-193.631	3.34737	-610.482	-9.62433e-05	0.194642	0.993198	0.349787	0.651995	0.0001	91	0.064125	39280	
-29658.8	660676	-193.631	3.34737	-610.482	-9.62433e-05	0.194642	0.993198	0.349787	0.651995	3	91	0.064125	39280	
-19027.2	651991	-111.594	1.30226	-1130.81	0.0976147	0.33364	1.03299	0.34851	0.655882	3	45.5	0.0477442	39282	
-16696	321405	-174.297	2.77431	-1109.29	0.0831566	0.298192	1.03299	0.34851	0.655882	3	45.5	0.120693	39283	
-20170.2	413319	-26.2016	3.21806	-817.994	0.731602	0.173464	0.993198	0.349787	0.651995	3	91	0.0153187	39284	
-10932.9	204619	-252.561	3.61227	-975.234	-0.00467006	0.289435	1.03299	0.34851	0.655882	0.0001	45.5	0.189807	39285	
-10932.9	204619	-252.561	3.61227	-975.234	-0.00467006	0.289435	1.03299	0.34851	0.655882	3	45.5	0.189807	39285	
-6919.59	222911	-311.357	3.96617	-1007.35	0.0583802	0.3145	0.993198	0.349787	0.651995	0.0001	91	0.189807	39285	
-6919.59	222911	-311.357	3.96617	-1007.35	0.0583802	0.3145	0.993198	0.349787	0.651995	3	91	0.189807	39285	
-1695.2	244595	-383.155	4.39687	-1061.15	0.136452	0.362147	0.958125	0.351078	0.648177	0.0001	182	0.189807	39285	
-1695.2	244595	-383.155	4.39687	-1061.15	0.136452	0.362147	0.958125	0.351078	0.648177	3	182	0.189807	39285	
-11030.2	301833	-260.731	1.32263	-874.569	-0.00368538	0.520926	1.03299	0.34851	0.655882	3	45.5	0.210944	39286	
-18277.7	339692	-423.885	2.91507	-565.789	0.304359	0.544204	1.03299	0.34851	0.655882	0.0001	45.5	0.234862	39289	
-18277.7	339692	-423.885	2.91507	-565.789	0.304359	0.544204	1.03299	0.34851	0.655882	3	45.5	0.234862	39289	
-12316.4	354807	-478.915	3.23388	-633.752	0.363286	0.568288	0.993198	0.349787	0.651995	0.0001	91	0.234862	39289	
-12316.4	354807	-478.915	3.23388	-633.752	0.363286	0.568288	0.993198	0.349787	0.651995	3	91	0.234862	39289	
-4821.66	374601	-546.02	3.61892	-722.672	0.440023	0.611044	0.958125	0.351078	0.648177	0.0001	182	0.234862	39289	
-4821.66	374601	-546.02	3.61892	-722.672	0.440023	0.611044	0.958125	0.351078	0.648177	3	182	0.234862	39289	
-10169.3	206797	-324.458	3.22528	-607.96	-0.0501007	0.41274	1.03299	0.34851	0.655882	0.0001	45.5	0.238676	39292	
-10169.3	206797	-324.458	3.22528	-607.96	-0.0501007	0.41274	1.03299	0.34851	0.655882	3	45.5	0.238676	39292	
-6226.39	214934	-373.49	3.51715	-636.365	-0.00015995	0.433654	0.993198	0.349787	0.651995	0.0001	91	0.238676	39292	
-6226.39	214934	-373.49	3.51715	-636.365	-0.00015995	0.433654	0.993198	0.349787	0.651995	3	91	0.238676	39292	
-1355.67	225422	-431.916	3.86384	-678.421	0.0596715	0.472871	0.958125	0.351078	0.648177	0.0001	182	0.238676	39292	
-1355.67	225422	-431.916	3.86384	-678.421	0.0596715	0.472871	0.958125	0.351078	0.648177	3	182	0.238676	39292	
-29598.2	520009	-185.01	2.99269	-752.851	0.258516	0.230129	1.03299	0.34851	0.655882	0.0001	45.5	0.0834287	39293	
-29598.2	520009	-185.01	2.99269	-752.851	0.258516	0.230129	1.03299	0.34851	0.655882	3	45.5	0.0834287	39293	
-22580.7	537871	-222.461	3.28731	-804.773	0.314637	0.231007	0.993198	0.349787	0.651995	3	91	0.0834287	39293	
-10965.7	170680	-89.7784	3.39851	-670.675	0.033614	0.200632	0.993198	0.349787	0.651995	0.0001	91	0.0673352	39294	
-10965.7	170680	-89.7784	3.39851	-670.675	0.033614	0.200632	0.993198	0.349787	0.651995	3	91	0.0673352	39294	
-32970.2	570519	-433.313	3.17681	-714.426	0.254857	0.433071	1.03299	0.34851	0.655882	0.0001	45.5	0.169838	39295	
-32970.2	570519	-433.313	3.17681	-714.426	0.254857	0.433071	1.03299	0.34851	0.655882	3	45.5	0.169838	39295	
-18468.2	357197	-313.019	2.57568	-629.807	0.410356	0.423684	1.03299	0.34851	0.655882	3	45.5	0.174488	39296	
-13615.2	374605	-354.274	2.84563	-699.816	0.473269	0.427195	0.993198	0.349787	0.651995	0.0001	91	0.174488	39296	
-13615.2	374605	-354.274	2.84563	-699.816	0.473269	0.427195	0.993198	0.349787	0.651995	3	91	0.174488	39296	
-3372.19	17107.9	-142.131	3.56154	-629.028	-0.00565125	0.182589	1.03299	0.34851	0.655882	3	45.5	0.014351	39297	
-2880.93	24504.1	-176.986	3.8945	-647.071	0.0553764	0.198837	0.993198	0.349787	0.651995	3	91	0.014351	39297	
-2077.97	32830	-219.179	4.29625	-677.942	0.130205	0.236033	0.958125	0.351078	0.648177	0.0001	182	0.014351	39297	
-2077.97	32830	-219.179	4.29625	-677.942	0.130205	0.236033	0.958125	0.351078	0.648177	3	182	0.014351	39297	
-304.168	46424	-291.741	4.98619	-747.551	0.262464	0.324854	0.9175	0.352806	0.64323	0.0001	455	0.014351	39297	
-304.168	46424	-291.741	4.98619	-747.551	0.262464	0.324854	0.9175	0.352806	0.64323	3	455	0.014351	39297	
-18445.3	321997	-271.011	3.1897	-674.451	-0.0467001	0.326843	1.03299	0.34851	0.655882	0.0001	45.5	0.163578	39298	
-18445.3	321997	-271.011	3.1897	-674.451	-0.0467001	0.326843	1.03299	0.34851	0.655882	3	45.5	0.163578	39298	
-13355.2	330424	-315.889	3.46809	-697.651	0.00198103	0.339766	0.993198	0.349787	0.651995	0.0001	91	0.163578	39298	
-25964.5	485961	-251.511	2.92718	-930.967	0.458858	0.294906	1.03299	0.34851	0.655882	0.0001	45.5	0.114783	39299	
-25964.5	485961	-251.511	2.92718	-930.967	0.458858	0.294906	1.03299	0.34851	0.655882	3	45.5	0.114783	39299	
-19098.1	516016	-299.968	3.25427	-1030.38	0.539902	0.298592	0.993198	0.349787	0.651995	0.0001	91	0.114783	39299	
-19098.1	516016	-299.968	3.25427	-1030.38	0.539902	0.298592	0.993198	0.349787	0.651995	3	91	0.114783	39299	
-23172.8	893533	-302.027	1.2381	-920.011	0.292921	0.417272	1.03299	0.34851	0.655882	3	45.5	0.0853717	39301	
-32407.5	756153	-47.1177	1.92984	-783.629	0.618498	0.267982	1.03299	0.34851	0.655882	3	45.5	0.01939	39302	
-14752.2	460517	-56.4007	1.00822	-778.311	0.674106	0.329442	1.03299	0.34851	0.655882	3	45.5	0.0312184	39303	
-19858.3	632615	-85.1268	1.32443	-1053.4	0.412912	0.322193	1.03299	0.34851	0.655882	3	45.5	0.0369716	39304	
-8409.89	135652	-190.124	2.6729	-753.7	0.243583	0.342062	1.03299	0.34851	0.655882	0.0001	45.5	0.193643	39305	
-8409.89	135652	-190.124	2.6729	-753.7	0.243583	0.342062	1.03299	0.34851	0.655882	3	45.5	0.193643	39305	
-6490.34	148621	-224.894	2.92403	-801.573	0.289074	0.341361	0.993198	0.349787	0.651995	3	91	0.193643	39305	
-3991.4	164130	-266.621	3.21719	-863.003	0.346257	0.354487	0.958125	0.351078	0.648177	0.0001	182	0.193643	39305	
-3991.4	164130	-266.621	3.21719	-863.003	0.346257	0.354487	0.958125	0.351078	0.648177	3	182	0.193643	39305	
-3353.68	98872.8	-216.339	3.72763	-1097.66	0.67172	0.309367	0.9175	0.352806	0.64323	0.0001	455	0.121378	39308	
-3353.68	98872.8	-216.339	3.72763	-1097.66	0.67172	0.309367	0.9175	0.352806	0.64323	3	455	0.121378	39308	
-16000.9	443333	-189.695	1.64596	-936.811	-0.00889598	0.377887	1.03299	0.34851	0.655882	3	45.5	0.108065	39312	
-26082.6	612335	-165.277	3.30173	-896.712	0.108203	0.193001	0.993198	0.349787	0.651995	3	91	0.058869	39313	
-9131.52	160655	-228.941	3.46641	-885.407	0.63446	0.258889	1.03299	0.34851	0.655882	0.0001	45.5	0.174658	39316	
-9131.52	160655	-228.941	3.46641	-885.407	0.63446	0.258889	1.03299	0.34851	0.655882	3	45.5	0.174658	39316	
-5969.28	183391	-282.488	3.93357	-1015.05	0.77187	0.278749	0.993198	0.349787	0.651995	0.0001	91	0.174658	39316	
-5969.28	183391	-282.488	3.93357	-1015.05	0.77187	0.278749	0.993198	0.349787	0.651995	3	91	0.174658	39316	
-1494.34	215307	-354.485	4.54025	-1201.29	0.968717	0.325864	0.958125	0.351078	0.648177	0.0001	182	0.174658	39316	
-1494.34	215307	-354.485	4.54025	-1201.29	0.968717	0.325864	0.958125	0.351078	0.648177	3	182	0.174658	39316	
-22822.6	425450	-251.466	3.13234	-982.917	-0.0351827	0.308051	1.03299	0.34851	0.655882	0.0001	45.5	0.134896	39317	
-22822.6	425450	-251.466	3.13234	-982.917	-0.0351827	0.308051	1.03299	0.34851	0.655882	3	45.5	0.134896	39317	
-16445.4	442692	-302.956	3.40213	-1004.79	0.0116576	0.317783	0.993198	0.349787	0.651995	0.0001	91	0.134896	39317	
-16445.4	442692	-302.956	3.40213	-1004.79	0.0116576	0.317783	0.993198	0.349787	0.651995	3	91	0.134896	39317	
-15773.6	503759	-306.106	1.43108	-883.346	0.0511463	0.488781	1.03299	0.34851	0.655882	3	45.5	0.153008	39319	
-10573.8	133547	-73.5324	2.45133	-996.649	0.0787148	0.282323	1.03299	0.34851	0.655882	3	45.5	0.0999204	39320	
-9160.81	151725	-102.116	2.64123	-1017.35	0.108533	0.271336	0.993198	0.349787	0.651995	0.0001	91	0.0999204	39320	
-9160.81	151725	-102.116	2.64123	-1017.35	0.108533	0.271336	0.993198	0.349787	0.651995	3	91	0.0999204	39320	
-10687.8	494161	-355.72	0.905852	-1136.96	-0.00222396	0.584528	1.03299	0.34851	0.655882	3	45.5	0.187265	39321	
-8195.55	97270.9	-104.466	3.00129	-730.167	0.542556	0.246645	0.993198	0.349787	0.651995	3	91	0.0954523	39323	
-26606.2	888716	-411.865	2.04629	-637.091	0.129851	0.42472	0.993198	0.349787	0.651995	3	91	0.110847	39324	
-14557.5	942561	-455.898	0.625536	-987.526	0.346168	0.541016	1.03299	0.34851	0.655882	3	45.5	0.119169	39325	
-10298.9	982632	-481.876	0.665479	-1053.02	0.368134	0.523403	0.993198	0.349787	0.651995	3	91	0.119169	39325	
-36957	974954	-230.454	1.89622	-684.872	-0.015879	0.330367	1.03299	0.34851	0.655882	3	45.5	0.0647599	39328	
-13630.1	329255	-87.4064	1.38621	-662.133	-0.00201884	0.332712	1.03299	0.34851	0.655882	3	45.5	0.066831	39330	
-6706.07	153490	-259.657	3.60701	-1044.85	-0.0526494	0.31635	1.03299	0.34851	0.655882	0.0001	45.5	0.222874	39331	
-6706.07	153490	-259.657	3.60701	-1044.85	-0.0526494	0.31635	1.03299	0.34851	0.655882	3	45.5	0.222874	39331	
-3389.89	174019	-321.519	3.95263	-1070.01	0.0100643	0.343008	0.993198	0.349787	0.651995	0.0001	91	0.222874	39331	
-3389.89	174019	-321.519	3.95263	-1070.01	0.0100643	0.343008	0.993198	0.349787	0.651995	3	91	0.222874	39331	
1091.99	197573	-396.627	4.37247	-1117.36	0.0863387	0.391977	0.958125	0.351078	0.648177	0.0001	182	0.222874	39331	
1091.99	197573	-396.627	4.37247	-1117.36	0.0863387	0.391977	0.958125	0.351078	0.648177	3	182	0.222874	39331	
-21861	500695	-89.9048	3.20634	-1061.43	0.685673	0.182981	0.993198	0.349787	0.651995	3	91	0.0375886	39332	
-12875.7	190443	-130.901	3.3782	-1024.73	-0.0335422	0.215868	1.03299	0.34851	0.655882	0.0001	45.5	0.118076	39333	
-9851.67	208711	-175.836	3.67815	-1037.81	0.0210528	0.227555	0.993198	0.349787	0.651995	0.0001	91	0.118076	39333	
-36856.2	777965	-54.6716	2.33437	-802.651	0.0892745	0.237017	1.03299	0.34851	0.655882	0.0001	45.5	0.0239444	39334	
-36856.2	777965	-54.6716	2.33437	-802.651	0.0892745	0.237017	1.03299	0.34851	0.655882	3	45.5	0.0239444	39334	
-16396.1	393324	-448.41	1.8492	-723.748	0.617876	0.686842	1.03299	0.34851	0.655882	3	45.5	0.24459	39335	
-11471.4	421405	-494.743	2.05375	-828.631	0.703233	0.700157	0.993198	0.349787	0.651995	0.0001	91	0.24459	39335	
-11471.4	421405	-494.743	2.05375	-828.631	0.703233	0.700157	0.993198	0.349787	0.651995	3	91	0.24459	39335	
-5190.86	457407	-549.773	2.29854	-965.508	0.814506	0.72463	0.958125	0.351078	0.648177	0.0001	182	0.24459	39335	
-14274.3	817108	-181.815	0.666078	-941.599	-0.00146607	0.374669	1.03299	0.34851	0.655882	3	45.5	0.0588008	39337	
-36289.4	868105	-282.546	2.23386	-888.295	0.0437812	0.345611	1.03299	0.34851	0.655882	0.0001	45.5	0.087454	39339	
-36289.4	868105	-282.546	2.23386	-888.295	0.0437812	0.345611	1.03299	0.34851	0.655882	3	45.5	0.087454	39339	
-27443.2	885218	-321.142	2.3964	-914.584	0.0677848	0.333985	0.993198	0.349787	0.651995	3	91	0.087454	39339	
-24964.6	495149	-375.68	3.08022	-1013.61	0.0955774	0.434696	1.03299	0.34851	0.655882	3	45.5	0.174187	39341	
-16953.7	519010	-440.152	3.37804	-1067.74	0.143524	0.453182	0.993198	0.349787	0.651995	0.0001	91	0.174187	39341	
-16953.7	519010	-440.152	3.37804	-1067.74	0.143524	0.453182	0.993198	0.349787	0.651995	3	91	0.174187	39341	
-15073.2	355866	-306.867	2.02354	-759.814	0.00885329	0.500537	1.03299	0.34851	0.655882	3	45.5	0.197456	39343	
-11229.3	367977	-342.976	2.16727	-779.957	0.0281715	0.497333	0.993198	0.349787	0.651995	0.0001	91	0.197456	39343	
-11229.3	367977	-342.976	2.16727	-779.957	0.0281715	0.497333	0.993198	0.349787	0.651995	3	91	0.197456	39343	
-13842.1	457284	-369.532	0.887725	-594.455	0.654837	0.581926	1.03299	0.34851	0.655882	3	45.5	0.184599	39344	
-10962.6	314899	-214.872	1.25593	-986.739	0.0246562	0.455415	1.03299	0.34851	0.655882	3	45.5	0.167483	39345	
-1947.21	61901.4	-237.868	3.92915	-1018.17	0.0842975	0.294185	0.958125	0.351078	0.648177	0.0001	182	0.142778	39346	
-1947.21	61901.4	-237.868	3.92915	-1018.17	0.0842975	0.294185	0.958125	0.351078	0.648177	3	182	0.142778	39346	
792.362	89978.3	-324.84	4.5058	-1088.88	0.190983	0.365439	0.9175	0.352806	0.64323	0.0001	455	0.142778	39346	
792.362	89978.3	-324.84	4.5058	-1088.88	0.190983	0.365439	0.9175	0.352806	0.64323	3	455	0.142778	39346	
-12295	415178	-352.275	0.873707	-682.297	0.111407	0.612513	1.03299	0.34851	0.655882	3	45.5	0.214758	39348	
-22068.8	795352	-450.685	1.13062	-699.871	0.256763	0.564963	1.03299	0.34851	0.655882	3	45.5	0.141601	39350	
-9946.51	251088	-213.569	1.25741	-988.911	0.391951	0.475045	1.03299	0.34851	0.655882	3	45.5	0.196283	39351	
-12362.5	337591	-235.142	1.56633	-976.816	-0.0111111	0.455481	1.03299	0.34851	0.655882	3	45.5	0.168553	39352	
-11655	223812	-263.613	2.7143	-693.979	-0.02019	0.409677	1.03299	0.34851	0.655882	0.0001	45.5	0.210235	39353	
-11655	223812	-263.613	2.7143	-693.979	-0.02019	0.409677	1.03299	0.34851	0.655882	3	45.5	0.210235	39353	
-8409.17	233377	-303.163	2.93442	-714.686	0.014802	0.41493	0.993198	0.349787	0.651995	0.0001	91	0.210235	39353	
-8409.17	233377	-303.163	2.93442	-714.686	0.014802	0.41493	0.993198	0.349787	0.651995	3	91	0.210235	39353	
-4446.88	244664	-349.021	3.18696	-744.951	0.0560751	0.433324	0.958125	0.351078	0.648177	0.0001	182	0.210235	39353	
-4446.88	244664	-349.021	3.18696	-744.951	0.0560751	0.433324	0.958125	0.351078	0.648177	3	182	0.210235	39353	
-14687.3	171910	-5.58782	3.35371	-894.274	0.0748404	0.155793	1.03299	0.34851	0.655882	3	45.5	0.0340356	39355	
-12223.6	186322	-34.9978	3.66524	-910.627	0.130483	0.163456	0.993198	0.349787	0.651995	0.0001	91	0.0340356	39355	
-12223.6	186322	-34.9978	3.66524	-910.627	0.130483	0.163456	0.993198	0.349787	0.651995	3	91	0.0340356	39355	
-13841.7	389508	-345.748	1.68077	-924.546	0.111125	0.575724	1.03299	0.34851	0.655882	3	45.5	0.213235	39356	
-5381.44	431963	-425.065	1.93465	-999.747	0.144876	0.57907	0.958125	0.351078	0.648177	0.0001	182	0.213235	39356	
-21906.7	621127	-77.2901	1.56412	-866.45	0.0105584	0.309269	1.03299	0.34851	0.655882	3	45.5	0.0366584	39358	
-17476.5	559073	-261.211	1.30766	-662.03	-0.00541647	0.432283	1.03299	0.34851	0.655882	3	45.5	0.119425	39360	
-31716.2	641960	-51.3145	2.48191	-1066.89	0.0545665	0.229929	1.03299	0.34851	0.655882	0.0001	45.5	0.0301745	39361	
-31716.2	641960	-51.3145	2.48191	-1066.89	0.0545665	0.229929	1.03299	0.34851	0.655882	3	45.5	0.0301745	39361	
-19920.2	464682	-45.0514	1.79259	-656.247	0.0249339	0.289684	1.03299	0.34851	0.655882	3	45.5	0.0294209	39362	
-16377.9	193563	22.6358	3.4716	-1104.98	-0.0489624	0.138438	1.03299	0.34851	0.655882	3	45.5	0.0230168	39363	
-13462.4	213709	-11.8848	3.77563	-1100.8	0.0086886	0.14885	0.993198	0.349787	0.651995	0.0001	91	0.0230168	39363	
-13462.4	213709	-11.8848	3.77563	-1100.8	0.0086886	0.14885	0.993198	0.349787	0.651995	3	91	0.0230168	39363	
-21602.3	529847	-271.448	2.07592	-962.835	0.579921	0.390809	1.03299	0.34851	0.655882	3	45.5	0.117186	39364	
-6864.51	-37669.3	-8.84045	3.02394	-650.037	0.125722	0.24548	1.03299	0.34851	0.655882	0.0001	45.5	0.0360273	39365	
-6864.51	-37669.3	-8.84045	3.02394	-650.037	0.125722	0.24548	1.03299	0.34851	0.655882	3	45.5	0.0360273	39365	
-7509.19	-30727.3	-28.5593	3.30049	-667.036	0.173064	0.24796	0.993198	0.349787	0.651995	3	91	0.0360273	39365	
-11472.9	227770	-252.039	2.0618	-632.916	0.429107	0.451581	1.03299	0.34851	0.655882	0.0001	45.5	0.207542	39366	
-11472.9	227770	-252.039	2.0618	-632.916	0.429107	0.451581	1.03299	0.34851	0.655882	3	45.5	0.207542	39366	
-5732.04	259509	-318.695	2.48764	-774.235	0.54881	0.449089	0.958125	0.351078	0.648177	0.0001	182	0.207542	39366	
-11527.8	183197	-127.706	2.71638	-1074.55	0.0109741	0.29215	1.03299	0.34851	0.655882	3	45.5	0.129866	39367	
-14470.1	-96984.6	-46.6604	0.0724714	-617.131	0.565818	0.383931	1.03299	0.34851	0.655882	3	45.5	0.197619	39370	
-20123.7	339321	-92.4904	2.803	-746.393	0.152434	0.226518	1.03299	0.34851	0.655882	0.0001	45.5	0.0639583	39371	
-20596	463651	-122.212	3.45451	-1042.25	0.0231278	0.177457	0.993198	0.349787	0.651995	0.0001	91	0.055342	39373	
-20596	463651	-122.212	3.45451	-1042.25	0.0231278	0.177457	0.993198	0.349787	0.651995	3	91	0.055342	39373	
-8344.73	25653	-14.8862	2.64612	-814.385	0.61824	0.249354	1.03299	0.34851	0.655882	0.0001	45.5	0.0548049	39374	
-8344.73	25653	-14.8862	2.64612	-814.385	0.61824	0.249354	1.03299	0.34851	0.655882	3	45.5	0.0548049	39374	
-14492	496980	-297.578	1.15416	-767.638	0.0498983	0.491785	1.03299	0.34851	0.655882	3	45.5	0.151631	39377	
-11425.7	510362	-321.523	1.21831	-783.821	0.0565213	0.474134	0.993198	0.349787	0.651995	0.0001	91	0.151631	39377	
-16122.7	554950	-62.5836	3.29437	-893.771	0.819401	0.196234	0.958125	0.351078	0.648177	0.0001	182	0.0161435	39378	
-16122.7	554950	-62.5836	3.29437	-893.771	0.819401	0.196234	0.958125	0.351078	0.648177	3	182	0.0161435	39378	
-27495.6	505538	-403.707	3.28067	-917.533	0.169239	0.424314	1.03299	0.34851	0.655882	0.0001	45.5	0.177893	39380	
-27495.6	505538	-403.707	3.28067	-917.533	0.169239	0.424314	1.03299	0.34851	0.655882	3	45.5	0.177893	39380	
-7616.83	558711	-555.358	4.04538	-1081.71	0.303139	0.494128	0.958125	0.351078	0.648177	0.0001	182	0.177893	39380	
-7616.83	558711	-555.358	4.04538	-1081.71	0.303139	0.494128	0.958125	0.351078	0.648177	3	182	0.177893	39380	
-20945.9	469642	-62.15	1.95375	-831.213	0.233885	0.28269	1.03299	0.34851	0.655882	3	45.5	0.0382964	39381	
-33355.2	690752	-201.368	2.42384	-851.577	0.643205	0.278393	1.03299	0.34851	0.655882	0.0001	45.5	0.0694297	39382	
-33355.2	690752	-201.368	2.42384	-851.577	0.643205	0.278393	1.03299	0.34851	0.655882	3	45.5	0.0694297	39382	
-25708.4	730633	-236.976	2.69569	-965.703	0.74797	0.267406	0.993198	0.349787	0.651995	3	91	0.0694297	39382	
-38611.2	609704	-387.818	3.1556	-577.256	0.816244	0.32387	1.03299	0.34851	0.655882	0.0001	45.5	0.12879	39384	
-38611.2	609704	-387.818	3.1556	-577.256	0.816244	0.32387	1.03299	0.34851	0.655882	3	45.5	0.12879	39384	
-28708.2	647663	-442.178	3.60457	-704.995	0.994631	0.337973	0.993198	0.349787	0.651995	0.0001	91	0.12879	39384	
-28708.2	647663	-442.178	3.60457	-704.995	0.994631	0.337973	0.993198	0.349787	0.651995	3	91	0.12879	39384	
-38339.3	761285	-338.784	2.62903	-632.773	0.000934903	0.361239	1.03299	0.34851	0.655882	3	45.5	0.11408	39385	
-28948.8	769950	-381.313	2.83683	-660.392	0.0337444	0.360353	0.993198	0.349787	0.651995	0.0001	91	0.11408	39385	
-28948.8	769950	-381.313	2.83683	-660.392	0.0337444	0.360353	0.993198	0.349787	0.651995	3	91	0.11408	39385	
-25380.1	670192	-53.1602	1.72504	-1118.82	0.279326	0.293098	1.03299	0.34851	0.655882	3	45.5	0.026885	39386	
-24089.9	835894	-380.207	1.47235	-1015.08	0.283131	0.480457	1.03299	0.34851	0.655882	3	45.5	0.114537	39387	
-18944.4	359963	-16.962	2.24533	-1018.76	-0.00201983	0.257273	1.03299	0.34851	0.655882	3	45.5	0.026964	39388	
-10875.8	293294	-319.078	1.38653	-898.746	0.644843	0.596833	1.03299	0.34851	0.655882	3	45.5	0.243093	39391	
-12883.7	233389	-120.253	1.81755	-540.151	0.5991	0.328563	1.03299	0.34851	0.655882	3	45.5	0.0992297	39394	
-20383.7	528148	-214.204	1.82665	-810.891	0.256066	0.366242	1.03299	0.34851	0.655882	3	45.5	0.098812	39396	
-5650.21	33768.1	-113.624	2.94366	-585.641	0.203416	0.239698	1.03299	0.34851	0.655882	0.0001	45.5	0.0916541	39398	
-5650.21	33768.1	-113.624	2.94366	-585.641	0.203416	0.239698	1.03299	0.34851	0.655882	3	45.5	0.0916541	39398	
-5138.17	40542.1	-139.74	3.22112	-617.509	0.253259	0.239562	0.993198	0.349787	0.651995	0.0001	91	0.0916541	39398	
-5138.17	40542.1	-139.74	3.22112	-617.509	0.253259	0.239562	0.993198	0.349787	0.651995	3	91	0.0916541	39398	
-4373.93	48489.5	-171.349	3.54798	-659.926	0.316184	0.25521	0.958125	0.351078	0.648177	0.0001	182	0.0916541	39398	
-4373.93	48489.5	-171.349	3.54798	-659.926	0.316184	0.25521	0.958125	0.351078	0.648177	3	182	0.0916541	39398	
-2810.54	61785.4	-225.204	4.09062	-740.03	0.4291	0.304052	0.9175	0.352806	0.64323	0.0001	455	0.0916541	39398	
-2810.54	61785.4	-225.204	4.09062	-740.03	0.4291	0.304052	0.9175	0.352806	0.64323	3	455	0.0916541	39398	
-12354.7	150830	-16.502	2.30836	-615.862	0.776104	0.254324	1.03299	0.34851	0.655882	0.0001	45.5	0.0316482	39399	
-12354.7	150830	-16.502	2.30836	-615.862	0.776104	0.254324	1.03299	0.34851	0.655882	3	45.5	0.0316482	39399	
-24570.5	545154	-343.214	3.93389	-752.339	-5.96513e-05	0.256253	0.993198	0.349787	0.651995	0.0001	91	0.124596	39400	
-24570.5	545154	-343.214	3.93389	-752.339	-5.96513e-05	0.256253	0.993198	0.349787	0.651995	3	91	0.124596	39400	
-29251.2	698360	-228.946	3.57706	-1120.52	0.210154	0.19122	0.993198	0.349787	0.651995	0.0001	91	0.0719155	39402	
-29251.2	698360	-228.946	3.57706	-1120.52	0.210154	0.19122	0.993198	0.349787	0.651995	3	91	0.0719155	39402	
-10535.5	238286	-224.35	1.10022	-560.647	0.511722	0.489379	1.03299	0.34851	0.655882	3	45.5	0.206961	39403	
-4474.08	296260	-291.736	1.44567	-805.164	0.731867	0.449418	0.9175	0.352806	0.64323	3	455	0.206961	39403	
-20469.5	504836	-73.413	1.76173	-720.38	-0.00879518	0.298777	1.03299	0.34851	0.655882	3	45.5	0.0411266	39404	
-26766.6	864537	-218.592	1.4608	-786.49	0.181861	0.362791	1.03299	0.34851	0.655882	3	45.5	0.0657914	39406	
-18666.3	284060	16.5567	2.67278	-836.513	0.260972	0.213679	1.03299	0.34851	0.655882	0.0001	45.5	0.00990158	39407	
-18666.3	284060	16.5567	2.67278	-836.513	0.260972	0.213679	1.03299	0.34851	0.655882	3	45.5	0.00990158	39407	
-15483.9	300416	-3.91703	2.91628	-874.358	0.307942	0.204341	0.993198	0.349787	0.651995	0.0001	91	0.00990158	39407	
-15483.9	300416	-3.91703	2.91628	-874.358	0.307942	0.204341	0.993198	0.349787	0.651995	3	91	0.00990158	39407	
-21959.2	477320	-65.3657	2.11738	-1078.53	0.324235	0.272825	1.03299	0.34851	0.655882	3	45.5	0.0418311	39408	
-7345.29	15216.7	-45.263	3.51467	-847.527	0.00118893	0.216032	0.993198	0.349787	0.651995	3	91	0.0499536	39409	
-32779.1	672666	-11.4909	2.365	-959.655	-0.0190873	0.233156	1.03299	0.34851	0.655882	3	45.5	0.0142501	39410	
-26178	687349	-33.5677	2.52701	-960.151	0.00717214	0.216779	0.993198	0.349787	0.651995	3	91	0.0142501	39410	
-12510	306801	-309.23	1.87523	-842.756	0.0802648	0.54596	1.03299	0.34851	0.655882	3	45.5	0.228312	39411	
-5248.05	340508	-386.264	2.16472	-906.874	0.119095	0.551	0.958125	0.351078	0.648177	0.0001	182	0.228312	39411	
-5248.05	340508	-386.264	2.16472	-906.874	0.119095	0.551	0.958125	0.351078	0.648177	3	182	0.228312	39411	
-12926.5	259054	-176.386	1.98409	-737.208	0.293546	0.368248	1.03299	0.34851	0.655882	3	45.5	0.140555	39412	
-7560.25	290988	-232.129	2.33431	-842.183	0.368592	0.34742	0.958125	0.351078	0.648177	0.0001	182	0.140555	39412	
-37844.3	856601	-413.763	2.48087	-989.994	0.0668206	0.438373	1.03299	0.34851	0.655882	0.0001	45.5	0.127267	39415	
-37844.3	856601	-413.763	2.48087	-989.994	0.0668206	0.438373	1.03299	0.34851	0.655882	3	45.5	0.127267	39415	
-27259.8	880205	-469.579	2.68457	-1033.03	0.0971315	0.440071	0.993198	0.349787	0.651995	0.0001	91	0.127267	39415	
-27259.8	880205	-469.579	2.68457	-1033.03	0.0971315	0.440071	0.993198	0.349787	0.651995	3	91	0.127267	39415	
-3804.58	14841.2	-132.056	3.42652	-637.037	0.26807	0.192114	1.03299	0.34851	0.655882	3	45.5	0.00462461	39416	
-2668.37	32797.7	-207.998	4.24662	-745.716	0.433906	0.239784	0.958125	0.351078	0.648177	0.0001	182	0.00462461	39416	
-2668.37	32797.7	-207.998	4.24662	-745.716	0.433906	0.239784	0.958125	0.351078	0.648177	3	182	0.00462461	39416	
-918.478	50513.3	-284.372	5.04178	-872.381	0.614592	0.328827	0.9175	0.352806	0.64323	0.0001	455	0.00462461	39416	
-918.478	50513.3	-284.372	5.04178	-872.381	0.614592	0.328827	0.9175	0.352806	0.64323	3	455	0.00462461	39416	
-13163.2	214506	-89.4554	2.28327	-704.127	-0.0239079	0.287999	1.03299	0.34851	0.655882	3	45.5	0.086573	39417	
-27892.4	616808	-275.23	3.50986	-611.544	0.0686497	0.231707	0.993198	0.349787	0.651995	0.0001	91	0.0933276	39418	
-27892.4	616808	-275.23	3.50986	-611.544	0.0686497	0.231707	0.993198	0.349787	0.651995	3	91	0.0933276	39418	
-11699.2	117056	6.3237	2.73535	-595.421	0.145952	0.223828	1.03299	0.34851	0.655882	3	45.5	0.0177638	39420	
-10453.1	123933	-8.84175	2.96993	-611.262	0.185966	0.216583	0.993198	0.349787	0.651995	0.0001	91	0.0177638	39420	
-10453.1	123933	-8.84175	2.96993	-611.262	0.185966	0.216583	0.993198	0.349787	0.651995	3	91	0.0177638	39420	
-15335.8	302421	-280.084	3.29979	-1133.92	0.134752	0.351495	1.03299	0.34851	0.655882	0.0001	45.5	0.181339	39421	
-15335.8	302421	-280.084	3.29979	-1133.92	0.134752	0.351495	1.03299	0.34851	0.655882	3	45.5	0.181339	39421	
-10035.1	329728	-342.739	3.63429	-1192.06	0.191603	0.370485	0.993198	0.349787	0.651995	0.0001	91	0.181339	39421	
-10035.1	329728	-342.739	3.63429	-1192.06	0.191603	0.370485	0.993198	0.349787	0.651995	3	91	0.181339	39421	
-3127.43	362563	-419.638	4.03776	-1274.53	0.264188	0.40965	0.958125	0.351078	0.648177	0.0001	182	0.181339	39421	
-3127.43	362563	-419.638	4.03776	-1274.53	0.264188	0.40965	0.958125	0.351078	0.648177	3	182	0.181339	39421	
-21524.7	844923	-352.838	1.27347	-991.637	0.110305	0.465749	1.03299	0.34851	0.655882	3	45.5	0.108604	39423	
-18190.4	390263	-358.08	2.84681	-1011.24	0.191165	0.475353	1.03299	0.34851	0.655882	3	45.5	0.198274	39424	
-12063.6	415724	-417.466	3.12762	-1076.89	0.237495	0.490547	0.993198	0.349787	0.651995	0.0001	91	0.198274	39424	
-12063.6	415724	-417.466	3.12762	-1076.89	0.237495	0.490547	0.993198	0.349787	0.651995	3	91	0.198274	39424	
-25381.6	468995	-54.5801	2.61431	-752.835	-0.01784	0.225151	1.03299	0.34851	0.655882	0.0001	45.5	0.0360376	39426	
-20253.7	477931	-77.191	2.8066	-757.278	0.0143931	0.214434	0.993198	0.349787	0.651995	3	91	0.0360376	39426	
-16719.8	427052	-438.976	2.16502	-1021.78	0.558259	0.640934	1.03299	0.34851	0.655882	3	45.5	0.227082	39427	
-31405.9	696113	-429.266	2.24814	-635.881	-0.0239478	0.513141	1.03299	0.34851	0.655882	3	45.5	0.156482	39428	
-23307	705511	-475.158	2.41489	-662.371	-7.48446e-05	0.515892	0.993198	0.349787	0.651995	3	91	0.156482	39428	
-18187.8	395187	-210.013	2.37862	-996.513	0.260229	0.345843	1.03299	0.34851	0.655882	3	45.5	0.121607	39429	
-20462.6	570435	-334.963	1.7721	-819.978	0.0151818	0.482133	1.03299	0.34851	0.655882	3	45.5	0.148288	39430	
-9578.92	188220	-232.557	2.81897	-992.532	-0.0263326	0.389286	1.03299	0.34851	0.655882	3	45.5	0.214018	39431	
-6697.04	206453	-278.624	3.05112	-1011.01	0.0114623	0.395789	0.993198	0.349787	0.651995	0.0001	91	0.214018	39431	
-2987	226655	-332.405	3.31904	-1041.96	0.0561216	0.416211	0.958125	0.351078	0.648177	0.0001	182	0.214018	39431	
-2987	226655	-332.405	3.31904	-1041.96	0.0561216	0.416211	0.958125	0.351078	0.648177	3	182	0.214018	39431	
-16049.4	529093	-496.253	2.44987	-775.651	0.00014857	0.623794	0.993198	0.349787	0.651995	0.0001	91	0.208638	39432	
-8024.99	544841	-554.597	2.64884	-812.653	0.0286849	0.648182	0.958125	0.351078	0.648177	0.0001	182	0.208638	39432	
-10599.7	351036	-216.823	1.10468	-1115.67	0.149978	0.451026	1.03299	0.34851	0.655882	3	45.5	0.152076	39433	
-10330.1	108390	-17.6368	1.88745	-700.632	0.00050831	0.294856	1.03299	0.34851	0.655882	0.0001	45.5	0.0443906	39438	
-13081.8	216863	-165.241	3.26769	-1143	0.149886	0.254425	1.03299	0.34851	0.655882	0.0001	45.5	0.137209	39439	
-13081.8	216863	-165.241	3.26769	-1143	0.149886	0.254425	1.03299	0.34851	0.655882	3	45.5	0.137209	39439	
-21799.6	450946	-72.1286	2.23479	-764.823	-0.023495	0.266993	1.03299	0.34851	0.655882	3	45.5	0.0453154	39441	
-20953.5	871478	-93.5864	0.98477	-833.707	0.124966	0.334176	1.03299	0.34851	0.655882	3	45.5	0.0296448	39442	
-21460	317360	-42.3019	3.35657	-1154.29	0.169119	0.149246	1.03299	0.34851	0.655882	0.0001	45.5	0.0484902	39444	
-21460	317360	-42.3019	3.35657	-1154.29	0.169119	0.149246	1.03299	0.34851	0.655882	3	45.5	0.0484902	39444	
-16739.3	343914	-83.787	3.68721	-1196.91	0.229718	0.156941	0.993198	0.349787	0.651995	3	91	0.0484902	39444	
-17383	322751	-92.475	2.15805	-615.794	0.707175	0.277994	1.03299	0.34851	0.655882	3	45.5	0.0606173	39446	
-41150.7	665008	-424.902	3.4234	-645.443	-0.0561217	0.373284	1.03299	0.34851	0.655882	0.0001	45.5	0.154493	39447	
-41150.7	665008	-424.902	3.4234	-645.443	-0.0561217	0.373284	1.03299	0.34851	0.655882	3	45.5	0.154493	39447	
-16323.6	686483	-561.879	4.12661	-743.377	0.0683246	0.442456	0.958125	0.351078	0.648177	3	182	0.154493	39447	
-13937.1	247140	-108.2	2.17339	-878.645	0.827529	0.296529	1.03299	0.34851	0.655882	3	45.5	0.0872448	39451	
-27324.4	830843	-111.795	1.52619	-766.452	-0.0108184	0.317918	1.03299	0.34851	0.655882	3	45.5	0.0382285	39455	
-33169.8	926942	-406.886	1.85262	-892.633	0.158471	0.462388	1.03299	0.34851	0.655882	3	45.5	0.114327	39456	
-24504.2	952226	-449.498	1.99173	-938.671	0.179172	0.452581	0.993198	0.349787	0.651995	3	91	0.114327	39456	
-8909	100650	-103.425	2.06826	-647.484	-0.00483295	0.327822	1.03299	0.34851	0.655882	0.0001	45.5	0.146981	39458	
-8909	100650	-103.425	2.06826	-647.484	-0.00483295	0.327822	1.03299	0.34851	0.655882	3	45.5	0.146981	39458	
-8040.97	108016	-122.813	2.20477	-654.354	0.0152025	0.3113	0.993198	0.349787	0.651995	0.0001	91	0.146981	39458	
-19395.5	604998	-44.6694	1.171	-772.507	0.805262	0.317805	1.03299	0.34851	0.655882	3	45.5	0.020051	39460	
-10921.9	146267	-77.3296	2.23723	-733.407	-0.0233326	0.293737	1.03299	0.34851	0.655882	0.0001	45.5	0.0956241	39461	
-10921.9	146267	-77.3296	2.23723	-733.407	-0.0233326	0.293737	1.03299	0.34851	0.655882	3	45.5	0.0956241	39461	
-17808.4	596154	-59.231	1.07256	-651.759	0.424652	0.325589	1.03299	0.34851	0.655882	3	45.5	0.0263197	39462	
-24010	549748	-175.981	3.43196	-908.916	0.500622	0.189365	0.993198	0.349787	0.651995	0.0001	91	0.0639667	39463	
-24010	549748	-175.981	3.43196	-908.916	0.500622	0.189365	0.993198	0.349787	0.651995	3	91	0.0639667	39463	
-13892.6	227190	11.112	1.9492	-1137.4	-0.00733725	0.280765	1.03299	0.34851	0.655882	3	45.5	0.0173682	39466	
-25314.3	700740	3.96705	1.39384	-606.002	0.842278	0.301629	1.03299	0.34851	0.655882	3	45.5	0.00254002	39467	
-9217.93	320741	-285.79	0.217737	-563.988	0.81721	0.567072	1.03299	0.34851	0.655882	3	45.5	0.211856	39469	
-11611.8	255094	-300.551	2.48803	-864.962	-0.0253813	0.496686	1.03299	0.34851	0.655882	3	45.5	0.237675	39470	
-8028.74	269749	-344.978	2.68367	-885.391	0.00397039	0.503628	0.993198	0.349787	0.651995	0.0001	91	0.237675	39470	
-8028.74	269749	-344.978	2.68367	-885.391	0.00397039	0.503628	0.993198	0.349787	0.651995	3	91	0.237675	39470	
-3592.29	286382	-396.046	2.90572	-915.566	0.0382924	0.522416	0.958125	0.351078	0.648177	3	182	0.237675	39470	
-18743.9	452610	-169.546	2.0631	-1011.06	-0.019052	0.335717	1.03299	0.34851	0.655882	3	45.5	0.0955338	39471	
-11243.8	116488	-6.52569	2.52739	-1050.33	0.141672	0.249762	1.03299	0.34851	0.655882	3	45.5	0.0444284	39472	
-10036.1	136925	-32.4216	2.73422	-1078.28	0.175995	0.238635	0.993198	0.349787	0.651995	0.0001	91	0.0444284	39472	
-10036.1	136925	-32.4216	2.73422	-1078.28	0.175995	0.238635	0.993198	0.349787	0.651995	3	91	0.0444284	39472	
-19619.1	322777	-16.3738	2.59631	-797.805	0.29531	0.2227	1.03299	0.34851	0.655882	0.0001	45.5	0.0250349	39474	
-19619.1	322777	-16.3738	2.59631	-797.805	0.29531	0.2227	1.03299	0.34851	0.655882	3	45.5	0.0250349	39474	
-16092.7	339261	-37.7775	2.83477	-840.965	0.343707	0.211938	0.993198	0.349787	0.651995	0.0001	91	0.0250349	39474	
-24103.9	629754	-25.823	1.64428	-1008.88	0.326267	0.292744	1.03299	0.34851	0.655882	3	45.5	0.0174529	39476	
-30435.8	587820	-331.056	2.97197	-904.695	0.059552	0.358874	1.03299	0.34851	0.655882	3	45.5	0.136625	39477	
-21904	606168	-385.475	3.23888	-945.718	0.102869	0.367667	0.993198	0.349787	0.651995	0.0001	91	0.136625	39477	
-21904	606168	-385.475	3.23888	-945.718	0.102869	0.367667	0.993198	0.349787	0.651995	3	91	0.136625	39477	
-14320.5	299501	-141.671	3.74325	-1094.69	0.641083	0.180667	0.993198	0.349787	0.651995	0.0001	91	0.0760597	39478	
-14320.5	299501	-141.671	3.74325	-1094.69	0.641083	0.180667	0.993198	0.349787	0.651995	3	91	0.0760597	39478	
-10981.1	302477	-193.69	1.12798	-839.7	0.290031	0.432587	1.03299	0.34851	0.655882	3	45.5	0.151553	39480	
-9362.75	184949	-198.225	1.61612	-896.441	-0.0120326	0.469051	1.03299	0.34851	0.655882	3	45.5	0.234509	39482	
-5913.65	215062	-251.941	1.8185	-916.876	0.0138394	0.448886	0.958125	0.351078	0.648177	3	182	0.234509	39482	
-23919.8	734474	-272.291	1.54231	-817.886	0.35736	0.398216	1.03299	0.34851	0.655882	3	45.5	0.0915185	39484	
-18535.2	762674	-300.267	1.66372	-880.052	0.390697	0.377933	0.993198	0.349787	0.651995	0.0001	91	0.0915185	39484	
-12435.5	296441	-354.403	2.33235	-1010.42	0.796921	0.550968	1.03299	0.34851	0.655882	3	45.5	0.233888	39485	
-8082.81	333908	-407.043	2.63361	-1185.15	0.942665	0.560614	0.993198	0.349787	0.651995	3	91	0.233888	39485	
-20555.7	490089	-364.945	2.2216	-858.719	0.121063	0.507623	1.03299	0.34851	0.655882	3	45.5	0.176942	39486	
-14724.2	509098	-410.556	2.40363	-900.907	0.147355	0.509449	0.993198	0.349787	0.651995	3	91	0.176942	39486	
-10330.6	545788	-297.322	0.285822	-542.196	0.745049	0.476882	1.03299	0.34851	0.655882	3	45.5	0.124084	39487	
-20446.1	788550	-233.468	1.21901	-990.991	0.330887	0.384302	1.03299	0.34851	0.655882	3	45.5	0.074614	39488	
-8215.67	136672	-185.857	2.73149	-930.212	0.00399688	0.349871	1.03299	0.34851	0.655882	3	45.5	0.202472	39489	
-3647.25	170265	-270.631	3.20677	-977.913	0.0816689	0.364976	0.958125	0.351078	0.648177	0.0001	182	0.202472	39489	
-3647.25	170265	-270.631	3.20677	-977.913	0.0816689	0.364976	0.958125	0.351078	0.648177	3	182	0.202472	39489	
-16140.2	772337	-383.295	0.764962	-733.892	0.176956	0.514697	1.03299	0.34851	0.655882	3	45.5	0.125958	39490	
-17561.3	214672	9.76285	3.275	-835.493	0.764923	0.140999	1.03299	0.34851	0.655882	3	45.5	0.0191867	39493	
-14448.8	237709	-17.8648	3.71911	-954.892	0.93111	0.147363	0.993198	0.349787	0.651995	0.0001	91	0.0191867	39493	
-14448.8	237709	-17.8648	3.71911	-954.892	0.93111	0.147363	0.993198	0.349787	0.651995	3	91	0.0191867	39493	
-18766.4	661572	-192.335	1.35299	-1053.58	0.0547486	0.369619	1.03299	0.34851	0.655882	3	45.5	0.0770254	39494	
-12007.8	214394	-276.511	3.45871	-735.441	0.305722	0.303517	1.03299	0.34851	0.655882	0.0001	45.5	0.188187	39495	
-12007.8	214394	-276.511	3.45871	-735.441	0.305722	0.303517	1.03299	0.34851	0.655882	3	45.5	0.188187	39495	
-7914.77	229750	-328.351	3.85361	-806.164	0.382867	0.325046	0.993198	0.349787	0.651995	0.0001	91	0.188187	39495	
-7914.77	229750	-328.351	3.85361	-806.164	0.382867	0.325046	0.993198	0.349787	0.651995	3	91	0.188187	39495	
-2611.68	249856	-393.829	4.34289	-903.232	0.485935	0.370247	0.958125	0.351078	0.648177	0.0001	182	0.188187	39495	
-2611.68	249856	-393.829	4.34289	-903.232	0.485935	0.370247	0.958125	0.351078	0.648177	3	182	0.188187	39495	
-19942.6	400940	-430.01	2.99512	-856.437	0.206992	0.548489	1.03299	0.34851	0.655882	0.0001	45.5	0.224882	39496	
-19942.6	400940	-430.01	2.99512	-856.437	0.206992	0.548489	1.03299	0.34851	0.655882	3	45.5	0.224882	39496	
-12920.8	422732	-495.181	3.31017	-927.441	0.259072	0.575237	0.993198	0.349787	0.651995	3	91	0.224882	39496	
-4001.4	450514	-574.644	3.6887	-1021.39	0.326138	0.62101	0.958125	0.351078	0.648177	0.0001	182	0.224882	39496	
-4001.4	450514	-574.644	3.6887	-1021.39	0.326138	0.62101	0.958125	0.351078	0.648177	3	182	0.224882	39496	
-13903.7	789666	-433.848	0.618778	-860.743	0.272319	0.559824	1.03299	0.34851	0.655882	3	45.5	0.137369	39497	
-13689.6	234429	-116.397	3.99733	-643.036	0.109114	0.144961	0.993198	0.349787	0.651995	0.0001	91	0.0669198	39499	
-13689.6	234429	-116.397	3.99733	-643.036	0.109114	0.144961	0.993198	0.349787	0.651995	3	91	0.0669198	39499	
-17364.9	754032	-384.478	1.12261	-1060.57	0.340391	0.509686	1.03299	0.34851	0.655882	3	45.5	0.126431	39500	
