-6964.39, 602305, -331.323, 0.139961, -934.654, 0.488343, 0.503803, 1.03299, 0.34851, 0.655882, 0.0001, 45.5, 246, 35.0022, 0.132172, 0, 0, 0, 0, 105001
-6964.39, 602305, -331.323, 0.139961, -934.654, 0.488343, 0.503803, 1.03299, 0.34851, 0.655882, 3, 45.5, 246, 35.0022, 0.132172, 0, 0, 0, 0, 105001
-5767.8, 637524, -343.778, 0.148619, -1014.15, 0.529277, 0.480893, 0.993198, 0.349787, 0.651995, 3, 91, 246, 35.0022, 0.132172, 0, 0, 1, 0, 105001
-5839.42, 77570.6, -167.532, 3.30715, -718.148, 0.59641, 0.222323, 1.03299, 0.34851, 0.655882, 0.0001, 45.5, 246, 43.4773, 0.142762, 1.19398, 1, 1, 0, 105007
-4359.64, 91024.5, -207.026, 3.72808, -814.532, 0.718375, 0.233963, 0.993198, 0.349787, 0.651995, 0.0001, 91, 246, 43.4773, 0.142762, 1.15853, 1, 1, 0, 105007
-2213.31, 109516, -259.263, 4.26478, -950.061, 0.889359, 0.269428, 0.958125, 0.351078, 0.648177, 0.0001, 182, 246, 43.4773, 0.142762, 1.44868, 1, 1, 0, 105007
-2213.31, 109516, -259.263, 4.26478, -950.061, 0.889359, 0.269428, 0.958125, 0.351078, 0.648177, 3, 182, 246, 43.4773, 0.142762, 1.30815, 1, 1, 0, 105007
-3426.83, 63232.4, -194.915, 2.90582, -583.084, 0.367997, 0.27971, 1.03299, 0.34851, 0.655882, 0.0001, 45.5, 246, 55.3212, 0.180168, 1.50123, 1, 1, 0, 105011
-3426.83, 63232.4, -194.915, 2.90582, -583.084, 0.367997, 0.27971, 1.03299, 0.34851, 0.655882, 3, 45.5, 246, 55.3212, 0.180168, 1.36806, 1, 1, 0, 105011
-2203.36, 71814.3, -227.885, 3.21077, -638.627, 0.434282, 0.281477, 0.993198, 0.349787, 0.651995, 0.0001, 91, 246, 55.3212, 0.180168, 1.55237, 1, 1, 0, 105011
-2203.36, 71814.3, -227.885, 3.21077, -638.627, 0.434282, 0.281477, 0.993198, 0.349787, 0.651995, 3, 91, 246, 55.3212, 0.180168, 1.42208, 1, 1, 0, 105011
-551.27, 82708.2, -268.484, 3.57709, -711.401, 0.520524, 0.29997, 0.958125, 0.351078, 0.648177, 0.0001, 182, 246, 55.3212, 0.180168, 1.8087, 1, 1, 0, 105011
-551.27, 82708.2, -268.484, 3.57709, -711.401, 0.520524, 0.29997, 0.958125, 0.351078, 0.648177, 3, 182, 246, 55.3212, 0.180168, 1.67733, 1, 1, 0, 105011
2614.7, 102747, -339.697, 4.20327, -849.133, 0.682371, 0.355625, 0.9175, 0.352806, 0.64323, 0.0001, 455, 246, 55.3212, 0.180168, 3.38214, 1, 1, 0, 105011
2614.7, 102747, -339.697, 4.20327, -849.133, 0.682371, 0.355625, 0.9175, 0.352806, 0.64323, 3, 455, 246, 55.3212, 0.180168, 3.38153, 1, 1, 0, 105011
-11421.9, 323205, -75.8109, 0.88824, -885.756, 0.538613, 0.345488, 1.03299, 0.34851, 0.655882, 0.0001, 45.5, 246, 22.0459, 0.0570373, 0, 0, 1, 0, 105016
-11421.9, 323205, -75.8109, 0.88824, -885.756, 0.538613, 0.345488, 1.03299, 0.34851, 0.655882, 3, 45.5, 246, 22.0459, 0.0570373, 0, 0, 1, 0, 105016
-10295.5, 348220, -86.7647, 0.954885, -970.511, 0.592794, 0.31338, 0.993198, 0.349787, 0.651995, 3, 91, 246, 22.0459, 0.0570373, 0, 0, 1, 0, 105016
-18733, 315980, -391.996, 3.50278, -609.036, 0.520899, 0.388739, 1.03299, 0.34851, 0.655882, 0.0001, 45.5, 246, 44.5012, 0.203499, 1.03097, 1, 0, 0, 105025
-12294.6, 335529, -453.049, 3.96528, -710.232, 0.63423, 0.41928, 0.993198, 0.349787, 0.651995, 0.0001, 91, 246, 44.5012, 0.203499, 1.31647, 1, 1, 0, 105025
-12294.6, 335529, -453.049, 3.96528, -710.232, 0.63423, 0.41928, 0.993198, 0.349787, 0.651995, 3, 91, 246, 44.5012, 0.203499, 1.23942, 1, 1, 0, 105025
-2986.49, 359621, -497.24, 3.26596, -1011.2, 0.532699, 0.596135, 0.958125, 0.351078, 0.648177, 0.0001, 182, 246, 49.1588, 0.239331, 2.29283, 1, 0, 0, 105026
-2986.49, 359621, -497.24, 3.26596, -1011.2, 0.532699, 0.596135, 0.958125, 0.351078, 0.648177, 3, 182, 246, 49.1588, 0.239331, 2.3365, 1, 0, 0, 105026
-5218.76, 946523, -384.55, 0.0863188, -1091.8, 0.125315, 0.485471, 1.03299, 0.34851, 0.655882, 0.0001, 45.5, 246, 37.3267, 0.101794, 0, 0, 0, 0, 105035
-5218.76, 946523, -384.55, 0.0863188, -1091.8, 0.125315, 0.485471, 1.03299, 0.34851, 0.655882, 3, 45.5, 246, 37.3267, 0.101794, 0, 0, 0, 0, 105035
-5027.78, 431317, -493.759, 3.97285, -1069.42, 0.358106, 0.479694, 0.958125, 0.351078, 0.648177, 3, 182, 246, 44.7284, 0.1899, 0, 0, 0, 0, 105036
-11478, 300436, -107.37, 1.10554, -849.925, 0.00790461, 0.360117, 1.03299, 0.34851, 0.655882, 3, 45.5, 246, 24.8281, 0.0896296, 0, 0, 1, 0, 105039
-10128.8, 313375, -121.176, 1.15908, -854.771, 0.0135513, 0.331056, 0.993198, 0.349787, 0.651995, 3, 91, 246, 24.8281, 0.0896296, 0, 0, 1, 0, 105039
-8544.99, 326670, -135.903, 1.21364, -861.038, 0.0197732, 0.307193, 0.958125, 0.351078, 0.648177, 0.0001, 182, 246, 24.8281, 0.0896296, 0, 0, 1, 0, 105039
-3781.08, 372845, -528.311, 3.27712, -830.614, 0.103101, 0.640071, 0.958125, 0.351078, 0.648177, 0.0001, 182, 246, 49.5552, 0.247514, 0, 0, 0, 0, 105045
-3781.08, 372845, -528.311, 3.27712, -830.614, 0.103101, 0.640071, 0.958125, 0.351078, 0.648177, 3, 182, 246, 49.5552, 0.247514, 3.32501, 1, 0, 0, 105045
-5672.46, 71209.7, -152.573, 2.41588, -1026.97, 0.816303, 0.347883, 1.03299, 0.34851, 0.655882, 0.0001, 45.5, 246, 51.3283, 0.239241, 1.02095, 1, 1, 0, 105053
-2848.02, 134058, -239.324, 3.10564, -1432.75, 1.19015, 0.350734, 0.958125, 0.351078, 0.648177, 0.0001, 182, 246, 51.3283, 0.239241, 1.14537, 1, 1, 0, 105053
-8606.74, 100185, -104.294, 1.68095, -925.259, 0.0154811, 0.370052, 1.03299, 0.34851, 0.655882, 3, 45.5, 246, 35.2612, 0.186687, 0, 0, 1, 0, 105054
-10228, 64799.9, 27.8261, 3.47224, -997.7, -0.0579256, 0.158851, 1.03299, 0.34851, 0.655882, 0.0001, 45.5, 246, 11.7864, 0.0289127, 0, 0, 0, 0, 105070
-9278.26, 81411.1, -2.65198, 3.7767, -991.795, -0.000176403, 0.170372, 0.993198, 0.349787, 0.651995, 0.0001, 91, 246, 11.7864, 0.0289127, 0, 0, 1, 0, 105070
-9278.26, 81411.1, -2.65198, 3.7767, -991.795, -0.000176403, 0.170372, 0.993198, 0.349787, 0.651995, 3, 91, 246, 11.7864, 0.0289127, 0, 0, 1, 0, 105070
-10296.1, 103291, -50.2004, 2.67129, -757.44, 0.0448481, 0.249693, 1.03299, 0.34851, 0.655882, 0.0001, 45.5, 246, 21.0835, 0.0742514, 0, 0, 1, 0, 105073
-10296.1, 103291, -50.2004, 2.67129, -757.44, 0.0448481, 0.249693, 1.03299, 0.34851, 0.655882, 3, 45.5, 246, 21.0835, 0.0742514, 0, 0, 1, 0, 105073
-3659.55, 288140, -433.082, 2.9446, -860.681, 1.20513, 0.553308, 0.958125, 0.351078, 0.648177, 0.0001, 182, 246, 46.3438, 0.241077, 1.23783, 1, 0, 0, 105077
-8110.77, 12045.6, -35.59, 2.29926, -976.928, 0.0623892, 0.281518, 0.993198, 0.349787, 0.651995, 0.0001, 91, 246, 19.9385, 0.0607809, 0, 0, 1, 1, 105082
-12358.9, 325256, -33.4588, 1.04898, -1066.18, 0.0188868, 0.328748, 1.03299, 0.34851, 0.655882, 0.0001, 45.5, 246, 21.0645, 0.0332329, 0, 0, 1, 0, 105084
-12358.9, 325256, -33.4588, 1.04898, -1066.18, 0.0188868, 0.328748, 1.03299, 0.34851, 0.655882, 3, 45.5, 246, 21.0645, 0.0332329, 0, 0, 1, 0, 105084
-8971.29, 143735, -83.9155, 1.07084, -685.632, 0.344636, 0.329989, 0.993198, 0.349787, 0.651995, 0.0001, 91, 246, 23.0561, 0.119982, 0, 0, 1, 0, 105085
-8971.29, 143735, -83.9155, 1.07084, -685.632, 0.344636, 0.329989, 0.993198, 0.349787, 0.651995, 3, 91, 246, 23.0561, 0.119982, 0, 0, 1, 0, 105085
-8387.47, 155281, -94.6623, 1.13986, -728.105, 0.370157, 0.30521, 0.958125, 0.351078, 0.648177, 0.0001, 182, 246, 23.0561, 0.119982, 0, 0, 1, 0, 105085
-8387.47, 155281, -94.6623, 1.13986, -728.105, 0.370157, 0.30521, 0.958125, 0.351078, 0.648177, 3, 182, 246, 23.0561, 0.119982, 0, 0, 1, 0, 105085
-7624.84, 7365.02, -26.292, 2.68025, -851.275, 0.182228, 0.25872, 1.03299, 0.34851, 0.655882, 3, 45.5, 246, 21.7248, 0.0592522, 0, 0, 1, 1, 105098
-8772.45, 60467.5, -50.0083, 3.23311, -772.713, 0.0957327, 0.199687, 1.03299, 0.34851, 0.655882, 0.0001, 45.5, 246, 22.8808, 0.0713602, 0, 0, 1, 0, 105106
-8772.45, 60467.5, -50.0083, 3.23311, -772.713, 0.0957327, 0.199687, 1.03299, 0.34851, 0.655882, 3, 45.5, 246, 22.8808, 0.0713602, 0, 0, 1, 0, 105106
-9033, 76226.6, -65.7596, 2.99224, -776.391, -0.042612, 0.230775, 1.03299, 0.34851, 0.655882, 0.0001, 45.5, 246, 25.4747, 0.0885635, 0, 0, 1, 0, 105108
-9033, 76226.6, -65.7596, 2.99224, -776.391, -0.042612, 0.230775, 1.03299, 0.34851, 0.655882, 3, 45.5, 246, 25.4747, 0.0885635, 0, 0, 1, 0, 105108
-6525.41, 91047.5, -176.227, 3.2419, -652.882, 0.314818, 0.242984, 1.03299, 0.34851, 0.655882, 0.0001, 45.5, 246, 42.9245, 0.155172, 1.10058, 1, 1, 0, 105118
-4895.67, 101231, -212.91, 3.59184, -707.778, 0.385207, 0.252826, 0.993198, 0.349787, 0.651995, 0.0001, 91, 246, 42.9245, 0.155172, 1.08354, 1, 1, 0, 105118
-2706.15, 114077, -258.768, 4.01828, -781.797, 0.477803, 0.282835, 0.958125, 0.351078, 0.648177, 0.0001, 182, 246, 42.9245, 0.155172, 1.32275, 1, 1, 0, 105118
-2706.15, 114077, -258.768, 4.01828, -781.797, 0.477803, 0.282835, 0.958125, 0.351078, 0.648177, 3, 182, 246, 42.9245, 0.155172, 1.16849, 1, 1, 0, 105118
1483.7, 137726, -341.006, 4.76329, -926.871, 0.654834, 0.361758, 0.9175, 0.352806, 0.64323, 0.0001, 455, 246, 42.9245, 0.155172, 2.63785, 1, 0, 0, 105118
1483.7, 137726, -341.006, 4.76329, -926.871, 0.654834, 0.361758, 0.9175, 0.352806, 0.64323, 3, 455, 246, 42.9245, 0.155172, 2.63871, 1, 0, 0, 105118
-2742.66, 211021, -348.563, 3.07759, -926.342, 0.521086, 0.460225, 0.958125, 0.351078, 0.648177, 0.0001, 182, 246, 48.8003, 0.240967, 1.32908, 1, 0, 0, 105121
-2742.66, 211021, -348.563, 3.07759, -926.342, 0.521086, 0.460225, 0.958125, 0.351078, 0.648177, 3, 182, 246, 48.8003, 0.240967, 1.06072, 1, 0, 0, 105121
-8346.02, 73694.7, -70.63, 1.54295, -1056.3, 0.020216, 0.323167, 0.993198, 0.349787, 0.651995, 0.0001, 91, 246, 28.4034, 0.156283, 0, 0, 1, 0, 105124
-8346.02, 73694.7, -70.63, 1.54295, -1056.3, 0.020216, 0.323167, 0.993198, 0.349787, 0.651995, 3, 91, 246, 28.4034, 0.156283, 0, 0, 1, 0, 105124
-10661.6, 346228, -281.818, 0.695884, -638.239, 0.0186002, 0.55542, 1.03299, 0.34851, 0.655882, 0.0001, 45.5, 246, 36.6802, 0.210176, 0, 0, 0, 0, 105129
-10661.6, 346228, -281.818, 0.695884, -638.239, 0.0186002, 0.55542, 1.03299, 0.34851, 0.655882, 3, 45.5, 246, 36.6802, 0.210176, 0, 0, 0, 0, 105129
-9145.04, 355182, -298.796, 0.728432, -645.685, 0.0208882, 0.539617, 0.993198, 0.349787, 0.651995, 3, 91, 246, 36.6802, 0.210176, 0, 0, 1, 0, 105129
-7386.71, 364567, -316.275, 0.761349, -653.99, 0.0234013, 0.528494, 0.958125, 0.351078, 0.648177, 0.0001, 182, 246, 36.6802, 0.210176, 0, 0, 0, 0, 105129
-10805, 146205, -104.654, 2.70414, -909.302, 0.253659, 0.271431, 1.03299, 0.34851, 0.655882, 0.0001, 45.5, 246, 29.9805, 0.114793, 0, 0, 1, 0, 105130
-10805, 146205, -104.654, 2.70414, -909.302, 0.253659, 0.271431, 1.03299, 0.34851, 0.655882, 3, 45.5, 246, 29.9805, 0.114793, 0, 0, 1, 0, 105130
-11634.2, 269344, -27.8897, 0.956778, -627.573, 0.3853, 0.32938, 1.03299, 0.34851, 0.655882, 0.0001, 45.5, 246, 13.6595, 0.0287182, 0, 0, 1, 0, 105136
-11634.2, 269344, -27.8897, 0.956778, -627.573, 0.3853, 0.32938, 1.03299, 0.34851, 0.655882, 3, 45.5, 246, 13.6595, 0.0287182, 0, 0, 1, 0, 105136
-9939.59, 507966, -367.39, 0.357176, -743.028, 0.137569, 0.596719, 1.03299, 0.34851, 0.655882, 0.0001, 45.5, 246, 37.0459, 0.187446, 0, 0, 0, 0, 105137
-9939.59, 507966, -367.39, 0.357176, -743.028, 0.137569, 0.596719, 1.03299, 0.34851, 0.655882, 3, 45.5, 246, 37.0459, 0.187446, 0, 0, 0, 0, 105137
-10802.7, 359787, -246.533, 0.893429, -837.717, 0.652542, 0.47538, 1.03299, 0.34851, 0.655882, 0.0001, 45.5, 246, 34.4695, 0.157947, 0, 0, 0, 0, 105140
-10802.7, 359787, -246.533, 0.893429, -837.717, 0.652542, 0.47538, 1.03299, 0.34851, 0.655882, 3, 45.5, 246, 34.4695, 0.157947, 0, 0, 0, 0, 105140
-5705.56, 50539.7, -131.626, 3.54464, -655.36, 0.0984144, 0.182433, 1.03299, 0.34851, 0.655882, 0.0001, 45.5, 246, 39.6189, 0.102499, 1.04806, 1, 1, 0, 105141
-5705.56, 50539.7, -131.626, 3.54464, -655.36, 0.0984144, 0.182433, 1.03299, 0.34851, 0.655882, 3, 45.5, 246, 39.6189, 0.102499, 0, 0, 1, 0, 105141
-3373.56, 68493, -209.413, 4.32476, -726.127, 0.24213, 0.23614, 0.958125, 0.351078, 0.648177, 0.0001, 182, 246, 39.6189, 0.102499, 1.02055, 1, 1, 0, 105141
-656.312, 85011.6, -284.714, 5.06732, -816.219, 0.38981, 0.327932, 0.9175, 0.352806, 0.64323, 0.0001, 455, 246, 39.6189, 0.102499, 1.42011, 1, 1, 0, 105141
-656.312, 85011.6, -284.714, 5.06732, -816.219, 0.38981, 0.327932, 0.9175, 0.352806, 0.64323, 3, 455, 246, 39.6189, 0.102499, 1.35693, 1, 1, 0, 105141
-9179.76, 86014.9, -68.9593, 3.16285, -1073.89, -0.0478531, 0.2242, 1.03299, 0.34851, 0.655882, 0.0001, 45.5, 246, 28.9495, 0.101454, 0, 0, 1, 0, 105142
-9179.76, 86014.9, -68.9593, 3.16285, -1073.89, -0.0478531, 0.2242, 1.03299, 0.34851, 0.655882, 3, 45.5, 246, 28.9495, 0.101454, 0, 0, 1, 0, 105142
-7928.16, 105811, -107.158, 3.42695, -1077.33, -0.000141795, 0.229232, 0.993198, 0.349787, 0.651995, 0.0001, 91, 246, 28.9495, 0.101454, 0, 0, 1, 0, 105142
-7928.16, 105811, -107.158, 3.42695, -1077.33, -0.000141795, 0.229232, 0.993198, 0.349787, 0.651995, 3, 91, 246, 28.9495, 0.101454, 0, 0, 1, 0, 105142
-7724.35, 269794, -257.003, 1.15027, -1097.19, 0.001566, 0.520556, 0.993198, 0.349787, 0.651995, 0.0001, 91, 246, 44.1988, 0.237933, 0, 0, 1, 0, 105155
-5832.5, 292302, -281.93, 1.20977, -1106.36, 0.0076811, 0.511535, 0.958125, 0.351078, 0.648177, 0.0001, 182, 246, 44.1988, 0.237933, 0, 0, 0, 0, 105155
-11658.5, 392554, -344.529, 0.679351, -590.71, 0.0898957, 0.623044, 1.03299, 0.34851, 0.655882, 0.0001, 45.5, 246, 38.4143, 0.224825, 0, 0, 0, 0, 105156
-11658.5, 392554, -344.529, 0.679351, -590.71, 0.0898957, 0.623044, 1.03299, 0.34851, 0.655882, 3, 45.5, 246, 38.4143, 0.224825, 0, 0, 0, 0, 105156
-10561.2, 320253, -267.372, 1.19205, -998.684, 0.278581, 0.523639, 1.03299, 0.34851, 0.655882, 0.0001, 45.5, 246, 41.4454, 0.201229, 0, 0, 0, 0, 105158
-10561.2, 320253, -267.372, 1.19205, -998.684, 0.278581, 0.523639, 1.03299, 0.34851, 0.655882, 3, 45.5, 246, 41.4454, 0.201229, 0, 0, 0, 0, 105158
-8343.87, 77096.4, -84.7104, 2.25321, -1167.36, 0.0148763, 0.322635, 1.03299, 0.34851, 0.655882, 3, 45.5, 246, 33.9942, 0.152926, 0, 0, 1, 0, 105159
-7550.84, 101204, -115.392, 2.41274, -1178.43, 0.03887, 0.30972, 0.993198, 0.349787, 0.651995, 0.0001, 91, 246, 33.9942, 0.152926, 0, 0, 1, 0, 105159
-7550.84, 101204, -115.392, 2.41274, -1178.43, 0.03887, 0.30972, 0.993198, 0.349787, 0.651995, 3, 91, 246, 33.9942, 0.152926, 0, 0, 1, 0, 105159
-8804.71, 139246, -161.659, 2.36095, -975.276, 0.0867413, 0.365283, 1.03299, 0.34851, 0.655882, 0.0001, 45.5, 246, 41.0848, 0.193392, 0, 0, 1, 0, 105162
-8804.71, 139246, -161.659, 2.36095, -975.276, 0.0867413, 0.365283, 1.03299, 0.34851, 0.655882, 3, 45.5, 246, 41.0848, 0.193392, 0, 0, 1, 0, 105162
-8357.73, 491683, -429.629, 0.0129493, -793.044, 0.000325403, 0.72279, 1.03299, 0.34851, 0.655882, 0.0001, 45.5, 246, 43.0278, 0.238804, 0, 0, 0, 0, 105165
-6928, 506100, -445.923, 0.0134378, -793.237, 0.000326184, 0.72269, 0.993198, 0.349787, 0.651995, 0.0001, 91, 246, 43.0278, 0.238804, 0, 0, 1, 0, 105165
-10527, 303290, -97.4032, 0.742143, -707.039, -0.000595136, 0.363441, 1.03299, 0.34851, 0.655882, 0.0001, 45.5, 246, 21.4921, 0.0819516, 0, 0, 1, 0, 105167
-9685.29, 312151, -106.201, 0.77261, -709.142, 0.00192345, 0.331408, 0.993198, 0.349787, 0.651995, 0.0001, 91, 246, 21.4921, 0.0819516, 0, 0, 1, 0, 105167
-10678.8, 337773, -210.212, 0.758476, -635.129, -0.00110087, 0.457383, 1.03299, 0.34851, 0.655882, 0.0001, 45.5, 246, 30.3083, 0.158469, 0, 0, 1, 0, 105172
-10678.8, 337773, -210.212, 0.758476, -635.129, -0.00110087, 0.457383, 1.03299, 0.34851, 0.655882, 3, 45.5, 246, 30.3083, 0.158469, 0, 0, 1, 0, 105172
-9399.19, 345598, -223.898, 0.791878, -639.581, 0.00153726, 0.433017, 0.993198, 0.349787, 0.651995, 3, 91, 246, 30.3083, 0.158469, 0, 0, 1, 0, 105172
-7924.88, 353705, -237.974, 0.825338, -644.799, 0.00440905, 0.413216, 0.958125, 0.351078, 0.648177, 0.0001, 182, 246, 30.3083, 0.158469, 0, 0, 1, 0, 105172
-11226.1, 191156, -154.737, 2.58102, -1086.09, 0.470593, 0.319617, 1.03299, 0.34851, 0.655882, 0.0001, 45.5, 246, 36.5566, 0.145086, 0, 0, 0, 0, 105180
-11226.1, 191156, -154.737, 2.58102, -1086.09, 0.470593, 0.319617, 1.03299, 0.34851, 0.655882, 3, 45.5, 246, 36.5566, 0.145086, 0, 0, 0, 0, 105180
-11779.4, 332933, -410.92, 3.99635, -898.43, 0.940927, 0.362805, 0.993198, 0.349787, 0.651995, 0.0001, 91, 246, 43.3106, 0.183433, 1.06147, 1, 1, 0, 105183
-9559.34, 315785, -405.957, 3.56563, -930.699, 0.320636, 0.449645, 0.993198, 0.349787, 0.651995, 0.0001, 91, 246, 47.763, 0.214124, 1.01516, 1, 1, 0, 105185
-1071.23, 126547, -275.868, 4.25518, -1080.33, 0.562335, 0.33361, 0.9175, 0.352806, 0.64323, 0.0001, 455, 246, 39.4647, 0.139673, 1.62763, 1, 0, 0, 105188
-1071.23, 126547, -275.868, 4.25518, -1080.33, 0.562335, 0.33361, 0.9175, 0.352806, 0.64323, 3, 455, 246, 39.4647, 0.139673, 1.61146, 1, 0, 0, 105188
-3429.16, 80645.1, -219.24, 4.21759, -1144.67, 1.03464, 0.310349, 0.9175, 0.352806, 0.64323, 0.0001, 455, 246, 37.9244, 0.0783692, 1.15589, 1, 1, 0, 105189
-3429.16, 80645.1, -219.24, 4.21759, -1144.67, 1.03464, 0.310349, 0.9175, 0.352806, 0.64323, 3, 455, 246, 37.9244, 0.0783692, 1.12153, 1, 1, 0, 105189
-11230.3, 290919, -96.941, 0.953901, -772.817, 0.742982, 0.354394, 1.03299, 0.34851, 0.655882, 0.0001, 45.5, 246, 22.4134, 0.0752484, 0, 0, 1, 0, 105190
-11230.3, 290919, -96.941, 0.953901, -772.817, 0.742982, 0.354394, 1.03299, 0.34851, 0.655882, 3, 45.5, 246, 22.4134, 0.0752484, 0, 0, 1, 0, 105190
-10099.2, 315491, -108.678, 1.03947, -878.805, 0.846758, 0.323588, 0.993198, 0.349787, 0.651995, 3, 91, 246, 22.4134, 0.0752484, 0, 0, 1, 0, 105190
-8628.9, 347160, -122.699, 1.13873, -1018.56, 0.983576, 0.298209, 0.958125, 0.351078, 0.648177, 0.0001, 182, 246, 22.4134, 0.0752484, 0, 0, 1, 0, 105190
-2204, 353561, -453.019, 4.20279, -1257.96, 0.440982, 0.436102, 0.958125, 0.351078, 0.648177, 0.0001, 182, 246, 47.2414, 0.194554, 0, 0, 0, 0, 105192
-2204, 353561, -453.019, 4.20279, -1257.96, 0.440982, 0.436102, 0.958125, 0.351078, 0.648177, 3, 182, 246, 47.2414, 0.194554, 0, 0, 0, 0, 105192
-9824.96, 610676, -266.134, 0.47805, -956.165, 0.106541, 0.449912, 1.03299, 0.34851, 0.655882, 0.0001, 45.5, 246, 32.9179, 0.11127, 0, 0, 0, 0, 105194
-8477.97, 392468, -278.676, 0.52445, -1047.28, 0.643481, 0.516032, 1.03299, 0.34851, 0.655882, 0.0001, 45.5, 246, 38.7845, 0.16933, 0, 0, 0, 0, 105196
-8477.97, 392468, -278.676, 0.52445, -1047.28, 0.643481, 0.516032, 1.03299, 0.34851, 0.655882, 3, 45.5, 246, 38.7845, 0.16933, 0, 0, 0, 0, 105196
-7013.47, 430066, -295.636, 0.566098, -1170.3, 0.71777, 0.495513, 0.993198, 0.349787, 0.651995, 3, 91, 246, 38.7845, 0.16933, 0, 0, 1, 0, 105196
-9761.51, 126786, -106.32, 2.49674, -925.284, 0.118775, 0.298655, 1.03299, 0.34851, 0.655882, 0.0001, 45.5, 246, 31.7643, 0.131225, 0, 0, 1, 0, 105200
-9761.51, 126786, -106.32, 2.49674, -925.284, 0.118775, 0.298655, 1.03299, 0.34851, 0.655882, 3, 45.5, 246, 31.7643, 0.131225, 0, 0, 1, 0, 105200
-9769.33, 106661, -41.0513, 3.45861, -642.51, 0.313189, 0.190963, 0.993198, 0.349787, 0.651995, 0.0001, 91, 246, 14.1147, 0.0396134, 0, 0, 1, 0, 105210
-9769.33, 106661, -41.0513, 3.45861, -642.51, 0.313189, 0.190963, 0.993198, 0.349787, 0.651995, 3, 91, 246, 14.1147, 0.0396134, 0, 0, 1, 0, 105210
-8156.83, 115896, -66.791, 3.83594, -684.361, 0.390907, 0.212132, 0.958125, 0.351078, 0.648177, 0.0001, 182, 246, 14.1147, 0.0396134, 0, 0, 1, 0, 105210
-8156.83, 115896, -66.791, 3.83594, -684.361, 0.390907, 0.212132, 0.958125, 0.351078, 0.648177, 3, 182, 246, 14.1147, 0.0396134, 0, 0, 1, 0, 105210
-9926.6, 184730, -206.389, 2.45805, -893.035, -0.0187727, 0.393117, 1.03299, 0.34851, 0.655882, 0.0001, 45.5, 246, 42.6221, 0.202752, 0, 0, 0, 0, 105216
-9926.6, 184730, -206.389, 2.45805, -893.035, -0.0187727, 0.393117, 1.03299, 0.34851, 0.655882, 3, 45.5, 246, 42.6221, 0.202752, 0, 0, 0, 0, 105216
422.353, 239696, -350.352, 3.17489, -977.125, 0.0965561, 0.427164, 0.9175, 0.352806, 0.64323, 0.0001, 455, 246, 42.6221, 0.202752, 1.05052, 1, 0, 0, 105216
422.353, 239696, -350.352, 3.17489, -977.125, 0.0965561, 0.427164, 0.9175, 0.352806, 0.64323, 3, 455, 246, 42.6221, 0.202752, 1.84209, 1, 0, 0, 105216
-5522.66, 77406.2, -172.849, 2.4954, -617.991, -0.0101408, 0.340438, 1.03299, 0.34851, 0.655882, 0.0001, 45.5, 246, 50.9382, 0.219971, 1.15466, 1, 1, 0, 105224
-4430.47, 84647.7, -200.455, 2.68242, -631.12, 0.0192674, 0.334521, 0.993198, 0.349787, 0.651995, 0.0001, 91, 246, 50.9382, 0.219971, 1.12536, 1, 1, 0, 105224
-3030.33, 92651.2, -232.02, 2.89294, -650.617, 0.0535593, 0.339698, 0.958125, 0.351078, 0.648177, 0.0001, 182, 246, 50.9382, 0.219971, 1.26293, 1, 1, 0, 105224
-3030.33, 92651.2, -232.02, 2.89294, -650.617, 0.0535593, 0.339698, 0.958125, 0.351078, 0.648177, 3, 182, 246, 50.9382, 0.219971, 1.1009, 1, 1, 0, 105224
-577.387, 104975, -281.748, 3.22037, -689.092, 0.109028, 0.364343, 0.9175, 0.352806, 0.64323, 0.0001, 455, 246, 50.9382, 0.219971, 1.75445, 1, 1, 0, 105224
-577.387, 104975, -281.748, 3.22037, -689.092, 0.109028, 0.364343, 0.9175, 0.352806, 0.64323, 3, 455, 246, 50.9382, 0.219971, 1.67487, 1, 1, 0, 105224
-5672.56, 603764, -412.523, 0.116422, -1152.15, 0.144958, 0.610703, 1.03299, 0.34851, 0.655882, 3, 45.5, 246, 43.6139, 0.175876, 0, 0, 0, 0, 105225
2920.89, 687401, -634.476, 2.93339, -818.159, 0.0745698, 0.621238, 0.9175, 0.352806, 0.64323, 0.0001, 455, 246, 38.2669, 0.173822, 0, 0, 0, 0, 105226
2920.89, 687401, -634.476, 2.93339, -818.159, 0.0745698, 0.621238, 0.9175, 0.352806, 0.64323, 3, 455, 246, 38.2669, 0.173822, 0, 0, 0, 0, 105226
-12034.3, 315021, -92.2683, 1.04586, -736.659, 0.600655, 0.347238, 1.03299, 0.34851, 0.655882, 0.0001, 45.5, 246, 21.2499, 0.0680015, 0, 0, 1, 0, 105233
-12034.3, 315021, -92.2683, 1.04586, -736.659, 0.600655, 0.347238, 1.03299, 0.34851, 0.655882, 3, 45.5, 246, 21.2499, 0.0680015, 0, 0, 1, 0, 105233
2028.69, 195962, -370.411, 4.8305, -932.042, 0.682639, 0.382166, 0.9175, 0.352806, 0.64323, 0.0001, 455, 246, 38.978, 0.158009, 4.51965, 1, 0, 0, 105235
2028.69, 195962, -370.411, 4.8305, -932.042, 0.682639, 0.382166, 0.9175, 0.352806, 0.64323, 3, 455, 246, 38.978, 0.158009, 4.60498, 1, 0, 0, 105235
-7206.16, 11098.4, -34.8471, 3.16498, -1023.88, -0.00782551, 0.223223, 1.03299, 0.34851, 0.655882, 0.0001, 45.5, 246, 25.4289, 0.071353, 0, 0, 1, 0, 105237
-7206.16, 11098.4, -34.8471, 3.16498, -1023.88, -0.00782551, 0.223223, 1.03299, 0.34851, 0.655882, 3, 45.5, 246, 25.4289, 0.071353, 0, 0, 1, 0, 105237
-7012.73, 138662, -254.388, 3.12222, -693.003, 0.604631, 0.323963, 1.03299, 0.34851, 0.655882, 0.0001, 45.5, 246, 48.9495, 0.20684, 1.31722, 1, 0, 0, 105241
-7012.73, 138662, -254.388, 3.12222, -693.003, 0.604631, 0.323963, 1.03299, 0.34851, 0.655882, 3, 45.5, 246, 48.9495, 0.20684, 1.21178, 1, 0, 0, 105241
-4367.37, 154421, -299.336, 3.51805, -794.614, 0.721941, 0.336314, 0.993198, 0.349787, 0.651995, 0.0001, 91, 246, 48.9495, 0.20684, 1.45495, 1, 1, 0, 105241
-4367.37, 154421, -299.336, 3.51805, -794.614, 0.721941, 0.336314, 0.993198, 0.349787, 0.651995, 3, 91, 246, 48.9495, 0.20684, 1.32597, 1, 1, 0, 105241
-772.861, 176124, -357.649, 4.01932, -936.05, 0.885188, 0.370529, 0.958125, 0.351078, 0.648177, 0.0001, 182, 246, 48.9495, 0.20684, 2.34606, 1, 0, 0, 105241
-772.861, 176124, -357.649, 4.01932, -936.05, 0.885188, 0.370529, 0.958125, 0.351078, 0.648177, 3, 182, 246, 48.9495, 0.20684, 2.18935, 1, 0, 0, 105241
-10908.2, 351502, -309.162, 1.12573, -944.008, -0.00588913, 0.583844, 1.03299, 0.34851, 0.655882, 0.0001, 45.5, 246, 43.6466, 0.22366, 0, 0, 0, 0, 105248
-10908.2, 351502, -309.162, 1.12573, -944.008, -0.00588913, 0.583844, 1.03299, 0.34851, 0.655882, 3, 45.5, 246, 43.6466, 0.22366, 0, 0, 0, 0, 105248
-10380.8, 115315, -60.0641, 2.76922, -1146.23, 0.20374, 0.252854, 1.03299, 0.34851, 0.655882, 0.0001, 45.5, 246, 27.0908, 0.0930346, 0, 0, 0, 0, 105249
-10380.8, 115315, -60.0641, 2.76922, -1146.23, 0.20374, 0.252854, 1.03299, 0.34851, 0.655882, 3, 45.5, 246, 27.0908, 0.0930346, 0, 0, 0, 0, 105249
-11463.8, 225965, -100.801, 1.60106, -922.42, 0.0623709, 0.343567, 1.03299, 0.34851, 0.655882, 0.0001, 45.5, 246, 26.7976, 0.102867, 0, 0, 1, 0, 105254
-9947.46, 241888, -120.382, 1.69845, -937.296, 0.0750598, 0.319823, 0.993198, 0.349787, 0.651995, 3, 91, 246, 26.7976, 0.102867, 0, 0, 1, 0, 105254
-8905.87, 39537.8, 2.80573, 0.779912, -962.967, 0.0101716, 0.336314, 1.03299, 0.34851, 0.655882, 0.0001, 45.5, 246, 7.5829, 0.0262822, 0, 0, 1, 0, 105256
-8905.87, 39537.8, 2.80573, 0.779912, -962.967, 0.0101716, 0.336314, 1.03299, 0.34851, 0.655882, 3, 45.5, 246, 7.5829, 0.0262822, 0, 0, 1, 0, 105256
-10590.3, 336107, -321.456, 1.20126, -1026.4, 0.262471, 0.604215, 1.03299, 0.34851, 0.655882, 0.0001, 45.5, 246, 46.161, 0.234387, 0, 0, 0, 0, 105268
-10590.3, 336107, -321.456, 1.20126, -1026.4, 0.262471, 0.604215, 1.03299, 0.34851, 0.655882, 3, 45.5, 246, 46.161, 0.234387, 0, 0, 0, 0, 105268
-7682.99, 90905.8, -139.653, 3.48164, -748.721, -0.0572804, 0.205879, 1.03299, 0.34851, 0.655882, 3, 45.5, 246, 37.3544, 0.130178, 0, 0, 1, 0, 105270
-165.655, 129513, -299.316, 4.79722, -847.665, 0.189945, 0.336369, 0.9175, 0.352806, 0.64323, 0.0001, 455, 246, 37.3544, 0.130178, 1.54567, 1, 0, 0, 105270
-165.655, 129513, -299.316, 4.79722, -847.665, 0.189945, 0.336369, 0.9175, 0.352806, 0.64323, 3, 455, 246, 37.3544, 0.130178, 1.53039, 1, 0, 0, 105270
-7614.35, 301658, -433.775, 3.95172, -1011.54, 0.0315321, 0.457284, 0.993198, 0.349787, 0.651995, 0.0001, 91, 246, 52.8393, 0.23164, 1.45154, 1, 1, 0, 105279
-7614.35, 301658, -433.775, 3.95172, -1011.54, 0.0315321, 0.457284, 0.993198, 0.349787, 0.651995, 3, 91, 246, 52.8393, 0.23164, 1.37092, 1, 1, 0, 105279
-10185.5, 172972, -142.026, 1.95864, -872.021, -0.0103024, 0.367433, 1.03299, 0.34851, 0.655882, 0.0001, 45.5, 246, 34.2527, 0.161668, 0, 0, 1, 0, 105281
-10185.5, 172972, -142.026, 1.95864, -872.021, -0.0103024, 0.367433, 1.03299, 0.34851, 0.655882, 3, 45.5, 246, 34.2527, 0.161668, 0, 0, 1, 0, 105281
-8638.15, 186506, -167.245, 2.08522, -880.039, 0.00763891, 0.351672, 0.993198, 0.349787, 0.651995, 3, 91, 246, 34.2527, 0.161668, 0, 0, 1, 0, 105281
-12038.3, 518193, -65.9454, 0.576093, -821.221, 0.331491, 0.343432, 1.03299, 0.34851, 0.655882, 0.0001, 45.5, 246, 20.1649, 0.0326674, 0, 0, 1, 0, 105282
-12038.3, 518193, -65.9454, 0.576093, -821.221, 0.331491, 0.343432, 1.03299, 0.34851, 0.655882, 3, 45.5, 246, 20.1649, 0.0326674, 0, 0, 1, 0, 105282
-3509.07, 183763, -305.321, 4.09309, -817.564, 0.667022, 0.313826, 0.958125, 0.351078, 0.648177, 0.0001, 182, 246, 40.086, 0.165386, 1.16949, 1, 0, 0, 105285
-3389.05, 256443, -335.031, 4.20808, -1149.09, 0.32255, 0.329104, 0.958125, 0.351078, 0.648177, 0.0001, 182, 246, 41.8269, 0.165217, 1.19228, 1, 0, 0, 105286
-11351.2, 269623, -284.434, 1.86769, -872.289, 0.120032, 0.528835, 1.03299, 0.34851, 0.655882, 0.0001, 45.5, 246, 45.2025, 0.233185, 0, 0, 0, 0, 105292
-11351.2, 269623, -284.434, 1.86769, -872.289, 0.120032, 0.528835, 1.03299, 0.34851, 0.655882, 3, 45.5, 246, 45.2025, 0.233185, 0, 0, 0, 0, 105292
-11189, 223228, -1.65275, 1.59112, -867.996, 0.0640696, 0.277428, 0.993198, 0.349787, 0.651995, 3, 91, 246, 12.728, 0.00901799, 0, 0, 1, 0, 105296
-9476.37, 535026, -144.599, 0.7438, -667.446, 0.266418, 0.30283, 0.958125, 0.351078, 0.648177, 3, 182, 246, 19.8022, 0.062345, 0, 0, 1, 0, 105320
-9075.13, 39944.3, 21.8943, 3.55571, -866.675, 0.302737, 0.147921, 1.03299, 0.34851, 0.655882, 0.0001, 45.5, 246, 10.822, 0.0314531, 1.03607, 1, 0, 0, 105323
-11698.7, 356237, -347.228, 1.50028, -1042.62, 0.0180359, 0.62489, 1.03299, 0.34851, 0.655882, 0.0001, 45.5, 246, 48.2623, 0.241388, 0, 0, 0, 0, 105325
-11698.7, 356237, -347.228, 1.50028, -1042.62, 0.0180359, 0.62489, 1.03299, 0.34851, 0.655882, 3, 45.5, 246, 48.2623, 0.241388, 0, 0, 0, 0, 105325
-8530.41, 441902, -331.271, 0.218033, -767.854, 0.588475, 0.565975, 1.03299, 0.34851, 0.655882, 0.0001, 45.5, 246, 36.1879, 0.182245, 0, 0, 0, 0, 105326
-7332.51, 470156, -345.179, 0.233594, -848.705, 0.649054, 0.549112, 0.993198, 0.349787, 0.651995, 0.0001, 91, 246, 36.1879, 0.182245, 0, 0, 1, 0, 105326
-5927.46, 503999, -359.21, 0.25066, -948.09, 0.723518, 0.536592, 0.958125, 0.351078, 0.648177, 0.0001, 182, 246, 36.1879, 0.182245, 0, 0, 0, 0, 105326
-9866.29, 568714, -186.297, 0.29167, -594.551, 0.349, 0.395435, 1.03299, 0.34851, 0.655882, 0.0001, 45.5, 246, 21.9526, 0.0799489, 0, 0, 1, 0, 105329
-9866.29, 568714, -186.297, 0.29167, -594.551, 0.349, 0.395435, 1.03299, 0.34851, 0.655882, 3, 45.5, 246, 21.9526, 0.0799489, 0, 0, 1, 0, 105329
-9052.26, 586815, -194.184, 0.307215, -630.817, 0.369787, 0.363649, 0.993198, 0.349787, 0.651995, 0.0001, 91, 246, 21.9526, 0.0799489, 0, 0, 1, 0, 105329
-8097.87, 606880, -202.054, 0.323199, -671.684, 0.393199, 0.336112, 0.958125, 0.351078, 0.648177, 0.0001, 182, 246, 21.9526, 0.0799489, 0, 0, 1, 0, 105329
-190.591, 488708, -370.256, 1.53917, -1190.07, 0.0214776, 0.455919, 0.9175, 0.352806, 0.64323, 3, 455, 246, 40.6313, 0.16665, 0, 0, 0, 0, 105333
-6872.38, -1267.64, -47.9049, 3.75663, -1085.92, 0.00700038, 0.215452, 0.993198, 0.349787, 0.651995, 0.0001, 91, 246, 21.1428, 0.0489641, 0, 0, 1, 1, 105334
-6872.38, -1267.64, -47.9049, 3.75663, -1085.92, 0.00700038, 0.215452, 0.993198, 0.349787, 0.651995, 3, 91, 246, 21.1428, 0.0489641, 0, 0, 1, 1, 105334
-11870.9, 274171, -241.988, 2.10731, -1044.79, 0.0628968, 0.448978, 1.03299, 0.34851, 0.655882, 0.0001, 45.5, 246, 42.4473, 0.193605, 0, 0, 0, 0, 105337
-9829.32, 685531, -143.185, 0.26558, -763.583, 0.814193, 0.36442, 1.03299, 0.34851, 0.655882, 0.0001, 45.5, 246, 22.4304, 0.0462384, 0, 0, 1, 0, 105338
-9829.32, 685531, -143.185, 0.26558, -763.583, 0.814193, 0.36442, 1.03299, 0.34851, 0.655882, 3, 45.5, 246, 22.4304, 0.0462384, 0, 0, 1, 0, 105338
-9038.18, 730114, -149.818, 0.287028, -877.496, 0.934798, 0.330198, 0.993198, 0.349787, 0.651995, 3, 91, 246, 22.4304, 0.0462384, 0, 0, 1, 0, 105338
-8817.6, 49171.1, -25.0066, 2.95618, -1015.19, -0.0145565, 0.231036, 1.03299, 0.34851, 0.655882, 0.0001, 45.5, 246, 20.9049, 0.0704279, 1.15299, 1, 1, 0, 105351
-8222.42, 66901, -55.5408, 3.1962, -1019.34, 0.0269568, 0.23021, 0.993198, 0.349787, 0.651995, 0.0001, 91, 246, 20.9049, 0.0704279, 0, 0, 1, 0, 105351
-11314, 901906, -85.7913, 0.293867, -889.08, 0.00123454, 0.347203, 1.03299, 0.34851, 0.655882, 0.0001, 45.5, 246, 23.3448, 0.0250003, 0, 0, 1, 0, 105352
-11314, 901906, -85.7913, 0.293867, -889.08, 0.00123454, 0.347203, 1.03299, 0.34851, 0.655882, 3, 45.5, 246, 23.3448, 0.0250003, 0, 0, 1, 0, 105352
-14005.9, 208179, -45.3234, 2.41902, -609.91, 0.116626, 0.254372, 1.03299, 0.34851, 0.655882, 0.0001, 45.5, 246, 16.2593, 0.0493466, 0, 0, 1, 0, 105360
-14005.9, 208179, -45.3234, 2.41902, -609.91, 0.116626, 0.254372, 1.03299, 0.34851, 0.655882, 3, 45.5, 246, 16.2593, 0.0493466, 0, 0, 1, 0, 105360
-12096.1, 348217, -84.5704, 1.00626, -887.295, 0.241073, 0.345612, 1.03299, 0.34851, 0.655882, 0.0001, 45.5, 246, 22.7992, 0.0616529, 0, 0, 1, 0, 105370
-12096.1, 348217, -84.5704, 1.00626, -887.295, 0.241073, 0.345612, 1.03299, 0.34851, 0.655882, 3, 45.5, 246, 22.7992, 0.0616529, 0, 0, 1, 0, 105370
-9744.5, 57703.2, 14.7059, 3.50053, -834.35, 0.0695649, 0.155226, 1.03299, 0.34851, 0.655882, 0.0001, 45.5, 246, 11.6222, 0.0308752, 0, 0, 0, 0, 105371
-9744.5, 57703.2, 14.7059, 3.50053, -834.35, 0.0695649, 0.155226, 1.03299, 0.34851, 0.655882, 3, 45.5, 246, 11.6222, 0.0308752, 0, 0, 0, 0, 105371
-12055.1, 268470, -30.8848, 1.14399, -687.544, -0.000893306, 0.32487, 1.03299, 0.34851, 0.655882, 0.0001, 45.5, 246, 14.9057, 0.033843, 0, 0, 1, 0, 105377
-12055.1, 268470, -30.8848, 1.14399, -687.544, -0.000893306, 0.32487, 1.03299, 0.34851, 0.655882, 3, 45.5, 246, 14.9057, 0.033843, 0, 0, 1, 0, 105377
-10941.4, 276599, -39.593, 1.19852, -688.855, 0.00512986, 0.293663, 0.993198, 0.349787, 0.651995, 3, 91, 246, 14.9057, 0.033843, 0, 0, 1, 0, 105377
-2425.45, 87742.8, -239.224, 4.23425, -855.334, 0.386659, 0.314131, 0.9175, 0.352806, 0.64323, 0.0001, 455, 246, 37.7511, 0.112929, 1.09232, 1, 1, 0, 105379
-2425.45, 87742.8, -239.224, 4.23425, -855.334, 0.386659, 0.314131, 0.9175, 0.352806, 0.64323, 3, 455, 246, 37.7511, 0.112929, 1.06313, 1, 1, 0, 105379
-9979.7, 130648, -86.6078, 2.27005, -1107.59, 0.113776, 0.309238, 1.03299, 0.34851, 0.655882, 0.0001, 45.5, 246, 30.1701, 0.120196, 0, 0, 1, 0, 105381
-9979.7, 130648, -86.6078, 2.27005, -1107.59, 0.113776, 0.309238, 1.03299, 0.34851, 0.655882, 3, 45.5, 246, 30.1701, 0.120196, 0, 0, 1, 0, 105381
-6840.25, 178203, -151.436, 2.6379, -1173.84, 0.172873, 0.29252, 0.958125, 0.351078, 0.648177, 3, 182, 246, 30.1701, 0.120196, 0, 0, 1, 0, 105381
-8744.46, 85342.4, -80.3585, 2.15266, -957.605, 0.0345463, 0.317113, 1.03299, 0.34851, 0.655882, 0.0001, 45.5, 246, 30.6938, 0.135781, 0, 0, 1, 0, 105393
-8744.46, 85342.4, -80.3585, 2.15266, -957.605, 0.0345463, 0.317113, 1.03299, 0.34851, 0.655882, 3, 45.5, 246, 30.6938, 0.135781, 0, 0, 1, 0, 105393
-7431.71, 151013, -248.729, 3.45509, -962.834, 0.632125, 0.289604, 1.03299, 0.34851, 0.655882, 0.0001, 45.5, 246, 49.5195, 0.198832, 1.22511, 1, 0, 0, 105394
-7431.71, 151013, -248.729, 3.45509, -962.834, 0.632125, 0.289604, 1.03299, 0.34851, 0.655882, 3, 45.5, 246, 49.5195, 0.198832, 1.10552, 1, 0, 0, 105394
-4271.04, 176605, -307.005, 3.92264, -1103.22, 0.768556, 0.311164, 0.993198, 0.349787, 0.651995, 0.0001, 91, 246, 49.5195, 0.198832, 1.44154, 1, 1, 0, 105394
-4271.04, 176605, -307.005, 3.92264, -1103.22, 0.768556, 0.311164, 0.993198, 0.349787, 0.651995, 3, 91, 246, 49.5195, 0.198832, 1.31025, 1, 1, 0, 105394
-7377.76, -2139.33, -31.4675, 3.47262, -1081.59, -9.82652e-05, 0.229874, 0.993198, 0.349787, 0.651995, 0.0001, 91, 246, 16.6199, 0.055876, 0, 0, 1, 1, 105397
-7377.76, -2139.33, -31.4675, 3.47262, -1081.59, -9.82652e-05, 0.229874, 0.993198, 0.349787, 0.651995, 3, 91, 246, 16.6199, 0.055876, 0, 0, 1, 1, 105397
-10145.7, 492227, -183.558, 0.653075, -1117.08, 0.0143632, 0.402907, 1.03299, 0.34851, 0.655882, 0.0001, 45.5, 246, 32.2947, 0.0958421, 0, 0, 0, 0, 105399
-10145.7, 492227, -183.558, 0.653075, -1117.08, 0.0143632, 0.402907, 1.03299, 0.34851, 0.655882, 3, 45.5, 246, 32.2947, 0.0958421, 0, 0, 0, 0, 105399
-7027.78, 493514, -264.535, 0.33608, -974.571, 0.0214099, 0.44623, 0.993198, 0.349787, 0.651995, 0.0001, 91, 246, 34.3858, 0.138183, 0, 0, 1, 0, 105400
-5806.58, 512110, -276.494, 0.347881, -980.359, 0.0219978, 0.42504, 0.958125, 0.351078, 0.648177, 0.0001, 182, 246, 34.3858, 0.138183, 0, 0, 0, 0, 105400
-5806.58, 512110, -276.494, 0.347881, -980.359, 0.0219978, 0.42504, 0.958125, 0.351078, 0.648177, 3, 182, 246, 34.3858, 0.138183, 0, 0, 0, 0, 105400
-7824.71, 68599.4, -73.6305, 3.80459, -902.449, -0.000101004, 0.187611, 0.993198, 0.349787, 0.651995, 0.0001, 91, 246, 22.7216, 0.0690842, 0, 0, 1, 0, 105404
-7824.71, 68599.4, -73.6305, 3.80459, -902.449, -0.000101004, 0.187611, 0.993198, 0.349787, 0.651995, 3, 91, 246, 22.7216, 0.0690842, 0, 0, 1, 0, 105404
-9658.07, 81432.7, -51.8758, 3.25394, -734.111, -0.0174235, 0.194833, 1.03299, 0.34851, 0.655882, 0.0001, 45.5, 246, 21.7878, 0.0699812, 0, 0, 1, 0, 105409
-9658.07, 81432.7, -51.8758, 3.25394, -734.111, -0.0174235, 0.194833, 1.03299, 0.34851, 0.655882, 3, 45.5, 246, 21.7878, 0.0699812, 0, 0, 1, 0, 105409
-3344.8, 284910, -379.38, 3.52294, -1052.39, 0.331085, 0.432155, 0.958125, 0.351078, 0.648177, 0.0001, 182, 246, 45.1698, 0.202588, 1.16046, 1, 0, 0, 105413
-10610.6, 263381, -248.426, 1.20648, -726.896, 0.244391, 0.519843, 1.03299, 0.34851, 0.655882, 0.0001, 45.5, 246, 39.582, 0.220502, 0, 0, 0, 0, 105415
-10610.6, 263381, -248.426, 1.20648, -726.896, 0.244391, 0.519843, 1.03299, 0.34851, 0.655882, 3, 45.5, 246, 39.582, 0.220502, 0, 0, 0, 0, 105415
-8844.39, 277712, -270.371, 1.28939, -765.197, 0.261316, 0.505454, 0.993198, 0.349787, 0.651995, 3, 91, 246, 39.582, 0.220502, 0, 0, 1, 0, 105415
-2582.86, 70042, -227.299, 2.84146, -517.635, 0.723187, 0.294756, 1.03299, 0.34851, 0.655882, 0.0001, 45.5, 246, 57.861, 0.193283, 1.69976, 1, 1, 0, 105418
-2582.86, 70042, -227.299, 2.84146, -517.635, 0.723187, 0.294756, 1.03299, 0.34851, 0.655882, 3, 45.5, 246, 57.861, 0.193283, 1.59183, 1, 1, 0, 105418
-1120.86, 79607.1, -261.277, 3.20377, -606.969, 0.861732, 0.296507, 0.993198, 0.349787, 0.651995, 0.0001, 91, 246, 57.861, 0.193283, 1.78771, 1, 1, 1, 105418
-1120.86, 79607.1, -261.277, 3.20377, -606.969, 0.861732, 0.296507, 0.993198, 0.349787, 0.651995, 3, 91, 246, 57.861, 0.193283, 1.67645, 1, 1, 0, 105418
869.077, 93141.4, -305.084, 3.66418, -733.153, 1.05744, 0.317105, 0.958125, 0.351078, 0.648177, 0.0001, 182, 246, 57.861, 0.193283, 2.21317, 1, 1, 1, 105418
869.077, 93141.4, -305.084, 3.66418, -733.153, 1.05744, 0.317105, 0.958125, 0.351078, 0.648177, 3, 182, 246, 57.861, 0.193283, 2.08279, 1, 1, 1, 105418
-8266.24, 807216, -61.8807, 1.68989, -1170.79, 0.032584, 0.228983, 0.9175, 0.352806, 0.64323, 3, 455, 246, 25.379, 0.00904038, 0, 0, 0, 0, 105424
-3518.73, 79215.4, -198.328, 3.56219, -1102.39, 0.0513646, 0.282981, 0.958125, 0.351078, 0.648177, 0.0001, 182, 246, 46.1892, 0.138302, 1.03777, 1, 1, 0, 105425
-857.282, 110357, -275.447, 4.03063, -1155.22, 0.136558, 0.333132, 0.9175, 0.352806, 0.64323, 0.0001, 455, 246, 46.1892, 0.138302, 2.00426, 1, 0, 0, 105425
-857.282, 110357, -275.447, 4.03063, -1155.22, 0.136558, 0.333132, 0.9175, 0.352806, 0.64323, 3, 455, 246, 46.1892, 0.138302, 1.96099, 1, 0, 0, 105425
-9504.87, 163254, -78.839, 1.68612, -800.672, 0.408468, 0.301005, 0.993198, 0.349787, 0.651995, 0.0001, 91, 246, 21.5332, 0.087033, 0, 0, 1, 0, 105426
-9504.87, 163254, -78.839, 1.68612, -800.672, 0.408468, 0.301005, 0.993198, 0.349787, 0.651995, 3, 91, 246, 21.5332, 0.087033, 0, 0, 1, 0, 105426
-8332.97, 179080, -96.3595, 1.82097, -861.02, 0.451075, 0.282692, 0.958125, 0.351078, 0.648177, 0.0001, 182, 246, 21.5332, 0.087033, 0, 0, 1, 0, 105426
-8332.97, 179080, -96.3595, 1.82097, -861.02, 0.451075, 0.282692, 0.958125, 0.351078, 0.648177, 3, 182, 246, 21.5332, 0.087033, 0, 0, 1, 0, 105426
-8746.56, 825852, -350.214, 0.161854, -754.021, 0.000218293, 0.483744, 1.03299, 0.34851, 0.655882, 0.0001, 45.5, 246, 30.2633, 0.110136, 0, 0, 0, 0, 105429
-8746.56, 825852, -350.214, 0.161854, -754.021, 0.000218293, 0.483744, 1.03299, 0.34851, 0.655882, 3, 45.5, 246, 30.2633, 0.110136, 0, 0, 0, 0, 105429
-8384.72, 74362.2, -65.6973, 3.30045, -758.36, 0.576318, 0.216361, 0.993198, 0.349787, 0.651995, 3, 91, 246, 19.9446, 0.0622753, 0, 0, 1, 0, 105430
-7255.13, 87936.8, -96.9984, 3.70811, -845.802, 0.693313, 0.234304, 0.958125, 0.351078, 0.648177, 0.0001, 182, 246, 19.9446, 0.0622753, 0, 0, 1, 0, 105430
-7255.13, 87936.8, -96.9984, 3.70811, -845.802, 0.693313, 0.234304, 0.958125, 0.351078, 0.648177, 3, 182, 246, 19.9446, 0.0622753, 0, 0, 1, 0, 105430
-4894.7, 113224, -155.748, 4.42704, -1018.49, 0.922773, 0.292907, 0.9175, 0.352806, 0.64323, 0.0001, 455, 246, 19.9446, 0.0622753, 0, 0, 1, 0, 105430
-4894.7, 113224, -155.748, 4.42704, -1018.49, 0.922773, 0.292907, 0.9175, 0.352806, 0.64323, 3, 455, 246, 19.9446, 0.0622753, 0, 0, 1, 0, 105430
-8487.74, 94371.5, -102.097, 1.86588, -1017.78, 0.242806, 0.356736, 1.03299, 0.34851, 0.655882, 3, 45.5, 246, 35.5247, 0.177449, 0, 0, 1, 0, 105434
-10709.4, 188795, -123.675, 1.82709, -993.599, 0.609404, 0.350648, 1.03299, 0.34851, 0.655882, 0.0001, 45.5, 246, 31.4721, 0.129356, 0, 0, 1, 0, 105442
-10709.4, 188795, -123.675, 1.82709, -993.599, 0.609404, 0.350648, 1.03299, 0.34851, 0.655882, 3, 45.5, 246, 31.4721, 0.129356, 0, 0, 1, 0, 105442
-9117.59, 215008, -149.544, 2.00827, -1108.16, 0.692195, 0.331736, 0.993198, 0.349787, 0.651995, 3, 91, 246, 31.4721, 0.129356, 0, 0, 1, 0, 105442
-8251.29, 107798, -134.787, 2.56671, -947.774, 0.010111, 0.321694, 1.03299, 0.34851, 0.655882, 0.0001, 45.5, 246, 39.1472, 0.173105, 0, 0, 1, 0, 105443
-8251.29, 107798, -134.787, 2.56671, -947.774, 0.010111, 0.321694, 1.03299, 0.34851, 0.655882, 3, 45.5, 246, 39.1472, 0.173105, 0, 0, 1, 0, 105443
-9384.48, 84456.2, -35.3997, 1.65328, -911.902, -0.0116874, 0.319005, 1.03299, 0.34851, 0.655882, 0.0001, 45.5, 246, 20.0371, 0.0827382, 0, 0, 1, 0, 105445
-9384.48, 84456.2, -35.3997, 1.65328, -911.902, -0.0116874, 0.319005, 1.03299, 0.34851, 0.655882, 3, 45.5, 246, 20.0371, 0.0827382, 0, 0, 1, 0, 105445
-1190.28, 146326, -285.331, 3.80761, -831.269, 0.734744, 0.352127, 0.9175, 0.352806, 0.64323, 0.0001, 455, 246, 38.9934, 0.165769, 1.33581, 1, 0, 0, 105451
-1190.28, 146326, -285.331, 3.80761, -831.269, 0.734744, 0.352127, 0.9175, 0.352806, 0.64323, 3, 455, 246, 38.9934, 0.165769, 1.33065, 1, 0, 0, 105451
-7624.55, 840395, -353.913, 0.0176739, -666.191, 0.041338, 0.48212, 1.03299, 0.34851, 0.655882, 0.0001, 45.5, 246, 28.1646, 0.108238, 0, 0, 0, 0, 105454
-7624.55, 840395, -353.913, 0.0176739, -666.191, 0.041338, 0.48212, 1.03299, 0.34851, 0.655882, 3, 45.5, 246, 28.1646, 0.108238, 0, 0, 0, 0, 105454
-6638.54, 852356, -364.957, 0.0182599, -670.742, 0.0416112, 0.457165, 0.993198, 0.349787, 0.651995, 3, 91, 246, 28.1646, 0.108238, 0, 0, 1, 0, 105454
-7532.94, 68910.6, -110.99, 2.79506, -637.751, -0.037154, 0.266119, 1.03299, 0.34851, 0.655882, 0.0001, 45.5, 246, 35.0101, 0.128774, 0, 0, 1, 0, 105458
-7532.94, 68910.6, -110.99, 2.79506, -637.751, -0.037154, 0.266119, 1.03299, 0.34851, 0.655882, 3, 45.5, 246, 35.0101, 0.128774, 0, 0, 1, 0, 105458
-11909.9, 258325, -396.314, 3.41716, -844.694, 0.471983, 0.465203, 1.03299, 0.34851, 0.655882, 0.0001, 45.5, 246, 54.5698, 0.247053, 1.23874, 1, 0, 0, 105459
-11909.9, 258325, -396.314, 3.41716, -844.694, 0.471983, 0.465203, 1.03299, 0.34851, 0.655882, 3, 45.5, 246, 54.5698, 0.247053, 1.0917, 1, 0, 0, 105459
-6263.9, 282607, -465.482, 3.85869, -959.843, 0.572716, 0.499067, 0.993198, 0.349787, 0.651995, 0.0001, 91, 246, 54.5698, 0.247053, 1.73975, 1, 1, 0, 105459
-6263.9, 282607, -465.482, 3.85869, -959.843, 0.572716, 0.499067, 0.993198, 0.349787, 0.651995, 3, 91, 246, 54.5698, 0.247053, 1.67076, 1, 1, 0, 105459
-4799.58, 84271.7, -221.52, 3.45112, -507.49, 0.803277, 0.205842, 1.03299, 0.34851, 0.655882, 0.0001, 45.5, 246, 46.7497, 0.147399, 1.48612, 1, 0, 0, 105462
-4799.58, 84271.7, -221.52, 3.45112, -507.49, 0.803277, 0.205842, 1.03299, 0.34851, 0.655882, 3, 45.5, 246, 46.7497, 0.147399, 1.39327, 1, 0, 0, 105462
-2937.82, 94652, -260.736, 3.95004, -609.243, 0.988848, 0.222352, 0.993198, 0.349787, 0.651995, 0.0001, 91, 246, 46.7497, 0.147399, 1.48879, 1, 1, 0, 105462
-2937.82, 94652, -260.736, 3.95004, -609.243, 0.988848, 0.222352, 0.993198, 0.349787, 0.651995, 3, 91, 246, 46.7497, 0.147399, 1.38386, 1, 1, 0, 105462
-346.045, 110133, -314.11, 4.61716, -762.117, 1.26735, 0.267639, 0.958125, 0.351078, 0.648177, 0.0001, 182, 246, 46.7497, 0.147399, 1.84005, 1, 1, 1, 105462
-346.045, 110133, -314.11, 4.61716, -762.117, 1.26735, 0.267639, 0.958125, 0.351078, 0.648177, 3, 182, 246, 46.7497, 0.147399, 1.72464, 1, 1, 1, 105462
-10031, 93710, -48.3243, 3.00774, -931.747, 0.0487791, 0.222823, 1.03299, 0.34851, 0.655882, 0.0001, 45.5, 246, 23.3583, 0.0777976, 0, 0, 1, 0, 105463
-10031, 93710, -48.3243, 3.00774, -931.747, 0.0487791, 0.222823, 1.03299, 0.34851, 0.655882, 3, 45.5, 246, 23.3583, 0.0777976, 0, 0, 1, 0, 105463
-10617.6, 514587, -452.613, 0.354475, -785.281, 0.0291195, 0.735695, 1.03299, 0.34851, 0.655882, 3, 45.5, 246, 43.4959, 0.234936, 0, 0, 0, 0, 105474
-7822.73, 695315, -148.58, 0.243338, -1179.51, 0.985905, 0.331749, 0.993198, 0.349787, 0.651995, 0.0001, 91, 246, 27.4894, 0.0483051, 0, 0, 1, 0, 105477
-6986.87, 765855, -155.806, 0.264966, -1398.32, 1.16818, 0.301847, 0.958125, 0.351078, 0.648177, 0.0001, 182, 246, 27.4894, 0.0483051, 0, 0, 1, 0, 105477
-9700.48, 107519, -92.0537, 3.25451, -924.943, -0.0447054, 0.215767, 1.03299, 0.34851, 0.655882, 0.0001, 45.5, 246, 30.1389, 0.107081, 0, 0, 1, 0, 105478
-9700.48, 107519, -92.0537, 3.25451, -924.943, -0.0447054, 0.215767, 1.03299, 0.34851, 0.655882, 3, 45.5, 246, 30.1389, 0.107081, 0, 0, 0, 0, 105478
-11898.3, 205197, -48.6909, 1.47578, -580.471, 0.707321, 0.31501, 1.03299, 0.34851, 0.655882, 0.0001, 45.5, 246, 15.7888, 0.0515593, 0, 0, 1, 0, 105479
-11898.3, 205197, -48.6909, 1.47578, -580.471, 0.707321, 0.31501, 1.03299, 0.34851, 0.655882, 3, 45.5, 246, 15.7888, 0.0515593, 0, 0, 1, 0, 105479
-10722.4, 220087, -59.9262, 1.619, -656.422, 0.808159, 0.287728, 0.993198, 0.349787, 0.651995, 3, 91, 246, 15.7888, 0.0515593, 0, 0, 1, 0, 105479
-11300.2, 416019, -394.142, 0.960143, -955.67, 0.0494148, 0.693814, 1.03299, 0.34851, 0.655882, 3, 45.5, 246, 47.3552, 0.246044, 0, 0, 0, 0, 105483
-10703, 84909.3, 0.422465, 3.34571, -870.544, 0.0869436, 0.170338, 1.03299, 0.34851, 0.655882, 0.0001, 45.5, 246, 14.769, 0.0381364, 0, 0, 0, 0, 105484
-10703, 84909.3, 0.422465, 3.34571, -870.544, 0.0869436, 0.170338, 1.03299, 0.34851, 0.655882, 3, 45.5, 246, 14.769, 0.0381364, 0, 0, 0, 0, 105484
-8274.53, 58855, -65.965, 3.47314, -777.878, -0.0416199, 0.179735, 1.03299, 0.34851, 0.655882, 0.0001, 45.5, 246, 26.1843, 0.0790722, 0, 0, 1, 0, 105490
-8274.53, 58855, -65.965, 3.47314, -777.878, -0.0416199, 0.179735, 1.03299, 0.34851, 0.655882, 3, 45.5, 246, 26.1843, 0.0790722, 0, 0, 1, 0, 105490
-9075.21, -94308.3, -5.14268, 0.00153612, -913.799, 0.0114399, 0.342004, 1.03299, 0.34851, 0.655882, 0.0001, 45.5, 246, -78.8846, 0.0184878, 0, 0, 1, 0, 105499
-9075.21, -94308.3, -5.14268, 0.00153612, -913.799, 0.0114399, 0.342004, 1.03299, 0.34851, 0.655882, 3, 45.5, 246, -78.8846, 0.0184878, 0, 0, 1, 0, 105499
