-12091.1, 876990, -49.5568, 0.292603, -847.37, 0.699837, 0.341339, 1.03299, 0.34851, 0.655882, 0.0001, 45.5, 246, 21.3429, 0.0133283, 0, 0, 1, 0, 25510
-12091.1, 876990, -49.5568, 0.292603, -847.37, 0.699837, 0.341339, 1.03299, 0.34851, 0.655882, 3, 45.5, 246, 21.3429, 0.0133283, 0, 0, 1, 0, 25510
-6754.04, 590128, -237.378, 0.277797, -1047.07, 0.0146238, 0.3987, 0.993198, 0.349787, 0.651995, 0.0001, 91, 246, 32.6517, 0.102377, 0, 0, 1, 0, 25513
1079.87, 201410, -352.215, 4.59954, -788.477, 0.283203, 0.370509, 0.9175, 0.352806, 0.64323, 0.0001, 455, 246, 36.9543, 0.153269, 1.93006, 1, 0, 0, 25521
1079.87, 201410, -352.215, 4.59954, -788.477, 0.283203, 0.370509, 0.9175, 0.352806, 0.64323, 3, 455, 246, 36.9543, 0.153269, 1.94019, 1, 0, 0, 25521
-4562.77, 292289, -124.189, 3.1832, -1603.16, 1.28546, 0.257415, 0.9175, 0.352806, 0.64323, 3, 455, 246, 18.1947, 0.0391679, 0, 0, 0, 0, 25525
-6690.8, -13700, -20.9447, 3.288, -978.106, 0.0954466, 0.21322, 1.03299, 0.34851, 0.655882, 0.0001, 45.5, 246, 22.7953, 0.0430281, 0, 0, 1, 1, 25529
-6917.85, 3031.71, -53.8899, 3.59852, -1000.48, 0.149773, 0.222072, 0.993198, 0.349787, 0.651995, 3, 91, 246, 22.7953, 0.0430281, 0, 0, 1, 1, 25529
-6068.16, 110726, -205.673, 2.92016, -909.082, 0.4283, 0.333846, 1.03299, 0.34851, 0.655882, 0.0001, 45.5, 246, 50.4335, 0.217214, 1.18902, 1, 1, 0, 25536
-4127.69, 130201, -249.7, 3.24376, -997.419, 0.504074, 0.340062, 0.993198, 0.349787, 0.651995, 0.0001, 91, 246, 50.4335, 0.217214, 1.24424, 1, 1, 0, 25536
-4127.69, 130201, -249.7, 3.24376, -997.419, 0.504074, 0.340062, 0.993198, 0.349787, 0.651995, 3, 91, 246, 50.4335, 0.217214, 1.04075, 1, 1, 0, 25536
-1382.25, 155003, -305.098, 3.63715, -1114.39, 0.604097, 0.363935, 0.958125, 0.351078, 0.648177, 0.0001, 182, 246, 50.4335, 0.217214, 1.87383, 1, 0, 0, 25536
-1382.25, 155003, -305.098, 3.63715, -1114.39, 0.604097, 0.363935, 0.958125, 0.351078, 0.648177, 3, 182, 246, 50.4335, 0.217214, 1.72369, 1, 0, 0, 25536
-2647.47, 156444, -219.345, 5.23817, -1365.37, 1.16563, 0.315713, 0.9175, 0.352806, 0.64323, 0.0001, 455, 246, 23.4176, 0.0711315, 0, 0, 0, 0, 25538
-2647.47, 156444, -219.345, 5.23817, -1365.37, 1.16563, 0.315713, 0.9175, 0.352806, 0.64323, 3, 455, 246, 23.4176, 0.0711315, 0, 0, 0, 0, 25538
-10247, 191739, -166.488, 1.81108, -896.468, 0.446648, 0.394122, 1.03299, 0.34851, 0.655882, 0.0001, 45.5, 246, 36.1263, 0.171557, 0, 0, 1, 0, 25539
-10247, 191739, -166.488, 1.81108, -896.468, 0.446648, 0.394122, 1.03299, 0.34851, 0.655882, 3, 45.5, 246, 36.1263, 0.171557, 0, 0, 1, 0, 25539
-10453.3, 252312, -189.605, 1.1138, -709.291, 0.0818215, 0.448327, 1.03299, 0.34851, 0.655882, 0.0001, 45.5, 246, 33.5514, 0.179334, 0, 0, 1, 0, 25540
-10453.3, 252312, -189.605, 1.1138, -709.291, 0.0818215, 0.448327, 1.03299, 0.34851, 0.655882, 3, 45.5, 246, 33.5514, 0.179334, 0, 0, 1, 0, 25540
-9101.77, 262985, -206.581, 1.17542, -724.915, 0.0887197, 0.426426, 0.993198, 0.349787, 0.651995, 0.0001, 91, 246, 33.5514, 0.179334, 0, 0, 1, 0, 25540
-5308.81, 643202, -149.895, 3.37295, -774.495, 0.690418, 0.236104, 0.9175, 0.352806, 0.64323, 3, 455, 246, 16.1567, 0.0325422, 0, 0, 0, 0, 25544
-5672.83, 62908.4, -138.389, 2.54006, -948.609, -8.3711e-05, 0.310091, 0.993198, 0.349787, 0.651995, 0.0001, 91, 246, 46.8912, 0.193557, 0, 0, 1, 1, 25547
-5672.83, 62908.4, -138.389, 2.54006, -948.609, -8.3711e-05, 0.310091, 0.993198, 0.349787, 0.651995, 3, 91, 246, 46.8912, 0.193557, 0, 0, 1, 1, 25547
-2927.75, 102206, -222.624, 3.01348, -992.134, 0.0787184, 0.325239, 0.9175, 0.352806, 0.64323, 0.0001, 455, 246, 46.8912, 0.193557, 1.0974, 1, 1, 0, 25547
-2927.75, 102206, -222.624, 3.01348, -992.134, 0.0787184, 0.325239, 0.9175, 0.352806, 0.64323, 3, 455, 246, 46.8912, 0.193557, 1.13311, 1, 1, 0, 25547
-12174.9, 168253, -68.655, 2.67038, -1002.19, 0.0418718, 0.255761, 1.03299, 0.34851, 0.655882, 0.0001, 45.5, 246, 25.553, 0.0843302, 0, 0, 0, 0, 25551
-12174.9, 168253, -68.655, 2.67038, -1002.19, 0.0418718, 0.255761, 1.03299, 0.34851, 0.655882, 3, 45.5, 246, 25.553, 0.0843302, 0, 0, 0, 0, 25551
-6768.22, 567404, -404.654, 0.135626, -1032.07, 0.0801011, 0.622843, 1.03299, 0.34851, 0.655882, 0.0001, 45.5, 246, 42.3246, 0.187121, 0, 0, 0, 0, 25553
-6768.22, 567404, -404.654, 0.135626, -1032.07, 0.0801011, 0.622843, 1.03299, 0.34851, 0.655882, 3, 45.5, 246, 42.3246, 0.187121, 0, 0, 0, 0, 25553
-11405.3, 330343, -171.082, 1.25386, -1086.67, 0.238261, 0.400846, 1.03299, 0.34851, 0.655882, 0.0001, 45.5, 246, 33.4117, 0.124538, 0, 0, 0, 0, 25563
-11405.3, 330343, -171.082, 1.25386, -1086.67, 0.238261, 0.400846, 1.03299, 0.34851, 0.655882, 3, 45.5, 246, 33.4117, 0.124538, 0, 0, 0, 0, 25563
-8856.86, 131342, -62.9766, 0.609323, -1106.13, 0.0729623, 0.367786, 1.03299, 0.34851, 0.655882, 0.0001, 45.5, 246, 24.6519, 0.115551, 0, 0, 1, 0, 25574
-8856.86, 131342, -62.9766, 0.609323, -1106.13, 0.0729623, 0.367786, 1.03299, 0.34851, 0.655882, 3, 45.5, 246, 24.6519, 0.115551, 0, 0, 1, 0, 25574
-4043.29, 279765, -327.042, 3.67304, -1218.62, 0.557857, 0.361273, 0.958125, 0.351078, 0.648177, 0.0001, 182, 246, 41.2817, 0.169921, 0, 0, 0, 0, 25580
-4043.29, 279765, -327.042, 3.67304, -1218.62, 0.557857, 0.361273, 0.958125, 0.351078, 0.648177, 3, 182, 246, 41.2817, 0.169921, 0, 0, 0, 0, 25580
-6635.74, -15369.4, -26.9369, 3.1665, -835.247, 0.33023, 0.221316, 1.03299, 0.34851, 0.655882, 0.0001, 45.5, 246, 23.854, 0.0178843, 0, 0, 1, 0, 25583
-6635.74, -15369.4, -26.9369, 3.1665, -835.247, 0.33023, 0.221316, 1.03299, 0.34851, 0.655882, 3, 45.5, 246, 23.854, 0.0178843, 0, 0, 1, 0, 25583
-8400.19, 334852, -206.085, 0.647748, -879.632, 0.272815, 0.421023, 0.993198, 0.349787, 0.651995, 0.0001, 91, 246, 32.1109, 0.152219, 0, 0, 1, 0, 25585
-6866.56, -12984.9, -35.3684, 2.94145, -664.525, 0.144503, 0.243053, 1.03299, 0.34851, 0.655882, 3, 45.5, 246, 25.7789, 0.0128744, 0, 0, 1, 1, 25586
-6311.93, 175550, -287.7, 3.90207, -719.819, 0.000815788, 0.287409, 0.993198, 0.349787, 0.651995, 0.0001, 91, 246, 44.3196, 0.183729, 1.165, 1, 1, 0, 25588
-6311.93, 175550, -287.7, 3.90207, -719.819, 0.000815788, 0.287409, 0.993198, 0.349787, 0.651995, 3, 91, 246, 44.3196, 0.183729, 1.00391, 1, 1, 0, 25588
-2287.21, 186889, -344.477, 4.30306, -758.156, 0.0747909, 0.330283, 0.958125, 0.351078, 0.648177, 0.0001, 182, 246, 44.3196, 0.183729, 1.75161, 1, 0, 0, 25588
-2287.21, 186889, -344.477, 4.30306, -758.156, 0.0747909, 0.330283, 0.958125, 0.351078, 0.648177, 3, 182, 246, 44.3196, 0.183729, 1.59885, 1, 0, 0, 25588
-8371.08, 253021, -199.735, 1.60236, -1142.94, -3.34838e-05, 0.406872, 0.993198, 0.349787, 0.651995, 3, 91, 246, 38.0438, 0.175014, 0, 0, 1, 0, 25589
-7099.85, 133293, -220.317, 2.56673, -860.861, 0.28249, 0.401724, 1.03299, 0.34851, 0.655882, 0.0001, 45.5, 246, 50.4352, 0.243374, 1.00427, 1, 1, 0, 25594
-2426.5, 170498, -306.376, 3.10033, -996.724, 0.387391, 0.417509, 0.958125, 0.351078, 0.648177, 0.0001, 182, 246, 50.4352, 0.243374, 1.40051, 1, 0, 0, 25594
-2426.5, 170498, -306.376, 3.10033, -996.724, 0.387391, 0.417509, 0.958125, 0.351078, 0.648177, 3, 182, 246, 50.4352, 0.243374, 1.15243, 1, 0, 0, 25594
-9144.09, 461778, -322.876, 0.636166, -1093.84, 0.485086, 0.543471, 1.03299, 0.34851, 0.655882, 0.0001, 45.5, 246, 40.8169, 0.169801, 0, 0, 0, 0, 25597
-9144.09, 461778, -322.876, 0.636166, -1093.84, 0.485086, 0.543471, 1.03299, 0.34851, 0.655882, 3, 45.5, 246, 40.8169, 0.169801, 0, 0, 0, 0, 25597
-17562.3, -195705, -4.33077, 0.804776, -1193.4, 0.00142649, 0.428666, 1.03299, 0.34851, 0.655882, 0.0001, 45.5, 246, -107.232, 0.205926, 0, 0, 1, 0, 25606
-17562.3, -195705, -4.33077, 0.804776, -1193.4, 0.00142649, 0.428666, 1.03299, 0.34851, 0.655882, 3, 45.5, 246, -107.232, 0.205926, 0, 0, 1, 0, 25606
-9506.49, 128869, -134.812, 3.01378, -887.419, -0.00996763, 0.266291, 1.03299, 0.34851, 0.655882, 0.0001, 45.5, 246, 35.5394, 0.141869, 0, 0, 1, 0, 25607
-9506.49, 128869, -134.812, 3.01378, -887.419, -0.00996763, 0.266291, 1.03299, 0.34851, 0.655882, 3, 45.5, 246, 35.5394, 0.141869, 0, 0, 1, 0, 25607
-843.34, 182096, -286.261, 4.03879, -985.581, 0.171797, 0.338556, 0.9175, 0.352806, 0.64323, 0.0001, 455, 246, 35.5394, 0.141869, 1.07769, 1, 0, 0, 25607
-843.34, 182096, -286.261, 4.03879, -985.581, 0.171797, 0.338556, 0.9175, 0.352806, 0.64323, 3, 455, 246, 35.5394, 0.141869, 1.08485, 1, 0, 0, 25607
-11364.9, 122972, -26.8219, 2.64407, -958.474, 0.473135, 0.239867, 1.03299, 0.34851, 0.655882, 0.0001, 45.5, 246, 19.7818, 0.0560591, 0, 0, 1, 0, 25612
-7099.12, -9897.32, 3.72867, 3.47261, -1091.76, 0.119191, 0.187758, 1.03299, 0.34851, 0.655882, 0.0001, 45.5, 246, 16.6117, 0.0582039, 0, 0, 1, 0, 25613
-7099.12, -9897.32, 3.72867, 3.47261, -1091.76, 0.119191, 0.187758, 1.03299, 0.34851, 0.655882, 3, 45.5, 246, 16.6117, 0.0582039, 0, 0, 1, 0, 25613
-7801.74, 59757.1, -86.1299, 2.80153, -753.308, 0.173898, 0.255972, 1.03299, 0.34851, 0.655882, 0.0001, 45.5, 246, 31.4442, 0.110022, 0, 0, 1, 0, 25619
-7801.74, 59757.1, -86.1299, 2.80153, -753.308, 0.173898, 0.255972, 1.03299, 0.34851, 0.655882, 3, 45.5, 246, 31.4442, 0.110022, 0, 0, 1, 0, 25619
-5986.25, 82864.5, -146.167, 3.34616, -826.558, 0.271765, 0.263638, 0.958125, 0.351078, 0.648177, 3, 182, 246, 31.4442, 0.110022, 0, 0, 1, 0, 25619
-4486.61, 67899.8, -174.055, 2.47438, -710.907, 0.10867, 0.343033, 1.03299, 0.34851, 0.655882, 0.0001, 45.5, 246, 56.7602, 0.240586, 1.27341, 1, 1, 0, 25620
-4486.61, 67899.8, -174.055, 2.47438, -710.907, 0.10867, 0.343033, 1.03299, 0.34851, 0.655882, 3, 45.5, 246, 56.7602, 0.240586, 1.07429, 1, 1, 0, 25620
-3456.58, 78022.1, -203.972, 2.67618, -737.894, 0.140192, 0.336981, 0.993198, 0.349787, 0.651995, 0.0001, 91, 246, 56.7602, 0.240586, 1.32549, 1, 1, 0, 25620
-3456.58, 78022.1, -203.972, 2.67618, -737.894, 0.140192, 0.336981, 0.993198, 0.349787, 0.651995, 3, 91, 246, 56.7602, 0.240586, 1.14124, 1, 1, 0, 25620
-2072.75, 89447, -238.754, 2.90524, -773.068, 0.178328, 0.342398, 0.958125, 0.351078, 0.648177, 0.0001, 182, 246, 56.7602, 0.240586, 1.56044, 1, 1, 0, 25620
-2072.75, 89447, -238.754, 2.90524, -773.068, 0.178328, 0.342398, 0.958125, 0.351078, 0.648177, 3, 182, 246, 56.7602, 0.240586, 1.40815, 1, 1, 0, 25620
477.706, 107437, -294.701, 3.26566, -836.715, 0.242591, 0.368321, 0.9175, 0.352806, 0.64323, 0.0001, 455, 246, 56.7602, 0.240586, 2.67589, 1, 0, 0, 25620
477.706, 107437, -294.701, 3.26566, -836.715, 0.242591, 0.368321, 0.9175, 0.352806, 0.64323, 3, 455, 246, 56.7602, 0.240586, 2.57649, 1, 0, 0, 25620
-10536.4, 475733, -30.3261, 1.02155, -1155.17, 0.0468717, 0.265383, 0.958125, 0.351078, 0.648177, 3, 182, 246, 21.5237, 0.0132004, 0, 0, 1, 0, 25621
-8198.36, 481875, -434.842, 0.102726, -904.476, 0.0394621, 0.73967, 1.03299, 0.34851, 0.655882, 0.0001, 45.5, 246, 45.6623, 0.245766, 0, 0, 0, 0, 25623
-7206.85, 96467.8, -151.586, 3.55832, -961.527, -0.0298247, 0.216206, 1.03299, 0.34851, 0.655882, 3, 45.5, 246, 41.4969, 0.149172, 0, 0, 0, 0, 25626
-5377.67, 113074, -198.756, 3.88926, -978.614, 0.0309746, 0.234294, 0.993198, 0.349787, 0.651995, 3, 91, 246, 41.4969, 0.149172, 0, 0, 1, 0, 25626
-2829.83, 131476, -255.748, 4.2885, -1013.5, 0.104952, 0.273311, 0.958125, 0.351078, 0.648177, 0.0001, 182, 246, 41.4969, 0.149172, 1.23538, 1, 1, 0, 25626
-2829.83, 131476, -255.748, 4.2885, -1013.5, 0.104952, 0.273311, 0.958125, 0.351078, 0.648177, 3, 182, 246, 41.4969, 0.149172, 1.05338, 1, 1, 0, 25626
-5470.38, 101354, -187.078, 3.81661, -932.148, 0.740058, 0.222364, 0.993198, 0.349787, 0.651995, 3, 91, 246, 39.244, 0.13193, 0, 0, 1, 0, 25627
-3147.28, 124495, -243.276, 4.37867, -1086.55, 0.921431, 0.260802, 0.958125, 0.351078, 0.648177, 0.0001, 182, 246, 39.244, 0.13193, 1.15813, 1, 1, 0, 25627
2019.03, 173521, -355.818, 5.44996, -1422.92, 1.31417, 0.366168, 0.9175, 0.352806, 0.64323, 0.0001, 455, 246, 39.244, 0.13193, 0, 0, 0, 0, 25627
2019.03, 173521, -355.818, 5.44996, -1422.92, 1.31417, 0.366168, 0.9175, 0.352806, 0.64323, 3, 455, 246, 39.244, 0.13193, 0, 0, 0, 0, 25627
-2448.65, 345312, -472.132, 3.13351, -1150.29, 0.766295, 0.58393, 0.958125, 0.351078, 0.648177, 0.0001, 182, 246, 49.7973, 0.241945, 1.37403, 1, 0, 0, 25628
-2448.65, 345312, -472.132, 3.13351, -1150.29, 0.766295, 0.58393, 0.958125, 0.351078, 0.648177, 3, 182, 246, 49.7973, 0.241945, 1.31877, 1, 0, 0, 25628
-6445.8, 500617, -375.018, 0.109751, -1048.14, 0.372457, 0.605706, 1.03299, 0.34851, 0.655882, 0.0001, 45.5, 246, 42.0482, 0.189187, 0, 0, 0, 0, 25631
-5100.3, 534148, -389.665, 0.116042, -1114.86, 0.395809, 0.592688, 0.993198, 0.349787, 0.651995, 0.0001, 91, 246, 42.0482, 0.189187, 2.68903, 1, 1, 0, 25631
-5100.3, 534148, -389.665, 0.116042, -1114.86, 0.395809, 0.592688, 0.993198, 0.349787, 0.651995, 3, 91, 246, 42.0482, 0.189187, 2.68862, 1, 1, 0, 25631
-3564.29, 572114, -404.159, 0.122604, -1190.54, 0.422283, 0.584133, 0.958125, 0.351078, 0.648177, 0.0001, 182, 246, 42.0482, 0.189187, 3.17482, 1, 0, 0, 25631
-3564.29, 572114, -404.159, 0.122604, -1190.54, 0.422283, 0.584133, 0.958125, 0.351078, 0.648177, 3, 182, 246, 42.0482, 0.189187, 3.08924, 1, 0, 0, 25631
-1229.04, 630716, -423.29, 0.131834, -1307.65, 0.463239, 0.578339, 0.9175, 0.352806, 0.64323, 0.0001, 455, 246, 42.0482, 0.189187, 5.9169, 1, 0, 0, 25631
-1229.04, 630716, -423.29, 0.131834, -1307.65, 0.463239, 0.578339, 0.9175, 0.352806, 0.64323, 3, 455, 246, 42.0482, 0.189187, 5.67414, 1, 0, 0, 25631
-9012.62, 92825.3, -18.3414, 0.557985, -967.329, 0.0850412, 0.343958, 1.03299, 0.34851, 0.655882, 0.0001, 45.5, 246, 14.5218, 0.0527922, 0, 0, 1, 0, 25632
-9012.62, 92825.3, -18.3414, 0.557985, -967.329, 0.0850412, 0.343958, 1.03299, 0.34851, 0.655882, 3, 45.5, 246, 14.5218, 0.0527922, 0, 0, 1, 0, 25632
-7452.55, -17693.4, -20.8878, 2.53666, -641.07, 0.143162, 0.275793, 1.03299, 0.34851, 0.655882, 0.0001, 45.5, 246, 21.437, 0.0262976, 0, 0, 1, 1, 25633
-6002.13, 855582, -193.193, 0.92205, -1105.95, 1.27183, 0.270891, 0.9175, 0.352806, 0.64323, 3, 455, 246, 20.7825, 0.0506928, 0, 0, 0, 0, 25651
-10673.1, 115611, -65.9391, 2.84156, -819.032, 0.62453, 0.231089, 1.03299, 0.34851, 0.655882, 0.0001, 45.5, 246, 23.9854, 0.0805928, 0, 0, 0, 0, 25652
-7152.12, 155678, -133.369, 3.59908, -1054.44, 0.891172, 0.24342, 0.958125, 0.351078, 0.648177, 3, 182, 246, 23.9854, 0.0805928, 0, 0, 1, 0, 25652
-9864.27, 613495, -119.17, 0.442435, -852.781, 0.300173, 0.323768, 0.993198, 0.349787, 0.651995, 3, 91, 246, 22.3967, 0.0471067, 0, 0, 1, 0, 25657
-10571.2, 100418, -47.7706, 3.50003, -885.38, -0.0536087, 0.165816, 1.03299, 0.34851, 0.655882, 0.0001, 45.5, 246, 22.6421, 0.0697033, 0, 0, 0, 0, 25658
-10571.2, 100418, -47.7706, 3.50003, -885.38, -0.0536087, 0.165816, 1.03299, 0.34851, 0.655882, 3, 45.5, 246, 22.6421, 0.0697033, 0, 0, 0, 0, 25658
-9046.24, 448549, -105.363, 0.475706, -1003.44, 0.000590132, 0.32632, 0.993198, 0.349787, 0.651995, 0.0001, 91, 246, 24.9083, 0.0587735, 0, 0, 1, 0, 25665
-10762.4, 139183, -31.5386, 1.90235, -1148.87, -0.0166631, 0.301546, 1.03299, 0.34851, 0.655882, 0.0001, 45.5, 246, 21.4107, 0.0645993, 0, 0, 1, 0, 25666
-10762.4, 139183, -31.5386, 1.90235, -1148.87, -0.0166631, 0.301546, 1.03299, 0.34851, 0.655882, 3, 45.5, 246, 21.4107, 0.0645993, 0, 0, 1, 0, 25666
-11986.9, 315048, -63.4768, 1.04816, -835.471, -0.00408788, 0.337739, 1.03299, 0.34851, 0.655882, 0.0001, 45.5, 246, 20.2844, 0.0539583, 0, 0, 1, 0, 25667
-11986.9, 315048, -63.4768, 1.04816, -835.471, -0.00408788, 0.337739, 1.03299, 0.34851, 0.655882, 3, 45.5, 246, 20.2844, 0.0539583, 0, 0, 1, 0, 25667
-10732.4, 327168, -74.4513, 1.09638, -837.206, 0.000960227, 0.306439, 0.993198, 0.349787, 0.651995, 3, 91, 246, 20.2844, 0.0539583, 0, 0, 1, 0, 25667
-9272.86, 339495, -86.1736, 1.1451, -840.064, 0.00647638, 0.280264, 0.958125, 0.351078, 0.648177, 0.0001, 182, 246, 20.2844, 0.0539583, 0, 0, 1, 0, 25667
-6044.92, 860429, -276.527, 0.213262, -976.747, 0.544847, 0.357648, 0.958125, 0.351078, 0.648177, 3, 182, 246, 28.0014, 0.0773587, 0, 0, 0, 0, 25668
-4711.78, 126055, -268.517, 3.46417, -791.849, -0.0579219, 0.320148, 1.03299, 0.34851, 0.655882, 0.0001, 45.5, 246, 56.6141, 0.233108, 1.519, 1, 1, 0, 25672
-4711.78, 126055, -268.517, 3.46417, -791.849, -0.0579219, 0.320148, 1.03299, 0.34851, 0.655882, 3, 45.5, 246, 56.6141, 0.233108, 1.43751, 1, 1, 0, 25672
-1941.54, 138471, -320.486, 3.78442, -816.121, -0.000186827, 0.341876, 0.993198, 0.349787, 0.651995, 0.0001, 91, 246, 56.6141, 0.233108, 1.87763, 1, 1, 0, 25672
-1941.54, 138471, -320.486, 3.78442, -816.121, -0.000186827, 0.341876, 0.993198, 0.349787, 0.651995, 3, 91, 246, 56.6141, 0.233108, 1.77888, 1, 1, 0, 25672
1674.53, 153130, -382.999, 4.1694, -857.29, 0.0693071, 0.383939, 0.958125, 0.351078, 0.648177, 0.0001, 182, 246, 56.6141, 0.233108, 4.60767, 1, 0, 0, 25672
1674.53, 153130, -382.999, 4.1694, -857.29, 0.0693071, 0.383939, 0.958125, 0.351078, 0.648177, 3, 182, 246, 56.6141, 0.233108, 4.22616, 1, 0, 0, 25672
-4366.48, 72148.3, -185.795, 3.59259, -705.475, 0.111897, 0.295245, 0.9175, 0.352806, 0.64323, 3, 455, 246, 33.8319, 0.107155, 0, 0, 1, 0, 25678
-7466.25, 74499.4, -120.066, 3.59028, -725.088, -0.0500566, 0.1806, 1.03299, 0.34851, 0.655882, 3, 45.5, 246, 34.7693, 0.110045, 0, 0, 1, 0, 25681
-1079.76, 110382, -274.465, 4.99307, -823.91, 0.216196, 0.325034, 0.9175, 0.352806, 0.64323, 0.0001, 455, 246, 34.7693, 0.110045, 1.22109, 1, 1, 0, 25681
-1079.76, 110382, -274.465, 4.99307, -823.91, 0.216196, 0.325034, 0.9175, 0.352806, 0.64323, 3, 455, 246, 34.7693, 0.110045, 1.19774, 1, 1, 0, 25681
-8765.04, 35304.3, 0.484603, 3.1206, -1023.33, -0.0462704, 0.211263, 1.03299, 0.34851, 0.655882, 0.0001, 45.5, 246, 15.8367, 0.0524628, 1.29977, 1, 1, 0, 25682
-11414.3, 230018, -162.673, 1.80392, -818.401, -0.014097, 0.384065, 1.03299, 0.34851, 0.655882, 0.0001, 45.5, 246, 32.9641, 0.153618, 0, 0, 1, 0, 25685
-11414.3, 230018, -162.673, 1.80392, -818.401, -0.014097, 0.384065, 1.03299, 0.34851, 0.655882, 3, 45.5, 246, 32.9641, 0.153618, 0, 0, 1, 0, 25685
-6546.59, -24772.5, -19.2081, 3.19594, -793.134, 0.458849, 0.219339, 1.03299, 0.34851, 0.655882, 0.0001, 45.5, 246, 21.4885, 0.00133226, 0, 0, 1, 0, 25686
-6546.59, -24772.5, -19.2081, 3.19594, -793.134, 0.458849, 0.219339, 1.03299, 0.34851, 0.655882, 3, 45.5, 246, 21.4885, 0.00133226, 0, 0, 1, 0, 25686
-12597.1, 490429, -33.0803, 0.635413, -828.473, 0.257964, 0.336253, 1.03299, 0.34851, 0.655882, 0.0001, 45.5, 246, 18.3004, 0.0193905, 0, 0, 1, 0, 25693
-9793.71, 118322, -82.9544, 2.35448, -995.299, 0.0461724, 0.299092, 1.03299, 0.34851, 0.655882, 0.0001, 45.5, 246, 29.0724, 0.117229, 0, 0, 1, 0, 25703
-9793.71, 118322, -82.9544, 2.35448, -995.299, 0.0461724, 0.299092, 1.03299, 0.34851, 0.655882, 3, 45.5, 246, 29.0724, 0.117229, 0, 0, 1, 0, 25703
-10392.8, 190876, -184.812, 2.36381, -953.212, -0.0102787, 0.377728, 1.03299, 0.34851, 0.655882, 0.0001, 45.5, 246, 39.8073, 0.183468, 0, 0, 0, 0, 25707
-10392.8, 190876, -184.812, 2.36381, -953.212, -0.0102787, 0.377728, 1.03299, 0.34851, 0.655882, 3, 45.5, 246, 39.8073, 0.183468, 0, 0, 0, 0, 25707
-11097.4, 116868, -51.3066, 3.29894, -966.061, 0.0400462, 0.189079, 1.03299, 0.34851, 0.655882, 0.0001, 45.5, 246, 23.888, 0.0747157, 0, 0, 0, 0, 25708
-11097.4, 116868, -51.3066, 3.29894, -966.061, 0.0400462, 0.189079, 1.03299, 0.34851, 0.655882, 3, 45.5, 246, 23.888, 0.0747157, 0, 0, 0, 0, 25708
-12431.9, 326986, -408.688, 3.9389, -730.02, 0.559771, 0.374185, 0.993198, 0.349787, 0.651995, 0.0001, 91, 246, 42.3123, 0.188746, 1.07038, 1, 1, 0, 25711
-4666.88, 351981, -482.488, 4.50019, -857.654, 0.699711, 0.427486, 0.958125, 0.351078, 0.648177, 3, 182, 246, 42.3123, 0.188746, 0, 0, 0, 0, 25711
-3059.96, 72466.8, -203.871, 2.85015, -752.673, -0.0367727, 0.325306, 1.03299, 0.34851, 0.655882, 0.0001, 45.5, 246, 61.3122, 0.240106, 1.51317, 1, 1, 0, 25713
-3059.96, 72466.8, -203.871, 2.85015, -752.673, -0.0367727, 0.325306, 1.03299, 0.34851, 0.655882, 3, 45.5, 246, 61.3122, 0.240106, 1.36795, 1, 1, 0, 25713
-1677.33, 83267.2, -241.025, 3.0795, -767.866, 0.00183593, 0.327745, 0.993198, 0.349787, 0.651995, 0.0001, 91, 246, 61.3122, 0.240106, 1.69639, 1, 1, 0, 25713
-1677.33, 83267.2, -241.025, 3.0795, -767.866, 0.00183593, 0.327745, 0.993198, 0.349787, 0.651995, 3, 91, 246, 61.3122, 0.240106, 1.56047, 1, 1, 0, 25713
163.14, 95214.8, -284.234, 3.34366, -792.985, 0.0471575, 0.343951, 0.958125, 0.351078, 0.648177, 0.0001, 182, 246, 61.3122, 0.240106, 2.20567, 1, 1, 1, 25713
163.14, 95214.8, -284.234, 3.34366, -792.985, 0.0471575, 0.343951, 0.958125, 0.351078, 0.648177, 3, 182, 246, 61.3122, 0.240106, 2.06461, 1, 1, 1, 25713
-10432.9, 328434, -156.503, 0.891502, -979.526, 0.462368, 0.397254, 1.03299, 0.34851, 0.655882, 0.0001, 45.5, 246, 30.2555, 0.112813, 0, 0, 1, 0, 25722
-10432.9, 328434, -156.503, 0.891502, -979.526, 0.462368, 0.397254, 1.03299, 0.34851, 0.655882, 3, 45.5, 246, 30.2555, 0.112813, 0, 0, 1, 0, 25722
-10111.1, 141745, -2.14061, 1.03395, -1139.72, 0.184077, 0.32777, 1.03299, 0.34851, 0.655882, 0.0001, 45.5, 246, 15.3692, 0.0245884, 0, 0, 1, 0, 25724
-7642.33, 132655, -197.072, 2.82342, -945.529, 0.014497, 0.35266, 1.03299, 0.34851, 0.655882, 3, 45.5, 246, 47.0244, 0.212907, 0, 0, 1, 0, 25725
-2865.99, 168000, -287.841, 3.33291, -1001.12, 0.0983075, 0.374294, 0.958125, 0.351078, 0.648177, 0.0001, 182, 246, 47.0244, 0.212907, 1.18879, 1, 0, 0, 25725
-671.896, 141775, -285.542, 3.89824, -1138.94, 0.351357, 0.346417, 0.9175, 0.352806, 0.64323, 0.0001, 455, 246, 42.3269, 0.166951, 1.96431, 1, 0, 0, 25728
-671.896, 141775, -285.542, 3.89824, -1138.94, 0.351357, 0.346417, 0.9175, 0.352806, 0.64323, 3, 455, 246, 42.3269, 0.166951, 1.96532, 1, 0, 0, 25728
-9614.45, 385509, -219.755, 0.45791, -697.397, 0.692778, 0.447324, 1.03299, 0.34851, 0.655882, 0.0001, 45.5, 246, 28.8947, 0.132659, 0, 0, 1, 0, 25738
-9614.45, 385509, -219.755, 0.45791, -697.397, 0.692778, 0.447324, 1.03299, 0.34851, 0.655882, 3, 45.5, 246, 28.8947, 0.132659, 0, 0, 1, 0, 25738
-8603.14, 411356, -231.308, 0.494168, -786.188, 0.779059, 0.420388, 0.993198, 0.349787, 0.651995, 0.0001, 91, 246, 28.8947, 0.132659, 0, 0, 1, 0, 25738
-7358.34, 443417, -243.576, 0.535066, -900.084, 0.889757, 0.397822, 0.958125, 0.351078, 0.648177, 0.0001, 182, 246, 28.8947, 0.132659, 0, 0, 1, 0, 25738
-10940.7, 257304, -311.506, 2.6176, -1072.01, -0.0326955, 0.51454, 1.03299, 0.34851, 0.655882, 3, 45.5, 246, 51.784, 0.247848, 0, 0, 0, 0, 25741
-2024.74, 303562, -425.068, 3.07543, -1127.23, 0.0382018, 0.551536, 0.958125, 0.351078, 0.648177, 0.0001, 182, 246, 51.784, 0.247848, 1.34945, 1, 0, 0, 25741
-2024.74, 303562, -425.068, 3.07543, -1127.23, 0.0382018, 0.551536, 0.958125, 0.351078, 0.648177, 3, 182, 246, 51.784, 0.247848, 1.15292, 1, 0, 0, 25741
1157.3, 405676, -283.678, 5.07638, -1320.53, 0.346481, 0.277186, 0.9175, 0.352806, 0.64323, 3, 455, 246, 28.3149, 0.0678774, 0, 0, 0, 0, 25742
-11240.5, 334340, -144.904, 0.79291, -561.632, 0.495871, 0.385584, 1.03299, 0.34851, 0.655882, 0.0001, 45.5, 246, 22.4896, 0.100833, 0, 0, 1, 0, 25753
-11240.5, 334340, -144.904, 0.79291, -561.632, 0.495871, 0.385584, 1.03299, 0.34851, 0.655882, 3, 45.5, 246, 22.4896, 0.100833, 0, 0, 1, 0, 25753
-10104.5, 349957, -155.424, 0.849727, -612.91, 0.541243, 0.355691, 0.993198, 0.349787, 0.651995, 3, 91, 246, 22.4896, 0.100833, 0, 0, 1, 0, 25753
-8725.3, 368256, -166.896, 0.91159, -674.326, 0.595585, 0.330657, 0.958125, 0.351078, 0.648177, 0.0001, 182, 246, 22.4896, 0.100833, 0, 0, 1, 0, 25753
-11117.8, 121433, -44.5155, 2.84313, -872.006, -0.00759876, 0.23223, 1.03299, 0.34851, 0.655882, 0.0001, 45.5, 246, 21.2807, 0.0689844, 0, 0, 1, 0, 25754
-11117.8, 121433, -44.5155, 2.84313, -872.006, -0.00759876, 0.23223, 1.03299, 0.34851, 0.655882, 3, 45.5, 246, 21.2807, 0.0689844, 0, 0, 1, 0, 25754
-7821.96, 148228, -103.161, 3.32678, -892.749, 0.0760243, 0.23768, 0.958125, 0.351078, 0.648177, 3, 182, 246, 21.2807, 0.0689844, 0, 0, 1, 0, 25754
-6046.54, 666732, -380.619, 0.198675, -1172.5, 0.034709, 0.550221, 1.03299, 0.34851, 0.655882, 0.0001, 45.5, 246, 41.4823, 0.147467, 0, 0, 0, 0, 25759
-8686.31, 613464, -440.084, 0.149456, -827.254, 0.0253284, 0.650479, 1.03299, 0.34851, 0.655882, 0.0001, 45.5, 246, 39.5988, 0.189884, 0, 0, 0, 0, 25761
-8686.31, 613464, -440.084, 0.149456, -827.254, 0.0253284, 0.650479, 1.03299, 0.34851, 0.655882, 3, 45.5, 246, 39.5988, 0.189884, 0, 0, 0, 0, 25761
-10786.2, 181432, -129.381, 1.83043, -763.632, 0.597016, 0.349938, 1.03299, 0.34851, 0.655882, 0.0001, 45.5, 246, 29.6742, 0.132881, 0, 0, 1, 0, 25762
-10786.2, 181432, -129.381, 1.83043, -763.632, 0.597016, 0.349938, 1.03299, 0.34851, 0.655882, 3, 45.5, 246, 29.6742, 0.132881, 0, 0, 1, 0, 25762
-9281.99, 199220, -151.424, 2.01055, -851.737, 0.677072, 0.331023, 0.993198, 0.349787, 0.651995, 3, 91, 246, 29.6742, 0.132881, 0, 0, 1, 0, 25762
-11469.1, 156143, -111.396, 3.38028, -1091.24, -0.0287505, 0.211624, 1.03299, 0.34851, 0.655882, 0.0001, 45.5, 246, 32.8493, 0.115008, 0, 0, 0, 0, 25763
-11469.1, 156143, -111.396, 3.38028, -1091.24, -0.0287505, 0.211624, 1.03299, 0.34851, 0.655882, 3, 45.5, 246, 32.8493, 0.115008, 0, 0, 0, 0, 25763
-8974.31, 176901, -156.736, 3.6811, -1103.3, 0.0259151, 0.223136, 0.993198, 0.349787, 0.651995, 0.0001, 91, 246, 32.8493, 0.115008, 0, 0, 1, 0, 25763
-8974.31, 176901, -156.736, 3.6811, -1103.3, 0.0259151, 0.223136, 0.993198, 0.349787, 0.651995, 3, 91, 246, 32.8493, 0.115008, 0, 0, 1, 0, 25763
459.809, 234417, -302.431, 4.64222, -1206.12, 0.205154, 0.327483, 0.9175, 0.352806, 0.64323, 3, 455, 246, 32.8493, 0.115008, 1.27655, 1, 0, 0, 25763
-11426.8, 241779, -175.132, 1.67095, -807.68, 0.27679, 0.398271, 1.03299, 0.34851, 0.655882, 0.0001, 45.5, 246, 33.2562, 0.155629, 0, 0, 1, 0, 25764
-11426.8, 241779, -175.132, 1.67095, -807.68, 0.27679, 0.398271, 1.03299, 0.34851, 0.655882, 3, 45.5, 246, 33.2562, 0.155629, 0, 0, 1, 0, 25764
-10658.9, 231967, -338.268, 3.19326, -932.521, 0.658208, 0.426357, 1.03299, 0.34851, 0.655882, 0.0001, 45.5, 246, 51.9961, 0.231028, 1.10732, 1, 0, 0, 25767
-6041.33, 260872, -401.039, 3.6255, -1080.06, 0.791483, 0.449468, 0.993198, 0.349787, 0.651995, 0.0001, 91, 246, 51.9961, 0.231028, 1.37468, 1, 1, 0, 25767
-6041.33, 260872, -401.039, 3.6255, -1080.06, 0.791483, 0.449468, 0.993198, 0.349787, 0.651995, 3, 91, 246, 51.9961, 0.231028, 1.2654, 1, 1, 0, 25767
-8979.25, 29118.2, 29.9599, 3.12317, -1139.51, 0.0662287, 0.205336, 1.03299, 0.34851, 0.655882, 0.0001, 45.5, 246, 11.3079, 0.0387371, 1.33699, 1, 1, 0, 25772
-8600.56, 51874.7, -1.65759, 3.40056, -1154.48, 0.114154, 0.208254, 0.993198, 0.349787, 0.651995, 0.0001, 91, 246, 11.3079, 0.0387371, 1.07542, 1, 1, 0, 25772
-7598.71, 52599.2, -81.4475, 3.50584, -707.672, 0.0672276, 0.176325, 1.03299, 0.34851, 0.655882, 0.0001, 45.5, 246, 28.8638, 0.0815444, 0, 0, 1, 0, 25773
-7598.71, 52599.2, -81.4475, 3.50584, -707.672, 0.0672276, 0.176325, 1.03299, 0.34851, 0.655882, 3, 45.5, 246, 28.8638, 0.0815444, 0, 0, 1, 0, 25773
-11118, 140448, -84.5355, 3.08745, -1125.36, 0.187309, 0.229182, 1.03299, 0.34851, 0.655882, 0.0001, 45.5, 246, 29.9944, 0.102141, 0, 0, 0, 0, 25774
-11118, 140448, -84.5355, 3.08745, -1125.36, 0.187309, 0.229182, 1.03299, 0.34851, 0.655882, 3, 45.5, 246, 29.9944, 0.102141, 0, 0, 0, 0, 25774
-6993.72, 742470, -353.67, 0.120799, -912.305, 0.699019, 0.48387, 1.03299, 0.34851, 0.655882, 0.0001, 45.5, 246, 33.2482, 0.108363, 0, 0, 0, 0, 25775
-6993.72, 742470, -353.67, 0.120799, -912.305, 0.699019, 0.48387, 1.03299, 0.34851, 0.655882, 3, 45.5, 246, 33.2482, 0.108363, 0, 0, 0, 0, 25775
-3638.99, 217688, -309.397, 4.49394, -1105.45, 1.24538, 0.289404, 0.958125, 0.351078, 0.648177, 0.0001, 182, 246, 37.9852, 0.145949, 1.07676, 1, 0, 0, 25777
-8868.81, 92351.4, -79.6353, 1.66829, -889.668, 0.0381773, 0.346353, 1.03299, 0.34851, 0.655882, 3, 45.5, 246, 29.8464, 0.148551, 0, 0, 1, 0, 25780
-4785.79, 467604, -375.667, 0.0631893, -1099.23, 0.32432, 0.621858, 0.958125, 0.351078, 0.648177, 3, 182, 246, 43.3899, 0.225117, 0, 0, 0, 0, 25782
-9757.25, 188115, -97.6953, 1.24836, -1189.19, -0.00461745, 0.368491, 1.03299, 0.34851, 0.655882, 0.0001, 45.5, 246, 29.9363, 0.12149, 0, 0, 1, 0, 25788
-9757.25, 188115, -97.6953, 1.24836, -1189.19, -0.00461745, 0.368491, 1.03299, 0.34851, 0.655882, 3, 45.5, 246, 29.9363, 0.12149, 0, 0, 1, 0, 25788
-8998.1, 300257, -436.206, 3.12338, -765.614, 0.587724, 0.542359, 0.993198, 0.349787, 0.651995, 0.0001, 91, 246, 48.8302, 0.241306, 1.14311, 1, 1, 0, 25799
-8998.1, 300257, -436.206, 3.12338, -765.614, 0.587724, 0.542359, 0.993198, 0.349787, 0.651995, 3, 91, 246, 48.8302, 0.241306, 1.00484, 1, 1, 0, 25799
-2698.43, 326306, -501.907, 3.53116, -890.385, 0.701384, 0.579508, 0.958125, 0.351078, 0.648177, 3, 182, 246, 48.8302, 0.241306, 0, 0, 0, 0, 25799
-11469.2, 194259, -13.756, 1.36137, -652.996, 0.00958539, 0.314804, 1.03299, 0.34851, 0.655882, 0.0001, 45.5, 246, 12.2612, 0.0263178, 0, 0, 1, 0, 25804
-11469.2, 194259, -13.756, 1.36137, -652.996, 0.00958539, 0.314804, 1.03299, 0.34851, 0.655882, 3, 45.5, 246, 12.2612, 0.0263178, 0, 0, 1, 0, 25804
-10535.3, 201647, -22.6841, 1.43246, -655.092, 0.0181816, 0.28552, 0.993198, 0.349787, 0.651995, 0.0001, 91, 246, 12.2612, 0.0263178, 0, 0, 1, 0, 25804
-7722.99, 493554, -289.294, 0.205272, -703.73, 0.0681146, 0.474557, 0.993198, 0.349787, 0.651995, 0.0001, 91, 246, 31.2533, 0.150895, 0, 0, 1, 0, 25809
-11369, 262068, -273.837, 2.45141, -1122.19, -0.0119726, 0.473243, 1.03299, 0.34851, 0.655882, 0.0001, 45.5, 246, 47.7216, 0.220381, 0, 0, 0, 0, 25812
-11369, 262068, -273.837, 2.45141, -1122.19, -0.0119726, 0.473243, 1.03299, 0.34851, 0.655882, 3, 45.5, 246, 47.7216, 0.220381, 0, 0, 0, 0, 25812
547.021, 210676, -359.119, 3.73769, -764.042, 0.40851, 0.413803, 0.9175, 0.352806, 0.64323, 0.0001, 455, 246, 40.2816, 0.190131, 1.89877, 1, 0, 0, 25817
547.021, 210676, -359.119, 3.73769, -764.042, 0.40851, 0.413803, 0.9175, 0.352806, 0.64323, 3, 455, 246, 40.2816, 0.190131, 1.90706, 1, 0, 0, 25817
-10857.6, 271393, -101.084, 1.05083, -1011.12, 0.824211, 0.357206, 1.03299, 0.34851, 0.655882, 0.0001, 45.5, 246, 26.561, 0.0834147, 0, 0, 1, 0, 25820
-10857.6, 271393, -101.084, 1.05083, -1011.12, 0.824211, 0.357206, 1.03299, 0.34851, 0.655882, 3, 45.5, 246, 26.561, 0.0834147, 0, 0, 1, 0, 25820
-9638.39, 305551, -116.581, 1.15296, -1166.43, 0.953764, 0.327607, 0.993198, 0.349787, 0.651995, 0.0001, 91, 246, 26.561, 0.0834147, 0, 0, 1, 0, 25820
-9638.39, 305551, -116.581, 1.15296, -1166.43, 0.953764, 0.327607, 0.993198, 0.349787, 0.651995, 3, 91, 246, 26.561, 0.0834147, 0, 0, 1, 0, 25820
-11809.3, 210227, -309.598, 3.15294, -530.424, 0.607136, 0.358638, 1.03299, 0.34851, 0.655882, 0.0001, 45.5, 246, 43.8251, 0.201481, 1.09375, 1, 0, 0, 25822
-7921.17, 224951, -355.046, 3.55891, -619.903, 0.726182, 0.374656, 0.993198, 0.349787, 0.651995, 0.0001, 91, 246, 43.8251, 0.201481, 1.22597, 1, 1, 0, 25822
-7921.17, 224951, -355.046, 3.55891, -619.903, 0.726182, 0.374656, 0.993198, 0.349787, 0.651995, 3, 91, 246, 43.8251, 0.201481, 1.09029, 1, 1, 0, 25822
-2854.89, 245226, -413.433, 4.07495, -744.882, 0.892453, 0.413334, 0.958125, 0.351078, 0.648177, 0.0001, 182, 246, 43.8251, 0.201481, 2.11446, 1, 0, 0, 25822
-2854.89, 245226, -413.433, 4.07495, -744.882, 0.892453, 0.413334, 0.958125, 0.351078, 0.648177, 3, 182, 246, 43.8251, 0.201481, 1.95288, 1, 0, 0, 25822
-5807.6, 889783, -245.9, 0.125899, -1095.29, 0.366626, 0.369598, 0.993198, 0.349787, 0.651995, 0.0001, 91, 246, 31.3419, 0.0665405, 0, 0, 1, 0, 25828
-8127.84, 60798.9, -68.471, 1.95138, -1081.29, 0.154343, 0.305813, 0.993198, 0.349787, 0.651995, 0.0001, 91, 246, 27.6987, 0.131375, 0, 0, 1, 0, 25829
-8127.84, 60798.9, -68.471, 1.95138, -1081.29, 0.154343, 0.305813, 0.993198, 0.349787, 0.651995, 3, 91, 246, 27.6987, 0.131375, 0, 0, 1, 0, 25829
-10707.8, 107631, -37.6984, 2.87595, -923.186, 0.0118992, 0.229595, 1.03299, 0.34851, 0.655882, 0.0001, 45.5, 246, 21.1026, 0.0674702, 0, 0, 1, 0, 25837
-10707.8, 107631, -37.6984, 2.87595, -923.186, 0.0118992, 0.229595, 1.03299, 0.34851, 0.655882, 3, 45.5, 246, 21.1026, 0.0674702, 0, 0, 1, 0, 25837
-9575.06, 382808, -283.637, 0.548767, -818.515, 0.108015, 0.542329, 1.03299, 0.34851, 0.655882, 0.0001, 45.5, 246, 37.4148, 0.192181, 0, 0, 0, 0, 25841
-9575.06, 382808, -283.637, 0.548767, -818.515, 0.108015, 0.542329, 1.03299, 0.34851, 0.655882, 3, 45.5, 246, 37.4148, 0.192181, 0, 0, 0, 0, 25841
-8146.64, 398501, -299.874, 0.575429, -837.175, 0.111301, 0.52438, 0.993198, 0.349787, 0.651995, 3, 91, 246, 37.4148, 0.192181, 0, 0, 1, 0, 25841
-8249.62, 410858, -308.286, 0.278628, -859.743, 0.58125, 0.552234, 1.03299, 0.34851, 0.655882, 0.0001, 45.5, 246, 37.422, 0.183419, 0, 0, 0, 0, 25842
-7084.82, 440564, -322.275, 0.298606, -949.238, 0.640438, 0.534173, 0.993198, 0.349787, 0.651995, 0.0001, 91, 246, 37.422, 0.183419, 0, 0, 1, 0, 25842
-5701.24, 476387, -336.595, 0.320509, -1058.99, 0.713018, 0.520447, 0.958125, 0.351078, 0.648177, 0.0001, 182, 246, 37.422, 0.183419, 0, 0, 0, 0, 25842
-8962.27, 78305.4, -57.3192, 1.74469, -873.042, -0.000479932, 0.326876, 1.03299, 0.34851, 0.655882, 0.0001, 45.5, 246, 25.4044, 0.117594, 0, 0, 1, 0, 25845
-8962.27, 78305.4, -57.3192, 1.74469, -873.042, -0.000479932, 0.326876, 1.03299, 0.34851, 0.655882, 3, 45.5, 246, 25.4044, 0.117594, 0, 0, 1, 0, 25845
-9781.42, 122746, -112.216, 2.66322, -782.369, 0.240335, 0.279119, 1.03299, 0.34851, 0.655882, 0.0001, 45.5, 246, 31.011, 0.125657, 0, 0, 1, 0, 25846
-9781.42, 122746, -112.216, 2.66322, -782.369, 0.240335, 0.279119, 1.03299, 0.34851, 0.655882, 3, 45.5, 246, 31.011, 0.125657, 0, 0, 1, 0, 25846
-9055.3, 103168, -52.6063, 2.34136, -959.926, 0.844767, 0.267721, 0.993198, 0.349787, 0.651995, 0.0001, 91, 246, 19.2061, 0.0667443, 0, 0, 1, 0, 25848
-9055.3, 103168, -52.6063, 2.34136, -959.926, 0.844767, 0.267721, 0.993198, 0.349787, 0.651995, 3, 91, 246, 19.2061, 0.0667443, 0, 0, 1, 0, 25848
-7963.91, 127223, -79.4657, 2.62638, -1114.9, 1.00616, 0.261221, 0.958125, 0.351078, 0.648177, 0.0001, 182, 246, 19.2061, 0.0667443, 0, 0, 1, 0, 25848
-7963.91, 127223, -79.4657, 2.62638, -1114.9, 1.00616, 0.261221, 0.958125, 0.351078, 0.648177, 3, 182, 246, 19.2061, 0.0667443, 0, 0, 1, 0, 25848
-10197.1, 515514, -106.439, 0.465209, -1032.68, -0.000984734, 0.359765, 1.03299, 0.34851, 0.655882, 0.0001, 45.5, 246, 26.0312, 0.0537442, 0, 0, 1, 0, 25855
-10197.1, 515514, -106.439, 0.465209, -1032.68, -0.000984734, 0.359765, 1.03299, 0.34851, 0.655882, 3, 45.5, 246, 26.0312, 0.0537442, 0, 0, 1, 0, 25855
-9259.65, 534380, -114.611, 0.481812, -1033.98, -2.01928e-07, 0.32587, 0.993198, 0.349787, 0.651995, 0.0001, 91, 246, 26.0312, 0.0537442, 0, 0, 1, 0, 25855
-8176.72, 553367, -122.941, 0.497834, -1035.59, 0.00105327, 0.29637, 0.958125, 0.351078, 0.648177, 0.0001, 182, 246, 26.0312, 0.0537442, 0, 0, 1, 0, 25855
-12282.8, 140787, -53.7004, 3.52959, -1104.64, 0.0939325, 0.160762, 1.03299, 0.34851, 0.655882, 0.0001, 45.5, 246, 25.8808, 0.075945, 0, 0, 0, 0, 25858
-12282.8, 140787, -53.7004, 3.52959, -1104.64, 0.0939325, 0.160762, 1.03299, 0.34851, 0.655882, 3, 45.5, 246, 25.8808, 0.075945, 0, 0, 0, 0, 25858
-11115.5, 216067, -15.4363, 1.63944, -630.365, 0.000894605, 0.276773, 0.993198, 0.349787, 0.651995, 3, 91, 246, 11.2141, 0.0184114, 0, 0, 1, 0, 25859
-8431.62, 29614, -32.6577, 2.05358, -1066.18, 0.419125, 0.28847, 0.993198, 0.349787, 0.651995, 3, 91, 246, 17.8288, 0.0763682, 0, 0, 1, 1, 25870
-8176.15, 125843, -189.464, 3.41988, -820.879, 0.622422, 0.230217, 1.03299, 0.34851, 0.655882, 0.0001, 45.5, 246, 41.5776, 0.15547, 1.00226, 1, 0, 0, 25871
-2411.03, 170518, -298.522, 4.45342, -1100.69, 0.943451, 0.288714, 0.958125, 0.351078, 0.648177, 0.0001, 182, 246, 41.5776, 0.15547, 1.43734, 1, 0, 0, 25871
-2411.03, 170518, -298.522, 4.45342, -1100.69, 0.943451, 0.288714, 0.958125, 0.351078, 0.648177, 3, 182, 246, 41.5776, 0.15547, 1.2592, 1, 0, 0, 25871
-12643, 226172, 2.32653, 1.47881, -754.498, 0.214771, 0.305887, 1.03299, 0.34851, 0.655882, 3, 45.5, 246, 12.4437, 0.0122934, 0, 0, 1, 0, 25874
-11390.6, 238941, -8.11302, 1.57659, -781.75, 0.232918, 0.277718, 0.993198, 0.349787, 0.651995, 3, 91, 246, 12.4437, 0.0122934, 0, 0, 1, 0, 25874
-11584.7, 377217, -5.23332, 0.594898, -855.895, 0.291268, 0.334986, 1.03299, 0.34851, 0.655882, 0.0001, 45.5, 246, 15.9282, 0.00785252, 0, 0, 1, 0, 25875
-11584.7, 377217, -5.23332, 0.594898, -855.895, 0.291268, 0.334986, 1.03299, 0.34851, 0.655882, 3, 45.5, 246, 15.9282, 0.00785252, 0, 0, 1, 0, 25875
-10840, 396676, -10.2155, 0.62702, -897.433, 0.307038, 0.299964, 0.993198, 0.349787, 0.651995, 0.0001, 91, 246, 15.9282, 0.00785252, 0, 0, 1, 0, 25875
-9893.73, 202824, -202.326, 2.1657, -1150.98, 0.00862331, 0.426173, 1.03299, 0.34851, 0.655882, 3, 45.5, 246, 43.5716, 0.204811, 0, 0, 0, 0, 25878
-7945.27, 150318, -250.833, 2.80927, -580.824, -0.0139798, 0.385886, 1.03299, 0.34851, 0.655882, 0.0001, 45.5, 246, 48.4123, 0.230119, 1.16175, 1, 1, 0, 25879
-7945.27, 150318, -250.833, 2.80927, -580.824, -0.0139798, 0.385886, 1.03299, 0.34851, 0.655882, 3, 45.5, 246, 48.4123, 0.230119, 1.01459, 1, 1, 0, 25879
-5527.4, 157403, -287.302, 3.04178, -601.932, 0.0235634, 0.391864, 0.993198, 0.349787, 0.651995, 0.0001, 91, 246, 48.4123, 0.230119, 1.22134, 1, 1, 0, 25879
-2552.01, 165897, -329.781, 3.31008, -632.104, 0.0681162, 0.411719, 0.958125, 0.351078, 0.648177, 0.0001, 182, 246, 48.4123, 0.230119, 1.55347, 1, 1, 0, 25879
-2552.01, 165897, -329.781, 3.31008, -632.104, 0.0681162, 0.411719, 0.958125, 0.351078, 0.648177, 3, 182, 246, 48.4123, 0.230119, 1.38519, 1, 1, 0, 25879
-10072.9, 319608, -253.583, 0.832391, -827.787, 0.130773, 0.522184, 1.03299, 0.34851, 0.655882, 0.0001, 45.5, 246, 38.08, 0.200389, 0, 0, 0, 0, 25890
-10072.9, 319608, -253.583, 0.832391, -827.787, 0.130773, 0.522184, 1.03299, 0.34851, 0.655882, 3, 45.5, 246, 38.08, 0.200389, 0, 0, 0, 0, 25890
-8529.46, 335361, -272.042, 0.877982, -851.448, 0.13681, 0.504231, 0.993198, 0.349787, 0.651995, 3, 91, 246, 38.08, 0.200389, 0, 0, 1, 0, 25890
-11118.5, 101352, 14.2626, 2.47336, -700.758, 0.731445, 0.242339, 1.03299, 0.34851, 0.655882, 0.0001, 45.5, 246, 9.66503, 0.0159409, 0, 0, 1, 0, 25894
-10133.2, 115138, -2.41642, 2.76547, -793.839, 0.861072, 0.230417, 0.993198, 0.349787, 0.651995, 0.0001, 91, 246, 9.66503, 0.0159409, 0, 0, 1, 0, 25894
-11201.6, 132912, -52.1457, 2.20674, -564.134, 0.781733, 0.273539, 1.03299, 0.34851, 0.655882, 3, 45.5, 246, 17.5032, 0.0623272, 0, 0, 1, 0, 25897
-8768.82, 386087, -218.744, 0.467466, -680.456, 0.424056, 0.418938, 0.993198, 0.349787, 0.651995, 0.0001, 91, 246, 28.0274, 0.13799, 0, 0, 1, 0, 25898
-3928.71, 587257, -121.77, 4.59428, -1184.88, 0.17537, 0.211336, 0.9175, 0.352806, 0.64323, 0.0001, 455, 246, 22.6201, 0.0111653, 0, 0, 0, 0, 25902
-3928.71, 587257, -121.77, 4.59428, -1184.88, 0.17537, 0.211336, 0.9175, 0.352806, 0.64323, 3, 455, 246, 22.6201, 0.0111653, 0, 0, 0, 0, 25902
-9347.54, 89383.9, -69.7613, 2.50235, -843.492, 0.719098, 0.269529, 1.03299, 0.34851, 0.655882, 0.0001, 45.5, 246, 26.2132, 0.0970441, 0, 0, 1, 0, 25905
-8367.73, 107330, -96.5492, 2.79952, -960.169, 0.846066, 0.260089, 0.993198, 0.349787, 0.651995, 0.0001, 91, 246, 26.2132, 0.0970441, 0, 0, 1, 0, 25905
-8367.73, 107330, -96.5492, 2.79952, -960.169, 0.846066, 0.260089, 0.993198, 0.349787, 0.651995, 3, 91, 246, 26.2132, 0.0970441, 0, 0, 1, 0, 25905
-6871.63, 131882, -132.203, 3.16902, -1121.54, 1.02174, 0.265414, 0.958125, 0.351078, 0.648177, 0.0001, 182, 246, 26.2132, 0.0970441, 0, 0, 1, 0, 25905
-6871.63, 131882, -132.203, 3.16902, -1121.54, 1.02174, 0.265414, 0.958125, 0.351078, 0.648177, 3, 182, 246, 26.2132, 0.0970441, 0, 0, 1, 0, 25905
-11224.7, 90795.8, 10.7317, 3.54605, -1014.72, 0.227036, 0.142022, 1.03299, 0.34851, 0.655882, 0.0001, 45.5, 246, 15.8585, 0.0374638, 0, 0, 0, 0, 25906
-11224.7, 90795.8, 10.7317, 3.54605, -1014.72, 0.227036, 0.142022, 1.03299, 0.34851, 0.655882, 3, 45.5, 246, 15.8585, 0.0374638, 0, 0, 0, 0, 25906
-7760.35, 132701, -67.4811, 4.38435, -1122.25, 0.393264, 0.193236, 0.958125, 0.351078, 0.648177, 3, 182, 246, 15.8585, 0.0374638, 0, 0, 1, 0, 25906
-5725.41, -62302.4, 14.545, 3.47796, -620.954, 0.466021, 0.201599, 1.03299, 0.34851, 0.655882, 0.0001, 45.5, 246, 5.97661, 0.042825, 3.41145, 1, 1, 0, 25911
-5725.41, -62302.4, 14.545, 3.47796, -620.954, 0.466021, 0.201599, 1.03299, 0.34851, 0.655882, 3, 45.5, 246, 5.97661, 0.042825, 3.4109, 1, 1, 0, 25911
-6095.55, 97103.4, -210.269, 3.16505, -538.192, 0.755506, 0.252923, 1.03299, 0.34851, 0.655882, 0.0001, 45.5, 246, 44.7592, 0.16256, 1.3185, 1, 1, 0, 25915
-6095.55, 97103.4, -210.269, 3.16505, -538.192, 0.755506, 0.252923, 1.03299, 0.34851, 0.655882, 3, 45.5, 246, 44.7592, 0.16256, 1.20001, 1, 1, 0, 25915
-4251.34, 108194, -246.658, 3.59526, -635.295, 0.914827, 0.262185, 0.993198, 0.349787, 0.651995, 0.0001, 91, 246, 44.7592, 0.16256, 1.30931, 1, 1, 0, 25915
-4251.34, 108194, -246.658, 3.59526, -635.295, 0.914827, 0.262185, 0.993198, 0.349787, 0.651995, 3, 91, 246, 44.7592, 0.16256, 1.16094, 1, 1, 0, 25915
-1718.74, 124176, -295.051, 4.15567, -776.522, 1.14642, 0.295035, 0.958125, 0.351078, 0.648177, 0.0001, 182, 246, 44.7592, 0.16256, 1.60451, 1, 1, 0, 25915
-1718.74, 124176, -295.051, 4.15567, -776.522, 1.14642, 0.295035, 0.958125, 0.351078, 0.648177, 3, 182, 246, 44.7592, 0.16256, 1.4801, 1, 1, 0, 25915
-5985.24, 646229, -100.604, 3.54879, -855.888, 0.454442, 0.220547, 0.9175, 0.352806, 0.64323, 3, 455, 246, 16.51, 0.0156721, 0, 0, 0, 0, 25917
-10163.3, 368540, -327.371, 0.554583, -724.823, 0.337091, 0.610917, 1.03299, 0.34851, 0.655882, 0.0001, 45.5, 246, 39.8373, 0.223819, 0, 0, 0, 0, 25921
-10163.3, 368540, -327.371, 0.554583, -724.823, 0.337091, 0.610917, 1.03299, 0.34851, 0.655882, 3, 45.5, 246, 39.8373, 0.223819, 0, 0, 0, 0, 25921
-8536.15, 387153, -345.844, 0.590069, -770.906, 0.357575, 0.599891, 0.993198, 0.349787, 0.651995, 3, 91, 246, 39.8373, 0.223819, 0, 0, 1, 0, 25921
-11200.6, 255282, -118.42, 1.08288, -601.261, 0.631546, 0.366737, 1.03299, 0.34851, 0.655882, 0.0001, 45.5, 246, 22.7663, 0.101193, 0, 0, 1, 0, 25927
-11200.6, 255282, -118.42, 1.08288, -601.261, 0.631546, 0.366737, 1.03299, 0.34851, 0.655882, 3, 45.5, 246, 22.7663, 0.101193, 0, 0, 1, 0, 25927
-10048.7, 271709, -130.541, 1.17547, -672.122, 0.707776, 0.338132, 0.993198, 0.349787, 0.651995, 0.0001, 91, 246, 22.7663, 0.101193, 0, 0, 1, 0, 25927
-10035.2, 337960, -216.748, 0.64756, -703.63, 0.000854687, 0.470122, 1.03299, 0.34851, 0.655882, 0.0001, 45.5, 246, 31.9628, 0.16563, 0, 0, 0, 0, 25932
-10035.2, 337960, -216.748, 0.64756, -703.63, 0.000854687, 0.470122, 1.03299, 0.34851, 0.655882, 3, 45.5, 246, 31.9628, 0.16563, 0, 0, 0, 0, 25932
-8884.85, 347501, -230.097, 0.675014, -707.722, 0.00277513, 0.446111, 0.993198, 0.349787, 0.651995, 0.0001, 91, 246, 31.9628, 0.16563, 0, 0, 1, 0, 25932
-8867.24, 285472, -177.637, 0.637918, -1026.9, 0.504047, 0.437049, 1.03299, 0.34851, 0.655882, 0.0001, 45.5, 246, 33.8408, 0.149416, 0, 0, 0, 0, 25933
-7493.65, 130452, -214.488, 2.62695, -652.981, 0.0083632, 0.375313, 1.03299, 0.34851, 0.655882, 3, 45.5, 246, 47.3409, 0.224816, 0, 0, 1, 0, 25934
-3221.18, 148657, -286.3, 3.07591, -699.41, 0.0800951, 0.387993, 0.958125, 0.351078, 0.648177, 0.0001, 182, 246, 47.3409, 0.224816, 1.22026, 1, 1, 0, 25934
-3221.18, 148657, -286.3, 3.07591, -699.41, 0.0800951, 0.387993, 0.958125, 0.351078, 0.648177, 3, 182, 246, 47.3409, 0.224816, 1.00813, 1, 1, 0, 25934
853.33, 164267, -347.958, 3.4544, -752.132, 0.1444, 0.425101, 0.9175, 0.352806, 0.64323, 0.0001, 455, 246, 47.3409, 0.224816, 2.60993, 1, 0, 0, 25934
853.33, 164267, -347.958, 3.4544, -752.132, 0.1444, 0.425101, 0.9175, 0.352806, 0.64323, 3, 455, 246, 47.3409, 0.224816, 2.61161, 1, 0, 0, 25934
-10890.3, 217999, -65.742, 1.19503, -846.761, 0.210765, 0.339176, 1.03299, 0.34851, 0.655882, 0.0001, 45.5, 246, 21.413, 0.073188, 0, 0, 1, 0, 25939
-9898.69, 233515, -78.5149, 1.26813, -878.772, 0.224913, 0.309643, 0.993198, 0.349787, 0.651995, 0.0001, 91, 246, 21.413, 0.073188, 0, 0, 1, 0, 25939
-6100.01, 191345, -232.52, 2.87977, -737.384, 0.276904, 0.337174, 0.958125, 0.351078, 0.648177, 0.0001, 182, 246, 35.1253, 0.163837, 0, 0, 1, 0, 25940
-6100.01, 191345, -232.52, 2.87977, -737.384, 0.276904, 0.337174, 0.958125, 0.351078, 0.648177, 3, 182, 246, 35.1253, 0.163837, 0, 0, 1, 0, 25940
-1879.62, 210914, -286.395, 3.25851, -815.622, 0.35187, 0.361999, 0.9175, 0.352806, 0.64323, 0.0001, 455, 246, 35.1253, 0.163837, 0, 0, 0, 0, 25940
-1879.62, 210914, -286.395, 3.25851, -815.622, 0.35187, 0.361999, 0.9175, 0.352806, 0.64323, 3, 455, 246, 35.1253, 0.163837, 0, 0, 0, 0, 25940
-8172.06, 163821, -86.1271, 0.146747, -1078.32, 0.456188, 0.386326, 1.03299, 0.34851, 0.655882, 0.0001, 45.5, 246, 26.8823, 0.131629, 0, 0, 1, 0, 25946
-2006.7, 79940.7, -246.255, 4.12564, -946.18, 0.573288, 0.313144, 0.9175, 0.352806, 0.64323, 0.0001, 455, 246, 43.6094, 0.105677, 1.37889, 1, 1, 0, 25949
-2006.7, 79940.7, -246.255, 4.12564, -946.18, 0.573288, 0.313144, 0.9175, 0.352806, 0.64323, 3, 455, 246, 43.6094, 0.105677, 1.30302, 1, 1, 0, 25949
-10240.7, 458593, -212.441, 0.714684, -1038.34, 0.013977, 0.43101, 1.03299, 0.34851, 0.655882, 0.0001, 45.5, 246, 33.3963, 0.119125, 0, 0, 0, 0, 25955
-10240.7, 458593, -212.441, 0.714684, -1038.34, 0.013977, 0.43101, 1.03299, 0.34851, 0.655882, 3, 45.5, 246, 33.3963, 0.119125, 0, 0, 0, 0, 25955
-1004.67, 138206, -278.576, 4.91421, -1327.95, 0.296274, 0.337377, 0.9175, 0.352806, 0.64323, 0.0001, 455, 246, 33.8689, 0.109764, 1.58251, 1, 0, 0, 25963
-1004.67, 138206, -278.576, 4.91421, -1327.95, 0.296274, 0.337377, 0.9175, 0.352806, 0.64323, 3, 455, 246, 33.8689, 0.109764, 1.58449, 1, 0, 0, 25963
-8808.53, 156567, -203.258, 2.81123, -1039.31, 0.687866, 0.343699, 1.03299, 0.34851, 0.655882, 0.0001, 45.5, 246, 44.5734, 0.192162, 0, 0, 0, 0, 25965
-8808.53, 156567, -203.258, 2.81123, -1039.31, 0.687866, 0.343699, 1.03299, 0.34851, 0.655882, 3, 45.5, 246, 44.5734, 0.192162, 0, 0, 0, 0, 25965
-6332.19, 185468, -250.253, 3.16527, -1188.63, 0.815686, 0.348026, 0.993198, 0.349787, 0.651995, 0.0001, 91, 246, 44.5734, 0.192162, 0, 0, 1, 0, 25965
-6332.19, 185468, -250.253, 3.16527, -1188.63, 0.815686, 0.348026, 0.993198, 0.349787, 0.651995, 3, 91, 246, 44.5734, 0.192162, 0, 0, 1, 0, 25965
-2193.95, 70426.4, -236.626, 3.83472, -702.555, 0.309276, 0.308147, 0.9175, 0.352806, 0.64323, 0.0001, 455, 246, 43.9952, 0.122313, 1.16028, 1, 1, 0, 25966
-2193.95, 70426.4, -236.626, 3.83472, -702.555, 0.309276, 0.308147, 0.9175, 0.352806, 0.64323, 3, 455, 246, 43.9952, 0.122313, 1.09334, 1, 1, 0, 25966
-3006.21, 143880, -249.285, 4.45006, -1297.66, 0.798957, 0.266654, 0.958125, 0.351078, 0.648177, 0.0001, 182, 246, 39.461, 0.137012, 1.11815, 1, 0, 0, 25971
-5102.9, 365397, -434.847, 3.75455, -921.604, 0.111142, 0.447932, 0.958125, 0.351078, 0.648177, 0.0001, 182, 246, 43.3083, 0.190822, 1.17047, 1, 0, 0, 25972
-5102.9, 365397, -434.847, 3.75455, -921.604, 0.111142, 0.447932, 0.958125, 0.351078, 0.648177, 3, 182, 246, 43.3083, 0.190822, 1.05437, 1, 0, 0, 25972
-6982.95, 453318, -212.922, 0.501693, -931.224, 0.00723828, 0.369354, 0.958125, 0.351078, 0.648177, 0.0001, 182, 246, 30.5021, 0.116988, 0, 0, 1, 0, 25978
-10248.3, 219066, -165.904, 1.25423, -725.698, -0.00650696, 0.425006, 1.03299, 0.34851, 0.655882, 3, 45.5, 246, 33.0869, 0.175955, 0, 0, 1, 0, 25979
-8992.88, 228663, -183.067, 1.31998, -731.274, 0.000766479, 0.402737, 0.993198, 0.349787, 0.651995, 0.0001, 91, 246, 33.0869, 0.175955, 0, 0, 1, 0, 25979
-8692.59, 375091, -340.884, 0.565159, -1071.65, 0.171181, 0.645612, 1.03299, 0.34851, 0.655882, 0.0001, 45.5, 246, 46.2607, 0.239025, 0, 0, 0, 0, 25980
-6889.26, 401573, -362.199, 0.596537, -1107.02, 0.177461, 0.638326, 0.993198, 0.349787, 0.651995, 3, 91, 246, 46.2607, 0.239025, 0, 0, 1, 0, 25980
-7641.29, 342042, -218.97, 0.719315, -1159.24, 0.208486, 0.436121, 0.993198, 0.349787, 0.651995, 0.0001, 91, 246, 36.7932, 0.161268, 0, 0, 1, 0, 25983
-6221, 371357, -235.729, 0.75718, -1203.46, 0.218062, 0.41607, 0.958125, 0.351078, 0.648177, 0.0001, 182, 246, 36.7932, 0.161268, 0, 0, 0, 0, 25983
-8649.87, 98257, -77.7845, 2.53683, -830.232, 0.863259, 0.265767, 0.993198, 0.349787, 0.651995, 3, 91, 246, 22.675, 0.0850714, 0, 0, 1, 0, 25984
-8539.36, 178370, -59.6067, 4.07559, -1165.85, 0.713892, 0.198566, 0.958125, 0.351078, 0.648177, 0.0001, 182, 246, 15.5993, 0.0291352, 0, 0, 1, 0, 25992
-8539.36, 178370, -59.6067, 4.07559, -1165.85, 0.713892, 0.198566, 0.958125, 0.351078, 0.648177, 3, 182, 246, 15.5993, 0.0291352, 0, 0, 1, 0, 25992
-3351.99, 227529, -138.586, 4.92138, -1404.1, 0.976728, 0.276331, 0.9175, 0.352806, 0.64323, 0.0001, 455, 246, 15.5993, 0.0291352, 0, 0, 0, 0, 25992
-3351.99, 227529, -138.586, 4.92138, -1404.1, 0.976728, 0.276331, 0.9175, 0.352806, 0.64323, 3, 455, 246, 15.5993, 0.0291352, 0, 0, 0, 0, 25992
-4977.13, 67424.1, -156.936, 3.39776, -1005.92, -0.0259091, 0.242121, 1.03299, 0.34851, 0.655882, 0.0001, 45.5, 246, 48.4615, 0.166305, 1.08006, 1, 1, 0, 25995
-3604.05, 85758.2, -204.074, 3.70518, -1022.92, 0.0293985, 0.256176, 0.993198, 0.349787, 0.651995, 0.0001, 91, 246, 48.4615, 0.166305, 1.22122, 1, 1, 0, 25995
-1560.98, 105768, -260.608, 4.07223, -1056.78, 0.0962853, 0.289352, 0.958125, 0.351078, 0.648177, 0.0001, 182, 246, 48.4615, 0.166305, 1.65223, 1, 1, 0, 25995
-1560.98, 105768, -260.608, 4.07223, -1056.78, 0.0962853, 0.289352, 0.958125, 0.351078, 0.648177, 3, 182, 246, 48.4615, 0.166305, 1.50427, 1, 1, 0, 25995
