-11915.2, 404714, -226.548, 0.987, -813.189, 0.195002, 0.444935, 1.03299, 0.34851, 0.655882, 0.0001, 45.5, 246, 31.9497, 0.138115, 0, 0, 0, 0, 84502
-3129.1, 280852, -387.165, 3.9999, -1012.05, 0.190645, 0.394689, 0.958125, 0.351078, 0.648177, 0.0001, 182, 246, 44.6613, 0.19097, 1.78127, 1, 0, 0, 84505
-3129.1, 280852, -387.165, 3.9999, -1012.05, 0.190645, 0.394689, 0.958125, 0.351078, 0.648177, 3, 182, 246, 44.6613, 0.19097, 1.61451, 1, 0, 0, 84505
-9007.76, 39558, 16.2008, 3.29595, -646.308, -0.0464522, 0.183242, 1.03299, 0.34851, 0.655882, 0.0001, 45.5, 246, 7.49362, 0.0227147, 0, 0, 1, 0, 84512
-10225.5, 516713, -158.208, 0.387529, -663.665, 0.532488, 0.381614, 1.03299, 0.34851, 0.655882, 0.0001, 45.5, 246, 22.1653, 0.0723742, 0, 0, 1, 0, 84514
-10225.5, 516713, -158.208, 0.387529, -663.665, 0.532488, 0.381614, 1.03299, 0.34851, 0.655882, 3, 45.5, 246, 22.1653, 0.0723742, 0, 0, 1, 0, 84514
-9334.21, 541073, -166.225, 0.413024, -726.466, 0.582178, 0.349076, 0.993198, 0.349787, 0.651995, 3, 91, 246, 22.1653, 0.0723742, 0, 0, 1, 0, 84514
-8257.98, 569621, -174.568, 0.440495, -802.131, 0.642043, 0.320891, 0.958125, 0.351078, 0.648177, 0.0001, 182, 246, 22.1653, 0.0723742, 0, 0, 1, 0, 84514
-10886.3, 100543, -18.0165, 3.17674, -1123.07, -0.0482645, 0.198945, 1.03299, 0.34851, 0.655882, 0.0001, 45.5, 246, 20.8305, 0.0601435, 0, 0, 0, 0, 84515
-10886.3, 100543, -18.0165, 3.17674, -1123.07, -0.0482645, 0.198945, 1.03299, 0.34851, 0.655882, 3, 45.5, 246, 20.8305, 0.0601435, 0, 0, 0, 0, 84515
-9494.74, 121913, -53.4231, 3.44045, -1121.76, -0.000154056, 0.20288, 0.993198, 0.349787, 0.651995, 0.0001, 91, 246, 20.8305, 0.0601435, 0, 0, 1, 0, 84515
-9494.74, 121913, -53.4231, 3.44045, -1121.76, -0.000154056, 0.20288, 0.993198, 0.349787, 0.651995, 3, 91, 246, 20.8305, 0.0601435, 0, 0, 1, 0, 84515
-12704.5, 226849, 9.35217, 1.45656, -731.191, 0.268154, 0.306212, 1.03299, 0.34851, 0.655882, 3, 45.5, 246, 11.3385, 0.00609182, 0, 0, 1, 0, 84518
-11470.4, 239762, -0.28686, 1.55683, -763.961, 0.290423, 0.277776, 0.993198, 0.349787, 0.651995, 3, 91, 246, 11.3385, 0.00609182, 0, 0, 1, 0, 84518
-11300.8, 153114, -32.5362, 1.78987, -715.86, 0.657481, 0.297472, 1.03299, 0.34851, 0.655882, 0.0001, 45.5, 246, 16.4023, 0.0490744, 0, 0, 1, 0, 84520
-10235.1, 168811, -47.3317, 1.96867, -801.948, 0.751003, 0.27413, 0.993198, 0.349787, 0.651995, 0.0001, 91, 246, 16.4023, 0.0490744, 0, 0, 1, 0, 84520
-10449.4, 597546, -112.012, 0.446043, -1064.22, 0.00440199, 0.35886, 1.03299, 0.34851, 0.655882, 0.0001, 45.5, 246, 27.0292, 0.048846, 0, 0, 1, 0, 84523
-10449.4, 597546, -112.012, 0.446043, -1064.22, 0.00440199, 0.35886, 1.03299, 0.34851, 0.655882, 3, 45.5, 246, 27.0292, 0.048846, 0, 0, 1, 0, 84523
-9385.71, 617785, -120.289, 0.461922, -1066.43, 0.00531068, 0.324815, 0.993198, 0.349787, 0.651995, 3, 91, 246, 27.0292, 0.048846, 0, 0, 1, 0, 84523
-9688.05, 203444, -229.602, 1.54446, -801.677, 0.327274, 0.501693, 1.03299, 0.34851, 0.655882, 3, 45.5, 246, 43.5092, 0.241962, 0, 0, 1, 0, 84524
-7953.75, 220092, -255.577, 1.66807, -856.69, 0.357058, 0.490302, 0.993198, 0.349787, 0.651995, 0.0001, 91, 246, 43.5092, 0.241962, 0, 0, 1, 0, 84524
-7953.75, 220092, -255.577, 1.66807, -856.69, 0.357058, 0.490302, 0.993198, 0.349787, 0.651995, 3, 91, 246, 43.5092, 0.241962, 0, 0, 1, 0, 84524
-10719.6, 188234, -205.924, 3.45385, -1096.34, 0.0400176, 0.275188, 1.03299, 0.34851, 0.655882, 0.0001, 45.5, 246, 43.414, 0.171857, 0, 0, 0, 0, 84527
-10719.6, 188234, -205.924, 3.45385, -1096.34, 0.0400176, 0.275188, 1.03299, 0.34851, 0.655882, 3, 45.5, 246, 43.414, 0.171857, 0, 0, 0, 0, 84527
-7302.1, 211049, -261.923, 3.78776, -1130.58, 0.0982304, 0.293642, 0.993198, 0.349787, 0.651995, 3, 91, 246, 43.414, 0.171857, 0, 0, 1, 0, 84527
-2743.55, 237278, -330.115, 4.19043, -1185.92, 0.170768, 0.332778, 0.958125, 0.351078, 0.648177, 0.0001, 182, 246, 43.414, 0.171857, 1.40913, 1, 0, 0, 84527
-2743.55, 237278, -330.115, 4.19043, -1185.92, 0.170768, 0.332778, 0.958125, 0.351078, 0.648177, 3, 182, 246, 43.414, 0.171857, 1.19121, 1, 0, 0, 84527
-2940.45, 737869, -296.7, 0.938302, -1403.21, 0.966515, 0.342831, 0.9175, 0.352806, 0.64323, 3, 455, 246, 30.6039, 0.095683, 0, 0, 0, 0, 84528
-8569.49, 145827, -226.906, 3.14965, -594.17, 0.0212417, 0.307201, 1.03299, 0.34851, 0.655882, 0.0001, 45.5, 246, 43.9514, 0.191346, 1.06428, 1, 1, 0, 84529
-6074.17, 153264, -264.948, 3.43256, -619.711, 0.0690521, 0.317576, 0.993198, 0.349787, 0.651995, 0.0001, 91, 246, 43.9514, 0.191346, 1.03509, 1, 1, 0, 84529
-2974.54, 162363, -310.239, 3.7664, -656.715, 0.127343, 0.345005, 0.958125, 0.351078, 0.648177, 0.0001, 182, 246, 43.9514, 0.191346, 1.36041, 1, 1, 0, 84529
-2974.54, 162363, -310.239, 3.7664, -656.715, 0.127343, 0.345005, 0.958125, 0.351078, 0.648177, 3, 182, 246, 43.9514, 0.191346, 1.1577, 1, 1, 0, 84529
2386.49, 178292, -386.056, 4.32132, -730.834, 0.228349, 0.41221, 0.9175, 0.352806, 0.64323, 0.0001, 455, 246, 43.9514, 0.191346, 3.96121, 1, 0, 0, 84529
2386.49, 178292, -386.056, 4.32132, -730.834, 0.228349, 0.41221, 0.9175, 0.352806, 0.64323, 3, 455, 246, 43.9514, 0.191346, 3.97885, 1, 0, 0, 84529
-8721.21, 136578, -168.378, 2.50632, -858.984, -0.0222644, 0.352577, 1.03299, 0.34851, 0.655882, 0.0001, 45.5, 246, 41.2056, 0.191987, 0, 0, 1, 0, 84532
-8721.21, 136578, -168.378, 2.50632, -858.984, -0.0222644, 0.352577, 1.03299, 0.34851, 0.655882, 3, 45.5, 246, 41.2056, 0.191987, 0, 0, 1, 0, 84532
-941.95, 185727, -299.309, 3.23407, -931.909, 0.0974425, 0.380684, 0.9175, 0.352806, 0.64323, 0.0001, 455, 246, 41.2056, 0.191987, 1.12813, 1, 0, 0, 84532
-941.95, 185727, -299.309, 3.23407, -931.909, 0.0974425, 0.380684, 0.9175, 0.352806, 0.64323, 3, 455, 246, 41.2056, 0.191987, 1.1366, 1, 0, 0, 84532
-12631, 305065, -348.959, 2.70319, -1118.49, -0.0238081, 0.542952, 1.03299, 0.34851, 0.655882, 0.0001, 45.5, 246, 52.6208, 0.24421, 0, 0, 0, 0, 84533
-12631, 305065, -348.959, 2.70319, -1118.49, -0.0238081, 0.542952, 1.03299, 0.34851, 0.655882, 3, 45.5, 246, 52.6208, 0.24421, 0, 0, 0, 0, 84533
-6250.92, -52288.1, 9.72879, 3.33817, -702.327, -0.0466332, 0.218275, 1.03299, 0.34851, 0.655882, 0.0001, 45.5, 246, 8.8778, 0.0285602, 1.77956, 1, 1, 0, 84536
-6250.92, -52288.1, 9.72879, 3.33817, -702.327, -0.0466332, 0.218275, 1.03299, 0.34851, 0.655882, 3, 45.5, 246, 8.8778, 0.0285602, 1.66545, 1, 1, 0, 84536
-8922.33, -24964.4, -80.1394, 4.55269, -733.596, 0.178491, 0.327752, 0.9175, 0.352806, 0.64323, 3, 455, 246, 8.8778, 0.0285602, 0, 0, 1, 1, 84536
-9557.93, 54063.4, 10.7834, 3.13221, -569.722, 0.49671, 0.188689, 1.03299, 0.34851, 0.655882, 0.0001, 45.5, 246, 7.94503, 0.0203606, 0, 0, 1, 0, 84537
-9557.93, 54063.4, 10.7834, 3.13221, -569.722, 0.49671, 0.188689, 1.03299, 0.34851, 0.655882, 3, 45.5, 246, 7.94503, 0.0203606, 0, 0, 1, 0, 84537
-8931.39, 61368.2, -6.26347, 3.49411, -620.406, 0.591267, 0.192099, 0.993198, 0.349787, 0.651995, 0.0001, 91, 246, 7.94503, 0.0203606, 0, 0, 1, 0, 84537
-8931.39, 61368.2, -6.26347, 3.49411, -620.406, 0.591267, 0.192099, 0.993198, 0.349787, 0.651995, 3, 91, 246, 7.94503, 0.0203606, 0, 0, 1, 0, 84537
-11926.1, 270099, 5.69694, 0.96809, -1016.9, 0.215898, 0.325736, 1.03299, 0.34851, 0.655882, 0.0001, 45.5, 246, 16.1048, 0.00750614, 0, 0, 1, 0, 84543
-11926.1, 270099, 5.69694, 0.96809, -1016.9, 0.215898, 0.325736, 1.03299, 0.34851, 0.655882, 3, 45.5, 246, 16.1048, 0.00750614, 0, 0, 1, 0, 84543
-10995.9, 291983, -3.28793, 1.02288, -1053.15, 0.228027, 0.292861, 0.993198, 0.349787, 0.651995, 0.0001, 91, 246, 16.1048, 0.00750614, 0, 0, 1, 0, 84543
-10737.1, 111740, -36.4331, 2.79854, -1129.65, 0.0421681, 0.240623, 1.03299, 0.34851, 0.655882, 0.0001, 45.5, 246, 23.2848, 0.0736289, 0, 0, 1, 0, 84545
-10737.1, 111740, -36.4331, 2.79854, -1129.65, 0.0421681, 0.240623, 1.03299, 0.34851, 0.655882, 3, 45.5, 246, 23.2848, 0.0736289, 0, 0, 1, 0, 84545
-7475.42, 158284, -108.299, 3.28817, -1170.56, 0.125315, 0.244743, 0.958125, 0.351078, 0.648177, 3, 182, 246, 23.2848, 0.0736289, 0, 0, 1, 0, 84545
-10750.2, 217080, -105.519, 1.44971, -997.59, -0.00637195, 0.358198, 1.03299, 0.34851, 0.655882, 0.0001, 45.5, 246, 28.4549, 0.113719, 0, 0, 1, 0, 84555
-10750.2, 217080, -105.519, 1.44971, -997.59, -0.00637195, 0.358198, 1.03299, 0.34851, 0.655882, 3, 45.5, 246, 28.4549, 0.113719, 0, 0, 1, 0, 84555
-9429.71, 234571, -124.673, 1.52848, -1001.85, 0.00336181, 0.333243, 0.993198, 0.349787, 0.651995, 0.0001, 91, 246, 28.4549, 0.113719, 0, 0, 1, 0, 84555
-8787.29, 206717, -303.573, 3.30442, -1092.25, -0.0505981, 0.423432, 1.03299, 0.34851, 0.655882, 0.0001, 45.5, 246, 54.9215, 0.246731, 1.06616, 1, 0, 0, 84557
-4698.18, 229386, -367.102, 3.6102, -1118.35, 0.00191094, 0.447916, 0.993198, 0.349787, 0.651995, 0.0001, 91, 246, 54.9215, 0.246731, 1.43662, 1, 1, 0, 84557
-4698.18, 229386, -367.102, 3.6102, -1118.35, 0.00191094, 0.447916, 0.993198, 0.349787, 0.651995, 3, 91, 246, 54.9215, 0.246731, 1.24339, 1, 1, 0, 84557
-11403.5, 164118, -88.9403, 2.14383, -764.626, 0.771997, 0.296905, 1.03299, 0.34851, 0.655882, 0.0001, 45.5, 246, 24.7421, 0.0937165, 0, 0, 1, 0, 84558
-8191.52, 639237, -250.566, 0.31178, -1028.93, 0.0697011, 0.43421, 1.03299, 0.34851, 0.655882, 0.0001, 45.5, 246, 33.0466, 0.0999836, 0, 0, 0, 0, 84565
-8191.52, 639237, -250.566, 0.31178, -1028.93, 0.0697011, 0.43421, 1.03299, 0.34851, 0.655882, 3, 45.5, 246, 33.0466, 0.0999836, 0, 0, 0, 0, 84565
-2440.54, 82132.6, -235.533, 3.91812, -867.567, 0.238501, 0.311926, 0.9175, 0.352806, 0.64323, 0.0001, 455, 246, 41.4289, 0.12012, 1.1701, 1, 1, 0, 84568
-2440.54, 82132.6, -235.533, 3.91812, -867.567, 0.238501, 0.311926, 0.9175, 0.352806, 0.64323, 3, 455, 246, 41.4289, 0.12012, 1.13762, 1, 1, 0, 84568
-6844.39, 510819, -314.036, 0.191671, -1021.29, 0.651347, 0.511028, 1.03299, 0.34851, 0.655882, 0.0001, 45.5, 246, 37.1065, 0.145013, 0, 0, 0, 0, 84571
-9471.95, 118669, -97.5558, 2.26134, -952.287, 0.0320067, 0.315956, 1.03299, 0.34851, 0.655882, 0.0001, 45.5, 246, 31.3013, 0.134744, 0, 0, 1, 0, 84575
-9471.95, 118669, -97.5558, 2.26134, -952.287, 0.0320067, 0.315956, 1.03299, 0.34851, 0.655882, 3, 45.5, 246, 31.3013, 0.134744, 0, 0, 1, 0, 84575
-7460.88, 160625, -277.228, 3.40599, -790.078, 0.173723, 0.332322, 1.03299, 0.34851, 0.655882, 0.0001, 45.5, 246, 51.5623, 0.220733, 1.32266, 1, 0, 0, 84589
-7460.88, 160625, -277.228, 3.40599, -790.078, 0.173723, 0.332322, 1.03299, 0.34851, 0.655882, 3, 45.5, 246, 51.5623, 0.220733, 1.23103, 1, 0, 0, 84589
-4173.93, 175373, -330.045, 3.76553, -845.008, 0.236659, 0.353656, 0.993198, 0.349787, 0.651995, 0.0001, 91, 246, 51.5623, 0.220733, 1.60151, 1, 1, 0, 84589
-4173.93, 175373, -330.045, 3.76553, -845.008, 0.236659, 0.353656, 0.993198, 0.349787, 0.651995, 3, 91, 246, 51.5623, 0.220733, 1.49315, 1, 1, 0, 84589
140.551, 193847, -395.408, 4.20366, -921.38, 0.318236, 0.39681, 0.958125, 0.351078, 0.648177, 0.0001, 182, 246, 51.5623, 0.220733, 3.9963, 1, 0, 0, 84589
140.551, 193847, -395.408, 4.20366, -921.38, 0.318236, 0.39681, 0.958125, 0.351078, 0.648177, 3, 182, 246, 51.5623, 0.220733, 3.66745, 1, 0, 0, 84589
-6505.53, -1894.92, -34.8869, 3.48771, -1001.78, 0.0074082, 0.192329, 1.03299, 0.34851, 0.655882, 0.0001, 45.5, 246, 26.1652, 0.0548877, 0, 0, 1, 1, 84598
-6505.53, -1894.92, -34.8869, 3.48771, -1001.78, 0.0074082, 0.192329, 1.03299, 0.34851, 0.655882, 3, 45.5, 246, 26.1652, 0.0548877, 0, 0, 1, 1, 84598
-10824.6, 379239, -275.725, 0.735546, -700.717, -0.00238057, 0.52768, 1.03299, 0.34851, 0.655882, 0.0001, 45.5, 246, 35.3893, 0.187889, 0, 0, 0, 0, 84599
-10824.6, 379239, -275.725, 0.735546, -700.717, -0.00238057, 0.52768, 1.03299, 0.34851, 0.655882, 3, 45.5, 246, 35.3893, 0.187889, 0, 0, 0, 0, 84599
-8554.49, 61954.8, -60.3899, 1.57841, -805.237, -0.0115989, 0.339611, 1.03299, 0.34851, 0.655882, 0.0001, 45.5, 246, 27.9863, 0.143614, 0, 0, 1, 0, 84602
-7833.02, 62135.5, -79.5204, 3.46138, -1007.65, 0.472752, 0.18494, 1.03299, 0.34851, 0.655882, 0.0001, 45.5, 246, 31.2972, 0.0985052, 0, 0, 0, 0, 84603
-556.636, 163001, -288.818, 5.39042, -1521.38, 1.00423, 0.341444, 0.9175, 0.352806, 0.64323, 0.0001, 455, 246, 31.2972, 0.0985052, 1.75229, 1, 0, 0, 84603
-556.636, 163001, -288.818, 5.39042, -1521.38, 1.00423, 0.341444, 0.9175, 0.352806, 0.64323, 3, 455, 246, 31.2972, 0.0985052, 1.76486, 1, 0, 0, 84603
-13166.1, 133510, -1.92375, 3.62617, -798.248, -0.062753, 0.127974, 1.03299, 0.34851, 0.655882, 0.0001, 45.5, 246, 14.6098, 0.0320715, 0, 0, 0, 0, 84604
-13166.1, 133510, -1.92375, 3.62617, -798.248, -0.062753, 0.127974, 1.03299, 0.34851, 0.655882, 3, 45.5, 246, 14.6098, 0.0320715, 0, 0, 0, 0, 84604
-11811.6, 476607, -57.2163, 0.565495, -616.426, 0.0030927, 0.342525, 1.03299, 0.34851, 0.655882, 0.0001, 45.5, 246, 15.7237, 0.0322849, 0, 0, 1, 0, 84606
-11811.6, 476607, -57.2163, 0.565495, -616.426, 0.0030927, 0.342525, 1.03299, 0.34851, 0.655882, 3, 45.5, 246, 15.7237, 0.0322849, 0, 0, 1, 0, 84606
-9796.89, 490155, -67.9793, 0.607099, -619.253, 0.00612051, 0.2777, 0.958125, 0.351078, 0.648177, 0.0001, 182, 246, 15.7237, 0.0322849, 0, 0, 1, 0, 84606
-6806.96, 190368, -133.13, 1.35031, -1309.28, 0.991759, 0.301275, 0.9175, 0.352806, 0.64323, 0.0001, 455, 246, 28.8386, 0.162236, 0, 0, 0, 0, 84618
-6806.96, 190368, -133.13, 1.35031, -1309.28, 0.991759, 0.301275, 0.9175, 0.352806, 0.64323, 3, 455, 246, 28.8386, 0.162236, 0, 0, 0, 0, 84618
-9691.03, 383524, -335.034, 0.611662, -890.833, 0.22854, 0.61934, 1.03299, 0.34851, 0.655882, 0.0001, 45.5, 246, 42.5757, 0.224694, 0, 0, 0, 0, 84625
-9691.03, 383524, -335.034, 0.611662, -890.833, 0.22854, 0.61934, 1.03299, 0.34851, 0.655882, 3, 45.5, 246, 42.5757, 0.224694, 0, 0, 0, 0, 84625
-2915.35, 87063.3, -220.426, 3.67372, -954.938, 0.232564, 0.282989, 0.958125, 0.351078, 0.648177, 0.0001, 182, 246, 46.2528, 0.152667, 1.24233, 1, 1, 0, 84628
-2915.35, 87063.3, -220.426, 3.67372, -954.938, 0.232564, 0.282989, 0.958125, 0.351078, 0.648177, 3, 182, 246, 46.2528, 0.152667, 1.07866, 1, 1, 0, 84628
97.7797, 113613, -297.211, 4.22774, -1049.47, 0.339604, 0.34021, 0.9175, 0.352806, 0.64323, 0.0001, 455, 246, 46.2528, 0.152667, 2.28532, 1, 0, 0, 84628
97.7797, 113613, -297.211, 4.22774, -1049.47, 0.339604, 0.34021, 0.9175, 0.352806, 0.64323, 3, 455, 246, 46.2528, 0.152667, 2.285, 1, 0, 0, 84628
-9144.36, 359622, -466.143, 3.70557, -1099.14, 0.0739299, 0.52535, 0.993198, 0.349787, 0.651995, 0.0001, 91, 246, 53.2819, 0.234167, 1.20488, 1, 1, 0, 84632
-9144.36, 359622, -466.143, 3.70557, -1099.14, 0.0739299, 0.52535, 0.993198, 0.349787, 0.651995, 3, 91, 246, 53.2819, 0.234167, 1.11448, 1, 1, 0, 84632
-8818.8, 73073.6, -66.9884, 3.47678, -896.852, 0.119318, 0.178421, 1.03299, 0.34851, 0.655882, 0.0001, 45.5, 246, 27.0266, 0.085453, 0, 0, 0, 0, 84641
-8818.8, 73073.6, -66.9884, 3.47678, -896.852, 0.119318, 0.178421, 1.03299, 0.34851, 0.655882, 3, 45.5, 246, 27.0266, 0.085453, 0, 0, 0, 0, 84641
-10263, 279073, -221.742, 1.40879, -1138.7, 0.00556346, 0.47576, 1.03299, 0.34851, 0.655882, 0.0001, 45.5, 246, 41.146, 0.191612, 0, 0, 0, 0, 84650
-10263, 279073, -221.742, 1.40879, -1138.7, 0.00556346, 0.47576, 1.03299, 0.34851, 0.655882, 3, 45.5, 246, 41.146, 0.191612, 0, 0, 0, 0, 84650
-8998.44, 189204, -305.963, 3.16026, -780.476, 0.657855, 0.380978, 1.03299, 0.34851, 0.655882, 0.0001, 45.5, 246, 50.3595, 0.223492, 1.25454, 1, 0, 0, 84657
-8998.44, 189204, -305.963, 3.16026, -780.476, 0.657855, 0.380978, 1.03299, 0.34851, 0.655882, 3, 45.5, 246, 50.3595, 0.223492, 1.15598, 1, 0, 0, 84657
-5287.05, 210696, -359.685, 3.58093, -905.694, 0.78976, 0.399174, 0.993198, 0.349787, 0.651995, 0.0001, 91, 246, 50.3595, 0.223492, 1.43364, 1, 1, 0, 84657
-5287.05, 210696, -359.685, 3.58093, -905.694, 0.78976, 0.399174, 0.993198, 0.349787, 0.651995, 3, 91, 246, 50.3595, 0.223492, 1.31999, 1, 1, 0, 84657
-10538.9, 132309, -94.3774, 2.54081, -667.656, -0.0205863, 0.277967, 1.03299, 0.34851, 0.655882, 0.0001, 45.5, 246, 26.217, 0.107695, 0, 0, 1, 0, 84658
-7365.68, 148124, -143.764, 2.93712, -687.021, 0.0451638, 0.270739, 0.958125, 0.351078, 0.648177, 3, 182, 246, 26.217, 0.107695, 0, 0, 1, 0, 84658
-10775.3, 276947, -178.275, 2.53984, -1043.33, 0.387099, 0.309045, 0.993198, 0.349787, 0.651995, 0.0001, 91, 246, 31.8381, 0.118647, 0, 0, 1, 0, 84664
-10775.3, 276947, -178.275, 2.53984, -1043.33, 0.387099, 0.309045, 0.993198, 0.349787, 0.651995, 3, 91, 246, 31.8381, 0.118647, 0, 0, 1, 0, 84664
927.215, 195095, -333.201, 5.04048, -862.995, 0.209353, 0.345393, 0.9175, 0.352806, 0.64323, 0.0001, 455, 246, 34.491, 0.129696, 1.69014, 1, 0, 0, 84665
927.215, 195095, -333.201, 5.04048, -862.995, 0.209353, 0.345393, 0.9175, 0.352806, 0.64323, 3, 455, 246, 34.491, 0.129696, 1.70438, 1, 0, 0, 84665
-8461.09, 318426, -216.65, 0.852413, -916.702, 0.0259743, 0.436616, 0.993198, 0.349787, 0.651995, 0.0001, 91, 246, 34.8306, 0.16861, 0, 0, 1, 0, 84667
-5226.65, 644249, -406.262, 0.103867, -1185.29, 0.00279686, 0.589466, 1.03299, 0.34851, 0.655882, 0.0001, 45.5, 246, 43.2775, 0.164593, 0, 0, 0, 0, 84668
-5226.65, 644249, -406.262, 0.103867, -1185.29, 0.00279686, 0.589466, 1.03299, 0.34851, 0.655882, 3, 45.5, 246, 43.2775, 0.164593, 0, 0, 0, 0, 84668
-9620.65, 601570, -187.679, 0.417091, -979.933, 0.163254, 0.394363, 1.03299, 0.34851, 0.655882, 0.0001, 45.5, 246, 29.3076, 0.0784943, 0, 0, 0, 0, 84670
-9620.65, 601570, -187.679, 0.417091, -979.933, 0.163254, 0.394363, 1.03299, 0.34851, 0.655882, 3, 45.5, 246, 29.3076, 0.0784943, 0, 0, 0, 0, 84670
-6981.28, 649641, -208.884, 0.454486, -1038.19, 0.173894, 0.335772, 0.958125, 0.351078, 0.648177, 3, 182, 246, 29.3076, 0.0784943, 0, 0, 0, 0, 84670
-8858.87, 511818, -275.201, 0.474726, -1024.71, 0.0572128, 0.482765, 1.03299, 0.34851, 0.655882, 0.0001, 45.5, 246, 36.1012, 0.138654, 0, 0, 0, 0, 84671
-8175.51, 180257, -329.844, 3.07198, -586.815, 0.346061, 0.426101, 1.03299, 0.34851, 0.655882, 0.0001, 45.5, 246, 52.9742, 0.248405, 1.4615, 1, 0, 0, 84672
-8175.51, 180257, -329.844, 3.07198, -586.815, 0.346061, 0.426101, 1.03299, 0.34851, 0.655882, 3, 45.5, 246, 52.9742, 0.248405, 1.39443, 1, 0, 0, 84672
-4621.35, 192535, -377.854, 3.41551, -654.091, 0.414899, 0.444251, 0.993198, 0.349787, 0.651995, 0.0001, 91, 246, 52.9742, 0.248405, 1.74493, 1, 1, 0, 84672
-4621.35, 192535, -377.854, 3.41551, -654.091, 0.414899, 0.444251, 0.993198, 0.349787, 0.651995, 3, 91, 246, 52.9742, 0.248405, 1.64814, 1, 1, 0, 84672
-55.8112, 208655, -437.248, 3.83443, -743.391, 0.50567, 0.482099, 0.958125, 0.351078, 0.648177, 0.0001, 182, 246, 52.9742, 0.248405, 4.47256, 1, 0, 0, 84672
-55.8112, 208655, -437.248, 3.83443, -743.391, 0.50567, 0.482099, 0.958125, 0.351078, 0.648177, 3, 182, 246, 52.9742, 0.248405, 4.03056, 1, 0, 0, 84672
-6118.26, -62954.7, 10.9799, 3.35582, -819.252, 0.248338, 0.223847, 1.03299, 0.34851, 0.655882, 0.0001, 45.5, 246, 10.9783, 0.0103793, 2.34995, 1, 1, 0, 84676
-6118.26, -62954.7, 10.9799, 3.35582, -819.252, 0.248338, 0.223847, 1.03299, 0.34851, 0.655882, 3, 45.5, 246, 10.9783, 0.0103793, 2.22676, 1, 1, 0, 84676
-7672.42, -19175.7, -1.26628, 2.51764, -756.594, -0.0167745, 0.274983, 1.03299, 0.34851, 0.655882, 0.0001, 45.5, 246, 12.5678, 0.0362128, 0, 0, 1, 1, 84677
-9834.03, 133187, -122.841, 2.41977, -731.3, 0.107078, 0.309512, 1.03299, 0.34851, 0.655882, 0.0001, 45.5, 246, 31.8268, 0.139809, 0, 0, 1, 0, 84682
-9834.03, 133187, -122.841, 2.41977, -731.3, 0.107078, 0.309512, 1.03299, 0.34851, 0.655882, 3, 45.5, 246, 31.8268, 0.139809, 0, 0, 1, 0, 84682
-7381.06, 657272, -282.236, 0.0947462, -776.756, 0.834286, 0.440399, 1.03299, 0.34851, 0.655882, 0.0001, 45.5, 246, 28.312, 0.095092, 0, 0, 1, 0, 84685
-6566.52, 702955, -291.768, 0.102415, -895.511, 0.961023, 0.411892, 0.993198, 0.349787, 0.651995, 0.0001, 91, 246, 28.312, 0.095092, 0, 0, 1, 0, 84685
-5613.87, 761273, -301.064, 0.1113, -1056.76, 1.13315, 0.387518, 0.958125, 0.351078, 0.648177, 0.0001, 182, 246, 28.312, 0.095092, 0, 0, 1, 0, 84685
-8462, 334666, -278.899, 0.573114, -731.657, 0.0363142, 0.532758, 0.993198, 0.349787, 0.651995, 0.0001, 91, 246, 37.6546, 0.214773, 0, 0, 1, 0, 84692
-9424.55, 591487, -376.579, 0.184188, -676.01, 0.0637017, 0.5733, 1.03299, 0.34851, 0.655882, 0.0001, 45.5, 246, 33.8111, 0.166275, 0, 0, 0, 0, 84695
-9424.55, 591487, -376.579, 0.184188, -676.01, 0.0637017, 0.5733, 1.03299, 0.34851, 0.655882, 3, 45.5, 246, 33.8111, 0.166275, 0, 0, 0, 0, 84695
-6215.88, 617396, -406.174, 0.198844, -693.925, 0.0653393, 0.545224, 0.958125, 0.351078, 0.648177, 3, 182, 246, 33.8111, 0.166275, 0, 0, 0, 0, 84695
-5931.77, 55262.5, -130.526, 4.11243, -853.072, 0.337928, 0.232797, 0.958125, 0.351078, 0.648177, 3, 182, 246, 27.3582, 0.0698504, 0, 0, 1, 0, 84696
-11348.5, 211847, -29.9779, 1.17102, -662.636, 0.58233, 0.323783, 1.03299, 0.34851, 0.655882, 0.0001, 45.5, 246, 14.591, 0.0368813, 0, 0, 1, 0, 84698
-11348.5, 211847, -29.9779, 1.17102, -662.636, 0.58233, 0.323783, 1.03299, 0.34851, 0.655882, 3, 45.5, 246, 14.591, 0.0368813, 0, 0, 1, 0, 84698
-10447.1, 227241, -39.0504, 1.26807, -731.34, 0.648536, 0.293013, 0.993198, 0.349787, 0.651995, 0.0001, 91, 246, 14.591, 0.0368813, 0, 0, 1, 0, 84698
-8529.62, 103340, -110.155, 1.70795, -1143.8, -0.0131749, 0.383022, 1.03299, 0.34851, 0.655882, 0.0001, 45.5, 246, 37.5963, 0.200444, 0, 0, 1, 0, 84704
-8529.62, 103340, -110.155, 1.70795, -1143.8, -0.0131749, 0.383022, 1.03299, 0.34851, 0.655882, 3, 45.5, 246, 37.5963, 0.200444, 0, 0, 1, 0, 84704
-7735.78, 126361, -134.995, 1.81015, -1148.3, 0.000412371, 0.363942, 0.993198, 0.349787, 0.651995, 0.0001, 91, 246, 37.5963, 0.200444, 0, 0, 1, 0, 84704
-7735.78, 126361, -134.995, 1.81015, -1148.3, 0.000412371, 0.363942, 0.993198, 0.349787, 0.651995, 3, 91, 246, 37.5963, 0.200444, 0, 0, 1, 0, 84704
-9335.21, 203097, -64.1749, 2.366, -638.933, 0.186866, 0.24955, 0.958125, 0.351078, 0.648177, 0.0001, 182, 246, 14.7458, 0.0442156, 0, 0, 1, 0, 84709
-9335.21, 203097, -64.1749, 2.366, -638.933, 0.186866, 0.24955, 0.958125, 0.351078, 0.648177, 3, 182, 246, 14.7458, 0.0442156, 0, 0, 1, 0, 84709
-11514.7, 529479, -534.756, 4.2267, -701.89, 0.463574, 0.450106, 0.958125, 0.351078, 0.648177, 3, 182, 246, 36.5427, 0.169386, 1.03383, 1, 0, 0, 84717
-9082.73, 94056.3, -32.7455, 0.740192, -1084.69, 0.112592, 0.350525, 1.03299, 0.34851, 0.655882, 0.0001, 45.5, 246, 19.1513, 0.0819272, 0, 0, 1, 0, 84718
-9082.73, 94056.3, -32.7455, 0.740192, -1084.69, 0.112592, 0.350525, 1.03299, 0.34851, 0.655882, 3, 45.5, 246, 19.1513, 0.0819272, 0, 0, 1, 0, 84718
-3365.81, 63884.2, -199.5, 3.55003, -753.013, 0.299132, 0.267703, 0.958125, 0.351078, 0.648177, 0.0001, 182, 246, 45.7374, 0.124712, 1.06824, 1, 1, 0, 84722
-1223, 81334.4, -261.507, 4.08969, -841.847, 0.409314, 0.317572, 0.9175, 0.352806, 0.64323, 0.0001, 455, 246, 45.7374, 0.124712, 1.50162, 1, 1, 0, 84722
-1223, 81334.4, -261.507, 4.08969, -841.847, 0.409314, 0.317572, 0.9175, 0.352806, 0.64323, 3, 455, 246, 45.7374, 0.124712, 1.41239, 1, 1, 0, 84722
-11780.2, 262408, -89.5437, 1.32634, -805.223, -0.00781223, 0.343805, 1.03299, 0.34851, 0.655882, 0.0001, 45.5, 246, 23.0897, 0.0838895, 0, 0, 1, 0, 84723
-11780.2, 262408, -89.5437, 1.32634, -805.223, -0.00781223, 0.343805, 1.03299, 0.34851, 0.655882, 3, 45.5, 246, 23.0897, 0.0838895, 0, 0, 1, 0, 84723
-10391.3, 273676, -104.04, 1.39451, -808.204, 0.000314441, 0.316126, 0.993198, 0.349787, 0.651995, 3, 91, 246, 23.0897, 0.0838895, 0, 0, 1, 0, 84723
-8757.71, 285257, -119.688, 1.46494, -813.02, 0.00929048, 0.294149, 0.958125, 0.351078, 0.648177, 0.0001, 182, 246, 23.0897, 0.0838895, 0, 0, 1, 0, 84723
-8890.05, 223646, -95.4013, 2.16907, -794.465, 0.0596502, 0.265717, 0.958125, 0.351078, 0.648177, 0.0001, 182, 246, 20.2139, 0.0675666, 0, 0, 1, 0, 84725
-12042.6, 176693, -143.016, 3.36845, -925.269, -0.0318548, 0.223291, 1.03299, 0.34851, 0.655882, 0.0001, 45.5, 246, 33.9849, 0.126697, 0, 0, 0, 0, 84736
-12042.6, 176693, -143.016, 3.36845, -925.269, -0.0318548, 0.223291, 1.03299, 0.34851, 0.655882, 3, 45.5, 246, 33.9849, 0.126697, 0, 0, 0, 0, 84736
745.711, 235500, -322.895, 4.62377, -1040.56, 0.20002, 0.339807, 0.9175, 0.352806, 0.64323, 0.0001, 455, 246, 33.9849, 0.126697, 1.33942, 1, 0, 0, 84736
745.711, 235500, -322.895, 4.62377, -1040.56, 0.20002, 0.339807, 0.9175, 0.352806, 0.64323, 3, 455, 246, 33.9849, 0.126697, 1.50711, 1, 0, 0, 84736
-12004.2, 172126, -44.4781, 2.02641, -832.396, 0.64229, 0.286159, 1.03299, 0.34851, 0.655882, 0.0001, 45.5, 246, 19.7157, 0.0582394, 0, 0, 1, 0, 84738
-8616.04, 217561, -89.7898, 2.4868, -1061.07, 0.861876, 0.257407, 0.958125, 0.351078, 0.648177, 0.0001, 182, 246, 19.7157, 0.0582394, 0, 0, 1, 0, 84738
-10199.2, 435499, -204.739, 0.450086, -598.093, 0.108503, 0.430353, 1.03299, 0.34851, 0.655882, 0.0001, 45.5, 246, 25.7402, 0.12001, 0, 0, 1, 0, 84740
-10199.2, 435499, -204.739, 0.450086, -598.093, 0.108503, 0.430353, 1.03299, 0.34851, 0.655882, 3, 45.5, 246, 25.7402, 0.12001, 0, 0, 1, 0, 84740
-9202.87, 445160, -214.896, 0.469662, -611.135, 0.11134, 0.401932, 0.993198, 0.349787, 0.651995, 0.0001, 91, 246, 25.7402, 0.12001, 0, 0, 1, 0, 84740
-4767.45, 358736, -425.95, 3.86902, -1059.25, 0.931786, 0.424908, 0.958125, 0.351078, 0.648177, 0.0001, 182, 246, 41.3646, 0.180891, 1.00521, 1, 0, 0, 84742
-11816.6, 105450, 10.1739, 3.46918, -735.734, -0.0532338, 0.150132, 1.03299, 0.34851, 0.655882, 0.0001, 45.5, 246, 11.4279, 0.0239354, 0, 0, 1, 0, 84748
-11816.6, 105450, 10.1739, 3.46918, -735.734, -0.0532338, 0.150132, 1.03299, 0.34851, 0.655882, 3, 45.5, 246, 11.4279, 0.0239354, 0, 0, 0, 0, 84748
-10315.4, 114052, -13.2295, 3.77318, -732.941, 0.00437092, 0.161079, 0.993198, 0.349787, 0.651995, 0.0001, 91, 246, 11.4279, 0.0239354, 0, 0, 1, 0, 84748
-10315.4, 114052, -13.2295, 3.77318, -732.941, 0.00437092, 0.161079, 0.993198, 0.349787, 0.651995, 3, 91, 246, 11.4279, 0.0239354, 0, 0, 1, 0, 84748
-9029.59, 238048, -128.954, 1.26963, -1083.8, 0.499843, 0.345355, 0.993198, 0.349787, 0.651995, 0.0001, 91, 246, 29.0036, 0.118327, 0, 0, 1, 0, 84750
-5041.66, 317058, -180.141, 1.51955, -1346.82, 0.636348, 0.303539, 0.9175, 0.352806, 0.64323, 0.0001, 455, 246, 29.0036, 0.118327, 0, 0, 0, 0, 84750
-5041.66, 317058, -180.141, 1.51955, -1346.82, 0.636348, 0.303539, 0.9175, 0.352806, 0.64323, 3, 455, 246, 29.0036, 0.118327, 0, 0, 0, 0, 84750
-8765.11, 63957.5, -37.2659, 0.990373, -1032.66, 0.0208398, 0.314337, 0.993198, 0.349787, 0.651995, 0.0001, 91, 246, 19.608, 0.115726, 0, 0, 1, 0, 84751
-8765.11, 63957.5, -37.2659, 0.990373, -1032.66, 0.0208398, 0.314337, 0.993198, 0.349787, 0.651995, 3, 91, 246, 19.608, 0.115726, 0, 0, 1, 0, 84751
-1246.47, 99914.2, -263.843, 3.92031, -1026.65, 0.141063, 0.326206, 0.9175, 0.352806, 0.64323, 0.0001, 455, 246, 45.6592, 0.140794, 1.6988, 1, 1, 0, 84753
-1246.47, 99914.2, -263.843, 3.92031, -1026.65, 0.141063, 0.326206, 0.9175, 0.352806, 0.64323, 3, 455, 246, 45.6592, 0.140794, 1.63907, 1, 1, 0, 84753
-8420.59, 201629, -167.069, 1.61125, -1013.67, 0.0122348, 0.382172, 0.993198, 0.349787, 0.651995, 0.0001, 91, 246, 35.5394, 0.173915, 0, 0, 1, 0, 84758
-3142.31, 207161, -323.635, 4.22439, -930.881, 0.307206, 0.320245, 0.958125, 0.351078, 0.648177, 0.0001, 182, 246, 41.783, 0.17003, 1.37291, 1, 0, 0, 84759
-3142.31, 207161, -323.635, 4.22439, -930.881, 0.307206, 0.320245, 0.958125, 0.351078, 0.648177, 3, 182, 246, 41.783, 0.17003, 1.17081, 1, 0, 0, 84759
-11250.7, 196172, -126.262, 2.11125, -1040.76, 0.419595, 0.334372, 1.03299, 0.34851, 0.655882, 0.0001, 45.5, 246, 32.2731, 0.127354, 0, 0, 0, 0, 84763
-11845, 164431, -124.24, 3.39941, -948.969, -0.0192064, 0.208808, 1.03299, 0.34851, 0.655882, 0.0001, 45.5, 246, 32.3897, 0.116468, 0, 0, 0, 0, 84766
-11845, 164431, -124.24, 3.39941, -948.969, -0.0192064, 0.208808, 1.03299, 0.34851, 0.655882, 3, 45.5, 246, 32.3897, 0.116468, 0, 0, 0, 0, 84766
195.729, 225892, -302.517, 4.68484, -1067.12, 0.219128, 0.327755, 0.9175, 0.352806, 0.64323, 3, 455, 246, 32.3897, 0.116468, 1.08233, 1, 0, 0, 84766
-9500.64, 202138, -303.592, 3.55908, -874.087, -0.0177959, 0.352911, 1.03299, 0.34851, 0.655882, 0.0001, 45.5, 246, 51.7182, 0.224599, 1.19874, 1, 0, 0, 84767
-9500.64, 202138, -303.592, 3.55908, -874.087, -0.0177959, 0.352911, 1.03299, 0.34851, 0.655882, 3, 45.5, 246, 51.7182, 0.224599, 1.09251, 1, 0, 0, 84767
-5298.71, 217637, -363.634, 3.90773, -908.485, 0.0433298, 0.380714, 0.993198, 0.349787, 0.651995, 0.0001, 91, 246, 51.7182, 0.224599, 1.51019, 1, 1, 0, 84767
-5298.71, 217637, -363.634, 3.90773, -908.485, 0.0433298, 0.380714, 0.993198, 0.349787, 0.651995, 3, 91, 246, 51.7182, 0.224599, 1.40959, 1, 1, 0, 84767
-5456.32, 100456, -197.277, 2.97287, -1013.43, -0.00998352, 0.340914, 1.03299, 0.34851, 0.655882, 0.0001, 45.5, 246, 53.2229, 0.233634, 1.16472, 1, 1, 0, 84777
-3660.93, 119467, -242.895, 3.22603, -1033.06, 0.0321672, 0.348192, 0.993198, 0.349787, 0.651995, 0.0001, 91, 246, 53.2229, 0.233634, 1.30611, 1, 1, 0, 84777
-3660.93, 119467, -242.895, 3.22603, -1033.06, 0.0321672, 0.348192, 0.993198, 0.349787, 0.651995, 3, 91, 246, 53.2229, 0.233634, 1.07205, 1, 1, 0, 84777
-1166.3, 140288, -296.66, 3.52092, -1066.36, 0.0825715, 0.370658, 0.958125, 0.351078, 0.648177, 0.0001, 182, 246, 53.2229, 0.233634, 1.94073, 1, 1, 0, 84777
-1166.3, 140288, -296.66, 3.52092, -1066.36, 0.0825715, 0.370658, 0.958125, 0.351078, 0.648177, 3, 182, 246, 53.2229, 0.233634, 1.7943, 1, 1, 0, 84777
-6446.69, 25188, -70.3353, 3.4182, -1034.69, -0.0524158, 0.204653, 1.03299, 0.34851, 0.655882, 0.0001, 45.5, 246, 33.6391, 0.0895106, 0, 0, 1, 0, 84778
-6446.69, 25188, -70.3353, 3.4182, -1034.69, -0.0524158, 0.204653, 1.03299, 0.34851, 0.655882, 3, 45.5, 246, 33.6391, 0.0895106, 0, 0, 1, 0, 84778
-2731.19, 91528.8, -239.001, 4.68505, -1117.09, 0.184702, 0.324085, 0.9175, 0.352806, 0.64323, 0.0001, 455, 246, 33.6391, 0.0895106, 1.05587, 1, 1, 0, 84778
-2731.19, 91528.8, -239.001, 4.68505, -1117.09, 0.184702, 0.324085, 0.9175, 0.352806, 0.64323, 3, 455, 246, 33.6391, 0.0895106, 1.03586, 1, 1, 0, 84778
-10386.6, 205909, -223.283, 2.08495, -782.085, 0.0350044, 0.441207, 1.03299, 0.34851, 0.655882, 0.0001, 45.5, 246, 41.9596, 0.214642, 0, 0, 1, 0, 84779
-10386.6, 205909, -223.283, 2.08495, -782.085, 0.0350044, 0.441207, 1.03299, 0.34851, 0.655882, 3, 45.5, 246, 41.9596, 0.214642, 0, 0, 0, 0, 84779
-3616.64, 111887, -219.898, 3.51182, -1076.69, 0.574417, 0.299143, 0.958125, 0.351078, 0.648177, 0.0001, 182, 246, 43.0781, 0.165318, 1.00783, 1, 1, 0, 84780
-6.20594, 150940, -302.24, 4.13708, -1271.47, 0.748995, 0.351666, 0.9175, 0.352806, 0.64323, 0.0001, 455, 246, 43.0781, 0.165318, 2.90089, 1, 0, 0, 84780
-6.20594, 150940, -302.24, 4.13708, -1271.47, 0.748995, 0.351666, 0.9175, 0.352806, 0.64323, 3, 455, 246, 43.0781, 0.165318, 2.90842, 1, 0, 0, 84780
-11188.6, 290964, -285.913, 1.47134, -872.214, 0.435018, 0.541546, 1.03299, 0.34851, 0.655882, 0.0001, 45.5, 246, 42.9759, 0.221699, 0, 0, 0, 0, 84782
-11188.6, 290964, -285.913, 1.47134, -872.214, 0.435018, 0.541546, 1.03299, 0.34851, 0.655882, 3, 45.5, 246, 42.9759, 0.221699, 0, 0, 0, 0, 84782
-11552.9, 234095, -59.4855, 1.42392, -1126.58, 0.103536, 0.328696, 1.03299, 0.34851, 0.655882, 0.0001, 45.5, 246, 24.3021, 0.0670328, 0, 0, 1, 0, 84783
-11552.9, 234095, -59.4855, 1.42392, -1126.58, 0.103536, 0.328696, 1.03299, 0.34851, 0.655882, 3, 45.5, 246, 24.3021, 0.0670328, 0, 0, 1, 0, 84783
-10212.8, 258027, -77.663, 1.50823, -1148.83, 0.114851, 0.301285, 0.993198, 0.349787, 0.651995, 3, 91, 246, 24.3021, 0.0670328, 0, 0, 1, 0, 84783
-4226.5, 139786, -194.377, 3.27477, -929.272, 0.643963, 0.302745, 0.9175, 0.352806, 0.64323, 0.0001, 455, 246, 29.6872, 0.123787, 0, 0, 1, 0, 84787
-4226.5, 139786, -194.377, 3.27477, -929.272, 0.643963, 0.302745, 0.9175, 0.352806, 0.64323, 3, 455, 246, 29.6872, 0.123787, 0, 0, 1, 0, 84787
-13199, 282209, 8.98312, 1.26251, -1032.34, 0.196928, 0.314532, 1.03299, 0.34851, 0.655882, 3, 45.5, 246, 16.6597, 0.00809827, 0, 0, 1, 0, 84788
-8016.63, 751825, -193.476, 0.164937, -715.097, 0.0113365, 0.352916, 0.993198, 0.349787, 0.651995, 0.0001, 91, 246, 23.3773, 0.0647293, 0, 0, 1, 0, 84793
-8947.73, 109831, -148.522, 3.58833, -594.914, -0.0599254, 0.186384, 1.03299, 0.34851, 0.655882, 3, 45.5, 246, 34.2495, 0.12255, 0, 0, 1, 0, 84796
-471.938, 135917, -295.042, 4.98248, -694.868, 0.204921, 0.331244, 0.9175, 0.352806, 0.64323, 0.0001, 455, 246, 34.2495, 0.12255, 1.20675, 1, 1, 0, 84796
-471.938, 135917, -295.042, 4.98248, -694.868, 0.204921, 0.331244, 0.9175, 0.352806, 0.64323, 3, 455, 246, 34.2495, 0.12255, 1.19815, 1, 1, 0, 84796
-6663.52, 692330, -159.817, 2.33287, -785.045, 0.126789, 0.246502, 0.9175, 0.352806, 0.64323, 3, 455, 246, 20.4383, 0.0390054, 0, 0, 0, 0, 84797
-8727.56, 636748, -302.019, 0.312343, -906.538, 0.548914, 0.466308, 1.03299, 0.34851, 0.655882, 0.0001, 45.5, 246, 32.6377, 0.111993, 0, 0, 0, 0, 84798
-8727.56, 636748, -302.019, 0.312343, -906.538, 0.548914, 0.466308, 1.03299, 0.34851, 0.655882, 3, 45.5, 246, 32.6377, 0.111993, 0, 0, 0, 0, 84798
-11025, 365515, -359.677, 0.625536, -652.019, 0.497027, 0.655518, 1.03299, 0.34851, 0.655882, 0.0001, 45.5, 246, 41.0076, 0.239363, 0, 0, 0, 0, 84803
-11025, 365515, -359.677, 0.625536, -652.019, 0.497027, 0.655518, 1.03299, 0.34851, 0.655882, 3, 45.5, 246, 41.0076, 0.239363, 0, 0, 0, 0, 84803
-11135.3, 197766, -58.171, 1.43769, -805.265, -0.00700516, 0.327561, 1.03299, 0.34851, 0.655882, 0.0001, 45.5, 246, 20.3516, 0.0715555, 0, 0, 1, 0, 84804
-11135.3, 197766, -58.171, 1.43769, -805.265, -0.00700516, 0.327561, 1.03299, 0.34851, 0.655882, 3, 45.5, 246, 20.3516, 0.0715555, 0, 0, 1, 0, 84804
-10057, 208954, -71.988, 1.51413, -807.5, 0.0025577, 0.300202, 0.993198, 0.349787, 0.651995, 0.0001, 91, 246, 20.3516, 0.0715555, 0, 0, 1, 0, 84804
-11742.6, 480902, -19.3216, 0.517127, -928.627, -0.00115108, 0.337291, 1.03299, 0.34851, 0.655882, 0.0001, 45.5, 246, 18.8904, 0.0132782, 0, 0, 1, 0, 84805
-11742.6, 480902, -19.3216, 0.517127, -928.627, -0.00115108, 0.337291, 1.03299, 0.34851, 0.655882, 3, 45.5, 246, 18.8904, 0.0132782, 0, 0, 1, 0, 84805
-10906.4, 495935, -24.3861, 0.535753, -928.849, 6.58517e-05, 0.301997, 0.993198, 0.349787, 0.651995, 0.0001, 91, 246, 18.8904, 0.0132782, 0, 0, 1, 0, 84805
-8822.79, 40791.2, -26.2651, 1.46493, -895.953, 0.0375305, 0.330927, 1.03299, 0.34851, 0.655882, 3, 45.5, 246, 19.407, 0.0939337, 0, 0, 1, 1, 84807
-8708.43, 36337.7, -23.1008, 1.05481, -677.403, 0.0384976, 0.338348, 1.03299, 0.34851, 0.655882, 3, 45.5, 246, 17.3654, 0.100494, 0, 0, 1, 0, 84810
-1168.48, 100678, -272.822, 4.60951, -956.039, 0.865305, 0.327383, 0.9175, 0.352806, 0.64323, 0.0001, 455, 246, 39.6567, 0.118141, 1.5045, 1, 1, 0, 84812
-1168.48, 100678, -272.822, 4.60951, -956.039, 0.865305, 0.327383, 0.9175, 0.352806, 0.64323, 3, 455, 246, 39.6567, 0.118141, 1.45397, 1, 1, 0, 84812
-9013.86, 30895.4, 8.08223, 1.44995, -1153.35, 0.226237, 0.319708, 1.03299, 0.34851, 0.655882, 3, 45.5, 246, 10.4361, 0.0395749, 0, 0, 1, 0, 84813
-4567.19, 338782, -436.97, 3.72925, -911.54, 0.566011, 0.458581, 0.958125, 0.351078, 0.648177, 0.0001, 182, 246, 42.9865, 0.197553, 1.44628, 1, 0, 0, 84819
-4567.19, 338782, -436.97, 3.72925, -911.54, 0.566011, 0.458581, 0.958125, 0.351078, 0.648177, 3, 182, 246, 42.9865, 0.197553, 1.29273, 1, 0, 0, 84819
-8255.2, 118044, -150.333, 3.27566, -1112.07, -0.0487421, 0.263524, 1.03299, 0.34851, 0.655882, 0.0001, 45.5, 246, 41.2727, 0.162304, 0, 0, 0, 0, 84821
-8255.2, 118044, -150.333, 3.27566, -1112.07, -0.0487421, 0.263524, 1.03299, 0.34851, 0.655882, 3, 45.5, 246, 41.2727, 0.162304, 0, 0, 0, 0, 84821
-6236.16, 139875, -198.552, 3.56097, -1123.55, 0.00259069, 0.274782, 0.993198, 0.349787, 0.651995, 0.0001, 91, 246, 41.2727, 0.162304, 0, 0, 1, 0, 84821
-6236.16, 139875, -198.552, 3.56097, -1123.55, 0.00259069, 0.274782, 0.993198, 0.349787, 0.651995, 3, 91, 246, 41.2727, 0.162304, 0, 0, 1, 0, 84821
-9516.98, 222122, -149.758, 0.905246, -860.526, 0.193582, 0.421535, 1.03299, 0.34851, 0.655882, 0.0001, 45.5, 246, 32.1317, 0.163004, 0, 0, 1, 0, 84823
-11506.5, 108539, 12.8594, 2.8566, -656.015, 0.00385998, 0.214882, 1.03299, 0.34851, 0.655882, 0.0001, 45.5, 246, 9.06454, 0.0161876, 0, 0, 1, 0, 84830
-11506.5, 108539, 12.8594, 2.8566, -656.015, 0.00385998, 0.214882, 1.03299, 0.34851, 0.655882, 3, 45.5, 246, 9.06454, 0.0161876, 0, 0, 1, 0, 84830
7823.75, 432712, -542.612, 3.82381, -1432.98, 0.514342, 0.553153, 0.9175, 0.352806, 0.64323, 0.0001, 455, 246, 46.8759, 0.204563, 0, 0, 0, 0, 84831
7823.75, 432712, -542.612, 3.82381, -1432.98, 0.514342, 0.553153, 0.9175, 0.352806, 0.64323, 3, 455, 246, 46.8759, 0.204563, 0, 0, 0, 0, 84831
-11897.9, 126647, 15.0404, 2.50897, -1124.79, 0.182788, 0.2453, 1.03299, 0.34851, 0.655882, 0.0001, 45.5, 246, 15.6223, 0.0278576, 0, 0, 1, 0, 84834
-11897.9, 126647, 15.0404, 2.50897, -1124.79, 0.182788, 0.2453, 1.03299, 0.34851, 0.655882, 3, 45.5, 246, 15.6223, 0.0278576, 0, 0, 1, 0, 84834
-10814.4, 843591, -30.8545, 0.204718, -963.054, 0.479709, 0.340962, 1.03299, 0.34851, 0.655882, 0.0001, 45.5, 246, 22.9431, 0.00914019, 0, 0, 1, 0, 84846
-10284.5, 883889, -33.672, 0.21656, -1042.25, 0.519265, 0.304875, 0.993198, 0.349787, 0.651995, 0.0001, 91, 246, 22.9431, 0.00914019, 0, 0, 1, 0, 84846
-9621.34, 930542, -36.7636, 0.229023, -1135.65, 0.565919, 0.273139, 0.958125, 0.351078, 0.648177, 0.0001, 182, 246, 22.9431, 0.00914019, 0, 0, 1, 0, 84846
-7636.3, 597040, -58.7283, 1.03236, -1194.29, 0.264384, 0.235634, 0.9175, 0.352806, 0.64323, 0.0001, 455, 246, 21.8697, 0.0164062, 0, 0, 1, 0, 84848
-7636.3, 597040, -58.7283, 1.03236, -1194.29, 0.264384, 0.235634, 0.9175, 0.352806, 0.64323, 3, 455, 246, 21.8697, 0.0164062, 0, 0, 1, 0, 84848
-8499.17, 268670, -275.057, 1.00504, -798.363, 0.634019, 0.538456, 0.993198, 0.349787, 0.651995, 0.0001, 91, 246, 40.8501, 0.239155, 0, 0, 1, 0, 84851
-10761.2, 208734, -241.449, 2.23155, -665.492, 0.078947, 0.440023, 1.03299, 0.34851, 0.655882, 0.0001, 45.5, 246, 42.0492, 0.216636, 0, 0, 1, 0, 84855
-5380.14, 117766, -248.165, 3.2049, -710.451, 0.450857, 0.309919, 1.03299, 0.34851, 0.655882, 0.0001, 45.5, 246, 52.298, 0.212102, 1.44433, 1, 1, 0, 84858
-5380.14, 117766, -248.165, 3.2049, -710.451, 0.450857, 0.309919, 1.03299, 0.34851, 0.655882, 3, 45.5, 246, 52.298, 0.212102, 1.35158, 1, 1, 0, 84858
-2995.63, 131921, -293.605, 3.58301, -793.12, 0.539835, 0.323531, 0.993198, 0.349787, 0.651995, 0.0001, 91, 246, 52.298, 0.212102, 1.63763, 1, 1, 0, 84858
-2995.63, 131921, -293.605, 3.58301, -793.12, 0.539835, 0.323531, 0.993198, 0.349787, 0.651995, 3, 91, 246, 52.298, 0.212102, 1.52696, 1, 1, 0, 84858
233.746, 150669, -351.432, 4.0525, -905.377, 0.660045, 0.358578, 0.958125, 0.351078, 0.648177, 0.0001, 182, 246, 52.298, 0.212102, 2.63771, 1, 1, 1, 84858
233.746, 150669, -351.432, 4.0525, -905.377, 0.660045, 0.358578, 0.958125, 0.351078, 0.648177, 3, 182, 246, 52.298, 0.212102, 2.48353, 1, 0, 0, 84858
-8483.4, 396370, -334.989, 0.205797, -817.745, 0.0777924, 0.628183, 1.03299, 0.34851, 0.655882, 0.0001, 45.5, 246, 41.0582, 0.228189, 0, 0, 0, 0, 84859
-7353.28, 411980, -349.459, 0.21462, -829.842, 0.078957, 0.61767, 0.993198, 0.349787, 0.651995, 0.0001, 91, 246, 41.0582, 0.228189, 0, 0, 1, 0, 84859
875.991, 273384, -336.319, 4.63711, -945.466, 0.178474, 0.340779, 0.9175, 0.352806, 0.64323, 3, 455, 246, 32.8481, 0.124052, 1.18352, 1, 0, 0, 84863
-8011.5, 318238, -253.817, 0.773402, -947.756, 0.0160451, 0.497289, 0.993198, 0.349787, 0.651995, 0.0001, 91, 246, 39.142, 0.203981, 0, 0, 1, 0, 84864
-9579.93, 54523.2, 11.1212, 3.12982, -821.223, 0.211503, 0.196112, 1.03299, 0.34851, 0.655882, 0.0001, 45.5, 246, 11.534, 0.0321492, 0, 0, 1, 0, 84868
-9579.93, 54523.2, 11.1212, 3.12982, -821.223, 0.211503, 0.196112, 1.03299, 0.34851, 0.655882, 3, 45.5, 246, 11.534, 0.0321492, 0, 0, 1, 0, 84868
-9879.31, 316531, -421.145, 3.89461, -912.368, 0.392924, 0.419623, 0.993198, 0.349787, 0.651995, 0.0001, 91, 246, 47.759, 0.209223, 1.2237, 1, 1, 0, 84875
-9879.31, 316531, -421.145, 3.89461, -912.368, 0.392924, 0.419623, 0.993198, 0.349787, 0.651995, 3, 91, 246, 47.759, 0.209223, 1.12447, 1, 1, 0, 84875
-9695.63, 278102, -274.157, 1.06325, -986.194, 0.461885, 0.567501, 1.03299, 0.34851, 0.655882, 0.0001, 45.5, 246, 44.3656, 0.236626, 0, 0, 0, 0, 84883
-9695.63, 278102, -274.157, 1.06325, -986.194, 0.461885, 0.567501, 1.03299, 0.34851, 0.655882, 3, 45.5, 246, 44.3656, 0.236626, 0, 0, 0, 0, 84883
-7847.99, 305357, -299.017, 1.14876, -1072.96, 0.504039, 0.556172, 0.993198, 0.349787, 0.651995, 3, 91, 246, 44.3656, 0.236626, 0, 0, 1, 0, 84883
-9481.03, 222793, -195.505, 0.898154, -782.473, 0.094735, 0.488067, 1.03299, 0.34851, 0.655882, 0.0001, 45.5, 246, 37.7487, 0.218583, 0, 0, 1, 0, 84885
-10726.2, 171725, -102.405, 2.14101, -1162.47, 0.0976238, 0.32522, 1.03299, 0.34851, 0.655882, 0.0001, 45.5, 246, 31.497, 0.121832, 0, 0, 1, 0, 84886
-10726.2, 171725, -102.405, 2.14101, -1162.47, 0.0976238, 0.32522, 1.03299, 0.34851, 0.655882, 3, 45.5, 246, 31.497, 0.121832, 0, 0, 1, 0, 84886
-11016.6, 416216, -496.769, 3.59044, -1115.04, -0.000168121, 0.567874, 0.993198, 0.349787, 0.651995, 0.0001, 91, 246, 53.1828, 0.231567, 1.01414, 1, 1, 0, 84889
-1327.76, 174820, -273.666, 3.34136, -1308, 0.289708, 0.356475, 0.9175, 0.352806, 0.64323, 0.0001, 455, 246, 41.618, 0.188484, 1.11155, 1, 0, 0, 84892
-1327.76, 174820, -273.666, 3.34136, -1308, 0.289708, 0.356475, 0.9175, 0.352806, 0.64323, 3, 455, 246, 41.618, 0.188484, 1.16147, 1, 0, 0, 84892
-4355.2, 351651, -452.654, 3.89276, -910.058, 0.130298, 0.461938, 0.958125, 0.351078, 0.648177, 0.0001, 182, 246, 44.7745, 0.199936, 2.12817, 1, 0, 0, 84906
-4355.2, 351651, -452.654, 3.89276, -910.058, 0.130298, 0.461938, 0.958125, 0.351078, 0.648177, 3, 182, 246, 44.7745, 0.199936, 2.00862, 1, 0, 0, 84906
-7720.37, 558659, -266.947, 0.301781, -1047.62, 0.00514441, 0.464498, 1.03299, 0.34851, 0.655882, 0.0001, 45.5, 246, 35.1255, 0.123661, 0, 0, 0, 0, 84915
-7720.37, 558659, -266.947, 0.301781, -1047.62, 0.00514441, 0.464498, 1.03299, 0.34851, 0.655882, 3, 45.5, 246, 35.1255, 0.123661, 0, 0, 0, 0, 84915
-6509.35, 579417, -279.344, 0.31263, -1050.71, 0.00556332, 0.438429, 0.993198, 0.349787, 0.651995, 3, 91, 246, 35.1255, 0.123661, 0, 0, 1, 0, 84915
-13090.1, 528287, -122.519, 1.38206, -1182.1, 0.277755, 0.307728, 0.993198, 0.349787, 0.651995, 0.0001, 91, 246, 28.2464, 0.055256, 0, 0, 1, 0, 84917
-13090.1, 528287, -122.519, 1.38206, -1182.1, 0.277755, 0.307728, 0.993198, 0.349787, 0.651995, 3, 91, 246, 28.2464, 0.055256, 0, 0, 1, 0, 84917
-9982.78, 475709, -425.012, 0.403807, -850.753, 0.175611, 0.710499, 1.03299, 0.34851, 0.655882, 0.0001, 45.5, 246, 44.1074, 0.233844, 0, 0, 0, 0, 84920
-9982.78, 475709, -425.012, 0.403807, -850.753, 0.175611, 0.710499, 1.03299, 0.34851, 0.655882, 3, 45.5, 246, 44.1074, 0.233844, 0, 0, 0, 0, 84920
-7752.58, 496696, -447.231, 0.425843, -879.919, 0.181399, 0.709754, 0.993198, 0.349787, 0.651995, 0.0001, 91, 246, 44.1074, 0.233844, 2.46262, 1, 1, 0, 84920
-7752.58, 496696, -447.231, 0.425843, -879.919, 0.181399, 0.709754, 0.993198, 0.349787, 0.651995, 3, 91, 246, 44.1074, 0.233844, 2.43573, 1, 1, 0, 84920
-5156.26, 519354, -470.072, 0.448587, -911.304, 0.187616, 0.71436, 0.958125, 0.351078, 0.648177, 0.0001, 182, 246, 44.1074, 0.233844, 4.56524, 1, 0, 0, 84920
-5156.26, 519354, -470.072, 0.448587, -911.304, 0.187616, 0.71436, 0.958125, 0.351078, 0.648177, 3, 182, 246, 44.1074, 0.233844, 4.48418, 1, 0, 0, 84920
-8537.71, -1739.2, -5.31416, 2.07295, -1109.53, 0.348165, 0.286535, 0.993198, 0.349787, 0.651995, 0.0001, 91, 246, 7.10657, 0.0611463, 0, 0, 1, 1, 84923
-8537.71, -1739.2, -5.31416, 2.07295, -1109.53, 0.348165, 0.286535, 0.993198, 0.349787, 0.651995, 3, 91, 246, 7.10657, 0.0611463, 0, 0, 1, 1, 84923
-8951.21, 303779, -182.353, 0.505007, -850.535, 0.651292, 0.435546, 1.03299, 0.34851, 0.655882, 0.0001, 45.5, 246, 31.0375, 0.142058, 0, 0, 1, 0, 84933
-5308.74, 11790.5, -84.1059, 3.51108, -945.874, 0.187788, 0.191111, 1.03299, 0.34851, 0.655882, 0.0001, 45.5, 246, 38.9135, 0.0524438, 0, 0, 1, 1, 84936
-2068.47, 78671.6, -266.094, 5.11081, -1187.59, 0.508453, 0.338143, 0.9175, 0.352806, 0.64323, 0.0001, 455, 246, 38.9135, 0.0524438, 1.36716, 1, 1, 0, 84936
-2068.47, 78671.6, -266.094, 5.11081, -1187.59, 0.508453, 0.338143, 0.9175, 0.352806, 0.64323, 3, 455, 246, 38.9135, 0.0524438, 1.29767, 1, 1, 0, 84936
-11969, 170397, -73.0062, 2.67057, -1181.87, -0.012738, 0.263926, 1.03299, 0.34851, 0.655882, 0.0001, 45.5, 246, 28.2403, 0.0925664, 0, 0, 0, 0, 84939
-11969, 170397, -73.0062, 2.67057, -1181.87, -0.012738, 0.263926, 1.03299, 0.34851, 0.655882, 3, 45.5, 246, 28.2403, 0.0925664, 0, 0, 0, 0, 84939
-4948.29, 965097, -220.208, 0.522227, -1148.82, 0.409736, 0.28125, 0.9175, 0.352806, 0.64323, 3, 455, 246, 27.7732, 0.0535442, 0, 0, 0, 0, 84948
-8041.61, -12318.8, 16.425, 2.47138, -1078.95, 0.321961, 0.272231, 1.03299, 0.34851, 0.655882, 0.0001, 45.5, 246, 9.75145, 0.0560434, 0, 0, 1, 0, 84949
-8041.61, -12318.8, 16.425, 2.47138, -1078.95, 0.321961, 0.272231, 1.03299, 0.34851, 0.655882, 3, 45.5, 246, 9.75145, 0.0560434, 0, 0, 1, 1, 84949
-8763.5, 20094.4, 4.1354, 0.963043, -770.711, -0.00421023, 0.333129, 1.03299, 0.34851, 0.655882, 0.0001, 45.5, 246, 5.22989, 0.0296363, 0, 0, 1, 1, 84954
-8763.5, 20094.4, 4.1354, 0.963043, -770.711, -0.00421023, 0.333129, 1.03299, 0.34851, 0.655882, 3, 45.5, 246, 5.22989, 0.0296363, 0, 0, 1, 1, 84954
-9107.51, 445007, -283.752, 0.179984, -560.276, 0.714007, 0.498096, 1.03299, 0.34851, 0.655882, 0.0001, 45.5, 246, 28.7576, 0.148942, 0, 0, 1, 0, 84958
-8264.3, 470946, -294.512, 0.19376, -633.049, 0.804984, 0.474731, 0.993198, 0.349787, 0.651995, 0.0001, 91, 246, 28.7576, 0.148942, 0, 0, 1, 0, 84958
-9029.74, 82546.3, -70.9301, 3.0959, -1045.85, 0.491119, 0.222734, 1.03299, 0.34851, 0.655882, 0.0001, 45.5, 246, 29.0648, 0.0994954, 0, 0, 0, 0, 84959
-9029.74, 82546.3, -70.9301, 3.0959, -1045.85, 0.491119, 0.222734, 1.03299, 0.34851, 0.655882, 3, 45.5, 246, 29.0648, 0.0994954, 0, 0, 0, 0, 84959
-8512.91, 539952, -235.121, 0.426359, -1099.63, 0.0233536, 0.438692, 1.03299, 0.34851, 0.655882, 0.0001, 45.5, 246, 34.4688, 0.111848, 0, 0, 0, 0, 84960
-8512.91, 539952, -235.121, 0.426359, -1099.63, 0.0233536, 0.438692, 1.03299, 0.34851, 0.655882, 3, 45.5, 246, 34.4688, 0.111848, 0, 0, 0, 0, 84960
-5638.7, 586450, -261.297, 0.458851, -1113.91, 0.0252616, 0.387281, 0.958125, 0.351078, 0.648177, 3, 182, 246, 34.4688, 0.111848, 0, 0, 0, 0, 84960
-9088.06, 182728, -192.123, 1.7366, -1166.23, 0.0756113, 0.460525, 1.03299, 0.34851, 0.655882, 0.0001, 45.5, 246, 44.2087, 0.227963, 0, 0, 0, 0, 84967
-9088.06, 182728, -192.123, 1.7366, -1166.23, 0.0756113, 0.460525, 1.03299, 0.34851, 0.655882, 3, 45.5, 246, 44.2087, 0.227963, 0, 0, 0, 0, 84967
-7441.48, 454745, -356.595, 0.34932, -1142.86, -0.000450749, 0.621599, 1.03299, 0.34851, 0.655882, 0.0001, 45.5, 246, 44.9361, 0.209314, 0, 0, 0, 0, 84970
-5760.87, 480048, -374.89, 0.363659, -1146.26, 0.000107199, 0.61077, 0.993198, 0.349787, 0.651995, 3, 91, 246, 44.9361, 0.209314, 0, 0, 1, 0, 84970
-10161.2, 568219, -139.855, 0.316513, -591.871, 0.141926, 0.372103, 1.03299, 0.34851, 0.655882, 0.0001, 45.5, 246, 19.6371, 0.0623363, 0, 0, 1, 0, 84971
-10161.2, 568219, -139.855, 0.316513, -591.871, 0.141926, 0.372103, 1.03299, 0.34851, 0.655882, 3, 45.5, 246, 19.6371, 0.0623363, 0, 0, 1, 0, 84971
-9434.08, 579172, -146.243, 0.329547, -606.703, 0.145651, 0.338587, 0.993198, 0.349787, 0.651995, 0.0001, 91, 246, 19.6371, 0.0623363, 0, 0, 1, 0, 84971
-9888.46, 766818, -50.4691, 0.234622, -946.221, 0.581796, 0.306728, 0.993198, 0.349787, 0.651995, 0.0001, 91, 246, 20.9105, 0.0155217, 0, 0, 1, 0, 84972
-12736.1, 332961, -34.8877, 1.02631, -880.51, 0.570621, 0.327528, 1.03299, 0.34851, 0.655882, 0.0001, 45.5, 246, 18.801, 0.029882, 0, 0, 1, 0, 84974
-12736.1, 332961, -34.8877, 1.02631, -880.51, 0.570621, 0.327528, 1.03299, 0.34851, 0.655882, 3, 45.5, 246, 18.801, 0.029882, 0, 0, 1, 0, 84974
-9008.76, 85835.6, -47.2671, 1.05836, -987.269, -0.00349273, 0.351658, 1.03299, 0.34851, 0.655882, 0.0001, 45.5, 246, 23.0355, 0.117419, 0, 0, 1, 0, 84975
-9008.76, 85835.6, -47.2671, 1.05836, -987.269, -0.00349273, 0.351658, 1.03299, 0.34851, 0.655882, 3, 45.5, 246, 23.0355, 0.117419, 0, 0, 1, 0, 84975
-8557.38, -1510.12, 8.46687, 1.36485, -811.809, 0.405353, 0.323899, 1.03299, 0.34851, 0.655882, 0.0001, 45.5, 246, 4.74452, 0.0420216, 0, 0, 1, 0, 84987
-8557.38, -1510.12, 8.46687, 1.36485, -811.809, 0.405353, 0.323899, 1.03299, 0.34851, 0.655882, 3, 45.5, 246, 4.74452, 0.0420216, 0, 0, 1, 0, 84987
-10414.1, 224819, -210.363, 1.57116, -786.548, -0.0115308, 0.463722, 1.03299, 0.34851, 0.655882, 0.0001, 45.5, 246, 39.2633, 0.209579, 0, 0, 1, 0, 84990
-10414.1, 224819, -210.363, 1.57116, -786.548, -0.0115308, 0.463722, 1.03299, 0.34851, 0.655882, 3, 45.5, 246, 39.2633, 0.209579, 0, 0, 1, 0, 84990
-12202.7, 357969, -492.661, 3.40711, -647.562, 0.102483, 0.579276, 0.993198, 0.349787, 0.651995, 0.0001, 91, 246, 48.4103, 0.242632, 1.27528, 1, 1, 0, 84995
-12202.7, 357969, -492.661, 3.40711, -647.562, 0.102483, 0.579276, 0.993198, 0.349787, 0.651995, 3, 91, 246, 48.4103, 0.242632, 1.19365, 1, 1, 0, 84995
-6553.61, -16619.5, -31.8356, 3.23383, -666.715, 0.0820256, 0.215895, 1.03299, 0.34851, 0.655882, 3, 45.5, 246, 23.5519, 0.00307901, 0, 0, 1, 1, 84996
