-11258.7, 303441, -185.177, 1.1367, -769.905, 0.206528, 0.422625, 1.03299, 0.34851, 0.655882, 0.0001, 45.5, 246, 31.0631, 0.145391, 0, 0, 1, 0, 167002
-11258.7, 303441, -185.177, 1.1367, -769.905, 0.206528, 0.422625, 1.03299, 0.34851, 0.655882, 3, 45.5, 246, 31.0631, 0.145391, 0, 0, 1, 0, 167002
-9622.21, 522207, -265.921, 0.619466, -1095.61, 0.200755, 0.465488, 1.03299, 0.34851, 0.655882, 0.0001, 45.5, 246, 36.4439, 0.127811, 0, 0, 0, 0, 167012
-9622.21, 522207, -265.921, 0.619466, -1095.61, 0.200755, 0.465488, 1.03299, 0.34851, 0.655882, 3, 45.5, 246, 36.4439, 0.127811, 0, 0, 0, 0, 167012
-9762.2, 478364, -412.257, 0.677822, -1084.57, 0.157989, 0.683245, 1.03299, 0.34851, 0.655882, 3, 45.5, 246, 47.0563, 0.223626, 0, 0, 0, 0, 167014
-11376, 180112, -106.331, 2.15262, -908.618, 0.513697, 0.312783, 1.03299, 0.34851, 0.655882, 0.0001, 45.5, 246, 28.623, 0.110928, 0, 0, 1, 0, 167023
-8486.57, 126432, -173.66, 3.20363, -801.863, 0.0474416, 0.266656, 1.03299, 0.34851, 0.655882, 0.0001, 45.5, 246, 40.6543, 0.163683, 0, 0, 1, 0, 167025
-8486.57, 126432, -173.66, 3.20363, -801.863, 0.0474416, 0.266656, 1.03299, 0.34851, 0.655882, 3, 45.5, 246, 40.6543, 0.163683, 0, 0, 1, 0, 167025
1266.34, 176493, -343.07, 4.4222, -951.199, 0.26704, 0.370721, 0.9175, 0.352806, 0.64323, 0.0001, 455, 246, 40.6543, 0.163683, 3.01737, 1, 0, 0, 167025
1266.34, 176493, -343.07, 4.4222, -951.199, 0.26704, 0.370721, 0.9175, 0.352806, 0.64323, 3, 455, 246, 40.6543, 0.163683, 3.03441, 1, 0, 0, 167025
-12139.7, 300735, -5.08772, 0.876319, -652.113, 0.706576, 0.327697, 1.03299, 0.34851, 0.655882, 0.0001, 45.5, 246, 12.2684, 0.00956991, 0, 0, 1, 0, 167043
-11197.4, 321257, -10.9657, 0.950759, -734.499, 0.799508, 0.294245, 0.993198, 0.349787, 0.651995, 0.0001, 91, 246, 12.2684, 0.00956991, 0, 0, 1, 0, 167043
-10830, 122671, -86.235, 3.18312, -692.839, -0.000198254, 0.208456, 1.03299, 0.34851, 0.655882, 0.0001, 45.5, 246, 25.2565, 0.0900326, 0, 0, 1, 0, 167045
-10830, 122671, -86.235, 3.18312, -692.839, -0.000198254, 0.208456, 1.03299, 0.34851, 0.655882, 3, 45.5, 246, 25.2565, 0.0900326, 0, 0, 1, 0, 167045
-6683.69, -12423.3, -28.8, 3.04211, -895.975, 0.790554, 0.228091, 1.03299, 0.34851, 0.655882, 0.0001, 45.5, 246, 25.1791, 0.025175, 0, 0, 1, 0, 167051
-6683.69, -12423.3, -28.8, 3.04211, -895.975, 0.790554, 0.228091, 1.03299, 0.34851, 0.655882, 3, 45.5, 246, 25.1791, 0.025175, 0, 0, 1, 0, 167051
-11618.8, 133423, -5.18213, 2.36945, -972.751, -0.0139304, 0.260188, 1.03299, 0.34851, 0.655882, 0.0001, 45.5, 246, 16.1273, 0.0377877, 0, 0, 1, 0, 167053
-11618.8, 133423, -5.18213, 2.36945, -972.751, -0.0139304, 0.260188, 1.03299, 0.34851, 0.655882, 3, 45.5, 246, 16.1273, 0.0377877, 0, 0, 1, 0, 167053
-12024.4, 112792, 3.99927, 3.45052, -1168.14, 0.0719391, 0.157101, 1.03299, 0.34851, 0.655882, 0.0001, 45.5, 246, 18.9748, 0.0449765, 0, 0, 0, 0, 167055
-12024.4, 112792, 3.99927, 3.45052, -1168.14, 0.0719391, 0.157101, 1.03299, 0.34851, 0.655882, 3, 45.5, 246, 18.9748, 0.0449765, 0, 0, 0, 0, 167055
-10287.8, 137075, -34.5661, 3.77798, -1188.24, 0.130807, 0.168181, 0.993198, 0.349787, 0.651995, 0.0001, 91, 246, 18.9748, 0.0449765, 0, 0, 1, 0, 167055
-10287.8, 137075, -34.5661, 3.77798, -1188.24, 0.130807, 0.168181, 0.993198, 0.349787, 0.651995, 3, 91, 246, 18.9748, 0.0449765, 0, 0, 1, 0, 167055
-9828.09, 102655, -73.294, 2.97326, -915.237, -0.0414695, 0.237206, 1.03299, 0.34851, 0.655882, 0.0001, 45.5, 246, 27.1829, 0.0976562, 0, 0, 1, 0, 167057
-9828.09, 102655, -73.294, 2.97326, -915.237, -0.0414695, 0.237206, 1.03299, 0.34851, 0.655882, 3, 45.5, 246, 27.1829, 0.0976562, 0, 0, 1, 0, 167057
-708.962, 245396, -295.566, 4.82678, -743.926, 0.214008, 0.318733, 0.9175, 0.352806, 0.64323, 0.0001, 455, 246, 28.3697, 0.10856, 0, 0, 0, 0, 167062
-708.962, 245396, -295.566, 4.82678, -743.926, 0.214008, 0.318733, 0.9175, 0.352806, 0.64323, 3, 455, 246, 28.3697, 0.10856, 0, 0, 0, 0, 167062
-7329.13, 100074, -156.713, 3.18782, -868.854, -0.021795, 0.262889, 1.03299, 0.34851, 0.655882, 3, 45.5, 246, 41.9563, 0.163313, 0, 0, 1, 0, 167063
-3411.32, 128788, -244.624, 3.78997, -913.391, 0.084878, 0.296576, 0.958125, 0.351078, 0.648177, 0.0001, 182, 246, 41.9563, 0.163313, 1.06405, 1, 1, 0, 167063
775.137, 152479, -324.036, 4.32937, -979.4, 0.183863, 0.360228, 0.9175, 0.352806, 0.64323, 0.0001, 455, 246, 41.9563, 0.163313, 2.55328, 1, 0, 0, 167063
775.137, 152479, -324.036, 4.32937, -979.4, 0.183863, 0.360228, 0.9175, 0.352806, 0.64323, 3, 455, 246, 41.9563, 0.163313, 2.55716, 1, 0, 0, 167063
-9031.55, 329481, -138.834, 0.545185, -1055.94, 0.124279, 0.393892, 1.03299, 0.34851, 0.655882, 0.0001, 45.5, 246, 29.6069, 0.105711, 0, 0, 1, 0, 167067
-10472.8, 897069, -124.088, 0.270221, -884.587, 0.0965791, 0.355914, 1.03299, 0.34851, 0.655882, 0.0001, 45.5, 246, 24.5356, 0.0352522, 0, 0, 1, 0, 167070
-10472.8, 897069, -124.088, 0.270221, -884.587, 0.0965791, 0.355914, 1.03299, 0.34851, 0.655882, 3, 45.5, 246, 24.5356, 0.0352522, 0, 0, 1, 0, 167070
-12463.3, 223895, -306.426, 3.33765, -674.332, 0.652641, 0.332194, 1.03299, 0.34851, 0.655882, 0.0001, 45.5, 246, 44.3761, 0.193692, 1.017, 1, 0, 0, 167074
-8134.8, 243330, -358.763, 3.78937, -788.168, 0.789761, 0.352697, 0.993198, 0.349787, 0.651995, 0.0001, 91, 246, 44.3761, 0.193692, 1.19708, 1, 1, 0, 167074
-8134.8, 243330, -358.763, 3.78937, -788.168, 0.789761, 0.352697, 0.993198, 0.349787, 0.651995, 3, 91, 246, 44.3761, 0.193692, 1.0641, 1, 1, 0, 167074
-2343.93, 270723, -427.801, 4.37449, -951.026, 0.985821, 0.399146, 0.958125, 0.351078, 0.648177, 0.0001, 182, 246, 44.3761, 0.193692, 3.29233, 1, 0, 0, 167074
-2343.93, 270723, -427.801, 4.37449, -951.026, 0.985821, 0.399146, 0.958125, 0.351078, 0.648177, 3, 182, 246, 44.3761, 0.193692, 3.02668, 1, 0, 0, 167074
-2466.84, 280333, -414.923, 3.36739, -967.9, 0.0458898, 0.502935, 0.958125, 0.351078, 0.648177, 0.0001, 182, 246, 49.4608, 0.23433, 1.94003, 1, 0, 0, 167076
-2466.84, 280333, -414.923, 3.36739, -967.9, 0.0458898, 0.502935, 0.958125, 0.351078, 0.648177, 3, 182, 246, 49.4608, 0.23433, 1.76077, 1, 0, 0, 167076
-7051, 544318, -452.431, 0.0867992, -849.394, 0.796736, 0.663801, 0.993198, 0.349787, 0.651995, 3, 91, 246, 39.3013, 0.204349, 0, 0, 1, 0, 167086
-10329.5, 146570, -102.318, 2.22018, -877.215, -0.00078854, 0.315848, 1.03299, 0.34851, 0.655882, 0.0001, 45.5, 246, 29.5812, 0.125546, 0, 0, 1, 0, 167098
-10329.5, 146570, -102.318, 2.22018, -877.215, -0.00078854, 0.315848, 1.03299, 0.34851, 0.655882, 3, 45.5, 246, 29.5812, 0.125546, 0, 0, 1, 0, 167098
-7129.16, 174424, -156.39, 2.54231, -899.803, 0.049079, 0.296842, 0.958125, 0.351078, 0.648177, 3, 182, 246, 29.5812, 0.125546, 0, 0, 1, 0, 167098
-10951.5, 176557, -93.0664, 1.92388, -917.931, 0.00555981, 0.326572, 1.03299, 0.34851, 0.655882, 0.0001, 45.5, 246, 27.3187, 0.110229, 0, 0, 1, 0, 167100
-10951.5, 176557, -93.0664, 1.92388, -917.931, 0.00555981, 0.326572, 1.03299, 0.34851, 0.655882, 3, 45.5, 246, 27.3187, 0.110229, 0, 0, 1, 0, 167100
-9521.23, 191432, -115.456, 2.04626, -925.421, 0.0228844, 0.307131, 0.993198, 0.349787, 0.651995, 3, 91, 246, 27.3187, 0.110229, 0, 0, 1, 0, 167100
-7737.83, 206959, -140.492, 2.17846, -937.321, 0.0426319, 0.295497, 0.958125, 0.351078, 0.648177, 3, 182, 246, 27.3187, 0.110229, 0, 0, 1, 0, 167100
-4760.7, 370107, -444.369, 4.23237, -990.345, 0.113012, 0.411892, 0.958125, 0.351078, 0.648177, 0.0001, 182, 246, 43.6751, 0.181747, 2.14732, 1, 0, 0, 167103
-4760.7, 370107, -444.369, 4.23237, -990.345, 0.113012, 0.411892, 0.958125, 0.351078, 0.648177, 3, 182, 246, 43.6751, 0.181747, 2.18869, 1, 0, 0, 167103
-52.111, 241435, -344.48, 3.58344, -1077.19, 1.55108, 0.409737, 0.9175, 0.352806, 0.64323, 0.0001, 455, 246, 38.2862, 0.185613, 1.50423, 1, 0, 0, 167109
-52.111, 241435, -344.48, 3.58344, -1077.19, 1.55108, 0.409737, 0.9175, 0.352806, 0.64323, 3, 455, 246, 38.2862, 0.185613, 1.59371, 1, 0, 0, 167109
-11874.7, 545462, -81.8431, 0.619575, -1092.12, 0.0690163, 0.347565, 1.03299, 0.34851, 0.655882, 0.0001, 45.5, 246, 25.9068, 0.0400711, 0, 0, 1, 0, 167119
-11874.7, 545462, -81.8431, 0.619575, -1092.12, 0.0690163, 0.347565, 1.03299, 0.34851, 0.655882, 3, 45.5, 246, 25.9068, 0.0400711, 0, 0, 1, 0, 167119
-9032.99, 592759, -101.02, 0.671466, -1120.25, 0.0742979, 0.284139, 0.958125, 0.351078, 0.648177, 3, 182, 246, 25.9068, 0.0400711, 0, 0, 1, 0, 167119
-6777.94, 20645.9, -66.1404, 2.6669, -927.504, 0.516394, 0.265613, 1.03299, 0.34851, 0.655882, 0.0001, 45.5, 246, 34.7428, 0.0888955, 0, 0, 1, 0, 167123
-5887, 59784.6, -134.543, 3.30774, -1139.58, 0.710431, 0.269342, 0.958125, 0.351078, 0.648177, 3, 182, 246, 34.7428, 0.0888955, 0, 0, 1, 0, 167123
-11255.5, 291831, -15.392, 0.783527, -965.075, 0.190398, 0.332779, 1.03299, 0.34851, 0.655882, 0.0001, 45.5, 246, 17.4436, 0.019896, 0, 0, 1, 0, 167124
-10471.6, 311648, -23.0774, 0.824059, -995.648, 0.199228, 0.298838, 0.993198, 0.349787, 0.651995, 0.0001, 91, 246, 17.4436, 0.019896, 0, 0, 1, 0, 167124
-10449.2, 288908, -260.459, 1.14612, -850.314, -0.00605338, 0.540137, 1.03299, 0.34851, 0.655882, 0.0001, 45.5, 246, 41.4554, 0.224432, 0, 0, 0, 0, 167125
-10449.2, 288908, -260.459, 1.14612, -850.314, -0.00605338, 0.540137, 1.03299, 0.34851, 0.655882, 3, 45.5, 246, 41.4554, 0.224432, 0, 0, 0, 0, 167125
-11304.1, 230773, -95.5613, 1.37462, -751.818, -0.00810432, 0.348478, 1.03299, 0.34851, 0.655882, 0.0001, 45.5, 246, 23.7215, 0.0974176, 0, 0, 1, 0, 167134
-11304.1, 230773, -95.5613, 1.37462, -751.818, -0.00810432, 0.348478, 1.03299, 0.34851, 0.655882, 3, 45.5, 246, 23.7215, 0.0974176, 0, 0, 1, 0, 167134
-10036.2, 240611, -110.164, 1.44674, -755.185, 0.000633555, 0.321773, 0.993198, 0.349787, 0.651995, 3, 91, 246, 23.7215, 0.0974176, 0, 0, 1, 0, 167134
-8423.27, 113350, -43.6008, 0.03638, -862.915, 0.810149, 0.357837, 1.03299, 0.34851, 0.655882, 0.0001, 45.5, 246, 18.8629, 0.0960307, 1.71522, 1, 1, 0, 167137
-8423.27, 113350, -43.6008, 0.03638, -862.915, 0.810149, 0.357837, 1.03299, 0.34851, 0.655882, 3, 45.5, 246, 18.8629, 0.0960307, 1.78336, 1, 1, 0, 167137
-10939.3, 167123, -119.524, 2.54189, -997.745, -0.000313157, 0.302383, 1.03299, 0.34851, 0.655882, 0.0001, 45.5, 246, 32.4495, 0.130141, 0, 0, 1, 0, 167138
-10939.3, 167123, -119.524, 2.54189, -997.745, -0.000313157, 0.302383, 1.03299, 0.34851, 0.655882, 3, 45.5, 246, 32.4495, 0.130141, 0, 0, 0, 0, 167138
-7385.05, 100650, -163.413, 3.25549, -734.209, -0.0507561, 0.250031, 1.03299, 0.34851, 0.655882, 3, 45.5, 246, 41.1657, 0.157043, 0, 0, 1, 0, 167141
-3480.2, 121172, -244.899, 3.8669, -772.576, 0.060118, 0.286721, 0.958125, 0.351078, 0.648177, 0.0001, 182, 246, 41.1657, 0.157043, 1.0759, 1, 1, 0, 167141
494.942, 138663, -318.426, 4.41716, -831.131, 0.16183, 0.353582, 0.9175, 0.352806, 0.64323, 0.0001, 455, 246, 41.1657, 0.157043, 1.94493, 1, 0, 0, 167141
494.942, 138663, -318.426, 4.41716, -831.131, 0.16183, 0.353582, 0.9175, 0.352806, 0.64323, 3, 455, 246, 41.1657, 0.157043, 1.94482, 1, 0, 0, 167141
-10492.3, 389354, -275.393, 0.566727, -644.681, 0.779427, 0.501924, 1.03299, 0.34851, 0.655882, 0.0001, 45.5, 246, 31.8028, 0.161444, 0, 0, 0, 0, 167148
-10492.3, 389354, -275.393, 0.566727, -644.681, 0.779427, 0.501924, 1.03299, 0.34851, 0.655882, 3, 45.5, 246, 31.8028, 0.161444, 0, 0, 0, 0, 167148
-10470.8, 639030, -169.512, 0.510724, -1089.52, 0.0105707, 0.381669, 1.03299, 0.34851, 0.655882, 0.0001, 45.5, 246, 30.4177, 0.0686653, 0, 0, 0, 0, 167149
-4674.62, 47558.2, -147.941, 3.12031, -639.757, -0.0233627, 0.23989, 1.03299, 0.34851, 0.655882, 0.0001, 45.5, 246, 47.87, 0.129336, 1.11177, 1, 1, 0, 167158
-3810.51, 55112.2, -179.634, 3.38394, -653.683, 0.023024, 0.24463, 0.993198, 0.349787, 0.651995, 0.0001, 91, 246, 47.87, 0.129336, 1.10035, 1, 1, 0, 167158
-2619.91, 63513.4, -217.007, 3.69244, -677.361, 0.0783057, 0.265392, 0.958125, 0.351078, 0.648177, 0.0001, 182, 246, 47.87, 0.129336, 1.2181, 1, 1, 0, 167158
-2619.91, 63513.4, -217.007, 3.69244, -677.361, 0.0783057, 0.265392, 0.958125, 0.351078, 0.648177, 3, 182, 246, 47.87, 0.129336, 1.05526, 1, 1, 0, 167158
-357.423, 76803.9, -278.686, 4.19913, -729.248, 0.171547, 0.321006, 0.9175, 0.352806, 0.64323, 0.0001, 455, 246, 47.87, 0.129336, 1.58158, 1, 1, 1, 167158
-357.423, 76803.9, -278.686, 4.19913, -729.248, 0.171547, 0.321006, 0.9175, 0.352806, 0.64323, 3, 455, 246, 47.87, 0.129336, 1.47737, 1, 1, 1, 167158
-7610.8, 318253, -435.735, 3.53042, -1077.44, 0.00435121, 0.52471, 0.993198, 0.349787, 0.651995, 0.0001, 91, 246, 53.8231, 0.24341, 1.19416, 1, 1, 0, 167160
-7610.8, 318253, -435.735, 3.53042, -1077.44, 0.00435121, 0.52471, 0.993198, 0.349787, 0.651995, 3, 91, 246, 53.8231, 0.24341, 1.07896, 1, 1, 0, 167160
-5580.95, 70885.7, -152.396, 3.38978, -910.705, -0.0320455, 0.234111, 1.03299, 0.34851, 0.655882, 0.0001, 45.5, 246, 45.5381, 0.155281, 1.07654, 1, 1, 0, 167162
-5580.95, 70885.7, -152.396, 3.38978, -910.705, -0.0320455, 0.234111, 1.03299, 0.34851, 0.655882, 3, 45.5, 246, 45.5381, 0.155281, 0, 0, 1, 0, 167162
-4216.98, 85866.7, -195.854, 3.69382, -926.14, 0.0229671, 0.247354, 0.993198, 0.349787, 0.651995, 0.0001, 91, 246, 45.5381, 0.155281, 1.10716, 1, 1, 0, 167162
-2263.99, 102300, -247.873, 4.05636, -956.902, 0.0892689, 0.279511, 0.958125, 0.351078, 0.648177, 0.0001, 182, 246, 45.5381, 0.155281, 1.42287, 1, 1, 0, 167162
-2263.99, 102300, -247.873, 4.05636, -956.902, 0.0892689, 0.279511, 0.958125, 0.351078, 0.648177, 3, 182, 246, 45.5381, 0.155281, 1.26635, 1, 1, 0, 167162
1603.73, 128138, -335.749, 4.66801, -1030.67, 0.203608, 0.356929, 0.9175, 0.352806, 0.64323, 0.0001, 455, 246, 45.5381, 0.155281, 3.40992, 1, 0, 0, 167162
1603.73, 128138, -335.749, 4.66801, -1030.67, 0.203608, 0.356929, 0.9175, 0.352806, 0.64323, 3, 455, 246, 45.5381, 0.155281, 3.41367, 1, 0, 0, 167162
-6578.36, 116480, -201.912, 2.94146, -980.458, 0.779071, 0.322147, 1.03299, 0.34851, 0.655882, 0.0001, 45.5, 246, 48.3814, 0.20377, 1.13112, 1, 0, 0, 167167
-4508.24, 142512, -249.277, 3.33732, -1141.93, 0.937735, 0.329058, 0.993198, 0.349787, 0.651995, 0.0001, 91, 246, 48.3814, 0.20377, 1.14645, 1, 1, 0, 167167
-1372.39, 180103, -313.27, 3.84958, -1375.62, 1.16734, 0.356881, 0.958125, 0.351078, 0.648177, 0.0001, 182, 246, 48.3814, 0.20377, 1.85863, 1, 0, 0, 167167
-1372.39, 180103, -313.27, 3.84958, -1375.62, 1.16734, 0.356881, 0.958125, 0.351078, 0.648177, 3, 182, 246, 48.3814, 0.20377, 1.68523, 1, 0, 0, 167167
-11170.4, 634377, -30.3714, 0.432402, -841.834, 0.381025, 0.303133, 0.993198, 0.349787, 0.651995, 3, 91, 246, 17.9428, 0.0119657, 0, 0, 1, 0, 167170
-10150.2, 660978, -34.7724, 0.455472, -896.222, 0.406356, 0.271952, 0.958125, 0.351078, 0.648177, 0.0001, 182, 246, 17.9428, 0.0119657, 0, 0, 1, 0, 167170
-9636.41, 849947, -200.439, 0.273779, -865.497, 0.000583306, 0.385529, 1.03299, 0.34851, 0.655882, 0.0001, 45.5, 246, 26.872, 0.0609198, 0, 0, 0, 0, 167172
-9636.41, 849947, -200.439, 0.273779, -865.497, 0.000583306, 0.385529, 1.03299, 0.34851, 0.655882, 3, 45.5, 246, 26.872, 0.0609198, 0, 0, 0, 0, 167172
-6544.34, 176113, -285.843, 3.27825, -635.149, 0.00107756, 0.360106, 0.993198, 0.349787, 0.651995, 0.0001, 91, 246, 45.0439, 0.207504, 1.00543, 1, 1, 0, 167182
-3122.07, 185148, -331.818, 3.57679, -665.663, 0.0526946, 0.385105, 0.958125, 0.351078, 0.648177, 0.0001, 182, 246, 45.0439, 0.207504, 1.3797, 1, 1, 0, 167182
-3122.07, 185148, -331.818, 3.57679, -665.663, 0.0526946, 0.385105, 0.958125, 0.351078, 0.648177, 3, 182, 246, 45.0439, 0.207504, 1.18007, 1, 1, 0, 167182
-5772.7, 475958, -293.16, 0.20292, -973.723, 0.248561, 0.464251, 0.958125, 0.351078, 0.648177, 0.0001, 182, 246, 35.3226, 0.161387, 2.51581, 1, 0, 0, 167187
-5772.7, 475958, -293.16, 0.20292, -973.723, 0.248561, 0.464251, 0.958125, 0.351078, 0.648177, 3, 182, 246, 35.3226, 0.161387, 2.42697, 1, 0, 0, 167187
-4303.47, 510053, -307.379, 0.214837, -1029.32, 0.262441, 0.444778, 0.9175, 0.352806, 0.64323, 0.0001, 455, 246, 35.3226, 0.161387, 3.43442, 1, 0, 0, 167187
-4303.47, 510053, -307.379, 0.214837, -1029.32, 0.262441, 0.444778, 0.9175, 0.352806, 0.64323, 3, 455, 246, 35.3226, 0.161387, 3.30352, 1, 0, 0, 167187
-7377.11, -9376.08, -32.9075, 2.5131, -659.571, 0.00860895, 0.277716, 1.03299, 0.34851, 0.655882, 3, 45.5, 246, 26.5487, 0.0228992, 0, 0, 1, 1, 167190
-9151.05, 257443, -107.312, 1.69218, -635.821, 0.0302572, 0.282524, 0.958125, 0.351078, 0.648177, 0.0001, 182, 246, 19.7363, 0.0766555, 0, 0, 1, 0, 167196
-9585.04, 54400.8, 9.62092, 3.16006, -707.698, 0.705957, 0.183409, 1.03299, 0.34851, 0.655882, 0.0001, 45.5, 246, 10.681, 0.0278415, 0, 0, 0, 0, 167197
-9585.04, 54400.8, 9.62092, 3.16006, -707.698, 0.705957, 0.183409, 1.03299, 0.34851, 0.655882, 3, 45.5, 246, 10.681, 0.0278415, 0, 0, 0, 0, 167197
-8907.73, 66233.1, -12.6362, 3.57133, -799.891, 0.850519, 0.188049, 0.993198, 0.349787, 0.651995, 0.0001, 91, 246, 10.681, 0.0278415, 0, 0, 1, 0, 167197
-8907.73, 66233.1, -12.6362, 3.57133, -799.891, 0.850519, 0.188049, 0.993198, 0.349787, 0.651995, 3, 91, 246, 10.681, 0.0278415, 0, 0, 1, 0, 167197
-7835.5, 82445.4, -44.0518, 4.10055, -932.014, 1.05713, 0.21523, 0.958125, 0.351078, 0.648177, 0.0001, 182, 246, 10.681, 0.0278415, 0, 0, 1, 0, 167197
-7835.5, 82445.4, -44.0518, 4.10055, -932.014, 1.05713, 0.21523, 0.958125, 0.351078, 0.648177, 3, 182, 246, 10.681, 0.0278415, 0, 0, 1, 0, 167197
-9381.05, 319304, -277.746, 0.595854, -823.403, 0.569994, 0.557116, 1.03299, 0.34851, 0.655882, 0.0001, 45.5, 246, 39.2404, 0.212175, 0, 0, 0, 0, 167200
-8043.38, 344252, -294.77, 0.64199, -909.922, 0.628263, 0.540907, 0.993198, 0.349787, 0.651995, 0.0001, 91, 246, 39.2404, 0.212175, 0, 0, 1, 0, 167200
-6399.13, 374559, -313.068, 0.6931, -1016, 0.699682, 0.529399, 0.958125, 0.351078, 0.648177, 0.0001, 182, 246, 39.2404, 0.212175, 0, 0, 0, 0, 167200
-8316.78, 200330, -201.901, 1.66159, -861.069, 0.697296, 0.412046, 0.993198, 0.349787, 0.651995, 0.0001, 91, 246, 37.2477, 0.196699, 0, 0, 1, 0, 167201
-6332.95, 204247, -322.409, 3.5287, -796.136, 0.0524939, 0.376163, 0.993198, 0.349787, 0.651995, 0.0001, 91, 246, 47.8553, 0.215156, 1.17447, 1, 1, 0, 167202
-6332.95, 204247, -322.409, 3.5287, -796.136, 0.0524939, 0.376163, 0.993198, 0.349787, 0.651995, 3, 91, 246, 47.8553, 0.215156, 1.01341, 1, 1, 0, 167202
-1928.28, 218782, -380.974, 3.88235, -840.989, 0.113745, 0.411328, 0.958125, 0.351078, 0.648177, 0.0001, 182, 246, 47.8553, 0.215156, 2.17355, 1, 0, 0, 167202
-1928.28, 218782, -380.974, 3.88235, -840.989, 0.113745, 0.411328, 0.958125, 0.351078, 0.648177, 3, 182, 246, 47.8553, 0.215156, 2.01014, 1, 0, 0, 167202
-11891.3, 208187, -86.3049, 1.87476, -867.617, 0.0261636, 0.319379, 1.03299, 0.34851, 0.655882, 0.0001, 45.5, 246, 24.8704, 0.0925865, 0, 0, 1, 0, 167203
-11891.3, 208187, -86.3049, 1.87476, -867.617, 0.0261636, 0.319379, 1.03299, 0.34851, 0.655882, 3, 45.5, 246, 24.8704, 0.0925865, 0, 0, 1, 0, 167203
-8303.17, 235968, -129.894, 2.12241, -890.941, 0.0617879, 0.285314, 0.958125, 0.351078, 0.648177, 3, 182, 246, 24.8704, 0.0925865, 0, 0, 1, 0, 167203
-3048.65, 345366, -471.191, 3.1179, -1090.13, 1.01049, 0.57592, 0.958125, 0.351078, 0.648177, 0.0001, 182, 246, 47.9628, 0.23625, 1.2566, 1, 0, 0, 167212
-3048.65, 345366, -471.191, 3.1179, -1090.13, 1.01049, 0.57592, 0.958125, 0.351078, 0.648177, 3, 182, 246, 47.9628, 0.23625, 1.11016, 1, 0, 0, 167212
-10554.4, 204434, -160.011, 1.30122, -580.531, 0.83579, 0.400766, 1.03299, 0.34851, 0.655882, 0.0001, 45.5, 246, 29.4334, 0.153372, 0, 0, 1, 0, 167214
-10554.4, 204434, -160.011, 1.30122, -580.531, 0.83579, 0.400766, 1.03299, 0.34851, 0.655882, 3, 45.5, 246, 29.4334, 0.153372, 0, 0, 1, 0, 167214
-4764.42, 52255.2, -141.128, 2.74377, -984.497, 0.74639, 0.288037, 1.03299, 0.34851, 0.655882, 0.0001, 45.5, 246, 51.2869, 0.180774, 0, 0, 1, 0, 167217
-4764.42, 52255.2, -141.128, 2.74377, -984.497, 0.74639, 0.288037, 1.03299, 0.34851, 0.655882, 3, 45.5, 246, 51.2869, 0.180774, 0, 0, 1, 0, 167217
-3842.33, 74755.6, -180.347, 3.09132, -1132.66, 0.88852, 0.286512, 0.993198, 0.349787, 0.651995, 0.0001, 91, 246, 51.2869, 0.180774, 1.19038, 1, 1, 0, 167217
-2238.9, 106658, -232.874, 3.53234, -1342.28, 1.08962, 0.302748, 0.958125, 0.351078, 0.648177, 0.0001, 182, 246, 51.2869, 0.180774, 1.55372, 1, 1, 0, 167217
-2238.9, 106658, -232.874, 3.53234, -1342.28, 1.08962, 0.302748, 0.958125, 0.351078, 0.648177, 3, 182, 246, 51.2869, 0.180774, 1.39723, 1, 1, 0, 167217
-10542.4, 372598, -277.936, 0.717063, -750.302, 0.692842, 0.512938, 1.03299, 0.34851, 0.655882, 0.0001, 45.5, 246, 34.849, 0.172813, 0, 0, 0, 0, 167225
-10542.4, 372598, -277.936, 0.717063, -750.302, 0.692842, 0.512938, 1.03299, 0.34851, 0.655882, 3, 45.5, 246, 34.849, 0.172813, 0, 0, 0, 0, 167225
-6773.62, 434446, -315.449, 0.849757, -975.386, 0.893993, 0.478567, 0.958125, 0.351078, 0.648177, 3, 182, 246, 34.849, 0.172813, 0, 0, 0, 0, 167225
-10065, 238354, -16.1686, 1.97789, -685.277, 0.0361803, 0.248642, 0.958125, 0.351078, 0.648177, 0.0001, 182, 246, 10.8406, 0.00939277, 0, 0, 1, 0, 167227
-8304.21, 741101, -411.096, 0.134433, -816.032, -8.23118e-05, 0.561734, 1.03299, 0.34851, 0.655882, 3, 45.5, 246, 35.1541, 0.145212, 0, 0, 0, 0, 167228
-4080.8, 998307, -277.767, 0.0338355, -1136.82, 0.263169, 0.377086, 0.993198, 0.349787, 0.651995, 0.0001, 91, 246, 33.4018, 0.0675418, 0, 0, 1, 0, 167230
-6071.11, 605977, -343.688, 0.00405352, -802.743, 0.139378, 0.499482, 0.993198, 0.349787, 0.651995, 0.0001, 91, 246, 33.2054, 0.145535, 0, 0, 1, 0, 167232
-6956.82, -3229.23, -33.0081, 3.03085, -846.552, 0.0299931, 0.234291, 1.03299, 0.34851, 0.655882, 0.0001, 45.5, 246, 24.8754, 0.0406506, 0, 0, 1, 1, 167238
-6956.82, -3229.23, -33.0081, 3.03085, -846.552, 0.0299931, 0.234291, 1.03299, 0.34851, 0.655882, 3, 45.5, 246, 24.8754, 0.0406506, 0, 0, 1, 1, 167238
-10185.8, 246041, -180.871, 1.38353, -1070.22, 0.169098, 0.431508, 1.03299, 0.34851, 0.655882, 3, 45.5, 246, 37.1682, 0.170768, 0, 0, 0, 0, 167239
-9250.48, 49725.4, -0.399867, 1.84911, -1082.72, 0.441985, 0.300633, 1.03299, 0.34851, 0.655882, 0.0001, 45.5, 246, 14.3375, 0.0494391, 1.01507, 1, 1, 0, 167241
-4600.96, 373202, -467.302, 3.94459, -923.441, 0.0648432, 0.468988, 0.958125, 0.351078, 0.648177, 0.0001, 182, 246, 45.0403, 0.198646, 2.44138, 1, 0, 0, 167245
-4600.96, 373202, -467.302, 3.94459, -923.441, 0.0648432, 0.468988, 0.958125, 0.351078, 0.648177, 3, 182, 246, 45.0403, 0.198646, 2.40253, 1, 0, 0, 167245
-7089.89, 115522, -200.846, 3.21649, -727.989, 0.352655, 0.271749, 1.03299, 0.34851, 0.655882, 0.0001, 45.5, 246, 44.8142, 0.177154, 1.1165, 1, 1, 0, 167247
-4999.44, 128652, -242.138, 3.57248, -794.385, 0.426999, 0.282767, 0.993198, 0.349787, 0.651995, 0.0001, 91, 246, 44.8142, 0.177154, 1.15575, 1, 1, 0, 167247
-2187.09, 145389, -294.046, 4.00818, -883.799, 0.525465, 0.314158, 0.958125, 0.351078, 0.648177, 0.0001, 182, 246, 44.8142, 0.177154, 1.54116, 1, 1, 0, 167247
-2187.09, 145389, -294.046, 4.00818, -883.799, 0.525465, 0.314158, 0.958125, 0.351078, 0.648177, 3, 182, 246, 44.8142, 0.177154, 1.39266, 1, 1, 0, 167247
3221.7, 176618, -387.916, 4.77441, -1059.57, 0.715685, 0.395793, 0.9175, 0.352806, 0.64323, 0.0001, 455, 246, 44.8142, 0.177154, 0, 0, 0, 0, 167247
3221.7, 176618, -387.916, 4.77441, -1059.57, 0.715685, 0.395793, 0.9175, 0.352806, 0.64323, 3, 455, 246, 44.8142, 0.177154, 0, 0, 0, 0, 167247
-6714.12, 128150, -216.778, 3.13649, -929.884, -0.0471752, 0.331642, 1.03299, 0.34851, 0.655882, 0.0001, 45.5, 246, 50.2091, 0.217208, 1.08008, 1, 1, 0, 167250
-4405.14, 144098, -263.821, 3.40698, -946.958, -0.000137496, 0.343209, 0.993198, 0.349787, 0.651995, 0.0001, 91, 246, 50.2091, 0.217208, 1.24767, 1, 1, 0, 167250
-4405.14, 144098, -263.821, 3.40698, -946.958, -0.000137496, 0.343209, 0.993198, 0.349787, 0.651995, 3, 91, 246, 50.2091, 0.217208, 1.04999, 1, 1, 0, 167250
-1344.75, 161852, -319.437, 3.72491, -978.386, 0.0557264, 0.37136, 0.958125, 0.351078, 0.648177, 0.0001, 182, 246, 50.2091, 0.217208, 1.94545, 1, 0, 0, 167250
-1344.75, 161852, -319.437, 3.72491, -978.386, 0.0557264, 0.37136, 0.958125, 0.351078, 0.648177, 3, 182, 246, 50.2091, 0.217208, 1.79276, 1, 0, 0, 167250
-11218.6, 182472, -7.35172, 1.26249, -710.052, 0.516528, 0.31702, 1.03299, 0.34851, 0.655882, 0.0001, 45.5, 246, 12.3712, 0.0208178, 0, 0, 1, 0, 167259
-9021.05, 112612, -112.793, 2.36605, -888.96, 0.00512563, 0.318112, 1.03299, 0.34851, 0.655882, 0.0001, 45.5, 246, 33.9845, 0.150172, 0, 0, 1, 0, 167260
-9021.05, 112612, -112.793, 2.36605, -888.96, 0.00512563, 0.318112, 1.03299, 0.34851, 0.655882, 3, 45.5, 246, 33.9845, 0.150172, 0, 0, 1, 0, 167260
-6217.36, 141579, -172.695, 2.72859, -917.21, 0.0623072, 0.307003, 0.958125, 0.351078, 0.648177, 3, 182, 246, 33.9845, 0.150172, 0, 0, 1, 0, 167260
-5704.66, 111444, -220.589, 3.02285, -768.611, 0.0638584, 0.332205, 1.03299, 0.34851, 0.655882, 0.0001, 45.5, 246, 51.9428, 0.222021, 1.30333, 1, 1, 0, 167261
-5704.66, 111444, -220.589, 3.02285, -768.611, 0.0638584, 0.332205, 1.03299, 0.34851, 0.655882, 3, 45.5, 246, 51.9428, 0.222021, 1.12649, 1, 1, 0, 167261
-3694.36, 123499, -262.041, 3.296, -799.255, 0.108791, 0.340533, 0.993198, 0.349787, 0.651995, 0.0001, 91, 246, 51.9428, 0.222021, 1.41118, 1, 1, 0, 167261
-3694.36, 123499, -262.041, 3.296, -799.255, 0.108791, 0.340533, 0.993198, 0.349787, 0.651995, 3, 91, 246, 51.9428, 0.222021, 1.26421, 1, 1, 0, 167261
-1060.06, 137528, -311.437, 3.61683, -842.862, 0.164066, 0.365003, 0.958125, 0.351078, 0.648177, 0.0001, 182, 246, 51.9428, 0.222021, 1.96556, 1, 1, 0, 167261
-1060.06, 137528, -311.437, 3.61683, -842.862, 0.164066, 0.365003, 0.958125, 0.351078, 0.648177, 3, 182, 246, 51.9428, 0.222021, 1.82891, 1, 1, 0, 167261
-5565.1, 94559.4, -196.387, 3.27946, -752.376, 0.0475294, 0.267993, 1.03299, 0.34851, 0.655882, 0.0001, 45.5, 246, 48.7354, 0.184579, 1.27737, 1, 1, 0, 167263
-5565.1, 94559.4, -196.387, 3.27946, -752.376, 0.0475294, 0.267993, 1.03299, 0.34851, 0.655882, 3, 45.5, 246, 48.7354, 0.184579, 1.09566, 1, 1, 0, 167263
-3763.28, 105781, -237.876, 3.58459, -780.792, 0.100018, 0.279959, 0.993198, 0.349787, 0.651995, 0.0001, 91, 246, 48.7354, 0.184579, 1.33562, 1, 1, 0, 167263
-3763.28, 105781, -237.876, 3.58459, -780.792, 0.100018, 0.279959, 0.993198, 0.349787, 0.651995, 3, 91, 246, 48.7354, 0.184579, 1.17917, 1, 1, 0, 167263
-1368.2, 118857, -287.838, 3.94801, -823.426, 0.164919, 0.310415, 0.958125, 0.351078, 0.648177, 0.0001, 182, 246, 48.7354, 0.184579, 1.74373, 1, 1, 0, 167263
-1368.2, 118857, -287.838, 3.94801, -823.426, 0.164919, 0.310415, 0.958125, 0.351078, 0.648177, 3, 182, 246, 48.7354, 0.184579, 1.60616, 1, 1, 0, 167263
-5563.51, 72908.2, -157.654, 2.97466, -843.878, 0.00503293, 0.284613, 1.03299, 0.34851, 0.655882, 0.0001, 45.5, 246, 47.8648, 0.181465, 1.0614, 1, 1, 0, 167272
-4336.98, 86035.5, -194.829, 3.22563, -861.687, 0.0472898, 0.287912, 0.993198, 0.349787, 0.651995, 0.0001, 91, 246, 47.8648, 0.181465, 1.08406, 1, 1, 0, 167272
-2631.56, 100455, -238.618, 3.5174, -890.83, 0.0979475, 0.306193, 0.958125, 0.351078, 0.648177, 0.0001, 182, 246, 47.8648, 0.181465, 1.34857, 1, 1, 0, 167272
-2631.56, 100455, -238.618, 3.5174, -890.83, 0.0979475, 0.306193, 0.958125, 0.351078, 0.648177, 3, 182, 246, 47.8648, 0.181465, 1.18362, 1, 1, 0, 167272
627.047, 122811, -310.601, 3.99227, -953.239, 0.183567, 0.356415, 0.9175, 0.352806, 0.64323, 0.0001, 455, 246, 47.8648, 0.181465, 2.60643, 1, 0, 0, 167272
627.047, 122811, -310.601, 3.99227, -953.239, 0.183567, 0.356415, 0.9175, 0.352806, 0.64323, 3, 455, 246, 47.8648, 0.181465, 2.60615, 1, 0, 0, 167272
-5357.37, 704619, -303.64, 0.0560404, -963.561, 0.183171, 0.43221, 0.993198, 0.349787, 0.651995, 0.0001, 91, 246, 32.6311, 0.108134, 0, 0, 1, 0, 167284
-4476.43, 730101, -312.752, 0.0581974, -992.754, 0.188645, 0.409381, 0.958125, 0.351078, 0.648177, 0.0001, 182, 246, 32.6311, 0.108134, 0, 0, 0, 0, 167284
-10506.3, 730586, -164.24, 0.372156, -866.327, -0.00045005, 0.374932, 1.03299, 0.34851, 0.655882, 0.0001, 45.5, 246, 25.7293, 0.058388, 0, 0, 0, 0, 167288
-10506.3, 730586, -164.24, 0.372156, -866.327, -0.00045005, 0.374932, 1.03299, 0.34851, 0.655882, 3, 45.5, 246, 25.7293, 0.058388, 0, 0, 0, 0, 167288
-10851, 380454, -284.874, 1.05005, -994.55, 0.00805118, 0.532192, 1.03299, 0.34851, 0.655882, 0.0001, 45.5, 246, 40.6503, 0.190782, 0, 0, 0, 0, 167289
-10851, 380454, -284.874, 1.05005, -994.55, 0.00805118, 0.532192, 1.03299, 0.34851, 0.655882, 3, 45.5, 246, 40.6503, 0.190782, 0, 0, 0, 0, 167289
-9630.72, 384214, -195.836, 0.70432, -1044.29, 0.0148272, 0.432381, 1.03299, 0.34851, 0.655882, 0.0001, 45.5, 246, 33.5499, 0.130428, 0, 0, 0, 0, 167296
-9630.72, 384214, -195.836, 0.70432, -1044.29, 0.0148272, 0.432381, 1.03299, 0.34851, 0.655882, 3, 45.5, 246, 33.5499, 0.130428, 0, 0, 0, 0, 167296
-8280.82, 404422, -210.871, 0.734721, -1050.78, 0.0171404, 0.405525, 0.993198, 0.349787, 0.651995, 3, 91, 246, 33.5499, 0.130428, 0, 0, 1, 0, 167296
-3206.94, 87289.7, -229.424, 3.05844, -722.461, 0.0213248, 0.322015, 1.03299, 0.34851, 0.655882, 0.0001, 45.5, 246, 59.5123, 0.234925, 1.59348, 1, 1, 0, 167302
-3206.94, 87289.7, -229.424, 3.05844, -722.461, 0.0213248, 0.322015, 1.03299, 0.34851, 0.655882, 3, 45.5, 246, 59.5123, 0.234925, 1.46457, 1, 1, 0, 167302
-1425.47, 97940.8, -270.549, 3.32846, -748.467, 0.0663432, 0.330584, 0.993198, 0.349787, 0.651995, 0.0001, 91, 246, 59.5123, 0.234925, 1.80911, 1, 1, 0, 167302
-1425.47, 97940.8, -270.549, 3.32846, -748.467, 0.0663432, 0.330584, 0.993198, 0.349787, 0.651995, 3, 91, 246, 59.5123, 0.234925, 1.68727, 1, 1, 0, 167302
918.384, 110273, -319.317, 3.64526, -786.741, 0.121006, 0.355313, 0.958125, 0.351078, 0.648177, 0.0001, 182, 246, 59.5123, 0.234925, 2.5479, 1, 1, 1, 167302
918.384, 110273, -319.317, 3.64526, -786.741, 0.121006, 0.355313, 0.958125, 0.351078, 0.648177, 3, 182, 246, 59.5123, 0.234925, 2.40437, 1, 1, 1, 167302
-6646.58, 775008, -332.273, 0.0595725, -861.088, 0.0104266, 0.477139, 1.03299, 0.34851, 0.655882, 0.0001, 45.5, 246, 32.1334, 0.11067, 0, 0, 0, 0, 167306
-5621.27, 790484, -343.216, 0.0614848, -863.05, 0.01046, 0.45176, 0.993198, 0.349787, 0.651995, 3, 91, 246, 32.1334, 0.11067, 0, 0, 1, 0, 167306
-4082.22, 185193, -197.786, 3.02719, -1559.48, 1.38603, 0.307234, 0.9175, 0.352806, 0.64323, 0.0001, 455, 246, 30.7014, 0.134863, 0, 0, 0, 0, 167316
-4082.22, 185193, -197.786, 3.02719, -1559.48, 1.38603, 0.307234, 0.9175, 0.352806, 0.64323, 3, 455, 246, 30.7014, 0.134863, 0, 0, 0, 0, 167316
-8212.87, 158786, -93.4456, 0.142469, -1118.46, -8.89665e-05, 0.400086, 1.03299, 0.34851, 0.655882, 0.0001, 45.5, 246, 28.998, 0.159166, 0, 0, 1, 0, 167317
-8212.87, 158786, -93.4456, 0.142469, -1118.46, -8.89665e-05, 0.400086, 1.03299, 0.34851, 0.655882, 3, 45.5, 246, 28.998, 0.159166, 0, 0, 1, 0, 167317
-11762.6, 215335, -9.20018, 1.25081, -877.118, 0.575469, 0.317173, 1.03299, 0.34851, 0.655882, 0.0001, 45.5, 246, 15.4622, 0.022306, 0, 0, 1, 0, 167325
-11762.6, 215335, -9.20018, 1.25081, -877.118, 0.575469, 0.317173, 1.03299, 0.34851, 0.655882, 3, 45.5, 246, 15.4622, 0.022306, 0, 0, 1, 0, 167325
-8310.12, 76873.8, -37.9759, 1.89176, -871.776, 0.940961, 0.250469, 0.9175, 0.352806, 0.64323, 0.0001, 455, 246, 8.04249, 0.0311061, 0, 0, 1, 0, 167327
-8310.12, 76873.8, -37.9759, 1.89176, -871.776, 0.940961, 0.250469, 0.9175, 0.352806, 0.64323, 3, 455, 246, 8.04249, 0.0311061, 0, 0, 1, 0, 167327
-13522.7, 165719, -16.105, 3.06005, -1149.14, -0.0427544, 0.200007, 1.03299, 0.34851, 0.655882, 0.0001, 45.5, 246, 21.2565, 0.0497997, 0, 0, 0, 0, 167328
-13522.7, 165719, -16.105, 3.06005, -1149.14, -0.0427544, 0.200007, 1.03299, 0.34851, 0.655882, 3, 45.5, 246, 21.2565, 0.0497997, 0, 0, 0, 0, 167328
-10323, 542512, -341.759, 0.289745, -597.534, 0.0713266, 0.548579, 1.03299, 0.34851, 0.655882, 0.0001, 45.5, 246, 31.7683, 0.163797, 0, 0, 0, 0, 167337
-10323, 542512, -341.759, 0.289745, -597.534, 0.0713266, 0.548579, 1.03299, 0.34851, 0.655882, 3, 45.5, 246, 31.7683, 0.163797, 0, 0, 0, 0, 167337
-6405.81, 111918, -152.768, 3.24868, -754.869, 0.173161, 0.267215, 0.958125, 0.351078, 0.648177, 3, 182, 246, 29.591, 0.114618, 0, 0, 1, 0, 167340
-11862.2, 328908, -308.282, 1.46834, -875.642, 0.0484625, 0.569435, 1.03299, 0.34851, 0.655882, 0.0001, 45.5, 246, 43.8214, 0.226612, 0, 0, 0, 0, 167343
-7369.2, 54717.7, -91.0489, 2.29079, -940.334, 0.159916, 0.314355, 1.03299, 0.34851, 0.655882, 3, 45.5, 246, 37.6865, 0.161828, 0, 0, 1, 0, 167345
-6799.26, 71244.9, -118.089, 2.47374, -973.229, 0.189617, 0.301901, 0.993198, 0.349787, 0.651995, 3, 91, 246, 37.6865, 0.161828, 0, 0, 1, 0, 167345
-9115.43, 369286, -337.891, 0.49984, -897.694, 0.72726, 0.616628, 1.03299, 0.34851, 0.655882, 0.0001, 45.5, 246, 42.1234, 0.220139, 0, 0, 0, 0, 167347
-9115.43, 369286, -337.891, 0.49984, -897.694, 0.72726, 0.616628, 1.03299, 0.34851, 0.655882, 3, 45.5, 246, 42.1234, 0.220139, 0, 0, 0, 0, 167347
-7454.47, 403117, -357.207, 0.543491, -1019.43, 0.823039, 0.605943, 0.993198, 0.349787, 0.651995, 3, 91, 246, 42.1234, 0.220139, 0, 0, 1, 0, 167347
-10222.6, 229631, -273.201, 2.782, -1176.2, -0.0362422, 0.45259, 1.03299, 0.34851, 0.655882, 3, 45.5, 246, 50.5241, 0.231457, 0, 0, 0, 0, 167349
-1886.23, 283298, -390.869, 3.279, -1229.53, 0.0440993, 0.488157, 0.958125, 0.351078, 0.648177, 0.0001, 182, 246, 50.5241, 0.231457, 1.33037, 1, 0, 0, 167349
-1886.23, 283298, -390.869, 3.279, -1229.53, 0.0440993, 0.488157, 0.958125, 0.351078, 0.648177, 3, 182, 246, 50.5241, 0.231457, 1.08261, 1, 0, 0, 167349
-11306.3, 141712, -105.03, 3.31291, -803.864, 0.0288839, 0.203482, 1.03299, 0.34851, 0.655882, 0.0001, 45.5, 246, 28.7184, 0.10271, 0, 0, 0, 0, 167351
-11306.3, 141712, -105.03, 3.31291, -803.864, 0.0288839, 0.203482, 1.03299, 0.34851, 0.655882, 3, 45.5, 246, 28.7184, 0.10271, 0, 0, 0, 0, 167351
-3832.73, 68493.3, -190.865, 3.1005, -685.181, 0.131886, 0.269989, 1.03299, 0.34851, 0.655882, 0.0001, 45.5, 246, 53.8558, 0.182025, 1.42616, 1, 1, 0, 167353
-3832.73, 68493.3, -190.865, 3.1005, -685.181, 0.131886, 0.269989, 1.03299, 0.34851, 0.655882, 3, 45.5, 246, 53.8558, 0.182025, 1.27574, 1, 1, 0, 167353
-2484.22, 78334.9, -227.961, 3.39274, -720.37, 0.181956, 0.276494, 0.993198, 0.349787, 0.651995, 0.0001, 91, 246, 53.8558, 0.182025, 1.50778, 1, 1, 0, 167353
-2484.22, 78334.9, -227.961, 3.39274, -720.37, 0.181956, 0.276494, 0.993198, 0.349787, 0.651995, 3, 91, 246, 53.8558, 0.182025, 1.36826, 1, 1, 0, 167353
-660.135, 89976.1, -272.68, 3.73885, -768.762, 0.244808, 0.300095, 0.958125, 0.351078, 0.648177, 0.0001, 182, 246, 53.8558, 0.182025, 1.82551, 1, 1, 0, 167353
-660.135, 89976.1, -272.68, 3.73885, -768.762, 0.244808, 0.300095, 0.958125, 0.351078, 0.648177, 3, 182, 246, 53.8558, 0.182025, 1.69117, 1, 1, 0, 167353
2799.19, 109693, -348.7, 4.31768, -862.716, 0.357194, 0.362455, 0.9175, 0.352806, 0.64323, 0.0001, 455, 246, 53.8558, 0.182025, 4.03258, 1, 1, 0, 167353
2799.19, 109693, -348.7, 4.31768, -862.716, 0.357194, 0.362455, 0.9175, 0.352806, 0.64323, 3, 455, 246, 53.8558, 0.182025, 4.03349, 1, 1, 0, 167353
-6828, 519472, -330.087, 0.256451, -1131.08, 0.0142443, 0.546873, 1.03299, 0.34851, 0.655882, 0.0001, 45.5, 246, 40.8598, 0.166249, 0, 0, 0, 0, 167357
-5413.42, 544408, -345.004, 0.266186, -1135.99, 0.014577, 0.528224, 0.993198, 0.349787, 0.651995, 3, 91, 246, 40.8598, 0.166249, 0, 0, 1, 0, 167357
-3797.48, 569760, -359.823, 0.275708, -1141.16, 0.0149337, 0.513855, 0.958125, 0.351078, 0.648177, 3, 182, 246, 40.8598, 0.166249, 0, 0, 0, 0, 167357
-10570.5, 373520, -173.233, 0.669403, -695.778, 0.14984, 0.410455, 1.03299, 0.34851, 0.655882, 0.0001, 45.5, 246, 26.532, 0.116329, 0, 0, 1, 0, 167358
-10570.5, 373520, -173.233, 0.669403, -695.778, 0.14984, 0.410455, 1.03299, 0.34851, 0.655882, 3, 45.5, 246, 26.532, 0.116329, 0, 0, 1, 0, 167358
-9428.88, 385761, -184.678, 0.702504, -716.04, 0.155589, 0.381596, 0.993198, 0.349787, 0.651995, 3, 91, 246, 26.532, 0.116329, 0, 0, 1, 0, 167358
-8096.71, 398843, -196.555, 0.736019, -737.876, 0.161839, 0.357251, 0.958125, 0.351078, 0.648177, 0.0001, 182, 246, 26.532, 0.116329, 0, 0, 1, 0, 167358
-8096.71, 398843, -196.555, 0.736019, -737.876, 0.161839, 0.357251, 0.958125, 0.351078, 0.648177, 3, 182, 246, 26.532, 0.116329, 0, 0, 1, 0, 167358
-8656.33, 114302, -76.7775, 0.00695165, -1020.97, 3.79909e-06, 0.407521, 1.03299, 0.34851, 0.655882, 0.0001, 45.5, 246, 28.8959, 0.218564, 0, 0, 1, 0, 167359
-8656.33, 114302, -76.7775, 0.00695165, -1020.97, 3.79909e-06, 0.407521, 1.03299, 0.34851, 0.655882, 3, 45.5, 246, 28.8959, 0.218564, 0, 0, 1, 0, 167359
-8334.51, -5727.83, -3.89213, 1.57048, -639.304, 0.173485, 0.319044, 1.03299, 0.34851, 0.655882, 0.0001, 45.5, 246, 10.9398, 0.0420327, 0, 0, 1, 1, 167362
-6748.65, 626968, -345.868, 0.177318, -1037.1, 0.000860969, 0.5265, 1.03299, 0.34851, 0.655882, 0.0001, 45.5, 246, 38.0819, 0.143815, 0, 0, 0, 0, 167366
-6748.65, 626968, -345.868, 0.177318, -1037.1, 0.000860969, 0.5265, 1.03299, 0.34851, 0.655882, 3, 45.5, 246, 38.0819, 0.143815, 0, 0, 0, 0, 167366
-8612.32, 313866, -192.995, 0.736232, -867.814, 0.342456, 0.409038, 0.993198, 0.349787, 0.651995, 0.0001, 91, 246, 31.2918, 0.149146, 0, 0, 1, 0, 167367
-12699.7, 179338, 0.793578, 1.93002, -943.709, 0.826176, 0.279698, 1.03299, 0.34851, 0.655882, 3, 45.5, 246, 15.9526, 0.0234645, 0, 0, 1, 0, 167368
-10580.7, 205240, -143.484, 1.34414, -605.613, 0.203435, 0.391505, 1.03299, 0.34851, 0.655882, 0.0001, 45.5, 246, 28.8379, 0.150844, 0, 0, 1, 0, 167370
-10580.7, 205240, -143.484, 1.34414, -605.613, 0.203435, 0.391505, 1.03299, 0.34851, 0.655882, 3, 45.5, 246, 28.8379, 0.150844, 0, 0, 1, 0, 167370
-9379.99, 214445, -158.889, 1.43186, -631.762, 0.218927, 0.367772, 0.993198, 0.349787, 0.651995, 0.0001, 91, 246, 28.8379, 0.150844, 0, 0, 1, 0, 167370
-6500.23, 132862, -237.562, 2.83211, -835.888, 0.210376, 0.384191, 1.03299, 0.34851, 0.655882, 0.0001, 45.5, 246, 52.4614, 0.242255, 1.19716, 1, 1, 0, 167371
-6500.23, 132862, -237.562, 2.83211, -835.888, 0.210376, 0.384191, 1.03299, 0.34851, 0.655882, 3, 45.5, 246, 52.4614, 0.242255, 1.00421, 1, 1, 0, 167371
-4234.16, 148496, -280.672, 3.10591, -887.841, 0.257623, 0.391178, 0.993198, 0.349787, 0.651995, 0.0001, 91, 246, 52.4614, 0.242255, 1.32006, 1, 1, 0, 167371
-4234.16, 148496, -280.672, 3.10591, -887.841, 0.257623, 0.391178, 0.993198, 0.349787, 0.651995, 3, 91, 246, 52.4614, 0.242255, 1.14557, 1, 1, 0, 167371
-1227.06, 167240, -332.674, 3.42852, -955.838, 0.317378, 0.413619, 0.958125, 0.351078, 0.648177, 0.0001, 182, 246, 52.4614, 0.242255, 2.03967, 1, 0, 0, 167371
-1227.06, 167240, -332.674, 3.42852, -955.838, 0.317378, 0.413619, 0.958125, 0.351078, 0.648177, 3, 182, 246, 52.4614, 0.242255, 1.88473, 1, 0, 0, 167371
-11358.2, 300422, -214.95, 1.19327, -729.132, 0.178632, 0.455181, 1.03299, 0.34851, 0.655882, 0.0001, 45.5, 246, 33.6386, 0.169726, 0, 0, 0, 0, 167372
-11358.2, 300422, -214.95, 1.19327, -729.132, 0.178632, 0.455181, 1.03299, 0.34851, 0.655882, 3, 45.5, 246, 33.6386, 0.169726, 0, 0, 0, 0, 167372
-9894.31, 86444.9, -50.9523, 3.48996, -855.316, 0.183141, 0.165139, 1.03299, 0.34851, 0.655882, 0.0001, 45.5, 246, 23.1052, 0.0706582, 0, 0, 0, 0, 167377
-9894.31, 86444.9, -50.9523, 3.48996, -855.316, 0.183141, 0.165139, 1.03299, 0.34851, 0.655882, 3, 45.5, 246, 23.1052, 0.0706582, 0, 0, 0, 0, 167377
-7872.69, 307642, -230.169, 1.07165, -1167.37, 0.00207566, 0.454966, 0.993198, 0.349787, 0.651995, 0.0001, 91, 246, 39.6298, 0.184686, 0, 0, 1, 0, 167384
-11513.2, 128962, -55.3516, 3.1659, -878.476, -0.0164141, 0.202123, 1.03299, 0.34851, 0.655882, 0.0001, 45.5, 246, 23.0085, 0.0737305, 0, 0, 0, 0, 167386
-11513.2, 128962, -55.3516, 3.1659, -878.476, -0.0164141, 0.202123, 1.03299, 0.34851, 0.655882, 3, 45.5, 246, 23.0085, 0.0737305, 0, 0, 0, 0, 167386
-11098.2, 340718, -336.116, 1.05937, -851.07, 0.835747, 0.599448, 1.03299, 0.34851, 0.655882, 3, 45.5, 246, 42.7029, 0.220887, 0, 0, 0, 0, 167392
-11643.7, 396935, -212.053, 1.15134, -1092.16, 0.161781, 0.430194, 1.03299, 0.34851, 0.655882, 3, 45.5, 246, 35.4606, 0.13209, 0, 0, 0, 0, 167395
-9465.73, 165181, -192.556, 1.97221, -665.065, -0.00149152, 0.420251, 1.03299, 0.34851, 0.655882, 3, 45.5, 246, 40.5574, 0.215643, 0, 0, 1, 0, 167397
-8349.22, 503259, -388.749, 0.0941001, -765.841, 0.15418, 0.63427, 1.03299, 0.34851, 0.655882, 0.0001, 45.5, 246, 38.7746, 0.202725, 0, 0, 0, 0, 167412
-6350.37, 597238, -423.348, 0.16949, -1133.8, 0.00380017, 0.636281, 1.03299, 0.34851, 0.655882, 0.0001, 45.5, 246, 44.4647, 0.18732, 0, 0, 0, 0, 167413
-6350.37, 597238, -423.348, 0.16949, -1133.8, 0.00380017, 0.636281, 1.03299, 0.34851, 0.655882, 3, 45.5, 246, 44.4647, 0.18732, 0, 0, 0, 0, 167413
-3279.38, 194450, -326.274, 4.13324, -766.328, 0.266426, 0.327552, 0.958125, 0.351078, 0.648177, 0.0001, 182, 246, 41.6985, 0.175568, 1.36249, 1, 0, 0, 167415
-3279.38, 194450, -326.274, 4.13324, -766.328, 0.266426, 0.327552, 0.958125, 0.351078, 0.648177, 3, 182, 246, 41.6985, 0.175568, 1.16768, 1, 0, 0, 167415
-9205.74, 440483, -300.437, 0.555126, -971.372, 0.72025, 0.517156, 1.03299, 0.34851, 0.655882, 0.0001, 45.5, 246, 37.4589, 0.159248, 0, 0, 0, 0, 167419
-9205.74, 440483, -300.437, 0.555126, -971.372, 0.72025, 0.517156, 1.03299, 0.34851, 0.655882, 3, 45.5, 246, 37.4589, 0.159248, 0, 0, 0, 0, 167419
-9921.25, 182657, -62.9428, 1.90253, -1098.62, 0.986176, 0.283858, 0.993198, 0.349787, 0.651995, 0.0001, 91, 246, 21.0548, 0.0633091, 0, 0, 1, 0, 167421
-11862.4, 264160, -393.79, 3.30453, -958.059, 0.734383, 0.47541, 1.03299, 0.34851, 0.655882, 0.0001, 45.5, 246, 54.7114, 0.243218, 1.15788, 1, 0, 0, 167424
-6181.13, 297800, -465.838, 3.78334, -1131.27, 0.893063, 0.507055, 0.993198, 0.349787, 0.651995, 0.0001, 91, 246, 54.7114, 0.243218, 1.60144, 1, 1, 0, 167424
-6181.13, 297800, -465.838, 3.78334, -1131.27, 0.893063, 0.507055, 0.993198, 0.349787, 0.651995, 3, 91, 246, 54.7114, 0.243218, 1.52557, 1, 1, 0, 167424
-5944.39, 84408.6, -169.724, 2.71009, -790.97, 0.458543, 0.314459, 1.03299, 0.34851, 0.655882, 0.0001, 45.5, 246, 47.6466, 0.196368, 1.09309, 1, 1, 0, 167434
-4629.19, 99210.3, -204.689, 3.00138, -869.795, 0.532927, 0.313201, 0.993198, 0.349787, 0.651995, 0.0001, 91, 246, 47.6466, 0.196368, 1.07505, 1, 1, 0, 167434
-2763.39, 118051, -248.358, 3.35199, -972.923, 0.630257, 0.327335, 0.958125, 0.351078, 0.648177, 0.0001, 182, 246, 47.6466, 0.196368, 1.34076, 1, 1, 0, 167434
-2763.39, 118051, -248.358, 3.35199, -972.923, 0.630257, 0.327335, 0.958125, 0.351078, 0.648177, 3, 182, 246, 47.6466, 0.196368, 1.16883, 1, 1, 0, 167434
-11785.5, 114644, -14.3765, 3.1475, -937.603, 0.696217, 0.181135, 1.03299, 0.34851, 0.655882, 0.0001, 45.5, 246, 18.4651, 0.0460558, 0, 0, 0, 0, 167440
-11785.5, 114644, -14.3765, 3.1475, -937.603, 0.696217, 0.181135, 1.03299, 0.34851, 0.655882, 3, 45.5, 246, 18.4651, 0.0460558, 0, 0, 0, 0, 167440
-10188, 136482, -46.0359, 3.55388, -1060.51, 0.837608, 0.185197, 0.993198, 0.349787, 0.651995, 0.0001, 91, 246, 18.4651, 0.0460558, 0, 0, 1, 0, 167440
-10188, 136482, -46.0359, 3.55388, -1060.51, 0.837608, 0.185197, 0.993198, 0.349787, 0.651995, 3, 91, 246, 18.4651, 0.0460558, 0, 0, 1, 0, 167440
-9211.74, 102463, -88.4246, 2.65718, -1064.24, -0.0325066, 0.282936, 1.03299, 0.34851, 0.655882, 0.0001, 45.5, 246, 31.6264, 0.125687, 0, 0, 1, 0, 167441
-9211.74, 102463, -88.4246, 2.65718, -1064.24, -0.0325066, 0.282936, 1.03299, 0.34851, 0.655882, 3, 45.5, 246, 31.6264, 0.125687, 0, 0, 1, 0, 167441
-7972.55, 122098, -121.914, 2.85737, -1069.13, 0.000888448, 0.277053, 0.993198, 0.349787, 0.651995, 0.0001, 91, 246, 31.6264, 0.125687, 0, 0, 1, 0, 167441
-7972.55, 122098, -121.914, 2.85737, -1069.13, 0.000888448, 0.277053, 0.993198, 0.349787, 0.651995, 3, 91, 246, 31.6264, 0.125687, 0, 0, 1, 0, 167441
-6239.65, 142524, -160.556, 3.08424, -1083.52, 0.0396617, 0.283185, 0.958125, 0.351078, 0.648177, 3, 182, 246, 31.6264, 0.125687, 0, 0, 1, 0, 167441
-14310.3, -175045, -20.6114, 0.422018, -1157.23, 0.169112, 0.381155, 1.03299, 0.34851, 0.655882, 0.0001, 45.5, 246, -96.3281, 0.13742, 0, 0, 1, 0, 167450
-14310.3, -175045, -20.6114, 0.422018, -1157.23, 0.169112, 0.381155, 1.03299, 0.34851, 0.655882, 3, 45.5, 246, -96.3281, 0.13742, 0, 0, 1, 0, 167450
-16111.8, 414504, -459.59, 3.99595, -758.168, 0.18724, 0.414857, 0.993198, 0.349787, 0.651995, 0.0001, 91, 246, 43.3258, 0.192927, 1.03796, 1, 1, 0, 167453
-10396.1, 183354, -125.579, 1.57656, -729.64, -0.00024676, 0.370521, 1.03299, 0.34851, 0.655882, 0.0001, 45.5, 246, 29.5329, 0.14485, 0, 0, 1, 0, 167459
-10396.1, 183354, -125.579, 1.57656, -729.64, -0.00024676, 0.370521, 1.03299, 0.34851, 0.655882, 3, 45.5, 246, 29.5329, 0.14485, 0, 0, 1, 0, 167459
-9165.29, 192870, -143.491, 1.66731, -736.012, 0.0113045, 0.348372, 0.993198, 0.349787, 0.651995, 0.0001, 91, 246, 29.5329, 0.14485, 0, 0, 1, 0, 167459
-7063.05, -60436.8, 8.24195, 2.72658, -607.835, 0.381818, 0.276745, 1.03299, 0.34851, 0.655882, 0.0001, 45.5, 246, 7.45687, 0.0433014, 2.87216, 1, 1, 0, 167464
-7063.05, -60436.8, 8.24195, 2.72658, -607.835, 0.381818, 0.276745, 1.03299, 0.34851, 0.655882, 3, 45.5, 246, 7.45687, 0.0433014, 2.87132, 1, 1, 0, 167464
-12102.2, 315576, -132.938, 1.44666, -1163.18, 0.075709, 0.365506, 1.03299, 0.34851, 0.655882, 0.0001, 45.5, 246, 31.5095, 0.103861, 0, 0, 0, 0, 167471
-12102.2, 315576, -132.938, 1.44666, -1163.18, 0.075709, 0.365506, 1.03299, 0.34851, 0.655882, 3, 45.5, 246, 31.5095, 0.103861, 0, 0, 0, 0, 167471
-7593.84, 11720, -48.5015, 2.88108, -938.914, 0.006928, 0.258756, 0.993198, 0.349787, 0.651995, 3, 91, 246, 22.6247, 0.0536943, 0, 0, 1, 1, 167473
-6644, 200659, -318.162, 3.67661, -751.294, 0.261201, 0.342264, 0.993198, 0.349787, 0.651995, 0.0001, 91, 246, 45.7723, 0.200355, 1.18827, 1, 1, 0, 167475
-6644, 200659, -318.162, 3.67661, -751.294, 0.261201, 0.342264, 0.993198, 0.349787, 0.651995, 3, 91, 246, 45.7723, 0.200355, 1.03545, 1, 1, 0, 167475
-2149.33, 216611, -377.415, 4.10127, -824.063, 0.341666, 0.381182, 0.958125, 0.351078, 0.648177, 0.0001, 182, 246, 45.7723, 0.200355, 2.06442, 1, 0, 0, 167475
-2149.33, 216611, -377.415, 4.10127, -824.063, 0.341666, 0.381182, 0.958125, 0.351078, 0.648177, 3, 182, 246, 45.7723, 0.200355, 1.90629, 1, 0, 0, 167475
-4519.59, 67977.7, -179.163, 3.50111, -701.335, 0.0912029, 0.211982, 1.03299, 0.34851, 0.655882, 0.0001, 45.5, 246, 48.2703, 0.14723, 1.33979, 1, 1, 0, 167476
-4519.59, 67977.7, -179.163, 3.50111, -701.335, 0.0912029, 0.211982, 1.03299, 0.34851, 0.655882, 3, 45.5, 246, 48.2703, 0.14723, 1.17337, 1, 1, 0, 167476
-3087.8, 77913.8, -219.755, 3.84733, -734.288, 0.152696, 0.228151, 0.993198, 0.349787, 0.651995, 0.0001, 91, 246, 48.2703, 0.14723, 1.36925, 1, 1, 0, 167476
-3087.8, 77913.8, -219.755, 3.84733, -734.288, 0.152696, 0.228151, 0.993198, 0.349787, 0.651995, 3, 91, 246, 48.2703, 0.14723, 1.22377, 1, 1, 0, 167476
-1124.55, 89717.3, -269.493, 4.2667, -783.108, 0.230532, 0.265614, 0.958125, 0.351078, 0.648177, 0.0001, 182, 246, 48.2703, 0.14723, 1.64136, 1, 1, 0, 167476
-1124.55, 89717.3, -269.493, 4.2667, -783.108, 0.230532, 0.265614, 0.958125, 0.351078, 0.648177, 3, 182, 246, 48.2703, 0.14723, 1.50929, 1, 1, 0, 167476
2683.88, 110106, -356.372, 4.99179, -884.825, 0.372835, 0.356091, 0.9175, 0.352806, 0.64323, 0.0001, 455, 246, 48.2703, 0.14723, 3.01694, 1, 1, 0, 167476
2683.88, 110106, -356.372, 4.99179, -884.825, 0.372835, 0.356091, 0.9175, 0.352806, 0.64323, 3, 455, 246, 48.2703, 0.14723, 3.01684, 1, 1, 0, 167476
-10046.4, 181230, -201.741, 2.74699, -1024.7, 0.485703, 0.348507, 1.03299, 0.34851, 0.655882, 0.0001, 45.5, 246, 42.4234, 0.182683, 0, 0, 0, 0, 167481
-10046.4, 181230, -201.741, 2.74699, -1024.7, 0.485703, 0.348507, 1.03299, 0.34851, 0.655882, 3, 45.5, 246, 42.4234, 0.182683, 0, 0, 0, 0, 167481
3592.49, 303526, -405.298, 4.06579, -1541.25, 0.876277, 0.424582, 0.9175, 0.352806, 0.64323, 0.0001, 455, 246, 42.4234, 0.182683, 0, 0, 0, 0, 167481
3592.49, 303526, -405.298, 4.06579, -1541.25, 0.876277, 0.424582, 0.9175, 0.352806, 0.64323, 3, 455, 246, 42.4234, 0.182683, 0, 0, 0, 0, 167481
-9040.97, 151328, -121.691, 0.768253, -720.7, 0.374088, 0.419057, 1.03299, 0.34851, 0.655882, 0.0001, 45.5, 246, 31.7707, 0.192497, 0, 0, 1, 0, 167485
-9040.97, 151328, -121.691, 0.768253, -720.7, 0.374088, 0.419057, 1.03299, 0.34851, 0.655882, 3, 45.5, 246, 31.7707, 0.192497, 0, 0, 1, 0, 167485
-10152.9, 320269, -257.849, 1.18418, -1111.81, 0.0764701, 0.518125, 1.03299, 0.34851, 0.655882, 0.0001, 45.5, 246, 42.346, 0.19976, 0, 0, 0, 0, 167488
-10152.9, 320269, -257.849, 1.18418, -1111.81, 0.0764701, 0.518125, 1.03299, 0.34851, 0.655882, 3, 45.5, 246, 42.346, 0.19976, 0, 0, 0, 0, 167488
-9076.54, 566855, -202.64, 0.269182, -733.269, 0.0483001, 0.410098, 1.03299, 0.34851, 0.655882, 0.0001, 45.5, 246, 25.8235, 0.0920492, 0, 0, 1, 0, 167489
-7319.8, 590583, -219.658, 0.288306, -747.843, 0.0497422, 0.352918, 0.958125, 0.351078, 0.648177, 0.0001, 182, 246, 25.8235, 0.0920492, 0, 0, 1, 0, 167489
-7179.62, 780466, -398.342, 0.0810548, -864.579, 0.0980481, 0.533012, 1.03299, 0.34851, 0.655882, 0.0001, 45.5, 246, 34.7185, 0.130579, 0, 0, 0, 0, 167494
-7179.62, 780466, -398.342, 0.0810548, -864.579, 0.0980481, 0.533012, 1.03299, 0.34851, 0.655882, 3, 45.5, 246, 34.7185, 0.130579, 0, 0, 0, 0, 167494
-9680.44, 86837.5, 8.35208, 1.26269, -1004.68, 0.0204512, 0.321098, 1.03299, 0.34851, 0.655882, 0.0001, 45.5, 246, 10.6271, 0.0192163, 0, 0, 1, 0, 167498
-9680.44, 86837.5, 8.35208, 1.26269, -1004.68, 0.0204512, 0.321098, 1.03299, 0.34851, 0.655882, 3, 45.5, 246, 10.6271, 0.0192163, 0, 0, 1, 0, 167498
-5898.61, 88581.7, -176.205, 2.85179, -779.189, -0.0374353, 0.314293, 1.03299, 0.34851, 0.655882, 0.0001, 45.5, 246, 48.7229, 0.202745, 1.10816, 1, 1, 0, 167500
-5898.61, 88581.7, -176.205, 2.85179, -779.189, -0.0374353, 0.314293, 1.03299, 0.34851, 0.655882, 3, 45.5, 246, 48.7229, 0.202745, 0, 0, 1, 0, 167500
-4480.4, 99696.1, -211.742, 3.08032, -792.014, 0.00120937, 0.315976, 0.993198, 0.349787, 0.651995, 0.0001, 91, 246, 48.7229, 0.202745, 1.12071, 1, 1, 0, 167500
-2605.41, 111878, -253.076, 3.34338, -814.589, 0.0465343, 0.331383, 0.958125, 0.351078, 0.648177, 0.0001, 182, 246, 48.7229, 0.202745, 1.38137, 1, 1, 0, 167500
-2605.41, 111878, -253.076, 3.34338, -814.589, 0.0465343, 0.331383, 0.958125, 0.351078, 0.648177, 3, 182, 246, 48.7229, 0.202745, 1.21293, 1, 1, 0, 167500
803.654, 130668, -319.86, 3.76538, -864.302, 0.12109, 0.375054, 0.9175, 0.352806, 0.64323, 0.0001, 455, 246, 48.7229, 0.202745, 2.68437, 1, 0, 0, 167500
803.654, 130668, -319.86, 3.76538, -864.302, 0.12109, 0.375054, 0.9175, 0.352806, 0.64323, 3, 455, 246, 48.7229, 0.202745, 2.68425, 1, 0, 0, 167500
