-9431.55, 80159.2, -49.588, 3.55315, -1130.83, -0.0534314, 0.173473, 1.03299, 0.34851, 0.655882, 0.0001, 45.5, 246, 26.5187, 0.0847426, 0, 0, 0, 0, 91004
-8100.23, 102019, -92.5971, 3.87358, -1133.46, 0.00712373, 0.188723, 0.993198, 0.349787, 0.651995, 0.0001, 91, 246, 26.5187, 0.0847426, 0, 0, 1, 0, 91004
-8100.23, 102019, -92.5971, 3.87358, -1133.46, 0.00712373, 0.188723, 0.993198, 0.349787, 0.651995, 3, 91, 246, 26.5187, 0.0847426, 0, 0, 1, 0, 91004
-8369.76, 5257.08, -14.6417, 2.48274, -1169.6, 0.0643541, 0.276342, 0.993198, 0.349787, 0.651995, 0.0001, 91, 246, 11.5593, 0.0642048, 0, 0, 1, 1, 91009
-12296.5, 131971, -32.2802, 3.60118, -1166.35, -0.045496, 0.149292, 1.03299, 0.34851, 0.655882, 0.0001, 45.5, 246, 23.9576, 0.0660325, 0, 0, 0, 0, 91024
-12296.5, 131971, -32.2802, 3.60118, -1166.35, -0.045496, 0.149292, 1.03299, 0.34851, 0.655882, 3, 45.5, 246, 23.9576, 0.0660325, 0, 0, 0, 0, 91024
-10146.6, 155052, -75.4746, 3.9288, -1168.84, 0.0166963, 0.164954, 0.993198, 0.349787, 0.651995, 0.0001, 91, 246, 23.9576, 0.0660325, 0, 0, 1, 0, 91024
-10146.6, 155052, -75.4746, 3.9288, -1168.84, 0.0166963, 0.164954, 0.993198, 0.349787, 0.651995, 3, 91, 246, 23.9576, 0.0660325, 0, 0, 1, 0, 91024
-8988.96, 188854, -60.2418, 0.547346, -1176.9, 0.0288634, 0.357661, 1.03299, 0.34851, 0.655882, 0.0001, 45.5, 246, 23.6338, 0.0787259, 0, 0, 1, 0, 91025
-8988.96, 188854, -60.2418, 0.547346, -1176.9, 0.0288634, 0.357661, 1.03299, 0.34851, 0.655882, 3, 45.5, 246, 23.6338, 0.0787259, 0, 0, 1, 0, 91025
-7399.25, 410298, -220.044, 0.512726, -1111.16, 0.092877, 0.419226, 0.993198, 0.349787, 0.651995, 0.0001, 91, 246, 34.7889, 0.136554, 0, 0, 1, 0, 91026
-6158.04, 435298, -233.312, 0.534069, -1130.97, 0.0954808, 0.396613, 0.958125, 0.351078, 0.648177, 0.0001, 182, 246, 34.7889, 0.136554, 0, 0, 0, 0, 91026
-6977.67, 354699, -250.143, 0.0607108, -946.355, 0.442393, 0.511065, 1.03299, 0.34851, 0.655882, 0.0001, 45.5, 246, 36.6219, 0.179804, 3.34501, 1, 0, 0, 91027
-6977.67, 354699, -250.143, 0.0607108, -946.355, 0.442393, 0.511065, 1.03299, 0.34851, 0.655882, 3, 45.5, 246, 36.6219, 0.179804, 3.34661, 1, 0, 0, 91027
-6517.01, 381632, -258.827, 0.0642186, -1017.92, 0.475661, 0.488743, 0.993198, 0.349787, 0.651995, 0.0001, 91, 246, 36.6219, 0.179804, 5.00743, 1, 1, 0, 91027
-6517.01, 381632, -258.827, 0.0642186, -1017.92, 0.475661, 0.488743, 0.993198, 0.349787, 0.651995, 3, 91, 246, 36.6219, 0.179804, 5.01043, 1, 1, 0, 91027
-13178.2, 399181, -489.157, 3.96213, -908.597, -0.00012982, 0.499176, 0.993198, 0.349787, 0.651995, 0.0001, 91, 246, 49.6698, 0.219375, 1.19793, 1, 1, 0, 91030
-13178.2, 399181, -489.157, 3.96213, -908.597, -0.00012982, 0.499176, 0.993198, 0.349787, 0.651995, 3, 91, 246, 49.6698, 0.219375, 1.13389, 1, 1, 0, 91030
-10746.8, 114191, -48.2778, 2.73325, -794.283, 0.0282756, 0.242814, 1.03299, 0.34851, 0.655882, 0.0001, 45.5, 246, 20.9495, 0.0713041, 0, 0, 1, 0, 91038
-10746.8, 114191, -48.2778, 2.73325, -794.283, 0.0282756, 0.242814, 1.03299, 0.34851, 0.655882, 3, 45.5, 246, 20.9495, 0.0713041, 0, 0, 1, 0, 91038
-8684.72, 110571, -129.826, 3.12619, -955.226, -0.0130083, 0.255586, 1.03299, 0.34851, 0.655882, 0.0001, 45.5, 246, 36.9021, 0.143164, 0, 0, 1, 0, 91041
-8684.72, 110571, -129.826, 3.12619, -955.226, -0.0130083, 0.255586, 1.03299, 0.34851, 0.655882, 3, 45.5, 246, 36.9021, 0.143164, 0, 0, 1, 0, 91041
-385.819, 171649, -294.465, 4.22547, -1060.92, 0.18433, 0.341883, 0.9175, 0.352806, 0.64323, 0.0001, 455, 246, 36.9021, 0.143164, 1.52803, 1, 0, 0, 91041
-385.819, 171649, -294.465, 4.22547, -1060.92, 0.18433, 0.341883, 0.9175, 0.352806, 0.64323, 3, 455, 246, 36.9021, 0.143164, 1.53619, 1, 0, 0, 91041
-10362.4, 143657, -139.022, 3.55513, -992.493, -0.0600302, 0.205408, 1.03299, 0.34851, 0.655882, 0.0001, 45.5, 246, 35.9665, 0.13122, 0, 0, 0, 0, 91047
-10362.4, 143657, -139.022, 3.55513, -992.493, -0.0600302, 0.205408, 1.03299, 0.34851, 0.655882, 3, 45.5, 246, 35.9665, 0.13122, 0, 0, 0, 0, 91047
-7865.56, 160727, -185.841, 3.87797, -1003.54, 0.000683266, 0.222608, 0.993198, 0.349787, 0.651995, 0.0001, 91, 246, 35.9665, 0.13122, 0, 0, 1, 0, 91047
-7865.56, 160727, -185.841, 3.87797, -1003.54, 0.000683266, 0.222608, 0.993198, 0.349787, 0.651995, 3, 91, 246, 35.9665, 0.13122, 0, 0, 1, 0, 91047
1512.22, 209493, -337.855, 4.93067, -1108.01, 0.199532, 0.348786, 0.9175, 0.352806, 0.64323, 0.0001, 455, 246, 35.9665, 0.13122, 3.99942, 1, 0, 0, 91047
1512.22, 209493, -337.855, 4.93067, -1108.01, 0.199532, 0.348786, 0.9175, 0.352806, 0.64323, 3, 455, 246, 35.9665, 0.13122, 0, 0, 0, 0, 91047
-10386.9, 404829, -288.782, 0.748666, -880.87, 0.55079, 0.517822, 1.03299, 0.34851, 0.655882, 0.0001, 45.5, 246, 36.894, 0.169953, 0, 0, 0, 0, 91060
-10386.9, 404829, -288.782, 0.748666, -880.87, 0.55079, 0.517822, 1.03299, 0.34851, 0.655882, 3, 45.5, 246, 36.894, 0.169953, 0, 0, 0, 0, 91060
-11515.1, 383315, -11.7124, 0.556579, -874.036, 0.856462, 0.335775, 1.03299, 0.34851, 0.655882, 0.0001, 45.5, 246, 17.2641, 0.0105293, 0, 0, 1, 0, 91062
-10785.3, 418147, -17.0221, 0.605859, -1011.2, 0.992233, 0.300645, 0.993198, 0.349787, 0.651995, 0.0001, 91, 246, 17.2641, 0.0105293, 0, 0, 1, 0, 91062
-12445.3, 390741, -12.0031, 0.75778, -892.932, 0.217503, 0.33175, 1.03299, 0.34851, 0.655882, 0.0001, 45.5, 246, 17.2754, 0.0128481, 0, 0, 1, 0, 91074
-12445.3, 390741, -12.0031, 0.75778, -892.932, 0.217503, 0.33175, 1.03299, 0.34851, 0.655882, 3, 45.5, 246, 17.2754, 0.0128481, 0, 0, 1, 0, 91074
-11388, 409780, -18.8169, 0.797764, -925.23, 0.227994, 0.297548, 0.993198, 0.349787, 0.651995, 3, 91, 246, 17.2754, 0.0128481, 0, 0, 1, 0, 91074
-10126.8, 430407, -26.4374, 0.838676, -960.529, 0.239564, 0.268149, 0.958125, 0.351078, 0.648177, 0.0001, 182, 246, 17.2754, 0.0128481, 0, 0, 1, 0, 91074
-10335.8, 915831, -147.671, 0.278189, -931.659, 0.39116, 0.360862, 1.03299, 0.34851, 0.655882, 0.0001, 45.5, 246, 26.3236, 0.0387321, 0, 0, 1, 0, 91075
-10335.8, 915831, -147.671, 0.278189, -931.659, 0.39116, 0.360862, 1.03299, 0.34851, 0.655882, 3, 45.5, 246, 26.3236, 0.0387321, 0, 0, 1, 0, 91075
-9691.35, 78080, 11.9427, 1.44171, -966.047, 0.0931069, 0.31415, 1.03299, 0.34851, 0.655882, 0.0001, 45.5, 246, 9.72877, 0.0178187, 0, 0, 1, 0, 91077
-9691.35, 78080, 11.9427, 1.44171, -966.047, 0.0931069, 0.31415, 1.03299, 0.34851, 0.655882, 3, 45.5, 246, 9.72877, 0.0178187, 0, 0, 1, 0, 91077
-10709.2, 825949, -56.3166, 0.209113, -715.473, 0.687513, 0.343142, 1.03299, 0.34851, 0.655882, 0.0001, 45.5, 246, 18.4064, 0.015648, 0, 0, 1, 0, 91080
-9438.54, 920210, -62.936, 0.240402, -914.954, 0.878933, 0.275657, 0.958125, 0.351078, 0.648177, 0.0001, 182, 246, 18.4064, 0.015648, 0, 0, 1, 0, 91080
-12328.6, 272304, -64.7817, 1.35279, -911.811, 0.307447, 0.328279, 1.03299, 0.34851, 0.655882, 0.0001, 45.5, 246, 21.9611, 0.0602855, 0, 0, 1, 0, 91085
-12328.6, 272304, -64.7817, 1.35279, -911.811, 0.307447, 0.328279, 1.03299, 0.34851, 0.655882, 3, 45.5, 246, 21.9611, 0.0602855, 0, 0, 1, 0, 91085
-10852, 292253, -79.9372, 1.44714, -961.759, 0.332186, 0.299975, 0.993198, 0.349787, 0.651995, 0.0001, 91, 246, 21.9611, 0.0602855, 0, 0, 1, 0, 91085
-10852, 292253, -79.9372, 1.44714, -961.759, 0.332186, 0.299975, 0.993198, 0.349787, 0.651995, 3, 91, 246, 21.9611, 0.0602855, 0, 0, 1, 0, 91085
-3239.55, 237816, -340.03, 4.37015, -999.577, 0.110266, 0.319895, 0.958125, 0.351078, 0.648177, 0.0001, 182, 246, 42.0733, 0.167472, 1.4819, 1, 0, 0, 91086
-3239.55, 237816, -340.03, 4.37015, -999.577, 0.110266, 0.319895, 0.958125, 0.351078, 0.648177, 3, 182, 246, 42.0733, 0.167472, 1.29506, 1, 0, 0, 91086
-9251.65, 358571, -290.893, 0.765381, -1066.86, -0.000376401, 0.568099, 1.03299, 0.34851, 0.655882, 0.0001, 45.5, 246, 43.04, 0.212173, 0, 0, 0, 0, 91092
-7455.95, 380171, -312.203, 0.801678, -1073.24, 0.00231882, 0.554034, 0.993198, 0.349787, 0.651995, 3, 91, 246, 43.04, 0.212173, 0, 0, 1, 0, 91092
-7376.46, 156113, -142.513, 1.58748, -1021.4, 0.726672, 0.338627, 0.958125, 0.351078, 0.648177, 0.0001, 182, 246, 32.411, 0.175084, 0, 0, 1, 0, 91093
-7376.46, 156113, -142.513, 1.58748, -1021.4, 0.726672, 0.338627, 0.958125, 0.351078, 0.648177, 3, 182, 246, 32.411, 0.175084, 0, 0, 1, 0, 91093
-8627.95, 356199, -177.199, 2.65116, -1166.59, 0.386375, 0.278574, 0.958125, 0.351078, 0.648177, 0.0001, 182, 246, 28.4879, 0.0860146, 0, 0, 0, 0, 91095
-8627.95, 356199, -177.199, 2.65116, -1166.59, 0.386375, 0.278574, 0.958125, 0.351078, 0.648177, 3, 182, 246, 28.4879, 0.0860146, 0, 0, 0, 0, 91095
-19096.3, 319966, -413.103, 3.36418, -553.318, 0.674475, 0.423169, 1.03299, 0.34851, 0.655882, 0.0001, 45.5, 246, 44.2626, 0.208189, 1.0727, 1, 0, 0, 91096
-19096.3, 319966, -413.103, 3.36418, -553.318, 0.674475, 0.423169, 1.03299, 0.34851, 0.655882, 3, 45.5, 246, 44.2626, 0.208189, 1.00511, 1, 0, 0, 91096
-12638.5, 341808, -473.08, 3.83654, -666.565, 0.81853, 0.452076, 0.993198, 0.349787, 0.651995, 0.0001, 91, 246, 44.2626, 0.208189, 1.35049, 1, 1, 0, 91096
-12638.5, 341808, -473.08, 3.83654, -666.565, 0.81853, 0.452076, 0.993198, 0.349787, 0.651995, 3, 91, 246, 44.2626, 0.208189, 1.27735, 1, 1, 0, 91096
-12111.3, 345287, -71.5165, 0.920717, -828.598, 0.782416, 0.340375, 1.03299, 0.34851, 0.655882, 0.0001, 45.5, 246, 20.8029, 0.048866, 0, 0, 1, 0, 91097
-12111.3, 345287, -71.5165, 0.920717, -828.598, 0.782416, 0.340375, 1.03299, 0.34851, 0.655882, 3, 45.5, 246, 20.8029, 0.048866, 0, 0, 1, 0, 91097
-8754.97, 310534, -128.467, 0.829676, -1142.85, 0.0335356, 0.347879, 0.993198, 0.349787, 0.651995, 0.0001, 91, 246, 29.1754, 0.100608, 0, 0, 1, 0, 91098
-11243.1, 274726, -238.603, 1.58064, -863.91, 0.0101982, 0.482162, 1.03299, 0.34851, 0.655882, 0.0001, 45.5, 246, 39.9353, 0.202009, 0, 0, 0, 0, 91099
-11243.1, 274726, -238.603, 1.58064, -863.91, 0.0101982, 0.482162, 1.03299, 0.34851, 0.655882, 3, 45.5, 246, 39.9353, 0.202009, 0, 0, 0, 0, 91099
526.425, 279550, -305.414, 4.54113, -1286.53, 0.571795, 0.326242, 0.9175, 0.352806, 0.64323, 3, 455, 246, 31.4599, 0.110245, 1.07342, 1, 0, 0, 91100
-9486.09, 74883.8, -37.0666, 2.93257, -998.811, 0.0116478, 0.231728, 1.03299, 0.34851, 0.655882, 0.0001, 45.5, 246, 22.5522, 0.0758018, 0, 0, 1, 0, 91105
-9486.09, 74883.8, -37.0666, 2.93257, -998.811, 0.0116478, 0.231728, 1.03299, 0.34851, 0.655882, 3, 45.5, 246, 22.5522, 0.0758018, 0, 0, 1, 0, 91105
-3797.01, 92593.1, -238.381, 2.74648, -578.685, 0.307088, 0.357995, 1.03299, 0.34851, 0.655882, 0.0001, 45.5, 246, 58.1211, 0.244151, 1.60914, 1, 1, 0, 91111
-3797.01, 92593.1, -238.381, 2.74648, -578.685, 0.307088, 0.357995, 1.03299, 0.34851, 0.655882, 3, 45.5, 246, 58.1211, 0.244151, 1.48301, 1, 1, 0, 91111
-2077.48, 101687, -273.516, 3.02112, -629.865, 0.361094, 0.360679, 0.993198, 0.349787, 0.651995, 0.0001, 91, 246, 58.1211, 0.244151, 1.74315, 1, 1, 0, 91111
-2077.48, 101687, -273.516, 3.02112, -629.865, 0.361094, 0.360679, 0.993198, 0.349787, 0.651995, 3, 91, 246, 58.1211, 0.244151, 1.62143, 1, 1, 0, 91111
153.01, 113066, -315.938, 3.34609, -695.758, 0.430091, 0.378378, 0.958125, 0.351078, 0.648177, 0.0001, 182, 246, 58.1211, 0.244151, 2.2572, 1, 1, 0, 91111
153.01, 113066, -315.938, 3.34609, -695.758, 0.430091, 0.378378, 0.958125, 0.351078, 0.648177, 3, 182, 246, 58.1211, 0.244151, 2.11881, 1, 1, 0, 91111
4218.54, 133456, -388.255, 3.88871, -816.926, 0.555828, 0.429005, 0.9175, 0.352806, 0.64323, 0.0001, 455, 246, 58.1211, 0.244151, 0, 0, 0, 0, 91111
4218.54, 133456, -388.255, 3.88871, -816.926, 0.555828, 0.429005, 0.9175, 0.352806, 0.64323, 3, 455, 246, 58.1211, 0.244151, 0, 0, 0, 0, 91111
-11945.9, 198080, 9.20668, 1.437, -889.431, 0.0776193, 0.308959, 1.03299, 0.34851, 0.655882, 0.0001, 45.5, 246, 12.9023, 0.00995568, 0, 0, 1, 0, 91114
-11945.9, 198080, 9.20668, 1.437, -889.431, 0.0776193, 0.308959, 1.03299, 0.34851, 0.655882, 3, 45.5, 246, 12.9023, 0.00995568, 0, 0, 1, 0, 91114
-8299.69, 755257, -176.503, 0.233371, -1066.55, 0.591077, 0.375591, 1.03299, 0.34851, 0.655882, 0.0001, 45.5, 246, 29.8691, 0.0535893, 0, 0, 1, 0, 91127
-8299.69, 755257, -176.503, 0.233371, -1066.55, 0.591077, 0.375591, 1.03299, 0.34851, 0.655882, 3, 45.5, 246, 29.8691, 0.0535893, 0, 0, 1, 0, 91127
-7403.89, 803316, -184.547, 0.248826, -1177.66, 0.652253, 0.342129, 0.993198, 0.349787, 0.651995, 3, 91, 246, 29.8691, 0.0535893, 0, 0, 1, 0, 91127
-7900.14, -12755.5, 4.15591, 2.42513, -855.851, 0.111391, 0.277764, 1.03299, 0.34851, 0.655882, 0.0001, 45.5, 246, 11.0958, 0.049262, 0, 0, 1, 1, 91133
-7900.14, -12755.5, 4.15591, 2.42513, -855.851, 0.111391, 0.277764, 1.03299, 0.34851, 0.655882, 3, 45.5, 246, 11.0958, 0.049262, 0, 0, 1, 1, 91133
-8481.33, 110070, -125.802, 1.53982, -1055.59, 0.0324891, 0.412233, 1.03299, 0.34851, 0.655882, 0.0001, 45.5, 246, 40.3296, 0.233141, 0, 0, 1, 0, 91135
-8481.33, 110070, -125.802, 1.53982, -1055.59, 0.0324891, 0.412233, 1.03299, 0.34851, 0.655882, 3, 45.5, 246, 40.3296, 0.233141, 0, 0, 1, 0, 91135
-13547.9, 185130, -4.70632, 2.49051, -1100.01, 0.0520732, 0.246133, 1.03299, 0.34851, 0.655882, 0.0001, 45.5, 246, 18.8071, 0.0355024, 0, 0, 1, 0, 91139
-13547.9, 185130, -4.70632, 2.49051, -1100.01, 0.0520732, 0.246133, 1.03299, 0.34851, 0.655882, 3, 45.5, 246, 18.8071, 0.0355024, 0, 0, 0, 0, 91139
-11314.5, 421146, -295.309, 0.795972, -758.306, 0.00633767, 0.533154, 1.03299, 0.34851, 0.655882, 0.0001, 45.5, 246, 36.1051, 0.181011, 0, 0, 0, 0, 91142
-11314.5, 421146, -295.309, 0.795972, -758.306, 0.00633767, 0.533154, 1.03299, 0.34851, 0.655882, 3, 45.5, 246, 36.1051, 0.181011, 0, 0, 0, 0, 91142
-9692.03, 682943, -54.6047, 0.297408, -1152.58, 0.00730689, 0.307653, 0.993198, 0.349787, 0.651995, 0.0001, 91, 246, 25.8121, 0.0202595, 0, 0, 1, 0, 91144
-11923.5, 265211, -167.216, 1.61027, -847.273, 0.419932, 0.386209, 1.03299, 0.34851, 0.655882, 0.0001, 45.5, 246, 31.6339, 0.137039, 0, 0, 0, 0, 91145
-9217.5, 308205, -122.432, 1.29453, -604.262, 0.00705007, 0.297498, 0.958125, 0.351078, 0.648177, 0.0001, 182, 246, 20.2908, 0.0821837, 0, 0, 1, 0, 91148
-10615.9, 198712, -173.155, 1.83969, -840.461, 0.777695, 0.387532, 1.03299, 0.34851, 0.655882, 0.0001, 45.5, 246, 35.1156, 0.162889, 0, 0, 1, 0, 91149
-10615.9, 198712, -173.155, 1.83969, -840.461, 0.777695, 0.387532, 1.03299, 0.34851, 0.655882, 3, 45.5, 246, 35.1156, 0.162889, 0, 0, 1, 0, 91149
-9450.99, 169471, -219.929, 3.51164, -1005.41, 0.149327, 0.272967, 1.03299, 0.34851, 0.655882, 3, 45.5, 246, 45.2643, 0.181427, 0, 0, 0, 0, 91152
-1815.4, 215578, -344.644, 4.32757, -1136.36, 0.298344, 0.336989, 0.958125, 0.351078, 0.648177, 0.0001, 182, 246, 45.2643, 0.181427, 2.00787, 1, 0, 0, 91152
-1815.4, 215578, -344.644, 4.32757, -1136.36, 0.298344, 0.336989, 0.958125, 0.351078, 0.648177, 3, 182, 246, 45.2643, 0.181427, 1.84503, 1, 0, 0, 91152
-11552.9, 129786, 1.18171, 2.3346, -1051.67, 0.0239837, 0.262214, 1.03299, 0.34851, 0.655882, 0.0001, 45.5, 246, 16.1445, 0.0350146, 0, 0, 1, 0, 91154
-11552.9, 129786, 1.18171, 2.3346, -1051.67, 0.0239837, 0.262214, 1.03299, 0.34851, 0.655882, 3, 45.5, 246, 16.1445, 0.0350146, 0, 0, 1, 0, 91154
-8726.94, 27757.2, 18.7267, 3.2948, -1117.43, 0.15423, 0.189465, 1.03299, 0.34851, 0.655882, 0.0001, 45.5, 246, 13.8093, 0.0467566, 1.35311, 1, 0, 0, 91156
-8330.93, 50135.7, -15.4117, 3.61587, -1149.83, 0.211813, 0.197292, 0.993198, 0.349787, 0.651995, 0.0001, 91, 246, 13.8093, 0.0467566, 1.09301, 1, 1, 0, 91156
-7859.43, 101925, -121.987, 2.63348, -727.933, 0.499897, 0.28098, 0.993198, 0.349787, 0.651995, 0.0001, 91, 246, 30.1003, 0.124308, 0, 0, 1, 0, 91157
-7859.43, 101925, -121.987, 2.63348, -727.933, 0.499897, 0.28098, 0.993198, 0.349787, 0.651995, 3, 91, 246, 30.1003, 0.124308, 0, 0, 1, 0, 91157
-6548.45, 115223, -150.323, 2.9111, -802.845, 0.579375, 0.282174, 0.958125, 0.351078, 0.648177, 0.0001, 182, 246, 30.1003, 0.124308, 0, 0, 1, 0, 91157
-6548.45, 115223, -150.323, 2.9111, -802.845, 0.579375, 0.282174, 0.958125, 0.351078, 0.648177, 3, 182, 246, 30.1003, 0.124308, 0, 0, 1, 0, 91157
-4053.14, 138717, -199.507, 3.37033, -939.325, 0.724168, 0.304873, 0.9175, 0.352806, 0.64323, 0.0001, 455, 246, 30.1003, 0.124308, 0, 0, 1, 0, 91157
-4053.14, 138717, -199.507, 3.37033, -939.325, 0.724168, 0.304873, 0.9175, 0.352806, 0.64323, 3, 455, 246, 30.1003, 0.124308, 0, 0, 1, 0, 91157
-7628.68, 392461, -138.397, 0.0629821, -794.108, 0.196846, 0.38843, 1.03299, 0.34851, 0.655882, 0.0001, 45.5, 246, 24.512, 0.0886736, 3.52231, 1, 1, 0, 91158
-7628.68, 392461, -138.397, 0.0629821, -794.108, 0.196846, 0.38843, 1.03299, 0.34851, 0.655882, 3, 45.5, 246, 24.512, 0.0886736, 3.52492, 1, 1, 0, 91158
-7551.27, 408448, -142.885, 0.0655008, -819.845, 0.203185, 0.355708, 0.993198, 0.349787, 0.651995, 0.0001, 91, 246, 24.512, 0.0886736, 6.44207, 1, 1, 0, 91158
-7551.27, 408448, -142.885, 0.0655008, -819.845, 0.203185, 0.355708, 0.993198, 0.349787, 0.651995, 3, 91, 246, 24.512, 0.0886736, 6.03819, 1, 1, 0, 91158
-8303.23, 59607.1, -69.0265, 3.45321, -704.698, -0.0359007, 0.180141, 1.03299, 0.34851, 0.655882, 0.0001, 45.5, 246, 25.7698, 0.0770843, 0, 0, 1, 0, 91160
-8303.23, 59607.1, -69.0265, 3.45321, -704.698, -0.0359007, 0.180141, 1.03299, 0.34851, 0.655882, 3, 45.5, 246, 25.7698, 0.0770843, 0, 0, 1, 0, 91160
-7817.77, 89328.5, -85.2786, 1.54901, -1024.72, 1.17858, 0.269853, 0.9175, 0.352806, 0.64323, 0.0001, 455, 246, 25.5794, 0.150332, 0, 0, 1, 0, 91162
-7817.77, 89328.5, -85.2786, 1.54901, -1024.72, 1.17858, 0.269853, 0.9175, 0.352806, 0.64323, 3, 455, 246, 25.5794, 0.150332, 0, 0, 1, 0, 91162
-7064.16, 271454, -405.261, 3.47226, -908.492, 0.101564, 0.488383, 0.993198, 0.349787, 0.651995, 0.0001, 91, 246, 52.0439, 0.242705, 1.29488, 1, 1, 0, 91166
-7064.16, 271454, -405.261, 3.47226, -908.492, 0.101564, 0.488383, 0.993198, 0.349787, 0.651995, 3, 91, 246, 52.0439, 0.242705, 1.17872, 1, 1, 0, 91166
-9319.46, 425964, -262.487, 0.552438, -933.473, 0.504761, 0.484213, 1.03299, 0.34851, 0.655882, 0.0001, 45.5, 246, 35.1119, 0.148563, 0, 0, 0, 0, 91167
-9319.46, 425964, -262.487, 0.552438, -933.473, 0.504761, 0.484213, 1.03299, 0.34851, 0.655882, 3, 45.5, 246, 35.1119, 0.148563, 0, 0, 0, 0, 91167
-6032.05, 491886, -295.035, 0.633465, -1120.71, 0.604239, 0.442124, 0.958125, 0.351078, 0.648177, 3, 182, 246, 35.1119, 0.148563, 0, 0, 0, 0, 91167
-9394.47, -82745.1, -9.26215, 0.178579, -1007.95, 0.78793, 0.348719, 1.03299, 0.34851, 0.655882, 0.0001, 45.5, 246, -38.3007, 0.0926171, 0, 0, 1, 0, 91178
-9394.47, -82745.1, -9.26215, 0.178579, -1007.95, 0.78793, 0.348719, 1.03299, 0.34851, 0.655882, 3, 45.5, 246, -38.3007, 0.0926171, 0, 0, 1, 0, 91178
-7448.33, -10766.3, -27.4359, 2.48433, -719.919, 0.0351606, 0.279417, 1.03299, 0.34851, 0.655882, 3, 45.5, 246, 24.7892, 0.0107949, 0, 0, 1, 1, 91196
-9538.56, 176438, -198.9, 2.36729, -942.568, -0.0261253, 0.399917, 1.03299, 0.34851, 0.655882, 3, 45.5, 246, 43.09, 0.207276, 0, 0, 0, 0, 91198
-7380.52, 192549, -234.74, 2.5404, -954.588, 0.000320647, 0.395484, 0.993198, 0.349787, 0.651995, 0.0001, 91, 246, 43.09, 0.207276, 0, 0, 1, 0, 91198
-7380.52, 192549, -234.74, 2.5404, -954.588, 0.000320647, 0.395484, 0.993198, 0.349787, 0.651995, 3, 91, 246, 43.09, 0.207276, 0, 0, 1, 0, 91198
90.1774, 235698, -339.361, 3.03231, -1016.68, 0.0796444, 0.425674, 0.9175, 0.352806, 0.64323, 3, 455, 246, 43.09, 0.207276, 1.40669, 1, 0, 0, 91198
-8107.54, 440559, -319.047, 0.126072, -768.415, 0.013293, 0.573715, 1.03299, 0.34851, 0.655882, 0.0001, 45.5, 246, 36.9337, 0.194606, 0, 0, 0, 0, 91202
-10657.8, 377342, -123.773, 0.66737, -849.988, 0.802226, 0.369066, 1.03299, 0.34851, 0.655882, 0.0001, 45.5, 246, 24.613, 0.0743187, 0, 0, 1, 0, 91219
-10657.8, 377342, -123.773, 0.66737, -849.988, 0.802226, 0.369066, 1.03299, 0.34851, 0.655882, 3, 45.5, 246, 24.613, 0.0743187, 0, 0, 1, 0, 91219
-9585.04, 409873, -134.404, 0.726225, -976.088, 0.921128, 0.337049, 0.993198, 0.349787, 0.651995, 3, 91, 246, 24.613, 0.0743187, 0, 0, 1, 0, 91219
-974.654, 148299, -284.86, 3.12941, -1014.09, 0.0859715, 0.379721, 0.9175, 0.352806, 0.64323, 0.0001, 455, 246, 47.2114, 0.225544, 1.73894, 1, 0, 0, 91225
-974.654, 148299, -284.86, 3.12941, -1014.09, 0.0859715, 0.379721, 0.9175, 0.352806, 0.64323, 3, 455, 246, 47.2114, 0.225544, 1.74055, 1, 0, 0, 91225
-14458.8, 205786, 15.5887, 2.4159, -1129.77, 0.0328706, 0.246949, 1.03299, 0.34851, 0.655882, 0.0001, 45.5, 246, 17.2378, 0.0197292, 0, 0, 1, 0, 91228
-14458.8, 205786, 15.5887, 2.4159, -1129.77, 0.0328706, 0.246949, 1.03299, 0.34851, 0.655882, 3, 45.5, 246, 17.2378, 0.0197292, 0, 0, 1, 0, 91228
-11593.4, 117334, 6.16543, 2.5114, -977.783, 0.671392, 0.2414, 1.03299, 0.34851, 0.655882, 0.0001, 45.5, 246, 15.3109, 0.0310693, 0, 0, 0, 0, 91230
-8530.39, 171356, -51.518, 3.15489, -1259.4, 0.94146, 0.233671, 0.958125, 0.351078, 0.648177, 0.0001, 182, 246, 15.3109, 0.0310693, 0, 0, 1, 0, 91230
-8530.39, 171356, -51.518, 3.15489, -1259.4, 0.94146, 0.233671, 0.958125, 0.351078, 0.648177, 3, 182, 246, 15.3109, 0.0310693, 0, 0, 1, 0, 91230
-7437.31, 846366, -304.138, 0.0819981, -770.337, 0.0425675, 0.444509, 1.03299, 0.34851, 0.655882, 0.0001, 45.5, 246, 28.5257, 0.0919744, 0, 0, 0, 0, 91232
-7437.31, 846366, -304.138, 0.0819981, -770.337, 0.0425675, 0.444509, 1.03299, 0.34851, 0.655882, 3, 45.5, 246, 28.5257, 0.0919744, 0, 0, 0, 0, 91232
-6488.73, 860454, -314.147, 0.0847324, -776.237, 0.0428865, 0.416334, 0.993198, 0.349787, 0.651995, 3, 91, 246, 28.5257, 0.0919744, 0, 0, 1, 0, 91232
-8161.61, 242056, -358.251, 3.44018, -720.598, 0.726259, 0.398038, 0.993198, 0.349787, 0.651995, 0.0001, 91, 246, 44.536, 0.205679, 1.10938, 1, 1, 0, 91235
-2903.08, 265908, -419.052, 3.93188, -857.992, 0.887688, 0.434082, 0.958125, 0.351078, 0.648177, 0.0001, 182, 246, 44.536, 0.205679, 2.16347, 1, 0, 0, 91235
-2903.08, 265908, -419.052, 3.93188, -857.992, 0.887688, 0.434082, 0.958125, 0.351078, 0.648177, 3, 182, 246, 44.536, 0.205679, 1.99718, 1, 0, 0, 91235
-6623.6, 924953, -312.354, 0.0931956, -916.761, 0.242816, 0.436504, 1.03299, 0.34851, 0.655882, 3, 45.5, 246, 31.2313, 0.0827784, 0, 0, 0, 0, 91236
-7074.5, 372292, -338.659, 0.617521, -1081.61, 0.0285403, 0.622991, 0.993198, 0.349787, 0.651995, 0.0001, 91, 246, 46.1068, 0.244143, 0, 0, 1, 0, 91237
-5904.94, 611867, -254.213, 0.143865, -1129.16, 0.761282, 0.402174, 0.993198, 0.349787, 0.651995, 0.0001, 91, 246, 32.2018, 0.0987388, 0, 0, 1, 0, 91244
-2818.61, 178354, -284.017, 3.5677, -1201.37, 0.45618, 0.351991, 0.958125, 0.351078, 0.648177, 0.0001, 182, 246, 45.2056, 0.194837, 1.0835, 1, 0, 0, 91258
-3079.77, -417868, -41.8666, 0.0918413, -549.296, 0.715432, 0.341489, 1.03299, 0.34851, 0.655882, 0.0001, 45.5, 246, 685.355, 0.00509213, 0, 0, 1, 0, 91260
-8599.58, 347028, -295.53, 0.630315, -1090.49, 0.479129, 0.572905, 1.03299, 0.34851, 0.655882, 0.0001, 45.5, 246, 43.1903, 0.211537, 0, 0, 0, 0, 91266
-9159.42, 41814.2, 13.975, 3.38311, -1151.7, -0.0543437, 0.180947, 1.03299, 0.34851, 0.655882, 0.0001, 45.5, 246, 15.457, 0.0485594, 1.30024, 1, 0, 0, 91269
-9159.42, 41814.2, 13.975, 3.38311, -1151.7, -0.0543437, 0.180947, 1.03299, 0.34851, 0.655882, 3, 45.5, 246, 15.457, 0.0485594, 1.23494, 1, 0, 0, 91269
-10712.7, 210232, -100.612, 1.32806, -898.944, 0.734799, 0.353479, 1.03299, 0.34851, 0.655882, 0.0001, 45.5, 246, 26.3986, 0.101874, 0, 0, 1, 0, 91270
-9544.23, 50713.5, 24.1318, 3.56031, -796.375, 0.214292, 0.144701, 1.03299, 0.34851, 0.655882, 0.0001, 45.5, 246, 9.48501, 0.024923, 0, 0, 0, 0, 91271
-9544.23, 50713.5, 24.1318, 3.56031, -796.375, 0.214292, 0.144701, 1.03299, 0.34851, 0.655882, 3, 45.5, 246, 9.48501, 0.024923, 0, 0, 0, 0, 91271
-9153.52, 134912, -47.825, 0.740687, -1041.98, -0.00251543, 0.35267, 1.03299, 0.34851, 0.655882, 0.0001, 45.5, 246, 21.3726, 0.086746, 0, 0, 1, 0, 91272
-9153.52, 134912, -47.825, 0.740687, -1041.98, -0.00251543, 0.35267, 1.03299, 0.34851, 0.655882, 3, 45.5, 246, 21.3726, 0.086746, 0, 0, 1, 0, 91272
-11101.3, 287346, -37.5899, 1.33754, -1007.9, 0.179791, 0.289689, 0.993198, 0.349787, 0.651995, 3, 91, 246, 18.8221, 0.0322778, 0, 0, 1, 0, 91276
-9523.97, 308452, -52.0754, 1.41626, -1039.7, 0.193612, 0.265336, 0.958125, 0.351078, 0.648177, 0.0001, 182, 246, 18.8221, 0.0322778, 0, 0, 1, 0, 91276
-739.786, 154904, -281.86, 5.26903, -1393.26, 0.65697, 0.336649, 0.9175, 0.352806, 0.64323, 0.0001, 455, 246, 31.3183, 0.0997143, 1.53114, 1, 0, 0, 91277
-739.786, 154904, -281.86, 5.26903, -1393.26, 0.65697, 0.336649, 0.9175, 0.352806, 0.64323, 3, 455, 246, 31.3183, 0.0997143, 1.53892, 1, 0, 0, 91277
-10282.5, 217547, -316.695, 3.08424, -765.534, -0.00673149, 0.438099, 1.03299, 0.34851, 0.655882, 0.0001, 45.5, 246, 51.1084, 0.242192, 1.08818, 1, 0, 0, 91279
-6341.2, 229995, -368.176, 3.36414, -796.468, 0.0388905, 0.456742, 0.993198, 0.349787, 0.651995, 0.0001, 91, 246, 51.1084, 0.242192, 1.29866, 1, 1, 0, 91279
-6341.2, 229995, -368.176, 3.36414, -796.468, 0.0388905, 0.456742, 0.993198, 0.349787, 0.651995, 3, 91, 246, 51.1084, 0.242192, 1.16871, 1, 1, 0, 91279
-1388.84, 245106, -429.418, 3.69458, -841.951, 0.0941744, 0.492602, 0.958125, 0.351078, 0.648177, 0.0001, 182, 246, 51.1084, 0.242192, 3.41004, 1, 0, 0, 91279
-1388.84, 245106, -429.418, 3.69458, -841.951, 0.0941744, 0.492602, 0.958125, 0.351078, 0.648177, 3, 182, 246, 51.1084, 0.242192, 3.13865, 1, 0, 0, 91279
-12029.3, 211962, -65.9743, 1.78453, -1080.39, 0.552436, 0.312277, 1.03299, 0.34851, 0.655882, 0.0001, 45.5, 246, 25.0859, 0.0733934, 0, 0, 1, 0, 91284
-12029.3, 211962, -65.9743, 1.78453, -1080.39, 0.552436, 0.312277, 1.03299, 0.34851, 0.655882, 3, 45.5, 246, 25.0859, 0.0733934, 0, 0, 1, 0, 91284
-10412.6, 241232, -89.0506, 1.95121, -1189.17, 0.622045, 0.289764, 0.993198, 0.349787, 0.651995, 0.0001, 91, 246, 25.0859, 0.0733934, 0, 0, 1, 0, 91284
-10412.6, 241232, -89.0506, 1.95121, -1189.17, 0.622045, 0.289764, 0.993198, 0.349787, 0.651995, 3, 91, 246, 25.0859, 0.0733934, 0, 0, 1, 0, 91284
-10066, 78725.6, 3.88007, 2.30657, -910.581, -0.019249, 0.268516, 1.03299, 0.34851, 0.655882, 0.0001, 45.5, 246, 12.7828, 0.0348775, 0, 0, 1, 0, 91295
-10066, 78725.6, 3.88007, 2.30657, -910.581, -0.019249, 0.268516, 1.03299, 0.34851, 0.655882, 3, 45.5, 246, 12.7828, 0.0348775, 0, 0, 1, 0, 91295
-8188.32, 519308, -251.549, 0.356187, -1019.76, 0.298428, 0.453236, 1.03299, 0.34851, 0.655882, 0.0001, 45.5, 246, 34.0247, 0.119758, 0, 0, 0, 0, 91297
-8188.32, 519308, -251.549, 0.356187, -1019.76, 0.298428, 0.453236, 1.03299, 0.34851, 0.655882, 3, 45.5, 246, 34.0247, 0.119758, 0, 0, 0, 0, 91297
-6971.32, 548236, -264.122, 0.37515, -1072.82, 0.313813, 0.42638, 0.993198, 0.349787, 0.651995, 3, 91, 246, 34.0247, 0.119758, 0, 0, 1, 0, 91297
-74.4688, 438883, -493.011, 1.42536, -843.201, 0.0185701, 0.701444, 0.9175, 0.352806, 0.64323, 3, 455, 246, 45.5039, 0.248315, 0, 0, 0, 0, 91300
-7011.28, 167325, -282.699, 3.42737, -983.295, -0.0338623, 0.367833, 1.03299, 0.34851, 0.655882, 0.0001, 45.5, 246, 55.0245, 0.240516, 1.25998, 1, 0, 0, 91303
-7011.28, 167325, -282.699, 3.42737, -983.295, -0.0338623, 0.367833, 1.03299, 0.34851, 0.655882, 3, 45.5, 246, 55.0245, 0.240516, 1.15776, 1, 0, 0, 91303
-3525.37, 186067, -342.329, 3.75136, -1011.76, 0.0226306, 0.392015, 0.993198, 0.349787, 0.651995, 0.0001, 91, 246, 55.0245, 0.240516, 1.65996, 1, 1, 0, 91303
-3525.37, 186067, -342.329, 3.75136, -1011.76, 0.0226306, 0.392015, 0.993198, 0.349787, 0.651995, 3, 91, 246, 55.0245, 0.240516, 1.55442, 1, 1, 0, 91303
1094.95, 207843, -414.324, 4.14123, -1060.11, 0.0913731, 0.436745, 0.958125, 0.351078, 0.648177, 0.0001, 182, 246, 55.0245, 0.240516, 0, 0, 0, 0, 91303
1094.95, 207843, -414.324, 4.14123, -1060.11, 0.0913731, 0.436745, 0.958125, 0.351078, 0.648177, 3, 182, 246, 55.0245, 0.240516, 0, 0, 0, 0, 91303
-8581.79, 63338.6, -63.274, 1.12088, -1021.2, 0.101356, 0.339959, 0.993198, 0.349787, 0.651995, 3, 91, 246, 30.8309, 0.243482, 0, 0, 1, 1, 91313
-6630.6, 73113.1, -147.847, 3.66383, -1507.01, 1.2434, 0.304679, 0.9175, 0.352806, 0.64323, 3, 455, 246, 26.2117, 0.00555613, 0, 0, 1, 0, 91314
-5854.63, -20758.7, -39.4432, 3.6095, -720.408, 0.185746, 0.178758, 1.03299, 0.34851, 0.655882, 3, 45.5, 246, 26.4568, 0.0146605, 0, 0, 1, 0, 91318
-9134.32, 78564.4, -37.3458, 1.3731, -1032.29, 0.0859417, 0.334567, 1.03299, 0.34851, 0.655882, 3, 45.5, 246, 21.3841, 0.095437, 0, 0, 1, 0, 91328
-9992.65, 575099, -244.691, 0.5478, -1005.59, 0.0136305, 0.439371, 1.03299, 0.34851, 0.655882, 0.0001, 45.5, 246, 33.2127, 0.110095, 0, 0, 0, 0, 91336
-8266.98, 121459, -175.89, 3.39646, -764.893, -0.0073363, 0.240677, 1.03299, 0.34851, 0.655882, 3, 45.5, 246, 40.6693, 0.15749, 0, 0, 0, 0, 91342
-6129.35, 132343, -216.967, 3.70726, -785.621, 0.0480424, 0.254651, 0.993198, 0.349787, 0.651995, 3, 91, 246, 40.6693, 0.15749, 0, 0, 1, 0, 91342
-3365.1, 144917, -266.333, 4.07871, -820.555, 0.115498, 0.287879, 0.958125, 0.351078, 0.648177, 0.0001, 182, 246, 40.6693, 0.15749, 1.09157, 1, 1, 0, 91342
1638.87, 165873, -350.208, 4.70765, -898.082, 0.233215, 0.367612, 0.9175, 0.352806, 0.64323, 0.0001, 455, 246, 40.6693, 0.15749, 2.93541, 1, 0, 0, 91342
1638.87, 165873, -350.208, 4.70765, -898.082, 0.233215, 0.367612, 0.9175, 0.352806, 0.64323, 3, 455, 246, 40.6693, 0.15749, 2.94515, 1, 0, 0, 91342
-11914.9, 326913, -94.4966, 0.991974, -679.277, 0.152698, 0.351507, 1.03299, 0.34851, 0.655882, 0.0001, 45.5, 246, 20.5289, 0.0718457, 0, 0, 1, 0, 91343
-11914.9, 326913, -94.4966, 0.991974, -679.277, 0.152698, 0.351507, 1.03299, 0.34851, 0.655882, 3, 45.5, 246, 20.5289, 0.0718457, 0, 0, 1, 0, 91343
-9152.33, 349844, -116.524, 1.10105, -720.757, 0.170542, 0.294986, 0.958125, 0.351078, 0.648177, 0.0001, 182, 246, 20.5289, 0.0718457, 0, 0, 1, 0, 91343
-10998, 101324, -17.338, 3.24103, -1032.39, -0.033263, 0.18912, 1.03299, 0.34851, 0.655882, 0.0001, 45.5, 246, 19.6754, 0.0557163, 0, 0, 0, 0, 91344
-10998, 101324, -17.338, 3.24103, -1032.39, -0.033263, 0.18912, 1.03299, 0.34851, 0.655882, 3, 45.5, 246, 19.6754, 0.0557163, 0, 0, 0, 0, 91344
-7649.22, 138225, -90.2374, 3.8407, -1048.26, 0.0764777, 0.217036, 0.958125, 0.351078, 0.648177, 3, 182, 246, 19.6754, 0.0557163, 0, 0, 1, 0, 91344
-7000.49, 51907.3, -91.1202, 3.05901, -1147.95, -0.0422517, 0.255694, 1.03299, 0.34851, 0.655882, 0.0001, 45.5, 246, 37.2717, 0.134887, 0, 0, 1, 0, 91347
-7000.49, 51907.3, -91.1202, 3.05901, -1147.95, -0.0422517, 0.255694, 1.03299, 0.34851, 0.655882, 3, 45.5, 246, 37.2717, 0.134887, 0, 0, 1, 0, 91347
-1713.93, 133686, -259.588, 4.08507, -1226.35, 0.142418, 0.33069, 0.9175, 0.352806, 0.64323, 3, 455, 246, 37.2717, 0.134887, 1.36193, 1, 0, 0, 91347
-10734.2, 545703, -192.182, 0.46439, -697.376, 0.35807, 0.399818, 1.03299, 0.34851, 0.655882, 0.0001, 45.5, 246, 24.6101, 0.0859724, 0, 0, 1, 0, 91348
-10734.2, 545703, -192.182, 0.46439, -697.376, 0.35807, 0.399818, 1.03299, 0.34851, 0.655882, 3, 45.5, 246, 24.6101, 0.0859724, 0, 0, 1, 0, 91348
-11266, 699374, -110.928, 0.357808, -640.417, 0.00908312, 0.355872, 1.03299, 0.34851, 0.655882, 0.0001, 45.5, 246, 18.8315, 0.0413754, 0, 0, 1, 0, 91349
-11266, 699374, -110.928, 0.357808, -640.417, 0.00908312, 0.355872, 1.03299, 0.34851, 0.655882, 3, 45.5, 246, 18.8315, 0.0413754, 0, 0, 1, 0, 91349
-6844.15, -18023.8, 8.74282, 3.5646, -1038.78, -0.0443509, 0.180892, 1.03299, 0.34851, 0.655882, 0.0001, 45.5, 246, 14.6065, 0.0537615, 0, 0, 1, 0, 91357
-6844.15, -18023.8, 8.74282, 3.5646, -1038.78, -0.0443509, 0.180892, 1.03299, 0.34851, 0.655882, 3, 45.5, 246, 14.6065, 0.0537615, 0, 0, 1, 0, 91357
-12173.3, 248584, -88.6612, 1.57235, -935.594, 0.399199, 0.331637, 1.03299, 0.34851, 0.655882, 0.0001, 45.5, 246, 25.0817, 0.0825364, 0, 0, 1, 0, 91359
-12173.3, 248584, -88.6612, 1.57235, -935.594, 0.399199, 0.331637, 1.03299, 0.34851, 0.655882, 3, 45.5, 246, 25.0817, 0.0825364, 0, 0, 1, 0, 91359
-11489.8, 267173, -309.482, 2.51398, -1032.99, 0.0772161, 0.510746, 1.03299, 0.34851, 0.655882, 3, 45.5, 246, 50.002, 0.238893, 0, 0, 0, 0, 91361
-8951.44, 871483, -216.606, 0.137406, -630.095, 0.342372, 0.388777, 1.03299, 0.34851, 0.655882, 0.0001, 45.5, 246, 21.9079, 0.0599203, 0, 0, 1, 0, 91366
-8951.44, 871483, -216.606, 0.137406, -630.095, 0.342372, 0.388777, 1.03299, 0.34851, 0.655882, 3, 45.5, 246, 21.9079, 0.0599203, 0, 0, 1, 0, 91366
-8215.99, 896079, -224.023, 0.144245, -666.979, 0.362047, 0.356153, 0.993198, 0.349787, 0.651995, 0.0001, 91, 246, 21.9079, 0.0599203, 0, 0, 1, 0, 91366
-9499.28, 832745, -61.8979, 1.65639, -629.252, 0.0422472, 0.230485, 0.9175, 0.352806, 0.64323, 3, 455, 246, 15.3585, 0.0119422, 0, 0, 1, 0, 91370
-6980.34, 443743, -258.102, 0.33094, -1019.8, 0.313971, 0.452472, 0.993198, 0.349787, 0.651995, 0.0001, 91, 246, 34.8749, 0.147729, 0, 0, 1, 0, 91373
-10209.8, 267413, -202.18, 1.36924, -1114.2, 0.0584966, 0.454358, 1.03299, 0.34851, 0.655882, 0.0001, 45.5, 246, 39.1969, 0.180549, 0, 0, 0, 0, 91379
-10209.8, 267413, -202.18, 1.36924, -1114.2, 0.0584966, 0.454358, 1.03299, 0.34851, 0.655882, 3, 45.5, 246, 39.1969, 0.180549, 0, 0, 0, 0, 91379
-10405.3, 116835, -43.192, 2.22308, -944.354, -0.00560567, 0.285533, 1.03299, 0.34851, 0.655882, 0.0001, 45.5, 246, 21.6217, 0.076265, 0, 0, 1, 0, 91384
-10405.3, 116835, -43.192, 2.22308, -944.354, -0.00560567, 0.285533, 1.03299, 0.34851, 0.655882, 3, 45.5, 246, 21.6217, 0.076265, 0, 0, 1, 0, 91384
-9529.76, 70785.7, -6.03087, 1.71143, -899.811, 0.225483, 0.305666, 1.03299, 0.34851, 0.655882, 0.0001, 45.5, 246, 13.5671, 0.0441927, 0, 0, 1, 0, 91391
-9529.76, 70785.7, -6.03087, 1.71143, -899.811, 0.225483, 0.305666, 1.03299, 0.34851, 0.655882, 3, 45.5, 246, 13.5671, 0.0441927, 0, 0, 1, 0, 91391
-7765.37, 84020.4, -114.142, 2.68172, -1043.5, 0.0224151, 0.300466, 1.03299, 0.34851, 0.655882, 0.0001, 45.5, 246, 38.4125, 0.161348, 0, 0, 1, 0, 91404
-7765.37, 84020.4, -114.142, 2.68172, -1043.5, 0.0224151, 0.300466, 1.03299, 0.34851, 0.655882, 3, 45.5, 246, 38.4125, 0.161348, 0, 0, 1, 0, 91404
-1857.6, 155258, -257.863, 3.52447, -1142.3, 0.165417, 0.337342, 0.9175, 0.352806, 0.64323, 3, 455, 246, 38.4125, 0.161348, 1.04161, 1, 0, 0, 91404
-11111.3, 304100, -283.362, 1.54014, -990.902, -0.00866304, 0.545207, 1.03299, 0.34851, 0.655882, 0.0001, 45.5, 246, 44.6391, 0.224752, 0, 0, 0, 0, 91410
-11111.3, 304100, -283.362, 1.54014, -990.902, -0.00866304, 0.545207, 1.03299, 0.34851, 0.655882, 3, 45.5, 246, 44.6391, 0.224752, 0, 0, 0, 0, 91410
-8681.03, 139656, -165.471, 1.87243, -870.773, -0.0125348, 0.416042, 1.03299, 0.34851, 0.655882, 0.0001, 45.5, 246, 42.0365, 0.224604, 0, 0, 1, 0, 91412
-8681.03, 139656, -165.471, 1.87243, -870.773, -0.0125348, 0.416042, 1.03299, 0.34851, 0.655882, 3, 45.5, 246, 42.0365, 0.224604, 0, 0, 1, 0, 91412
-7834.48, 972464, -250.997, 0.0595865, -605.247, 0.852461, 0.360479, 0.993198, 0.349787, 0.651995, 0.0001, 91, 246, 19.8196, 0.0578722, 0, 0, 1, 0, 91418
-9791.86, 455186, -180.282, 0.406917, -680.317, 0.0350078, 0.408213, 1.03299, 0.34851, 0.655882, 0.0001, 45.5, 246, 25.125, 0.102321, 0, 0, 1, 0, 91425
-9791.86, 455186, -180.282, 0.406917, -680.317, 0.0350078, 0.408213, 1.03299, 0.34851, 0.655882, 3, 45.5, 246, 25.125, 0.102321, 0, 0, 1, 0, 91425
-8918.14, 464773, -189.306, 0.422361, -686.166, 0.0359616, 0.377813, 0.993198, 0.349787, 0.651995, 0.0001, 91, 246, 25.125, 0.102321, 0, 0, 1, 0, 91425
-10523.1, 408927, -317.614, 0.688832, -807.601, 0.202829, 0.569562, 1.03299, 0.34851, 0.655882, 0.0001, 45.5, 246, 38.6284, 0.197013, 0, 0, 0, 0, 91426
-10523.1, 408927, -317.614, 0.688832, -807.601, 0.202829, 0.569562, 1.03299, 0.34851, 0.655882, 3, 45.5, 246, 38.6284, 0.197013, 0, 0, 0, 0, 91426
-9571.85, 318401, -444.784, 3.87856, -876.192, 0.278611, 0.457277, 0.993198, 0.349787, 0.651995, 0.0001, 91, 246, 49.5742, 0.222666, 1.37125, 1, 1, 0, 91432
-9571.85, 318401, -444.784, 3.87856, -876.192, 0.278611, 0.457277, 0.993198, 0.349787, 0.651995, 3, 91, 246, 49.5742, 0.222666, 1.29056, 1, 1, 0, 91432
-10074.5, 79179.5, -12.5484, 2.92323, -1164.99, 0.0187259, 0.226675, 1.03299, 0.34851, 0.655882, 0.0001, 45.5, 246, 19.9956, 0.0613738, 0, 0, 1, 0, 91438
-9078, 102859, -45.9794, 3.16384, -1174.45, 0.0595925, 0.22468, 0.993198, 0.349787, 0.651995, 0.0001, 91, 246, 19.9956, 0.0613738, 0, 0, 1, 0, 91438
-9078, 102859, -45.9794, 3.16384, -1174.45, 0.0595925, 0.22468, 0.993198, 0.349787, 0.651995, 3, 91, 246, 19.9956, 0.0613738, 0, 0, 1, 0, 91438
-6787.82, -13961.6, -21.776, 3.2116, -819.928, -0.0391679, 0.219043, 1.03299, 0.34851, 0.655882, 0.0001, 45.5, 246, 21.3305, 0.0290277, 0, 0, 1, 1, 91439
-6787.82, -13961.6, -21.776, 3.2116, -819.928, -0.0391679, 0.219043, 1.03299, 0.34851, 0.655882, 3, 45.5, 246, 21.3305, 0.0290277, 0, 0, 1, 1, 91439
-7637.91, -12803.8, -3.61031, 2.63319, -755.456, -0.0304484, 0.264054, 1.03299, 0.34851, 0.655882, 3, 45.5, 246, 13.3999, 0.0392307, 0, 0, 1, 1, 91441
-9646.68, 81517.2, -40.797, 3.1486, -1133.11, -0.0430691, 0.215248, 1.03299, 0.34851, 0.655882, 0.0001, 45.5, 246, 24.7283, 0.0818979, 0, 0, 0, 0, 91446
-8496.95, 103496, -78.1675, 3.41056, -1134.63, 0.00416889, 0.219286, 0.993198, 0.349787, 0.651995, 0.0001, 91, 246, 24.7283, 0.0818979, 0, 0, 1, 0, 91446
-8496.95, 103496, -78.1675, 3.41056, -1134.63, 0.00416889, 0.219286, 0.993198, 0.349787, 0.651995, 3, 91, 246, 24.7283, 0.0818979, 0, 0, 1, 0, 91446
-7438.72, 641487, -243.622, 0.172073, -760.322, 0.000140317, 0.395951, 0.993198, 0.349787, 0.651995, 0.0001, 91, 246, 27.3119, 0.0966171, 0, 0, 1, 0, 91447
-7976.16, 6674.5, -7.16569, 2.74463, -1055.37, 0.0188081, 0.254784, 1.03299, 0.34851, 0.655882, 0.0001, 45.5, 246, 17.5229, 0.0642725, 0, 0, 1, 0, 91449
-7976.16, 6674.5, -7.16569, 2.74463, -1055.37, 0.0188081, 0.254784, 1.03299, 0.34851, 0.655882, 3, 45.5, 246, 17.5229, 0.0642725, 0, 0, 1, 0, 91449
-6057.69, -1116.53, -50.5614, 3.54442, -964.036, -0.05938, 0.189411, 1.03299, 0.34851, 0.655882, 0.0001, 45.5, 246, 30.5646, 0.0451815, 0, 0, 1, 1, 91452
-2376.26, 312013, -394.651, 4.65282, -1441.48, 1.23564, 0.341055, 0.958125, 0.351078, 0.648177, 0.0001, 182, 246, 42.8661, 0.164438, 2.6963, 1, 0, 0, 91459
-2376.26, 312013, -394.651, 4.65282, -1441.48, 1.23564, 0.341055, 0.958125, 0.351078, 0.648177, 3, 182, 246, 42.8661, 0.164438, 2.62458, 1, 0, 0, 91459
-11381.9, 248148, -168.607, 1.69908, -1006.2, 0.619214, 0.387366, 1.03299, 0.34851, 0.655882, 0.0001, 45.5, 246, 34.4007, 0.142825, 0, 0, 0, 0, 91472
-11381.9, 248148, -168.607, 1.69908, -1006.2, 0.619214, 0.387366, 1.03299, 0.34851, 0.655882, 3, 45.5, 246, 34.4007, 0.142825, 0, 0, 0, 0, 91472
-6740.32, 194623, -310.103, 3.71052, -703.08, 0.117082, 0.330266, 0.993198, 0.349787, 0.651995, 0.0001, 91, 246, 45.0929, 0.196899, 1.17301, 1, 1, 0, 91474
-6740.32, 194623, -310.103, 3.71052, -703.08, 0.117082, 0.330266, 0.993198, 0.349787, 0.651995, 3, 91, 246, 45.0929, 0.196899, 1.01628, 1, 1, 0, 91474
-2417.04, 207207, -366.643, 4.10701, -755.206, 0.187642, 0.369053, 0.958125, 0.351078, 0.648177, 0.0001, 182, 246, 45.0929, 0.196899, 1.8643, 1, 0, 0, 91474
-2417.04, 207207, -366.643, 4.10701, -755.206, 0.187642, 0.369053, 0.958125, 0.351078, 0.648177, 3, 182, 246, 45.0929, 0.196899, 1.70914, 1, 0, 0, 91474
-6401.17, 127874, -245.802, 2.92387, -612.212, 0.035238, 0.362968, 1.03299, 0.34851, 0.655882, 0.0001, 45.5, 246, 51.4166, 0.231654, 1.32179, 1, 1, 0, 91481
-6401.17, 127874, -245.802, 2.92387, -612.212, 0.035238, 0.362968, 1.03299, 0.34851, 0.655882, 3, 45.5, 246, 51.4166, 0.231654, 1.21125, 1, 1, 0, 91481
-4167.53, 136060, -283.93, 3.17953, -638.932, 0.0765643, 0.370576, 0.993198, 0.349787, 0.651995, 0.0001, 91, 246, 51.4166, 0.231654, 1.44695, 1, 1, 0, 91481
-4167.53, 136060, -283.93, 3.17953, -638.932, 0.0765643, 0.370576, 0.993198, 0.349787, 0.651995, 3, 91, 246, 51.4166, 0.231654, 1.30997, 1, 1, 0, 91481
-1363, 145861, -328.888, 3.47758, -676.213, 0.126747, 0.393314, 0.958125, 0.351078, 0.648177, 0.0001, 182, 246, 51.4166, 0.231654, 1.89862, 1, 1, 0, 91481
-1363, 145861, -328.888, 3.47758, -676.213, 0.126747, 0.393314, 0.958125, 0.351078, 0.648177, 3, 182, 246, 51.4166, 0.231654, 1.76104, 1, 1, 0, 91481
-10794.7, 206546, -56.8914, 1.12126, -607.409, 0.0195064, 0.337138, 1.03299, 0.34851, 0.655882, 0.0001, 45.5, 246, 17.1827, 0.0668083, 0, 0, 1, 0, 91487
-7699.07, 112598, -166.623, 3.5669, -942.561, -0.0123923, 0.222989, 1.03299, 0.34851, 0.655882, 3, 45.5, 246, 42.0723, 0.15614, 0, 0, 0, 0, 91495
-5563.72, 128823, -214.793, 3.90378, -963.878, 0.0488295, 0.241878, 0.993198, 0.349787, 0.651995, 3, 91, 246, 42.0723, 0.15614, 0, 0, 1, 0, 91495
-2656.24, 147117, -273.203, 4.31097, -1003.39, 0.123907, 0.28203, 0.958125, 0.351078, 0.648177, 0.0001, 182, 246, 42.0723, 0.15614, 1.31599, 1, 1, 0, 91495
-2656.24, 147117, -273.203, 4.31097, -1003.39, 0.123907, 0.28203, 0.958125, 0.351078, 0.648177, 3, 182, 246, 42.0723, 0.15614, 1.12112, 1, 1, 0, 91495
