-8939.25, 97283.8, -74.0831, 1.26732, -890.456, -0.00672216, 0.362919, 1.03299, 0.34851, 0.655882, 0.0001, 45.5, 246, 28.4533, 0.154056, 0, 0, 1, 0, 62003
-8939.25, 97283.8, -74.0831, 1.26732, -890.456, -0.00672216, 0.362919, 1.03299, 0.34851, 0.655882, 3, 45.5, 246, 28.4533, 0.154056, 0, 0, 1, 0, 62003
-6327.93, 11379.7, -54.5574, 3.45589, -1058.86, 0.357909, 0.192825, 1.03299, 0.34851, 0.655882, 0.0001, 45.5, 246, 31.0234, 0.0726299, 0, 0, 1, 0, 62007
-6327.93, 11379.7, -54.5574, 3.45589, -1058.86, 0.357909, 0.192825, 1.03299, 0.34851, 0.655882, 3, 45.5, 246, 31.0234, 0.0726299, 0, 0, 1, 0, 62007
-2691.12, 104233, -251.711, 5.2181, -1458.02, 0.775456, 0.341453, 0.9175, 0.352806, 0.64323, 0.0001, 455, 246, 31.0234, 0.0726299, 1.26965, 1, 1, 0, 62007
-2691.12, 104233, -251.711, 5.2181, -1458.02, 0.775456, 0.341453, 0.9175, 0.352806, 0.64323, 3, 455, 246, 31.0234, 0.0726299, 1.25043, 1, 1, 0, 62007
-8212.54, 276763, -384.429, 3.4738, -856.652, 0.0608013, 0.451393, 0.993198, 0.349787, 0.651995, 0.0001, 91, 246, 48.8218, 0.225535, 1.10558, 1, 1, 0, 62008
-2269.66, 294470, -451.123, 3.82756, -909.221, 0.120485, 0.490756, 0.958125, 0.351078, 0.648177, 0.0001, 182, 246, 48.8218, 0.225535, 4.70669, 1, 0, 0, 62008
-2269.66, 294470, -451.123, 3.82756, -909.221, 0.120485, 0.490756, 0.958125, 0.351078, 0.648177, 3, 182, 246, 48.8218, 0.225535, 3.91089, 1, 0, 0, 62008
-5149.74, 29513.4, -105.641, 3.55357, -972, -0.00844517, 0.193729, 1.03299, 0.34851, 0.655882, 0.0001, 45.5, 246, 41.7623, 0.0935787, 0, 0, 1, 0, 62012
-5149.74, 29513.4, -105.641, 3.55357, -972, -0.00844517, 0.193729, 1.03299, 0.34851, 0.655882, 3, 45.5, 246, 41.7623, 0.0935787, 0, 0, 1, 0, 62012
-594.348, 92636.2, -290.704, 4.97437, -1101.43, 0.258062, 0.337014, 0.9175, 0.352806, 0.64323, 0.0001, 455, 246, 41.7623, 0.0935787, 1.73526, 1, 1, 1, 62012
-594.348, 92636.2, -290.704, 4.97437, -1101.43, 0.258062, 0.337014, 0.9175, 0.352806, 0.64323, 3, 455, 246, 41.7623, 0.0935787, 1.67224, 1, 1, 1, 62012
-12087.4, 706095, -41.0889, 0.397367, -1100.05, 0.430142, 0.340196, 1.03299, 0.34851, 0.655882, 0.0001, 45.5, 246, 25.2622, 0.0153704, 0, 0, 1, 0, 62013
-12087.4, 706095, -41.0889, 0.397367, -1100.05, 0.430142, 0.340196, 1.03299, 0.34851, 0.655882, 3, 45.5, 246, 25.2622, 0.0153704, 0, 0, 1, 0, 62013
-945.801, 118383, -274.53, 3.98116, -1129.97, 0.347323, 0.334506, 0.9175, 0.352806, 0.64323, 0.0001, 455, 246, 44.0737, 0.152996, 1.90822, 1, 0, 0, 62014
-945.801, 118383, -274.53, 3.98116, -1129.97, 0.347323, 0.334506, 0.9175, 0.352806, 0.64323, 3, 455, 246, 44.0737, 0.152996, 1.88166, 1, 0, 0, 62014
-8869.03, 191049, -305.927, 3.43985, -791.412, 0.0639544, 0.365592, 1.03299, 0.34851, 0.655882, 0.0001, 45.5, 246, 52.0016, 0.229878, 1.28161, 1, 0, 0, 62023
-8869.03, 191049, -305.927, 3.43985, -791.412, 0.0639544, 0.365592, 1.03299, 0.34851, 0.655882, 3, 45.5, 246, 52.0016, 0.229878, 1.19553, 1, 0, 0, 62023
-4951.86, 205099, -361.988, 3.78596, -834.961, 0.12252, 0.390355, 0.993198, 0.349787, 0.651995, 0.0001, 91, 246, 52.0016, 0.229878, 1.61026, 1, 1, 0, 62023
-4951.86, 205099, -361.988, 3.78596, -834.961, 0.12252, 0.390355, 0.993198, 0.349787, 0.651995, 3, 91, 246, 52.0016, 0.229878, 1.49914, 1, 1, 0, 62023
-7597.64, 98475.3, -148.661, 3.54732, -871.861, -0.0492257, 0.20982, 1.03299, 0.34851, 0.655882, 3, 45.5, 246, 39.6619, 0.141596, 0, 0, 0, 0, 62026
-5790.27, 111964, -192.257, 3.87159, -885.718, 0.0111712, 0.227045, 0.993198, 0.349787, 0.651995, 3, 91, 246, 39.6619, 0.141596, 0, 0, 1, 0, 62026
-3347.74, 126963, -244.714, 4.26193, -915.646, 0.0839983, 0.264823, 0.958125, 0.351078, 0.648177, 0.0001, 182, 246, 39.6619, 0.141596, 1.07267, 1, 1, 0, 62026
1268.51, 151083, -334.202, 4.92944, -990.213, 0.210413, 0.353487, 0.9175, 0.352806, 0.64323, 0.0001, 455, 246, 39.6619, 0.141596, 2.60229, 1, 0, 0, 62026
1268.51, 151083, -334.202, 4.92944, -990.213, 0.210413, 0.353487, 0.9175, 0.352806, 0.64323, 3, 455, 246, 39.6619, 0.141596, 2.60779, 1, 0, 0, 62026
-5972.01, 346578, -412.465, 4.37635, -870.064, 0.291295, 0.366645, 0.958125, 0.351078, 0.648177, 0.0001, 182, 246, 39.7266, 0.167248, 1.26628, 1, 0, 0, 62027
-5972.01, 346578, -412.465, 4.37635, -870.064, 0.291295, 0.366645, 0.958125, 0.351078, 0.648177, 3, 182, 246, 39.7266, 0.167248, 1.12697, 1, 0, 0, 62027
-7626.37, -16197.2, 14.2344, 2.86149, -966.334, -0.0388982, 0.245937, 1.03299, 0.34851, 0.655882, 3, 45.5, 246, 9.97855, 0.0521442, 0, 0, 1, 1, 62031
-7607.71, 37508.6, -87.0748, 3.75236, -992.953, 0.119542, 0.290958, 0.9175, 0.352806, 0.64323, 3, 455, 246, 9.97855, 0.0521442, 0, 0, 1, 1, 62031
-10016.8, 243319, -24.0603, 2.17402, -808.852, 0.125608, 0.244763, 0.958125, 0.351078, 0.648177, 3, 182, 246, 12.7813, 0.0137256, 0, 0, 1, 0, 62033
-5185.76, 839399, -310.988, 0.0100709, -908.019, 0.319051, 0.413403, 0.993198, 0.349787, 0.651995, 0.0001, 91, 246, 30.2408, 0.0904219, 0, 0, 1, 0, 62036
-4401.65, 871135, -319.469, 0.0105227, -956.316, 0.33599, 0.389094, 0.958125, 0.351078, 0.648177, 0.0001, 182, 246, 30.2408, 0.0904219, 0, 0, 0, 0, 62036
-12346.2, 543999, -99.5542, 0.554861, -594.4, 0.670582, 0.351234, 1.03299, 0.34851, 0.655882, 0.0001, 45.5, 246, 17.5543, 0.0425356, 0, 0, 1, 0, 62040
-9695.53, 605684, -114.22, 0.645297, -758.465, 0.854941, 0.287782, 0.958125, 0.351078, 0.648177, 3, 182, 246, 17.5543, 0.0425356, 0, 0, 1, 0, 62040
-9713.93, 350749, -294.142, 0.564665, -776.302, 0.0875172, 0.579563, 1.03299, 0.34851, 0.655882, 0.0001, 45.5, 246, 39.5273, 0.219594, 0, 0, 0, 0, 62044
-8298.18, 364733, -311.127, 0.59223, -791.922, 0.0902338, 0.565358, 0.993198, 0.349787, 0.651995, 0.0001, 91, 246, 39.5273, 0.219594, 0, 0, 1, 0, 62044
-6639.85, 379488, -328.591, 0.620187, -808.622, 0.0931754, 0.555783, 0.958125, 0.351078, 0.648177, 0.0001, 182, 246, 39.5273, 0.219594, 0, 0, 0, 0, 62044
-10598.6, 317933, -430.126, 3.60727, -772.434, 0.547477, 0.45748, 0.993198, 0.349787, 0.651995, 0.0001, 91, 246, 46.0491, 0.213955, 1.16513, 1, 1, 0, 62045
-10598.6, 317933, -430.126, 3.60727, -772.434, 0.547477, 0.45748, 0.993198, 0.349787, 0.651995, 3, 91, 246, 46.0491, 0.213955, 1.05336, 1, 1, 0, 62045
-8424.59, 339953, -248.986, 1.72699, -635.022, 0.116622, 0.383988, 0.958125, 0.351078, 0.648177, 0.0001, 182, 246, 29.7731, 0.147508, 0, 0, 1, 0, 62046
-8424.59, 339953, -248.986, 1.72699, -635.022, 0.116622, 0.383988, 0.958125, 0.351078, 0.648177, 3, 182, 246, 29.7731, 0.147508, 0, 0, 1, 0, 62046
-5913.91, 938205, -247.845, 0.078219, -1034.76, 0.625594, 0.395272, 1.03299, 0.34851, 0.655882, 0.0001, 45.5, 246, 31.351, 0.05934, 0, 0, 0, 0, 62048
-5168.56, 993688, -255.962, 0.0833765, -1148.84, 0.694253, 0.363094, 0.993198, 0.349787, 0.651995, 0.0001, 91, 246, 31.351, 0.05934, 0, 0, 1, 0, 62048
-11767.6, 152496, 17.4937, 1.85937, -1151.81, -0.0153469, 0.289501, 1.03299, 0.34851, 0.655882, 0.0001, 45.5, 246, 14.7386, 0.0163844, 0, 0, 1, 0, 62055
-11767.6, 152496, 17.4937, 1.85937, -1151.81, -0.0153469, 0.289501, 1.03299, 0.34851, 0.655882, 3, 45.5, 246, 14.7386, 0.0163844, 0, 0, 1, 0, 62055
-7327.36, 44628.6, -71.5475, 3.62989, -851.55, -0.0527155, 0.167799, 1.03299, 0.34851, 0.655882, 0.0001, 45.5, 246, 29.2381, 0.081625, 1.22874, 1, 1, 0, 62056
-6565.83, 57039.8, -107.903, 3.96295, -857.526, 0.0105562, 0.185532, 0.993198, 0.349787, 0.651995, 0.0001, 91, 246, 29.2381, 0.081625, 0, 0, 1, 0, 62056
-8233.2, 829365, -78.6239, 1.30597, -1011.34, 0.0244195, 0.233813, 0.9175, 0.352806, 0.64323, 3, 455, 246, 23.6095, 0.0161889, 0, 0, 0, 0, 62062
-10855.4, 215470, -156.098, 1.8457, -1037.37, 0.40169, 0.37834, 1.03299, 0.34851, 0.655882, 0.0001, 45.5, 246, 35.0771, 0.150325, 0, 0, 0, 0, 62068
-10855.4, 215470, -156.098, 1.8457, -1037.37, 0.40169, 0.37834, 1.03299, 0.34851, 0.655882, 3, 45.5, 246, 35.0771, 0.150325, 0, 0, 0, 0, 62068
-7421.06, 6007.17, -34.5121, 2.59728, -816.542, 0.439783, 0.264184, 1.03299, 0.34851, 0.655882, 3, 45.5, 246, 24.7748, 0.0550095, 0, 0, 1, 0, 62069
-6310.38, 61461.8, -142.106, 3.71007, -1130, 0.75868, 0.295532, 0.9175, 0.352806, 0.64323, 3, 455, 246, 24.7748, 0.0550095, 0, 0, 1, 0, 62069
-11022.2, 127850, -68.8162, 2.81879, -736.567, -0.0265002, 0.240733, 1.03299, 0.34851, 0.655882, 0.0001, 45.5, 246, 23.0897, 0.083304, 0, 0, 1, 0, 62071
-11022.2, 127850, -68.8162, 2.81879, -736.567, -0.0265002, 0.240733, 1.03299, 0.34851, 0.655882, 3, 45.5, 246, 23.0897, 0.083304, 0, 0, 1, 0, 62071
-7630.85, 146751, -123.063, 3.28939, -754.746, 0.0552005, 0.245508, 0.958125, 0.351078, 0.648177, 3, 182, 246, 23.0897, 0.083304, 0, 0, 1, 0, 62071
-2500.4, 335972, -437.113, 3.88106, -1244.08, 0.814223, 0.452942, 0.958125, 0.351078, 0.648177, 0.0001, 182, 246, 46.3082, 0.200709, 2.36567, 1, 0, 0, 62073
-2500.4, 335972, -437.113, 3.88106, -1244.08, 0.814223, 0.452942, 0.958125, 0.351078, 0.648177, 3, 182, 246, 46.3082, 0.200709, 2.4178, 1, 0, 0, 62073
-5642.06, 489563, -354.439, 0.0260766, -872.712, 0.283448, 0.553422, 0.958125, 0.351078, 0.648177, 3, 182, 246, 37.3793, 0.192826, 0, 0, 0, 0, 62076
-4233.31, 521675, -368.576, 0.0276525, -927.986, 0.301292, 0.543761, 0.9175, 0.352806, 0.64323, 0.0001, 455, 246, 37.3793, 0.192826, 3.08126, 1, 0, 0, 62076
-4233.31, 521675, -368.576, 0.0276525, -927.986, 0.301292, 0.543761, 0.9175, 0.352806, 0.64323, 3, 455, 246, 37.3793, 0.192826, 2.9654, 1, 0, 0, 62076
-9662.58, 82958.4, -56.9613, 2.8076, -579.847, 0.380708, 0.232972, 1.03299, 0.34851, 0.655882, 0.0001, 45.5, 246, 20.5029, 0.0701928, 0, 0, 1, 0, 62077
-9662.58, 82958.4, -56.9613, 2.8076, -579.847, 0.380708, 0.232972, 1.03299, 0.34851, 0.655882, 3, 45.5, 246, 20.5029, 0.0701928, 0, 0, 1, 0, 62077
-10984.1, 269700, -108.554, 1.00306, -657.526, -0.00400365, 0.366636, 1.03299, 0.34851, 0.655882, 0.0001, 45.5, 246, 22.7461, 0.0990258, 0, 0, 1, 0, 62078
-10984.1, 269700, -108.554, 1.00306, -657.526, -0.00400365, 0.366636, 1.03299, 0.34851, 0.655882, 3, 45.5, 246, 22.7461, 0.0990258, 0, 0, 1, 0, 62078
-9920.88, 277338, -119.623, 1.04916, -660.429, 0.000619274, 0.337021, 0.993198, 0.349787, 0.651995, 0.0001, 91, 246, 22.7461, 0.0990258, 0, 0, 1, 0, 62078
-10478.9, 179855, -138.078, 2.17009, -1072.25, 0.151661, 0.349649, 1.03299, 0.34851, 0.655882, 0.0001, 45.5, 246, 35.1647, 0.149877, 0, 0, 0, 0, 62081
-10478.9, 179855, -138.078, 2.17009, -1072.25, 0.151661, 0.349649, 1.03299, 0.34851, 0.655882, 3, 45.5, 246, 35.1647, 0.149877, 0, 0, 0, 0, 62081
-11637.5, 393363, -32.3988, 0.622178, -814.375, 0.63451, 0.336984, 1.03299, 0.34851, 0.655882, 0.0001, 45.5, 246, 17.5989, 0.0219797, 0, 0, 1, 0, 62091
-11637.5, 393363, -32.3988, 0.622178, -814.375, 0.63451, 0.336984, 1.03299, 0.34851, 0.655882, 3, 45.5, 246, 17.5989, 0.0219797, 0, 0, 1, 0, 62091
-10768.4, 420556, -38.5919, 0.66914, -905.899, 0.707253, 0.3023, 0.993198, 0.349787, 0.651995, 0.0001, 91, 246, 17.5989, 0.0219797, 0, 0, 1, 0, 62091
-9660.84, 453989, -45.9605, 0.721413, -1020.88, 0.798631, 0.272359, 0.958125, 0.351078, 0.648177, 0.0001, 182, 246, 17.5989, 0.0219797, 0, 0, 1, 0, 62091
-7473.02, 132619, -201.545, 2.80649, -973.716, 0.142382, 0.359136, 1.03299, 0.34851, 0.655882, 3, 45.5, 246, 47.9192, 0.217728, 0, 0, 1, 0, 62097
-2560, 173713, -296.185, 3.361, -1073.88, 0.236487, 0.381985, 0.958125, 0.351078, 0.648177, 0.0001, 182, 246, 47.9192, 0.217728, 1.29325, 1, 0, 0, 62097
-11225.5, 161176, -76.8421, 2.14224, -828.825, 0.164284, 0.299107, 1.03299, 0.34851, 0.655882, 0.0001, 45.5, 246, 24.3618, 0.0928023, 0, 0, 1, 0, 62098
-11225.5, 161176, -76.8421, 2.14224, -828.825, 0.164284, 0.299107, 1.03299, 0.34851, 0.655882, 3, 45.5, 246, 24.3618, 0.0928023, 0, 0, 1, 0, 62098
-9786.08, 174939, -98.9359, 2.30622, -857.573, 0.190955, 0.282303, 0.993198, 0.349787, 0.651995, 3, 91, 246, 24.3618, 0.0928023, 0, 0, 1, 0, 62098
-7964.3, 190206, -124.615, 2.4887, -893.164, 0.222908, 0.274873, 0.958125, 0.351078, 0.648177, 3, 182, 246, 24.3618, 0.0928023, 0, 0, 1, 0, 62098
-2795.09, 594343, -127.606, 5.18788, -1165.15, 0.675835, 0.221641, 0.9175, 0.352806, 0.64323, 3, 455, 246, 18.8239, 0.0108015, 0, 0, 0, 0, 62103
-10706.5, 602526, -131.973, 0.40667, -825.018, 0.763284, 0.362756, 1.03299, 0.34851, 0.655882, 0.0001, 45.5, 246, 23.452, 0.0496011, 0, 0, 1, 0, 62110
-10706.5, 602526, -131.973, 0.40667, -825.018, 0.763284, 0.362756, 1.03299, 0.34851, 0.655882, 3, 45.5, 246, 23.452, 0.0496011, 0, 0, 1, 0, 62110
-10804.1, 183772, -130.889, 1.82554, -675.39, -0.0143241, 0.357088, 1.03299, 0.34851, 0.655882, 0.0001, 45.5, 246, 29.4305, 0.142139, 0, 0, 1, 0, 62121
-10804.1, 183772, -130.889, 1.82554, -675.39, -0.0143241, 0.357088, 1.03299, 0.34851, 0.655882, 3, 45.5, 246, 29.4305, 0.142139, 0, 0, 1, 0, 62121
-9577.07, 375370, -101.007, 0.67346, -963.16, 0.772287, 0.32372, 0.993198, 0.349787, 0.651995, 0.0001, 91, 246, 22.5953, 0.0619478, 0, 0, 1, 0, 62125
-19559.3, 373372, -331.988, 3.3775, -1063.53, 0.224827, 0.374947, 1.03299, 0.34851, 0.655882, 0.0001, 45.5, 246, 45.857, 0.181147, 2.02479, 1, 0, 0, 62131
-19559.3, 373372, -331.988, 3.3775, -1063.53, 0.224827, 0.374947, 1.03299, 0.34851, 0.655882, 3, 45.5, 246, 45.857, 0.181147, 2.04073, 1, 0, 0, 62131
-10342.5, 323833, -231.841, 0.661297, -608.386, 0.465095, 0.4823, 1.03299, 0.34851, 0.655882, 0.0001, 45.5, 246, 31.4966, 0.171176, 0, 0, 1, 0, 62139
-10342.5, 323833, -231.841, 0.661297, -608.386, 0.465095, 0.4823, 1.03299, 0.34851, 0.655882, 3, 45.5, 246, 31.4966, 0.171176, 0, 0, 1, 0, 62139
-9139.89, 340245, -245.715, 0.707592, -661.225, 0.504207, 0.459502, 0.993198, 0.349787, 0.651995, 0.0001, 91, 246, 31.4966, 0.171176, 0, 0, 1, 0, 62139
-10962.8, 144102, -113.174, 3.22974, -903.72, -0.0298738, 0.224261, 1.03299, 0.34851, 0.655882, 0.0001, 45.5, 246, 31.262, 0.114836, 0, 0, 0, 0, 62143
-10962.8, 144102, -113.174, 3.22974, -903.72, -0.0298738, 0.224261, 1.03299, 0.34851, 0.655882, 3, 45.5, 246, 31.262, 0.114836, 0, 0, 0, 0, 62143
-8812.59, 158263, -150.908, 3.50754, -914.595, 0.0198986, 0.231508, 0.993198, 0.349787, 0.651995, 0.0001, 91, 246, 31.262, 0.114836, 0, 0, 1, 0, 62143
-8812.59, 158263, -150.908, 3.50754, -914.595, 0.0198986, 0.231508, 0.993198, 0.349787, 0.651995, 3, 91, 246, 31.262, 0.114836, 0, 0, 1, 0, 62143
-11453.5, 238329, -212.963, 2.45449, -1130.87, -0.0284583, 0.397377, 1.03299, 0.34851, 0.655882, 0.0001, 45.5, 246, 42.3112, 0.184223, 0, 0, 0, 0, 62148
-8860.65, 87762.1, -84.468, 3.08543, -1057.81, 0.262392, 0.234749, 1.03299, 0.34851, 0.655882, 0.0001, 45.5, 246, 31.4231, 0.112594, 0, 0, 1, 0, 62149
-8860.65, 87762.1, -84.468, 3.08543, -1057.81, 0.262392, 0.234749, 1.03299, 0.34851, 0.655882, 3, 45.5, 246, 31.4231, 0.112594, 0, 0, 1, 0, 62149
-9509.05, 752877, -127.061, 0.29981, -1124.45, 0.138934, 0.359878, 1.03299, 0.34851, 0.655882, 0.0001, 45.5, 246, 29.1799, 0.0424015, 0, 0, 1, 0, 62151
-9509.05, 752877, -127.061, 0.29981, -1124.45, 0.138934, 0.359878, 1.03299, 0.34851, 0.655882, 3, 45.5, 246, 29.1799, 0.0424015, 0, 0, 1, 0, 62151
-8571.64, 781532, -134.315, 0.311907, -1150.79, 0.142472, 0.325397, 0.993198, 0.349787, 0.651995, 3, 91, 246, 29.1799, 0.0424015, 0, 0, 1, 0, 62151
-22933.7, 558231, -193.838, 3.34824, -999.609, 0.054902, 0.211218, 0.993198, 0.349787, 0.651995, 0.0001, 91, 246, 29.6324, 0.074208, 0, 0, 1, 0, 62154
-22933.7, 558231, -193.838, 3.34824, -999.609, 0.054902, 0.211218, 0.993198, 0.349787, 0.651995, 3, 91, 246, 29.6324, 0.074208, 0, 0, 1, 0, 62154
-11938.8, 351710, -155.613, 1.21448, -1000.58, -0.00682313, 0.386569, 1.03299, 0.34851, 0.655882, 0.0001, 45.5, 246, 30.6371, 0.111201, 0, 0, 0, 0, 62156
-10429.5, 127975, -80.1448, 2.54935, -867.807, -0.0307592, 0.275997, 1.03299, 0.34851, 0.655882, 0.0001, 45.5, 246, 26.7032, 0.103112, 0, 0, 1, 0, 62163
-10429.5, 127975, -80.1448, 2.54935, -867.807, -0.0307592, 0.275997, 1.03299, 0.34851, 0.655882, 3, 45.5, 246, 26.7032, 0.103112, 0, 0, 1, 0, 62163
-7255.63, 154341, -137.679, 2.94443, -883.653, 0.0353381, 0.268914, 0.958125, 0.351078, 0.648177, 3, 182, 246, 26.7032, 0.103112, 0, 0, 1, 0, 62163
-6862.68, 735648, -325.264, 0.152394, -986.905, 0.11772, 0.47785, 1.03299, 0.34851, 0.655882, 0.0001, 45.5, 246, 34.6193, 0.112005, 0, 0, 0, 0, 62164
-6862.68, 735648, -325.264, 0.152394, -986.905, 0.11772, 0.47785, 1.03299, 0.34851, 0.655882, 3, 45.5, 246, 34.6193, 0.112005, 0, 0, 0, 0, 62164
868.873, 292965, -308.911, 4.76332, -1174.22, 0.238487, 0.316277, 0.9175, 0.352806, 0.64323, 3, 455, 246, 31.2015, 0.10232, 1.08682, 1, 0, 0, 62165
-10828.4, 727677, -222.585, 0.38972, -753.071, 0.00481104, 0.405159, 1.03299, 0.34851, 0.655882, 3, 45.5, 246, 25.9946, 0.0794601, 0, 0, 0, 0, 62177
-16561.4, 404673, -474.915, 3.68727, -615.105, 0.882689, 0.443334, 0.993198, 0.349787, 0.651995, 0.0001, 91, 246, 39.684, 0.189964, 1.00374, 1, 1, 0, 62180
-12499.4, 572943, -9.57108, 0.476216, -758.887, 0.139557, 0.336732, 1.03299, 0.34851, 0.655882, 0.0001, 45.5, 246, 16.0789, 0.00632359, 0, 0, 1, 0, 62181
-12499.4, 572943, -9.57108, 0.476216, -758.887, 0.139557, 0.336732, 1.03299, 0.34851, 0.655882, 3, 45.5, 246, 16.0789, 0.00632359, 0, 0, 1, 0, 62181
-11574.6, 587513, -13.2431, 0.496719, -776.212, 0.143766, 0.301215, 0.993198, 0.349787, 0.651995, 3, 91, 246, 16.0789, 0.00632359, 0, 0, 1, 0, 62181
-22393.7, 364419, -415.41, 3.56247, -541.909, 0.212562, 0.409291, 1.03299, 0.34851, 0.655882, 0.0001, 45.5, 246, 43.3436, 0.205948, 1.00203, 1, 0, 0, 62193
-15085, 377263, -476.622, 3.96847, -608.446, 0.284334, 0.442661, 0.993198, 0.349787, 0.651995, 0.0001, 91, 246, 43.3436, 0.205948, 1.29376, 1, 1, 0, 62193
-15085, 377263, -476.622, 3.96847, -608.446, 0.284334, 0.442661, 0.993198, 0.349787, 0.651995, 3, 91, 246, 43.3436, 0.205948, 1.2322, 1, 1, 0, 62193
-5361.58, 47405.2, -131.698, 2.84282, -875.044, 0.000357193, 0.275642, 0.993198, 0.349787, 0.651995, 0.0001, 91, 246, 45.4171, 0.128995, 0, 0, 1, 1, 62201
-5361.58, 47405.2, -131.698, 2.84282, -875.044, 0.000357193, 0.275642, 0.993198, 0.349787, 0.651995, 3, 91, 246, 45.4171, 0.128995, 0, 0, 1, 1, 62201
-2923.72, 81154.2, -219.644, 3.41977, -923.879, 0.100641, 0.307995, 0.9175, 0.352806, 0.64323, 0.0001, 455, 246, 45.4171, 0.128995, 1.14858, 1, 1, 0, 62201
-2923.72, 81154.2, -219.644, 3.41977, -923.879, 0.100641, 0.307995, 0.9175, 0.352806, 0.64323, 3, 455, 246, 45.4171, 0.128995, 1.11683, 1, 1, 0, 62201
-8637.23, 15960.9, -18.7791, 1.46539, -887.743, 0.110152, 0.298653, 0.993198, 0.349787, 0.651995, 3, 91, 246, 13.8101, 0.0715443, 0, 0, 1, 1, 62202
-7988.13, 288972, -219.546, 1.01713, -1138.36, 0.395804, 0.447081, 0.993198, 0.349787, 0.651995, 0.0001, 91, 246, 38.1773, 0.18405, 0, 0, 1, 0, 62227
-6313.42, 320778, -241.003, 1.08824, -1221.37, 0.427398, 0.430475, 0.958125, 0.351078, 0.648177, 0.0001, 182, 246, 38.1773, 0.18405, 0, 0, 0, 0, 62227
-7547.72, 646185, -332.785, 0.32757, -1120.99, 0.0151605, 0.506664, 1.03299, 0.34851, 0.655882, 0.0001, 45.5, 246, 38.7233, 0.133274, 0, 0, 0, 0, 62228
-7547.72, 646185, -332.785, 0.32757, -1120.99, 0.0151605, 0.506664, 1.03299, 0.34851, 0.655882, 3, 45.5, 246, 38.7233, 0.133274, 0, 0, 0, 0, 62228
-11741.9, 112816, -4.92943, 3.28303, -1068.03, 0.0166584, 0.178259, 1.03299, 0.34851, 0.655882, 0.0001, 45.5, 246, 18.5157, 0.0466093, 0, 0, 0, 0, 62234
-11741.9, 112816, -4.92943, 3.28303, -1068.03, 0.0166584, 0.178259, 1.03299, 0.34851, 0.655882, 3, 45.5, 246, 18.5157, 0.0466093, 0, 0, 0, 0, 62234
-9153.79, 84468.4, -4.5448, 1.08408, -1136.31, 0.00664062, 0.298645, 0.993198, 0.349787, 0.651995, 0.0001, 91, 246, 10.432, 0.0248395, 0, 0, 1, 0, 62235
-9153.79, 84468.4, -4.5448, 1.08408, -1136.31, 0.00664062, 0.298645, 0.993198, 0.349787, 0.651995, 3, 91, 246, 10.432, 0.0248395, 0, 0, 1, 0, 62235
-10347.6, 413651, -86.6262, 0.829367, -1048.11, 0.30873, 0.313541, 0.993198, 0.349787, 0.651995, 3, 91, 246, 23.6446, 0.0502662, 0, 0, 1, 0, 62237
-11567.6, 245861, -49.5928, 1.17725, -703.19, -0.00213669, 0.330429, 1.03299, 0.34851, 0.655882, 0.0001, 45.5, 246, 17.2514, 0.0527545, 0, 0, 1, 0, 62238
-11567.6, 245861, -49.5928, 1.17725, -703.19, -0.00213669, 0.330429, 1.03299, 0.34851, 0.655882, 3, 45.5, 246, 17.2514, 0.0527545, 0, 0, 1, 0, 62238
-10505.7, 254395, -59.6184, 1.23424, -705.035, 0.00424582, 0.299987, 0.993198, 0.349787, 0.651995, 0.0001, 91, 246, 17.2514, 0.0527545, 0, 0, 1, 0, 62238
-5547.11, 25139.8, -108.496, 3.85237, -1007.75, 0.0610668, 0.2087, 0.993198, 0.349787, 0.651995, 3, 91, 246, 35.249, 0.0566387, 0, 0, 1, 1, 62239
-3037.04, 71465.1, -240.421, 4.92722, -1112.73, 0.264111, 0.331399, 0.9175, 0.352806, 0.64323, 0.0001, 455, 246, 35.249, 0.0566387, 1.0249, 1, 1, 0, 62239
-11567.4, 381697, -117.537, 0.821575, -756.851, 0.154396, 0.365346, 1.03299, 0.34851, 0.655882, 0.0001, 45.5, 246, 22.9968, 0.0774445, 0, 0, 1, 0, 62241
-11567.4, 381697, -117.537, 0.821575, -756.851, 0.154396, 0.365346, 1.03299, 0.34851, 0.655882, 3, 45.5, 246, 22.9968, 0.0774445, 0, 0, 1, 0, 62241
-6488.45, 431073, -156.207, 0.965443, -837.259, 0.180679, 0.278537, 0.9175, 0.352806, 0.64323, 0.0001, 455, 246, 22.9968, 0.0774445, 0, 0, 0, 0, 62241
-6488.45, 431073, -156.207, 0.965443, -837.259, 0.180679, 0.278537, 0.9175, 0.352806, 0.64323, 3, 455, 246, 22.9968, 0.0774445, 0, 0, 0, 0, 62241
-8745.8, 812573, -240.604, 0.102329, -564.535, 0.397236, 0.403893, 1.03299, 0.34851, 0.655882, 0.0001, 45.5, 246, 21.5049, 0.070758, 0, 0, 1, 0, 62242
-7300.18, 865037, -255.917, 0.113297, -647.103, 0.454382, 0.345111, 0.958125, 0.351078, 0.648177, 0.0001, 182, 246, 21.5049, 0.070758, 0, 0, 1, 0, 62242
-8321.32, 137209, -182.985, 2.49856, -989.202, 0.737912, 0.360481, 1.03299, 0.34851, 0.655882, 0.0001, 45.5, 246, 43.5387, 0.19743, 0, 0, 1, 0, 62247
-8321.32, 137209, -182.985, 2.49856, -989.202, 0.737912, 0.360481, 1.03299, 0.34851, 0.655882, 3, 45.5, 246, 43.5387, 0.19743, 0, 0, 1, 0, 62247
-8572.24, 80989.8, -51.6492, 2.63886, -1163.88, 0.200764, 0.261399, 0.993198, 0.349787, 0.651995, 0.0001, 91, 246, 21.0198, 0.0761948, 0, 0, 1, 0, 62248
-8572.24, 80989.8, -51.6492, 2.63886, -1163.88, 0.200764, 0.261399, 0.993198, 0.349787, 0.651995, 3, 91, 246, 21.0198, 0.0761948, 0, 0, 1, 0, 62248
-11544.2, 314280, -193.612, 1.30662, -912.003, 0.138848, 0.424236, 1.03299, 0.34851, 0.655882, 0.0001, 45.5, 246, 33.6888, 0.147647, 0, 0, 0, 0, 62249
-11544.2, 314280, -193.612, 1.30662, -912.003, 0.138848, 0.424236, 1.03299, 0.34851, 0.655882, 3, 45.5, 246, 33.6888, 0.147647, 0, 0, 0, 0, 62249
-3693.6, 354706, -402.084, 4.01484, -1199.93, 0.0646251, 0.392678, 0.958125, 0.351078, 0.648177, 0.0001, 182, 246, 44.7169, 0.176047, 1.03901, 1, 0, 0, 62250
-3693.6, 354706, -402.084, 4.01484, -1199.93, 0.0646251, 0.392678, 0.958125, 0.351078, 0.648177, 3, 182, 246, 44.7169, 0.176047, 1.0928, 1, 0, 0, 62250
-10410.9, 250771, -30.8367, 1.22056, -1145.14, 0.159136, 0.293191, 0.993198, 0.349787, 0.651995, 0.0001, 91, 246, 19.222, 0.0317031, 0, 0, 1, 0, 62253
-9626.72, 187756, -246.115, 1.95944, -691.157, 0.674733, 0.469256, 1.03299, 0.34851, 0.655882, 3, 45.5, 246, 44.0563, 0.232252, 0, 0, 1, 0, 62257
-10428.8, 117296, -31.05, 2.06243, -1049.83, -0.00622117, 0.292707, 1.03299, 0.34851, 0.655882, 0.0001, 45.5, 246, 20.5399, 0.0672382, 0, 0, 1, 0, 62262
-10428.8, 117296, -31.05, 2.06243, -1049.83, -0.00622117, 0.292707, 1.03299, 0.34851, 0.655882, 3, 45.5, 246, 20.5399, 0.0672382, 0, 0, 1, 0, 62262
-2851.2, 216982, -365.005, 3.39409, -772.974, 0.127056, 0.442653, 0.958125, 0.351078, 0.648177, 0.0001, 182, 246, 47.3773, 0.227113, 1.5623, 1, 0, 0, 62282
-2851.2, 216982, -365.005, 3.39409, -772.974, 0.127056, 0.442653, 0.958125, 0.351078, 0.648177, 3, 182, 246, 47.3773, 0.227113, 1.37458, 1, 0, 0, 62282
-14405.2, 185778, -26.5782, 3.16754, -1184.56, 0.0340566, 0.188594, 1.03299, 0.34851, 0.655882, 0.0001, 45.5, 246, 23.3196, 0.055147, 0, 0, 0, 0, 62283
-14405.2, 185778, -26.5782, 3.16754, -1184.56, 0.0340566, 0.188594, 1.03299, 0.34851, 0.655882, 3, 45.5, 246, 23.3196, 0.055147, 0, 0, 0, 0, 62283
-10042.4, 108930, -41.3748, 2.07492, -1095.16, -0.0202105, 0.298692, 1.03299, 0.34851, 0.655882, 0.0001, 45.5, 246, 22.8563, 0.0821551, 0, 0, 1, 0, 62285
-10042.4, 108930, -41.3748, 2.07492, -1095.16, -0.0202105, 0.298692, 1.03299, 0.34851, 0.655882, 3, 45.5, 246, 22.8563, 0.0821551, 0, 0, 1, 0, 62285
-7312.88, 276405, -217.395, 0.0204783, -1174.61, 0.697338, 0.509496, 0.993198, 0.349787, 0.651995, 0.0001, 91, 246, 39.9488, 0.232989, 1.73827, 1, 1, 0, 62287
-7312.88, 276405, -217.395, 0.0204783, -1174.61, 0.697338, 0.509496, 0.993198, 0.349787, 0.651995, 3, 91, 246, 39.9488, 0.232989, 1.65537, 1, 1, 0, 62287
-7066.78, 315997, -224.131, 0.0219277, -1320.2, 0.783698, 0.493119, 0.958125, 0.351078, 0.648177, 0.0001, 182, 246, 39.9488, 0.232989, 1.94152, 1, 0, 0, 62287
-7066.78, 315997, -224.131, 0.0219277, -1320.2, 0.783698, 0.493119, 0.958125, 0.351078, 0.648177, 3, 182, 246, 39.9488, 0.232989, 1.85008, 1, 0, 0, 62287
-6658.29, 386451, -232.744, 0.0241279, -1578.83, 0.937112, 0.476501, 0.9175, 0.352806, 0.64323, 0.0001, 455, 246, 39.9488, 0.232989, 2.63754, 1, 0, 0, 62287
-6658.29, 386451, -232.744, 0.0241279, -1578.83, 0.937112, 0.476501, 0.9175, 0.352806, 0.64323, 3, 455, 246, 39.9488, 0.232989, 2.51141, 1, 0, 0, 62287
-10903.9, 291231, -218.422, 1.15429, -777.735, 0.167009, 0.467294, 1.03299, 0.34851, 0.655882, 3, 45.5, 246, 35.2479, 0.179467, 0, 0, 0, 0, 62293
-8355.12, 89420.7, -106.078, 3.55569, -1025.2, 0.0933488, 0.190819, 1.03299, 0.34851, 0.655882, 0.0001, 45.5, 246, 34.5367, 0.117619, 0, 0, 0, 0, 62320
-8355.12, 89420.7, -106.078, 3.55569, -1025.2, 0.0933488, 0.190819, 1.03299, 0.34851, 0.655882, 3, 45.5, 246, 34.5367, 0.117619, 0, 0, 0, 0, 62320
294.327, 166776, -305.985, 5.08778, -1227.61, 0.385533, 0.340066, 0.9175, 0.352806, 0.64323, 0.0001, 455, 246, 34.5367, 0.117619, 2.00422, 1, 0, 0, 62320
294.327, 166776, -305.985, 5.08778, -1227.61, 0.385533, 0.340066, 0.9175, 0.352806, 0.64323, 3, 455, 246, 34.5367, 0.117619, 2.01832, 1, 0, 0, 62320
-7363.45, 92835.1, -119.465, 2.12941, -1143.56, 0.000356844, 0.333838, 0.993198, 0.349787, 0.651995, 0.0001, 91, 246, 37.4149, 0.190141, 0, 0, 1, 0, 62322
-7363.45, 92835.1, -119.465, 2.12941, -1143.56, 0.000356844, 0.333838, 0.993198, 0.349787, 0.651995, 3, 91, 246, 37.4149, 0.190141, 0, 0, 1, 0, 62322
-8850.48, 62760.7, 1.70475, 0.34349, -1017.92, -0.000369119, 0.340735, 1.03299, 0.34851, 0.655882, 0.0001, 45.5, 246, 7.68619, 0.0102673, 0, 0, 1, 0, 62329
-8850.48, 62760.7, 1.70475, 0.34349, -1017.92, -0.000369119, 0.340735, 1.03299, 0.34851, 0.655882, 3, 45.5, 246, 7.68619, 0.0102673, 0, 0, 1, 0, 62329
-11018.2, 230263, -197.72, 1.26422, -512.428, 0.847477, 0.43374, 1.03299, 0.34851, 0.655882, 0.0001, 45.5, 246, 30.9541, 0.169766, 0, 0, 1, 0, 62340
-11018.2, 230263, -197.72, 1.26422, -512.428, 0.847477, 0.43374, 1.03299, 0.34851, 0.655882, 3, 45.5, 246, 30.9541, 0.169766, 0, 0, 1, 0, 62340
-7660.44, 270637, -235.276, 1.55912, -720.826, 1.18147, 0.398245, 0.958125, 0.351078, 0.648177, 0.0001, 182, 246, 30.9541, 0.169766, 0, 0, 1, 0, 62340
-9766.47, 400558, -253.62, 0.78089, -1052.06, 0.00304866, 0.490966, 1.03299, 0.34851, 0.655882, 3, 45.5, 246, 37.9734, 0.163187, 0, 0, 0, 0, 62345
-9172.57, 319558, -273.203, 0.679827, -943.795, 0.667214, 0.545086, 1.03299, 0.34851, 0.655882, 0.0001, 45.5, 246, 40.2523, 0.204646, 0, 0, 0, 0, 62346
-9034.03, 380613, -291.184, 0.739124, -1126.24, 0.124874, 0.551674, 1.03299, 0.34851, 0.655882, 0.0001, 45.5, 246, 42.5175, 0.196149, 0, 0, 0, 0, 62348
-9034.03, 380613, -291.184, 0.739124, -1126.24, 0.124874, 0.551674, 1.03299, 0.34851, 0.655882, 3, 45.5, 246, 42.5175, 0.196149, 0, 0, 0, 0, 62348
-2714.95, 118542, -245.988, 3.55523, -1038.43, 0.0815896, 0.317971, 0.958125, 0.351078, 0.648177, 0.0001, 182, 246, 46.9959, 0.18876, 1.30927, 1, 1, 0, 62351
-2714.95, 118542, -245.988, 3.55523, -1038.43, 0.0815896, 0.317971, 0.958125, 0.351078, 0.648177, 3, 182, 246, 46.9959, 0.18876, 1.124, 1, 1, 0, 62351
-9484.98, 496874, -352.112, 0.492263, -927.552, -0.000687749, 0.586058, 1.03299, 0.34851, 0.655882, 0.0001, 45.5, 246, 40.0439, 0.187103, 0, 0, 0, 0, 62353
-9484.98, 496874, -352.112, 0.492263, -927.552, -0.000687749, 0.586058, 1.03299, 0.34851, 0.655882, 3, 45.5, 246, 40.0439, 0.187103, 0, 0, 0, 0, 62353
-10960, 251445, -292.698, 2.28876, -959.437, 0.083471, 0.514174, 1.03299, 0.34851, 0.655882, 0.0001, 45.5, 246, 48.6494, 0.24181, 0, 0, 0, 0, 62363
-10960, 251445, -292.698, 2.28876, -959.437, 0.083471, 0.514174, 1.03299, 0.34851, 0.655882, 3, 45.5, 246, 48.6494, 0.24181, 0, 0, 0, 0, 62363
-9110.63, 343998, -129.513, 0.452478, -930.784, 0.800669, 0.380493, 1.03299, 0.34851, 0.655882, 0.0001, 45.5, 246, 26.4866, 0.0854739, 0, 0, 1, 0, 62374
-5682.8, 373108, -484.133, 3.61001, -737.502, 0.0599041, 0.525071, 0.958125, 0.351078, 0.648177, 0.0001, 182, 246, 44.0727, 0.212743, 1.69115, 1, 0, 0, 62382
-5682.8, 373108, -484.133, 3.61001, -737.502, 0.0599041, 0.525071, 0.958125, 0.351078, 0.648177, 3, 182, 246, 44.0727, 0.212743, 1.56568, 1, 0, 0, 62382
-12566.4, 313520, -38.7911, 1.16788, -1038.84, -0.00500594, 0.326394, 1.03299, 0.34851, 0.655882, 0.0001, 45.5, 246, 21.1495, 0.0385364, 0, 0, 1, 0, 62389
-12566.4, 313520, -38.7911, 1.16788, -1038.84, -0.00500594, 0.326394, 1.03299, 0.34851, 0.655882, 3, 45.5, 246, 21.1495, 0.0385364, 0, 0, 1, 0, 62389
-4863.09, 273058, -306.278, 3.103, -1101.31, 0.457814, 0.384732, 0.958125, 0.351078, 0.648177, 0.0001, 182, 246, 40.3878, 0.177892, 0, 0, 0, 0, 62391
-4863.09, 273058, -306.278, 3.103, -1101.31, 0.457814, 0.384732, 0.958125, 0.351078, 0.648177, 3, 182, 246, 40.3878, 0.177892, 0, 0, 0, 0, 62391
-12992.1, 122779, 24.7599, 3.43267, -841.737, 0.463166, 0.139669, 1.03299, 0.34851, 0.655882, 0.0001, 45.5, 246, 12.0437, 0.0178909, 0, 0, 0, 0, 62394
-12992.1, 122779, 24.7599, 3.43267, -841.737, 0.463166, 0.139669, 1.03299, 0.34851, 0.655882, 3, 45.5, 246, 12.0437, 0.0178909, 0, 0, 0, 0, 62394
-10625, 572321, -246.617, 0.535812, -845.454, 0.0110534, 0.441324, 1.03299, 0.34851, 0.655882, 0.0001, 45.5, 246, 30.5208, 0.111871, 0, 0, 0, 0, 62395
-11226.8, 282731, -237.573, 1.86236, -1161.37, 0.0182588, 0.465941, 1.03299, 0.34851, 0.655882, 0.0001, 45.5, 246, 42.9879, 0.19344, 0, 0, 0, 0, 62396
-11226.8, 282731, -237.573, 1.86236, -1161.37, 0.0182588, 0.465941, 1.03299, 0.34851, 0.655882, 3, 45.5, 246, 42.9879, 0.19344, 0, 0, 0, 0, 62396
-2221.08, 267011, -398.399, 4.11979, -1009.38, 0.0677154, 0.401154, 0.958125, 0.351078, 0.648177, 0.0001, 182, 246, 46.7335, 0.19966, 2.66767, 1, 0, 0, 62399
-2221.08, 267011, -398.399, 4.11979, -1009.38, 0.0677154, 0.401154, 0.958125, 0.351078, 0.648177, 3, 182, 246, 46.7335, 0.19966, 2.47055, 1, 0, 0, 62399
-11025.1, 275019, -133.267, 1.07492, -707.137, 0.00583284, 0.383208, 1.03299, 0.34851, 0.655882, 0.0001, 45.5, 246, 26.0408, 0.118203, 0, 0, 1, 0, 62403
-11025.1, 275019, -133.267, 1.07492, -707.137, 0.00583284, 0.383208, 1.03299, 0.34851, 0.655882, 3, 45.5, 246, 26.0408, 0.118203, 0, 0, 1, 0, 62403
-9788.87, 284126, -146.671, 1.12693, -712.143, 0.0111651, 0.35558, 0.993198, 0.349787, 0.651995, 3, 91, 246, 26.0408, 0.118203, 0, 0, 1, 0, 62403
-2834.64, 213248, -262.391, 2.60124, -985.297, 0.489332, 0.369939, 0.9175, 0.352806, 0.64323, 0.0001, 455, 246, 36.882, 0.183955, 0, 0, 0, 0, 62406
-2834.64, 213248, -262.391, 2.60124, -985.297, 0.489332, 0.369939, 0.9175, 0.352806, 0.64323, 3, 455, 246, 36.882, 0.183955, 0, 0, 0, 0, 62406
-9413.88, 176709, -215.476, 2.12607, -795.736, 0.239687, 0.432997, 1.03299, 0.34851, 0.655882, 3, 45.5, 246, 43.5858, 0.222884, 0, 0, 1, 0, 62416
-355.717, 237006, -342.992, 2.82863, -995.461, 0.375939, 0.449129, 0.9175, 0.352806, 0.64323, 3, 455, 246, 43.5858, 0.222884, 1.03372, 1, 0, 0, 62416
-10459, 444326, -69.6428, 1.05218, -623.171, 0.0131856, 0.272311, 0.958125, 0.351078, 0.648177, 3, 182, 246, 15.7154, 0.0341909, 0, 0, 1, 0, 62418
-11545.5, 602673, -115.376, 0.494333, -797.594, 0.177417, 0.358191, 1.03299, 0.34851, 0.655882, 0.0001, 45.5, 246, 22.3292, 0.0487412, 0, 0, 1, 0, 62420
-11545.5, 602673, -115.376, 0.494333, -797.594, 0.177417, 0.358191, 1.03299, 0.34851, 0.655882, 3, 45.5, 246, 22.3292, 0.0487412, 0, 0, 1, 0, 62420
-6538.59, -45275.5, 11.9939, 3.22318, -735.327, 0.00962558, 0.224312, 1.03299, 0.34851, 0.655882, 0.0001, 45.5, 246, 8.11914, 0.0411384, 0, 0, 1, 1, 62427
-8671.34, -14412.9, -79.1887, 4.40163, -787.069, 0.224239, 0.31921, 0.9175, 0.352806, 0.64323, 3, 455, 246, 8.11914, 0.0411384, 0, 0, 1, 1, 62427
-11656.9, 306250, -60.0753, 0.962966, -790, 0.134765, 0.338803, 1.03299, 0.34851, 0.655882, 0.0001, 45.5, 246, 19.2496, 0.0513702, 0, 0, 1, 0, 62431
-11656.9, 306250, -60.0753, 0.962966, -790, 0.134765, 0.338803, 1.03299, 0.34851, 0.655882, 3, 45.5, 246, 19.2496, 0.0513702, 0, 0, 1, 0, 62431
-10555, 319634, -69.8374, 1.01323, -809.169, 0.142076, 0.306792, 0.993198, 0.349787, 0.651995, 3, 91, 246, 19.2496, 0.0513702, 0, 0, 1, 0, 62431
-9447.12, 677784, -98.7214, 0.530412, -898.247, 0.0839095, 0.283022, 0.958125, 0.351078, 0.648177, 3, 182, 246, 22.3205, 0.0345628, 0, 0, 1, 0, 62433
-7200.43, 119644, -184.883, 2.73473, -1022.44, 0.023268, 0.358581, 1.03299, 0.34851, 0.655882, 3, 45.5, 246, 47.8385, 0.220037, 0, 0, 1, 0, 62436
-2915.71, 160318, -275.221, 3.21971, -1078.24, 0.101978, 0.375452, 0.958125, 0.351078, 0.648177, 0.0001, 182, 246, 47.8385, 0.220037, 1.09994, 1, 1, 0, 62436
-9196.71, 289011, -115.87, 0.839732, -915.321, 0.0216013, 0.340192, 0.993198, 0.349787, 0.651995, 0.0001, 91, 246, 25.5804, 0.0963623, 0, 0, 1, 0, 62438
-8615.95, 336460, -178.525, 0.965363, -1114.18, 0.0294058, 0.3835, 0.993198, 0.349787, 0.651995, 3, 91, 246, 33.0356, 0.128952, 0, 0, 1, 0, 62441
-11237.7, 262744, -253.293, 2.27469, -1172.62, -0.0122283, 0.463342, 1.03299, 0.34851, 0.655882, 0.0001, 45.5, 246, 45.9935, 0.209156, 0, 0, 0, 0, 62444
-11237.7, 262744, -253.293, 2.27469, -1172.62, -0.0122283, 0.463342, 1.03299, 0.34851, 0.655882, 3, 45.5, 246, 45.9935, 0.209156, 0, 0, 0, 0, 62444
-11825.6, 191156, -2.66465, 1.50544, -870.132, 0.158499, 0.307035, 1.03299, 0.34851, 0.655882, 0.0001, 45.5, 246, 14.1628, 0.0210346, 0, 0, 1, 0, 62451
-11825.6, 191156, -2.66465, 1.50544, -870.132, 0.158499, 0.307035, 1.03299, 0.34851, 0.655882, 3, 45.5, 246, 14.1628, 0.0210346, 0, 0, 1, 0, 62451
-5595.7, 67747.2, -145.528, 3.5663, -1078.91, 0.385666, 0.262815, 0.958125, 0.351078, 0.648177, 3, 182, 246, 33.5227, 0.0989237, 0, 0, 1, 0, 62453
-7523.43, -16.8019, -14.4569, 2.92434, -1043.32, 0.154034, 0.242147, 1.03299, 0.34851, 0.655882, 0.0001, 45.5, 246, 20.2299, 0.0641619, 0, 0, 1, 1, 62456
-7523.43, -16.8019, -14.4569, 2.92434, -1043.32, 0.154034, 0.242147, 1.03299, 0.34851, 0.655882, 3, 45.5, 246, 20.2299, 0.0641619, 0, 0, 1, 1, 62456
-3733.72, 50546.7, -161.731, 3.07878, -806.574, 0.505621, 0.24681, 1.03299, 0.34851, 0.655882, 0.0001, 45.5, 246, 52.8614, 0.146474, 1.27816, 1, 1, 0, 62459
-3733.72, 50546.7, -161.731, 3.07878, -806.574, 0.505621, 0.24681, 1.03299, 0.34851, 0.655882, 3, 45.5, 246, 52.8614, 0.146474, 1.09564, 1, 1, 0, 62459
-2701.55, 65285.4, -200.705, 3.43816, -896.065, 0.600138, 0.252104, 0.993198, 0.349787, 0.651995, 0.0001, 91, 246, 52.8614, 0.146474, 1.38247, 1, 1, 0, 62459
-2701.55, 65285.4, -200.705, 3.43816, -896.065, 0.600138, 0.252104, 0.993198, 0.349787, 0.651995, 3, 91, 246, 52.8614, 0.146474, 1.22923, 1, 1, 0, 62459
-1104.31, 84637, -250.876, 3.88327, -1017.46, 0.727932, 0.277177, 0.958125, 0.351078, 0.648177, 0.0001, 182, 246, 52.8614, 0.146474, 1.73078, 1, 1, 0, 62459
-1104.31, 84637, -250.876, 3.88327, -1017.46, 0.727932, 0.277177, 0.958125, 0.351078, 0.648177, 3, 182, 246, 52.8614, 0.146474, 1.59554, 1, 1, 0, 62459
-6031.5, 138146, -290.14, 3.14812, -599.188, 0.64182, 0.344763, 1.03299, 0.34851, 0.655882, 0.0001, 45.5, 246, 52.5072, 0.222821, 1.54566, 1, 0, 0, 62462
-6031.5, 138146, -290.14, 3.14812, -599.188, 0.64182, 0.344763, 1.03299, 0.34851, 0.655882, 3, 45.5, 246, 52.5072, 0.222821, 1.47194, 1, 0, 0, 62462
-3171.46, 152299, -335.937, 3.55917, -698.604, 0.769136, 0.35965, 0.993198, 0.349787, 0.651995, 0.0001, 91, 246, 52.5072, 0.222821, 1.77286, 1, 1, 0, 62462
-3171.46, 152299, -335.937, 3.55917, -698.604, 0.769136, 0.35965, 0.993198, 0.349787, 0.651995, 3, 91, 246, 52.5072, 0.222821, 1.67356, 1, 1, 0, 62462
667.309, 172111, -395.366, 4.08442, -838.609, 0.948434, 0.397359, 0.958125, 0.351078, 0.648177, 0.0001, 182, 246, 52.5072, 0.222821, 3.48401, 1, 0, 0, 62462
667.309, 172111, -395.366, 4.08442, -838.609, 0.948434, 0.397359, 0.958125, 0.351078, 0.648177, 3, 182, 246, 52.5072, 0.222821, 3.24535, 1, 0, 0, 62462
-6791.9, 27029.2, -78.3742, 3.30367, -1109.19, 0.23702, 0.242395, 0.993198, 0.349787, 0.651995, 0.0001, 91, 246, 29.3694, 0.0724102, 0, 0, 1, 1, 62465
-6791.9, 27029.2, -78.3742, 3.30367, -1109.19, 0.23702, 0.242395, 0.993198, 0.349787, 0.651995, 3, 91, 246, 29.3694, 0.0724102, 0, 0, 1, 1, 62465
-9928.87, 480203, -144.505, 0.566461, -1135.36, 0.208333, 0.378327, 1.03299, 0.34851, 0.655882, 0.0001, 45.5, 246, 30.07, 0.0750542, 0, 0, 0, 0, 62477
-9928.87, 480203, -144.505, 0.566461, -1135.36, 0.208333, 0.378327, 1.03299, 0.34851, 0.655882, 3, 45.5, 246, 30.07, 0.0750542, 0, 0, 0, 0, 62477
-8725.18, 509495, -156.024, 0.59472, -1176.49, 0.216954, 0.346343, 0.993198, 0.349787, 0.651995, 3, 91, 246, 30.07, 0.0750542, 0, 0, 1, 0, 62477
-4146.91, 329944, -407.355, 4.09206, -1005.08, 0.0701058, 0.394413, 0.958125, 0.351078, 0.648177, 0.0001, 182, 246, 43.615, 0.181602, 1.61451, 1, 0, 0, 62478
-4146.91, 329944, -407.355, 4.09206, -1005.08, 0.0701058, 0.394413, 0.958125, 0.351078, 0.648177, 3, 182, 246, 43.615, 0.181602, 1.48675, 1, 0, 0, 62478
-6081.37, 391157, -330.764, 0.551312, -992.664, 0.373449, 0.561733, 0.958125, 0.351078, 0.648177, 0.0001, 182, 246, 41.0036, 0.221241, 0, 0, 0, 0, 62481
-8054.33, 27999.7, -46.4833, 2.26785, -1103.96, 0.397182, 0.285089, 0.993198, 0.349787, 0.651995, 0.0001, 91, 246, 22.8456, 0.0851765, 0, 0, 1, 1, 62484
-8054.33, 27999.7, -46.4833, 2.26785, -1103.96, 0.397182, 0.285089, 0.993198, 0.349787, 0.651995, 3, 91, 246, 22.8456, 0.0851765, 0, 0, 1, 1, 62484
-7517.01, 767065, -414.159, 0.0858887, -845.931, 0.141822, 0.550964, 1.03299, 0.34851, 0.655882, 3, 45.5, 246, 35.0934, 0.137435, 0, 0, 0, 0, 62487
-10271.5, 95823.3, -7.9954, 2.14191, -1158.17, -0.0137747, 0.283364, 1.03299, 0.34851, 0.655882, 0.0001, 45.5, 246, 17.7725, 0.0513648, 0, 0, 1, 0, 62494
-10271.5, 95823.3, -7.9954, 2.14191, -1158.17, -0.0137747, 0.283364, 1.03299, 0.34851, 0.655882, 3, 45.5, 246, 17.7725, 0.0513648, 0, 0, 1, 0, 62494
-9471.55, 118975, -31.7265, 2.2826, -1158.73, 0.00770394, 0.265266, 0.993198, 0.349787, 0.651995, 0.0001, 91, 246, 17.7725, 0.0513648, 0, 0, 1, 0, 62494
-9471.55, 118975, -31.7265, 2.2826, -1158.73, 0.00770394, 0.265266, 0.993198, 0.349787, 0.651995, 3, 91, 246, 17.7725, 0.0513648, 0, 0, 1, 0, 62494
