-11169.4, 918532, -23.3124, 0.196787, -817.379, 0.272485, 0.340477, 1.03299, 0.34851, 0.655882, 0.0001, 45.5, 246, 19.8136, 0.0066927, 0, 0, 1, 0, 76002
-11169.4, 918532, -23.3124, 0.196787, -817.379, 0.272485, 0.340477, 1.03299, 0.34851, 0.655882, 3, 45.5, 246, 19.8136, 0.0066927, 0, 0, 1, 0, 76002
-9979.54, 972551, -27.8529, 0.214672, -894.744, 0.298568, 0.272543, 0.958125, 0.351078, 0.648177, 0.0001, 182, 246, 19.8136, 0.0066927, 0, 0, 1, 0, 76002
-7833.28, -2748.89, -20.6957, 3.05308, -1058.6, 0.0573728, 0.250758, 0.993198, 0.349787, 0.651995, 0.0001, 91, 246, 13.4037, 0.057468, 0, 0, 1, 1, 76006
-7833.28, -2748.89, -20.6957, 3.05308, -1058.6, 0.0573728, 0.250758, 0.993198, 0.349787, 0.651995, 3, 91, 246, 13.4037, 0.057468, 0, 0, 1, 1, 76006
-6898.26, 604166, -265.304, 0.159179, -832.909, 0.0301162, 0.420396, 0.993198, 0.349787, 0.651995, 0.0001, 91, 246, 30.1108, 0.112161, 0, 0, 1, 0, 76007
-2720.99, 253510, -375.226, 4.07277, -1022.5, 0.523221, 0.379383, 0.958125, 0.351078, 0.648177, 0.0001, 182, 246, 44.2933, 0.189644, 1.83469, 1, 0, 0, 76011
-2720.99, 253510, -375.226, 4.07277, -1022.5, 0.523221, 0.379383, 0.958125, 0.351078, 0.648177, 3, 182, 246, 44.2933, 0.189644, 1.66773, 1, 0, 0, 76011
-9232.72, 511033, -344.507, 0.403648, -878.369, 0.303696, 0.557771, 1.03299, 0.34851, 0.655882, 0.0001, 45.5, 246, 37.4602, 0.169369, 0, 0, 0, 0, 76013
-9232.72, 511033, -344.507, 0.403648, -878.369, 0.303696, 0.557771, 1.03299, 0.34851, 0.655882, 3, 45.5, 246, 37.4602, 0.169369, 0, 0, 0, 0, 76013
-11626.7, 206366, -87.6761, 1.67555, -828.124, 0.577595, 0.326937, 1.03299, 0.34851, 0.655882, 0.0001, 45.5, 246, 24.2413, 0.0891265, 0, 0, 1, 0, 76015
-11626.7, 206366, -87.6761, 1.67555, -828.124, 0.577595, 0.326937, 1.03299, 0.34851, 0.655882, 3, 45.5, 246, 24.2413, 0.0891265, 0, 0, 1, 0, 76015
-10166.4, 226503, -106.58, 1.83165, -916.995, 0.650456, 0.30358, 0.993198, 0.349787, 0.651995, 3, 91, 246, 24.2413, 0.0891265, 0, 0, 1, 0, 76015
-2562.17, 242404, -358.476, 4.31005, -1037.69, 0.0775778, 0.344361, 0.958125, 0.351078, 0.648177, 0.0001, 182, 246, 44.313, 0.179624, 1.88869, 1, 0, 0, 76016
-2562.17, 242404, -358.476, 4.31005, -1037.69, 0.0775778, 0.344361, 0.958125, 0.351078, 0.648177, 3, 182, 246, 44.313, 0.179624, 1.72427, 1, 0, 0, 76016
-10664.1, 464392, -437.873, 0.417017, -783.176, 0.222315, 0.73907, 1.03299, 0.34851, 0.655882, 3, 45.5, 246, 44.3081, 0.245045, 0, 0, 0, 0, 76022
-7658.37, -10558.2, -5.62848, 2.61766, -789.173, 0.075955, 0.264492, 1.03299, 0.34851, 0.655882, 0.0001, 45.5, 246, 14.5909, 0.0422547, 0, 0, 1, 1, 76026
-7658.37, -10558.2, -5.62848, 2.61766, -789.173, 0.075955, 0.264492, 1.03299, 0.34851, 0.655882, 3, 45.5, 246, 14.5909, 0.0422547, 0, 0, 1, 1, 76026
-4050.31, 280922, -381.787, 3.39063, -865.299, 0.0854664, 0.446511, 0.958125, 0.351078, 0.648177, 0.0001, 182, 246, 44.5005, 0.207859, 1.07546, 1, 0, 0, 76028
-4562.49, 847358, -454.456, 0.00856703, -1097.04, 0.0301923, 0.571149, 1.03299, 0.34851, 0.655882, 0.0001, 45.5, 246, 40.7661, 0.137974, 0, 0, 0, 0, 76032
-4562.49, 847358, -454.456, 0.00856703, -1097.04, 0.0301923, 0.571149, 1.03299, 0.34851, 0.655882, 3, 45.5, 246, 40.7661, 0.137974, 0, 0, 0, 0, 76032
-4385.82, 75067.8, -179.211, 3.54235, -1010.71, 0.275368, 0.228478, 1.03299, 0.34851, 0.655882, 0.0001, 45.5, 246, 50.6171, 0.171497, 1.31735, 1, 1, 0, 76033
-4385.82, 75067.8, -179.211, 3.54235, -1010.71, 0.275368, 0.228478, 1.03299, 0.34851, 0.655882, 3, 45.5, 246, 50.6171, 0.171497, 1.12821, 1, 1, 0, 76033
-2702.28, 96146.7, -231.812, 3.93838, -1082.44, 0.352084, 0.24783, 0.993198, 0.349787, 0.651995, 0.0001, 91, 246, 50.6171, 0.171497, 1.46685, 1, 1, 0, 76033
-2702.28, 96146.7, -231.812, 3.93838, -1082.44, 0.352084, 0.24783, 0.993198, 0.349787, 0.651995, 3, 91, 246, 50.6171, 0.171497, 1.31694, 1, 1, 0, 76033
-128.674, 121998, -298.681, 4.42863, -1183.16, 0.454135, 0.291114, 0.958125, 0.351078, 0.648177, 0.0001, 182, 246, 50.6171, 0.171497, 2.20114, 1, 1, 0, 76033
-128.674, 121998, -298.681, 4.42863, -1183.16, 0.454135, 0.291114, 0.958125, 0.351078, 0.648177, 3, 182, 246, 50.6171, 0.171497, 2.07106, 1, 1, 0, 76033
772.003, 507702, -322, 3.62822, -1323.55, 0.359816, 0.311809, 0.9175, 0.352806, 0.64323, 0.0001, 455, 246, 32.2569, 0.092493, 0, 0, 0, 0, 76036
772.003, 507702, -322, 3.62822, -1323.55, 0.359816, 0.311809, 0.9175, 0.352806, 0.64323, 3, 455, 246, 32.2569, 0.092493, 0, 0, 0, 0, 76036
-7276.58, 64291, -108.032, 2.4175, -735.018, -0.0245053, 0.305803, 1.03299, 0.34851, 0.655882, 3, 45.5, 246, 38.2082, 0.157144, 0, 0, 1, 0, 76045
-8724.37, 399777, -245.389, 0.581286, -1091.27, 0.0485663, 0.48481, 1.03299, 0.34851, 0.655882, 0.0001, 45.5, 246, 37.6373, 0.15811, 0, 0, 0, 0, 76049
-7331.12, 423041, -261.409, 0.606981, -1103.82, 0.0505036, 0.461709, 0.993198, 0.349787, 0.651995, 3, 91, 246, 37.6373, 0.15811, 0, 0, 1, 0, 76049
-9254.08, 89749.1, -33.0548, 1.19306, -981.993, -0.00112857, 0.336766, 1.03299, 0.34851, 0.655882, 0.0001, 45.5, 246, 19.3954, 0.0829613, 0, 0, 1, 0, 76052
-9254.08, 89749.1, -33.0548, 1.19306, -981.993, -0.00112857, 0.336766, 1.03299, 0.34851, 0.655882, 3, 45.5, 246, 19.3954, 0.0829613, 0, 0, 1, 0, 76052
-8980.65, 48981.3, -10.6626, 3.53111, -963.794, 0.152592, 0.160794, 1.03299, 0.34851, 0.655882, 0.0001, 45.5, 246, 18.1454, 0.0537185, 1.05775, 1, 0, 0, 76056
-8980.65, 48981.3, -10.6626, 3.53111, -963.794, 0.152592, 0.160794, 1.03299, 0.34851, 0.655882, 3, 45.5, 246, 18.1454, 0.0537185, 1.00466, 1, 0, 0, 76056
-6159.24, -115963, 31.7324, 3.51955, -1132.23, -0.040711, 0.259609, 1.03299, 0.34851, 0.655882, 0.0001, 45.5, 246, 3.14876, 0.120797, 0, 0, 0, 0, 76057
-6159.24, -115963, 31.7324, 3.51955, -1132.23, -0.040711, 0.259609, 1.03299, 0.34851, 0.655882, 3, 45.5, 246, 3.14876, 0.120797, 0, 0, 0, 0, 76057
-8023.56, -93953.7, -3.43431, 3.84627, -1128.72, 0.0187828, 0.27908, 0.993198, 0.349787, 0.651995, 0.0001, 91, 246, 3.14876, 0.120797, 0, 0, 1, 0, 76057
-8023.56, -93953.7, -3.43431, 3.84627, -1128.72, 0.0187828, 0.27908, 0.993198, 0.349787, 0.651995, 3, 91, 246, 3.14876, 0.120797, 0, 0, 1, 0, 76057
-10761.1, 273032, -110.367, 0.903362, -730.092, 0.793597, 0.36548, 1.03299, 0.34851, 0.655882, 0.0001, 45.5, 246, 23.2701, 0.0894094, 0, 0, 1, 0, 76059
-10761.1, 273032, -110.367, 0.903362, -730.092, 0.793597, 0.36548, 1.03299, 0.34851, 0.655882, 3, 45.5, 246, 23.2701, 0.0894094, 0, 0, 1, 0, 76059
-10900.4, 230865, -288.018, 2.88727, -933.707, 0.0171535, 0.436638, 1.03299, 0.34851, 0.655882, 3, 45.5, 246, 48.9804, 0.228351, 0, 0, 0, 0, 76063
-2362.52, 268586, -398.791, 3.43657, -1008.47, 0.105653, 0.476946, 0.958125, 0.351078, 0.648177, 0.0001, 182, 246, 48.9804, 0.228351, 1.85401, 1, 0, 0, 76063
-2362.52, 268586, -398.791, 3.43657, -1008.47, 0.105653, 0.476946, 0.958125, 0.351078, 0.648177, 3, 182, 246, 48.9804, 0.228351, 1.67105, 1, 0, 0, 76063
-11103, 491948, -217.1, 0.484697, -562.315, 0.732101, 0.418504, 1.03299, 0.34851, 0.655882, 0.0001, 45.5, 246, 23.6619, 0.100242, 0, 0, 1, 0, 76065
-11103, 491948, -217.1, 0.484697, -562.315, 0.732101, 0.418504, 1.03299, 0.34851, 0.655882, 3, 45.5, 246, 23.6619, 0.100242, 0, 0, 1, 0, 76065
-12443, 606809, -63.6963, 0.469606, -586.012, 0.625155, 0.342564, 1.03299, 0.34851, 0.655882, 0.0001, 45.5, 246, 15.5646, 0.0250237, 0, 0, 1, 0, 76079
-12443, 606809, -63.6963, 0.469606, -586.012, 0.625155, 0.342564, 1.03299, 0.34851, 0.655882, 3, 45.5, 246, 15.5646, 0.0250237, 0, 0, 1, 0, 76079
-10471.8, 255235, -243.794, 1.7219, -1047.64, 0.0813414, 0.495245, 1.03299, 0.34851, 0.655882, 0.0001, 45.5, 246, 43.9962, 0.217621, 0, 0, 0, 0, 76080
-10471.8, 255235, -243.794, 1.7219, -1047.64, 0.0813414, 0.495245, 1.03299, 0.34851, 0.655882, 3, 45.5, 246, 43.9962, 0.217621, 0, 0, 0, 0, 76080
-40.8085, 336158, -368.505, 2.15977, -1162.32, 0.142293, 0.492502, 0.9175, 0.352806, 0.64323, 3, 455, 246, 43.9962, 0.217621, 0, 0, 0, 0, 76080
-7924.32, 365522, -250.469, 0.573711, -913.796, 0.0884495, 0.471682, 0.993198, 0.349787, 0.651995, 0.0001, 91, 246, 35.939, 0.175554, 0, 0, 1, 0, 76087
-8628.11, 183996, -258.383, 3.13768, -1109.86, 0.161911, 0.384181, 1.03299, 0.34851, 0.655882, 3, 45.5, 246, 51.1449, 0.226206, 0, 0, 0, 0, 76091
-5262.47, 209708, -315.848, 3.45283, -1168.45, 0.215076, 0.400447, 0.993198, 0.349787, 0.651995, 0.0001, 91, 246, 51.1449, 0.226206, 1.03206, 1, 1, 0, 76091
-682.326, 240178, -386.132, 3.83022, -1249.27, 0.282882, 0.435329, 0.958125, 0.351078, 0.648177, 0.0001, 182, 246, 51.1449, 0.226206, 3.6641, 1, 0, 0, 76091
-682.326, 240178, -386.132, 3.83022, -1249.27, 0.282882, 0.435329, 0.958125, 0.351078, 0.648177, 3, 182, 246, 51.1449, 0.226206, 3.33558, 1, 0, 0, 76091
-8251.61, 111475, -137.041, 2.05705, -981.792, -0.000717789, 0.376488, 1.03299, 0.34851, 0.655882, 0.0001, 45.5, 246, 40.8042, 0.206771, 0, 0, 1, 0, 76092
-8251.61, 111475, -137.041, 2.05705, -981.792, -0.000717789, 0.376488, 1.03299, 0.34851, 0.655882, 3, 45.5, 246, 40.8042, 0.206771, 0, 0, 1, 0, 76092
-7142.96, 128726, -165.222, 2.19581, -991.649, 0.0191371, 0.363391, 0.993198, 0.349787, 0.651995, 3, 91, 246, 40.8042, 0.206771, 0, 0, 1, 0, 76092
-10453.5, 240593, -26.8699, 1.21782, -1029.44, 0.580054, 0.29208, 0.993198, 0.349787, 0.651995, 0.0001, 91, 246, 16.915, 0.0276738, 0, 0, 1, 0, 76095
-26134.8, -443956, -6.85548, 0.0929284, -669.323, 0.179925, 0.243183, 0.9175, 0.352806, 0.64323, 0.0001, 455, 246, -529.328, 0.0232212, 0, 0, 1, 0, 76096
-8465.35, -3780.1, 6.70182, 1.49286, -622.511, -0.0102814, 0.320537, 1.03299, 0.34851, 0.655882, 3, 45.5, 246, 3.64119, 0.0381131, 0, 0, 1, 1, 76101
-9671.65, 149859, -106.017, 2.81725, -675.684, 0.269584, 0.253507, 0.993198, 0.349787, 0.651995, 0.0001, 91, 246, 23.4449, 0.0906792, 0, 0, 1, 0, 76102
-9671.65, 149859, -106.017, 2.81725, -675.684, 0.269584, 0.253507, 0.993198, 0.349787, 0.651995, 3, 91, 246, 23.4449, 0.0906792, 0, 0, 1, 0, 76102
-7738.2, 160564, -132.872, 3.08208, -717.341, 0.321457, 0.2576, 0.958125, 0.351078, 0.648177, 0.0001, 182, 246, 23.4449, 0.0906792, 0, 0, 1, 0, 76102
-7738.2, 160564, -132.872, 3.08208, -717.341, 0.321457, 0.2576, 0.958125, 0.351078, 0.648177, 3, 182, 246, 23.4449, 0.0906792, 0, 0, 1, 0, 76102
-10051.4, 310076, -199.926, 0.838637, -841.041, 0.0127866, 0.454773, 1.03299, 0.34851, 0.655882, 0.0001, 45.5, 246, 33.5456, 0.163567, 0, 0, 0, 0, 76104
-10051.4, 310076, -199.926, 0.838637, -841.041, 0.0127866, 0.454773, 1.03299, 0.34851, 0.655882, 3, 45.5, 246, 33.5456, 0.163567, 0, 0, 0, 0, 76104
-8756.96, 323447, -215.519, 0.877443, -847.656, 0.0160515, 0.430801, 0.993198, 0.349787, 0.651995, 0.0001, 91, 246, 33.5456, 0.163567, 0, 0, 1, 0, 76104
-7233.75, 337237, -231.776, 0.916609, -855.336, 0.019634, 0.411512, 0.958125, 0.351078, 0.648177, 0.0001, 182, 246, 33.5456, 0.163567, 0, 0, 1, 0, 76104
-8636.57, 194690, -170.703, 0.730574, -1147.07, 0.0471581, 0.484539, 1.03299, 0.34851, 0.655882, 0.0001, 45.5, 246, 40.18, 0.229738, 0, 0, 0, 0, 76110
-8636.57, 194690, -170.703, 0.730574, -1147.07, 0.0471581, 0.484539, 1.03299, 0.34851, 0.655882, 3, 45.5, 246, 40.18, 0.229738, 0, 0, 0, 0, 76110
-9488.79, 167572, -232.292, 2.44845, -603.185, 0.524961, 0.392508, 1.03299, 0.34851, 0.655882, 3, 45.5, 246, 42.4179, 0.20685, 0, 0, 1, 0, 76115
-9996.35, 132366, -23.2374, 1.24364, -984.046, 0.0157712, 0.326805, 1.03299, 0.34851, 0.655882, 0.0001, 45.5, 246, 17.2768, 0.052007, 0, 0, 1, 0, 76117
-9996.35, 132366, -23.2374, 1.24364, -984.046, 0.0157712, 0.326805, 1.03299, 0.34851, 0.655882, 3, 45.5, 246, 17.2768, 0.052007, 0, 0, 1, 0, 76117
-4788.4, 326284, -434.964, 3.98797, -829.018, 0.482057, 0.432427, 0.958125, 0.351078, 0.648177, 0.0001, 182, 246, 42.0732, 0.192077, 1.69974, 1, 0, 0, 76121
-4788.4, 326284, -434.964, 3.98797, -829.018, 0.482057, 0.432427, 0.958125, 0.351078, 0.648177, 3, 182, 246, 42.0732, 0.192077, 1.55166, 1, 0, 0, 76121
-11885.1, 228244, 0.256992, 1.21487, -791.582, 0.0676242, 0.318117, 1.03299, 0.34851, 0.655882, 0.0001, 45.5, 246, 12.8111, 0.0125997, 0, 0, 1, 0, 76138
-11885.1, 228244, 0.256992, 1.21487, -791.582, 0.0676242, 0.318117, 1.03299, 0.34851, 0.655882, 3, 45.5, 246, 12.8111, 0.0125997, 0, 0, 1, 0, 76138
-12014.2, 366630, 2.75561, 0.706986, -1115.89, -0.00207296, 0.332554, 1.03299, 0.34851, 0.655882, 0.0001, 45.5, 246, 19.0395, 0.00581611, 0, 0, 1, 0, 76139
-12014.2, 366630, 2.75561, 0.706986, -1115.89, -0.00207296, 0.332554, 1.03299, 0.34851, 0.655882, 3, 45.5, 246, 19.0395, 0.00581611, 0, 0, 1, 0, 76139
-11121.3, 388323, -4.33374, 0.734855, -1115.74, 0.000209146, 0.298023, 0.993198, 0.349787, 0.651995, 0.0001, 91, 246, 19.0395, 0.00581611, 0, 0, 1, 0, 76139
-10961.3, 157406, -81.1185, 2.03122, -831.693, 0.459619, 0.307294, 1.03299, 0.34851, 0.655882, 0.0001, 45.5, 246, 24.9944, 0.0964734, 0, 0, 1, 0, 76140
-10961.3, 157406, -81.1185, 2.03122, -831.693, 0.459619, 0.307294, 1.03299, 0.34851, 0.655882, 3, 45.5, 246, 24.9944, 0.0964734, 0, 0, 1, 0, 76140
-3641.17, 377172, -463.096, 4.10377, -1217.47, 1.20573, 0.443707, 0.958125, 0.351078, 0.648177, 0.0001, 182, 246, 43.5445, 0.186582, 0, 0, 0, 0, 76141
-3641.17, 377172, -463.096, 4.10377, -1217.47, 1.20573, 0.443707, 0.958125, 0.351078, 0.648177, 3, 182, 246, 43.5445, 0.186582, 0, 0, 0, 0, 76141
-12497.7, 124941, 5.50979, 3.05944, -955.086, 0.719738, 0.184412, 1.03299, 0.34851, 0.655882, 0.0001, 45.5, 246, 16.1434, 0.0323816, 2.31373, 1, 0, 0, 76146
-1676.09, 190445, -266.883, 3.77179, -1532.53, 1.64315, 0.339272, 0.9175, 0.352806, 0.64323, 0.0001, 455, 246, 36.3992, 0.153335, 1.02098, 1, 0, 0, 76147
-1676.09, 190445, -266.883, 3.77179, -1532.53, 1.64315, 0.339272, 0.9175, 0.352806, 0.64323, 3, 455, 246, 36.3992, 0.153335, 1.06673, 1, 0, 0, 76147
-11268.8, 353274, -235.187, 1.16368, -981.844, 0.412812, 0.461547, 1.03299, 0.34851, 0.655882, 0.0001, 45.5, 246, 36.5612, 0.157198, 0, 0, 0, 0, 76149
-11317.2, 151736, -83.6218, 2.56928, -839.629, 0.0526453, 0.270823, 1.03299, 0.34851, 0.655882, 0.0001, 45.5, 246, 25.8977, 0.0971246, 0, 0, 1, 0, 76150
-11317.2, 151736, -83.6218, 2.56928, -839.629, 0.0526453, 0.270823, 1.03299, 0.34851, 0.655882, 3, 45.5, 246, 25.8977, 0.0971246, 0, 0, 1, 0, 76150
-7927.64, 7202.6, -30.1618, 2.8479, -1099.74, 0.00064231, 0.261488, 0.993198, 0.349787, 0.651995, 0.0001, 91, 246, 16.7662, 0.0622583, 0, 0, 1, 1, 76156
-7927.64, 7202.6, -30.1618, 2.8479, -1099.74, 0.00064231, 0.261488, 0.993198, 0.349787, 0.651995, 3, 91, 246, 16.7662, 0.0622583, 0, 0, 1, 1, 76156
-8825.27, 61734.3, -36.3914, 0.824563, -848.91, 0.0325707, 0.352506, 1.03299, 0.34851, 0.655882, 3, 45.5, 246, 20.9465, 0.128495, 0, 0, 1, 0, 76168
-6711.72, 83422.7, -103.057, 3.46342, -1097.34, 0.324972, 0.278286, 0.9175, 0.352806, 0.64323, 3, 455, 246, 14.7136, 0.0542689, 0, 0, 1, 0, 76176
-13025.9, 142964, 11.0678, 3.0119, -1046.32, 0.0262471, 0.198155, 1.03299, 0.34851, 0.655882, 0.0001, 45.5, 246, 16.149, 0.0299911, 0, 0, 0, 0, 76180
-13025.9, 142964, 11.0678, 3.0119, -1046.32, 0.0262471, 0.198155, 1.03299, 0.34851, 0.655882, 3, 45.5, 246, 16.149, 0.0299911, 0, 0, 0, 0, 76180
-10799.1, 208600, -137.589, 1.46173, -646.506, -0.0099372, 0.381414, 1.03299, 0.34851, 0.655882, 0.0001, 45.5, 246, 28.6729, 0.144903, 0, 0, 1, 0, 76182
-10799.1, 208600, -137.589, 1.46173, -646.506, -0.0099372, 0.381414, 1.03299, 0.34851, 0.655882, 3, 45.5, 246, 28.6729, 0.144903, 0, 0, 1, 0, 76182
-9492.69, 216043, -153.989, 1.5422, -651.751, -3.10216e-05, 0.358397, 0.993198, 0.349787, 0.651995, 0.0001, 91, 246, 28.6729, 0.144903, 0, 0, 1, 0, 76182
-10898.2, 228881, -230.907, 2.12462, -923.283, 0.266315, 0.439324, 1.03299, 0.34851, 0.655882, 3, 45.5, 246, 42.1885, 0.202929, 0, 0, 0, 0, 76191
-2440.15, 187706, -293.273, 3.23936, -1428.3, 1.14907, 0.394645, 0.958125, 0.351078, 0.648177, 0.0001, 182, 246, 48.894, 0.230251, 1.00553, 1, 0, 0, 76192
-2440.15, 187706, -293.273, 3.23936, -1428.3, 1.14907, 0.394645, 0.958125, 0.351078, 0.648177, 3, 182, 246, 48.894, 0.230251, 0, 0, 0, 0, 76192
-8908.61, 89367.3, -36.3231, 3.80918, -1149.53, 0.171212, 0.176923, 0.993198, 0.349787, 0.651995, 0.0001, 91, 246, 18.1197, 0.0516171, 0, 0, 1, 0, 76193
-8908.61, 89367.3, -36.3231, 3.80918, -1149.53, 0.171212, 0.176923, 0.993198, 0.349787, 0.651995, 3, 91, 246, 18.1197, 0.0516171, 0, 0, 1, 0, 76193
-10187, 203700, -199.044, 1.88212, -874.422, 0.025897, 0.433352, 1.03299, 0.34851, 0.655882, 0.0001, 45.5, 246, 40.2485, 0.203725, 0, 0, 1, 0, 76195
-10187, 203700, -199.044, 1.88212, -874.422, 0.025897, 0.433352, 1.03299, 0.34851, 0.655882, 3, 45.5, 246, 40.2485, 0.203725, 0, 0, 0, 0, 76195
-8233.66, 459424, -167.216, 0.543707, -1112.24, 0.00579407, 0.361132, 0.993198, 0.349787, 0.651995, 0.0001, 91, 246, 30.607, 0.0913408, 0, 0, 1, 0, 76200
-7019.34, 481826, -178.638, 0.563133, -1115.9, 0.00714536, 0.334356, 0.958125, 0.351078, 0.648177, 0.0001, 182, 246, 30.607, 0.0913408, 0, 0, 1, 0, 76200
-7111.15, 651050, -390.448, 0.0914753, -888.679, 0.318557, 0.556431, 1.03299, 0.34851, 0.655882, 0.0001, 45.5, 246, 36.4429, 0.149057, 0, 0, 0, 0, 76205
-11734.5, 255194, -168.424, 1.72657, -892.237, 0.119178, 0.388799, 1.03299, 0.34851, 0.655882, 0.0001, 45.5, 246, 33.2394, 0.147048, 0, 0, 0, 0, 76207
-12354.3, 115492, 21.2004, 3.3824, -873.497, -0.0321933, 0.158158, 1.03299, 0.34851, 0.655882, 0.0001, 45.5, 246, 12.1157, 0.0212138, 0, 0, 0, 0, 76209
-12354.3, 115492, 21.2004, 3.3824, -873.497, -0.0321933, 0.158158, 1.03299, 0.34851, 0.655882, 3, 45.5, 246, 12.1157, 0.0212138, 0, 0, 0, 0, 76209
-7845.48, -1561.88, -18.2685, 3.12156, -1187.04, 0.0655846, 0.249083, 0.993198, 0.349787, 0.651995, 0.0001, 91, 246, 12.8961, 0.0640299, 0, 0, 1, 1, 76213
-7845.48, -1561.88, -18.2685, 3.12156, -1187.04, 0.0655846, 0.249083, 0.993198, 0.349787, 0.651995, 3, 91, 246, 12.8961, 0.0640299, 0, 0, 1, 1, 76213
-8621.56, 138516, -193.805, 2.46955, -680.284, 0.532379, 0.357298, 1.03299, 0.34851, 0.655882, 3, 45.5, 246, 41.5256, 0.1937, 0, 0, 1, 0, 76214
185.185, 203992, -333.871, 3.60915, -1060.88, 0.923818, 0.399258, 0.9175, 0.352806, 0.64323, 0.0001, 455, 246, 41.5256, 0.1937, 2.33633, 1, 0, 0, 76214
185.185, 203992, -333.871, 3.60915, -1060.88, 0.923818, 0.399258, 0.9175, 0.352806, 0.64323, 3, 455, 246, 41.5256, 0.1937, 2.37171, 1, 0, 0, 76214
-10612.2, 151385, -118.795, 2.77038, -970.18, -0.0247565, 0.281528, 1.03299, 0.34851, 0.655882, 0.0001, 45.5, 246, 32.766, 0.12987, 0, 0, 1, 0, 76215
-10612.2, 151385, -118.795, 2.77038, -970.18, -0.0247565, 0.281528, 1.03299, 0.34851, 0.655882, 3, 45.5, 246, 32.766, 0.12987, 0, 0, 0, 0, 76215
-8252.91, 51288.5, -59.7613, 1.96885, -941.103, -0.0181677, 0.320537, 1.03299, 0.34851, 0.655882, 3, 45.5, 246, 29.4692, 0.134152, 0, 0, 1, 0, 76219
-11632.3, 238447, -350.372, 3.10469, -640.246, -0.0377887, 0.467723, 1.03299, 0.34851, 0.655882, 0.0001, 45.5, 246, 50.8454, 0.248193, 1.08029, 1, 0, 0, 76223
-7225.46, 247714, -401.765, 3.38497, -670.753, 0.00841821, 0.489577, 0.993198, 0.349787, 0.651995, 0.0001, 91, 246, 50.8454, 0.248193, 1.42002, 1, 1, 0, 76223
-7225.46, 247714, -401.765, 3.38497, -670.753, 0.00841821, 0.489577, 0.993198, 0.349787, 0.651995, 3, 91, 246, 50.8454, 0.248193, 1.31482, 1, 1, 0, 76223
-1779.23, 259576, -462.806, 3.71629, -714.96, 0.0638777, 0.528981, 0.958125, 0.351078, 0.648177, 0.0001, 182, 246, 50.8454, 0.248193, 3.91999, 1, 0, 0, 76223
-1779.23, 259576, -462.806, 3.71629, -714.96, 0.0638777, 0.528981, 0.958125, 0.351078, 0.648177, 3, 182, 246, 50.8454, 0.248193, 3.55437, 1, 0, 0, 76223
-10803.5, 241657, -125.209, 1.31371, -1000.72, 0.650556, 0.370073, 1.03299, 0.34851, 0.655882, 0.0001, 45.5, 246, 29.681, 0.113742, 0, 0, 1, 0, 76224
-10803.5, 241657, -125.209, 1.31371, -1000.72, 0.650556, 0.370073, 1.03299, 0.34851, 0.655882, 3, 45.5, 246, 29.681, 0.113742, 0, 0, 1, 0, 76224
-9377.64, 270743, -144.882, 1.43405, -1121.29, 0.73433, 0.344498, 0.993198, 0.349787, 0.651995, 3, 91, 246, 29.681, 0.113742, 0, 0, 1, 0, 76224
-10507.4, 371855, -316.22, 1.02198, -1013.27, -0.00484567, 0.589137, 1.03299, 0.34851, 0.655882, 0.0001, 45.5, 246, 44.0873, 0.218985, 0, 0, 0, 0, 76226
-10507.4, 371855, -316.22, 1.02198, -1013.27, -0.00484567, 0.589137, 1.03299, 0.34851, 0.655882, 3, 45.5, 246, 44.0873, 0.218985, 0, 0, 0, 0, 76226
-10792.2, 454490, -233.539, 0.768405, -933.669, -0.00228266, 0.450828, 1.03299, 0.34851, 0.655882, 0.0001, 45.5, 246, 33.3668, 0.132653, 0, 0, 0, 0, 76227
0.689298, 511536, -410.348, 2.10077, -1099.78, 0.468432, 0.462142, 0.9175, 0.352806, 0.64323, 3, 455, 246, 36.7138, 0.161196, 0, 0, 0, 0, 76228
-8292.42, 900417, -256.181, 0.198591, -906.665, 0.123756, 0.408716, 1.03299, 0.34851, 0.655882, 0.0001, 45.5, 246, 29.45, 0.071554, 0, 0, 0, 0, 76229
-8292.42, 900417, -256.181, 0.198591, -906.665, 0.123756, 0.408716, 1.03299, 0.34851, 0.655882, 3, 45.5, 246, 29.45, 0.071554, 0, 0, 0, 0, 76229
-7991.38, 232820, -212.85, 0.146034, -994.211, 0.74125, 0.540924, 1.03299, 0.34851, 0.655882, 0.0001, 45.5, 246, 40.5155, 0.24453, 3.54334, 1, 0, 0, 76233
-7991.38, 232820, -212.85, 0.146034, -994.211, 0.74125, 0.540924, 1.03299, 0.34851, 0.655882, 3, 45.5, 246, 40.5155, 0.24453, 3.05259, 1, 0, 0, 76233
-9708.19, 122232, -144.289, 3.56831, -643.684, -0.0608624, 0.188827, 1.03299, 0.34851, 0.655882, 0.0001, 45.5, 246, 33.2778, 0.12168, 0, 0, 0, 0, 76246
-9708.19, 122232, -144.289, 3.56831, -643.684, -0.0608624, 0.188827, 1.03299, 0.34851, 0.655882, 3, 45.5, 246, 33.2778, 0.12168, 0, 0, 0, 0, 76246
-472.862, 151930, -295.129, 4.94534, -742.894, 0.200412, 0.330553, 0.9175, 0.352806, 0.64323, 3, 455, 246, 33.2778, 0.12168, 1.16064, 1, 0, 0, 76246
-9488.85, 106327, -112.857, 3.52799, -738.004, 0.0408731, 0.181228, 1.03299, 0.34851, 0.655882, 0.0001, 45.5, 246, 30.7762, 0.105967, 0, 0, 0, 0, 76247
-9488.85, 106327, -112.857, 3.52799, -738.004, 0.0408731, 0.181228, 1.03299, 0.34851, 0.655882, 3, 45.5, 246, 30.7762, 0.105967, 0, 0, 0, 0, 76247
-7732.47, 116292, -148.486, 3.86488, -758.989, 0.101559, 0.19634, 0.993198, 0.349787, 0.651995, 0.0001, 91, 246, 30.7762, 0.105967, 0, 0, 1, 0, 76247
-7732.47, 116292, -148.486, 3.86488, -758.989, 0.101559, 0.19634, 0.993198, 0.349787, 0.651995, 3, 91, 246, 30.7762, 0.105967, 0, 0, 1, 0, 76247
-11190.7, 237955, -190.848, 1.97141, -1009.73, 0.0178187, 0.407351, 1.03299, 0.34851, 0.655882, 0.0001, 45.5, 246, 38.326, 0.173986, 0, 0, 0, 0, 76252
-11190.7, 237955, -190.848, 1.97141, -1009.73, 0.0178187, 0.407351, 1.03299, 0.34851, 0.655882, 3, 45.5, 246, 38.326, 0.173986, 0, 0, 0, 0, 76252
-9514.41, 182658, -220.756, 1.69674, -694.551, 0.369322, 0.47543, 1.03299, 0.34851, 0.655882, 3, 45.5, 246, 42.8128, 0.237646, 0, 0, 1, 0, 76255
-7829.51, 196349, -246.215, 1.84093, -749.605, 0.406787, 0.464178, 0.993198, 0.349787, 0.651995, 3, 91, 246, 42.8128, 0.237646, 0, 0, 1, 0, 76255
-10655.7, 214266, -187.567, 1.48168, -602.752, 0.0607871, 0.433877, 1.03299, 0.34851, 0.655882, 0.0001, 45.5, 246, 34.3848, 0.189504, 0, 0, 1, 0, 76261
-10655.7, 214266, -187.567, 1.48168, -602.752, 0.0607871, 0.433877, 1.03299, 0.34851, 0.655882, 3, 45.5, 246, 34.3848, 0.189504, 0, 0, 1, 0, 76261
-9140.66, 221969, -206.716, 1.57207, -617.049, 0.0717105, 0.415419, 0.993198, 0.349787, 0.651995, 3, 91, 246, 34.3848, 0.189504, 0, 0, 1, 0, 76261
-11837.5, 387743, -92.9827, 0.771828, -706.2, 0.572424, 0.351269, 1.03299, 0.34851, 0.655882, 0.0001, 45.5, 246, 20.0518, 0.0569424, 0, 0, 1, 0, 76262
-11837.5, 387743, -92.9827, 0.771828, -706.2, 0.572424, 0.351269, 1.03299, 0.34851, 0.655882, 3, 45.5, 246, 20.0518, 0.0569424, 0, 0, 1, 0, 76262
-8528.68, 808324, -142.037, 0.193486, -794.416, 0.00495679, 0.328352, 0.993198, 0.349787, 0.651995, 0.0001, 91, 246, 22.913, 0.0440506, 0, 0, 1, 0, 76265
-9911.85, 207157, -238.479, 1.81351, -812.172, 0.245021, 0.489048, 1.03299, 0.34851, 0.655882, 3, 45.5, 246, 44.2633, 0.237069, 0, 0, 0, 0, 76268
-4424.09, 219543, -184.403, 3.02204, -786.658, 0.0800113, 0.284368, 0.9175, 0.352806, 0.64323, 3, 455, 246, 24.8451, 0.0968933, 0, 0, 0, 0, 76285
-11280.1, 297309, -15.3984, 0.786917, -1018.44, 0.0654284, 0.332872, 1.03299, 0.34851, 0.655882, 0.0001, 45.5, 246, 18.1605, 0.0202141, 0, 0, 1, 0, 76288
-10476.8, 316660, -23.4071, 0.822096, -1029.72, 0.0689833, 0.298943, 0.993198, 0.349787, 0.651995, 0.0001, 91, 246, 18.1605, 0.0202141, 0, 0, 1, 0, 76288
-3278.44, 70444, -192.59, 3.42581, -988.972, 0.183823, 0.265082, 0.993198, 0.349787, 0.651995, 0.0001, 91, 246, 51.6003, 0.163648, 1.23699, 1, 1, 0, 76293
-3278.44, 70444, -192.59, 3.42581, -988.972, 0.183823, 0.265082, 0.993198, 0.349787, 0.651995, 3, 91, 246, 51.6003, 0.163648, 1.03341, 1, 1, 0, 76293
-1655.35, 90117.5, -243.403, 3.77702, -1044.04, 0.247961, 0.28911, 0.958125, 0.351078, 0.648177, 0.0001, 182, 246, 51.6003, 0.163648, 1.61614, 1, 1, 0, 76293
-1655.35, 90117.5, -243.403, 3.77702, -1044.04, 0.247961, 0.28911, 0.958125, 0.351078, 0.648177, 3, 182, 246, 51.6003, 0.163648, 1.46772, 1, 1, 0, 76293
-10777.3, 211875, -180.378, 2.18501, -1081.11, 0.123926, 0.386157, 1.03299, 0.34851, 0.655882, 0.0001, 45.5, 246, 39.1352, 0.172984, 0, 0, 0, 0, 76294
-10777.3, 211875, -180.378, 2.18501, -1081.11, 0.123926, 0.386157, 1.03299, 0.34851, 0.655882, 3, 45.5, 246, 39.1352, 0.172984, 0, 0, 0, 0, 76294
432.838, 482861, -441.104, 3.26749, -830.377, 0.442624, 0.444271, 0.9175, 0.352806, 0.64323, 3, 455, 246, 32.9884, 0.150944, 0, 0, 0, 0, 76296
-3602.07, 119553, -222.654, 4.1233, -1224.2, 1.06196, 0.269042, 0.958125, 0.351078, 0.648177, 0.0001, 182, 246, 38.8861, 0.132045, 1.00118, 1, 1, 0, 76298
1193.06, 180939, -336.041, 5.16103, -1646.01, 1.52514, 0.359506, 0.9175, 0.352806, 0.64323, 0.0001, 455, 246, 38.8861, 0.132045, 0, 0, 0, 0, 76298
1193.06, 180939, -336.041, 5.16103, -1646.01, 1.52514, 0.359506, 0.9175, 0.352806, 0.64323, 3, 455, 246, 38.8861, 0.132045, 0, 0, 0, 0, 76298
-7074.25, 96507, -169.636, 3.26171, -717.623, 0.559181, 0.233843, 1.03299, 0.34851, 0.655882, 0.0001, 45.5, 246, 41.0447, 0.147748, 1.02157, 1, 1, 0, 76300
-2915.69, 128861, -259.914, 4.1779, -934.945, 0.826166, 0.278005, 0.958125, 0.351078, 0.648177, 0.0001, 182, 246, 41.0447, 0.147748, 1.25942, 1, 1, 0, 76300
-2915.69, 128861, -259.914, 4.1779, -934.945, 0.826166, 0.278005, 0.958125, 0.351078, 0.648177, 3, 182, 246, 41.0447, 0.147748, 1.0946, 1, 1, 0, 76300
-7056.37, 636403, -439.731, 0.0717208, -933.238, 0.213575, 0.62786, 1.03299, 0.34851, 0.655882, 0.0001, 45.5, 246, 40.2692, 0.176576, 0, 0, 0, 0, 76301
-7056.37, 636403, -439.731, 0.0717208, -933.238, 0.213575, 0.62786, 1.03299, 0.34851, 0.655882, 3, 45.5, 246, 40.2692, 0.176576, 0, 0, 0, 0, 76301
-7020.17, -1024.69, -22.2301, 3.305, -1098.04, 0.0340357, 0.211134, 1.03299, 0.34851, 0.655882, 0.0001, 45.5, 246, 23.3482, 0.0656449, 0, 0, 1, 0, 76304
-7020.17, -1024.69, -22.2301, 3.305, -1098.04, 0.0340357, 0.211134, 1.03299, 0.34851, 0.655882, 3, 45.5, 246, 23.3482, 0.0656449, 0, 0, 1, 0, 76304
-10905.9, 223313, -239.753, 2.58011, -1062.18, 0.446947, 0.405769, 1.03299, 0.34851, 0.655882, 0.0001, 45.5, 246, 44.6768, 0.198418, 0, 0, 0, 0, 76308
-10905.9, 223313, -239.753, 2.58011, -1062.18, 0.446947, 0.405769, 1.03299, 0.34851, 0.655882, 3, 45.5, 246, 44.6768, 0.198418, 0, 0, 0, 0, 76308
-10440.3, 452868, -107.959, 0.511501, -834.287, -0.0011395, 0.362701, 1.03299, 0.34851, 0.655882, 0.0001, 45.5, 246, 22.9183, 0.0621083, 0, 0, 1, 0, 76318
-10440.3, 452868, -107.959, 0.511501, -834.287, -0.0011395, 0.362701, 1.03299, 0.34851, 0.655882, 3, 45.5, 246, 22.9183, 0.0621083, 0, 0, 1, 0, 76318
-9549.74, 465225, -115.805, 0.53024, -835.75, 5.18058e-05, 0.329239, 0.993198, 0.349787, 0.651995, 0.0001, 91, 246, 22.9183, 0.0621083, 0, 0, 1, 0, 76318
-7842.39, 271911, -256.37, 1.08571, -1060.31, 0.166679, 0.518137, 0.993198, 0.349787, 0.651995, 0.0001, 91, 246, 43.1889, 0.234379, 0, 0, 1, 0, 76328
-11107, 456670, -69.6395, 0.510609, -686.234, 0.104492, 0.347222, 1.03299, 0.34851, 0.655882, 0.0001, 45.5, 246, 17.7751, 0.0397666, 0, 0, 1, 0, 76329
-11107, 456670, -69.6395, 0.510609, -686.234, 0.104492, 0.347222, 1.03299, 0.34851, 0.655882, 3, 45.5, 246, 17.7751, 0.0397666, 0, 0, 1, 0, 76329
-10286.4, 467664, -75.3883, 0.532072, -698.825, 0.107459, 0.312621, 0.993198, 0.349787, 0.651995, 0.0001, 91, 246, 17.7751, 0.0397666, 0, 0, 1, 0, 76329
-2006.59, 330332, -429.051, 4.13285, -1295.33, 0.50433, 0.422841, 0.958125, 0.351078, 0.648177, 0.0001, 182, 246, 47.0213, 0.194012, 0, 0, 0, 0, 76334
-2006.59, 330332, -429.051, 4.13285, -1295.33, 0.50433, 0.422841, 0.958125, 0.351078, 0.648177, 3, 182, 246, 47.0213, 0.194012, 0, 0, 0, 0, 76334
-11696.9, 296862, -48.0738, 1.07315, -1179.15, 0.0844679, 0.333637, 1.03299, 0.34851, 0.655882, 0.0001, 45.5, 246, 23.6832, 0.0467683, 0, 0, 1, 0, 76337
-11696.9, 296862, -48.0738, 1.07315, -1179.15, 0.0844679, 0.333637, 1.03299, 0.34851, 0.655882, 3, 45.5, 246, 23.6832, 0.0467683, 0, 0, 1, 0, 76337
-10463.4, 322913, -62.0486, 1.12825, -1197.21, 0.0910014, 0.302323, 0.993198, 0.349787, 0.651995, 3, 91, 246, 23.6832, 0.0467683, 0, 0, 1, 0, 76337
-12076, 695568, -3.90709, 0.342542, -1159.49, 0.0127345, 0.338507, 1.03299, 0.34851, 0.655882, 0.0001, 45.5, 246, 24.3466, 0.00349614, 0, 0, 1, 0, 76338
-12076, 695568, -3.90709, 0.342542, -1159.49, 0.0127345, 0.338507, 1.03299, 0.34851, 0.655882, 3, 45.5, 246, 24.3466, 0.00349614, 0, 0, 1, 0, 76338
-11300.4, 719636, -7.64156, 0.354032, -1161.93, 0.013294, 0.302593, 0.993198, 0.349787, 0.651995, 3, 91, 246, 24.3466, 0.00349614, 0, 0, 1, 0, 76338
-10399.4, 743849, -11.5981, 0.364986, -1164.52, 0.0138906, 0.271072, 0.958125, 0.351078, 0.648177, 0.0001, 182, 246, 24.3466, 0.00349614, 0, 0, 1, 0, 76338
-10662.3, 512057, -193.748, 0.670541, -1023.01, 0.0014133, 0.407349, 1.03299, 0.34851, 0.655882, 0.0001, 45.5, 246, 31.2985, 0.0978542, 0, 0, 0, 0, 76349
-10662.3, 512057, -193.748, 0.670541, -1023.01, 0.0014133, 0.407349, 1.03299, 0.34851, 0.655882, 3, 45.5, 246, 31.2985, 0.0978542, 0, 0, 0, 0, 76349
-8351.57, 1.00656e+06, -70.0721, 0.74233, -1172.2, 0.0121178, 0.235993, 0.9175, 0.352806, 0.64323, 3, 455, 246, 27.9451, 0.0136441, 0, 0, 0, 0, 76362
-8556.08, 9245.67, -5.54272, 2.2, -1070.87, -6.05205e-05, 0.28061, 0.993198, 0.349787, 0.651995, 0.0001, 91, 246, 8.04251, 0.0540489, 0, 0, 1, 1, 76367
-8556.08, 9245.67, -5.54272, 2.2, -1070.87, -6.05205e-05, 0.28061, 0.993198, 0.349787, 0.651995, 3, 91, 246, 8.04251, 0.0540489, 0, 0, 1, 1, 76367
-8664.19, 130179, -46.167, 0.356929, -1198.79, -0.000360545, 0.357442, 1.03299, 0.34851, 0.655882, 0.0001, 45.5, 246, 21.4097, 0.0849501, 0, 0, 1, 0, 76369
-8664.19, 130179, -46.167, 0.356929, -1198.79, -0.000360545, 0.357442, 1.03299, 0.34851, 0.655882, 3, 45.5, 246, 21.4097, 0.0849501, 0, 0, 1, 0, 76369
-4915.58, 66801.8, -171.994, 3.67993, -781.955, 0.273425, 0.292672, 0.9175, 0.352806, 0.64323, 3, 455, 246, 31.3212, 0.0896773, 0, 0, 1, 0, 76370
-3039.4, 369174, -445.088, 4.05098, -1212.09, 0.276384, 0.435709, 0.958125, 0.351078, 0.648177, 3, 182, 246, 46.3862, 0.189882, 0, 0, 0, 0, 76380
-10115.6, 310409, -22.5882, 1.27182, -733.222, 0.102503, 0.26229, 0.958125, 0.351078, 0.648177, 0.0001, 182, 246, 12.9607, 0.0134026, 0, 0, 1, 0, 76382
-9402.48, 175141, -191.921, 2.19962, -1016.34, 0.11592, 0.410324, 1.03299, 0.34851, 0.655882, 3, 45.5, 246, 42.9221, 0.207962, 0, 0, 0, 0, 76389
-143.795, 252820, -331.448, 2.86108, -1166.82, 0.222701, 0.424578, 0.9175, 0.352806, 0.64323, 3, 455, 246, 42.9221, 0.207962, 1.18148, 1, 0, 0, 76389
-10354.5, 370824, -484.043, 3.2218, -928.684, 0.297092, 0.596545, 0.993198, 0.349787, 0.651995, 0.0001, 91, 246, 51.2048, 0.243312, 1.02243, 1, 1, 0, 76406
-12409.1, 520754, -47.2586, 0.618666, -1052.39, 0.393124, 0.338822, 1.03299, 0.34851, 0.655882, 0.0001, 45.5, 246, 23.3805, 0.024634, 0, 0, 1, 0, 76409
-12409.1, 520754, -47.2586, 0.618666, -1052.39, 0.393124, 0.338822, 1.03299, 0.34851, 0.655882, 3, 45.5, 246, 23.3805, 0.024634, 0, 0, 1, 0, 76409
-9716.81, 589747, -64.2637, 0.6956, -1204.5, 0.453226, 0.274288, 0.958125, 0.351078, 0.648177, 3, 182, 246, 23.3805, 0.024634, 0, 0, 1, 0, 76409
-6328.96, -25348.2, -22.3655, 3.37497, -830.622, 0.168407, 0.206874, 1.03299, 0.34851, 0.655882, 0.0001, 45.5, 246, 22.9177, 0.000796835, 0, 0, 1, 1, 76413
-11337.8, 652789, -29.1795, 0.349682, -1114.34, 0.00647061, 0.340088, 1.03299, 0.34851, 0.655882, 0.0001, 45.5, 246, 24.1976, 0.0130494, 0, 0, 1, 0, 76424
-11337.8, 652789, -29.1795, 0.349682, -1114.34, 0.00647061, 0.340088, 1.03299, 0.34851, 0.655882, 3, 45.5, 246, 24.1976, 0.0130494, 0, 0, 1, 0, 76424
-10581, 674804, -33.6795, 0.361355, -1115.83, 0.0070328, 0.30431, 0.993198, 0.349787, 0.651995, 0.0001, 91, 246, 24.1976, 0.0130494, 0, 0, 1, 0, 76424
-9703.5, 696919, -38.3535, 0.372479, -1117.47, 0.00763242, 0.272923, 0.958125, 0.351078, 0.648177, 0.0001, 182, 246, 24.1976, 0.0130494, 0, 0, 1, 0, 76424
-5257.94, 401143, -500.231, 3.29902, -906.305, 0.783017, 0.562913, 0.958125, 0.351078, 0.648177, 0.0001, 182, 246, 43.8609, 0.214032, 1.03454, 1, 0, 0, 76426
-12026, 280730, -95.0971, 1.38764, -1064.2, 0.410145, 0.342654, 1.03299, 0.34851, 0.655882, 0.0001, 45.5, 246, 26.9839, 0.0812046, 0, 0, 1, 0, 76428
-12026, 280730, -95.0971, 1.38764, -1064.2, 0.410145, 0.342654, 1.03299, 0.34851, 0.655882, 3, 45.5, 246, 26.9839, 0.0812046, 0, 0, 1, 0, 76428
-8236.95, 341513, -137.073, 1.61263, -1236.4, 0.493894, 0.295581, 0.958125, 0.351078, 0.648177, 3, 182, 246, 26.9839, 0.0812046, 0, 0, 1, 0, 76428
-3158.85, 328755, -427.408, 3.58862, -1096.97, 0.467964, 0.472127, 0.958125, 0.351078, 0.648177, 0.0001, 182, 246, 46.2302, 0.207689, 1.54334, 1, 0, 0, 76429
-3158.85, 328755, -427.408, 3.58862, -1096.97, 0.467964, 0.472127, 0.958125, 0.351078, 0.648177, 3, 182, 246, 46.2302, 0.207689, 1.40779, 1, 0, 0, 76429
-10675.3, 74255.8, 26.761, 3.60076, -966.185, 0.103865, 0.137364, 1.03299, 0.34851, 0.655882, 0.0001, 45.5, 246, 12.2863, 0.027809, 0, 0, 0, 0, 76433
-10675.3, 74255.8, 26.761, 3.60076, -966.185, 0.103865, 0.137364, 1.03299, 0.34851, 0.655882, 3, 45.5, 246, 12.2863, 0.027809, 0, 0, 0, 0, 76433
-10137.2, 221143, -41.4078, 1.29824, -999.974, 0.000899794, 0.294816, 0.993198, 0.349787, 0.651995, 0.0001, 91, 246, 18.7303, 0.0439839, 0, 0, 1, 0, 76434
-8846.91, 851882, -75.841, 1.03665, -725.063, 0.0439474, 0.23594, 0.9175, 0.352806, 0.64323, 0.0001, 455, 246, 18.0209, 0.017279, 0, 0, 1, 0, 76435
-10482.9, 355265, -93.7565, 0.677421, -918.766, 0.00620297, 0.359321, 1.03299, 0.34851, 0.655882, 0.0001, 45.5, 246, 23.7237, 0.0684749, 0, 0, 1, 0, 76440
-9566.25, 370317, -103.167, 0.704571, -921.611, 0.00830768, 0.326544, 0.993198, 0.349787, 0.651995, 0.0001, 91, 246, 23.7237, 0.0684749, 0, 0, 1, 0, 76440
-8423.58, 535932, -177.699, 0.333508, -811.057, 0.078712, 0.360875, 0.993198, 0.349787, 0.651995, 0.0001, 91, 246, 25.5925, 0.0831081, 0, 0, 1, 0, 76444
-6062.03, 778075, -115.995, 1.3474, -1506.52, 1.10481, 0.242788, 0.9175, 0.352806, 0.64323, 3, 455, 246, 23.172, 0.0278372, 0, 0, 0, 0, 76447
-7838.55, 545555, -395.858, 0.208982, -930.401, 0.563132, 0.599018, 1.03299, 0.34851, 0.655882, 3, 45.5, 246, 39.5138, 0.175505, 0, 0, 0, 0, 76454
-10783.1, 249877, -180.631, 1.40016, -893.424, 0.521471, 0.417724, 1.03299, 0.34851, 0.655882, 0.0001, 45.5, 246, 34.2618, 0.158122, 0, 0, 0, 0, 76455
-10783.1, 249877, -180.631, 1.40016, -893.424, 0.521471, 0.417724, 1.03299, 0.34851, 0.655882, 3, 45.5, 246, 34.2618, 0.158122, 0, 0, 0, 0, 76455
-6845.03, 112357, -190.717, 3.1427, -838.866, -0.047318, 0.295807, 1.03299, 0.34851, 0.655882, 0.0001, 45.5, 246, 46.5942, 0.192186, 1.01516, 1, 1, 0, 76461
-6845.03, 112357, -190.717, 3.1427, -838.866, -0.047318, 0.295807, 1.03299, 0.34851, 0.655882, 3, 45.5, 246, 46.5942, 0.192186, 0, 0, 1, 0, 76461
-4897.94, 125202, -232.569, 3.41068, -853.847, -0.000136055, 0.304964, 0.993198, 0.349787, 0.651995, 0.0001, 91, 246, 46.5942, 0.192186, 1.08905, 1, 1, 0, 76461
-2338.21, 139509, -281.968, 3.72522, -881.671, 0.0557931, 0.330524, 0.958125, 0.351078, 0.648177, 0.0001, 182, 246, 46.5942, 0.192186, 1.47395, 1, 1, 0, 76461
-2338.21, 139509, -281.968, 3.72522, -881.671, 0.0557931, 0.330524, 0.958125, 0.351078, 0.648177, 3, 182, 246, 46.5942, 0.192186, 1.31274, 1, 1, 0, 76461
-11557.8, 311623, -235.721, 1.09425, -621.195, 0.163731, 0.48041, 1.03299, 0.34851, 0.655882, 0.0001, 45.5, 246, 33.4792, 0.180898, 0, 0, 1, 0, 76462
-11557.8, 311623, -235.721, 1.09425, -621.195, 0.163731, 0.48041, 1.03299, 0.34851, 0.655882, 3, 45.5, 246, 33.4792, 0.180898, 0, 0, 1, 0, 76462
-7347.42, 397980, -371.042, 0.235258, -1092.52, 0.538011, 0.672919, 1.03299, 0.34851, 0.655882, 0.0001, 45.5, 246, 46.5332, 0.237994, 3.00503, 1, 0, 0, 76463
-7347.42, 397980, -371.042, 0.235258, -1092.52, 0.538011, 0.672919, 1.03299, 0.34851, 0.655882, 3, 45.5, 246, 46.5332, 0.237994, 3.00542, 1, 0, 0, 76463
-5870.7, 435780, -388.552, 0.25214, -1196.6, 0.588285, 0.667358, 0.993198, 0.349787, 0.651995, 0.0001, 91, 246, 46.5332, 0.237994, 4.33008, 1, 1, 0, 76463
-5870.7, 435780, -388.552, 0.25214, -1196.6, 0.588285, 0.667358, 0.993198, 0.349787, 0.651995, 3, 91, 246, 46.5332, 0.237994, 4.25229, 1, 1, 0, 76463
-4013.62, 100585, -224.509, 3.55053, -1057.04, 0.229367, 0.274383, 1.03299, 0.34851, 0.655882, 0.0001, 45.5, 246, 55.6771, 0.213465, 1.4548, 1, 0, 0, 76465
-4013.62, 100585, -224.509, 3.55053, -1057.04, 0.229367, 0.274383, 1.03299, 0.34851, 0.655882, 3, 45.5, 246, 55.6771, 0.213465, 1.30507, 1, 0, 0, 76465
-1682.76, 123965, -283.345, 3.94289, -1127.56, 0.301921, 0.296935, 0.993198, 0.349787, 0.651995, 0.0001, 91, 246, 55.6771, 0.213465, 1.74379, 1, 1, 0, 76465
-1682.76, 123965, -283.345, 3.94289, -1127.56, 0.301921, 0.296935, 0.993198, 0.349787, 0.651995, 3, 91, 246, 55.6771, 0.213465, 1.6351, 1, 1, 0, 76465
1741.44, 152522, -357.613, 4.42739, -1227.33, 0.397751, 0.343462, 0.958125, 0.351078, 0.648177, 0.0001, 182, 246, 55.6771, 0.213465, 6.63085, 1, 0, 0, 76465
1741.44, 152522, -357.613, 4.42739, -1227.33, 0.397751, 0.343462, 0.958125, 0.351078, 0.648177, 3, 182, 246, 55.6771, 0.213465, 5.61321, 1, 0, 0, 76465
-11744.5, 385224, -57.4298, 0.716164, -622.762, -0.00227099, 0.341456, 1.03299, 0.34851, 0.655882, 3, 45.5, 246, 15.9771, 0.0399269, 0, 0, 1, 0, 76466
-10762.7, 391941, -63.7957, 0.744693, -623.818, 7.17379e-05, 0.307626, 0.993198, 0.349787, 0.651995, 3, 91, 246, 15.9771, 0.0399269, 0, 0, 1, 0, 76466
-7084.04, -57925.4, 14.4448, 2.78645, -982.365, -0.0349864, 0.271404, 1.03299, 0.34851, 0.655882, 0.0001, 45.5, 246, 9.00892, 0.0427876, 1.04303, 1, 1, 0, 76471
-8210.71, 282817, -380.346, 3.68314, -956.904, 0.099249, 0.419253, 0.993198, 0.349787, 0.651995, 0.0001, 91, 246, 48.7936, 0.21527, 1.10393, 1, 1, 0, 76472
-9419.82, 170688, -206.588, 2.5936, -880.232, 0.0155192, 0.379733, 1.03299, 0.34851, 0.655882, 0.0001, 45.5, 246, 43.6085, 0.204834, 0, 0, 0, 0, 76480
-9419.82, 170688, -206.588, 2.5936, -880.232, 0.0155192, 0.379733, 1.03299, 0.34851, 0.655882, 3, 45.5, 246, 43.6085, 0.204834, 0, 0, 0, 0, 76480
-11105.4, 254564, -119.469, 1.30939, -1025.63, 0.782569, 0.362357, 1.03299, 0.34851, 0.655882, 0.0001, 45.5, 246, 29.0256, 0.102391, 0, 0, 1, 0, 76486
-11105.4, 254564, -119.469, 1.30939, -1025.63, 0.782569, 0.362357, 1.03299, 0.34851, 0.655882, 3, 45.5, 246, 29.0256, 0.102391, 0, 0, 1, 0, 76486
-9607.99, 287762, -139.3, 1.44029, -1176.16, 0.902469, 0.336208, 0.993198, 0.349787, 0.651995, 3, 91, 246, 29.0256, 0.102391, 0, 0, 1, 0, 76486
-7457.68, 914579, -222.265, 0.0420771, -660.722, 0.417205, 0.388131, 1.03299, 0.34851, 0.655882, 0.0001, 45.5, 246, 22.4906, 0.0572952, 0, 0, 1, 0, 76495
-6354.99, 88853.5, -175.415, 2.93891, -686.076, 0.782758, 0.271692, 1.03299, 0.34851, 0.655882, 0.0001, 45.5, 246, 43.6599, 0.162821, 1.14043, 1, 1, 0, 76498
-4855.18, 103192, -211.173, 3.33029, -802.693, 0.942422, 0.274979, 0.993198, 0.349787, 0.651995, 0.0001, 91, 246, 43.6599, 0.162821, 1.07088, 1, 1, 0, 76498
-2690.83, 123863, -259.039, 3.83623, -971.54, 1.1735, 0.298858, 0.958125, 0.351078, 0.648177, 0.0001, 182, 246, 43.6599, 0.162821, 1.36041, 1, 1, 0, 76498
-2690.83, 123863, -259.039, 3.83623, -971.54, 1.1735, 0.298858, 0.958125, 0.351078, 0.648177, 3, 182, 246, 43.6599, 0.162821, 1.20447, 1, 1, 0, 76498
