-8815.52, 150298, -90.4767, 0.687561, -1091.16, 0.00524774, 0.388812, 1.03299, 0.34851, 0.655882, 0.0001, 45.5, 246, 29.127, 0.148619, 0, 0, 1, 0, 28004
-8815.52, 150298, -90.4767, 0.687561, -1091.16, 0.00524774, 0.388812, 1.03299, 0.34851, 0.655882, 3, 45.5, 246, 29.127, 0.148619, 0, 0, 1, 0, 28004
-10519.6, 295477, -392.623, 3.80769, -710.47, 0.12694, 0.396689, 0.993198, 0.349787, 0.651995, 0.0001, 91, 246, 44.7284, 0.20411, 1.14088, 1, 1, 0, 28008
-10519.6, 295477, -392.623, 3.80769, -710.47, 0.12694, 0.396689, 0.993198, 0.349787, 0.651995, 3, 91, 246, 44.7284, 0.20411, 1.02117, 1, 1, 0, 28008
-3793.52, 310388, -460.182, 4.23331, -774.598, 0.201962, 0.444443, 0.958125, 0.351078, 0.648177, 0.0001, 182, 246, 44.7284, 0.20411, 3.17558, 1, 0, 0, 28008
-3793.52, 310388, -460.182, 4.23331, -774.598, 0.201962, 0.444443, 0.958125, 0.351078, 0.648177, 3, 182, 246, 44.7284, 0.20411, 2.93397, 1, 0, 0, 28008
-8173.82, 122017, -163.532, 2.22382, -804.739, -0.0216769, 0.378146, 1.03299, 0.34851, 0.655882, 0.0001, 45.5, 246, 42.5561, 0.212224, 0, 0, 1, 0, 28009
-8173.82, 122017, -163.532, 2.22382, -804.739, -0.0216769, 0.378146, 1.03299, 0.34851, 0.655882, 3, 45.5, 246, 42.5561, 0.212224, 0, 0, 1, 0, 28009
-10006.1, 572746, -235.894, 0.554288, -1020.78, -0.00115056, 0.432694, 1.03299, 0.34851, 0.655882, 0.0001, 45.5, 246, 33.0324, 0.106737, 0, 0, 0, 0, 28011
-8610.42, 108470, -120.536, 2.92863, -1150.5, 0.00325996, 0.282808, 1.03299, 0.34851, 0.655882, 0.0001, 45.5, 246, 37.6374, 0.15146, 0, 0, 1, 0, 28015
-8610.42, 108470, -120.536, 2.92863, -1150.5, 0.00325996, 0.282808, 1.03299, 0.34851, 0.655882, 3, 45.5, 246, 37.6374, 0.15146, 0, 0, 1, 0, 28015
-7023.34, 132068, -162.612, 3.17234, -1166.08, 0.04416, 0.284606, 0.993198, 0.349787, 0.651995, 0.0001, 91, 246, 37.6374, 0.15146, 0, 0, 1, 0, 28015
-7023.34, 132068, -162.612, 3.17234, -1166.08, 0.04416, 0.284606, 0.993198, 0.349787, 0.651995, 3, 91, 246, 37.6374, 0.15146, 0, 0, 1, 0, 28015
-346.147, 194999, -293.358, 3.9119, -1261.16, 0.175212, 0.34751, 0.9175, 0.352806, 0.64323, 0.0001, 455, 246, 37.6374, 0.15146, 1.41729, 1, 0, 0, 28015
-346.147, 194999, -293.358, 3.9119, -1261.16, 0.175212, 0.34751, 0.9175, 0.352806, 0.64323, 3, 455, 246, 37.6374, 0.15146, 1.5115, 1, 0, 0, 28015
1895.58, 309934, -393.485, 4.79659, -817.511, 0.189567, 0.375309, 0.9175, 0.352806, 0.64323, 0.0001, 455, 246, 33.83, 0.138193, 0, 0, 0, 0, 28021
1895.58, 309934, -393.485, 4.79659, -817.511, 0.189567, 0.375309, 0.9175, 0.352806, 0.64323, 3, 455, 246, 33.83, 0.138193, 0, 0, 0, 0, 28021
-8314.01, 92434.5, -110.352, 3.0432, -1055.03, 0.384525, 0.252078, 1.03299, 0.34851, 0.655882, 0.0001, 45.5, 246, 35.7571, 0.134143, 0, 0, 1, 0, 28032
-8314.01, 92434.5, -110.352, 3.0432, -1055.03, 0.384525, 0.252078, 1.03299, 0.34851, 0.655882, 3, 45.5, 246, 35.7571, 0.134143, 0, 0, 1, 0, 28032
-50.3097, 195382, -299.631, 4.46643, -1466.65, 0.736907, 0.343519, 0.9175, 0.352806, 0.64323, 0.0001, 455, 246, 35.7571, 0.134143, 2.12513, 1, 0, 0, 28032
-50.3097, 195382, -299.631, 4.46643, -1466.65, 0.736907, 0.343519, 0.9175, 0.352806, 0.64323, 3, 455, 246, 35.7571, 0.134143, 2.21519, 1, 0, 0, 28032
-9064.86, 502663, -149.658, 0.789921, -750.786, 0.00273224, 0.307635, 0.958125, 0.351078, 0.648177, 3, 182, 246, 22.7591, 0.0695859, 0, 0, 1, 0, 28043
-9108.18, 187250, -222.239, 2.24428, -1120.24, 0.0187192, 0.454262, 1.03299, 0.34851, 0.655882, 0.0001, 45.5, 246, 47.5202, 0.235356, 0, 0, 0, 0, 28045
-9108.18, 187250, -222.239, 2.24428, -1120.24, 0.0187192, 0.454262, 1.03299, 0.34851, 0.655882, 3, 45.5, 246, 47.5202, 0.235356, 0, 0, 0, 0, 28045
-13020.1, 207716, -87.8219, 2.6107, -1141.05, 0.00112321, 0.271148, 1.03299, 0.34851, 0.655882, 0.0001, 45.5, 246, 29.0121, 0.0940784, 0, 0, 0, 0, 28047
-13020.1, 207716, -87.8219, 2.6107, -1141.05, 0.00112321, 0.271148, 1.03299, 0.34851, 0.655882, 3, 45.5, 246, 29.0121, 0.0940784, 0, 0, 0, 0, 28047
-11944, 280010, -272.513, 2.2741, -1070.71, 0.0312607, 0.476788, 1.03299, 0.34851, 0.655882, 0.0001, 45.5, 246, 45.7418, 0.211498, 0, 0, 0, 0, 28050
-3506.63, 319351, -419.257, 4.40937, -1032.9, 0.252447, 0.379522, 0.958125, 0.351078, 0.648177, 0.0001, 182, 246, 43.8943, 0.180445, 2.80478, 1, 0, 0, 28055
-3506.63, 319351, -419.257, 4.40937, -1032.9, 0.252447, 0.379522, 0.958125, 0.351078, 0.648177, 3, 182, 246, 43.8943, 0.180445, 2.63552, 1, 0, 0, 28055
8697.38, 361053, -550.529, 5.21253, -1188.7, 0.408213, 0.490725, 0.9175, 0.352806, 0.64323, 0.0001, 455, 246, 43.8943, 0.180445, 0, 0, 0, 0, 28055
8697.38, 361053, -550.529, 5.21253, -1188.7, 0.408213, 0.490725, 0.9175, 0.352806, 0.64323, 3, 455, 246, 43.8943, 0.180445, 0, 0, 0, 0, 28055
-8728.14, 536531, -357.115, 0.25075, -809.56, 0.464684, 0.556887, 1.03299, 0.34851, 0.655882, 0.0001, 45.5, 246, 35.7125, 0.162741, 0, 0, 0, 0, 28057
-8728.14, 536531, -357.115, 0.25075, -809.56, 0.464684, 0.556887, 1.03299, 0.34851, 0.655882, 3, 45.5, 246, 35.7125, 0.162741, 0, 0, 0, 0, 28057
-5409.58, 598516, -387.839, 0.283982, -954.694, 0.545409, 0.525847, 0.958125, 0.351078, 0.648177, 3, 182, 246, 35.7125, 0.162741, 0, 0, 0, 0, 28057
-11029.8, 294332, -192.413, 1.42715, -1083.97, -0.00370952, 0.428868, 1.03299, 0.34851, 0.655882, 0.0001, 45.5, 246, 36.766, 0.157805, 0, 0, 0, 0, 28075
-11029.8, 294332, -192.413, 1.42715, -1083.97, -0.00370952, 0.428868, 1.03299, 0.34851, 0.655882, 3, 45.5, 246, 36.766, 0.157805, 0, 0, 0, 0, 28075
-8560.87, 312896, -79.4365, 0.375579, -825.609, 0.240949, 0.291697, 0.958125, 0.351078, 0.648177, 0.0001, 182, 246, 19.4375, 0.0618045, 0, 0, 1, 0, 28077
-8560.87, 312896, -79.4365, 0.375579, -825.609, 0.240949, 0.291697, 0.958125, 0.351078, 0.648177, 3, 182, 246, 19.4375, 0.0618045, 0, 0, 1, 0, 28077
-9235.88, 151688, -184.449, 2.7139, -814.347, -0.0341977, 0.340145, 1.03299, 0.34851, 0.655882, 0.0001, 45.5, 246, 41.1676, 0.186897, 0, 0, 1, 0, 28080
-9235.88, 151688, -184.449, 2.7139, -814.347, -0.0341977, 0.340145, 1.03299, 0.34851, 0.655882, 3, 45.5, 246, 41.1676, 0.186897, 0, 0, 1, 0, 28080
-7147.11, 163665, -220.117, 2.92602, -827.128, 0.000733188, 0.339872, 0.993198, 0.349787, 0.651995, 0.0001, 91, 246, 41.1676, 0.186897, 0, 0, 1, 0, 28080
-7147.11, 163665, -220.117, 2.92602, -827.128, 0.000733188, 0.339872, 0.993198, 0.349787, 0.651995, 3, 91, 246, 41.1676, 0.186897, 0, 0, 1, 0, 28080
51.3062, 197258, -327.33, 3.55219, -896.829, 0.108032, 0.38978, 0.9175, 0.352806, 0.64323, 0.0001, 455, 246, 41.1676, 0.186897, 1.72253, 1, 0, 0, 28080
51.3062, 197258, -327.33, 3.55219, -896.829, 0.108032, 0.38978, 0.9175, 0.352806, 0.64323, 3, 455, 246, 41.1676, 0.186897, 1.74101, 1, 0, 0, 28080
-9074.33, 605308, -386.29, 0.146058, -696.649, 0.0548107, 0.580193, 1.03299, 0.34851, 0.655882, 0.0001, 45.5, 246, 34.3567, 0.167009, 0, 0, 0, 0, 28081
-9074.33, 605308, -386.29, 0.146058, -696.649, 0.0548107, 0.580193, 1.03299, 0.34851, 0.655882, 3, 45.5, 246, 34.3567, 0.167009, 0, 0, 0, 0, 28081
-5905.73, 631950, -415.729, 0.157371, -712.187, 0.0559827, 0.553392, 0.958125, 0.351078, 0.648177, 3, 182, 246, 34.3567, 0.167009, 0, 0, 0, 0, 28081
-9708.85, 149609, -132.523, 2.3742, -1114.79, 0.054608, 0.337512, 1.03299, 0.34851, 0.655882, 0.0001, 45.5, 246, 36.6112, 0.158161, 0, 0, 1, 0, 28085
-9708.85, 149609, -132.523, 2.3742, -1114.79, 0.054608, 0.337512, 1.03299, 0.34851, 0.655882, 3, 45.5, 246, 36.6112, 0.158161, 0, 0, 1, 0, 28085
-11234.8, 958221, -62.0543, 0.241547, -852.883, -0.000264617, 0.343528, 1.03299, 0.34851, 0.655882, 0.0001, 45.5, 246, 21.9325, 0.0171119, 0, 0, 1, 0, 28088
-11234.8, 958221, -62.0543, 0.241547, -852.883, -0.000264617, 0.343528, 1.03299, 0.34851, 0.655882, 3, 45.5, 246, 21.9325, 0.0171119, 0, 0, 1, 0, 28088
-10445.9, 971017, -65.8499, 0.249059, -853.279, -3.82936e-07, 0.307698, 0.993198, 0.349787, 0.651995, 3, 91, 246, 21.9325, 0.0171119, 0, 0, 1, 0, 28088
-11083.9, 662878, -162.667, 0.426607, -744.406, 0.000792888, 0.377248, 1.03299, 0.34851, 0.655882, 0.0001, 45.5, 246, 23.4613, 0.0638851, 0, 0, 1, 0, 28089
-8469.38, 683442, -179.982, 0.456409, -748.779, 0.00250709, 0.316095, 0.958125, 0.351078, 0.648177, 3, 182, 246, 23.4613, 0.0638851, 0, 0, 1, 0, 28089
-9185.41, 533368, -268.547, 0.431944, -921.927, 0.0598185, 0.470341, 1.03299, 0.34851, 0.655882, 0.0001, 45.5, 246, 33.5686, 0.129922, 0, 0, 0, 0, 28090
-9185.41, 533368, -268.547, 0.431944, -921.927, 0.0598185, 0.470341, 1.03299, 0.34851, 0.655882, 3, 45.5, 246, 33.5686, 0.129922, 0, 0, 0, 0, 28090
-6912.05, -15564.4, -27.4173, 3.93858, -1161.24, 0.00843859, 0.206909, 0.993198, 0.349787, 0.651995, 0.0001, 91, 246, 15.4103, 0.0578931, 0, 0, 1, 1, 28105
-6912.05, -15564.4, -27.4173, 3.93858, -1161.24, 0.00843859, 0.206909, 0.993198, 0.349787, 0.651995, 3, 91, 246, 15.4103, 0.0578931, 0, 0, 1, 1, 28105
-11258.3, 235319, -20.0816, 1.04124, -823.86, -0.00432174, 0.32741, 1.03299, 0.34851, 0.655882, 0.0001, 45.5, 246, 15.4341, 0.0291433, 0, 0, 1, 0, 28106
-10407.1, 247025, -28.8739, 1.08867, -824.302, 0.000657927, 0.295303, 0.993198, 0.349787, 0.651995, 0.0001, 91, 246, 15.4341, 0.0291433, 0, 0, 1, 0, 28106
-11994.8, 249146, -21.4291, 1.20953, -816.94, 0.122604, 0.321079, 1.03299, 0.34851, 0.655882, 0.0001, 45.5, 246, 15.8732, 0.029389, 0, 0, 1, 0, 28107
-11994.8, 249146, -21.4291, 1.20953, -816.94, 0.122604, 0.321079, 1.03299, 0.34851, 0.655882, 3, 45.5, 246, 15.8732, 0.029389, 0, 0, 1, 0, 28107
-10888.4, 262588, -31.6979, 1.27705, -834.401, 0.131945, 0.290393, 0.993198, 0.349787, 0.651995, 0.0001, 91, 246, 15.8732, 0.029389, 0, 0, 1, 0, 28107
-12923.6, 777197, -32.3995, 0.365903, -710.918, 0.777036, 0.339054, 1.03299, 0.34851, 0.655882, 0.0001, 45.5, 246, 17.4359, 0.0101417, 0, 0, 1, 0, 28108
-9872.56, 126344, -11.9275, 1.12005, -1188.16, 0.0309068, 0.328657, 1.03299, 0.34851, 0.655882, 0.0001, 45.5, 246, 17, 0.0405988, 0, 0, 1, 0, 28111
-9872.56, 126344, -11.9275, 1.12005, -1188.16, 0.0309068, 0.328657, 1.03299, 0.34851, 0.655882, 3, 45.5, 246, 17, 0.0405988, 0, 0, 1, 0, 28111
-7248.26, 140188, -137.705, 4.33449, -709.61, 0.713631, 0.207863, 0.958125, 0.351078, 0.648177, 3, 182, 246, 21.4212, 0.069313, 0, 0, 1, 0, 28112
-11765.9, 342226, -108.827, 1.03794, -896.35, -0.00495191, 0.359419, 1.03299, 0.34851, 0.655882, 0.0001, 45.5, 246, 25.081, 0.0815282, 0, 0, 1, 0, 28113
-11765.9, 342226, -108.827, 1.03794, -896.35, -0.00495191, 0.359419, 1.03299, 0.34851, 0.655882, 3, 45.5, 246, 25.081, 0.0815282, 0, 0, 1, 0, 28113
-8331.06, 492377, -259.86, 0.467849, -1124.07, 0.167607, 0.469839, 1.03299, 0.34851, 0.655882, 0.0001, 45.5, 246, 36.8659, 0.133131, 0, 0, 0, 0, 28114
-8331.06, 492377, -259.86, 0.467849, -1124.07, 0.167607, 0.469839, 1.03299, 0.34851, 0.655882, 3, 45.5, 246, 36.8659, 0.133131, 0, 0, 0, 0, 28114
-6053.38, 295384, -434.563, 3.75295, -1156.94, 0.0303895, 0.50602, 0.993198, 0.349787, 0.651995, 0.0001, 91, 246, 55.9506, 0.248424, 1.42335, 1, 1, 0, 28115
-6053.38, 295384, -434.563, 3.75295, -1156.94, 0.0303895, 0.50602, 0.993198, 0.349787, 0.651995, 3, 91, 246, 55.9506, 0.248424, 1.33105, 1, 1, 0, 28115
-7989.87, 146537, -209.395, 3.38647, -1100.96, 0.120387, 0.295011, 1.03299, 0.34851, 0.655882, 3, 45.5, 246, 47.406, 0.193826, 0, 0, 0, 0, 28117
-1318.53, 198543, -334.039, 4.13953, -1220.81, 0.254483, 0.351171, 0.958125, 0.351078, 0.648177, 0.0001, 182, 246, 47.406, 0.193826, 2.07182, 1, 0, 0, 28117
-1318.53, 198543, -334.039, 4.13953, -1220.81, 0.254483, 0.351171, 0.958125, 0.351078, 0.648177, 3, 182, 246, 47.406, 0.193826, 1.90739, 1, 0, 0, 28117
-7757.43, 382462, -351.781, 0.384351, -839.083, 0.00828695, 0.644808, 0.993198, 0.349787, 0.651995, 0.0001, 91, 246, 43.3552, 0.247843, 0, 0, 1, 0, 28125
-10610.2, 387929, -127.636, 0.719958, -940.132, 0.0308887, 0.375105, 1.03299, 0.34851, 0.655882, 0.0001, 45.5, 246, 26.5868, 0.0844364, 0, 0, 1, 0, 28126
-10610.2, 387929, -127.636, 0.719958, -940.132, 0.0308887, 0.375105, 1.03299, 0.34851, 0.655882, 3, 45.5, 246, 26.5868, 0.0844364, 0, 0, 1, 0, 28126
-9448.86, 404421, -139.076, 0.750706, -947.508, 0.0334259, 0.343802, 0.993198, 0.349787, 0.651995, 3, 91, 246, 26.5868, 0.0844364, 0, 0, 1, 0, 28126
-4723.42, 336024, -427.978, 3.39143, -870.174, 0.29339, 0.4847, 0.958125, 0.351078, 0.648177, 0.0001, 182, 246, 43.8147, 0.20689, 1.03539, 1, 0, 0, 28131
-8891.66, 659421, -427.764, 0.0977471, -722.871, 0.163374, 0.603737, 1.03299, 0.34851, 0.655882, 0.0001, 45.5, 246, 35.2745, 0.166402, 5.96038, 1, 0, 0, 28134
-8891.66, 659421, -427.764, 0.0977471, -722.871, 0.163374, 0.603737, 1.03299, 0.34851, 0.655882, 3, 45.5, 246, 35.2745, 0.166402, 5.90824, 1, 0, 0, 28134
-8921.05, 83850.1, -33.1099, 1.99336, -1160.8, 0.0016204, 0.282468, 0.993198, 0.349787, 0.651995, 0.0001, 91, 246, 17.5189, 0.0642249, 0, 0, 1, 0, 28135
-8921.05, 83850.1, -33.1099, 1.99336, -1160.8, 0.0016204, 0.282468, 0.993198, 0.349787, 0.651995, 3, 91, 246, 17.5189, 0.0642249, 0, 0, 1, 0, 28135
-11485, 194620, -35.0887, 2.74588, -1000.39, 0.488392, 0.230105, 0.993198, 0.349787, 0.651995, 0.0001, 91, 246, 17.4121, 0.036005, 0, 0, 1, 0, 28139
-11485, 194620, -35.0887, 2.74588, -1000.39, 0.488392, 0.230105, 0.993198, 0.349787, 0.651995, 3, 91, 246, 17.4121, 0.036005, 0, 0, 1, 0, 28139
-9072.08, 219021, -65.1642, 3.03582, -1091.19, 0.56896, 0.231249, 0.958125, 0.351078, 0.648177, 0.0001, 182, 246, 17.4121, 0.036005, 0, 0, 1, 0, 28139
-9072.08, 219021, -65.1642, 3.03582, -1091.19, 0.56896, 0.231249, 0.958125, 0.351078, 0.648177, 3, 182, 246, 17.4121, 0.036005, 0, 0, 1, 0, 28139
-11715.7, 194860, -16.4428, 1.54289, -1031.47, 0.0365166, 0.309276, 1.03299, 0.34851, 0.655882, 0.0001, 45.5, 246, 18.0097, 0.036317, 0, 0, 1, 0, 28140
-11715.7, 194860, -16.4428, 1.54289, -1031.47, 0.0365166, 0.309276, 1.03299, 0.34851, 0.655882, 3, 45.5, 246, 18.0097, 0.036317, 0, 0, 1, 0, 28140
-10490.2, 180583, -212.699, 3.50933, -959.769, 0.057115, 0.263503, 1.03299, 0.34851, 0.655882, 3, 45.5, 246, 42.9757, 0.171759, 0, 0, 0, 0, 28141
-2772.84, 219890, -330.28, 4.27452, -1053, 0.193912, 0.324391, 0.958125, 0.351078, 0.648177, 0.0001, 182, 246, 42.9757, 0.171759, 1.5166, 1, 0, 0, 28141
-2772.84, 219890, -330.28, 4.27452, -1053, 0.193912, 0.324391, 0.958125, 0.351078, 0.648177, 3, 182, 246, 42.9757, 0.171759, 1.33002, 1, 0, 0, 28141
-10291.2, 331586, -205.253, 1.03277, -1063.37, 0.0267816, 0.448509, 1.03299, 0.34851, 0.655882, 0.0001, 45.5, 246, 36.2338, 0.155034, 0, 0, 0, 0, 28142
-10291.2, 331586, -205.253, 1.03277, -1063.37, 0.0267816, 0.448509, 1.03299, 0.34851, 0.655882, 3, 45.5, 246, 36.2338, 0.155034, 0, 0, 0, 0, 28142
-6509.31, 374802, -246.984, 1.13866, -1087.15, 0.0374551, 0.408041, 0.958125, 0.351078, 0.648177, 3, 182, 246, 36.2338, 0.155034, 0, 0, 0, 0, 28142
-7791.11, 666224, -294.833, 0.116, -761.563, 0.00704678, 0.46707, 1.03299, 0.34851, 0.655882, 0.0001, 45.5, 246, 29.8221, 0.114984, 0, 0, 0, 0, 28144
-6871.13, 678247, -305.154, 0.11979, -763.347, 0.00711573, 0.440857, 0.993198, 0.349787, 0.651995, 0.0001, 91, 246, 29.8221, 0.114984, 0, 0, 1, 0, 28144
-5764.92, 517350, -292.744, 0.159475, -1117.03, 0.572937, 0.465798, 0.993198, 0.349787, 0.651995, 0.0001, 91, 246, 36.0451, 0.141104, 0, 0, 1, 0, 28147
-11374.5, 354953, -223.79, 1.06359, -838.845, 0.0649731, 0.457248, 1.03299, 0.34851, 0.655882, 0.0001, 45.5, 246, 33.9636, 0.156914, 0, 0, 0, 0, 28154
-12527.4, 131518, 12.8897, 2.97414, -822.013, -0.0367807, 0.201776, 1.03299, 0.34851, 0.655882, 0.0001, 45.5, 246, 12.2006, 0.0213217, 0, 0, 1, 0, 28163
-12527.4, 131518, 12.8897, 2.97414, -822.013, -0.0367807, 0.201776, 1.03299, 0.34851, 0.655882, 3, 45.5, 246, 12.2006, 0.0213217, 0, 0, 1, 0, 28163
-10938.7, 142580, -9.19789, 3.21028, -819.737, 0.00520468, 0.199647, 0.993198, 0.349787, 0.651995, 0.0001, 91, 246, 12.2006, 0.0213217, 0, 0, 1, 0, 28163
-10938.7, 142580, -9.19789, 3.21028, -819.737, 0.00520468, 0.199647, 0.993198, 0.349787, 0.651995, 3, 91, 246, 12.2006, 0.0213217, 0, 0, 1, 0, 28163
-10954.4, 124563, -42.681, 2.34921, -617.26, -0.0258411, 0.269032, 1.03299, 0.34851, 0.655882, 0.0001, 45.5, 246, 17.212, 0.0618194, 0, 0, 1, 0, 28164
-10954.4, 124563, -42.681, 2.34921, -617.26, -0.0258411, 0.269032, 1.03299, 0.34851, 0.655882, 3, 45.5, 246, 17.212, 0.0618194, 0, 0, 1, 0, 28164
-7279.34, 56748.1, -93.1248, 2.29693, -950.664, 0.190047, 0.297441, 0.993198, 0.349787, 0.651995, 3, 91, 246, 34.1046, 0.143005, 0, 0, 1, 0, 28167
-7777.93, 644429, -357.891, 0.271893, -1009.48, 0.0355988, 0.533365, 1.03299, 0.34851, 0.655882, 0.0001, 45.5, 246, 37.9704, 0.144223, 0, 0, 0, 0, 28169
-7777.93, 644429, -357.891, 0.271893, -1009.48, 0.0355988, 0.533365, 1.03299, 0.34851, 0.655882, 3, 45.5, 246, 37.9704, 0.144223, 0, 0, 0, 0, 28169
-6039.62, 1024.61, -53.9265, 3.61458, -804.981, -0.00733729, 0.174077, 1.03299, 0.34851, 0.655882, 0.0001, 45.5, 246, 29.0633, 0.0369167, 0, 0, 1, 1, 28173
-6039.62, 1024.61, -53.9265, 3.61458, -804.981, -0.00733729, 0.174077, 1.03299, 0.34851, 0.655882, 3, 45.5, 246, 29.0633, 0.0369167, 0, 0, 1, 1, 28173
-8273.63, 952620, -37.211, 0.733301, -1575.48, 1.06866, 0.234285, 0.9175, 0.352806, 0.64323, 0.0001, 455, 246, 22.8539, 0.00590516, 0, 0, 0, 0, 28177
-9912.1, 103407, -67.4483, 3.19304, -1160.68, -0.0484186, 0.220424, 1.03299, 0.34851, 0.655882, 0.0001, 45.5, 246, 28.9519, 0.0996133, 0, 0, 0, 0, 28186
-9912.1, 103407, -67.4483, 3.19304, -1160.68, -0.0484186, 0.220424, 1.03299, 0.34851, 0.655882, 3, 45.5, 246, 28.9519, 0.0996133, 0, 0, 0, 0, 28186
-8382.09, 126536, -108.508, 3.46128, -1163.83, 0.000229712, 0.226189, 0.993198, 0.349787, 0.651995, 0.0001, 91, 246, 28.9519, 0.0996133, 0, 0, 1, 0, 28186
-8382.09, 126536, -108.508, 3.46128, -1163.83, 0.000229712, 0.226189, 0.993198, 0.349787, 0.651995, 3, 91, 246, 28.9519, 0.0996133, 0, 0, 1, 0, 28186
-8291.84, 34277.6, -45.0312, 1.6557, -889.496, 0.000522834, 0.30135, 0.993198, 0.349787, 0.651995, 0.0001, 91, 246, 24.0412, 0.114442, 0, 0, 1, 1, 28189
-8291.84, 34277.6, -45.0312, 1.6557, -889.496, 0.000522834, 0.30135, 0.993198, 0.349787, 0.651995, 3, 91, 246, 24.0412, 0.114442, 0, 0, 1, 1, 28189
-4755.45, 284925, -126.663, 3.68303, -811.953, 0.648347, 0.253633, 0.9175, 0.352806, 0.64323, 3, 455, 246, 15.8673, 0.0424003, 0, 0, 0, 0, 28190
-7579.4, 864671, -96.942, 1.23979, -1034.84, 0.673147, 0.238536, 0.9175, 0.352806, 0.64323, 3, 455, 246, 19.5285, 0.0210685, 0, 0, 0, 0, 28194
-8350.43, 71322.4, -91.454, 3.49465, -635.863, -0.0436544, 0.178052, 1.03299, 0.34851, 0.655882, 0.0001, 45.5, 246, 28.3015, 0.0879233, 0, 0, 1, 0, 28195
-8350.43, 71322.4, -91.454, 3.49465, -635.863, -0.0436544, 0.178052, 1.03299, 0.34851, 0.655882, 3, 45.5, 246, 28.3015, 0.0879233, 0, 0, 1, 0, 28195
-7164.25, 226288, -166.01, 4.43118, -1251.26, 0.672542, 0.206904, 0.958125, 0.351078, 0.648177, 0.0001, 182, 246, 26.2792, 0.0748974, 0, 0, 0, 0, 28197
-7164.25, 226288, -166.01, 4.43118, -1251.26, 0.672542, 0.206904, 0.958125, 0.351078, 0.648177, 3, 182, 246, 26.2792, 0.0748974, 0, 0, 0, 0, 28197
-9125.29, 564672, -369.872, 0.410403, -951.658, 0.0103222, 0.578276, 1.03299, 0.34851, 0.655882, 0.0001, 45.5, 246, 39.4745, 0.172268, 0, 0, 0, 0, 28199
-9125.29, 564672, -369.872, 0.410403, -951.658, 0.0103222, 0.578276, 1.03299, 0.34851, 0.655882, 3, 45.5, 246, 39.4745, 0.172268, 0, 0, 0, 0, 28199
-8045.19, 84845.4, -115.91, 1.59123, -870.243, 0.043673, 0.397045, 1.03299, 0.34851, 0.655882, 0.0001, 45.5, 246, 41.6752, 0.248085, 0, 0, 1, 0, 28202
-8045.19, 84845.4, -115.91, 1.59123, -870.243, 0.043673, 0.397045, 1.03299, 0.34851, 0.655882, 3, 45.5, 246, 41.6752, 0.248085, 0, 0, 1, 0, 28202
-8129.04, 367194, -302.123, 0.251143, -869.331, 0.560852, 0.574061, 1.03299, 0.34851, 0.655882, 0.0001, 45.5, 246, 39.2268, 0.205658, 0, 0, 0, 0, 28208
-10527.2, 308410, -152.58, 0.835396, -729.88, -0.00214912, 0.40281, 1.03299, 0.34851, 0.655882, 0.0001, 45.5, 246, 27.2615, 0.124706, 0, 0, 1, 0, 28212
-10527.2, 308410, -152.58, 0.835396, -729.88, -0.00214912, 0.40281, 1.03299, 0.34851, 0.655882, 3, 45.5, 246, 27.2615, 0.124706, 0, 0, 1, 0, 28212
-9411.74, 318090, -164.88, 0.872054, -733.384, 0.00105082, 0.374517, 0.993198, 0.349787, 0.651995, 0.0001, 91, 246, 27.2615, 0.124706, 0, 0, 1, 0, 28212
-8808.58, 70798.9, -58.4858, 2.04977, -877.25, -0.0197111, 0.309977, 1.03299, 0.34851, 0.655882, 3, 45.5, 246, 26.167, 0.113182, 0, 0, 1, 0, 28213
-5910.23, 129099, -229.073, 3.41604, -1154.88, 0.017689, 0.323933, 1.03299, 0.34851, 0.655882, 0.0001, 45.5, 246, 53.6481, 0.225927, 1.22311, 1, 0, 0, 28218
-5910.23, 129099, -229.073, 3.41604, -1154.88, 0.017689, 0.323933, 1.03299, 0.34851, 0.655882, 3, 45.5, 246, 53.6481, 0.225927, 1.00405, 1, 0, 0, 28218
-3222.6, 154348, -288.859, 3.74398, -1187.57, 0.0742007, 0.344485, 0.993198, 0.349787, 0.651995, 0.0001, 91, 246, 53.6481, 0.225927, 1.4765, 1, 1, 0, 28218
-3222.6, 154348, -288.859, 3.74398, -1187.57, 0.0742007, 0.344485, 0.993198, 0.349787, 0.651995, 3, 91, 246, 53.6481, 0.225927, 1.33965, 1, 1, 0, 28218
575.923, 182888, -361.424, 4.13867, -1241.91, 0.144117, 0.385452, 0.958125, 0.351078, 0.648177, 0.0001, 182, 246, 53.6481, 0.225927, 4.83415, 1, 0, 0, 28218
575.923, 182888, -361.424, 4.13867, -1241.91, 0.144117, 0.385452, 0.958125, 0.351078, 0.648177, 3, 182, 246, 53.6481, 0.225927, 4.34963, 1, 0, 0, 28218
-9549.73, 87329.3, -53.361, 2.59221, -879.158, -0.0308247, 0.264397, 1.03299, 0.34851, 0.655882, 0.0001, 45.5, 246, 23.8019, 0.0878431, 0, 0, 1, 0, 28225
-9549.73, 87329.3, -53.361, 2.59221, -879.158, -0.0308247, 0.264397, 1.03299, 0.34851, 0.655882, 3, 45.5, 246, 23.8019, 0.0878431, 0, 0, 1, 0, 28225
-11687, 394434, -29.0476, 0.618337, -868.661, 0.780749, 0.336431, 1.03299, 0.34851, 0.655882, 0.0001, 45.5, 246, 18.411, 0.0198256, 0, 0, 1, 0, 28228
-11687, 394434, -29.0476, 0.618337, -868.661, 0.780749, 0.336431, 1.03299, 0.34851, 0.655882, 3, 45.5, 246, 18.411, 0.0198256, 0, 0, 1, 0, 28228
-10812.3, 427494, -35.4993, 0.670776, -991.647, 0.892711, 0.3017, 0.993198, 0.349787, 0.651995, 0.0001, 91, 246, 18.411, 0.0198256, 0, 0, 1, 0, 28228
-9661.85, 470271, -43.4856, 0.73137, -1155.5, 1.04184, 0.271756, 0.958125, 0.351078, 0.648177, 0.0001, 182, 246, 18.411, 0.0198256, 0, 0, 1, 0, 28228
-2575.45, 360908, -486.098, 3.07655, -1069.15, 0.234337, 0.610367, 0.958125, 0.351078, 0.648177, 0.0001, 182, 246, 50.9642, 0.246021, 1.25161, 1, 0, 0, 28230
-2575.45, 360908, -486.098, 3.07655, -1069.15, 0.234337, 0.610367, 0.958125, 0.351078, 0.648177, 3, 182, 246, 50.9642, 0.246021, 1.54577, 1, 0, 0, 28230
-10855.7, 254147, -221.029, 1.83654, -1061.12, -0.0064494, 0.454525, 1.03299, 0.34851, 0.655882, 3, 45.5, 246, 41.6454, 0.196324, 0, 0, 0, 0, 28232
-8989.9, 130113, -124.475, 1.9509, -1114.11, 0.0283207, 0.370304, 1.03299, 0.34851, 0.655882, 0.0001, 45.5, 246, 37.0648, 0.178297, 0, 0, 1, 0, 28237
-8989.9, 130113, -124.475, 1.9509, -1114.11, 0.0283207, 0.370304, 1.03299, 0.34851, 0.655882, 3, 45.5, 246, 37.0648, 0.178297, 0, 0, 1, 0, 28237
-8395.43, 661923, -234.153, 0.29738, -992.779, 0.00763791, 0.420216, 1.03299, 0.34851, 0.655882, 0.0001, 45.5, 246, 31.4869, 0.0911081, 0, 0, 0, 0, 28243
-8395.43, 661923, -234.153, 0.29738, -992.779, 0.00763791, 0.420216, 1.03299, 0.34851, 0.655882, 3, 45.5, 246, 31.4869, 0.0911081, 0, 0, 0, 0, 28243
-13028.8, 247733, -89.2901, 3.42099, -994.343, 0.341902, 0.192542, 0.993198, 0.349787, 0.651995, 0.0001, 91, 246, 23.0101, 0.0595439, 0, 0, 1, 0, 28245
-13028.8, 247733, -89.2901, 3.42099, -994.343, 0.341902, 0.192542, 0.993198, 0.349787, 0.651995, 3, 91, 246, 23.0101, 0.0595439, 0, 0, 1, 0, 28245
1123.01, 234573, -381.033, 3.65894, -923.6, 0.967051, 0.442742, 0.9175, 0.352806, 0.64323, 0.0001, 455, 246, 41.5431, 0.202641, 0, 0, 0, 0, 28255
1123.01, 234573, -381.033, 3.65894, -923.6, 0.967051, 0.442742, 0.9175, 0.352806, 0.64323, 3, 455, 246, 41.5431, 0.202641, 0, 0, 0, 0, 28255
-8177.41, 115037, -110.246, 2.14472, -932.342, 0.313847, 0.310112, 0.993198, 0.349787, 0.651995, 3, 91, 246, 30.3189, 0.137674, 0, 0, 1, 0, 28257
-6839.23, -66971.2, 16.9129, 2.87817, -938.073, 0.46311, 0.266351, 1.03299, 0.34851, 0.655882, 0.0001, 45.5, 246, 8.01782, 0.0413963, 1.76458, 1, 1, 0, 28261
-6839.23, -66971.2, 16.9129, 2.87817, -938.073, 0.46311, 0.266351, 1.03299, 0.34851, 0.655882, 3, 45.5, 246, 8.01782, 0.0413963, 1.631, 1, 1, 0, 28261
-10442.8, 208503, -178.753, 1.41098, -620.248, 0.119079, 0.429462, 1.03299, 0.34851, 0.655882, 0.0001, 45.5, 246, 33.853, 0.186178, 0, 0, 1, 0, 28262
-10442.8, 208503, -178.753, 1.41098, -620.248, 0.119079, 0.429462, 1.03299, 0.34851, 0.655882, 3, 45.5, 246, 33.853, 0.186178, 0, 0, 1, 0, 28262
-7351.6, 17925.2, -35.8655, 3.21813, -1122.19, 0.139813, 0.2179, 1.03299, 0.34851, 0.655882, 0.0001, 45.5, 246, 26.0851, 0.0809681, 0, 0, 1, 0, 28267
-7351.6, 17925.2, -35.8655, 3.21813, -1122.19, 0.139813, 0.2179, 1.03299, 0.34851, 0.655882, 3, 45.5, 246, 26.0851, 0.0809681, 0, 0, 1, 0, 28267
-9007.08, 112385, -72.3333, 0.983159, -941.03, 0.0511697, 0.369943, 1.03299, 0.34851, 0.655882, 0.0001, 45.5, 246, 27.0513, 0.145368, 0, 0, 1, 0, 28268
-9007.08, 112385, -72.3333, 0.983159, -941.03, 0.0511697, 0.369943, 1.03299, 0.34851, 0.655882, 3, 45.5, 246, 27.0513, 0.145368, 0, 0, 1, 0, 28268
-10541.2, 128420, -110.951, 3.2587, -746.2, 0.0528728, 0.212402, 1.03299, 0.34851, 0.655882, 0.0001, 45.5, 246, 29.4761, 0.108025, 0, 0, 0, 0, 28273
-10541.2, 128420, -110.951, 3.2587, -746.2, 0.0528728, 0.212402, 1.03299, 0.34851, 0.655882, 3, 45.5, 246, 29.4761, 0.108025, 0, 0, 0, 0, 28273
-7741.83, 803409, -243.154, 0.14092, -841.067, 0.00471405, 0.411196, 1.03299, 0.34851, 0.655882, 0.0001, 45.5, 246, 28.0243, 0.0777783, 0, 0, 0, 0, 28275
-6901.55, 817113, -251.806, 0.145348, -842.634, 0.00480759, 0.380344, 0.993198, 0.349787, 0.651995, 0.0001, 91, 246, 28.0243, 0.0777783, 0, 0, 1, 0, 28275
-11547.5, 121130, 11.0901, 2.37251, -881.87, 0.331937, 0.254098, 1.03299, 0.34851, 0.655882, 3, 45.5, 246, 12.651, 0.0222844, 0, 0, 1, 0, 28276
-6034.19, 187387, -74.8325, 3.23015, -1108.18, 0.539729, 0.252159, 0.9175, 0.352806, 0.64323, 3, 455, 246, 12.651, 0.0222844, 0, 0, 1, 0, 28276
-13947.8, 211301, -132.662, 3.20518, -999.356, 0.418859, 0.222399, 1.03299, 0.34851, 0.655882, 0.0001, 45.5, 246, 32.1323, 0.109853, 0, 0, 0, 0, 28278
-13947.8, 211301, -132.662, 3.20518, -999.356, 0.418859, 0.222399, 1.03299, 0.34851, 0.655882, 3, 45.5, 246, 32.1323, 0.109853, 0, 0, 0, 0, 28278
-7656.93, 181171, -346.902, 3.44943, -593.907, 0.0820719, 0.394889, 1.03299, 0.34851, 0.655882, 0.0001, 45.5, 246, 55.269, 0.249198, 1.59159, 1, 0, 0, 28280
-7656.93, 181171, -346.902, 3.44943, -593.907, 0.0820719, 0.394889, 1.03299, 0.34851, 0.655882, 3, 45.5, 246, 55.269, 0.249198, 1.54104, 1, 0, 0, 28280
-3640.75, 191006, -400.858, 3.8042, -640.342, 0.141671, 0.422442, 0.993198, 0.349787, 0.651995, 0.0001, 91, 246, 55.269, 0.249198, 2.03901, 1, 1, 0, 28280
-3640.75, 191006, -400.858, 3.8042, -640.342, 0.141671, 0.422442, 0.993198, 0.349787, 0.651995, 3, 91, 246, 55.269, 0.249198, 1.95776, 1, 1, 0, 28280
-4485.21, 57022.8, -155.962, 3.21183, -884.542, 0.735933, 0.231974, 1.03299, 0.34851, 0.655882, 0.0001, 45.5, 246, 48.356, 0.144602, 1.24659, 1, 1, 0, 28282
-4485.21, 57022.8, -155.962, 3.21183, -884.542, 0.735933, 0.231974, 1.03299, 0.34851, 0.655882, 3, 45.5, 246, 48.356, 0.144602, 1.0577, 1, 1, 0, 28282
-3310.84, 76018.2, -199.369, 3.64536, -1022.17, 0.891113, 0.241397, 0.993198, 0.349787, 0.651995, 0.0001, 91, 246, 48.356, 0.144602, 1.31383, 1, 1, 0, 28282
-3310.84, 76018.2, -199.369, 3.64536, -1022.17, 0.891113, 0.241397, 0.993198, 0.349787, 0.651995, 3, 91, 246, 48.356, 0.144602, 1.15004, 1, 1, 0, 28282
-1378.98, 103347, -258.58, 4.20918, -1221.79, 1.11588, 0.274787, 0.958125, 0.351078, 0.648177, 0.0001, 182, 246, 48.356, 0.144602, 1.72936, 1, 1, 0, 28282
-1378.98, 103347, -258.58, 4.20918, -1221.79, 1.11588, 0.274787, 0.958125, 0.351078, 0.648177, 3, 182, 246, 48.356, 0.144602, 1.59459, 1, 1, 0, 28282
-9443.7, 158656, -174.492, 1.92444, -693.869, -0.00107709, 0.404992, 1.03299, 0.34851, 0.655882, 3, 45.5, 246, 38.8057, 0.204165, 0, 0, 1, 0, 28286
-2120.17, 316137, -418.869, 3.66451, -1186.75, 0.0847912, 0.465984, 0.958125, 0.351078, 0.648177, 0.0001, 182, 246, 48.7862, 0.212026, 2.22308, 1, 0, 0, 28288
-2120.17, 316137, -418.869, 3.66451, -1186.75, 0.0847912, 0.465984, 0.958125, 0.351078, 0.648177, 3, 182, 246, 48.7862, 0.212026, 2.19923, 1, 0, 0, 28288
-3714.81, 233855, -350.143, 4.23978, -840.483, 0.459549, 0.336528, 0.958125, 0.351078, 0.648177, 0.0001, 182, 246, 40.7493, 0.172321, 1.39016, 1, 0, 0, 28292
-3714.81, 233855, -350.143, 4.23978, -840.483, 0.459549, 0.336528, 0.958125, 0.351078, 0.648177, 3, 182, 246, 40.7493, 0.172321, 1.19685, 1, 0, 0, 28292
-2814.39, 70143.6, -212.747, 3.25046, -852.889, 0.808064, 0.297859, 0.9175, 0.352806, 0.64323, 0.0001, 455, 246, 49.5701, 0.128807, 1.29329, 1, 1, 0, 28293
-2814.39, 70143.6, -212.747, 3.25046, -852.889, 0.808064, 0.297859, 0.9175, 0.352806, 0.64323, 3, 455, 246, 49.5701, 0.128807, 1.20065, 1, 1, 0, 28293
-11993.6, 306840, -241.675, 1.77178, -1043.78, 0.0797412, 0.461893, 1.03299, 0.34851, 0.655882, 0.0001, 45.5, 246, 40.6874, 0.182938, 0, 0, 0, 0, 28296
95.536, 388129, -367.658, 2.22236, -1159.41, 0.143892, 0.452492, 0.9175, 0.352806, 0.64323, 3, 455, 246, 40.6874, 0.182938, 0, 0, 0, 0, 28296
-8671.09, 932035, -68.0861, 0.947477, -845.33, 0.467757, 0.235677, 0.9175, 0.352806, 0.64323, 3, 455, 246, 17.2597, 0.014052, 0, 0, 0, 0, 28299
-3025.12, 348873, -502.918, 3.56092, -932.833, 0.482971, 0.571392, 0.958125, 0.351078, 0.648177, 3, 182, 246, 48.5167, 0.234082, 0, 0, 0, 0, 28302
-11570.6, 171855, -2.91239, 3.2106, -1199.27, 0.785724, 0.197687, 0.993198, 0.349787, 0.651995, 0.0001, 91, 246, 15.3886, 0.020147, 0, 0, 1, 0, 28313
-11570.6, 171855, -2.91239, 3.2106, -1199.27, 0.785724, 0.197687, 0.993198, 0.349787, 0.651995, 3, 91, 246, 15.3886, 0.020147, 0, 0, 1, 0, 28313
-8937.05, 208861, -43.283, 3.64496, -1377.24, 0.955951, 0.212161, 0.958125, 0.351078, 0.648177, 0.0001, 182, 246, 15.3886, 0.020147, 0, 0, 1, 0, 28313
-8937.05, 208861, -43.283, 3.64496, -1377.24, 0.955951, 0.212161, 0.958125, 0.351078, 0.648177, 3, 182, 246, 15.3886, 0.020147, 0, 0, 1, 0, 28313
-10260.2, 608917, -121.803, 0.396162, -941.551, 0.0663613, 0.362315, 1.03299, 0.34851, 0.655882, 0.0001, 45.5, 246, 25.2959, 0.0514382, 0, 0, 1, 0, 28317
-10260.2, 608917, -121.803, 0.396162, -941.551, 0.0663613, 0.362315, 1.03299, 0.34851, 0.655882, 3, 45.5, 246, 25.2959, 0.0514382, 0, 0, 1, 0, 28317
-6637.37, 139992, -78.2327, 3.19366, -1282.03, 1.54397, 0.263544, 0.9175, 0.352806, 0.64323, 3, 455, 246, 11.0463, 0.0303072, 0, 0, 1, 0, 28325
-8364.98, 87817.6, -101.094, 1.63631, -969.114, -0.0124918, 0.376239, 1.03299, 0.34851, 0.655882, 0.0001, 45.5, 246, 36.9688, 0.205524, 0, 0, 1, 0, 28328
-8364.98, 87817.6, -101.094, 1.63631, -969.114, -0.0124918, 0.376239, 1.03299, 0.34851, 0.655882, 3, 45.5, 246, 36.9688, 0.205524, 0, 0, 1, 0, 28328
-11372, 322916, -25.039, 0.711502, -684.503, 0.30612, 0.334888, 1.03299, 0.34851, 0.655882, 0.0001, 45.5, 246, 14.3098, 0.0223895, 0, 0, 1, 0, 28339
-11372, 322916, -25.039, 0.711502, -684.503, 0.30612, 0.334888, 1.03299, 0.34851, 0.655882, 3, 45.5, 246, 14.3098, 0.0223895, 0, 0, 1, 0, 28339
-10593.1, 336913, -30.6304, 0.752148, -719.982, 0.324151, 0.300595, 0.993198, 0.349787, 0.651995, 0.0001, 91, 246, 14.3098, 0.0223895, 0, 0, 1, 0, 28339
-9042.29, 121163, -116.942, 2.0987, -979.631, 0.101417, 0.346215, 1.03299, 0.34851, 0.655882, 0.0001, 45.5, 246, 35.1212, 0.163438, 0, 0, 1, 0, 28343
-9042.29, 121163, -116.942, 2.0987, -979.631, 0.101417, 0.346215, 1.03299, 0.34851, 0.655882, 3, 45.5, 246, 35.1212, 0.163438, 0, 0, 1, 0, 28343
-8856.81, 110823, -117.664, 3.13967, -1157.36, 0.0203313, 0.256485, 1.03299, 0.34851, 0.655882, 0.0001, 45.5, 246, 36.8197, 0.141116, 0, 0, 0, 0, 28345
-8856.81, 110823, -117.664, 3.13967, -1157.36, 0.0203313, 0.256485, 1.03299, 0.34851, 0.655882, 3, 45.5, 246, 36.8197, 0.141116, 0, 0, 0, 0, 28345
-7115.94, 134872, -162.653, 3.41596, -1177.42, 0.0677465, 0.263035, 0.993198, 0.349787, 0.651995, 0.0001, 91, 246, 36.8197, 0.141116, 0, 0, 1, 0, 28345
-7115.94, 134872, -162.653, 3.41596, -1177.42, 0.0677465, 0.263035, 0.993198, 0.349787, 0.651995, 3, 91, 246, 36.8197, 0.141116, 0, 0, 1, 0, 28345
287.312, 200733, -306.145, 4.27866, -1294.59, 0.22456, 0.346557, 0.9175, 0.352806, 0.64323, 0.0001, 455, 246, 36.8197, 0.141116, 2.06288, 1, 0, 0, 28345
287.312, 200733, -306.145, 4.27866, -1294.59, 0.22456, 0.346557, 0.9175, 0.352806, 0.64323, 3, 455, 246, 36.8197, 0.141116, 2.20376, 1, 0, 0, 28345
-8132.52, 13797.3, -52.628, 3.86453, -687.658, 0.414908, 0.287298, 0.9175, 0.352806, 0.64323, 3, 455, 246, 5.46549, 0.031747, 0, 0, 1, 0, 28346
-10700.3, 314460, -201.386, 0.840378, -654.228, 0.256877, 0.447197, 1.03299, 0.34851, 0.655882, 0.0001, 45.5, 246, 30.2817, 0.155299, 0, 0, 1, 0, 28355
-10700.3, 314460, -201.386, 0.840378, -654.228, 0.256877, 0.447197, 1.03299, 0.34851, 0.655882, 3, 45.5, 246, 30.2817, 0.155299, 0, 0, 1, 0, 28355
-9393.85, 327421, -215.735, 0.890827, -686.939, 0.271172, 0.422638, 0.993198, 0.349787, 0.651995, 3, 91, 246, 30.2817, 0.155299, 0, 0, 1, 0, 28355
-7840.9, 341799, -230.978, 0.943604, -723.417, 0.287169, 0.402872, 0.958125, 0.351078, 0.648177, 0.0001, 182, 246, 30.2817, 0.155299, 0, 0, 1, 0, 28355
-7840.9, 341799, -230.978, 0.943604, -723.417, 0.287169, 0.402872, 0.958125, 0.351078, 0.648177, 3, 182, 246, 30.2817, 0.155299, 0, 0, 1, 0, 28355
-9053.86, 502409, -129.803, 0.821048, -872.755, 0.00766516, 0.296923, 0.958125, 0.351078, 0.648177, 3, 182, 246, 23.6185, 0.0600494, 0, 0, 1, 0, 28362
-8592.42, 40341.4, -18.5394, 3.19643, -891.268, 0.108581, 0.202315, 1.03299, 0.34851, 0.655882, 0.0001, 45.5, 246, 18.4876, 0.0574727, 1.16567, 1, 1, 0, 28364
-8592.42, 40341.4, -18.5394, 3.19643, -891.268, 0.108581, 0.202315, 1.03299, 0.34851, 0.655882, 3, 45.5, 246, 18.4876, 0.0574727, 1.09753, 1, 1, 0, 28364
-8523.49, 489134, -330.718, 0.263785, -823.54, 0.449745, 0.546018, 1.03299, 0.34851, 0.655882, 0.0001, 45.5, 246, 35.8361, 0.16648, 0, 0, 0, 0, 28366
-8523.49, 489134, -330.718, 0.263785, -823.54, 0.449745, 0.546018, 1.03299, 0.34851, 0.655882, 3, 45.5, 246, 35.8361, 0.16648, 0, 0, 0, 0, 28366
-7171.84, 516312, -345.148, 0.280445, -889.081, 0.484503, 0.527313, 0.993198, 0.349787, 0.651995, 3, 91, 246, 35.8361, 0.16648, 0, 0, 1, 0, 28366
-3408.64, 113759, -221.332, 3.13766, -1178.42, 0.044468, 0.333645, 0.958125, 0.351078, 0.648177, 0.0001, 182, 246, 48.5966, 0.215236, 1.00551, 1, 1, 0, 28369
-164.701, 149311, -295.319, 3.51326, -1227.23, 0.109711, 0.368062, 0.9175, 0.352806, 0.64323, 0.0001, 455, 246, 48.5966, 0.215236, 3.43823, 1, 0, 0, 28369
-164.701, 149311, -295.319, 3.51326, -1227.23, 0.109711, 0.368062, 0.9175, 0.352806, 0.64323, 3, 455, 246, 48.5966, 0.215236, 3.46264, 1, 0, 0, 28369
-9898.39, 237434, -236.716, 1.30462, -894.046, 0.429337, 0.512726, 1.03299, 0.34851, 0.655882, 3, 45.5, 246, 42.1327, 0.226796, 0, 0, 0, 0, 28370
-8157.62, 259383, -261.466, 1.4112, -968.959, 0.469263, 0.498982, 0.993198, 0.349787, 0.651995, 3, 91, 246, 42.1327, 0.226796, 0, 0, 1, 0, 28370
-10276.7, 410398, -122.618, 0.660137, -1100.19, 0.248628, 0.37019, 1.03299, 0.34851, 0.655882, 0.0001, 45.5, 246, 28.3686, 0.0742965, 0, 0, 1, 0, 28374
-10276.7, 410398, -122.618, 0.660137, -1100.19, 0.248628, 0.37019, 1.03299, 0.34851, 0.655882, 3, 45.5, 246, 28.3686, 0.0742965, 0, 0, 1, 0, 28374
-9133.04, 438432, -134.308, 0.695645, -1147.7, 0.260895, 0.338144, 0.993198, 0.349787, 0.651995, 3, 91, 246, 28.3686, 0.0742965, 0, 0, 1, 0, 28374
-12239.6, 969814, -49.0778, 0.275095, -730.916, 0.151821, 0.341497, 1.03299, 0.34851, 0.655882, 0.0001, 45.5, 246, 18.8733, 0.0132021, 0, 0, 1, 0, 28377
-8154.94, 148257, -218.584, 3.10097, -855.264, -0.0406957, 0.33008, 1.03299, 0.34851, 0.655882, 3, 45.5, 246, 46.7327, 0.204355, 0, 0, 0, 0, 28382
-2386.57, 177155, -315.63, 3.67905, -904.485, 0.0598021, 0.366997, 0.958125, 0.351078, 0.648177, 0.0001, 182, 246, 46.7327, 0.204355, 1.53252, 1, 0, 0, 28382
-2386.57, 177155, -315.63, 3.67905, -904.485, 0.0598021, 0.366997, 0.958125, 0.351078, 0.648177, 3, 182, 246, 46.7327, 0.204355, 1.3159, 1, 0, 0, 28382
-11727.6, 232786, -120.946, 1.73063, -922.221, 0.226323, 0.348702, 1.03299, 0.34851, 0.655882, 0.0001, 45.5, 246, 28.9459, 0.114515, 0, 0, 1, 0, 28383
-11727.6, 232786, -120.946, 1.73063, -922.221, 0.226323, 0.348702, 1.03299, 0.34851, 0.655882, 3, 45.5, 246, 28.9459, 0.114515, 0, 0, 1, 0, 28383
-9191.36, 41939.4, 18.2753, 2.9387, -659.757, 0.688123, 0.208866, 1.03299, 0.34851, 0.655882, 0.0001, 45.5, 246, 7.55285, 0.0214204, 0, 0, 1, 0, 28391
-9191.36, 41939.4, 18.2753, 2.9387, -659.757, 0.688123, 0.208866, 1.03299, 0.34851, 0.655882, 3, 45.5, 246, 7.55285, 0.0214204, 0, 0, 1, 0, 28391
-8759.42, 51883.6, -0.117436, 3.30493, -742.011, 0.820036, 0.207883, 0.993198, 0.349787, 0.651995, 0.0001, 91, 246, 7.55285, 0.0214204, 0, 0, 1, 0, 28391
-8759.42, 51883.6, -0.117436, 3.30493, -742.011, 0.820036, 0.207883, 0.993198, 0.349787, 0.651995, 3, 91, 246, 7.55285, 0.0214204, 0, 0, 1, 0, 28391
-8035.81, 65310, -25.8451, 3.76851, -857.573, 1.00515, 0.226306, 0.958125, 0.351078, 0.648177, 0.0001, 182, 246, 7.55285, 0.0214204, 0, 0, 1, 0, 28391
-8035.81, 65310, -25.8451, 3.76851, -857.573, 1.00515, 0.226306, 0.958125, 0.351078, 0.648177, 3, 182, 246, 7.55285, 0.0214204, 0, 0, 1, 0, 28391
-6307.63, 93086, -79.276, 4.63364, -1106.37, 1.40177, 0.290484, 0.9175, 0.352806, 0.64323, 0.0001, 455, 246, 7.55285, 0.0214204, 0, 0, 1, 0, 28391
-6307.63, 93086, -79.276, 4.63364, -1106.37, 1.40177, 0.290484, 0.9175, 0.352806, 0.64323, 3, 455, 246, 7.55285, 0.0214204, 0, 0, 1, 0, 28391
-4632.47, 113715, -262.878, 2.83874, -606.088, 0.434527, 0.375164, 1.03299, 0.34851, 0.655882, 0.0001, 45.5, 246, 56.3509, 0.246317, 1.58332, 1, 1, 0, 28396
-4632.47, 113715, -262.878, 2.83874, -606.088, 0.434527, 0.375164, 1.03299, 0.34851, 0.655882, 3, 45.5, 246, 56.3509, 0.246317, 1.47054, 1, 1, 0, 28396
-2467.66, 125066, -302.316, 3.15295, -675.895, 0.508826, 0.382139, 0.993198, 0.349787, 0.651995, 0.0001, 91, 246, 56.3509, 0.246317, 1.75148, 1, 1, 0, 28396
-2467.66, 125066, -302.316, 3.15295, -675.895, 0.508826, 0.382139, 0.993198, 0.349787, 0.651995, 3, 91, 246, 56.3509, 0.246317, 1.64365, 1, 1, 0, 28396
373.346, 139846, -351.079, 3.53395, -767.837, 0.606615, 0.406128, 0.958125, 0.351078, 0.648177, 0.0001, 182, 246, 56.3509, 0.246317, 2.60028, 1, 1, 1, 28396
373.346, 139846, -351.079, 3.53395, -767.837, 0.606615, 0.406128, 0.958125, 0.351078, 0.648177, 3, 182, 246, 56.3509, 0.246317, 2.45153, 1, 1, 1, 28396
-6552.51, 237006, -332.096, 3.57402, -1074.33, 0.2454, 0.388264, 0.993198, 0.349787, 0.651995, 0.0001, 91, 246, 48.8469, 0.211921, 1.00163, 1, 1, 0, 28398
-1332.89, 264660, -403.044, 3.98, -1160.39, 0.320422, 0.426743, 0.958125, 0.351078, 0.648177, 0.0001, 182, 246, 48.8469, 0.211921, 3.76933, 1, 0, 0, 28398
-1332.89, 264660, -403.044, 3.98, -1160.39, 0.320422, 0.426743, 0.958125, 0.351078, 0.648177, 3, 182, 246, 48.8469, 0.211921, 3.39407, 1, 0, 0, 28398
-7324.96, 646311, -241.616, 0.165271, -935.117, 0.631504, 0.418191, 1.03299, 0.34851, 0.655882, 0.0001, 45.5, 246, 30.1401, 0.0859104, 0, 0, 0, 0, 28399
-6489.15, 687798, -250.817, 0.17662, -1039.96, 0.70165, 0.387944, 0.993198, 0.349787, 0.651995, 0.0001, 91, 246, 30.1401, 0.0859104, 0, 0, 1, 0, 28399
-6329.77, 474771, -305.598, 0.26235, -1032.4, 0.123668, 0.504979, 0.993198, 0.349787, 0.651995, 0.0001, 91, 246, 38.1485, 0.168061, 0, 0, 1, 0, 28400
-5068.35, 498788, -318.558, 0.273128, -1055.22, 0.126454, 0.488531, 0.958125, 0.351078, 0.648177, 0.0001, 182, 246, 38.1485, 0.168061, 0, 0, 0, 0, 28400
-4138.59, 55292.2, -180.02, 3.25206, -531.789, 0.771437, 0.209302, 1.03299, 0.34851, 0.655882, 0.0001, 45.5, 246, 47.2224, 0.1207, 1.38438, 1, 1, 0, 28403
-4138.59, 55292.2, -180.02, 3.25206, -531.789, 0.771437, 0.209302, 1.03299, 0.34851, 0.655882, 3, 45.5, 246, 47.2224, 0.1207, 1.24914, 1, 1, 0, 28403
-2976.14, 64280.6, -214.158, 3.69986, -627.46, 0.938877, 0.218804, 0.993198, 0.349787, 0.651995, 0.0001, 91, 246, 47.2224, 0.1207, 1.34676, 1, 1, 0, 28403
-2976.14, 64280.6, -214.158, 3.69986, -627.46, 0.938877, 0.218804, 0.993198, 0.349787, 0.651995, 3, 91, 246, 47.2224, 0.1207, 1.217, 1, 1, 0, 28403
-1301.72, 77486.7, -260.139, 4.28741, -767.998, 1.18457, 0.253188, 0.958125, 0.351078, 0.648177, 0.0001, 182, 246, 47.2224, 0.1207, 1.51806, 1, 1, 0, 28403
-1301.72, 77486.7, -260.139, 4.28741, -767.998, 1.18457, 0.253188, 0.958125, 0.351078, 0.648177, 3, 182, 246, 47.2224, 0.1207, 1.39575, 1, 1, 0, 28403
2347.34, 108427, -354.45, 5.45534, -1096.25, 1.75689, 0.35493, 0.9175, 0.352806, 0.64323, 0.0001, 455, 246, 47.2224, 0.1207, 2.92772, 1, 1, 1, 28403
2347.34, 108427, -354.45, 5.45534, -1096.25, 1.75689, 0.35493, 0.9175, 0.352806, 0.64323, 3, 455, 246, 47.2224, 0.1207, 2.92766, 1, 1, 1, 28403
-9621.24, 71277.7, -14.3072, 2.25322, -912.392, 0.0412775, 0.277586, 1.03299, 0.34851, 0.655882, 0.0001, 45.5, 246, 16.3569, 0.0551719, 0, 0, 1, 0, 28407
-9621.24, 71277.7, -14.3072, 2.25322, -912.392, 0.0412775, 0.277586, 1.03299, 0.34851, 0.655882, 3, 45.5, 246, 16.3569, 0.0551719, 0, 0, 1, 0, 28407
-2940.04, 130712, -229.139, 2.89301, -1243.08, 1.58016, 0.338547, 0.9175, 0.352806, 0.64323, 0.0001, 455, 246, 45.7783, 0.214052, 1.17535, 1, 0, 0, 28409
-2940.04, 130712, -229.139, 2.89301, -1243.08, 1.58016, 0.338547, 0.9175, 0.352806, 0.64323, 3, 455, 246, 45.7783, 0.214052, 1.21917, 1, 0, 0, 28409
-11213.9, 218578, -27.1579, 1.13655, -804.755, 0.157516, 0.325997, 1.03299, 0.34851, 0.655882, 0.0001, 45.5, 246, 16.0951, 0.0371054, 0, 0, 1, 0, 28412
-10329.3, 231981, -37.0091, 1.20081, -826.685, 0.167684, 0.29484, 0.993198, 0.349787, 0.651995, 0.0001, 91, 246, 16.0951, 0.0371054, 0, 0, 1, 0, 28412
-12144.9, 246750, -26.7575, 1.29519, -754.139, 0.0314667, 0.318931, 1.03299, 0.34851, 0.655882, 0.0001, 45.5, 246, 15.5431, 0.0338383, 0, 0, 1, 0, 28424
-12144.9, 246750, -26.7575, 1.29519, -754.139, 0.0314667, 0.318931, 1.03299, 0.34851, 0.655882, 3, 45.5, 246, 15.5431, 0.0338383, 0, 0, 1, 0, 28424
-10964.8, 257021, -37.1485, 1.36288, -759.486, 0.0394182, 0.289095, 0.993198, 0.349787, 0.651995, 3, 91, 246, 15.5431, 0.0338383, 0, 0, 1, 0, 28424
-8637.8, 121416, -152.857, 2.77634, -818.181, 0.142455, 0.302249, 1.03299, 0.34851, 0.655882, 3, 45.5, 246, 38.6982, 0.164922, 0, 0, 1, 0, 28425
-712.174, 175220, -295.552, 3.77376, -984.917, 0.32282, 0.355952, 0.9175, 0.352806, 0.64323, 0.0001, 455, 246, 38.6982, 0.164922, 1.39543, 1, 0, 0, 28425
-712.174, 175220, -295.552, 3.77376, -984.917, 0.32282, 0.355952, 0.9175, 0.352806, 0.64323, 3, 455, 246, 38.6982, 0.164922, 1.39961, 1, 0, 0, 28425
-13974.1, 219079, -53.3353, 2.56481, -1171.58, -0.0140775, 0.255671, 1.03299, 0.34851, 0.655882, 0.0001, 45.5, 246, 25.4733, 0.0676727, 0, 0, 0, 0, 28426
-13974.1, 219079, -53.3353, 2.56481, -1171.58, -0.0140775, 0.255671, 1.03299, 0.34851, 0.655882, 3, 45.5, 246, 25.4733, 0.0676727, 0, 0, 0, 0, 28426
-5005.71, 55115.2, -142.174, 3.31127, -1135.66, 0.117302, 0.259914, 0.993198, 0.349787, 0.651995, 0.0001, 91, 246, 44.1478, 0.127221, 0, 0, 1, 1, 28434
-1102.35, 116187, -273.602, 4.15043, -1264.39, 0.27098, 0.333519, 0.9175, 0.352806, 0.64323, 0.0001, 455, 246, 44.1478, 0.127221, 1.96804, 1, 0, 0, 28434
-1102.35, 116187, -273.602, 4.15043, -1264.39, 0.27098, 0.333519, 0.9175, 0.352806, 0.64323, 3, 455, 246, 44.1478, 0.127221, 1.94398, 1, 0, 0, 28434
-8383.55, 268125, -211.584, 0.966014, -906.189, 0.00118604, 0.449482, 0.993198, 0.349787, 0.651995, 0.0001, 91, 246, 36.8149, 0.193711, 0, 0, 1, 0, 28439
-10026.1, 304866, -176.641, 1.0419, -1139.22, 0.0329755, 0.424732, 1.03299, 0.34851, 0.655882, 0.0001, 45.5, 246, 35.2056, 0.143678, 0, 0, 0, 0, 28441
-10026.1, 304866, -176.641, 1.0419, -1139.22, 0.0329755, 0.424732, 1.03299, 0.34851, 0.655882, 3, 45.5, 246, 35.2056, 0.143678, 0, 0, 0, 0, 28441
-7240.46, 804903, -166.472, 0.173922, -1040.94, 0.0419347, 0.337641, 0.993198, 0.349787, 0.651995, 0.0001, 91, 246, 28.6683, 0.051576, 0, 0, 1, 0, 28444
-3420.24, 49336.9, -164.656, 3.57004, -872.586, 0.264874, 0.196357, 1.03299, 0.34851, 0.655882, 0.0001, 45.5, 246, 51.3623, 0.128134, 1.38686, 1, 1, 0, 28445
-2236.24, 64954.6, -211.146, 3.96546, -934.172, 0.34147, 0.214696, 0.993198, 0.349787, 0.651995, 0.0001, 91, 246, 51.3623, 0.128134, 1.41511, 1, 1, 0, 28445
-2236.24, 64954.6, -211.146, 3.96546, -934.172, 0.34147, 0.214696, 0.993198, 0.349787, 0.651995, 3, 91, 246, 51.3623, 0.128134, 1.26542, 1, 1, 0, 28445
-390.34, 84097.2, -270.104, 4.45469, -1020.88, 0.443153, 0.257002, 0.958125, 0.351078, 0.648177, 0.0001, 182, 246, 51.3623, 0.128134, 1.81059, 1, 1, 0, 28445
-390.34, 84097.2, -270.104, 4.45469, -1020.88, 0.443153, 0.257002, 0.958125, 0.351078, 0.648177, 3, 182, 246, 51.3623, 0.128134, 1.67958, 1, 1, 0, 28445
-9837.2, 139738, -146.453, 2.27999, -613.804, 0.629537, 0.326443, 1.03299, 0.34851, 0.655882, 0.0001, 45.5, 246, 32.6912, 0.149153, 0, 0, 1, 0, 28448
-7667.84, 256550, -246.803, 1.10863, -1144.69, 0.160112, 0.516386, 0.993198, 0.349787, 0.651995, 0.0001, 91, 246, 44.2542, 0.242417, 0, 0, 1, 0, 28453
-4488.75, 837980, -345.84, 0.72367, -922.423, 0.987623, 0.368782, 0.9175, 0.352806, 0.64323, 3, 455, 246, 25.165, 0.0969834, 0, 0, 0, 0, 28457
-9784.77, 318500, -287.294, 0.909781, -969.216, 0.122196, 0.579018, 1.03299, 0.34851, 0.655882, 0.0001, 45.5, 246, 43.5466, 0.230133, 0, 0, 0, 0, 28465
-9784.77, 318500, -287.294, 0.909781, -969.216, 0.122196, 0.579018, 1.03299, 0.34851, 0.655882, 3, 45.5, 246, 43.5466, 0.230133, 0, 0, 0, 0, 28465
-7944, 339036, -310.074, 0.962061, -996.031, 0.128523, 0.567249, 0.993198, 0.349787, 0.651995, 3, 91, 246, 43.5466, 0.230133, 0, 0, 1, 0, 28465
-14152.1, 163567, -4.14981, 3.35321, -1052.02, -0.0521666, 0.161917, 1.03299, 0.34851, 0.655882, 0.0001, 45.5, 246, 18.8165, 0.0396485, 0, 0, 0, 0, 28478
-14152.1, 163567, -4.14981, 3.35321, -1052.02, -0.0521666, 0.161917, 1.03299, 0.34851, 0.655882, 3, 45.5, 246, 18.8165, 0.0396485, 0, 0, 0, 0, 28478
-11785.9, 181897, -38.0716, 3.63992, -1049.63, 0.00155897, 0.169518, 0.993198, 0.349787, 0.651995, 0.0001, 91, 246, 18.8165, 0.0396485, 0, 0, 1, 0, 28478
-11785.9, 181897, -38.0716, 3.63992, -1049.63, 0.00155897, 0.169518, 0.993198, 0.349787, 0.651995, 3, 91, 246, 18.8165, 0.0396485, 0, 0, 1, 0, 28478
-6892.67, 49035.8, -95.4678, 2.72444, -1074.23, 0.00301365, 0.279482, 0.993198, 0.349787, 0.651995, 0.0001, 91, 246, 34.5476, 0.122509, 0, 0, 1, 1, 28480
-6892.67, 49035.8, -95.4678, 2.72444, -1074.23, 0.00301365, 0.279482, 0.993198, 0.349787, 0.651995, 3, 91, 246, 34.5476, 0.122509, 0, 0, 1, 1, 28480
-7961.12, 509426, -329.611, 0.203649, -864.971, 0.103751, 0.548621, 1.03299, 0.34851, 0.655882, 0.0001, 45.5, 246, 36.6473, 0.168639, 0, 0, 0, 0, 28489
-7143.12, 165420, -320.984, 3.48052, -637.917, 0.354269, 0.34261, 1.03299, 0.34851, 0.655882, 0.0001, 45.5, 246, 53.3453, 0.228571, 1.55049, 1, 0, 0, 28493
-7143.12, 165420, -320.984, 3.48052, -637.917, 0.354269, 0.34261, 1.03299, 0.34851, 0.655882, 3, 45.5, 246, 53.3453, 0.228571, 1.49, 1, 0, 0, 28493
-3453.98, 178746, -374.608, 3.89482, -713.664, 0.438465, 0.368031, 0.993198, 0.349787, 0.651995, 0.0001, 91, 246, 53.3453, 0.228571, 1.91552, 1, 1, 1, 28493
-3453.98, 178746, -374.608, 3.89482, -713.664, 0.438465, 0.368031, 0.993198, 0.349787, 0.651995, 3, 91, 246, 53.3453, 0.228571, 1.82838, 1, 1, 1, 28493
-3521.43, 146754, -271.37, 3.85307, -757.905, 0.489966, 0.30552, 0.958125, 0.351078, 0.648177, 0.0001, 182, 246, 40.6906, 0.165023, 1.0844, 1, 1, 0, 28498
1398.45, 170954, -350.951, 4.55372, -901.374, 0.659834, 0.376795, 0.9175, 0.352806, 0.64323, 0.0001, 455, 246, 40.6906, 0.165023, 2.74147, 1, 0, 0, 28498
1398.45, 170954, -350.951, 4.55372, -901.374, 0.659834, 0.376795, 0.9175, 0.352806, 0.64323, 3, 455, 246, 40.6906, 0.165023, 2.74795, 1, 0, 0, 28498
-11096.6, 351538, -220.572, 0.900134, -722.717, 0.0843905, 0.459043, 1.03299, 0.34851, 0.655882, 0.0001, 45.5, 246, 31.9285, 0.156824, 0, 0, 0, 0, 28499
-11096.6, 351538, -220.572, 0.900134, -722.717, 0.0843905, 0.459043, 1.03299, 0.34851, 0.655882, 3, 45.5, 246, 31.9285, 0.156824, 0, 0, 0, 0, 28499
