-7451.09, 910575, -336.134, 0.130319, -879.588, 0.000892638, 0.459685, 1.03299, 0.34851, 0.655882, 0.0001, 45.5, 246, 31.6772, 0.0951979, 0, 0, 0, 0, 51001
-7451.09, 910575, -336.134, 0.130319, -879.588, 0.000892638, 0.459685, 1.03299, 0.34851, 0.655882, 3, 45.5, 246, 31.6772, 0.0951979, 0, 0, 0, 0, 51001
93.2507, 211305, -315.636, 4.8835, -820.32, 0.323461, 0.337143, 0.9175, 0.352806, 0.64323, 0.0001, 455, 246, 31.8521, 0.122999, 1.04529, 1, 0, 0, 51010
93.2507, 211305, -315.636, 4.8835, -820.32, 0.323461, 0.337143, 0.9175, 0.352806, 0.64323, 3, 455, 246, 31.8521, 0.122999, 1.06421, 1, 0, 0, 51010
-12470.6, 369810, -366.313, 1.58902, -1022.45, 0.303606, 0.62643, 1.03299, 0.34851, 0.655882, 0.0001, 45.5, 246, 48.0019, 0.234616, 0, 0, 0, 0, 51011
-12470.6, 369810, -366.313, 1.58902, -1022.45, 0.303606, 0.62643, 1.03299, 0.34851, 0.655882, 3, 45.5, 246, 48.0019, 0.234616, 0, 0, 0, 0, 51011
-9665.19, 503741, -335.243, 0.279604, -665.861, 0.0188975, 0.559875, 1.03299, 0.34851, 0.655882, 3, 45.5, 246, 33.9989, 0.175497, 0, 0, 0, 0, 51013
-1229.03, 345427, -345.422, 3.18654, -745.03, 0.156925, 0.385323, 0.9175, 0.352806, 0.64323, 0.0001, 455, 246, 32.4148, 0.148098, 0, 0, 0, 0, 51016
-1229.03, 345427, -345.422, 3.18654, -745.03, 0.156925, 0.385323, 0.9175, 0.352806, 0.64323, 3, 455, 246, 32.4148, 0.148098, 0, 0, 0, 0, 51016
-7679.91, 582602, -340.3, 0.390982, -1157.25, -0.000109141, 0.53467, 1.03299, 0.34851, 0.655882, 0.0001, 45.5, 246, 40.7651, 0.152094, 0, 0, 0, 0, 51017
-7679.91, 582602, -340.3, 0.390982, -1157.25, -0.000109141, 0.53467, 1.03299, 0.34851, 0.655882, 3, 45.5, 246, 40.7651, 0.152094, 0, 0, 0, 0, 51017
-10659.5, 299670, -208.147, 1.22614, -985.971, 0.0160465, 0.454472, 1.03299, 0.34851, 0.655882, 0.0001, 45.5, 246, 36.8614, 0.170373, 0, 0, 0, 0, 51026
-11755, 332869, -439.477, 3.30189, -612.254, 0.0671522, 0.518844, 0.993198, 0.349787, 0.651995, 0.0001, 91, 246, 45.6422, 0.228865, 1.05615, 1, 1, 0, 51032
-4922.14, 345030, -501.536, 3.63368, -664.542, 0.121238, 0.558242, 0.958125, 0.351078, 0.648177, 0.0001, 182, 246, 45.6422, 0.228865, 2.41127, 1, 0, 0, 51032
-4922.14, 345030, -501.536, 3.63368, -664.542, 0.121238, 0.558242, 0.958125, 0.351078, 0.648177, 3, 182, 246, 45.6422, 0.228865, 2.24644, 1, 0, 0, 51032
-9956.9, 298254, -30.6857, 1.4245, -864.144, 0.017716, 0.260757, 0.958125, 0.351078, 0.648177, 0.0001, 182, 246, 15.3955, 0.0188162, 0, 0, 1, 0, 51042
-10598.6, 191910, -138.125, 1.73977, -846.049, 0.319572, 0.369045, 1.03299, 0.34851, 0.655882, 0.0001, 45.5, 246, 31.7849, 0.145824, 0, 0, 1, 0, 51050
-10598.6, 191910, -138.125, 1.73977, -846.049, 0.319572, 0.369045, 1.03299, 0.34851, 0.655882, 3, 45.5, 246, 31.7849, 0.145824, 0, 0, 1, 0, 51050
-9082.31, 208878, -160.763, 1.87828, -899.363, 0.35169, 0.349692, 0.993198, 0.349787, 0.651995, 3, 91, 246, 31.7849, 0.145824, 0, 0, 1, 0, 51050
-9547.64, 84615.5, -49.5429, 2.74001, -950.086, -0.0345847, 0.252277, 1.03299, 0.34851, 0.655882, 0.0001, 45.5, 246, 23.9905, 0.0855454, 0, 0, 1, 0, 51052
-9547.64, 84615.5, -49.5429, 2.74001, -950.086, -0.0345847, 0.252277, 1.03299, 0.34851, 0.655882, 3, 45.5, 246, 23.9905, 0.0855454, 0, 0, 1, 0, 51052
-8357.5, 919295, -163.78, 0.144088, -742.754, 0.463609, 0.330859, 0.993198, 0.349787, 0.651995, 0.0001, 91, 246, 21.2412, 0.0420091, 0, 0, 1, 0, 51054
-11078, 389418, -278.054, 0.910497, -847.421, 0.219527, 0.514843, 1.03299, 0.34851, 0.655882, 0.0001, 45.5, 246, 36.9848, 0.177211, 0, 0, 0, 0, 51055
-11078, 389418, -278.054, 0.910497, -847.421, 0.219527, 0.514843, 1.03299, 0.34851, 0.655882, 3, 45.5, 246, 36.9848, 0.177211, 0, 0, 0, 0, 51055
-10362.6, 113922, -60.6116, 2.41324, -764.594, 0.395529, 0.271195, 1.03299, 0.34851, 0.655882, 0.0001, 45.5, 246, 22.5315, 0.0827313, 0, 0, 1, 0, 51059
-9224.19, 127290, -83.1328, 2.64401, -822.322, 0.451818, 0.259046, 0.993198, 0.349787, 0.651995, 0.0001, 91, 246, 22.5315, 0.0827313, 0, 0, 1, 0, 51059
-4812.74, 171041, -159.153, 3.35469, -1026.76, 0.651077, 0.279692, 0.9175, 0.352806, 0.64323, 0.0001, 455, 246, 22.5315, 0.0827313, 0, 0, 1, 0, 51059
-4812.74, 171041, -159.153, 3.35469, -1026.76, 0.651077, 0.279692, 0.9175, 0.352806, 0.64323, 3, 455, 246, 22.5315, 0.0827313, 0, 0, 1, 0, 51059
-21694.6, 373096, -313.334, 3.2823, -681.252, -0.0208908, 0.356445, 1.03299, 0.34851, 0.655882, 0.0001, 45.5, 246, 38.396, 0.169882, 0, 0, 0, 0, 51066
-21694.6, 373096, -313.334, 3.2823, -681.252, -0.0208908, 0.356445, 1.03299, 0.34851, 0.655882, 3, 45.5, 246, 38.396, 0.169882, 0, 0, 0, 0, 51066
-4044, 209697, -302.345, 4.38872, -884.89, 0.0810324, 0.286544, 0.958125, 0.351078, 0.648177, 0.0001, 182, 246, 38.9117, 0.152211, 1.04004, 1, 0, 0, 51068
-5190.89, 534385, -363.636, 0.144838, -1094.51, 0.129198, 0.559285, 0.993198, 0.349787, 0.651995, 0.0001, 91, 246, 41.1637, 0.1791, 0, 0, 1, 0, 51074
-10369.7, 146236, -23.939, 1.36238, -961.881, -0.00557199, 0.32165, 1.03299, 0.34851, 0.655882, 0.0001, 45.5, 246, 17.4166, 0.0498237, 0, 0, 1, 0, 51085
-10369.7, 146236, -23.939, 1.36238, -961.881, -0.00557199, 0.32165, 1.03299, 0.34851, 0.655882, 3, 45.5, 246, 17.4166, 0.0498237, 0, 0, 1, 0, 51085
-7441.77, 674313, -357.176, 0.159726, -913.266, -0.000116283, 0.524613, 1.03299, 0.34851, 0.655882, 0.0001, 45.5, 246, 35.6495, 0.138305, 0, 0, 0, 0, 51088
-7441.77, 674313, -357.176, 0.159726, -913.266, -0.000116283, 0.524613, 1.03299, 0.34851, 0.655882, 3, 45.5, 246, 35.6495, 0.138305, 0, 0, 0, 0, 51088
-4653.46, 293096, -388.632, 3.99628, -815.4, 0.0648049, 0.388295, 0.958125, 0.351078, 0.648177, 0.0001, 182, 246, 41.8514, 0.184293, 1.34239, 1, 0, 0, 51089
-4653.46, 293096, -388.632, 3.99628, -815.4, 0.0648049, 0.388295, 0.958125, 0.351078, 0.648177, 3, 182, 246, 41.8514, 0.184293, 1.14449, 1, 0, 0, 51089
-8854.27, 451326, -305.871, 0.576859, -1079.28, -0.0015199, 0.542951, 1.03299, 0.34851, 0.655882, 3, 45.5, 246, 40.6445, 0.177399, 0, 0, 0, 0, 51092
-9180.33, 192117, -242.359, 2.46983, -1037.39, -0.0240545, 0.451573, 1.03299, 0.34851, 0.655882, 0.0001, 45.5, 246, 48.8902, 0.239314, 0, 0, 0, 0, 51097
-9180.33, 192117, -242.359, 2.46983, -1037.39, -0.0240545, 0.451573, 1.03299, 0.34851, 0.655882, 3, 45.5, 246, 48.8902, 0.239314, 0, 0, 0, 0, 51097
-6531.12, 212043, -285.545, 2.6599, -1053.55, 0.00482078, 0.45399, 0.993198, 0.349787, 0.651995, 0.0001, 91, 246, 48.8902, 0.239314, 0, 0, 1, 0, 51097
-6531.12, 212043, -285.545, 2.6599, -1053.55, 0.00482078, 0.45399, 0.993198, 0.349787, 0.651995, 3, 91, 246, 48.8902, 0.239314, 0, 0, 1, 0, 51097
-7091.73, 951505, -301.925, 0.064812, -788.943, 0.00235415, 0.43184, 1.03299, 0.34851, 0.655882, 0.0001, 45.5, 246, 28.2564, 0.0814737, 0, 0, 0, 0, 51099
-7091.73, 951505, -301.925, 0.064812, -788.943, 0.00235415, 0.43184, 1.03299, 0.34851, 0.655882, 3, 45.5, 246, 28.2564, 0.0814737, 0, 0, 0, 0, 51099
-6179.92, 964209, -311.55, 0.0667871, -789.77, 0.00237404, 0.402596, 0.993198, 0.349787, 0.651995, 3, 91, 246, 28.2564, 0.0814737, 0, 0, 1, 0, 51099
-10264.8, 406065, -315.465, 1.01201, -1145.56, 0.070879, 0.566079, 1.03299, 0.34851, 0.655882, 0.0001, 45.5, 246, 44.0551, 0.198049, 0, 0, 0, 0, 51103
-10264.8, 406065, -315.465, 1.01201, -1145.56, 0.070879, 0.566079, 1.03299, 0.34851, 0.655882, 3, 45.5, 246, 44.0551, 0.198049, 0, 0, 0, 0, 51103
1351.52, 274719, -365.029, 4.61513, -859.603, 0.193311, 0.364189, 0.9175, 0.352806, 0.64323, 0.0001, 455, 246, 34.2696, 0.138569, 1.4886, 1, 0, 0, 51107
1351.52, 274719, -365.029, 4.61513, -859.603, 0.193311, 0.364189, 0.9175, 0.352806, 0.64323, 3, 455, 246, 34.2696, 0.138569, 1.76187, 1, 0, 0, 51107
-12006.4, 391837, -85.7328, 0.912889, -997.089, -0.00042881, 0.348076, 1.03299, 0.34851, 0.655882, 0.0001, 45.5, 246, 24.4002, 0.0583586, 0, 0, 1, 0, 51108
-12006.4, 391837, -85.7328, 0.912889, -997.089, -0.00042881, 0.348076, 1.03299, 0.34851, 0.655882, 3, 45.5, 246, 24.4002, 0.0583586, 0, 0, 1, 0, 51108
-7176.91, 145016, -259.365, 3.56894, -701.285, -0.0388094, 0.284287, 1.03299, 0.34851, 0.655882, 0.0001, 45.5, 246, 49.7393, 0.204085, 1.35624, 1, 0, 0, 51109
-7176.91, 145016, -259.365, 3.56894, -701.285, -0.0388094, 0.284287, 1.03299, 0.34851, 0.655882, 3, 45.5, 246, 49.7393, 0.204085, 1.2662, 1, 0, 0, 51109
-4161.13, 154926, -308.564, 3.90729, -728.166, 0.0224674, 0.307265, 0.993198, 0.349787, 0.651995, 0.0001, 91, 246, 49.7393, 0.204085, 1.57266, 1, 1, 0, 51109
-4161.13, 154926, -308.564, 3.90729, -728.166, 0.0224674, 0.307265, 0.993198, 0.349787, 0.651995, 3, 91, 246, 49.7393, 0.204085, 1.46222, 1, 1, 0, 51109
-317.685, 167097, -368.165, 4.31684, -771.644, 0.0971091, 0.351823, 0.958125, 0.351078, 0.648177, 0.0001, 182, 246, 49.7393, 0.204085, 2.54921, 1, 0, 0, 51109
-317.685, 167097, -368.165, 4.31684, -771.644, 0.0971091, 0.351823, 0.958125, 0.351078, 0.648177, 3, 182, 246, 49.7393, 0.204085, 2.39123, 1, 0, 0, 51109
-3856.34, 357105, -517.18, 3.28614, -857.866, 0.843394, 0.613239, 0.958125, 0.351078, 0.648177, 0.0001, 182, 246, 47.1751, 0.239908, 2.51202, 1, 0, 0, 51110
-3856.34, 357105, -517.18, 3.28614, -857.866, 0.843394, 0.613239, 0.958125, 0.351078, 0.648177, 3, 182, 246, 47.1751, 0.239908, 2.38084, 1, 0, 0, 51110
-7683, 170635, -322.715, 3.58691, -573.757, 0.00329366, 0.338331, 1.03299, 0.34851, 0.655882, 0.0001, 45.5, 246, 52.8775, 0.229856, 1.5622, 1, 0, 0, 51115
-7683, 170635, -322.715, 3.58691, -573.757, 0.00329366, 0.338331, 1.03299, 0.34851, 0.655882, 3, 45.5, 246, 52.8775, 0.229856, 1.50702, 1, 0, 0, 51115
-3895.58, 178831, -374.618, 3.94345, -611.396, 0.0656162, 0.366104, 0.993198, 0.349787, 0.651995, 0.0001, 91, 246, 52.8775, 0.229856, 1.91293, 1, 1, 0, 51115
-3895.58, 178831, -374.618, 3.94345, -611.396, 0.0656162, 0.366104, 0.993198, 0.349787, 0.651995, 3, 91, 246, 52.8775, 0.229856, 1.82737, 1, 1, 0, 51115
862.451, 189737, -438.042, 4.37778, -666.184, 0.143138, 0.4167, 0.958125, 0.351078, 0.648177, 0.0001, 182, 246, 52.8775, 0.229856, 0, 0, 0, 0, 51115
862.451, 189737, -438.042, 4.37778, -666.184, 0.143138, 0.4167, 0.958125, 0.351078, 0.648177, 3, 182, 246, 52.8775, 0.229856, 5.27943, 1, 0, 0, 51115
-13537.9, 144638, -8.27416, 3.605, -1032.23, 0.0299312, 0.132634, 1.03299, 0.34851, 0.655882, 0.0001, 45.5, 246, 19.2064, 0.043884, 0, 0, 0, 0, 51116
-13537.9, 144638, -8.27416, 3.605, -1032.23, 0.0299312, 0.132634, 1.03299, 0.34851, 0.655882, 3, 45.5, 246, 19.2064, 0.043884, 0, 0, 0, 0, 51116
-11248.9, 163215, -44.9137, 3.94769, -1044.76, 0.0930338, 0.1478, 0.993198, 0.349787, 0.651995, 0.0001, 91, 246, 19.2064, 0.043884, 0, 0, 1, 0, 51116
-11248.9, 163215, -44.9137, 3.94769, -1044.76, 0.0930338, 0.1478, 0.993198, 0.349787, 0.651995, 3, 91, 246, 19.2064, 0.043884, 0, 0, 1, 0, 51116
-10094.7, 193655, -230.64, 2.85796, -993.154, 0.298369, 0.368711, 1.03299, 0.34851, 0.655882, 3, 45.5, 246, 45.101, 0.199322, 0, 0, 0, 0, 51121
-6991.88, 105819, -172.887, 3.52473, -980.578, 0.31296, 0.226936, 1.03299, 0.34851, 0.655882, 0.0001, 45.5, 246, 43.9059, 0.160951, 1.01928, 1, 0, 0, 51126
-6991.88, 105819, -172.887, 3.52473, -980.578, 0.31296, 0.226936, 1.03299, 0.34851, 0.655882, 3, 45.5, 246, 43.9059, 0.160951, 0, 0, 0, 0, 51126
-4899.44, 126415, -223.724, 3.92565, -1056.46, 0.393301, 0.245676, 0.993198, 0.349787, 0.651995, 0.0001, 91, 246, 43.9059, 0.160951, 1.07643, 1, 1, 0, 51126
-1865.41, 152074, -288.717, 4.42351, -1162.3, 0.500876, 0.288481, 0.958125, 0.351078, 0.648177, 0.0001, 182, 246, 43.9059, 0.160951, 1.61729, 1, 0, 0, 51126
-1865.41, 152074, -288.717, 4.42351, -1162.3, 0.500876, 0.288481, 0.958125, 0.351078, 0.648177, 3, 182, 246, 43.9059, 0.160951, 1.46328, 1, 0, 0, 51126
-9621.75, 112224, -50.1723, 1.60087, -1123.46, 0.0635257, 0.329072, 1.03299, 0.34851, 0.655882, 3, 45.5, 246, 24.0752, 0.0955098, 0, 0, 1, 0, 51129
-6583.37, -19118.2, -21.8635, 3.2126, -914.98, 0.377832, 0.218757, 1.03299, 0.34851, 0.655882, 0.0001, 45.5, 246, 23.2572, 0.0232589, 0, 0, 1, 0, 51130
-8445.26, 331686, -301.469, 0.60357, -747.674, 0.034111, 0.575405, 0.993198, 0.349787, 0.651995, 0.0001, 91, 246, 40.3298, 0.235606, 0, 0, 1, 0, 51132
-10242.3, 214893, -95.253, 1.64977, -663.626, 0.0638754, 0.305644, 0.993198, 0.349787, 0.651995, 3, 91, 246, 21.1846, 0.0873239, 0, 0, 1, 0, 51144
-8423.76, 134576, -192.171, 2.62882, -656.426, 0.031623, 0.348743, 1.03299, 0.34851, 0.655882, 3, 45.5, 246, 42.4869, 0.197966, 0, 0, 1, 0, 51149
-354.161, 168488, -318.899, 3.46348, -758.006, 0.170221, 0.391988, 0.9175, 0.352806, 0.64323, 0.0001, 455, 246, 42.4869, 0.197966, 1.59719, 1, 0, 0, 51149
-354.161, 168488, -318.899, 3.46348, -758.006, 0.170221, 0.391988, 0.9175, 0.352806, 0.64323, 3, 455, 246, 42.4869, 0.197966, 1.61224, 1, 0, 0, 51149
-7076.34, 76572.4, -125.146, 3.52527, -935.859, 0.192011, 0.198147, 1.03299, 0.34851, 0.655882, 3, 45.5, 246, 38.1916, 0.126776, 0, 0, 0, 0, 51150
857.55, 148512, -323.838, 5.14807, -1199.61, 0.517901, 0.349858, 0.9175, 0.352806, 0.64323, 0.0001, 455, 246, 38.1916, 0.126776, 2.68842, 1, 0, 0, 51150
857.55, 148512, -323.838, 5.14807, -1199.61, 0.517901, 0.349858, 0.9175, 0.352806, 0.64323, 3, 455, 246, 38.1916, 0.126776, 2.69617, 1, 0, 0, 51150
-10342, 260032, -167.74, 1.04656, -839.838, 0.82252, 0.412385, 1.03299, 0.34851, 0.655882, 0.0001, 45.5, 246, 31.1134, 0.140351, 0, 0, 1, 0, 51158
-10342, 260032, -167.74, 1.04656, -839.838, 0.82252, 0.412385, 1.03299, 0.34851, 0.655882, 3, 45.5, 246, 31.1134, 0.140351, 0, 0, 1, 0, 51158
-9028.75, 287443, -184.805, 1.14981, -971.19, 0.951485, 0.387021, 0.993198, 0.349787, 0.651995, 0.0001, 91, 246, 31.1134, 0.140351, 0, 0, 1, 0, 51158
-9028.75, 287443, -184.805, 1.14981, -971.19, 0.951485, 0.387021, 0.993198, 0.349787, 0.651995, 3, 91, 246, 31.1134, 0.140351, 0, 0, 1, 0, 51158
-27.7407, 552711, -436.444, 1.29353, -1171.64, 0.40766, 0.538936, 0.9175, 0.352806, 0.64323, 3, 455, 246, 40.348, 0.183957, 0, 0, 0, 0, 51162
-11074.1, 357818, -76.4212, 0.713478, -861.24, 0.490399, 0.348467, 1.03299, 0.34851, 0.655882, 0.0001, 45.5, 246, 21.4858, 0.0523215, 0, 0, 1, 0, 51166
-11074.1, 357818, -76.4212, 0.713478, -861.24, 0.490399, 0.348467, 1.03299, 0.34851, 0.655882, 3, 45.5, 246, 21.4858, 0.0523215, 0, 0, 1, 0, 51166
-10100.8, 381904, -85.4212, 0.762456, -935.404, 0.534185, 0.315194, 0.993198, 0.349787, 0.651995, 0.0001, 91, 246, 21.4858, 0.0523215, 0, 0, 1, 0, 51166
-8885.58, 410399, -95.5999, 0.815397, -1023.83, 0.586418, 0.286717, 0.958125, 0.351078, 0.648177, 0.0001, 182, 246, 21.4858, 0.0523215, 0, 0, 1, 0, 51166
-8169.14, 369147, -212.327, 0.437985, -1080.61, 0.0172269, 0.459464, 1.03299, 0.34851, 0.655882, 0.0001, 45.5, 246, 35.5255, 0.148939, 0, 0, 0, 0, 51173
-10744.2, 427993, -375.965, 0.346219, -578.566, 0.55238, 0.636672, 1.03299, 0.34851, 0.655882, 0.0001, 45.5, 246, 36.7716, 0.212778, 0, 0, 0, 0, 51174
-10744.2, 427993, -375.965, 0.346219, -578.566, 0.55238, 0.636672, 1.03299, 0.34851, 0.655882, 3, 45.5, 246, 36.7716, 0.212778, 0, 0, 0, 0, 51174
-11371.4, 90840.2, 22.7857, 3.23642, -919.691, 0.762308, 0.165455, 1.03299, 0.34851, 0.655882, 0.0001, 45.5, 246, 12.9364, 0.0249633, 0, 0, 0, 0, 51181
-11371.4, 90840.2, 22.7857, 3.23642, -919.691, 0.762308, 0.165455, 1.03299, 0.34851, 0.655882, 3, 45.5, 246, 12.9364, 0.0249633, 0, 0, 0, 0, 51181
-10082.4, 111571, -6.18844, 3.67429, -1049.28, 0.926251, 0.171822, 0.993198, 0.349787, 0.651995, 0.0001, 91, 246, 12.9364, 0.0249633, 0, 0, 1, 0, 51181
-10082.4, 111571, -6.18844, 3.67429, -1049.28, 0.926251, 0.171822, 0.993198, 0.349787, 0.651995, 3, 91, 246, 12.9364, 0.0249633, 0, 0, 1, 0, 51181
-8091.16, 140602, -48.0314, 4.24642, -1239.16, 1.16566, 0.202436, 0.958125, 0.351078, 0.648177, 0.0001, 182, 246, 12.9364, 0.0249633, 0, 0, 1, 0, 51181
-8091.16, 140602, -48.0314, 4.24642, -1239.16, 1.16566, 0.202436, 0.958125, 0.351078, 0.648177, 3, 182, 246, 12.9364, 0.0249633, 0, 0, 1, 0, 51181
-10650.5, 215458, -198.848, 2.05405, -1019.97, 0.552539, 0.406665, 1.03299, 0.34851, 0.655882, 0.0001, 45.5, 246, 39.8645, 0.180599, 0, 0, 0, 0, 51185
-10650.5, 215458, -198.848, 2.05405, -1019.97, 0.552539, 0.406665, 1.03299, 0.34851, 0.655882, 3, 45.5, 246, 39.8645, 0.180599, 0, 0, 0, 0, 51185
-12021.3, 152258, -94.7907, 3.50586, -957.432, -0.0426637, 0.179685, 1.03299, 0.34851, 0.655882, 0.0001, 45.5, 246, 29.0475, 0.0972602, 0, 0, 0, 0, 51186
-12021.3, 152258, -94.7907, 3.50586, -957.432, -0.0426637, 0.179685, 1.03299, 0.34851, 0.655882, 3, 45.5, 246, 29.0475, 0.0972602, 0, 0, 0, 0, 51186
-9579.3, 167888, -135.628, 3.82125, -966.382, 0.0162213, 0.193633, 0.993198, 0.349787, 0.651995, 0.0001, 91, 246, 29.0475, 0.0972602, 0, 0, 1, 0, 51186
-9579.3, 167888, -135.628, 3.82125, -966.382, 0.0162213, 0.193633, 0.993198, 0.349787, 0.651995, 3, 91, 246, 29.0475, 0.0972602, 0, 0, 1, 0, 51186
-9401.28, 73783, -35.2845, 2.43364, -928.525, 0.0138958, 0.272255, 1.03299, 0.34851, 0.655882, 0.0001, 45.5, 246, 21.1067, 0.0766937, 0, 0, 1, 0, 51187
-9401.28, 73783, -35.2845, 2.43364, -928.525, 0.0138958, 0.272255, 1.03299, 0.34851, 0.655882, 3, 45.5, 246, 21.1067, 0.0766937, 0, 0, 1, 0, 51187
-7999.72, 319329, -195.649, 0.80673, -1125.48, 0.064074, 0.413559, 0.993198, 0.349787, 0.651995, 0.0001, 91, 246, 35.2559, 0.153039, 0, 0, 1, 0, 51188
-6953.3, 75026.9, -133.813, 2.85301, -693.519, -0.0385202, 0.275639, 1.03299, 0.34851, 0.655882, 3, 45.5, 246, 40.0457, 0.152195, 0, 0, 1, 0, 51192
-1948.17, 106949, -253.055, 3.75074, -760.837, 0.119398, 0.326641, 0.9175, 0.352806, 0.64323, 0.0001, 455, 246, 40.0457, 0.152195, 1.15408, 1, 1, 0, 51192
-1948.17, 106949, -253.055, 3.75074, -760.837, 0.119398, 0.326641, 0.9175, 0.352806, 0.64323, 3, 455, 246, 40.0457, 0.152195, 1.13955, 1, 1, 0, 51192
-10340.3, 715912, -58.9449, 0.286074, -1171.99, -0.00027261, 0.344373, 1.03299, 0.34851, 0.655882, 0.0001, 45.5, 246, 27.0286, 0.0218096, 0, 0, 1, 0, 51195
-10340.3, 715912, -58.9449, 0.286074, -1171.99, -0.00027261, 0.344373, 1.03299, 0.34851, 0.655882, 3, 45.5, 246, 27.0286, 0.0218096, 0, 0, 1, 0, 51195
-8832.57, 764237, -68.8652, 0.303865, -1173.03, 0.000492302, 0.277408, 0.958125, 0.351078, 0.648177, 0.0001, 182, 246, 27.0286, 0.0218096, 0, 0, 1, 0, 51195
-12669.9, 305175, -58.1847, 1.25601, -1066.78, 0.591033, 0.327698, 1.03299, 0.34851, 0.655882, 0.0001, 45.5, 246, 23.6375, 0.0497664, 0, 0, 1, 0, 51196
-12669.9, 305175, -58.1847, 1.25601, -1066.78, 0.591033, 0.327698, 1.03299, 0.34851, 0.655882, 3, 45.5, 246, 23.6375, 0.0497664, 0, 0, 1, 0, 51196
-6465.68, 575622, -390.33, 0.859513, -888.573, 0.150934, 0.518084, 0.958125, 0.351078, 0.648177, 0.0001, 182, 246, 36.6735, 0.163743, 0, 0, 0, 0, 51197
-6465.68, 575622, -390.33, 0.859513, -888.573, 0.150934, 0.518084, 0.958125, 0.351078, 0.648177, 3, 182, 246, 36.6735, 0.163743, 0, 0, 0, 0, 51197
-10005.5, 559791, -248.372, 0.588088, -1052.76, 0.275065, 0.440205, 1.03299, 0.34851, 0.655882, 0.0001, 45.5, 246, 34.1459, 0.10995, 0, 0, 0, 0, 51203
-5062.31, 63784.5, -167.587, 3.6424, -753.825, 0.522148, 0.290989, 0.9175, 0.352806, 0.64323, 3, 455, 246, 31.3619, 0.087435, 0, 0, 1, 0, 51209
-10204.1, 107353, -52.8406, 2.67246, -1039.33, -0.0325241, 0.258732, 1.03299, 0.34851, 0.655882, 0.0001, 45.5, 246, 24.8534, 0.0874322, 0, 0, 1, 0, 51212
-10204.1, 107353, -52.8406, 2.67246, -1039.33, -0.0325241, 0.258732, 1.03299, 0.34851, 0.655882, 3, 45.5, 246, 24.8534, 0.0874322, 0, 0, 1, 0, 51212
-3775.38, 58776.3, -183.892, 3.58727, -638.256, 0.210628, 0.189649, 1.03299, 0.34851, 0.655882, 0.0001, 45.5, 246, 49.353, 0.130437, 1.41875, 1, 1, 0, 51213
-3775.38, 58776.3, -183.892, 3.58727, -638.256, 0.210628, 0.189649, 1.03299, 0.34851, 0.655882, 3, 45.5, 246, 49.353, 0.130437, 1.28327, 1, 1, 0, 51213
-2437.08, 67763, -223.914, 3.97299, -684.095, 0.282768, 0.208026, 0.993198, 0.349787, 0.651995, 0.0001, 91, 246, 49.353, 0.130437, 1.43462, 1, 1, 0, 51213
-2437.08, 67763, -223.914, 3.97299, -684.095, 0.282768, 0.208026, 0.993198, 0.349787, 0.651995, 3, 91, 246, 49.353, 0.130437, 1.3069, 1, 1, 0, 51213
-578.875, 78969.4, -274.039, 4.44789, -748.679, 0.377436, 0.249978, 0.958125, 0.351078, 0.648177, 0.0001, 182, 246, 49.353, 0.130437, 1.66599, 1, 1, 0, 51213
-578.875, 78969.4, -274.039, 4.44789, -748.679, 0.377436, 0.249978, 0.958125, 0.351078, 0.648177, 3, 182, 246, 49.353, 0.130437, 1.54012, 1, 1, 0, 51213
3120.27, 99530.2, -364.497, 5.29046, -880.625, 0.558932, 0.352585, 0.9175, 0.352806, 0.64323, 0.0001, 455, 246, 49.353, 0.130437, 2.80647, 1, 1, 0, 51213
3120.27, 99530.2, -364.497, 5.29046, -880.625, 0.558932, 0.352585, 0.9175, 0.352806, 0.64323, 3, 455, 246, 49.353, 0.130437, 2.80575, 1, 1, 0, 51213
-3991.89, 390481, -137.842, 3.61943, -1112.4, 0.322591, 0.242557, 0.9175, 0.352806, 0.64323, 0.0001, 455, 246, 20.476, 0.0340481, 0, 0, 0, 0, 51219
-3991.89, 390481, -137.842, 3.61943, -1112.4, 0.322591, 0.242557, 0.9175, 0.352806, 0.64323, 3, 455, 246, 20.476, 0.0340481, 0, 0, 0, 0, 51219
-5364.66, 755812, -287.298, 0.0429001, -995.485, 0.561887, 0.405709, 0.993198, 0.349787, 0.651995, 0.0001, 91, 246, 30.7661, 0.0907632, 0, 0, 1, 0, 51221
-2610.47, 608140, -179.657, 3.3518, -1537.82, 0.947282, 0.248185, 0.9175, 0.352806, 0.64323, 3, 455, 246, 24.3117, 0.0364754, 0, 0, 0, 0, 51222
-3209.34, 188916, -158.997, 5.32186, -1155.68, 0.768936, 0.28631, 0.9175, 0.352806, 0.64323, 0.0001, 455, 246, 16.8617, 0.0402981, 0, 0, 0, 0, 51231
-3209.34, 188916, -158.997, 5.32186, -1155.68, 0.768936, 0.28631, 0.9175, 0.352806, 0.64323, 3, 455, 246, 16.8617, 0.0402981, 0, 0, 0, 0, 51231
-6034.45, 677705, -360.782, 0.0258192, -932.325, 0.0704823, 0.524069, 1.03299, 0.34851, 0.655882, 0.0001, 45.5, 246, 35.8386, 0.137081, 0, 0, 0, 0, 51232
-11494.2, 169019, -53.7139, 2.00016, -947.212, 0.200188, 0.297833, 1.03299, 0.34851, 0.655882, 0.0001, 45.5, 246, 22.3765, 0.0729539, 0, 0, 1, 0, 51247
-11494.2, 169019, -53.7139, 2.00016, -947.212, 0.200188, 0.297833, 1.03299, 0.34851, 0.655882, 3, 45.5, 246, 22.3765, 0.0729539, 0, 0, 1, 0, 51247
-10111.5, 187034, -75.2526, 2.15156, -983.185, 0.226258, 0.278055, 0.993198, 0.349787, 0.651995, 3, 91, 246, 22.3765, 0.0729539, 0, 0, 1, 0, 51247
-8326.22, 207021, -100.402, 2.31911, -1026.66, 0.257388, 0.26697, 0.958125, 0.351078, 0.648177, 3, 182, 246, 22.3765, 0.0729539, 0, 0, 1, 0, 51247
-10055.3, 104236, -73.759, 3.29606, -908.358, 0.0133441, 0.200205, 1.03299, 0.34851, 0.655882, 0.0001, 45.5, 246, 27.008, 0.0912546, 0, 0, 0, 0, 51249
-10055.3, 104236, -73.759, 3.29606, -908.358, 0.0133441, 0.200205, 1.03299, 0.34851, 0.655882, 3, 45.5, 246, 27.008, 0.0912546, 0, 0, 0, 0, 51249
-10661.5, 268387, -290.65, 1.20618, -731.201, 0.563601, 0.576404, 1.03299, 0.34851, 0.655882, 3, 45.5, 246, 43.0099, 0.243542, 0, 0, 0, 0, 51251
-10052.9, 379973, -201.588, 0.861779, -1110.53, -0.00281375, 0.436099, 1.03299, 0.34851, 0.655882, 0.0001, 45.5, 246, 35.1519, 0.135142, 0, 0, 0, 0, 51264
-10052.9, 379973, -201.588, 0.861779, -1110.53, -0.00281375, 0.436099, 1.03299, 0.34851, 0.655882, 3, 45.5, 246, 35.1519, 0.135142, 0, 0, 0, 0, 51264
-6484.65, 425128, -238.316, 0.940148, -1121.19, 0.00431685, 0.390076, 0.958125, 0.351078, 0.648177, 3, 182, 246, 35.1519, 0.135142, 0, 0, 0, 0, 51264
-8766.74, 572961, -235.516, 0.370647, -982.221, 0.440123, 0.426899, 1.03299, 0.34851, 0.655882, 3, 45.5, 246, 31.7195, 0.0987452, 0, 0, 0, 0, 51269
-6000.1, 644974, -259.785, 0.417266, -1146.71, 0.512817, 0.373152, 0.958125, 0.351078, 0.648177, 3, 182, 246, 31.7195, 0.0987452, 0, 0, 0, 0, 51269
-2145.45, 274460, -421.716, 3.43543, -957.245, 0.0861023, 0.506964, 0.958125, 0.351078, 0.648177, 0.0001, 182, 246, 50.1081, 0.238147, 2.36193, 1, 0, 0, 51271
-2145.45, 274460, -421.716, 3.43543, -957.245, 0.0861023, 0.506964, 0.958125, 0.351078, 0.648177, 3, 182, 246, 50.1081, 0.238147, 2.17635, 1, 0, 0, 51271
-11947.7, 257732, -33.008, 1.18305, -1047.99, 0.647089, 0.324279, 1.03299, 0.34851, 0.655882, 0.0001, 45.5, 246, 20.7658, 0.0377606, 0, 0, 1, 0, 51273
-11947.7, 257732, -33.008, 1.18305, -1047.99, 0.647089, 0.324279, 1.03299, 0.34851, 0.655882, 3, 45.5, 246, 20.7658, 0.0377606, 0, 0, 1, 0, 51273
-10750.5, 288893, -46.8853, 1.28632, -1169.37, 0.728246, 0.293711, 0.993198, 0.349787, 0.651995, 3, 91, 246, 20.7658, 0.0377606, 0, 0, 1, 0, 51273
-9027.76, 43006.7, -5.06285, 2.6254, -682.487, 0.798075, 0.240906, 1.03299, 0.34851, 0.655882, 0.0001, 45.5, 246, 12.4789, 0.0381148, 0, 0, 1, 0, 51275
-9027.76, 43006.7, -5.06285, 2.6254, -682.487, 0.798075, 0.240906, 1.03299, 0.34851, 0.655882, 3, 45.5, 246, 12.4789, 0.0381148, 0, 0, 1, 0, 51275
-8646.28, 54188.8, -23.9767, 2.95641, -784.293, 0.95235, 0.233056, 0.993198, 0.349787, 0.651995, 0.0001, 91, 246, 12.4789, 0.0381148, 0, 0, 1, 0, 51275
-8646.28, 54188.8, -23.9767, 2.95641, -784.293, 0.95235, 0.233056, 0.993198, 0.349787, 0.651995, 3, 91, 246, 12.4789, 0.0381148, 0, 0, 1, 0, 51275
-7962.46, 69979, -50.4901, 3.37747, -929.943, 1.17287, 0.241781, 0.958125, 0.351078, 0.648177, 0.0001, 182, 246, 12.4789, 0.0381148, 0, 0, 1, 0, 51275
-7962.46, 69979, -50.4901, 3.37747, -929.943, 1.17287, 0.241781, 0.958125, 0.351078, 0.648177, 3, 182, 246, 12.4789, 0.0381148, 0, 0, 1, 0, 51275
-6220.19, 104891, -106.207, 4.173, -1255.06, 1.66312, 0.286886, 0.9175, 0.352806, 0.64323, 0.0001, 455, 246, 12.4789, 0.0381148, 0, 0, 1, 0, 51275
-6220.19, 104891, -106.207, 4.173, -1255.06, 1.66312, 0.286886, 0.9175, 0.352806, 0.64323, 3, 455, 246, 12.4789, 0.0381148, 0, 0, 1, 0, 51275
-8879.12, 122972, -146.156, 2.62758, -792.996, 0.169887, 0.311052, 1.03299, 0.34851, 0.655882, 3, 45.5, 246, 37.2755, 0.162264, 0, 0, 1, 0, 51277
-11278.8, 151527, -112.39, 3.32884, -1046.06, 0.124091, 0.213763, 1.03299, 0.34851, 0.655882, 0.0001, 45.5, 246, 32.5199, 0.114338, 0, 0, 0, 0, 51283
-11278.8, 151527, -112.39, 3.32884, -1046.06, 0.124091, 0.213763, 1.03299, 0.34851, 0.655882, 3, 45.5, 246, 32.5199, 0.114338, 0, 0, 0, 0, 51283
471.502, 235316, -303.547, 4.70122, -1257.69, 0.384491, 0.329503, 0.9175, 0.352806, 0.64323, 3, 455, 246, 32.5199, 0.114338, 1.35227, 1, 0, 0, 51283
-11148.6, 428670, -326.647, 0.637939, -683.797, 0.177186, 0.571773, 1.03299, 0.34851, 0.655882, 3, 45.5, 246, 36.3976, 0.193466, 0, 0, 0, 0, 51289
-4465.98, 207046, -128.774, 4.1691, -1633.03, 1.40696, 0.276137, 0.9175, 0.352806, 0.64323, 0.0001, 455, 246, 14.9597, 0.0347534, 0, 0, 0, 0, 51291
-4465.98, 207046, -128.774, 4.1691, -1633.03, 1.40696, 0.276137, 0.9175, 0.352806, 0.64323, 3, 455, 246, 14.9597, 0.0347534, 0, 0, 0, 0, 51291
-6626.61, 84086.3, -149.887, 3.06978, -854.19, -0.0391637, 0.271585, 1.03299, 0.34851, 0.655882, 3, 45.5, 246, 43.3227, 0.166632, 0, 0, 1, 0, 51299
-3384.63, 111311, -232.019, 3.62469, -889.561, 0.0588498, 0.297565, 0.958125, 0.351078, 0.648177, 0.0001, 182, 246, 43.3227, 0.166632, 1.08938, 1, 1, 0, 51299
127.652, 133109, -304.922, 4.1132, -944.911, 0.147618, 0.352267, 0.9175, 0.352806, 0.64323, 0.0001, 455, 246, 43.3227, 0.166632, 2.10236, 1, 0, 0, 51299
127.652, 133109, -304.922, 4.1132, -944.911, 0.147618, 0.352267, 0.9175, 0.352806, 0.64323, 3, 455, 246, 43.3227, 0.166632, 2.10252, 1, 0, 0, 51299
-9474.91, 570135, -205.459, 0.411795, -920.274, 0.0260473, 0.41095, 1.03299, 0.34851, 0.655882, 3, 45.5, 246, 29.4761, 0.0929273, 0, 0, 0, 0, 51300
-6379.72, 119382, -159.043, 3.24827, -757.744, 0.257141, 0.269954, 0.958125, 0.351078, 0.648177, 3, 182, 246, 29.8514, 0.117397, 0, 0, 1, 0, 51301
-2571.61, 237500, -339.146, 4.06665, -1250.08, 0.915013, 0.351055, 0.958125, 0.351078, 0.648177, 0.0001, 182, 246, 43.3915, 0.178475, 1.43586, 1, 0, 0, 51311
-2571.61, 237500, -339.146, 4.06665, -1250.08, 0.915013, 0.351055, 0.958125, 0.351078, 0.648177, 3, 182, 246, 43.3915, 0.178475, 1.2224, 1, 0, 0, 51311
-10806.9, 399259, -232.743, 0.916514, -968.859, 0.008066, 0.461524, 1.03299, 0.34851, 0.655882, 0.0001, 45.5, 246, 35.2513, 0.148867, 0, 0, 0, 0, 51316
-10806.9, 399259, -232.743, 0.916514, -968.859, 0.008066, 0.461524, 1.03299, 0.34851, 0.655882, 3, 45.5, 246, 35.2513, 0.148867, 0, 0, 0, 0, 51316
-9524.44, 514801, -328.981, 0.480753, -909.94, 0.34721, 0.534205, 1.03299, 0.34851, 0.655882, 0.0001, 45.5, 246, 36.9124, 0.158606, 0, 0, 0, 0, 51319
-9524.44, 514801, -328.981, 0.480753, -909.94, 0.34721, 0.534205, 1.03299, 0.34851, 0.655882, 3, 45.5, 246, 36.9124, 0.158606, 0, 0, 0, 0, 51319
-11163.7, 112176, -10.5784, 2.72192, -1055.96, -0.0351553, 0.236981, 1.03299, 0.34851, 0.655882, 0.0001, 45.5, 246, 18.2812, 0.0495619, 0, 0, 1, 0, 51322
-11163.7, 112176, -10.5784, 2.72192, -1055.96, -0.0351553, 0.236981, 1.03299, 0.34851, 0.655882, 3, 45.5, 246, 18.2812, 0.0495619, 0, 0, 1, 0, 51322
-11995.5, 125014, -28.2792, 3.14516, -981.307, 0.75021, 0.183644, 1.03299, 0.34851, 0.655882, 0.0001, 45.5, 246, 20.9959, 0.0552536, 0, 0, 0, 0, 51329
-11995.5, 125014, -28.2792, 3.14516, -981.307, 0.75021, 0.183644, 1.03299, 0.34851, 0.655882, 3, 45.5, 246, 20.9959, 0.0552536, 0, 0, 0, 0, 51329
-8804.56, 77147.4, -64.6467, 0.943578, -839.282, 0.0396067, 0.374893, 1.03299, 0.34851, 0.655882, 0.0001, 45.5, 246, 28.7434, 0.186434, 0, 0, 1, 0, 51335
-8804.56, 77147.4, -64.6467, 0.943578, -839.282, 0.0396067, 0.374893, 1.03299, 0.34851, 0.655882, 3, 45.5, 246, 28.7434, 0.186434, 0, 0, 1, 0, 51335
-7710.21, 487011, -379.556, 0.412135, -1161.73, 0.0226069, 0.634846, 1.03299, 0.34851, 0.655882, 3, 45.5, 246, 45.6635, 0.206422, 0, 0, 0, 0, 51344
-3366.08, 159083, -285.865, 3.63647, -770.575, 0.289166, 0.335942, 0.958125, 0.351078, 0.648177, 0.0001, 182, 246, 42.8513, 0.184481, 1.14352, 1, 1, 0, 51345
1661.34, 181035, -362.414, 4.20734, -873.269, 0.402665, 0.396407, 0.9175, 0.352806, 0.64323, 0.0001, 455, 246, 42.8513, 0.184481, 3.90636, 1, 0, 0, 51345
1661.34, 181035, -362.414, 4.20734, -873.269, 0.402665, 0.396407, 0.9175, 0.352806, 0.64323, 3, 455, 246, 42.8513, 0.184481, 3.9332, 1, 0, 0, 51345
-11095.4, 343103, -327.007, 1.25459, -963.047, 0.0181703, 0.613236, 1.03299, 0.34851, 0.655882, 0.0001, 45.5, 246, 46.0925, 0.239637, 0, 0, 0, 0, 51347
-11095.4, 343103, -327.007, 1.25459, -963.047, 0.0181703, 0.613236, 1.03299, 0.34851, 0.655882, 3, 45.5, 246, 46.0925, 0.239637, 0, 0, 0, 0, 51347
-13085.1, 190341, -41.8578, 2.4673, -1008.02, -0.00633529, 0.258792, 1.03299, 0.34851, 0.655882, 0.0001, 45.5, 246, 21.9077, 0.0602704, 0, 0, 1, 0, 51348
-13085.1, 190341, -41.8578, 2.4673, -1008.02, -0.00633529, 0.258792, 1.03299, 0.34851, 0.655882, 3, 45.5, 246, 21.9077, 0.0602704, 0, 0, 1, 0, 51348
-9753.87, 896928, -116.294, 0.231878, -978.521, 0.0102955, 0.35447, 1.03299, 0.34851, 0.655882, 0.0001, 45.5, 246, 26.2414, 0.0333923, 0, 0, 1, 0, 51355
-9753.87, 896928, -116.294, 0.231878, -978.521, 0.0102955, 0.35447, 1.03299, 0.34851, 0.655882, 3, 45.5, 246, 26.2414, 0.0333923, 0, 0, 1, 0, 51355
-8941.88, 914488, -121.984, 0.239253, -980.874, 0.0105563, 0.319417, 0.993198, 0.349787, 0.651995, 3, 91, 246, 26.2414, 0.0333923, 0, 0, 1, 0, 51355
-8746.05, 160770, -107.255, 1.815, -1154.84, 0.862622, 0.318738, 0.993198, 0.349787, 0.651995, 0.0001, 91, 246, 28.4598, 0.119721, 0, 0, 1, 0, 51358
-8746.05, 160770, -107.255, 1.815, -1154.84, 0.862622, 0.318738, 0.993198, 0.349787, 0.651995, 3, 91, 246, 28.4598, 0.119721, 0, 0, 1, 0, 51358
-7315.9, 196818, -135.167, 2.01996, -1345.46, 1.01746, 0.304277, 0.958125, 0.351078, 0.648177, 0.0001, 182, 246, 28.4598, 0.119721, 0, 0, 1, 0, 51358
-200.37, 227722, -339.051, 3.77031, -755.368, 0.289316, 0.386488, 0.9175, 0.352806, 0.64323, 0.0001, 455, 246, 36.5758, 0.168104, 1.11097, 1, 0, 0, 51361
-200.37, 227722, -339.051, 3.77031, -755.368, 0.289316, 0.386488, 0.9175, 0.352806, 0.64323, 3, 455, 246, 36.5758, 0.168104, 1.12335, 1, 0, 0, 51361
-10474.4, 244463, -299.987, 3.93672, -619.636, 0.0272916, 0.280448, 0.993198, 0.349787, 0.651995, 3, 91, 246, 38.1948, 0.165461, 0, 0, 1, 0, 51362
-5206.01, 253782, -354.717, 4.34986, -661.734, 0.103167, 0.324373, 0.958125, 0.351078, 0.648177, 0.0001, 182, 246, 38.1948, 0.165461, 1.13472, 1, 0, 0, 51362
-8388.64, 75996.4, -84.4582, 1.6896, -1024.96, 0.0112012, 0.358679, 1.03299, 0.34851, 0.655882, 0.0001, 45.5, 246, 34.3331, 0.183354, 0, 0, 1, 0, 51366
-8388.64, 75996.4, -84.4582, 1.6896, -1024.96, 0.0112012, 0.358679, 1.03299, 0.34851, 0.655882, 3, 45.5, 246, 34.3331, 0.183354, 0, 0, 1, 0, 51366
-8920.19, 74157, -37.4083, 2.73609, -696.35, 0.262824, 0.244077, 0.993198, 0.349787, 0.651995, 3, 91, 246, 14.8856, 0.0488992, 0, 0, 1, 0, 51367
-6547.14, 99247.4, -94.6497, 3.38672, -796.84, 0.396381, 0.266954, 0.9175, 0.352806, 0.64323, 3, 455, 246, 14.8856, 0.0488992, 0, 0, 1, 0, 51367
-5577.06, 366391, -477.648, 3.15633, -717.381, 0.0472032, 0.569696, 0.958125, 0.351078, 0.648177, 0.0001, 182, 246, 44.8554, 0.226221, 1.11932, 1, 0, 0, 51374
-13987.3, 256292, -394.236, 2.98818, -500.375, 0.807463, 0.471695, 1.03299, 0.34851, 0.655882, 0.0001, 45.5, 246, 46.6953, 0.228384, 1.1915, 1, 0, 0, 51377
-13987.3, 256292, -394.236, 2.98818, -500.375, 0.807463, 0.471695, 1.03299, 0.34851, 0.655882, 3, 45.5, 246, 46.6953, 0.228384, 1.11759, 1, 0, 0, 51377
-9068.73, 276574, -446.052, 3.41394, -613.54, 0.977048, 0.492475, 0.993198, 0.349787, 0.651995, 0.0001, 91, 246, 46.6953, 0.228384, 1.43968, 1, 1, 0, 51377
-9068.73, 276574, -446.052, 3.41394, -613.54, 0.977048, 0.492475, 0.993198, 0.349787, 0.651995, 3, 91, 246, 46.6953, 0.228384, 1.34657, 1, 1, 0, 51377
-12075.8, 304677, -325.268, 2.17456, -1047.27, -0.0224057, 0.560984, 1.03299, 0.34851, 0.655882, 0.0001, 45.5, 246, 49.565, 0.241337, 0, 0, 0, 0, 51388
-12075.8, 304677, -325.268, 2.17456, -1047.27, -0.0224057, 0.560984, 1.03299, 0.34851, 0.655882, 3, 45.5, 246, 49.565, 0.241337, 0, 0, 0, 0, 51388
-8756.93, 217715, -150.385, 1.46185, -1028.02, 0.143091, 0.364602, 0.993198, 0.349787, 0.651995, 0.0001, 91, 246, 32.398, 0.148509, 0, 0, 1, 0, 51390
-11087.1, 85144.1, 23.8037, 3.45275, -1099.84, -0.00819894, 0.157843, 1.03299, 0.34851, 0.655882, 0.0001, 45.5, 246, 14.533, 0.0329917, 0, 0, 0, 0, 51391
-11087.1, 85144.1, 23.8037, 3.45275, -1099.84, -0.00819894, 0.157843, 1.03299, 0.34851, 0.655882, 3, 45.5, 246, 14.533, 0.0329917, 0, 0, 0, 0, 51391
-9804.43, 105836, -10.4013, 3.76408, -1102.58, 0.0489577, 0.168783, 0.993198, 0.349787, 0.651995, 0.0001, 91, 246, 14.533, 0.0329917, 0, 0, 1, 0, 51391
-9804.43, 105836, -10.4013, 3.76408, -1102.58, 0.0489577, 0.168783, 0.993198, 0.349787, 0.651995, 3, 91, 246, 14.533, 0.0329917, 0, 0, 1, 0, 51391
-8130.64, 130888, -55.5984, 3.31814, -1230.38, 1.13527, 0.236439, 0.958125, 0.351078, 0.648177, 0.0001, 182, 246, 14.5741, 0.0369372, 0, 0, 1, 0, 51400
-8130.64, 130888, -55.5984, 3.31814, -1230.38, 1.13527, 0.236439, 0.958125, 0.351078, 0.648177, 3, 182, 246, 14.5741, 0.0369372, 0, 0, 1, 0, 51400
-4825.89, 192161, -126.066, 4.07684, -1640.63, 1.59225, 0.277758, 0.9175, 0.352806, 0.64323, 0.0001, 455, 246, 14.5741, 0.0369372, 0, 0, 0, 0, 51400
-4825.89, 192161, -126.066, 4.07684, -1640.63, 1.59225, 0.277758, 0.9175, 0.352806, 0.64323, 3, 455, 246, 14.5741, 0.0369372, 0, 0, 0, 0, 51400
-9640.06, 132763, -126.739, 2.11923, -622.54, 0.0160329, 0.337159, 1.03299, 0.34851, 0.655882, 0.0001, 45.5, 246, 31.763, 0.152697, 0, 0, 1, 0, 51401
-9640.06, 132763, -126.739, 2.11923, -622.54, 0.0160329, 0.337159, 1.03299, 0.34851, 0.655882, 3, 45.5, 246, 31.763, 0.152697, 0, 0, 1, 0, 51401
-7945.93, 601810, -350.954, 0.253839, -949.012, 0.0452412, 0.539625, 1.03299, 0.34851, 0.655882, 0.0001, 45.5, 246, 37.2792, 0.151832, 0, 0, 0, 0, 51406
-7945.93, 601810, -350.954, 0.253839, -949.012, 0.0452412, 0.539625, 1.03299, 0.34851, 0.655882, 3, 45.5, 246, 37.2792, 0.151832, 0, 0, 0, 0, 51406
-11908.9, 304946, -87.9108, 1.16672, -895.058, -0.00586388, 0.34622, 1.03299, 0.34851, 0.655882, 0.0001, 45.5, 246, 23.5947, 0.0740423, 0, 0, 1, 0, 51407
-11908.9, 304946, -87.9108, 1.16672, -895.058, -0.00586388, 0.34622, 1.03299, 0.34851, 0.655882, 3, 45.5, 246, 23.5947, 0.0740423, 0, 0, 1, 0, 51407
-9557.17, 215764, -229.265, 0.827818, -655.638, 0.701266, 0.535098, 1.03299, 0.34851, 0.655882, 0.0001, 45.5, 246, 39.8497, 0.244534, 0, 0, 1, 0, 51408
-13247.1, 167465, -12.2417, 2.79695, -1150.29, -0.0371341, 0.224732, 1.03299, 0.34851, 0.655882, 0.0001, 45.5, 246, 20.4681, 0.0460828, 0, 0, 0, 0, 51410
-13247.1, 167465, -12.2417, 2.79695, -1150.29, -0.0371341, 0.224732, 1.03299, 0.34851, 0.655882, 3, 45.5, 246, 20.4681, 0.0460828, 0, 0, 0, 0, 51410
-11696.9, 214801, -104.825, 1.83442, -928.562, 0.20669, 0.333147, 1.03299, 0.34851, 0.655882, 0.0001, 45.5, 246, 27.6883, 0.10611, 0, 0, 1, 0, 51411
-11696.9, 214801, -104.825, 1.83442, -928.562, 0.20669, 0.333147, 1.03299, 0.34851, 0.655882, 3, 45.5, 246, 27.6883, 0.10611, 0, 0, 1, 0, 51411
-7488.25, 368518, -296.902, 0.624965, -1048.63, 0.526438, 0.534194, 0.993198, 0.349787, 0.651995, 0.0001, 91, 246, 40.3787, 0.203447, 0, 0, 1, 0, 51413
-3565.81, 258233, -214.727, 3.37863, -780.64, 0.244315, 0.292314, 0.9175, 0.352806, 0.64323, 0.0001, 455, 246, 25.0064, 0.097519, 0, 0, 0, 0, 51416
-3565.81, 258233, -214.727, 3.37863, -780.64, 0.244315, 0.292314, 0.9175, 0.352806, 0.64323, 3, 455, 246, 25.0064, 0.097519, 0, 0, 0, 0, 51416
-11991, 160574, -41.2811, 2.45785, -1163.6, 0.141877, 0.2645, 1.03299, 0.34851, 0.655882, 0.0001, 45.5, 246, 23.8704, 0.0685158, 0, 0, 0, 0, 51417
-11991, 160574, -41.2811, 2.45785, -1163.6, 0.141877, 0.2645, 1.03299, 0.34851, 0.655882, 3, 45.5, 246, 23.8704, 0.0685158, 0, 0, 0, 0, 51417
-2291.55, 407785, -182.062, 4.89228, -997.578, 0.198242, 0.238654, 0.9175, 0.352806, 0.64323, 0.0001, 455, 246, 21.3625, 0.0382317, 0, 0, 0, 0, 51420
-2291.55, 407785, -182.062, 4.89228, -997.578, 0.198242, 0.238654, 0.9175, 0.352806, 0.64323, 3, 455, 246, 21.3625, 0.0382317, 0, 0, 0, 0, 51420
-7396.88, 810893, -286.802, 0.0489096, -697.248, 0.485977, 0.428951, 1.03299, 0.34851, 0.655882, 0.0001, 45.5, 246, 25.924, 0.0830449, 0, 0, 1, 0, 51428
-5843.28, 881135, -304.198, 0.0547137, -824.649, 0.574189, 0.374104, 0.958125, 0.351078, 0.648177, 0.0001, 182, 246, 25.924, 0.0830449, 0, 0, 1, 0, 51428
-10095.5, 255911, -200.949, 1.38677, -1094.06, -0.000561221, 0.457665, 1.03299, 0.34851, 0.655882, 3, 45.5, 246, 39.5335, 0.187608, 0, 0, 0, 0, 51434
-8298.42, 277710, -226.345, 1.46488, -1102.75, 0.00836444, 0.439865, 0.993198, 0.349787, 0.651995, 3, 91, 246, 39.5335, 0.187608, 0, 0, 1, 0, 51434
12325.9, 429572, -621.848, 4.9698, -1519.89, 0.57984, 0.567366, 0.9175, 0.352806, 0.64323, 0.0001, 455, 246, 48.6989, 0.201927, 0, 0, 0, 0, 51440
12325.9, 429572, -621.848, 4.9698, -1519.89, 0.57984, 0.567366, 0.9175, 0.352806, 0.64323, 3, 455, 246, 48.6989, 0.201927, 0, 0, 0, 0, 51440
-9970.58, 199756, -233.945, 2.03814, -836.757, 0.602019, 0.450205, 1.03299, 0.34851, 0.655882, 0.0001, 45.5, 246, 43.2662, 0.217329, 0, 0, 0, 0, 51445
-3421.03, 98593.5, -210.387, 3.63413, -1221.01, 0.376694, 0.290395, 0.958125, 0.351078, 0.648177, 0.0001, 182, 246, 44.5502, 0.155816, 1.07459, 1, 1, 0, 51447
-3.57632, 142375, -299.707, 4.22618, -1373.91, 0.50603, 0.347192, 0.9175, 0.352806, 0.64323, 0.0001, 455, 246, 44.5502, 0.155816, 3.42756, 1, 0, 0, 51447
-3.57632, 142375, -299.707, 4.22618, -1373.91, 0.50603, 0.347192, 0.9175, 0.352806, 0.64323, 3, 455, 246, 44.5502, 0.155816, 3.43853, 1, 0, 0, 51447
-7658.04, 356744, -266.612, 0.545488, -950.079, 0.0813148, 0.503222, 0.993198, 0.349787, 0.651995, 0.0001, 91, 246, 38.3656, 0.194623, 0, 0, 1, 0, 51460
-5453.48, 112780, -182.522, 4.1067, -795.384, 0.517539, 0.240346, 0.958125, 0.351078, 0.648177, 0.0001, 182, 246, 30.6182, 0.103895, 0, 0, 1, 0, 51462
-5094.79, 310737, -424.67, 3.70837, -701.567, 0.0804699, 0.454326, 0.958125, 0.351078, 0.648177, 0.0001, 182, 246, 42.6662, 0.203269, 1.41262, 1, 0, 0, 51465
-5094.79, 310737, -424.67, 3.70837, -701.567, 0.0804699, 0.454326, 0.958125, 0.351078, 0.648177, 3, 182, 246, 42.6662, 0.203269, 1.22655, 1, 0, 0, 51465
4839.66, 331402, -518.877, 4.2505, -786.107, 0.175363, 0.529599, 0.9175, 0.352806, 0.64323, 0.0001, 455, 246, 42.6662, 0.203269, 0, 0, 0, 0, 51465
4839.66, 331402, -518.877, 4.2505, -786.107, 0.175363, 0.529599, 0.9175, 0.352806, 0.64323, 3, 455, 246, 42.6662, 0.203269, 0, 0, 0, 0, 51465
-6655.24, 404513, -287.929, 0.0753782, -993.326, 0.437803, 0.535527, 1.03299, 0.34851, 0.655882, 0.0001, 45.5, 246, 38.3629, 0.179618, 3.22431, 1, 0, 0, 51470
-6655.24, 404513, -287.929, 0.0753782, -993.326, 0.437803, 0.535527, 1.03299, 0.34851, 0.655882, 3, 45.5, 246, 38.3629, 0.179618, 3.22582, 1, 0, 0, 51470
-5957.71, 434659, -298.288, 0.0797876, -1067.78, 0.47037, 0.515506, 0.993198, 0.349787, 0.651995, 0.0001, 91, 246, 38.3629, 0.179618, 4.55073, 1, 1, 0, 51470
-5957.71, 434659, -298.288, 0.0797876, -1067.78, 0.47037, 0.515506, 0.993198, 0.349787, 0.651995, 3, 91, 246, 38.3629, 0.179618, 4.55265, 1, 1, 0, 51470
-9601.81, 745671, -66.579, 0.260485, -1087.01, 0.795437, 0.308844, 0.993198, 0.349787, 0.651995, 0.0001, 91, 246, 23.4416, 0.0205491, 0, 0, 1, 0, 51474
-8860.62, 804131, -71.2893, 0.28025, -1243.84, 0.91016, 0.27747, 0.958125, 0.351078, 0.648177, 0.0001, 182, 246, 23.4416, 0.0205491, 0, 0, 1, 0, 51474
-2628.76, 93984.2, -224.248, 3.19548, -1146.52, 0.255387, 0.328008, 0.993198, 0.349787, 0.651995, 0.0001, 91, 246, 58.0178, 0.24395, 1.46891, 1, 1, 0, 51482
-2628.76, 93984.2, -224.248, 3.19548, -1146.52, 0.255387, 0.328008, 0.993198, 0.349787, 0.651995, 3, 91, 246, 58.0178, 0.24395, 1.29522, 1, 1, 0, 51482
-530.758, 121178, -280.159, 3.52706, -1222.14, 0.317787, 0.348647, 0.958125, 0.351078, 0.648177, 0.0001, 182, 246, 58.0178, 0.24395, 2.22906, 1, 1, 1, 51482
-530.758, 121178, -280.159, 3.52706, -1222.14, 0.317787, 0.348647, 0.958125, 0.351078, 0.648177, 3, 182, 246, 58.0178, 0.24395, 2.07672, 1, 1, 0, 51482
-3552.6, 253496, -378.65, 4.17734, -808.929, 0.071287, 0.369008, 0.958125, 0.351078, 0.648177, 0.0001, 182, 246, 43.0522, 0.186665, 1.69805, 1, 0, 0, 51486
-3552.6, 253496, -378.65, 4.17734, -808.929, 0.071287, 0.369008, 0.958125, 0.351078, 0.648177, 3, 182, 246, 43.0522, 0.186665, 1.53376, 1, 0, 0, 51486
-10626.4, 79983.6, 18.7512, 2.86587, -786.846, 0.640254, 0.210038, 1.03299, 0.34851, 0.655882, 0.0001, 45.5, 246, 10.3275, 0.0209089, 0, 0, 1, 0, 51489
-10626.4, 79983.6, 18.7512, 2.86587, -786.846, 0.640254, 0.210038, 1.03299, 0.34851, 0.655882, 3, 45.5, 246, 10.3275, 0.0209089, 0, 0, 0, 0, 51489
-9701.94, 94748.6, -2.71325, 3.20903, -877.585, 0.757343, 0.206802, 0.993198, 0.349787, 0.651995, 0.0001, 91, 246, 10.3275, 0.0209089, 0, 0, 1, 0, 51489
-9701.94, 94748.6, -2.71325, 3.20903, -877.585, 0.757343, 0.206802, 0.993198, 0.349787, 0.651995, 3, 91, 246, 10.3275, 0.0209089, 0, 0, 1, 0, 51489
-8332.13, 114214, -32.1976, 3.63757, -1002.71, 0.918685, 0.221649, 0.958125, 0.351078, 0.648177, 0.0001, 182, 246, 10.3275, 0.0209089, 0, 0, 1, 0, 51489
-8332.13, 114214, -32.1976, 3.63757, -1002.71, 0.918685, 0.221649, 0.958125, 0.351078, 0.648177, 3, 182, 246, 10.3275, 0.0209089, 0, 0, 1, 0, 51489
