-8168.54, 80316.9, -97.7909, 1.97793, -969.25, 0.156505, 0.345518, 1.03299, 0.34851, 0.655882, 0.0001, 45.5, 246, 36.0504, 0.177248, 0, 0, 1, 0, 44016
-8168.54, 80316.9, -97.7909, 1.97793, -969.25, 0.156505, 0.345518, 1.03299, 0.34851, 0.655882, 3, 45.5, 246, 36.0504, 0.177248, 0, 0, 1, 0, 44016
-10269.1, 390442, -174.804, 0.741776, -1002.34, 0.645108, 0.402467, 1.03299, 0.34851, 0.655882, 0.0001, 45.5, 246, 30.6869, 0.1039, 0, 0, 0, 0, 44017
-10269.1, 390442, -174.804, 0.741776, -1002.34, 0.645108, 0.402467, 1.03299, 0.34851, 0.655882, 3, 45.5, 246, 30.6869, 0.1039, 0, 0, 0, 0, 44017
-7093.37, 468835, -206.185, 0.868653, -1269.3, 0.817477, 0.349417, 0.958125, 0.351078, 0.648177, 3, 182, 246, 30.6869, 0.1039, 0, 0, 0, 0, 44017
-11473.1, 328137, -301.609, 1.11251, -725.969, 0.124078, 0.575172, 1.03299, 0.34851, 0.655882, 0.0001, 45.5, 246, 40.7871, 0.225564, 0, 0, 0, 0, 44021
-11473.1, 328137, -301.609, 1.11251, -725.969, 0.124078, 0.575172, 1.03299, 0.34851, 0.655882, 3, 45.5, 246, 40.7871, 0.225564, 0, 0, 0, 0, 44021
-10179.1, 190091, -148.768, 1.71612, -918.573, -0.00382342, 0.38978, 1.03299, 0.34851, 0.655882, 3, 45.5, 246, 34.7371, 0.166692, 0, 0, 1, 0, 44022
-8681.78, 205214, -172.515, 1.82034, -926.473, 0.00990034, 0.371374, 0.993198, 0.349787, 0.651995, 0.0001, 91, 246, 34.7371, 0.166692, 0, 0, 1, 0, 44022
-12123.9, 130551, 10.3428, 2.69897, -985.917, -0.0327536, 0.230256, 1.03299, 0.34851, 0.655882, 0.0001, 45.5, 246, 14.5424, 0.027701, 0, 0, 1, 0, 44024
-12123.9, 130551, 10.3428, 2.69897, -985.917, -0.0327536, 0.230256, 1.03299, 0.34851, 0.655882, 3, 45.5, 246, 14.5424, 0.027701, 0, 0, 1, 0, 44024
-9332.04, 112478, -98.9256, 2.52693, -1006.7, 0.0933294, 0.296587, 1.03299, 0.34851, 0.655882, 0.0001, 45.5, 246, 32.3181, 0.132557, 0, 0, 1, 0, 44029
-9332.04, 112478, -98.9256, 2.52693, -1006.7, 0.0933294, 0.296587, 1.03299, 0.34851, 0.655882, 3, 45.5, 246, 32.3181, 0.132557, 0, 0, 1, 0, 44029
-9194.11, 76450.2, -18.4453, 1.07252, -1024.27, -0.00494852, 0.335292, 1.03299, 0.34851, 0.655882, 0.0001, 45.5, 246, 16.0883, 0.0635365, 0, 0, 1, 0, 44032
982.419, 349946, -382.271, 3.91045, -869.832, 0.128526, 0.386064, 0.9175, 0.352806, 0.64323, 3, 455, 246, 34.6315, 0.145004, 1.33673, 1, 0, 0, 44035
-4285.95, 87038.6, -204.961, 3.18815, -861.253, 0.310016, 0.28639, 1.03299, 0.34851, 0.655882, 0.0001, 45.5, 246, 53.7868, 0.204134, 1.41029, 1, 1, 0, 44054
-4285.95, 87038.6, -204.961, 3.18815, -861.253, 0.310016, 0.28639, 1.03299, 0.34851, 0.655882, 3, 45.5, 246, 53.7868, 0.204134, 1.2494, 1, 1, 0, 44054
-2519.44, 103499, -250.452, 3.53176, -929.788, 0.378068, 0.297351, 0.993198, 0.349787, 0.651995, 0.0001, 91, 246, 53.7868, 0.204134, 1.56919, 1, 1, 0, 44054
-2519.44, 103499, -250.452, 3.53176, -929.788, 0.378068, 0.297351, 0.993198, 0.349787, 0.651995, 3, 91, 246, 53.7868, 0.204134, 1.43077, 1, 1, 0, 44054
-12.2129, 123942, -307.313, 3.94949, -1021.96, 0.467366, 0.328029, 0.958125, 0.351078, 0.648177, 0.0001, 182, 246, 53.7868, 0.204134, 2.30212, 1, 1, 0, 44054
-12.2129, 123942, -307.313, 3.94949, -1021.96, 0.467366, 0.328029, 0.958125, 0.351078, 0.648177, 3, 182, 246, 53.7868, 0.204134, 2.16838, 1, 1, 0, 44054
-2299.39, 243943, -377.827, 4.01052, -969.887, 0.0718591, 0.392986, 0.958125, 0.351078, 0.648177, 0.0001, 182, 246, 46.4278, 0.200596, 2.09998, 1, 0, 0, 44055
-2299.39, 243943, -377.827, 4.01052, -969.887, 0.0718591, 0.392986, 0.958125, 0.351078, 0.648177, 3, 182, 246, 46.4278, 0.200596, 1.93259, 1, 0, 0, 44055
-9264.94, 217458, -186.692, 1.07844, -1022.08, 0.497946, 0.464195, 1.03299, 0.34851, 0.655882, 0.0001, 45.5, 246, 38.6753, 0.199134, 0, 0, 0, 0, 44070
-6445.9, 276976, -229.977, 1.26021, -1229.32, 0.605172, 0.428154, 0.958125, 0.351078, 0.648177, 0.0001, 182, 246, 38.6753, 0.199134, 0, 0, 0, 0, 44070
-6445.9, 276976, -229.977, 1.26021, -1229.32, 0.605172, 0.428154, 0.958125, 0.351078, 0.648177, 3, 182, 246, 38.6753, 0.199134, 0, 0, 0, 0, 44070
-11232.6, 355990, -317.219, 0.972857, -790.644, 0.489127, 0.576995, 1.03299, 0.34851, 0.655882, 3, 45.5, 246, 40.303, 0.211417, 0, 0, 0, 0, 44072
-9041.21, 216543, -347.773, 3.35449, -962.846, 0.441716, 0.434846, 1.03299, 0.34851, 0.655882, 0.0001, 45.5, 246, 55.8332, 0.249267, 1.26736, 1, 0, 0, 44076
-9041.21, 216543, -347.773, 3.35449, -962.846, 0.441716, 0.434846, 1.03299, 0.34851, 0.655882, 3, 45.5, 246, 55.8332, 0.249267, 1.1883, 1, 0, 0, 44076
-4394.32, 242708, -414.531, 3.77304, -1076.71, 0.534725, 0.463621, 0.993198, 0.349787, 0.651995, 0.0001, 91, 246, 55.8332, 0.249267, 1.73507, 1, 1, 0, 44076
-4394.32, 242708, -414.531, 3.77304, -1076.71, 0.534725, 0.463621, 0.993198, 0.349787, 0.651995, 3, 91, 246, 55.8332, 0.249267, 1.64507, 1, 1, 0, 44076
-11507.1, 114222, -19.4007, 3.21135, -1007.9, 0.00573587, 0.189378, 1.03299, 0.34851, 0.655882, 0.0001, 45.5, 246, 19.6816, 0.054277, 0, 0, 0, 0, 44078
-11507.1, 114222, -19.4007, 3.21135, -1007.9, 0.00573587, 0.189378, 1.03299, 0.34851, 0.655882, 3, 45.5, 246, 19.6816, 0.054277, 0, 0, 0, 0, 44078
-11313.2, 488050, -406.002, 0.421717, -650.107, 0.0296528, 0.671145, 1.03299, 0.34851, 0.655882, 3, 45.5, 246, 39.1846, 0.219622, 0, 0, 0, 0, 44080
-12377.5, 249836, -135.032, 3.36882, -906.545, 0.271696, 0.216625, 0.993198, 0.349787, 0.651995, 0.0001, 91, 246, 26.2729, 0.0848278, 0, 0, 1, 0, 44081
-12377.5, 249836, -135.032, 3.36882, -906.545, 0.271696, 0.216625, 0.993198, 0.349787, 0.651995, 3, 91, 246, 26.2729, 0.0848278, 0, 0, 1, 0, 44081
-3277.6, 233844, -355.802, 4.01561, -858.131, 0.121279, 0.365374, 0.958125, 0.351078, 0.648177, 0.0001, 182, 246, 43.3971, 0.187601, 1.52301, 1, 0, 0, 44085
-3277.6, 233844, -355.802, 4.01561, -858.131, 0.121279, 0.365374, 0.958125, 0.351078, 0.648177, 3, 182, 246, 43.3971, 0.187601, 1.33981, 1, 0, 0, 44085
-11822.4, 151573, -99.6905, 3.5311, -1000.85, -0.0491045, 0.181487, 1.03299, 0.34851, 0.655882, 0.0001, 45.5, 246, 30.3066, 0.102176, 0, 0, 0, 0, 44086
-11822.4, 151573, -99.6905, 3.5311, -1000.85, -0.0491045, 0.181487, 1.03299, 0.34851, 0.655882, 3, 45.5, 246, 30.3066, 0.102176, 0, 0, 0, 0, 44086
-9344.03, 168674, -142.733, 3.84959, -1009.41, 0.010676, 0.196423, 0.993198, 0.349787, 0.651995, 0.0001, 91, 246, 30.3066, 0.102176, 0, 0, 1, 0, 44086
-9344.03, 168674, -142.733, 3.84959, -1009.41, 0.010676, 0.196423, 0.993198, 0.349787, 0.651995, 3, 91, 246, 30.3066, 0.102176, 0, 0, 1, 0, 44086
-17852.5, -181270, -43.492, 0.318627, -1110.54, 0.0382949, 0.401045, 1.03299, 0.34851, 0.655882, 0.0001, 45.5, 246, -111.973, 0.170933, 0, 0, 1, 0, 44090
-17852.5, -181270, -43.492, 0.318627, -1110.54, 0.0382949, 0.401045, 1.03299, 0.34851, 0.655882, 3, 45.5, 246, -111.973, 0.170933, 0, 0, 1, 0, 44090
-9749.85, 152368, -55.5971, 1.18958, -1161.86, 0.102087, 0.343807, 1.03299, 0.34851, 0.655882, 3, 45.5, 246, 24.1055, 0.087016, 0, 0, 1, 0, 44092
-4831.78, 243689, -156.798, 3.37241, -680.053, 0.195624, 0.264752, 0.9175, 0.352806, 0.64323, 3, 455, 246, 19.5738, 0.0686758, 0, 0, 1, 0, 44096
-8920.94, 49622.2, -6.30574, 0.792052, -1177.01, 0.0252181, 0.303607, 0.993198, 0.349787, 0.651995, 0.0001, 91, 246, 8.52001, 0.0364503, 0, 0, 1, 1, 44100
-8920.94, 49622.2, -6.30574, 0.792052, -1177.01, 0.0252181, 0.303607, 0.993198, 0.349787, 0.651995, 3, 91, 246, 8.52001, 0.0364503, 0, 0, 1, 1, 44100
-11516.3, 365180, -286.168, 1.0741, -816.175, 0.0475079, 0.535766, 1.03299, 0.34851, 0.655882, 0.0001, 45.5, 246, 38.7588, 0.196735, 0, 0, 0, 0, 44105
-11516.3, 365180, -286.168, 1.0741, -816.175, 0.0475079, 0.535766, 1.03299, 0.34851, 0.655882, 3, 45.5, 246, 38.7588, 0.196735, 0, 0, 0, 0, 44105
-10846.3, 230133, -119.429, 1.15764, -615.478, 0.305463, 0.371954, 1.03299, 0.34851, 0.655882, 0.0001, 45.5, 246, 24.4214, 0.116527, 0, 0, 1, 0, 44117
-10846.3, 230133, -119.429, 1.15764, -615.478, 0.305463, 0.371954, 1.03299, 0.34851, 0.655882, 3, 45.5, 246, 24.4214, 0.116527, 0, 0, 1, 0, 44117
-11502.1, 953197, -6.88449, 0.194375, -810.049, 0.067527, 0.339935, 1.03299, 0.34851, 0.655882, 0.0001, 45.5, 246, 19.1926, 0.00241558, 0, 0, 1, 0, 44127
-11502.1, 953197, -6.88449, 0.194375, -810.049, 0.067527, 0.339935, 1.03299, 0.34851, 0.655882, 3, 45.5, 246, 19.1926, 0.00241558, 0, 0, 1, 0, 44127
-11278.6, 344255, -206.705, 1.16703, -1015.05, 0.596241, 0.429171, 1.03299, 0.34851, 0.655882, 0.0001, 45.5, 246, 34.6676, 0.137557, 0, 0, 0, 0, 44130
-11278.6, 344255, -206.705, 1.16703, -1015.05, 0.596241, 0.429171, 1.03299, 0.34851, 0.655882, 3, 45.5, 246, 34.6676, 0.137557, 0, 0, 0, 0, 44130
-10098.9, 214477, -234.425, 1.81767, -849.851, 0.20411, 0.481325, 1.03299, 0.34851, 0.655882, 0.0001, 45.5, 246, 43.5178, 0.228859, 0, 0, 0, 0, 44132
-10098.9, 214477, -234.425, 1.81767, -849.851, 0.20411, 0.481325, 1.03299, 0.34851, 0.655882, 3, 45.5, 246, 43.5178, 0.228859, 0, 0, 0, 0, 44132
-10132.4, 99988.5, -24.5577, 2.1437, -1102.58, -0.0215834, 0.288022, 1.03299, 0.34851, 0.655882, 0.0001, 45.5, 246, 20.1191, 0.0662238, 0, 0, 1, 0, 44146
-10132.4, 99988.5, -24.5577, 2.1437, -1102.58, -0.0215834, 0.288022, 1.03299, 0.34851, 0.655882, 3, 45.5, 246, 20.1191, 0.0662238, 0, 0, 1, 0, 44146
-12080.6, 614475, -14.8634, 0.375623, -658.56, 0.654145, 0.338253, 1.03299, 0.34851, 0.655882, 0.0001, 45.5, 246, 14.8534, 0.00676011, 0, 0, 1, 0, 44148
-12080.6, 614475, -14.8634, 0.375623, -658.56, 0.654145, 0.338253, 1.03299, 0.34851, 0.655882, 3, 45.5, 246, 14.8534, 0.00676011, 0, 0, 1, 0, 44148
-11309.8, 645819, -17.7754, 0.402619, -734.698, 0.730299, 0.302456, 0.993198, 0.349787, 0.651995, 3, 91, 246, 14.8534, 0.00676011, 0, 0, 1, 0, 44148
-10344.1, 683637, -21.2358, 0.432532, -830.824, 0.826437, 0.271129, 0.958125, 0.351078, 0.648177, 0.0001, 182, 246, 14.8534, 0.00676011, 0, 0, 1, 0, 44148
-9798.92, 60235.6, 7.62076, 3.36589, -1030.41, 0.47514, 0.168045, 1.03299, 0.34851, 0.655882, 0.0001, 45.5, 246, 16.0178, 0.0441555, 0, 0, 0, 0, 44151
-9798.92, 60235.6, 7.62076, 3.36589, -1030.41, 0.47514, 0.168045, 1.03299, 0.34851, 0.655882, 3, 45.5, 246, 16.0178, 0.0441555, 0, 0, 0, 0, 44151
-12697.4, 707353, -9.59035, 0.387529, -748.394, 0.140063, 0.33788, 1.03299, 0.34851, 0.655882, 0.0001, 45.5, 246, 16.7108, 0.00481483, 0, 0, 1, 0, 44153
-10474.3, 237172, -260.485, 2.1274, -1052.94, 0.459222, 0.480837, 1.03299, 0.34851, 0.655882, 0.0001, 45.5, 246, 46.3155, 0.222226, 0, 0, 0, 0, 44159
-10474.3, 237172, -260.485, 2.1274, -1052.94, 0.459222, 0.480837, 1.03299, 0.34851, 0.655882, 3, 45.5, 246, 46.3155, 0.222226, 0, 0, 0, 0, 44159
-3768.92, 301874, -351.269, 2.58873, -1282.32, 0.594075, 0.487177, 0.958125, 0.351078, 0.648177, 0.0001, 182, 246, 46.3155, 0.222226, 0, 0, 0, 0, 44159
-3768.92, 301874, -351.269, 2.58873, -1282.32, 0.594075, 0.487177, 0.958125, 0.351078, 0.648177, 3, 182, 246, 46.3155, 0.222226, 0, 0, 0, 0, 44159
-8929.8, 906232, -87.4854, 0.169681, -926.79, 0.000110324, 0.312325, 0.993198, 0.349787, 0.651995, 0.0001, 91, 246, 23.9504, 0.0241519, 0, 0, 1, 0, 44160
-8337.84, 315178, -412.475, 3.65754, -1079.1, 0.215203, 0.461468, 0.993198, 0.349787, 0.651995, 0.0001, 91, 246, 50.8271, 0.22226, 1.09901, 1, 1, 0, 44161
-7056.23, -22100.7, -19.2065, 3.8165, -1053.51, 0.00565948, 0.213206, 0.993198, 0.349787, 0.651995, 0.0001, 91, 246, 12.6742, 0.0550663, 0, 0, 1, 1, 44162
-7056.23, -22100.7, -19.2065, 3.8165, -1053.51, 0.00565948, 0.213206, 0.993198, 0.349787, 0.651995, 3, 91, 246, 12.6742, 0.0550663, 0, 0, 1, 1, 44162
-9325.57, 227679, -121.986, 1.4148, -956.288, 0.0229256, 0.336486, 0.993198, 0.349787, 0.651995, 0.0001, 91, 246, 27.8885, 0.115743, 0, 0, 1, 0, 44168
-9872.55, 814112, -135.545, 0.264955, -928.432, 0.478965, 0.359602, 1.03299, 0.34851, 0.655882, 0.0001, 45.5, 246, 25.6881, 0.0393124, 0, 0, 1, 0, 44169
-9872.55, 814112, -135.545, 0.264955, -928.432, 0.478965, 0.359602, 1.03299, 0.34851, 0.655882, 3, 45.5, 246, 25.6881, 0.0393124, 0, 0, 1, 0, 44169
-5354.1, 339549, -76.6871, 3.33296, -1076.16, 0.359506, 0.23684, 0.9175, 0.352806, 0.64323, 0.0001, 455, 246, 15.8672, 0.0133093, 0, 0, 0, 0, 44171
-5354.1, 339549, -76.6871, 3.33296, -1076.16, 0.359506, 0.23684, 0.9175, 0.352806, 0.64323, 3, 455, 246, 15.8672, 0.0133093, 0, 0, 0, 0, 44171
-4899.93, 102609, -220.404, 3.23551, -802.303, -0.0487094, 0.304437, 1.03299, 0.34851, 0.655882, 0.0001, 45.5, 246, 53.5208, 0.215645, 1.39274, 1, 1, 0, 44173
-4899.93, 102609, -220.404, 3.23551, -802.303, -0.0487094, 0.304437, 1.03299, 0.34851, 0.655882, 3, 45.5, 246, 53.5208, 0.215645, 1.23487, 1, 1, 0, 44173
-2876.73, 114807, -265.038, 3.51854, -820.738, 0.00139654, 0.317213, 0.993198, 0.349787, 0.651995, 0.0001, 91, 246, 53.5208, 0.215645, 1.54822, 1, 1, 0, 44173
-2876.73, 114807, -265.038, 3.51854, -820.738, 0.00139654, 0.317213, 0.993198, 0.349787, 0.651995, 3, 91, 246, 53.5208, 0.215645, 1.42347, 1, 1, 0, 44173
-206.739, 128650, -318.009, 3.8531, -852.985, 0.0610983, 0.347465, 0.958125, 0.351078, 0.648177, 0.0001, 182, 246, 53.5208, 0.215645, 2.23376, 1, 1, 1, 44173
-206.739, 128650, -318.009, 3.8531, -852.985, 0.0610983, 0.347465, 0.958125, 0.351078, 0.648177, 3, 182, 246, 53.5208, 0.215645, 2.09903, 1, 1, 1, 44173
-8401.48, 189826, -174.127, 1.80448, -955.684, 0.741211, 0.373073, 0.993198, 0.349787, 0.651995, 0.0001, 91, 246, 34.913, 0.171475, 0, 0, 1, 0, 44176
-6593.74, 217070, -202.215, 1.99593, -1093.89, 0.857491, 0.362115, 0.958125, 0.351078, 0.648177, 3, 182, 246, 34.913, 0.171475, 0, 0, 1, 0, 44176
-11270.6, 390341, -141.461, 0.838246, -898.847, 0.31375, 0.378595, 1.03299, 0.34851, 0.655882, 0.0001, 45.5, 246, 26.9461, 0.0887817, 0, 0, 1, 0, 44186
-11270.6, 390341, -141.461, 0.838246, -898.847, 0.31375, 0.378595, 1.03299, 0.34851, 0.655882, 3, 45.5, 246, 26.9461, 0.0887817, 0, 0, 1, 0, 44186
-6159.47, 23384.8, -95.6787, 3.42608, -947.877, 0.054238, 0.233886, 0.993198, 0.349787, 0.651995, 3, 91, 246, 34.2175, 0.0546105, 0, 0, 1, 1, 44188
-10354.9, 379382, -351.907, 0.949279, -1020.56, 0.275384, 0.63794, 1.03299, 0.34851, 0.655882, 0.0001, 45.5, 246, 46.1287, 0.232871, 0, 0, 0, 0, 44192
-10354.9, 379382, -351.907, 0.949279, -1020.56, 0.275384, 0.63794, 1.03299, 0.34851, 0.655882, 3, 45.5, 246, 46.1287, 0.232871, 0, 0, 0, 0, 44192
-10168.5, 669031, -144.082, 0.371969, -929.285, 0.0944223, 0.368748, 1.03299, 0.34851, 0.655882, 0.0001, 45.5, 246, 26.1023, 0.0549622, 0, 0, 1, 0, 44194
-10168.5, 669031, -144.082, 0.371969, -929.285, 0.0944223, 0.368748, 1.03299, 0.34851, 0.655882, 3, 45.5, 246, 26.1023, 0.0549622, 0, 0, 1, 0, 44194
-5948.43, -16094.2, -38.9192, 3.58954, -814.137, 0.0968245, 0.181591, 1.03299, 0.34851, 0.655882, 0.0001, 45.5, 246, 26.9252, 0.00725001, 0, 0, 1, 1, 44201
-5948.43, -16094.2, -38.9192, 3.58954, -814.137, 0.0968245, 0.181591, 1.03299, 0.34851, 0.655882, 3, 45.5, 246, 26.9252, 0.00725001, 0, 0, 1, 1, 44201
-9907.26, 563974, -58.3374, 0.370436, -963.055, 0.48132, 0.308408, 0.993198, 0.349787, 0.651995, 0.0001, 91, 246, 20.7912, 0.0248674, 0, 0, 1, 0, 44203
-10042.5, 90050.4, -25.6173, 2.45158, -1055.8, 0.125852, 0.266282, 1.03299, 0.34851, 0.655882, 0.0001, 45.5, 246, 20.4046, 0.0671392, 0, 0, 1, 0, 44205
-10042.5, 90050.4, -25.6173, 2.45158, -1055.8, 0.125852, 0.266282, 1.03299, 0.34851, 0.655882, 3, 45.5, 246, 20.4046, 0.0671392, 0, 0, 1, 0, 44205
-8332.04, 398855, -313.444, 0.290242, -865.104, 0.487456, 0.571056, 1.03299, 0.34851, 0.655882, 0.0001, 45.5, 246, 38.7031, 0.196253, 0, 0, 0, 0, 44220
-5728.37, 457675, -342.77, 0.330411, -1028.62, 0.577226, 0.543095, 0.958125, 0.351078, 0.648177, 0.0001, 182, 246, 38.7031, 0.196253, 0, 0, 0, 0, 44220
-12194.7, 339181, -23.325, 0.863657, -631.592, 0.0301273, 0.330699, 1.03299, 0.34851, 0.655882, 0.0001, 45.5, 246, 13.3482, 0.021326, 0, 0, 1, 0, 44226
-12194.7, 339181, -23.325, 0.863657, -631.592, 0.0301273, 0.330699, 1.03299, 0.34851, 0.655882, 3, 45.5, 246, 13.3482, 0.021326, 0, 0, 1, 0, 44226
-11164.4, 346633, -29.3243, 0.901782, -635.396, 0.033709, 0.297215, 0.993198, 0.349787, 0.651995, 3, 91, 246, 13.3482, 0.021326, 0, 0, 1, 0, 44226
-10022.5, 873811, -80.558, 0.221168, -1025.45, 0.0867761, 0.34706, 1.03299, 0.34851, 0.655882, 0.0001, 45.5, 246, 25.9134, 0.0235602, 0, 0, 1, 0, 44230
-10022.5, 873811, -80.558, 0.221168, -1025.45, 0.0867761, 0.34706, 1.03299, 0.34851, 0.655882, 3, 45.5, 246, 25.9134, 0.0235602, 0, 0, 1, 0, 44230
-9343.64, 896701, -85.1144, 0.229043, -1040.22, 0.0882081, 0.311443, 0.993198, 0.349787, 0.651995, 0.0001, 91, 246, 25.9134, 0.0235602, 0, 0, 1, 0, 44230
-8560.37, 920332, -89.6823, 0.236598, -1055.49, 0.0896963, 0.280152, 0.958125, 0.351078, 0.648177, 0.0001, 182, 246, 25.9134, 0.0235602, 0, 0, 1, 0, 44230
-7916.39, 71667.7, -94.5854, 2.39467, -947.368, 0.0320726, 0.308907, 1.03299, 0.34851, 0.655882, 3, 45.5, 246, 35.3348, 0.152048, 0, 0, 1, 0, 44238
-6468.26, 370511, -257.212, 0.718247, -994.329, 0.0467857, 0.444484, 0.958125, 0.351078, 0.648177, 0.0001, 182, 246, 36.7047, 0.17481, 0, 0, 0, 0, 44247
-9728.83, 98594.4, -31.5781, 1.73573, -1153.91, 0.118383, 0.314399, 1.03299, 0.34851, 0.655882, 3, 45.5, 246, 21.2611, 0.0761036, 0, 0, 1, 0, 44248
-5972.07, 232100, -330.33, 3.55034, -1196.51, 0.648978, 0.38815, 0.993198, 0.349787, 0.651995, 0.0001, 91, 246, 49.4009, 0.212114, 1.01013, 1, 1, 0, 44252
-12035, 386075, -185.22, 1.21808, -1088.19, 0.0930876, 0.405489, 1.03299, 0.34851, 0.655882, 3, 45.5, 246, 33.6517, 0.119543, 0, 0, 0, 0, 44260
-10306.3, 70665.3, 11.453, 3.50288, -596.682, 0.327459, 0.144029, 1.03299, 0.34851, 0.655882, 0.0001, 45.5, 246, 8.83825, 0.0201752, 0, 0, 0, 0, 44261
-10306.3, 70665.3, 11.453, 3.50288, -596.682, 0.327459, 0.144029, 1.03299, 0.34851, 0.655882, 3, 45.5, 246, 8.83825, 0.0201752, 0, 0, 0, 0, 44261
-9314.75, 78071.7, -8.27253, 3.89376, -632.036, 0.408623, 0.157128, 0.993198, 0.349787, 0.651995, 0.0001, 91, 246, 8.83825, 0.0201752, 0, 0, 1, 0, 44261
-9314.75, 78071.7, -8.27253, 3.89376, -632.036, 0.408623, 0.157128, 0.993198, 0.349787, 0.651995, 3, 91, 246, 8.83825, 0.0201752, 0, 0, 1, 0, 44261
-7994.7, 87000.8, -33.9599, 4.37767, -682.021, 0.517046, 0.193498, 0.958125, 0.351078, 0.648177, 0.0001, 182, 246, 8.83825, 0.0201752, 0, 0, 1, 0, 44261
-7994.7, 87000.8, -33.9599, 4.37767, -682.021, 0.517046, 0.193498, 0.958125, 0.351078, 0.648177, 3, 182, 246, 8.83825, 0.0201752, 0, 0, 1, 0, 44261
-3187.11, 211096, -327.675, 4.10731, -896.219, 0.0699053, 0.333686, 0.958125, 0.351078, 0.648177, 0.0001, 182, 246, 42.6382, 0.177048, 1.38002, 1, 0, 0, 44265
-3187.11, 211096, -327.675, 4.10731, -896.219, 0.0699053, 0.333686, 0.958125, 0.351078, 0.648177, 3, 182, 246, 42.6382, 0.177048, 1.17485, 1, 0, 0, 44265
-8203.7, 418964, -328.159, 0.263217, -883.095, 0.365211, 0.58599, 1.03299, 0.34851, 0.655882, 0.0001, 45.5, 246, 39.5207, 0.199468, 0, 0, 0, 0, 44274
-6952.78, 444026, -342.99, 0.278815, -939.671, 0.38792, 0.571232, 0.993198, 0.349787, 0.651995, 0.0001, 91, 246, 39.5207, 0.199468, 0, 0, 1, 0, 44274
-5489.88, 472376, -357.994, 0.295149, -1003.8, 0.413637, 0.560908, 0.958125, 0.351078, 0.648177, 0.0001, 182, 246, 39.5207, 0.199468, 0, 0, 0, 0, 44274
-11561.1, 250114, -112.964, 1.40466, -827.253, 0.271699, 0.355543, 1.03299, 0.34851, 0.655882, 3, 45.5, 246, 26.1163, 0.103298, 0, 0, 1, 0, 44280
-8246.4, 285128, -149.528, 1.60749, -918.69, 0.31898, 0.310539, 0.958125, 0.351078, 0.648177, 0.0001, 182, 246, 26.1163, 0.103298, 0, 0, 1, 0, 44280
-8246.4, 285128, -149.528, 1.60749, -918.69, 0.31898, 0.310539, 0.958125, 0.351078, 0.648177, 3, 182, 246, 26.1163, 0.103298, 0, 0, 1, 0, 44280
-7879.1, -1157.48, -23.6524, 2.95055, -1050.84, 0.13219, 0.256067, 0.993198, 0.349787, 0.651995, 0.0001, 91, 246, 14.4463, 0.0564104, 0, 0, 1, 1, 44281
-7879.1, -1157.48, -23.6524, 2.95055, -1050.84, 0.13219, 0.256067, 0.993198, 0.349787, 0.651995, 3, 91, 246, 14.4463, 0.0564104, 0, 0, 1, 1, 44281
-8900.06, 383078, -326.663, 0.479475, -915.43, 0.804849, 0.584357, 1.03299, 0.34851, 0.655882, 0.0001, 45.5, 246, 40.4695, 0.201057, 0, 0, 0, 0, 44289
-8900.06, 383078, -326.663, 0.479475, -915.43, 0.804849, 0.584357, 1.03299, 0.34851, 0.655882, 3, 45.5, 246, 40.4695, 0.201057, 0, 0, 0, 0, 44289
-7296.74, 420131, -344.995, 0.523121, -1053.66, 0.923391, 0.57025, 0.993198, 0.349787, 0.651995, 3, 91, 246, 40.4695, 0.201057, 0, 0, 1, 0, 44289
-1226.12, 182222, -278.94, 3.64094, -1246.78, 0.732218, 0.348862, 0.9175, 0.352806, 0.64323, 0.0001, 455, 246, 38.285, 0.164425, 1.18889, 1, 0, 0, 44294
-1226.12, 182222, -278.94, 3.64094, -1246.78, 0.732218, 0.348862, 0.9175, 0.352806, 0.64323, 3, 455, 246, 38.285, 0.164425, 1.20883, 1, 0, 0, 44294
-7625.84, 318864, -300.517, 1.04513, -1086.99, 0.0228226, 0.567453, 0.993198, 0.349787, 0.651995, 3, 91, 246, 45.4105, 0.239592, 0, 0, 1, 0, 44299
-10829.8, 215512, -254.124, 3.38464, -1111.54, -0.0449498, 0.339178, 1.03299, 0.34851, 0.655882, 3, 45.5, 246, 47.9018, 0.20053, 0, 0, 0, 0, 44301
-1609.57, 264077, -386.306, 4.06912, -1178.17, 0.0764164, 0.399597, 0.958125, 0.351078, 0.648177, 0.0001, 182, 246, 47.9018, 0.20053, 2.92359, 1, 0, 0, 44301
-1609.57, 264077, -386.306, 4.06912, -1178.17, 0.0764164, 0.399597, 0.958125, 0.351078, 0.648177, 3, 182, 246, 47.9018, 0.20053, 2.69478, 1, 0, 0, 44301
-6324.9, 30637.3, -94.4355, 3.36192, -1091.43, 0.110572, 0.242101, 0.993198, 0.349787, 0.651995, 0.0001, 91, 246, 33.6371, 0.0751048, 0, 0, 1, 1, 44304
-6324.9, 30637.3, -94.4355, 3.36192, -1091.43, 0.110572, 0.242101, 0.993198, 0.349787, 0.651995, 3, 91, 246, 33.6371, 0.0751048, 0, 0, 1, 1, 44304
-9827.87, 142455, -145.204, 2.53172, -786.591, 0.463309, 0.311132, 1.03299, 0.34851, 0.655882, 0.0001, 45.5, 246, 34.6929, 0.149343, 0, 0, 1, 0, 44307
-9827.87, 142455, -145.204, 2.53172, -786.591, 0.463309, 0.311132, 1.03299, 0.34851, 0.655882, 3, 45.5, 246, 34.6929, 0.149343, 0, 0, 1, 0, 44307
-11311.2, 252478, -290.234, 1.84482, -694.935, 0.0687584, 0.542368, 1.03299, 0.34851, 0.655882, 0.0001, 45.5, 246, 45.0165, 0.247102, 0, 0, 0, 0, 44315
-11311.2, 252478, -290.234, 1.84482, -694.935, 0.0687584, 0.542368, 1.03299, 0.34851, 0.655882, 3, 45.5, 246, 45.0165, 0.247102, 0, 0, 0, 0, 44315
312.681, 378465, -288.825, 4.41997, -1255.63, 0.4302, 0.297645, 0.9175, 0.352806, 0.64323, 0.0001, 455, 246, 29.0642, 0.0856031, 0, 0, 0, 0, 44316
312.681, 378465, -288.825, 4.41997, -1255.63, 0.4302, 0.297645, 0.9175, 0.352806, 0.64323, 3, 455, 246, 29.0642, 0.0856031, 0, 0, 0, 0, 44316
-11585.4, 549366, -5.78481, 0.384686, -735.921, 0.000413247, 0.338174, 1.03299, 0.34851, 0.655882, 0.0001, 45.5, 246, 15.1048, 0.00452464, 0, 0, 1, 0, 44318
-11585.4, 549366, -5.78481, 0.384686, -735.921, 0.000413247, 0.338174, 1.03299, 0.34851, 0.655882, 3, 45.5, 246, 15.1048, 0.00452464, 0, 0, 1, 0, 44318
-10928.5, 558822, -8.5483, 0.397629, -736.081, 0.00108518, 0.30238, 0.993198, 0.349787, 0.651995, 0.0001, 91, 246, 15.1048, 0.00452464, 0, 0, 1, 0, 44318
-6895.73, 9240.62, -51.5165, 2.92388, -788.522, -0.0407333, 0.243153, 1.03299, 0.34851, 0.655882, 0.0001, 45.5, 246, 29.4297, 0.0531892, 0, 0, 1, 1, 44322
-6895.73, 9240.62, -51.5165, 2.92388, -788.522, -0.0407333, 0.243153, 1.03299, 0.34851, 0.655882, 3, 45.5, 246, 29.4297, 0.0531892, 0, 0, 1, 1, 44322
-6740.27, 105231, -161.912, 3.26705, -809.251, 0.562366, 0.256725, 0.993198, 0.349787, 0.651995, 0.0001, 91, 246, 35.5839, 0.133797, 0, 0, 1, 0, 44324
-1100.01, 153790, -278.949, 4.3756, -1105.63, 0.89501, 0.335669, 0.9175, 0.352806, 0.64323, 0.0001, 455, 246, 35.5839, 0.133797, 1.40021, 1, 0, 0, 44324
-1100.01, 153790, -278.949, 4.3756, -1105.63, 0.89501, 0.335669, 0.9175, 0.352806, 0.64323, 3, 455, 246, 35.5839, 0.133797, 1.40083, 1, 0, 0, 44324
-11302.1, 319631, -282.785, 0.866022, -559.065, 0.380217, 0.548553, 1.03299, 0.34851, 0.655882, 0.0001, 45.5, 246, 35.9802, 0.20989, 0, 0, 1, 0, 44325
-11302.1, 319631, -282.785, 0.866022, -559.065, 0.380217, 0.548553, 1.03299, 0.34851, 0.655882, 3, 45.5, 246, 35.9802, 0.20989, 0, 0, 1, 0, 44325
-12105.5, 441404, -73.5535, 0.743758, -839.765, 0.017826, 0.344877, 1.03299, 0.34851, 0.655882, 0.0001, 45.5, 246, 20.8709, 0.0447805, 0, 0, 1, 0, 44340
-12105.5, 441404, -73.5535, 0.743758, -839.765, 0.017826, 0.344877, 1.03299, 0.34851, 0.655882, 3, 45.5, 246, 20.8709, 0.0447805, 0, 0, 1, 0, 44340
-7200.98, 557718, -215.514, 0.268577, -970.369, 0.00726227, 0.386675, 0.993198, 0.349787, 0.651995, 0.0001, 91, 246, 30.4832, 0.0983641, 0, 0, 1, 0, 44341
-7904.53, 922529, -131.257, 0.15237, -985.701, 0.00575477, 0.322352, 0.993198, 0.349787, 0.651995, 0.0001, 91, 246, 26.6624, 0.0355117, 0, 0, 1, 0, 44346
-11507.5, 337637, -302.308, 1.13544, -783.54, 0.381343, 0.559889, 1.03299, 0.34851, 0.655882, 3, 45.5, 246, 40.3086, 0.211948, 0, 0, 0, 0, 44354
-529.951, 220438, -283.019, 4.59322, -1711.55, 1.2509, 0.332693, 0.9175, 0.352806, 0.64323, 3, 455, 246, 31.7485, 0.114557, 1.2874, 1, 0, 0, 44356
-8965.95, 139132, -172.405, 2.9366, -860.712, -0.0120197, 0.304976, 1.03299, 0.34851, 0.655882, 0.0001, 45.5, 246, 40.6096, 0.173727, 0, 0, 1, 0, 44365
-8965.95, 139132, -172.405, 2.9366, -860.712, -0.0120197, 0.304976, 1.03299, 0.34851, 0.655882, 3, 45.5, 246, 40.6096, 0.173727, 0, 0, 1, 0, 44365
539.35, 191106, -329.891, 3.92282, -965.334, 0.159678, 0.375974, 0.9175, 0.352806, 0.64323, 0.0001, 455, 246, 40.6096, 0.173727, 2.29134, 1, 0, 0, 44365
539.35, 191106, -329.891, 3.92282, -965.334, 0.159678, 0.375974, 0.9175, 0.352806, 0.64323, 3, 455, 246, 40.6096, 0.173727, 2.31447, 1, 0, 0, 44365
-6059.35, 244618, -361.976, 3.6639, -1077.86, 0.269734, 0.413378, 0.993198, 0.349787, 0.651995, 0.0001, 91, 246, 51.1803, 0.224146, 1.22248, 1, 1, 0, 44366
-6059.35, 244618, -361.976, 3.6639, -1077.86, 0.269734, 0.413378, 0.993198, 0.349787, 0.651995, 3, 91, 246, 51.1803, 0.224146, 1.08333, 1, 1, 0, 44366
-10276.9, 204584, -245.901, 3.44784, -1172.81, -0.0520031, 0.328129, 1.03299, 0.34851, 0.655882, 3, 45.5, 246, 48.361, 0.199767, 0, 0, 0, 0, 44377
-6396.11, 229661, -308.145, 3.76739, -1194.55, 0.00515473, 0.349895, 0.993198, 0.349787, 0.651995, 3, 91, 246, 48.361, 0.199767, 0, 0, 1, 0, 44377
-1224.18, 257868, -383.054, 4.15134, -1237.88, 0.0740959, 0.391911, 0.958125, 0.351078, 0.648177, 0.0001, 182, 246, 48.361, 0.199767, 3.62206, 1, 0, 0, 44377
-1224.18, 257868, -383.054, 4.15134, -1237.88, 0.0740959, 0.391911, 0.958125, 0.351078, 0.648177, 3, 182, 246, 48.361, 0.199767, 3.28372, 1, 0, 0, 44377
-9940.32, 583668, -236.297, 0.447971, -869.718, 0.177718, 0.429258, 1.03299, 0.34851, 0.655882, 0.0001, 45.5, 246, 29.9784, 0.102095, 0, 0, 0, 0, 44391
-9940.32, 583668, -236.297, 0.447971, -869.718, 0.177718, 0.429258, 1.03299, 0.34851, 0.655882, 3, 45.5, 246, 29.9784, 0.102095, 0, 0, 0, 0, 44391
-3726.98, 261738, -394.705, 3.02203, -767.411, 0.0844915, 0.511942, 0.958125, 0.351078, 0.648177, 0.0001, 182, 246, 47.3184, 0.239575, 1.19627, 1, 0, 0, 44394
-5282.05, 128611, -242.575, 3.43042, -1140.64, -0.0547435, 0.338729, 1.03299, 0.34851, 0.655882, 0.0001, 45.5, 246, 56.1919, 0.23971, 1.30634, 1, 0, 0, 44397
-5282.05, 128611, -242.575, 3.43042, -1140.64, -0.0547435, 0.338729, 1.03299, 0.34851, 0.655882, 3, 45.5, 246, 56.1919, 0.23971, 1.11775, 1, 0, 0, 44397
-2524.21, 152672, -303.221, 3.74759, -1161.43, 0.00185208, 0.360675, 0.993198, 0.349787, 0.651995, 0.0001, 91, 246, 56.1919, 0.23971, 1.63343, 1, 1, 0, 44397
-2524.21, 152672, -303.221, 3.74759, -1161.43, 0.00185208, 0.360675, 0.993198, 0.349787, 0.651995, 3, 91, 246, 56.1919, 0.23971, 1.51451, 1, 1, 0, 44397
-8856.67, 157527, -224.18, 3.48894, -844.167, -0.0495865, 0.27554, 1.03299, 0.34851, 0.655882, 3, 45.5, 246, 45.3336, 0.185975, 0, 0, 0, 0, 44404
-5876.4, 170748, -273.66, 3.81032, -865.19, 0.00888756, 0.294973, 0.993198, 0.349787, 0.651995, 0.0001, 91, 246, 45.3336, 0.185975, 1.07536, 1, 1, 0, 44404
-2039.37, 186162, -333.197, 4.1967, -903.104, 0.0794287, 0.334732, 0.958125, 0.351078, 0.648177, 0.0001, 182, 246, 45.3336, 0.185975, 1.77334, 1, 0, 0, 44404
-2039.37, 186162, -333.197, 4.1967, -903.104, 0.0794287, 0.334732, 0.958125, 0.351078, 0.648177, 3, 182, 246, 45.3336, 0.185975, 1.61623, 1, 0, 0, 44404
-8958.2, 85720.4, -59.6469, 0.982975, -1131.57, 0.051593, 0.370427, 1.03299, 0.34851, 0.655882, 0.0001, 45.5, 246, 27.0049, 0.149969, 0, 0, 1, 0, 44405
-8958.2, 85720.4, -59.6469, 0.982975, -1131.57, 0.051593, 0.370427, 1.03299, 0.34851, 0.655882, 3, 45.5, 246, 27.0049, 0.149969, 0, 0, 1, 0, 44405
-7677.51, -9056.15, -9.53432, 2.53026, -741.379, 0.264231, 0.269208, 1.03299, 0.34851, 0.655882, 3, 45.5, 246, 15.6215, 0.038328, 0, 0, 1, 1, 44411
-9534.84, 420844, -300.66, 0.680535, -1010.43, 0.0130173, 0.547647, 1.03299, 0.34851, 0.655882, 0.0001, 45.5, 246, 40.3471, 0.186391, 0, 0, 0, 0, 44415
-3178.23, 325416, -398.436, 4.16143, -1203.35, 0.296574, 0.382914, 0.958125, 0.351078, 0.648177, 0.0001, 182, 246, 44.466, 0.178306, 1.74797, 1, 0, 0, 44419
-3178.23, 325416, -398.436, 4.16143, -1203.35, 0.296574, 0.382914, 0.958125, 0.351078, 0.648177, 3, 182, 246, 44.466, 0.178306, 1.66219, 1, 0, 0, 44419
-7296.18, 769.79, -48.1149, 3.24501, -1013.93, 0.0693827, 0.245324, 0.993198, 0.349787, 0.651995, 3, 91, 246, 22.5503, 0.0384527, 0, 0, 1, 1, 44420
-10517, 227697, -204.495, 1.78011, -986.081, 0.396312, 0.435328, 1.03299, 0.34851, 0.655882, 0.0001, 45.5, 246, 39.746, 0.189008, 0, 0, 0, 0, 44421
-806.758, 329638, -327.772, 2.38578, -1320.37, 0.579687, 0.423105, 0.9175, 0.352806, 0.64323, 0.0001, 455, 246, 39.746, 0.189008, 0, 0, 0, 0, 44421
-806.758, 329638, -327.772, 2.38578, -1320.37, 0.579687, 0.423105, 0.9175, 0.352806, 0.64323, 3, 455, 246, 39.746, 0.189008, 0, 0, 0, 0, 44421
-10825.8, 190908, -22.5625, 1.88102, -774.405, 0.0220354, 0.270406, 0.993198, 0.349787, 0.651995, 3, 91, 246, 13.7067, 0.0276259, 0, 0, 1, 0, 44427
-19476.1, -180818, -56.6887, 0.28756, -1109.02, 0.0292821, 0.417042, 1.03299, 0.34851, 0.655882, 0.0001, 45.5, 246, -110.228, 0.197523, 0, 0, 1, 0, 44433
-19476.1, -180818, -56.6887, 0.28756, -1109.02, 0.0292821, 0.417042, 1.03299, 0.34851, 0.655882, 3, 45.5, 246, -110.228, 0.197523, 0, 0, 1, 0, 44433
-6344.02, 181464, -279.514, 3.96992, -892.189, 0.35573, 0.273033, 0.993198, 0.349787, 0.651995, 0.0001, 91, 246, 43.7742, 0.174243, 1.07259, 1, 1, 0, 44434
-2053.39, 202364, -344.531, 4.47117, -986.8, 0.459717, 0.319306, 0.958125, 0.351078, 0.648177, 0.0001, 182, 246, 43.7742, 0.174243, 1.88727, 1, 0, 0, 44434
-2053.39, 202364, -344.531, 4.47117, -986.8, 0.459717, 0.319306, 0.958125, 0.351078, 0.648177, 3, 182, 246, 43.7742, 0.174243, 1.73216, 1, 0, 0, 44434
-9641.49, 111252, -98.4258, 3.3768, -1029.75, -0.0542819, 0.209382, 1.03299, 0.34851, 0.655882, 0.0001, 45.5, 246, 32.1802, 0.113755, 0, 0, 0, 0, 44435
-9641.49, 111252, -98.4258, 3.3768, -1029.75, -0.0542819, 0.209382, 1.03299, 0.34851, 0.655882, 3, 45.5, 246, 32.1802, 0.113755, 0, 0, 0, 0, 44435
-7861.31, 129483, -140.456, 3.67173, -1036.29, 0.000307931, 0.220558, 0.993198, 0.349787, 0.651995, 0.0001, 91, 246, 32.1802, 0.113755, 0, 0, 1, 0, 44435
-7861.31, 129483, -140.456, 3.67173, -1036.29, 0.000307931, 0.220558, 0.993198, 0.349787, 0.651995, 3, 91, 246, 32.1802, 0.113755, 0, 0, 1, 0, 44435
-807.776, 178585, -274.379, 4.61066, -1119.74, 0.176015, 0.322811, 0.9175, 0.352806, 0.64323, 3, 455, 246, 32.1802, 0.113755, 1.01489, 1, 0, 0, 44435
-11386, 229617, -160.453, 1.89314, -926.646, -0.00801984, 0.378649, 1.03299, 0.34851, 0.655882, 0.0001, 45.5, 246, 34.0908, 0.151806, 0, 0, 0, 0, 44437
-11386, 229617, -160.453, 1.89314, -926.646, -0.00801984, 0.378649, 1.03299, 0.34851, 0.655882, 3, 45.5, 246, 34.0908, 0.151806, 0, 0, 0, 0, 44437
-5887.24, -2871.28, -62.053, 3.46261, -753.076, -0.0549987, 0.194916, 1.03299, 0.34851, 0.655882, 0.0001, 45.5, 246, 32.6586, 0.0120623, 0, 0, 1, 1, 44438
-5887.24, -2871.28, -62.053, 3.46261, -753.076, -0.0549987, 0.194916, 1.03299, 0.34851, 0.655882, 3, 45.5, 246, 32.6586, 0.0120623, 0, 0, 1, 1, 44438
-7830.27, -19364.9, 16.4092, 2.54508, -954.265, 0.071924, 0.269868, 1.03299, 0.34851, 0.655882, 0.0001, 45.5, 246, 7.8015, 0.0537382, 0, 0, 1, 1, 44441
-7830.27, -19364.9, 16.4092, 2.54508, -954.265, 0.071924, 0.269868, 1.03299, 0.34851, 0.655882, 3, 45.5, 246, 7.8015, 0.0537382, 0, 0, 1, 1, 44441
-6758.59, 530791, -289.236, 0.2545, -1145.42, 0.241987, 0.488516, 1.03299, 0.34851, 0.655882, 0.0001, 45.5, 246, 38.0193, 0.136001, 0, 0, 0, 0, 44443
-5551.92, 563405, -302.224, 0.266982, -1193.06, 0.251919, 0.464441, 0.993198, 0.349787, 0.651995, 3, 91, 246, 38.0193, 0.136001, 0, 0, 1, 0, 44443
-12736.9, 405299, -23.7046, 0.779652, -1021.31, 0.789609, 0.331855, 1.03299, 0.34851, 0.655882, 0.0001, 45.5, 246, 20.9135, 0.0182455, 0, 0, 1, 0, 44449
-12736.9, 405299, -23.7046, 0.779652, -1021.31, 0.789609, 0.331855, 1.03299, 0.34851, 0.655882, 3, 45.5, 246, 20.9135, 0.0182455, 0, 0, 1, 0, 44449
-7781.35, 647397, -374.844, 0.245514, -983.445, 0.0287212, 0.551618, 1.03299, 0.34851, 0.655882, 0.0001, 45.5, 246, 38.2948, 0.150923, 0, 0, 0, 0, 44450
-7781.35, 647397, -374.844, 0.245514, -983.445, 0.0287212, 0.551618, 1.03299, 0.34851, 0.655882, 3, 45.5, 246, 38.2948, 0.150923, 0, 0, 0, 0, 44450
-6545.61, -53825.5, 8.41647, 3.15434, -652.186, -0.0473294, 0.2389, 1.03299, 0.34851, 0.655882, 0.0001, 45.5, 246, 8.30533, 0.0201992, 2.35434, 1, 1, 0, 44451
-6545.61, -53825.5, 8.41647, 3.15434, -652.186, -0.0473294, 0.2389, 1.03299, 0.34851, 0.655882, 3, 45.5, 246, 8.30533, 0.0201992, 2.23636, 1, 1, 0, 44451
1186.85, 188757, -355.66, 3.78365, -878.63, 0.247001, 0.409392, 0.9175, 0.352806, 0.64323, 0.0001, 455, 246, 43.9036, 0.199391, 3.67745, 1, 0, 0, 44452
1186.85, 188757, -355.66, 3.78365, -878.63, 0.247001, 0.409392, 0.9175, 0.352806, 0.64323, 3, 455, 246, 43.9036, 0.199391, 3.71173, 1, 0, 0, 44452
466.975, 204157, -313.483, 4.83914, -1414.74, 1.02145, 0.345992, 0.9175, 0.352806, 0.64323, 0.0001, 455, 246, 34.5097, 0.126129, 2.52985, 1, 0, 0, 44462
466.975, 204157, -313.483, 4.83914, -1414.74, 1.02145, 0.345992, 0.9175, 0.352806, 0.64323, 3, 455, 246, 34.5097, 0.126129, 2.63165, 1, 0, 0, 44462
-5450.97, 358993, -408.228, 4.5079, -1034.25, 0.508086, 0.345968, 0.958125, 0.351078, 0.648177, 0.0001, 182, 246, 39.9505, 0.159047, 1.2845, 1, 0, 0, 44466
-5450.97, 358993, -408.228, 4.5079, -1034.25, 0.508086, 0.345968, 0.958125, 0.351078, 0.648177, 3, 182, 246, 39.9505, 0.159047, 1.22362, 1, 0, 0, 44466
-11331.2, 105563, -21.6716, 3.45463, -860.503, 0.0500176, 0.159042, 1.03299, 0.34851, 0.655882, 0.0001, 45.5, 246, 18.2071, 0.0500905, 0, 0, 0, 0, 44469
-11331.2, 105563, -21.6716, 3.45463, -860.503, 0.0500176, 0.159042, 1.03299, 0.34851, 0.655882, 3, 45.5, 246, 18.2071, 0.0500905, 0, 0, 0, 0, 44469
-7714.23, 30593.9, -77.4375, 3.80753, -888.779, 0.141274, 0.288701, 0.9175, 0.352806, 0.64323, 3, 455, 246, 8.92817, 0.0456964, 0, 0, 1, 1, 44472
-6341.6, 65082.1, -120.285, 3.84536, -964.963, 0.00442659, 0.203091, 0.993198, 0.349787, 0.651995, 0.0001, 91, 246, 32.2844, 0.0975505, 0, 0, 1, 0, 44473
-2101.66, 107211, -249.035, 4.8753, -1047.57, 0.199585, 0.322459, 0.9175, 0.352806, 0.64323, 0.0001, 455, 246, 32.2844, 0.0975505, 1.06055, 1, 1, 0, 44473
-2101.66, 107211, -249.035, 4.8753, -1047.57, 0.199585, 0.322459, 0.9175, 0.352806, 0.64323, 3, 455, 246, 32.2844, 0.0975505, 1.05064, 1, 1, 0, 44473
-7514.59, 498360, -449.016, 0.204037, -1088.33, 0.106195, 0.746143, 1.03299, 0.34851, 0.655882, 3, 45.5, 246, 48.5473, 0.241623, 0, 0, 0, 0, 44475
-5470.05, 662748, -117.41, 2.90179, -958.255, 1.22729, 0.240303, 0.9175, 0.352806, 0.64323, 3, 455, 246, 15.286, 0.0242237, 0, 0, 0, 0, 44487
-11038.7, 169529, -139.03, 2.7589, -923.59, 0.0809987, 0.291594, 1.03299, 0.34851, 0.655882, 0.0001, 45.5, 246, 34.007, 0.137853, 0, 0, 0, 0, 44488
-11038.7, 169529, -139.03, 2.7589, -923.59, 0.0809987, 0.291594, 1.03299, 0.34851, 0.655882, 3, 45.5, 246, 34.007, 0.137853, 0, 0, 0, 0, 44488
-11183.3, 106836, 12.8572, 2.55845, -797.653, -0.0303417, 0.24323, 1.03299, 0.34851, 0.655882, 0.0001, 45.5, 246, 10.7118, 0.0201841, 0, 0, 1, 0, 44496
-11183.3, 106836, 12.8572, 2.55845, -797.653, -0.0303417, 0.24323, 1.03299, 0.34851, 0.655882, 3, 45.5, 246, 10.7118, 0.0201841, 0, 0, 1, 0, 44496
-6548.25, 143321, -59.6614, 3.27222, -814.218, 0.0930593, 0.250291, 0.9175, 0.352806, 0.64323, 3, 455, 246, 10.7118, 0.0201841, 0, 0, 1, 0, 44496
