-10449.4, 203614, -224.041, 3.04781, -1150.63, -0.0388638, 0.355634, 1.03299, 0.34851, 0.655882, 0.0001, 45.5, 246, 45.7976, 0.19524, 0, 0, 0, 0, 47511
-10449.4, 203614, -224.041, 3.04781, -1150.63, -0.0388638, 0.355634, 1.03299, 0.34851, 0.655882, 3, 45.5, 246, 45.7976, 0.19524, 0, 0, 0, 0, 47511
-7136.4, 227588, -277.077, 3.30849, -1168.4, 0.00548209, 0.366259, 0.993198, 0.349787, 0.651995, 0.0001, 91, 246, 45.7976, 0.19524, 0, 0, 1, 0, 47511
-7136.4, 227588, -277.077, 3.30849, -1168.4, 0.00548209, 0.366259, 0.993198, 0.349787, 0.651995, 3, 91, 246, 45.7976, 0.19524, 0, 0, 1, 0, 47511
-2782.58, 253954, -339.64, 3.61349, -1202.25, 0.0581525, 0.392755, 0.958125, 0.351078, 0.648177, 0.0001, 182, 246, 45.7976, 0.19524, 1.06112, 1, 0, 0, 47511
-9275.34, 178988, -39.4106, 3.81154, -768.903, 0.878326, 0.203337, 0.958125, 0.351078, 0.648177, 3, 182, 246, 10.843, 0.0183011, 0, 0, 1, 0, 47519
-11164.6, 629301, -161.98, 0.464673, -801.765, 0.445929, 0.375258, 1.03299, 0.34851, 0.655882, 0.0001, 45.5, 246, 24.4651, 0.0619085, 0, 0, 1, 0, 47521
-146.875, 201761, -298.919, 5.54176, -1029.56, 1.46894, 0.339714, 0.9175, 0.352806, 0.64323, 0.0001, 455, 246, 28.4158, 0.10303, 1.00115, 1, 0, 0, 47522
-146.875, 201761, -298.919, 5.54176, -1029.56, 1.46894, 0.339714, 0.9175, 0.352806, 0.64323, 3, 455, 246, 28.4158, 0.10303, 1.02511, 1, 0, 0, 47522
-9551.96, 166186, -211.61, 3.02464, -806.977, -0.0406807, 0.326485, 1.03299, 0.34851, 0.655882, 0.0001, 45.5, 246, 43.0772, 0.189986, 0, 0, 0, 0, 47525
-9551.96, 166186, -211.61, 3.02464, -806.977, -0.0406807, 0.326485, 1.03299, 0.34851, 0.655882, 3, 45.5, 246, 43.0772, 0.189986, 0, 0, 0, 0, 47525
-3600.58, 191754, -301.794, 3.5752, -852.431, 0.0545649, 0.357303, 0.958125, 0.351078, 0.648177, 0.0001, 182, 246, 43.0772, 0.189986, 1.03188, 1, 0, 0, 47525
-8800.31, 70134.8, -51.0763, 0.77338, -985.653, 0.0239304, 0.368524, 1.03299, 0.34851, 0.655882, 0.0001, 45.5, 246, 25.8388, 0.172107, 0, 0, 1, 0, 47526
-7576.77, 103409, -148.759, 2.88322, -1005.97, -0.0396004, 0.304397, 1.03299, 0.34851, 0.655882, 0.0001, 45.5, 246, 42.4269, 0.179332, 0, 0, 1, 0, 47537
-7576.77, 103409, -148.759, 2.88322, -1005.97, -0.0396004, 0.304397, 1.03299, 0.34851, 0.655882, 3, 45.5, 246, 42.4269, 0.179332, 0, 0, 1, 0, 47537
-6025.34, 121346, -188.522, 3.11498, -1016.02, -8.05575e-05, 0.306275, 0.993198, 0.349787, 0.651995, 0.0001, 91, 246, 42.4269, 0.179332, 0, 0, 1, 0, 47537
-6025.34, 121346, -188.522, 3.11498, -1016.02, -8.05575e-05, 0.306275, 0.993198, 0.349787, 0.651995, 3, 91, 246, 42.4269, 0.179332, 0, 0, 1, 0, 47537
126.684, 169081, -309.995, 3.81183, -1090.09, 0.122617, 0.366774, 0.9175, 0.352806, 0.64323, 0.0001, 455, 246, 42.4269, 0.179332, 2.44076, 1, 0, 0, 47537
126.684, 169081, -309.995, 3.81183, -1090.09, 0.122617, 0.366774, 0.9175, 0.352806, 0.64323, 3, 455, 246, 42.4269, 0.179332, 2.45722, 1, 0, 0, 47537
-10714.7, 496076, -62.0005, 0.393697, -666.321, 0.120133, 0.345985, 1.03299, 0.34851, 0.655882, 0.0001, 45.5, 246, 16.8681, 0.0324871, 0, 0, 1, 0, 47539
-10714.7, 496076, -62.0005, 0.393697, -666.321, 0.120133, 0.345985, 1.03299, 0.34851, 0.655882, 3, 45.5, 246, 16.8681, 0.0324871, 0, 0, 1, 0, 47539
-10068.6, 507244, -66.5228, 0.409707, -679.939, 0.12318, 0.310793, 0.993198, 0.349787, 0.651995, 0.0001, 91, 246, 16.8681, 0.0324871, 0, 0, 1, 0, 47539
-9762.44, 188340, -293.83, 3.02807, -575.877, 0.204948, 0.390631, 1.03299, 0.34851, 0.655882, 0.0001, 45.5, 246, 47.5117, 0.224046, 1.19066, 1, 0, 0, 47542
-6427.9, 198275, -336.984, 3.33348, -624.067, 0.257692, 0.404043, 0.993198, 0.349787, 0.651995, 0.0001, 91, 246, 47.5117, 0.224046, 1.27307, 1, 1, 0, 47542
-6427.9, 198275, -336.984, 3.33348, -624.067, 0.257692, 0.404043, 0.993198, 0.349787, 0.651995, 3, 91, 246, 47.5117, 0.224046, 1.1328, 1, 1, 0, 47542
-2243.18, 210961, -389.257, 3.69813, -687.632, 0.325166, 0.435123, 0.958125, 0.351078, 0.648177, 0.0001, 182, 246, 47.5117, 0.224046, 1.98019, 1, 0, 0, 47542
-2243.18, 210961, -389.257, 3.69813, -687.632, 0.325166, 0.435123, 0.958125, 0.351078, 0.648177, 3, 182, 246, 47.5117, 0.224046, 1.82282, 1, 0, 0, 47542
-7219.89, 105188, -190.576, 3.27288, -575.066, 0.315843, 0.244262, 1.03299, 0.34851, 0.655882, 0.0001, 45.5, 246, 41.7981, 0.157477, 1.11403, 1, 1, 0, 47561
-5338.16, 113909, -226.372, 3.6288, -627.189, 0.387428, 0.255234, 0.993198, 0.349787, 0.651995, 0.0001, 91, 246, 41.7981, 0.157477, 1.0729, 1, 1, 0, 47561
-2882.46, 125098, -271.075, 4.06353, -697.496, 0.481817, 0.286805, 0.958125, 0.351078, 0.648177, 0.0001, 182, 246, 41.7981, 0.157477, 1.28651, 1, 1, 0, 47561
-2882.46, 125098, -271.075, 4.06353, -697.496, 0.481817, 0.286805, 0.958125, 0.351078, 0.648177, 3, 182, 246, 41.7981, 0.157477, 1.13183, 1, 1, 0, 47561
1674.55, 146063, -351.265, 4.82574, -835.542, 0.662966, 0.368893, 0.9175, 0.352806, 0.64323, 0.0001, 455, 246, 41.7981, 0.157477, 2.4685, 1, 0, 0, 47561
1674.55, 146063, -351.265, 4.82574, -835.542, 0.662966, 0.368893, 0.9175, 0.352806, 0.64323, 3, 455, 246, 41.7981, 0.157477, 2.46935, 1, 0, 0, 47561
-9590.69, 205570, -151.255, 1.27191, -1069.72, 0.110439, 0.417212, 1.03299, 0.34851, 0.655882, 0.0001, 45.5, 246, 35.6033, 0.170705, 0, 0, 1, 0, 47565
-9590.69, 205570, -151.255, 1.27191, -1069.72, 0.110439, 0.417212, 1.03299, 0.34851, 0.655882, 3, 45.5, 246, 35.6033, 0.170705, 0, 0, 1, 0, 47565
-8372.99, 227695, -171.995, 1.34718, -1094.99, 0.120062, 0.39457, 0.993198, 0.349787, 0.651995, 0.0001, 91, 246, 35.6033, 0.170705, 0, 0, 1, 0, 47565
-9248.5, 202172, -306.136, 2.6716, -843.132, 0.648795, 0.468835, 1.03299, 0.34851, 0.655882, 0.0001, 45.5, 246, 51.2229, 0.246403, 1.0363, 1, 0, 0, 47567
-5867.72, 225946, -354.969, 3.00303, -968.166, 0.762236, 0.479404, 0.993198, 0.349787, 0.651995, 0.0001, 91, 246, 51.2229, 0.246403, 1.07111, 1, 1, 0, 47567
-1277, 258352, -417.266, 3.4168, -1139.55, 0.917971, 0.507293, 0.958125, 0.351078, 0.648177, 0.0001, 182, 246, 51.2229, 0.246403, 2.69151, 1, 0, 0, 47567
-1277, 258352, -417.266, 3.4168, -1139.55, 0.917971, 0.507293, 0.958125, 0.351078, 0.648177, 3, 182, 246, 51.2229, 0.246403, 2.4844, 1, 0, 0, 47567
-8383.69, 712938, -264.261, 0.245737, -901.156, 0.33068, 0.429479, 1.03299, 0.34851, 0.655882, 0.0001, 45.5, 246, 30.3753, 0.09035, 0, 0, 0, 0, 47571
-8383.69, 712938, -264.261, 0.245737, -901.156, 0.33068, 0.429479, 1.03299, 0.34851, 0.655882, 3, 45.5, 246, 30.3753, 0.09035, 0, 0, 0, 0, 47571
-11203.8, 349017, -230.449, 1.05957, -844.092, -0.00517727, 0.46934, 1.03299, 0.34851, 0.655882, 0.0001, 45.5, 246, 34.9952, 0.166018, 0, 0, 0, 0, 47579
-11203.8, 349017, -230.449, 1.05957, -844.092, -0.00517727, 0.46934, 1.03299, 0.34851, 0.655882, 3, 45.5, 246, 34.9952, 0.166018, 0, 0, 0, 0, 47579
-4965.45, 554138, -365.256, 0.0401821, -1192.89, 0.0083836, 0.576188, 1.03299, 0.34851, 0.655882, 0.0001, 45.5, 246, 42.8811, 0.172759, 0, 0, 0, 0, 47581
-3794.29, 581838, -378.109, 0.0415665, -1194.88, 0.00840206, 0.560113, 0.993198, 0.349787, 0.651995, 0.0001, 91, 246, 42.8811, 0.172759, 0, 0, 1, 0, 47581
-10480.5, 92373.9, -6.26656, 2.52816, -759.511, -0.0114436, 0.250494, 1.03299, 0.34851, 0.655882, 0.0001, 45.5, 246, 13.2332, 0.0371768, 0, 0, 1, 0, 47583
-10480.5, 92373.9, -6.26656, 2.52816, -759.511, -0.0114436, 0.250494, 1.03299, 0.34851, 0.655882, 3, 45.5, 246, 13.2332, 0.0371768, 0, 0, 1, 0, 47583
-6502.97, 126327, -80.0996, 3.23955, -787.742, 0.109963, 0.256195, 0.9175, 0.352806, 0.64323, 3, 455, 246, 13.2332, 0.0371768, 0, 0, 1, 0, 47583
-6889.48, 304946, -246.533, 0.0545658, -1074.06, 0.619735, 0.535798, 1.03299, 0.34851, 0.655882, 0.0001, 45.5, 246, 40.0334, 0.20756, 2.41261, 1, 0, 0, 47584
-6889.48, 304946, -246.533, 0.0545658, -1074.06, 0.619735, 0.535798, 1.03299, 0.34851, 0.655882, 3, 45.5, 246, 40.0334, 0.20756, 2.41291, 1, 0, 0, 47584
-6468.33, 339567, -255.269, 0.0583437, -1191.06, 0.68703, 0.51579, 0.993198, 0.349787, 0.651995, 0.0001, 91, 246, 40.0334, 0.20756, 2.78173, 1, 1, 0, 47584
-6468.33, 339567, -255.269, 0.0583437, -1191.06, 0.68703, 0.51579, 0.993198, 0.349787, 0.651995, 3, 91, 246, 40.0334, 0.20756, 2.78117, 1, 1, 0, 47584
-5963.55, 382509, -263.808, 0.0624887, -1336.55, 0.770718, 0.499985, 0.958125, 0.351078, 0.648177, 0.0001, 182, 246, 40.0334, 0.20756, 3.82659, 1, 0, 0, 47584
-5963.55, 382509, -263.808, 0.0624887, -1336.55, 0.770718, 0.499985, 0.958125, 0.351078, 0.648177, 3, 182, 246, 40.0334, 0.20756, 3.82606, 1, 0, 0, 47584
-8343, 90775.4, -76.3177, 1.91837, -1084.37, 0.0307325, 0.306385, 0.993198, 0.349787, 0.651995, 0.0001, 91, 246, 26.8587, 0.123562, 0, 0, 1, 0, 47586
-8343, 90775.4, -76.3177, 1.91837, -1084.37, 0.0307325, 0.306385, 0.993198, 0.349787, 0.651995, 3, 91, 246, 26.8587, 0.123562, 0, 0, 1, 0, 47586
-7602.06, 138255, -151.08, 2.26562, -1113.87, 0.860944, 0.335202, 0.993198, 0.349787, 0.651995, 3, 91, 246, 36.1818, 0.168128, 0, 0, 1, 0, 47587
-5893.92, 171589, -187.747, 2.5449, -1303.5, 1.0259, 0.331368, 0.958125, 0.351078, 0.648177, 0.0001, 182, 246, 36.1818, 0.168128, 0, 0, 1, 0, 47587
-5893.92, 171589, -187.747, 2.5449, -1303.5, 1.0259, 0.331368, 0.958125, 0.351078, 0.648177, 3, 182, 246, 36.1818, 0.168128, 0, 0, 1, 0, 47587
-9706.09, 398738, -111.749, 0.508939, -600.602, 0.394959, 0.330344, 0.993198, 0.349787, 0.651995, 0.0001, 91, 246, 18.4316, 0.0666964, 0, 0, 1, 0, 47591
-11039.1, -97447.5, -5.80666, 0.572702, -997.198, 0.165197, 0.381162, 1.03299, 0.34851, 0.655882, 0.0001, 45.5, 246, -49.2603, 0.231078, 0, 0, 1, 0, 47593
-11039.1, -97447.5, -5.80666, 0.572702, -997.198, 0.165197, 0.381162, 1.03299, 0.34851, 0.655882, 3, 45.5, 246, -49.2603, 0.231078, 0, 0, 1, 0, 47593
-9249.14, 49217.3, 0.678943, 3.10639, -947.766, 0.0482426, 0.206432, 1.03299, 0.34851, 0.655882, 0.0001, 45.5, 246, 15.034, 0.0463899, 1.0328, 1, 1, 0, 47595
-7412.02, 667708, -374.125, 0.0756381, -820.509, 0.00560062, 0.544396, 1.03299, 0.34851, 0.655882, 0.0001, 45.5, 246, 34.7418, 0.146748, 0, 0, 0, 0, 47597
-7412.02, 667708, -374.125, 0.0756381, -820.509, 0.00560062, 0.544396, 1.03299, 0.34851, 0.655882, 3, 45.5, 246, 34.7418, 0.146748, 0, 0, 0, 0, 47597
-6127.42, 682287, -387.313, 0.0782136, -822.009, 0.00563158, 0.525223, 0.993198, 0.349787, 0.651995, 3, 91, 246, 34.7418, 0.146748, 0, 0, 1, 0, 47597
-8800.5, 490250, -285.332, 1.74197, -854.7, 0.149406, 0.382041, 0.958125, 0.351078, 0.648177, 0.0001, 182, 246, 31.2678, 0.12469, 0, 0, 0, 0, 47598
-8800.5, 490250, -285.332, 1.74197, -854.7, 0.149406, 0.382041, 0.958125, 0.351078, 0.648177, 3, 182, 246, 31.2678, 0.12469, 0, 0, 0, 0, 47598
-9257.56, 412209, -222.67, 0.560567, -974.637, 0.689191, 0.442585, 1.03299, 0.34851, 0.655882, 0.0001, 45.5, 246, 33.0324, 0.125466, 0, 0, 0, 0, 47599
-9257.56, 412209, -222.67, 0.560567, -974.637, 0.689191, 0.442585, 1.03299, 0.34851, 0.655882, 3, 45.5, 246, 33.0324, 0.125466, 0, 0, 0, 0, 47599
-7945.33, 448376, -236.986, 0.605898, -1097.63, 0.775097, 0.415767, 0.993198, 0.349787, 0.651995, 3, 91, 246, 33.0324, 0.125466, 0, 0, 1, 0, 47599
-7264.17, 9773.12, -51.3271, 3.28273, -1027.3, 0.242905, 0.239373, 0.993198, 0.349787, 0.651995, 3, 91, 246, 22.4675, 0.0525965, 0, 0, 1, 1, 47603
-906.543, 164991, -276.225, 5.88817, -1328.92, 1.80956, 0.340709, 0.9175, 0.352806, 0.64323, 0.0001, 455, 246, 27.459, 0.0849845, 1.19201, 1, 0, 0, 47605
-906.543, 164991, -276.225, 5.88817, -1328.92, 1.80956, 0.340709, 0.9175, 0.352806, 0.64323, 3, 455, 246, 27.459, 0.0849845, 1.19997, 1, 0, 0, 47605
-5594.2, 66627.1, -160.873, 3.6175, -605.23, -0.0270172, 0.185239, 1.03299, 0.34851, 0.655882, 0.0001, 45.5, 246, 42.3822, 0.124298, 1.18803, 1, 1, 0, 47606
-4264.55, 73480.3, -197.181, 3.95587, -623.386, 0.0358537, 0.203621, 0.993198, 0.349787, 0.651995, 0.0001, 91, 246, 42.3822, 0.124298, 1.11418, 1, 1, 0, 47606
-2507.08, 81514.2, -241.145, 4.36536, -654.687, 0.112558, 0.243504, 0.958125, 0.351078, 0.648177, 0.0001, 182, 246, 42.3822, 0.124298, 1.2633, 1, 1, 0, 47606
-2507.08, 81514.2, -241.145, 4.36536, -654.687, 0.112558, 0.243504, 0.958125, 0.351078, 0.648177, 3, 182, 246, 42.3822, 0.124298, 1.11837, 1, 1, 0, 47606
764.947, 95247.4, -316.873, 5.07137, -725.579, 0.247724, 0.337218, 0.9175, 0.352806, 0.64323, 0.0001, 455, 246, 42.3822, 0.124298, 1.70805, 1, 1, 0, 47606
764.947, 95247.4, -316.873, 5.07137, -725.579, 0.247724, 0.337218, 0.9175, 0.352806, 0.64323, 3, 455, 246, 42.3822, 0.124298, 1.64854, 1, 1, 0, 47606
-5302.69, 438089, -524.703, 3.61279, -923.684, 0.0717499, 0.559813, 0.958125, 0.351078, 0.648177, 3, 182, 246, 46.3061, 0.210861, 0, 0, 0, 0, 47608
-6921.89, 71989.3, -113.705, 2.5156, -1010.35, 1.40647, 0.275783, 0.9175, 0.352806, 0.64323, 0.0001, 455, 246, 27.9645, 0.103689, 0, 0, 1, 0, 47609
-6921.89, 71989.3, -113.705, 2.5156, -1010.35, 1.40647, 0.275783, 0.9175, 0.352806, 0.64323, 3, 455, 246, 27.9645, 0.103689, 0, 0, 1, 0, 47609
-1922.86, 287929, -194.14, 4.58789, -1537.37, 0.902138, 0.27781, 0.9175, 0.352806, 0.64323, 0.0001, 455, 246, 21.8182, 0.05186, 0, 0, 0, 0, 47610
-1922.86, 287929, -194.14, 4.58789, -1537.37, 0.902138, 0.27781, 0.9175, 0.352806, 0.64323, 3, 455, 246, 21.8182, 0.05186, 0, 0, 0, 0, 47610
-6550.84, 113412, -100.976, 3.29741, -1265.46, 0.955079, 0.27266, 0.9175, 0.352806, 0.64323, 3, 455, 246, 14.4395, 0.0497736, 0, 0, 1, 0, 47614
-7684.08, 422987, -268.852, 0.336414, -1033.21, 0.685003, 0.491857, 1.03299, 0.34851, 0.655882, 0.0001, 45.5, 246, 36.6812, 0.150037, 0, 0, 0, 0, 47615
-6557.02, 462242, -282.272, 0.362517, -1161.36, 0.768751, 0.468329, 0.993198, 0.349787, 0.651995, 0.0001, 91, 246, 36.6812, 0.150037, 0, 0, 1, 0, 47615
-4975.93, 55351.6, -159.185, 3.41802, -574.962, 0.304278, 0.197839, 1.03299, 0.34851, 0.655882, 0.0001, 45.5, 246, 43.9155, 0.11636, 1.22987, 1, 1, 0, 47623
-4975.93, 55351.6, -159.185, 3.41802, -574.962, 0.304278, 0.197839, 1.03299, 0.34851, 0.655882, 3, 45.5, 246, 43.9155, 0.11636, 1.03966, 1, 1, 0, 47623
-3873.76, 62960.1, -193.273, 3.79349, -623.851, 0.379581, 0.210896, 0.993198, 0.349787, 0.651995, 0.0001, 91, 246, 43.9155, 0.11636, 1.16788, 1, 1, 0, 47623
-2347.13, 72619.6, -236.184, 4.25523, -690.83, 0.479386, 0.246121, 0.958125, 0.351078, 0.648177, 0.0001, 182, 246, 43.9155, 0.11636, 1.28448, 1, 1, 0, 47623
-2347.13, 72619.6, -236.184, 4.25523, -690.83, 0.479386, 0.246121, 0.958125, 0.351078, 0.648177, 3, 182, 246, 43.9155, 0.11636, 1.14555, 1, 1, 0, 47623
681.462, 90654.8, -314.075, 5.07349, -824.847, 0.672793, 0.336736, 0.9175, 0.352806, 0.64323, 0.0001, 455, 246, 43.9155, 0.11636, 1.78607, 1, 1, 0, 47623
681.462, 90654.8, -314.075, 5.07349, -824.847, 0.672793, 0.336736, 0.9175, 0.352806, 0.64323, 3, 455, 246, 43.9155, 0.11636, 1.71762, 1, 1, 0, 47623
-7708.01, 764720, -81.3902, 1.68152, -1062.06, 0.174941, 0.232109, 0.9175, 0.352806, 0.64323, 3, 455, 246, 22.5105, 0.0159463, 0, 0, 0, 0, 47624
-10397.3, 210873, -143.215, 1.22877, -631.087, 0.0201596, 0.399499, 1.03299, 0.34851, 0.655882, 0.0001, 45.5, 246, 29.191, 0.154891, 0, 0, 1, 0, 47626
-10397.3, 210873, -143.215, 1.22877, -631.087, 0.0201596, 0.399499, 1.03299, 0.34851, 0.655882, 3, 45.5, 246, 29.191, 0.154891, 0, 0, 1, 0, 47626
-9286.31, 218392, -157.773, 1.29349, -638.455, 0.0272294, 0.374869, 0.993198, 0.349787, 0.651995, 0.0001, 91, 246, 29.191, 0.154891, 0, 0, 1, 0, 47626
-7704.16, 171406, -196.489, 2.05559, -896.516, 0.0957302, 0.394756, 0.993198, 0.349787, 0.651995, 0.0001, 91, 246, 40.2534, 0.206806, 0, 0, 1, 0, 47633
-10722.8, 131877, -76.2449, 2.74464, -1028, 0.168783, 0.257812, 1.03299, 0.34851, 0.655882, 0.0001, 45.5, 246, 27.7989, 0.0989693, 0, 0, 1, 0, 47639
-10722.8, 131877, -76.2449, 2.74464, -1028, 0.168783, 0.257812, 1.03299, 0.34851, 0.655882, 3, 45.5, 246, 27.7989, 0.0989693, 0, 0, 1, 0, 47639
-9099.39, 64284.9, -40.1782, 2.02978, -605.135, 0.574709, 0.292855, 1.03299, 0.34851, 0.655882, 3, 45.5, 246, 18.8276, 0.0727118, 0, 0, 1, 0, 47640
-8662.04, 73319.1, -55.0332, 2.23171, -669.446, 0.654022, 0.273761, 0.993198, 0.349787, 0.651995, 0.0001, 91, 246, 18.8276, 0.0727118, 2.94322, 1, 1, 0, 47640
-8662.04, 73319.1, -55.0332, 2.23171, -669.446, 0.654022, 0.273761, 0.993198, 0.349787, 0.651995, 3, 91, 246, 18.8276, 0.0727118, 2.78246, 1, 1, 0, 47640
-8588.94, 34102, -6.86681, 3.19666, -677.665, 0.0152579, 0.198434, 1.03299, 0.34851, 0.655882, 0.0001, 45.5, 246, 12.9553, 0.0387197, 1.05758, 1, 1, 0, 47648
-8932.15, 66504.6, -31.2515, 0.913213, -939.143, -0.00288417, 0.346862, 1.03299, 0.34851, 0.655882, 0.0001, 45.5, 246, 19.1838, 0.101466, 0, 0, 1, 0, 47649
-8932.15, 66504.6, -31.2515, 0.913213, -939.143, -0.00288417, 0.346862, 1.03299, 0.34851, 0.655882, 3, 45.5, 246, 19.1838, 0.101466, 0, 0, 1, 0, 47649
-9482.9, 56357.7, -0.00318766, 2.83822, -868.074, -0.0374513, 0.230369, 1.03299, 0.34851, 0.655882, 0.0001, 45.5, 246, 13.6437, 0.0419471, 0, 0, 1, 0, 47652
-11643.9, 237114, 3.92897, 0.991461, -804.641, 0.695382, 0.324474, 1.03299, 0.34851, 0.655882, 0.0001, 45.5, 246, 13.133, 0.00742465, 0, 0, 1, 0, 47654
-10810.1, 259340, -3.80059, 1.0772, -904.317, 0.786503, 0.291861, 0.993198, 0.349787, 0.651995, 0.0001, 91, 246, 13.133, 0.00742465, 0, 0, 1, 0, 47654
-6556.77, -64612.7, 23.042, 3.1686, -992.912, 0.103358, 0.242152, 1.03299, 0.34851, 0.655882, 0.0001, 45.5, 246, 6.51727, 0.0775355, 1.52879, 1, 1, 0, 47659
-6556.77, -64612.7, 23.042, 3.1686, -992.912, 0.103358, 0.242152, 1.03299, 0.34851, 0.655882, 3, 45.5, 246, 6.51727, 0.0775355, 1.35689, 1, 1, 0, 47659
-8942.09, -4231.48, -99.7524, 4.39997, -1115.35, 0.330482, 0.337095, 0.9175, 0.352806, 0.64323, 3, 455, 246, 6.51727, 0.0775355, 0, 0, 1, 1, 47659
-7859.6, 264231, -241.129, 1.40166, -1133.74, 0.0431413, 0.476285, 0.993198, 0.349787, 0.651995, 0.0001, 91, 246, 42.4653, 0.215046, 0, 0, 1, 0, 47662
-3963.85, 159052, -203.709, 3.49452, -694.075, 0.320677, 0.300796, 0.9175, 0.352806, 0.64323, 0.0001, 455, 246, 27.2826, 0.114262, 0, 0, 1, 0, 47665
-3963.85, 159052, -203.709, 3.49452, -694.075, 0.320677, 0.300796, 0.9175, 0.352806, 0.64323, 3, 455, 246, 27.2826, 0.114262, 0, 0, 1, 0, 47665
-5292.87, 61357.4, -154.67, 2.64143, -607.031, 0.203956, 0.296982, 1.03299, 0.34851, 0.655882, 0.0001, 45.5, 246, 48.4817, 0.175388, 1.12601, 1, 1, 0, 47666
-4378.85, 69216.6, -182.189, 2.87775, -641.325, 0.245283, 0.292093, 0.993198, 0.349787, 0.651995, 0.0001, 91, 246, 48.4817, 0.175388, 1.08578, 1, 1, 0, 47666
-3148.73, 78463.5, -214.871, 3.15114, -685.339, 0.296656, 0.300343, 0.958125, 0.351078, 0.648177, 0.0001, 182, 246, 48.4817, 0.175388, 1.19997, 1, 1, 0, 47666
-3148.73, 78463.5, -214.871, 3.15114, -685.339, 0.296656, 0.300343, 0.958125, 0.351078, 0.648177, 3, 182, 246, 48.4817, 0.175388, 1.04458, 1, 1, 0, 47666
-857.847, 93821.7, -269.063, 3.5931, -764.909, 0.386536, 0.333665, 0.9175, 0.352806, 0.64323, 0.0001, 455, 246, 48.4817, 0.175388, 1.65722, 1, 1, 0, 47666
-857.847, 93821.7, -269.063, 3.5931, -764.909, 0.386536, 0.333665, 0.9175, 0.352806, 0.64323, 3, 455, 246, 48.4817, 0.175388, 1.57114, 1, 1, 0, 47666
-10302.1, 246732, -223.313, 1.3844, -866.156, -0.00857578, 0.489651, 1.03299, 0.34851, 0.655882, 0.0001, 45.5, 246, 40.3177, 0.214181, 0, 0, 0, 0, 47675
-10302.1, 246732, -223.313, 1.3844, -866.156, -0.00857578, 0.489651, 1.03299, 0.34851, 0.655882, 3, 45.5, 246, 40.3177, 0.214181, 0, 0, 0, 0, 47675
-8518.88, 260704, -247.217, 1.46299, -874.397, 0.000323586, 0.474643, 0.993198, 0.349787, 0.651995, 3, 91, 246, 40.3177, 0.214181, 0, 0, 1, 0, 47675
-4169.13, 264777, -361.986, 3.70288, -853.775, 0.113766, 0.394594, 0.958125, 0.351078, 0.648177, 0.0001, 182, 246, 42.5919, 0.190617, 1.12633, 1, 0, 0, 47682
-9964.56, 138137, -63.905, 1.66141, -1133.73, -0.00544553, 0.33175, 1.03299, 0.34851, 0.655882, 0.0001, 45.5, 246, 26.0258, 0.101261, 0, 0, 1, 0, 47688
-9964.56, 138137, -63.905, 1.66141, -1133.73, -0.00544553, 0.33175, 1.03299, 0.34851, 0.655882, 3, 45.5, 246, 26.0258, 0.101261, 0, 0, 1, 0, 47688
-11913.6, 210972, -91.8846, 1.91152, -1009.15, 0.41619, 0.319375, 1.03299, 0.34851, 0.655882, 3, 45.5, 246, 27.2391, 0.0944118, 0, 0, 1, 0, 47695
-10275.6, 390870, -251.877, 0.860394, -1002.46, 0.273834, 0.483207, 1.03299, 0.34851, 0.655882, 0.0001, 45.5, 246, 37.0432, 0.159076, 0, 0, 0, 0, 47697
-10275.6, 390870, -251.877, 0.860394, -1002.46, 0.273834, 0.483207, 1.03299, 0.34851, 0.655882, 3, 45.5, 246, 37.0432, 0.159076, 0, 0, 0, 0, 47697
-6106.78, 445119, -293.355, 0.97079, -1112.47, 0.307825, 0.44556, 0.958125, 0.351078, 0.648177, 0.0001, 182, 246, 37.0432, 0.159076, 0, 0, 0, 0, 47697
-6106.78, 445119, -293.355, 0.97079, -1112.47, 0.307825, 0.44556, 0.958125, 0.351078, 0.648177, 3, 182, 246, 37.0432, 0.159076, 0, 0, 0, 0, 47697
-12624.8, 234291, -23.7205, 1.60154, -1012.95, -0.0119221, 0.30646, 1.03299, 0.34851, 0.655882, 3, 45.5, 246, 19.1119, 0.0379217, 0, 0, 1, 0, 47702
-8370.59, 23751.4, -29.9398, 1.47013, -830.064, 0.502961, 0.328521, 1.03299, 0.34851, 0.655882, 0.0001, 45.5, 246, 22.8327, 0.111196, 0, 0, 1, 0, 47705
-10084, 64835, 14.8434, 3.09854, -1073.94, 0.511312, 0.195413, 1.03299, 0.34851, 0.655882, 0.0001, 45.5, 246, 15.0355, 0.0397558, 0, 0, 0, 0, 47712
-10084, 64835, 14.8434, 3.09854, -1073.94, 0.511312, 0.195413, 1.03299, 0.34851, 0.655882, 3, 45.5, 246, 15.0355, 0.0397558, 0, 0, 0, 0, 47712
-8226.14, 20126.9, -34.7872, 2.41498, -1060.22, 0.00151734, 0.279226, 0.993198, 0.349787, 0.651995, 0.0001, 91, 246, 18.5235, 0.0712538, 0, 0, 1, 1, 47713
-8226.14, 20126.9, -34.7872, 2.41498, -1060.22, 0.00151734, 0.279226, 0.993198, 0.349787, 0.651995, 3, 91, 246, 18.5235, 0.0712538, 0, 0, 1, 1, 47713
-8481.81, 146608, -181.459, 2.42375, -1112.43, 0.0344268, 0.391178, 1.03299, 0.34851, 0.655882, 0.0001, 45.5, 246, 45.028, 0.215196, 0, 0, 1, 0, 47715
-8481.81, 146608, -181.459, 2.42375, -1112.43, 0.0344268, 0.391178, 1.03299, 0.34851, 0.655882, 3, 45.5, 246, 45.028, 0.215196, 0, 0, 1, 0, 47715
-8071.53, 156834, -233.072, 2.89419, -889.056, 0.00245295, 0.37815, 1.03299, 0.34851, 0.655882, 3, 45.5, 246, 48.9322, 0.225525, 0, 0, 0, 0, 47718
-2212.91, 189200, -329.663, 3.42799, -948.293, 0.0904537, 0.408589, 0.958125, 0.351078, 0.648177, 0.0001, 182, 246, 48.9322, 0.225525, 1.56919, 1, 0, 0, 47718
-2212.91, 189200, -329.663, 3.42799, -948.293, 0.0904537, 0.408589, 0.958125, 0.351078, 0.648177, 3, 182, 246, 48.9322, 0.225525, 1.37765, 1, 0, 0, 47718
-2045.13, 82397, -234.607, 4.24323, -1103.42, 0.0725506, 0.264631, 0.958125, 0.351078, 0.648177, 0.0001, 182, 246, 47.0984, 0.125814, 1.4202, 1, 1, 0, 47723
-2045.13, 82397, -234.607, 4.24323, -1103.42, 0.0725506, 0.264631, 0.958125, 0.351078, 0.648177, 3, 182, 246, 47.0984, 0.125814, 1.26096, 1, 1, 0, 47723
1474.6, 115146, -332.828, 4.90083, -1179.55, 0.197012, 0.351994, 0.9175, 0.352806, 0.64323, 0.0001, 455, 246, 47.0984, 0.125814, 3.43894, 1, 0, 0, 47723
1474.6, 115146, -332.828, 4.90083, -1179.55, 0.197012, 0.351994, 0.9175, 0.352806, 0.64323, 3, 455, 246, 47.0984, 0.125814, 3.44108, 1, 0, 0, 47723
-8804.55, 162341, -238.145, 3.30691, -778.219, -0.0525864, 0.312685, 1.03299, 0.34851, 0.655882, 0.0001, 45.5, 246, 46.3804, 0.199631, 1.03398, 1, 0, 0, 47728
-5855.64, 173740, -284.63, 3.60144, -798.589, -0.000149766, 0.32843, 0.993198, 0.349787, 0.651995, 0.0001, 91, 246, 46.3804, 0.199631, 1.10546, 1, 1, 0, 47728
-2118.41, 187124, -340.027, 3.95147, -833.476, 0.0625109, 0.362515, 0.958125, 0.351078, 0.648177, 0.0001, 182, 246, 46.3804, 0.199631, 1.75807, 1, 0, 0, 47728
-2118.41, 187124, -340.027, 3.95147, -833.476, 0.0625109, 0.362515, 0.958125, 0.351078, 0.648177, 3, 182, 246, 46.3804, 0.199631, 1.59903, 1, 0, 0, 47728
-3219.6, 267759, -402.337, 4.00909, -917.915, 1.07182, 0.406385, 0.958125, 0.351078, 0.648177, 0.0001, 182, 246, 42.8704, 0.193133, 1.84365, 1, 0, 0, 47729
-3219.6, 267759, -402.337, 4.00909, -917.915, 1.07182, 0.406385, 0.958125, 0.351078, 0.648177, 3, 182, 246, 42.8704, 0.193133, 1.68066, 1, 0, 0, 47729
-10660.5, 350792, -282.794, 0.999022, -927.483, 0.705529, 0.52262, 1.03299, 0.34851, 0.655882, 0.0001, 45.5, 246, 39.1706, 0.184869, 0, 0, 0, 0, 47731
-10660.5, 350792, -282.794, 0.999022, -927.483, 0.705529, 0.52262, 1.03299, 0.34851, 0.655882, 3, 45.5, 246, 39.1706, 0.184869, 0, 0, 0, 0, 47731
-10667.3, 125610, -86.5291, 3.35129, -1023.25, 0.0227149, 0.201047, 1.03299, 0.34851, 0.655882, 0.0001, 45.5, 246, 29.6124, 0.100962, 0, 0, 0, 0, 47732
-10667.3, 125610, -86.5291, 3.35129, -1023.25, 0.0227149, 0.201047, 1.03299, 0.34851, 0.655882, 3, 45.5, 246, 29.6124, 0.100962, 0, 0, 0, 0, 47732
-11725.6, 188410, -74.3462, 1.96057, -982.933, 0.54553, 0.306648, 1.03299, 0.34851, 0.655882, 0.0001, 45.5, 246, 25.2227, 0.0840325, 0, 0, 1, 0, 47742
-11725.6, 188410, -74.3462, 1.96057, -982.933, 0.54553, 0.306648, 1.03299, 0.34851, 0.655882, 3, 45.5, 246, 25.2227, 0.0840325, 0, 0, 1, 0, 47742
-9260.26, 140499, -162.547, 2.54309, -762.813, 0.0633008, 0.33364, 1.03299, 0.34851, 0.655882, 0.0001, 45.5, 246, 38.2108, 0.174275, 0, 0, 1, 0, 47743
-9260.26, 140499, -162.547, 2.54309, -762.813, 0.0633008, 0.33364, 1.03299, 0.34851, 0.655882, 3, 45.5, 246, 38.2108, 0.174275, 0, 0, 1, 0, 47743
-11303.6, 185354, -255.216, 3.50936, -614.846, 0.557235, 0.253087, 1.03299, 0.34851, 0.655882, 0.0001, 45.5, 246, 40.9167, 0.168656, 1.00643, 1, 0, 0, 47747
-7712.62, 199931, -301.831, 3.96667, -706.202, 0.678226, 0.273861, 0.993198, 0.349787, 0.651995, 0.0001, 91, 246, 40.9167, 0.168656, 1.07888, 1, 1, 0, 47747
-2968.59, 220187, -363.039, 4.55447, -835.468, 0.848766, 0.3216, 0.958125, 0.351078, 0.648177, 0.0001, 182, 246, 40.9167, 0.168656, 1.7173, 1, 0, 0, 47747
-2968.59, 220187, -363.039, 4.55447, -835.468, 0.848766, 0.3216, 0.958125, 0.351078, 0.648177, 3, 182, 246, 40.9167, 0.168656, 1.56089, 1, 0, 0, 47747
-11168.5, 212701, -29.6235, 1.1232, -608.307, 0.186807, 0.326287, 1.03299, 0.34851, 0.655882, 0.0001, 45.5, 246, 13.5822, 0.0375262, 0, 0, 1, 0, 47751
-11168.5, 212701, -29.6235, 1.1232, -608.307, 0.186807, 0.326287, 1.03299, 0.34851, 0.655882, 3, 45.5, 246, 13.5822, 0.0375262, 0, 0, 1, 0, 47751
-10337.1, 221411, -37.4396, 1.18832, -628.135, 0.198531, 0.295014, 0.993198, 0.349787, 0.651995, 0.0001, 91, 246, 13.5822, 0.0375262, 0, 0, 1, 0, 47751
-8816.48, 86436.7, -65.5986, 3.05581, -619.184, 0.198572, 0.229019, 0.993198, 0.349787, 0.651995, 0.0001, 91, 246, 18.8617, 0.06389, 0, 0, 1, 0, 47752
-8816.48, 86436.7, -65.5986, 3.05581, -619.184, 0.198572, 0.229019, 0.993198, 0.349787, 0.651995, 3, 91, 246, 18.8617, 0.06389, 0, 0, 1, 0, 47752
-11994.7, 268233, -179.298, 1.86812, -1040.82, 0.206032, 0.389716, 1.03299, 0.34851, 0.655882, 0.0001, 45.5, 246, 35.7546, 0.148291, 0, 0, 0, 0, 47755
-12392.8, 574640, -30.4705, 0.49506, -718.892, 0.115887, 0.338082, 1.03299, 0.34851, 0.655882, 3, 45.5, 246, 16.4001, 0.0151313, 0, 0, 1, 0, 47758
-2802.62, 326537, -448.084, 3.6709, -1134.09, 1.15037, 0.486822, 0.958125, 0.351078, 0.648177, 0.0001, 182, 246, 45.9093, 0.211645, 2.14259, 1, 0, 0, 47759
-2802.62, 326537, -448.084, 3.6709, -1134.09, 1.15037, 0.486822, 0.958125, 0.351078, 0.648177, 3, 182, 246, 45.9093, 0.211645, 2.00557, 1, 0, 0, 47759
-10982, 129231, -80.4817, 3.04921, -808.692, -0.0175859, 0.224355, 1.03299, 0.34851, 0.655882, 0.0001, 45.5, 246, 25.8141, 0.0918311, 0, 0, 1, 0, 47761
-10982, 129231, -80.4817, 3.04921, -808.692, -0.0175859, 0.224355, 1.03299, 0.34851, 0.655882, 3, 45.5, 246, 25.8141, 0.0918311, 0, 0, 1, 0, 47761
-9697.06, 478199, -307.275, 0.709623, -1091.69, -0.0023099, 0.530202, 1.03299, 0.34851, 0.655882, 0.0001, 45.5, 246, 40.2891, 0.167166, 0, 0, 0, 0, 47763
-9697.06, 478199, -307.275, 0.709623, -1091.69, -0.0023099, 0.530202, 1.03299, 0.34851, 0.655882, 3, 45.5, 246, 40.2891, 0.167166, 0, 0, 0, 0, 47763
-8087.12, 150809, -203.151, 2.31799, -1142.24, -0.0127361, 0.437483, 1.03299, 0.34851, 0.655882, 0.0001, 45.5, 246, 48.9888, 0.248289, 0, 0, 0, 0, 47769
-8087.12, 150809, -203.151, 2.31799, -1142.24, -0.0127361, 0.437483, 1.03299, 0.34851, 0.655882, 3, 45.5, 246, 48.9888, 0.248289, 0, 0, 0, 0, 47769
-1811.61, 239548, -371.352, 3.74224, -1171.38, 0.743332, 0.416302, 0.958125, 0.351078, 0.648177, 0.0001, 182, 246, 47.646, 0.21222, 1.9734, 1, 0, 0, 47770
-1811.61, 239548, -371.352, 3.74224, -1171.38, 0.743332, 0.416302, 0.958125, 0.351078, 0.648177, 3, 182, 246, 47.646, 0.21222, 1.7988, 1, 0, 0, 47770
-12124.3, 608264, -70.7499, 0.449191, -610.23, 0.546651, 0.344471, 1.03299, 0.34851, 0.655882, 0.0001, 45.5, 246, 16.3801, 0.0279927, 0, 0, 1, 0, 47772
-12124.3, 608264, -70.7499, 0.449191, -610.23, 0.546651, 0.344471, 1.03299, 0.34851, 0.655882, 3, 45.5, 246, 16.3801, 0.0279927, 0, 0, 1, 0, 47772
-8841.8, 289021, -131.497, 1.03269, -1194.81, 0.00711867, 0.348908, 0.993198, 0.349787, 0.651995, 0.0001, 91, 246, 30.323, 0.108239, 0, 0, 1, 0, 47778
-3154.9, 151473, -270.529, 3.76602, -936.381, 0.343485, 0.317231, 0.958125, 0.351078, 0.648177, 0.0001, 182, 246, 42.8512, 0.175021, 1.15216, 1, 1, 0, 47791
-10062.4, 254942, -204.22, 1.4216, -1119.24, -0.00661871, 0.461421, 1.03299, 0.34851, 0.655882, 3, 45.5, 246, 40.2514, 0.190903, 0, 0, 0, 0, 47794
-8211.3, 277651, -230.65, 1.50232, -1127.25, 0.00276317, 0.444423, 0.993198, 0.349787, 0.651995, 3, 91, 246, 40.2514, 0.190903, 0, 0, 1, 0, 47794
-10195.8, 114583, -71.7637, 2.5657, -969.667, 0.797729, 0.263994, 1.03299, 0.34851, 0.655882, 0.0001, 45.5, 246, 26.827, 0.0946236, 0, 0, 1, 0, 47798
-10195.8, 114583, -71.7637, 2.5657, -969.667, 0.797729, 0.263994, 1.03299, 0.34851, 0.655882, 3, 45.5, 246, 26.827, 0.0946236, 0, 0, 1, 0, 47798
-8854.76, 139094, -102.923, 2.88751, -1119.19, 0.950114, 0.256014, 0.993198, 0.349787, 0.651995, 0.0001, 91, 246, 26.827, 0.0946236, 0, 0, 1, 0, 47798
-8854.76, 139094, -102.923, 2.88751, -1119.19, 0.950114, 0.256014, 0.993198, 0.349787, 0.651995, 3, 91, 246, 26.827, 0.0946236, 0, 0, 1, 0, 47798
-6793.32, 173729, -145.446, 3.29574, -1332.41, 1.16732, 0.263993, 0.958125, 0.351078, 0.648177, 3, 182, 246, 26.827, 0.0946236, 0, 0, 1, 0, 47798
-8546.27, 161490, -152.284, 2.11104, -800.353, 0.37276, 0.335224, 0.993198, 0.349787, 0.651995, 0.0001, 91, 246, 32.2487, 0.153206, 0, 0, 1, 0, 47803
-3877.49, 203239, -221.847, 2.58451, -965.623, 0.496688, 0.330354, 0.9175, 0.352806, 0.64323, 0.0001, 455, 246, 32.2487, 0.153206, 0, 0, 0, 0, 47803
-3877.49, 203239, -221.847, 2.58451, -965.623, 0.496688, 0.330354, 0.9175, 0.352806, 0.64323, 3, 455, 246, 32.2487, 0.153206, 0, 0, 0, 0, 47803
-7131.01, -19007.7, -11.0628, 2.94751, -724.724, -0.0293305, 0.241811, 1.03299, 0.34851, 0.655882, 0.0001, 45.5, 246, 16.6471, 0.0231396, 0, 0, 1, 1, 47815
-7131.01, -19007.7, -11.0628, 2.94751, -724.724, -0.0293305, 0.241811, 1.03299, 0.34851, 0.655882, 3, 45.5, 246, 16.6471, 0.0231396, 0, 0, 1, 1, 47815
-8489.93, 74041.8, -89.1756, 3.52189, -697.465, 0.148774, 0.171521, 1.03299, 0.34851, 0.655882, 0.0001, 45.5, 246, 28.2876, 0.0875012, 0, 0, 1, 0, 47816
-8489.93, 74041.8, -89.1756, 3.52189, -697.465, 0.148774, 0.171521, 1.03299, 0.34851, 0.655882, 3, 45.5, 246, 28.2876, 0.0875012, 0, 0, 1, 0, 47816
-9623.75, 597377, -370.393, 0.161216, -615.578, 0.00185238, 0.565472, 1.03299, 0.34851, 0.655882, 0.0001, 45.5, 246, 32.2965, 0.163408, 0, 0, 0, 0, 47817
-9623.75, 597377, -370.393, 0.161216, -615.578, 0.00185238, 0.565472, 1.03299, 0.34851, 0.655882, 3, 45.5, 246, 32.2965, 0.163408, 0, 0, 0, 0, 47817
-12189.2, 316295, -69.7976, 1.12079, -864.681, 0.01326, 0.337938, 1.03299, 0.34851, 0.655882, 0.0001, 45.5, 246, 21.3632, 0.0584549, 0, 0, 1, 0, 47821
-12189.2, 316295, -69.7976, 1.12079, -864.681, 0.01326, 0.337938, 1.03299, 0.34851, 0.655882, 3, 45.5, 246, 21.3632, 0.0584549, 0, 0, 1, 0, 47821
-8755.97, 124828, -149.048, 2.35869, -769.636, -0.0173191, 0.344669, 1.03299, 0.34851, 0.655882, 0.0001, 45.5, 246, 38.3465, 0.180516, 0, 0, 1, 0, 47833
-8755.97, 124828, -149.048, 2.35869, -769.636, -0.0173191, 0.344669, 1.03299, 0.34851, 0.655882, 3, 45.5, 246, 38.3465, 0.180516, 0, 0, 1, 0, 47833
-7923.79, 971599, -243.886, 0.235451, -1126.37, 0.054582, 0.399243, 1.03299, 0.34851, 0.655882, 0.0001, 45.5, 246, 33.6473, 0.0635983, 0, 0, 0, 0, 47839
-7923.79, 971599, -243.886, 0.235451, -1126.37, 0.054582, 0.399243, 1.03299, 0.34851, 0.655882, 3, 45.5, 246, 33.6473, 0.0635983, 0, 0, 0, 0, 47839
-10771.2, 485562, -54.5363, 0.484452, -1160.91, 0.0459831, 0.343836, 1.03299, 0.34851, 0.655882, 0.0001, 45.5, 246, 24.9182, 0.0304963, 0, 0, 1, 0, 47840
-9935.32, 510608, -61.6195, 0.50295, -1170.26, 0.0473977, 0.308862, 0.993198, 0.349787, 0.651995, 0.0001, 91, 246, 24.9182, 0.0304963, 0, 0, 1, 0, 47840
-8945.07, 536172, -69.0295, 0.520942, -1180.08, 0.0489147, 0.278345, 0.958125, 0.351078, 0.648177, 0.0001, 182, 246, 24.9182, 0.0304963, 0, 0, 1, 0, 47840
-10753.9, 406816, -243.054, 0.734289, -807.466, 0.721866, 0.458079, 1.03299, 0.34851, 0.655882, 0.0001, 45.5, 246, 31.9168, 0.136891, 0, 0, 0, 0, 47843
-10753.9, 406816, -243.054, 0.734289, -807.466, 0.721866, 0.458079, 1.03299, 0.34851, 0.655882, 3, 45.5, 246, 31.9168, 0.136891, 0, 0, 0, 0, 47843
-7436.3, 945058, -420.073, 0.00582644, -733.497, 3.19851e-05, 0.518145, 1.03299, 0.34851, 0.655882, 0.0001, 45.5, 246, 31.0087, 0.115036, 0, 0, 0, 0, 47844
-7436.3, 945058, -420.073, 0.00582644, -733.497, 3.19851e-05, 0.518145, 1.03299, 0.34851, 0.655882, 3, 45.5, 246, 31.0087, 0.115036, 0, 0, 0, 0, 47844
-8174.57, 191790, -132.53, 0.113895, -881.091, 0.590192, 0.43626, 1.03299, 0.34851, 0.655882, 0.0001, 45.5, 246, 31.4364, 0.183187, 3.401, 1, 1, 0, 47845
-8174.57, 191790, -132.53, 0.113895, -881.091, 0.590192, 0.43626, 1.03299, 0.34851, 0.655882, 3, 45.5, 246, 31.4364, 0.183187, 3.49036, 1, 1, 0, 47845
-11605.3, -102798, -34.6208, 0.0896339, -1030.45, 0.473028, 0.37685, 1.03299, 0.34851, 0.655882, 0.0001, 45.5, 246, -48.8449, 0.217857, 0, 0, 1, 0, 47853
-11605.3, -102798, -34.6208, 0.0896339, -1030.45, 0.473028, 0.37685, 1.03299, 0.34851, 0.655882, 3, 45.5, 246, -48.8449, 0.217857, 0, 0, 1, 0, 47853
-7566.46, -12032.3, -8.28216, 2.66111, -835.809, 0.0393724, 0.263338, 1.03299, 0.34851, 0.655882, 0.0001, 45.5, 246, 16.3465, 0.0426445, 0, 0, 1, 1, 47854
-3315.93, 117445, -234.358, 5.87599, -1740.09, 1.64964, 0.351676, 0.9175, 0.352806, 0.64323, 0.0001, 455, 246, 22.829, 0.0599811, 1.06206, 1, 0, 0, 47864
-3315.93, 117445, -234.358, 5.87599, -1740.09, 1.64964, 0.351676, 0.9175, 0.352806, 0.64323, 3, 455, 246, 22.829, 0.0599811, 1.06207, 1, 0, 0, 47864
-8993.77, 181947, -162.272, 1.07768, -1061.58, -0.00144681, 0.458697, 1.03299, 0.34851, 0.655882, 3, 45.5, 246, 39.2779, 0.218213, 0, 0, 1, 0, 47869
-10264.8, 160527, -61.2287, 1.45896, -998.457, -0.00855563, 0.334471, 1.03299, 0.34851, 0.655882, 0.0001, 45.5, 246, 23.6523, 0.0889535, 0, 0, 1, 0, 47870
-10264.8, 160527, -61.2287, 1.45896, -998.457, -0.00855563, 0.334471, 1.03299, 0.34851, 0.655882, 3, 45.5, 246, 23.6523, 0.0889535, 0, 0, 1, 0, 47870
-10779.8, 254061, -72.1555, 0.981224, -842.299, 0.0963965, 0.347298, 1.03299, 0.34851, 0.655882, 0.0001, 45.5, 246, 21.5378, 0.0715261, 0, 0, 1, 0, 47871
-9847.95, 268033, -83.0835, 1.03089, -857.698, 0.1024, 0.316065, 0.993198, 0.349787, 0.651995, 0.0001, 91, 246, 21.5378, 0.0715261, 0, 0, 1, 0, 47871
-15093.6, 214633, -39.5625, 2.79515, -878.025, 0.298693, 0.218595, 1.03299, 0.34851, 0.655882, 0.0001, 45.5, 246, 20.1598, 0.0498355, 0, 0, 0, 0, 47887
-15093.6, 214633, -39.5625, 2.79515, -878.025, 0.298693, 0.218595, 1.03299, 0.34851, 0.655882, 3, 45.5, 246, 20.1598, 0.0498355, 0, 0, 0, 0, 47887
-2389.27, 135415, -244.999, 4.28942, -1400.1, 0.911407, 0.323135, 0.9175, 0.352806, 0.64323, 0.0001, 455, 246, 34.1518, 0.115046, 1.19898, 1, 0, 0, 47889
-2389.27, 135415, -244.999, 4.28942, -1400.1, 0.911407, 0.323135, 0.9175, 0.352806, 0.64323, 3, 455, 246, 34.1518, 0.115046, 1.21196, 1, 0, 0, 47889
-3769.05, 76155.1, -191.683, 2.99739, -881.329, 0.000182619, 0.304488, 0.993198, 0.349787, 0.651995, 0.0001, 91, 246, 52.8883, 0.203682, 1.17891, 1, 1, 0, 47893
-2305.77, 90798.6, -232.767, 3.24676, -901.708, 0.0430015, 0.316555, 0.958125, 0.351078, 0.648177, 0.0001, 182, 246, 52.8883, 0.203682, 1.46174, 1, 1, 0, 47893
-2305.77, 90798.6, -232.767, 3.24676, -901.708, 0.0430015, 0.316555, 0.958125, 0.351078, 0.648177, 3, 182, 246, 52.8883, 0.203682, 1.30181, 1, 1, 0, 47893
507.223, 112672, -298.741, 3.64371, -948.234, 0.112958, 0.354332, 0.9175, 0.352806, 0.64323, 0.0001, 455, 246, 52.8883, 0.203682, 2.78524, 1, 0, 0, 47893
507.223, 112672, -298.741, 3.64371, -948.234, 0.112958, 0.354332, 0.9175, 0.352806, 0.64323, 3, 455, 246, 52.8883, 0.203682, 2.78499, 1, 0, 0, 47893
-10520.6, 206401, -220.729, 2.39839, -896.41, -0.013885, 0.411426, 1.03299, 0.34851, 0.655882, 0.0001, 45.5, 246, 42.7618, 0.204629, 0, 0, 0, 0, 47895
-10520.6, 206401, -220.729, 2.39839, -896.41, -0.013885, 0.411426, 1.03299, 0.34851, 0.655882, 3, 45.5, 246, 42.7618, 0.204629, 0, 0, 0, 0, 47895
716.753, 262644, -366.26, 3.09132, -983.648, 0.0957968, 0.444266, 0.9175, 0.352806, 0.64323, 3, 455, 246, 42.7618, 0.204629, 0, 0, 0, 0, 47895
-2923.03, 85315.9, -220.335, 3.09169, -1026.37, 0.560059, 0.321829, 1.03299, 0.34851, 0.655882, 0.0001, 45.5, 246, 60.7545, 0.246166, 1.54294, 1, 1, 0, 47896
-2923.03, 85315.9, -220.335, 3.09169, -1026.37, 0.560059, 0.321829, 1.03299, 0.34851, 0.655882, 3, 45.5, 246, 60.7545, 0.246166, 1.4086, 1, 1, 0, 47896
-1047.18, 110139, -272.186, 3.47197, -1152.55, 0.66625, 0.332894, 0.993198, 0.349787, 0.651995, 0.0001, 91, 246, 60.7545, 0.246166, 1.87073, 1, 1, 0, 47896
-1047.18, 110139, -272.186, 3.47197, -1152.55, 0.66625, 0.332894, 0.993198, 0.349787, 0.651995, 3, 91, 246, 60.7545, 0.246166, 1.7431, 1, 1, 0, 47896
1827.77, 143485, -339.789, 3.94896, -1325.99, 0.812105, 0.364923, 0.958125, 0.351078, 0.648177, 0.0001, 182, 246, 60.7545, 0.246166, 0, 0, 0, 0, 47896
1827.77, 143485, -339.789, 3.94896, -1325.99, 0.812105, 0.364923, 0.958125, 0.351078, 0.648177, 3, 182, 246, 60.7545, 0.246166, 0, 0, 0, 0, 47896
-10249.3, 165999, -166.265, 2.55508, -800.708, -0.0268376, 0.335329, 1.03299, 0.34851, 0.655882, 0.0001, 45.5, 246, 36.994, 0.167417, 0, 0, 1, 0, 47897
-11490.9, 350606, -338.659, 1.5925, -1124.55, -0.010077, 0.610934, 1.03299, 0.34851, 0.655882, 0.0001, 45.5, 246, 48.9492, 0.238267, 0, 0, 0, 0, 47902
-11490.9, 350606, -338.659, 1.5925, -1124.55, -0.010077, 0.610934, 1.03299, 0.34851, 0.655882, 3, 45.5, 246, 48.9492, 0.238267, 0, 0, 0, 0, 47902
-10942.9, 117645, -52.1197, 3.13431, -1007.74, -0.0467188, 0.210714, 1.03299, 0.34851, 0.655882, 0.0001, 45.5, 246, 24.4293, 0.0788537, 0, 0, 0, 0, 47903
-10942.9, 117645, -52.1197, 3.13431, -1007.74, -0.0467188, 0.210714, 1.03299, 0.34851, 0.655882, 3, 45.5, 246, 24.4293, 0.0788537, 0, 0, 0, 0, 47903
-11012.1, 105717, -23.0393, 3.03402, -868.361, -0.0435761, 0.20867, 1.03299, 0.34851, 0.655882, 0.0001, 45.5, 246, 18.125, 0.0531569, 0, 0, 1, 0, 47907
-11012.1, 105717, -23.0393, 3.03402, -868.361, -0.0435761, 0.20867, 1.03299, 0.34851, 0.655882, 3, 45.5, 246, 18.125, 0.0531569, 0, 0, 1, 0, 47907
-10173.5, 154635, -89.8549, 1.79771, -1004.17, 0.00662804, 0.337888, 1.03299, 0.34851, 0.655882, 0.0001, 45.5, 246, 28.5745, 0.120127, 0, 0, 1, 0, 47917
-10173.5, 154635, -89.8549, 1.79771, -1004.17, 0.00662804, 0.337888, 1.03299, 0.34851, 0.655882, 3, 45.5, 246, 28.5745, 0.120127, 0, 0, 1, 0, 47917
-9007.68, 172444, -112.174, 1.90817, -1011.32, 0.0217278, 0.316961, 0.993198, 0.349787, 0.651995, 0.0001, 91, 246, 28.5745, 0.120127, 0, 0, 1, 0, 47917
2092.28, 157859, -524.173, 1.67244, -1704.61, 1.21114, 0.549817, 0.9175, 0.352806, 0.64323, 0.0001, 455, 246, 592.81, 0.159555, 0, 0, 0, 0, 47918
-6991.71, -19977.6, -14.0509, 2.9076, -893.996, 0.691594, 0.242425, 1.03299, 0.34851, 0.655882, 0.0001, 45.5, 246, 20.4626, 0.0278246, 0, 0, 1, 0, 47920
-7462.4, 452291, -372.095, 0.0996284, -895.927, 0.515207, 0.627071, 1.03299, 0.34851, 0.655882, 0.0001, 45.5, 246, 40.8796, 0.206012, 0, 0, 0, 0, 47924
-6221.98, 483404, -386.568, 0.106238, -976.408, 0.56092, 0.616285, 0.993198, 0.349787, 0.651995, 0.0001, 91, 246, 40.8796, 0.206012, 0, 0, 1, 0, 47924
-4796.46, 520018, -400.925, 0.113362, -1072.57, 0.61553, 0.610073, 0.958125, 0.351078, 0.648177, 0.0001, 182, 246, 40.8796, 0.206012, 0, 0, 0, 0, 47924
-9231.2, 221324, -52.2063, 2.08897, -955.023, 0.0184292, 0.25357, 0.958125, 0.351078, 0.648177, 3, 182, 246, 17.1815, 0.0364179, 0, 0, 1, 0, 47930
-6907.02, 57539.3, -104.281, 3.62026, -899.464, 0.321558, 0.282235, 0.9175, 0.352806, 0.64323, 3, 455, 246, 16.347, 0.0525704, 0, 0, 1, 0, 47935
-8838.41, 145732, -175.893, 2.24963, -851.108, -0.0233638, 0.387225, 1.03299, 0.34851, 0.655882, 0.0001, 45.5, 246, 41.9593, 0.20758, 0, 0, 1, 0, 47948
-8838.41, 145732, -175.893, 2.24963, -851.108, -0.0233638, 0.387225, 1.03299, 0.34851, 0.655882, 3, 45.5, 246, 41.9593, 0.20758, 0, 0, 1, 0, 47948
-8785.35, 368519, -342.54, 0.674265, -1143.42, -0.0020358, 0.659557, 1.03299, 0.34851, 0.655882, 0.0001, 45.5, 246, 48.212, 0.248936, 0, 0, 0, 0, 47958
-6802.39, 393686, -366.2, 0.706798, -1149.68, 5.75624e-05, 0.654443, 0.993198, 0.349787, 0.651995, 3, 91, 246, 48.212, 0.248936, 0, 0, 1, 0, 47958
-9065.1, 312396, -415.531, 3.38773, -882.656, 0.0211095, 0.499605, 0.993198, 0.349787, 0.651995, 0.0001, 91, 246, 49.7327, 0.232298, 1.05097, 1, 1, 0, 47964
-8813.12, 160292, -237.628, 3.36555, -832.085, 0.453196, 0.286971, 1.03299, 0.34851, 0.655882, 0.0001, 45.5, 246, 45.6453, 0.187016, 1.07257, 1, 0, 0, 47965
-5748.04, 178998, -288.153, 3.77309, -925.867, 0.548339, 0.304486, 0.993198, 0.349787, 0.651995, 0.0001, 91, 246, 45.6453, 0.187016, 1.13337, 1, 1, 0, 47965
-1573.04, 203793, -353.372, 4.28432, -1055.02, 0.678271, 0.34567, 0.958125, 0.351078, 0.648177, 0.0001, 182, 246, 45.6453, 0.187016, 2.11026, 1, 0, 0, 47965
-1573.04, 203793, -353.372, 4.28432, -1055.02, 0.678271, 0.34567, 0.958125, 0.351078, 0.648177, 3, 182, 246, 45.6453, 0.187016, 1.95164, 1, 0, 0, 47965
-10153.2, 212886, -63.7364, 1.03584, -1171.94, 0.0286481, 0.347164, 1.03299, 0.34851, 0.655882, 0.0001, 45.5, 246, 24.7449, 0.0760287, 0, 0, 1, 0, 47971
-10153.2, 212886, -63.7364, 1.03584, -1171.94, 0.0286481, 0.347164, 1.03299, 0.34851, 0.655882, 3, 45.5, 246, 24.7449, 0.0760287, 0, 0, 1, 0, 47971
-3335.9, 80292.7, -201.593, 3.35619, -1009.2, 0.163426, 0.282566, 0.993198, 0.349787, 0.651995, 0.0001, 91, 246, 52.0352, 0.185586, 1.27397, 1, 1, 0, 47980
-3335.9, 80292.7, -201.593, 3.35619, -1009.2, 0.163426, 0.282566, 0.993198, 0.349787, 0.651995, 3, 91, 246, 52.0352, 0.185586, 1.0725, 1, 1, 0, 47980
-1546.08, 100737, -252.904, 3.69261, -1061.7, 0.223732, 0.305238, 0.958125, 0.351078, 0.648177, 0.0001, 182, 246, 52.0352, 0.185586, 1.69357, 1, 1, 0, 47980
-1546.08, 100737, -252.904, 3.69261, -1061.7, 0.223732, 0.305238, 0.958125, 0.351078, 0.648177, 3, 182, 246, 52.0352, 0.185586, 1.54505, 1, 1, 0, 47980
-11868.4, 127184, -28.4375, 2.99835, -709.941, -0.0134227, 0.20696, 1.03299, 0.34851, 0.655882, 0.0001, 45.5, 246, 16.5093, 0.0482267, 0, 0, 1, 0, 47981
-11868.4, 127184, -28.4375, 2.99835, -709.941, -0.0134227, 0.20696, 1.03299, 0.34851, 0.655882, 3, 45.5, 246, 16.5093, 0.0482267, 0, 0, 1, 0, 47981
-8402.16, 144540, -77.4987, 3.52546, -725.852, 0.079972, 0.219648, 0.958125, 0.351078, 0.648177, 3, 182, 246, 16.5093, 0.0482267, 0, 0, 1, 0, 47981
-7749.21, 140720, -237.458, 2.89139, -594.355, 0.107569, 0.354224, 1.03299, 0.34851, 0.655882, 0.0001, 45.5, 246, 47.1172, 0.214954, 1.15174, 1, 1, 0, 47988
-5437.31, 149027, -274.102, 3.15391, -627.049, 0.150234, 0.360359, 0.993198, 0.349787, 0.651995, 0.0001, 91, 246, 47.1172, 0.214954, 1.19531, 1, 1, 0, 47988
-2542.45, 159124, -317.6, 3.46089, -670.771, 0.203072, 0.381698, 0.958125, 0.351078, 0.648177, 0.0001, 182, 246, 47.1172, 0.214954, 1.51733, 1, 1, 0, 47988
-2542.45, 159124, -317.6, 3.46089, -670.771, 0.203072, 0.381698, 0.958125, 0.351078, 0.648177, 3, 182, 246, 47.1172, 0.214954, 1.35361, 1, 1, 0, 47988
-1496.24, 127297, -266.506, 5.01921, -1286.18, 0.205457, 0.33454, 0.9175, 0.352806, 0.64323, 0.0001, 455, 246, 32.0056, 0.100527, 1.32481, 1, 0, 0, 47996
-1496.24, 127297, -266.506, 5.01921, -1286.18, 0.205457, 0.33454, 0.9175, 0.352806, 0.64323, 3, 455, 246, 32.0056, 0.100527, 1.32515, 1, 0, 0, 47996
-11140.2, 342508, -213.252, 0.998218, -793.799, 0.112011, 0.450159, 1.03299, 0.34851, 0.655882, 0.0001, 45.5, 246, 32.694, 0.15399, 0, 0, 0, 0, 47998
-11140.2, 342508, -213.252, 0.998218, -793.799, 0.112011, 0.450159, 1.03299, 0.34851, 0.655882, 3, 45.5, 246, 32.694, 0.15399, 0, 0, 0, 0, 47998
