-11744.3, 162242, -94.6004, 3.05977, -1149.42, 0.0365343, 0.238313, 1.03299, 0.34851, 0.655882, 0.0001, 45.5, 246, 31.0594, 0.106708, 0, 0, 0, 0, 159501
-11744.3, 162242, -94.6004, 3.05977, -1149.42, 0.0365343, 0.238313, 1.03299, 0.34851, 0.655882, 3, 45.5, 246, 31.0594, 0.106708, 0, 0, 0, 0, 159501
-11184.8, 245959, -241.534, 1.88667, -815.297, 0.0310461, 0.4716, 1.03299, 0.34851, 0.655882, 0.0001, 45.5, 246, 41.4737, 0.212334, 0, 0, 0, 0, 159504
-11184.8, 245959, -241.534, 1.88667, -815.297, 0.0310461, 0.4716, 1.03299, 0.34851, 0.655882, 3, 45.5, 246, 41.4737, 0.212334, 0, 0, 0, 0, 159504
-9216.18, 266179, -115.415, 0.949856, -940.716, 0.290386, 0.339391, 0.993198, 0.349787, 0.651995, 0.0001, 91, 246, 25.7367, 0.100315, 0, 0, 1, 0, 159507
-7392.1, -18463.7, 12.3074, 3.03624, -1022.99, 0.169169, 0.230929, 1.03299, 0.34851, 0.655882, 3, 45.5, 246, 12.149, 0.0554612, 0, 0, 1, 0, 159509
-9880.49, 480162, -462.851, 0.0590794, -670.514, 0.474276, 0.756691, 1.03299, 0.34851, 0.655882, 3, 45.5, 246, 41.8479, 0.242672, 0, 0, 0, 0, 159511
-8131.65, 505404, -481.544, 0.0630325, -725.627, 0.512718, 0.760682, 0.993198, 0.349787, 0.651995, 3, 91, 246, 41.8479, 0.242672, 0, 0, 1, 0, 159511
-11570.6, 348666, -225.439, 0.940241, -618.995, 0.0104092, 0.463952, 1.03299, 0.34851, 0.655882, 0.0001, 45.5, 246, 30.9823, 0.161817, 0, 0, 1, 0, 159513
-11570.6, 348666, -225.439, 0.940241, -618.995, 0.0104092, 0.463952, 1.03299, 0.34851, 0.655882, 3, 45.5, 246, 30.9823, 0.161817, 0, 0, 1, 0, 159513
-7202.55, 553419, -364.738, 0.137979, -938.459, 0.0751385, 0.575467, 1.03299, 0.34851, 0.655882, 0.0001, 45.5, 246, 38.8185, 0.172477, 0, 0, 0, 0, 159515
-5854.34, 573748, -378.981, 0.143488, -951.129, 0.0761293, 0.559403, 0.993198, 0.349787, 0.651995, 3, 91, 246, 38.8185, 0.172477, 0, 0, 1, 0, 159515
-11478.5, 112157, -29.7795, 3.16173, -646.607, 0.267629, 0.186056, 1.03299, 0.34851, 0.655882, 0.0001, 45.5, 246, 16.0134, 0.0462592, 0, 0, 1, 0, 159520
-11478.5, 112157, -29.7795, 3.16173, -646.607, 0.267629, 0.186056, 1.03299, 0.34851, 0.655882, 3, 45.5, 246, 16.0134, 0.0462592, 0, 0, 1, 0, 159520
-10010.3, 121111, -52.3995, 3.48236, -681.386, 0.330019, 0.189618, 0.993198, 0.349787, 0.651995, 0.0001, 91, 246, 16.0134, 0.0462592, 0, 0, 1, 0, 159520
-10010.3, 121111, -52.3995, 3.48236, -681.386, 0.330019, 0.189618, 0.993198, 0.349787, 0.651995, 3, 91, 246, 16.0134, 0.0462592, 0, 0, 1, 0, 159520
-9332.71, 76699, -51.0727, 3.49037, -994.645, 0.279732, 0.170359, 1.03299, 0.34851, 0.655882, 0.0001, 45.5, 246, 25.2769, 0.0783201, 0, 0, 0, 0, 159521
-9332.71, 76699, -51.0727, 3.49037, -994.645, 0.279732, 0.170359, 1.03299, 0.34851, 0.655882, 3, 45.5, 246, 25.2769, 0.0783201, 0, 0, 0, 0, 159521
-7582.29, 101300, -147.714, 3.24062, -971.734, -0.0496563, 0.257379, 1.03299, 0.34851, 0.655882, 0.0001, 45.5, 246, 41.1758, 0.15936, 0, 0, 1, 0, 159526
-7582.29, 101300, -147.714, 3.24062, -971.734, -0.0496563, 0.257379, 1.03299, 0.34851, 0.655882, 3, 45.5, 246, 41.1758, 0.15936, 0, 0, 1, 0, 159526
-5872.62, 117993, -190.822, 3.51962, -982.881, 0.000550632, 0.267064, 0.993198, 0.349787, 0.651995, 3, 91, 246, 41.1758, 0.15936, 0, 0, 1, 0, 159526
939.124, 163911, -326.864, 4.39539, -1072.5, 0.160937, 0.360447, 0.9175, 0.352806, 0.64323, 0.0001, 455, 246, 41.1758, 0.15936, 3.19127, 1, 0, 0, 159526
939.124, 163911, -326.864, 4.39539, -1072.5, 0.160937, 0.360447, 0.9175, 0.352806, 0.64323, 3, 455, 246, 41.1758, 0.15936, 3.21046, 1, 0, 0, 159526
-30028.9, 14991.2, -94.5329, 3.22593, -1147.57, 0.0862702, 1.06722, 0.9175, 0.352806, 0.64323, 3, 455, 246, 15.079, 0.141316, 0, 0, 1, 1, 159528
-10078.6, 138344, -102.533, 2.42269, -1065.89, 0.183918, 0.305086, 1.03299, 0.34851, 0.655882, 0.0001, 45.5, 246, 31.9458, 0.128168, 0, 0, 1, 0, 159531
-10078.6, 138344, -102.533, 2.42269, -1065.89, 0.183918, 0.305086, 1.03299, 0.34851, 0.655882, 3, 45.5, 246, 31.9458, 0.128168, 0, 0, 1, 0, 159531
-8106.11, 292322, -230.461, 0.903666, -1014.28, 0.363916, 0.465338, 0.993198, 0.349787, 0.651995, 0.0001, 91, 246, 37.9245, 0.193382, 0, 0, 1, 0, 159532
-11959.5, 148673, -12.8849, 2.34368, -954.839, -0.0254041, 0.262446, 1.03299, 0.34851, 0.655882, 0.0001, 45.5, 246, 17.1219, 0.0417097, 0, 0, 1, 0, 159535
-11959.5, 148673, -12.8849, 2.34368, -954.839, -0.0254041, 0.262446, 1.03299, 0.34851, 0.655882, 3, 45.5, 246, 17.1219, 0.0417097, 0, 0, 1, 0, 159535
-9966.4, 133369, -115.027, 2.58002, -833.099, -0.0312967, 0.29467, 1.03299, 0.34851, 0.655882, 0.0001, 45.5, 246, 31.7726, 0.133181, 0, 0, 1, 0, 159539
-9966.4, 133369, -115.027, 2.58002, -833.099, -0.0312967, 0.29467, 1.03299, 0.34851, 0.655882, 3, 45.5, 246, 31.7726, 0.133181, 0, 0, 1, 0, 159539
-8435.57, 47600.6, -45.4795, 1.62103, -1178.78, 0.239577, 0.305968, 0.993198, 0.349787, 0.651995, 0.0001, 91, 246, 22.8144, 0.120235, 0, 0, 1, 1, 159540
-8435.57, 47600.6, -45.4795, 1.62103, -1178.78, 0.239577, 0.305968, 0.993198, 0.349787, 0.651995, 3, 91, 246, 22.8144, 0.120235, 0, 0, 1, 1, 159540
-12040, 446118, -90.8633, 0.775963, -921.575, 0.0966382, 0.350354, 1.03299, 0.34851, 0.655882, 0.0001, 45.5, 246, 23.4516, 0.0534086, 0, 0, 1, 0, 159551
-12040, 446118, -90.8633, 0.775963, -921.575, 0.0966382, 0.350354, 1.03299, 0.34851, 0.655882, 3, 45.5, 246, 23.4516, 0.0534086, 0, 0, 1, 0, 159551
-10540.8, 585269, -61.2428, 0.319905, -778.33, 0.201011, 0.345344, 1.03299, 0.34851, 0.655882, 0.0001, 45.5, 246, 19.0993, 0.0267779, 0, 0, 1, 0, 159552
-9923.53, 602672, -65.5488, 0.333924, -804.448, 0.20809, 0.309858, 0.993198, 0.349787, 0.651995, 0.0001, 91, 246, 19.0993, 0.0267779, 0, 0, 1, 0, 159552
-7033.08, 434181, -459.55, 4.28191, -982.52, 0.67193, 0.395674, 0.958125, 0.351078, 0.648177, 3, 182, 246, 39.3093, 0.163997, 1.16662, 1, 0, 0, 159553
-10342.4, 463384, -336.112, 0.445322, -695.944, 0.126926, 0.57432, 1.03299, 0.34851, 0.655882, 0.0001, 45.5, 246, 35.8829, 0.18755, 0, 0, 0, 0, 159555
-10342.4, 463384, -336.112, 0.445322, -695.944, 0.126926, 0.57432, 1.03299, 0.34851, 0.655882, 3, 45.5, 246, 35.8829, 0.18755, 0, 0, 0, 0, 159555
-9775.81, 235302, -233.002, 1.70689, -1168.73, 0.0743792, 0.496886, 1.03299, 0.34851, 0.655882, 3, 45.5, 246, 45.4493, 0.225575, 0, 0, 0, 0, 159558
-10697.1, 206359, -127.224, 1.65592, -1062.55, 0.635259, 0.362508, 1.03299, 0.34851, 0.655882, 0.0001, 45.5, 246, 31.9486, 0.127816, 0, 0, 1, 0, 159566
-10697.1, 206359, -127.224, 1.65592, -1062.55, 0.635259, 0.362508, 1.03299, 0.34851, 0.655882, 3, 45.5, 246, 31.9486, 0.127816, 0, 0, 1, 0, 159566
-9112, 236453, -152.356, 1.81748, -1189.12, 0.720855, 0.341482, 0.993198, 0.349787, 0.651995, 3, 91, 246, 31.9486, 0.127816, 0, 0, 1, 0, 159566
-6744.24, 40483.7, -146.383, 4.0169, -1126.66, 0.95648, 0.310289, 0.9175, 0.352806, 0.64323, 3, 455, 246, 27.3595, 0.00634319, 0, 0, 1, 0, 159568
-11622.5, 196379, -42.5177, 1.66709, -1042.36, 0.038861, 0.311988, 1.03299, 0.34851, 0.655882, 0.0001, 45.5, 246, 21.5537, 0.0599616, 0, 0, 1, 0, 159574
-11622.5, 196379, -42.5177, 1.66709, -1042.36, 0.038861, 0.311988, 1.03299, 0.34851, 0.655882, 3, 45.5, 246, 21.5537, 0.0599616, 0, 0, 1, 0, 159574
-10962.3, 300465, -292.962, 1.76082, -1136.02, -0.0145356, 0.552346, 1.03299, 0.34851, 0.655882, 0.0001, 45.5, 246, 47.6448, 0.231464, 0, 0, 0, 0, 159576
-10962.3, 300465, -292.962, 1.76082, -1136.02, -0.0145356, 0.552346, 1.03299, 0.34851, 0.655882, 3, 45.5, 246, 47.6448, 0.231464, 0, 0, 0, 0, 159576
-5666.58, 75224.7, -164.297, 2.83651, -726.353, 0.424325, 0.287747, 1.03299, 0.34851, 0.655882, 0.0001, 45.5, 246, 46.811, 0.176165, 1.13424, 1, 1, 0, 159579
-4443.05, 87637.3, -198.262, 3.14074, -795.738, 0.496816, 0.288148, 0.993198, 0.349787, 0.651995, 0.0001, 91, 246, 46.811, 0.176165, 1.11374, 1, 1, 0, 159579
-2720.11, 103367, -240.658, 3.50761, -886.861, 0.591731, 0.304951, 0.958125, 0.351078, 0.648177, 0.0001, 182, 246, 46.811, 0.176165, 1.34604, 1, 1, 0, 159579
-2720.11, 103367, -240.658, 3.50761, -886.861, 0.591731, 0.304951, 0.958125, 0.351078, 0.648177, 3, 182, 246, 46.811, 0.176165, 1.18874, 1, 1, 0, 159579
725.988, 132352, -316.27, 4.13851, -1060.56, 0.771767, 0.357896, 0.9175, 0.352806, 0.64323, 0.0001, 455, 246, 46.811, 0.176165, 3.0021, 1, 0, 0, 159579
725.988, 132352, -316.27, 4.13851, -1060.56, 0.771767, 0.357896, 0.9175, 0.352806, 0.64323, 3, 455, 246, 46.811, 0.176165, 3.00287, 1, 0, 0, 159579
-11374.1, 252988, -47.4903, 1.12341, -969.001, 0.152013, 0.332418, 1.03299, 0.34851, 0.655882, 0.0001, 45.5, 246, 20.7166, 0.0512013, 0, 0, 1, 0, 159584
-11374.1, 252988, -47.4903, 1.12341, -969.001, 0.152013, 0.332418, 1.03299, 0.34851, 0.655882, 3, 45.5, 246, 20.7166, 0.0512013, 0, 0, 1, 0, 159584
-10302.2, 271910, -59.9281, 1.18649, -994.96, 0.161754, 0.301572, 0.993198, 0.349787, 0.651995, 0.0001, 91, 246, 20.7166, 0.0512013, 0, 0, 1, 0, 159584
-11966, 900850, 1.84717, 0.225562, -1008.96, 0.256606, 0.339538, 1.03299, 0.34851, 0.655882, 0.0001, 45.5, 246, 23.0862, 0.00045685, 0, 0, 1, 0, 159587
-11966, 900850, 1.84717, 0.225562, -1008.96, 0.256606, 0.339538, 1.03299, 0.34851, 0.655882, 3, 45.5, 246, 23.0862, 0.00045685, 0, 0, 1, 0, 159587
-11344.3, 932081, -0.212861, 0.235725, -1051.61, 0.267694, 0.303389, 0.993198, 0.349787, 0.651995, 0.0001, 91, 246, 23.0862, 0.00045685, 0, 0, 1, 0, 159587
-10599.1, 965988, -2.5214, 0.245861, -1098.09, 0.279784, 0.271596, 0.958125, 0.351078, 0.648177, 0.0001, 182, 246, 23.0862, 0.00045685, 0, 0, 1, 0, 159587
-6907.59, 87234.2, -127.354, 2.42415, -1105.5, 0.15899, 0.317678, 0.993198, 0.349787, 0.651995, 0.0001, 91, 246, 38.4585, 0.178888, 0, 0, 1, 0, 159591
-10807.4, 185585, -80.7011, 1.52299, -914.902, 0.602727, 0.335232, 1.03299, 0.34851, 0.655882, 0.0001, 45.5, 246, 24.915, 0.0923346, 0, 0, 1, 0, 159597
-9631.77, 208383, -99.0259, 1.66284, -1016.09, 0.678482, 0.310032, 0.993198, 0.349787, 0.651995, 0.0001, 91, 246, 24.915, 0.0923346, 0, 0, 1, 0, 159597
-8733.71, 77524.7, -36.0823, 0.386625, -976.941, 0.163415, 0.3573, 1.03299, 0.34851, 0.655882, 0.0001, 45.5, 246, 19.62, 0.117588, 0, 0, 1, 0, 159599
-8733.71, 77524.7, -36.0823, 0.386625, -976.941, 0.163415, 0.3573, 1.03299, 0.34851, 0.655882, 3, 45.5, 246, 19.62, 0.117588, 0, 0, 1, 0, 159599
-9462.63, 506869, -157.493, 0.374979, -844.705, 0.13435, 0.385941, 1.03299, 0.34851, 0.655882, 0.0001, 45.5, 246, 25.7881, 0.0786881, 0, 0, 1, 0, 159602
-7631.95, 541609, -174.374, 0.406447, -885.84, 0.141708, 0.325706, 0.958125, 0.351078, 0.648177, 0.0001, 182, 246, 25.7881, 0.0786881, 0, 0, 1, 0, 159602
1320.02, 272747, -367.956, 3.96879, -938.466, 0.132271, 0.390119, 0.9175, 0.352806, 0.64323, 0.0001, 455, 246, 37.7744, 0.160953, 0, 0, 0, 0, 159604
1320.02, 272747, -367.956, 3.96879, -938.466, 0.132271, 0.390119, 0.9175, 0.352806, 0.64323, 3, 455, 246, 37.7744, 0.160953, 0, 0, 0, 0, 159604
-8971.65, 193329, -162.689, 0.994325, -1085.41, -0.000333888, 0.456843, 1.03299, 0.34851, 0.655882, 3, 45.5, 246, 38.5203, 0.20864, 0, 0, 1, 0, 159605
-9203.43, 543806, -319.446, 0.263788, -721.861, 0.00604108, 0.524648, 1.03299, 0.34851, 0.655882, 0.0001, 45.5, 246, 32.844, 0.15446, 0, 0, 0, 0, 159609
-9203.43, 543806, -319.446, 0.263788, -721.861, 0.00604108, 0.524648, 1.03299, 0.34851, 0.655882, 3, 45.5, 246, 32.844, 0.15446, 0, 0, 0, 0, 159609
-7889.45, 555001, -332.896, 0.27355, -724.878, 0.00636408, 0.503903, 0.993198, 0.349787, 0.651995, 3, 91, 246, 32.844, 0.15446, 0, 0, 1, 0, 159609
-10324.6, 138549, -106.835, 2.73948, -1080.26, 0.517504, 0.273598, 1.03299, 0.34851, 0.655882, 0.0001, 45.5, 246, 32.5239, 0.121579, 0, 0, 0, 0, 159612
-10324.6, 138549, -106.835, 2.73948, -1080.26, 0.517504, 0.273598, 1.03299, 0.34851, 0.655882, 3, 45.5, 246, 32.5239, 0.121579, 0, 0, 0, 0, 159612
-8357.84, 84247.4, -69.9333, 2.17725, -1069.59, 0.0911847, 0.290707, 0.993198, 0.349787, 0.651995, 0.0001, 91, 246, 25.0652, 0.106114, 0, 0, 1, 0, 159615
-8357.84, 84247.4, -69.9333, 2.17725, -1069.59, 0.0911847, 0.290707, 0.993198, 0.349787, 0.651995, 3, 91, 246, 25.0652, 0.106114, 0, 0, 1, 0, 159615
-11105.6, 365386, -231.72, 0.847703, -710.429, 0.181415, 0.467001, 1.03299, 0.34851, 0.655882, 0.0001, 45.5, 246, 31.9529, 0.157066, 0, 0, 0, 0, 159616
-11105.6, 365386, -231.72, 0.847703, -710.429, 0.181415, 0.467001, 1.03299, 0.34851, 0.655882, 3, 45.5, 246, 31.9529, 0.157066, 0, 0, 0, 0, 159616
-9162.89, 165125, -244.713, 3.49743, -715.837, -0.0584758, 0.283505, 1.03299, 0.34851, 0.655882, 0.0001, 45.5, 246, 45.5251, 0.191268, 1.00927, 1, 0, 0, 159622
-6001.69, 174885, -292.004, 3.81927, -738.219, 0.000347618, 0.303768, 0.993198, 0.349787, 0.651995, 0.0001, 91, 246, 45.5251, 0.191268, 1.19773, 1, 1, 0, 159622
-6001.69, 174885, -292.004, 3.81927, -738.219, 0.000347618, 0.303768, 0.993198, 0.349787, 0.651995, 3, 91, 246, 45.5251, 0.191268, 1.04242, 1, 1, 0, 159622
-2025.35, 186758, -348.889, 4.2064, -776.138, 0.0711127, 0.344457, 0.958125, 0.351078, 0.648177, 0.0001, 182, 246, 45.5251, 0.191268, 1.85228, 1, 0, 0, 159622
-2025.35, 186758, -348.889, 4.2064, -776.138, 0.0711127, 0.344457, 0.958125, 0.351078, 0.648177, 3, 182, 246, 45.5251, 0.191268, 1.7004, 1, 0, 0, 159622
-8779.28, 192516, -315.146, 3.25165, -728.91, -0.0010561, 0.408484, 1.03299, 0.34851, 0.655882, 0.0001, 45.5, 246, 52.8755, 0.244144, 1.30497, 1, 0, 0, 159626
-8779.28, 192516, -315.146, 3.25165, -728.91, -0.0010561, 0.408484, 1.03299, 0.34851, 0.655882, 3, 45.5, 246, 52.8755, 0.244144, 1.22344, 1, 0, 0, 159626
-5001.35, 204124, -367.52, 3.55682, -762.242, 0.0498442, 0.430057, 0.993198, 0.349787, 0.651995, 0.0001, 91, 246, 52.8755, 0.244144, 1.62635, 1, 1, 0, 159626
-5001.35, 204124, -367.52, 3.55682, -762.242, 0.0498442, 0.430057, 0.993198, 0.349787, 0.651995, 3, 91, 246, 52.8755, 0.244144, 1.52162, 1, 1, 0, 159626
-223.896, 218457, -430.41, 3.92094, -811.367, 0.112123, 0.470603, 0.958125, 0.351078, 0.648177, 0.0001, 182, 246, 52.8755, 0.244144, 5.91817, 1, 0, 0, 159626
-223.896, 218457, -430.41, 3.92094, -811.367, 0.112123, 0.470603, 0.958125, 0.351078, 0.648177, 3, 182, 246, 52.8755, 0.244144, 4.82762, 1, 0, 0, 159626
-10641.9, 281802, -215.321, 1.11518, -771.377, 0.0111254, 0.473108, 1.03299, 0.34851, 0.655882, 0.0001, 45.5, 246, 35.7189, 0.187267, 0, 0, 0, 0, 159630
-10641.9, 281802, -215.321, 1.11518, -771.377, 0.0111254, 0.473108, 1.03299, 0.34851, 0.655882, 3, 45.5, 246, 35.7189, 0.187267, 0, 0, 0, 0, 159630
-9050.1, 293261, -234.354, 1.17326, -779.863, 0.0169034, 0.453345, 0.993198, 0.349787, 0.651995, 3, 91, 246, 35.7189, 0.187267, 0, 0, 1, 0, 159630
-7275.24, 347482, -273.644, 0.385661, -1035.27, 0.686011, 0.520229, 0.993198, 0.349787, 0.651995, 0.0001, 91, 246, 38.9936, 0.203194, 0, 0, 1, 0, 159632
-9773.22, 66531.7, -0.956373, 2.64146, -722.079, 0.00157024, 0.243479, 1.03299, 0.34851, 0.655882, 0.0001, 45.5, 246, 11.6644, 0.0343237, 0, 0, 1, 0, 159633
-9773.22, 66531.7, -0.956373, 2.64146, -722.079, 0.00157024, 0.243479, 1.03299, 0.34851, 0.655882, 3, 45.5, 246, 11.6644, 0.0343237, 0, 0, 1, 0, 159633
-6755.67, 97422.4, -73.8528, 3.42399, -755.763, 0.136632, 0.261234, 0.9175, 0.352806, 0.64323, 3, 455, 246, 11.6644, 0.0343237, 0, 0, 1, 0, 159633
-10809.6, 89692.5, 0.187848, 3.15112, -999.024, 0.144047, 0.192537, 1.03299, 0.34851, 0.655882, 0.0001, 45.5, 246, 16.4662, 0.0430152, 0, 0, 0, 0, 159645
-10809.6, 89692.5, 0.187848, 3.15112, -999.024, 0.144047, 0.192537, 1.03299, 0.34851, 0.655882, 3, 45.5, 246, 16.4662, 0.0430152, 0, 0, 0, 0, 159645
-9610.81, 227135, -78.0535, 1.29209, -1113.04, 0.589709, 0.310047, 0.993198, 0.349787, 0.651995, 0.0001, 91, 246, 23.3781, 0.0738894, 0, 0, 1, 0, 159646
-9610.81, 227135, -78.0535, 1.29209, -1113.04, 0.589709, 0.310047, 0.993198, 0.349787, 0.651995, 3, 91, 246, 23.3781, 0.0738894, 0, 0, 1, 0, 159646
-21487.6, 412350, -49.9221, 3.91388, -1043.34, 0.0947312, 0.11378, 0.993198, 0.349787, 0.651995, 0.0001, 91, 246, 21.876, 0.0280155, 0, 0, 1, 0, 159647
-21487.6, 412350, -49.9221, 3.91388, -1043.34, 0.0947312, 0.11378, 0.993198, 0.349787, 0.651995, 3, 91, 246, 21.876, 0.0280155, 0, 0, 1, 0, 159647
-12413.5, 505808, -73.5209, 0.612031, -670.073, 0.528441, 0.344118, 1.03299, 0.34851, 0.655882, 0.0001, 45.5, 246, 17.7694, 0.0354595, 0, 0, 1, 0, 159650
-11055.9, 336710, -243.415, 0.993088, -765.187, 0.113275, 0.48994, 1.03299, 0.34851, 0.655882, 0.0001, 45.5, 246, 35.2992, 0.17906, 0, 0, 0, 0, 159658
-11055.9, 336710, -243.415, 0.993088, -765.187, 0.113275, 0.48994, 1.03299, 0.34851, 0.655882, 3, 45.5, 246, 35.2992, 0.17906, 0, 0, 0, 0, 159658
-13478.4, 180767, -29.2421, 2.79741, -1175.08, 0.0570379, 0.228195, 1.03299, 0.34851, 0.655882, 0.0001, 45.5, 246, 23.0144, 0.0567593, 0, 0, 0, 0, 159661
-13478.4, 180767, -29.2421, 2.79741, -1175.08, 0.0570379, 0.228195, 1.03299, 0.34851, 0.655882, 3, 45.5, 246, 23.0144, 0.0567593, 0, 0, 0, 0, 159661
-11286.7, 205518, -62.8777, 3.02656, -1192.72, 0.0951359, 0.222761, 0.993198, 0.349787, 0.651995, 0.0001, 91, 246, 23.0144, 0.0567593, 0, 0, 1, 0, 159661
-11286.7, 205518, -62.8777, 3.02656, -1192.72, 0.0951359, 0.222761, 0.993198, 0.349787, 0.651995, 3, 91, 246, 23.0144, 0.0567593, 0, 0, 1, 0, 159661
-10594.5, 381587, -235.451, 0.84422, -899.44, 0.417809, 0.463079, 1.03299, 0.34851, 0.655882, 0.0001, 45.5, 246, 34.2308, 0.148482, 0, 0, 0, 0, 159662
-10594.5, 381587, -235.451, 0.84422, -899.44, 0.417809, 0.463079, 1.03299, 0.34851, 0.655882, 3, 45.5, 246, 34.2308, 0.148482, 0, 0, 0, 0, 159662
-9165.65, 548652, -205.4, 0.319576, -790.496, 0.00395388, 0.414768, 1.03299, 0.34851, 0.655882, 0.0001, 45.5, 246, 27.3167, 0.097119, 0, 0, 0, 0, 159663
-9165.65, 548652, -205.4, 0.319576, -790.496, 0.00395388, 0.414768, 1.03299, 0.34851, 0.655882, 3, 45.5, 246, 27.3167, 0.097119, 0, 0, 0, 0, 159663
-8232.95, 560503, -214.799, 0.330696, -792.819, 0.00442083, 0.384592, 0.993198, 0.349787, 0.651995, 0.0001, 91, 246, 27.3167, 0.097119, 0, 0, 1, 0, 159663
-7172.68, 572514, -224.07, 0.34139, -795.348, 0.00492009, 0.35863, 0.958125, 0.351078, 0.648177, 0.0001, 182, 246, 27.3167, 0.097119, 0, 0, 1, 0, 159663
-5515.11, 831716, -258.288, 0.0716268, -972.28, -6.12397e-08, 0.383196, 0.993198, 0.349787, 0.651995, 0.0001, 91, 246, 30.8382, 0.0783865, 0, 0, 1, 0, 159673
-4776.01, 849523, -265.961, 0.0735803, -972.784, 2.30843e-05, 0.356643, 0.958125, 0.351078, 0.648177, 0.0001, 182, 246, 30.8382, 0.0783865, 0, 0, 0, 0, 159673
-20514.8, 284802, -81.3716, 3.62878, -677.738, -0.0602246, 0.124249, 1.03299, 0.34851, 0.655882, 0.0001, 45.5, 246, 20.7937, 0.060646, 0, 0, 0, 0, 159675
-20514.8, 284802, -81.3716, 3.62878, -677.738, -0.0602246, 0.124249, 1.03299, 0.34851, 0.655882, 3, 45.5, 246, 20.7937, 0.060646, 0, 0, 0, 0, 159675
-7157.07, 81842, -132.106, 2.43776, -909.265, 0.180688, 0.329915, 1.03299, 0.34851, 0.655882, 3, 45.5, 246, 42.544, 0.191306, 0, 0, 1, 0, 159682
-1867.56, 144909, -260.105, 3.25194, -1085.29, 0.329616, 0.349465, 0.9175, 0.352806, 0.64323, 0.0001, 455, 246, 42.544, 0.191306, 1.2196, 1, 0, 0, 159682
-1867.56, 144909, -260.105, 3.25194, -1085.29, 0.329616, 0.349465, 0.9175, 0.352806, 0.64323, 3, 455, 246, 42.544, 0.191306, 1.25474, 1, 0, 0, 159682
-11145.2, 345702, -230.686, 0.81076, -617.785, 0.568369, 0.463301, 1.03299, 0.34851, 0.655882, 0.0001, 45.5, 246, 30.2474, 0.154361, 0, 0, 1, 0, 159684
-11145.2, 345702, -230.686, 0.81076, -617.785, 0.568369, 0.463301, 1.03299, 0.34851, 0.655882, 3, 45.5, 246, 30.2474, 0.154361, 0, 0, 1, 0, 159684
-9149.46, 83460.2, -62.5036, 2.53516, -1002.55, -0.022625, 0.278102, 1.03299, 0.34851, 0.655882, 0.0001, 45.5, 246, 27.144, 0.105066, 0, 0, 1, 0, 159689
-9149.46, 83460.2, -62.5036, 2.53516, -1002.55, -0.022625, 0.278102, 1.03299, 0.34851, 0.655882, 3, 45.5, 246, 27.144, 0.105066, 0, 0, 1, 0, 159689
-7747.69, 51893, -46.6509, 3.91135, -1141.52, -0.000199494, 0.183865, 0.993198, 0.349787, 0.651995, 0.0001, 91, 246, 19.6061, 0.0630833, 1.16431, 1, 1, 0, 159690
-7231.94, -25563.7, 30.0231, 3.26788, -1095.29, -0.0341294, 0.210484, 1.03299, 0.34851, 0.655882, 3, 45.5, 246, 8.20298, 0.056782, 0, 0, 1, 0, 159694
-10701.9, 232405, -239.019, 1.47078, -628.351, 0.124535, 0.501012, 1.03299, 0.34851, 0.655882, 0.0001, 45.5, 246, 39.8537, 0.226898, 0, 0, 1, 0, 159699
-10701.9, 232405, -239.019, 1.47078, -628.351, 0.124535, 0.501012, 1.03299, 0.34851, 0.655882, 3, 45.5, 246, 39.8537, 0.226898, 0, 0, 1, 0, 159699
-9156.01, 108582, -83.1807, 1.74021, -1001.09, -0.00639964, 0.345021, 1.03299, 0.34851, 0.655882, 3, 45.5, 246, 29.9786, 0.141329, 0, 0, 1, 0, 159701
-10200.9, 88252.2, -29.7855, 3.13367, -1026.79, 0.130126, 0.205022, 1.03299, 0.34851, 0.655882, 0.0001, 45.5, 246, 21.6082, 0.0667358, 0, 0, 0, 0, 159703
-10200.9, 88252.2, -29.7855, 3.13367, -1026.79, 0.130126, 0.205022, 1.03299, 0.34851, 0.655882, 3, 45.5, 246, 21.6082, 0.0667358, 0, 0, 0, 0, 159703
-10079.4, 352933, -148.926, 0.809701, -1102.57, 0.0412506, 0.393832, 1.03299, 0.34851, 0.655882, 0.0001, 45.5, 246, 31.0569, 0.106645, 0, 0, 0, 0, 159731
-10079.4, 352933, -148.926, 0.809701, -1102.57, 0.0412506, 0.393832, 1.03299, 0.34851, 0.655882, 3, 45.5, 246, 31.0569, 0.106645, 0, 0, 0, 0, 159731
-8803.56, 375599, -163.582, 0.846577, -1113.48, 0.0445521, 0.364636, 0.993198, 0.349787, 0.651995, 3, 91, 246, 31.0569, 0.106645, 0, 0, 1, 0, 159731
-9410.45, 98281.9, 3.58629, 0.766339, -1049.45, 0.168685, 0.335169, 1.03299, 0.34851, 0.655882, 0.0001, 45.5, 246, 11.1569, 0.0156559, 0, 0, 1, 0, 159735
-9410.45, 98281.9, 3.58629, 0.766339, -1049.45, 0.168685, 0.335169, 1.03299, 0.34851, 0.655882, 3, 45.5, 246, 11.1569, 0.0156559, 0, 0, 1, 0, 159735
-9541.14, 192755, -279.992, 3.38202, -948.843, 0.650283, 0.328796, 1.03299, 0.34851, 0.655882, 0.0001, 45.5, 246, 48.9518, 0.204065, 1.10962, 1, 0, 0, 159736
-5651.39, 219911, -340.001, 3.84234, -1093.47, 0.78851, 0.350625, 0.993198, 0.349787, 0.651995, 0.0001, 91, 246, 48.9518, 0.204065, 1.28122, 1, 1, 0, 159736
-5651.39, 219911, -340.001, 3.84234, -1093.47, 0.78851, 0.350625, 0.993198, 0.349787, 0.651995, 3, 91, 246, 48.9518, 0.204065, 1.14927, 1, 1, 0, 159736
1297.69, 365352, -396.439, 4.21559, -834.814, 0.148736, 0.384292, 0.9175, 0.352806, 0.64323, 3, 455, 246, 33.6958, 0.139741, 0, 0, 0, 0, 159737
-12606, 209551, -65.3591, 2.16164, -1087.17, -0.0165806, 0.292653, 1.03299, 0.34851, 0.655882, 0.0001, 45.5, 246, 25.3442, 0.0773237, 0, 0, 1, 0, 159745
-12606, 209551, -65.3591, 2.16164, -1087.17, -0.0165806, 0.292653, 1.03299, 0.34851, 0.655882, 3, 45.5, 246, 25.3442, 0.0773237, 0, 0, 1, 0, 159745
-7378.91, 534999, -197.963, 0.377678, -827.07, 0.000796897, 0.343713, 0.958125, 0.351078, 0.648177, 0.0001, 182, 246, 26.8522, 0.0915814, 0, 0, 1, 0, 159746
-9827.62, 729692, -153.886, 0.322055, -993.023, 0.777601, 0.366394, 1.03299, 0.34851, 0.655882, 0.0001, 45.5, 246, 27.5851, 0.0470832, 0, 0, 1, 0, 159750
-9827.62, 729692, -153.886, 0.322055, -993.023, 0.777601, 0.366394, 1.03299, 0.34851, 0.655882, 3, 45.5, 246, 27.5851, 0.0470832, 0, 0, 1, 0, 159750
-10557.9, 547274, -273.957, 0.352905, -567.629, 0.450629, 0.46233, 1.03299, 0.34851, 0.655882, 0.0001, 45.5, 246, 26.3146, 0.120509, 0, 0, 1, 0, 159758
-10557.9, 547274, -273.957, 0.352905, -567.629, 0.450629, 0.46233, 1.03299, 0.34851, 0.655882, 3, 45.5, 246, 26.3146, 0.120509, 0, 0, 1, 0, 159758
-9933.94, 980137, -167.999, 0.246182, -888.885, 0.00810201, 0.367569, 1.03299, 0.34851, 0.655882, 0.0001, 45.5, 246, 26.1765, 0.0441783, 0, 0, 0, 0, 159765
-9933.94, 980137, -167.999, 0.246182, -888.885, 0.00810201, 0.367569, 1.03299, 0.34851, 0.655882, 3, 45.5, 246, 26.1765, 0.0441783, 0, 0, 0, 0, 159765
-8557.5, 989992, -56.3056, 0.902395, -1274.31, 0.180031, 0.23379, 0.9175, 0.352806, 0.64323, 0.0001, 455, 246, 27.1829, 0.00961547, 0, 0, 0, 0, 159766
-8557.5, 989992, -56.3056, 0.902395, -1274.31, 0.180031, 0.23379, 0.9175, 0.352806, 0.64323, 3, 455, 246, 27.1829, 0.00961547, 0, 0, 0, 0, 159766
-11074.5, 372326, -43.649, 0.664652, -1079.99, -0.0018781, 0.340229, 1.03299, 0.34851, 0.655882, 0.0001, 45.5, 246, 22.0789, 0.0335258, 0, 0, 1, 0, 159769
-10196.3, 392713, -51.895, 0.690471, -1080.69, 0.000137757, 0.305973, 0.993198, 0.349787, 0.651995, 0.0001, 91, 246, 22.0789, 0.0335258, 0, 0, 1, 0, 159769
-9290.96, 204802, -283.556, 3.23822, -1074.63, -0.00455854, 0.400661, 1.03299, 0.34851, 0.655882, 3, 45.5, 246, 52.2413, 0.232399, 0, 0, 0, 0, 159773
-5435.45, 227133, -343.445, 3.53971, -1105.98, 0.0458626, 0.42112, 0.993198, 0.349787, 0.651995, 0.0001, 91, 246, 52.2413, 0.232399, 1.1647, 1, 1, 0, 159773
-5292.4, 412598, -478.376, 3.70005, -994.27, 0.446481, 0.491104, 0.958125, 0.351078, 0.648177, 0.0001, 182, 246, 43.6349, 0.194143, 1.0265, 1, 0, 0, 159776
-5292.4, 412598, -478.376, 3.70005, -994.27, 0.446481, 0.491104, 0.958125, 0.351078, 0.648177, 3, 182, 246, 43.6349, 0.194143, 1.17444, 1, 0, 0, 159776
-8927.88, 316971, -171.776, 0.690472, -757.437, 0.0790172, 0.387276, 0.993198, 0.349787, 0.651995, 0.0001, 91, 246, 28.2386, 0.133191, 0, 0, 1, 0, 159781
-7426.89, 535774, -264.867, 0.122019, -831.635, 0.000887946, 0.469134, 1.03299, 0.34851, 0.655882, 0.0001, 45.5, 246, 31.5698, 0.129283, 0, 0, 0, 0, 159783
-6308.93, 229026, -347.776, 3.28732, -896.735, -0.000140918, 0.447274, 0.993198, 0.349787, 0.651995, 0.0001, 91, 246, 50.7542, 0.237888, 1.10982, 1, 1, 0, 159786
-1585.89, 246287, -408.763, 3.59595, -934.585, 0.0518879, 0.47956, 0.958125, 0.351078, 0.648177, 0.0001, 182, 246, 50.7542, 0.237888, 2.73834, 1, 0, 0, 159786
-1585.89, 246287, -408.763, 3.59595, -934.585, 0.0518879, 0.47956, 0.958125, 0.351078, 0.648177, 3, 182, 246, 50.7542, 0.237888, 2.53491, 1, 0, 0, 159786
-7994.03, 770213, -139.421, 1.62661, -629.08, 0.0705976, 0.245662, 0.9175, 0.352806, 0.64323, 3, 455, 246, 17.6206, 0.0348565, 0, 0, 0, 0, 159787
-10839.6, 277593, -86.405, 0.948568, -843.912, 0.0571792, 0.354297, 1.03299, 0.34851, 0.655882, 0.0001, 45.5, 246, 22.8121, 0.0784877, 0, 0, 1, 0, 159789
-10839.6, 277593, -86.405, 0.948568, -843.912, 0.0571792, 0.354297, 1.03299, 0.34851, 0.655882, 3, 45.5, 246, 22.8121, 0.0784877, 0, 0, 1, 0, 159789
-9829.21, 291112, -97.6641, 0.994075, -854.247, 0.0618805, 0.323266, 0.993198, 0.349787, 0.651995, 0.0001, 91, 246, 22.8121, 0.0784877, 0, 0, 1, 0, 159789
-10446.2, 115193, -44.4558, 2.44472, -1084.48, -0.0281609, 0.273292, 1.03299, 0.34851, 0.655882, 0.0001, 45.5, 246, 23.6009, 0.0808285, 0, 0, 1, 0, 159790
-10446.2, 115193, -44.4558, 2.44472, -1084.48, -0.0281609, 0.273292, 1.03299, 0.34851, 0.655882, 3, 45.5, 246, 23.6009, 0.0808285, 0, 0, 1, 0, 159790
-8878.56, 510854, -569.156, 3.71277, -761.207, 0.0881323, 0.571807, 0.958125, 0.351078, 0.648177, 3, 182, 246, 42.5863, 0.200567, 1.38848, 1, 0, 0, 159797
-7894.25, 143855, -206.219, 3.26031, -1070.52, -0.0442468, 0.313197, 1.03299, 0.34851, 0.655882, 3, 45.5, 246, 47.4854, 0.19999, 0, 0, 0, 0, 159802
-5293.27, 164654, -258.305, 3.54901, -1087.98, 0.00664583, 0.327442, 0.993198, 0.349787, 0.651995, 3, 91, 246, 47.4854, 0.19999, 0, 0, 1, 0, 159802
-1779.89, 187613, -320.322, 3.89112, -1122.56, 0.0675176, 0.359548, 0.958125, 0.351078, 0.648177, 0.0001, 182, 246, 47.4854, 0.19999, 1.73359, 1, 0, 0, 159802
-1779.89, 187613, -320.322, 3.89112, -1122.56, 0.0675176, 0.359548, 0.958125, 0.351078, 0.648177, 3, 182, 246, 47.4854, 0.19999, 1.5606, 1, 0, 0, 159802
-11928, 163284, -96.5034, 3.0664, -1065.06, 0.205323, 0.231788, 1.03299, 0.34851, 0.655882, 0.0001, 45.5, 246, 30.2237, 0.10337, 0, 0, 0, 0, 159810
-11928, 163284, -96.5034, 3.0664, -1065.06, 0.205323, 0.231788, 1.03299, 0.34851, 0.655882, 3, 45.5, 246, 30.2237, 0.10337, 0, 0, 0, 0, 159810
-5496.59, 241712, -282.228, 4.04125, -921.167, 0.311295, 0.291984, 0.958125, 0.351078, 0.648177, 0.0001, 182, 246, 35.6706, 0.141227, 0, 0, 0, 0, 159816
-5496.59, 241712, -282.228, 4.04125, -921.167, 0.311295, 0.291984, 0.958125, 0.351078, 0.648177, 3, 182, 246, 35.6706, 0.141227, 0, 0, 0, 0, 159816
-8964.32, 88322.5, -95.7285, 3.00399, -636.919, -0.0323142, 0.235813, 1.03299, 0.34851, 0.655882, 0.0001, 45.5, 246, 28.6398, 0.104768, 0, 0, 1, 0, 159825
-8964.32, 88322.5, -95.7285, 3.00399, -636.919, -0.0323142, 0.235813, 1.03299, 0.34851, 0.655882, 3, 45.5, 246, 28.6398, 0.104768, 0, 0, 1, 0, 159825
-3744.77, 114474, -202.259, 3.99078, -698.008, 0.145192, 0.298445, 0.9175, 0.352806, 0.64323, 0.0001, 455, 246, 28.6398, 0.104768, 0, 0, 1, 0, 159825
-3744.77, 114474, -202.259, 3.99078, -698.008, 0.145192, 0.298445, 0.9175, 0.352806, 0.64323, 3, 455, 246, 28.6398, 0.104768, 0, 0, 1, 0, 159825
-3005.83, 120398, -234.144, 3.58428, -1221.21, 0.0533486, 0.31471, 0.958125, 0.351078, 0.648177, 0.0001, 182, 246, 45.8996, 0.183946, 1.15201, 1, 1, 0, 159828
-9692.45, 781574, -147.076, 0.275423, -908.808, 0.0743163, 0.366193, 1.03299, 0.34851, 0.655882, 0.0001, 45.5, 246, 25.7545, 0.0479593, 0, 0, 1, 0, 159832
-9692.45, 781574, -147.076, 0.275423, -908.808, 0.0743163, 0.366193, 1.03299, 0.34851, 0.655882, 3, 45.5, 246, 25.7545, 0.0479593, 0, 0, 1, 0, 159832
-8769.12, 799739, -154.127, 0.285467, -920.752, 0.0755489, 0.332115, 0.993198, 0.349787, 0.651995, 3, 91, 246, 25.7545, 0.0479593, 0, 0, 1, 0, 159832
-8550.73, 90229.7, -96.4878, 1.90049, -817.021, -0.0155033, 0.343666, 1.03299, 0.34851, 0.655882, 3, 45.5, 246, 33.295, 0.163924, 0, 0, 1, 0, 159838
-6454.8, 83039.2, -129.99, 3.94043, -1099.17, 0.00104439, 0.20239, 0.993198, 0.349787, 0.651995, 0.0001, 91, 246, 33.2679, 0.108067, 0, 0, 1, 0, 159840
-6454.8, 83039.2, -129.99, 3.94043, -1099.17, 0.00104439, 0.20239, 0.993198, 0.349787, 0.651995, 3, 91, 246, 33.2679, 0.108067, 0, 0, 1, 0, 159840
-837.744, 137886, -278.999, 5.02185, -1193.7, 0.206968, 0.332858, 0.9175, 0.352806, 0.64323, 0.0001, 455, 246, 33.2679, 0.108067, 1.45627, 1, 0, 0, 159840
-837.744, 137886, -278.999, 5.02185, -1193.7, 0.206968, 0.332858, 0.9175, 0.352806, 0.64323, 3, 455, 246, 33.2679, 0.108067, 1.45781, 1, 0, 0, 159840
-9138.1, 204431, -74.904, 2.46124, -730.68, 0.0282937, 0.249662, 0.958125, 0.351078, 0.648177, 0.0001, 182, 246, 17.1774, 0.0514007, 0, 0, 1, 0, 159842
-8235.82, 277311, -131.921, 0.00986737, -1290.81, 0.730245, 0.343501, 0.9175, 0.352806, 0.64323, 0.0001, 455, 246, 30.8015, 0.181225, 1.54239, 1, 0, 0, 159845
-8235.82, 277311, -131.921, 0.00986737, -1290.81, 0.730245, 0.343501, 0.9175, 0.352806, 0.64323, 3, 455, 246, 30.8015, 0.181225, 1.42812, 1, 0, 0, 159845
-3156.72, 275594, -411.014, 3.55475, -846.912, 0.0766797, 0.471002, 0.958125, 0.351078, 0.648177, 0.0001, 182, 246, 46.9167, 0.221086, 1.82225, 1, 0, 0, 159846
-3156.72, 275594, -411.014, 3.55475, -846.912, 0.0766797, 0.471002, 0.958125, 0.351078, 0.648177, 3, 182, 246, 46.9167, 0.221086, 1.64939, 1, 0, 0, 159846
-11081.4, 224634, -130.321, 1.48189, -749.864, -0.0062693, 0.371944, 1.03299, 0.34851, 0.655882, 0.0001, 45.5, 246, 28.2741, 0.131127, 0, 0, 1, 0, 159847
-11081.4, 224634, -130.321, 1.48189, -749.864, -0.0062693, 0.371944, 1.03299, 0.34851, 0.655882, 3, 45.5, 246, 28.2741, 0.131127, 0, 0, 1, 0, 159847
-9660.13, 234620, -147.877, 1.56395, -755.291, 0.00391127, 0.348488, 0.993198, 0.349787, 0.651995, 3, 91, 246, 28.2741, 0.131127, 0, 0, 1, 0, 159847
-7971.25, 245040, -166.923, 1.64997, -763.087, 0.0152595, 0.331146, 0.958125, 0.351078, 0.648177, 3, 182, 246, 28.2741, 0.131127, 0, 0, 1, 0, 159847
-12072.5, 192943, -2.20733, 1.64306, -1070.08, -0.00122977, 0.301703, 1.03299, 0.34851, 0.655882, 0.0001, 45.5, 246, 16.8551, 0.0257616, 0, 0, 1, 0, 159849
-12072.5, 192943, -2.20733, 1.64306, -1070.08, -0.00122977, 0.301703, 1.03299, 0.34851, 0.655882, 3, 45.5, 246, 16.8551, 0.0257616, 0, 0, 1, 0, 159849
-10411.2, 222170, -200.857, 1.89031, -1024.54, 0.0523272, 0.433321, 1.03299, 0.34851, 0.655882, 0.0001, 45.5, 246, 40.7165, 0.194953, 0, 0, 0, 0, 159853
-10411.2, 222170, -200.857, 1.89031, -1024.54, 0.0523272, 0.433321, 1.03299, 0.34851, 0.655882, 3, 45.5, 246, 40.7165, 0.194953, 0, 0, 0, 0, 159853
-7241.87, -1313.97, -29.7307, 3.68776, -1130.56, 0.0307589, 0.216369, 0.993198, 0.349787, 0.651995, 0.0001, 91, 246, 16.0415, 0.0589474, 0, 0, 1, 1, 159862
-7241.87, -1313.97, -29.7307, 3.68776, -1130.56, 0.0307589, 0.216369, 0.993198, 0.349787, 0.651995, 3, 91, 246, 16.0415, 0.0589474, 0, 0, 1, 1, 159862
-8563.19, 161634, -85.1091, 0.403736, -1089.67, 0.0321396, 0.38565, 1.03299, 0.34851, 0.655882, 0.0001, 45.5, 246, 27.3242, 0.133653, 0, 0, 1, 0, 159866
-8563.19, 161634, -85.1091, 0.403736, -1089.67, 0.0321396, 0.38565, 1.03299, 0.34851, 0.655882, 3, 45.5, 246, 27.3242, 0.133653, 0, 0, 1, 0, 159866
-9055.45, 98807.4, -101.391, 3.50215, -962.959, 0.00880856, 0.192297, 1.03299, 0.34851, 0.655882, 0.0001, 45.5, 246, 32.4683, 0.111589, 0, 0, 0, 0, 159871
-9055.45, 98807.4, -101.391, 3.50215, -962.959, 0.00880856, 0.192297, 1.03299, 0.34851, 0.655882, 3, 45.5, 246, 32.4683, 0.111589, 0, 0, 0, 0, 159871
-638.355, 162163, -280.875, 4.89462, -1096.16, 0.269231, 0.326909, 0.9175, 0.352806, 0.64323, 0.0001, 455, 246, 32.4683, 0.111589, 1.24788, 1, 0, 0, 159871
-638.355, 162163, -280.875, 4.89462, -1096.16, 0.269231, 0.326909, 0.9175, 0.352806, 0.64323, 3, 455, 246, 32.4683, 0.111589, 1.25392, 1, 0, 0, 159871
-10482.9, 247988, -192.189, 1.5681, -1069.38, 0.0694781, 0.435871, 1.03299, 0.34851, 0.655882, 0.0001, 45.5, 246, 38.5693, 0.178482, 0, 0, 0, 0, 159874
-10482.9, 247988, -192.189, 1.5681, -1069.38, 0.0694781, 0.435871, 1.03299, 0.34851, 0.655882, 3, 45.5, 246, 38.5693, 0.178482, 0, 0, 0, 0, 159874
-9621.41, 218565, -401.012, 3.48151, -688.817, 0.672457, 0.430405, 1.03299, 0.34851, 0.655882, 0.0001, 45.5, 246, 55.3278, 0.247498, 1.52221, 1, 0, 0, 159884
-9621.41, 218565, -401.012, 3.48151, -688.817, 0.672457, 0.430405, 1.03299, 0.34851, 0.655882, 3, 45.5, 246, 55.3278, 0.247498, 1.47773, 1, 0, 0, 159884
-4448.05, 240263, -466.607, 3.98038, -819.536, 0.820671, 0.464269, 0.993198, 0.349787, 0.651995, 0.0001, 91, 246, 55.3278, 0.247498, 2.09063, 1, 1, 1, 159884
-4448.05, 240263, -466.607, 3.98038, -819.536, 0.820671, 0.464269, 0.993198, 0.349787, 0.651995, 3, 91, 246, 55.3278, 0.247498, 2.02545, 1, 1, 1, 159884
-11451.8, 596960, -22.9349, 0.344241, -629.379, 0.283498, 0.339441, 1.03299, 0.34851, 0.655882, 0.0001, 45.5, 246, 14.3496, 0.0104743, 0, 0, 1, 0, 159886
-11451.8, 596960, -22.9349, 0.344241, -629.379, 0.283498, 0.339441, 1.03299, 0.34851, 0.655882, 3, 45.5, 246, 14.3496, 0.0104743, 0, 0, 1, 0, 159886
-11201.7, 330660, -77.2868, 0.767585, -622.811, 0.000423471, 0.349731, 1.03299, 0.34851, 0.655882, 0.0001, 45.5, 246, 17.9533, 0.0604108, 0, 0, 1, 0, 159888
-11201.7, 330660, -77.2868, 0.767585, -622.811, 0.000423471, 0.349731, 1.03299, 0.34851, 0.655882, 3, 45.5, 246, 17.9533, 0.0604108, 0, 0, 1, 0, 159888
-10280.6, 337488, -84.8394, 0.799211, -624.656, 0.00311851, 0.316867, 0.993198, 0.349787, 0.651995, 0.0001, 91, 246, 17.9533, 0.0604108, 0, 0, 1, 0, 159888
-10520.7, 409992, -23.0912, 0.617703, -1165.94, 1.83794e-05, 0.301473, 0.993198, 0.349787, 0.651995, 0.0001, 91, 246, 21.3653, 0.0157674, 0, 0, 1, 0, 159894
-11211.2, 299873, -239.464, 1.40238, -930.097, 0.293102, 0.478147, 1.03299, 0.34851, 0.655882, 0.0001, 45.5, 246, 38.8312, 0.185448, 0, 0, 0, 0, 159898
-11211.2, 299873, -239.464, 1.40238, -930.097, 0.293102, 0.478147, 1.03299, 0.34851, 0.655882, 3, 45.5, 246, 38.8312, 0.185448, 0, 0, 0, 0, 159898
-6205.92, 346993, -295.209, 1.62042, -1050.62, 0.345085, 0.453263, 0.958125, 0.351078, 0.648177, 0.0001, 182, 246, 38.8312, 0.185448, 0, 0, 0, 0, 159898
-6205.92, 346993, -295.209, 1.62042, -1050.62, 0.345085, 0.453263, 0.958125, 0.351078, 0.648177, 3, 182, 246, 38.8312, 0.185448, 0, 0, 0, 0, 159898
-10817.8, 202994, -166.861, 2.24536, -1059.55, 0.0230217, 0.36896, 1.03299, 0.34851, 0.655882, 0.0001, 45.5, 246, 37.7791, 0.165225, 0, 0, 0, 0, 159915
-10817.8, 202994, -166.861, 2.24536, -1059.55, 0.0230217, 0.36896, 1.03299, 0.34851, 0.655882, 3, 45.5, 246, 37.7791, 0.165225, 0, 0, 0, 0, 159915
-9586.65, 423165, -264.059, 0.737192, -1083.49, 0.109174, 0.493955, 1.03299, 0.34851, 0.655882, 0.0001, 45.5, 246, 38.3753, 0.158805, 0, 0, 0, 0, 159916
-9586.65, 423165, -264.059, 0.737192, -1083.49, 0.109174, 0.493955, 1.03299, 0.34851, 0.655882, 3, 45.5, 246, 38.3753, 0.158805, 0, 0, 0, 0, 159916
-13346.4, 130377, 23.4418, 3.62362, -744.185, -0.0630117, 0.124284, 1.03299, 0.34851, 0.655882, 0.0001, 45.5, 246, 10.2915, 0.0145026, 0, 0, 0, 0, 159918
-13346.4, 130377, 23.4418, 3.62362, -744.185, -0.0630117, 0.124284, 1.03299, 0.34851, 0.655882, 3, 45.5, 246, 10.2915, 0.0145026, 0, 0, 0, 0, 159918
-10228.6, 385475, -376.589, 1.0489, -1141.07, 0.222416, 0.679727, 1.03299, 0.34851, 0.655882, 0.0001, 45.5, 246, 49.751, 0.247612, 0, 0, 0, 0, 159920
-10228.6, 385475, -376.589, 1.0489, -1141.07, 0.222416, 0.679727, 1.03299, 0.34851, 0.655882, 3, 45.5, 246, 49.751, 0.247612, 0, 0, 0, 0, 159920
-3133.76, 110557, -229.054, 3.58769, -1079.47, 0.0993771, 0.303981, 0.958125, 0.351078, 0.648177, 0.0001, 182, 246, 45.2275, 0.174328, 1.15267, 1, 1, 0, 159921
458.439, 142005, -310.252, 4.08027, -1148.23, 0.188647, 0.357607, 0.9175, 0.352806, 0.64323, 0.0001, 455, 246, 45.2275, 0.174328, 3.2524, 1, 0, 0, 159921
458.439, 142005, -310.252, 4.08027, -1148.23, 0.188647, 0.357607, 0.9175, 0.352806, 0.64323, 3, 455, 246, 45.2275, 0.174328, 3.25951, 1, 0, 0, 159921
-8571.68, 85964.3, -95.1037, 2.86762, -889.763, 0.162152, 0.25804, 1.03299, 0.34851, 0.655882, 0.0001, 45.5, 246, 32.0482, 0.121017, 0, 0, 1, 0, 159924
-8571.68, 85964.3, -95.1037, 2.86762, -889.763, 0.162152, 0.25804, 1.03299, 0.34851, 0.655882, 3, 45.5, 246, 32.0482, 0.121017, 0, 0, 1, 0, 159924
-10779.3, 467649, -118.97, 0.594629, -931.341, 0.085112, 0.365567, 1.03299, 0.34851, 0.655882, 0.0001, 45.5, 246, 25.268, 0.06541, 0, 0, 1, 0, 159926
-10779.3, 467649, -118.97, 0.594629, -931.341, 0.085112, 0.365567, 1.03299, 0.34851, 0.655882, 3, 45.5, 246, 25.268, 0.06541, 0, 0, 1, 0, 159926
-9650, 485450, -128.63, 0.620239, -946.152, 0.0879142, 0.332762, 0.993198, 0.349787, 0.651995, 3, 91, 246, 25.268, 0.06541, 0, 0, 1, 0, 159926
-19389.7, -193631, -44.3674, 0.490818, -1143.04, 0.194014, 0.426663, 1.03299, 0.34851, 0.655882, 0.0001, 45.5, 246, -104.762, 0.195959, 0, 0, 1, 0, 159928
-19389.7, -193631, -44.3674, 0.490818, -1143.04, 0.194014, 0.426663, 1.03299, 0.34851, 0.655882, 3, 45.5, 246, -104.762, 0.195959, 0, 0, 1, 0, 159928
-7292.63, -4455.93, -24.4874, 2.83327, -751.492, 0.0576678, 0.248092, 1.03299, 0.34851, 0.655882, 3, 45.5, 246, 21.0723, 0.0362022, 0, 0, 1, 1, 159933
-6429.62, -18788.6, -19.3041, 3.46868, -887.08, -0.0578727, 0.195795, 1.03299, 0.34851, 0.655882, 0.0001, 45.5, 246, 21.4364, 0.03062, 0, 0, 1, 1, 159936
-6429.62, -18788.6, -19.3041, 3.46868, -887.08, -0.0578727, 0.195795, 1.03299, 0.34851, 0.655882, 3, 45.5, 246, 21.4364, 0.03062, 0, 0, 1, 1, 159936
-5796.82, 597423, -261.721, 0.270596, -1199.35, 0.0320729, 0.418195, 0.993198, 0.349787, 0.651995, 0.0001, 91, 246, 36.297, 0.111728, 0, 0, 1, 0, 159940
-378.301, 176451, -302.188, 3.28163, -1217.38, 0.383731, 0.387684, 0.9175, 0.352806, 0.64323, 0.0001, 455, 246, 46.1651, 0.220058, 2.36108, 1, 0, 0, 159947
-378.301, 176451, -302.188, 3.28163, -1217.38, 0.383731, 0.387684, 0.9175, 0.352806, 0.64323, 3, 455, 246, 46.1651, 0.220058, 2.43505, 1, 0, 0, 159947
-11326.5, 790231, -34.3614, 0.287452, -1094.12, 0.0165265, 0.340777, 1.03299, 0.34851, 0.655882, 0.0001, 45.5, 246, 25.1355, 0.0121493, 0, 0, 1, 0, 159950
-11326.5, 790231, -34.3614, 0.287452, -1094.12, 0.0165265, 0.340777, 1.03299, 0.34851, 0.655882, 3, 45.5, 246, 25.1355, 0.0121493, 0, 0, 1, 0, 159950
-10575.3, 811983, -38.3112, 0.296877, -1097.3, 0.0169456, 0.304863, 0.993198, 0.349787, 0.651995, 3, 91, 246, 25.1355, 0.0121493, 0, 0, 1, 0, 159950
-9711.07, 833906, -42.3795, 0.305827, -1100.6, 0.0173909, 0.273314, 0.958125, 0.351078, 0.648177, 0.0001, 182, 246, 25.1355, 0.0121493, 0, 0, 1, 0, 159950
-12853.2, 135470, 3.14224, 3.1962, -770.553, -0.021762, 0.178135, 1.03299, 0.34851, 0.655882, 0.0001, 45.5, 246, 13.0962, 0.0267762, 0, 0, 1, 0, 159957
-12853.2, 135470, 3.14224, 3.1962, -770.553, -0.021762, 0.178135, 1.03299, 0.34851, 0.655882, 3, 45.5, 246, 13.0962, 0.0267762, 0, 0, 1, 0, 159957
-5907.16, 80341.6, -157.853, 3.52892, -1236.66, 0.108115, 0.303219, 0.9175, 0.352806, 0.64323, 3, 455, 246, 26.1408, 0.0728101, 0, 0, 1, 0, 159962
-53.0305, 197389, -310.538, 4.96625, -843.501, 0.565086, 0.338815, 0.9175, 0.352806, 0.64323, 0.0001, 455, 246, 31.6578, 0.12175, 1.10359, 1, 0, 0, 159964
-53.0305, 197389, -310.538, 4.96625, -843.501, 0.565086, 0.338815, 0.9175, 0.352806, 0.64323, 3, 455, 246, 31.6578, 0.12175, 1.11334, 1, 0, 0, 159964
-10436.2, 378753, -178.012, 0.7163, -835.086, 0.318508, 0.411186, 1.03299, 0.34851, 0.655882, 0.0001, 45.5, 246, 28.8436, 0.114919, 0, 0, 1, 0, 159965
-10436.2, 378753, -178.012, 0.7163, -835.086, 0.318508, 0.411186, 1.03299, 0.34851, 0.655882, 3, 45.5, 246, 28.8436, 0.114919, 0, 0, 1, 0, 159965
-9155.57, 398889, -191.166, 0.759403, -883.191, 0.337904, 0.382721, 0.993198, 0.349787, 0.651995, 3, 91, 246, 28.8436, 0.114919, 0, 0, 1, 0, 159965
-10665.7, 472895, -67.9461, 0.471961, -942.202, 0.152406, 0.34724, 1.03299, 0.34851, 0.655882, 0.0001, 45.5, 246, 22.1276, 0.0373935, 0, 0, 1, 0, 159966
-10665.7, 472895, -67.9461, 0.471961, -942.202, 0.152406, 0.34724, 1.03299, 0.34851, 0.655882, 3, 45.5, 246, 22.1276, 0.0373935, 0, 0, 1, 0, 159966
-7442.08, 545741, -265.978, 0.22674, -799.038, 0.13614, 0.432036, 0.993198, 0.349787, 0.651995, 0.0001, 91, 246, 30.1129, 0.123437, 0, 0, 1, 0, 159968
-6422.4, 562502, -276.027, 0.235589, -818.289, 0.139372, 0.409422, 0.958125, 0.351078, 0.648177, 0.0001, 182, 246, 30.1129, 0.123437, 0, 0, 0, 0, 159968
-8729.35, 50586.3, -38.1745, 2.2932, -698.161, 0.00373322, 0.281952, 1.03299, 0.34851, 0.655882, 3, 45.5, 246, 20.3634, 0.0759765, 0, 0, 1, 0, 159977
-11669.7, 214470, -139.407, 1.89831, -812.513, 0.543661, 0.348882, 1.03299, 0.34851, 0.655882, 0.0001, 45.5, 246, 29.9984, 0.127555, 0, 0, 1, 0, 159978
-11669.7, 214470, -139.407, 1.89831, -812.513, 0.543661, 0.348882, 1.03299, 0.34851, 0.655882, 3, 45.5, 246, 29.9984, 0.127555, 0, 0, 1, 0, 159978
-14392.5, 201078, -103.557, 3.0909, -605.527, 0.0690664, 0.212757, 1.03299, 0.34851, 0.655882, 0.0001, 45.5, 246, 23.2617, 0.0861331, 0, 0, 0, 0, 159981
-14392.5, 201078, -103.557, 3.0909, -605.527, 0.0690664, 0.212757, 1.03299, 0.34851, 0.655882, 3, 45.5, 246, 23.2617, 0.0861331, 0, 0, 0, 0, 159981
-6121.28, 641484, -315.275, 0.17459, -1140.37, 0.00574307, 0.490362, 1.03299, 0.34851, 0.655882, 0.0001, 45.5, 246, 38.0689, 0.126619, 0, 0, 0, 0, 159982
-4871.01, 666366, -327.814, 0.180587, -1142.92, 0.00588689, 0.466285, 0.993198, 0.349787, 0.651995, 3, 91, 246, 38.0689, 0.126619, 0, 0, 1, 0, 159982
-10312.4, 113238, -67.8503, 2.59756, -888.058, 0.755234, 0.257025, 1.03299, 0.34851, 0.655882, 0.0001, 45.5, 246, 25.2552, 0.0881272, 0, 0, 1, 0, 159987
-10312.4, 113238, -67.8503, 2.59756, -888.058, 0.755234, 0.257025, 1.03299, 0.34851, 0.655882, 3, 45.5, 246, 25.2552, 0.0881272, 0, 0, 1, 0, 159987
-11736.4, 294733, -195.658, 1.40187, -825.846, 0.252878, 0.423193, 1.03299, 0.34851, 0.655882, 0.0001, 45.5, 246, 33.2581, 0.153046, 0, 0, 0, 0, 159988
-9846.46, 99883.4, -81.7334, 3.12152, -675.341, 0.00984885, 0.215842, 1.03299, 0.34851, 0.655882, 0.0001, 45.5, 246, 25.5021, 0.0902365, 0, 0, 1, 0, 159992
-9846.46, 99883.4, -81.7334, 3.12152, -675.341, 0.00984885, 0.215842, 1.03299, 0.34851, 0.655882, 3, 45.5, 246, 25.5021, 0.0902365, 0, 0, 1, 0, 159992
-6787.75, 116640, -140.945, 3.70272, -707.837, 0.11273, 0.23871, 0.958125, 0.351078, 0.648177, 0.0001, 182, 246, 25.5021, 0.0902365, 0, 0, 1, 0, 159992
-6787.75, 116640, -140.945, 3.70272, -707.837, 0.11273, 0.23871, 0.958125, 0.351078, 0.648177, 3, 182, 246, 25.5021, 0.0902365, 0, 0, 1, 0, 159992
-7794.31, 186475, -94.4802, 4.49954, -1347.47, 0.910323, 0.191411, 0.958125, 0.351078, 0.648177, 0.0001, 182, 246, 19.2932, 0.0431822, 0, 0, 0, 0, 159993
-7794.31, 186475, -94.4802, 4.49954, -1347.47, 0.910323, 0.191411, 0.958125, 0.351078, 0.648177, 3, 182, 246, 19.2932, 0.0431822, 0, 0, 0, 0, 159993
-1292.46, 256596, -203.725, 5.60075, -1719.59, 1.3064, 0.299364, 0.9175, 0.352806, 0.64323, 0.0001, 455, 246, 19.2932, 0.0431822, 0, 0, 0, 0, 159993
-1292.46, 256596, -203.725, 5.60075, -1719.59, 1.3064, 0.299364, 0.9175, 0.352806, 0.64323, 3, 455, 246, 19.2932, 0.0431822, 0, 0, 0, 0, 159993
