-11068.8, 362979, -188.823, 1.17521, -1193.48, -0.00639195, 0.418227, 1.03299, 0.34851, 0.655882, 0.0001, 45.5, 246, 35.7896, 0.130558, 0, 0, 0, 0, 8502
-11068.8, 362979, -188.823, 1.17521, -1193.48, -0.00639195, 0.418227, 1.03299, 0.34851, 0.655882, 3, 45.5, 246, 35.7896, 0.130558, 0, 0, 0, 0, 8502
-9323.15, 153870, -145.123, 1.82971, -974.948, -0.00731155, 0.391412, 1.03299, 0.34851, 0.655882, 0.0001, 45.5, 246, 37.5801, 0.187449, 0, 0, 1, 0, 8509
-9323.15, 153870, -145.123, 1.82971, -974.948, -0.00731155, 0.391412, 1.03299, 0.34851, 0.655882, 3, 45.5, 246, 37.5801, 0.187449, 0, 0, 1, 0, 8509
-11121, 403761, -195.168, 0.771287, -777.451, 0.448109, 0.417138, 1.03299, 0.34851, 0.655882, 0.0001, 45.5, 246, 28.5314, 0.115442, 0, 0, 0, 0, 8513
-11121, 403761, -195.168, 0.771287, -777.451, 0.448109, 0.417138, 1.03299, 0.34851, 0.655882, 3, 45.5, 246, 28.5314, 0.115442, 0, 0, 0, 0, 8513
-7774.02, 451944, -224.834, 0.882273, -916.477, 0.529028, 0.366775, 0.958125, 0.351078, 0.648177, 3, 182, 246, 28.5314, 0.115442, 0, 0, 1, 0, 8513
-11769.6, 233109, -60.9646, 2.17575, -634.671, 0.142685, 0.263281, 0.993198, 0.349787, 0.651995, 0.0001, 91, 246, 16.1936, 0.0492071, 0, 0, 1, 0, 8518
-11769.6, 233109, -60.9646, 2.17575, -634.671, 0.142685, 0.263281, 0.993198, 0.349787, 0.651995, 3, 91, 246, 16.1936, 0.0492071, 0, 0, 1, 0, 8518
-10140.1, 653141, -201.062, 0.338478, -716.698, 0.151559, 0.397947, 1.03299, 0.34851, 0.655882, 0.0001, 45.5, 246, 24.603, 0.0778048, 0, 0, 1, 0, 8523
-10140.1, 653141, -201.062, 0.338478, -716.698, 0.151559, 0.397947, 1.03299, 0.34851, 0.655882, 3, 45.5, 246, 24.603, 0.0778048, 0, 0, 1, 0, 8523
-7021.29, -15249.6, -6.82375, 3.19744, -836.99, 0.00461581, 0.217374, 1.03299, 0.34851, 0.655882, 0.0001, 45.5, 246, 16.2371, 0.04025, 0, 0, 1, 1, 8524
-7021.29, -15249.6, -6.82375, 3.19744, -836.99, 0.00461581, 0.217374, 1.03299, 0.34851, 0.655882, 3, 45.5, 246, 16.2371, 0.04025, 0, 0, 1, 1, 8524
-11539.2, 91049.8, 32.3412, 3.64822, -1013.09, -0.0629308, 0.130355, 1.03299, 0.34851, 0.655882, 0.0001, 45.5, 246, 12.4849, 0.0242311, 0, 0, 0, 0, 8526
-11539.2, 91049.8, 32.3412, 3.64822, -1013.09, -0.0629308, 0.130355, 1.03299, 0.34851, 0.655882, 3, 45.5, 246, 12.4849, 0.0242311, 0, 0, 0, 0, 8526
-10102.3, 108030, 0.0811191, 3.97806, -1006.36, 0.000985114, 0.146665, 0.993198, 0.349787, 0.651995, 0.0001, 91, 246, 12.4849, 0.0242311, 0, 0, 1, 0, 8526
-10102.3, 108030, 0.0811191, 3.97806, -1006.36, 0.000985114, 0.146665, 0.993198, 0.349787, 0.651995, 3, 91, 246, 12.4849, 0.0242311, 0, 0, 1, 0, 8526
-5711.2, 94499.4, -193.741, 3.48176, -829.737, 0.739553, 0.217724, 1.03299, 0.34851, 0.655882, 0.0001, 45.5, 246, 46.1763, 0.158795, 1.30515, 1, 0, 0, 8531
-5711.2, 94499.4, -193.741, 3.48176, -829.737, 0.739553, 0.217724, 1.03299, 0.34851, 0.655882, 3, 45.5, 246, 46.1763, 0.158795, 1.14866, 1, 0, 0, 8531
-3718.2, 113559, -242.287, 3.9732, -966.914, 0.906403, 0.235865, 0.993198, 0.349787, 0.651995, 0.0001, 91, 246, 46.1763, 0.158795, 1.35995, 1, 1, 0, 8531
-3718.2, 113559, -242.287, 3.9732, -966.914, 0.906403, 0.235865, 0.993198, 0.349787, 0.651995, 3, 91, 246, 46.1763, 0.158795, 1.21981, 1, 1, 0, 8531
-725.72, 141371, -309.112, 4.62358, -1169.7, 1.15248, 0.282568, 0.958125, 0.351078, 0.648177, 0.0001, 182, 246, 46.1763, 0.158795, 2.02249, 1, 0, 0, 8531
-725.72, 141371, -309.112, 4.62358, -1169.7, 1.15248, 0.282568, 0.958125, 0.351078, 0.648177, 3, 182, 246, 46.1763, 0.158795, 1.89326, 1, 0, 0, 8531
768.638, 291264, -367.14, 4.07243, -820.836, 0.157997, 0.381795, 0.9175, 0.352806, 0.64323, 3, 455, 246, 34.9739, 0.150539, 1.1908, 1, 0, 0, 8535
-10321.1, 103856, -68.6358, 3.40008, -792.84, -0.0457905, 0.182282, 1.03299, 0.34851, 0.655882, 0.0001, 45.5, 246, 24.6082, 0.0809134, 0, 0, 1, 0, 8536
-10321.1, 103856, -68.6358, 3.40008, -792.84, -0.0457905, 0.182282, 1.03299, 0.34851, 0.655882, 3, 45.5, 246, 24.6082, 0.0809134, 0, 0, 1, 0, 8536
-10260.5, 345498, -34.1688, 0.695748, -1017.66, 0.646832, 0.302346, 0.993198, 0.349787, 0.651995, 0.0001, 91, 246, 18.3596, 0.0241797, 0, 0, 1, 0, 8537
-4565.84, 546037, -413.29, 0.0302108, -894.785, 0.0112841, 0.616362, 0.958125, 0.351078, 0.648177, 0.0001, 182, 246, 40.7426, 0.202699, 0, 0, 0, 0, 8539
-8825.3, 182578, -261.195, 3.22735, -1061.21, 0.561009, 0.351416, 1.03299, 0.34851, 0.655882, 0.0001, 45.5, 246, 49.798, 0.211622, 1.02087, 1, 0, 0, 8543
-5320.06, 212270, -320.396, 3.63764, -1196.75, 0.672263, 0.369244, 0.993198, 0.349787, 0.651995, 0.0001, 91, 246, 49.798, 0.211622, 1.12457, 1, 1, 0, 8543
-6104.91, 229482, -331.445, 3.95944, -1124.89, 0.202853, 0.341896, 0.993198, 0.349787, 0.651995, 0.0001, 91, 246, 49.0943, 0.202076, 1.178, 1, 1, 0, 8551
-6104.91, 229482, -331.445, 3.95944, -1124.89, 0.202853, 0.341896, 0.993198, 0.349787, 0.651995, 3, 91, 246, 49.0943, 0.202076, 1.02873, 1, 1, 0, 8551
-16765.6, 317264, -152.486, 2.3935, -672.164, 0.0792394, 0.304116, 1.03299, 0.34851, 0.655882, 0.0001, 45.5, 246, 26.3224, 0.104023, 3.59397, 1, 0, 0, 8552
-16765.6, 317264, -152.486, 2.3935, -672.164, 0.0792394, 0.304116, 1.03299, 0.34851, 0.655882, 3, 45.5, 246, 26.3224, 0.104023, 3.66941, 1, 0, 0, 8552
-10838.6, 106388, -27.077, 2.74496, -721.849, -0.0322929, 0.234835, 1.03299, 0.34851, 0.655882, 0.0001, 45.5, 246, 16.5157, 0.0516172, 0, 0, 1, 0, 8555
-10838.6, 106388, -27.077, 2.74496, -721.849, -0.0322929, 0.234835, 1.03299, 0.34851, 0.655882, 3, 45.5, 246, 16.5157, 0.0516172, 0, 0, 1, 0, 8555
-6286.67, 393891, -464.996, 4.04242, -841.323, 0.0667275, 0.448467, 0.958125, 0.351078, 0.648177, 0.0001, 182, 246, 42.3653, 0.186859, 1.53153, 1, 0, 0, 8561
-6286.67, 393891, -464.996, 4.04242, -841.323, 0.0667275, 0.448467, 0.958125, 0.351078, 0.648177, 3, 182, 246, 42.3653, 0.186859, 1.47335, 1, 0, 0, 8561
-13249.7, 580291, -0.245019, 0.536189, -1051.1, 0.338692, 0.335233, 1.03299, 0.34851, 0.655882, 0.0001, 45.5, 246, 21.4204, 0.00357633, 0, 0, 1, 0, 8566
-13249.7, 580291, -0.245019, 0.536189, -1051.1, 0.338692, 0.335233, 1.03299, 0.34851, 0.655882, 3, 45.5, 246, 21.4204, 0.00357633, 0, 0, 1, 0, 8566
-6936.62, 100497, -235.307, 0.725277, -697.217, 0.420329, 0.512037, 0.993198, 0.349787, 0.651995, 0.0001, 91, 246, 603.057, 0.241246, 0, 0, 1, 0, 8568
-9249.5, 90600.4, -63.8527, 2.20132, -991.358, -0.00103078, 0.303029, 1.03299, 0.34851, 0.655882, 0.0001, 45.5, 246, 26.9296, 0.110997, 0, 0, 1, 0, 8569
-9249.5, 90600.4, -63.8527, 2.20132, -991.358, -0.00103078, 0.303029, 1.03299, 0.34851, 0.655882, 3, 45.5, 246, 26.9296, 0.110997, 0, 0, 1, 0, 8569
-6055.26, 126068, -149.139, 4.28936, -1254.04, 1.12667, 0.23095, 0.958125, 0.351078, 0.648177, 0.0001, 182, 246, 26.0058, 0.0810918, 0, 0, 1, 0, 8577
-6055.26, 126068, -149.139, 4.28936, -1254.04, 1.12667, 0.23095, 0.958125, 0.351078, 0.648177, 3, 182, 246, 26.0058, 0.0810918, 0, 0, 1, 0, 8577
424.901, 306031, -401.647, 2.72938, -877.988, 0.216665, 0.502529, 0.9175, 0.352806, 0.64323, 3, 455, 246, 42.3177, 0.216617, 1.35922, 1, 0, 0, 8579
-9504.27, 430964, -263.14, 0.62747, -994.539, 0.66564, 0.477828, 1.03299, 0.34851, 0.655882, 0.0001, 45.5, 246, 35.7631, 0.142776, 0, 0, 0, 0, 8581
-9504.27, 430964, -263.14, 0.62747, -994.539, 0.66564, 0.477828, 1.03299, 0.34851, 0.655882, 3, 45.5, 246, 35.7631, 0.142776, 0, 0, 0, 0, 8581
-25.6798, 485890, -348.856, 2.25414, -1251.41, 0.244898, 0.389566, 0.9175, 0.352806, 0.64323, 3, 455, 246, 36.7933, 0.137882, 0, 0, 0, 0, 8582
-11026.7, 244558, -129.065, 1.1506, -588.275, 0.131162, 0.379083, 1.03299, 0.34851, 0.655882, 0.0001, 45.5, 246, 24.8034, 0.1221, 0, 0, 1, 0, 8584
-11026.7, 244558, -129.065, 1.1506, -588.275, 0.131162, 0.379083, 1.03299, 0.34851, 0.655882, 3, 45.5, 246, 24.8034, 0.1221, 0, 0, 1, 0, 8584
-9861.29, 252689, -141.778, 1.21601, -605.28, 0.140214, 0.351992, 0.993198, 0.349787, 0.651995, 0.0001, 91, 246, 24.8034, 0.1221, 0, 0, 1, 0, 8584
-6146.88, 121433, -241.293, 3.4708, -749.848, 0.796103, 0.247354, 1.03299, 0.34851, 0.655882, 0.0001, 45.5, 246, 48.3614, 0.180545, 1.39992, 1, 0, 0, 8586
-6146.88, 121433, -241.293, 3.4708, -749.848, 0.796103, 0.247354, 1.03299, 0.34851, 0.655882, 3, 45.5, 246, 48.3614, 0.180545, 1.30466, 1, 0, 0, 8586
-3521.94, 140130, -291.749, 3.97705, -889.919, 0.980221, 0.267213, 0.993198, 0.349787, 0.651995, 0.0001, 91, 246, 48.3614, 0.180545, 1.55096, 1, 1, 0, 8586
-3521.94, 140130, -291.749, 3.97705, -889.919, 0.980221, 0.267213, 0.993198, 0.349787, 0.651995, 3, 91, 246, 48.3614, 0.180545, 1.43965, 1, 1, 0, 8586
258.65, 168006, -361.285, 4.65471, -1100.41, 1.25652, 0.316502, 0.958125, 0.351078, 0.648177, 0.0001, 182, 246, 48.3614, 0.180545, 2.91668, 1, 0, 0, 8586
258.65, 168006, -361.285, 4.65471, -1100.41, 1.25652, 0.316502, 0.958125, 0.351078, 0.648177, 3, 182, 246, 48.3614, 0.180545, 2.73308, 1, 0, 0, 8586
-2159.93, 113036, -250.502, 4.23082, -1212.05, 0.2057, 0.326184, 0.9175, 0.352806, 0.64323, 0.0001, 455, 246, 37.3251, 0.117434, 1.31461, 1, 1, 0, 8590
-2159.93, 113036, -250.502, 4.23082, -1212.05, 0.2057, 0.326184, 0.9175, 0.352806, 0.64323, 3, 455, 246, 37.3251, 0.117434, 1.30368, 1, 1, 0, 8590
-2291.92, 589753, -179.033, 4.82058, -1146.84, 0.568932, 0.228264, 0.9175, 0.352806, 0.64323, 3, 455, 246, 21.3916, 0.0275718, 0, 0, 0, 0, 8591
-8546.38, 52983.9, -10.0629, 3.85645, -726.33, 0.671477, 0.168402, 0.993198, 0.349787, 0.651995, 0.0001, 91, 246, 9.53657, 0.0258576, 0, 0, 1, 0, 8594
-8546.38, 52983.9, -10.0629, 3.85645, -726.33, 0.671477, 0.168402, 0.993198, 0.349787, 0.651995, 3, 91, 246, 9.53657, 0.0258576, 0, 0, 1, 0, 8594
-7644.47, 65168.7, -40.2332, 4.40267, -820.302, 0.834837, 0.205044, 0.958125, 0.351078, 0.648177, 0.0001, 182, 246, 9.53657, 0.0258576, 0, 0, 1, 0, 8594
-7644.47, 65168.7, -40.2332, 4.40267, -820.302, 0.834837, 0.205044, 0.958125, 0.351078, 0.648177, 3, 182, 246, 9.53657, 0.0258576, 0, 0, 1, 0, 8594
-5603.18, 89172, -101.729, 5.42897, -1021.88, 1.18062, 0.306263, 0.9175, 0.352806, 0.64323, 0.0001, 455, 246, 9.53657, 0.0258576, 0, 0, 1, 0, 8594
-5603.18, 89172, -101.729, 5.42897, -1021.88, 1.18062, 0.306263, 0.9175, 0.352806, 0.64323, 3, 455, 246, 9.53657, 0.0258576, 0, 0, 1, 0, 8594
-10333.8, 109479, -76.2959, 2.93053, -783.948, 0.79486, 0.222522, 1.03299, 0.34851, 0.655882, 0.0001, 45.5, 246, 25.2299, 0.0850737, 0, 0, 0, 0, 8596
-10333.8, 109479, -76.2959, 2.93053, -783.948, 0.79486, 0.222522, 1.03299, 0.34851, 0.655882, 3, 45.5, 246, 25.2299, 0.0850737, 0, 0, 0, 0, 8596
-3388.13, 235626, -149.079, 4.68248, -1139.83, 0.609025, 0.267826, 0.9175, 0.352806, 0.64323, 0.0001, 455, 246, 17.73, 0.0392825, 0, 0, 0, 0, 8598
-3388.13, 235626, -149.079, 4.68248, -1139.83, 0.609025, 0.267826, 0.9175, 0.352806, 0.64323, 3, 455, 246, 17.73, 0.0392825, 0, 0, 0, 0, 8598
-8669.43, 516593, -409.811, 0.449114, -1066.02, 0.208683, 0.653513, 1.03299, 0.34851, 0.655882, 3, 45.5, 246, 44.7782, 0.204517, 0, 0, 0, 0, 8606
-9188.37, 808577, -230.853, 0.322521, -1009.04, -0.000249278, 0.403515, 1.03299, 0.34851, 0.655882, 0.0001, 45.5, 246, 31.0889, 0.0736722, 0, 0, 0, 0, 8607
331.117, 193310, -344.44, 3.63623, -753.417, 0.112208, 0.404241, 0.9175, 0.352806, 0.64323, 0.0001, 455, 246, 41.5122, 0.192836, 1.8218, 1, 0, 0, 8614
331.117, 193310, -344.44, 3.63623, -753.417, 0.112208, 0.404241, 0.9175, 0.352806, 0.64323, 3, 455, 246, 41.5122, 0.192836, 1.82633, 1, 0, 0, 8614
-9108.21, 68637.3, -46.7682, 3.30031, -901.522, 0.0257641, 0.194821, 1.03299, 0.34851, 0.655882, 0.0001, 45.5, 246, 23.5554, 0.0750909, 0, 0, 1, 0, 8615
-9108.21, 68637.3, -46.7682, 3.30031, -901.522, 0.0257641, 0.194821, 1.03299, 0.34851, 0.655882, 3, 45.5, 246, 23.5554, 0.0750909, 0, 0, 1, 0, 8615
-16190.4, 454258, -494.554, 3.9248, -893.11, 0.0784101, 0.474053, 0.993198, 0.349787, 0.651995, 0.0001, 91, 246, 46.815, 0.203056, 1.02308, 1, 1, 0, 8617
-6439.46, 395339, -313.89, 0.256082, -1061.72, 0.00881886, 0.573498, 0.993198, 0.349787, 0.651995, 0.0001, 91, 246, 42.7033, 0.217803, 0, 0, 1, 0, 8624
-8935.71, 380016, -285.882, 0.207753, -645.156, 0.0711682, 0.556058, 1.03299, 0.34851, 0.655882, 0.0001, 45.5, 246, 35.023, 0.200582, 0, 0, 0, 0, 8626
992.736, 385394, -388.801, 4.44151, -843.85, 0.227103, 0.372239, 0.9175, 0.352806, 0.64323, 3, 455, 246, 31.8274, 0.127228, 1.08878, 1, 0, 0, 8631
-8806.98, 359195, -269.898, 0.341319, -783.755, 0.000537593, 0.54493, 1.03299, 0.34851, 0.655882, 0.0001, 45.5, 246, 37.0591, 0.201658, 0, 0, 0, 0, 8634
-3608.54, 112779, -219.93, 3.81595, -1151.35, 1.05437, 0.28154, 0.958125, 0.351078, 0.648177, 0.0001, 182, 246, 40.8044, 0.143826, 1.0347, 1, 1, 0, 8637
565.956, 167370, -319.576, 4.73049, -1539.27, 1.48793, 0.353645, 0.9175, 0.352806, 0.64323, 0.0001, 455, 246, 40.8044, 0.143826, 0, 0, 0, 0, 8637
565.956, 167370, -319.576, 4.73049, -1539.27, 1.48793, 0.353645, 0.9175, 0.352806, 0.64323, 3, 455, 246, 40.8044, 0.143826, 0, 0, 0, 0, 8637
-11769.8, 272098, -336.923, 2.43882, -985.499, 0.712125, 0.526387, 1.03299, 0.34851, 0.655882, 3, 45.5, 246, 49.8622, 0.236098, 0, 0, 0, 0, 8642
-2663.69, 325107, -450.518, 3.15466, -1006.85, 0.0427836, 0.563457, 0.958125, 0.351078, 0.648177, 0.0001, 182, 246, 50.3511, 0.241787, 1.65345, 1, 0, 0, 8646
-2663.69, 325107, -450.518, 3.15466, -1006.85, 0.0427836, 0.563457, 0.958125, 0.351078, 0.648177, 3, 182, 246, 50.3511, 0.241787, 1.51293, 1, 0, 0, 8646
-12299.2, 317320, -69.1045, 1.05353, -602.546, 0.0592686, 0.338045, 1.03299, 0.34851, 0.655882, 0.0001, 45.5, 246, 17.1205, 0.0555248, 0, 0, 1, 0, 8648
-9587.89, 332438, -87.9014, 1.15917, -619.687, 0.0713588, 0.280809, 0.958125, 0.351078, 0.648177, 0.0001, 182, 246, 17.1205, 0.0555248, 0, 0, 1, 0, 8648
-7325.09, -22821.4, 4.88185, 2.88688, -838.541, -0.0208951, 0.246777, 1.03299, 0.34851, 0.655882, 0.0001, 45.5, 246, 11.7059, 0.0439612, 0, 0, 1, 1, 8660
-7325.09, -22821.4, 4.88185, 2.88688, -838.541, -0.0208951, 0.246777, 1.03299, 0.34851, 0.655882, 3, 45.5, 246, 11.7059, 0.0439612, 0, 0, 1, 1, 8660
-10833.2, 90043.6, 3.56777, 3.14041, -1175.06, -0.0378882, 0.198712, 1.03299, 0.34851, 0.655882, 0.0001, 45.5, 246, 18.0199, 0.0477923, 0, 0, 0, 0, 8665
-10833.2, 90043.6, 3.56777, 3.14041, -1175.06, -0.0378882, 0.198712, 1.03299, 0.34851, 0.655882, 3, 45.5, 246, 18.0199, 0.0477923, 0, 0, 0, 0, 8665
-9604.98, 113554, -31.1653, 3.40051, -1173.44, 0.00906063, 0.201505, 0.993198, 0.349787, 0.651995, 0.0001, 91, 246, 18.0199, 0.0477923, 0, 0, 1, 0, 8665
-9604.98, 113554, -31.1653, 3.40051, -1173.44, 0.00906063, 0.201505, 0.993198, 0.349787, 0.651995, 3, 91, 246, 18.0199, 0.0477923, 0, 0, 1, 0, 8665
-7739.17, 428719, -262.876, 0.399932, -860.267, 0.132757, 0.463556, 0.993198, 0.349787, 0.651995, 0.0001, 91, 246, 33.7561, 0.156841, 0, 0, 1, 0, 8674
-7491.97, -21887.2, 17.9588, 2.98395, -1143.52, 0.102497, 0.237927, 1.03299, 0.34851, 0.655882, 3, 45.5, 246, 11.5366, 0.0608741, 0, 0, 1, 0, 8676
-7817.06, 1005.2, -13.3712, 3.24937, -1165.98, 0.14754, 0.238647, 0.993198, 0.349787, 0.651995, 0.0001, 91, 246, 11.5366, 0.0608741, 0, 0, 1, 1, 8676
-7817.06, 1005.2, -13.3712, 3.24937, -1165.98, 0.14754, 0.238647, 0.993198, 0.349787, 0.651995, 3, 91, 246, 11.5366, 0.0608741, 0, 0, 1, 1, 8676
-8373.98, -4884.79, -9.02629, 2.37231, -1122.16, 0.598802, 0.279307, 0.993198, 0.349787, 0.651995, 0.0001, 91, 246, 8.90149, 0.0623145, 0, 0, 1, 0, 8678
-8373.98, -4884.79, -9.02629, 2.37231, -1122.16, 0.598802, 0.279307, 0.993198, 0.349787, 0.651995, 3, 91, 246, 8.90149, 0.0623145, 0, 0, 1, 0, 8678
-10587.1, 82930.4, -3.88484, 3.36158, -650.654, -0.0333364, 0.168549, 1.03299, 0.34851, 0.655882, 0.0001, 45.5, 246, 12.0121, 0.0313641, 0, 0, 1, 0, 8680
-10587.1, 82930.4, -3.88484, 3.36158, -650.654, -0.0333364, 0.168549, 1.03299, 0.34851, 0.655882, 3, 45.5, 246, 12.0121, 0.0313641, 0, 0, 1, 0, 8680
-8086.57, 96936.3, -50.36, 4.00097, -660.406, 0.0852829, 0.203358, 0.958125, 0.351078, 0.648177, 0.0001, 182, 246, 12.0121, 0.0313641, 0, 0, 1, 0, 8680
-8086.57, 96936.3, -50.36, 4.00097, -660.406, 0.0852829, 0.203358, 0.958125, 0.351078, 0.648177, 3, 182, 246, 12.0121, 0.0313641, 0, 0, 1, 0, 8680
-7345.63, 1503.88, -33.4762, 2.64601, -733.403, 0.26907, 0.260927, 1.03299, 0.34851, 0.655882, 3, 45.5, 246, 24.1002, 0.0396535, 0, 0, 1, 0, 8684
-16158.4, 411798, -484.847, 3.94011, -672.939, 0.0374151, 0.462738, 0.993198, 0.349787, 0.651995, 0.0001, 91, 246, 44.384, 0.207378, 1.18866, 1, 1, 0, 8698
-16158.4, 411798, -484.847, 3.94011, -672.939, 0.0374151, 0.462738, 0.993198, 0.349787, 0.651995, 3, 91, 246, 44.384, 0.207378, 1.13002, 1, 1, 0, 8698
-4986, 341103, -429.042, 4.48451, -965.839, 0.681186, 0.379058, 0.958125, 0.351078, 0.648177, 0.0001, 182, 246, 40.7449, 0.171434, 1.81247, 1, 0, 0, 8699
-4986, 341103, -429.042, 4.48451, -965.839, 0.681186, 0.379058, 0.958125, 0.351078, 0.648177, 3, 182, 246, 40.7449, 0.171434, 1.69956, 1, 0, 0, 8699
858.611, 336300, -319.261, 3.91359, -1254.45, 0.191519, 0.332768, 0.9175, 0.352806, 0.64323, 3, 455, 246, 34.0856, 0.118458, 0, 0, 0, 0, 8707
-5404.77, 110167, -152.951, 3.18984, -1028.62, 0.126725, 0.286014, 0.9175, 0.352806, 0.64323, 3, 455, 246, 25.6075, 0.0978089, 0, 0, 1, 0, 8715
-7264.04, 86767.6, -130.79, 3.19642, -1095.35, -0.00930232, 0.259212, 1.03299, 0.34851, 0.655882, 0.0001, 45.5, 246, 40.9152, 0.157069, 0, 0, 1, 0, 8722
-7264.04, 86767.6, -130.79, 3.19642, -1095.35, -0.00930232, 0.259212, 1.03299, 0.34851, 0.655882, 3, 45.5, 246, 40.9152, 0.157069, 0, 0, 1, 0, 8722
-5793.58, 108204, -175.751, 3.47632, -1111.29, 0.0395471, 0.267688, 0.993198, 0.349787, 0.651995, 0.0001, 91, 246, 40.9152, 0.157069, 0, 0, 1, 0, 8722
692.278, 166537, -318.714, 4.35388, -1217.44, 0.199179, 0.357549, 0.9175, 0.352806, 0.64323, 0.0001, 455, 246, 40.9152, 0.157069, 3.89412, 1, 0, 0, 8722
692.278, 166537, -318.714, 4.35388, -1217.44, 0.199179, 0.357549, 0.9175, 0.352806, 0.64323, 3, 455, 246, 40.9152, 0.157069, 3.94813, 1, 0, 0, 8722
-8057.12, 172122, -183.058, 2.03509, -870.516, 0.336307, 0.374307, 0.993198, 0.349787, 0.651995, 0.0001, 91, 246, 37.2043, 0.186511, 0, 0, 1, 0, 8730
-9496.11, 76015, -37.576, 3.01513, -1095.41, -0.0429076, 0.227291, 1.03299, 0.34851, 0.655882, 0.0001, 45.5, 246, 23.7373, 0.0798415, 0, 0, 1, 0, 8733
-8495.52, 96524.2, -71.986, 3.25842, -1096.14, 0.000326939, 0.227933, 0.993198, 0.349787, 0.651995, 0.0001, 91, 246, 23.7373, 0.0798415, 0, 0, 1, 0, 8733
-8495.52, 96524.2, -71.986, 3.25842, -1096.14, 0.000326939, 0.227933, 0.993198, 0.349787, 0.651995, 3, 91, 246, 23.7373, 0.0798415, 0, 0, 1, 0, 8733
-10361.1, 213082, -153.142, 1.69825, -1107.92, 0.0737008, 0.39321, 1.03299, 0.34851, 0.655882, 3, 45.5, 246, 35.9227, 0.158812, 0, 0, 0, 0, 8738
-10641.7, 694485, -116.298, 0.360103, -886.799, 0.151179, 0.357416, 1.03299, 0.34851, 0.655882, 0.0001, 45.5, 246, 24.0321, 0.042527, 0, 0, 1, 0, 8741
-10641.7, 694485, -116.298, 0.360103, -886.799, 0.151179, 0.357416, 1.03299, 0.34851, 0.655882, 3, 45.5, 246, 24.0321, 0.042527, 0, 0, 1, 0, 8741
-11201.9, 112257, -13.5562, 2.76545, -915.717, 0.00995778, 0.231048, 1.03299, 0.34851, 0.655882, 0.0001, 45.5, 246, 17.0175, 0.0468119, 0, 0, 1, 0, 8744
-11201.9, 112257, -13.5562, 2.76545, -915.717, 0.00995778, 0.231048, 1.03299, 0.34851, 0.655882, 3, 45.5, 246, 17.0175, 0.0468119, 0, 0, 1, 0, 8744
-9832.9, 99489.4, -52.2695, 2.08666, -783.459, 0.626721, 0.292808, 1.03299, 0.34851, 0.655882, 0.0001, 45.5, 246, 21.7891, 0.0825829, 0, 0, 1, 0, 8746
-9832.9, 99489.4, -52.2695, 2.08666, -783.459, 0.626721, 0.292808, 1.03299, 0.34851, 0.655882, 3, 45.5, 246, 21.7891, 0.0825829, 0, 0, 1, 0, 8746
-5361.9, 173465, -144.167, 3.00302, -1225.58, 1.07409, 0.27663, 0.9175, 0.352806, 0.64323, 3, 455, 246, 21.7891, 0.0825829, 0, 0, 1, 0, 8746
-10376.3, 224630, -263.952, 2.76103, -1101.51, -0.0066707, 0.436153, 1.03299, 0.34851, 0.655882, 3, 45.5, 246, 48.9063, 0.224457, 0, 0, 0, 0, 8747
-2446, 272982, -374.893, 3.25875, -1162.83, 0.0728804, 0.467623, 0.958125, 0.351078, 0.648177, 0.0001, 182, 246, 48.9063, 0.224457, 1.11509, 1, 0, 0, 8747
-10063.8, 105742, -63.9176, 2.46764, -669.536, -0.0108331, 0.271369, 1.03299, 0.34851, 0.655882, 0.0001, 45.5, 246, 22.3815, 0.0869437, 0, 0, 1, 0, 8749
-5512.23, 133275, -143.644, 3.1532, -709.649, 0.10446, 0.275028, 0.9175, 0.352806, 0.64323, 3, 455, 246, 22.3815, 0.0869437, 0, 0, 1, 0, 8749
-9405.3, 441931, -93.0162, 0.558014, -1133.68, 0.696311, 0.318968, 0.993198, 0.349787, 0.651995, 0.0001, 91, 246, 24.4688, 0.0493774, 0, 0, 1, 0, 8755
-8358.13, 485419, -102.451, 0.600248, -1275.58, 0.784054, 0.289441, 0.958125, 0.351078, 0.648177, 0.0001, 182, 246, 24.4688, 0.0493774, 0, 0, 1, 0, 8755
-9593.7, 229730, -175.467, 1.30374, -1171.05, 0.014882, 0.440441, 1.03299, 0.34851, 0.655882, 0.0001, 45.5, 246, 38.5271, 0.181444, 0, 0, 0, 0, 8757
-9593.7, 229730, -175.467, 1.30374, -1171.05, 0.014882, 0.440441, 1.03299, 0.34851, 0.655882, 3, 45.5, 246, 38.5271, 0.181444, 0, 0, 0, 0, 8757
-6656.72, 911079, -344.078, 0.0271166, -793.356, 0.0446423, 0.463265, 1.03299, 0.34851, 0.655882, 0.0001, 45.5, 246, 29.9323, 0.0964519, 0, 0, 0, 0, 8759
-6656.72, 911079, -344.078, 0.0271166, -793.356, 0.0446423, 0.463265, 1.03299, 0.34851, 0.655882, 3, 45.5, 246, 29.9323, 0.0964519, 0, 0, 0, 0, 8759
-5655.99, 926521, -354.783, 0.0280109, -799.247, 0.0449628, 0.436661, 0.993198, 0.349787, 0.651995, 3, 91, 246, 29.9323, 0.0964519, 0, 0, 1, 0, 8759
259.621, 494875, -316.306, 3.60304, -1194.99, 0.130459, 0.308347, 0.9175, 0.352806, 0.64323, 3, 455, 246, 32.2976, 0.0923694, 0, 0, 0, 0, 8765
-6058.05, 79375.1, -154.737, 3.34941, -902.86, -0.0190168, 0.241296, 1.03299, 0.34851, 0.655882, 0.0001, 45.5, 246, 44.5707, 0.159098, 1.04583, 1, 1, 0, 8768
-6058.05, 79375.1, -154.737, 3.34941, -902.86, -0.0190168, 0.241296, 1.03299, 0.34851, 0.655882, 3, 45.5, 246, 44.5707, 0.159098, 0, 0, 1, 0, 8768
-4584.44, 94178.6, -197.73, 3.65017, -920.086, 0.0347024, 0.253657, 0.993198, 0.349787, 0.651995, 0.0001, 91, 246, 44.5707, 0.159098, 1.04255, 1, 1, 0, 8768
-2513.16, 110516, -249.193, 4.00815, -952.333, 0.0996661, 0.284609, 0.958125, 0.351078, 0.648177, 0.0001, 182, 246, 44.5707, 0.159098, 1.36206, 1, 1, 0, 8768
-2513.16, 110516, -249.193, 4.00815, -952.333, 0.0996661, 0.284609, 0.958125, 0.351078, 0.648177, 3, 182, 246, 44.5707, 0.159098, 1.19747, 1, 1, 0, 8768
1524.41, 136338, -336.073, 4.61059, -1027.52, 0.211945, 0.359718, 0.9175, 0.352806, 0.64323, 0.0001, 455, 246, 44.5707, 0.159098, 3.50853, 1, 0, 0, 8768
1524.41, 136338, -336.073, 4.61059, -1027.52, 0.211945, 0.359718, 0.9175, 0.352806, 0.64323, 3, 455, 246, 44.5707, 0.159098, 3.51501, 1, 0, 0, 8768
271.948, 487677, -362.649, 2.90504, -1070.17, 0.0745902, 0.370757, 0.9175, 0.352806, 0.64323, 3, 455, 246, 34.9323, 0.125743, 0, 0, 0, 0, 8769
-8783.08, 150869, -158.808, 1.27815, -1110.26, 0.00617443, 0.464407, 1.03299, 0.34851, 0.655882, 0.0001, 45.5, 246, 42.3799, 0.248416, 0, 0, 1, 0, 8780
-8783.08, 150869, -158.808, 1.27815, -1110.26, 0.00617443, 0.464407, 1.03299, 0.34851, 0.655882, 3, 45.5, 246, 42.3799, 0.248416, 0, 0, 1, 0, 8780
-6474.55, -8440.94, -44.7862, 3.18382, -754.839, 0.0187312, 0.222826, 1.03299, 0.34851, 0.655882, 0.0001, 45.5, 246, 28.8182, 0.00503964, 0, 0, 1, 1, 8781
-6474.55, -8440.94, -44.7862, 3.18382, -754.839, 0.0187312, 0.222826, 1.03299, 0.34851, 0.655882, 3, 45.5, 246, 28.8182, 0.00503964, 0, 0, 1, 1, 8781
-7854.82, 112560, -156.13, 2.05171, -972.101, 0.151799, 0.398983, 1.03299, 0.34851, 0.655882, 3, 45.5, 246, 44.6638, 0.234154, 0, 0, 1, 0, 8783
-9260.01, 76486.5, -56.2108, 3.38307, -865.276, -0.0182754, 0.186611, 1.03299, 0.34851, 0.655882, 0.0001, 45.5, 246, 24.5415, 0.0784334, 0, 0, 1, 0, 8789
-9260.01, 76486.5, -56.2108, 3.38307, -865.276, -0.0182754, 0.186611, 1.03299, 0.34851, 0.655882, 3, 45.5, 246, 24.5415, 0.0784334, 0, 0, 1, 0, 8789
-6552.7, 103043, -128.81, 4.04187, -893.763, 0.102639, 0.225534, 0.958125, 0.351078, 0.648177, 3, 182, 246, 24.5415, 0.0784334, 0, 0, 1, 0, 8789
1388.85, 258716, -364.416, 4.12503, -938.093, 0.142185, 0.383671, 0.9175, 0.352806, 0.64323, 0.0001, 455, 246, 37.6824, 0.158457, 0, 0, 0, 0, 8791
1388.85, 258716, -364.416, 4.12503, -938.093, 0.142185, 0.383671, 0.9175, 0.352806, 0.64323, 3, 455, 246, 37.6824, 0.158457, 0, 0, 0, 0, 8791
-3221.3, 239386, -350.253, 4.10817, -946.38, 0.14862, 0.351982, 0.958125, 0.351078, 0.648177, 0.0001, 182, 246, 43.0918, 0.180623, 1.49743, 1, 0, 0, 8795
-3221.3, 239386, -350.253, 4.10817, -946.38, 0.14862, 0.351982, 0.958125, 0.351078, 0.648177, 3, 182, 246, 43.0918, 0.180623, 1.3085, 1, 0, 0, 8795
-5797.01, 85698.5, -176.128, 3.4786, -773.905, -0.0579973, 0.228704, 1.03299, 0.34851, 0.655882, 0.0001, 45.5, 246, 45.768, 0.160204, 1.19284, 1, 1, 0, 8808
-4123.81, 96616, -218.263, 3.7915, -789.077, 8.38569e-05, 0.244626, 0.993198, 0.349787, 0.651995, 0.0001, 91, 246, 45.768, 0.160204, 1.21168, 1, 1, 0, 8808
-4123.81, 96616, -218.263, 3.7915, -789.077, 8.38569e-05, 0.244626, 0.993198, 0.349787, 0.651995, 3, 91, 246, 45.768, 0.160204, 1.01847, 1, 1, 0, 8808
-1883.3, 108938, -268.74, 4.16642, -818.815, 0.06966, 0.280287, 0.958125, 0.351078, 0.648177, 0.0001, 182, 246, 45.768, 0.160204, 1.5355, 1, 1, 0, 8808
-1883.3, 108938, -268.74, 4.16642, -818.815, 0.06966, 0.280287, 0.958125, 0.351078, 0.648177, 3, 182, 246, 45.768, 0.160204, 1.39203, 1, 1, 0, 8808
2315.87, 129045, -354.275, 4.80313, -889.667, 0.18929, 0.364251, 0.9175, 0.352806, 0.64323, 0.0001, 455, 246, 45.768, 0.160204, 3.33869, 1, 0, 0, 8808
2315.87, 129045, -354.275, 4.80313, -889.667, 0.18929, 0.364251, 0.9175, 0.352806, 0.64323, 3, 455, 246, 45.768, 0.160204, 3.34174, 1, 0, 0, 8808
-8144.04, 245112, -232.709, 1.26624, -953.881, 0.00267714, 0.480376, 0.993198, 0.349787, 0.651995, 0.0001, 91, 246, 41.2492, 0.224794, 0, 0, 1, 0, 8809
-6180.83, -5980.43, -55.2807, 3.29573, -696.282, 0.0771413, 0.209635, 1.03299, 0.34851, 0.655882, 3, 45.5, 246, 30.8904, 0.000123324, 0, 0, 1, 1, 8812
-7468.59, 136271, -201.261, 2.52318, -1154.73, 0.035446, 0.415375, 1.03299, 0.34851, 0.655882, 0.0001, 45.5, 246, 50.2743, 0.248314, 0, 0, 1, 0, 8815
-7468.59, 136271, -201.261, 2.52318, -1154.73, 0.035446, 0.415375, 1.03299, 0.34851, 0.655882, 3, 45.5, 246, 50.2743, 0.248314, 0, 0, 1, 0, 8815
-5508.71, 161120, -244.749, 2.72619, -1179.4, 0.066066, 0.416143, 0.993198, 0.349787, 0.651995, 0.0001, 91, 246, 50.2743, 0.248314, 0, 0, 1, 0, 8815
-5508.71, 161120, -244.749, 2.72619, -1179.4, 0.066066, 0.416143, 0.993198, 0.349787, 0.651995, 3, 91, 246, 50.2743, 0.248314, 0, 0, 1, 0, 8815
-7065.72, -38.8779, -48.8169, 3.53395, -1125.58, 0.00502308, 0.232044, 0.993198, 0.349787, 0.651995, 0.0001, 91, 246, 22.1181, 0.0482531, 0, 0, 1, 1, 8816
-9061.94, 98386.7, -38.0595, 2.41358, -1183.4, 0.0287537, 0.264826, 0.993198, 0.349787, 0.651995, 0.0001, 91, 246, 18.727, 0.0619632, 0, 0, 1, 0, 8817
-9061.94, 98386.7, -38.0595, 2.41358, -1183.4, 0.0287537, 0.264826, 0.993198, 0.349787, 0.651995, 3, 91, 246, 18.727, 0.0619632, 0, 0, 1, 0, 8817
-7203.52, 734674, -311.097, 0.29231, -1168.66, 0.0344379, 0.466696, 1.03299, 0.34851, 0.655882, 0.0001, 45.5, 246, 37.6548, 0.108312, 0, 0, 0, 0, 8821
-7203.52, 734674, -311.097, 0.29231, -1168.66, 0.0344379, 0.466696, 1.03299, 0.34851, 0.655882, 3, 45.5, 246, 37.6548, 0.108312, 0, 0, 0, 0, 8821
-11268.4, 367385, -218.202, 0.954423, -793.415, -0.00403124, 0.451847, 1.03299, 0.34851, 0.655882, 0.0001, 45.5, 246, 32.4203, 0.150467, 0, 0, 0, 0, 8822
-11268.4, 367385, -218.202, 0.954423, -793.415, -0.00403124, 0.451847, 1.03299, 0.34851, 0.655882, 3, 45.5, 246, 32.4203, 0.150467, 0, 0, 0, 0, 8822
-10740.7, 853626, -61.831, 0.241569, -1036.53, 0.707485, 0.343441, 1.03299, 0.34851, 0.655882, 0.0001, 45.5, 246, 25.6981, 0.0166969, 0, 0, 1, 0, 8824
-10740.7, 853626, -61.831, 0.241569, -1036.53, 0.707485, 0.343441, 1.03299, 0.34851, 0.655882, 3, 45.5, 246, 25.6981, 0.0166969, 0, 0, 1, 0, 8824
-10010.8, 909733, -66.2121, 0.259148, -1167.47, 0.796844, 0.307616, 0.993198, 0.349787, 0.651995, 3, 91, 246, 25.6981, 0.0166969, 0, 0, 1, 0, 8824
-10880.1, 237844, -267.961, 1.63719, -647.38, 0.187123, 0.528091, 1.03299, 0.34851, 0.655882, 3, 45.5, 246, 42.8775, 0.241518, 0, 0, 0, 0, 8833
-5249.7, 123822, -247.444, 3.12631, -862.89, -0.0468586, 0.361817, 1.03299, 0.34851, 0.655882, 0.0001, 45.5, 246, 56.0521, 0.247044, 1.38636, 1, 1, 0, 8834
-5249.7, 123822, -247.444, 3.12631, -862.89, -0.0468586, 0.361817, 1.03299, 0.34851, 0.655882, 3, 45.5, 246, 56.0521, 0.247044, 1.23222, 1, 1, 0, 8834
-2844.66, 138062, -295.322, 3.39816, -882.85, -9.55529e-05, 0.375372, 0.993198, 0.349787, 0.651995, 0.0001, 91, 246, 56.0521, 0.247044, 1.62716, 1, 1, 0, 8834
-2844.66, 138062, -295.322, 3.39816, -882.85, -9.55529e-05, 0.375372, 0.993198, 0.349787, 0.651995, 3, 91, 246, 56.0521, 0.247044, 1.50814, 1, 1, 0, 8834
315.351, 154202, -351.961, 3.71799, -916.934, 0.0555205, 0.405635, 0.958125, 0.351078, 0.648177, 0.0001, 182, 246, 56.0521, 0.247044, 2.90375, 1, 0, 0, 8834
315.351, 154202, -351.961, 3.71799, -916.934, 0.0555205, 0.405635, 0.958125, 0.351078, 0.648177, 3, 182, 246, 56.0521, 0.247044, 2.7315, 1, 0, 0, 8834
-10457.6, 480591, -230.078, 0.741573, -1046.36, -0.00181713, 0.442414, 1.03299, 0.34851, 0.655882, 0.0001, 45.5, 246, 34.4108, 0.12358, 0, 0, 0, 0, 8836
-10457.6, 480591, -230.078, 0.741573, -1046.36, -0.00181713, 0.442414, 1.03299, 0.34851, 0.655882, 3, 45.5, 246, 34.4108, 0.12358, 0, 0, 0, 0, 8836
-10803.8, 422757, -103.397, 0.601477, -846.472, 0.2533, 0.359721, 1.03299, 0.34851, 0.655882, 0.0001, 45.5, 246, 22.9513, 0.0613256, 0, 0, 1, 0, 8850
-10803.8, 422757, -103.397, 0.601477, -846.472, 0.2533, 0.359721, 1.03299, 0.34851, 0.655882, 3, 45.5, 246, 22.9513, 0.0613256, 0, 0, 1, 0, 8850
-9807.39, 441887, -112.135, 0.633129, -883.671, 0.265603, 0.326534, 0.993198, 0.349787, 0.651995, 3, 91, 246, 22.9513, 0.0613256, 0, 0, 1, 0, 8850
-8621.58, 462851, -121.431, 0.665492, -924.56, 0.279171, 0.297901, 0.958125, 0.351078, 0.648177, 0.0001, 182, 246, 22.9513, 0.0613256, 0, 0, 1, 0, 8850
-7359.95, 151958, -79.64, 1.81892, -1185.75, 0.965766, 0.255544, 0.9175, 0.352806, 0.64323, 0.0001, 455, 246, 16.7912, 0.0670274, 0, 0, 1, 0, 8852
-7359.95, 151958, -79.64, 1.81892, -1185.75, 0.965766, 0.255544, 0.9175, 0.352806, 0.64323, 3, 455, 246, 16.7912, 0.0670274, 0, 0, 1, 0, 8852
-3225.91, 361145, -438.002, 4.21073, -1169.7, 0.146996, 0.41298, 0.958125, 0.351078, 0.648177, 3, 182, 246, 45.9084, 0.184822, 0, 0, 0, 0, 8864
-10459.3, 322607, -140.827, 0.813732, -836.039, 0.110757, 0.390095, 1.03299, 0.34851, 0.655882, 0.0001, 45.5, 246, 27.1636, 0.109052, 0, 0, 1, 0, 8866
-10459.3, 322607, -140.827, 0.813732, -836.039, 0.110757, 0.390095, 1.03299, 0.34851, 0.655882, 3, 45.5, 246, 27.1636, 0.109052, 0, 0, 1, 0, 8866
-9336.16, 337349, -153.224, 0.853949, -854.393, 0.115837, 0.36065, 0.993198, 0.349787, 0.651995, 0.0001, 91, 246, 27.1636, 0.109052, 0, 0, 1, 0, 8866
-10024.8, 400802, -291.556, 0.395569, -600.367, -0.000716795, 0.54885, 1.03299, 0.34851, 0.655882, 0.0001, 45.5, 246, 33.9457, 0.192179, 0, 0, 0, 0, 8867
-10024.8, 400802, -291.556, 0.395569, -600.367, -0.000716795, 0.54885, 1.03299, 0.34851, 0.655882, 3, 45.5, 246, 33.9457, 0.192179, 0, 0, 0, 0, 8867
-8828.03, 408653, -305.341, 0.411315, -603.504, -2.15356e-06, 0.530826, 0.993198, 0.349787, 0.651995, 0.0001, 91, 246, 33.9457, 0.192179, 0, 0, 1, 0, 8867
-5710.04, -7947.52, -64.1849, 3.53304, -720.927, -0.0599, 0.19054, 1.03299, 0.34851, 0.655882, 0.0001, 45.5, 246, 33.7953, 0.0130391, 0, 0, 1, 1, 8870
-5710.04, -7947.52, -64.1849, 3.53304, -720.927, -0.0599, 0.19054, 1.03299, 0.34851, 0.655882, 3, 45.5, 246, 33.7953, 0.0130391, 0, 0, 1, 1, 8870
-11398.3, 326860, -107.668, 0.987407, -865.872, -0.00373626, 0.361615, 1.03299, 0.34851, 0.655882, 3, 45.5, 246, 24.6541, 0.0840283, 0, 0, 1, 0, 8873
-10095.4, 340075, -120.439, 1.03237, -868.696, 0.000741602, 0.331474, 0.993198, 0.349787, 0.651995, 3, 91, 246, 24.6541, 0.0840283, 0, 0, 1, 0, 8873
-7487.76, 420007, -508.674, 4.19654, -716.489, 0.0706593, 0.470228, 0.958125, 0.351078, 0.648177, 0.0001, 182, 246, 41.5399, 0.192009, 2.43677, 1, 0, 0, 8874
-7487.76, 420007, -508.674, 4.19654, -716.489, 0.0706593, 0.470228, 0.958125, 0.351078, 0.648177, 3, 182, 246, 41.5399, 0.192009, 2.36212, 1, 0, 0, 8874
-4778.25, 78339.4, -191.261, 2.89991, -610.806, -0.0347087, 0.302559, 1.03299, 0.34851, 0.655882, 0.0001, 45.5, 246, 51.9381, 0.19966, 1.34389, 1, 1, 0, 8875
-4778.25, 78339.4, -191.261, 2.89991, -610.806, -0.0347087, 0.302559, 1.03299, 0.34851, 0.655882, 3, 45.5, 246, 51.9381, 0.19966, 1.16078, 1, 1, 0, 8875
-3423.2, 85510.8, -223.915, 3.13471, -625.796, 0.00526221, 0.304804, 0.993198, 0.349787, 0.651995, 0.0001, 91, 246, 51.9381, 0.19966, 1.37666, 1, 1, 0, 8875
-3423.2, 85510.8, -223.915, 3.13471, -625.796, 0.00526221, 0.304804, 0.993198, 0.349787, 0.651995, 3, 91, 246, 51.9381, 0.19966, 1.21262, 1, 1, 0, 8875
-1684.95, 93652.4, -261.943, 3.40581, -649.516, 0.0522855, 0.321167, 0.958125, 0.351078, 0.648177, 0.0001, 182, 246, 51.9381, 0.19966, 1.59488, 1, 1, 0, 8875
-1684.95, 93652.4, -261.943, 3.40581, -649.516, 0.0522855, 0.321167, 0.958125, 0.351078, 0.648177, 3, 182, 246, 51.9381, 0.19966, 1.45184, 1, 1, 0, 8875
1396.43, 106735, -323.57, 3.84256, -698.899, 0.129995, 0.366934, 0.9175, 0.352806, 0.64323, 0.0001, 455, 246, 51.9381, 0.19966, 2.37577, 1, 1, 1, 8875
1396.43, 106735, -323.57, 3.84256, -698.899, 0.129995, 0.366934, 0.9175, 0.352806, 0.64323, 3, 455, 246, 51.9381, 0.19966, 2.28308, 1, 1, 1, 8875
-7194.65, -7539.82, -30.0935, 2.78291, -668.679, -0.0283819, 0.254069, 1.03299, 0.34851, 0.655882, 0.0001, 45.5, 246, 23.0867, 0.0156993, 0, 0, 1, 1, 8881
-7194.65, -7539.82, -30.0935, 2.78291, -668.679, -0.0283819, 0.254069, 1.03299, 0.34851, 0.655882, 3, 45.5, 246, 23.0867, 0.0156993, 0, 0, 1, 1, 8881
-5976.34, 91409.9, -202.369, 2.87253, -505.855, 0.804293, 0.284836, 1.03299, 0.34851, 0.655882, 0.0001, 45.5, 246, 45.1959, 0.170898, 1.30309, 1, 1, 0, 8882
-5976.34, 91409.9, -202.369, 2.87253, -505.855, 0.804293, 0.284836, 1.03299, 0.34851, 0.655882, 3, 45.5, 246, 45.1959, 0.170898, 1.14101, 1, 1, 0, 8882
-4398.05, 101776, -234.361, 3.25621, -600.302, 0.968581, 0.287039, 0.993198, 0.349787, 0.651995, 0.0001, 91, 246, 45.1959, 0.170898, 1.24464, 1, 1, 0, 8882
-4398.05, 101776, -234.361, 3.25621, -600.302, 0.968581, 0.287039, 0.993198, 0.349787, 0.651995, 3, 91, 246, 45.1959, 0.170898, 1.08178, 1, 1, 0, 8882
-2239.31, 116685, -276.431, 3.75267, -737.524, 1.20723, 0.309178, 0.958125, 0.351078, 0.648177, 0.0001, 182, 246, 45.1959, 0.170898, 1.48105, 1, 1, 0, 8882
-2239.31, 116685, -276.431, 3.75267, -737.524, 1.20723, 0.309178, 0.958125, 0.351078, 0.648177, 3, 182, 246, 45.1959, 0.170898, 1.34298, 1, 1, 0, 8882
2128.35, 150391, -359.775, 4.7172, -1051.99, 1.75351, 0.381493, 0.9175, 0.352806, 0.64323, 0.0001, 455, 246, 45.1959, 0.170898, 5.4034, 1, 0, 0, 8882
2128.35, 150391, -359.775, 4.7172, -1051.99, 1.75351, 0.381493, 0.9175, 0.352806, 0.64323, 3, 455, 246, 45.1959, 0.170898, 5.44134, 1, 0, 0, 8882
-10668.8, 645859, -123.956, 0.460399, -1095.95, 0.0575064, 0.361168, 1.03299, 0.34851, 0.655882, 0.0001, 45.5, 246, 28.3216, 0.0495741, 0, 0, 1, 0, 8889
-10668.8, 645859, -123.956, 0.460399, -1095.95, 0.0575064, 0.361168, 1.03299, 0.34851, 0.655882, 3, 45.5, 246, 28.3216, 0.0495741, 0, 0, 0, 0, 8889
-10375.5, 180320, -148.594, 1.82253, -725.626, -0.0154625, 0.377837, 1.03299, 0.34851, 0.655882, 0.0001, 45.5, 246, 33.0228, 0.164527, 0, 0, 1, 0, 8897
-10375.5, 180320, -148.594, 1.82253, -725.626, -0.0154625, 0.377837, 1.03299, 0.34851, 0.655882, 3, 45.5, 246, 33.0228, 0.164527, 0, 0, 1, 0, 8897
-8892.73, 189699, -170.237, 1.93529, -732.605, 4.09034e-05, 0.360339, 0.993198, 0.349787, 0.651995, 3, 91, 246, 33.0228, 0.164527, 0, 0, 1, 0, 8897
-6171.93, 103823, -195.995, 2.64687, -825.515, 0.648619, 0.347307, 1.03299, 0.34851, 0.655882, 0.0001, 45.5, 246, 49.3242, 0.217945, 1.14837, 1, 1, 0, 8898
-4527.91, 122140, -233.942, 2.96358, -939.099, 0.761142, 0.347116, 0.993198, 0.349787, 0.651995, 0.0001, 91, 246, 49.3242, 0.217945, 1.14316, 1, 1, 0, 8898
-4527.91, 122140, -233.942, 2.96358, -939.099, 0.761142, 0.347116, 0.993198, 0.349787, 0.651995, 3, 91, 246, 49.3242, 0.217945, 0, 0, 1, 0, 8898
-2175.37, 147044, -282.748, 3.35642, -1094.19, 0.91498, 0.363083, 0.958125, 0.351078, 0.648177, 0.0001, 182, 246, 49.3242, 0.217945, 1.53767, 1, 1, 0, 8898
-2175.37, 147044, -282.748, 3.35642, -1094.19, 0.91498, 0.363083, 0.958125, 0.351078, 0.648177, 3, 182, 246, 49.3242, 0.217945, 1.36193, 1, 1, 0, 8898
-16103.7, 404602, -479.817, 3.59869, -603.091, 0.40451, 0.487501, 0.993198, 0.349787, 0.651995, 0.0001, 91, 246, 41.9322, 0.20484, 1.01203, 1, 1, 0, 8899
-7171.09, 425729, -551.234, 4.05793, -701.224, 0.50078, 0.535969, 0.958125, 0.351078, 0.648177, 3, 182, 246, 41.9322, 0.20484, 0, 0, 0, 0, 8899
-7184.4, 202795, -47.3457, 2.07573, -1272.61, 0.877218, 0.243659, 0.9175, 0.352806, 0.64323, 0.0001, 455, 246, 11.3601, 0.0149264, 0, 0, 1, 0, 8906
-7184.4, 202795, -47.3457, 2.07573, -1272.61, 0.877218, 0.243659, 0.9175, 0.352806, 0.64323, 3, 455, 246, 11.3601, 0.0149264, 0, 0, 1, 0, 8906
-11525.1, 225721, -126.787, 1.81771, -961.17, 0.0142004, 0.352862, 1.03299, 0.34851, 0.655882, 0.0001, 45.5, 246, 30.5425, 0.124835, 0, 0, 1, 0, 8913
-11525.1, 225721, -126.787, 1.81771, -961.17, 0.0142004, 0.352862, 1.03299, 0.34851, 0.655882, 3, 45.5, 246, 30.5425, 0.124835, 0, 0, 1, 0, 8913
-4704.89, 317659, -438.498, 3.053, -738.295, 0.134807, 0.545202, 0.958125, 0.351078, 0.648177, 0.0001, 182, 246, 45.5561, 0.231603, 1.07865, 1, 0, 0, 8915
4142.5, 340794, -522.391, 3.46122, -819.69, 0.202031, 0.599375, 0.9175, 0.352806, 0.64323, 0.0001, 455, 246, 45.5561, 0.231603, 0, 0, 0, 0, 8915
4142.5, 340794, -522.391, 3.46122, -819.69, 0.202031, 0.599375, 0.9175, 0.352806, 0.64323, 3, 455, 246, 45.5561, 0.231603, 0, 0, 0, 0, 8915
-11581.5, 954797, -64.228, 0.260229, -783.734, 0.00149477, 0.343625, 1.03299, 0.34851, 0.655882, 0.0001, 45.5, 246, 20.4629, 0.0177918, 0, 0, 1, 0, 8916
-11581.5, 954797, -64.228, 0.260229, -783.734, 0.00149477, 0.343625, 1.03299, 0.34851, 0.655882, 3, 45.5, 246, 20.4629, 0.0177918, 0, 0, 1, 0, 8916
-12105.2, 295703, -284.498, 2.11251, -1046.52, 0.0837023, 0.500399, 1.03299, 0.34851, 0.655882, 0.0001, 45.5, 246, 45.6456, 0.214128, 0, 0, 0, 0, 8917
-9850.83, 521277, -54.088, 0.393435, -965.377, 0.00673286, 0.308204, 0.993198, 0.349787, 0.651995, 0.0001, 91, 246, 21.3762, 0.0263031, 0, 0, 1, 0, 8918
-10243.4, 562945, -80.171, 0.396184, -1147.02, 0.272413, 0.349499, 1.03299, 0.34851, 0.655882, 0.0001, 45.5, 246, 26.7415, 0.035759, 0, 0, 1, 0, 8919
-10243.4, 562945, -80.171, 0.396184, -1147.02, 0.272413, 0.349499, 1.03299, 0.34851, 0.655882, 3, 45.5, 246, 26.7415, 0.035759, 0, 0, 1, 0, 8919
-9410.82, 595662, -87.1625, 0.415794, -1199.6, 0.285423, 0.314578, 0.993198, 0.349787, 0.651995, 0.0001, 91, 246, 26.7415, 0.035759, 0, 0, 1, 0, 8919
-8404.29, 631674, -94.5896, 0.435651, -1257.38, 0.299738, 0.284066, 0.958125, 0.351078, 0.648177, 0.0001, 182, 246, 26.7415, 0.035759, 0, 0, 1, 0, 8919
708.372, 371920, -347.984, 3.32826, -1112.19, 0.0953143, 0.369177, 0.9175, 0.352806, 0.64323, 3, 455, 246, 36.0803, 0.138703, 0, 0, 0, 0, 8922
-6732.34, 16279.1, -64.1739, 3.7731, -1185.75, 0.00210706, 0.21503, 0.993198, 0.349787, 0.651995, 0.0001, 91, 246, 24.8633, 0.0659145, 0, 0, 1, 1, 8929
-6732.34, 16279.1, -64.1739, 3.7731, -1185.75, 0.00210706, 0.21503, 0.993198, 0.349787, 0.651995, 3, 91, 246, 24.8633, 0.0659145, 0, 0, 1, 1, 8929
-8978.25, 365839, -303.345, 0.235167, -692.583, 0.144173, 0.592035, 1.03299, 0.34851, 0.655882, 0.0001, 45.5, 246, 37.9524, 0.220554, 0, 0, 0, 0, 8938
-11467.2, 367457, -134.986, 0.982645, -999.613, 0.235744, 0.374272, 1.03299, 0.34851, 0.655882, 0.0001, 45.5, 246, 28.3941, 0.0908215, 0, 0, 0, 0, 8939
-11467.2, 367457, -134.986, 0.982645, -999.613, 0.235744, 0.374272, 1.03299, 0.34851, 0.655882, 3, 45.5, 246, 28.3941, 0.0908215, 0, 0, 0, 0, 8939
-7999.76, 416455, -167.396, 1.10215, -1090.34, 0.265023, 0.321023, 0.958125, 0.351078, 0.648177, 3, 182, 246, 28.3941, 0.0908215, 0, 0, 1, 0, 8939
-8935.87, 138510, -44.4566, 0.438172, -1122.63, 0.0766518, 0.358457, 1.03299, 0.34851, 0.655882, 0.0001, 45.5, 246, 20.7629, 0.0775062, 0, 0, 1, 0, 8969
-8935.87, 138510, -44.4566, 0.438172, -1122.63, 0.0766518, 0.358457, 1.03299, 0.34851, 0.655882, 3, 45.5, 246, 20.7629, 0.0775062, 0, 0, 1, 0, 8969
-9460.89, -66603.6, -6.1269, 0.174128, -824.221, 0.157052, 0.349738, 1.03299, 0.34851, 0.655882, 0.0001, 45.5, 246, -49.4572, 0.122237, 0, 0, 1, 0, 8972
-9460.89, -66603.6, -6.1269, 0.174128, -824.221, 0.157052, 0.349738, 1.03299, 0.34851, 0.655882, 3, 45.5, 246, -49.4572, 0.122237, 0, 0, 1, 0, 8972
-11409, 209786, -10.1121, 1.20316, -989.043, 0.287936, 0.320587, 1.03299, 0.34851, 0.655882, 0.0001, 45.5, 246, 16.6575, 0.0252964, 0, 0, 1, 0, 8975
-10488.5, 231019, -21.9106, 1.28178, -1037.28, 0.30876, 0.289855, 0.993198, 0.349787, 0.651995, 0.0001, 91, 246, 16.6575, 0.0252964, 0, 0, 1, 0, 8975
-10493, 529505, -347.764, 0.513145, -810.724, 0.00227331, 0.56293, 1.03299, 0.34851, 0.655882, 3, 45.5, 246, 36.777, 0.172511, 0, 0, 0, 0, 8980
-8706.74, 84233.8, -81.8139, 2.13062, -872.603, -0.0108085, 0.317323, 1.03299, 0.34851, 0.655882, 0.0001, 45.5, 246, 30.4572, 0.136038, 0, 0, 1, 0, 8988
-8706.74, 84233.8, -81.8139, 2.13062, -872.603, -0.0108085, 0.317323, 1.03299, 0.34851, 0.655882, 3, 45.5, 246, 30.4572, 0.136038, 0, 0, 1, 0, 8988
-12216.2, 223021, -93.6311, 2.01924, -1103.62, 0.0605765, 0.317351, 1.03299, 0.34851, 0.655882, 0.0001, 45.5, 246, 28.5383, 0.0969511, 0, 0, 0, 0, 8991
-12216.2, 223021, -93.6311, 2.01924, -1103.62, 0.0605765, 0.317351, 1.03299, 0.34851, 0.655882, 3, 45.5, 246, 28.5383, 0.0969511, 0, 0, 0, 0, 8991
-9519.33, 188192, -217.458, 2.68857, -1139.42, -0.0338891, 0.396993, 1.03299, 0.34851, 0.655882, 3, 45.5, 246, 46.3977, 0.211237, 0, 0, 0, 0, 8993
-3210.12, 237022, -318.22, 3.14592, -1180.85, 0.0405977, 0.41672, 0.958125, 0.351078, 0.648177, 3, 182, 246, 46.3977, 0.211237, 0, 0, 0, 0, 8993
-1671.1, 96907.9, -262.003, 4.76965, -956.022, 0.936051, 0.324625, 0.9175, 0.352806, 0.64323, 0.0001, 455, 246, 37.0808, 0.105451, 1.32649, 1, 1, 0, 8995
-1671.1, 96907.9, -262.003, 4.76965, -956.022, 0.936051, 0.324625, 0.9175, 0.352806, 0.64323, 3, 455, 246, 37.0808, 0.105451, 1.28214, 1, 1, 0, 8995
-5965.1, 82231.4, -168.404, 2.53422, -700.171, 0.237597, 0.333549, 1.03299, 0.34851, 0.655882, 0.0001, 45.5, 246, 48.4358, 0.209008, 1.07088, 1, 1, 0, 8996
-4797.43, 92872.8, -198.496, 2.76312, -742.279, 0.278851, 0.328529, 0.993198, 0.349787, 0.651995, 0.0001, 91, 246, 48.4358, 0.209008, 1.02348, 1, 1, 0, 8996
-3230, 105429, -234.284, 3.02753, -795.606, 0.33018, 0.336036, 0.958125, 0.351078, 0.648177, 0.0001, 182, 246, 48.4358, 0.209008, 1.19968, 1, 1, 0, 8996
-3230, 105429, -234.284, 3.02753, -795.606, 0.33018, 0.336036, 0.958125, 0.351078, 0.648177, 3, 182, 246, 48.4358, 0.209008, 1.03071, 1, 1, 0, 8996
-315.889, 126313, -293.675, 3.45389, -890.789, 0.420023, 0.367241, 0.9175, 0.352806, 0.64323, 0.0001, 455, 246, 48.4358, 0.209008, 2.09903, 1, 0, 0, 8996
-315.889, 126313, -293.675, 3.45389, -890.789, 0.420023, 0.367241, 0.9175, 0.352806, 0.64323, 3, 455, 246, 48.4358, 0.209008, 2.05932, 1, 0, 0, 8996
