-12732.4, 703386, -19.8287, 0.433673, -1156.84, 0.0710166, 0.337929, 1.03299, 0.34851, 0.655882, 0.0001, 45.5, 246, 25.1764, 0.00937446, 0, 0, 1, 0, 76503
-10027.2, 682403, -441.331, 0.08049, -599.156, 0.0186905, 0.617287, 1.03299, 0.34851, 0.655882, 3, 45.5, 246, 33.2953, 0.169848, 0, 0, 0, 0, 76505
-9514.78, 107741, -82.9942, 2.2659, -821.598, -0.0165974, 0.302703, 1.03299, 0.34851, 0.655882, 0.0001, 45.5, 246, 27.9476, 0.118337, 0, 0, 1, 0, 76506
-9514.78, 107741, -82.9942, 2.2659, -821.598, -0.0165974, 0.302703, 1.03299, 0.34851, 0.655882, 3, 45.5, 246, 27.9476, 0.118337, 0, 0, 1, 0, 76506
-9294.8, 75858.7, -42.1459, 2.14868, -810.875, -0.00944396, 0.292774, 1.03299, 0.34851, 0.655882, 0.0001, 45.5, 246, 21.1658, 0.0834711, 0, 0, 1, 0, 76513
-9294.8, 75858.7, -42.1459, 2.14868, -810.875, -0.00944396, 0.292774, 1.03299, 0.34851, 0.655882, 3, 45.5, 246, 21.1658, 0.0834711, 0, 0, 1, 0, 76513
-11564.7, 418580, -118.77, 0.790299, -862.801, 0.00123779, 0.365255, 1.03299, 0.34851, 0.655882, 0.0001, 45.5, 246, 24.5424, 0.0737192, 0, 0, 1, 0, 76515
-11564.7, 418580, -118.77, 0.790299, -862.801, 0.00123779, 0.365255, 1.03299, 0.34851, 0.655882, 3, 45.5, 246, 24.5424, 0.0737192, 0, 0, 1, 0, 76515
-8793.28, 125487, -127.281, 1.15886, -951.205, -0.0061087, 0.431705, 1.03299, 0.34851, 0.655882, 0.0001, 45.5, 246, 38.5213, 0.236769, 0, 0, 1, 0, 76519
-8793.28, 125487, -127.281, 1.15886, -951.205, -0.0061087, 0.431705, 1.03299, 0.34851, 0.655882, 3, 45.5, 246, 38.5213, 0.236769, 0, 0, 1, 0, 76519
-8399.39, 155860, -63.4381, 4.42236, -944.102, 0.529626, 0.183547, 0.958125, 0.351078, 0.648177, 0.0001, 182, 246, 14.5744, 0.0305346, 0, 0, 1, 0, 76521
-8399.39, 155860, -63.4381, 4.42236, -944.102, 0.529626, 0.183547, 0.958125, 0.351078, 0.648177, 3, 182, 246, 14.5744, 0.0305346, 0, 0, 1, 0, 76521
-8866.16, 141196, -72.9247, 0.2516, -1096.68, 0.985517, 0.327177, 0.958125, 0.351078, 0.648177, 0.0001, 182, 246, 25.9743, 0.187443, 1.27567, 1, 1, 0, 76522
-8866.16, 141196, -72.9247, 0.2516, -1096.68, 0.985517, 0.327177, 0.958125, 0.351078, 0.648177, 3, 182, 246, 25.9743, 0.187443, 1.24025, 1, 1, 0, 76522
-10181.5, 270675, -264.457, 1.62744, -1152.08, 0.0686225, 0.532657, 1.03299, 0.34851, 0.655882, 0.0001, 45.5, 246, 46.5307, 0.23004, 0, 0, 0, 0, 76524
-10181.5, 270675, -264.457, 1.62744, -1152.08, 0.0686225, 0.532657, 1.03299, 0.34851, 0.655882, 3, 45.5, 246, 46.5307, 0.23004, 0, 0, 0, 0, 76524
-5594.03, 355796, -222.228, 0.744622, -987.288, 0.30463, 0.366848, 0.9175, 0.352806, 0.64323, 0.0001, 455, 246, 31.7888, 0.153801, 0, 0, 0, 0, 76529
-5594.03, 355796, -222.228, 0.744622, -987.288, 0.30463, 0.366848, 0.9175, 0.352806, 0.64323, 3, 455, 246, 31.7888, 0.153801, 0, 0, 0, 0, 76529
-7761.42, -3376.25, -23.7396, 3.07848, -985.843, 0.00924554, 0.248739, 0.993198, 0.349787, 0.651995, 3, 91, 246, 14.2672, 0.0525714, 0, 0, 1, 1, 76530
-9858.32, 136370, -141.235, 2.66867, -778.713, 0.739372, 0.28713, 1.03299, 0.34851, 0.655882, 3, 45.5, 246, 33.761, 0.137471, 0, 0, 0, 0, 76536
-367.016, 234598, -300.745, 4.19806, -1420.54, 1.48755, 0.347593, 0.9175, 0.352806, 0.64323, 3, 455, 246, 33.761, 0.137471, 1.21327, 1, 0, 0, 76536
-8679.99, 195502, -307.893, 3.49436, -970.339, 0.400154, 0.360151, 1.03299, 0.34851, 0.655882, 0.0001, 45.5, 246, 53.149, 0.226995, 1.24209, 1, 0, 0, 76552
-8679.99, 195502, -307.893, 3.49436, -970.339, 0.400154, 0.360151, 1.03299, 0.34851, 0.655882, 3, 45.5, 246, 53.149, 0.226995, 1.14911, 1, 0, 0, 76552
-4480.78, 220231, -372.47, 3.92382, -1075.07, 0.491572, 0.387618, 0.993198, 0.349787, 0.651995, 0.0001, 91, 246, 53.149, 0.226995, 1.61474, 1, 1, 0, 76552
-4480.78, 220231, -372.47, 3.92382, -1075.07, 0.491572, 0.387618, 0.993198, 0.349787, 0.651995, 3, 91, 246, 53.149, 0.226995, 1.46988, 1, 1, 0, 76552
1304.82, 252946, -455.889, 4.46495, -1220.32, 0.616598, 0.441025, 0.958125, 0.351078, 0.648177, 0.0001, 182, 246, 53.149, 0.226995, 0, 0, 0, 0, 76552
1304.82, 252946, -455.889, 4.46495, -1220.32, 0.616598, 0.441025, 0.958125, 0.351078, 0.648177, 3, 182, 246, 53.149, 0.226995, 0, 0, 0, 0, 76552
-10070.8, 332557, -286.248, 0.909127, -926.698, 0.117524, 0.565463, 1.03299, 0.34851, 0.655882, 0.0001, 45.5, 246, 41.9817, 0.218703, 0, 0, 0, 0, 76556
-10070.8, 332557, -286.248, 0.909127, -926.698, 0.117524, 0.565463, 1.03299, 0.34851, 0.655882, 3, 45.5, 246, 41.9817, 0.218703, 0, 0, 0, 0, 76556
-12299.9, 227005, -67.4023, 1.68771, -1016.39, 0.741051, 0.314637, 1.03299, 0.34851, 0.655882, 3, 45.5, 246, 24.2773, 0.0686414, 0, 0, 1, 0, 76559
-7805.41, 730534, -392.383, 0.144314, -870.247, 0.0458393, 0.543316, 1.03299, 0.34851, 0.655882, 0.0001, 45.5, 246, 35.4707, 0.139223, 0, 0, 0, 0, 76564
-7805.41, 730534, -392.383, 0.144314, -870.247, 0.0458393, 0.543316, 1.03299, 0.34851, 0.655882, 3, 45.5, 246, 35.4707, 0.139223, 0, 0, 0, 0, 76564
-6482.92, 80032.8, -121.331, 3.41295, -1057.41, 0.803491, 0.281952, 0.9175, 0.352806, 0.64323, 3, 455, 246, 20.0723, 0.0666291, 0, 0, 1, 0, 76566
-7268, -19063.5, 6.3183, 3.08452, -1018.91, 0.052755, 0.229513, 1.03299, 0.34851, 0.655882, 0.0001, 45.5, 246, 14.0107, 0.0547424, 0, 0, 1, 0, 76568
-7268, -19063.5, 6.3183, 3.08452, -1018.91, 0.052755, 0.229513, 1.03299, 0.34851, 0.655882, 3, 45.5, 246, 14.0107, 0.0547424, 0, 0, 1, 0, 76568
-7585.14, -1089.74, -23.2681, 3.35567, -1031.79, 0.0991242, 0.232668, 0.993198, 0.349787, 0.651995, 3, 91, 246, 14.0107, 0.0547424, 0, 0, 1, 1, 76568
-7015.26, 210986, -185.91, 4.15798, -986.689, 0.431571, 0.227355, 0.958125, 0.351078, 0.648177, 0.0001, 182, 246, 27.5786, 0.09198, 0, 0, 0, 0, 76569
-7015.26, 210986, -185.91, 4.15798, -986.689, 0.431571, 0.227355, 0.958125, 0.351078, 0.648177, 3, 182, 246, 27.5786, 0.09198, 0, 0, 0, 0, 76569
-8574.97, 285282, -402.054, 3.59596, -852.948, 0.348517, 0.444742, 0.993198, 0.349787, 0.651995, 0.0001, 91, 246, 48.2814, 0.220709, 1.20435, 1, 1, 0, 76571
-8574.97, 285282, -402.054, 3.59596, -852.948, 0.348517, 0.444742, 0.993198, 0.349787, 0.651995, 3, 91, 246, 48.2814, 0.220709, 1.0833, 1, 1, 0, 76571
-9347.92, 900218, -47.6268, 1.29339, -944.433, 0.0371916, 0.230799, 0.9175, 0.352806, 0.64323, 3, 455, 246, 21.6812, 0.00741472, 0, 0, 1, 0, 76573
-8882.43, 209451, -316.508, 3.60721, -1090.62, 0.0912655, 0.38064, 1.03299, 0.34851, 0.655882, 0.0001, 45.5, 246, 55.2137, 0.23695, 1.17986, 1, 0, 0, 76582
-8882.43, 209451, -316.508, 3.60721, -1090.62, 0.0912655, 0.38064, 1.03299, 0.34851, 0.655882, 3, 45.5, 246, 55.2137, 0.23695, 1.08128, 1, 0, 0, 76582
-4295.48, 234527, -386.974, 3.9915, -1147.42, 0.156918, 0.412852, 0.993198, 0.349787, 0.651995, 0.0001, 91, 246, 55.2137, 0.23695, 1.65928, 1, 1, 0, 76582
-4295.48, 234527, -386.974, 3.9915, -1147.42, 0.156918, 0.412852, 0.993198, 0.349787, 0.651995, 3, 91, 246, 55.2137, 0.23695, 1.56188, 1, 1, 0, 76582
-6810.03, 126840, -219.112, 3.43766, -888.628, 0.299571, 0.270572, 1.03299, 0.34851, 0.655882, 0.0001, 45.5, 246, 48.12, 0.190014, 1.19424, 1, 0, 0, 76586
-6810.03, 126840, -219.112, 3.43766, -888.628, 0.299571, 0.270572, 1.03299, 0.34851, 0.655882, 3, 45.5, 246, 48.12, 0.190014, 1.05391, 1, 0, 0, 76586
-4268.66, 144897, -270.142, 3.82359, -960.961, 0.375167, 0.288996, 0.993198, 0.349787, 0.651995, 0.0001, 91, 246, 48.12, 0.190014, 1.35258, 1, 1, 0, 76586
-4268.66, 144897, -270.142, 3.82359, -960.961, 0.375167, 0.288996, 0.993198, 0.349787, 0.651995, 3, 91, 246, 48.12, 0.190014, 1.20325, 1, 1, 0, 76586
-757.242, 167647, -334.732, 4.30004, -1060.66, 0.475742, 0.330397, 0.958125, 0.351078, 0.648177, 0.0001, 182, 246, 48.12, 0.190014, 2.26617, 1, 0, 0, 76586
-757.242, 167647, -334.732, 4.30004, -1060.66, 0.475742, 0.330397, 0.958125, 0.351078, 0.648177, 3, 182, 246, 48.12, 0.190014, 2.11491, 1, 0, 0, 76586
-11394.2, 264398, -77.8942, 1.28544, -1150.93, -0.00426517, 0.342048, 1.03299, 0.34851, 0.655882, 0.0001, 45.5, 246, 26.3016, 0.0762531, 0, 0, 1, 0, 76587
-11394.2, 264398, -77.8942, 1.28544, -1150.93, -0.00426517, 0.342048, 1.03299, 0.34851, 0.655882, 3, 45.5, 246, 26.3016, 0.0762531, 0, 0, 1, 0, 76587
-8318.22, 311147, -114.611, 1.41786, -1159.04, 0.0117812, 0.291012, 0.958125, 0.351078, 0.648177, 3, 182, 246, 26.3016, 0.0762531, 0, 0, 1, 0, 76587
-7229.88, 96262.7, -126.412, 2.21863, -1122.56, 0.000750049, 0.33264, 0.993198, 0.349787, 0.651995, 0.0001, 91, 246, 38.0223, 0.188746, 0, 0, 1, 0, 76593
-7229.88, 96262.7, -126.412, 2.21863, -1122.56, 0.000750049, 0.33264, 0.993198, 0.349787, 0.651995, 3, 91, 246, 38.0223, 0.188746, 0, 0, 1, 0, 76593
-7961.41, 804373, -303.782, 0.095909, -714.29, 0.052347, 0.449854, 1.03299, 0.34851, 0.655882, 0.0001, 45.5, 246, 27.6617, 0.0967837, 0, 0, 0, 0, 76597
-7961.41, 804373, -303.782, 0.095909, -714.29, 0.052347, 0.449854, 1.03299, 0.34851, 0.655882, 3, 45.5, 246, 27.6617, 0.0967837, 0, 0, 0, 0, 76597
-6995.51, 817324, -313.954, 0.0991979, -721.047, 0.0528257, 0.422142, 0.993198, 0.349787, 0.651995, 3, 91, 246, 27.6617, 0.0967837, 0, 0, 1, 0, 76597
-11120.2, 740600, -103.176, 0.345826, -804.162, 0.192663, 0.352407, 1.03299, 0.34851, 0.655882, 0.0001, 45.5, 246, 21.8587, 0.0352383, 0, 0, 1, 0, 76599
-11120.2, 740600, -103.176, 0.345826, -804.162, 0.192663, 0.352407, 1.03299, 0.34851, 0.655882, 3, 45.5, 246, 21.8587, 0.0352383, 0, 0, 1, 0, 76599
-12659.3, 397968, -16.2056, 0.789227, -689.523, 0.0180015, 0.331257, 1.03299, 0.34851, 0.655882, 0.0001, 45.5, 246, 14.061, 0.0143705, 0, 0, 1, 0, 76609
-10285.1, 415373, -27.9066, 0.855339, -695.06, 0.0240816, 0.267959, 0.958125, 0.351078, 0.648177, 0.0001, 182, 246, 14.061, 0.0143705, 0, 0, 1, 0, 76609
-9692.2, 929084, -159.898, 0.177093, -682.184, 0.634791, 0.363367, 1.03299, 0.34851, 0.655882, 0.0001, 45.5, 246, 20.9741, 0.039004, 0, 0, 1, 0, 76611
-9692.2, 929084, -159.898, 0.177093, -682.184, 0.634791, 0.363367, 1.03299, 0.34851, 0.655882, 3, 45.5, 246, 20.9741, 0.039004, 0, 0, 1, 0, 76611
-8946.78, 972103, -165.954, 0.189047, -759.08, 0.705729, 0.328872, 0.993198, 0.349787, 0.651995, 3, 91, 246, 20.9741, 0.039004, 0, 0, 1, 0, 76611
-15946, 416258, -492.241, 3.69969, -670.027, 0.0842127, 0.50949, 0.993198, 0.349787, 0.651995, 0.0001, 91, 246, 44.7205, 0.2137, 1.07674, 1, 1, 0, 76612
-15946, 416258, -492.241, 3.69969, -670.027, 0.0842127, 0.50949, 0.993198, 0.349787, 0.651995, 3, 91, 246, 44.7205, 0.2137, 1.00191, 1, 1, 0, 76612
-6691.9, 546174, -467.832, 0.126683, -1132.81, 0.00746592, 0.74367, 1.03299, 0.34851, 0.655882, 3, 45.5, 246, 48.6686, 0.231322, 0, 0, 0, 0, 76614
-5090.95, 57131.5, -137.077, 3.6178, -1154.27, -0.0631667, 0.213967, 1.03299, 0.34851, 0.655882, 3, 45.5, 246, 46.0892, 0.14911, 0, 0, 1, 0, 76622
-3817.54, 80731.4, -190.175, 3.95165, -1164.57, -0.000193713, 0.23398, 0.993198, 0.349787, 0.651995, 0.0001, 91, 246, 46.0892, 0.14911, 1.0966, 1, 1, 0, 76622
-1750.91, 105946, -254.19, 4.35538, -1195.58, 0.0756248, 0.275375, 0.958125, 0.351078, 0.648177, 0.0001, 182, 246, 46.0892, 0.14911, 1.57263, 1, 1, 0, 76622
-1750.91, 105946, -254.19, 4.35538, -1195.58, 0.0756248, 0.275375, 0.958125, 0.351078, 0.648177, 3, 182, 246, 46.0892, 0.14911, 1.41965, 1, 1, 0, 76622
-3438.19, 629455, -248.535, 2.57202, -1017.95, 0.0591647, 0.278396, 0.9175, 0.352806, 0.64323, 3, 455, 246, 28.1499, 0.0675215, 0, 0, 0, 0, 76624
-10125.6, 185215, -160.218, 1.93565, -941.548, -0.0154378, 0.389049, 1.03299, 0.34851, 0.655882, 0.0001, 45.5, 246, 36.9182, 0.176309, 0, 0, 1, 0, 76628
-10125.6, 185215, -160.218, 1.93565, -941.548, -0.0154378, 0.389049, 1.03299, 0.34851, 0.655882, 3, 45.5, 246, 36.9182, 0.176309, 0, 0, 1, 0, 76628
-688.041, 152909, -288.692, 3.64118, -1119.57, 0.395114, 0.357367, 0.9175, 0.352806, 0.64323, 0.0001, 455, 246, 43.1274, 0.18407, 1.93519, 1, 0, 0, 76632
-688.041, 152909, -288.692, 3.64118, -1119.57, 0.395114, 0.357367, 0.9175, 0.352806, 0.64323, 3, 455, 246, 43.1274, 0.18407, 1.93806, 1, 0, 0, 76632
-7963.42, 254540, -220.02, 1.41712, -1160.69, 0.111624, 0.446975, 0.993198, 0.349787, 0.651995, 0.0001, 91, 246, 40.6324, 0.200393, 0, 0, 1, 0, 76635
-9852.72, 88188.7, -18.828, 1.7917, -597.79, 0.419825, 0.299236, 1.03299, 0.34851, 0.655882, 0.0001, 45.5, 246, 12.9752, 0.0450446, 0, 0, 1, 0, 76638
-9852.72, 88188.7, -18.828, 1.7917, -597.79, 0.419825, 0.299236, 1.03299, 0.34851, 0.655882, 3, 45.5, 246, 12.9752, 0.0450446, 0, 0, 1, 0, 76638
-10453.1, 331609, -275.874, 1.29809, -1143.19, 0.00199478, 0.536265, 1.03299, 0.34851, 0.655882, 0.0001, 45.5, 246, 44.1022, 0.207362, 0, 0, 0, 0, 76644
-10453.1, 331609, -275.874, 1.29809, -1143.19, 0.00199478, 0.536265, 1.03299, 0.34851, 0.655882, 3, 45.5, 246, 44.1022, 0.207362, 0, 0, 0, 0, 76644
-8193.47, -12079.6, 8.01253, 2.11954, -1007.54, 0.839838, 0.294799, 1.03299, 0.34851, 0.655882, 0.0001, 45.5, 246, 10.9964, 0.0596434, 0, 0, 1, 0, 76645
-8193.47, -12079.6, 8.01253, 2.11954, -1007.54, 0.839838, 0.294799, 1.03299, 0.34851, 0.655882, 3, 45.5, 246, 10.9964, 0.0596434, 0, 0, 1, 0, 76645
-7368, 103930, -105.896, 3.27236, -1876.16, 1.69283, 0.28904, 0.9175, 0.352806, 0.64323, 3, 455, 246, 10.9964, 0.0596434, 0, 0, 1, 0, 76645
-7500.65, 131792, -191.36, 2.68155, -1165.87, -0.0304963, 0.384551, 1.03299, 0.34851, 0.655882, 0.0001, 45.5, 246, 48.7938, 0.230635, 0, 0, 1, 0, 76647
-7500.65, 131792, -191.36, 2.68155, -1165.87, -0.0304963, 0.384551, 1.03299, 0.34851, 0.655882, 3, 45.5, 246, 48.7938, 0.230635, 0, 0, 1, 0, 76647
-5521.44, 156270, -236.4, 2.89348, -1178.98, 0.00361944, 0.386843, 0.993198, 0.349787, 0.651995, 0.0001, 91, 246, 48.7938, 0.230635, 0, 0, 1, 0, 76647
-5521.44, 156270, -236.4, 2.89348, -1178.98, 0.00361944, 0.386843, 0.993198, 0.349787, 0.651995, 3, 91, 246, 48.7938, 0.230635, 0, 0, 1, 0, 76647
-11600.8, 267679, -62.6026, 1.16578, -881.661, 0.0302899, 0.336125, 1.03299, 0.34851, 0.655882, 0.0001, 45.5, 246, 21.1118, 0.0612377, 0, 0, 1, 0, 76648
-11600.8, 267679, -62.6026, 1.16578, -881.661, 0.0302899, 0.336125, 1.03299, 0.34851, 0.655882, 3, 45.5, 246, 21.1118, 0.0612377, 0, 0, 1, 0, 76648
-10407.2, 281767, -75.1298, 1.22425, -888.506, 0.0367359, 0.305973, 0.993198, 0.349787, 0.651995, 3, 91, 246, 21.1118, 0.0612377, 0, 0, 1, 0, 76648
-11267, 105690, 16.8989, 2.41171, -946.133, 0.768479, 0.248055, 1.03299, 0.34851, 0.655882, 0.0001, 45.5, 246, 13.0017, 0.0223683, 0, 0, 1, 0, 76653
-11267, 105690, 16.8989, 2.41171, -946.133, 0.768479, 0.248055, 1.03299, 0.34851, 0.655882, 3, 45.5, 246, 13.0017, 0.0223683, 0, 0, 1, 0, 76653
-10220.2, 128245, -5.29255, 2.69976, -1079, 0.907318, 0.235003, 0.993198, 0.349787, 0.651995, 0.0001, 91, 246, 13.0017, 0.0223683, 0, 0, 1, 0, 76653
-10220.2, 128245, -5.29255, 2.69976, -1079, 0.907318, 0.235003, 0.993198, 0.349787, 0.651995, 3, 91, 246, 13.0017, 0.0223683, 0, 0, 1, 0, 76653
-8751.4, 97964, -113.14, 3.30979, -845.095, -0.0509319, 0.218335, 1.03299, 0.34851, 0.655882, 0.0001, 45.5, 246, 33.4124, 0.120364, 0, 0, 1, 0, 76654
-8751.4, 97964, -113.14, 3.30979, -845.095, -0.0509319, 0.218335, 1.03299, 0.34851, 0.655882, 3, 45.5, 246, 33.4124, 0.120364, 0, 0, 1, 0, 76654
-1386.3, 144409, -266.195, 4.49795, -929.879, 0.169268, 0.322934, 0.9175, 0.352806, 0.64323, 0.0001, 455, 246, 33.4124, 0.120364, 1.03398, 1, 0, 0, 76654
-1386.3, 144409, -266.195, 4.49795, -929.879, 0.169268, 0.322934, 0.9175, 0.352806, 0.64323, 3, 455, 246, 33.4124, 0.120364, 1.04785, 1, 0, 0, 76654
-10580.9, 134436, -91.329, 3.00795, -1110.89, -0.0431858, 0.24671, 1.03299, 0.34851, 0.655882, 0.0001, 45.5, 246, 31.0153, 0.112056, 0, 0, 0, 0, 76656
-10580.9, 134436, -91.329, 3.00795, -1110.89, -0.0431858, 0.24671, 1.03299, 0.34851, 0.655882, 3, 45.5, 246, 31.0153, 0.112056, 0, 0, 0, 0, 76656
-8715.78, 155687, -130.625, 3.25191, -1116.11, -0.000137422, 0.248367, 0.993198, 0.349787, 0.651995, 0.0001, 91, 246, 31.0153, 0.112056, 0, 0, 1, 0, 76656
-8715.78, 155687, -130.625, 3.25191, -1116.11, -0.000137422, 0.248367, 0.993198, 0.349787, 0.651995, 3, 91, 246, 31.0153, 0.112056, 0, 0, 1, 0, 76656
-8086.44, 64154.8, -87.1374, 3.42091, -688.058, 0.70863, 0.171257, 1.03299, 0.34851, 0.655882, 0.0001, 45.5, 246, 28.113, 0.0809486, 0, 0, 0, 0, 76657
-8086.44, 64154.8, -87.1374, 3.42091, -688.058, 0.70863, 0.171257, 1.03299, 0.34851, 0.655882, 3, 45.5, 246, 28.113, 0.0809486, 0, 0, 0, 0, 76657
-1798.24, 131840, -258.708, 5.69771, -1275.11, 1.60562, 0.33674, 0.9175, 0.352806, 0.64323, 0.0001, 455, 246, 28.113, 0.0809486, 1.14793, 1, 0, 0, 76657
-1798.24, 131840, -258.708, 5.69771, -1275.11, 1.60562, 0.33674, 0.9175, 0.352806, 0.64323, 3, 455, 246, 28.113, 0.0809486, 1.14809, 1, 0, 0, 76657
-10599.2, 215617, -137.112, 1.71529, -1159.56, 0.0592517, 0.375649, 1.03299, 0.34851, 0.655882, 0.0001, 45.5, 246, 34.3072, 0.141968, 0, 0, 0, 0, 76663
-10599.2, 215617, -137.112, 1.71529, -1159.56, 0.0592517, 0.375649, 1.03299, 0.34851, 0.655882, 3, 45.5, 246, 34.3072, 0.141968, 0, 0, 0, 0, 76663
-8896.98, 240495, -164.056, 1.8249, -1178.82, 0.0736975, 0.356176, 0.993198, 0.349787, 0.651995, 3, 91, 246, 34.3072, 0.141968, 0, 0, 1, 0, 76663
-10262.1, 117630, -37.1574, 2.00087, -1154.47, 0.0566143, 0.300593, 1.03299, 0.34851, 0.655882, 0.0001, 45.5, 246, 22.5527, 0.0760995, 0, 0, 1, 0, 76674
-10262.1, 117630, -37.1574, 2.00087, -1154.47, 0.0566143, 0.300593, 1.03299, 0.34851, 0.655882, 3, 45.5, 246, 22.5527, 0.0760995, 0, 0, 1, 0, 76674
-7821.67, 12929.7, -43.0248, 2.78744, -1114.86, 0.219605, 0.267582, 0.993198, 0.349787, 0.651995, 0.0001, 91, 246, 21.2414, 0.063672, 0, 0, 1, 1, 76678
-9052.48, 304798, -440.776, 3.48997, -771.146, 0.0525173, 0.518425, 0.993198, 0.349787, 0.651995, 0.0001, 91, 246, 50.4492, 0.2419, 1.32237, 1, 1, 0, 76680
-9052.48, 304798, -440.776, 3.48997, -771.146, 0.0525173, 0.518425, 0.993198, 0.349787, 0.651995, 3, 91, 246, 50.4492, 0.2419, 1.22562, 1, 1, 0, 76680
-12580.5, 149589, -38.1276, 3.0959, -1005.82, 0.0285411, 0.202216, 1.03299, 0.34851, 0.655882, 0.0001, 45.5, 246, 22.1038, 0.0625941, 0, 0, 0, 0, 76681
-12580.5, 149589, -38.1276, 3.0959, -1005.82, 0.0285411, 0.202216, 1.03299, 0.34851, 0.655882, 3, 45.5, 246, 22.1038, 0.0625941, 0, 0, 0, 0, 76681
-10730.3, 430946, -257.333, 0.57429, -645.613, 0.104868, 0.483561, 1.03299, 0.34851, 0.655882, 0.0001, 45.5, 246, 30.614, 0.152525, 0, 0, 0, 0, 76691
-10730.3, 430946, -257.333, 0.57429, -645.613, 0.104868, 0.483561, 1.03299, 0.34851, 0.655882, 3, 45.5, 246, 30.614, 0.152525, 0, 0, 0, 0, 76691
-6963.7, 229388, -355.923, 3.53684, -775.915, 0.234394, 0.405354, 0.993198, 0.349787, 0.651995, 0.0001, 91, 246, 48.077, 0.22022, 1.24703, 1, 1, 0, 76695
-6963.7, 229388, -355.923, 3.53684, -775.915, 0.234394, 0.405354, 0.993198, 0.349787, 0.651995, 3, 91, 246, 48.077, 0.22022, 1.11253, 1, 1, 0, 76695
-1883.38, 246624, -418.208, 3.93503, -848.4, 0.307009, 0.443776, 0.958125, 0.351078, 0.648177, 0.0001, 182, 246, 48.077, 0.22022, 2.80191, 1, 0, 0, 76695
-1883.38, 246624, -418.208, 3.93503, -848.4, 0.307009, 0.443776, 0.958125, 0.351078, 0.648177, 3, 182, 246, 48.077, 0.22022, 2.59967, 1, 0, 0, 76695
-8471.79, 555383, -136.348, 0.333699, -959.282, 0.0185899, 0.336158, 0.993198, 0.349787, 0.651995, 0.0001, 91, 246, 25.9106, 0.0616376, 0, 0, 1, 0, 76697
-10975.2, 231380, -231.177, 1.60994, -608.551, 0.0217611, 0.478493, 1.03299, 0.34851, 0.655882, 3, 45.5, 246, 38.7319, 0.216637, 0, 0, 1, 0, 76703
-11149.6, 271321, -241.52, 1.71746, -963.023, 0.0623309, 0.479951, 1.03299, 0.34851, 0.655882, 0.0001, 45.5, 246, 41.6331, 0.20348, 0, 0, 0, 0, 76704
-11149.6, 271321, -241.52, 1.71746, -963.023, 0.0623309, 0.479951, 1.03299, 0.34851, 0.655882, 3, 45.5, 246, 41.6331, 0.20348, 0, 0, 0, 0, 76704
-8977.1, 57145.6, -32.6024, 3.45714, -784.177, -0.056492, 0.172714, 1.03299, 0.34851, 0.655882, 0.0001, 45.5, 246, 19.6224, 0.0582513, 0, 0, 1, 0, 76706
-8977.1, 57145.6, -32.6024, 3.45714, -784.177, -0.056492, 0.172714, 1.03299, 0.34851, 0.655882, 3, 45.5, 246, 19.6224, 0.0582513, 0, 0, 1, 0, 76706
-11282.6, 130995, -48.875, 2.65828, -1054.56, 0.716614, 0.24509, 1.03299, 0.34851, 0.655882, 0.0001, 45.5, 246, 24.2024, 0.073915, 0, 0, 0, 0, 76707
-11282.6, 130995, -48.875, 2.65828, -1054.56, 0.716614, 0.24509, 1.03299, 0.34851, 0.655882, 3, 45.5, 246, 24.2024, 0.073915, 0, 0, 0, 0, 76707
-7350.86, 196385, -125.424, 3.38499, -1397.23, 1.0298, 0.247748, 0.958125, 0.351078, 0.648177, 0.0001, 182, 246, 24.2024, 0.073915, 0, 0, 1, 0, 76707
-7350.86, 196385, -125.424, 3.38499, -1397.23, 1.0298, 0.247748, 0.958125, 0.351078, 0.648177, 3, 182, 246, 24.2024, 0.073915, 0, 0, 1, 0, 76707
-15965.1, 185425, 8.46299, 3.60706, -1049.36, -0.0155987, 0.122066, 1.03299, 0.34851, 0.655882, 0.0001, 45.5, 246, 18.0102, 0.0306769, 0, 0, 0, 0, 76708
-15965.1, 185425, 8.46299, 3.60706, -1049.36, -0.0155987, 0.122066, 1.03299, 0.34851, 0.655882, 3, 45.5, 246, 18.0102, 0.0306769, 0, 0, 0, 0, 76708
-11343.3, 289283, -257.005, 1.47756, -831.56, 0.0382579, 0.508125, 1.03299, 0.34851, 0.655882, 0.0001, 45.5, 246, 40.5286, 0.209895, 0, 0, 0, 0, 76709
-11343.3, 289283, -257.005, 1.47756, -831.56, 0.0382579, 0.508125, 1.03299, 0.34851, 0.655882, 3, 45.5, 246, 40.5286, 0.209895, 0, 0, 0, 0, 76709
-3302.16, 110963, -222.376, 4.05041, -1212.52, 0.120213, 0.27791, 0.958125, 0.351078, 0.648177, 0.0001, 182, 246, 41.2804, 0.144478, 1.05066, 1, 1, 0, 76711
795.466, 150495, -320.724, 4.67101, -1299.34, 0.236588, 0.355099, 0.9175, 0.352806, 0.64323, 0.0001, 455, 246, 41.2804, 0.144478, 4.3517, 1, 0, 0, 76711
795.466, 150495, -320.724, 4.67101, -1299.34, 0.236588, 0.355099, 0.9175, 0.352806, 0.64323, 3, 455, 246, 41.2804, 0.144478, 4.3942, 1, 0, 0, 76711
-11563.8, 253819, -7.54097, 1.01779, -1043.81, 0.00318946, 0.326166, 1.03299, 0.34851, 0.655882, 0.0001, 45.5, 246, 17.2873, 0.0192288, 0, 0, 1, 0, 76712
-10647.3, 272846, -17.6357, 1.06408, -1045.07, 0.00795141, 0.293743, 0.993198, 0.349787, 0.651995, 0.0001, 91, 246, 17.2873, 0.0192288, 0, 0, 1, 0, 76712
-10796.1, 346774, -271.712, 0.931733, -808.73, 0.255366, 0.524594, 1.03299, 0.34851, 0.655882, 0.0001, 45.5, 246, 37.7259, 0.192538, 0, 0, 0, 0, 76715
-10796.1, 346774, -271.712, 0.931733, -808.73, 0.255366, 0.524594, 1.03299, 0.34851, 0.655882, 3, 45.5, 246, 37.7259, 0.192538, 0, 0, 0, 0, 76715
-6643.37, 385367, -314.41, 1.05452, -896.914, 0.287192, 0.496004, 0.958125, 0.351078, 0.648177, 3, 182, 246, 37.7259, 0.192538, 0, 0, 0, 0, 76715
-10628.2, 261610, -299.317, 2.30978, -1150.04, -0.0246469, 0.535477, 1.03299, 0.34851, 0.655882, 3, 45.5, 246, 51.1693, 0.248143, 0, 0, 0, 0, 76720
-10785.1, 259422, -211.458, 1.11033, -647.505, 0.783435, 0.455438, 1.03299, 0.34851, 0.655882, 0.0001, 45.5, 246, 32.9523, 0.173838, 0, 0, 1, 0, 76727
-10785.1, 259422, -211.458, 1.11033, -647.505, 0.783435, 0.455438, 1.03299, 0.34851, 0.655882, 3, 45.5, 246, 32.9523, 0.173838, 0, 0, 1, 0, 76727
-9278.02, 280487, -229.555, 1.2199, -746.579, 0.900928, 0.434347, 0.993198, 0.349787, 0.651995, 3, 91, 246, 32.9523, 0.173838, 0, 0, 1, 0, 76727
-6982.31, 158497, -259.743, 3.45149, -1108.33, 0.193423, 0.339609, 1.03299, 0.34851, 0.655882, 0.0001, 45.5, 246, 53.4941, 0.226573, 1.18283, 1, 0, 0, 76738
-6982.31, 158497, -259.743, 3.45149, -1108.33, 0.193423, 0.339609, 1.03299, 0.34851, 0.655882, 3, 45.5, 246, 53.4941, 0.226573, 1.05391, 1, 0, 0, 76738
-3655.39, 184521, -322.475, 3.82441, -1176.74, 0.259442, 0.363187, 0.993198, 0.349787, 0.651995, 0.0001, 91, 246, 53.4941, 0.226573, 1.5234, 1, 1, 0, 76738
-3655.39, 184521, -322.475, 3.82441, -1176.74, 0.259442, 0.363187, 0.993198, 0.349787, 0.651995, 3, 91, 246, 53.4941, 0.226573, 1.402, 1, 1, 0, 76738
-9579.5, 188675, -288.991, 3.46714, -770.577, 0.356428, 0.32135, 1.03299, 0.34851, 0.655882, 0.0001, 45.5, 246, 48.4693, 0.206722, 1.20632, 1, 0, 0, 76744
-9579.5, 188675, -288.991, 3.46714, -770.577, 0.356428, 0.32135, 1.03299, 0.34851, 0.655882, 3, 45.5, 246, 48.4693, 0.206722, 1.00957, 1, 0, 0, 76744
-5742.25, 205549, -343.719, 3.87694, -851.842, 0.440379, 0.344674, 0.993198, 0.349787, 0.651995, 0.0001, 91, 246, 48.4693, 0.206722, 1.40857, 1, 1, 0, 76744
-5742.25, 205549, -343.719, 3.87694, -851.842, 0.440379, 0.344674, 0.993198, 0.349787, 0.651995, 3, 91, 246, 48.4693, 0.206722, 1.29632, 1, 1, 0, 76744
-660.33, 227838, -413.476, 4.38854, -963.654, 0.553815, 0.392544, 0.958125, 0.351078, 0.648177, 0.0001, 182, 246, 48.4693, 0.206722, 5.01942, 1, 0, 0, 76744
-660.33, 227838, -413.476, 4.38854, -963.654, 0.553815, 0.392544, 0.958125, 0.351078, 0.648177, 3, 182, 246, 48.4693, 0.206722, 4.28113, 1, 0, 0, 76744
-8978.04, 165045, -49.715, 3.65091, -804.181, 0.0962498, 0.206073, 0.958125, 0.351078, 0.648177, 3, 182, 246, 13.693, 0.0280917, 0, 0, 1, 0, 76747
-8596.64, 657664, -477.841, 0.0145997, -757.925, 0.0047471, 0.680123, 1.03299, 0.34851, 0.655882, 0.0001, 45.5, 246, 38.9155, 0.192997, 0, 0, 0, 0, 76754
-8596.64, 657664, -477.841, 0.0145997, -757.925, 0.0047471, 0.680123, 1.03299, 0.34851, 0.655882, 3, 45.5, 246, 38.9155, 0.192997, 0, 0, 0, 0, 76754
-4119.38, 86701.3, -202.978, 3.36008, -956.271, 0.00774431, 0.278578, 1.03299, 0.34851, 0.655882, 0.0001, 45.5, 246, 54.6617, 0.206812, 1.38253, 1, 1, 0, 76759
-4119.38, 86701.3, -202.978, 3.36008, -956.271, 0.00774431, 0.278578, 1.03299, 0.34851, 0.655882, 3, 45.5, 246, 54.6617, 0.206812, 1.20761, 1, 1, 0, 76759
-2277.49, 104044, -252.582, 3.67179, -982.538, 0.0621317, 0.293888, 0.993198, 0.349787, 0.651995, 0.0001, 91, 246, 54.6617, 0.206812, 1.59325, 1, 1, 0, 76759
-2277.49, 104044, -252.582, 3.67179, -982.538, 0.0621317, 0.293888, 0.993198, 0.349787, 0.651995, 3, 91, 246, 54.6617, 0.206812, 1.4528, 1, 1, 0, 76759
318.39, 123594, -312.335, 4.04436, -1026.11, 0.128777, 0.328414, 0.958125, 0.351078, 0.648177, 0.0001, 182, 246, 54.6617, 0.206812, 2.4558, 1, 1, 1, 76759
318.39, 123594, -312.335, 4.04436, -1026.11, 0.128777, 0.328414, 0.958125, 0.351078, 0.648177, 3, 182, 246, 54.6617, 0.206812, 2.31701, 1, 1, 1, 76759
-10883.9, 840654, -93.8169, 0.29743, -975.987, 0.402916, 0.348699, 1.03299, 0.34851, 0.655882, 0.0001, 45.5, 246, 25.3361, 0.0270925, 0, 0, 1, 0, 76760
-10883.9, 840654, -93.8169, 0.29743, -975.987, 0.402916, 0.348699, 1.03299, 0.34851, 0.655882, 3, 45.5, 246, 25.3361, 0.0270925, 0, 0, 1, 0, 76760
-8785.35, 919251, -105.676, 0.330914, -1120.33, 0.462702, 0.282457, 0.958125, 0.351078, 0.648177, 3, 182, 246, 25.3361, 0.0270925, 0, 0, 1, 0, 76760
-11606.7, 243242, -116.673, 1.7634, -1194.06, -0.01453, 0.34979, 1.03299, 0.34851, 0.655882, 0.0001, 45.5, 246, 31.6174, 0.113068, 0, 0, 0, 0, 76763
-11606.7, 243242, -116.673, 1.7634, -1194.06, -0.01453, 0.34979, 1.03299, 0.34851, 0.655882, 3, 45.5, 246, 31.6174, 0.113068, 0, 0, 0, 0, 76763
-10793.8, 91429.9, 17.0014, 2.65894, -909.242, -0.0328236, 0.237052, 1.03299, 0.34851, 0.655882, 0.0001, 45.5, 246, 11.4196, 0.0235427, 0, 0, 1, 0, 76766
-10793.8, 91429.9, 17.0014, 2.65894, -909.242, -0.0328236, 0.237052, 1.03299, 0.34851, 0.655882, 3, 45.5, 246, 11.4196, 0.0235427, 0, 0, 1, 0, 76766
-10333, 297959, -182.686, 1.10446, -1076.62, 0.616195, 0.42128, 1.03299, 0.34851, 0.655882, 0.0001, 45.5, 246, 34.6883, 0.139756, 0, 0, 0, 0, 76771
-10333, 297959, -182.686, 1.10446, -1076.62, 0.616195, 0.42128, 1.03299, 0.34851, 0.655882, 3, 45.5, 246, 34.6883, 0.139756, 0, 0, 0, 0, 76771
-9430.2, 117690, -107.039, 2.59617, -923.121, -0.0316252, 0.293455, 1.03299, 0.34851, 0.655882, 0.0001, 45.5, 246, 32.5778, 0.134879, 0, 0, 1, 0, 76772
-9430.2, 117690, -107.039, 2.59617, -923.121, -0.0316252, 0.293455, 1.03299, 0.34851, 0.655882, 3, 45.5, 246, 32.5778, 0.134879, 0, 0, 1, 0, 76772
-10643.3, 200395, -152.697, 1.71669, -784.414, 0.0511542, 0.385705, 1.03299, 0.34851, 0.655882, 0.0001, 45.5, 246, 32.9052, 0.160233, 0, 0, 1, 0, 76777
-10643.3, 200395, -152.697, 1.71669, -784.414, 0.0511542, 0.385705, 1.03299, 0.34851, 0.655882, 3, 45.5, 246, 32.9052, 0.160233, 0, 0, 1, 0, 76777
-5514.87, 432242, -375.466, 0.193, -1187.29, 0.0151487, 0.665548, 0.993198, 0.349787, 0.651995, 0.0001, 91, 246, 47.7578, 0.243311, 0, 0, 1, 0, 76778
-3997.62, 460018, -391.655, 0.200408, -1192.15, 0.0153553, 0.664589, 0.958125, 0.351078, 0.648177, 0.0001, 182, 246, 47.7578, 0.243311, 0, 0, 0, 0, 76778
-10241.6, 473629, -442.032, 0.14183, -656.593, 0.147271, 0.747313, 1.03299, 0.34851, 0.655882, 0.0001, 45.5, 246, 41.9982, 0.247365, 0, 0, 0, 0, 76780
-10241.6, 473629, -442.032, 0.14183, -656.593, 0.147271, 0.747313, 1.03299, 0.34851, 0.655882, 3, 45.5, 246, 41.9982, 0.247365, 0, 0, 0, 0, 76780
-8497.08, 488732, -460.946, 0.148785, -673.99, 0.150875, 0.750244, 0.993198, 0.349787, 0.651995, 3, 91, 246, 41.9982, 0.247365, 0, 0, 1, 0, 76780
-5849.01, -57443.1, 12.2102, 3.53231, -731.297, 0.062165, 0.199436, 1.03299, 0.34851, 0.655882, 0.0001, 45.5, 246, 8.84647, 0.0328381, 2.42239, 1, 1, 0, 76786
-5849.01, -57443.1, 12.2102, 3.53231, -731.297, 0.062165, 0.199436, 1.03299, 0.34851, 0.655882, 3, 45.5, 246, 8.84647, 0.0328381, 2.31691, 1, 1, 0, 76786
-5983.94, -9262.35, -47.6277, 3.50499, -810.156, 0.176351, 0.187946, 1.03299, 0.34851, 0.655882, 0.0001, 45.5, 246, 29.1199, 0.0133329, 0, 0, 1, 1, 76788
-5983.94, -9262.35, -47.6277, 3.50499, -810.156, 0.176351, 0.187946, 1.03299, 0.34851, 0.655882, 3, 45.5, 246, 29.1199, 0.0133329, 0, 0, 1, 1, 76788
-6843.75, 553332, -463.608, 0.125569, -1099.05, 0.00419606, 0.73034, 1.03299, 0.34851, 0.655882, 0.0001, 45.5, 246, 47.6232, 0.225841, 0, 0, 0, 0, 76789
-6843.75, 553332, -463.608, 0.125569, -1099.05, 0.00419606, 0.73034, 1.03299, 0.34851, 0.655882, 3, 45.5, 246, 47.6232, 0.225841, 0, 0, 0, 0, 76789
-11901.1, 379730, -129.646, 1.05485, -1031.59, -0.0048848, 0.369207, 1.03299, 0.34851, 0.655882, 0.0001, 45.5, 246, 28.4745, 0.0878289, 0, 0, 0, 0, 76794
-6483.52, 408788, -363.275, 0.129617, -1031.29, 0.44167, 0.65017, 0.993198, 0.349787, 0.651995, 0.0001, 91, 246, 44.2783, 0.240928, 2.44009, 1, 1, 0, 76797
-6483.52, 408788, -363.275, 0.129617, -1031.29, 0.44167, 0.65017, 0.993198, 0.349787, 0.651995, 3, 91, 246, 44.2783, 0.240928, 2.43999, 1, 1, 0, 76797
-5223.32, 441533, -377.612, 0.137555, -1110.02, 0.474892, 0.647482, 0.958125, 0.351078, 0.648177, 0.0001, 182, 246, 44.2783, 0.240928, 2.8367, 1, 0, 0, 76797
-5223.32, 441533, -377.612, 0.137555, -1110.02, 0.474892, 0.647482, 0.958125, 0.351078, 0.648177, 3, 182, 246, 44.2783, 0.240928, 2.74975, 1, 0, 0, 76797
-3272.24, 493061, -396.789, 0.148914, -1234.32, 0.527321, 0.649994, 0.9175, 0.352806, 0.64323, 0.0001, 455, 246, 44.2783, 0.240928, 4.72033, 1, 0, 0, 76797
-3272.24, 493061, -396.789, 0.148914, -1234.32, 0.527321, 0.649994, 0.9175, 0.352806, 0.64323, 3, 455, 246, 44.2783, 0.240928, 4.51423, 1, 0, 0, 76797
-10505.1, 156326, -166.234, 3.53253, -918.89, 0.0905814, 0.217938, 1.03299, 0.34851, 0.655882, 0.0001, 45.5, 246, 37.8395, 0.142605, 0, 0, 0, 0, 76798
-10505.1, 156326, -166.234, 3.53253, -918.89, 0.0905814, 0.217938, 1.03299, 0.34851, 0.655882, 3, 45.5, 246, 37.8395, 0.142605, 0, 0, 0, 0, 76798
-5904.78, 899269, -384.652, 0.113441, -1058.44, 0.0225893, 0.496969, 1.03299, 0.34851, 0.655882, 0.0001, 45.5, 246, 37.119, 0.10965, 0, 0, 0, 0, 76799
-5904.78, 899269, -384.652, 0.113441, -1058.44, 0.0225893, 0.496969, 1.03299, 0.34851, 0.655882, 3, 45.5, 246, 37.119, 0.10965, 0, 0, 0, 0, 76799
-9100.63, 245890, -96.3531, 1.83242, -717.063, 0.0139529, 0.274026, 0.958125, 0.351078, 0.648177, 0.0001, 182, 246, 19.6853, 0.068904, 0, 0, 1, 0, 76803
-11613.3, 231563, -165.333, 1.68809, -708.908, 0.50009, 0.382099, 1.03299, 0.34851, 0.655882, 0.0001, 45.5, 246, 30.8096, 0.144669, 0, 0, 1, 0, 76814
326.272, 414906, -411.793, 2.62813, -909.734, 0.131919, 0.466859, 0.9175, 0.352806, 0.64323, 3, 455, 246, 37.9576, 0.175156, 0, 0, 0, 0, 76815
-7952.69, 168683, -187.049, 2.12418, -853.583, 0.414886, 0.371165, 0.993198, 0.349787, 0.651995, 0.0001, 91, 246, 37.5315, 0.186879, 0, 0, 1, 0, 76820
-2611.64, 218066, -267.126, 2.62563, -1053.33, 0.556931, 0.37361, 0.9175, 0.352806, 0.64323, 0.0001, 455, 246, 37.5315, 0.186879, 0, 0, 0, 0, 76820
-2611.64, 218066, -267.126, 2.62563, -1053.33, 0.556931, 0.37361, 0.9175, 0.352806, 0.64323, 3, 455, 246, 37.5315, 0.186879, 0, 0, 0, 0, 76820
-8715.44, 535645, -269.978, 0.420199, -1002.79, 0.110396, 0.47023, 1.03299, 0.34851, 0.655882, 3, 45.5, 246, 34.8866, 0.128761, 0, 0, 0, 0, 76827
-10059.2, 215742, -300.397, 2.87688, -830.196, -0.0365848, 0.455809, 1.03299, 0.34851, 0.655882, 3, 45.5, 246, 50.8165, 0.245031, 0, 0, 0, 0, 76828
-6457.84, 229370, -349.289, 3.12151, -853.515, 0.00291392, 0.469614, 0.993198, 0.349787, 0.651995, 0.0001, 91, 246, 50.8165, 0.245031, 1.05552, 1, 1, 0, 76828
-1935.59, 245252, -406.598, 3.40591, -889.473, 0.0497213, 0.498369, 0.958125, 0.351078, 0.648177, 0.0001, 182, 246, 50.8165, 0.245031, 2.27824, 1, 0, 0, 76828
-1935.59, 245252, -406.598, 3.40591, -889.473, 0.0497213, 0.498369, 0.958125, 0.351078, 0.648177, 3, 182, 246, 50.8165, 0.245031, 2.09953, 1, 0, 0, 76828
-10041, 273188, -261.658, 1.1734, -944.203, 0.806405, 0.526803, 1.03299, 0.34851, 0.655882, 0.0001, 45.5, 246, 41.7696, 0.212725, 0, 0, 0, 0, 76829
-10041, 273188, -261.658, 1.1734, -944.203, 0.806405, 0.526803, 1.03299, 0.34851, 0.655882, 3, 45.5, 246, 41.7696, 0.212725, 0, 0, 0, 0, 76829
358.938, 515978, -389.736, 4.72747, -778.345, 0.264176, 0.327984, 0.9175, 0.352806, 0.64323, 3, 455, 246, 27.4959, 0.101963, 0, 0, 0, 0, 76831
-3410.69, 80725.2, -212.806, 2.84782, -795.377, 0.584623, 0.322825, 1.03299, 0.34851, 0.655882, 0.0001, 45.5, 246, 58.2865, 0.229076, 1.53513, 1, 1, 0, 76837
-3410.69, 80725.2, -212.806, 2.84782, -795.377, 0.584623, 0.322825, 1.03299, 0.34851, 0.655882, 3, 45.5, 246, 58.2865, 0.229076, 1.40025, 1, 1, 0, 76837
-1833.57, 97036.2, -253.572, 3.18707, -898.577, 0.68812, 0.326436, 0.993198, 0.349787, 0.651995, 0.0001, 91, 246, 58.2865, 0.229076, 1.7176, 1, 1, 0, 76837
-1833.57, 97036.2, -253.572, 3.18707, -898.577, 0.68812, 0.326436, 0.993198, 0.349787, 0.651995, 3, 91, 246, 58.2865, 0.229076, 1.58772, 1, 1, 0, 76837
431.937, 119016, -305.815, 3.60778, -1038.81, 0.828856, 0.347982, 0.958125, 0.351078, 0.648177, 0.0001, 182, 246, 58.2865, 0.229076, 2.55888, 1, 1, 0, 76837
431.937, 119016, -305.815, 3.60778, -1038.81, 0.828856, 0.347982, 0.958125, 0.351078, 0.648177, 3, 182, 246, 58.2865, 0.229076, 2.41385, 1, 1, 0, 76837
5171.23, 163353, -403.31, 4.36466, -1322.88, 1.11368, 0.412188, 0.9175, 0.352806, 0.64323, 0.0001, 455, 246, 58.2865, 0.229076, 0, 0, 0, 0, 76837
5171.23, 163353, -403.31, 4.36466, -1322.88, 1.11368, 0.412188, 0.9175, 0.352806, 0.64323, 3, 455, 246, 58.2865, 0.229076, 0, 0, 0, 0, 76837
-7620.7, 464058, -370.559, 0.364769, -1132.09, 0.000301328, 0.637952, 1.03299, 0.34851, 0.655882, 0.0001, 45.5, 246, 45.4738, 0.213405, 0, 0, 0, 0, 76839
-5804.67, 489145, -389.839, 0.380036, -1135.93, 0.000910242, 0.628921, 0.993198, 0.349787, 0.651995, 3, 91, 246, 45.4738, 0.213405, 0, 0, 1, 0, 76839
-3338.28, 88859.3, -212.523, 4.4452, -1099.16, 0.25849, 0.246872, 0.958125, 0.351078, 0.648177, 0.0001, 182, 246, 39.0928, 0.113798, 1.05343, 1, 1, 0, 76842
370.791, 123757, -313.967, 5.23611, -1223.55, 0.416955, 0.347694, 0.9175, 0.352806, 0.64323, 0.0001, 455, 246, 39.0928, 0.113798, 2.27871, 1, 0, 0, 76842
370.791, 123757, -313.967, 5.23611, -1223.55, 0.416955, 0.347694, 0.9175, 0.352806, 0.64323, 3, 455, 246, 39.0928, 0.113798, 2.27924, 1, 0, 0, 76842
-5030.82, 358417, -487.951, 3.48093, -734.121, 0.0520345, 0.552783, 0.958125, 0.351078, 0.648177, 0.0001, 182, 246, 45.5915, 0.224552, 1.88984, 1, 0, 0, 76854
-5030.82, 358417, -487.951, 3.48093, -734.121, 0.0520345, 0.552783, 0.958125, 0.351078, 0.648177, 3, 182, 246, 45.5915, 0.224552, 1.74951, 1, 0, 0, 76854
-7043.63, 490187, -316.78, 0.276776, -1116.46, 0.0513718, 0.541433, 1.03299, 0.34851, 0.655882, 0.0001, 45.5, 246, 40.4581, 0.168488, 0, 0, 0, 0, 76857
-2556.88, 76856.7, -248.886, 5.18962, -1114.47, 1.10811, 0.329262, 0.9175, 0.352806, 0.64323, 0.0001, 455, 246, 35.4686, 0.0648519, 1.23301, 1, 1, 0, 76858
-2556.88, 76856.7, -248.886, 5.18962, -1114.47, 1.10811, 0.329262, 0.9175, 0.352806, 0.64323, 3, 455, 246, 35.4686, 0.0648519, 1.17556, 1, 1, 0, 76858
-6862.52, 79858.3, -114.431, 3.63668, -1148.57, 0.11649, 0.223301, 0.993198, 0.349787, 0.651995, 0.0001, 91, 246, 31.6378, 0.106982, 0, 0, 1, 0, 76863
-6862.52, 79858.3, -114.431, 3.63668, -1148.57, 0.11649, 0.223301, 0.993198, 0.349787, 0.651995, 3, 91, 246, 31.6378, 0.106982, 0, 0, 1, 0, 76863
-1800.98, 142466, -254.424, 4.63307, -1283.53, 0.304033, 0.325112, 0.9175, 0.352806, 0.64323, 0.0001, 455, 246, 31.6378, 0.106982, 1.08143, 1, 0, 0, 76863
-1800.98, 142466, -254.424, 4.63307, -1283.53, 0.304033, 0.325112, 0.9175, 0.352806, 0.64323, 3, 455, 246, 31.6378, 0.106982, 1.08211, 1, 0, 0, 76863
-8697.93, 749747, -47.4956, 1.98084, -971.77, 0.0389181, 0.226926, 0.9175, 0.352806, 0.64323, 3, 455, 246, 20.8241, 0.00526231, 0, 0, 0, 0, 76867
-9035.84, 512861, -397.049, 0.390626, -949.164, 0.0458896, 0.644188, 1.03299, 0.34851, 0.655882, 0.0001, 45.5, 246, 42.6169, 0.204827, 0, 0, 0, 0, 76868
-9035.84, 512861, -397.049, 0.390626, -949.164, 0.0458896, 0.644188, 1.03299, 0.34851, 0.655882, 3, 45.5, 246, 42.6169, 0.204827, 0, 0, 0, 0, 76868
-10870.5, 252214, -108.558, 1.08235, -706.697, -0.0044358, 0.366749, 1.03299, 0.34851, 0.655882, 0.0001, 45.5, 246, 23.961, 0.104606, 0, 0, 1, 0, 76869
-10870.5, 252214, -108.558, 1.08235, -706.697, -0.0044358, 0.366749, 1.03299, 0.34851, 0.655882, 3, 45.5, 246, 23.961, 0.104606, 0, 0, 1, 0, 76869
-7832.12, 775236, -374.629, 0.102499, -795.172, 0.000990771, 0.515249, 1.03299, 0.34851, 0.655882, 0.0001, 45.5, 246, 32.6232, 0.125776, 0, 0, 0, 0, 76876
-7832.12, 775236, -374.629, 0.102499, -795.172, 0.000990771, 0.515249, 1.03299, 0.34851, 0.655882, 3, 45.5, 246, 32.6232, 0.125776, 0, 0, 0, 0, 76876
-28636.7, -67621.7, -17.4142, 0.415503, -715.051, 0.303995, 0.922607, 1.03299, 0.34851, 0.655882, 0.0001, 45.5, 246, -37.7801, 0.231213, 0, 0, 1, 1, 76877
-28636.7, -67621.7, -17.4142, 0.415503, -715.051, 0.303995, 0.922607, 1.03299, 0.34851, 0.655882, 3, 45.5, 246, -37.7801, 0.231213, 0, 0, 1, 1, 76877
-10136.7, 200786, -243.365, 2.05496, -709.01, 0.298254, 0.462938, 1.03299, 0.34851, 0.655882, 0.0001, 45.5, 246, 43.5085, 0.228081, 0, 0, 1, 0, 76881
-10136.7, 200786, -243.365, 2.05496, -709.01, 0.298254, 0.462938, 1.03299, 0.34851, 0.655882, 3, 45.5, 246, 43.5085, 0.228081, 0, 0, 1, 0, 76881
-93.6112, 258185, -369.692, 2.76248, -928.977, 0.453131, 0.482435, 0.9175, 0.352806, 0.64323, 3, 455, 246, 43.5085, 0.228081, 1.10181, 1, 0, 0, 76881
-7460.1, 640008, -335.205, 0.196832, -949.422, -8.45335e-05, 0.511655, 1.03299, 0.34851, 0.655882, 0.0001, 45.5, 246, 35.8057, 0.136631, 0, 0, 0, 0, 76883
-7460.1, 640008, -335.205, 0.196832, -949.422, -8.45335e-05, 0.511655, 1.03299, 0.34851, 0.655882, 3, 45.5, 246, 35.8057, 0.136631, 0, 0, 0, 0, 76883
-6551.03, 459928, -376.72, 0.00280987, -862.088, 0.319366, 0.627097, 0.993198, 0.349787, 0.651995, 0.0001, 91, 246, 40.37, 0.21748, 0, 0, 1, 0, 76895
-3799.37, 520836, -405.187, 0.00314994, -976.589, 0.361756, 0.620895, 0.9175, 0.352806, 0.64323, 0.0001, 455, 246, 40.37, 0.21748, 2.83451, 1, 0, 0, 76895
-3799.37, 520836, -405.187, 0.00314994, -976.589, 0.361756, 0.620895, 0.9175, 0.352806, 0.64323, 3, 455, 246, 40.37, 0.21748, 2.7199, 1, 0, 0, 76895
-861.822, 149862, -298.106, 3.05055, -867.826, 0.3955, 0.399562, 0.9175, 0.352806, 0.64323, 0.0001, 455, 246, 47.3251, 0.232366, 1.73271, 1, 0, 0, 76911
-861.822, 149862, -298.106, 3.05055, -867.826, 0.3955, 0.399562, 0.9175, 0.352806, 0.64323, 3, 455, 246, 47.3251, 0.232366, 1.74407, 1, 0, 0, 76911
-8405.58, 71788.6, -88.4023, 1.38089, -910.505, -0.00853103, 0.386407, 1.03299, 0.34851, 0.655882, 3, 45.5, 246, 37.3559, 0.234743, 0, 0, 1, 0, 76914
-9161.91, 60246.2, -32.9139, 2.62363, -719.719, 0.788193, 0.24475, 1.03299, 0.34851, 0.655882, 0.0001, 45.5, 246, 18.6839, 0.0601833, 0, 0, 1, 0, 76926
-9161.91, 60246.2, -32.9139, 2.62363, -719.719, 0.788193, 0.24475, 1.03299, 0.34851, 0.655882, 3, 45.5, 246, 18.6839, 0.0601833, 0, 0, 1, 0, 76926
-8545.9, 73313.8, -54.938, 2.95283, -827.842, 0.939289, 0.237075, 0.993198, 0.349787, 0.651995, 0.0001, 91, 246, 18.6839, 0.0601833, 0, 0, 1, 0, 76926
-8545.9, 73313.8, -54.938, 2.95283, -827.842, 0.939289, 0.237075, 0.993198, 0.349787, 0.651995, 3, 91, 246, 18.6839, 0.0601833, 0, 0, 1, 0, 76926
-10784.1, 227260, -196.081, 1.70714, -847.086, 0.299215, 0.426669, 1.03299, 0.34851, 0.655882, 0.0001, 45.5, 246, 37.1811, 0.182528, 0, 0, 0, 0, 76930
-10784.1, 227260, -196.081, 1.70714, -847.086, 0.299215, 0.426669, 1.03299, 0.34851, 0.655882, 3, 45.5, 246, 37.1811, 0.182528, 0, 0, 0, 0, 76930
-2237.91, 298607, -299.289, 2.22212, -1065.91, 0.421337, 0.404624, 0.9175, 0.352806, 0.64323, 0.0001, 455, 246, 37.1811, 0.182528, 0, 0, 0, 0, 76930
-2237.91, 298607, -299.289, 2.22212, -1065.91, 0.421337, 0.404624, 0.9175, 0.352806, 0.64323, 3, 455, 246, 37.1811, 0.182528, 0, 0, 0, 0, 76930
-9275.17, 504560, -265.326, 0.529066, -1017.95, 0.441683, 0.465149, 1.03299, 0.34851, 0.655882, 0.0001, 45.5, 246, 35.0145, 0.12722, 0, 0, 0, 0, 76931
-9275.17, 504560, -265.326, 0.529066, -1017.95, 0.441683, 0.465149, 1.03299, 0.34851, 0.655882, 3, 45.5, 246, 35.0145, 0.12722, 0, 0, 0, 0, 76931
-11016.2, 210426, -106.893, 1.37135, -659.67, 0.396217, 0.35488, 1.03299, 0.34851, 0.655882, 0.0001, 45.5, 246, 24.1806, 0.108546, 0, 0, 1, 0, 76933
-11016.2, 210426, -106.893, 1.37135, -659.67, 0.396217, 0.35488, 1.03299, 0.34851, 0.655882, 3, 45.5, 246, 24.1806, 0.108546, 0, 0, 1, 0, 76933
-9827.69, 223324, -121.329, 1.47597, -708.648, 0.432168, 0.328806, 0.993198, 0.349787, 0.651995, 0.0001, 91, 246, 24.1806, 0.108546, 0, 0, 1, 0, 76933
-5594.47, 610883, -366.625, 0.107747, -1126.48, 0.189651, 0.548253, 1.03299, 0.34851, 0.655882, 0.0001, 45.5, 246, 40.5191, 0.151893, 0, 0, 0, 0, 76935
-5594.47, 610883, -366.625, 0.107747, -1126.48, 0.189651, 0.548253, 1.03299, 0.34851, 0.655882, 3, 45.5, 246, 40.5191, 0.151893, 0, 0, 0, 0, 76935
-4223.94, 642670, -380.383, 0.112596, -1162.39, 0.195565, 0.52948, 0.993198, 0.349787, 0.651995, 3, 91, 246, 40.5191, 0.151893, 0, 0, 1, 0, 76935
-9480.31, 135417, -136.763, 2.24007, -718.076, -0.0174815, 0.33971, 1.03299, 0.34851, 0.655882, 3, 45.5, 246, 34.4223, 0.162562, 0, 0, 1, 0, 76936
-8096.04, 144556, -161.447, 2.39503, -726.49, 0.00609195, 0.327704, 0.993198, 0.349787, 0.651995, 0.0001, 91, 246, 34.4223, 0.162562, 0, 0, 1, 0, 76936
-8096.04, 144556, -161.447, 2.39503, -726.49, 0.00609195, 0.327704, 0.993198, 0.349787, 0.651995, 3, 91, 246, 34.4223, 0.162562, 0, 0, 1, 0, 76936
-3491.14, 168856, -232.315, 2.82563, -768.379, 0.0758734, 0.335976, 0.9175, 0.352806, 0.64323, 3, 455, 246, 34.4223, 0.162562, 0, 0, 0, 0, 76936
-6347.53, 289557, -421.298, 3.73419, -1142.59, 0.212666, 0.480973, 0.993198, 0.349787, 0.651995, 0.0001, 91, 246, 54.2874, 0.239672, 1.3604, 1, 1, 0, 76948
-6347.53, 289557, -421.298, 3.73419, -1142.59, 0.212666, 0.480973, 0.993198, 0.349787, 0.651995, 3, 91, 246, 54.2874, 0.239672, 1.25955, 1, 1, 0, 76948
-9760.67, 86758.4, -42.7537, 2.55977, -798.32, -0.0310006, 0.260635, 1.03299, 0.34851, 0.655882, 0.0001, 45.5, 246, 20.7582, 0.0743164, 0, 0, 1, 0, 76952
-9760.67, 86758.4, -42.7537, 2.55977, -798.32, -0.0310006, 0.260635, 1.03299, 0.34851, 0.655882, 3, 45.5, 246, 20.7582, 0.0743164, 0, 0, 1, 0, 76952
-9648.35, 380212, -258.53, 0.517453, -753.246, 0.218725, 0.50514, 1.03299, 0.34851, 0.655882, 0.0001, 45.5, 246, 34.1126, 0.172571, 0, 0, 0, 0, 76955
-9648.35, 380212, -258.53, 0.517453, -753.246, 0.218725, 0.50514, 1.03299, 0.34851, 0.655882, 3, 45.5, 246, 34.1126, 0.172571, 0, 0, 0, 0, 76955
-8402.22, 396301, -272.762, 0.544992, -784.071, 0.227838, 0.48355, 0.993198, 0.349787, 0.651995, 0.0001, 91, 246, 34.1126, 0.172571, 0, 0, 1, 0, 76955
-6938.41, 413823, -287.391, 0.573205, -817.643, 0.237771, 0.466349, 0.958125, 0.351078, 0.648177, 0.0001, 182, 246, 34.1126, 0.172571, 0, 0, 0, 0, 76955
-8938.45, 38447.6, 10.7712, 3.27318, -747.33, 0.014825, 0.186958, 1.03299, 0.34851, 0.655882, 0.0001, 45.5, 246, 10.2278, 0.0312296, 1.01337, 1, 1, 0, 76957
-10576.2, 275175, -351.033, 3.99063, -698.845, 0.032071, 0.327063, 0.993198, 0.349787, 0.651995, 0.0001, 91, 246, 42.1606, 0.184775, 1.01498, 1, 1, 0, 76958
-4301.43, 287391, -415.469, 4.42135, -749.168, 0.110357, 0.376523, 0.958125, 0.351078, 0.648177, 0.0001, 182, 246, 42.1606, 0.184775, 1.97695, 1, 0, 0, 76958
-4301.43, 287391, -415.469, 4.42135, -749.168, 0.110357, 0.376523, 0.958125, 0.351078, 0.648177, 3, 182, 246, 42.1606, 0.184775, 1.8246, 1, 0, 0, 76958
-11379.5, 474613, -117.997, 0.561643, -612.315, 0.136313, 0.364027, 1.03299, 0.34851, 0.655882, 0.0001, 45.5, 246, 19.5333, 0.063191, 0, 0, 1, 0, 76959
-11379.5, 474613, -117.997, 0.561643, -612.315, 0.136313, 0.364027, 1.03299, 0.34851, 0.655882, 3, 45.5, 246, 19.5333, 0.063191, 0, 0, 1, 0, 76959
-10332.2, 485013, -125.626, 0.587073, -627.729, 0.140794, 0.330929, 0.993198, 0.349787, 0.651995, 3, 91, 246, 19.5333, 0.063191, 0, 0, 1, 0, 76959
-9592.97, 100154, -29.8582, 1.29022, -702.82, 0.504506, 0.326369, 1.03299, 0.34851, 0.655882, 3, 45.5, 246, 16.0273, 0.0631922, 0, 0, 1, 0, 76962
-9201.65, 112361, -40.222, 1.39407, -765.48, 0.556801, 0.297207, 0.993198, 0.349787, 0.651995, 0.0001, 91, 246, 16.0273, 0.0631922, 0, 0, 1, 0, 76962
-9201.65, 112361, -40.222, 1.39407, -765.48, 0.556801, 0.297207, 0.993198, 0.349787, 0.651995, 3, 91, 246, 16.0273, 0.0631922, 0, 0, 1, 0, 76962
-10318.9, 222822, -180.426, 1.2006, -669.713, 0.433236, 0.435456, 1.03299, 0.34851, 0.655882, 0.0001, 45.5, 246, 33.0865, 0.177947, 0, 0, 1, 0, 76966
-10318.9, 222822, -180.426, 1.2006, -669.713, 0.433236, 0.435456, 1.03299, 0.34851, 0.655882, 3, 45.5, 246, 33.0865, 0.177947, 0, 0, 1, 0, 76966
-6104.79, 5822.73, -66.1171, 3.36531, -709.611, -0.020033, 0.200016, 1.03299, 0.34851, 0.655882, 3, 45.5, 246, 32.0341, 0.0331961, 0, 0, 1, 1, 76974
-9915.95, 447706, -422.525, 0.565396, -960.131, 0.480927, 0.709299, 1.03299, 0.34851, 0.655882, 3, 45.5, 246, 46.17, 0.235301, 0, 0, 0, 0, 76981
-6603.42, 108097, -197.862, 2.56783, -656.34, 0.0639289, 0.363273, 1.03299, 0.34851, 0.655882, 0.0001, 45.5, 246, 48.6515, 0.225683, 1.09409, 1, 1, 0, 76982
-5045.18, 116918, -229.329, 2.77712, -679.758, 0.0962609, 0.361056, 0.993198, 0.349787, 0.651995, 0.0001, 91, 246, 48.6515, 0.225683, 1.035, 1, 1, 0, 76982
-3064.49, 127001, -265.849, 3.01558, -711.258, 0.135145, 0.37091, 0.958125, 0.351078, 0.648177, 0.0001, 182, 246, 48.6515, 0.225683, 1.26825, 1, 1, 0, 76982
-3064.49, 127001, -265.849, 3.01558, -711.258, 0.135145, 0.37091, 0.958125, 0.351078, 0.648177, 3, 182, 246, 48.6515, 0.225683, 1.08328, 1, 1, 0, 76982
399.09, 143146, -324.557, 3.39268, -769.766, 0.200374, 0.403977, 0.9175, 0.352806, 0.64323, 0.0001, 455, 246, 48.6515, 0.225683, 2.30725, 1, 0, 0, 76982
399.09, 143146, -324.557, 3.39268, -769.766, 0.200374, 0.403977, 0.9175, 0.352806, 0.64323, 3, 455, 246, 48.6515, 0.225683, 2.30711, 1, 0, 0, 76982
-10162.1, 229368, -242.053, 1.33742, -718.954, 0.00296524, 0.530173, 1.03299, 0.34851, 0.655882, 3, 45.5, 246, 42.5474, 0.246881, 0, 0, 1, 0, 76988
-8477.69, 239555, -264.906, 1.41457, -728.944, 0.0112833, 0.518301, 0.993198, 0.349787, 0.651995, 3, 91, 246, 42.5474, 0.246881, 0, 0, 1, 0, 76988
-11170.5, 189337, -285.619, 3.44907, -553.965, 0.694319, 0.280149, 1.03299, 0.34851, 0.655882, 0.0001, 45.5, 246, 42.5469, 0.180466, 1.15341, 1, 0, 0, 76997
-11170.5, 189337, -285.619, 3.44907, -553.965, 0.694319, 0.280149, 1.03299, 0.34851, 0.655882, 3, 45.5, 246, 42.5469, 0.180466, 1.04463, 1, 0, 0, 76997
-7394.85, 204741, -332.873, 3.92916, -657.045, 0.846907, 0.301051, 0.993198, 0.349787, 0.651995, 0.0001, 91, 246, 42.5469, 0.180466, 1.26156, 1, 1, 0, 76997
-7394.85, 204741, -332.873, 3.92916, -657.045, 0.846907, 0.301051, 0.993198, 0.349787, 0.651995, 3, 91, 246, 42.5469, 0.180466, 1.13364, 1, 1, 0, 76997
-2363.01, 226789, -395.76, 4.55911, -807.142, 1.06892, 0.34989, 0.958125, 0.351078, 0.648177, 0.0001, 182, 246, 42.5469, 0.180466, 2.21227, 1, 0, 0, 76997
-2363.01, 226789, -395.76, 4.55911, -807.142, 1.06892, 0.34989, 0.958125, 0.351078, 0.648177, 3, 182, 246, 42.5469, 0.180466, 2.04943, 1, 0, 0, 76997
-10335.2, 340470, -150.019, 0.618989, -636.489, 0.444309, 0.394584, 1.03299, 0.34851, 0.655882, 0.0001, 45.5, 246, 24.0363, 0.105267, 0, 0, 1, 0, 76999
-10335.2, 340470, -150.019, 0.618989, -636.489, 0.444309, 0.394584, 1.03299, 0.34851, 0.655882, 3, 45.5, 246, 24.0363, 0.105267, 0, 0, 1, 0, 76999
-9421.56, 356938, -159.761, 0.659421, -687.354, 0.479788, 0.364182, 0.993198, 0.349787, 0.651995, 0.0001, 91, 246, 24.0363, 0.105267, 0, 0, 1, 0, 76999
