-5746.67, 117265, -177.835, 2.60977, -861.54, 0.35608, 0.319647, 0.958125, 0.351078, 0.648177, 3, 182, 246, 37.811, 0.175247, 0, 0, 1, 0, 107501
-2700.17, 226967, -333.264, 4.50094, -1148.09, 0.58237, 0.308066, 0.958125, 0.351078, 0.648177, 0.0001, 182, 246, 41.838, 0.16193, 1.56983, 1, 0, 0, 107505
-2700.17, 226967, -333.264, 4.50094, -1148.09, 0.58237, 0.308066, 0.958125, 0.351078, 0.648177, 3, 182, 246, 41.838, 0.16193, 1.39269, 1, 0, 0, 107505
-6262.98, 59344.4, -78.882, 5.34785, -764.137, 0.766497, 0.303132, 0.9175, 0.352806, 0.64323, 0.0001, 455, 246, 7.67469, 0.0225436, 0, 0, 1, 0, 107506
-6262.98, 59344.4, -78.882, 5.34785, -764.137, 0.766497, 0.303132, 0.9175, 0.352806, 0.64323, 3, 455, 246, 7.67469, 0.0225436, 0, 0, 1, 0, 107506
-10893.7, 142571, -36.6501, 1.90186, -877.028, 0.0248409, 0.299246, 1.03299, 0.34851, 0.655882, 0.0001, 45.5, 246, 19.1414, 0.0626632, 0, 0, 1, 0, 107507
-9852.86, 156115, -54.5218, 2.02254, -883.997, 0.0419125, 0.277493, 0.993198, 0.349787, 0.651995, 0.0001, 91, 246, 19.1414, 0.0626632, 0, 0, 1, 0, 107507
-11412.9, 256976, -136.961, 1.40151, -897.465, 0.623275, 0.370847, 1.03299, 0.34851, 0.655882, 3, 45.5, 246, 29.1845, 0.115951, 0, 0, 1, 0, 107512
-7145.48, 197943, -267.985, 3.00355, -893.997, 0.388923, 0.374225, 0.993198, 0.349787, 0.651995, 3, 91, 246, 43.7095, 0.200299, 0, 0, 1, 0, 107524
-3645.2, 219172, -317.799, 3.33207, -981.056, 0.461285, 0.392467, 0.958125, 0.351078, 0.648177, 3, 182, 246, 43.7095, 0.200299, 0, 0, 0, 0, 107524
-8465.94, 342886, -174.567, 0.587629, -928.892, 0.593663, 0.383425, 0.993198, 0.349787, 0.651995, 0.0001, 91, 246, 28.9263, 0.122298, 0, 0, 1, 0, 107527
-8116.64, 47568.6, -55.0664, 3.48347, -687.224, 0.128659, 0.170967, 1.03299, 0.34851, 0.655882, 0.0001, 45.5, 246, 23.2648, 0.0642424, 0, 0, 1, 0, 107528
-8116.64, 47568.6, -55.0664, 3.48347, -687.224, 0.128659, 0.170967, 1.03299, 0.34851, 0.655882, 3, 45.5, 246, 23.2648, 0.0642424, 0, 0, 1, 0, 107528
-9623.79, 105355, -55.6532, 1.92149, -1104.01, 0.13616, 0.315791, 1.03299, 0.34851, 0.655882, 0.0001, 45.5, 246, 25.4827, 0.101288, 0, 0, 1, 0, 107531
-9623.79, 105355, -55.6532, 1.92149, -1104.01, 0.13616, 0.315791, 1.03299, 0.34851, 0.655882, 3, 45.5, 246, 25.4827, 0.101288, 0, 0, 1, 0, 107531
-12720.1, -149279, -0.330527, 0.56449, -1047.41, 0.142889, 0.378886, 1.03299, 0.34851, 0.655882, 0.0001, 45.5, 246, -91.36, 0.147855, 0, 0, 1, 0, 107533
-12720.1, -149279, -0.330527, 0.56449, -1047.41, 0.142889, 0.378886, 1.03299, 0.34851, 0.655882, 3, 45.5, 246, -91.36, 0.147855, 0, 0, 1, 0, 107533
-8673.82, 173536, -239.093, 2.3836, -875.216, -0.0269067, 0.453145, 1.03299, 0.34851, 0.655882, 0.0001, 45.5, 246, 49.0271, 0.249434, 0, 0, 1, 0, 107535
-2607.76, 313612, -401.133, 3.6475, -1176.84, 0.0536213, 0.444105, 0.958125, 0.351078, 0.648177, 0.0001, 182, 246, 47.437, 0.203264, 1.48425, 1, 0, 0, 107536
-2607.76, 313612, -401.133, 3.6475, -1176.84, 0.0536213, 0.444105, 0.958125, 0.351078, 0.648177, 3, 182, 246, 47.437, 0.203264, 1.35053, 1, 0, 0, 107536
-5498.24, 170453, -99.3538, 3.84618, -851.437, 0.461418, 0.259575, 0.9175, 0.352806, 0.64323, 0.0001, 455, 246, 13.9641, 0.0352112, 0, 0, 1, 0, 107542
-5498.24, 170453, -99.3538, 3.84618, -851.437, 0.461418, 0.259575, 0.9175, 0.352806, 0.64323, 3, 455, 246, 13.9641, 0.0352112, 0, 0, 1, 0, 107542
-1458.17, 231746, -270.613, 3.90384, -1041.98, 0.505102, 0.324945, 0.9175, 0.352806, 0.64323, 0.0001, 455, 246, 30.9948, 0.122713, 0, 0, 0, 0, 107545
-1458.17, 231746, -270.613, 3.90384, -1041.98, 0.505102, 0.324945, 0.9175, 0.352806, 0.64323, 3, 455, 246, 30.9948, 0.122713, 0, 0, 0, 0, 107545
-6542.88, 644332, -368.48, 0.200201, -1085.3, 0.570886, 0.525894, 1.03299, 0.34851, 0.655882, 0.0001, 45.5, 246, 38.749, 0.135016, 0, 0, 0, 0, 107546
-6542.88, 644332, -368.48, 0.200201, -1085.3, 0.570886, 0.525894, 1.03299, 0.34851, 0.655882, 3, 45.5, 246, 38.749, 0.135016, 0, 0, 0, 0, 107546
-10915.6, 148154, -91.6033, 2.18679, -609.245, 0.228072, 0.299779, 1.03299, 0.34851, 0.655882, 0.0001, 45.5, 246, 24.0517, 0.102701, 0, 0, 1, 0, 107550
-10915.6, 148154, -91.6033, 2.18679, -609.245, 0.228072, 0.299779, 1.03299, 0.34851, 0.655882, 3, 45.5, 246, 24.0517, 0.102701, 0, 0, 1, 0, 107550
-12125.3, 367567, -469.598, 3.44315, -777.863, 0.270085, 0.532541, 0.993198, 0.349787, 0.651995, 0.0001, 91, 246, 47.4303, 0.225996, 1.07221, 1, 1, 0, 107556
-12119.7, 227070, -8.82997, 1.28592, -829.586, 0.60644, 0.315002, 1.03299, 0.34851, 0.655882, 0.0001, 45.5, 246, 14.9581, 0.0205942, 0, 0, 1, 0, 107557
-12119.7, 227070, -8.82997, 1.28592, -829.586, 0.60644, 0.315002, 1.03299, 0.34851, 0.655882, 3, 45.5, 246, 14.9581, 0.0205942, 0, 0, 1, 0, 107557
-8477.1, 52634.3, -53.3859, 1.85912, -702.412, 0.0149331, 0.316466, 1.03299, 0.34851, 0.655882, 0.0001, 45.5, 246, 25.4264, 0.112688, 0, 0, 1, 0, 107562
-8931.15, 671458, -231.719, 0.321734, -946.494, 0.32274, 0.413003, 1.03299, 0.34851, 0.655882, 0.0001, 45.5, 246, 30.2006, 0.084296, 0, 0, 0, 0, 107563
-8931.15, 671458, -231.719, 0.321734, -946.494, 0.32274, 0.413003, 1.03299, 0.34851, 0.655882, 3, 45.5, 246, 30.2006, 0.084296, 0, 0, 0, 0, 107563
-10135.4, 459963, -244.524, 0.439786, -652.783, 0.380999, 0.457455, 1.03299, 0.34851, 0.655882, 3, 45.5, 246, 28.3563, 0.130078, 0, 0, 1, 0, 107566
-9270.53, 189257, -308.84, 3.2197, -599.462, -0.0469345, 0.393613, 1.03299, 0.34851, 0.655882, 0.0001, 45.5, 246, 50.4167, 0.235437, 1.3211, 1, 0, 0, 107568
-9270.53, 189257, -308.84, 3.2197, -599.462, -0.0469345, 0.393613, 1.03299, 0.34851, 0.655882, 3, 45.5, 246, 50.4167, 0.235437, 1.23924, 1, 0, 0, 107568
-5668.46, 197100, -355.896, 3.50938, -626.67, 0.00278674, 0.412754, 0.993198, 0.349787, 0.651995, 0.0001, 91, 246, 50.4167, 0.235437, 1.53573, 1, 1, 0, 107568
-5668.46, 197100, -355.896, 3.50938, -626.67, 0.00278674, 0.412754, 0.993198, 0.349787, 0.651995, 3, 91, 246, 50.4167, 0.235437, 1.38519, 1, 1, 0, 107568
-1215.49, 207114, -411.911, 3.85304, -667.049, 0.0623465, 0.449962, 0.958125, 0.351078, 0.648177, 0.0001, 182, 246, 50.4167, 0.235437, 2.66996, 1, 0, 0, 107568
-1215.49, 207114, -411.911, 3.85304, -667.049, 0.0623465, 0.449962, 0.958125, 0.351078, 0.648177, 3, 182, 246, 50.4167, 0.235437, 2.48894, 1, 0, 0, 107568
-8180.67, 44385.5, -54.3187, 2.85304, -608.705, -0.0387, 0.239677, 1.03299, 0.34851, 0.655882, 0.0001, 45.5, 246, 23.3149, 0.0721419, 0, 0, 1, 0, 107570
-8180.67, 44385.5, -54.3187, 2.85304, -608.705, -0.0387, 0.239677, 1.03299, 0.34851, 0.655882, 3, 45.5, 246, 23.3149, 0.0721419, 0, 0, 1, 0, 107570
-8907.74, 339909, -147.495, 0.982305, -1190.23, 0.000537544, 0.35454, 0.993198, 0.349787, 0.651995, 0.0001, 91, 246, 31.1586, 0.104842, 0, 0, 1, 0, 107571
-8907.74, 339909, -147.495, 0.982305, -1190.23, 0.000537544, 0.35454, 0.993198, 0.349787, 0.651995, 3, 91, 246, 31.1586, 0.104842, 0, 0, 1, 0, 107571
-11998.4, 443804, -67.5167, 0.764234, -1123.72, 0.172189, 0.342806, 1.03299, 0.34851, 0.655882, 0.0001, 45.5, 246, 25.1913, 0.0410345, 0, 0, 1, 0, 107574
-11998.4, 443804, -67.5167, 0.764234, -1123.72, 0.172189, 0.342806, 1.03299, 0.34851, 0.655882, 3, 45.5, 246, 25.1913, 0.0410345, 0, 0, 1, 0, 107574
-7535.67, 168226, -290.89, 3.35701, -759.148, -0.0543479, 0.3656, 1.03299, 0.34851, 0.655882, 0.0001, 45.5, 246, 53.1044, 0.235845, 1.34425, 1, 0, 0, 107576
-7535.67, 168226, -290.89, 3.35701, -759.148, -0.0543479, 0.3656, 1.03299, 0.34851, 0.655882, 3, 45.5, 246, 53.1044, 0.235845, 1.25987, 1, 0, 0, 107576
-4142.63, 179805, -342.845, 3.66481, -784.986, -0.000175176, 0.387085, 0.993198, 0.349787, 0.651995, 0.0001, 91, 246, 53.1044, 0.235845, 1.66475, 1, 1, 0, 107576
-4142.63, 179805, -342.845, 3.66481, -784.986, -0.000175176, 0.387085, 0.993198, 0.349787, 0.651995, 3, 91, 246, 53.1044, 0.235845, 1.56174, 1, 1, 0, 107576
174.781, 193789, -405.105, 4.03289, -826.796, 0.0649086, 0.427995, 0.958125, 0.351078, 0.648177, 0.0001, 182, 246, 53.1044, 0.235845, 4.11785, 1, 0, 0, 107576
174.781, 193789, -405.105, 4.03289, -826.796, 0.0649086, 0.427995, 0.958125, 0.351078, 0.648177, 3, 182, 246, 53.1044, 0.235845, 3.7714, 1, 0, 0, 107576
-3693.1, 292682, -441.247, 3.1376, -780.112, 0.455205, 0.549178, 0.958125, 0.351078, 0.648177, 0.0001, 182, 246, 47.1414, 0.240579, 1.55293, 1, 0, 0, 107577
-3693.1, 292682, -441.247, 3.1376, -780.112, 0.455205, 0.549178, 0.958125, 0.351078, 0.648177, 3, 182, 246, 47.1414, 0.240579, 1.35603, 1, 0, 0, 107577
-11139.6, 251585, -190.473, 1.56382, -891.786, 0.549183, 0.417235, 1.03299, 0.34851, 0.655882, 0.0001, 45.5, 246, 35.1867, 0.161517, 0, 0, 0, 0, 107582
-11139.6, 251585, -190.473, 1.56382, -891.786, 0.549183, 0.417235, 1.03299, 0.34851, 0.655882, 3, 45.5, 246, 35.1867, 0.161517, 0, 0, 0, 0, 107582
-10918.5, 151010, -61.4356, 1.97455, -863.052, 0.257454, 0.303437, 1.03299, 0.34851, 0.655882, 0.0001, 45.5, 246, 22.7178, 0.0829706, 0, 0, 1, 0, 107585
-9707.56, 166708, -81.7308, 2.13007, -904.909, 0.287639, 0.283599, 0.993198, 0.349787, 0.651995, 0.0001, 91, 246, 22.7178, 0.0829706, 0, 0, 1, 0, 107585
-10927, 276025, -183.784, 1.0537, -618.382, -0.0040062, 0.43446, 1.03299, 0.34851, 0.655882, 0.0001, 45.5, 246, 30.3183, 0.161768, 0, 0, 1, 0, 107593
-10927, 276025, -183.784, 1.0537, -618.382, -0.0040062, 0.43446, 1.03299, 0.34851, 0.655882, 3, 45.5, 246, 30.3183, 0.161768, 0, 0, 1, 0, 107593
-9577.78, 283221, -198.813, 1.10523, -623.675, 0.00110952, 0.410732, 0.993198, 0.349787, 0.651995, 3, 91, 246, 30.3183, 0.161768, 0, 0, 1, 0, 107593
-10700, 318426, -268.39, 1.39955, -1109.4, 0.0396718, 0.524112, 1.03299, 0.34851, 0.655882, 0.0001, 45.5, 246, 43.5969, 0.206289, 0, 0, 0, 0, 107597
-10700, 318426, -268.39, 1.39955, -1109.4, 0.0396718, 0.524112, 1.03299, 0.34851, 0.655882, 3, 45.5, 246, 43.5969, 0.206289, 0, 0, 0, 0, 107597
-5253.96, 857304, -241.599, 0.0878789, -1110.35, 0.177186, 0.369625, 0.993198, 0.349787, 0.651995, 0.0001, 91, 246, 32.225, 0.0694064, 4.15896, 1, 1, 0, 107599
-5253.96, 857304, -241.599, 0.0878789, -1110.35, 0.177186, 0.369625, 0.993198, 0.349787, 0.651995, 3, 91, 246, 32.225, 0.0694064, 4.16064, 1, 1, 0, 107599
-4506.03, 888900, -249.067, 0.0911277, -1142.93, 0.182326, 0.3421, 0.958125, 0.351078, 0.648177, 0.0001, 182, 246, 32.225, 0.0694064, 0, 0, 0, 0, 107599
1152.18, 243830, -364.281, 3.74963, -924.585, 0.119577, 0.405611, 0.9175, 0.352806, 0.64323, 0.0001, 455, 246, 40.1973, 0.179315, 0, 0, 0, 0, 107607
1152.18, 243830, -364.281, 3.74963, -924.585, 0.119577, 0.405611, 0.9175, 0.352806, 0.64323, 3, 455, 246, 40.1973, 0.179315, 0, 0, 0, 0, 107607
-9908.15, 143386, -108.327, 2.18715, -1041.26, -0.00701443, 0.329825, 1.03299, 0.34851, 0.655882, 0.0001, 45.5, 246, 32.5147, 0.13928, 0, 0, 1, 0, 107612
-9908.15, 143386, -108.327, 2.18715, -1041.26, -0.00701443, 0.329825, 1.03299, 0.34851, 0.655882, 3, 45.5, 246, 32.5147, 0.13928, 0, 0, 1, 0, 107612
-1705.51, 116136, -265.471, 6.03599, -1193.25, 1.93518, 0.345462, 0.9175, 0.352806, 0.64323, 0.0001, 455, 246, 28.8621, 0.0762482, 1.22532, 1, 0, 0, 107616
-1705.51, 116136, -265.471, 6.03599, -1193.25, 1.93518, 0.345462, 0.9175, 0.352806, 0.64323, 3, 455, 246, 28.8621, 0.0762482, 1.22516, 1, 0, 0, 107616
-9462.56, 192469, -205.522, 1.69067, -933.796, -0.0112565, 0.471272, 1.03299, 0.34851, 0.655882, 0.0001, 45.5, 246, 43.3865, 0.232914, 0, 0, 0, 0, 107618
-9462.56, 192469, -205.522, 1.69067, -933.796, -0.0112565, 0.471272, 1.03299, 0.34851, 0.655882, 3, 45.5, 246, 43.3865, 0.232914, 0, 0, 1, 0, 107618
-10734.6, 252986, -125.715, 1.29131, -1087.67, 0.40557, 0.373151, 1.03299, 0.34851, 0.655882, 0.0001, 45.5, 246, 30.6452, 0.114247, 0, 0, 1, 0, 107626
-10734.6, 252986, -125.715, 1.29131, -1087.67, 0.40557, 0.373151, 1.03299, 0.34851, 0.655882, 3, 45.5, 246, 30.6452, 0.114247, 0, 0, 1, 0, 107626
-9277.15, 281322, -145.848, 1.38916, -1167.83, 0.441763, 0.347403, 0.993198, 0.349787, 0.651995, 3, 91, 246, 30.6452, 0.114247, 0, 0, 1, 0, 107626
-12131.5, 299938, -217.163, 1.81404, -1066.48, 0.0907838, 0.430282, 1.03299, 0.34851, 0.655882, 3, 45.5, 246, 38.844, 0.166918, 0, 0, 0, 0, 107632
-9157.83, 149068, -169.275, 2.39411, -931.55, 0.300483, 0.360476, 1.03299, 0.34851, 0.655882, 3, 45.5, 246, 40.354, 0.186269, 0, 0, 1, 0, 107633
-362.521, 228838, -313.689, 3.27896, -1204.28, 0.495045, 0.386448, 0.9175, 0.352806, 0.64323, 3, 455, 246, 40.354, 0.186269, 1.15343, 1, 0, 0, 107633
-10518, 423942, -139.871, 0.508929, -608.469, 0.0293352, 0.381913, 1.03299, 0.34851, 0.655882, 0.0001, 45.5, 246, 21.5527, 0.0849477, 0, 0, 1, 0, 107635
-10518, 423942, -139.871, 0.508929, -608.469, 0.0293352, 0.381913, 1.03299, 0.34851, 0.655882, 3, 45.5, 246, 21.5527, 0.0849477, 0, 0, 1, 0, 107635
-9638.65, 431442, -147.904, 0.528681, -613.331, 0.0306592, 0.349895, 0.993198, 0.349787, 0.651995, 0.0001, 91, 246, 21.5527, 0.0849477, 0, 0, 1, 0, 107635
-11824.6, 178653, -17.7812, 1.80764, -1057.72, -0.014671, 0.297467, 1.03299, 0.34851, 0.655882, 0.0001, 45.5, 246, 18.6565, 0.0419444, 0, 0, 1, 0, 107637
-11824.6, 178653, -17.7812, 1.80764, -1057.72, -0.014671, 0.297467, 1.03299, 0.34851, 0.655882, 3, 45.5, 246, 18.6565, 0.0419444, 0, 0, 1, 0, 107637
-10593.7, 171582, -42.9507, 2.15099, -680.914, 0.347587, 0.263862, 0.993198, 0.349787, 0.651995, 3, 91, 246, 14.818, 0.0436123, 0, 0, 1, 0, 107649
-10074, 390690, -149.607, 0.548184, -761.292, 0.275918, 0.390345, 1.03299, 0.34851, 0.655882, 0.0001, 45.5, 246, 25.1679, 0.0947299, 0, 0, 1, 0, 107652
-10074, 390690, -149.607, 0.548184, -761.292, 0.275918, 0.390345, 1.03299, 0.34851, 0.655882, 3, 45.5, 246, 25.1679, 0.0947299, 0, 0, 1, 0, 107652
-10852.1, 390012, -272.657, 0.856104, -837.278, 0.00679232, 0.515618, 1.03299, 0.34851, 0.655882, 0.0001, 45.5, 246, 36.819, 0.179647, 0, 0, 0, 0, 107654
-10852.1, 390012, -272.657, 0.856104, -837.278, 0.00679232, 0.515618, 1.03299, 0.34851, 0.655882, 3, 45.5, 246, 36.819, 0.179647, 0, 0, 0, 0, 107654
-8079.78, 658338, -324.25, 0.0250293, -587.031, 0.658301, 0.476819, 1.03299, 0.34851, 0.655882, 0.0001, 45.5, 246, 26.4323, 0.113463, 0, 0, 1, 0, 107655
-7281.32, 691704, -334.411, 0.0267648, -655.423, 0.734733, 0.451397, 0.993198, 0.349787, 0.651995, 0.0001, 91, 246, 26.4323, 0.113463, 0, 0, 1, 0, 107655
-11566.5, 125187, -23.6619, 2.80783, -890.367, -0.0177705, 0.228134, 1.03299, 0.34851, 0.655882, 0.0001, 45.5, 246, 18.2699, 0.0522109, 0, 0, 1, 0, 107656
-11566.5, 125187, -23.6619, 2.80783, -890.367, -0.0177705, 0.228134, 1.03299, 0.34851, 0.655882, 3, 45.5, 246, 18.2699, 0.0522109, 0, 0, 1, 0, 107656
-9302.32, 108884, -95.2208, 2.36317, -889.182, 0.0853315, 0.304203, 1.03299, 0.34851, 0.655882, 0.0001, 45.5, 246, 30.8132, 0.130467, 0, 0, 1, 0, 107669
-9302.32, 108884, -95.2208, 2.36317, -889.182, 0.0853315, 0.304203, 1.03299, 0.34851, 0.655882, 3, 45.5, 246, 30.8132, 0.130467, 0, 0, 1, 0, 107669
-9194.78, 438085, -286.766, 0.722085, -1160.59, 0.000219343, 0.52028, 1.03299, 0.34851, 0.655882, 0.0001, 45.5, 246, 40.8815, 0.169502, 0, 0, 0, 0, 107672
-7326.36, -14591.6, -5.24735, 2.94076, -900.199, -0.0387278, 0.242314, 1.03299, 0.34851, 0.655882, 0.0001, 45.5, 246, 16.1919, 0.046165, 0, 0, 1, 1, 107674
-7313, 32359.9, -109.064, 3.88232, -934.345, 0.129894, 0.297304, 0.9175, 0.352806, 0.64323, 3, 455, 246, 16.1919, 0.046165, 0, 0, 1, 1, 107674
-8519.26, 199.986, -7.92289, 2.08314, -1070.38, 0.133965, 0.286111, 0.993198, 0.349787, 0.651995, 0.0001, 91, 246, 8.31481, 0.0605024, 0, 0, 1, 1, 107680
-7681.1, -142.148, -28.3414, 2.29473, -722.473, 0.186655, 0.28728, 1.03299, 0.34851, 0.655882, 0.0001, 45.5, 246, 23.4611, 0.0362806, 0, 0, 1, 1, 107681
-8661.21, 214443, -71.6066, 1.53312, -1053.82, 0.556915, 0.274908, 0.958125, 0.351078, 0.648177, 0.0001, 182, 246, 19.4631, 0.0599147, 0, 0, 1, 0, 107685
-8661.21, 214443, -71.6066, 1.53312, -1053.82, 0.556915, 0.274908, 0.958125, 0.351078, 0.648177, 3, 182, 246, 19.4631, 0.0599147, 0, 0, 1, 0, 107685
-11216.7, 344001, -180.928, 0.992181, -818.773, 0.108667, 0.415854, 1.03299, 0.34851, 0.655882, 0.0001, 45.5, 246, 30.1157, 0.130203, 0, 0, 0, 0, 107689
-11216.7, 344001, -180.928, 0.992181, -818.773, 0.108667, 0.415854, 1.03299, 0.34851, 0.655882, 3, 45.5, 246, 30.1157, 0.130203, 0, 0, 0, 0, 107689
-8181.6, 417324, -287.64, 0.968532, -611.32, 0.0329607, 0.442623, 0.958125, 0.351078, 0.648177, 3, 182, 246, 30.7439, 0.159583, 0, 0, 1, 0, 107701
-10772.3, 227219, -245.155, 1.81516, -692.316, -0.0072698, 0.488282, 1.03299, 0.34851, 0.655882, 3, 45.5, 246, 42.0707, 0.229029, 0, 0, 0, 0, 107712
-10154.1, 433737, -38.6743, 0.499505, -939.053, 0.112985, 0.305001, 0.993198, 0.349787, 0.651995, 0.0001, 91, 246, 19.1713, 0.0226725, 0, 0, 1, 0, 107717
-9284.95, 130296, -159.654, 3.58439, -858.639, 0.094571, 0.204443, 1.03299, 0.34851, 0.655882, 3, 45.5, 246, 37.9142, 0.139651, 0, 0, 0, 0, 107724
-6917.04, 144698, -204.776, 3.94545, -894.051, 0.159208, 0.223192, 0.993198, 0.349787, 0.651995, 3, 91, 246, 37.9142, 0.139651, 0, 0, 1, 0, 107724
-848.49, 116763, -282.796, 4.80961, -1137.54, 0.58613, 0.333901, 0.9175, 0.352806, 0.64323, 0.0001, 455, 246, 38.0171, 0.115545, 1.68434, 1, 0, 0, 107727
-848.49, 116763, -282.796, 4.80961, -1137.54, 0.58613, 0.333901, 0.9175, 0.352806, 0.64323, 3, 455, 246, 38.0171, 0.115545, 1.66002, 1, 0, 0, 107727
-8202.36, 99637, -122.268, 2.81172, -1066.94, 0.0180686, 0.293013, 1.03299, 0.34851, 0.655882, 0.0001, 45.5, 246, 38.2032, 0.157826, 0, 0, 1, 0, 107737
-8202.36, 99637, -122.268, 2.81172, -1066.94, 0.0180686, 0.293013, 1.03299, 0.34851, 0.655882, 3, 45.5, 246, 38.2032, 0.157826, 0, 0, 1, 0, 107737
-6808.28, 120091, -160.691, 3.04194, -1084.02, 0.055854, 0.292164, 0.993198, 0.349787, 0.651995, 0.0001, 91, 246, 38.2032, 0.157826, 0, 0, 1, 0, 107737
-1016.55, 174905, -279.158, 3.73176, -1175.07, 0.176632, 0.34475, 0.9175, 0.352806, 0.64323, 0.0001, 455, 246, 38.2032, 0.157826, 1.23485, 1, 0, 0, 107737
-1016.55, 174905, -279.158, 3.73176, -1175.07, 0.176632, 0.34475, 0.9175, 0.352806, 0.64323, 3, 455, 246, 38.2032, 0.157826, 1.25213, 1, 0, 0, 107737
-3951.51, 957147, -339.559, 0.0347939, -1169.23, 0.00854645, 0.453529, 1.03299, 0.34851, 0.655882, 0.0001, 45.5, 246, 37.4618, 0.0898128, 0, 0, 0, 0, 107745
-2856.66, 983713, -350.253, 0.035868, -1171.13, 0.00856349, 0.426092, 0.993198, 0.349787, 0.651995, 3, 91, 246, 37.4618, 0.0898128, 0, 0, 1, 0, 107745
-10441.9, 527213, -194.032, 0.564795, -913.291, -0.000440947, 0.406916, 1.03299, 0.34851, 0.655882, 0.0001, 45.5, 246, 29.2441, 0.0954123, 0, 0, 0, 0, 107748
-10441.9, 527213, -194.032, 0.564795, -913.291, -0.000440947, 0.406916, 1.03299, 0.34851, 0.655882, 3, 45.5, 246, 29.2441, 0.0954123, 0, 0, 0, 0, 107748
-8079.43, 68893.2, -83.4178, 3.20873, -1006.66, 0.510149, 0.21583, 1.03299, 0.34851, 0.655882, 0.0001, 45.5, 246, 31.7703, 0.106851, 0, 0, 1, 0, 107750
-8079.43, 68893.2, -83.4178, 3.20873, -1006.66, 0.510149, 0.21583, 1.03299, 0.34851, 0.655882, 3, 45.5, 246, 31.7703, 0.106851, 0, 0, 1, 0, 107750
-938.399, 172536, -277.763, 4.93448, -1537.44, 1.02299, 0.334399, 0.9175, 0.352806, 0.64323, 0.0001, 455, 246, 31.7703, 0.106851, 1.50317, 1, 0, 0, 107750
-938.399, 172536, -277.763, 4.93448, -1537.44, 1.02299, 0.334399, 0.9175, 0.352806, 0.64323, 3, 455, 246, 31.7703, 0.106851, 1.52161, 1, 0, 0, 107750
-7014.46, 436505, -278.817, 0.160815, -972.794, 0.543529, 0.503576, 1.03299, 0.34851, 0.655882, 0.0001, 45.5, 246, 36.1744, 0.155435, 0, 0, 0, 0, 107752
-9681.87, 98277.2, -86.1777, 3.33289, -732.483, -0.0235478, 0.196075, 1.03299, 0.34851, 0.655882, 0.0001, 45.5, 246, 27.0132, 0.0925125, 0, 0, 1, 0, 107753
-9681.87, 98277.2, -86.1777, 3.33289, -732.483, -0.0235478, 0.196075, 1.03299, 0.34851, 0.655882, 3, 45.5, 246, 27.0132, 0.0925125, 0, 0, 1, 0, 107753
-7343.82, 87576.5, -122.31, 3.89597, -793.139, 0.509334, 0.184913, 0.993198, 0.349787, 0.651995, 0.0001, 91, 246, 28.2734, 0.0869241, 0, 0, 1, 0, 107754
-7343.82, 87576.5, -122.31, 3.89597, -793.139, 0.509334, 0.184913, 0.993198, 0.349787, 0.651995, 3, 91, 246, 28.2734, 0.0869241, 0, 0, 1, 0, 107754
-2019.28, 117699, -251.975, 4.79126, -1164.38, 0.275617, 0.325236, 0.9175, 0.352806, 0.64323, 0.0001, 455, 246, 32.3468, 0.101054, 1.13272, 1, 0, 0, 107757
-2019.28, 117699, -251.975, 4.79126, -1164.38, 0.275617, 0.325236, 0.9175, 0.352806, 0.64323, 3, 455, 246, 32.3468, 0.101054, 1.12996, 1, 0, 0, 107757
-7378.2, 497268, -221.629, 0.435525, -1078.01, 0.00559115, 0.400831, 0.993198, 0.349787, 0.651995, 0.0001, 91, 246, 33.253, 0.113424, 0, 0, 1, 0, 107772
-9513.28, 628871, -119.298, 0.316887, -1008.12, 0.00327545, 0.361609, 1.03299, 0.34851, 0.655882, 0.0001, 45.5, 246, 26.3418, 0.048925, 0, 0, 1, 0, 107783
-9513.28, 628871, -119.298, 0.316887, -1008.12, 0.00327545, 0.361609, 1.03299, 0.34851, 0.655882, 3, 45.5, 246, 26.3418, 0.048925, 0, 0, 1, 0, 107783
-8723.78, 647073, -126.136, 0.327409, -1009.72, 0.00373308, 0.327303, 0.993198, 0.349787, 0.651995, 0.0001, 91, 246, 26.3418, 0.048925, 0, 0, 1, 0, 107783
-7818.6, 665389, -132.964, 0.337434, -1011.49, 0.00422078, 0.297312, 0.958125, 0.351078, 0.648177, 0.0001, 182, 246, 26.3418, 0.048925, 0, 0, 1, 0, 107783
-11029.1, 90628, 15.2321, 3.06669, -1064.63, 0.126658, 0.198885, 1.03299, 0.34851, 0.655882, 0.0001, 45.5, 246, 14.8861, 0.0344228, 0, 0, 0, 0, 107784
-11029.1, 90628, 15.2321, 3.06669, -1064.63, 0.126658, 0.198885, 1.03299, 0.34851, 0.655882, 3, 45.5, 246, 14.8861, 0.0344228, 0, 0, 0, 0, 107784
-8943.19, 120379, -89.3533, 1.15489, -1128.01, -0.00412673, 0.381924, 1.03299, 0.34851, 0.655882, 0.0001, 45.5, 246, 31.3144, 0.164507, 0, 0, 1, 0, 107785
-8943.19, 120379, -89.3533, 1.15489, -1128.01, -0.00412673, 0.381924, 1.03299, 0.34851, 0.655882, 3, 45.5, 246, 31.3144, 0.164507, 0, 0, 1, 0, 107785
-8667.42, 141255, -168.79, 2.28966, -990.469, 0.0729448, 0.382218, 1.03299, 0.34851, 0.655882, 0.0001, 45.5, 246, 42.4649, 0.205327, 0, 0, 1, 0, 107788
-8667.42, 141255, -168.79, 2.28966, -990.469, 0.0729448, 0.382218, 1.03299, 0.34851, 0.655882, 3, 45.5, 246, 42.4649, 0.205327, 0, 0, 1, 0, 107788
-10186.2, 102743, -34.5582, 2.3577, -1105.98, 0.0242591, 0.277073, 1.03299, 0.34851, 0.655882, 0.0001, 45.5, 246, 22.2278, 0.0752805, 0, 0, 1, 0, 107791
-10186.2, 102743, -34.5582, 2.3577, -1105.98, 0.0242591, 0.277073, 1.03299, 0.34851, 0.655882, 3, 45.5, 246, 22.2278, 0.0752805, 0, 0, 1, 0, 107791
-10448.4, 595654, -122.944, 0.486115, -1134.25, 0.000267084, 0.362807, 1.03299, 0.34851, 0.655882, 0.0001, 45.5, 246, 28.8314, 0.0536874, 0, 0, 0, 0, 107792
-10448.4, 595654, -122.944, 0.486115, -1134.25, 0.000267084, 0.362807, 1.03299, 0.34851, 0.655882, 3, 45.5, 246, 28.8314, 0.0536874, 0, 0, 0, 0, 107792
-10956.6, 118979, -44.5771, 2.42835, -637.505, 0.58503, 0.25776, 1.03299, 0.34851, 0.655882, 0.0001, 45.5, 246, 17.883, 0.0603376, 0, 0, 1, 0, 107797
-10956.6, 118979, -44.5771, 2.42835, -637.505, 0.58503, 0.25776, 1.03299, 0.34851, 0.655882, 3, 45.5, 246, 17.883, 0.0603376, 0, 0, 1, 0, 107797
-10050.1, 267435, -20.9075, 1.69241, -775.38, 0.189943, 0.255166, 0.958125, 0.351078, 0.648177, 0.0001, 182, 246, 12.4512, 0.0122599, 0, 0, 1, 0, 107803
-8199.01, 370911, -255.506, 0.495464, -784.169, 0.00487761, 0.478377, 0.993198, 0.349787, 0.651995, 0.0001, 91, 246, 34.5092, 0.177738, 0, 0, 1, 0, 107805
-4979.06, 412185, -495.4, 3.57541, -960.497, 0.31267, 0.529392, 0.958125, 0.351078, 0.648177, 0.0001, 182, 246, 45.1512, 0.206109, 1.23825, 1, 0, 0, 107809
-4979.06, 412185, -495.4, 3.57541, -960.497, 0.31267, 0.529392, 0.958125, 0.351078, 0.648177, 3, 182, 246, 45.1512, 0.206109, 1.57812, 1, 0, 0, 107809
-8533.32, 182770, -271.255, 2.97367, -1027.51, 0.707227, 0.395081, 1.03299, 0.34851, 0.655882, 0.0001, 45.5, 246, 50.7752, 0.225594, 1.02849, 1, 0, 0, 107811
-5205.76, 213401, -326.938, 3.3681, -1187.38, 0.845835, 0.408479, 0.993198, 0.349787, 0.651995, 0.0001, 91, 246, 50.7752, 0.225594, 1.08259, 1, 1, 0, 107811
-422.276, 256566, -400.799, 3.87363, -1414.22, 1.04267, 0.443154, 0.958125, 0.351078, 0.648177, 0.0001, 182, 246, 50.7752, 0.225594, 0, 0, 0, 0, 107811
-422.276, 256566, -400.799, 3.87363, -1414.22, 1.04267, 0.443154, 0.958125, 0.351078, 0.648177, 3, 182, 246, 50.7752, 0.225594, 0, 0, 0, 0, 107811
-7491.26, 66835.2, -100.04, 3.51819, -905.154, 0.409391, 0.180981, 1.03299, 0.34851, 0.655882, 3, 45.5, 246, 33.6294, 0.104451, 0, 0, 0, 0, 107816
-224.138, 147078, -298.81, 5.41382, -1325.89, 0.888041, 0.342923, 0.9175, 0.352806, 0.64323, 0.0001, 455, 246, 33.6294, 0.104451, 1.86873, 1, 0, 0, 107816
-224.138, 147078, -298.81, 5.41382, -1325.89, 0.888041, 0.342923, 0.9175, 0.352806, 0.64323, 3, 455, 246, 33.6294, 0.104451, 1.87262, 1, 0, 0, 107816
-10331.6, 385024, -131.761, 0.58113, -732.88, 0.0447064, 0.379979, 1.03299, 0.34851, 0.655882, 0.0001, 45.5, 246, 23.6023, 0.0877247, 0, 0, 1, 0, 107819
-10331.6, 385024, -131.761, 0.58113, -732.88, 0.0447064, 0.379979, 1.03299, 0.34851, 0.655882, 3, 45.5, 246, 23.6023, 0.0877247, 0, 0, 1, 0, 107819
-15080.5, 267668, -342.717, 3.61678, -618.772, -0.054986, 0.35688, 1.03299, 0.34851, 0.655882, 0.0001, 45.5, 246, 45.9022, 0.20982, 1.05305, 1, 0, 0, 107822
-9705.56, 275977, -398.617, 3.96818, -653.287, 0.00816067, 0.387008, 0.993198, 0.349787, 0.651995, 0.0001, 91, 246, 45.9022, 0.20982, 1.34871, 1, 1, 0, 107822
-9705.56, 275977, -398.617, 3.96818, -653.287, 0.00816067, 0.387008, 0.993198, 0.349787, 0.651995, 3, 91, 246, 45.9022, 0.20982, 1.25569, 1, 1, 0, 107822
-3083.73, 287522, -466.67, 4.39611, -705.684, 0.0851236, 0.44003, 0.958125, 0.351078, 0.648177, 0.0001, 182, 246, 45.9022, 0.20982, 4.18153, 1, 0, 0, 107822
-3083.73, 287522, -466.67, 4.39611, -705.684, 0.0851236, 0.44003, 0.958125, 0.351078, 0.648177, 3, 182, 246, 45.9022, 0.20982, 3.66629, 1, 0, 0, 107822
-11169.7, 321944, -249.977, 1.55039, -1171.29, 0.0834247, 0.485617, 1.03299, 0.34851, 0.655882, 0.0001, 45.5, 246, 42.3338, 0.18626, 0, 0, 0, 0, 107826
-11169.7, 321944, -249.977, 1.55039, -1171.29, 0.0834247, 0.485617, 1.03299, 0.34851, 0.655882, 3, 45.5, 246, 42.3338, 0.18626, 0, 0, 0, 0, 107826
-10528.9, -120685, -11.467, 0.249789, -1143.62, 0.00584087, 0.355444, 1.03299, 0.34851, 0.655882, 0.0001, 45.5, 246, -66.4855, 0.10744, 0, 0, 1, 0, 107828
-10528.9, -120685, -11.467, 0.249789, -1143.62, 0.00584087, 0.355444, 1.03299, 0.34851, 0.655882, 3, 45.5, 246, -66.4855, 0.10744, 0, 0, 1, 0, 107828
-5499.81, 353169, -476.642, 4.13909, -730.917, 0.132979, 0.463797, 0.958125, 0.351078, 0.648177, 0.0001, 182, 246, 43.037, 0.199867, 2.34727, 1, 0, 0, 107838
-5499.81, 353169, -476.642, 4.13909, -730.917, 0.132979, 0.463797, 0.958125, 0.351078, 0.648177, 3, 182, 246, 43.037, 0.199867, 2.20145, 1, 0, 0, 107838
-11231, 136769, -43.7042, 2.31917, -914.674, 0.485338, 0.270933, 1.03299, 0.34851, 0.655882, 0.0001, 45.5, 246, 21.2543, 0.067152, 0, 0, 1, 0, 107841
-11231, 136769, -43.7042, 2.31917, -914.674, 0.485338, 0.270933, 1.03299, 0.34851, 0.655882, 3, 45.5, 246, 21.2543, 0.067152, 0, 0, 1, 0, 107841
-4521.24, 223515, -152.401, 3.27067, -1292.85, 0.802934, 0.271155, 0.9175, 0.352806, 0.64323, 0.0001, 455, 246, 21.2543, 0.067152, 0, 0, 0, 0, 107841
-4521.24, 223515, -152.401, 3.27067, -1292.85, 0.802934, 0.271155, 0.9175, 0.352806, 0.64323, 3, 455, 246, 21.2543, 0.067152, 0, 0, 0, 0, 107841
-7974.57, 288487, -279.573, 0.842146, -1000.32, 0.944815, 0.546441, 0.993198, 0.349787, 0.651995, 0.0001, 91, 246, 41.8592, 0.235692, 0, 0, 1, 0, 107844
-2464.25, 194752, -238.722, 3.8556, -1637.83, 1.41957, 0.319111, 0.9175, 0.352806, 0.64323, 0.0001, 455, 246, 31.3707, 0.123021, 0, 0, 0, 0, 107852
-2464.25, 194752, -238.722, 3.8556, -1637.83, 1.41957, 0.319111, 0.9175, 0.352806, 0.64323, 3, 455, 246, 31.3707, 0.123021, 0, 0, 0, 0, 107852
-12154.4, 212549, -45.7951, 1.62526, -718.843, 0.177086, 0.309999, 1.03299, 0.34851, 0.655882, 3, 45.5, 246, 17.569, 0.0535892, 0, 0, 1, 0, 107853
-10817, 223762, -59.452, 1.73413, -742.616, 0.194923, 0.284321, 0.993198, 0.349787, 0.651995, 3, 91, 246, 17.569, 0.0535892, 0, 0, 1, 0, 107853
-7312.64, 981067, -403.264, 0.0569078, -809.376, 1.28292e-06, 0.498426, 1.03299, 0.34851, 0.655882, 3, 45.5, 246, 31.8609, 0.106171, 0, 0, 0, 0, 107857
-7018.92, 84859.5, -135.356, 3.3654, -1044.61, -0.0540808, 0.238592, 1.03299, 0.34851, 0.655882, 3, 45.5, 246, 41.2298, 0.151583, 0, 0, 1, 0, 107860
-5495.71, 104077, -181.198, 3.66153, -1054.63, 0.000174344, 0.251218, 0.993198, 0.349787, 0.651995, 3, 91, 246, 41.2298, 0.151583, 0, 0, 1, 0, 107860
-3293.13, 124697, -235.822, 4.01367, -1080.96, 0.0648907, 0.282316, 0.958125, 0.351078, 0.648177, 0.0001, 182, 246, 41.2298, 0.151583, 1.05768, 1, 1, 0, 107860
1079.89, 156260, -327.515, 4.60518, -1150.23, 0.175172, 0.357251, 0.9175, 0.352806, 0.64323, 0.0001, 455, 246, 41.2298, 0.151583, 3.85781, 1, 0, 0, 107860
1079.89, 156260, -327.515, 4.60518, -1150.23, 0.175172, 0.357251, 0.9175, 0.352806, 0.64323, 3, 455, 246, 41.2298, 0.151583, 3.88782, 1, 0, 0, 107860
-11338.4, 157525, -89.4741, 2.68588, -1020.38, -0.00866198, 0.269596, 1.03299, 0.34851, 0.655882, 0.0001, 45.5, 246, 28.8606, 0.105195, 0, 0, 0, 0, 107869
-11338.4, 157525, -89.4741, 2.68588, -1020.38, -0.00866198, 0.269596, 1.03299, 0.34851, 0.655882, 3, 45.5, 246, 28.8606, 0.105195, 0, 0, 0, 0, 107869
-6841.54, 885374, -379.339, 0.020575, -788.979, 0.00742327, 0.495385, 1.03299, 0.34851, 0.655882, 3, 45.5, 246, 31.3577, 0.110612, 0, 0, 0, 0, 107870
-9660.57, 376109, -361.69, 0.226227, -645.59, 0.482252, 0.669397, 1.03299, 0.34851, 0.655882, 0.0001, 45.5, 246, 40.4031, 0.243172, 0, 0, 0, 0, 107883
-8383.73, 396628, -377.636, 0.241622, -701.229, 0.522293, 0.663422, 0.993198, 0.349787, 0.651995, 0.0001, 91, 246, 40.4031, 0.243172, 0, 0, 1, 0, 107883
-7504.89, 285561, -399.153, 3.88311, -1052.09, 0.250784, 0.417262, 0.993198, 0.349787, 0.651995, 0.0001, 91, 246, 50.6939, 0.218181, 1.28279, 1, 1, 0, 107885
-7504.89, 285561, -399.153, 3.88311, -1052.09, 0.250784, 0.417262, 0.993198, 0.349787, 0.651995, 3, 91, 246, 50.6939, 0.218181, 1.17599, 1, 1, 0, 107885
-11656, 247680, -166.851, 1.69848, -822.465, 0.138305, 0.388719, 1.03299, 0.34851, 0.655882, 3, 45.5, 246, 32.42, 0.14814, 0, 0, 1, 0, 107888
-7892.34, 976162, -432.865, 0.0247035, -727.983, 0.00796861, 0.52286, 1.03299, 0.34851, 0.655882, 3, 45.5, 246, 31.0187, 0.114626, 0, 0, 0, 0, 107889
-8802.78, 473611, -347.251, 0.182837, -727.382, 0.00196687, 0.595474, 1.03299, 0.34851, 0.655882, 0.0001, 45.5, 246, 37.0085, 0.196241, 0, 0, 0, 0, 107892
-7581.58, 485154, -361.379, 0.189657, -729.355, 0.00211983, 0.581504, 0.993198, 0.349787, 0.651995, 0.0001, 91, 246, 37.0085, 0.196241, 0, 0, 1, 0, 107892
-6188.91, 496938, -375.311, 0.196331, -731.482, 0.00228412, 0.571962, 0.958125, 0.351078, 0.648177, 0.0001, 182, 246, 37.0085, 0.196241, 0, 0, 0, 0, 107892
1066.27, 254885, -357.351, 4.25141, -897.228, 0.222617, 0.374828, 0.9175, 0.352806, 0.64323, 0.0001, 455, 246, 36.1665, 0.151679, 1.70442, 1, 0, 0, 107897
1066.27, 254885, -357.351, 4.25141, -897.228, 0.222617, 0.374828, 0.9175, 0.352806, 0.64323, 3, 455, 246, 36.1665, 0.151679, 1.88316, 1, 0, 0, 107897
-10263.9, 295885, -175.286, 0.973684, -928.634, 0.319657, 0.421926, 1.03299, 0.34851, 0.655882, 0.0001, 45.5, 246, 32.3946, 0.141798, 0, 0, 0, 0, 107898
-10263.9, 295885, -175.286, 0.973684, -928.634, 0.319657, 0.421926, 1.03299, 0.34851, 0.655882, 3, 45.5, 246, 32.3946, 0.141798, 0, 0, 0, 0, 107898
-8888.67, 317675, -192.198, 1.03759, -983.375, 0.341337, 0.396459, 0.993198, 0.349787, 0.651995, 3, 91, 246, 32.3946, 0.141798, 0, 0, 1, 0, 107898
-12629.6, 236902, -169.714, 2.7074, -1179.13, -0.0348493, 0.325358, 1.03299, 0.34851, 0.655882, 0.0001, 45.5, 246, 38.0079, 0.146652, 0, 0, 0, 0, 107899
-12629.6, 236902, -169.714, 2.7074, -1179.13, -0.0348493, 0.325358, 1.03299, 0.34851, 0.655882, 3, 45.5, 246, 38.0079, 0.146652, 0, 0, 0, 0, 107899
-10774.5, 167986, -31.786, 1.47588, -1147.75, 0.0435772, 0.31982, 1.03299, 0.34851, 0.655882, 0.0001, 45.5, 246, 20.9418, 0.0565291, 0, 0, 1, 0, 107905
-10774.5, 167986, -31.786, 1.47588, -1147.75, 0.0435772, 0.31982, 1.03299, 0.34851, 0.655882, 3, 45.5, 246, 20.9418, 0.0565291, 0, 0, 1, 0, 107905
-3776.56, 227691, -338.433, 4.15561, -822.452, 0.0727706, 0.334515, 0.958125, 0.351078, 0.648177, 0.0001, 182, 246, 41.3531, 0.17409, 1.30493, 1, 0, 0, 107907
-3776.56, 227691, -338.433, 4.15561, -822.452, 0.0727706, 0.334515, 0.958125, 0.351078, 0.648177, 3, 182, 246, 41.3531, 0.17409, 1.08764, 1, 0, 0, 107907
-1035.91, 163718, -280.674, 5.05856, -1141.19, 1.69796, 0.337104, 0.9175, 0.352806, 0.64323, 0.0001, 455, 246, 31.2747, 0.111528, 1.25464, 1, 0, 0, 107910
-1035.91, 163718, -280.674, 5.05856, -1141.19, 1.69796, 0.337104, 0.9175, 0.352806, 0.64323, 3, 455, 246, 31.2747, 0.111528, 1.25634, 1, 0, 0, 107910
1019.91, 178587, -329.167, 4.88797, -1300.91, 0.779421, 0.355058, 0.9175, 0.352806, 0.64323, 0.0001, 455, 246, 37.9513, 0.137787, 4.83107, 1, 0, 0, 107914
1019.91, 178587, -329.167, 4.88797, -1300.91, 0.779421, 0.355058, 0.9175, 0.352806, 0.64323, 3, 455, 246, 37.9513, 0.137787, 4.9736, 1, 0, 0, 107914
-11229.2, 229472, -83.2976, 1.3822, -907.628, -0.00884234, 0.342298, 1.03299, 0.34851, 0.655882, 0.0001, 45.5, 246, 24.3246, 0.0881753, 0, 0, 1, 0, 107918
-11229.2, 229472, -83.2976, 1.3822, -907.628, -0.00884234, 0.342298, 1.03299, 0.34851, 0.655882, 3, 45.5, 246, 24.3246, 0.0881753, 0, 0, 1, 0, 107918
-9963.37, 243802, -99.2896, 1.45462, -910.391, -7.54361e-06, 0.315241, 0.993198, 0.349787, 0.651995, 0.0001, 91, 246, 24.3246, 0.0881753, 0, 0, 1, 0, 107918
-9963.37, 243802, -99.2896, 1.45462, -910.391, -7.54361e-06, 0.315241, 0.993198, 0.349787, 0.651995, 3, 91, 246, 24.3246, 0.0881753, 0, 0, 1, 0, 107918
-9974.07, 205105, -145.315, 2.07123, -628.983, 0.179905, 0.31981, 0.993198, 0.349787, 0.651995, 0.0001, 91, 246, 26.6643, 0.123918, 0, 0, 1, 0, 107919
-9974.07, 205105, -145.315, 2.07123, -628.983, 0.179905, 0.31981, 0.993198, 0.349787, 0.651995, 3, 91, 246, 26.6643, 0.123918, 0, 0, 1, 0, 107919
-6438.2, 91903.5, -141.313, 3.10721, -1143.66, 0.008753, 0.279154, 0.993198, 0.349787, 0.651995, 0.0001, 91, 246, 37.9008, 0.150181, 0, 0, 1, 0, 107925
-6438.2, 91903.5, -141.313, 3.10721, -1143.66, 0.008753, 0.279154, 0.993198, 0.349787, 0.651995, 3, 91, 246, 37.9008, 0.150181, 0, 0, 1, 0, 107925
-1625.29, 149933, -261.562, 3.79784, -1213.85, 0.131093, 0.334596, 0.9175, 0.352806, 0.64323, 0.0001, 455, 246, 37.9008, 0.150181, 1.22347, 1, 0, 0, 107925
-1625.29, 149933, -261.562, 3.79784, -1213.85, 0.131093, 0.334596, 0.9175, 0.352806, 0.64323, 3, 455, 246, 37.9008, 0.150181, 1.22479, 1, 0, 0, 107925
-5325.55, 38171.3, -126.176, 2.46283, -530.436, 0.754686, 0.277743, 1.03299, 0.34851, 0.655882, 0.0001, 45.5, 246, 45.8797, 0.117323, 2.82279, 1, 1, 0, 107927
-5325.55, 38171.3, -126.176, 2.46283, -530.436, 0.754686, 0.277743, 1.03299, 0.34851, 0.655882, 3, 45.5, 246, 45.8797, 0.117323, 2.71646, 1, 1, 0, 107927
-2277.69, 79781.3, -234.493, 3.81132, -979.022, 1.48679, 0.30725, 0.9175, 0.352806, 0.64323, 0.0001, 455, 246, 45.8797, 0.117323, 1.4981, 1, 1, 0, 107927
-2277.69, 79781.3, -234.493, 3.81132, -979.022, 1.48679, 0.30725, 0.9175, 0.352806, 0.64323, 3, 455, 246, 45.8797, 0.117323, 1.40715, 1, 1, 0, 107927
-10910.9, 405961, -204.731, 0.810882, -858.906, 0.0122932, 0.432145, 1.03299, 0.34851, 0.655882, 0.0001, 45.5, 246, 31.1364, 0.129104, 0, 0, 0, 0, 107931
-10910.9, 405961, -204.731, 0.810882, -858.906, 0.0122932, 0.432145, 1.03299, 0.34851, 0.655882, 3, 45.5, 246, 31.1364, 0.129104, 0, 0, 0, 0, 107931
-5775.38, 26062.5, -103.833, 3.71184, -1100.35, 0.00753154, 0.223299, 0.993198, 0.349787, 0.651995, 0.0001, 91, 246, 35.3384, 0.0605484, 0, 0, 1, 1, 107934
-5775.38, 26062.5, -103.833, 3.71184, -1100.35, 0.00753154, 0.223299, 0.993198, 0.349787, 0.651995, 3, 91, 246, 35.3384, 0.0605484, 0, 0, 1, 1, 107934
-3203.64, 79208.9, -236.422, 4.67763, -1180.67, 0.188282, 0.330619, 0.9175, 0.352806, 0.64323, 0.0001, 455, 246, 35.3384, 0.0605484, 1.04476, 1, 1, 0, 107934
-3203.64, 79208.9, -236.422, 4.67763, -1180.67, 0.188282, 0.330619, 0.9175, 0.352806, 0.64323, 3, 455, 246, 35.3384, 0.0605484, 1.01441, 1, 1, 0, 107934
-7992.63, 282636, -401.226, 3.4577, -883.388, 0.170958, 0.474375, 0.993198, 0.349787, 0.651995, 0.0001, 91, 246, 49.9917, 0.232186, 1.1765, 1, 1, 0, 107940
-7992.63, 282636, -401.226, 3.4577, -883.388, 0.170958, 0.474375, 0.993198, 0.349787, 0.651995, 3, 91, 246, 49.9917, 0.232186, 1.04461, 1, 1, 0, 107940
-11247.4, 298460, -226.888, 1.1639, -708.567, 0.143029, 0.473543, 1.03299, 0.34851, 0.655882, 0.0001, 45.5, 246, 34.7489, 0.18171, 0, 0, 0, 0, 107942
-11247.4, 298460, -226.888, 1.1639, -708.567, 0.143029, 0.473543, 1.03299, 0.34851, 0.655882, 3, 45.5, 246, 34.7489, 0.18171, 0, 0, 0, 0, 107942
-9253.36, 237929, -73.0374, 1.93301, -793.86, 0.0602251, 0.262329, 0.958125, 0.351078, 0.648177, 0.0001, 182, 246, 17.9316, 0.0512168, 0, 0, 1, 0, 107943
-4337.52, 324759, -483.443, 3.06876, -708.8, 0.398644, 0.606284, 0.958125, 0.351078, 0.648177, 0.0001, 182, 246, 47.1203, 0.247439, 1.64514, 1, 0, 0, 107945
-4337.52, 324759, -483.443, 3.06876, -708.8, 0.398644, 0.606284, 0.958125, 0.351078, 0.648177, 3, 182, 246, 47.1203, 0.247439, 1.46652, 1, 0, 0, 107945
-11189.8, -125395, -514.025, 1.90685, -1084.29, 1.2171, 0.548608, 0.9175, 0.352806, 0.64323, 0.0001, 455, 246, 533.439, 0.147868, 0, 0, 1, 0, 107946
-13026.2, 238937, -325.602, 3.43599, -588.535, -0.0559546, 0.368947, 1.03299, 0.34851, 0.655882, 0.0001, 45.5, 246, 46.2741, 0.214996, 1.07742, 1, 0, 0, 107948
-8423.13, 246435, -376.448, 3.75706, -619.033, 0.000885427, 0.393452, 0.993198, 0.349787, 0.651995, 0.0001, 91, 246, 46.2741, 0.214996, 1.33384, 1, 1, 0, 107948
-8423.13, 246435, -376.448, 3.75706, -619.033, 0.000885427, 0.393452, 0.993198, 0.349787, 0.651995, 3, 91, 246, 46.2741, 0.214996, 1.22601, 1, 1, 0, 107948
-2775.2, 256601, -437.664, 4.14323, -664.739, 0.0694536, 0.438436, 0.958125, 0.351078, 0.648177, 0.0001, 182, 246, 46.2741, 0.214996, 2.61032, 1, 0, 0, 107948
-2775.2, 256601, -437.664, 4.14323, -664.739, 0.0694536, 0.438436, 0.958125, 0.351078, 0.648177, 3, 182, 246, 46.2741, 0.214996, 2.42735, 1, 0, 0, 107948
-9188.75, 204345, -318.461, 3.33288, -858.241, 0.137466, 0.403706, 1.03299, 0.34851, 0.655882, 0.0001, 45.5, 246, 53.1706, 0.239578, 1.22794, 1, 0, 0, 107951
-9188.75, 204345, -318.461, 3.33288, -858.241, 0.137466, 0.403706, 1.03299, 0.34851, 0.655882, 3, 45.5, 246, 53.1706, 0.239578, 1.13553, 1, 0, 0, 107951
-5067.49, 221612, -376.933, 3.67918, -913.416, 0.195677, 0.428062, 0.993198, 0.349787, 0.651995, 0.0001, 91, 246, 53.1706, 0.239578, 1.57831, 1, 1, 0, 107951
-5067.49, 221612, -376.933, 3.67918, -913.416, 0.195677, 0.428062, 0.993198, 0.349787, 0.651995, 3, 91, 246, 53.1706, 0.239578, 1.42656, 1, 1, 0, 107951
-8746.81, 130603, -144.489, 2.18284, -1035.35, 0.0999893, 0.368785, 1.03299, 0.34851, 0.655882, 0.0001, 45.5, 246, 39.7924, 0.190593, 0, 0, 1, 0, 107954
-8746.81, 130603, -144.489, 2.18284, -1035.35, 0.0999893, 0.368785, 1.03299, 0.34851, 0.655882, 3, 45.5, 246, 39.7924, 0.190593, 0, 0, 1, 0, 107954
-10651.6, 142335, -97.9911, 2.32254, -812.243, 0.777553, 0.291864, 1.03299, 0.34851, 0.655882, 0.0001, 45.5, 246, 27.5909, 0.107437, 0, 0, 1, 0, 107961
-10651.6, 142335, -97.9911, 2.32254, -812.243, 0.777553, 0.291864, 1.03299, 0.34851, 0.655882, 3, 45.5, 246, 27.5909, 0.107437, 0, 0, 1, 0, 107961
-9156.46, 162215, -124.366, 2.59993, -935.72, 0.916774, 0.279531, 0.993198, 0.349787, 0.651995, 3, 91, 246, 27.5909, 0.107437, 0, 0, 1, 0, 107961
-9536.37, 52667.3, 11.5375, 3.49437, -1117.85, 0.324397, 0.158413, 1.03299, 0.34851, 0.655882, 0.0001, 45.5, 246, 16.4652, 0.0473144, 1.06689, 1, 0, 0, 107977
-9536.37, 52667.3, 11.5375, 3.49437, -1117.85, 0.324397, 0.158413, 1.03299, 0.34851, 0.655882, 3, 45.5, 246, 16.4652, 0.0473144, 1.01481, 1, 0, 0, 107977
-9796.44, 153613, -180.839, 3.31236, -860.617, -0.0516787, 0.262255, 1.03299, 0.34851, 0.655882, 0.0001, 45.5, 246, 39.9004, 0.161208, 0, 0, 0, 0, 107980
-9796.44, 153613, -180.839, 3.31236, -860.617, -0.0516787, 0.262255, 1.03299, 0.34851, 0.655882, 3, 45.5, 246, 39.9004, 0.161208, 0, 0, 0, 0, 107980
-7220.91, 166794, -224.402, 3.60283, -875.455, 0.000855816, 0.274647, 0.993198, 0.349787, 0.651995, 3, 91, 246, 39.9004, 0.161208, 0, 0, 1, 0, 107980
-9968.33, 305292, -412.879, 3.34133, -708.421, -0.000121863, 0.49348, 0.993198, 0.349787, 0.651995, 0.0001, 91, 246, 47.3539, 0.230015, 1.07335, 1, 1, 0, 107985
-3661.47, 318089, -475.538, 3.66383, -752.321, 0.0537644, 0.531689, 0.958125, 0.351078, 0.648177, 0.0001, 182, 246, 47.3539, 0.230015, 2.7789, 1, 0, 0, 107985
-3661.47, 318089, -475.538, 3.66383, -752.321, 0.0537644, 0.531689, 0.958125, 0.351078, 0.648177, 3, 182, 246, 47.3539, 0.230015, 2.57943, 1, 0, 0, 107985
-11149.3, 415352, -150.365, 0.567733, -537.271, 0.850574, 0.380603, 1.03299, 0.34851, 0.655882, 0.0001, 45.5, 246, 20.3003, 0.0801529, 0, 0, 1, 0, 107990
-11149.3, 415352, -150.365, 0.567733, -537.271, 0.850574, 0.380603, 1.03299, 0.34851, 0.655882, 3, 45.5, 246, 20.3003, 0.0801529, 0, 0, 1, 0, 107990
-8197.28, 81196.8, -73.5526, 2.27788, -1145.32, 0.00101179, 0.290577, 0.993198, 0.349787, 0.651995, 0.0001, 91, 246, 26.3181, 0.111816, 0, 0, 1, 0, 107996
