200.0	6.42425293887e-06
300.0	4.36563761683e-06
350.0	4.881009288e-06
400.0	5.0126693174e-06
450.0	5.28062408766e-06
500.0	4.92548158165e-06
550.0	4.77407586265e-06
600.0	4.58293807638e-06
650.0	4.53707569819e-06
700.0	4.89228659822e-06
750.0	4.61870338223e-06
800.0	4.15512813337e-06
850.0	4.10405512727e-06
900.0	4.07059512742e-06
950.0	4.07169192002e-06
1000.0	4.32713976175e-06
1100.0	4.57285226467e-06
1200.0	4.40653406203e-06
1500.0	3.54101127172e-06
2000.0	3.32567713184e-06
