200.0	0.000389224697461
250.0	0.000403750484827
300.0	0.000400460061057
350.0	0.000391109905566
400.0	0.000383474549535
450.0	0.000378083880597
500.0	0.000374066953161
600.0	0.000291242254478
1000.0	0.000589440372896
1100.0	0.000527656130998
1200.0	0.000320133218249
1500.0	0.000121197359495
2000.0	0.00011044771837
