200.0	1.23448474057e-05
300.0	9.00917087971e-06
350.0	1.02720194202e-05
400.0	1.09436305453e-05
450.0	1.19862028061e-05
500.0	1.1439792322e-05
550.0	1.13839249357e-05
600.0	1.1192937043e-05
650.0	1.13763292332e-05
700.0	1.27235478658e-05
750.0	1.22315331267e-05
800.0	1.11344881326e-05
850.0	1.12487397598e-05
900.0	1.14106822796e-05
950.0	1.16789626401e-05
1000.0	1.28004076807e-05
1100.0	1.42693349247e-05
1200.0	1.42747309921e-05
1500.0	1.25234870768e-05
2000.0	1.40247702351e-05
