200.0	0.0004983824195928923
300.0	0.0002942578551032441
350.0	0.000980901956475074
400.0	0.001361760114026293
450.0	0.0008579389936601603
500.0	0.000336847536527593
550.0	0.000446846527979133
600.0	0.00031302122823661225
650.0	0.0004814752662033491
700.0	0.0004755659919349135
750.0	0.00045566727290688506
800.0	0.00048746404191699744
850.0	0.0004172021482127327
900.0	0.0005627770147842951
950.0	0.0003088918108295737
1000.0	0.0002132910931346624
