200.0	9.635330063864243e-05
300.0	4.9194910868130085e-05
350.0	0.0003310468684045255
400.0	0.0006179368521769682
450.0	0.00027594783022636185
500.0	6.235541129111348e-05
550.0	9.696759091460111e-05
600.0	5.845133304004926e-05
650.0	0.00011367163601020109
700.0	0.00011376528487716117
750.0	0.0001081837859165456
800.0	0.00012281037744333667
850.0	9.752649749599408e-05
900.0	0.0001614371475823802
950.0	6.427808937947693e-05
1000.0	3.9614709423546306e-05
