%!PS-Adobe-2.0 EPSF-2.0
%%BoundingBox:  0 0 567 301
%%Title: dataset/plots/Likelihood_refs_c6.eps: Likelihood reference for variable: dataset_Likelihood_variables[5]_nice
%%Creator: ROOT Version 6.20/04
%%CreationDate: Thu May  7 18:43:23 2020
%%DocumentNeededResources: ProcSet (FontSetInit)
%%EndComments
%%BeginProlog
80 dict begin
/s {stroke} def /l {lineto} def /m {moveto} def /t {translate} def
/r {rotate} def /rl {roll}  def /R {repeat} def
/d {rlineto} def /rm {rmoveto} def /gr {grestore} def /f {eofill} def
/c {setrgbcolor} def /black {0 setgray} def /sd {setdash} def
/cl {closepath} def /sf {scalefont setfont} def /lw {setlinewidth} def
/box {m dup 0 exch d exch 0 d 0 exch neg d cl} def
/NC{systemdict begin initclip end}def/C{NC box clip newpath}def
/bl {box s} def /bf {gsave box gsave f grestore 1 lw [] 0 sd s grestore} def /Y { 0 exch d} def /X { 0 d} def 
/K {{pop pop 0 moveto} exch kshow} bind def
/ita {/ang 15 def gsave [1 0 ang dup sin exch cos div 1 0 0] concat} def 
/mp {newpath /y exch def /x exch def} def
/side {[w .77 mul w .23 mul] .385 w mul sd w 0 l currentpoint t -144 r} def
/mr {mp x y w2 0 360 arc} def /m24 {mr s} def /m20 {mr f} def
/mb {mp x y w2 add m w2 neg 0 d 0 w neg d w 0 d 0 w d cl} def
/mt {mp x y w2 add m w2 neg w neg d w 0 d cl} def
/w4 {w 4 div} def
/w6 {w 6 div} def
/w8 {w 8 div} def
/m21 {mb f} def /m25 {mb s} def /m22 {mt f} def /m26{mt s} def
/m23 {mp x y w2 sub m w2 w d w neg 0 d cl f} def
/m27 {mp x y w2 add m w3 neg w2 neg d w3 w2 neg d w3 w2 d cl s} def
/m28 {mp x w2 sub y w2 sub w3 add m w3 0 d  0 w3 neg d w3 0 d 0 w3 d w3 0 d  0 w3 d w3 neg 0 d 0 w3 d w3 neg 0 d 0 w3 neg d w3 neg 0 d cl s } def
/m29 {mp gsave x w2 sub y w2 add w3 sub m currentpoint t 4 {side} repeat cl fill gr} def
/m30 {mp gsave x w2 sub y w2 add w3 sub m currentpoint t 4 {side} repeat cl s gr} def
/m31 {mp x y w2 sub m 0 w d x w2 sub y m w 0 d x w2 sub y w2 add m w w neg d x w2 sub y w2 sub m w w d s} def
/m32 {mp x y w2 sub m w2 w d w neg 0 d cl s} def
/m33 {mp x y w2 add m w3 neg w2 neg d w3 w2 neg d w3 w2 d cl f} def
/m34 {mp x w2 sub y w2 sub w3 add m w3 0 d  0 w3 neg d w3 0 d 0 w3 d w3 0 d  0 w3 d w3 neg 0 d 0 w3 d w3 neg 0 d 0 w3 neg d w3 neg 0 d cl f } def
/m35 {mp x y w2 add m w2 neg w2 neg d w2 w2 neg d w2 w2 d w2 neg w2 d x y w2 sub m 0 w d x w2 sub y m w 0 d s} def
/m36 {mb x w2 sub y w2 add m w w neg d x w2 sub y w2 sub m w w d s} def
/m37 {mp x y m w4 neg w2 d w4 neg w2 neg d w2 0 d  w4 neg w2 neg d w2 0 d w4 neg w2 d w2 0 d w4 neg w2 d w4 neg w2 neg d cl s} def
/m38 {mp x w4 sub y w2 add m w4 neg w4 neg d 0 w2 neg d w4 w4 neg d w2 0 d w4 w4 d 0 w2 d w4 neg w4 d w2 neg 0 d x y w2 sub m 0 w d x w2 sub y m w 0 d cl s} def
/m39 {mp x y m w4 neg w2 d w4 neg w2 neg d w2 0 d  w4 neg w2 neg d w2 0 d w4 neg w2 d w2 0 d w4 neg w2 d w4 neg w2 neg d cl f} def
/m40 {mp x y m w4 w2 d w4 w4 neg d w2 neg w4 neg d w2 w4 neg d w4 neg w4 neg d w4 neg w2 d w4 neg w2 neg d w4 neg w4 d w2 w4 d w2 neg w4 d w4 w4 d w4 w2 neg d cl s} def
/m41 {mp x y m w4 w2 d w4 w4 neg d w2 neg w4 neg d w2 w4 neg d w4 neg w4 neg d w4 neg w2 d w4 neg w2 neg d w4 neg w4 d w2 w4 d w2 neg w4 d w4 w4 d w4 w2 neg d cl f} def
/m42 {mp x y w2 add m w8 neg w2 -3 4 div mul d w2 -3 4 div mul w8 neg d w2 3 4 div mul w8 neg d w8 w2 -3 4 div mul d w8 w2 3 4 div mul d w2 3 4 div mul w8 d w2 -3 4 div mul w8 d w8 neg w2 3 4 div mul d cl s} def
/m43 {mp x y w2 add m w8 neg w2 -3 4 div mul d w2 -3 4 div mul w8 neg d w2 3 4 div mul w8 neg d w8 w2 -3 4 div mul d w8 w2 3 4 div mul d w2 3 4 div mul w8 d w2 -3 4 div mul w8 d w8 neg w2 3 4 div mul d cl f} def
/m44 {mp x y m w6 neg w2 d w2 2 3 div mul 0 d w6 neg w2 neg d w2 w6 d 0 w2 -2 3 div mul d w2 neg w6 d w6 w2 neg d w2 -2 3 div mul 0 d w6 w2 d w2 neg w6 neg d 0 w2 2 3 div mul d w2 w6 neg d cl s} def
/m45 {mp x y m w6 neg w2 d w2 2 3 div mul 0 d w6 neg w2 neg d w2 w6 d 0 w2 -2 3 div mul d w2 neg w6 d w6 w2 neg d w2 -2 3 div mul 0 d w6 w2 d w2 neg w6 neg d 0 w2 2 3 div mul d w2 w6 neg d cl f} def
/m46 {mp x y w4 add m w4 neg w4 d w4 neg w4 neg d  w4 w4 neg d w4 neg w4 neg d w4 w4 neg d w4 w4 d w4 w4 neg d w4 w4 d w4 neg w4 d w4 w4 d w4 neg w4 d w4 neg w4 neg d cl s} def
/m47 {mp x y w4 add m w4 neg w4 d w4 neg w4 neg d w4 w4 neg d w4 neg w4 neg d  w4 w4 neg d w4 w4 d w4 w4 neg d w4 w4 d w4 neg w4 d w4 w4 d w4 neg w4 d w4 neg w4 neg d cl f} def
/m48 {mp x y w4 add m w4 neg w4 d w4 neg w4 neg d w4 w4 neg d  w4 neg w4 neg d w4 w4 neg d w4 w4 d w4 w4 neg d w4 w4 d w4 neg w4 d w4 w4 d w4 neg w4 d w4 neg w4 neg d  w4 w4 neg d w4 neg w4 neg d w4 neg w4 d w4 w4 d cl f} def
/m49 {mp x w2 sub w3 add y w2 sub w3 add m  0 w3 neg d w3 0 d 0 w3 d w3 0 d 0 w3 d w3 neg 0 d 0 w3 d w3 neg 0 d 0 w3 neg d w3 neg 0 d 0 w3 neg d w3 0 d 0 w3 d w3 0 d 0 w3 neg d w3 neg 0 d cl f } def
/m2 {mp x y w2 sub m 0 w d x w2 sub y m w 0 d s} def
/m5 {mp x w2 sub y w2 sub m w w d x w2 sub y w2 add m w w neg d s} def
%%IncludeResource: ProcSet (FontSetInit)
%%IncludeResource: font Times-Roman
%%IncludeResource: font Times-Italic
%%IncludeResource: font Times-Bold
%%IncludeResource: font Times-BoldItalic
%%IncludeResource: font Helvetica
%%IncludeResource: font Helvetica-Oblique
%%IncludeResource: font Helvetica-Bold
%%IncludeResource: font Helvetica-BoldOblique
%%IncludeResource: font Courier
%%IncludeResource: font Courier-Oblique
%%IncludeResource: font Courier-Bold
%%IncludeResource: font Courier-BoldOblique
%%IncludeResource: font Symbol
%%IncludeResource: font ZapfDingbats
/reEncode {exch findfont dup length dict begin {1 index /FID eq  {pop pop} {def} ifelse } forall /Encoding exch def currentdict end dup /FontName get exch definefont pop } def [/Times-Bold /Times-Italic /Times-BoldItalic /Helvetica /Helvetica-Oblique
 /Helvetica-Bold /Helvetica-BoldOblique /Courier /Courier-Oblique /Courier-Bold /Courier-BoldOblique /Times-Roman /AvantGarde-Book /AvantGarde-BookOblique /AvantGarde-Demi /AvantGarde-DemiOblique /Bookman-Demi /Bookman-DemiItalic /Bookman-Light
 /Bookman-LightItalic /Helvetica-Narrow /Helvetica-Narrow-Bold /Helvetica-Narrow-BoldOblique /Helvetica-Narrow-Oblique /NewCenturySchlbk-Roman /NewCenturySchlbk-Bold /NewCenturySchlbk-BoldItalic /NewCenturySchlbk-Italic /Palatino-Bold
 /Palatino-BoldItalic /Palatino-Italic /Palatino-Roman ] {ISOLatin1Encoding reEncode } forall
%%EndProlog
%%BeginSetup
%%EndSetup
newpath  gsave  .25 .25 scale  gsave  0 0 t 0.490196 0.545098 0.615686 c[  ] 0 sd 3 lw 0.941176 0.941176 0.941176 c 2268 1205 0 0 bf 0.490196 0.545098 0.615686 c 0.941176 0.941176 0.941176 c 1088 1181 23 12 bf black 1 1 0.992157 c 904 933 153 142 bf
 black 904 933 153 142 bl 1 1 0.992157 c 904 933 153 142 bf black 904 933 153 142 bl 0 0 1 c 1 1 1 c 0 0 1 c 244 151 m 15 X s 273 151 m 16 X s 244 144 m 14 Y s 289 144 m 14 Y s /w 19 def /w2 {w 2 div} def /w3 {w 3 div} def 266 151 m24 311 151 m 2 Y s
 311 166 m 2 Y s 289 160 m 16 X s 318 160 m 16 X s 305 151 m 13 X s 305 168 m 13 X s 289 153 m 13 Y s 334 153 m 13 Y s 311 160 m24 357 168 m 7 Y s 357 188 m 7 Y s 334 182 m 16 X s 363 182 m 16 X s 350 168 m 13 X s 350 195 m 13 X s 334 175 m 13 Y s
 379 175 m 13 Y s 357 182 m24 402 191 m 10 Y s 402 215 m 10 Y s 379 208 m 16 X s 409 208 m 15 X s 395 191 m 14 X s 395 225 m 14 X s 379 201 m 14 Y s 424 201 m 14 Y s 402 208 m24 447 246 m 17 Y s 447 276 m 17 Y s 424 270 m 16 X s 454 270 m 16 X s 440
 246 m 14 X s 440 293 m 14 X s 424 263 m 13 Y s 470 263 m 13 Y s 447 270 m24 492 347 m 26 Y s 492 387 m 25 Y s 470 380 m 15 X s 499 380 m 16 X s 485 347 m 14 X s 485 412 m 14 X s 470 373 m 14 Y s 515 373 m 14 Y s 492 380 m24 537 484 m 34 Y s 537 532
 m 34 Y s 515 525 m 15 X s 544 525 m 16 X s 530 484 m 14 X s 530 566 m 14 X s 515 518 m 14 Y s 560 518 m 14 Y s 537 525 m24 582 563 m 39 Y s 582 615 m 39 Y s 560 609 m 16 X s 589 609 m 16 X s 576 563 m 13 X s 576 654 m 13 X s 560 602 m 13 Y s 605 602
 m 13 Y s 582 609 m24 628 677 m 44 Y s 628 734 m 44 Y s 605 728 m 16 X s 634 728 m 16 X s 621 677 m 13 X s 621 778 m 13 X s 605 721 m 13 Y s 650 721 m 13 Y s 628 728 m24 673 787 m 48 Y s 673 849 m 49 Y s 650 842 m 16 X s 680 842 m 15 X s 666 787 m 14
 X s 666 898 m 14 X s 650 835 m 14 Y s 695 835 m 14 Y s 673 842 m24 718 803 m 50 Y s 718 866 m 50 Y s 695 860 m 16 X s 725 860 m 16 X s 711 803 m 14 X s 711 916 m 14 X s 695 853 m 13 Y s 741 853 m 13 Y s 718 860 m24 763 673 m 43 Y s 763 730 m 44 Y s
 741 723 m 15 X s 770 723 m 16 X s 756 673 m 14 X s 756 774 m 14 X s 741 716 m 14 Y s 786 716 m 14 Y s 763 723 m24 808 380 m 28 Y s 808 422 m 28 Y s 786 415 m 16 X s 815 415 m 16 X s 802 380 m 13 X s 802 450 m 13 X s 786 408 m 14 Y s 831 408 m 14 Y s
 808 415 m24 853 222 m 14 Y s 853 250 m 14 Y s 831 243 m 16 X s 860 243 m 16 X s 847 222 m 13 X s 847 264 m 13 X s 831 236 m 14 Y s 876 236 m 14 Y s 853 243 m24 899 172 m 7 Y s 899 193 m 7 Y s 876 186 m 16 X s 905 186 m 16 X s 892 172 m 13 X s 892
 200 m 13 X s 876 179 m 14 Y s 921 179 m 14 Y s 899 186 m24 944 161 m 5 Y s 944 180 m 4 Y s 921 173 m 16 X s 951 173 m 15 X s 937 161 m 14 X s 937 184 m 14 X s 921 166 m 14 Y s 966 166 m 14 Y s 944 173 m24 966 151 m 16 X s 996 151 m 16 X s 966 144 m
 14 Y s 1012 144 m 14 Y s 989 151 m24 1034 148 m s 1034 162 m 1 Y s 1012 155 m 15 X s 1041 155 m 16 X s 1027 148 m 14 X s 1027 163 m 14 X s 1012 148 m 14 Y s 1057 148 m 14 Y s 1034 155 m24 black 153 142 m 904 X s 238 171 m -29 Y s 264 157 m -15 Y s
 289 157 m -15 Y s 314 157 m -15 Y s 339 157 m -15 Y s 365 171 m -29 Y s 390 157 m -15 Y s 415 157 m -15 Y s 440 157 m -15 Y s 466 157 m -15 Y s 491 171 m -29 Y s 516 157 m -15 Y s 542 157 m -15 Y s 567 157 m -15 Y s 592 157 m -15 Y s 617 171 m -29 Y
 s 643 157 m -15 Y s 668 157 m -15 Y s 693 157 m -15 Y s 718 157 m -15 Y s 744 171 m -29 Y s 769 157 m -15 Y s 794 157 m -15 Y s 819 157 m -15 Y s 845 157 m -15 Y s 870 171 m -29 Y s 895 157 m -15 Y s 920 157 m -15 Y s 946 157 m -15 Y s 971 157 m -15
 Y s 996 171 m -29 Y s 238 171 m -29 Y s 213 157 m -15 Y s 188 157 m -15 Y s 163 157 m -15 Y s 996 171 m -29 Y s 1021 157 m -15 Y s 1047 157 m -15 Y s
 gsave  1088 1181 23 12 C 230.845 105.238 t 0 r /Helvetica findfont 34.0157 sf 0 0 m (1) show NC gr 
 gsave  1088 1181 23 12 C 339.479 105.238 t 0 r /Helvetica findfont 34.0157 sf 0 0 m (1.5) show NC gr 
 gsave  1088 1181 23 12 C 478.665 105.238 t 0 r /Helvetica findfont 34.0157 sf 0 0 m (2) show NC gr 
 gsave  1088 1181 23 12 C 590.693 105.238 t 0 r /Helvetica findfont 34.0157 sf 0 0 m (2.5) show NC gr 
 gsave  1088 1181 23 12 C 733.274 105.238 t 0 r /Helvetica findfont 34.0157 sf 0 0 m (3) show NC gr 
 gsave  1088 1181 23 12 C 845.302 105.238 t 0 r /Helvetica findfont 34.0157 sf 0 0 m (3.5) show NC gr 
 gsave  1088 1181 23 12 C 984.488 105.238 t 0 r /Helvetica findfont 34.0157 sf 0 0 m (4) show NC gr  153 1075 m 904 X s 238 1046 m 29 Y s 264 1060 m 15 Y s 289 1060 m 15 Y s 314 1060 m 15 Y s 339 1060 m 15 Y s 365 1046 m 29 Y s 390 1060 m 15 Y s 415
 1060 m 15 Y s 440 1060 m 15 Y s 466 1060 m 15 Y s 491 1046 m 29 Y s 516 1060 m 15 Y s 542 1060 m 15 Y s 567 1060 m 15 Y s 592 1060 m 15 Y s 617 1046 m 29 Y s 643 1060 m 15 Y s 668 1060 m 15 Y s 693 1060 m 15 Y s 718 1060 m 15 Y s 744 1046 m 29 Y s
 769 1060 m 15 Y s 794 1060 m 15 Y s 819 1060 m 15 Y s 845 1060 m 15 Y s 870 1046 m 29 Y s 895 1060 m 15 Y s 920 1060 m 15 Y s 946 1060 m 15 Y s 971 1060 m 15 Y s 996 1046 m 29 Y s 238 1046 m 29 Y s 213 1060 m 15 Y s 188 1060 m 15 Y s 163 1060 m 15 Y
 s 996 1046 m 29 Y s 1021 1060 m 15 Y s 1047 1060 m 15 Y s 153 142 m 933 Y s 179 142 m -26 X s 166 164 m -13 X s 166 186 m -13 X s 166 208 m -13 X s 179 230 m -26 X s 166 252 m -13 X s 166 274 m -13 X s 166 296 m -13 X s 179 318 m -26 X s 166 340 m
 -13 X s 166 362 m -13 X s 166 384 m -13 X s 179 406 m -26 X s 166 428 m -13 X s 166 450 m -13 X s 166 472 m -13 X s 179 494 m -26 X s 166 516 m -13 X s 166 538 m -13 X s 166 560 m -13 X s 179 582 m -26 X s 166 604 m -13 X s 166 626 m -13 X s 166 648
 m -13 X s 179 670 m -26 X s 166 692 m -13 X s 166 714 m -13 X s 166 736 m -13 X s 179 758 m -26 X s 166 780 m -13 X s 166 802 m -13 X s 166 824 m -13 X s 179 846 m -26 X s 166 868 m -13 X s 166 891 m -13 X s 166 913 m -13 X s 179 935 m -26 X s 166
 957 m -13 X s 166 979 m -13 X s 166 1001 m -13 X s 179 1023 m -26 X s 179 1023 m -26 X s 166 1045 m -13 X s 166 1067 m -13 X s
 gsave  1088 1181 23 12 C 125.607 129.002 t 0 r /Helvetica findfont 34.0157 sf 0 0 m (0) show NC gr 
 gsave  1088 1181 23 12 C 108.633 217.266 t 0 r /Helvetica findfont 34.0157 sf 0 0 m (20) show NC gr 
 gsave  1088 1181 23 12 C 108.633 305.531 t 0 r /Helvetica findfont 34.0157 sf 0 0 m (40) show NC gr 
 gsave  1088 1181 23 12 C 108.633 393.795 t 0 r /Helvetica findfont 34.0157 sf 0 0 m (60) show NC gr 
 gsave  1088 1181 23 12 C 108.633 482.059 t 0 r /Helvetica findfont 34.0157 sf 0 0 m (80) show NC gr 
 gsave  1088 1181 23 12 C 88.2644 570.324 t 0 r /Helvetica findfont 34.0157 sf 0 0 m (100) show NC gr 
 gsave  1088 1181 23 12 C 88.2644 658.588 t 0 r /Helvetica findfont 34.0157 sf 0 0 m (120) show NC gr 
 gsave  1088 1181 23 12 C 88.2644 746.853 t 0 r /Helvetica findfont 34.0157 sf 0 0 m (140) show NC gr 
 gsave  1088 1181 23 12 C 88.2644 835.117 t 0 r /Helvetica findfont 34.0157 sf 0 0 m (160) show NC gr 
 gsave  1088 1181 23 12 C 88.2644 923.382 t 0 r /Helvetica findfont 34.0157 sf 0 0 m (180) show NC gr 
 gsave  1088 1181 23 12 C 88.2644 1011.65 t 0 r /Helvetica findfont 34.0157 sf 0 0 m (200) show NC gr  1057 142 m 933 Y s 1031 142 m 26 X s 1044 164 m 13 X s 1044 186 m 13 X s 1044 208 m 13 X s 1031 230 m 26 X s 1044 252 m 13 X s 1044 274 m 13 X s
 1044 296 m 13 X s 1031 318 m 26 X s 1044 340 m 13 X s 1044 362 m 13 X s 1044 384 m 13 X s 1031 406 m 26 X s 1044 428 m 13 X s 1044 450 m 13 X s 1044 472 m 13 X s 1031 494 m 26 X s 1044 516 m 13 X s 1044 538 m 13 X s 1044 560 m 13 X s 1031 582 m 26 X
 s 1044 604 m 13 X s 1044 626 m 13 X s 1044 648 m 13 X s 1031 670 m 26 X s 1044 692 m 13 X s 1044 714 m 13 X s 1044 736 m 13 X s 1031 758 m 26 X s 1044 780 m 13 X s 1044 802 m 13 X s 1044 824 m 13 X s 1031 846 m 26 X s 1044 868 m 13 X s 1044 891 m 13
 X s 1044 913 m 13 X s 1031 935 m 26 X s 1044 957 m 13 X s 1044 979 m 13 X s 1044 1001 m 13 X s 1031 1023 m 26 X s 1031 1023 m 26 X s 1044 1045 m 13 X s 1044 1067 m 13 X s 0 0 1 c 6 lw 1 1 1 c black 0 0 1 c 153 142 m 47 X 1 Y 16 X 1 Y 12 X 1 Y 10 X 1
 Y 8 X 1 Y 7 X 1 Y 6 X 1 Y 6 X 1 Y 5 X 1 Y 6 X 1 Y 4 X 1 Y 5 X 1 Y 4 X 1 Y 4 X 1 Y 4 X 1 Y 3 X 1 Y 4 X 1 Y 3 X 1 Y 3 X 1 Y 4 X 1 Y 3 X 1 Y 3 X 1 Y 3 X 1 Y 3 X 1 Y 3 X 1 Y 3 X 1 Y 2 X 1 Y 3 X 1 Y 2 X 1 Y 3 X 1 Y 2 X 1 Y 2 X 1 Y 2 X 1 Y 2 X 1 Y 3 X 1 Y
 2 X 1 Y 2 X 1 Y 2 X 1 Y 2 X 1 Y 2 X 1 Y 2 X 1 Y 2 X 1 Y 2 X 1 Y 1 X 1 Y 2 X 1 Y 1 X 1 Y 2 X 1 Y 2 X 1 Y 1 X 1 Y 2 X 1 Y 1 X 1 Y 1 X 1 Y 2 X 1 Y 1 X 1 Y 1 X 1 Y 2 X 1 Y 1 X 1 Y 1 X 1 Y 1 X 1 Y 2 X 1 Y 1 X 1 Y 1 X 1 Y 1 X 1 Y 1 X 1 Y 1 X 1 Y 1 X 1 Y 1
 X 1 Y 1 X 1 Y 1 X 1 Y 1 X 1 Y 1 X 1 Y 1 X 1 Y 1 X 1 Y 1 X 1 Y 1 X 1 Y 1 X 1 Y 1 X 1 Y 1 X 1 Y 1 X 2 Y 1 X 1 Y 1 X 1 Y 1 X 1 Y 1 X 1 Y 1 X 2 Y 1 X 1 Y 1 X 1 Y 1 X 2 Y 1 X 1 Y 1 X 1 Y 1 X 2 Y 1 X 1 Y 1 X 2 Y 1 X 1 Y 1 X 2 Y 1 X 1 Y 1 X 2 Y 1 X 1 Y 1 X
 2 Y 1 X 1 Y 1 X 2 Y 1 X 1 Y 1 X 2 Y 1 X 2 Y 1 X 1 Y 1 X 2 Y 1 X 2 Y 1 X 1 Y 1 X 2 Y 1 X 2 Y 1 X 2 Y 1 X 1 Y 1 X 2 Y 1 X 2 Y 1 X 2 Y 1 X 2 Y 1 X 2 Y 1 X 2 Y 1 X 2 Y 1 X 2 Y 1 X 2 Y 1 X 2 Y 1 X 3 Y 1 X 2 Y 1 X 2 Y 1 X 2 Y 1 X 2 Y 1 X 3 Y 1 X 2 Y 1 X 2
 Y 1 X 2 Y 1 X 3 Y 1 X 2 Y 1 X 2 Y 1 X 3 Y 1 X 2 Y 1 X 2 Y 1 X 3 Y 1 X 2 Y 1 X 3 Y 1 X 2 Y 1 X 3 Y 1 X 2 Y 1 X 2 Y 1 X 3 Y 1 X 2 Y 1 X 3 Y 1 X 2 Y 1 X 3 Y 1 X 3 Y 1 X 2 Y 1 X 3 Y 1 X 3 Y 1 X 2 Y 1 X 3 Y 1 X 2 Y 1 X 3 Y 1 X 3 Y 1 X 2 Y 1 X 3 Y 1 X 3 Y
 1 X 3 Y 1 X 2 Y 1 X 3 Y 1 X 3 Y 1 X 3 Y 1 X 2 Y 1 X 3 Y 1 X 3 Y 1 X 3 Y 1 X 3 Y 1 X 3 Y 1 X 2 Y 1 X 3 Y 1 X 3 Y 1 X 3 Y 1 X 2 Y 1 X 3 Y 1 X 3 Y 1 X 3 Y 1 X 3 Y 1 X 2 Y 1 X 4 Y 1 X 2 Y 1 X 3 Y 1 X 3 Y 1 X 3 Y 1 X 3 Y 1 X 3 Y 1 X 2 Y 1 X 3 Y 1 X 3 Y 1
 X 3 Y 1 X 3 Y 1 X 3 Y 1 X 2 Y 1 X 4 Y 1 X 2 Y 1 X 3 Y 1 X 3 Y 1 X 3 Y 1 X 3 Y 1 X 3 Y 1 X 3 Y 1 X 2 Y 1 X 3 Y 1 X 3 Y 1 X 3 Y 1 X 2 Y 1 X 3 Y 1 X 3 Y 1 X 3 Y 1 X 2 Y 1 X 3 Y 1 X 3 Y 1 X 2 Y 1 X 3 Y 1 X 3 Y 1 X 2 Y 1 X 3 Y 1 X 3 Y 1 X 2 Y 1 X 3 Y 1 X
 3 Y 1 X 2 Y 1 X 3 Y 1 X 3 Y 1 X 3 Y 1 X 2 Y 1 X 3 Y 1 X 3 Y 1 X 2 Y 1 X 3 Y 1 X 2 Y 1 X 3 Y 1 X 3 Y 1 X 2 Y 1 X 3 Y 1 X 3 Y 1 X 2 Y 1 X 3 Y 1 X 3 Y 1 X 2 Y 1 X 3 Y 1 X 2 Y 1 X 3 Y 1 X 3 Y 1 X 2 Y 1 X 3 Y 1 X 2 Y 1 X 3 Y 1 X 3 Y 1 X 3 Y 1 X 2 Y 1 X 3
 Y 1 X 3 Y 1 X 3 Y 1 X 2 Y 1 X 3 Y 1 X 2 Y 1 X 3 Y 1 X 3 Y 1 X 2 Y 1 X 3 Y 1 X 3 Y 1 X 2 Y 1 X 3 Y 1 X 2 Y 1 X 3 Y 1 X 3 Y 1 X 2 Y 1 X 3 Y 1 X 3 Y 1 X 2 Y 1 X 3 Y 1 X 2 Y 1 X 3 Y 1 X 2 Y 1 X 3 Y 1 X 2 Y 1 X 3 Y 1 X 2 Y 1 X 3 Y 1 X 2 Y 1 X 3 Y 1 X 3 Y
 1 X 2 Y 1 X 2 Y 1 X 3 Y 1 X 2 Y 1 X 3 Y 1 X 2 Y 1 X 3 Y 1 X 2 Y 1 X 3 Y 1 X 2 Y 1 X 3 Y 1 X 2 Y 1 X 3 Y 1 X 2 Y 1 X 3 Y 1 X 2 Y 1 X 3 Y 1 X 2 Y 1 X 3 Y 1 X 2 Y 1 X 2 Y 1 X 3 Y 1 X 2 Y 1 X 2 Y 1 X 2 Y 1 X 3 Y 1 X 2 Y 1 X 2 Y 1 X 2 Y 1 X 2 Y 1 X 2 Y 1
 X 2 Y 1 X 2 Y 1 X 2 Y 1 X 2 Y 1 X 2 Y 1 X 2 Y 1 X 2 Y 1 X 2 Y 1 X 2 Y 1 X 2 Y 1 X 2 Y 1 X 1 Y 1 X 2 Y 1 X 2 Y 1 X 2 Y 1 X 1 Y 1 X 2 Y 1 X 2 Y 1 X 1 Y 1 X 2 Y 1 X 1 Y 1 X 2 Y 1 X 1 Y 1 X 2 Y 1 X 1 Y 1 X 2 Y 1 X 1 Y 1 X 2 Y 1 X 1 Y 1 X 1 Y 1 X 1 Y 1 X
 1 Y 1 X 2 Y 1 X 1 Y 1 X 1 Y 2 X 1 Y 1 X 1 Y 1 X 1 Y 2 X 1 Y 1 X 1 Y 2 X 1 Y 3 X 1 Y 10 X -1 Y 3 X -1 Y 2 X -1 Y 1 X -1 Y 2 X -1 Y 1 X -1 Y 1 X -1 Y 1 X -1 Y 1 X -1 Y 1 X -1 Y 1 X -2 Y 1 X -2 Y 1 X -2 Y 1 X -1 Y 1 X -2 Y 1 X -2 Y 1 X -2 Y 1 X -2 Y 1
 X -3 Y 1 X -2 Y 1 X -2 Y 1 X -2 Y 1 X -3 Y 1 X -3 Y 1 X -2 Y 1 X -3 Y 1 X -3 Y 1 X -2 Y 1 X -3 Y 1 X -3 Y 1 X -3 Y 1 X -3 Y 1 X -3 Y 1 X -4 Y 1 X -3 Y 1 X -3 Y 1 X -4 Y 1 X -3 Y 1 X -4 Y 1 X -3 Y 1 X -4 Y 1 X -4 Y 1 X -4 Y 1 X -4 Y 1 X -4 Y 1 X -4 Y
 1 X -4 Y 1 X -4 Y 1 X -4 Y 1 X -4 Y 1 X -5 Y 1 X -4 Y 1 X -5 Y 1 X -5 Y 1 X -5 Y 1 X -6 Y 1 X -5 Y 1 X -6 Y 1 X -5 Y 1 X -6 Y 1 X -5 Y 1 X -6 Y 1 X -6 Y 1 X -5 Y 1 X -6 Y 1 X -6 Y 1 X -5 Y 1 X -6 Y 1 X -6 Y 1 X -6 Y 1 X -6 Y 1 X -5 Y 1 X -6 Y 1 X -6
 Y 1 X -6 Y 1 X -6 Y 1 X -6 Y 1 X -5 Y 1 X -6 Y 1 X -6 Y 1 X -6 Y 1 X -6 Y 1 X -7 Y 1 X -6 Y 1 X -6 Y 1 X -6 Y 1 X -6 Y 1 X -6 Y 1 X -6 Y 1 X -6 Y 1 X -6 Y 1 X -6 Y 1 X -7 Y 1 X -6 Y 1 X -6 Y 1 X -6 Y 1 X -7 Y 1 X -6 Y 1 X -6 Y 1 X -6 Y 1 X -6 Y 1 X
 -5 Y 1 X -6 Y 1 X -6 Y 1 X -5 Y 1 X -6 Y 1 X -5 Y 1 X -5 Y 1 X -6 Y 1 X -5 Y 1 X -5 Y 1 X -6 Y 1 X -5 Y 1 X -5 Y 1 X -5 Y 1 X -5 Y 1 X -5 Y 1 X -5 Y 1 X -5 Y 1 X -5 Y 1 X -4 Y 1 X -5 Y 1 X -5 Y 1 X -4 Y 1 X -5 Y 1 X -5 Y 1 X -4 Y 1 X -5 Y 1 X -4 Y 1
 X -4 Y 1 X -5 Y 1 X -4 Y 1 X -4 Y 1 X -4 Y 1 X -4 Y 1 X -4 Y 1 X -4 Y 1 X -4 Y 1 X -4 Y 1 X -4 Y 1 X -4 Y 1 X -4 Y 1 X -4 Y 1 X -4 Y 1 X -2 Y 1 X -3 Y 1 X -3 Y 1 X -2 Y 1 X -3 Y 1 X -2 Y 1 X -3 Y 1 X -2 Y 1 X -3 Y 1 X -2 Y 1 X -2 Y 1 X -3 Y 1 X -2 Y
 1 X -2 Y 1 X -2 Y 1 X -2 Y 1 X -2 Y 1 X -2 Y 1 X -2 Y 1 X -1 Y 1 X -2 Y 1 X -2 Y 1 X -1 Y 1 X -2 Y 1 X -2 Y 1 X -1 Y 1 X -2 Y 1 X -1 Y 1 X -1 Y 1 X -2 Y 1 X -1 Y 1 X -1 Y 1 X -1 Y 1 X -1 Y 1 X -1 Y 1 X -1 Y 1 X -1 Y 1 X -1 Y 1 X -1 Y 1 X -1 Y 1 X -1
 Y 2 X -1 Y 2 X -1 Y 2 X -1 Y 2 X -1 Y 2 X -1 Y 3 X -1 Y 3 X -1 Y 3 X -1 Y 5 X -1 Y 16 X 1 Y 5 X 1 Y 4 X 1 Y 23 X 1 Y 52 X -1 Y 13 X -1 Y 11 X -1 Y 8 X -1 Y 7 X s 0.490196 0.545098 0.615686 c 3 lw 1 1 1 c 0.490196 0.545098 0.615686 c 838 165 153 910
 bl 153 910 m 838 X s 991 910 m 165 Y s 991 1075 m -838 X s 153 1075 m -165 Y s black
 gsave  1088 1181 23 12 C 359.847 1018.44 t 0 r /Helvetica-Bold findfont 37.4173 sf 0 0 m (Input data \(signal\)) show NC gr  0 0 1 c 258 1034 m24 black
 gsave  1088 1181 23 12 C 359.847 933.566 t 0 r /Helvetica-Bold findfont 37.4173 sf 0 0 m (Estimated PDF \(norm. signal\)) show NC gr  0 0 1 c 6 lw 185 951 m 146 X s 0.490196 0.545098 0.615686 c 3 lw 0.364706 0.419608 0.490196 c 762 61 34 1126 bf
 0.490196 0.545098 0.615686 c 34 1126 m 762 X s 796 1126 m 61 Y s 796 1187 m -762 X s 34 1187 m -61 Y s 1 1 1 c black 1 1 1 c
 gsave  1088 1181 23 12 C 71.2905 1147.44 t 0 r /Helvetica-Bold findfont 30.6142 sf 0 0 m (dataset_Likelihood_variables[5] signal training) show NC gr  0.490196 0.545098 0.615686 c 0.941176 0.941176 0.941176 c 1088 1181 1157 12 bf black 1 1 0.992157
 c 904 933 1287 142 bf black 904 933 1287 142 bl 1 1 0.992157 c 904 933 1287 142 bf black 904 933 1287 142 bl 1 0 0 c 1 1 1 c 1 0 0 c 1310 240 m 47 Y s 1310 301 m 46 Y s 1287 294 m 16 X s 1317 294 m 15 X s 1303 240 m 14 X s 1303 347 m 14 X s 1287 287
 m 14 Y s 1332 287 m 14 Y s 1310 294 m24 1355 197 m 35 Y s 1355 245 m 35 Y s 1332 239 m 16 X s 1362 239 m 16 X s 1348 197 m 14 X s 1348 280 m 14 X s 1332 232 m 13 Y s 1378 232 m 13 Y s 1355 239 m24 1400 275 m 67 Y s 1400 356 m 67 Y s 1378 349 m 15 X
 s 1407 349 m 16 X s 1393 275 m 14 X s 1393 423 m 14 X s 1378 342 m 14 Y s 1423 342 m 14 Y s 1400 349 m24 1445 163 m 55 Y s 1445 232 m 55 Y s 1423 225 m 15 X s 1452 225 m 16 X s 1438 163 m 14 X s 1438 287 m 14 X s 1423 218 m 14 Y s 1468 218 m 14 Y s
 1445 225 m24 1490 200 m 73 Y s 1490 287 m 73 Y s 1468 280 m 16 X s 1497 280 m 16 X s 1484 200 m 13 X s 1484 360 m 13 X s 1468 273 m 14 Y s 1513 273 m 14 Y s 1490 280 m24 1536 250 m 65 Y s 1536 328 m 65 Y s 1513 321 m 16 X s 1542 321 m 16 X s 1529
 250 m 13 X s 1529 393 m 13 X s 1513 315 m 13 Y s 1558 315 m 13 Y s 1536 321 m24 1581 300 m 97 Y s 1581 411 m 97 Y s 1558 404 m 16 X s 1588 404 m 15 X s 1574 300 m 14 X s 1574 508 m 14 X s 1558 397 m 14 Y s 1603 397 m 14 Y s 1581 404 m24 1626 581 m
 120 Y s 1626 715 m 120 Y s 1603 708 m 16 X s 1633 708 m 16 X s 1619 581 m 14 X s 1619 835 m 14 X s 1603 701 m 14 Y s 1649 701 m 14 Y s 1626 708 m24 1671 733 m 120 Y s 1671 866 m 120 Y s 1649 860 m 15 X s 1678 860 m 16 X s 1664 733 m 14 X s 1664 986
 m 14 X s 1649 853 m 13 Y s 1694 853 m 13 Y s 1671 860 m24 1716 309 m 116 Y s 1716 439 m 115 Y s 1694 432 m 16 X s 1723 432 m 16 X s 1710 309 m 13 X s 1710 554 m 13 X s 1694 425 m 14 Y s 1739 425 m 14 Y s 1716 432 m24 1761 181 m 120 Y s 1761 314 m
 120 Y s 1739 308 m 16 X s 1768 308 m 16 X s 1755 181 m 13 X s 1755 434 m 13 X s 1739 301 m 13 Y s 1784 301 m 13 Y s 1761 308 m24 1807 518 m 128 Y s 1807 659 m 128 Y s 1784 653 m 16 X s 1813 653 m 16 X s 1800 518 m 13 X s 1800 787 m 13 X s 1784 646 m
 13 Y s 1829 646 m 13 Y s 1807 653 m24 1852 480 m 138 Y s 1852 632 m 138 Y s 1829 625 m 16 X s 1859 625 m 15 X s 1845 480 m 14 X s 1845 770 m 14 X s 1829 618 m 14 Y s 1874 618 m 14 Y s 1852 625 m24 1897 433 m 130 Y s 1897 577 m 130 Y s 1874 570 m 16
 X s 1904 570 m 16 X s 1890 433 m 14 X s 1890 707 m 14 X s 1874 563 m 14 Y s 1920 563 m 14 Y s 1897 570 m24 1942 142 m 76 Y s 1942 232 m 101 Y s 1920 225 m 15 X s 1949 225 m 16 X s 1935 142 m 14 X s 1935 333 m 14 X s 1920 218 m 14 Y s 1965 218 m 14 Y
 s 1942 225 m24 1987 142 m 76 Y s 1987 232 m 80 Y s 1965 225 m 16 X s 1994 225 m 16 X s 1981 142 m 13 X s 1981 312 m 13 X s 1965 218 m 14 Y s 2010 218 m 14 Y s 1987 225 m24 2033 247 m 68 Y s 2033 328 m 68 Y s 2010 321 m 16 X s 2039 321 m 16 X s 2026
 247 m 13 X s 2026 396 m 13 X s 2010 315 m 13 Y s 2055 315 m 13 Y s 2033 321 m24 2078 286 m 56 Y s 2078 356 m 56 Y s 2055 349 m 16 X s 2084 349 m 16 X s 2071 286 m 13 X s 2071 412 m 13 X s 2055 342 m 14 Y s 2100 342 m 14 Y s 2078 349 m24 2123 244 m
 43 Y s 2123 301 m 43 Y s 2100 294 m 16 X s 2130 294 m 15 X s 2116 244 m 14 X s 2116 344 m 14 X s 2100 287 m 14 Y s 2145 287 m 14 Y s 2123 294 m24 2168 174 m 30 Y s 2168 218 m 29 Y s 2145 211 m 16 X s 2175 211 m 16 X s 2161 174 m 14 X s 2161 247 m 14
 X s 2145 204 m 14 Y s 2191 204 m 14 Y s 2168 211 m24 black 1287 142 m 904 X s 1372 171 m -29 Y s 1398 157 m -15 Y s 1423 157 m -15 Y s 1448 157 m -15 Y s 1473 157 m -15 Y s 1499 171 m -29 Y s 1524 157 m -15 Y s 1549 157 m -15 Y s 1574 157 m -15 Y s
 1600 157 m -15 Y s 1625 171 m -29 Y s 1650 157 m -15 Y s 1675 157 m -15 Y s 1701 157 m -15 Y s 1726 157 m -15 Y s 1751 171 m -29 Y s 1776 157 m -15 Y s 1802 157 m -15 Y s 1827 157 m -15 Y s 1852 157 m -15 Y s 1877 171 m -29 Y s 1903 157 m -15 Y s
 1928 157 m -15 Y s 1953 157 m -15 Y s 1978 157 m -15 Y s 2004 171 m -29 Y s 2029 157 m -15 Y s 2054 157 m -15 Y s 2079 157 m -15 Y s 2105 157 m -15 Y s 2130 171 m -29 Y s 1372 171 m -29 Y s 1347 157 m -15 Y s 1322 157 m -15 Y s 1297 157 m -15 Y s
 2130 171 m -29 Y s 2155 157 m -15 Y s 2180 157 m -15 Y s
 gsave  1088 1181 1157 12 C 1364.7 105.238 t 0 r /Helvetica findfont 34.0157 sf 0 0 m (1) show NC gr 
 gsave  1088 1181 1157 12 C 1473.34 105.238 t 0 r /Helvetica findfont 34.0157 sf 0 0 m (1.5) show NC gr 
 gsave  1088 1181 1157 12 C 1612.52 105.238 t 0 r /Helvetica findfont 34.0157 sf 0 0 m (2) show NC gr 
 gsave  1088 1181 1157 12 C 1724.55 105.238 t 0 r /Helvetica findfont 34.0157 sf 0 0 m (2.5) show NC gr 
 gsave  1088 1181 1157 12 C 1867.13 105.238 t 0 r /Helvetica findfont 34.0157 sf 0 0 m (3) show NC gr 
 gsave  1088 1181 1157 12 C 1979.16 105.238 t 0 r /Helvetica findfont 34.0157 sf 0 0 m (3.5) show NC gr 
 gsave  1088 1181 1157 12 C 2118.35 105.238 t 0 r /Helvetica findfont 34.0157 sf 0 0 m (4) show NC gr  1287 1075 m 904 X s 1372 1046 m 29 Y s 1398 1060 m 15 Y s 1423 1060 m 15 Y s 1448 1060 m 15 Y s 1473 1060 m 15 Y s 1499 1046 m 29 Y s 1524 1060 m
 15 Y s 1549 1060 m 15 Y s 1574 1060 m 15 Y s 1600 1060 m 15 Y s 1625 1046 m 29 Y s 1650 1060 m 15 Y s 1675 1060 m 15 Y s 1701 1060 m 15 Y s 1726 1060 m 15 Y s 1751 1046 m 29 Y s 1776 1060 m 15 Y s 1802 1060 m 15 Y s 1827 1060 m 15 Y s 1852 1060 m 15
 Y s 1877 1046 m 29 Y s 1903 1060 m 15 Y s 1928 1060 m 15 Y s 1953 1060 m 15 Y s 1978 1060 m 15 Y s 2004 1046 m 29 Y s 2029 1060 m 15 Y s 2054 1060 m 15 Y s 2079 1060 m 15 Y s 2105 1060 m 15 Y s 2130 1046 m 29 Y s 1372 1046 m 29 Y s 1347 1060 m 15 Y
 s 1322 1060 m 15 Y s 1297 1060 m 15 Y s 2130 1046 m 29 Y s 2155 1060 m 15 Y s 2180 1060 m 15 Y s 1287 142 m 933 Y s 1313 142 m -26 X s 1300 167 m -13 X s 1300 192 m -13 X s 1300 218 m -13 X s 1313 243 m -26 X s 1300 268 m -13 X s 1300 294 m -13 X s
 1300 319 m -13 X s 1313 344 m -26 X s 1300 369 m -13 X s 1300 395 m -13 X s 1300 420 m -13 X s 1313 445 m -26 X s 1300 470 m -13 X s 1300 496 m -13 X s 1300 521 m -13 X s 1313 546 m -26 X s 1300 571 m -13 X s 1300 597 m -13 X s 1300 622 m -13 X s
 1313 647 m -26 X s 1300 672 m -13 X s 1300 698 m -13 X s 1300 723 m -13 X s 1313 748 m -26 X s 1300 773 m -13 X s 1300 799 m -13 X s 1300 824 m -13 X s 1313 849 m -26 X s 1300 874 m -13 X s 1300 900 m -13 X s 1300 925 m -13 X s 1313 950 m -26 X s
 1300 975 m -13 X s 1300 1001 m -13 X s 1300 1026 m -13 X s 1313 1051 m -26 X s 1313 1051 m -26 X s
 gsave  1088 1181 1157 12 C 1259.47 129.002 t 0 r /Helvetica findfont 34.0157 sf 0 0 m (0) show NC gr 
 gsave  1088 1181 1157 12 C 1242.49 230.845 t 0 r /Helvetica findfont 34.0157 sf 0 0 m (20) show NC gr 
 gsave  1088 1181 1157 12 C 1242.49 332.689 t 0 r /Helvetica findfont 34.0157 sf 0 0 m (40) show NC gr 
 gsave  1088 1181 1157 12 C 1242.49 434.533 t 0 r /Helvetica findfont 34.0157 sf 0 0 m (60) show NC gr 
 gsave  1088 1181 1157 12 C 1242.49 532.981 t 0 r /Helvetica findfont 34.0157 sf 0 0 m (80) show NC gr 
 gsave  1088 1181 1157 12 C 1222.12 634.825 t 0 r /Helvetica findfont 34.0157 sf 0 0 m (100) show NC gr 
 gsave  1088 1181 1157 12 C 1222.12 736.668 t 0 r /Helvetica findfont 34.0157 sf 0 0 m (120) show NC gr 
 gsave  1088 1181 1157 12 C 1222.12 838.512 t 0 r /Helvetica findfont 34.0157 sf 0 0 m (140) show NC gr 
 gsave  1088 1181 1157 12 C 1222.12 936.961 t 0 r /Helvetica findfont 34.0157 sf 0 0 m (160) show NC gr 
 gsave  1088 1181 1157 12 C 1222.12 1038.8 t 0 r /Helvetica findfont 34.0157 sf 0 0 m (180) show NC gr  2191 142 m 933 Y s 2165 142 m 26 X s 2178 167 m 13 X s 2178 192 m 13 X s 2178 218 m 13 X s 2165 243 m 26 X s 2178 268 m 13 X s 2178 294 m 13 X s
 2178 319 m 13 X s 2165 344 m 26 X s 2178 369 m 13 X s 2178 395 m 13 X s 2178 420 m 13 X s 2165 445 m 26 X s 2178 470 m 13 X s 2178 496 m 13 X s 2178 521 m 13 X s 2165 546 m 26 X s 2178 571 m 13 X s 2178 597 m 13 X s 2178 622 m 13 X s 2165 647 m 26 X
 s 2178 672 m 13 X s 2178 698 m 13 X s 2178 723 m 13 X s 2165 748 m 26 X s 2178 773 m 13 X s 2178 799 m 13 X s 2178 824 m 13 X s 2165 849 m 26 X s 2178 874 m 13 X s 2178 900 m 13 X s 2178 925 m 13 X s 2165 950 m 26 X s 2178 975 m 13 X s 2178 1001 m
 13 X s 2178 1026 m 13 X s 2165 1051 m 26 X s 2165 1051 m 26 X s 1 0 0 c 6 lw 1 1 1 c black 1 0 0 c 1287 289 m 26 X -1 Y 9 X -1 Y 7 X -1 Y 5 X -1 Y 5 X -1 Y 5 X -1 Y 4 X -1 Y 4 X -1 Y 3 X -1 Y 3 X -1 Y 3 X -1 Y 2 X -1 Y 3 X -1 Y 2 X -1 Y 3 X -1 Y 2 X
 -1 Y 3 X -1 Y 3 X -1 Y 2 X -1 Y 3 X -1 Y 3 X -1 Y 2 X -1 Y 3 X -1 Y 3 X -1 Y 2 X -1 Y 3 X -1 Y 3 X -1 Y 4 X -1 Y 4 X -1 Y 5 X -1 Y 6 X -1 Y 11 X -1 Y 10 X 1 Y 9 X 1 Y 5 X 1 Y 3 X 1 Y 4 X 1 Y 2 X 1 Y 3 X 1 Y 2 X 1 Y 2 X 1 Y 3 X 1 Y 1 X 1 Y 2 X 1 Y 2
 X 1 Y 2 X 1 Y 1 X 1 Y 2 X 1 Y 2 X 1 Y 1 X 1 Y 2 X 1 Y 1 X 1 Y 1 X 1 Y 1 X 1 Y 1 X 1 Y 1 X 1 Y 1 X 1 Y 2 X 1 Y 1 X 1 Y 1 X 1 Y 1 X 1 Y 1 X 1 Y 1 X 1 Y 1 X 1 Y 1 X 1 Y 1 X 1 Y 1 X 1 Y 1 X 1 Y 1 X 1 Y 1 X 1 Y 1 X 1 Y 1 X 2 Y 1 X 1 Y 1 X 1 Y 1 X 1 Y 1 X
 1 Y 1 X 1 Y 1 X 1 Y 1 X 1 Y 1 X 2 Y 1 X 1 Y 1 X 1 Y 1 X 1 Y 1 X 2 Y 1 X 1 Y 1 X 1 Y 1 X 1 Y 1 X 2 Y 1 X 1 Y 1 X 1 Y 1 X 1 Y 1 X 2 Y 1 X 1 Y 1 X 1 Y 1 X 2 Y 1 X 1 Y 1 X 2 Y 1 X 2 Y 1 X 1 Y 1 X 2 Y 1 X 1 Y 1 X 2 Y 1 X 1 Y 1 X 2 Y 1 X 1 Y 1 X 2 Y 1 X 1
 Y 1 X 2 Y 1 X 1 Y 1 X 2 Y 1 X 1 Y 1 X 2 Y 1 X 1 Y 1 X 2 Y 1 X 1 Y 1 X 1 Y 1 X 2 Y 1 X 1 Y 1 X 2 Y 1 X 1 Y 1 X 2 Y 1 X 1 Y 1 X 2 Y 1 X 1 Y 1 X 1 Y 1 X 2 Y 1 X 1 Y 1 X 2 Y 1 X 1 Y 1 X 2 Y 1 X 1 Y 1 X 2 Y 1 X 1 Y 1 X 1 Y 1 X 2 Y 1 X 1 Y 1 X 2 Y 1 X 1 Y
 1 X 1 Y 1 X 1 Y 1 X 1 Y 1 X 1 Y 1 X 1 Y 1 X 1 Y 1 X 1 Y 1 X 1 Y 2 X 1 Y 1 X 1 Y 1 X 1 Y 1 X 1 Y 1 X 1 Y 1 X 1 Y 2 X 1 Y 1 X 1 Y 1 X 1 Y 1 X 1 Y 1 X 1 Y 2 X 1 Y 1 X 1 Y 1 X 1 Y 1 X 1 Y 1 X 1 Y 1 X 1 Y 2 X 1 Y 1 X 1 Y 1 X 1 Y 1 X 1 Y 1 X 1 Y 2 X 1 Y 1
 X 1 Y 1 X 1 Y 1 X 1 Y 1 X 1 Y 2 X 1 Y 1 X 1 Y 1 X 1 Y 1 X 1 Y 1 X 1 Y 1 X 1 Y 1 X 1 Y 1 X 1 Y 1 X 1 Y 1 X 1 Y 1 X 1 Y 1 X 1 Y 1 X 1 Y 1 X 1 Y 1 X 1 Y 1 X 1 Y 1 X 2 Y 1 X 1 Y 1 X 1 Y 1 X 1 Y 1 X 2 Y 1 X 1 Y 1 X 1 Y 1 X 1 Y 1 X 2 Y 1 X 1 Y 1 X 1 Y 1 X
 2 Y 1 X 1 Y 1 X 2 Y 1 X 1 Y 1 X 2 Y 1 X 1 Y 1 X 2 Y 1 X 1 Y 1 X 2 Y 1 X 1 Y 1 X 2 Y 1 X 1 Y 1 X 2 Y 1 X 2 Y 1 X 1 Y 1 X 2 Y 1 X 2 Y 1 X 1 Y 1 X 2 Y 1 X 2 Y 1 X 2 Y 1 X 1 Y 1 X 2 Y 1 X 2 Y 1 X 3 Y 1 X 3 Y 1 X 2 Y 1 X 3 Y 1 X 2 Y 1 X 3 Y 1 X 2 Y 1 X 3
 Y 1 X 3 Y 1 X 2 Y 1 X 3 Y 1 X 2 Y 1 X 3 Y 1 X 3 Y 1 X 2 Y 1 X 3 Y 1 X 2 Y 1 X 3 Y 1 X 2 Y 1 X 3 Y 1 X 2 Y 1 X 3 Y 1 X 2 Y 1 X 3 Y 1 X 2 Y 1 X 3 Y 1 X 2 Y 1 X 3 Y 1 X 2 Y 1 X 3 Y 1 X 2 Y 1 X 3 Y 1 X 2 Y 1 X 3 Y 1 X 2 Y 1 X 2 Y 1 X 3 Y 1 X 2 Y 1 X 3 Y
 1 X 2 Y 1 X 3 Y 1 X 2 Y 1 X 3 Y 1 X 2 Y 1 X 2 Y 1 X 2 Y 1 X 2 Y 1 X 1 Y 1 X 2 Y 1 X 1 Y 1 X 2 Y 1 X 1 Y 1 X 2 Y 1 X 1 Y 1 X 2 Y 1 X 1 Y 1 X 1 Y 1 X 2 Y 1 X 1 Y 1 X 1 Y 1 X 1 Y 1 X 2 Y 1 X 1 Y 1 X 1 Y 1 X 1 Y 1 X 1 Y 1 X 1 Y 1 X 1 Y 1 X 1 Y 1 X 1 Y 1
 X 1 Y 2 X 1 Y 1 X 1 Y 1 X 1 Y 2 X 1 Y 2 X 1 Y 1 X 1 Y 2 X 1 Y 3 X 1 Y 3 X 1 Y 5 X -1 Y 3 X -1 Y 2 X -1 Y 3 X -1 Y 2 X -1 Y 2 X -1 Y 2 X -1 Y 2 X -1 Y 2 X -1 Y 2 X -1 Y 2 X -1 Y 1 X -1 Y 2 X -1 Y 1 X -1 Y 2 X -1 Y 1 X -1 Y 1 X -1 Y 2 X -1 Y 1 X -1 Y
 1 X -1 Y 2 X -1 Y 1 X -1 Y 1 X -1 Y 1 X -1 Y 1 X -1 Y 1 X -1 Y 2 X -1 Y 8 X -1 Y 6 X -1 Y 4 X -1 Y 4 X -1 Y 3 X -1 Y 3 X -1 Y 3 X -1 Y 2 X -1 Y 3 X -1 Y 2 X -1 Y 2 X -1 Y 2 X -1 Y 2 X -1 Y 2 X -1 Y 1 X -1 Y 1 X -1 Y 1 X -1 Y 1 X -1 Y 1 X -1 Y 1 X -1
 Y 1 X -1 Y 1 X -1 Y 1 X -2 Y 1 X -1 Y 1 X -1 Y 1 X -1 Y 1 X -1 Y 1 X -2 Y 1 X -1 Y 1 X -1 Y 1 X -2 Y 1 X -1 Y 1 X -2 Y 1 X -1 Y 1 X -2 Y 1 X -1 Y 1 X -2 Y 1 X -1 Y 1 X -2 Y 1 X -2 Y 1 X -1 Y 1 X -2 Y 1 X -2 Y 1 X -1 Y 1 X -2 Y 1 X -2 Y 1 X -2 Y 1 X
 -2 Y 1 X -2 Y 1 X -2 Y 1 X -2 Y 1 X -2 Y 1 X -2 Y 1 X -2 Y 1 X -2 Y 1 X -2 Y 1 X -2 Y 1 X -3 Y 1 X -3 Y 1 X -3 Y 1 X -3 Y 1 X -3 Y 1 X -3 Y 1 X -3 Y 1 X -3 Y 1 X -3 Y 1 X -3 Y 1 X -3 Y 1 X -3 Y 1 X -3 Y 1 X -3 Y 1 X -3 Y 1 X -3 Y 1 X -3 Y 1 X -3 Y 1
 X -3 Y 1 X -3 Y 1 X -3 Y 1 X -3 Y 1 X -3 Y 1 X -3 Y 1 X -3 Y 1 X -3 Y 1 X -3 Y 1 X -3 Y 1 X -3 Y 1 X -3 Y 1 X -3 Y 1 X -3 Y 1 X -3 Y 1 X -3 Y 1 X -3 Y 1 X -4 Y 1 X -3 Y 1 X -3 Y 1 X -3 Y 1 X -3 Y 1 X -3 Y 1 X -3 Y 1 X -3 Y 1 X -3 Y 1 X -3 Y 1 X -3 Y
 1 X -2 Y 1 X -2 Y 1 X -3 Y 1 X -2 Y 1 X -2 Y 1 X -3 Y 1 X -2 Y 1 X -2 Y 1 X -2 Y 1 X -2 Y 1 X -2 Y 1 X -2 Y 1 X -2 Y 1 X -2 Y 1 X -2 Y 1 X -2 Y 1 X -2 Y 1 X -1 Y 1 X -2 Y 1 X -2 Y 1 X -2 Y 1 X -2 Y 1 X -1 Y 1 X -2 Y 1 X -2 Y 1 X -1 Y 1 X -2 Y 1 X -1
 Y 1 X -2 Y 1 X -1 Y 1 X -2 Y 1 X -1 Y 1 X -1 Y 1 X -2 Y 1 X -1 Y 1 X -2 Y 1 X -1 Y 1 X -1 Y 1 X -1 Y 1 X -2 Y 1 X -1 Y 1 X -1 Y 1 X -1 Y 1 X -1 Y 1 X -1 Y 1 X -1 Y 2 X -1 Y 1 X -1 Y 1 X -1 Y 2 X -1 Y 2 X -1 Y 1 X -1 Y 2 X -1 Y 2 X -1 Y 2 X -1 Y 2 X
 -1 Y 2 X -1 Y 3 X -1 Y 3 X -1 Y 3 X -1 Y 5 X -1 Y 9 X -1 Y 8 X -1 Y 5 X -1 Y 6 X -1 Y 5 X -1 Y 5 X -1 Y 6 X -1 Y 5 X -1 Y 6 X -1 Y 6 X -1 Y 5 X -1 Y 4 X -1 Y 3 X -1 Y 3 X -1 Y 3 X -1 Y 3 X -1 Y 2 X -1 Y 2 X -1 Y 3 X -1 Y 2 X -1 Y 2 X -1 Y 2 X -1 Y 2
 X -1 Y 1 X -1 Y 2 X -1 Y 2 X -1 Y 1 X -1 Y 1 X -1 Y 2 X -1 Y 1 X -1 Y 1 X -1 Y 1 X -1 Y 1 X -1 Y 2 X -1 Y 1 X -1 Y 1 X -1 Y 1 X -1 Y 1 X -1 Y 1 X -1 Y 1 X -1 Y 1 X -1 Y 1 X -1 Y 1 X -1 Y 1 X -1 Y 1 X -1 Y 1 X -1 Y 1 X -2 Y 1 X -1 Y 1 X -1 Y 1 X -1 Y
 1 X -1 Y 1 X -1 Y 1 X -2 Y 1 X -1 Y 1 X -1 Y 1 X -1 Y 1 X -2 Y 1 X -1 Y 1 X -1 Y 1 X -2 Y 1 X -1 Y 1 X -1 Y 1 X -2 Y 1 X -1 Y 1 X -1 Y 1 X -2 Y 1 X -1 Y 1 X -2 Y 1 X -1 Y 1 X -2 Y 1 X -1 Y 1 X -2 Y 1 X -1 Y 1 X -2 Y 1 X -1 Y 1 X -2 Y 1 X -2 Y 1 X -1
 Y 1 X -2 Y 1 X -2 Y 1 X -1 Y 1 X -2 Y 1 X -2 Y 1 X -1 Y 1 X -2 Y 1 X -2 Y 1 X -2 Y 1 X -1 Y 1 X -2 Y 1 X -2 Y 1 X -2 Y 1 X s 0.490196 0.545098 0.615686 c 3 lw 1 1 1 c 0.490196 0.545098 0.615686 c 838 165 1287 910 bl 1287 910 m 838 X s 2125 910 m 165
 Y s 2125 1075 m -838 X s 1287 1075 m -165 Y s black
 gsave  1088 1181 1157 12 C 1493.71 1018.44 t 0 r /Helvetica-Bold findfont 37.4173 sf 0 0 m (Input data \(backgr.\)) show NC gr  1 0 0 c 1392 1034 m24 black
 gsave  1088 1181 1157 12 C 1493.71 933.566 t 0 r /Helvetica-Bold findfont 37.4173 sf 0 0 m (Estimated PDF \(norm. backgr.\)) show NC gr  1 0 0 c 6 lw 1319 951 m 146 X s 0.490196 0.545098 0.615686 c 3 lw 0.364706 0.419608 0.490196 c 762 61 1167 1126
 bf 0.490196 0.545098 0.615686 c 1167 1126 m 762 X s 1929 1126 m 61 Y s 1929 1187 m -762 X s 1167 1187 m -61 Y s 1 1 1 c black 1 1 1 c
 gsave  1088 1181 1157 12 C 1205.15 1147.44 t 0 r /Helvetica-Bold findfont 27.2126 sf 0 0 m (dataset_Likelihood_variables[5] background training) show NC gr 
 gr  gr showpage
end
%%EOF
