%!PS-Adobe-2.0 EPSF-2.0
%%BoundingBox:  0 0 567 301
%%Title: dataset/plots/Likelihood_refs_c3.eps: Likelihood reference for variable: dataset_Likelihood_variables[2]_nice
%%Creator: ROOT Version 6.20/04
%%CreationDate: Thu May  7 18:43:23 2020
%%DocumentNeededResources: ProcSet (FontSetInit)
%%EndComments
%%BeginProlog
80 dict begin
/s {stroke} def /l {lineto} def /m {moveto} def /t {translate} def
/r {rotate} def /rl {roll}  def /R {repeat} def
/d {rlineto} def /rm {rmoveto} def /gr {grestore} def /f {eofill} def
/c {setrgbcolor} def /black {0 setgray} def /sd {setdash} def
/cl {closepath} def /sf {scalefont setfont} def /lw {setlinewidth} def
/box {m dup 0 exch d exch 0 d 0 exch neg d cl} def
/NC{systemdict begin initclip end}def/C{NC box clip newpath}def
/bl {box s} def /bf {gsave box gsave f grestore 1 lw [] 0 sd s grestore} def /Y { 0 exch d} def /X { 0 d} def 
/K {{pop pop 0 moveto} exch kshow} bind def
/ita {/ang 15 def gsave [1 0 ang dup sin exch cos div 1 0 0] concat} def 
/mp {newpath /y exch def /x exch def} def
/side {[w .77 mul w .23 mul] .385 w mul sd w 0 l currentpoint t -144 r} def
/mr {mp x y w2 0 360 arc} def /m24 {mr s} def /m20 {mr f} def
/mb {mp x y w2 add m w2 neg 0 d 0 w neg d w 0 d 0 w d cl} def
/mt {mp x y w2 add m w2 neg w neg d w 0 d cl} def
/w4 {w 4 div} def
/w6 {w 6 div} def
/w8 {w 8 div} def
/m21 {mb f} def /m25 {mb s} def /m22 {mt f} def /m26{mt s} def
/m23 {mp x y w2 sub m w2 w d w neg 0 d cl f} def
/m27 {mp x y w2 add m w3 neg w2 neg d w3 w2 neg d w3 w2 d cl s} def
/m28 {mp x w2 sub y w2 sub w3 add m w3 0 d  0 w3 neg d w3 0 d 0 w3 d w3 0 d  0 w3 d w3 neg 0 d 0 w3 d w3 neg 0 d 0 w3 neg d w3 neg 0 d cl s } def
/m29 {mp gsave x w2 sub y w2 add w3 sub m currentpoint t 4 {side} repeat cl fill gr} def
/m30 {mp gsave x w2 sub y w2 add w3 sub m currentpoint t 4 {side} repeat cl s gr} def
/m31 {mp x y w2 sub m 0 w d x w2 sub y m w 0 d x w2 sub y w2 add m w w neg d x w2 sub y w2 sub m w w d s} def
/m32 {mp x y w2 sub m w2 w d w neg 0 d cl s} def
/m33 {mp x y w2 add m w3 neg w2 neg d w3 w2 neg d w3 w2 d cl f} def
/m34 {mp x w2 sub y w2 sub w3 add m w3 0 d  0 w3 neg d w3 0 d 0 w3 d w3 0 d  0 w3 d w3 neg 0 d 0 w3 d w3 neg 0 d 0 w3 neg d w3 neg 0 d cl f } def
/m35 {mp x y w2 add m w2 neg w2 neg d w2 w2 neg d w2 w2 d w2 neg w2 d x y w2 sub m 0 w d x w2 sub y m w 0 d s} def
/m36 {mb x w2 sub y w2 add m w w neg d x w2 sub y w2 sub m w w d s} def
/m37 {mp x y m w4 neg w2 d w4 neg w2 neg d w2 0 d  w4 neg w2 neg d w2 0 d w4 neg w2 d w2 0 d w4 neg w2 d w4 neg w2 neg d cl s} def
/m38 {mp x w4 sub y w2 add m w4 neg w4 neg d 0 w2 neg d w4 w4 neg d w2 0 d w4 w4 d 0 w2 d w4 neg w4 d w2 neg 0 d x y w2 sub m 0 w d x w2 sub y m w 0 d cl s} def
/m39 {mp x y m w4 neg w2 d w4 neg w2 neg d w2 0 d  w4 neg w2 neg d w2 0 d w4 neg w2 d w2 0 d w4 neg w2 d w4 neg w2 neg d cl f} def
/m40 {mp x y m w4 w2 d w4 w4 neg d w2 neg w4 neg d w2 w4 neg d w4 neg w4 neg d w4 neg w2 d w4 neg w2 neg d w4 neg w4 d w2 w4 d w2 neg w4 d w4 w4 d w4 w2 neg d cl s} def
/m41 {mp x y m w4 w2 d w4 w4 neg d w2 neg w4 neg d w2 w4 neg d w4 neg w4 neg d w4 neg w2 d w4 neg w2 neg d w4 neg w4 d w2 w4 d w2 neg w4 d w4 w4 d w4 w2 neg d cl f} def
/m42 {mp x y w2 add m w8 neg w2 -3 4 div mul d w2 -3 4 div mul w8 neg d w2 3 4 div mul w8 neg d w8 w2 -3 4 div mul d w8 w2 3 4 div mul d w2 3 4 div mul w8 d w2 -3 4 div mul w8 d w8 neg w2 3 4 div mul d cl s} def
/m43 {mp x y w2 add m w8 neg w2 -3 4 div mul d w2 -3 4 div mul w8 neg d w2 3 4 div mul w8 neg d w8 w2 -3 4 div mul d w8 w2 3 4 div mul d w2 3 4 div mul w8 d w2 -3 4 div mul w8 d w8 neg w2 3 4 div mul d cl f} def
/m44 {mp x y m w6 neg w2 d w2 2 3 div mul 0 d w6 neg w2 neg d w2 w6 d 0 w2 -2 3 div mul d w2 neg w6 d w6 w2 neg d w2 -2 3 div mul 0 d w6 w2 d w2 neg w6 neg d 0 w2 2 3 div mul d w2 w6 neg d cl s} def
/m45 {mp x y m w6 neg w2 d w2 2 3 div mul 0 d w6 neg w2 neg d w2 w6 d 0 w2 -2 3 div mul d w2 neg w6 d w6 w2 neg d w2 -2 3 div mul 0 d w6 w2 d w2 neg w6 neg d 0 w2 2 3 div mul d w2 w6 neg d cl f} def
/m46 {mp x y w4 add m w4 neg w4 d w4 neg w4 neg d  w4 w4 neg d w4 neg w4 neg d w4 w4 neg d w4 w4 d w4 w4 neg d w4 w4 d w4 neg w4 d w4 w4 d w4 neg w4 d w4 neg w4 neg d cl s} def
/m47 {mp x y w4 add m w4 neg w4 d w4 neg w4 neg d w4 w4 neg d w4 neg w4 neg d  w4 w4 neg d w4 w4 d w4 w4 neg d w4 w4 d w4 neg w4 d w4 w4 d w4 neg w4 d w4 neg w4 neg d cl f} def
/m48 {mp x y w4 add m w4 neg w4 d w4 neg w4 neg d w4 w4 neg d  w4 neg w4 neg d w4 w4 neg d w4 w4 d w4 w4 neg d w4 w4 d w4 neg w4 d w4 w4 d w4 neg w4 d w4 neg w4 neg d  w4 w4 neg d w4 neg w4 neg d w4 neg w4 d w4 w4 d cl f} def
/m49 {mp x w2 sub w3 add y w2 sub w3 add m  0 w3 neg d w3 0 d 0 w3 d w3 0 d 0 w3 d w3 neg 0 d 0 w3 d w3 neg 0 d 0 w3 neg d w3 neg 0 d 0 w3 neg d w3 0 d 0 w3 d w3 0 d 0 w3 neg d w3 neg 0 d cl f } def
/m2 {mp x y w2 sub m 0 w d x w2 sub y m w 0 d s} def
/m5 {mp x w2 sub y w2 sub m w w d x w2 sub y w2 add m w w neg d s} def
%%IncludeResource: ProcSet (FontSetInit)
%%IncludeResource: font Times-Roman
%%IncludeResource: font Times-Italic
%%IncludeResource: font Times-Bold
%%IncludeResource: font Times-BoldItalic
%%IncludeResource: font Helvetica
%%IncludeResource: font Helvetica-Oblique
%%IncludeResource: font Helvetica-Bold
%%IncludeResource: font Helvetica-BoldOblique
%%IncludeResource: font Courier
%%IncludeResource: font Courier-Oblique
%%IncludeResource: font Courier-Bold
%%IncludeResource: font Courier-BoldOblique
%%IncludeResource: font Symbol
%%IncludeResource: font ZapfDingbats
/reEncode {exch findfont dup length dict begin {1 index /FID eq  {pop pop} {def} ifelse } forall /Encoding exch def currentdict end dup /FontName get exch definefont pop } def [/Times-Bold /Times-Italic /Times-BoldItalic /Helvetica /Helvetica-Oblique
 /Helvetica-Bold /Helvetica-BoldOblique /Courier /Courier-Oblique /Courier-Bold /Courier-BoldOblique /Times-Roman /AvantGarde-Book /AvantGarde-BookOblique /AvantGarde-Demi /AvantGarde-DemiOblique /Bookman-Demi /Bookman-DemiItalic /Bookman-Light
 /Bookman-LightItalic /Helvetica-Narrow /Helvetica-Narrow-Bold /Helvetica-Narrow-BoldOblique /Helvetica-Narrow-Oblique /NewCenturySchlbk-Roman /NewCenturySchlbk-Bold /NewCenturySchlbk-BoldItalic /NewCenturySchlbk-Italic /Palatino-Bold
 /Palatino-BoldItalic /Palatino-Italic /Palatino-Roman ] {ISOLatin1Encoding reEncode } forall
%%EndProlog
%%BeginSetup
%%EndSetup
newpath  gsave  .25 .25 scale  gsave  0 0 t 0.490196 0.545098 0.615686 c[  ] 0 sd 3 lw 0.941176 0.941176 0.941176 c 2268 1205 0 0 bf 0.490196 0.545098 0.615686 c 0.941176 0.941176 0.941176 c 1088 1181 23 12 bf black 1 1 0.992157 c 904 933 153 142 bf
 black 904 933 153 142 bl 1 1 0.992157 c 904 933 153 142 bf black 904 933 153 142 bl 0 0 1 c 1 1 1 c 0 0 1 c 176 246 m 15 Y s 176 275 m 14 Y s 153 268 m 16 X s 183 268 m 15 X s 169 246 m 14 X s 169 289 m 14 X s 153 261 m 14 Y s 198 261 m 14 Y s /w 19
 def /w2 {w 2 div} def /w3 {w 3 div} def 176 268 m24 221 581 m 35 Y s 221 630 m 35 Y s 198 623 m 16 X s 228 623 m 16 X s 214 581 m 14 X s 214 665 m 14 X s 198 616 m 14 Y s 244 616 m 14 Y s 221 623 m24 266 708 m 41 Y s 266 763 m 41 Y s 244 756 m 15 X
 s 273 756 m 16 X s 259 708 m 14 X s 259 804 m 14 X s 244 749 m 14 Y s 289 749 m 14 Y s 266 756 m24 311 808 m 45 Y s 311 866 m 45 Y s 289 860 m 16 X s 318 860 m 16 X s 305 808 m 13 X s 305 911 m 13 X s 289 853 m 13 Y s 334 853 m 13 Y s 311 860 m24
 357 740 m 43 Y s 357 796 m 42 Y s 334 789 m 16 X s 363 789 m 16 X s 350 740 m 13 X s 350 838 m 13 X s 334 783 m 13 Y s 379 783 m 13 Y s 357 789 m24 402 659 m 39 Y s 402 711 m 39 Y s 379 704 m 16 X s 409 704 m 15 X s 395 659 m 14 X s 395 750 m 14 X s
 379 698 m 13 Y s 424 698 m 13 Y s 402 704 m24 447 401 m 26 Y s 447 441 m 26 Y s 424 434 m 16 X s 454 434 m 16 X s 440 401 m 14 X s 440 467 m 14 X s 424 427 m 14 Y s 470 427 m 14 Y s 447 434 m24 492 236 m 14 Y s 492 263 m 14 Y s 470 257 m 15 X s 499
 257 m 16 X s 485 236 m 14 X s 485 277 m 14 X s 470 250 m 13 Y s 515 250 m 13 Y s 492 257 m24 537 164 m 4 Y s 537 182 m 4 Y s 515 175 m 15 X s 544 175 m 16 X s 530 164 m 14 X s 530 186 m 14 X s 515 168 m 14 Y s 560 168 m 14 Y s 537 175 m24 582 170 m
 6 Y s 582 189 m 6 Y s 560 183 m 16 X s 589 183 m 16 X s 576 170 m 13 X s 576 195 m 13 X s 560 176 m 13 Y s 605 176 m 13 Y s 582 183 m24 628 155 m 2 Y s 628 171 m 2 Y s 605 164 m 16 X s 634 164 m 16 X s 621 155 m 13 X s 621 173 m 13 X s 605 157 m 14
 Y s 650 157 m 14 Y s 628 164 m24 673 152 m 2 Y s 673 167 m 2 Y s 650 160 m 16 X s 680 160 m 15 X s 666 152 m 14 X s 666 169 m 14 X s 650 154 m 13 Y s 695 154 m 13 Y s 673 160 m24 695 153 m 16 X s 725 153 m 16 X s 695 146 m 14 Y s 741 146 m 14 Y s
 718 153 m24 741 149 m 15 X s 770 149 m 16 X s 741 143 m 13 Y s 786 143 m 13 Y s 763 149 m24 831 153 m 16 X s 860 153 m 16 X s 831 146 m 14 Y s 876 146 m 14 Y s 853 153 m24 black 153 142 m 904 X s 192 171 m -29 Y s 213 157 m -15 Y s 235 157 m -15 Y s
 256 157 m -15 Y s 277 157 m -15 Y s 298 171 m -29 Y s 319 157 m -15 Y s 340 157 m -15 Y s 361 157 m -15 Y s 383 157 m -15 Y s 404 171 m -29 Y s 425 157 m -15 Y s 446 157 m -15 Y s 467 157 m -15 Y s 488 157 m -15 Y s 510 171 m -29 Y s 531 157 m -15 Y
 s 552 157 m -15 Y s 573 157 m -15 Y s 594 157 m -15 Y s 615 171 m -29 Y s 636 157 m -15 Y s 658 157 m -15 Y s 679 157 m -15 Y s 700 157 m -15 Y s 721 171 m -29 Y s 742 157 m -15 Y s 763 157 m -15 Y s 784 157 m -15 Y s 806 157 m -15 Y s 827 171 m -29
 Y s 848 157 m -15 Y s 869 157 m -15 Y s 890 157 m -15 Y s 911 157 m -15 Y s 932 171 m -29 Y s 954 157 m -15 Y s 975 157 m -15 Y s 996 157 m -15 Y s 1017 157 m -15 Y s 1038 171 m -29 Y s 192 171 m -29 Y s 171 157 m -15 Y s 1038 171 m -29 Y s
 gsave  1088 1181 23 12 C 169.739 105.238 t 0 r /Helvetica findfont 34.0157 sf 0 0 m (50) show NC gr 
 gsave  1088 1181 23 12 C 264.793 105.238 t 0 r /Helvetica findfont 34.0157 sf 0 0 m (100) show NC gr 
 gsave  1088 1181 23 12 C 370.032 105.238 t 0 r /Helvetica findfont 34.0157 sf 0 0 m (150) show NC gr 
 gsave  1088 1181 23 12 C 478.665 105.238 t 0 r /Helvetica findfont 34.0157 sf 0 0 m (200) show NC gr 
 gsave  1088 1181 23 12 C 583.903 105.238 t 0 r /Helvetica findfont 34.0157 sf 0 0 m (250) show NC gr 
 gsave  1088 1181 23 12 C 689.141 105.238 t 0 r /Helvetica findfont 34.0157 sf 0 0 m (300) show NC gr 
 gsave  1088 1181 23 12 C 794.38 105.238 t 0 r /Helvetica findfont 34.0157 sf 0 0 m (350) show NC gr 
 gsave  1088 1181 23 12 C 899.618 105.238 t 0 r /Helvetica findfont 34.0157 sf 0 0 m (400) show NC gr 
 gsave  1088 1181 23 12 C 1004.86 105.238 t 0 r /Helvetica findfont 34.0157 sf 0 0 m (450) show NC gr  153 1075 m 904 X s 192 1046 m 29 Y s 213 1060 m 15 Y s 235 1060 m 15 Y s 256 1060 m 15 Y s 277 1060 m 15 Y s 298 1046 m 29 Y s 319 1060 m 15 Y s
 340 1060 m 15 Y s 361 1060 m 15 Y s 383 1060 m 15 Y s 404 1046 m 29 Y s 425 1060 m 15 Y s 446 1060 m 15 Y s 467 1060 m 15 Y s 488 1060 m 15 Y s 510 1046 m 29 Y s 531 1060 m 15 Y s 552 1060 m 15 Y s 573 1060 m 15 Y s 594 1060 m 15 Y s 615 1046 m 29 Y
 s 636 1060 m 15 Y s 658 1060 m 15 Y s 679 1060 m 15 Y s 700 1060 m 15 Y s 721 1046 m 29 Y s 742 1060 m 15 Y s 763 1060 m 15 Y s 784 1060 m 15 Y s 806 1060 m 15 Y s 827 1046 m 29 Y s 848 1060 m 15 Y s 869 1060 m 15 Y s 890 1060 m 15 Y s 911 1060 m 15
 Y s 932 1046 m 29 Y s 954 1060 m 15 Y s 975 1060 m 15 Y s 996 1060 m 15 Y s 1017 1060 m 15 Y s 1038 1046 m 29 Y s 192 1046 m 29 Y s 171 1060 m 15 Y s 1038 1046 m 29 Y s 153 142 m 933 Y s 179 142 m -26 X s 166 179 m -13 X s 166 216 m -13 X s 166 253
 m -13 X s 166 290 m -13 X s 179 327 m -26 X s 166 364 m -13 X s 166 401 m -13 X s 166 438 m -13 X s 166 475 m -13 X s 179 512 m -26 X s 166 549 m -13 X s 166 586 m -13 X s 166 623 m -13 X s 166 660 m -13 X s 179 697 m -26 X s 166 734 m -13 X s 166
 771 m -13 X s 166 808 m -13 X s 166 845 m -13 X s 179 882 m -26 X s 166 919 m -13 X s 166 956 m -13 X s 166 993 m -13 X s 166 1030 m -13 X s 179 1067 m -26 X s 179 1067 m -26 X s
 gsave  1088 1181 23 12 C 125.607 129.002 t 0 r /Helvetica findfont 34.0157 sf 0 0 m (0) show NC gr 
 gsave  1088 1181 23 12 C 108.633 315.715 t 0 r /Helvetica findfont 34.0157 sf 0 0 m (50) show NC gr 
 gsave  1088 1181 23 12 C 88.2644 499.033 t 0 r /Helvetica findfont 34.0157 sf 0 0 m (100) show NC gr 
 gsave  1088 1181 23 12 C 88.2644 685.747 t 0 r /Helvetica findfont 34.0157 sf 0 0 m (150) show NC gr 
 gsave  1088 1181 23 12 C 88.2644 869.065 t 0 r /Helvetica findfont 34.0157 sf 0 0 m (200) show NC gr 
 gsave  1088 1181 23 12 C 88.2644 1055.78 t 0 r /Helvetica findfont 34.0157 sf 0 0 m (250) show NC gr  1057 142 m 933 Y s 1031 142 m 26 X s 1044 179 m 13 X s 1044 216 m 13 X s 1044 253 m 13 X s 1044 290 m 13 X s 1031 327 m 26 X s 1044 364 m 13 X s
 1044 401 m 13 X s 1044 438 m 13 X s 1044 475 m 13 X s 1031 512 m 26 X s 1044 549 m 13 X s 1044 586 m 13 X s 1044 623 m 13 X s 1044 660 m 13 X s 1031 697 m 26 X s 1044 734 m 13 X s 1044 771 m 13 X s 1044 808 m 13 X s 1044 845 m 13 X s 1031 882 m 26 X
 s 1044 919 m 13 X s 1044 956 m 13 X s 1044 993 m 13 X s 1044 1030 m 13 X s 1031 1067 m 26 X s 1031 1067 m 26 X s 0 0 1 c 6 lw 1 1 1 c black 0 0 1 c 153 183 m 1 Y 1 X 8 Y 1 X 8 Y 1 X 8 Y 1 X 7 Y 1 X 8 Y 1 X 8 Y 1 X 7 Y 1 X 8 Y 1 X 7 Y 1 X 8 Y 1 X 7 Y
 1 X 8 Y 1 X 7 Y 1 X 8 Y 1 X 7 Y 1 X 7 Y 1 X 7 Y 1 X 7 Y 1 X 7 Y 1 X 7 Y 1 X 7 Y 1 X 7 Y 1 X 7 Y 1 X 7 Y 1 X 6 Y 1 X 8 Y 1 X 6 Y 1 X 7 Y 1 X 6 Y 1 X 7 Y 1 X 6 Y 1 X 7 Y 1 X 6 Y 1 X 6 Y 1 X 6 Y 1 X 6 Y 1 X 7 Y 1 X 6 Y 1 X 6 Y 1 X 6 Y 1 X 6 Y 1 X 6 Y 1
 X 6 Y 1 X 6 Y 1 X 5 Y 1 X 6 Y 1 X 6 Y 1 X 5 Y 1 X 6 Y 1 X 5 Y 1 X 6 Y 1 X 5 Y 1 X 5 Y 1 X 6 Y 1 X 5 Y 1 X 6 Y 1 X 5 Y 1 X 5 Y 1 X 5 Y 1 X 5 Y 1 X 5 Y 1 X 5 Y 1 X 4 Y 1 X 5 Y 1 X 5 Y 1 X 5 Y 1 X 4 Y 1 X 5 Y 1 X 4 Y 1 X 5 Y 1 X 5 Y 1 X 4 Y 1 X 4 Y 1 X
 5 Y 1 X 4 Y 1 X 4 Y 1 X 4 Y 1 X 4 Y 1 X 4 Y 1 X 4 Y 1 X 4 Y 1 X 4 Y 1 X 4 Y 1 X 4 Y 1 X 4 Y 1 X 3 Y 1 X 4 Y 1 X 4 Y 1 X 3 Y 1 X 4 Y 1 X 3 Y 1 X 4 Y 1 X 3 Y 1 X 3 Y 1 X 3 Y 1 X 4 Y 1 X 3 Y 1 X 3 Y 1 X 3 Y 1 X 3 Y 1 X 3 Y 1 X 3 Y 1 X 3 Y 1 X 3 Y 1 X 3
 Y 1 X 2 Y 1 X 3 Y 1 X 3 Y 1 X 2 Y 1 X 3 Y 1 X 2 Y 1 X 3 Y 1 X 2 Y 1 X 2 Y 1 X 3 Y 1 X 2 Y 1 X 2 Y 1 X 2 Y 1 X 2 Y 1 X 2 Y 1 X 2 Y 1 X 2 Y 1 X 2 Y 1 X 1 Y 1 X 2 Y 1 X 2 Y 1 X 2 Y 1 X 1 Y 1 X 2 Y 1 X 1 Y 1 X 2 Y 1 X 1 Y 1 X 2 Y 1 X 1 Y 1 X 2 Y 1 X 1 Y
 1 X 1 Y 1 X 1 Y 1 X 1 Y 1 X 2 Y 1 X 1 Y 1 X 1 Y 1 X 1 Y 1 X 1 Y 1 X 1 Y 2 X 1 Y 1 X 1 Y 1 X 1 Y 2 X 1 Y 1 X 1 Y 2 X 1 Y 2 X 1 Y 3 X 1 Y 1 X 1 Y 2 X 1 Y 3 X 1 Y 5 X 1 Y 4 X -1 Y 5 X -1 Y 2 X -1 Y 2 X -1 Y 2 X -1 Y 2 X -1 Y 1 X -1 Y 1 X -1 Y 1 X -1 Y
 2 X -1 Y 1 X -1 Y 1 X -1 Y 1 X -2 Y 1 X -1 Y 1 X -1 Y 1 X -1 Y 1 X -1 Y 1 X -2 Y 1 X -1 Y 1 X -2 Y 1 X -1 Y 1 X -2 Y 1 X -2 Y 1 X -1 Y 1 X -2 Y 1 X -2 Y 1 X -2 Y 1 X -3 Y 1 X -2 Y 1 X -2 Y 1 X -2 Y 1 X -2 Y 1 X -3 Y 1 X -2 Y 1 X -3 Y 1 X -2 Y 1 X -3
 Y 1 X -2 Y 1 X -3 Y 1 X -3 Y 1 X -3 Y 1 X -2 Y 1 X -3 Y 1 X -3 Y 1 X -3 Y 1 X -3 Y 1 X -3 Y 1 X -4 Y 1 X -3 Y 1 X -3 Y 1 X -3 Y 1 X -4 Y 1 X -3 Y 1 X -3 Y 1 X -4 Y 1 X -3 Y 1 X -4 Y 1 X -4 Y 1 X -3 Y 1 X -4 Y 1 X -4 Y 1 X -4 Y 1 X -4 Y 1 X -4 Y 1 X
 -4 Y 1 X -4 Y 1 X -4 Y 1 X -5 Y 1 X -5 Y 1 X -5 Y 1 X -4 Y 1 X -5 Y 1 X -5 Y 1 X -5 Y 1 X -5 Y 1 X -4 Y 1 X -6 Y 1 X -5 Y 1 X -4 Y 1 X -5 Y 1 X -5 Y 1 X -5 Y 1 X -5 Y 1 X -5 Y 1 X -5 Y 1 X -5 Y 1 X -5 Y 1 X -5 Y 1 X -5 Y 1 X -5 Y 1 X -5 Y 1 X -6 Y 1
 X -5 Y 1 X -5 Y 1 X -5 Y 1 X -5 Y 1 X -5 Y 1 X -5 Y 1 X -6 Y 1 X -5 Y 1 X -5 Y 1 X -5 Y 1 X -5 Y 1 X -6 Y 1 X -5 Y 1 X -5 Y 1 X -6 Y 1 X -5 Y 1 X -6 Y 1 X -5 Y 1 X -5 Y 1 X -6 Y 1 X -5 Y 1 X -5 Y 1 X -4 Y 1 X -5 Y 1 X -5 Y 1 X -5 Y 1 X -5 Y 1 X -5 Y
 1 X -5 Y 1 X -4 Y 1 X -5 Y 1 X -5 Y 1 X -4 Y 1 X -5 Y 1 X -4 Y 1 X -5 Y 1 X -4 Y 1 X -5 Y 1 X -4 Y 1 X -4 Y 1 X -4 Y 1 X -5 Y 1 X -4 Y 1 X -4 Y 1 X -5 Y 1 X -4 Y 1 X -4 Y 1 X -4 Y 1 X -4 Y 1 X -4 Y 1 X -4 Y 1 X -3 Y 1 X -4 Y 1 X -4 Y 1 X -4 Y 1 X -3
 Y 1 X -4 Y 1 X -4 Y 1 X -4 Y 1 X -3 Y 1 X -4 Y 1 X -3 Y 1 X -4 Y 1 X -3 Y 1 X -3 Y 1 X -3 Y 1 X -3 Y 1 X -2 Y 1 X -3 Y 1 X -2 Y 1 X -3 Y 1 X -2 Y 1 X -3 Y 1 X -2 Y 1 X -2 Y 1 X -2 Y 1 X -3 Y 1 X -2 Y 1 X -2 Y 1 X -2 Y 1 X -2 Y 1 X -2 Y 1 X -2 Y 1 X
 -2 Y 1 X -1 Y 1 X -2 Y 1 X -2 Y 1 X -2 Y 1 X -1 Y 1 X -2 Y 1 X -2 Y 1 X -1 Y 1 X -2 Y 1 X -1 Y 1 X -1 Y 1 X -2 Y 1 X -1 Y 1 X -1 Y 1 X -1 Y 1 X -2 Y 1 X -1 Y 1 X -1 Y 1 X -1 Y 1 X -1 Y 1 X -1 Y 1 X -1 Y 1 X -1 Y 2 X -1 Y 1 X -1 Y 2 X -1 Y 1 X -1 Y 2
 X -1 Y 2 X -1 Y 2 X -1 Y 2 X -1 Y 3 X -1 Y 3 X -1 Y 3 X -1 Y 5 X -1 Y 17 X 1 Y 27 X -1 Y 28 X -1 Y 8 X -1 Y 7 X -1 Y 7 X -1 Y 7 X -1 Y 6 X -1 Y 7 X -1 Y 7 X -1 Y 8 X -1 Y 8 X -1 Y 8 X -1 Y 9 X -1 Y 10 X -1 Y 11 X -1 Y 12 X -1 Y 14 X -1 Y 17 X -1 Y
 18 X -1 Y 16 X -1 Y 13 X -1 Y 14 X -1 Y 15 X -1 Y 22 X -1 Y 179 X s 0.490196 0.545098 0.615686 c 3 lw 1 1 1 c 0.490196 0.545098 0.615686 c 838 165 153 910 bl 153 910 m 838 X s 991 910 m 165 Y s 991 1075 m -838 X s 153 1075 m -165 Y s black
 gsave  1088 1181 23 12 C 359.847 1018.44 t 0 r /Helvetica-Bold findfont 37.4173 sf 0 0 m (Input data \(signal\)) show NC gr  0 0 1 c 258 1034 m24 black
 gsave  1088 1181 23 12 C 359.847 933.566 t 0 r /Helvetica-Bold findfont 37.4173 sf 0 0 m (Estimated PDF \(norm. signal\)) show NC gr  0 0 1 c 6 lw 185 951 m 146 X s 0.490196 0.545098 0.615686 c 3 lw 0.364706 0.419608 0.490196 c 762 61 34 1126 bf
 0.490196 0.545098 0.615686 c 34 1126 m 762 X s 796 1126 m 61 Y s 796 1187 m -762 X s 34 1187 m -61 Y s 1 1 1 c black 1 1 1 c
 gsave  1088 1181 23 12 C 71.2905 1147.44 t 0 r /Helvetica-Bold findfont 30.6142 sf 0 0 m (dataset_Likelihood_variables[2] signal training) show NC gr  0.490196 0.545098 0.615686 c 0.941176 0.941176 0.941176 c 1088 1181 1157 12 bf black 1 1 0.992157
 c 904 933 1287 142 bf black 904 933 1287 142 bl 1 1 0.992157 c 904 933 1287 142 bf black 904 933 1287 142 bl 1 0 0 c 1 1 1 c 1 0 0 c 1310 571 m 65 Y s 1310 650 m 65 Y s 1287 643 m 16 X s 1317 643 m 15 X s 1303 571 m 14 X s 1303 715 m 14 X s 1287 636
 m 14 Y s 1332 636 m 14 Y s 1310 643 m24 1355 551 m 99 Y s 1355 663 m 99 Y s 1332 657 m 16 X s 1362 657 m 16 X s 1348 551 m 14 X s 1348 762 m 14 X s 1332 650 m 13 Y s 1378 650 m 13 Y s 1355 657 m24 1400 770 m 83 Y s 1400 866 m 83 Y s 1378 860 m 15 X
 s 1407 860 m 16 X s 1393 770 m 14 X s 1393 949 m 14 X s 1378 853 m 13 Y s 1423 853 m 13 Y s 1400 860 m24 1445 317 m 75 Y s 1445 406 m 76 Y s 1423 399 m 15 X s 1452 399 m 16 X s 1438 317 m 14 X s 1438 482 m 14 X s 1423 392 m 14 Y s 1468 392 m 14 Y s
 1445 399 m24 1490 233 m 71 Y s 1490 318 m 71 Y s 1468 311 m 16 X s 1497 311 m 16 X s 1484 233 m 13 X s 1484 389 m 13 X s 1468 304 m 14 Y s 1513 304 m 14 Y s 1490 311 m24 1536 238 m 53 Y s 1536 304 m 54 Y s 1513 298 m 16 X s 1542 298 m 16 X s 1529
 238 m 13 X s 1529 358 m 13 X s 1513 291 m 13 Y s 1558 291 m 13 Y s 1536 298 m24 1581 142 m 34 Y s 1581 189 m 37 Y s 1558 183 m 16 X s 1588 183 m 15 X s 1574 142 m 14 X s 1574 226 m 14 X s 1558 176 m 13 Y s 1603 176 m 13 Y s 1581 183 m24 1626 170 m
 33 Y s 1626 216 m 33 Y s 1603 210 m 16 X s 1633 210 m 16 X s 1619 170 m 14 X s 1619 249 m 14 X s 1603 203 m 13 Y s 1649 203 m 13 Y s 1626 210 m24 1671 148 m 14 Y s 1671 176 m 14 Y s 1649 169 m 15 X s 1678 169 m 16 X s 1664 148 m 14 X s 1664 190 m 14
 X s 1649 162 m 14 Y s 1694 162 m 14 Y s 1671 169 m24 1716 142 m 13 Y s 1716 169 m 16 Y s 1694 162 m 16 X s 1723 162 m 16 X s 1710 142 m 13 X s 1710 185 m 13 X s 1694 155 m 14 Y s 1739 155 m 14 Y s 1716 162 m24 1761 144 m 11 Y s 1761 169 m 11 Y s
 1739 162 m 16 X s 1768 162 m 16 X s 1755 144 m 13 X s 1755 180 m 13 X s 1739 155 m 14 Y s 1784 155 m 14 Y s 1761 162 m24 2145 149 m 16 X s 2175 149 m 16 X s 2145 142 m 14 Y s 2191 142 m 14 Y s 2168 149 m24 black 1287 142 m 904 X s 1326 171 m -29 Y s
 1347 157 m -15 Y s 1368 157 m -15 Y s 1390 157 m -15 Y s 1411 157 m -15 Y s 1432 171 m -29 Y s 1453 157 m -15 Y s 1474 157 m -15 Y s 1495 157 m -15 Y s 1516 157 m -15 Y s 1538 171 m -29 Y s 1559 157 m -15 Y s 1580 157 m -15 Y s 1601 157 m -15 Y s
 1622 157 m -15 Y s 1643 171 m -29 Y s 1665 157 m -15 Y s 1686 157 m -15 Y s 1707 157 m -15 Y s 1728 157 m -15 Y s 1749 171 m -29 Y s 1770 157 m -15 Y s 1791 157 m -15 Y s 1813 157 m -15 Y s 1834 157 m -15 Y s 1855 171 m -29 Y s 1876 157 m -15 Y s
 1897 157 m -15 Y s 1918 157 m -15 Y s 1939 157 m -15 Y s 1961 171 m -29 Y s 1982 157 m -15 Y s 2003 157 m -15 Y s 2024 157 m -15 Y s 2045 157 m -15 Y s 2066 171 m -29 Y s 2087 157 m -15 Y s 2109 157 m -15 Y s 2130 157 m -15 Y s 2151 157 m -15 Y s
 2172 171 m -29 Y s 1326 171 m -29 Y s 1305 157 m -15 Y s 2172 171 m -29 Y s
 gsave  1088 1181 1157 12 C 1303.6 105.238 t 0 r /Helvetica findfont 34.0157 sf 0 0 m (50) show NC gr 
 gsave  1088 1181 1157 12 C 1398.65 105.238 t 0 r /Helvetica findfont 34.0157 sf 0 0 m (100) show NC gr 
 gsave  1088 1181 1157 12 C 1503.89 105.238 t 0 r /Helvetica findfont 34.0157 sf 0 0 m (150) show NC gr 
 gsave  1088 1181 1157 12 C 1612.52 105.238 t 0 r /Helvetica findfont 34.0157 sf 0 0 m (200) show NC gr 
 gsave  1088 1181 1157 12 C 1717.76 105.238 t 0 r /Helvetica findfont 34.0157 sf 0 0 m (250) show NC gr 
 gsave  1088 1181 1157 12 C 1823 105.238 t 0 r /Helvetica findfont 34.0157 sf 0 0 m (300) show NC gr 
 gsave  1088 1181 1157 12 C 1928.24 105.238 t 0 r /Helvetica findfont 34.0157 sf 0 0 m (350) show NC gr 
 gsave  1088 1181 1157 12 C 2033.48 105.238 t 0 r /Helvetica findfont 34.0157 sf 0 0 m (400) show NC gr 
 gsave  1088 1181 1157 12 C 2138.71 105.238 t 0 r /Helvetica findfont 34.0157 sf 0 0 m (450) show NC gr  1287 1075 m 904 X s 1326 1046 m 29 Y s 1347 1060 m 15 Y s 1368 1060 m 15 Y s 1390 1060 m 15 Y s 1411 1060 m 15 Y s 1432 1046 m 29 Y s 1453 1060 m
 15 Y s 1474 1060 m 15 Y s 1495 1060 m 15 Y s 1516 1060 m 15 Y s 1538 1046 m 29 Y s 1559 1060 m 15 Y s 1580 1060 m 15 Y s 1601 1060 m 15 Y s 1622 1060 m 15 Y s 1643 1046 m 29 Y s 1665 1060 m 15 Y s 1686 1060 m 15 Y s 1707 1060 m 15 Y s 1728 1060 m 15
 Y s 1749 1046 m 29 Y s 1770 1060 m 15 Y s 1791 1060 m 15 Y s 1813 1060 m 15 Y s 1834 1060 m 15 Y s 1855 1046 m 29 Y s 1876 1060 m 15 Y s 1897 1060 m 15 Y s 1918 1060 m 15 Y s 1939 1060 m 15 Y s 1961 1046 m 29 Y s 1982 1060 m 15 Y s 2003 1060 m 15 Y
 s 2024 1060 m 15 Y s 2045 1060 m 15 Y s 2066 1046 m 29 Y s 2087 1060 m 15 Y s 2109 1060 m 15 Y s 2130 1060 m 15 Y s 2151 1060 m 15 Y s 2172 1046 m 29 Y s 1326 1046 m 29 Y s 1305 1060 m 15 Y s 2172 1046 m 29 Y s 1287 142 m 933 Y s 1313 142 m -26 X s
 1300 167 m -13 X s 1300 192 m -13 X s 1300 216 m -13 X s 1300 241 m -13 X s 1313 266 m -26 X s 1300 291 m -13 X s 1300 315 m -13 X s 1300 340 m -13 X s 1300 365 m -13 X s 1313 390 m -26 X s 1300 415 m -13 X s 1300 439 m -13 X s 1300 464 m -13 X s
 1300 489 m -13 X s 1313 514 m -26 X s 1300 538 m -13 X s 1300 563 m -13 X s 1300 588 m -13 X s 1300 613 m -13 X s 1313 638 m -26 X s 1300 662 m -13 X s 1300 687 m -13 X s 1300 712 m -13 X s 1300 737 m -13 X s 1313 762 m -26 X s 1300 786 m -13 X s
 1300 811 m -13 X s 1300 836 m -13 X s 1300 861 m -13 X s 1313 885 m -26 X s 1300 910 m -13 X s 1300 935 m -13 X s 1300 960 m -13 X s 1300 985 m -13 X s 1313 1009 m -26 X s 1313 1009 m -26 X s 1300 1034 m -13 X s 1300 1059 m -13 X s
 gsave  1088 1181 1157 12 C 1259.47 129.002 t 0 r /Helvetica findfont 34.0157 sf 0 0 m (0) show NC gr 
 gsave  1088 1181 1157 12 C 1242.49 254.609 t 0 r /Helvetica findfont 34.0157 sf 0 0 m (50) show NC gr 
 gsave  1088 1181 1157 12 C 1222.12 376.821 t 0 r /Helvetica findfont 34.0157 sf 0 0 m (100) show NC gr 
 gsave  1088 1181 1157 12 C 1222.12 502.428 t 0 r /Helvetica findfont 34.0157 sf 0 0 m (150) show NC gr 
 gsave  1088 1181 1157 12 C 1222.12 624.64 t 0 r /Helvetica findfont 34.0157 sf 0 0 m (200) show NC gr 
 gsave  1088 1181 1157 12 C 1222.12 750.247 t 0 r /Helvetica findfont 34.0157 sf 0 0 m (250) show NC gr 
 gsave  1088 1181 1157 12 C 1222.12 872.46 t 0 r /Helvetica findfont 34.0157 sf 0 0 m (300) show NC gr 
 gsave  1088 1181 1157 12 C 1222.12 998.067 t 0 r /Helvetica findfont 34.0157 sf 0 0 m (350) show NC gr  2191 142 m 933 Y s 2165 142 m 26 X s 2178 167 m 13 X s 2178 192 m 13 X s 2178 216 m 13 X s 2178 241 m 13 X s 2165 266 m 26 X s 2178 291 m 13 X s
 2178 315 m 13 X s 2178 340 m 13 X s 2178 365 m 13 X s 2165 390 m 26 X s 2178 415 m 13 X s 2178 439 m 13 X s 2178 464 m 13 X s 2178 489 m 13 X s 2165 514 m 26 X s 2178 538 m 13 X s 2178 563 m 13 X s 2178 588 m 13 X s 2178 613 m 13 X s 2165 638 m 26 X
 s 2178 662 m 13 X s 2178 687 m 13 X s 2178 712 m 13 X s 2178 737 m 13 X s 2165 762 m 26 X s 2178 786 m 13 X s 2178 811 m 13 X s 2178 836 m 13 X s 2178 861 m 13 X s 2165 885 m 26 X s 2178 910 m 13 X s 2178 935 m 13 X s 2178 960 m 13 X s 2178 985 m 13
 X s 2165 1009 m 26 X s 2165 1009 m 26 X s 2178 1034 m 13 X s 2178 1059 m 13 X s 1 0 0 c 6 lw 1 1 1 c black 1 0 0 c 1287 687 m 1 X 2 Y 1 X 1 Y 1 X 2 Y 1 X 2 Y 1 X 1 Y 1 X 2 Y 1 X 1 Y 1 X 1 Y 1 X 2 Y 1 X 1 Y 1 X 1 Y 1 X 2 Y 1 X 1 Y 1 X 1 Y 1 X 1 Y 1 X
 1 Y 1 X 1 Y 1 X 1 Y 1 X 1 Y 1 X 1 Y 1 X 1 Y 1 X 1 Y 1 X 1 Y 1 X 1 Y 2 X 1 Y 1 X 1 Y 1 X 1 Y 2 X 1 Y 2 X 1 Y 2 X 1 Y 3 X 1 Y 4 X 1 Y 9 X -1 Y 4 X -1 Y 3 X -1 Y 2 X -1 Y 2 X -1 Y 1 X -1 Y 2 X -1 Y 1 X -1 Y 1 X -1 Y 2 X -1 Y 1 X -1 Y 1 X -1 Y 1 X -1 Y
 2 X -1 Y 1 X -1 Y 1 X -1 Y 1 X -1 Y 1 X -2 Y 1 X -1 Y 1 X -1 Y 1 X -1 Y 1 X -1 Y 1 X -2 Y 1 X -1 Y 1 X -1 Y 1 X -2 Y 1 X -1 Y 1 X -2 Y 1 X -2 Y 1 X -1 Y 1 X -2 Y 1 X -2 Y 1 X -1 Y 1 X -2 Y 1 X -2 Y 1 X -2 Y 1 X -2 Y 1 X -2 Y 1 X -2 Y 1 X -2 Y 1 X -2
 Y 1 X -2 Y 1 X -2 Y 1 X -3 Y 1 X -2 Y 1 X -2 Y 1 X -3 Y 1 X -2 Y 1 X -3 Y 1 X -2 Y 1 X -3 Y 1 X -2 Y 1 X -3 Y 1 X -3 Y 1 X -4 Y 1 X -3 Y 1 X -4 Y 1 X -4 Y 1 X -4 Y 1 X -3 Y 1 X -4 Y 1 X -4 Y 1 X -4 Y 1 X -4 Y 1 X -4 Y 1 X -3 Y 1 X -4 Y 1 X -4 Y 1 X
 -4 Y 1 X -4 Y 1 X -4 Y 1 X -4 Y 1 X -3 Y 1 X -4 Y 1 X -4 Y 1 X -5 Y 1 X -4 Y 1 X -4 Y 1 X -4 Y 1 X -4 Y 1 X -4 Y 1 X -4 Y 1 X -4 Y 1 X -4 Y 1 X -4 Y 1 X -4 Y 1 X -4 Y 1 X -4 Y 1 X -4 Y 1 X -5 Y 1 X -4 Y 1 X -4 Y 1 X -4 Y 1 X -4 Y 1 X -5 Y 1 X -4 Y 1
 X -4 Y 1 X -4 Y 1 X -4 Y 1 X -4 Y 1 X -4 Y 1 X -3 Y 1 X -4 Y 1 X -3 Y 1 X -4 Y 1 X -3 Y 1 X -4 Y 1 X -3 Y 1 X -3 Y 1 X -3 Y 1 X -4 Y 1 X -3 Y 1 X -3 Y 1 X -3 Y 1 X -3 Y 1 X -3 Y 1 X -3 Y 1 X -3 Y 1 X -4 Y 1 X -3 Y 1 X -3 Y 1 X -3 Y 1 X -2 Y 1 X -3 Y
 1 X -3 Y 1 X -3 Y 1 X -3 Y 1 X -2 Y 1 X -3 Y 1 X -3 Y 1 X -2 Y 1 X -3 Y 1 X -2 Y 1 X -3 Y 1 X -2 Y 1 X -3 Y 1 X -2 Y 1 X -3 Y 1 X -2 Y 1 X -2 Y 1 X -3 Y 1 X -2 Y 1 X -2 Y 1 X -2 Y 1 X -2 Y 1 X -1 Y 1 X -2 Y 1 X -2 Y 1 X -1 Y 1 X -2 Y 1 X -1 Y 1 X -1
 Y 1 X -2 Y 1 X -1 Y 1 X -1 Y 1 X -2 Y 1 X -1 Y 1 X -1 Y 1 X -2 Y 1 X -1 Y 1 X -1 Y 1 X -1 Y 1 X -2 Y 1 X -1 Y 1 X -1 Y 1 X -1 Y 1 X -1 Y 1 X -1 Y 1 X -1 Y 1 X -1 Y 1 X -1 Y 1 X -1 Y 1 X -1 Y 1 X -1 Y 1 X -1 Y 1 X -1 Y 1 X -1 Y 1 X -1 Y 1 X -1 Y 1 X
 -1 Y 1 X -1 Y 2 X -1 Y 1 X -1 Y 1 X -1 Y 2 X -1 Y 1 X -1 Y 2 X -2 Y 1 X -1 Y 1 X -1 Y 1 X -1 Y 1 X -1 Y 1 X -1 Y 1 X -1 Y 1 X -2 Y 1 X -1 Y 1 X -1 Y 1 X -1 Y 1 X -1 Y 1 X -1 Y 1 X -1 Y 1 X -1 Y 1 X -1 Y 1 X -2 Y 1 X -1 Y 1 X -1 Y 1 X -1 Y 1 X -1 Y 1
 X -1 Y 1 X -1 Y 1 X -1 Y 1 X -1 Y 1 X -1 Y 1 X -1 Y 1 X -1 Y 1 X -2 Y 1 X -1 Y 1 X -1 Y 1 X -1 Y 1 X -1 Y 1 X -1 Y 1 X -1 Y 1 X -1 Y 1 X -1 Y 1 X -1 Y 1 X -1 Y 1 X -1 Y 1 X -1 Y 1 X -1 Y 1 X -1 Y 1 X -1 Y 1 X -1 Y 1 X -1 Y 1 X -1 Y 1 X -1 Y 1 X -1 Y
 1 X -1 Y 1 X -1 Y 1 X -1 Y 1 X -1 Y 1 X -1 Y 1 X -1 Y 1 X -1 Y 1 X -1 Y 1 X -1 Y 1 X -1 Y 1 X -1 Y 1 X -1 Y 1 X -1 Y 2 X -1 Y 1 X -1 Y 1 X -1 Y 1 X -1 Y 1 X -1 Y 1 X -1 Y 2 X -1 Y 1 X -1 Y 1 X -1 Y 1 X -1 Y 1 X -1 Y 2 X -1 Y 1 X -1 Y 1 X -1 Y 2 X -1
 Y 1 X -1 Y 1 X -1 Y 2 X -1 Y 1 X -1 Y 2 X -1 Y 1 X -1 Y 1 X -1 Y 2 X -1 Y 2 X -1 Y 2 X -1 Y 2 X -1 Y 2 X -1 Y 2 X -1 Y 2 X -1 Y 3 X -1 Y 2 X -1 Y 2 X -1 Y 3 X -1 Y 3 X -1 Y 3 X -1 Y 3 X -1 Y 3 X -1 Y 4 X -1 Y 4 X -1 Y 5 X -1 Y 5 X -1 Y 5 X -1 Y 5 X
 -1 Y 6 X -1 Y 6 X -1 Y 7 X -1 Y 7 X -1 Y 7 X -1 Y 6 X -1 Y 6 X -1 Y 5 X -1 Y 6 X -1 Y 5 X -1 Y 6 X -1 Y 5 X -1 Y 4 X -1 Y 3 X -1 Y 4 X -1 Y 4 X -1 Y 4 X -1 Y 4 X -1 Y 4 X -1 Y 4 X -1 Y 4 X -1 Y 4 X -1 Y 5 X -1 Y 5 X -1 Y 6 X -1 Y 8 X -1 Y 5 X 3 Y -3
 Y 362 X s 0.490196 0.545098 0.615686 c 3 lw 1 1 1 c 0.490196 0.545098 0.615686 c 838 165 1287 910 bl 1287 910 m 838 X s 2125 910 m 165 Y s 2125 1075 m -838 X s 1287 1075 m -165 Y s black
 gsave  1088 1181 1157 12 C 1493.71 1018.44 t 0 r /Helvetica-Bold findfont 37.4173 sf 0 0 m (Input data \(backgr.\)) show NC gr  1 0 0 c 1392 1034 m24 black
 gsave  1088 1181 1157 12 C 1493.71 933.566 t 0 r /Helvetica-Bold findfont 37.4173 sf 0 0 m (Estimated PDF \(norm. backgr.\)) show NC gr  1 0 0 c 6 lw 1319 951 m 146 X s 0.490196 0.545098 0.615686 c 3 lw 0.364706 0.419608 0.490196 c 762 61 1167 1126
 bf 0.490196 0.545098 0.615686 c 1167 1126 m 762 X s 1929 1126 m 61 Y s 1929 1187 m -762 X s 1167 1187 m -61 Y s 1 1 1 c black 1 1 1 c
 gsave  1088 1181 1157 12 C 1205.15 1147.44 t 0 r /Helvetica-Bold findfont 27.2126 sf 0 0 m (dataset_Likelihood_variables[2] background training) show NC gr 
 gr  gr showpage
end
%%EOF
