%!PS-Adobe-2.0 EPSF-2.0
%%BoundingBox:  0 0 567 420
%%Title: dataset/plots/mvaeffs_RuleFit.eps: Cut efficiencies for RuleFit classifier
%%Creator: ROOT Version 6.20/04
%%CreationDate: Thu May  7 16:03:02 2020
%%DocumentNeededResources: ProcSet (FontSetInit)
%%EndComments
%%BeginProlog
80 dict begin
/s {stroke} def /l {lineto} def /m {moveto} def /t {translate} def
/r {rotate} def /rl {roll}  def /R {repeat} def
/d {rlineto} def /rm {rmoveto} def /gr {grestore} def /f {eofill} def
/c {setrgbcolor} def /black {0 setgray} def /sd {setdash} def
/cl {closepath} def /sf {scalefont setfont} def /lw {setlinewidth} def
/box {m dup 0 exch d exch 0 d 0 exch neg d cl} def
/NC{systemdict begin initclip end}def/C{NC box clip newpath}def
/bl {box s} def /bf {gsave box gsave f grestore 1 lw [] 0 sd s grestore} def /Y { 0 exch d} def /X { 0 d} def 
/K {{pop pop 0 moveto} exch kshow} bind def
/ita {/ang 15 def gsave [1 0 ang dup sin exch cos div 1 0 0] concat} def 
/mp {newpath /y exch def /x exch def} def
/side {[w .77 mul w .23 mul] .385 w mul sd w 0 l currentpoint t -144 r} def
/mr {mp x y w2 0 360 arc} def /m24 {mr s} def /m20 {mr f} def
/mb {mp x y w2 add m w2 neg 0 d 0 w neg d w 0 d 0 w d cl} def
/mt {mp x y w2 add m w2 neg w neg d w 0 d cl} def
/w4 {w 4 div} def
/w6 {w 6 div} def
/w8 {w 8 div} def
/m21 {mb f} def /m25 {mb s} def /m22 {mt f} def /m26{mt s} def
/m23 {mp x y w2 sub m w2 w d w neg 0 d cl f} def
/m27 {mp x y w2 add m w3 neg w2 neg d w3 w2 neg d w3 w2 d cl s} def
/m28 {mp x w2 sub y w2 sub w3 add m w3 0 d  0 w3 neg d w3 0 d 0 w3 d w3 0 d  0 w3 d w3 neg 0 d 0 w3 d w3 neg 0 d 0 w3 neg d w3 neg 0 d cl s } def
/m29 {mp gsave x w2 sub y w2 add w3 sub m currentpoint t 4 {side} repeat cl fill gr} def
/m30 {mp gsave x w2 sub y w2 add w3 sub m currentpoint t 4 {side} repeat cl s gr} def
/m31 {mp x y w2 sub m 0 w d x w2 sub y m w 0 d x w2 sub y w2 add m w w neg d x w2 sub y w2 sub m w w d s} def
/m32 {mp x y w2 sub m w2 w d w neg 0 d cl s} def
/m33 {mp x y w2 add m w3 neg w2 neg d w3 w2 neg d w3 w2 d cl f} def
/m34 {mp x w2 sub y w2 sub w3 add m w3 0 d  0 w3 neg d w3 0 d 0 w3 d w3 0 d  0 w3 d w3 neg 0 d 0 w3 d w3 neg 0 d 0 w3 neg d w3 neg 0 d cl f } def
/m35 {mp x y w2 add m w2 neg w2 neg d w2 w2 neg d w2 w2 d w2 neg w2 d x y w2 sub m 0 w d x w2 sub y m w 0 d s} def
/m36 {mb x w2 sub y w2 add m w w neg d x w2 sub y w2 sub m w w d s} def
/m37 {mp x y m w4 neg w2 d w4 neg w2 neg d w2 0 d  w4 neg w2 neg d w2 0 d w4 neg w2 d w2 0 d w4 neg w2 d w4 neg w2 neg d cl s} def
/m38 {mp x w4 sub y w2 add m w4 neg w4 neg d 0 w2 neg d w4 w4 neg d w2 0 d w4 w4 d 0 w2 d w4 neg w4 d w2 neg 0 d x y w2 sub m 0 w d x w2 sub y m w 0 d cl s} def
/m39 {mp x y m w4 neg w2 d w4 neg w2 neg d w2 0 d  w4 neg w2 neg d w2 0 d w4 neg w2 d w2 0 d w4 neg w2 d w4 neg w2 neg d cl f} def
/m40 {mp x y m w4 w2 d w4 w4 neg d w2 neg w4 neg d w2 w4 neg d w4 neg w4 neg d w4 neg w2 d w4 neg w2 neg d w4 neg w4 d w2 w4 d w2 neg w4 d w4 w4 d w4 w2 neg d cl s} def
/m41 {mp x y m w4 w2 d w4 w4 neg d w2 neg w4 neg d w2 w4 neg d w4 neg w4 neg d w4 neg w2 d w4 neg w2 neg d w4 neg w4 d w2 w4 d w2 neg w4 d w4 w4 d w4 w2 neg d cl f} def
/m42 {mp x y w2 add m w8 neg w2 -3 4 div mul d w2 -3 4 div mul w8 neg d w2 3 4 div mul w8 neg d w8 w2 -3 4 div mul d w8 w2 3 4 div mul d w2 3 4 div mul w8 d w2 -3 4 div mul w8 d w8 neg w2 3 4 div mul d cl s} def
/m43 {mp x y w2 add m w8 neg w2 -3 4 div mul d w2 -3 4 div mul w8 neg d w2 3 4 div mul w8 neg d w8 w2 -3 4 div mul d w8 w2 3 4 div mul d w2 3 4 div mul w8 d w2 -3 4 div mul w8 d w8 neg w2 3 4 div mul d cl f} def
/m44 {mp x y m w6 neg w2 d w2 2 3 div mul 0 d w6 neg w2 neg d w2 w6 d 0 w2 -2 3 div mul d w2 neg w6 d w6 w2 neg d w2 -2 3 div mul 0 d w6 w2 d w2 neg w6 neg d 0 w2 2 3 div mul d w2 w6 neg d cl s} def
/m45 {mp x y m w6 neg w2 d w2 2 3 div mul 0 d w6 neg w2 neg d w2 w6 d 0 w2 -2 3 div mul d w2 neg w6 d w6 w2 neg d w2 -2 3 div mul 0 d w6 w2 d w2 neg w6 neg d 0 w2 2 3 div mul d w2 w6 neg d cl f} def
/m46 {mp x y w4 add m w4 neg w4 d w4 neg w4 neg d  w4 w4 neg d w4 neg w4 neg d w4 w4 neg d w4 w4 d w4 w4 neg d w4 w4 d w4 neg w4 d w4 w4 d w4 neg w4 d w4 neg w4 neg d cl s} def
/m47 {mp x y w4 add m w4 neg w4 d w4 neg w4 neg d w4 w4 neg d w4 neg w4 neg d  w4 w4 neg d w4 w4 d w4 w4 neg d w4 w4 d w4 neg w4 d w4 w4 d w4 neg w4 d w4 neg w4 neg d cl f} def
/m48 {mp x y w4 add m w4 neg w4 d w4 neg w4 neg d w4 w4 neg d  w4 neg w4 neg d w4 w4 neg d w4 w4 d w4 w4 neg d w4 w4 d w4 neg w4 d w4 w4 d w4 neg w4 d w4 neg w4 neg d  w4 w4 neg d w4 neg w4 neg d w4 neg w4 d w4 w4 d cl f} def
/m49 {mp x w2 sub w3 add y w2 sub w3 add m  0 w3 neg d w3 0 d 0 w3 d w3 0 d 0 w3 d w3 neg 0 d 0 w3 d w3 neg 0 d 0 w3 neg d w3 neg 0 d 0 w3 neg d w3 0 d 0 w3 d w3 0 d 0 w3 neg d w3 neg 0 d cl f } def
/m2 {mp x y w2 sub m 0 w d x w2 sub y m w 0 d s} def
/m5 {mp x w2 sub y w2 sub m w w d x w2 sub y w2 add m w w neg d s} def
%%IncludeResource: ProcSet (FontSetInit)
%%IncludeResource: font Times-Roman
%%IncludeResource: font Times-Italic
%%IncludeResource: font Times-Bold
%%IncludeResource: font Times-BoldItalic
%%IncludeResource: font Helvetica
%%IncludeResource: font Helvetica-Oblique
%%IncludeResource: font Helvetica-Bold
%%IncludeResource: font Helvetica-BoldOblique
%%IncludeResource: font Courier
%%IncludeResource: font Courier-Oblique
%%IncludeResource: font Courier-Bold
%%IncludeResource: font Courier-BoldOblique
%%IncludeResource: font Symbol
%%IncludeResource: font ZapfDingbats
/reEncode {exch findfont dup length dict begin {1 index /FID eq  {pop pop} {def} ifelse } forall /Encoding exch def currentdict end dup /FontName get exch definefont pop } def [/Times-Bold /Times-Italic /Times-BoldItalic /Helvetica /Helvetica-Oblique
 /Helvetica-Bold /Helvetica-BoldOblique /Courier /Courier-Oblique /Courier-Bold /Courier-BoldOblique /Times-Roman /AvantGarde-Book /AvantGarde-BookOblique /AvantGarde-Demi /AvantGarde-DemiOblique /Bookman-Demi /Bookman-DemiItalic /Bookman-Light
 /Bookman-LightItalic /Helvetica-Narrow /Helvetica-Narrow-Bold /Helvetica-Narrow-BoldOblique /Helvetica-Narrow-Oblique /NewCenturySchlbk-Roman /NewCenturySchlbk-Bold /NewCenturySchlbk-BoldItalic /NewCenturySchlbk-Italic /Palatino-Bold
 /Palatino-BoldItalic /Palatino-Italic /Palatino-Roman ] {ISOLatin1Encoding reEncode } forall
%%EndProlog
%%BeginSetup
%%EndSetup
newpath  gsave  .25 .25 scale  gsave  0 0 t 0.490196 0.545098 0.615686 c[  ] 0 sd 3 lw 0.941176 0.941176 0.941176 c 2268 1680 0 0 bf black 1 1 0.992157 c 1796 1142 245 202 bf black 1796 1142 245 202 bl 1 1 0.992157 c 1796 1142 245 202 bf black 1796
 1142 245 202 bl 245 202 m 1796 X s[ 4 8] 0 sd 366 1344 m -1142 Y s 587 1344 m -1142 Y s 807 1344 m -1142 Y s 1028 1344 m -1142 Y s 1248 1344 m -1142 Y s 1469 1344 m -1142 Y s 1689 1344 m -1142 Y s 1910 1344 m -1142 Y s 366 1344 m -1142 Y s 1910 1344
 m -1142 Y s[  ] 0 sd 245 202 m 1142 Y s[ 4 8] 0 sd 2041 202 m -1796 X s 2041 409 m -1796 X s 2041 617 m -1796 X s 2041 825 m -1796 X s 2041 1032 m -1796 X s 2041 1240 m -1796 X s 2041 1240 m -1796 X s 0 0 0.933333 c[  22 12 ] 0 sd 6 lw 0.49 0.6 0.82
 c black 0 0 0.933333 c 245 721 m 9 X s 254 721 m 9 X s 263 721 m 8 X s 271 721 m 1 X 1 Y 8 X s 280 722 m 9 X s 289 722 m 9 X s 298 722 m 7 X 1 Y 2 X s 307 723 m 8 X s 315 723 m 9 X s 324 723 m 9 X s 333 723 m 8 X 1 Y 1 X s 342 724 m 9 X s 351 724 m
 8 X s 359 724 m 7 X 1 Y 2 X s 368 725 m 2 X -1 Y 1 Y 7 X s 377 725 m 9 X s 386 725 m 9 X s 395 725 m 5 X 1 Y 3 X s 403 726 m 6 X 1 Y 3 X s 412 727 m 9 X s 421 727 m 9 X s 430 727 m 4 X 1 Y 5 X s 439 728 m 8 X 1 Y s 447 729 m 9 X s 456 729 m 4 X 1 Y
 5 X 1 Y s 465 731 m 9 X s 474 731 m 1 X 1 1 d 2 X 1 Y 5 X s 483 733 m 8 X s 491 733 m 1 X 1 Y 5 X 1 1 d 2 X s 500 735 m 9 X s 509 735 m 1 X 1 Y 5 X -1 Y 1 Y 3 X s 518 736 m 1 X 1 Y -1 Y 1 X 1 Y 7 X s 527 737 m 4 X 1 Y 4 X s 535 738 m 1 X 1 Y 4 X 1
 -1 d 1 Y 3 X s 544 739 m 2 X 1 Y 5 X 1 Y 2 X s 553 741 m 2 X 1 Y 7 X s 562 742 m 6 X 1 Y -1 Y 2 X 1 1 d s 571 743 m 3 X 1 1 d -1 Y 3 X 1 1 d s 579 744 m 1 X 1 Y 6 X 1 Y 2 X -1 Y 1 Y s 588 746 m 3 X 1 Y 2 X 1 Y 3 X 1 Y 1 X s 597 749 m 2 X 1 Y 3 X 1 Y
 3 X 1 Y 1 X s 606 752 m 4 X 1 Y 5 X s 615 753 m 1 Y 5 X 1 Y 3 X s 623 755 m 7 X 1 1 d 1 X s 632 756 m 5 X 1 Y 4 X s 641 757 m 4 X 1 Y 1 X -1 Y 1 Y 3 X 1 Y 1 X s 650 759 m 4 X 1 Y 1 X 1 1 d -1 Y 1 1 d 2 X s 659 761 m 2 X 1 Y 6 X 1 Y -1 Y s 667 762 m
 1 X 1 Y 4 X 1 Y 2 X 1 1 d 1 X s 676 765 m 3 X 1 Y 2 X 1 Y 1 X 1 1 d 2 X s 685 768 m 2 X 1 Y 5 X 1 Y 1 -1 d 1 Y 1 -1 d 1 Y s 694 770 m 1 X 1 Y 3 X 1 1 d 3 X 1 Y 1 X s 703 773 m 1 X 1 Y 2 X 1 1 d 1 X 1 1 d 1 X 1 Y 1 X s 711 777 m 7 X 1 Y 2 X 1 Y s 720
 779 m 3 X 1 Y 2 X 1 Y 1 X 1 Y 1 X 1 Y 2 X s 729 783 m 2 X 1 Y 2 X 1 Y 1 X 1 Y 2 X 1 Y 1 X 1 Y 1 X s 738 788 m 1 X 1 Y 2 X 1 Y 2 X 1 1 d 1 X 1 Y 1 -1 d 1 X s 747 791 m 1 Y 3 X 1 Y 2 X 2 Y 2 X 1 Y 1 X 1 Y s 755 797 m 3 X 2 Y 3 X 1 Y 1 X 1 Y 1 X 1 Y 1
 1 d -1 Y 1 Y s 764 803 m 2 X 1 Y 1 1 d 2 X 1 Y 2 X -1 Y 1 Y 1 -1 d 1 Y -1 Y 1 X s 773 805 m 1 X 1 Y 2 X 1 Y 1 X 1 Y 1 -1 d 1 Y 2 X 1 Y 1 X 1 1 d s 782 810 m 1 X 1 Y 1 X 1 Y 1 X 1 Y 1 X 1 1 d 1 Y 4 X s 791 815 m 1 1 d -1 Y 1 Y 1 X 1 Y 2 X 1 Y 2 X 1 Y
 1 X 1 Y 1 X 1 Y s 799 821 m 1 X -1 Y 1 1 d 1 X 1 Y 2 X 1 Y 2 X 1 Y 1 1 d -1 Y 1 Y -1 Y 1 X 1 Y s 808 825 m 1 X -1 Y 2 X 1 Y -1 Y 1 Y -1 Y 1 1 d 2 X 1 Y 1 X 1 Y -1 Y 2 X s 817 826 m 1 X 1 1 d 1 X 1 Y -1 Y 1 X 1 Y 2 X 1 Y 1 -1 d 1 X 1 Y 1 X s 826 829
 m 1 Y 1 X 1 Y 1 X -1 Y 1 1 d 2 X 1 1 d 1 X 1 Y 2 X s 835 833 m 1 1 d 1 Y 1 X 1 Y 1 X 1 Y 1 X -1 Y 1 Y 1 -1 d 1 Y 1 X 1 Y 1 X 1 1 d -1 Y s 843 838 m 2 X 1 Y 1 X -1 Y 1 1 d 4 X 1 Y 1 -1 d 1 Y s 852 840 m 1 -1 d 1 1 d 1 -1 d 1 Y -1 Y 2 X 1 Y -1 Y 1 1 d
 -1 Y 1 Y 1 1 d 1 X 1 Y 1 X s 861 842 m 1 X -1 Y 1 Y 1 X -1 Y 2 X 1 Y 1 X 1 -1 d 1 Y 1 X 1 Y -1 Y 1 X 1 Y 1 X s 870 843 m 2 X -1 Y 1 Y 1 -1 d 1 Y -1 Y 1 Y -1 Y 1 1 d 1 X 1 1 d -1 Y 1 Y 2 X 1 1 d s 879 845 m 1 1 d 2 X 1 Y 3 X 1 Y 1 X 1 -1 d s 887 847
 m 2 X -1 Y 1 Y 1 X 1 Y -1 Y 1 Y 1 X 2 Y 3 X 1 Y 1 1 d 1 1 d 1 Y s 896 854 m 1 1 d -1 Y 1 Y 1 X -1 Y 1 Y 1 1 d -1 Y 1 Y 1 X 1 1 d 1 Y 1 X 1 Y 2 X 1 1 d -1 Y s 905 859 m 1 X 1 Y -1 Y 6 X -1 Y 1 1 d 1 X s 914 859 m 3 X 1 Y 1 -1 d 1 Y -1 Y 1 Y 2 X -1 Y
 1 Y 2 X 1 -1 d s 923 859 m 2 Y 4 X 1 Y -1 Y 1 X 2 Y 2 X 2 Y 1 -1 d 1 Y s 931 865 m 1 X 1 1 d -1 Y 1 Y 3 X 2 Y -1 Y 1 1 d 1 1 d -1 Y 1 X 1 Y 1 X 1 Y -1 Y s 940 869 m 1 Y 1 X -1 Y 1 X 1 Y 1 X 1 Y 2 X -1 Y 4 X s 949 870 m 1 X 1 Y 1 X 1 Y 1 1 d 2 X 1 Y
 -1 Y 1 X 1 Y 3 X s 958 874 m 1 X -1 Y 2 X 1 Y 1 X 1 Y 1 X -1 Y 2 X 1 Y -2 Y 1 X 2 Y 1 X s 967 875 m 1 1 d 2 X 2 Y 2 X 1 Y 1 X 1 Y 1 X 1 Y -1 Y 1 Y 1 X -1 Y 1 Y -1 Y s 975 880 m 1 1 d 1 1 d -1 Y 1 Y 1 X 1 Y 2 X 1 Y -1 Y 2 X -1 Y 2 X s 984 882 m 1 X 1
 Y 1 -1 d 1 Y -1 Y 3 X 2 Y 1 X -1 Y 1 X 1 1 d -1 Y 1 Y -1 Y 1 X s 993 883 m 1 -1 d 1 Y 1 X -1 Y 1 Y -1 Y 1 1 d 1 X 1 Y -1 Y 1 Y 1 X -1 Y 1 Y -1 Y 2 X 1 Y 1 -1 d -1 Y 1 X s 1002 882 m 1 Y 2 X 1 Y 1 X -1 Y 1 X -1 Y 2 X 1 -1 d 1 X -1 Y 1 X s 1011 880 m
 -1 Y 1 X -1 Y 1 X -1 Y 1 X 1 Y -1 Y 3 X 1 Y 1 -1 d 1 X s 1019 877 m 1 X -1 Y 1 X 1 1 d -1 Y 1 X 1 Y 1 -1 d 2 X -1 Y 1 Y 1 -1 d 1 -1 d s 1028 874 m 2 X -1 Y 2 X -1 Y 3 X 1 -1 d 1 X s 1037 871 m -1 Y 1 X 1 Y -1 Y 1 -1 d 1 Y 1 X -1 Y 3 X -1 Y 2 X -1 Y
 1 Y 1 X s 1046 868 m -1 Y 1 X -1 Y 1 X 1 Y 1 X 1 Y 1 -1 d 1 X -2 Y 2 X -1 Y 1 -1 d 1 X s 1055 863 m -2 Y 1 X -1 Y 1 Y 1 -1 d -1 Y 1 X -1 Y 1 1 d -1 Y 1 Y 1 X -1 Y 1 -1 d 1 Y 1 -1 d 1 1 d -1 Y s 1063 857 m 1 X -1 Y 1 X -1 Y 1 X 1 Y -1 Y 1 X -1 Y 2 X
 -1 Y 1 X -2 Y 1 X -1 Y 1 X -1 Y s 1072 849 m 3 X -1 Y 1 Y -1 Y 1 X -1 Y 1 X -2 Y 2 X -1 Y 2 X -1 Y s 1081 843 m 1 X -1 Y 1 X 1 -1 d 1 Y -1 Y 1 X 1 -1 d 1 -1 d -1 Y 1 Y 1 X -2 Y 1 X -2 Y 1 X s 1090 835 m 1 X -1 Y 1 X -1 Y 2 X -1 Y 1 X -1 Y 1 Y 1 X -1
 Y 1 X -1 Y 1 1 d -1 Y 1 Y 1 X s 1099 831 m -1 Y 1 X -1 Y 1 -1 d -1 Y 1 -1 d -1 Y 1 X -1 Y 1 X 1 -1 d -1 Y 1 Y 1 X 1 -1 d 1 Y -1 Y s 1107 822 m 1 X 1 Y 1 -1 d 1 Y -1 Y 1 -1 d 1 X -1 Y 1 Y 1 1 d -2 Y 1 X -1 Y 3 X s 1116 819 m 1 X -1 Y 1 X -2 Y 1 X -2
 Y 1 1 d 1 X -1 Y 1 Y -1 Y 1 X -1 Y 1 X -1 Y 1 X -1 Y 1 Y 1 X s 1125 812 m 1 X -1 Y 1 X 1 -1 d -1 Y 2 X -1 Y 2 X -2 Y 2 X -1 Y s 1134 805 m 1 -1 d -1 Y 1 X -1 Y 1 X -1 Y 1 X -1 Y 1 X 1 -1 d -1 Y 1 1 d -1 Y 1 X -1 Y 1 X s 1143 797 m -1 Y 1 X -1 Y 1 X
 -1 Y 1 X 1 Y -1 Y 1 X -1 Y 1 X -1 Y 1 1 d -2 Y 2 X -1 Y s 1151 790 m 1 X -1 Y 1 X -1 Y 1 X -1 Y 2 X -1 Y 3 X -1 Y 1 -1 d -1 Y s 1160 783 m 2 X -2 Y 1 X -1 Y 1 X -1 Y 2 X -1 Y 1 X 1 -1 d 1 Y -1 Y 1 X s 1169 777 m -1 Y 1 1 d -1 Y 2 X -1 Y 1 X -1 Y 1 X
 -1 Y 1 X -2 Y 1 1 d 1 1 d -1 Y 1 X s 1178 772 m 1 X -1 Y 1 Y -1 Y 1 X -1 Y 1 X -1 Y 1 X -1 Y 1 X -1 Y 1 X -1 Y 1 X -2 Y 1 1 d -1 Y 1 -1 d s 1187 763 m 1 -1 d -1 Y 3 X -2 Y 3 X -1 Y 1 X -1 Y s 1195 757 m 1 1 d -1 Y 1 -1 d 1 Y -2 Y 2 X -1 Y 1 X -1 Y 1
 X -1 Y 1 X -1 Y 1 X -1 Y 1 Y -1 Y 1 X s 1204 750 m 1 X -1 Y 1 -1 d 1 -1 d 1 -1 d -1 Y 1 X -1 Y 1 1 d 1 X -1 Y 1 X -1 Y 1 X s 1213 743 m -1 Y 1 X -1 Y 1 Y 1 X -1 Y 1 Y -1 Y 1 X -1 Y 1 X -1 Y 1 X 1 -1 d -1 Y 1 -1 d 1 -1 d 1 Y -1 Y 1 X -1 Y 1 Y s 1222
 735 m 1 X -2 Y 1 X -1 Y 1 X -1 Y 1 -1 d -1 Y 1 X -1 Y 1 Y -1 Y 2 X -1 Y 1 X -1 Y 1 X s 1231 726 m -1 Y 1 X 1 Y -1 Y 1 X -1 Y 1 X -1 Y 1 -1 d 1 X -1 Y 1 X -1 Y 1 -1 d -1 Y 1 X -1 Y s 1239 717 m 2 X -2 Y 1 1 d -1 Y 1 -1 d 1 -1 d 1 Y -1 Y 1 X -1 Y 1 X
 -1 Y 1 X -1 Y 1 Y -1 Y 1 X s 1248 710 m 1 -1 d -1 Y 1 1 d -2 Y 1 -1 d 1 Y 1 -1 d 1 Y 1 -1 d 1 Y -1 Y 2 X -1 Y 1 X -1 Y 1 X -1 Y s 1257 703 m 1 -1 d 1 -1 d -1 Y 1 X -2 Y 1 1 d -2 Y 1 X -1 Y 1 X -1 Y 1 X 1 -1 d -1 Y 1 X -1 Y s 1266 692 m -1 Y 1 X -1 Y
 1 X -1 Y 1 -1 d -2 Y 1 X -2 Y 1 X -1 Y 1 X -2 Y 2 X 1 -1 d s 1275 680 m -1 Y 1 -1 d -1 Y 1 X -3 Y 1 -1 d 1 Y -1 Y 1 X -1 Y 1 X -1 Y 2 X -1 Y 1 X -1 Y s 1283 669 m 1 X -1 Y 1 X -2 Y 1 X -1 Y 1 Y 1 -1 d 1 X -1 Y 1 -1 d -3 Y 1 -1 d -1 Y 1 X -1 Y 1 X -1
 Y s 1292 656 m 1 -1 d -2 Y 1 X 1 Y -1 Y 1 X -2 Y 1 X -1 Y 1 X -1 Y 1 X -2 Y 1 X -2 Y 1 Y 1 -1 d -1 Y 1 -1 d s 1301 643 m -1 Y 1 X -2 Y 1 X -2 Y 1 X -2 Y 1 X -1 Y 1 X -2 Y 2 X -1 Y 2 X -1 Y s 1310 631 m -2 Y 1 X -1 Y 1 -1 d -1 Y 1 X -2 Y 1 X -1 Y 1 X
 -1 Y 1 -1 d -1 Y 1 -1 d -1 Y 1 -1 d -1 Y 1 -1 d s 1319 615 m 1 -1 d 1 Y -2 Y 1 X -1 Y 1 X -1 Y 1 -1 d -1 Y 1 -1 d -1 Y 1 -1 d -2 Y 1 X -1 Y 1 X -2 Y s 1327 601 m 1 X -2 Y 1 X -2 Y 1 X -2 Y 1 X -1 Y 1 X -1 Y 1 X -3 Y 1 X -2 Y 1 X -1 Y 1 -1 d -2 Y s
 1336 584 m 1 X -1 Y 1 -1 d -3 Y 2 X -1 Y 1 Y -1 Y 1 -1 d -1 Y 1 -1 d -2 Y 1 X -2 Y 2 X -1 Y s 1345 570 m -2 Y 1 X -1 Y 1 X -2 Y 1 -1 d -1 Y 1 -1 d -2 Y 1 -1 d -2 Y 1 X -2 Y 1 X -2 Y 1 -1 d -2 Y 1 -1 d s 1354 549 m 1 X -2 Y 1 X -2 Y 1 X -1 Y 1 -1 d
 -2 Y 1 X -3 Y 1 -1 d -1 Y 1 X -1 Y 1 Y -2 Y 1 X 1 -1 d s 1363 533 m -1 Y 1 X -2 Y 1 -2 d -3 Y 1 X -2 Y 1 X -2 Y 1 -1 d -3 Y 1 -1 d -4 Y 1 X -1 Y 1 X -2 Y s 1371 509 m 1 X -2 Y 1 -1 d -2 Y 1 X -2 Y 1 X -1 Y 1 -1 d -2 Y 1 X -2 Y 1 X -3 Y 1 X -1 Y 1 -1
 d -2 Y s 1380 489 m -1 Y 1 X -2 Y 1 X -4 Y 1 X -3 Y 1 X -3 Y 1 -1 d -1 Y 1 X -3 Y 1 -1 d -3 Y 1 X -3 Y 1 1 d -2 Y s 1389 463 m -1 Y 1 Y 1 -1 d 1 Y -1 Y 1 -1 d -2 Y 1 X -1 Y 1 -1 d -2 Y 1 X -2 Y 1 X -1 Y 1 -1 d -3 Y 1 X -1 Y 1 -1 d s 1398 446 m -2 Y
 1 X -1 Y 1 -1 d -2 Y 1 X -3 Y 1 Y -1 Y 1 -1 d -1 Y 1 X -2 Y 1 X -1 Y 1 -1 d -1 Y 1 -1 d -2 Y 1 X s 1407 427 m -1 Y 1 X -1 Y 1 X -1 Y 1 X -2 Y 1 X -1 Y 1 -2 d 1 X -2 Y 1 X -3 Y 1 X -1 Y 1 Y s 1415 414 m 1 X -3 Y 1 X -3 Y 1 X -1 Y 1 -1 d -1 Y 1 X -1 Y
 1 X -3 Y 1 -1 d -1 Y 1 X -2 Y 1 X -1 Y s 1424 396 m -1 Y 1 X -2 Y 1 -1 d -1 Y 1 X -1 Y 1 X -4 Y 1 X -2 Y 1 X -1 Y 1 -1 d -2 Y 1 X -2 Y 1 -1 d s 1433 377 m 1 -1 d -1 Y 1 -1 d -3 Y 1 -1 d -3 Y 1 X -2 Y 1 X -3 Y 1 X -2 Y 1 X -2 Y 1 X -1 Y 1 -1 d -1 Y s
 1442 355 m 1 -1 d -2 Y 1 X -2 Y 1 -1 d 1 Y -2 Y 1 -1 d -2 Y 1 X -1 Y 1 X -2 Y 1 X -3 Y 1 X -2 Y 1 -1 d s 1451 336 m -1 Y 1 X -2 Y 1 X -1 Y 1 X -1 Y 1 X -2 Y 1 X -1 Y 1 -1 d -1 Y 1 X -1 Y 1 X -1 Y s 1459 324 m 1 -1 d -1 Y 1 -1 d 1 X -2 Y 1 X -1 Y 1 Y
 1 -1 d -1 Y 1 X -2 Y 1 X -1 Y 1 X -1 Y 1 X -1 Y s 1468 312 m -1 Y 1 X -1 Y 1 X -1 Y 1 X -1 Y 1 X -1 Y 1 X -1 Y 1 X -2 Y 1 X -1 Y 1 X -1 Y 1 X s 1477 302 m -1 Y 1 X -1 Y 1 X -1 Y 1 X -1 Y 1 X 1 -1 d -1 Y 1 X -1 Y 3 X s 1486 295 m -1 Y 1 X -1 Y 2 X -1
 Y 1 -1 d -1 Y 2 X -1 Y 1 X -1 Y 1 X -1 Y 1 X -1 Y s 1495 286 m 1 X -1 Y 1 X -1 Y 2 X -1 Y 2 X -1 Y 1 X -1 Y 1 X -1 Y s 1503 280 m 3 X -1 Y 1 X -1 Y 2 X -2 Y 1 Y 1 X -1 Y 2 X s 1512 276 m -1 Y 2 X -1 Y 1 X -1 Y 1 X -1 Y 1 X 1 -1 d 1 X -1 Y 1 X -2 Y 1
 X s 1521 268 m -1 Y 1 X -1 Y 2 X -1 Y 2 X -1 Y 3 X -1 Y 1 X -1 Y s 1530 262 m 1 X -1 Y 1 X 1 -1 d 3 X -1 Y 3 X s 1539 259 m -1 Y 1 X 1 -1 d 1 X -1 Y 2 X -1 Y 2 X -1 Y 1 X s 1547 254 m 1 X 1 -1 d 1 X -1 Y 2 X -1 Y 2 X -1 Y 2 X s 1556 250 m 2 X -1 Y 3
 X -1 Y 4 X s 1565 248 m 2 X -1 Y 3 X -1 Y 3 X 1 -1 d s 1574 245 m 2 X -1 Y 2 X -1 Y 5 X s 1583 243 m -1 Y 1 X 1 -1 d 2 X -1 Y 2 X -1 Y 1 X -1 Y 1 X s 1591 238 m 1 X -1 Y 2 X -1 Y 3 X -1 Y 1 X -1 Y 2 X -1 Y s 1600 233 m 2 X 1 -1 d 4 X -1 Y 2 X s 1609
 231 m 1 X -1 Y 1 X -1 Y 2 X -1 Y 3 X -1 Y 2 X s 1618 227 m 2 X -1 Y 3 X -1 Y 4 X s 1627 225 m 3 X -1 Y 3 X -1 Y 2 X s 1635 223 m 2 X 1 -1 d 6 X s 1644 222 m 3 X -1 Y 2 X -1 Y 3 X -1 Y 1 X s 1653 219 m 2 X -1 Y 5 X -1 Y 2 X s 1662 217 m 1 X -1 Y 8 X
 -1 Y s 1671 215 m 1 X -1 Y 2 X -1 Y 4 X -1 Y 1 X s 1679 212 m 9 X s 1688 212 m 4 X -1 Y 5 X -1 Y s 1697 210 m 6 X -1 Y 3 X s 1706 209 m 9 X s 1715 209 m 3 X -1 Y 4 X -1 Y 1 X s 1723 207 m 9 X s 1732 207 m 9 X s 1741 207 m 1 X -1 Y 8 X s 1750 206 m 9
 X s 1759 206 m 8 X s 1767 206 m 8 X 1 -1 d s 1776 205 m 9 X s 1785 205 m 9 X s 1794 205 m 3 X -1 Y 6 X s 1803 204 m 9 X s 1812 204 m 8 X s 1820 204 m 9 X s 1829 204 m 7 X -1 Y 2 X s 1838 203 m 9 X s 1847 203 m 9 X s 1856 203 m 8 X s 1864 203 m 4 X
 -1 Y 5 X s 1873 202 m 9 X s 1882 202 m 9 X s 1891 202 m 9 X s 1900 202 m 8 X s 1908 202 m 9 X s 1917 202 m 9 X s 1926 202 m 9 X s 1935 202 m 9 X s 1944 202 m 8 X s 1952 202 m 9 X s 1961 202 m 9 X s 1970 202 m 9 X s 1979 202 m 9 X s 1988 202 m 8 X s
 1996 202 m 9 X s 2005 202 m 9 X s 2014 202 m 9 X s 2023 202 m 9 X s 2032 202 m 8 X s 2040 202 m 1 X s black[  ] 0 sd 3 lw 245 202 m 1796 X s 366 242 m -40 Y s 410 222 m -20 Y s 454 222 m -20 Y s 498 222 m -20 Y s 543 222 m -20 Y s 587 242 m -40 Y s
 631 222 m -20 Y s 675 222 m -20 Y s 719 222 m -20 Y s 763 222 m -20 Y s 807 242 m -40 Y s 851 222 m -20 Y s 895 222 m -20 Y s 939 222 m -20 Y s 983 222 m -20 Y s 1028 242 m -40 Y s 1072 222 m -20 Y s 1116 222 m -20 Y s 1160 222 m -20 Y s 1204 222 m
 -20 Y s 1248 242 m -40 Y s 1292 222 m -20 Y s 1336 222 m -20 Y s 1380 222 m -20 Y s 1424 222 m -20 Y s 1469 242 m -40 Y s 1513 222 m -20 Y s 1557 222 m -20 Y s 1601 222 m -20 Y s 1645 222 m -20 Y s 1689 242 m -40 Y s 1733 222 m -20 Y s 1777 222 m
 -20 Y s 1821 222 m -20 Y s 1865 222 m -20 Y s 1910 242 m -40 Y s 366 242 m -40 Y s 322 222 m -20 Y s 278 222 m -20 Y s 1910 242 m -40 Y s 1954 222 m -20 Y s 1998 222 m -20 Y s
 gsave  2268 1680 0 0 C 333.711 128.934 t 0 r /Helvetica-Bold findfont 64.4669 sf 0 0 m (1.5) show NC gr 
 gsave  2268 1680 0 0 C 303.373 128.934 t 0 r /Symbol findfont 64.4669 sf 0 0 m (-) show NC gr 
 gsave  2268 1680 0 0 C 583.994 128.934 t 0 r /Helvetica-Bold findfont 64.4669 sf 0 0 m (1) show NC gr 
 gsave  2268 1680 0 0 C 553.657 128.934 t 0 r /Symbol findfont 64.4669 sf 0 0 m (-) show NC gr 
 gsave  2268 1680 0 0 C 773.602 128.934 t 0 r /Helvetica-Bold findfont 64.4669 sf 0 0 m (0.5) show NC gr 
 gsave  2268 1680 0 0 C 743.265 128.934 t 0 r /Symbol findfont 64.4669 sf 0 0 m (-) show NC gr 
 gsave  2268 1680 0 0 C 1004.92 128.934 t 0 r /Helvetica-Bold findfont 64.4669 sf 0 0 m (0) show NC gr 
 gsave  2268 1680 0 0 C 1202.12 128.934 t 0 r /Helvetica-Bold findfont 64.4669 sf 0 0 m (0.5) show NC gr 
 gsave  2268 1680 0 0 C 1452.4 128.934 t 0 r /Helvetica-Bold findfont 64.4669 sf 0 0 m (1) show NC gr 
 gsave  2268 1680 0 0 C 1642.01 128.934 t 0 r /Helvetica-Bold findfont 64.4669 sf 0 0 m (1.5) show NC gr 
 gsave  2268 1680 0 0 C 1888.5 128.934 t 0 r /Helvetica-Bold findfont 64.4669 sf 0 0 m (2) show NC gr 
 gsave  2268 1680 0 0 C 826.693 30.3373 t 0 r /Helvetica-Bold findfont 72.0512 sf 0 0 m (Cut value applied on RuleFit output) show NC gr  245 202 m 1142 Y s 291 202 m -46 X s 268 254 m -23 X s 268 305 m -23 X s 268 357 m -23 X s 291 409 m -46 X s 268
 461 m -23 X s 268 513 m -23 X s 268 565 m -23 X s 291 617 m -46 X s 268 669 m -23 X s 268 721 m -23 X s 268 773 m -23 X s 291 825 m -46 X s 268 877 m -23 X s 268 929 m -23 X s 268 980 m -23 X s 291 1032 m -46 X s 268 1084 m -23 X s 268 1136 m -23 X
 s 268 1188 m -23 X s 291 1240 m -46 X s 291 1240 m -46 X s 268 1292 m -23 X s 268 1344 m -23 X s
 gsave  2268 1680 0 0 C 182.024 178.232 t 0 r /Helvetica-Bold findfont 64.4669 sf 0 0 m (0) show NC gr 
 gsave  2268 1680 0 0 C 128.934 383.009 t 0 r /Helvetica-Bold findfont 64.4669 sf 0 0 m (0.2) show NC gr 
 gsave  2268 1680 0 0 C 125.142 591.578 t 0 r /Helvetica-Bold findfont 64.4669 sf 0 0 m (0.4) show NC gr 
 gsave  2268 1680 0 0 C 128.934 800.147 t 0 r /Helvetica-Bold findfont 64.4669 sf 0 0 m (0.6) show NC gr 
 gsave  2268 1680 0 0 C 125.142 1008.72 t 0 r /Helvetica-Bold findfont 64.4669 sf 0 0 m (0.8) show NC gr 
 gsave  2268 1680 0 0 C 189.608 1217.29 t 0 r /Helvetica-Bold findfont 64.4669 sf 0 0 m (1) show NC gr 
 gsave  2268 1680 0 0 C 64.4669 735.681 t 90 r /Helvetica-Bold findfont 72.0512 sf 0 0 m (Efficiency \(Purity\)) show NC gr  0 0 0.933333 c[  52 12 ] 0 sd 6 lw 0.49 0.6 0.82 c black 0 0 0.933333 c 245 721 m 9 X s 254 721 m 9 X s 263 721 m 8 X s 271
 721 m 1 X 1 Y 8 X s 280 722 m 9 X s 289 722 m 9 X s 298 722 m 7 X 1 Y 2 X s 307 723 m 8 X s 315 723 m 9 X s 324 723 m 9 X s 333 723 m 8 X 1 Y 1 X s 342 724 m 9 X s 351 724 m 8 X s 359 724 m 6 X 1 Y 3 X s 368 725 m 9 X s 377 725 m 9 X s 386 725 m 1 X
 1 1 d 7 X s 395 726 m 8 X s 403 726 m 4 X 1 Y 5 X s 412 727 m 9 X s 421 727 m 7 X 1 1 d 1 X s 430 728 m 9 X s 439 728 m 4 X 1 Y 4 X s 447 729 m 9 X s 456 729 m 3 X 1 Y 4 X 1 1 d 1 X s 465 731 m 6 X 1 Y 1 X -1 Y 1 X 1 Y 1 X s 474 732 m 4 X 1 Y 5 X s
 483 733 m 6 X 1 Y 2 X s 491 734 m 3 X 1 Y 6 X s 500 735 m 4 X 1 Y 5 X s 509 736 m 7 X 1 Y 2 X s 518 737 m 4 X 1 Y 5 X s 527 738 m 5 X 1 Y 3 X s 535 739 m 2 X 1 Y 3 X 1 -1 d 1 Y 3 X s 544 740 m 1 X 1 Y 6 X 1 Y 2 X s 553 742 m 2 X 1 Y 7 X s 562 743 m
 4 X 1 1 d 4 X s 571 744 m 1 1 d 6 X 1 1 d s 579 746 m 1 X 1 Y 6 X 1 Y 2 X s 588 748 m 2 X 1 Y 1 X 1 Y 3 X 1 Y 2 X 1 1 d s 597 752 m 2 X 1 Y 3 X 1 Y 3 X 1 Y 1 X s 606 755 m 4 X 1 Y 5 X s 615 756 m 1 Y 5 X 1 Y 3 X s 623 758 m 6 X 1 Y 3 X s 632 759 m 2
 X 1 Y 5 X 1 Y 2 X s 641 761 m 3 X 1 Y 4 X 1 Y 2 X s 650 763 m 1 Y -1 Y 1 X 1 Y 3 X 1 Y 2 X 1 1 d 2 X s 659 766 m 2 X 1 Y 5 X 1 Y 1 X s 667 768 m 2 X 1 Y 3 X 1 Y 3 X 1 Y 1 X s 676 771 m 3 X 1 Y 2 X 1 Y 1 X 1 1 d 1 X 1 Y 1 X s 685 775 m 2 X 1 Y 5 X 1
 Y 2 X s 694 777 m 1 X 1 Y 2 X 1 Y 2 X 1 Y 3 X 1 Y 1 X s 703 781 m 1 X 1 Y 2 X 1 Y 1 X 1 Y 2 X 1 Y 1 X 1 Y 1 X s 711 786 m 3 X 1 Y -1 Y 1 1 d -1 Y 1 1 d 2 X 1 Y 2 X 1 Y s 720 789 m 1 X 1 1 d 2 X 1 Y 1 X 1 Y 1 X 1 Y 2 X 1 Y -1 Y 1 1 d s 729 794 m 2 X
 1 Y 2 X 1 Y 1 X 1 Y 1 X 1 Y 1 X 1 1 d 1 Y 1 X s 738 800 m 1 X 1 Y 2 X 1 Y 2 X 1 Y 1 X 1 Y 3 X s 747 804 m 1 Y 3 X 1 Y 2 X 2 Y 1 X 1 Y 2 X 2 Y s 755 811 m 2 X 1 Y 1 X 1 Y 1 X 1 Y 2 X 1 1 d 1 Y 1 X 1 Y 1 1 d s 764 818 m 1 1 d 1 X 1 Y 1 X 1 Y 2 X 1 Y 2
 X 1 Y -1 Y 1 Y 2 X s 773 823 m 1 X 1 Y 2 X 1 Y 1 X 1 Y 1 X 1 Y 1 X 1 1 d 1 X 1 Y 1 X s 782 829 m 1 Y 2 X 2 Y 1 X 1 Y 1 X 1 1 d 1 Y 1 X 1 Y 3 X s 791 836 m 1 Y 1 1 d -1 Y 1 Y 1 1 d 1 X 1 Y 1 X 1 Y 1 X 1 Y 2 X 1 Y 1 X 2 Y s 799 845 m 2 X 1 Y 1 X 1 Y 2
 X 2 Y 2 X 2 Y 2 X 1 Y s 808 852 m 2 X 1 1 d 1 X 2 Y 2 X 1 Y 1 X 1 Y -1 Y 1 1 d 1 X s 817 857 m 1 X 1 Y 1 X 1 Y 1 X 1 Y 1 X 1 Y 2 X 1 Y 2 X 1 Y 1 X s 826 863 m 1 Y 1 1 d 2 X 1 Y 1 X 1 Y 2 X 1 Y 1 X 1 Y 2 X s 835 869 m 1 Y 1 1 d 1 Y 1 X 1 Y 1 X 1 Y 1
 X 1 Y 1 X 1 1 d 1 X 1 Y 1 1 d s 843 878 m 2 X 1 Y 1 X 1 1 d 1 X 1 Y 2 X 1 Y 1 X 1 Y 1 X s 852 883 m 1 X 1 Y 2 X 1 Y -1 Y 1 X 1 Y 1 X 1 Y 1 X 2 Y 1 X 1 Y 1 X 1 Y 1 1 d s 861 891 m 3 X 1 Y 1 X 1 1 d 1 X 1 Y 2 X 2 Y 1 X s 870 896 m 1 X 1 Y 2 X 1 Y 2 X
 2 Y 1 X 1 Y 2 X 1 Y 1 X s 879 902 m 1 1 d 1 Y 2 X 2 Y 2 X 1 Y 1 X 1 Y 2 X s 887 908 m 1 X 1 Y 1 X 1 Y 1 X 1 Y 1 X 2 Y 1 X 1 Y 1 X 1 1 d 1 Y 1 1 d 1 Y 1 X 1 Y s 896 919 m 1 Y 1 X 1 Y 1 X 1 Y 1 1 d 1 Y 1 -1 d 1 Y 1 1 d 1 Y 1 X 1 Y 1 X 2 Y 2 X s 905
 929 m 1 X 1 Y 1 X 1 Y 2 X 1 Y 2 X 1 1 d 1 X 1 Y 1 X s 914 934 m 1 Y 3 X 1 Y 1 X 1 Y 1 X 1 Y 1 -1 d 1 Y 1 X 1 Y 2 X s 923 939 m 1 Y 1 1 d 1 X 1 Y 2 X 1 Y 1 X 2 Y 1 X 1 1 d 1 Y 1 X 1 Y s 931 948 m 1 X 1 Y 1 X 1 Y 1 X 1 1 d -1 Y 1 Y 1 X 2 Y 1 X 1 Y 1 X
 1 Y 1 X 1 Y 1 X 1 Y s 940 957 m 1 X 1 Y -1 Y 1 1 d 1 Y 1 X 1 Y 5 X 1 Y 1 X s 949 961 m 1 Y 1 X 1 Y 1 X 1 Y 1 1 d 1 1 d 1 X 1 Y 2 X 1 Y 1 X 1 Y 1 X s 958 969 m 1 Y 1 X -1 Y 1 X 1 Y 1 X 1 Y 1 X 1 Y 1 X 1 Y 2 X 1 Y 1 X 2 Y 1 X s 967 976 m 1 Y 1 X 1 Y 1
 1 d 1 X 2 Y 1 1 d 1 1 d 1 Y 1 X 2 Y 1 X 1 Y 1 1 d s 975 988 m 1 1 d 1 1 d 2 Y 1 X 1 1 d 1 Y 1 X 1 Y 2 X 1 1 d 1 X 1 Y s 984 997 m 1 1 d 1 X 1 Y 1 X 1 Y 1 X 1 Y 1 X 2 Y 2 X 1 1 d 1 X 1 Y s 993 1005 m 1 X 1 Y 1 X 1 Y 1 X 1 Y -1 Y 1 1 d 1 Y 1 1 d 1 X 1
 Y 1 X 1 Y 2 X s 1002 1012 m 3 Y 2 X 2 Y 3 X 2 Y 1 X -1 Y 1 Y 3 X s 1011 1019 m 3 X 1 Y 1 X 1 Y 1 -1 d 2 Y 1 X 1 Y 1 X 1 Y -1 Y 1 Y 1 X s 1019 1024 m 1 1 d -1 Y 1 1 d -1 Y 1 Y 1 2 d -1 Y 1 Y 1 X 2 Y 1 X 1 Y 1 X 1 Y 1 -1 d 2 Y 1 X -1 Y 1 Y 1 X s 1028
 1032 m 1 X 1 Y 1 X 1 Y -1 Y 1 X 1 Y 1 X 1 Y 2 X 1 Y 1 X 1 Y 2 X s 1037 1037 m 1 X 1 Y 1 -1 d 1 Y 1 X 1 1 d 1 X 2 Y 1 -1 d 1 Y 2 X 2 Y 1 X s 1046 1043 m 1 X 1 Y -1 Y 1 X 3 Y 1 X 2 Y 1 -1 d 1 Y 2 X 1 Y 1 X -1 Y 1 X 1 Y 1 X s 1055 1049 m -1 Y 1 Y 1 -1
 d 1 Y 2 X 1 1 d 1 Y 1 X 1 Y 1 X 2 Y 1 -1 d 1 Y 1 1 d s 1063 1055 m 1 X 1 Y -1 Y 1 X 1 Y 1 X 1 Y 2 X 1 Y 2 X 1 Y 2 X s 1072 1059 m 1 X 1 Y 1 1 d -1 Y 2 Y 1 X -1 Y 2 Y 1 X -1 Y 2 X 2 Y 1 X -1 Y 1 Y 2 X s 1081 1064 m 1 X 1 1 d 2 X 1 Y 2 X -1 Y 1 Y 1 X
 -1 Y 1 X 1 Y 1 X s 1090 1066 m 2 X 1 Y 2 X 1 1 d 1 Y 2 X 1 Y 1 2 d 1 X s 1099 1072 m 3 X -1 Y 1 X 1 Y 2 X 1 Y 1 X 1 Y -1 Y 1 X 1 Y s 1107 1074 m 1 X 1 Y 2 X 1 Y 1 X 1 Y 1 1 d 2 X 1 Y 2 X 1 Y s 1116 1080 m 3 X 1 Y 1 X 1 1 d 1 X 1 Y 1 X -1 Y 1 X 2 Y 1
 X s 1125 1084 m 2 X 1 Y -1 Y 2 X 1 Y 3 X 1 Y -1 Y 1 Y 1 -1 d 1 Y 1 X -1 Y s 1134 1085 m 6 X 1 2 d -1 Y 1 Y 2 X s 1143 1087 m 1 X -1 Y 1 Y 1 X 1 Y 3 X 1 1 d 1 1 d 1 X s 1151 1090 m 5 X 1 Y 3 X 1 Y 1 -1 d s 1160 1091 m 1 1 d 4 X 1 Y 1 X -1 Y 1 X 1 Y 1
 X 1 Y 1 X s 1169 1094 m 1 1 d 1 1 d 4 X 1 1 d 1 Y 1 1 d 1 X s 1178 1099 m 1 Y 1 X 1 Y 3 X 1 Y 1 X -1 Y 1 1 d -1 Y 1 X 1 1 d 1 X s 1187 1102 m 2 X 1 Y 1 X 1 Y 2 X 1 1 d -1 Y 2 Y 2 X s 1195 1106 m 2 X 1 Y -1 Y 1 X 1 Y 1 X 1 1 d -1 Y 1 Y 1 X 1 1 d 1 X
 1 Y 1 X s 1204 1110 m 1 Y 2 X 1 Y 7 X s 1213 1112 m 1 X 1 Y 1 X 1 Y 4 X 1 Y 1 X -1 Y 1 X 1 Y 1 X 1 Y s 1222 1116 m 1 Y 1 -1 d 1 1 d 1 X 1 -1 d 1 1 d 1 Y -1 Y 1 X 1 Y 2 X 1 Y 1 X s 1231 1119 m 1 X 1 Y 1 X 1 Y 1 X -1 Y 1 1 d -1 Y 1 Y 4 X s 1239 1121 m
 1 X 1 Y 4 X 1 Y 2 X 1 Y 1 X 1 Y 1 X 1 Y s 1248 1126 m 3 X 2 Y 2 X 2 Y 1 X 1 1 d 1 Y 2 X s 1257 1132 m 1 X 1 Y -1 Y 1 1 d 1 Y 3 X 1 1 d -1 Y 1 Y 1 X 1 Y 1 X 1 Y -1 Y 1 1 d s 1266 1137 m 1 X 1 Y 2 X -1 Y 3 X 1 Y 1 X 1 Y 1 X 3 Y 1 X s 1275 1142 m 3 X 1
 Y 1 1 d -1 Y 1 Y 2 X 1 Y 2 X 1 Y -1 Y s 1283 1145 m 1 X 1 Y 1 X 2 Y -1 Y 1 Y 1 X 1 1 d 1 X 1 Y 3 X 1 Y 1 X 1 Y s 1292 1152 m 2 X 1 1 d 1 Y 2 X 1 Y 2 X 1 Y 2 X 1 Y s 1301 1157 m 1 X 1 1 d 1 X 1 Y 4 X 2 Y 2 X s 1310 1161 m 3 X 2 Y 1 X -1 Y 1 Y 3 X 1 Y
 1 X 1 Y 1 X s 1319 1165 m 1 X 1 Y 3 X 1 Y 2 X -1 Y 1 X 1 Y 1 X 1 Y s 1327 1168 m 1 -1 d 1 Y 1 X 1 Y 2 X 1 Y 1 X 1 1 d 2 X 2 Y 1 X s 1336 1173 m 2 X 1 Y -1 Y 1 1 d 1 1 d 1 Y 1 X 1 Y -1 Y 1 1 d -1 Y 1 Y 1 X 1 1 d 1 1 d s 1345 1179 m 1 X 2 Y 1 X 1 Y 1
 X 1 Y 1 X 1 Y 1 X 1 Y 1 X 2 Y 3 X s 1354 1187 m 1 Y 2 X 1 1 d 2 X -1 Y 1 1 d 2 X 1 Y 1 X s 1363 1190 m 1 Y 2 X 1 2 d 5 X s 1371 1193 m 4 X 1 Y 1 X -1 Y 1 Y 1 X 1 1 d -1 Y 1 X 1 Y 1 X s 1380 1195 m 1 1 d 2 Y 1 X 2 Y 1 X 1 1 d 2 Y -1 Y 1 1 d -1 Y 1 Y
 3 X 1 1 d s 1389 1204 m 1 X 3 Y 5 X 2 Y 3 X s 1398 1209 m 1 X 1 Y 1 X 1 Y 2 X -1 Y 1 X 1 Y 1 X 1 Y 2 X 1 1 d s 1407 1213 m -1 Y 2 Y 2 X 1 Y 2 X 1 Y 1 -1 d 1 Y 2 X -1 Y 1 X 1 Y -1 Y 2 Y s 1415 1217 m 7 X 1 Y 1 X 1 1 d 1 Y s 1424 1220 m 1 X -1 Y 2 X 1
 1 d -1 Y 1 X 1 1 d 3 X 1 Y s 1433 1221 m 2 X -1 Y 1 Y 1 -1 d 2 Y -1 Y 2 X 2 Y 4 X s 1442 1223 m 3 X 2 Y 6 X s 1451 1225 m 4 X 1 Y -1 Y 2 X 1 1 d 1 X s 1459 1226 m 2 X 1 Y 7 X s 1468 1227 m 1 X -1 Y 3 X 2 Y 5 X s 1477 1228 m 2 X -1 Y 1 X 1 1 d 1 -1 d
 4 X s 1486 1227 m 8 X -1 Y 1 X s 1495 1226 m 8 X s 1503 1226 m 2 X 1 -1 d 3 X 5 Y 3 X s 1512 1230 m 2 X -1 Y 7 X -1 Y s 1521 1228 m 4 X 3 Y 1 X 3 Y 4 X s 1530 1234 m 8 X -1 Y 1 X s 1539 1233 m 8 X s 1547 1233 m 6 X -1 Y 1 Y 3 X s 1556 1233 m 9 X s
 1565 1233 m 5 X -1 Y 4 X s 1574 1232 m 9 X s 1583 1232 m 2 X -1 Y 6 X s 1591 1231 m 1 X -1 Y 8 X -1 Y s 1600 1229 m 9 X s 1609 1229 m 1 X -1 Y 3 X 1 -1 d 4 X s 1618 1227 m 2 X -1 Y 7 X s 1627 1226 m 1 X -1 Y 6 X -1 Y 1 X s 1635 1224 m 9 X s 1644
 1224 m 2 X -1 Y 17 Y 7 X s 1653 1240 m 9 X s 1662 1240 m 9 X s 1671 1240 m 8 X s 1679 1240 m 9 X s 1688 1240 m 9 X s 1697 1240 m 9 X s 1706 1240 m 9 X s 1715 1240 m 8 X s 1723 1240 m 9 X s 1732 1240 m 9 X s 1741 1240 m 9 X s 1750 1240 m 9 X s 1759
 1240 m 8 X s 1767 1240 m 9 X s 1776 1240 m 9 X s 1785 1240 m 9 X s 1794 1240 m 9 X s 1803 1240 m 9 X s 1812 1240 m 8 X s 1820 1240 m 9 X s 1829 1240 m 9 X s 1838 1240 m 9 X s 1847 1240 m 9 X s 1856 1240 m 8 X s 1864 1240 m 9 X s 1873 1240 m 9 X s
 1882 1240 m 9 X s 1891 1240 m 9 X s 1900 1240 m 8 X s 1908 1240 m 9 X s 1917 1240 m 9 X s 1926 1240 m 9 X s 1935 1240 m 9 X s 1944 1240 m 8 X s 1952 1240 m 9 X s 1961 1240 m 9 X s 1970 1240 m 9 X s 1979 1240 m 9 X s 1988 1240 m 8 X s 1996 1240 m 9 X
 s 2005 1240 m 9 X s 2014 1240 m 9 X s 2023 1240 m 9 X s 2032 1240 m 8 X s 2040 1240 m 1 X s[  ] 0 sd 9 lw 0.49 0.6 0.82 c black 0 0 0.933333 c 245 1240 m 9 X s 254 1240 m 9 X s 263 1240 m 8 X s 271 1240 m 9 X s 280 1240 m 9 X s 289 1240 m 9 X s 298
 1240 m 9 X s 307 1240 m 8 X s 315 1240 m 9 X s 324 1240 m 9 X s 333 1240 m 9 X s 342 1240 m 9 X s 351 1240 m 8 X s 359 1240 m 9 X s 368 1240 m 9 X s 377 1240 m 8 X 1 -1 d s 386 1239 m 9 X s 395 1239 m 8 X s 403 1239 m 9 X s 412 1239 m 9 X s 421 1239
 m 9 X s 430 1239 m 9 X s 439 1239 m 8 X s 447 1239 m 9 X s 456 1239 m 9 X s 465 1239 m 9 X s 474 1239 m 9 X s 483 1239 m 8 X s 491 1239 m 9 X s 500 1239 m 9 X s 509 1239 m 9 X s 518 1239 m 9 X s 527 1239 m 4 X -1 Y 4 X s 535 1238 m 9 X s 544 1238 m
 9 X s 553 1238 m 9 X s 562 1238 m 5 X -1 Y 4 X s 571 1237 m 7 X -1 Y 1 X s 579 1236 m 9 X s 588 1236 m 2 X -1 Y 7 X s 597 1235 m 7 X 1 -1 d 1 X s 606 1234 m 9 X s 615 1234 m 8 X s 623 1234 m 9 X s 632 1234 m 3 X 1 -1 d 5 X s 641 1233 m 5 X -1 Y 4 X
 s 650 1232 m 2 X -1 Y 7 X s 659 1231 m 6 X -1 Y 2 X s 667 1230 m 9 X s 676 1230 m 1 X 1 -1 d 6 X -1 Y 1 X s 685 1228 m 3 X -1 Y 6 X s 694 1227 m 2 X -1 Y 7 X s 703 1226 m 1 -1 d 7 X -1 Y s 711 1224 m 2 X -1 Y 4 X -1 Y 3 X s 720 1222 m 7 X -1 Y 2 X s
 729 1221 m 5 X -1 Y 4 X s 738 1220 m 3 X -1 Y 4 X 1 -1 d 1 X s 747 1218 m 3 X -1 Y 5 X s 755 1217 m 1 X -1 Y 3 X -1 Y 4 X 1 -1 d s 764 1214 m 4 X -1 Y 2 X -1 Y 1 X -1 Y 2 X s 773 1211 m -1 Y 3 X 1 -1 d 2 X -1 Y 3 X s 782 1208 m 3 X -1 Y 3 X 1 -1 d 1
 X -1 Y 1 X s 791 1205 m -1 Y 2 X -1 Y 3 X 1 -1 d 2 X -1 Y s 799 1201 m 1 X -1 Y 2 X 1 -1 d 1 X 1 -1 d 2 X -1 Y 1 X s 808 1197 m 1 X -1 Y 1 X -1 Y 1 X -1 Y 2 X -1 Y 2 X -1 Y 2 X -1 Y s 817 1191 m 2 X -1 Y 1 X -1 Y 2 X 1 -1 d 1 X -1 Y 2 X s 826 1187 m
 2 X -1 Y 1 X -1 Y 1 X -1 Y 5 X s 835 1184 m -1 Y 3 X -1 Y 1 X 1 -1 d 1 X -1 Y 2 X -1 Y s 843 1179 m 1 X -1 Y 2 X 1 -1 d 1 X 1 -1 d -1 Y 1 X 1 -1 d 1 X s 852 1174 m -1 Y 2 X 1 -1 d -1 Y 2 X -2 Y 1 X 1 -1 d 1 X -1 Y 1 X -1 Y s 861 1166 m 1 X -1 Y 2 X
 -1 Y 2 X -1 Y 2 X -1 Y 1 X -1 Y 1 X s 870 1161 m 1 -1 d 1 X -1 Y 1 -1 d -1 Y 3 X -1 Y 1 X -1 Y 2 X s 879 1155 m 2 X -1 Y 1 X -1 Y 1 X -1 Y 2 X 1 -1 d 1 X -1 Y s 887 1150 m 1 X -1 Y 1 X -1 Y 2 X 1 -1 d 1 X -1 Y 3 X s 896 1146 m 1 X -1 Y 1 X -1 Y 1 X
 -1 Y 1 X -1 Y 3 X -1 Y 2 X -1 Y s 905 1140 m 1 X -1 Y 1 X -1 Y 1 X -1 Y 2 X -1 Y 1 X -1 Y 2 X -1 Y 1 X s 914 1134 m -1 Y 3 X -1 Y 1 X -1 Y 1 X 1 -1 d 1 X -1 Y 1 X -1 Y 1 X s 923 1128 m 2 X -1 Y 1 X -1 Y 2 X -1 Y 3 X -1 Y s 931 1124 m 3 X -1 Y 2 X -1
 Y 2 X -1 Y 1 X -1 Y 1 X s 940 1120 m 1 X -1 Y 2 X -1 Y 3 X -1 Y 2 X -1 Y 1 X -1 Y s 949 1115 m 3 X -1 Y 2 X -1 Y 2 X -1 Y 1 X 1 -1 d s 958 1111 m 1 -1 d 1 -1 d 2 X 1 -1 d 1 X -1 Y 1 X -2 Y 2 X s 967 1105 m -1 Y 1 X 1 -1 d 1 -1 d 1 X -1 Y 2 X -1 Y 1
 X -1 Y 1 X -1 Y s 975 1098 m 1 X -1 Y 1 X -1 Y 2 X -1 Y 1 X -1 Y 1 -1 d 1 X -2 Y 2 X -1 Y s 984 1090 m 1 -1 d 1 X -1 Y 1 -1 d 1 X -1 Y 2 X -1 Y 1 X -1 Y 1 X -1 Y 1 X -1 Y s 993 1082 m 1 -1 d -1 Y 2 X -1 Y 2 X -2 Y 1 X -1 Y 1 X -1 Y 1 X -1 Y 1 X -1 Y
 s 1002 1073 m -1 Y 1 X -1 Y 2 X -2 Y 1 X -1 Y 1 X -1 Y 1 X -1 Y 1 -1 d 1 X -2 Y 1 X s 1011 1063 m -1 Y 1 X -1 Y 1 X -1 Y 1 X -1 Y 1 X 1 -1 d -1 Y 1 X -1 Y 1 X -1 Y 1 X -1 Y s 1019 1054 m 1 X -1 Y 1 X -1 Y 1 X -1 Y 1 -1 d -1 Y 1 X -2 Y 1 X -1 Y 1 X
 -1 Y 1 -1 d 1 -1 d -1 Y s 1028 1042 m 2 X -2 Y 1 X -1 Y 1 X -1 Y 1 X -1 Y 1 X -1 Y 1 X -1 Y 1 X -1 Y 1 X -1 Y s 1037 1033 m 1 X -1 Y 1 -1 d 1 X -1 Y 1 X -1 Y 1 X -1 Y 1 X -1 Y 1 X -1 Y 1 X -2 Y 1 X s 1046 1024 m -1 Y 1 X -1 Y 1 -1 d -1 Y 1 X 1 -1 d
 -1 Y 1 -1 d -1 Y 1 X -1 Y 1 X -2 Y 1 X -1 Y 1 X s 1055 1012 m -1 Y 1 -1 d -1 Y 1 X -2 Y 1 X -1 Y 1 X -1 Y 1 X -2 Y 1 X -2 Y 1 X -1 Y 1 X -1 Y s 1063 999 m 1 X -2 Y 1 X -1 Y 1 X 1 -1 d -1 Y 1 X -1 Y 1 X -2 Y 1 X -2 Y 1 X -1 Y 1 X -2 Y s 1072 986 m 1
 -1 d -1 Y 1 X -1 Y 1 X -1 Y 1 X -2 Y 1 X -2 Y 1 X -1 Y 1 X -2 Y 1 X 1 -1 d s 1081 974 m 1 -1 d 1 X -1 Y 1 -1 d -1 Y 1 X 1 -1 d 1 -1 d -1 Y 1 X -1 Y 1 -1 d -2 Y 1 X s 1090 963 m -1 Y 1 X -1 Y 1 X -1 Y 1 -1 d 1 X -1 Y 1 X -1 Y 1 -1 d -1 Y 1 -1 d -1 Y
 1 X -1 Y 1 X s 1099 952 m -1 Y 1 X -1 Y 1 -2 d 1 -1 d -1 Y 1 X -1 Y 1 X -1 Y 1 X -2 Y 1 X -1 Y 1 X -1 Y s 1107 940 m 2 X -1 Y 1 -1 d 1 -1 d 1 -1 d -1 Y 1 -1 d -1 Y 1 X -1 Y 2 X -1 Y s 1116 931 m 1 X -1 Y 1 X -2 Y 1 X -2 Y 1 X -1 Y 1 X -1 Y 1 X -1 Y
 1 X -2 Y 1 X -1 Y 1 X s 1125 920 m -1 Y 1 X -1 Y 2 X -2 Y 1 X 1 -1 d 1 -1 d 1 X -2 Y 1 X -1 Y 1 X s 1134 911 m -1 Y 1 X -2 Y 2 X -2 Y 1 X -1 Y 1 X -1 Y 1 X -1 Y 1 X -2 Y 1 X 1 -1 d s 1143 900 m -1 Y 1 X -1 Y 1 -1 d -1 Y 1 X 1 -1 d 1 -1 d -1 Y 1 X -2
 Y 2 X -1 Y s 1151 890 m 1 X -2 Y 1 X -1 Y 1 X -1 Y 2 X -1 Y 1 X -1 Y 1 X -1 Y 1 X -1 Y 1 X -1 Y s 1160 881 m -1 Y 2 X -2 Y 1 -1 d -1 Y 1 X -1 Y 2 X -1 Y 1 X -1 Y 1 X -1 Y 1 X -1 Y s 1169 871 m -1 Y 1 X -1 Y 1 X -1 Y 1 X 1 -1 d -1 Y 1 X -1 Y 1 X -2 Y
 1 X -1 Y 1 X -1 Y 1 X s 1178 861 m 1 X -1 Y 1 -1 d -1 Y 1 X -1 Y 1 -1 d 1 X -1 Y 1 -1 d -1 Y 1 X -2 Y 1 X -1 Y 1 X s 1187 850 m -1 Y 1 X -2 Y 1 X -1 Y 1 X -1 Y 1 X -2 Y 2 X -1 Y 1 X -2 Y 1 X s 1195 840 m 1 X -1 Y 1 X -2 Y 1 X -1 Y 1 X -1 Y 1 -1 d -1
 Y 1 X -1 Y 1 -1 d -1 Y 1 X -1 Y 1 -1 d s 1204 828 m 1 X -2 Y 1 X -1 Y 1 -1 d -1 Y 1 X -1 Y 1 X -1 Y 2 X 1 -1 d -1 Y 1 X s 1213 819 m -1 Y 1 X -1 Y 1 X -1 Y 1 X -2 Y 1 X 1 -1 d 1 -1 d -2 Y 1 X -1 Y 1 X -1 Y 1 X -1 Y s 1222 807 m 1 X -2 Y 1 X -1 Y 1 X
 -2 Y 1 X -1 Y 1 -1 d -1 Y 2 X -2 Y 1 X -1 Y 1 -1 d s 1231 795 m -1 Y 1 X 1 -1 d -1 Y 1 X -1 Y 1 -1 d -1 Y 1 X -1 Y 1 X -1 Y 1 -1 d -1 Y 1 X -1 Y s 1239 784 m 1 -1 d 1 X -2 Y 1 X -1 Y 1 X -1 Y 1 X -1 Y 1 X -1 Y 1 X -2 Y 1 X -1 Y 1 X -1 Y s 1248 773 m
 1 -1 d -1 Y 1 X -2 Y 1 X -1 Y 1 X -1 Y 1 X -1 Y 1 X -1 Y 1 X -1 Y 1 -1 d -1 Y 1 X s 1257 762 m -1 Y 1 X -2 Y 1 X -2 Y 1 X -2 Y 1 X -2 Y 1 X -1 Y 1 X -1 Y 1 X -1 Y 1 -1 d -1 Y 1 -1 d -1 Y s 1266 746 m -1 Y 1 X -2 Y 1 X -1 Y 1 -1 d -1 Y 1 -1 d -2 Y 1
 X -1 Y 1 X -2 Y 1 X -2 Y 1 X -2 Y 1 X s 1275 730 m -1 Y 1 -1 d -2 Y 1 X -2 Y 1 -1 d -1 Y 1 X -2 Y 1 X -1 Y 1 X -1 Y 1 X -1 Y 1 X -1 Y s 1283 716 m 1 X -1 Y 1 -1 d -2 Y 1 -1 d -1 Y 1 X -1 Y 1 X -1 Y 1 -1 d -4 Y 1 X -2 Y 1 X -1 Y 1 -1 d -1 Y s 1292
 698 m 1 -1 d -2 Y 1 X -1 Y 1 X -2 Y 1 X -2 Y 1 X -1 Y 1 -1 d -1 Y 1 -1 d -1 Y 1 -1 d -2 Y 1 X -1 Y s 1301 681 m -1 Y 1 X -2 Y 1 X -3 Y 1 X -2 Y 1 X -1 Y 1 X -2 Y 1 X -1 Y 1 X -1 Y 1 X -1 Y 1 X -1 Y s 1310 666 m -2 Y 1 X -2 Y 1 X -1 Y 1 X -2 Y 1 X -2
 Y 1 X -2 Y 1 X -2 Y 1 X -2 Y 1 -1 d -2 Y 1 -1 d s 1319 647 m 1 -1 d -1 Y 1 X -1 Y 1 X -2 Y 1 -1 d -1 Y 1 -1 d -1 Y 1 -1 d -2 Y 1 -1 d 1 -1 d -1 Y s 1327 632 m 1 -1 d -2 Y 1 X -3 Y 1 X -2 Y 1 X -1 Y 1 X -2 Y 1 X -3 Y 1 X -2 Y 1 X -2 Y 1 -1 d -2 Y s
 1336 611 m -1 Y 1 X -1 Y 1 -1 d -3 Y 1 X 1 -1 d -2 Y 1 X -2 Y 1 X -3 Y 1 X -2 Y 1 X -1 Y 1 X -2 Y s 1345 592 m -1 Y 1 -1 d -1 Y 1 X -3 Y 1 X -2 Y 1 -1 d -3 Y 1 -1 d -2 Y 1 -1 d -1 Y 1 -1 d -2 Y 1 -1 d -2 Y 1 -1 d s 1354 568 m -1 Y 1 X -2 Y 1 X -2 Y
 1 X -2 Y 1 X -2 Y 1 -1 d -3 Y 1 -1 d 1 -1 d -2 Y 1 X -1 Y 1 X s 1363 550 m -2 Y 1 X -2 Y 1 -2 d -3 Y 1 X -3 Y 1 X -2 Y 1 -1 d -4 Y 1 X -4 Y 1 X -1 Y 1 X -2 Y s 1371 524 m 1 -1 d -1 Y 1 -1 d -2 Y 1 -1 d -1 Y 1 -1 d -1 Y 1 -1 d -2 Y 1 X -2 Y 1 -1 d -2
 Y 1 -1 d -1 Y 1 -1 d -2 Y s 1380 502 m -1 Y 1 -1 d -2 Y 1 X -5 Y 1 X -3 Y 1 X -4 Y 1 X -2 Y 1 X -3 Y 1 -1 d -3 Y 1 -1 d -2 Y 1 X -1 Y s 1389 473 m -1 Y 1 X -2 Y 1 X -2 Y 1 X -2 Y 1 X -2 Y 1 -1 d -2 Y 1 X -1 Y 1 -1 d -3 Y 1 -1 d 1 -1 d -1 Y s 1398
 453 m -1 Y 1 -1 d -1 Y 1 X -3 Y 1 X -3 Y 1 -1 d -1 Y 1 X -2 Y 1 -1 d -1 Y 1 X -2 Y 1 X -2 Y 1 X s 1407 434 m -2 Y 1 X -1 Y 1 -1 d 1 X -2 Y 1 X -2 Y 1 -1 d -1 Y 1 X -2 Y 1 X -2 Y 1 X -1 Y s 1415 419 m 1 -1 d -2 Y 1 X -4 Y 1 X -1 Y 1 X -2 Y 1 X -1 Y 1
 X -3 Y 1 X -2 Y 1 X -2 Y 1 X -1 Y s 1424 400 m -1 Y 1 -1 d -2 Y 1 X -1 Y 1 -1 d 1 X -4 Y 1 X -2 Y 1 -1 d 1 -1 d -2 Y 1 -1 d -2 Y 1 X -1 Y s 1433 380 m 1 -1 d -1 Y 1 X -4 Y 1 X -4 Y 1 X -2 Y 1 X -3 Y 1 -1 d -1 Y 1 X -2 Y 1 X -2 Y 1 X -1 Y s 1442 358
 m -1 Y 1 X -2 Y 1 -1 d -2 Y 1 X -2 Y 1 -1 d -1 Y 1 X -2 Y 1 X -2 Y 1 X -3 Y 1 X -2 Y 1 -1 d s 1451 338 m -1 Y 1 X -2 Y 1 X -1 Y 1 X -1 Y 1 -1 d -1 Y 1 X -1 Y 1 -1 d -1 Y 1 X -1 Y 1 X -2 Y s 1459 325 m 1 X -1 Y 1 -1 d -1 Y 1 X -1 Y 1 X -1 Y 1 X -2 Y
 1 X -1 Y 1 X -1 Y 1 X -1 Y 1 -1 d -1 Y s 1468 313 m 1 X -2 Y 1 X -1 Y 1 X 1 -1 d -1 Y 1 X -1 Y 1 X -1 Y 1 -1 d -1 Y 1 X -1 Y 1 X s 1477 303 m 1 X -1 Y 1 -1 d 1 -1 d -1 Y 2 X -2 Y 2 X -1 Y 2 X s 1486 296 m -1 Y 2 X -1 Y 1 X -1 Y 1 X -1 Y 1 -1 d 1 X
 -1 Y 1 X -1 Y 1 X -1 Y 1 X s 1495 288 m -1 Y 1 X -1 Y 1 X -1 Y 2 X -1 Y 2 X -1 Y 1 X -1 Y 1 X s 1503 282 m 1 X 1 -1 d 1 X -1 Y 1 X -1 Y 2 X -2 Y 3 X -1 Y s 1512 276 m 1 X -1 Y 1 X -1 Y 1 X -1 Y 2 X -1 Y 2 X -1 Y 1 X -2 Y 1 X -1 Y s 1521 268 m 1 X -1
 Y 2 X -1 Y 1 X -1 Y 4 X -2 Y 1 X s 1530 263 m -1 Y 2 X -1 Y 2 X -1 Y 3 X 1 -1 d 1 X s 1539 259 m -1 Y 2 X -1 Y 3 X -1 Y 1 X -1 Y 1 X 1 -1 d s 1547 254 m 2 X -1 Y 1 X -1 Y 3 X -1 Y 3 X -1 Y s 1556 250 m 2 X 1 -1 d 3 X -1 Y 3 X s 1565 248 m 3 X -1 Y 2
 X -1 Y 4 X s 1574 246 m 1 X -1 Y 1 X -1 Y 5 X -1 Y 2 X s 1583 243 m -1 Y 2 X -1 Y 3 X -1 Y 1 X -1 Y 2 X -1 Y s 1591 238 m 1 X -1 Y 2 X -1 Y 3 X -1 Y 3 X -1 Y s 1600 234 m 2 X -1 Y 2 X -1 Y 3 X -1 Y 2 X s 1609 231 m 1 X 1 -1 d 1 X -1 Y 2 X -1 Y 4 X s
 1618 228 m -1 Y 2 X 1 -1 d 3 X -1 Y 3 X s 1627 225 m 3 X -1 Y 4 X -1 Y 1 X s 1635 223 m 7 X 1 -1 d 1 X s 1644 222 m 3 X -1 Y 2 X -1 Y 3 X -1 Y 1 X s 1653 219 m 2 X -1 Y 5 X -1 Y 2 X s 1662 217 m 1 X -1 Y 8 X -1 Y s 1671 215 m 1 X -1 Y 2 X -1 Y 4 X
 -1 Y 1 X s 1679 212 m 9 X s 1688 212 m 4 X -1 Y 5 X -1 Y s 1697 210 m 6 X -1 Y 3 X s 1706 209 m 9 X s 1715 209 m 3 X -1 Y 4 X -1 Y 1 X s 1723 207 m 9 X s 1732 207 m 9 X s 1741 207 m 1 X -1 Y 8 X s 1750 206 m 9 X s 1759 206 m 8 X s 1767 206 m 8 X 1
 -1 d s 1776 205 m 9 X s 1785 205 m 9 X s 1794 205 m 3 X -1 Y 6 X s 1803 204 m 9 X s 1812 204 m 8 X s 1820 204 m 9 X s 1829 204 m 7 X -1 Y 2 X s 1838 203 m 9 X s 1847 203 m 9 X s 1856 203 m 8 X s 1864 203 m 4 X -1 Y 5 X s 1873 202 m 9 X s 1882 202 m
 9 X s 1891 202 m 9 X s 1900 202 m 8 X s 1908 202 m 9 X s 1917 202 m 9 X s 1926 202 m 9 X s 1935 202 m 9 X s 1944 202 m 8 X s 1952 202 m 9 X s 1961 202 m 9 X s 1970 202 m 9 X s 1979 202 m 9 X s 1988 202 m 8 X s 1996 202 m 9 X s 2005 202 m 9 X s 2014
 202 m 9 X s 2023 202 m 9 X s 2032 202 m 8 X s 2040 202 m 1 X s 1 0 0 c black 1 0 0 c 245 1240 m -1 Y 9 X s 254 1239 m 5 X 1 -1 d 3 X s 263 1238 m 8 X s 271 1238 m 1 X -1 Y 3 X 1 -1 d 4 X s 280 1236 m 9 X s 289 1236 m 2 X -1 Y 7 X s 298 1235 m 4 X -1
 Y 3 X -1 Y 2 X s 307 1233 m 8 X s 315 1233 m 9 X -1 Y s 324 1232 m 5 X 1 -1 d 3 X s 333 1231 m 6 X -1 Y 2 X -1 Y 1 X s 342 1229 m 9 X s 351 1229 m 5 X -1 Y 3 X s 359 1228 m 1 X -1 Y 1 X -1 Y 4 X -1 Y 3 X s 368 1225 m 2 X -1 Y 4 X -1 Y 3 X s 377 1223
 m 1 X 1 -1 d 4 X -1 Y 3 X s 386 1221 m 9 X s 395 1221 m -1 Y 5 X -1 Y 3 X s 403 1219 m 3 X -2 Y 1 X 1 -1 d 1 X -1 Y 3 X s 412 1215 m 4 X 1 -1 d 2 X -1 Y 2 X s 421 1213 m 9 X s 430 1213 m 3 X -1 Y 1 X -1 Y 2 X 1 -1 d 2 X s 439 1210 m 4 X -1 Y 2 X -1
 Y 2 X s 447 1208 m 4 X -1 Y 5 X s 456 1207 m 1 X 1 -1 d 1 X -1 Y 1 X -2 Y 1 X -1 Y 2 X 1 -1 d 1 -1 d s 465 1200 m 1 X -1 Y 4 X -1 Y 3 X -2 Y 1 X s 474 1196 m 2 X 1 -1 d -1 Y 1 X -2 Y 2 X -1 Y 3 X s 483 1191 m 4 X -1 Y 2 X -1 Y 1 X -1 Y 1 X s 491
 1188 m 1 X -1 Y 1 X 1 -1 d -1 Y 3 X 1 -1 d -1 Y 2 X s 500 1183 m 3 X -1 Y 1 X 1 -1 d 4 X s 509 1181 m 1 X -1 Y 5 X -1 Y 1 X -1 Y 1 X -1 Y 1 X -1 Y s 518 1176 m 2 X -1 Y 2 X -1 Y 2 X -1 Y 3 X s 527 1173 m 1 X -1 Y 2 X -1 Y 2 X -1 Y 1 X -2 Y 1 X -1 Y
 1 X s 535 1167 m 2 X -1 Y 4 X -1 Y 2 X -1 Y 1 X s 544 1164 m 1 -1 d -1 Y 4 X -2 Y 1 -1 d 1 X -1 Y 1 X -2 Y 1 X s 553 1156 m 2 X -2 Y 4 X -1 Y 1 X 1 -1 d 1 X s 562 1152 m 4 X 1 -1 d -1 Y 1 X -1 Y 2 X 1 -1 d s 571 1148 m -1 Y 2 X -1 Y 1 -1 d 1 -1 d 3
 X -1 Y 1 -1 d -2 Y s 579 1140 m 1 X -2 Y 2 X -1 Y 1 X -1 Y 3 X -1 Y 2 X -1 Y s 588 1134 m -1 Y 1 X -1 Y 1 X -2 Y 1 -1 d -4 Y 2 X -1 Y 1 X -1 Y 1 X -1 Y 1 -1 d -1 Y 1 -1 d s 597 1119 m 1 X -1 Y 1 -1 d -2 Y 2 X -1 Y 1 X -3 Y 1 X -1 Y 2 X -2 Y 1 X s
 606 1108 m 1 X -1 Y 1 -1 d 1 X -1 Y 2 X -1 Y 1 X -2 Y 3 X s 615 1102 m -1 Y 1 X -2 Y 4 X -1 Y 2 X -1 Y 1 X s 623 1097 m 1 X -1 Y 2 X -1 Y 3 X -1 Y 1 X -1 Y 1 -1 d 1 X s 632 1092 m 1 X -1 Y 1 X -1 Y 3 X -2 Y 1 X -1 Y 2 X -1 Y 1 X -1 Y s 641 1085 m 1
 X -1 Y 1 X 1 -1 d 1 X -1 Y 2 X -2 Y 1 X -1 Y 1 X -2 Y 1 -1 d s 650 1076 m -1 Y 1 X -1 Y 1 X -1 Y 2 X -2 Y 1 -1 d -1 Y 1 -1 d 1 X -2 Y 1 X -1 Y 1 X s 659 1065 m 2 X -1 Y 1 X 1 -1 d 1 X 1 -1 d 1 X -2 Y 1 X -1 Y s 667 1059 m 1 X -1 Y 1 X -2 Y 2 X -1 Y
 1 -1 d -1 Y 1 -1 d 1 X -1 Y 1 -1 d -1 Y 1 X -1 Y s 676 1048 m 3 X -3 Y 1 X 1 -1 d -1 Y 1 -2 d -1 Y 1 -1 d -1 Y 1 -1 d -2 Y 1 X -1 Y s 685 1034 m 1 X -1 Y 1 X -1 Y 1 -1 d 2 X 1 -1 d -1 Y 1 X -1 Y 1 X -1 Y 1 X -1 Y s 694 1026 m 1 -1 d -3 Y 2 X -1 Y 1
 X -1 Y 1 -1 d -1 Y 1 X -1 Y 1 X -2 Y 1 X -1 Y 1 -1 d s 703 1013 m -1 Y 1 X -2 Y 2 X -3 Y 1 -1 d -2 Y 1 X -1 Y 1 -1 d -2 Y 1 X -2 Y 1 X s 711 998 m 1 X -1 Y 1 X -2 Y 1 X -1 Y 2 X -3 Y 2 X -2 Y 1 -1 d -1 Y 1 X -2 Y s 720 985 m 1 X -1 Y 1 -1 d 1 X -2 Y
 1 X -2 Y 1 X -2 Y 1 X -3 Y 1 X -2 Y 1 X -1 Y 1 -1 d s 729 970 m 1 -1 d -1 Y 1 X -3 Y 1 X -1 Y 1 X -2 Y 1 X -2 Y 1 -1 d -1 Y 1 -1 d -1 Y 1 -1 d -4 Y 1 X s 738 951 m 1 -1 d -2 Y 1 -1 d 1 -1 d -1 Y 1 X 1 -1 d -2 Y 1 X -3 Y 1 X -1 Y 2 X s 747 938 m -2 Y
 1 X -1 Y 1 X -1 Y 1 X -2 Y 1 X -1 Y 1 -1 d -4 Y 1 -1 d -1 Y 1 X -2 Y 1 -1 d -5 Y s 755 916 m 2 X -2 Y 1 X -4 Y 1 X -2 Y 1 X -2 Y 1 X -1 Y 1 X -5 Y 1 X -3 Y 1 -1 d -2 Y s 764 894 m -1 Y 1 X -2 Y 1 X -2 Y 1 -1 d -2 Y 1 X -1 Y 1 X -2 Y 1 X -1 Y 1 X -2
 Y 1 X 1 -1 d s 773 879 m 1 X -2 Y 1 -1 d -1 Y 1 X -3 Y 1 -1 d -2 Y 1 X -2 Y 1 X -1 Y 1 -1 d -2 Y 1 X -2 Y 1 X -1 Y s 782 860 m -1 Y 1 X -2 Y 1 X -3 Y 1 X -3 Y 1 -1 d -1 Y 1 X -4 Y 1 X -3 Y 1 X 1 -1 d -2 Y 1 X s 791 839 m -2 Y 1 -1 d -1 Y 1 -2 d -2 Y
 1 X -3 Y 1 X -2 Y 1 X -1 Y 1 -1 d -1 Y 1 X -2 Y 1 -1 d -4 Y s 799 816 m 1 X -2 Y 1 X -2 Y 1 X -2 Y 1 X -2 Y 1 X -3 Y 1 X -2 Y 1 X -4 Y 1 X -1 Y 1 X -2 Y s 808 796 m 1 X -1 Y 1 X -1 Y 1 -1 d -2 Y 1 -1 d -2 Y 1 X -1 Y 1 X -3 Y 1 X -2 Y 1 -1 d 1 X s
 817 781 m 1 X -3 Y 1 X -3 Y 1 -1 d -2 Y 1 X -2 Y 1 X -1 Y 1 X -2 Y 1 X -1 Y 1 X -2 Y 1 -1 d s 826 763 m -3 Y 1 -1 d -1 Y 2 X -3 Y 1 X -2 Y 1 X -1 Y 1 X -2 Y 1 X -1 Y 1 X -2 Y 1 X s 835 747 m -1 Y 1 -2 d -3 Y 1 -1 d -2 Y 1 X -3 Y 1 X -1 Y 1 X -2 Y 1
 -1 d -2 Y 1 X -2 Y 1 -1 d -1 Y s 843 725 m 1 -1 d 1 X -2 Y 1 X 1 -2 d 1 X -3 Y 1 X -2 Y 1 X -1 Y 1 X -3 Y 1 X s 852 711 m -1 Y 1 X -1 Y 1 -1 d 1 X -1 Y 1 X -2 Y 1 X -2 Y 1 -1 d -4 Y 1 X -3 Y 1 X -3 Y 1 -1 d s 861 691 m 1 -1 d -1 Y 2 X -2 Y 1 X -1 Y
 1 X -1 Y 1 X -2 Y 1 X -2 Y 1 X -3 Y 1 X -1 Y s 870 677 m -1 Y 1 X -1 Y 1 X -1 Y 1 X -3 Y 1 X -1 Y 1 X -2 Y 1 -1 d -3 Y 2 X -1 Y 1 -1 d s 879 662 m 1 -3 d -1 Y 1 X -1 Y 1 X -4 Y 1 X -1 Y 1 X -2 Y 1 X -1 Y 1 -1 d -1 Y 1 X s 887 647 m 1 X -2 Y 1 X -2 Y
 1 X -3 Y 1 X -4 Y 1 X -1 Y 1 X -1 Y 1 -1 d -3 Y 1 -1 d -2 Y 1 -1 d -2 Y s 896 624 m -1 Y 1 -1 d -1 Y 1 -1 d -2 Y 1 -2 d -2 Y 1 X -1 Y 1 -1 d -3 Y 1 X -2 Y 1 X -3 Y 1 X 1 -1 d s 905 603 m 1 -1 d -1 Y 1 X -2 Y 1 X -2 Y 1 X -1 Y 1 X -1 Y 1 X 1 -1 d 1 X
 -2 Y 1 X -1 Y s 914 591 m -1 Y 1 X -1 Y 1 X 1 -1 d -1 Y 1 X -2 Y 1 X -1 Y 1 X -2 Y 1 X -1 Y 1 X -1 Y 1 X s 923 580 m -3 Y 1 X 1 -1 d -1 Y 1 X -2 Y 1 X -1 Y 1 X -3 Y 1 X -2 Y 1 X -3 Y 1 X -2 Y s 931 562 m 1 X -1 Y 1 X -1 Y 1 -1 d -1 Y 1 X -1 Y 1 -1 d
 -2 Y 1 X -2 Y 1 -1 d -1 Y 1 X -3 Y 1 X -1 Y s 940 546 m -1 Y 1 X 1 -1 d -2 Y 1 X -2 Y 5 X -2 Y 1 X -1 Y s 949 537 m -1 Y 1 X -2 Y 1 X -2 Y 1 -1 d -1 Y 1 -1 d 1 -1 d -1 Y 1 X -1 Y 1 X -2 Y 1 X -1 Y 1 X s 958 523 m -1 Y 2 X -1 Y 1 X -2 Y 1 X -2 Y 1 X
 -1 Y 1 X -1 Y 1 X -1 Y 1 -1 d -3 Y 1 X s 967 510 m -1 Y 1 -1 d -3 Y 1 X 1 -1 d -3 Y 1 -1 d -2 Y 1 X -3 Y 1 X -3 Y 1 X -2 Y 1 X -2 Y s 975 488 m 1 -1 d 1 -2 d -2 Y 1 X -1 Y 1 -1 d -2 Y 1 X -1 Y 1 X -2 Y 1 X 1 -1 d -1 Y 1 X -2 Y s 984 472 m 1 X -1 Y 1
 X -2 Y 1 X -1 Y 1 X -1 Y 1 -1 d -2 Y 1 X -1 Y 1 X -1 Y 1 -1 d 1 -1 d -1 Y s 993 459 m 1 -1 d -1 Y 1 X -1 Y 1 -1 d 1 -1 d -2 Y 1 X -2 Y 1 X -1 Y 1 X -2 Y 2 X -1 Y s 1002 446 m -3 Y 1 X -1 Y 1 X -2 Y 1 X -1 Y 1 X -1 Y 1 X -2 Y 2 X 1 -1 d 1 X s 1011
 435 m 1 X -1 Y 1 X 1 -1 d -1 Y 1 X -1 Y 1 X -2 Y 1 X -2 Y 1 X -1 Y 1 X -1 Y s 1019 425 m 2 X -2 Y 1 -1 d -1 Y 1 X -3 Y 1 X -2 Y 1 X -1 Y 1 X -2 Y 2 X -1 Y s 1028 412 m 1 X -1 Y 1 X -1 Y 1 X -1 Y 1 X -1 Y 1 X -1 Y 1 X -1 Y 1 -1 d 1 X -1 Y 1 X s 1037
 404 m -1 Y 2 X -1 Y 1 X 1 -1 d -1 Y 1 X -2 Y 2 X -1 Y 1 X -2 Y 1 -1 d s 1046 394 m 1 X -1 Y 1 X -3 Y 1 -1 d -1 Y 1 X -1 Y 2 X -2 Y 3 X s 1055 385 m 1 X -2 Y 2 X 1 -2 d -1 Y 1 X -1 Y 1 X -2 Y 1 X -1 Y 1 -2 d s 1063 374 m 2 X -1 Y 1 X -1 Y 1 X -1 Y 1
 X -1 Y 1 X -1 Y 1 X -1 Y 2 X s 1072 368 m 1 X -2 Y 1 -1 d -1 Y 1 X -1 Y 2 X -1 Y 1 X -2 Y 2 X -1 Y 1 X s 1081 359 m 1 X 1 -1 d 1 X -1 Y 1 X -1 Y 4 X -1 Y 1 X s 1090 355 m 1 X -1 Y 1 X -1 Y 2 X 1 -1 d -1 Y 1 X -1 Y 1 X -1 Y 1 -2 d -1 Y 1 X s 1099 346
 m 4 X -1 Y 2 X -1 Y 1 -1 d 1 X -1 Y s 1107 342 m 1 X -1 Y 2 X -1 Y 1 X -2 Y 1 X -1 Y 2 X -1 Y 2 X -1 Y s 1116 335 m 1 X 1 -1 d 1 X -1 Y 1 -1 d 2 X -1 Y 2 X -2 Y 1 X s 1125 329 m 1 -1 d 3 X -1 Y 2 X -1 Y 3 X s 1134 326 m 2 X -1 Y 4 X 1 -2 d 2 X s
 1143 323 m 1 X -1 Y 1 X -1 Y 1 X -1 Y 2 X 1 -1 d 1 -1 d 1 X s 1151 318 m 3 X -1 Y 2 X -1 Y 3 X -1 Y 1 X s 1160 315 m 2 X -1 Y 2 X -1 Y 4 X -2 Y 1 X s 1169 311 m 1 -1 d 1 -1 d 3 X -1 Y 2 X -2 Y 1 X -1 Y 1 X s 1178 305 m 1 X -2 Y 2 X 1 -1 d 3 X 1 -1 d
 1 X s 1187 301 m 2 X -2 Y 2 X 1 -1 d 1 X -1 Y 1 X -1 Y 1 X s 1195 296 m 2 X -1 Y 2 X -1 Y 2 X -1 Y 1 X -1 Y 1 X -1 Y 1 X s 1204 291 m 1 X -1 Y 1 X -1 Y 6 X -1 Y 1 X s 1213 288 m 1 X 1 -1 d 1 X -1 Y 3 X -1 Y 3 X -1 Y s 1222 284 m -1 Y 4 X 1 -1 d 1 X
 -1 Y 2 X -1 Y 1 X s 1231 280 m 1 X -1 Y 1 X -1 Y 2 X 1 -1 d 3 X s 1239 277 m 1 X -1 Y 4 X -1 Y 2 X -1 Y 1 X -1 Y 1 X -1 Y s 1248 272 m 3 X -2 Y 2 X -1 Y 1 X -1 Y 1 X -1 Y 2 X -1 Y s 1257 266 m 2 X -1 Y 1 X 1 -1 d 2 X -1 Y 2 X -1 Y 1 X s 1266 262 m
 -1 Y 5 X -1 Y 2 X -1 Y 1 X -2 Y 1 X s 1275 257 m -1 Y 3 X -1 Y 2 X -1 Y 3 X -1 Y s 1283 253 m 1 X -1 Y 1 X -1 Y 2 X -1 Y 1 X -1 Y 3 X 1 -1 d s 1292 248 m 1 X -1 Y 2 X -1 Y 2 X -1 Y 2 X -1 Y 2 X -1 Y s 1301 243 m 1 X 1 -1 d 2 X -1 Y 3 X -1 Y 2 X s
 1310 240 m 1 X -1 Y 2 X -1 Y 4 X -1 Y 1 X -1 Y 1 X s 1319 236 m 3 X -1 Y 4 X -1 Y 1 X s 1327 234 m 1 X -1 Y 3 X -1 Y 2 X -1 Y 2 X -1 Y 1 X s 1336 230 m 2 X -1 Y 2 X -1 Y 2 X -1 Y 2 X -1 Y 1 X s 1345 226 m 1 X -1 Y 1 X -1 Y 2 X -1 Y 2 X -1 Y 2 X -1 Y
 1 X s 1354 221 m 2 X 1 -1 d 5 X -1 Y 1 X s 1363 219 m 1 X 1 -1 d 3 X -1 Y 3 X s 1371 217 m 4 X -1 Y 4 X -1 Y 1 X s 1380 215 m 1 X -1 Y 1 X -1 Y 2 X -1 Y 4 X 1 -1 d s 1389 211 m 1 X -1 Y 6 X -1 Y 2 X s 1398 209 m 5 X 1 -1 d 3 X s 1407 208 m -1 Y 8 X
 s 1415 207 m 1 X -1 Y 8 X s 1424 206 m 2 X 1 -1 d 6 X s 1433 205 m 5 X -1 Y 4 X s 1442 204 m 9 X s 1451 204 m 2 X -1 Y 6 X s 1459 203 m 9 X s 1468 203 m 9 X s 1477 203 m 9 X s 1486 203 m 9 X s 1495 203 m 8 X s 1503 203 m 6 X -1 Y 3 X s 1512 202 m 9
 X s 1521 202 m 9 X s 1530 202 m 9 X s 1539 202 m 8 X s 1547 202 m 9 X s 1556 202 m 9 X s 1565 202 m 9 X s 1574 202 m 9 X s 1583 202 m 8 X s 1591 202 m 9 X s 1600 202 m 9 X s 1609 202 m 9 X s 1618 202 m 9 X s 1627 202 m 8 X s 1635 202 m 9 X s 1644
 202 m 9 X s 1653 202 m 9 X s 1662 202 m 9 X s 1671 202 m 8 X s 1679 202 m 9 X s 1688 202 m 9 X s 1697 202 m 9 X s 1706 202 m 9 X s 1715 202 m 8 X s 1723 202 m 9 X s 1732 202 m 9 X s 1741 202 m 9 X s 1750 202 m 9 X s 1759 202 m 8 X s 1767 202 m 9 X s
 1776 202 m 9 X s 1785 202 m 9 X s 1794 202 m 9 X s 1803 202 m 9 X s 1812 202 m 8 X s 1820 202 m 9 X s 1829 202 m 9 X s 1838 202 m 9 X s 1847 202 m 9 X s 1856 202 m 8 X s 1864 202 m 9 X s 1873 202 m 9 X s 1882 202 m 9 X s 1891 202 m 9 X s 1900 202 m
 8 X s 1908 202 m 9 X s 1917 202 m 9 X s 1926 202 m 9 X s 1935 202 m 9 X s 1944 202 m 8 X s 1952 202 m 9 X s 1961 202 m 9 X s 1970 202 m 9 X s 1979 202 m 9 X s 1988 202 m 8 X s 1996 202 m 9 X s 2005 202 m 9 X s 2014 202 m 9 X s 2023 202 m 9 X s 2032
 202 m 8 X s 2040 202 m 1 X s 0 0.666667 0 c 1 1 1 c black 0 0.666667 0 c 245 1107 m 1 Y 9 X s 254 1108 m 9 X s 263 1108 m 8 X s 271 1108 m 9 X s 280 1108 m 9 X s 289 1108 m 2 X 1 Y 7 X s 298 1109 m 9 X s 307 1109 m 8 X s 315 1109 m 9 X s 324 1109 m
 9 X s 333 1109 m 6 X 1 Y 3 X s 342 1110 m 9 X s 351 1110 m 8 X s 359 1110 m 6 X 1 Y 3 X s 368 1111 m 9 X s 377 1111 m 9 X s 386 1111 m 9 X s 395 1111 m 1 Y 8 X s 403 1112 m 6 X 1 Y 3 X s 412 1113 m 9 X s 421 1113 m 9 X s 430 1113 m 6 X 1 1 d 2 X s
 439 1114 m 8 X s 447 1114 m 9 X s 456 1114 m 1 X 1 1 d 4 X 1 Y 3 X s 465 1116 m 8 X 1 Y 1 X s 474 1117 m 4 X 1 Y 5 X s 483 1118 m 8 X s 491 1118 m 1 X 1 Y 6 X 1 Y 2 X s 500 1120 m 9 X s 509 1120 m 7 X 1 Y 2 X s 518 1121 m 8 X 1 Y 1 X s 527 1122 m 7
 X 1 Y 1 X s 535 1123 m 9 X s 544 1123 m 1 X 1 Y 6 X 1 Y 2 X s 553 1125 m 2 X 1 Y 7 X s 562 1126 m 9 X s 571 1126 m 1 1 d 7 X 1 Y s 579 1128 m 4 X 1 Y 1 X -1 Y 1 X 1 Y 3 X s 588 1129 m 3 X 1 Y 2 X 1 Y 3 X 1 1 d s 597 1132 m 2 X 1 Y 4 X 1 Y 3 X s 606
 1134 m 3 X 1 Y 5 X 1 Y 1 X s 615 1136 m 7 X 1 Y 1 X s 623 1137 m 2 X 1 -1 d 1 Y 6 X s 632 1137 m 1 X 1 Y 6 X 1 Y 1 X -1 Y 1 1 d s 641 1139 m 7 X 1 Y 2 X s 650 1140 m 3 X 1 Y 2 X 1 1 d -1 Y 1 1 d 2 X s 659 1142 m 5 X 1 1 d -1 Y 1 Y 2 X s 667 1143 m 2
 X 1 Y -1 Y 1 X 1 Y 3 X 1 1 d 2 X s 676 1145 m 3 X 1 Y 2 X 1 Y 2 X 1 1 d 1 X s 685 1148 m 6 X 1 Y 3 X s 694 1149 m 1 X 1 Y 3 X 1 1 d 3 X 1 Y 1 X s 703 1152 m 3 X 1 Y 1 X 1 Y 1 X -1 Y 1 Y 2 X 1 Y 1 X s 711 1155 m 5 X 1 Y -1 Y 1 Y 4 X s 720 1156 m 1 X
 1 Y 2 X 1 Y 2 X 1 Y 2 X 1 Y 2 X s 729 1160 m 2 X 1 Y 2 X 1 Y 1 X 1 1 d 2 X 1 Y 1 X 1 Y s 738 1165 m -1 Y 1 1 d 2 X 1 Y 2 X 1 1 d 3 X s 747 1167 m 2 X 1 Y 2 X 1 1 d 1 Y 2 X 1 Y 1 X 1 Y s 755 1172 m 3 X 1 Y 1 X 1 Y -1 Y 1 X 1 Y 2 X 1 Y 1 X 1 Y 1 X s
 764 1176 m 1 X 1 Y 1 X 1 Y 3 X 1 Y 2 X 1 -1 d 1 Y -1 Y 1 X s 773 1178 m 1 X 1 Y 2 X 1 Y 2 X 1 Y 3 X 1 Y 1 X s 782 1182 m 1 X 1 Y 1 X 1 Y 1 X 1 Y 2 X 1 Y 1 X 1 Y -1 Y 3 X s 791 1186 m 1 1 d -1 Y 1 Y 1 X 1 Y 2 X 1 Y 2 X 1 Y 2 X 1 Y s 799 1191 m 1 X -1
 Y 1 1 d 1 X 1 Y 1 -1 d 1 Y 1 X 1 Y 1 -1 d 1 Y 1 X 1 Y 2 X s 808 1194 m 2 X -1 Y 1 1 d 1 X 1 Y 1 X -1 Y 1 X 1 Y 1 X 1 Y -1 Y 2 X s 817 1195 m 2 X 1 Y 2 X 1 Y 4 X 1 1 d s 826 1198 m 1 X 1 Y 5 X 1 Y 2 X 1 Y -1 Y 1 1 d s 835 1201 m 1 X 1 Y 1 X 1 Y 3 X 1
 1 d 1 X 1 Y 1 X s 843 1205 m 2 X -1 Y 1 Y 6 X 1 Y 1 X s 852 1206 m 1 -1 d 1 Y 2 X -1 Y 2 X 1 Y -1 Y 1 1 d 1 1 d 1 X 1 Y 1 X -1 Y s 861 1207 m 1 Y 1 -1 d 3 X 1 1 d 1 -1 d 1 Y 3 X s 870 1208 m 1 Y -1 Y 1 Y 1 -1 d 1 Y -1 Y 4 X 1 Y 3 X 1 Y 1 X s 879
 1210 m 1 1 d -1 Y 1 Y 2 X 1 Y 1 -1 d 1 X 1 Y 3 X s 887 1212 m 1 -1 d 1 Y 1 X -1 Y 1 X 2 Y 1 X 1 Y 3 X 1 Y 1 X 1 Y 1 X 1 Y s 896 1217 m 1 X 1 Y 1 X -1 Y 1 Y 1 X 1 Y 1 -1 d 1 Y 1 X 1 Y 1 X 1 Y 3 X s 905 1221 m 1 X 1 Y -1 Y 6 X -1 Y 1 1 d 1 X s 914
 1221 m 3 X 1 Y -1 Y 2 X 1 Y 1 X -1 Y 1 Y 1 X -1 Y 1 Y 1 X -1 Y 1 Y -1 Y 1 X s 923 1221 m 1 Y 1 X 1 1 d 1 X -1 Y 1 Y 2 X 1 Y 2 X 1 Y 1 X 1 Y -1 Y s 931 1225 m 1 X 1 Y 2 X 1 Y -1 Y 1 X 1 1 d 1 1 d 2 X 1 Y 1 X s 940 1229 m 2 X 1 Y 5 X -1 Y 2 X 1 Y s
 949 1230 m 2 X 1 Y 1 X 1 Y -1 Y 1 Y -1 Y 1 1 d -1 Y 1 1 d 2 X 1 Y 1 X 1 -1 d 1 Y s 958 1233 m -1 Y 1 Y 1 -1 d 1 X -1 Y 1 Y 2 X 1 Y 2 X -1 Y 1 X 1 Y -1 Y 1 X 1 Y -1 Y 1 Y 1 X s 967 1233 m 1 Y 3 X 1 Y 1 1 d -1 Y 1 Y -1 Y 1 X 1 Y 1 1 d 1 X 1 1 d -1 Y 1
 Y -1 Y s 975 1237 m 1 1 d 1 X 1 Y 2 X 1 Y 1 X -1 Y 1 Y -1 Y 2 X -1 Y 1 1 d 1 X s 984 1239 m 2 X -1 Y 1 Y 1 -1 d 1 Y 2 X 1 Y 1 X -1 Y 1 1 d -1 Y 1 1 d -1 Y 1 X 1 Y s 993 1240 m -1 Y 3 X 1 1 d 1 X 1 -1 d 1 Y 2 X -2 Y 1 X 1 Y s 1002 1239 m 1 Y 1 X -1 Y
 1 X 1 Y 1 X -1 Y 2 X -1 Y 1 Y 1 X -1 Y 1 Y -1 Y 2 X -1 Y 1 X s 1011 1237 m -1 Y 1 X 1 -1 d 6 X s 1019 1235 m 1 X -1 Y 1 X 1 1 d -1 Y 1 X 1 Y 1 -1 d 2 X -1 Y 1 Y 1 -1 d 1 X -1 Y 1 Y s 1028 1233 m 1 X -1 Y 3 X -1 Y 4 X -1 Y 1 X s 1037 1230 m 1 X -1 Y
 2 X -1 Y 1 1 d -1 Y 1 Y 2 X -1 Y 2 X -1 Y 1 Y 1 X s 1046 1228 m -1 Y 1 X 1 -1 d 1 Y 1 X 1 Y 1 -1 d 1 X -1 Y 2 X -2 Y 2 X s 1055 1224 m -1 Y 1 -1 d 1 X -1 Y 1 X -1 Y 1 1 d -1 Y 1 Y 1 X -1 Y 1 X -1 Y 1 Y 2 X -1 Y s 1063 1219 m 1 X 1 -1 d 2 X -1 Y 2 X
 -1 Y 1 X -1 Y 1 X -1 Y 1 X -1 Y s 1072 1213 m 3 X -1 Y 1 Y -1 Y 1 Y 1 X -1 Y 1 -1 d -1 Y 2 X -1 Y 2 X s 1081 1209 m -1 Y 2 X -1 Y 1 Y 1 -1 d 1 X 1 -1 d 1 X -1 Y 1 X -1 Y 1 X -2 Y 1 X s 1090 1202 m 1 X -1 Y 3 X -1 Y 1 X -1 Y 1 Y 1 X -1 Y 1 X -1 Y 1 1
 d 1 X s 1099 1199 m -1 Y 1 X -1 Y 1 -1 d 1 -1 d 1 -1 d 1 X -1 Y 1 X -1 Y 1 1 d -1 Y 1 Y -1 Y 1 X s 1107 1192 m 2 X 1 -1 d 1 X -1 Y 1 Y 1 1 d -2 Y 1 X 1 -1 d 1 Y -1 Y 2 X s 1116 1189 m 1 X 1 -1 d -1 Y 1 X -1 Y 2 X -1 Y 2 X -1 Y 1 X -1 Y 1 Y 1 X s
 1125 1184 m -1 Y 2 X 1 -1 d 1 -1 d 1 Y -1 Y 1 X 1 -1 d 1 Y -1 Y 1 X -1 Y 2 X -1 Y s 1134 1178 m 1 X -2 Y 2 X -1 Y 1 X -1 Y 1 X 1 -1 d 1 X -1 Y 1 Y 1 X -1 Y 1 X s 1143 1172 m -1 Y 1 X -1 Y 1 X -1 Y 1 Y -1 Y 1 Y 1 X -1 Y 1 X 1 -1 d 1 X -1 Y 1 Y -1 Y 2
 X -1 Y s 1151 1166 m 1 X -1 Y 1 X -1 Y 2 X -1 Y 3 X -1 Y 1 X -1 Y 1 X -1 Y s 1160 1160 m 2 X -1 Y 1 -1 d 1 Y -1 Y 1 -1 d 2 X -1 Y 2 X -1 Y 1 X s 1169 1155 m 1 X -1 Y 3 X -1 Y 1 X -1 Y 1 X -1 Y 1 X 1 1 d -1 Y 1 X s 1178 1151 m 1 X 1 -1 d 1 X -1 Y 1 X
 -1 Y 1 X -1 Y 1 X -1 Y 1 X -1 Y 1 X -1 Y 1 X s 1187 1144 m -1 Y 1 X -1 Y 3 X -2 Y 3 X -1 Y 1 X s 1195 1139 m 1 X -1 Y 1 X -1 Y 2 X -1 Y 1 X -1 Y 1 X -1 Y 1 X -1 Y 1 X 1 -1 d 1 Y -1 Y s 1204 1132 m 1 Y 1 X -2 Y 1 X 1 -1 d 1 -1 d 1 -1 d 2 X 1 -1 d 1 X
 -1 Y s 1213 1126 m 1 X -1 Y 1 Y 1 X -1 Y 1 Y -1 Y 1 X -1 Y 1 X 1 -1 d 1 -1 d -1 Y 1 X -1 Y 1 X 1 Y -1 Y 1 X -1 Y 1 Y s 1222 1120 m 1 -1 d -1 Y 1 X -1 Y 1 X -1 Y 1 X -1 Y 1 X -1 Y 2 X -1 Y 1 X -1 Y 1 X s 1231 1112 m -1 Y 1 X 1 Y -1 Y 1 X -1 Y 1 Y 1
 -1 d -1 Y 1 X -1 Y 1 Y 1 -1 d 1 -1 d 1 -1 d -1 Y 1 X -1 Y s 1239 1104 m 2 X -1 Y 1 X -1 Y 1 X -1 Y 1 Y -1 Y 1 X -1 Y 2 X -1 Y 1 X -1 Y 1 Y -1 Y 1 X s 1248 1098 m 1 -1 d 1 X -2 Y 1 X -1 Y 1 Y 3 X -1 Y 1 X 1 -1 d 1 X -1 Y s 1257 1092 m 1 -1 d 1 -1 d
 -1 Y 1 X -1 Y 1 X -2 Y 1 X -1 Y 2 X -1 Y 1 X -1 Y 1 X -1 Y s 1266 1082 m -1 Y 1 X -1 Y 1 X -1 Y 1 -1 d -1 Y 1 -1 d -1 Y 1 X -1 Y 1 X -2 Y 2 X 1 -1 d s 1275 1071 m 1 -1 d -2 Y 1 X -2 Y 1 -1 d 1 X -1 Y 1 Y -1 Y 1 X -1 Y 2 X -1 Y 1 X -1 Y s 1283 1061 m
 1 X -1 Y 1 X -1 Y 1 -1 d 1 X -1 Y 1 X -1 Y 1 Y -1 Y 1 -1 d -2 Y 1 -1 d -1 Y 1 X -1 Y 1 X -1 Y s 1292 1049 m 1 -1 d -1 Y 1 X -1 Y 1 X -2 Y 1 X -1 Y 1 X -1 Y 1 X -1 Y 1 -1 d -1 Y 1 X -2 Y 1 X s 1301 1037 m -1 Y 1 X -2 Y 1 X -2 Y 1 X -2 Y 1 X -1 Y 1 X
 -2 Y 3 X -1 Y 1 X s 1310 1026 m -2 Y 1 X -2 Y 1 X -1 Y 1 -1 d -1 Y 1 X -1 Y 1 X -2 Y 1 X -2 Y 1 X -1 Y 1 -1 d -1 Y 1 -1 d s 1319 1010 m 1 -1 d 1 Y -2 Y 1 X -1 Y 1 X -1 Y 1 -1 d -1 Y 1 -1 d -1 Y 1 -1 d -2 Y 1 X -1 Y 1 X -1 Y s 1327 997 m 1 -1 d -2 Y
 1 X -2 Y 1 X -2 Y 1 X -1 Y 1 X -1 Y 1 X -3 Y 1 X -2 Y 1 X -1 Y 1 X -3 Y s 1336 979 m 1 X -1 Y 1 -1 d -3 Y 2 X -1 Y 1 Y -2 Y 1 X -2 Y 1 X -2 Y 1 X -2 Y 1 X -1 Y 1 X -1 Y s 1345 964 m -2 Y 1 X 1 -1 d -2 Y 1 X -2 Y 1 -1 d -2 Y 1 -1 d -2 Y 1 X -2 Y 1 X
 -3 Y 1 X -2 Y 1 -1 d s 1354 943 m -1 Y 1 X -1 Y 1 -1 d -1 Y 1 -1 d -1 Y 1 -1 d -2 Y 1 X -4 Y 1 X -1 Y 1 -1 d -1 Y 1 -1 d 1 -1 d s 1363 925 m -1 Y 1 X -2 Y 1 -2 d -3 Y 1 X -3 Y 1 X -2 Y 1 -1 d -4 Y 1 -1 d -3 Y 1 -1 d -1 Y 1 X -2 Y s 1371 899 m 1 -1 d
 -1 Y 1 -1 d -3 Y 1 X -2 Y 1 X -2 Y 1 X -3 Y 1 X -2 Y 1 X -3 Y 1 -1 d -1 Y 1 -1 d -3 Y s 1380 875 m 1 -1 d -2 Y 1 X -5 Y 1 X -3 Y 1 X -4 Y 1 -1 d -1 Y 1 Y -1 Y 1 -1 d -3 Y 1 -1 d -3 Y 1 -1 d -3 Y 1 X -1 Y s 1389 845 m -1 Y 1 X -1 Y 1 -1 d -2 Y 1 X -2
 Y 1 -1 d -2 Y 1 -1 d -2 Y 1 X -1 Y 1 -1 d -4 Y 1 -1 d -1 Y 1 X -1 Y s 1398 823 m -2 Y 1 -1 d 1 Y -2 Y 1 X -3 Y 1 X -4 Y 1 -1 d -2 Y 1 X -3 Y 1 X -2 Y 1 X -2 Y 1 X -3 Y 1 X s 1407 799 m -1 Y 1 -1 d -1 Y 1 X -1 Y 1 X -3 Y 1 X -1 Y 1 -3 d -1 Y 1 X -2 Y
 1 X -3 Y 1 X -2 Y 1 Y s 1415 781 m 1 -1 d -3 Y 1 X -5 Y 1 X -1 Y 1 -1 d -1 Y 1 -1 d -1 Y 1 X -4 Y 1 -1 d -2 Y 1 X -3 Y 1 X -1 Y s 1424 756 m -1 Y 1 -1 d -3 Y 1 -1 d -2 Y 1 X -1 Y 1 X -5 Y 1 X -4 Y 1 X -1 Y 1 -1 d -3 Y 1 -1 d -3 Y 1 X -1 Y s 1433 728
 m 1 -1 d -2 Y 1 -1 d -5 Y 1 -1 d -4 Y 1 -1 d -3 Y 1 -1 d -4 Y 1 X -3 Y 1 X -3 Y 1 X -2 Y 1 -1 d -1 Y s 1442 695 m -2 Y 1 X -4 Y 1 X -3 Y 1 -1 d -2 Y 1 -2 d -3 Y 1 X -2 Y 1 -1 d -2 Y 1 X -5 Y 1 -1 d -3 Y 1 -1 d s 1451 663 m -3 Y 1 X -3 Y 1 X -1 Y 1 X
 -2 Y 1 -1 d -3 Y 1 X -2 Y 1 -1 d -1 Y 1 X -3 Y 1 X -2 Y s 1459 641 m 1 -1 d -3 Y 1 -1 d 1 Y -1 Y 1 -1 d -2 Y 1 X -2 Y 1 X -3 Y 1 X -2 Y 1 X -3 Y 1 X -1 Y 1 -1 d -2 Y s 1468 619 m -1 Y 1 X -2 Y 1 -1 d -1 Y 1 X -2 Y 1 X -2 Y 1 X -2 Y 1 X -3 Y 1 -1 d
 -2 Y 1 X -2 Y 1 X -1 Y s 1477 599 m 1 X -2 Y 1 -1 d -1 Y 1 -1 d -2 Y 1 X -1 Y 1 X -3 Y 1 X -2 Y 2 X -1 Y 1 X s 1486 585 m -1 Y 1 X -1 Y 1 X -2 Y 1 X -2 Y 1 -1 d -2 Y 1 -1 d 1 X -2 Y 1 X -2 Y 1 X -3 Y 1 X s 1495 568 m -1 Y 1 -1 d -2 Y 1 X -2 Y 2 X -1
 Y 1 -1 d 1 X -2 Y 1 -1 d -1 Y 1 -1 d s 1503 555 m 1 X 1 -1 d 1 -1 d -2 Y 1 X -2 Y 1 X 1 -1 d -2 Y 1 X -1 Y 2 X -1 Y s 1512 544 m -1 Y 1 X -2 Y 1 X -2 Y 1 X -2 Y 1 X -2 Y 1 X -1 Y 1 -1 d 1 -1 d -2 Y 1 X -4 Y 1 X -1 Y s 1521 525 m -2 Y 1 X -1 Y 1 -1 d
 -1 Y 1 X -1 Y 1 -1 d 1 X -1 Y 2 X -1 Y 1 X -3 Y 1 X -2 Y s 1530 511 m 1 -1 d -1 Y 1 X -2 Y 2 X -2 Y 2 X -1 Y 1 X -1 Y 1 X -1 Y 1 X s 1539 502 m -2 Y 1 -1 d 1 -1 d 1 -1 d -1 Y 2 X -3 Y 1 X -2 Y 1 X -1 Y 1 -1 d s 1547 489 m 1 X -1 Y 1 -1 d -1 Y 1 X -2
 Y 1 X 1 -1 d -1 Y 1 X -2 Y 1 X -1 Y 2 X -1 Y s 1556 478 m 2 X -2 Y 1 -1 d 1 X 1 -1 d -1 Y 1 X -1 Y 3 X -1 Y s 1565 471 m 3 X -2 Y 1 X -1 Y 1 X -1 Y 1 X -1 Y 1 X -1 Y 1 X 1 -1 d s 1574 464 m 1 X -1 Y 1 X -2 Y 1 X -1 Y 1 X -1 Y 2 X 1 -1 d -1 Y 1 X -1
 Y 1 X s 1583 456 m -2 Y 1 X -1 Y 1 -1 d -1 Y 1 X -1 Y 1 X -1 Y 1 X -1 Y 1 -1 d -3 Y 1 X -1 Y 1 X -3 Y s 1591 440 m 1 X -3 Y 2 X -2 Y 1 X -1 Y 1 X 1 -1 d -3 Y 2 X 1 -1 d -3 Y s 1600 426 m 1 X -1 Y 1 X -2 Y 1 -1 d 1 X -2 Y 1 -1 d 2 X -2 Y 2 X s 1609
 417 m 1 X -2 Y 1 -2 d -2 Y 1 X -3 Y 1 X 1 -1 d -1 Y 1 -1 d 1 X -1 Y 1 X -1 Y 1 X s 1618 403 m -1 Y 1 X -2 Y 1 X -1 Y 1 -1 d -1 Y 2 X -2 Y 1 X 1 -1 d -1 Y 2 X s 1627 393 m 1 X -1 Y 2 X -2 Y 2 X -2 Y 2 X -2 Y 1 X s 1635 386 m 1 X -1 Y 1 X -1 Y 1 -1 d
 -1 Y 4 X 1 -1 d 1 X s 1644 381 m -1 Y 2 X 1 Y 1 X -3 Y 1 -1 d -2 Y 1 X -2 Y 2 X -1 Y 1 -1 d -1 Y 1 X -1 Y s 1653 369 m -2 Y 1 X -1 Y 1 X -2 Y 2 X -2 Y 3 X -2 Y 1 X -2 Y 1 X s 1662 358 m -1 Y 1 -1 d -2 Y 3 X -1 Y 1 X -2 Y 2 X -1 Y 2 X -2 Y s 1671 348
 m -1 Y 1 -2 d -1 Y 1 X -4 Y 1 X -3 Y 1 X -2 Y 3 X -3 Y 1 X -1 Y s 1679 331 m 1 X -3 Y 8 X -1 Y s 1688 327 m 4 X -1 Y 1 X -2 Y 1 -1 d 1 X -1 Y 1 X -2 Y 1 X -1 Y s 1697 319 m 1 X -1 Y 2 X -2 Y 1 X -1 Y 2 X -2 Y 3 X s 1706 313 m 1 X -1 Y 4 X -3 Y 3 X
 -2 Y 1 X s 1715 307 m 3 X -1 Y 1 X 1 -2 d -3 Y 1 X -2 Y 1 X -2 Y 1 X s 1723 297 m 9 X s 1732 297 m -1 Y 4 X -4 Y 1 X -2 Y 4 X s 1741 290 m 1 X -2 Y 8 X s 1750 288 m 4 X -1 Y 4 X -2 Y 1 X s 1759 285 m 6 X -2 Y 2 X s 1767 283 m 4 X -2 Y 4 X 1 -3 d s
 1776 278 m 6 X -2 Y 3 X -2 Y s 1785 274 m 9 X -2 Y s 1794 272 m 3 X -3 Y 1 X -2 Y 5 X s 1803 267 m -3 Y 9 X s 1812 264 m 2 X -2 Y 6 X s 1820 262 m 7 X -3 Y 2 X s 1829 259 m 7 X -3 Y 1 X -3 Y 1 X -3 Y s 1838 250 m 6 X -4 Y 3 X s 1847 246 m 5 X 1 -4 d
 3 X s 1856 242 m 8 X s 1864 242 m 4 X -4 Y 5 X s 1873 238 m 9 X s 1882 238 m 9 X s 1891 238 m 5 X -5 Y 4 X s 1900 233 m 8 X s 1908 233 m 9 X s 1917 233 m 4 X -6 Y 5 X s 1926 227 m 9 X s 1935 227 m 1 X -7 Y 8 X s 1944 220 m 8 X s 1952 220 m 9 X s
 1961 220 m 9 X s 1970 220 m 9 X s 1979 220 m 9 X s 1988 220 m 8 X s 1996 220 m 9 X s 2005 220 m 9 X s 2014 220 m 9 X s 2023 220 m 9 X s 2032 220 m 8 X s 2040 220 m 1 X s black 3 lw 245 202 m 1796 X s 366 242 m -40 Y s 410 222 m -20 Y s 454 222 m -20
 Y s 498 222 m -20 Y s 543 222 m -20 Y s 587 242 m -40 Y s 631 222 m -20 Y s 675 222 m -20 Y s 719 222 m -20 Y s 763 222 m -20 Y s 807 242 m -40 Y s 851 222 m -20 Y s 895 222 m -20 Y s 939 222 m -20 Y s 983 222 m -20 Y s 1028 242 m -40 Y s 1072 222 m
 -20 Y s 1116 222 m -20 Y s 1160 222 m -20 Y s 1204 222 m -20 Y s 1248 242 m -40 Y s 1292 222 m -20 Y s 1336 222 m -20 Y s 1380 222 m -20 Y s 1424 222 m -20 Y s 1469 242 m -40 Y s 1513 222 m -20 Y s 1557 222 m -20 Y s 1601 222 m -20 Y s 1645 222 m
 -20 Y s 1689 242 m -40 Y s 1733 222 m -20 Y s 1777 222 m -20 Y s 1821 222 m -20 Y s 1865 222 m -20 Y s 1910 242 m -40 Y s 366 242 m -40 Y s 322 222 m -20 Y s 278 222 m -20 Y s 1910 242 m -40 Y s 1954 222 m -20 Y s 1998 222 m -20 Y s 245 202 m 1142 Y
 s 291 202 m -46 X s 268 254 m -23 X s 268 305 m -23 X s 268 357 m -23 X s 291 409 m -46 X s 268 461 m -23 X s 268 513 m -23 X s 268 565 m -23 X s 291 617 m -46 X s 268 669 m -23 X s 268 721 m -23 X s 268 773 m -23 X s 291 825 m -46 X s 268 877 m -23
 X s 268 929 m -23 X s 268 980 m -23 X s 291 1032 m -46 X s 268 1084 m -23 X s 268 1136 m -23 X s 268 1188 m -23 X s 291 1240 m -46 X s 291 1240 m -46 X s 268 1292 m -23 X s 268 1344 m -23 X s 0.490196 0.545098 0.615686 c 1 1 1 c 0.490196 0.545098
 0.615686 c 907 202 245 1344 bl 245 1344 m 907 X s 1152 1344 m 202 Y s 1152 1546 m -907 X s 245 1546 m -202 Y s black
 gsave  2268 1680 0 0 C 515.735 1475.15 t 0 r /Helvetica-Bold findfont 56.8825 sf 0 0 m (Signal efficiency) show NC gr  0 0 0.933333 c 9 lw 286 1495 m 190 X s black
 gsave  2268 1680 0 0 C 515.735 1372.76 t 0 r /Helvetica-Bold findfont 56.8825 sf 0 0 m (Background efficiency) show NC gr  1 0 0 c 286 1394 m 190 X s 0.490196 0.545098 0.615686 c 3 lw 1 1 1 c 0.490196 0.545098 0.615686 c 889 202 1152 1344 bl 1152
 1344 m 889 X s 2041 1344 m 202 Y s 2041 1546 m -889 X s 1152 1546 m -202 Y s black
 gsave  2268 1680 0 0 C 1418.27 1497.91 t 0 r /Helvetica-Bold findfont 49.2982 sf 0 0 m (Signal purity) show NC gr  0 0 0.933333 c[  52 12 ] 0 sd 6 lw 1192 1512 m 187 X s black
 gsave  2268 1680 0 0 C 1418.27 1429.65 t 0 r /Helvetica-Bold findfont 49.2982 sf 0 0 m (Signal efficiency*purity) show NC gr  0 0 0.933333 c[  22 12 ] 0 sd 1192 1445 m 187 X s black
 gsave  2268 1680 0 0 C 1494.11 1365.18 t 0 r /Helvetica-Bold findfont 49.2982 sf 0 0 m (S+B) show NC gr [  ] 0 sd 1471 1403 m 8 -42 d s 3 lw 1479 1361 m 8 57 d s 1487 1418 m 106 X s
 gsave  2268 1680 0 0 C 1418.27 1365.18 t 0 r /Helvetica-Bold findfont 49.2982 sf 0 0 m (S/) show NC gr  0 0.666667 0 c 9 lw 1192 1378 m 187 X s black 3 lw 245 1240 m 1796 X s
 gsave  2268 1680 0 0 C 337.503 386.801 t 0 r /Helvetica-Bold findfont 53.0904 sf 0 0 m (For 1000 signal and 1000 background) show NC gr 
 gsave  2268 1680 0 0 C 1058.01 322.334 t 0 r /Helvetica-Bold findfont 53.0904 sf 0 0 m ( is) show NC gr 
 gsave  2268 1680 0 0 C 955.626 322.334 t 0 r /Helvetica-Bold findfont 53.0904 sf 0 0 m (S+B) show NC gr  6 lw 933 364 m 7 -45 d s 3 lw 940 319 m 8 60 d s 948 379 m 110 X s
 gsave  2268 1680 0 0 C 337.503 322.334 t 0 r /Helvetica-Bold findfont 53.0904 sf 0 0 m (events the maximum S/) show NC gr 
 gsave  2268 1680 0 0 C 337.503 254.075 t 0 r /Helvetica-Bold findfont 53.0904 sf 0 0 m (25.63 when cutting at \2550.06) show NC gr  0.490196 0.545098 0.615686 c 0.364706 0.419608 0.490196 c 1467 91 23 1581 bf 0.490196 0.545098 0.615686 c 23 1581 m
 1467 X s 1490 1581 m 91 Y s 1490 1672 m -1467 X s 23 1672 m -91 Y s 1 1 1 c black 1 1 1 c
 gsave  2268 1680 0 0 C 109.973 1604.09 t 0 r /Helvetica-Bold findfont 72.0512 sf 0 0 m (Cut efficiencies and optimal cut value) show NC gr  0 0.666667 0 c 2041 202 m 1142 Y s 1995 202 m 46 X s 2018 242 m 23 X s 2018 283 m 23 X s 2018 323 m 23 X s
 2018 364 m 23 X s 1995 404 m 46 X s 2018 445 m 23 X s 2018 485 m 23 X s 2018 526 m 23 X s 2018 566 m 23 X s 1995 607 m 46 X s 2018 647 m 23 X s 2018 688 m 23 X s 2018 728 m 23 X s 2018 769 m 23 X s 1995 809 m 46 X s 2018 850 m 23 X s 2018 890 m 23 X
 s 2018 931 m 23 X s 2018 971 m 23 X s 1995 1012 m 46 X s 2018 1052 m 23 X s 2018 1093 m 23 X s 2018 1133 m 23 X s 2018 1174 m 23 X s 1995 1214 m 46 X s 1995 1214 m 46 X s 2018 1255 m 23 X s 2018 1295 m 23 X s 2018 1336 m 23 X s black 0 0.666667 0 c
 gsave  2268 1680 0 0 C 2051.56 178.232 t 0 r /Helvetica-Bold findfont 64.4669 sf 0 0 m (0) show NC gr  black 0 0.666667 0 c
 gsave  2268 1680 0 0 C 2051.56 379.217 t 0 r /Helvetica-Bold findfont 64.4669 sf 0 0 m (5) show NC gr  black 0 0.666667 0 c
 gsave  2268 1680 0 0 C 2051.56 580.202 t 0 r /Helvetica-Bold findfont 64.4669 sf 0 0 m (10) show NC gr  black 0 0.666667 0 c
 gsave  2268 1680 0 0 C 2051.56 784.979 t 0 r /Helvetica-Bold findfont 64.4669 sf 0 0 m (15) show NC gr  black 0 0.666667 0 c
 gsave  2268 1680 0 0 C 2051.56 985.964 t 0 r /Helvetica-Bold findfont 64.4669 sf 0 0 m (20) show NC gr  black 0 0.666667 0 c
 gsave  2268 1680 0 0 C 2051.56 1190.74 t 0 r /Helvetica-Bold findfont 64.4669 sf 0 0 m (25) show NC gr  black 0 0.666667 0 c
 gsave  2268 1680 0 0 C 2203.25 967.003 t 90 r /Helvetica-Bold findfont 64.4669 sf 0 0 m (Significance) show NC gr 
 gr  gr showpage
end
%%EOF
