%!PS-Adobe-2.0 EPSF-2.0
%%BoundingBox:  0 0 567 420
%%Title: dataset/plots/mvaeffs_BDTG.eps: Cut efficiencies for BDTG classifier
%%Creator: ROOT Version 6.20/04
%%CreationDate: Thu May  7 18:45:14 2020
%%DocumentNeededResources: ProcSet (FontSetInit)
%%EndComments
%%BeginProlog
80 dict begin
/s {stroke} def /l {lineto} def /m {moveto} def /t {translate} def
/r {rotate} def /rl {roll}  def /R {repeat} def
/d {rlineto} def /rm {rmoveto} def /gr {grestore} def /f {eofill} def
/c {setrgbcolor} def /black {0 setgray} def /sd {setdash} def
/cl {closepath} def /sf {scalefont setfont} def /lw {setlinewidth} def
/box {m dup 0 exch d exch 0 d 0 exch neg d cl} def
/NC{systemdict begin initclip end}def/C{NC box clip newpath}def
/bl {box s} def /bf {gsave box gsave f grestore 1 lw [] 0 sd s grestore} def /Y { 0 exch d} def /X { 0 d} def 
/K {{pop pop 0 moveto} exch kshow} bind def
/ita {/ang 15 def gsave [1 0 ang dup sin exch cos div 1 0 0] concat} def 
/mp {newpath /y exch def /x exch def} def
/side {[w .77 mul w .23 mul] .385 w mul sd w 0 l currentpoint t -144 r} def
/mr {mp x y w2 0 360 arc} def /m24 {mr s} def /m20 {mr f} def
/mb {mp x y w2 add m w2 neg 0 d 0 w neg d w 0 d 0 w d cl} def
/mt {mp x y w2 add m w2 neg w neg d w 0 d cl} def
/w4 {w 4 div} def
/w6 {w 6 div} def
/w8 {w 8 div} def
/m21 {mb f} def /m25 {mb s} def /m22 {mt f} def /m26{mt s} def
/m23 {mp x y w2 sub m w2 w d w neg 0 d cl f} def
/m27 {mp x y w2 add m w3 neg w2 neg d w3 w2 neg d w3 w2 d cl s} def
/m28 {mp x w2 sub y w2 sub w3 add m w3 0 d  0 w3 neg d w3 0 d 0 w3 d w3 0 d  0 w3 d w3 neg 0 d 0 w3 d w3 neg 0 d 0 w3 neg d w3 neg 0 d cl s } def
/m29 {mp gsave x w2 sub y w2 add w3 sub m currentpoint t 4 {side} repeat cl fill gr} def
/m30 {mp gsave x w2 sub y w2 add w3 sub m currentpoint t 4 {side} repeat cl s gr} def
/m31 {mp x y w2 sub m 0 w d x w2 sub y m w 0 d x w2 sub y w2 add m w w neg d x w2 sub y w2 sub m w w d s} def
/m32 {mp x y w2 sub m w2 w d w neg 0 d cl s} def
/m33 {mp x y w2 add m w3 neg w2 neg d w3 w2 neg d w3 w2 d cl f} def
/m34 {mp x w2 sub y w2 sub w3 add m w3 0 d  0 w3 neg d w3 0 d 0 w3 d w3 0 d  0 w3 d w3 neg 0 d 0 w3 d w3 neg 0 d 0 w3 neg d w3 neg 0 d cl f } def
/m35 {mp x y w2 add m w2 neg w2 neg d w2 w2 neg d w2 w2 d w2 neg w2 d x y w2 sub m 0 w d x w2 sub y m w 0 d s} def
/m36 {mb x w2 sub y w2 add m w w neg d x w2 sub y w2 sub m w w d s} def
/m37 {mp x y m w4 neg w2 d w4 neg w2 neg d w2 0 d  w4 neg w2 neg d w2 0 d w4 neg w2 d w2 0 d w4 neg w2 d w4 neg w2 neg d cl s} def
/m38 {mp x w4 sub y w2 add m w4 neg w4 neg d 0 w2 neg d w4 w4 neg d w2 0 d w4 w4 d 0 w2 d w4 neg w4 d w2 neg 0 d x y w2 sub m 0 w d x w2 sub y m w 0 d cl s} def
/m39 {mp x y m w4 neg w2 d w4 neg w2 neg d w2 0 d  w4 neg w2 neg d w2 0 d w4 neg w2 d w2 0 d w4 neg w2 d w4 neg w2 neg d cl f} def
/m40 {mp x y m w4 w2 d w4 w4 neg d w2 neg w4 neg d w2 w4 neg d w4 neg w4 neg d w4 neg w2 d w4 neg w2 neg d w4 neg w4 d w2 w4 d w2 neg w4 d w4 w4 d w4 w2 neg d cl s} def
/m41 {mp x y m w4 w2 d w4 w4 neg d w2 neg w4 neg d w2 w4 neg d w4 neg w4 neg d w4 neg w2 d w4 neg w2 neg d w4 neg w4 d w2 w4 d w2 neg w4 d w4 w4 d w4 w2 neg d cl f} def
/m42 {mp x y w2 add m w8 neg w2 -3 4 div mul d w2 -3 4 div mul w8 neg d w2 3 4 div mul w8 neg d w8 w2 -3 4 div mul d w8 w2 3 4 div mul d w2 3 4 div mul w8 d w2 -3 4 div mul w8 d w8 neg w2 3 4 div mul d cl s} def
/m43 {mp x y w2 add m w8 neg w2 -3 4 div mul d w2 -3 4 div mul w8 neg d w2 3 4 div mul w8 neg d w8 w2 -3 4 div mul d w8 w2 3 4 div mul d w2 3 4 div mul w8 d w2 -3 4 div mul w8 d w8 neg w2 3 4 div mul d cl f} def
/m44 {mp x y m w6 neg w2 d w2 2 3 div mul 0 d w6 neg w2 neg d w2 w6 d 0 w2 -2 3 div mul d w2 neg w6 d w6 w2 neg d w2 -2 3 div mul 0 d w6 w2 d w2 neg w6 neg d 0 w2 2 3 div mul d w2 w6 neg d cl s} def
/m45 {mp x y m w6 neg w2 d w2 2 3 div mul 0 d w6 neg w2 neg d w2 w6 d 0 w2 -2 3 div mul d w2 neg w6 d w6 w2 neg d w2 -2 3 div mul 0 d w6 w2 d w2 neg w6 neg d 0 w2 2 3 div mul d w2 w6 neg d cl f} def
/m46 {mp x y w4 add m w4 neg w4 d w4 neg w4 neg d  w4 w4 neg d w4 neg w4 neg d w4 w4 neg d w4 w4 d w4 w4 neg d w4 w4 d w4 neg w4 d w4 w4 d w4 neg w4 d w4 neg w4 neg d cl s} def
/m47 {mp x y w4 add m w4 neg w4 d w4 neg w4 neg d w4 w4 neg d w4 neg w4 neg d  w4 w4 neg d w4 w4 d w4 w4 neg d w4 w4 d w4 neg w4 d w4 w4 d w4 neg w4 d w4 neg w4 neg d cl f} def
/m48 {mp x y w4 add m w4 neg w4 d w4 neg w4 neg d w4 w4 neg d  w4 neg w4 neg d w4 w4 neg d w4 w4 d w4 w4 neg d w4 w4 d w4 neg w4 d w4 w4 d w4 neg w4 d w4 neg w4 neg d  w4 w4 neg d w4 neg w4 neg d w4 neg w4 d w4 w4 d cl f} def
/m49 {mp x w2 sub w3 add y w2 sub w3 add m  0 w3 neg d w3 0 d 0 w3 d w3 0 d 0 w3 d w3 neg 0 d 0 w3 d w3 neg 0 d 0 w3 neg d w3 neg 0 d 0 w3 neg d w3 0 d 0 w3 d w3 0 d 0 w3 neg d w3 neg 0 d cl f } def
/m2 {mp x y w2 sub m 0 w d x w2 sub y m w 0 d s} def
/m5 {mp x w2 sub y w2 sub m w w d x w2 sub y w2 add m w w neg d s} def
%%IncludeResource: ProcSet (FontSetInit)
%%IncludeResource: font Times-Roman
%%IncludeResource: font Times-Italic
%%IncludeResource: font Times-Bold
%%IncludeResource: font Times-BoldItalic
%%IncludeResource: font Helvetica
%%IncludeResource: font Helvetica-Oblique
%%IncludeResource: font Helvetica-Bold
%%IncludeResource: font Helvetica-BoldOblique
%%IncludeResource: font Courier
%%IncludeResource: font Courier-Oblique
%%IncludeResource: font Courier-Bold
%%IncludeResource: font Courier-BoldOblique
%%IncludeResource: font Symbol
%%IncludeResource: font ZapfDingbats
/reEncode {exch findfont dup length dict begin {1 index /FID eq  {pop pop} {def} ifelse } forall /Encoding exch def currentdict end dup /FontName get exch definefont pop } def [/Times-Bold /Times-Italic /Times-BoldItalic /Helvetica /Helvetica-Oblique
 /Helvetica-Bold /Helvetica-BoldOblique /Courier /Courier-Oblique /Courier-Bold /Courier-BoldOblique /Times-Roman /AvantGarde-Book /AvantGarde-BookOblique /AvantGarde-Demi /AvantGarde-DemiOblique /Bookman-Demi /Bookman-DemiItalic /Bookman-Light
 /Bookman-LightItalic /Helvetica-Narrow /Helvetica-Narrow-Bold /Helvetica-Narrow-BoldOblique /Helvetica-Narrow-Oblique /NewCenturySchlbk-Roman /NewCenturySchlbk-Bold /NewCenturySchlbk-BoldItalic /NewCenturySchlbk-Italic /Palatino-Bold
 /Palatino-BoldItalic /Palatino-Italic /Palatino-Roman ] {ISOLatin1Encoding reEncode } forall
%%EndProlog
%%BeginSetup
%%EndSetup
newpath  gsave  .25 .25 scale  gsave  0 0 t 0.490196 0.545098 0.615686 c[  ] 0 sd 3 lw 0.941176 0.941176 0.941176 c 2268 1680 0 0 bf black 1 1 0.992157 c 1796 1142 245 202 bf black 1796 1142 245 202 bl 1 1 0.992157 c 1796 1142 245 202 bf black 1796
 1142 245 202 bl 245 202 m 1796 X s[ 4 8] 0 sd 245 1344 m -1142 Y s 694 1344 m -1142 Y s 1143 1344 m -1142 Y s 1592 1344 m -1142 Y s 2041 1344 m -1142 Y s 2041 1344 m -1142 Y s[  ] 0 sd 245 202 m 1142 Y s[ 4 8] 0 sd 2041 256 m -1796 X s 2041 437 m
 -1796 X s 2041 619 m -1796 X s 2041 800 m -1796 X s 2041 981 m -1796 X s 2041 1163 m -1796 X s 2041 1344 m -1796 X s 2041 256 m -1796 X s 0 0 0.933333 c[  22 12 ] 0 sd 6 lw 0.49 0.6 0.82 c black 0 0 0.933333 c 245 256 m 91 Y 9 X s 254 347 m 9 X s
 263 347 m 8 X s 271 347 m 9 X s 280 347 m 9 X s 289 347 m 9 X s 298 347 m 9 X s 307 347 m 8 X s 315 347 m 9 X s 324 347 m 9 X s 333 347 m 9 X s 342 347 m 9 X s 351 347 m 8 X s 359 347 m 9 X s 368 347 m 9 X s 377 347 m 9 X s 386 347 m 9 X s 395 347 m
 8 X s 403 347 m 9 X s 412 347 m 9 X s 421 347 m 9 X s 430 347 m 9 X s 439 347 m 8 X s 447 347 m 9 X s 456 347 m 9 X s 465 347 m 9 X s 474 347 m 9 X s 483 347 m 8 X s 491 347 m 9 X s 500 347 m 9 X s 509 347 m 9 X s 518 347 m 9 X s 527 347 m 8 X s 535
 347 m 9 X s 544 347 m 9 X s 553 347 m 9 X s 562 347 m 9 X s 571 347 m 8 X s 579 347 m 9 X s 588 347 m 9 X s 597 347 m 9 X s 606 347 m 9 X s 615 347 m 8 X s 623 347 m 9 X s 632 347 m 9 X s 641 347 m 9 X s 650 347 m 9 X s 659 347 m 8 X s 667 347 m 9 X
 s 676 347 m 9 X s 685 347 m 9 X s 694 347 m 9 X s 703 347 m 8 X s 711 347 m 9 X s 720 347 m 9 X s 729 347 m 9 X s 738 347 m 9 X s 747 347 m 8 X s 755 347 m 9 X s 764 347 m 9 X s 773 347 m 9 X s 782 347 m 9 X s 791 347 m 8 X s 799 347 m 9 X s 808 347
 m 9 X s 817 347 m 9 X s 826 347 m 9 X s 835 347 m 8 X s 843 347 m 9 X s 852 347 m 9 X s 861 347 m 9 X s 870 347 m 9 X s 879 347 m 8 X s 887 347 m 9 X s 896 347 m 9 X s 905 347 m 9 X s 914 347 m 9 X s 923 347 m 8 X s 931 347 m 9 X s 940 347 m 9 X s
 949 347 m 9 X s 958 347 m 9 X s 967 347 m 8 X s 975 347 m 9 X s 984 347 m 9 X s 993 347 m 9 X s 1002 347 m 9 X s 1011 347 m 8 X s 1019 347 m 9 X s 1028 347 m 9 X s 1037 347 m 9 X s 1046 347 m 9 X s 1055 347 m 8 X s 1063 347 m 9 X s 1072 347 m 9 X s
 1081 347 m 9 X s 1090 347 m 9 X s 1099 347 m 8 X s 1107 347 m 9 X s 1116 347 m 9 X s 1125 347 m 9 X s 1134 347 m 9 X s 1143 347 m 8 X s 1151 347 m 9 X s 1160 347 m 9 X s 1169 347 m 9 X s 1178 347 m 9 X s 1187 347 m 8 X s 1195 347 m 9 X s 1204 347 m
 9 X s 1213 347 m 9 X s 1222 347 m 9 X s 1231 347 m 8 X s 1239 347 m 9 X s 1248 347 m 9 X s 1257 347 m 9 X s 1266 347 m 9 X s 1275 347 m 8 X s 1283 347 m 9 X s 1292 347 m 9 X s 1301 347 m 9 X s 1310 347 m 9 X s 1319 347 m 8 X s 1327 347 m 9 X s 1336
 347 m 9 X s 1345 347 m 9 X s 1354 347 m 9 X s 1363 347 m 8 X s 1371 347 m 9 X s 1380 347 m 9 X s 1389 347 m 9 X s 1398 347 m 9 X s 1407 347 m 8 X s 1415 347 m 9 X s 1424 347 m 9 X s 1433 347 m 9 X s 1442 347 m 9 X s 1451 347 m 8 X s 1459 347 m 9 X s
 1468 347 m 9 X s 1477 347 m 9 X s 1486 347 m 9 X s 1495 347 m 8 X s 1503 347 m 9 X s 1512 347 m 9 X s 1521 347 m 9 X s 1530 347 m 9 X s 1539 347 m 8 X s 1547 347 m 9 X s 1556 347 m 9 X s 1565 347 m 9 X s 1574 347 m 9 X s 1583 347 m 8 X s 1591 347 m
 9 X s 1600 347 m 9 X s 1609 347 m 9 X s 1618 347 m 9 X s 1627 347 m 8 X s 1635 347 m 9 X s 1644 347 m 9 X s 1653 347 m 9 X s 1662 347 m 9 X s 1671 347 m 8 X s 1679 347 m 9 X s 1688 347 m 9 X s 1697 347 m 9 X s 1706 347 m 9 X s 1715 347 m 8 X s 1723
 347 m 9 X s 1732 347 m 9 X s 1741 347 m 9 X s 1750 347 m 9 X s 1759 347 m 8 X s 1767 347 m 9 X s 1776 347 m 9 X s 1785 347 m 9 X s 1794 347 m 9 X s 1803 347 m 9 X s 1812 347 m 8 X s 1820 347 m 9 X s 1829 347 m 9 X s 1838 347 m 9 X s 1847 347 m 9 X s
 1856 347 m 8 X s 1864 347 m 9 X s 1873 347 m 9 X s 1882 347 m 9 X s 1891 347 m 9 X s 1900 347 m 8 X s 1908 347 m 9 X s 1917 347 m 9 X s 1926 347 m 9 X s 1935 347 m 9 X s 1944 347 m 8 X s 1952 347 m 9 X s 1961 347 m 9 X s 1970 347 m 9 X s 1979 347 m
 9 X s 1988 347 m 8 X s 1996 347 m 9 X s 2005 347 m 9 X s 2014 347 m 9 X s 2023 347 m 9 X s 2032 347 m 8 X s 2040 347 m 1 X s black[  ] 0 sd 3 lw 245 202 m 1796 X s 245 242 m -40 Y s 335 222 m -20 Y s 425 222 m -20 Y s 514 222 m -20 Y s 604 222 m -20
 Y s 694 242 m -40 Y s 784 222 m -20 Y s 874 222 m -20 Y s 963 222 m -20 Y s 1053 222 m -20 Y s 1143 242 m -40 Y s 1233 222 m -20 Y s 1323 222 m -20 Y s 1412 222 m -20 Y s 1502 222 m -20 Y s 1592 242 m -40 Y s 1682 222 m -20 Y s 1772 222 m -20 Y s
 1861 222 m -20 Y s 1951 222 m -20 Y s 2041 242 m -40 Y s 2041 242 m -40 Y s
 gsave  2268 1680 0 0 C 242.699 128.934 t 0 r /Helvetica-Bold findfont 64.4669 sf 0 0 m (1) show NC gr 
 gsave  2268 1680 0 0 C 212.361 128.934 t 0 r /Symbol findfont 64.4669 sf 0 0 m (-) show NC gr 
 gsave  2268 1680 0 0 C 659.837 128.934 t 0 r /Helvetica-Bold findfont 64.4669 sf 0 0 m (0.5) show NC gr 
 gsave  2268 1680 0 0 C 629.5 128.934 t 0 r /Symbol findfont 64.4669 sf 0 0 m (-) show NC gr 
 gsave  2268 1680 0 0 C 1122.48 128.934 t 0 r /Helvetica-Bold findfont 64.4669 sf 0 0 m (0) show NC gr 
 gsave  2268 1680 0 0 C 1543.41 128.934 t 0 r /Helvetica-Bold findfont 64.4669 sf 0 0 m (0.5) show NC gr 
 gsave  2268 1680 0 0 C 2025.02 128.934 t 0 r /Helvetica-Bold findfont 64.4669 sf 0 0 m (1) show NC gr 
 gsave  2268 1680 0 0 C 868.406 30.3373 t 0 r /Helvetica-Bold findfont 72.0512 sf 0 0 m (Cut value applied on BDTG output) show NC gr  245 202 m 1142 Y s 291 256 m -46 X s 268 292 m -23 X s 268 329 m -23 X s 268 365 m -23 X s 268 401 m -23 X s 291
 437 m -46 X s 268 474 m -23 X s 268 510 m -23 X s 268 546 m -23 X s 268 582 m -23 X s 291 619 m -46 X s 268 655 m -23 X s 268 691 m -23 X s 268 727 m -23 X s 268 764 m -23 X s 291 800 m -46 X s 268 836 m -23 X s 268 872 m -23 X s 268 909 m -23 X s
 268 945 m -23 X s 291 981 m -46 X s 268 1018 m -23 X s 268 1054 m -23 X s 268 1090 m -23 X s 268 1126 m -23 X s 291 1163 m -46 X s 268 1199 m -23 X s 268 1235 m -23 X s 268 1271 m -23 X s 268 1308 m -23 X s 291 1344 m -46 X s 291 256 m -46 X s 268
 220 m -23 X s
 gsave  2268 1680 0 0 C 128.934 231.322 t 0 r /Helvetica-Bold findfont 64.4669 sf 0 0 m (0.5) show NC gr 
 gsave  2268 1680 0 0 C 128.934 413.346 t 0 r /Helvetica-Bold findfont 64.4669 sf 0 0 m (0.6) show NC gr 
 gsave  2268 1680 0 0 C 125.142 595.37 t 0 r /Helvetica-Bold findfont 64.4669 sf 0 0 m (0.7) show NC gr 
 gsave  2268 1680 0 0 C 125.142 773.602 t 0 r /Helvetica-Bold findfont 64.4669 sf 0 0 m (0.8) show NC gr 
 gsave  2268 1680 0 0 C 128.934 955.626 t 0 r /Helvetica-Bold findfont 64.4669 sf 0 0 m (0.9) show NC gr 
 gsave  2268 1680 0 0 C 189.608 1137.65 t 0 r /Helvetica-Bold findfont 64.4669 sf 0 0 m (1) show NC gr 
 gsave  2268 1680 0 0 C 136.518 1319.67 t 0 r /Helvetica-Bold findfont 64.4669 sf 0 0 m (1.1) show NC gr 
 gsave  2268 1680 0 0 C 64.4669 735.681 t 90 r /Helvetica-Bold findfont 72.0512 sf 0 0 m (Efficiency \(Purity\)) show NC gr  0 0 0.933333 c[  52 12 ] 0 sd 6 lw 0.49 0.6 0.82 c black 0 0 0.933333 c 245 256 m 306 Y 9 X s 254 562 m 9 X s 263 562 m 8 X s
 271 562 m 9 X s 280 562 m 9 X s 289 562 m 9 X s 298 562 m 9 X s 307 562 m 8 X s 315 562 m 9 X s 324 562 m 9 X s 333 562 m 9 X s 342 562 m 9 X s 351 562 m 8 X s 359 562 m 9 X s 368 562 m 9 X s 377 562 m 9 X s 386 562 m 9 X s 395 562 m 8 X s 403 562 m
 9 X s 412 562 m 9 X s 421 562 m 9 X s 430 562 m 9 X s 439 562 m 8 X s 447 562 m 9 X s 456 562 m 9 X s 465 562 m 9 X s 474 562 m 9 X s 483 562 m 8 X s 491 562 m 9 X s 500 562 m 9 X s 509 562 m 9 X s 518 562 m 9 X s 527 562 m 8 X s 535 562 m 9 X s 544
 562 m 9 X s 553 562 m 9 X s 562 562 m 9 X s 571 562 m 8 X s 579 562 m 9 X s 588 562 m 9 X s 597 562 m 9 X s 606 562 m 9 X s 615 562 m 8 X s 623 562 m 9 X s 632 562 m 9 X s 641 562 m 9 X s 650 562 m 9 X s 659 562 m 8 X s 667 562 m 9 X s 676 562 m 9 X
 s 685 562 m 9 X s 694 562 m 9 X s 703 562 m 8 X s 711 562 m 9 X s 720 562 m 9 X s 729 562 m 9 X s 738 562 m 9 X s 747 562 m 8 X s 755 562 m 9 X s 764 562 m 9 X s 773 562 m 9 X s 782 562 m 9 X s 791 562 m 8 X s 799 562 m 9 X s 808 562 m 9 X s 817 562
 m 9 X s 826 562 m 9 X s 835 562 m 8 X s 843 562 m 9 X s 852 562 m 9 X s 861 562 m 9 X s 870 562 m 9 X s 879 562 m 8 X s 887 562 m 9 X s 896 562 m 9 X s 905 562 m 9 X s 914 562 m 9 X s 923 562 m 8 X s 931 562 m 9 X s 940 562 m 9 X s 949 562 m 9 X s
 958 562 m 9 X s 967 562 m 8 X s 975 562 m 9 X s 984 562 m 9 X s 993 562 m 9 X s 1002 562 m 9 X s 1011 562 m 8 X s 1019 562 m 9 X s 1028 562 m 9 X s 1037 562 m 9 X s 1046 562 m 9 X s 1055 562 m 8 X s 1063 562 m 9 X s 1072 562 m 9 X s 1081 562 m 9 X s
 1090 562 m 9 X s 1099 562 m 8 X s 1107 562 m 9 X s 1116 562 m 9 X s 1125 562 m 9 X s 1134 562 m 9 X s 1143 562 m 8 X s 1151 562 m 9 X s 1160 562 m 9 X s 1169 562 m 9 X s 1178 562 m 9 X s 1187 562 m 8 X s 1195 562 m 9 X s 1204 562 m 9 X s 1213 562 m
 9 X s 1222 562 m 9 X s 1231 562 m 8 X s 1239 562 m 9 X s 1248 562 m 9 X s 1257 562 m 9 X s 1266 562 m 9 X s 1275 562 m 8 X s 1283 562 m 9 X s 1292 562 m 9 X s 1301 562 m 9 X s 1310 562 m 9 X s 1319 562 m 8 X s 1327 562 m 9 X s 1336 562 m 9 X s 1345
 562 m 9 X s 1354 562 m 9 X s 1363 562 m 8 X s 1371 562 m 9 X s 1380 562 m 9 X s 1389 562 m 9 X s 1398 562 m 9 X s 1407 562 m 8 X s 1415 562 m 9 X s 1424 562 m 9 X s 1433 562 m 9 X s 1442 562 m 9 X s 1451 562 m 8 X s 1459 562 m 9 X s 1468 562 m 9 X s
 1477 562 m 9 X s 1486 562 m 9 X s 1495 562 m 8 X s 1503 562 m 9 X s 1512 562 m 9 X s 1521 562 m 9 X s 1530 562 m 9 X s 1539 562 m 8 X s 1547 562 m 9 X s 1556 562 m 9 X s 1565 562 m 9 X s 1574 562 m 9 X s 1583 562 m 8 X s 1591 562 m 9 X s 1600 562 m
 9 X s 1609 562 m 9 X s 1618 562 m 9 X s 1627 562 m 8 X s 1635 562 m 9 X s 1644 562 m 9 X s 1653 562 m 9 X s 1662 562 m 9 X s 1671 562 m 8 X s 1679 562 m 9 X s 1688 562 m 9 X s 1697 562 m 9 X s 1706 562 m 9 X s 1715 562 m 8 X s 1723 562 m 9 X s 1732
 562 m 9 X s 1741 562 m 9 X s 1750 562 m 9 X s 1759 562 m 8 X s 1767 562 m 9 X s 1776 562 m 9 X s 1785 562 m 9 X s 1794 562 m 9 X s 1803 562 m 9 X s 1812 562 m 8 X s 1820 562 m 9 X s 1829 562 m 9 X s 1838 562 m 9 X s 1847 562 m 9 X s 1856 562 m 8 X s
 1864 562 m 9 X s 1873 562 m 9 X s 1882 562 m 9 X s 1891 562 m 9 X s 1900 562 m 8 X s 1908 562 m 9 X s 1917 562 m 9 X s 1926 562 m 9 X s 1935 562 m 9 X s 1944 562 m 8 X s 1952 562 m 9 X s 1961 562 m 9 X s 1970 562 m 9 X s 1979 562 m 9 X s 1988 562 m
 8 X s 1996 562 m 9 X s 2005 562 m 9 X s 2014 562 m 9 X s 2023 562 m 9 X s 2032 562 m 8 X s 2040 562 m 1 X s[  ] 0 sd 9 lw 0.49 0.6 0.82 c black 0 0 0.933333 c 245 1163 m -322 Y 9 X s 254 841 m 9 X s 263 841 m 8 X s 271 841 m 9 X s 280 841 m 9 X s
 289 841 m 9 X s 298 841 m 9 X s 307 841 m 8 X s 315 841 m 9 X s 324 841 m 9 X s 333 841 m 9 X s 342 841 m 9 X s 351 841 m 8 X s 359 841 m 9 X s 368 841 m 9 X s 377 841 m 9 X s 386 841 m 9 X s 395 841 m 8 X s 403 841 m 9 X s 412 841 m 9 X s 421 841 m
 9 X s 430 841 m 9 X s 439 841 m 8 X s 447 841 m 9 X s 456 841 m 9 X s 465 841 m 9 X s 474 841 m 9 X s 483 841 m 8 X s 491 841 m 9 X s 500 841 m 9 X s 509 841 m 9 X s 518 841 m 9 X s 527 841 m 8 X s 535 841 m 9 X s 544 841 m 9 X s 553 841 m 9 X s 562
 841 m 9 X s 571 841 m 8 X s 579 841 m 9 X s 588 841 m 9 X s 597 841 m 9 X s 606 841 m 9 X s 615 841 m 8 X s 623 841 m 9 X s 632 841 m 9 X s 641 841 m 9 X s 650 841 m 9 X s 659 841 m 8 X s 667 841 m 9 X s 676 841 m 9 X s 685 841 m 9 X s 694 841 m 9 X
 s 703 841 m 8 X s 711 841 m 9 X s 720 841 m 9 X s 729 841 m 9 X s 738 841 m 9 X s 747 841 m 8 X s 755 841 m 9 X s 764 841 m 9 X s 773 841 m 9 X s 782 841 m 9 X s 791 841 m 8 X s 799 841 m 9 X s 808 841 m 9 X s 817 841 m 9 X s 826 841 m 9 X s 835 841
 m 8 X s 843 841 m 9 X s 852 841 m 9 X s 861 841 m 9 X s 870 841 m 9 X s 879 841 m 8 X s 887 841 m 9 X s 896 841 m 9 X s 905 841 m 9 X s 914 841 m 9 X s 923 841 m 8 X s 931 841 m 9 X s 940 841 m 9 X s 949 841 m 9 X s 958 841 m 9 X s 967 841 m 8 X s
 975 841 m 9 X s 984 841 m 9 X s 993 841 m 9 X s 1002 841 m 9 X s 1011 841 m 8 X s 1019 841 m 9 X s 1028 841 m 9 X s 1037 841 m 9 X s 1046 841 m 9 X s 1055 841 m 8 X s 1063 841 m 9 X s 1072 841 m 9 X s 1081 841 m 9 X s 1090 841 m 9 X s 1099 841 m 8 X
 s 1107 841 m 9 X s 1116 841 m 9 X s 1125 841 m 9 X s 1134 841 m 9 X s 1143 841 m 8 X s 1151 841 m 9 X s 1160 841 m 9 X s 1169 841 m 9 X s 1178 841 m 9 X s 1187 841 m 8 X s 1195 841 m 9 X s 1204 841 m 9 X s 1213 841 m 9 X s 1222 841 m 9 X s 1231 841
 m 8 X s 1239 841 m 9 X s 1248 841 m 9 X s 1257 841 m 9 X s 1266 841 m 9 X s 1275 841 m 8 X s 1283 841 m 9 X s 1292 841 m 9 X s 1301 841 m 9 X s 1310 841 m 9 X s 1319 841 m 8 X s 1327 841 m 9 X s 1336 841 m 9 X s 1345 841 m 9 X s 1354 841 m 9 X s
 1363 841 m 8 X s 1371 841 m 9 X s 1380 841 m 9 X s 1389 841 m 9 X s 1398 841 m 9 X s 1407 841 m 8 X s 1415 841 m 9 X s 1424 841 m 9 X s 1433 841 m 9 X s 1442 841 m 9 X s 1451 841 m 8 X s 1459 841 m 9 X s 1468 841 m 9 X s 1477 841 m 9 X s 1486 841 m
 9 X s 1495 841 m 8 X s 1503 841 m 9 X s 1512 841 m 9 X s 1521 841 m 9 X s 1530 841 m 9 X s 1539 841 m 8 X s 1547 841 m 9 X s 1556 841 m 9 X s 1565 841 m 9 X s 1574 841 m 9 X s 1583 841 m 8 X s 1591 841 m 9 X s 1600 841 m 9 X s 1609 841 m 9 X s 1618
 841 m 9 X s 1627 841 m 8 X s 1635 841 m 9 X s 1644 841 m 9 X s 1653 841 m 9 X s 1662 841 m 9 X s 1671 841 m 8 X s 1679 841 m 9 X s 1688 841 m 9 X s 1697 841 m 9 X s 1706 841 m 9 X s 1715 841 m 8 X s 1723 841 m 9 X s 1732 841 m 9 X s 1741 841 m 9 X s
 1750 841 m 9 X s 1759 841 m 8 X s 1767 841 m 9 X s 1776 841 m 9 X s 1785 841 m 9 X s 1794 841 m 9 X s 1803 841 m 9 X s 1812 841 m 8 X s 1820 841 m 9 X s 1829 841 m 9 X s 1838 841 m 9 X s 1847 841 m 9 X s 1856 841 m 8 X s 1864 841 m 9 X s 1873 841 m
 9 X s 1882 841 m 9 X s 1891 841 m 9 X s 1900 841 m 8 X s 1908 841 m 9 X s 1917 841 m 9 X s 1926 841 m 9 X s 1935 841 m 9 X s 1944 841 m 8 X s 1952 841 m 9 X s 1961 841 m 9 X s 1970 841 m 9 X s 1979 841 m 9 X s 1988 841 m 8 X s 1996 841 m 9 X s 2005
 841 m 9 X s 2014 841 m 9 X s 2023 841 m 9 X s 2032 841 m 8 X s 2040 841 m 1 X s 1 0 0 c black 0 0.666667 0 c 1 1 1 c black 0 0.666667 0 c 245 1078 m 85 Y 9 X s 254 1163 m 9 X s 263 1163 m 8 X s 271 1163 m 9 X s 280 1163 m 9 X s 289 1163 m 9 X s 298
 1163 m 9 X s 307 1163 m 8 X s 315 1163 m 9 X s 324 1163 m 9 X s 333 1163 m 9 X s 342 1163 m 9 X s 351 1163 m 8 X s 359 1163 m 9 X s 368 1163 m 9 X s 377 1163 m 9 X s 386 1163 m 9 X s 395 1163 m 8 X s 403 1163 m 9 X s 412 1163 m 9 X s 421 1163 m 9 X
 s 430 1163 m 9 X s 439 1163 m 8 X s 447 1163 m 9 X s 456 1163 m 9 X s 465 1163 m 9 X s 474 1163 m 9 X s 483 1163 m 8 X s 491 1163 m 9 X s 500 1163 m 9 X s 509 1163 m 9 X s 518 1163 m 9 X s 527 1163 m 8 X s 535 1163 m 9 X s 544 1163 m 9 X s 553 1163
 m 9 X s 562 1163 m 9 X s 571 1163 m 8 X s 579 1163 m 9 X s 588 1163 m 9 X s 597 1163 m 9 X s 606 1163 m 9 X s 615 1163 m 8 X s 623 1163 m 9 X s 632 1163 m 9 X s 641 1163 m 9 X s 650 1163 m 9 X s 659 1163 m 8 X s 667 1163 m 9 X s 676 1163 m 9 X s 685
 1163 m 9 X s 694 1163 m 9 X s 703 1163 m 8 X s 711 1163 m 9 X s 720 1163 m 9 X s 729 1163 m 9 X s 738 1163 m 9 X s 747 1163 m 8 X s 755 1163 m 9 X s 764 1163 m 9 X s 773 1163 m 9 X s 782 1163 m 9 X s 791 1163 m 8 X s 799 1163 m 9 X s 808 1163 m 9 X
 s 817 1163 m 9 X s 826 1163 m 9 X s 835 1163 m 8 X s 843 1163 m 9 X s 852 1163 m 9 X s 861 1163 m 9 X s 870 1163 m 9 X s 879 1163 m 8 X s 887 1163 m 9 X s 896 1163 m 9 X s 905 1163 m 9 X s 914 1163 m 9 X s 923 1163 m 8 X s 931 1163 m 9 X s 940 1163
 m 9 X s 949 1163 m 9 X s 958 1163 m 9 X s 967 1163 m 8 X s 975 1163 m 9 X s 984 1163 m 9 X s 993 1163 m 9 X s 1002 1163 m 9 X s 1011 1163 m 8 X s 1019 1163 m 9 X s 1028 1163 m 9 X s 1037 1163 m 9 X s 1046 1163 m 9 X s 1055 1163 m 8 X s 1063 1163 m 9
 X s 1072 1163 m 9 X s 1081 1163 m 9 X s 1090 1163 m 9 X s 1099 1163 m 8 X s 1107 1163 m 9 X s 1116 1163 m 9 X s 1125 1163 m 9 X s 1134 1163 m 9 X s 1143 1163 m 8 X s 1151 1163 m 9 X s 1160 1163 m 9 X s 1169 1163 m 9 X s 1178 1163 m 9 X s 1187 1163 m
 8 X s 1195 1163 m 9 X s 1204 1163 m 9 X s 1213 1163 m 9 X s 1222 1163 m 9 X s 1231 1163 m 8 X s 1239 1163 m 9 X s 1248 1163 m 9 X s 1257 1163 m 9 X s 1266 1163 m 9 X s 1275 1163 m 8 X s 1283 1163 m 9 X s 1292 1163 m 9 X s 1301 1163 m 9 X s 1310 1163
 m 9 X s 1319 1163 m 8 X s 1327 1163 m 9 X s 1336 1163 m 9 X s 1345 1163 m 9 X s 1354 1163 m 9 X s 1363 1163 m 8 X s 1371 1163 m 9 X s 1380 1163 m 9 X s 1389 1163 m 9 X s 1398 1163 m 9 X s 1407 1163 m 8 X s 1415 1163 m 9 X s 1424 1163 m 9 X s 1433
 1163 m 9 X s 1442 1163 m 9 X s 1451 1163 m 8 X s 1459 1163 m 9 X s 1468 1163 m 9 X s 1477 1163 m 9 X s 1486 1163 m 9 X s 1495 1163 m 8 X s 1503 1163 m 9 X s 1512 1163 m 9 X s 1521 1163 m 9 X s 1530 1163 m 9 X s 1539 1163 m 8 X s 1547 1163 m 9 X s
 1556 1163 m 9 X s 1565 1163 m 9 X s 1574 1163 m 9 X s 1583 1163 m 8 X s 1591 1163 m 9 X s 1600 1163 m 9 X s 1609 1163 m 9 X s 1618 1163 m 9 X s 1627 1163 m 8 X s 1635 1163 m 9 X s 1644 1163 m 9 X s 1653 1163 m 9 X s 1662 1163 m 9 X s 1671 1163 m 8 X
 s 1679 1163 m 9 X s 1688 1163 m 9 X s 1697 1163 m 9 X s 1706 1163 m 9 X s 1715 1163 m 8 X s 1723 1163 m 9 X s 1732 1163 m 9 X s 1741 1163 m 9 X s 1750 1163 m 9 X s 1759 1163 m 8 X s 1767 1163 m 9 X s 1776 1163 m 9 X s 1785 1163 m 9 X s 1794 1163 m 9
 X s 1803 1163 m 9 X s 1812 1163 m 8 X s 1820 1163 m 9 X s 1829 1163 m 9 X s 1838 1163 m 9 X s 1847 1163 m 9 X s 1856 1163 m 8 X s 1864 1163 m 9 X s 1873 1163 m 9 X s 1882 1163 m 9 X s 1891 1163 m 9 X s 1900 1163 m 8 X s 1908 1163 m 9 X s 1917 1163 m
 9 X s 1926 1163 m 9 X s 1935 1163 m 9 X s 1944 1163 m 8 X s 1952 1163 m 9 X s 1961 1163 m 9 X s 1970 1163 m 9 X s 1979 1163 m 9 X s 1988 1163 m 8 X s 1996 1163 m 9 X s 2005 1163 m 9 X s 2014 1163 m 9 X s 2023 1163 m 9 X s 2032 1163 m 8 X s 2040 1163
 m 1 X s black 3 lw 245 202 m 1796 X s 245 242 m -40 Y s 335 222 m -20 Y s 425 222 m -20 Y s 514 222 m -20 Y s 604 222 m -20 Y s 694 242 m -40 Y s 784 222 m -20 Y s 874 222 m -20 Y s 963 222 m -20 Y s 1053 222 m -20 Y s 1143 242 m -40 Y s 1233 222 m
 -20 Y s 1323 222 m -20 Y s 1412 222 m -20 Y s 1502 222 m -20 Y s 1592 242 m -40 Y s 1682 222 m -20 Y s 1772 222 m -20 Y s 1861 222 m -20 Y s 1951 222 m -20 Y s 2041 242 m -40 Y s 2041 242 m -40 Y s 245 202 m 1142 Y s 291 256 m -46 X s 268 292 m -23
 X s 268 329 m -23 X s 268 365 m -23 X s 268 401 m -23 X s 291 437 m -46 X s 268 474 m -23 X s 268 510 m -23 X s 268 546 m -23 X s 268 582 m -23 X s 291 619 m -46 X s 268 655 m -23 X s 268 691 m -23 X s 268 727 m -23 X s 268 764 m -23 X s 291 800 m
 -46 X s 268 836 m -23 X s 268 872 m -23 X s 268 909 m -23 X s 268 945 m -23 X s 291 981 m -46 X s 268 1018 m -23 X s 268 1054 m -23 X s 268 1090 m -23 X s 268 1126 m -23 X s 291 1163 m -46 X s 268 1199 m -23 X s 268 1235 m -23 X s 268 1271 m -23 X s
 268 1308 m -23 X s 291 1344 m -46 X s 291 256 m -46 X s 268 220 m -23 X s 0.490196 0.545098 0.615686 c 1 1 1 c 0.490196 0.545098 0.615686 c 907 202 245 1344 bl 245 1344 m 907 X s 1152 1344 m 202 Y s 1152 1546 m -907 X s 245 1546 m -202 Y s black
 gsave  2268 1680 0 0 C 515.735 1475.15 t 0 r /Helvetica-Bold findfont 56.8825 sf 0 0 m (Signal efficiency) show NC gr  0 0 0.933333 c 9 lw 286 1495 m 190 X s black
 gsave  2268 1680 0 0 C 515.735 1372.76 t 0 r /Helvetica-Bold findfont 56.8825 sf 0 0 m (Background efficiency) show NC gr  1 0 0 c 286 1394 m 190 X s 0.490196 0.545098 0.615686 c 3 lw 1 1 1 c 0.490196 0.545098 0.615686 c 889 202 1152 1344 bl 1152
 1344 m 889 X s 2041 1344 m 202 Y s 2041 1546 m -889 X s 1152 1546 m -202 Y s black
 gsave  2268 1680 0 0 C 1418.27 1497.91 t 0 r /Helvetica-Bold findfont 49.2982 sf 0 0 m (Signal purity) show NC gr  0 0 0.933333 c[  52 12 ] 0 sd 6 lw 1192 1512 m 187 X s black
 gsave  2268 1680 0 0 C 1418.27 1429.65 t 0 r /Helvetica-Bold findfont 49.2982 sf 0 0 m (Signal efficiency*purity) show NC gr  0 0 0.933333 c[  22 12 ] 0 sd 1192 1445 m 187 X s black
 gsave  2268 1680 0 0 C 1494.11 1365.18 t 0 r /Helvetica-Bold findfont 49.2982 sf 0 0 m (S+B) show NC gr [  ] 0 sd 1471 1403 m 8 -42 d s 3 lw 1479 1361 m 8 57 d s 1487 1418 m 106 X s
 gsave  2268 1680 0 0 C 1418.27 1365.18 t 0 r /Helvetica-Bold findfont 49.2982 sf 0 0 m (S/) show NC gr  0 0.666667 0 c 9 lw 1192 1378 m 187 X s black 3 lw 245 1163 m 1796 X s
 gsave  2268 1680 0 0 C 337.503 386.801 t 0 r /Helvetica-Bold findfont 53.0904 sf 0 0 m (For 1000 signal and 1000 background) show NC gr 
 gsave  2268 1680 0 0 C 1058.01 322.334 t 0 r /Helvetica-Bold findfont 53.0904 sf 0 0 m ( is) show NC gr 
 gsave  2268 1680 0 0 C 955.626 322.334 t 0 r /Helvetica-Bold findfont 53.0904 sf 0 0 m (S+B) show NC gr  6 lw 933 364 m 7 -45 d s 3 lw 940 319 m 8 60 d s 948 379 m 110 X s
 gsave  2268 1680 0 0 C 337.503 322.334 t 0 r /Helvetica-Bold findfont 53.0904 sf 0 0 m (events the maximum S/) show NC gr 
 gsave  2268 1680 0 0 C 337.503 254.075 t 0 r /Helvetica-Bold findfont 53.0904 sf 0 0 m (23.46 when cutting at \2551.00) show NC gr  0.490196 0.545098 0.615686 c 0.364706 0.419608 0.490196 c 1467 91 23 1581 bf 0.490196 0.545098 0.615686 c 23 1581 m
 1467 X s 1490 1581 m 91 Y s 1490 1672 m -1467 X s 23 1672 m -91 Y s 1 1 1 c black 1 1 1 c
 gsave  2268 1680 0 0 C 109.973 1604.09 t 0 r /Helvetica-Bold findfont 72.0512 sf 0 0 m (Cut efficiencies and optimal cut value) show NC gr  0 0.666667 0 c 2041 202 m 1142 Y s 1995 202 m 46 X s 2018 246 m 23 X s 2018 290 m 23 X s 2018 334 m 23 X s
 2018 379 m 23 X s 1995 423 m 46 X s 2018 467 m 23 X s 2018 511 m 23 X s 2018 556 m 23 X s 2018 600 m 23 X s 1995 644 m 46 X s 2018 689 m 23 X s 2018 733 m 23 X s 2018 777 m 23 X s 2018 821 m 23 X s 1995 866 m 46 X s 2018 910 m 23 X s 2018 954 m 23 X
 s 2018 998 m 23 X s 2018 1043 m 23 X s 1995 1087 m 46 X s 2018 1131 m 23 X s 2018 1175 m 23 X s 2018 1220 m 23 X s 2018 1264 m 23 X s 1995 1308 m 46 X s 1995 1308 m 46 X s black 0 0.666667 0 c
 gsave  2268 1680 0 0 C 2051.56 178.232 t 0 r /Helvetica-Bold findfont 64.4669 sf 0 0 m (0) show NC gr  black 0 0.666667 0 c
 gsave  2268 1680 0 0 C 2051.56 398.178 t 0 r /Helvetica-Bold findfont 64.4669 sf 0 0 m (5) show NC gr  black 0 0.666667 0 c
 gsave  2268 1680 0 0 C 2051.56 618.123 t 0 r /Helvetica-Bold findfont 64.4669 sf 0 0 m (10) show NC gr  black 0 0.666667 0 c
 gsave  2268 1680 0 0 C 2051.56 841.861 t 0 r /Helvetica-Bold findfont 64.4669 sf 0 0 m (15) show NC gr  black 0 0.666667 0 c
 gsave  2268 1680 0 0 C 2051.56 1061.81 t 0 r /Helvetica-Bold findfont 64.4669 sf 0 0 m (20) show NC gr  black 0 0.666667 0 c
 gsave  2268 1680 0 0 C 2051.56 1281.75 t 0 r /Helvetica-Bold findfont 64.4669 sf 0 0 m (25) show NC gr  black 0 0.666667 0 c
 gsave  2268 1680 0 0 C 2203.25 967.003 t 90 r /Helvetica-Bold findfont 64.4669 sf 0 0 m (Significance) show NC gr 
 gr  gr showpage
end
%%EOF
