-8393.25, 3791.94, -17.3534, 2.18809, -1005.11, 0.121074, 0.283498, 0.993198, 0.349787, 0.651995, 0.0001, 91, 246, 12.4746, 0.0590232, 0, 0, 1, 1, 1.20881e-06, 60503
-8393.25, 3791.94, -17.3534, 2.18809, -1005.11, 0.121074, 0.283498, 0.993198, 0.349787, 0.651995, 3, 91, 246, 12.4746, 0.0590232, 0, 0, 1, 1, 1.18697e-05, 60503
-11658.4, 206383, -117.614, 2.1447, -1116.93, 0.377899, 0.325525, 1.03299, 0.34851, 0.655882, 3, 45.5, 246, 31.822, 0.117485, 0, 0, 0, 0, 1.62585e-05, 60513
-9127.05, 242844, -118.988, 1.91394, -549.593, 0.396097, 0.28368, 0.958125, 0.351078, 0.648177, 0.0001, 182, 246, 19.0488, 0.0833628, 0, 0, 1, 0, 1.64313e-05, 60516
-12940.5, 229735, -339.212, 3.53483, -536.44, 0.305542, 0.343001, 1.03299, 0.34851, 0.655882, 0.0001, 45.5, 246, 45.8509, 0.208055, 1.2213, 1, 0, 0, 4.08302e-05, 60517
-12940.5, 229735, -339.212, 3.53483, -536.44, 0.305542, 0.343001, 1.03299, 0.34851, 0.655882, 3, 45.5, 246, 45.8509, 0.208055, 1.1494, 1, 0, 0, -5.7299e-06, 60517
-8203.46, 241313, -391.67, 3.94895, -603.271, 0.385587, 0.370283, 0.993198, 0.349787, 0.651995, 0.0001, 91, 246, 45.8509, 0.208055, 1.47469, 1, 1, 0, 4.26029e-05, 60517
-8203.46, 241313, -391.67, 3.94895, -603.271, 0.385587, 0.370283, 0.993198, 0.349787, 0.651995, 3, 91, 246, 45.8509, 0.208055, 1.38317, 1, 1, 0, 1.02375e-05, 60517
-2179.95, 257161, -457.901, 4.46566, -694.882, 0.493277, 0.42288, 0.958125, 0.351078, 0.648177, 0.0001, 182, 246, 45.8509, 0.208055, 3.98079, 1, 0, 0, 186.235, 60517
-2179.95, 257161, -457.901, 4.46566, -694.882, 0.493277, 0.42288, 0.958125, 0.351078, 0.648177, 3, 182, 246, 45.8509, 0.208055, 3.57342, 1, 0, 0, 189.556, 60517
-816.761, 170029, -294.949, 4.59778, -813.844, 0.913101, 0.3427, 0.9175, 0.352806, 0.64323, 3, 455, 246, 33.0365, 0.132151, 1.1168, 1, 0, 0, 2.91058e-05, 60518
-7813.76, 456895, -417.23, 0.0904427, -898.98, 0.579673, 0.695811, 1.03299, 0.34851, 0.655882, 0.0001, 45.5, 246, 43.6366, 0.228427, 0, 0, 0, 0, 1.69636e-05, 60522
-11720.7, 455501, -62.8244, 0.614712, -763.758, 0.0999584, 0.343566, 1.03299, 0.34851, 0.655882, 0.0001, 45.5, 246, 18.7727, 0.0366868, 0, 0, 1, 0, -1.72982e-05, 60530
-11720.7, 455501, -62.8244, 0.614712, -763.758, 0.0999584, 0.343566, 1.03299, 0.34851, 0.655882, 3, 45.5, 246, 18.7727, 0.0366868, 0, 0, 1, 0, 4.5343e-06, 60530
-10704.7, 468348, -69.5443, 0.641546, -777.225, 0.103323, 0.309258, 0.993198, 0.349787, 0.651995, 3, 91, 246, 18.7727, 0.0366868, 0, 0, 1, 0, 9.17854e-06, 60530
-9532.03, 481756, -76.6194, 0.668181, -791.513, 0.106951, 0.279521, 0.958125, 0.351078, 0.648177, 0.0001, 182, 246, 18.7727, 0.0366868, 0, 0, 1, 0, -1.05201e-05, 60530
-9982.22, -96760.5, 1.40303, 0.451021, -1004.6, 0.0795308, 0.358118, 1.03299, 0.34851, 0.655882, 0.0001, 45.5, 246, -56.7168, 0.137983, 0, 0, 1, 0, -5.99931e-06, 60536
-9982.22, -96760.5, 1.40303, 0.451021, -1004.6, 0.0795308, 0.358118, 1.03299, 0.34851, 0.655882, 3, 45.5, 246, -56.7168, 0.137983, 0, 0, 1, 0, -2.34415e-05, 60536
-7418.32, -16909.3, 7.87874, 2.96844, -952.128, 0.133021, 0.236776, 1.03299, 0.34851, 0.655882, 3, 45.5, 246, 12.4471, 0.0519263, 0, 0, 1, 1, -9.4437e-06, 60540
-10436.8, 121425, -60.1334, 2.48254, -988.946, -0.0252657, 0.274887, 1.03299, 0.34851, 0.655882, 0.0001, 45.5, 246, 25.036, 0.0909092, 0, 0, 1, 0, 1.07894e-06, 60543
-10436.8, 121425, -60.1334, 2.48254, -988.946, -0.0252657, 0.274887, 1.03299, 0.34851, 0.655882, 3, 45.5, 246, 25.036, 0.0909092, 0, 0, 1, 0, 5.32692e-06, 60543
-10246.6, 199894, -180.383, 1.5456, -731.368, 0.433175, 0.422685, 1.03299, 0.34851, 0.655882, 0.0001, 45.5, 246, 35.5068, 0.184684, 0, 0, 1, 0, 3.01543e-05, 60547
-10246.6, 199894, -180.383, 1.5456, -731.368, 0.433175, 0.422685, 1.03299, 0.34851, 0.655882, 3, 45.5, 246, 35.5068, 0.184684, 0, 0, 1, 0, 1.84546e-05, 60547
-8732.81, 215432, -202.018, 1.67573, -794.223, 0.477222, 0.404487, 0.993198, 0.349787, 0.651995, 3, 91, 246, 35.5068, 0.184684, 0, 0, 1, 0, -1.38591e-06, 60547
-13207.3, 223100, -318.589, 3.07904, -442.844, 0.762581, 0.361822, 1.03299, 0.34851, 0.655882, 0.0001, 45.5, 246, 41.0946, 0.193715, 1.0697, 1, 0, 0, 2.63155e-05, 60551
-9180.96, 238835, -361.538, 3.50361, -536.867, 0.921068, 0.376105, 0.993198, 0.349787, 0.651995, 0.0001, 91, 246, 41.0946, 0.193715, 1.12918, 1, 1, 0, -1.16914e-05, 60551
-3906.96, 260928, -417.344, 4.05657, -673.443, 1.15128, 0.413559, 0.958125, 0.351078, 0.648177, 0.0001, 182, 246, 41.0946, 0.193715, 1.77451, 1, 0, 0, 2.80571e-06, 60551
-3906.96, 260928, -417.344, 4.05657, -673.443, 1.15128, 0.413559, 0.958125, 0.351078, 0.648177, 3, 182, 246, 41.0946, 0.193715, 1.61491, 1, 0, 0, -7.28412e-06, 60551
-10549.7, 338123, -320.93, 1.08616, -958.593, -0.00534, 0.618542, 1.03299, 0.34851, 0.655882, 0.0001, 45.5, 246, 45.8496, 0.243332, 0, 0, 0, 0, 2.7266e-05, 60553
-10549.7, 338123, -320.93, 1.08616, -958.593, -0.00534, 0.618542, 1.03299, 0.34851, 0.655882, 3, 45.5, 246, 45.8496, 0.243332, 0, 0, 0, 0, -4.99706e-06, 60553
-1156.04, 123179, -272.031, 3.87504, -1023.24, 0.37288, 0.336684, 0.9175, 0.352806, 0.64323, 0.0001, 455, 246, 42.2498, 0.159602, 1.64704, 1, 0, 0, -6.77815e-06, 60556
-1156.04, 123179, -272.031, 3.87504, -1023.24, 0.37288, 0.336684, 0.9175, 0.352806, 0.64323, 3, 455, 246, 42.2498, 0.159602, 1.62686, 1, 0, 0, -6.39007e-06, 60556
-11678.7, 162827, -51.8183, 2.21866, -877.948, -0.0231582, 0.28312, 1.03299, 0.34851, 0.655882, 0.0001, 45.5, 246, 21.4378, 0.0714356, 0, 0, 1, 0, 1.5924e-05, 60558
-11678.7, 162827, -51.8183, 2.21866, -877.948, -0.0231582, 0.28312, 1.03299, 0.34851, 0.655882, 3, 45.5, 246, 21.4378, 0.0714356, 0, 0, 1, 0, -1.2425e-06, 60558
-8400.91, 189456, -98.1728, 2.52927, -887.393, 0.0262492, 0.259357, 0.958125, 0.351078, 0.648177, 3, 182, 246, 21.4378, 0.0714356, 0, 0, 1, 0, 9.53251e-06, 60558
-7983.49, 153946, -117.943, 3.04229, -666.073, 0.0377184, 0.251377, 0.958125, 0.351078, 0.648177, 3, 182, 246, 21.9383, 0.0829733, 0, 0, 1, 0, 1.80367e-05, 60559
-7903.68, 101475, -136.54, 2.02412, -1184.61, 0.0186891, 0.39504, 1.03299, 0.34851, 0.655882, 3, 45.5, 246, 43.8373, 0.234175, 0, 0, 1, 0, 5.64797e-06, 60564
-6859.32, 126685, -168.262, 2.16267, -1198.3, 0.0380443, 0.38276, 0.993198, 0.349787, 0.651995, 0.0001, 91, 246, 43.8373, 0.234175, 0, 0, 1, 0, 4.43702e-06, 60564
-6859.32, 126685, -168.262, 2.16267, -1198.3, 0.0380443, 0.38276, 0.993198, 0.349787, 0.651995, 3, 91, 246, 43.8373, 0.234175, 0, 0, 1, 0, 4.86734e-06, 60564
-8817.39, 520672, -320.207, 0.370504, -904.192, 0.139651, 0.529606, 1.03299, 0.34851, 0.655882, 0.0001, 45.5, 246, 36.479, 0.158136, 0, 0, 0, 0, -1.58316e-05, 60566
-5688.85, 401046, -510.679, 3.21598, -760.72, 0.0416264, 0.598387, 0.958125, 0.351078, 0.648177, 0.0001, 182, 246, 45.6566, 0.226873, 1.29917, 1, 0, 0, 1.41955e-06, 60570
-5688.85, 401046, -510.679, 3.21598, -760.72, 0.0416264, 0.598387, 0.958125, 0.351078, 0.648177, 3, 182, 246, 45.6566, 0.226873, 1.20623, 1, 0, 0, -7.85274e-06, 60570
-6525.93, -64124.5, 10.3368, 3.19405, -892.703, -0.0487361, 0.246305, 1.03299, 0.34851, 0.655882, 0.0001, 45.5, 246, 12.0287, 0.0238121, 1.92016, 1, 1, 0, 1.65365e-06, 60576
-6525.93, -64124.5, 10.3368, 3.19405, -892.703, -0.0487361, 0.246305, 1.03299, 0.34851, 0.655882, 3, 45.5, 246, 12.0287, 0.0238121, 1.80522, 1, 1, 0, 9.42123e-06, 60576
-11029.5, 477096, -96.4985, 0.497416, -664.044, 0.234607, 0.35549, 1.03299, 0.34851, 0.655882, 0.0001, 45.5, 246, 19.0306, 0.0508802, 0, 0, 1, 0, -8.52012e-06, 60586
-11029.5, 477096, -96.4985, 0.497416, -664.044, 0.234607, 0.35549, 1.03299, 0.34851, 0.655882, 3, 45.5, 246, 19.0306, 0.0508802, 0, 0, 1, 0, 4.22762e-05, 60586
-10141.7, 491344, -103.082, 0.521997, -691.037, 0.244824, 0.32144, 0.993198, 0.349787, 0.651995, 3, 91, 246, 19.0306, 0.0508802, 0, 0, 1, 0, -6.81234e-05, 60586
-9102.69, 506774, -109.942, 0.546862, -720.448, 0.25598, 0.291852, 0.958125, 0.351078, 0.648177, 0.0001, 182, 246, 19.0306, 0.0508802, 0, 0, 1, 0, 0.000103268, 60586
-10085.8, 1.51566e+06, -100.958, 0.107286, -749.899, 0.767182, 0.34576, 1.03299, 0.34851, 0.655882, 0.0001, 45.5, 246, 21.739, 0.0143873, 0, 0, 1, 0, 0.000304145, 60593
-10085.8, 1.51566e+06, -100.958, 0.107286, -749.899, 0.767182, 0.34576, 1.03299, 0.34851, 0.655882, 3, 45.5, 246, 21.739, 0.0143873, 0, 0, 1, 0, 0.000769481, 60593
-9493.31, 1.59403e+06, -104.651, 0.115228, -853.675, 0.873079, 0.309875, 0.993198, 0.349787, 0.651995, 3, 91, 246, 21.739, 0.0143873, 0, 0, 1, 0, 3.11441e-05, 60593
-7900.57, 104873, -79.8542, 4.18709, -517.279, 0.0920999, 0.196953, 0.958125, 0.351078, 0.648177, 3, 182, 246, 14.8831, 0.0442033, 0, 0, 1, 0, 1.31922e-05, 60595
-5762.76, 70493.8, -145.144, 3.29265, -1034.02, 0.442995, 0.240595, 1.03299, 0.34851, 0.655882, 0.0001, 45.5, 246, 44.8518, 0.157018, 1.03751, 1, 1, 0, -7.74922e-06, 60596
-4390.61, 93301.8, -192.526, 3.67884, -1132.6, 0.533645, 0.252401, 0.993198, 0.349787, 0.651995, 0.0001, 91, 246, 44.8518, 0.157018, 1.07064, 1, 1, 0, -1.0252e-05, 60596
-2188.24, 122455, -253.99, 4.1593, -1267.59, 0.656343, 0.2863, 0.958125, 0.351078, 0.648177, 0.0001, 182, 246, 44.8518, 0.157018, 1.48071, 1, 1, 0, -2.63524e-06, 60596
-2188.24, 122455, -253.99, 4.1593, -1267.59, 0.656343, 0.2863, 0.958125, 0.351078, 0.648177, 3, 182, 246, 44.8518, 0.157018, 1.3187, 1, 1, 0, 1.61039e-06, 60596
-11080.5, 278511, -282.41, 1.1701, -629.689, 0.0103069, 0.574448, 1.03299, 0.34851, 0.655882, 3, 45.5, 246, 41.5684, 0.2458, 0, 0, 0, 0, 1.92824e-06, 60598
-19422.3, 548942, -608.702, 3.72238, -890.081, 0.0917112, 0.635023, 0.993198, 0.349787, 0.651995, 0.0001, 91, 246, 49.7838, 0.224557, 1.14347, 1, 1, 0, 8.35726e-05, 60599
-19422.3, 548942, -608.702, 3.72238, -890.081, 0.0917112, 0.635023, 0.993198, 0.349787, 0.651995, 3, 91, 246, 49.7838, 0.224557, 1.13449, 1, 1, 0, -4.61497e-05, 60599
-9608.56, 632484, -210.957, 0.231115, -576.035, -0.000217183, 0.408521, 1.03299, 0.34851, 0.655882, 0.0001, 45.5, 246, 22.5505, 0.0865999, 0, 0, 1, 0, 8.89462e-05, 60601
-9608.56, 632484, -210.957, 0.231115, -576.035, -0.000217183, 0.408521, 1.03299, 0.34851, 0.655882, 3, 45.5, 246, 22.5505, 0.0865999, 0, 0, 1, 0, 4.6943e-05, 60601
-8806.12, 639093, -219.075, 0.238683, -577.356, 2.51038e-05, 0.377614, 0.993198, 0.349787, 0.651995, 0.0001, 91, 246, 22.5505, 0.0865999, 0, 0, 1, 0, 6.92236e-06, 60601
-7899.35, 645803, -226.935, 0.24589, -578.794, 0.000282858, 0.350895, 0.958125, 0.351078, 0.648177, 0.0001, 182, 246, 22.5505, 0.0865999, 0, 0, 1, 0, -2.58006e-06, 60601
-11920.9, 360983, -201.049, 1.36085, -1130.7, 0.140963, 0.42031, 1.03299, 0.34851, 0.655882, 0.0001, 45.5, 246, 36.0608, 0.135874, 0, 0, 0, 0, -7.50593e-06, 60605
-11920.9, 360983, -201.049, 1.36085, -1130.7, 0.140963, 0.42031, 1.03299, 0.34851, 0.655882, 3, 45.5, 246, 36.0608, 0.135874, 0, 0, 0, 0, 1.8289e-05, 60605
-11850.1, 1.1594e+06, -85.6689, 0.214474, -697.727, 0.671285, 0.344884, 1.03299, 0.34851, 0.655882, 0.0001, 45.5, 246, 19.5573, 0.0167327, 0, 0, 1, 0, 8.35949e-05, 60608
-7942.22, 1.38765e+06, -100.25, 0.271725, -1080.12, 1.03789, 0.241395, 0.9175, 0.352806, 0.64323, 0.0001, 455, 246, 19.5573, 0.0167327, 0, 0, 1, 0, 6.84641e-05, 60608
-9300.75, 44010.6, 16.212, 1.8285, -1063.23, 0.483353, 0.297986, 1.03299, 0.34851, 0.655882, 0.0001, 45.5, 246, 10.1356, 0.0297699, 1.06496, 1, 1, 0, -1.44066e-05, 60611
6992.69, 554626, -566.409, 3.48348, -1260.69, 0.298664, 0.547261, 0.9175, 0.352806, 0.64323, 0.0001, 455, 246, 43.5435, 0.177649, 0, 0, 0, 0, -2.14683e-05, 60612
6992.69, 554626, -566.409, 3.48348, -1260.69, 0.298664, 0.547261, 0.9175, 0.352806, 0.64323, 3, 455, 246, 43.5435, 0.177649, 0, 0, 0, 0, 7.2804e-06, 60612
-9393.92, 373769, -236.535, 0.433209, -707.264, 0.524459, 0.474086, 1.03299, 0.34851, 0.655882, 0.0001, 45.5, 246, 31.1006, 0.152836, 0, 0, 1, 0, 2.20905e-05, 60624
-8388.15, 395443, -248.605, 0.46306, -774.219, 0.572812, 0.449339, 0.993198, 0.349787, 0.651995, 0.0001, 91, 246, 31.1006, 0.152836, 0, 0, 1, 0, -5.04016e-05, 60624
-10696.4, 331859, -137.013, 0.811773, -819.664, 0.455003, 0.38226, 1.03299, 0.34851, 0.655882, 0.0001, 45.5, 246, 26.1052, 0.0980614, 0, 0, 1, 0, -7.38848e-05, 60627
-10696.4, 331859, -137.013, 0.811773, -819.664, 0.455003, 0.38226, 1.03299, 0.34851, 0.655882, 3, 45.5, 246, 26.1052, 0.0980614, 0, 0, 1, 0, 0.000143443, 60627
-9532.68, 353377, -149.328, 0.868129, -886.67, 0.493588, 0.352252, 0.993198, 0.349787, 0.651995, 3, 91, 246, 26.1052, 0.0980614, 0, 0, 1, 0, 3.59687e-05, 60627
-8096.56, 378638, -162.959, 0.929, -965.8, 0.539186, 0.327122, 0.958125, 0.351078, 0.648177, 0.0001, 182, 246, 26.1052, 0.0980614, 0, 0, 1, 0, -3.27501e-05, 60627
-10608.9, 530967, -376.627, 0.229616, -545.391, 0.00655362, 0.60274, 1.03299, 0.34851, 0.655882, 0.0001, 45.5, 246, 33.4524, 0.18736, 0, 0, 0, 0, -3.6223e-05, 60628
-10608.9, 530967, -376.627, 0.229616, -545.391, 0.00655362, 0.60274, 1.03299, 0.34851, 0.655882, 3, 45.5, 246, 33.4524, 0.18736, 0, 0, 0, 0, -2.18538e-05, 60628
-10655.2, 296106, -237.918, 1.38889, -1055.08, 0.107211, 0.48737, 1.03299, 0.34851, 0.655882, 3, 45.5, 246, 40.8675, 0.192783, 0, 0, 0, 0, 1.93173e-05, 60632
-9768.92, 816890, -259.152, 0.228425, -671.377, -0.000133327, 0.419614, 1.03299, 0.34851, 0.655882, 0.0001, 45.5, 246, 25.0913, 0.0822165, 0, 0, 0, 0, -0.00016537, 60640
-9768.92, 816890, -259.152, 0.228425, -671.377, -0.000133327, 0.419614, 1.03299, 0.34851, 0.655882, 3, 45.5, 246, 25.0913, 0.0822165, 0, 0, 0, 0, 8.85122e-05, 60640
-14237.6, 396411, -498.749, 3.73265, -793.904, 0.92196, 0.484959, 0.993198, 0.349787, 0.651995, 0.0001, 91, 246, 44.6493, 0.205346, 1.18631, 1, 1, 0, 5.19058e-06, 60642
-14237.6, 396411, -498.749, 3.73265, -793.904, 0.92196, 0.484959, 0.993198, 0.349787, 0.651995, 3, 91, 246, 44.6493, 0.205346, 1.11317, 1, 1, 0, -4.64782e-05, 60642
-3150.21, 69356.6, -207.71, 3.83251, -835.949, 0.096427, 0.262655, 0.958125, 0.351078, 0.648177, 0.0001, 182, 246, 44.6864, 0.12306, 1.10352, 1, 1, 0, 1.84419e-06, 60649
-652.223, 88646.7, -278.739, 4.38145, -896.7, 0.198391, 0.325786, 0.9175, 0.352806, 0.64323, 0.0001, 455, 246, 44.6864, 0.12306, 1.6456, 1, 1, 0, -1.91551e-05, 60649
-652.223, 88646.7, -278.739, 4.38145, -896.7, 0.198391, 0.325786, 0.9175, 0.352806, 0.64323, 3, 455, 246, 44.6864, 0.12306, 1.56424, 1, 1, 1, 7.63863e-06, 60649
-8667.89, 930418, -255.305, 0.118736, -656.728, 0.448921, 0.401735, 1.03299, 0.34851, 0.655882, 0.0001, 45.5, 246, 23.4022, 0.0646391, 0, 0, 1, 0, 2.82321e-05, 60652
-8667.89, 930418, -255.305, 0.118736, -656.728, 0.448921, 0.401735, 1.03299, 0.34851, 0.655882, 3, 45.5, 246, 23.4022, 0.0646391, 0, 0, 1, 0, -8.74508e-05, 60652
-7799.51, 962963, -263.836, 0.125397, -707.742, 0.483268, 0.370104, 0.993198, 0.349787, 0.651995, 3, 91, 246, 23.4022, 0.0646391, 0, 0, 1, 0, 2.58318e-05, 60652
-9600.86, 117114, -123.013, 3.22199, -830.272, 0.557365, 0.217489, 1.03299, 0.34851, 0.655882, 0.0001, 45.5, 246, 32.717, 0.11738, 0, 0, 0, 0, -1.09304e-05, 60653
-9600.86, 117114, -123.013, 3.22199, -830.272, 0.557365, 0.217489, 1.03299, 0.34851, 0.655882, 3, 45.5, 246, 32.717, 0.11738, 0, 0, 0, 0, 1.99716e-05, 60653
298.316, 203951, -308.886, 5.03114, -1343.95, 1.13458, 0.342169, 0.9175, 0.352806, 0.64323, 0.0001, 455, 246, 32.717, 0.11738, 1.85398, 1, 0, 0, -3.013e-05, 60653
298.316, 203951, -308.886, 5.03114, -1343.95, 1.13458, 0.342169, 0.9175, 0.352806, 0.64323, 3, 455, 246, 32.717, 0.11738, 1.90755, 1, 0, 0, 1.52837e-05, 60653
-10504.7, 330551, -251.532, 0.933387, -841.531, 0.376466, 0.501328, 1.03299, 0.34851, 0.655882, 0.0001, 45.5, 246, 36.8992, 0.183237, 0, 0, 0, 0, -1.42093e-05, 60658
-10504.7, 330551, -251.532, 0.933387, -841.531, 0.376466, 0.501328, 1.03299, 0.34851, 0.655882, 3, 45.5, 246, 36.8992, 0.183237, 0, 0, 0, 0, 1.72338e-05, 60658
-5974, 145322, -78.0568, 3.85248, -1066.85, 0.802922, 0.264902, 0.9175, 0.352806, 0.64323, 0.0001, 455, 246, 10.5926, 0.0220486, 0, 0, 1, 0, 1.44462e-05, 60660
-5974, 145322, -78.0568, 3.85248, -1066.85, 0.802922, 0.264902, 0.9175, 0.352806, 0.64323, 3, 455, 246, 10.5926, 0.0220486, 0, 0, 1, 0, -5.97979e-06, 60660
-7588.17, 125293, -185.68, 2.28634, -941.234, -0.00971637, 0.409653, 1.03299, 0.34851, 0.655882, 0.0001, 45.5, 246, 47.9924, 0.245329, 0, 0, 1, 0, 1.28196e-05, 60662
-7588.17, 125293, -185.68, 2.28634, -941.234, -0.00971637, 0.409653, 1.03299, 0.34851, 0.655882, 3, 45.5, 246, 47.9924, 0.245329, 0, 0, 1, 0, 9.61978e-06, 60662
-350.337, 184295, -318.096, 2.9212, -1015.99, 0.0891181, 0.430002, 0.9175, 0.352806, 0.64323, 0.0001, 455, 246, 47.9924, 0.245329, 1.79585, 1, 0, 0, -7.51339e-06, 60662
-350.337, 184295, -318.096, 2.9212, -1015.99, 0.0891181, 0.430002, 0.9175, 0.352806, 0.64323, 3, 455, 246, 47.9924, 0.245329, 1.87317, 1, 0, 0, -7.50571e-06, 60662
-12004.2, 275239, 4.08375, 0.920464, -620.064, 0.63012, 0.32622, 1.03299, 0.34851, 0.655882, 0.0001, 45.5, 246, 10.5984, 0.00375724, 0, 0, 1, 0, -4.13011e-05, 60665
-12004.2, 275239, 4.08375, 0.920464, -620.064, 0.63012, 0.32622, 1.03299, 0.34851, 0.655882, 3, 45.5, 246, 10.5984, 0.00375724, 0, 0, 1, 0, 4.83084e-05, 60665
-11112.5, 292495, -1.34416, 0.994914, -688.821, 0.704272, 0.293039, 0.993198, 0.349787, 0.651995, 0.0001, 91, 246, 10.5984, 0.00375724, 0, 0, 1, 0, 4.32313e-05, 60665
-8314.44, 263572, -213.413, 1.49563, -1141.53, 0.388963, 0.42276, 0.993198, 0.349787, 0.651995, 3, 91, 246, 38.3029, 0.180167, 0, 0, 1, 0, 3.39136e-06, 60667
-9853.57, 496210, -308.708, 0.219684, -523.42, 0.637082, 0.507912, 1.03299, 0.34851, 0.655882, 0.0001, 45.5, 246, 28.1704, 0.146046, 0, 0, 1, 0, 2.70724e-05, 60668
-9853.57, 496210, -308.708, 0.219684, -523.42, 0.637082, 0.507912, 1.03299, 0.34851, 0.655882, 3, 45.5, 246, 28.1704, 0.146046, 0, 0, 1, 0, -0.201533, 60668
-7482.94, 551103, -332.797, 0.253336, -659.906, 0.798307, 0.467332, 0.958125, 0.351078, 0.648177, 0.0001, 182, 246, 28.1704, 0.146046, 0, 0, 1, 0, -3.3907e-05, 60668
-2444.25, 58770.3, -194.902, 3.09442, -727.748, 0.0239785, 0.269491, 1.03299, 0.34851, 0.655882, 0.0001, 45.5, 246, 60.3664, 0.185284, 1.5173, 1, 1, 0, 3.90501e-06, 60673
-2444.25, 58770.3, -194.902, 3.09442, -727.748, 0.0239785, 0.269491, 1.03299, 0.34851, 0.655882, 3, 45.5, 246, 60.3664, 0.185284, 1.37648, 1, 1, 0, -7.41489e-06, 60673
-1182.99, 69208.3, -233.258, 3.36557, -751.342, 0.0700723, 0.275488, 0.993198, 0.349787, 0.651995, 0.0001, 91, 246, 60.3664, 0.185284, 1.67868, 1, 1, 0, -3.98122e-06, 60673
-1182.99, 69208.3, -233.258, 3.36557, -751.342, 0.0700723, 0.275488, 0.993198, 0.349787, 0.651995, 3, 91, 246, 60.3664, 0.185284, 1.54915, 1, 1, 0, 7.24485e-06, 60673
542.29, 81077.2, -278.772, 3.68373, -786.852, 0.126029, 0.297726, 0.958125, 0.351078, 0.648177, 0.0001, 182, 246, 60.3664, 0.185284, 2.09453, 1, 1, 1, 4.90626e-06, 60673
542.29, 81077.2, -278.772, 3.68373, -786.852, 0.126029, 0.297726, 0.958125, 0.351078, 0.648177, 3, 182, 246, 60.3664, 0.185284, 1.95976, 1, 1, 1, -3.10403e-06, 60673
-9281.19, 84694.6, -48.7598, 1.9061, -1024.91, 0.26021, 0.313247, 1.03299, 0.34851, 0.655882, 3, 45.5, 246, 24.1957, 0.099297, 0, 0, 1, 0, -5.13334e-06, 60676
-11185.6, 501265, -122.249, 0.573895, -862.84, 0.488587, 0.362988, 1.03299, 0.34851, 0.655882, 0.0001, 45.5, 246, 24.0875, 0.0586896, 0, 0, 1, 0, -7.30172e-06, 60679
-11185.6, 501265, -122.249, 0.573895, -862.84, 0.488587, 0.362988, 1.03299, 0.34851, 0.655882, 3, 45.5, 246, 24.0875, 0.0586896, 0, 0, 1, 0, -3.92544e-05, 60679
-9342.5, 237258, -125.161, 1.0768, -789.371, 0.674167, 0.345183, 0.993198, 0.349787, 0.651995, 0.0001, 91, 246, 25.0643, 0.113806, 0, 0, 1, 0, -6.85186e-05, 60693
-11257.2, 310409, -50.8513, 0.841632, -854.073, 0.0364303, 0.339332, 1.03299, 0.34851, 0.655882, 0.0001, 45.5, 246, 19.2222, 0.0447007, 0, 0, 1, 0, 1.69335e-05, 60694
-11257.2, 310409, -50.8513, 0.841632, -854.073, 0.0364303, 0.339332, 1.03299, 0.34851, 0.655882, 3, 45.5, 246, 19.2222, 0.0447007, 0, 0, 1, 0, 1.97865e-05, 60694
-7101.73, 35778.9, -72.4313, 2.84164, -976.759, -0.0360593, 0.260304, 1.03299, 0.34851, 0.655882, 0.0001, 45.5, 246, 33.814, 0.110709, 0, 0, 1, 0, 1.85921e-05, 60696
-7101.73, 35778.9, -72.4313, 2.84164, -976.759, -0.0360593, 0.260304, 1.03299, 0.34851, 0.655882, 3, 45.5, 246, 33.814, 0.110709, 0, 0, 1, 0, 7.94527e-06, 60696
-5787.49, 69422.9, -141.809, 3.31975, -995.011, 0.0470186, 0.269067, 0.958125, 0.351078, 0.648177, 3, 182, 246, 33.814, 0.110709, 0, 0, 1, 0, -2.9973e-06, 60696
-8376.78, 562228, -345.214, 0.158843, -745.968, 0.611956, 0.526968, 1.03299, 0.34851, 0.655882, 3, 45.5, 246, 32.744, 0.145262, 0, 0, 0, 0, 6.52593e-06, 60700
-5408.2, 109599, -212.725, 3.1798, -1006.75, -0.0269625, 0.327406, 1.03299, 0.34851, 0.655882, 0.0001, 45.5, 246, 53.4776, 0.227414, 1.24661, 1, 1, 0, 1.11931e-05, 60702
-5408.2, 109599, -212.725, 3.1798, -1006.75, -0.0269625, 0.327406, 1.03299, 0.34851, 0.655882, 3, 45.5, 246, 53.4776, 0.227414, 1.01782, 1, 1, 0, 1.19221e-05, 60702
-3298.41, 128428, -262.389, 3.4604, -1026.93, 0.0213795, 0.340103, 0.993198, 0.349787, 0.651995, 0.0001, 91, 246, 53.4776, 0.227414, 1.4177, 1, 1, 0, -1.50495e-05, 60702
-3298.41, 128428, -262.389, 3.4604, -1026.93, 0.0213795, 0.340103, 0.993198, 0.349787, 0.651995, 3, 91, 246, 53.4776, 0.227414, 1.26559, 1, 1, 0, 1.33451e-05, 60702
-395.015, 149282, -321.428, 3.79154, -1062.9, 0.079404, 0.369981, 0.958125, 0.351078, 0.648177, 0.0001, 182, 246, 53.4776, 0.227414, 2.36829, 1, 0, 0, -6.82677e-06, 60702
-395.015, 149282, -321.428, 3.79154, -1062.9, 0.079404, 0.369981, 0.958125, 0.351078, 0.648177, 3, 182, 246, 53.4776, 0.227414, 2.21954, 1, 0, 0, -1.01609e-05, 60702
-11493.6, 326955, -437.7, 3.26685, -609.604, 0.149878, 0.519554, 0.993198, 0.349787, 0.651995, 0.0001, 91, 246, 45.5859, 0.229326, 1.06097, 1, 1, 0, 8.30085e-06, 60703
-4795.04, 340575, -499.2, 3.60917, -669.824, 0.206646, 0.558068, 0.958125, 0.351078, 0.648177, 0.0001, 182, 246, 45.5859, 0.229326, 2.36887, 1, 0, 0, -5.76383e-05, 60703
-4795.04, 340575, -499.2, 3.60917, -669.824, 0.206646, 0.558068, 0.958125, 0.351078, 0.648177, 3, 182, 246, 45.5859, 0.229326, 2.20435, 1, 0, 0, -0.00010082, 60703
-9306.42, 286021, -167.823, 0.850354, -699.728, 0.851835, 0.378973, 0.993198, 0.349787, 0.651995, 0.0001, 91, 246, 26.3298, 0.130484, 0, 0, 1, 0, -3.06807e-07, 60705
-9852.4, 205615, -200.301, 1.57293, -924.355, 0.661795, 0.448282, 1.03299, 0.34851, 0.655882, 3, 45.5, 246, 39.7392, 0.20023, 0, 0, 0, 0, 4.47161e-05, 60709
-8139.09, 231184, -226.962, 1.73049, -1043.13, 0.752454, 0.432827, 0.993198, 0.349787, 0.651995, 3, 91, 246, 39.7392, 0.20023, 0, 0, 1, 0, -2.25487e-05, 60709
571.217, 330902, -378.053, 3.01423, -975.51, 0.153053, 0.434879, 0.9175, 0.352806, 0.64323, 3, 455, 246, 39.1226, 0.179335, 0, 0, 0, 0, 2.5988e-06, 60713
-11211.1, 279079, -138.736, 1.31362, -1051.61, 0.495661, 0.376478, 1.03299, 0.34851, 0.655882, 0.0001, 45.5, 246, 30.9203, 0.113512, 0, 0, 0, 0, 2.25739e-05, 60719
-7376.94, 344097, -183.924, 1.54153, -1263.79, 0.608916, 0.332401, 0.958125, 0.351078, 0.648177, 3, 182, 246, 30.9203, 0.113512, 0, 0, 0, 0, 4.18108e-06, 60719
-11678.9, 267421, -299.197, 2.02505, -791.682, -0.0152889, 0.538426, 1.03299, 0.34851, 0.655882, 0.0001, 45.5, 246, 46.2042, 0.243055, 0, 0, 0, 0, -6.75551e-06, 60720
-11678.9, 267421, -299.197, 2.02505, -791.682, -0.0152889, 0.538426, 1.03299, 0.34851, 0.655882, 3, 45.5, 246, 46.2042, 0.243055, 0, 0, 0, 0, -6.44398e-06, 60720
-8653.4, 823863, -144.993, 0.162967, -723.032, 0.609137, 0.327149, 0.993198, 0.349787, 0.651995, 0.0001, 91, 246, 19.961, 0.0408675, 0, 0, 1, 0, 0.000120565, 60733
-8478.75, 76157.2, -102.205, 3.39443, -518.098, -0.0141903, 0.188548, 1.03299, 0.34851, 0.655882, 0.0001, 45.5, 246, 28.3144, 0.091083, 0, 0, 1, 0, -3.06796e-06, 60737
-8478.75, 76157.2, -102.205, 3.39443, -518.098, -0.0141903, 0.188548, 1.03299, 0.34851, 0.655882, 3, 45.5, 246, 28.3144, 0.091083, 0, 0, 1, 0, -2.60979e-06, 60737
-7323.85, 80759.5, -128.255, 3.6981, -529.881, 0.0409827, 0.199202, 0.993198, 0.349787, 0.651995, 0.0001, 91, 246, 28.3144, 0.091083, 0, 0, 1, 0, -1.30569e-05, 60737
-7323.85, 80759.5, -128.255, 3.6981, -529.881, 0.0409827, 0.199202, 0.993198, 0.349787, 0.651995, 3, 91, 246, 28.3144, 0.091083, 0, 0, 1, 0, 9.00986e-06, 60737
-9897.72, 145507, -133.155, 2.71549, -1058.86, 0.15426, 0.30134, 1.03299, 0.34851, 0.655882, 0.0001, 45.5, 246, 36.144, 0.14755, 0, 0, 0, 0, 7.30643e-06, 60741
-9897.72, 145507, -133.155, 2.71549, -1058.86, 0.15426, 0.30134, 1.03299, 0.34851, 0.655882, 3, 45.5, 246, 36.144, 0.14755, 0, 0, 0, 0, 9.59523e-06, 60741
-9384.03, 487157, -487.612, 0.0461617, -764.649, 0.647071, 0.784333, 1.03299, 0.34851, 0.655882, 3, 45.5, 246, 44.0528, 0.246191, 0, 0, 0, 0, 6.80928e-05, 60752
-7429.15, 521059, -507.525, 0.0497718, -852.402, 0.72078, 0.791746, 0.993198, 0.349787, 0.651995, 3, 91, 246, 44.0528, 0.246191, 0, 0, 1, 0, 6.33923e-06, 60752
-10498.1, 539605, -184.493, 0.485917, -780.052, 0.0233596, 0.399237, 1.03299, 0.34851, 0.655882, 0.0001, 45.5, 246, 26.1242, 0.0884356, 0, 0, 0, 0, -3.40475e-05, 60754
-10498.1, 539605, -184.493, 0.485917, -780.052, 0.0233596, 0.399237, 1.03299, 0.34851, 0.655882, 3, 45.5, 246, 26.1242, 0.0884356, 0, 0, 0, 0, -2.80791e-05, 60754
-9412.93, 457732, -407.829, 0.0285791, -630.107, 0.000143167, 0.710839, 1.03299, 0.34851, 0.655882, 0.0001, 45.5, 246, 40.4745, 0.243147, 0, 0, 0, 0, -0.00103746, 60762
-8158.22, 467738, -423.349, 0.0296554, -630.441, 0.000146893, 0.70934, 0.993198, 0.349787, 0.651995, 0.0001, 91, 246, 40.4745, 0.243147, 0, 0, 1, 0, -0.000308877, 60762
-9980.63, 160603, -186.768, 2.02264, -523.199, 0.762125, 0.379648, 1.03299, 0.34851, 0.655882, 0.0001, 45.5, 246, 35.369, 0.178351, 0, 0, 1, 0, -1.03533e-05, 60763
-9980.63, 160603, -186.768, 2.02264, -523.199, 0.762125, 0.379648, 1.03299, 0.34851, 0.655882, 3, 45.5, 246, 35.369, 0.178351, 0, 0, 1, 0, 4.90888e-06, 60763
-7630.32, 374000, -247.137, 0.691343, -1075.18, 0.0261811, 0.461518, 0.993198, 0.349787, 0.651995, 0.0001, 91, 246, 37.665, 0.168858, 0, 0, 1, 0, -5.13257e-06, 60768
-6325.1, 326940, -451.336, 3.93422, -573.068, 0.390895, 0.454418, 0.958125, 0.351078, 0.648177, 0.0001, 182, 246, 39.8066, 0.196738, 1.44819, 1, 0, 0, 8.86547e-06, 60769
-6325.1, 326940, -451.336, 3.93422, -573.068, 0.390895, 0.454418, 0.958125, 0.351078, 0.648177, 3, 182, 246, 39.8066, 0.196738, 1.28275, 1, 0, 0, -6.53414e-05, 60769
-10776.8, 307324, -78.1895, 0.783879, -858.843, 0.441041, 0.350557, 1.03299, 0.34851, 0.655882, 0.0001, 45.5, 246, 21.81, 0.0620803, 0, 0, 1, 0, -3.10593e-05, 60775
-9860.65, 328931, -87.909, 0.836465, -925.232, 0.477178, 0.317944, 0.993198, 0.349787, 0.651995, 0.0001, 91, 246, 21.81, 0.0620803, 0, 0, 1, 0, -7.44711e-05, 60775
-6439.02, 933098, -391.235, 0.0388445, -864.079, 0.35958, 0.485966, 1.03299, 0.34851, 0.655882, 0.0001, 45.5, 246, 32.3683, 0.100904, 0, 0, 0, 0, 8.88555e-05, 60778
-6439.02, 933098, -391.235, 0.0388445, -864.079, 0.35958, 0.485966, 1.03299, 0.34851, 0.655882, 3, 45.5, 246, 32.3683, 0.100904, 0, 0, 0, 0, 7.41492e-05, 60778
-7398.39, 865027, -172.556, 0.183974, -1012.31, 9.60806e-07, 0.337629, 0.993198, 0.349787, 0.651995, 0.0001, 91, 246, 28.5355, 0.0499884, 0, 0, 1, 0, 0.000371822, 60780
-6581.74, 883558, -179.078, 0.189136, -1013.19, 0.000153777, 0.307991, 0.958125, 0.351078, 0.648177, 0.0001, 182, 246, 28.5355, 0.0499884, 0, 0, 1, 0, -0.000186169, 60780
638.614, 258353, -355.614, 4.31226, -778.285, 0.173765, 0.370974, 0.9175, 0.352806, 0.64323, 0.0001, 455, 246, 34.5536, 0.147477, 1.18105, 1, 0, 0, -1.62867e-06, 60788
638.614, 258353, -355.614, 4.31226, -778.285, 0.173765, 0.370974, 0.9175, 0.352806, 0.64323, 3, 455, 246, 34.5536, 0.147477, 1.25582, 1, 0, 0, -4.19412e-06, 60788
-3701.23, 416439, -524.436, 3.20878, -990.692, 0.0538054, 0.621832, 0.958125, 0.351078, 0.648177, 3, 182, 246, 49.5308, 0.233046, 0, 0, 0, 0, -7.59407e-06, 60801
-11582.4, 112393, 4.69877, 2.87388, -629.072, -0.03927, 0.21404, 1.03299, 0.34851, 0.655882, 0.0001, 45.5, 246, 9.98112, 0.021191, 0, 0, 1, 0, -1.16223e-05, 60802
-11582.4, 112393, 4.69877, 2.87388, -629.072, -0.03927, 0.21404, 1.03299, 0.34851, 0.655882, 3, 45.5, 246, 9.98112, 0.021191, 0, 0, 1, 0, 3.2068e-06, 60802
-10003.3, 452680, -247.238, 0.453939, -685.332, 0.0458693, 0.469723, 1.03299, 0.34851, 0.655882, 0.0001, 45.5, 246, 29.9693, 0.141542, 0, 0, 0, 0, -2.46989e-05, 60805
-10003.3, 452680, -247.238, 0.453939, -685.332, 0.0458693, 0.469723, 1.03299, 0.34851, 0.655882, 3, 45.5, 246, 29.9693, 0.141542, 0, 0, 0, 0, -3.05057e-05, 60805
-8788.56, 463197, -259.652, 0.472643, -693.491, 0.0471535, 0.444658, 0.993198, 0.349787, 0.651995, 3, 91, 246, 29.9693, 0.141542, 0, 0, 1, 0, 8.8859e-07, 60805
-10756.9, 358303, -201.605, 0.694061, -645.364, 0.814202, 0.428067, 1.03299, 0.34851, 0.655882, 3, 45.5, 246, 27.3282, 0.125678, 0, 0, 1, 0, 4.46605e-05, 60807
-9487.33, 384441, -214.629, 0.757427, -745.06, 0.937079, 0.40089, 0.993198, 0.349787, 0.651995, 3, 91, 246, 27.3282, 0.125678, 0, 0, 1, 0, 8.17401e-05, 60807
-8987.37, 221882, -74.9017, 2.20699, -922.724, 0.028042, 0.257033, 0.958125, 0.351078, 0.648177, 0.0001, 182, 246, 19.2624, 0.0521604, 0, 0, 1, 0, 1.03319e-05, 60809
55.7957, 255633, -283.949, 4.73024, -1575.42, 0.892975, 0.32156, 0.9175, 0.352806, 0.64323, 3, 455, 246, 29.8547, 0.0999253, 1.02167, 1, 0, 0, -5.31734e-06, 60812
-10992.5, 140611, -41.4615, 2.16647, -1072.15, -0.00631186, 0.288144, 1.03299, 0.34851, 0.655882, 0.0001, 45.5, 246, 22.4491, 0.072132, 0, 0, 1, 0, 1.92429e-06, 60823
-10992.5, 140611, -41.4615, 2.16647, -1072.15, -0.00631186, 0.288144, 1.03299, 0.34851, 0.655882, 3, 45.5, 246, 22.4491, 0.072132, 0, 0, 1, 0, 3.70698e-06, 60823
-11109.2, 360162, -272.951, 1.36026, -1162.16, 0.0345075, 0.512182, 1.03299, 0.34851, 0.655882, 0.0001, 45.5, 246, 42.7668, 0.187856, 0, 0, 0, 0, -1.54358e-05, 60828
-11109.2, 360162, -272.951, 1.36026, -1162.16, 0.0345075, 0.512182, 1.03299, 0.34851, 0.655882, 3, 45.5, 246, 42.7668, 0.187856, 0, 0, 0, 0, 1.36519e-05, 60828
-10243.8, 320889, -242.692, 0.64087, -618.604, 0.737619, 0.491095, 1.03299, 0.34851, 0.655882, 0.0001, 45.5, 246, 32.0816, 0.1733, 0, 0, 1, 0, -3.3909e-05, 60834
-10243.8, 320889, -242.692, 0.64087, -618.604, 0.737619, 0.491095, 1.03299, 0.34851, 0.655882, 3, 45.5, 246, 32.0816, 0.1733, 0, 0, 1, 0, -6.3279e-05, 60834
-9016.19, 343260, -257.087, 0.696672, -705.016, 0.837161, 0.468983, 0.993198, 0.349787, 0.651995, 0.0001, 91, 246, 32.0816, 0.1733, 0, 0, 1, 0, -9.41907e-05, 60834
-7492.12, 371429, -272.742, 0.760877, -818.116, 0.96748, 0.451546, 0.958125, 0.351078, 0.648177, 0.0001, 182, 246, 32.0816, 0.1733, 0, 0, 1, 0, -3.95296e-05, 60834
-8752.97, 54897.5, -22.2506, 0.355703, -771.211, 0.025382, 0.350177, 1.03299, 0.34851, 0.655882, 0.0001, 45.5, 246, 15.4574, 0.11068, 0, 0, 1, 0, 3.87125e-05, 60838
-8752.97, 54897.5, -22.2506, 0.355703, -771.211, 0.025382, 0.350177, 1.03299, 0.34851, 0.655882, 3, 45.5, 246, 15.4574, 0.11068, 0, 0, 1, 0, -2.0888e-05, 60838
-1610.46, 116197, -261.447, 3.70384, -869.783, 0.120213, 0.333631, 0.9175, 0.352806, 0.64323, 0.0001, 455, 246, 41.4132, 0.161524, 1.33345, 1, 1, 0, -1.66235e-05, 60850
-1610.46, 116197, -261.447, 3.70384, -869.783, 0.120213, 0.333631, 0.9175, 0.352806, 0.64323, 3, 455, 246, 41.4132, 0.161524, 1.31833, 1, 1, 0, -3.50986e-06, 60850
-11083.9, 223643, -102.765, 1.35095, -718.151, -0.00817857, 0.355277, 1.03299, 0.34851, 0.655882, 0.0001, 45.5, 246, 24.365, 0.106584, 0, 0, 1, 0, -3.5236e-06, 60855
-11083.9, 223643, -102.765, 1.35095, -718.151, -0.00817857, 0.355277, 1.03299, 0.34851, 0.655882, 3, 45.5, 246, 24.365, 0.106584, 0, 0, 1, 0, 3.70877e-05, 60855
-9870.8, 232648, -117.134, 1.42146, -721.705, 0.000259077, 0.328762, 0.993198, 0.349787, 0.651995, 0.0001, 91, 246, 24.365, 0.106584, 0, 0, 1, 0, 3.33491e-06, 60855
-5548.73, 741736, -406.686, 0.00452777, -968.842, 0.322549, 0.543294, 1.03299, 0.34851, 0.655882, 0.0001, 45.5, 246, 37.0927, 0.134706, 4.7727, 1, 0, 0, 1546.42, 60857
-5548.73, 741736, -406.686, 0.00452777, -968.842, 0.322549, 0.543294, 1.03299, 0.34851, 0.655882, 3, 45.5, 246, 37.0927, 0.134706, 4.75995, 1, 0, 0, 1553.07, 60857
-4770.78, 299809, -426.142, 2.94271, -681, 0.0589554, 0.54738, 0.958125, 0.351078, 0.648177, 0.0001, 182, 246, 45.6784, 0.237365, 1.00496, 1, 0, 0, 1.26392e-06, 60865
-5275.79, 107669, -242.314, 3.34613, -534.723, -0.00959353, 0.281365, 1.03299, 0.34851, 0.655882, 0.0001, 45.5, 246, 51.0866, 0.199432, 1.50135, 1, 1, 0, -1.17972e-05, 60869
-5275.79, 107669, -242.314, 3.34613, -534.723, -0.00959353, 0.281365, 1.03299, 0.34851, 0.655882, 3, 45.5, 246, 51.0866, 0.199432, 1.41622, 1, 1, 0, -1.47173e-05, 60869
-3082.47, 113958, -281.774, 3.65233, -560.26, 0.0441408, 0.296336, 0.993198, 0.349787, 0.651995, 0.0001, 91, 246, 51.0866, 0.199432, 1.6147, 1, 1, 0, 9.84148e-06, 60869
-3082.47, 113958, -281.774, 3.65233, -560.26, 0.0441408, 0.296336, 0.993198, 0.349787, 0.651995, 3, 91, 246, 51.0866, 0.199432, 1.50476, 1, 1, 0, 5.85134e-06, 60869
-328.805, 121812, -329.06, 4.01762, -597.964, 0.109511, 0.330227, 0.958125, 0.351078, 0.648177, 0.0001, 182, 246, 51.0866, 0.199432, 2.02621, 1, 1, 1, 1.42401e-05, 60869
-328.805, 121812, -329.06, 4.01762, -597.964, 0.109511, 0.330227, 0.958125, 0.351078, 0.648177, 3, 182, 246, 51.0866, 0.199432, 1.90107, 1, 1, 1, -1.33015e-06, 60869
-8554.86, 844404, -220.923, 0.23374, -953.529, 0.0536519, 0.395271, 1.03299, 0.34851, 0.655882, 0.0001, 45.5, 246, 29.3989, 0.0666335, 0, 0, 0, 0, -1.40233e-05, 60871
-8554.86, 844404, -220.923, 0.23374, -953.529, 0.0536519, 0.395271, 1.03299, 0.34851, 0.655882, 3, 45.5, 246, 29.3989, 0.0666335, 0, 0, 0, 0, -5.1046e-05, 60871
-7355.95, 534234, -241.542, 0.272032, -882.109, 0.0410807, 0.412558, 0.993198, 0.349787, 0.651995, 0.0001, 91, 246, 30.6486, 0.115344, 0, 0, 1, 0, 3.3094e-05, 60873
-6345.58, 550229, -251.406, 0.281293, -889.698, 0.0416874, 0.388532, 0.958125, 0.351078, 0.648177, 0.0001, 182, 246, 30.6486, 0.115344, 0, 0, 0, 0, 1.44049e-05, 60873
-3474.67, 139739, -269.726, 4.26464, -693.671, 0.224862, 0.272622, 0.958125, 0.351078, 0.648177, 0.0001, 182, 246, 39.188, 0.148616, 1.07078, 1, 1, 0, -5.31336e-07, 60877
1565.35, 157482, -351.37, 4.9882, -788.29, 0.366267, 0.363532, 0.9175, 0.352806, 0.64323, 0.0001, 455, 246, 39.188, 0.148616, 2.19666, 1, 0, 0, -8.2771e-06, 60877
1565.35, 157482, -351.37, 4.9882, -788.29, 0.366267, 0.363532, 0.9175, 0.352806, 0.64323, 3, 455, 246, 39.188, 0.148616, 2.19848, 1, 0, 0, 6.24876e-06, 60877
-8701.89, 1.52129e+06, -316.423, 0.0300677, -519.224, 0.0223276, 0.402837, 1.03299, 0.34851, 0.655882, 0.0001, 45.5, 246, 20.2905, 0.0529284, 0, 0, 0, 0, -7.66897e-05, 60888
-8701.89, 1.52129e+06, -316.423, 0.0300677, -519.224, 0.0223276, 0.402837, 1.03299, 0.34851, 0.655882, 3, 45.5, 246, 20.2905, 0.0529284, 0, 0, 0, 0, -0.000226243, 60888
-1089.08, 141062, -292.941, 3.06263, -735.343, 0.109734, 0.391776, 0.9175, 0.352806, 0.64323, 0.0001, 455, 246, 46.1336, 0.223152, 1.47024, 1, 0, 0, 4.7311e-06, 60901
-1089.08, 141062, -292.941, 3.06263, -735.343, 0.109734, 0.391776, 0.9175, 0.352806, 0.64323, 3, 455, 246, 46.1336, 0.223152, 1.47262, 1, 0, 0, -3.82996e-07, 60901
-9815.88, 514325, -131.523, 0.418712, -919.043, 0.00214714, 0.371624, 1.03299, 0.34851, 0.655882, 0.0001, 45.5, 246, 25.5641, 0.0661943, 0, 0, 1, 0, 6.67941e-05, 60902
-9815.88, 514325, -131.523, 0.418712, -919.043, 0.00214714, 0.371624, 1.03299, 0.34851, 0.655882, 3, 45.5, 246, 25.5641, 0.0661943, 0, 0, 1, 0, -7.6215e-06, 60902
-8932.67, 529508, -139.652, 0.433503, -920.934, 0.00294541, 0.338423, 0.993198, 0.349787, 0.651995, 0.0001, 91, 246, 25.5641, 0.0661943, 0, 0, 1, 0, 3.0023e-05, 60902
-7918.4, 544826, -147.84, 0.447751, -923.093, 0.00379966, 0.309562, 0.958125, 0.351078, 0.648177, 0.0001, 182, 246, 25.5641, 0.0661943, 0, 0, 1, 0, -5.70305e-07, 60902
-11211.1, 424065, -339.476, 1.0751, -1052.03, 0.0488887, 0.589411, 1.03299, 0.34851, 0.655882, 0.0001, 45.5, 246, 44.0339, 0.204698, 0, 0, 0, 0, 1.00788e-05, 60903
-4590.82, 443540, -559.579, 2.97883, -897.536, 0.0360342, 0.689822, 0.958125, 0.351078, 0.648177, 3, 182, 246, 49.4089, 0.242699, 1.02329, 1, 0, 0, 1.32544e-05, 60907
-3192.07, 202599, -313.096, 4.45764, -1020.73, 0.810897, 0.294435, 0.958125, 0.351078, 0.648177, 0.0001, 182, 246, 39.8052, 0.15452, 1.28879, 1, 0, 0, 1.66089e-05, 60918
-3192.07, 202599, -313.096, 4.45764, -1020.73, 0.810897, 0.294435, 0.958125, 0.351078, 0.648177, 3, 182, 246, 39.8052, 0.15452, 1.07338, 1, 0, 0, -8.92484e-05, 60918
-12470.2, 598940, -59.4165, 0.48667, -546.531, 0.274772, 0.342083, 1.03299, 0.34851, 0.655882, 0.0001, 45.5, 246, 14.5387, 0.0253179, 0, 0, 1, 0, -6.56273e-05, 60923
-12074, 153047, -62.0426, 3.03861, -1098.25, -0.0390683, 0.222403, 1.03299, 0.34851, 0.655882, 0.0001, 45.5, 246, 26.3488, 0.0833465, 0, 0, 0, 0, -1.45758e-05, 60927
-12074, 153047, -62.0426, 3.03861, -1098.25, -0.0390683, 0.222403, 1.03299, 0.34851, 0.655882, 3, 45.5, 246, 26.3488, 0.0833465, 0, 0, 0, 0, -1.39445e-05, 60927
-11332.2, 196174, -102.638, 2.05034, -1126.59, 0.0955011, 0.326243, 1.03299, 0.34851, 0.655882, 0.0001, 45.5, 246, 30.4159, 0.112995, 0, 0, 0, 0, 7.28197e-06, 60934
-11332.2, 196174, -102.638, 2.05034, -1126.59, 0.0955011, 0.326243, 1.03299, 0.34851, 0.655882, 3, 45.5, 246, 30.4159, 0.112995, 0, 0, 0, 0, -8.83657e-06, 60934
-9969.49, 211800, -30.8942, 2.5765, -551.085, 0.0432251, 0.234632, 0.958125, 0.351078, 0.648177, 3, 182, 246, 10.2953, 0.0187085, 0, 0, 1, 0, -1.38574e-05, 60936
-7888.77, 160260, -266.647, 3.65112, -776.126, -0.064471, 0.286968, 1.03299, 0.34851, 0.655882, 0.0001, 45.5, 246, 49.8398, 0.205908, 1.29789, 1, 0, 0, 2.48212e-06, 60939
-7888.77, 160260, -266.647, 3.65112, -776.126, -0.064471, 0.286968, 1.03299, 0.34851, 0.655882, 3, 45.5, 246, 49.8398, 0.205908, 1.20349, 1, 0, 0, -1.36528e-05, 60939
-4512.27, 171951, -320.201, 3.99868, -801.49, -0.000157044, 0.313096, 0.993198, 0.349787, 0.651995, 0.0001, 91, 246, 49.8398, 0.205908, 1.5566, 1, 1, 0, 9.88335e-06, 60939
-4512.27, 171951, -320.201, 3.99868, -801.49, -0.000157044, 0.313096, 0.993198, 0.349787, 0.651995, 3, 91, 246, 49.8398, 0.205908, 1.44304, 1, 1, 0, 8.26338e-06, 60939
-184.139, 186163, -385.203, 4.42139, -845.366, 0.0777346, 0.361735, 0.958125, 0.351078, 0.648177, 0.0001, 182, 246, 49.8398, 0.205908, 3.14258, 1, 0, 0, 9.57217e-06, 60939
-184.139, 186163, -385.203, 4.42139, -845.366, 0.0777346, 0.361735, 0.958125, 0.351078, 0.648177, 3, 182, 246, 49.8398, 0.205908, 2.9295, 1, 0, 0, -8.22614e-06, 60939
-10238.8, 403064, -275.069, 0.646267, -790.402, 0.0102545, 0.519333, 1.03299, 0.34851, 0.655882, 0.0001, 45.5, 246, 35.6589, 0.177562, 0, 0, 0, 0, 5.26671e-07, 60950
-9356.4, 160104, -182.295, 1.84713, -695.735, 0.226971, 0.417516, 1.03299, 0.34851, 0.655882, 3, 45.5, 246, 39.5793, 0.210459, 0, 0, 1, 0, 4.0389e-06, 60951
-7877.18, 171507, -206.392, 1.99066, -732.532, 0.252173, 0.403855, 0.993198, 0.349787, 0.651995, 0.0001, 91, 246, 39.5793, 0.210459, 0, 0, 1, 0, -1.43028e-05, 60951
-10117.9, 734350, -134.151, 0.297257, -879.691, 0.665768, 0.360336, 1.03299, 0.34851, 0.655882, 0.0001, 45.5, 246, 24.5392, 0.0417477, 0, 0, 1, 0, -1.52385e-05, 60956
-10117.9, 734350, -134.151, 0.297257, -879.691, 0.665768, 0.360336, 1.03299, 0.34851, 0.655882, 3, 45.5, 246, 24.5392, 0.0417477, 0, 0, 1, 0, 1.91286e-05, 60956
-10410.6, 383611, -132.557, 0.574316, -710.671, 0.455406, 0.377533, 1.03299, 0.34851, 0.655882, 0.0001, 45.5, 246, 23.0112, 0.0828864, 0, 0, 1, 0, 2.07788e-05, 60968
-10410.6, 383611, -132.557, 0.574316, -710.671, 0.455406, 0.377533, 1.03299, 0.34851, 0.655882, 3, 45.5, 246, 23.0112, 0.0828864, 0, 0, 1, 0, 4.25828e-05, 60968
-9494.63, 403229, -141.563, 0.611427, -768.095, 0.492382, 0.345553, 0.993198, 0.349787, 0.651995, 0.0001, 91, 246, 23.0112, 0.0828864, 0, 0, 1, 0, -7.87981e-05, 60968
-16427.1, 404715, -489.051, 3.74644, -564.079, 0.0602078, 0.494305, 0.993198, 0.349787, 0.651995, 0.0001, 91, 246, 43.1739, 0.212814, 1.1599, 1, 1, 0, -2.45562e-05, 60981
-16427.1, 404715, -489.051, 3.74644, -564.079, 0.0602078, 0.494305, 0.993198, 0.349787, 0.651995, 3, 91, 246, 43.1739, 0.212814, 1.09172, 1, 1, 0, -8.73842e-05, 60981
-7260.28, 416950, -561.462, 4.15605, -627.434, 0.130008, 0.54781, 0.958125, 0.351078, 0.648177, 3, 182, 246, 43.1739, 0.212814, 0, 0, 0, 0, 132.677, 60981
-7541.77, 582496, -370.397, 0.252235, -1003.81, 0.567128, 0.550477, 1.03299, 0.34851, 0.655882, 3, 45.5, 246, 38.5549, 0.151865, 0, 0, 0, 0, 1.05856e-05, 60983
-10724.1, 484746, -88.162, 0.569973, -1168.93, 0.0415184, 0.352583, 1.03299, 0.34851, 0.655882, 0.0001, 45.5, 246, 27.1478, 0.047703, 0, 0, 1, 0, -2.20397e-05, 60990
-10724.1, 484746, -88.162, 0.569973, -1168.93, 0.0415184, 0.352583, 1.03299, 0.34851, 0.655882, 3, 45.5, 246, 27.1478, 0.047703, 0, 0, 1, 0, 6.80755e-06, 60990
-10733.7, 290367, -70.1629, 0.828249, -858.651, 0.00292635, 0.348428, 1.03299, 0.34851, 0.655882, 0.0001, 45.5, 246, 21.1564, 0.063018, 0, 0, 1, 0, -1.38089e-05, 60991
-9855.48, 303361, -79.6407, 0.863418, -860.927, 0.00607062, 0.315931, 0.993198, 0.349787, 0.651995, 0.0001, 91, 246, 21.1564, 0.063018, 0, 0, 1, 0, 2.92703e-05, 60991
-10633.2, 320023, -16.959, 1.8577, -917.88, 0.354023, 0.250209, 0.958125, 0.351078, 0.648177, 3, 182, 246, 13.9722, 0.00728907, 0, 0, 1, 0, -2.75e-05, 60994
-10485, 746932, -121.475, 0.289471, -723.427, 0.0432888, 0.358549, 1.03299, 0.34851, 0.655882, 0.0001, 45.5, 246, 20.9239, 0.0419386, 0, 0, 1, 0, -3.13523e-05, 60999
-10485, 746932, -121.475, 0.289471, -723.427, 0.0432888, 0.358549, 1.03299, 0.34851, 0.655882, 3, 45.5, 246, 20.9239, 0.0419386, 0, 0, 1, 0, 3.6617e-05, 60999
-9645.77, 758145, -127.322, 0.299545, -729.4, 0.0439704, 0.323938, 0.993198, 0.349787, 0.651995, 3, 91, 246, 20.9239, 0.0419386, 0, 0, 1, 0, 1.71136e-05, 60999
-8696.97, 769597, -133.102, 0.309193, -735.575, 0.0446876, 0.293642, 0.958125, 0.351078, 0.648177, 3, 182, 246, 20.9239, 0.0419386, 0, 0, 1, 0, 3.78549e-05, 60999
