-9898.7, 149049, -175.874, 3.26541, -756.748, -0.0337316, 0.257302, 1.03299, 0.34851, 0.655882, 0.0001, 45.5, 246, 38.1238, 0.154888, 0, 0, 0, 0, -8.44982e-06, 98502
-9898.7, 149049, -175.874, 3.26541, -756.748, -0.0337316, 0.257302, 1.03299, 0.34851, 0.655882, 3, 45.5, 246, 38.1238, 0.154888, 0, 0, 0, 0, -5.38576e-06, 98502
927.893, 190862, -340.042, 4.45365, -868.049, 0.182327, 0.36511, 0.9175, 0.352806, 0.64323, 0.0001, 455, 246, 38.1238, 0.154888, 2.09261, 1, 0, 0, -7.27946e-06, 98502
927.893, 190862, -340.042, 4.45365, -868.049, 0.182327, 0.36511, 0.9175, 0.352806, 0.64323, 3, 455, 246, 38.1238, 0.154888, 2.10428, 1, 0, 0, -6.2586e-06, 98502
-9958.62, 135847, -128.527, 2.79156, -811.072, -0.032472, 0.281963, 1.03299, 0.34851, 0.655882, 0.0001, 45.5, 246, 33.3086, 0.137661, 0, 0, 1, 0, 6.07292e-06, 98508
-9958.62, 135847, -128.527, 2.79156, -811.072, -0.032472, 0.281963, 1.03299, 0.34851, 0.655882, 3, 45.5, 246, 33.3086, 0.137661, 0, 0, 1, 0, -1.21452e-05, 98508
-10910.8, 126685, -45.245, 2.24479, -604.238, 0.0760595, 0.276524, 1.03299, 0.34851, 0.655882, 3, 45.5, 246, 17.3772, 0.0638153, 0, 0, 1, 0, -3.41019e-06, 98510
-9816.25, 133445, -61.175, 2.40823, -615.995, 0.101039, 0.260315, 0.993198, 0.349787, 0.651995, 0.0001, 91, 246, 17.3772, 0.0638153, 0, 0, 1, 0, 9.02287e-07, 98510
-12287.5, 188591, -112.8, 2.97657, -1187.77, -0.0368601, 0.258177, 1.03299, 0.34851, 0.655882, 0.0001, 45.5, 246, 33.0948, 0.116079, 0, 0, 0, 0, -1.24765e-07, 98514
-12287.5, 188591, -112.8, 2.97657, -1187.77, -0.0368601, 0.258177, 1.03299, 0.34851, 0.655882, 3, 45.5, 246, 33.0948, 0.116079, 0, 0, 0, 0, -6.64018e-06, 98514
-9671.97, 213032, -155.704, 3.21811, -1195.63, 0.00526266, 0.259652, 0.993198, 0.349787, 0.651995, 0.0001, 91, 246, 33.0948, 0.116079, 0, 0, 1, 0, 1.30681e-05, 98514
-9671.97, 213032, -155.704, 3.21811, -1195.63, 0.00526266, 0.259652, 0.993198, 0.349787, 0.651995, 3, 91, 246, 33.0948, 0.116079, 0, 0, 1, 0, 4.87423e-06, 98514
-11845.8, 143481, -4.41492, 2.0917, -680.637, 0.681512, 0.271122, 1.03299, 0.34851, 0.655882, 0.0001, 45.5, 246, 12.2104, 0.0246745, 0, 0, 1, 0, -2.47595e-05, 98521
-8880.95, 422343, -364.677, 0.492609, -984.329, 0.696804, 0.621594, 1.03299, 0.34851, 0.655882, 0.0001, 45.5, 246, 42.844, 0.20727, 0, 0, 0, 0, -1.69077e-05, 98524
-8880.95, 422343, -364.677, 0.492609, -984.329, 0.696804, 0.621594, 1.03299, 0.34851, 0.655882, 3, 45.5, 246, 42.844, 0.20727, 0, 0, 0, 0, -1.24216e-05, 98524
-4824.46, 74072.3, -172.505, 3.23403, -900.359, 0.031939, 0.264687, 1.03299, 0.34851, 0.655882, 0.0001, 45.5, 246, 50.3686, 0.181409, 1.21522, 1, 1, 0, -8.68228e-07, 98527
-3386.31, 89337.3, -215.846, 3.52835, -925.756, 0.0825757, 0.274875, 0.993198, 0.349787, 0.651995, 0.0001, 91, 246, 50.3686, 0.181409, 1.31712, 1, 1, 0, -7.50027e-07, 98527
-3386.31, 89337.3, -215.846, 3.52835, -925.756, 0.0825757, 0.274875, 0.993198, 0.349787, 0.651995, 3, 91, 246, 50.3686, 0.181409, 1.12853, 1, 1, 0, -5.47928e-06, 98527
-1343.58, 106453, -267.838, 3.87731, -966.088, 0.14468, 0.302871, 0.958125, 0.351078, 0.648177, 0.0001, 182, 246, 50.3686, 0.181409, 1.73533, 1, 1, 0, 2.06835e-05, 98527
-1343.58, 106453, -267.838, 3.87731, -966.088, 0.14468, 0.302871, 0.958125, 0.351078, 0.648177, 3, 182, 246, 50.3686, 0.181409, 1.59094, 1, 1, 0, 1.64782e-05, 98527
-9463.73, 753483, -145.032, 0.222974, -792.798, 0.653584, 0.363759, 1.03299, 0.34851, 0.655882, 0.0001, 45.5, 246, 23.072, 0.0438083, 0, 0, 1, 0, -0.000261856, 98539
-9463.73, 753483, -145.032, 0.222974, -792.798, 0.653584, 0.363759, 1.03299, 0.34851, 0.655882, 3, 45.5, 246, 23.072, 0.0438083, 0, 0, 1, 0, 1.68549e-05, 98539
-8733.07, 794269, -151.309, 0.23849, -885.075, 0.72912, 0.329383, 0.993198, 0.349787, 0.651995, 0.0001, 91, 246, 23.072, 0.0438083, 0, 0, 1, 0, -0.000130584, 98539
-9764.74, 729284, -270.824, 0.171216, -519.964, 0.000133968, 0.437658, 1.03299, 0.34851, 0.655882, 0.0001, 45.5, 246, 23.0901, 0.0964215, 0, 0, 1, 0, -1.12446e-05, 98540
-9764.74, 729284, -270.824, 0.171216, -519.964, 0.000133968, 0.437658, 1.03299, 0.34851, 0.655882, 3, 45.5, 246, 23.0901, 0.0964215, 0, 0, 1, 0, 4.33127e-05, 98540
-8807.09, 735357, -280.426, 0.176777, -521.244, 0.000266911, 0.409016, 0.993198, 0.349787, 0.651995, 3, 91, 246, 23.0901, 0.0964215, 0, 0, 1, 0, 9.41505e-05, 98540
-6531.16, -84460.7, 17.5526, 3.13981, -700.512, -0.0471975, 0.264163, 1.03299, 0.34851, 0.655882, 0.0001, 45.5, 246, 2.27791, 0.11859, 0, 0, 1, 0, 1.06189e-05, 98542
-6531.16, -84460.7, 17.5526, 3.13981, -700.512, -0.0471975, 0.264163, 1.03299, 0.34851, 0.655882, 3, 45.5, 246, 2.27791, 0.11859, 0, 0, 1, 0, 1.89738e-05, 98542
-9706.24, 735493, -401.627, 0.0454843, -523.357, 0.0813406, 0.548995, 1.03299, 0.34851, 0.655882, 0.0001, 45.5, 246, 28.5067, 0.140671, 0, 0, 0, 0, 2.38772e-05, 98551
-9706.24, 735493, -401.627, 0.0454843, -523.357, 0.0813406, 0.548995, 1.03299, 0.34851, 0.655882, 3, 45.5, 246, 28.5067, 0.140671, 0, 0, 0, 0, -9.46044e-05, 98551
-7148.19, 435689, -265.039, 0.428905, -1034.68, 0.227142, 0.463092, 0.993198, 0.349787, 0.651995, 0.0001, 91, 246, 36.0613, 0.155131, 0, 0, 1, 0, 3.3967e-06, 98552
-5814.84, 461970, -278.772, 0.449882, -1076.47, 0.236478, 0.443627, 0.958125, 0.351078, 0.648177, 0.0001, 182, 246, 36.0613, 0.155131, 0, 0, 0, 0, 2.90078e-05, 98552
-9849.22, 177932, -302.712, 2.99433, -434.288, 0.664636, 0.368472, 1.03299, 0.34851, 0.655882, 0.0001, 45.5, 246, 44.9438, 0.208806, 1.31226, 1, 0, 0, -4.13841e-05, 98553
-9849.22, 177932, -302.712, 2.99433, -434.288, 0.664636, 0.368472, 1.03299, 0.34851, 0.655882, 3, 45.5, 246, 44.9438, 0.208806, 1.1404, 1, 0, 0, 8.15385e-05, 98553
-6598.93, 190256, -342.822, 3.38159, -515.619, 0.79242, 0.380264, 0.993198, 0.349787, 0.651995, 0.0001, 91, 246, 44.9438, 0.208806, 1.33801, 1, 1, 0, 1.65586e-05, 98553
-6598.93, 190256, -342.822, 3.38159, -515.619, 0.79242, 0.380264, 0.993198, 0.349787, 0.651995, 3, 91, 246, 44.9438, 0.208806, 1.21093, 1, 1, 0, -2.63522e-05, 98553
-2383.17, 207216, -393.952, 3.87414, -629.785, 0.971804, 0.412995, 0.958125, 0.351078, 0.648177, 0.0001, 182, 246, 44.9438, 0.208806, 1.92087, 1, 0, 0, -1.20546e-05, 98553
-2383.17, 207216, -393.952, 3.87414, -629.785, 0.971804, 0.412995, 0.958125, 0.351078, 0.648177, 3, 182, 246, 44.9438, 0.208806, 1.76638, 1, 0, 0, 2.80152e-05, 98553
-8452.95, 102244, -137.607, 3.12617, -686.521, 0.0883175, 0.243336, 1.03299, 0.34851, 0.655882, 0.0001, 45.5, 246, 35.4711, 0.134892, 0, 0, 1, 0, 8.34764e-06, 98559
-8452.95, 102244, -137.607, 3.12617, -686.521, 0.0883175, 0.243336, 1.03299, 0.34851, 0.655882, 3, 45.5, 246, 35.4711, 0.134892, 0, 0, 1, 0, 1.88806e-05, 98559
-1263.37, 139622, -275.269, 4.31013, -823.614, 0.304529, 0.331141, 0.9175, 0.352806, 0.64323, 0.0001, 455, 246, 35.4711, 0.134892, 1.14451, 1, 0, 0, -1.01346e-05, 98559
-1263.37, 139622, -275.269, 4.31013, -823.614, 0.304529, 0.331141, 0.9175, 0.352806, 0.64323, 3, 455, 246, 35.4711, 0.134892, 1.14511, 1, 0, 0, -1.66762e-06, 98559
-11719.3, 182367, -47.286, 1.99412, -1190.18, -0.00801792, 0.29935, 1.03299, 0.34851, 0.655882, 0.0001, 45.5, 246, 24.2477, 0.0701783, 0, 0, 1, 0, -3.80288e-06, 98564
-11719.3, 182367, -47.286, 1.99412, -1190.18, -0.00801792, 0.29935, 1.03299, 0.34851, 0.655882, 3, 45.5, 246, 24.2477, 0.0701783, 0, 0, 1, 0, 7.63729e-06, 98564
-8911.51, 90649.1, -73.7166, 1.83533, -1140.93, 0.053285, 0.338391, 1.03299, 0.34851, 0.655882, 0.0001, 45.5, 246, 30.2108, 0.139966, 0, 0, 1, 0, 7.19664e-06, 98584
-8911.51, 90649.1, -73.7166, 1.83533, -1140.93, 0.053285, 0.338391, 1.03299, 0.34851, 0.655882, 3, 45.5, 246, 30.2108, 0.139966, 0, 0, 1, 0, -1.22121e-05, 98584
-11294.4, 162453, -19.889, 1.67147, -747.942, 0.0169035, 0.303592, 1.03299, 0.34851, 0.655882, 0.0001, 45.5, 246, 14.6332, 0.0389962, 0, 0, 1, 0, 2.44053e-06, 98585
-11294.4, 162453, -19.889, 1.67147, -747.942, 0.0169035, 0.303592, 1.03299, 0.34851, 0.655882, 3, 45.5, 246, 14.6332, 0.0389962, 0, 0, 1, 0, 1.07082e-05, 98585
-10299.8, 172214, -32.6629, 1.76921, -751.892, 0.0299795, 0.278103, 0.993198, 0.349787, 0.651995, 0.0001, 91, 246, 14.6332, 0.0389962, 0, 0, 1, 0, 1.19779e-06, 98585
-9377.98, 252478, -156.837, 1.00879, -676.549, 0.89424, 0.370424, 0.993198, 0.349787, 0.651995, 0.0001, 91, 246, 26.1578, 0.132757, 0, 0, 1, 0, -0.000128875, 98586
-11814, 393857, -528.764, 3.83377, -900.542, 0.0328755, 0.580701, 0.993198, 0.349787, 0.651995, 0.0001, 91, 246, 52.8142, 0.24257, 1.43558, 1, 1, 0, 4.86633e-06, 98587
-11814, 393857, -528.764, 3.83377, -900.542, 0.0328755, 0.580701, 0.993198, 0.349787, 0.651995, 3, 91, 246, 52.8142, 0.24257, 1.38902, 1, 1, 0, -3.11286e-06, 98587
-11616.3, 276661, -101.623, 1.28427, -921.51, 0.0192296, 0.352836, 1.03299, 0.34851, 0.655882, 3, 45.5, 246, 25.7252, 0.0908855, 0, 0, 1, 0, -6.79972e-06, 98591
-4368.64, 585814, -345.264, 0.0816939, -1163.29, 0.0929304, 0.511914, 0.993198, 0.349787, 0.651995, 0.0001, 91, 246, 40.1253, 0.153687, 0, 0, 1, 0, 0.000106456, 98593
-9037.36, 797100, -375.989, 0.0804776, -614.399, 0.00323413, 0.511259, 1.03299, 0.34851, 0.655882, 0.0001, 45.5, 246, 28.5855, 0.122746, 0, 0, 0, 0, 0.000227962, 98597
-9037.36, 797100, -375.989, 0.0804776, -614.399, 0.00323413, 0.511259, 1.03299, 0.34851, 0.655882, 3, 45.5, 246, 28.5855, 0.122746, 0, 0, 0, 0, -4.18682e-05, 98597
-12131.7, 416559, -17.4931, 0.683492, -1099.06, 0.160435, 0.334262, 1.03299, 0.34851, 0.655882, 0.0001, 45.5, 246, 21.1651, 0.015665, 0, 0, 1, 0, 2.28372e-05, 98601
-12131.7, 416559, -17.4931, 0.683492, -1099.06, 0.160435, 0.334262, 1.03299, 0.34851, 0.655882, 3, 45.5, 246, 21.1651, 0.015665, 0, 0, 1, 0, -2.15801e-05, 98601
-11113.1, 441892, -25.1502, 0.716385, -1128.24, 0.166814, 0.299718, 0.993198, 0.349787, 0.651995, 3, 91, 246, 21.1651, 0.015665, 0, 0, 1, 0, -1.61532e-05, 98601
-9886.93, 468822, -33.5707, 0.749528, -1159.57, 0.173753, 0.269858, 0.958125, 0.351078, 0.648177, 0.0001, 182, 246, 21.1651, 0.015665, 0, 0, 1, 0, -9.25564e-07, 98601
-3774.69, 203291, -317.496, 4.16187, -779.48, 0.0712263, 0.316835, 0.958125, 0.351078, 0.648177, 0.0001, 182, 246, 40.5671, 0.168728, 1.19565, 1, 0, 0, -1.16988e-05, 98602
-11150.9, 137484, -73.1499, 2.64552, -731.854, -0.0328239, 0.258059, 1.03299, 0.34851, 0.655882, 0.0001, 45.5, 246, 23.3918, 0.0874645, 0, 0, 1, 0, -2.74825e-06, 98605
-11150.9, 137484, -73.1499, 2.64552, -731.854, -0.0328239, 0.258059, 1.03299, 0.34851, 0.655882, 3, 45.5, 246, 23.3918, 0.0874645, 0, 0, 1, 0, 8.23306e-06, 98605
-7764.43, 155984, -124.36, 3.06449, -746.864, 0.0385653, 0.254225, 0.958125, 0.351078, 0.648177, 3, 182, 246, 23.3918, 0.0874645, 0, 0, 1, 0, -1.13796e-05, 98605
-16561.7, 433548, -507.709, 3.65388, -671.589, 0.0324985, 0.53529, 0.993198, 0.349787, 0.651995, 0.0001, 91, 246, 45.1951, 0.217312, 1.06654, 1, 1, 0, 7.4404e-07, 98606
-8800.38, 186154, -294.104, 2.5973, -744.206, 0.603839, 0.459814, 1.03299, 0.34851, 0.655882, 0.0001, 45.5, 246, 50.4987, 0.247082, 1.0849, 1, 0, 0, -4.98766e-05, 98623
-5790.23, 205350, -337.936, 2.90655, -848.964, 0.70424, 0.46742, 0.993198, 0.349787, 0.651995, 0.0001, 91, 246, 50.4987, 0.247082, 1.08996, 1, 1, 0, -2.82035e-05, 98623
-1779.74, 231051, -392.985, 3.28765, -990.105, 0.83974, 0.491057, 0.958125, 0.351078, 0.648177, 0.0001, 182, 246, 50.4987, 0.247082, 2.0335, 1, 0, 0, 7.71226e-05, 98623
-1779.74, 231051, -392.985, 3.28765, -990.105, 0.83974, 0.491057, 0.958125, 0.351078, 0.648177, 3, 182, 246, 50.4987, 0.247082, 1.86002, 1, 0, 0, 2.56874e-05, 98623
-10447, 211653, -174.601, 1.65369, -843.692, -0.00296142, 0.415577, 1.03299, 0.34851, 0.655882, 0.0001, 45.5, 246, 36.0554, 0.180292, 0, 0, 1, 0, 5.99838e-06, 98627
-10447, 211653, -174.601, 1.65369, -843.692, -0.00296142, 0.415577, 1.03299, 0.34851, 0.655882, 3, 45.5, 246, 36.0554, 0.180292, 0, 0, 1, 0, 4.53609e-07, 98627
-8786.28, 224633, -198.143, 1.75338, -852.49, 0.00977704, 0.398212, 0.993198, 0.349787, 0.651995, 3, 91, 246, 36.0554, 0.180292, 0, 0, 1, 0, 2.56516e-06, 98627
-4791.01, 70424.3, -167.031, 2.90561, -923.319, 0.121332, 0.302133, 1.03299, 0.34851, 0.655882, 0.0001, 45.5, 246, 52.5146, 0.205393, 1.15488, 1, 1, 0, 1.24169e-06, 98630
-3546.15, 86933.5, -206.811, 3.1681, -959.414, 0.164984, 0.304871, 0.993198, 0.349787, 0.651995, 0.0001, 91, 246, 52.5146, 0.205393, 1.26676, 1, 1, 0, -5.63846e-06, 98630
-3546.15, 86933.5, -206.811, 3.1681, -959.414, 0.164984, 0.304871, 0.993198, 0.349787, 0.651995, 3, 91, 246, 52.5146, 0.205393, 1.05707, 1, 1, 0, -6.53556e-06, 98630
-1745.06, 105649, -254.398, 3.47489, -1009.24, 0.219124, 0.322745, 0.958125, 0.351078, 0.648177, 0.0001, 182, 246, 52.5146, 0.205393, 1.6591, 1, 1, 0, 1.14438e-05, 98630
-1745.06, 105649, -254.398, 3.47489, -1009.24, 0.219124, 0.322745, 0.958125, 0.351078, 0.648177, 3, 182, 246, 52.5146, 0.205393, 1.50587, 1, 1, 0, 1.233e-05, 98630
-5268.06, 861051, -402.881, 0.00997277, -982.908, 0.00257924, 0.519765, 1.03299, 0.34851, 0.655882, 3, 45.5, 246, 36.4766, 0.120648, 0, 0, 0, 0, 0.00116503, 98640
-12338.8, 138796, -19.8292, 2.98512, -1088.68, 0.208005, 0.208182, 1.03299, 0.34851, 0.655882, 0.0001, 45.5, 246, 20.8163, 0.0534492, 0, 0, 0, 0, -8.29871e-06, 98642
-12338.8, 138796, -19.8292, 2.98512, -1088.68, 0.208005, 0.208182, 1.03299, 0.34851, 0.655882, 3, 45.5, 246, 20.8163, 0.0534492, 0, 0, 0, 0, -1.68615e-05, 98642
-10929.7, 464081, -294.923, 0.448482, -554.288, 0.571593, 0.502961, 1.03299, 0.34851, 0.655882, 0.0001, 45.5, 246, 29.2355, 0.15012, 0, 0, 1, 0, 2.79026e-05, 98644
-10929.7, 464081, -294.923, 0.448482, -554.288, 0.571593, 0.502961, 1.03299, 0.34851, 0.655882, 3, 45.5, 246, 29.2355, 0.15012, 0, 0, 0, 0, -4.67861e-05, 98644
-11206.4, 214062, -93.4929, 1.5558, -896.214, 0.00425458, 0.342479, 1.03299, 0.34851, 0.655882, 0.0001, 45.5, 246, 25.8584, 0.101002, 0, 0, 1, 0, -2.60363e-07, 98645
-11206.4, 214062, -93.4929, 1.5558, -896.214, 0.00425458, 0.342479, 1.03299, 0.34851, 0.655882, 3, 45.5, 246, 25.8584, 0.101002, 0, 0, 1, 0, 3.01154e-05, 98645
-9840.27, 228250, -111.699, 1.64383, -901.922, 0.0155038, 0.31792, 0.993198, 0.349787, 0.651995, 3, 91, 246, 25.8584, 0.101002, 0, 0, 1, 0, 1.03369e-05, 98645
-8180.21, 242922, -131.662, 1.73648, -910.441, 0.0281157, 0.299738, 0.958125, 0.351078, 0.648177, 3, 182, 246, 25.8584, 0.101002, 0, 0, 1, 0, 3.5769e-07, 98645
-3485.6, 216735, -332.865, 4.16251, -844.451, 0.140783, 0.330802, 0.958125, 0.351078, 0.648177, 0.0001, 182, 246, 41.6766, 0.174123, 1.3454, 1, 0, 0, -5.19923e-06, 98648
-3485.6, 216735, -332.865, 4.16251, -844.451, 0.140783, 0.330802, 0.958125, 0.351078, 0.648177, 3, 182, 246, 41.6766, 0.174123, 1.13813, 1, 0, 0, -7.63192e-06, 98648
-11286.9, 220881, -91.1133, 1.50286, -993.22, 0.538583, 0.33995, 1.03299, 0.34851, 0.655882, 0.0001, 45.5, 246, 26.4458, 0.0918492, 0, 0, 1, 0, 1.94657e-05, 98650
-11286.9, 220881, -91.1133, 1.50286, -993.22, 0.538583, 0.33995, 1.03299, 0.34851, 0.655882, 3, 45.5, 246, 26.4458, 0.0918492, 0, 0, 1, 0, -7.66047e-06, 98650
-9870.88, 246782, -110.862, 1.63427, -1090.92, 0.600484, 0.314744, 0.993198, 0.349787, 0.651995, 3, 91, 246, 26.4458, 0.0918492, 0, 0, 1, 0, -9.50546e-06, 98650
-6706.04, -11333.2, -20.5077, 3.37369, -893.208, -0.0546257, 0.202815, 1.03299, 0.34851, 0.655882, 0.0001, 45.5, 246, 21.3205, 0.04078, 0, 0, 1, 1, -9.95996e-06, 98660
-6706.04, -11333.2, -20.5077, 3.37369, -893.208, -0.0546257, 0.202815, 1.03299, 0.34851, 0.655882, 3, 45.5, 246, 21.3205, 0.04078, 0, 0, 1, 1, 1.46778e-05, 98660
-9738.53, 549662, -421.281, 0.253931, -766.705, -0.000233879, 0.660785, 1.03299, 0.34851, 0.655882, 0.0001, 45.5, 246, 39.6938, 0.20439, 0, 0, 0, 0, -0.000287224, 98661
-9738.53, 549662, -421.281, 0.253931, -766.705, -0.000233879, 0.660785, 1.03299, 0.34851, 0.655882, 3, 45.5, 246, 39.6938, 0.20439, 0, 0, 0, 0, 0.000178666, 98661
-8602.15, 330490, -244.994, 0.567947, -700.864, 0.0683483, 0.479168, 0.993198, 0.349787, 0.651995, 0.0001, 91, 246, 34.0163, 0.188269, 0, 0, 1, 0, -2.5911e-05, 98668
-9723.3, 481200, -381.2, 0.380163, -807.466, 0.0310772, 0.639457, 1.03299, 0.34851, 0.655882, 0.0001, 45.5, 246, 40.4907, 0.210329, 0, 0, 0, 0, 2.18398e-05, 98670
-9723.3, 481200, -381.2, 0.380163, -807.466, 0.0310772, 0.639457, 1.03299, 0.34851, 0.655882, 3, 45.5, 246, 40.4907, 0.210329, 0, 0, 0, 0, -2.31713e-05, 98670
-7971.95, 345058, -217.714, 1.41849, -821.014, 0.276218, 0.365853, 0.958125, 0.351078, 0.648177, 3, 182, 246, 29.6938, 0.134349, 0, 0, 1, 0, 3.47204e-05, 98676
-7068.2, -19484.1, 4.72542, 3.20835, -1039.4, 0.315544, 0.215555, 1.03299, 0.34851, 0.655882, 0.0001, 45.5, 246, 15.3653, 0.0556703, 0, 0, 1, 0, 3.93681e-06, 98681
-7068.2, -19484.1, 4.72542, 3.20835, -1039.4, 0.315544, 0.215555, 1.03299, 0.34851, 0.655882, 3, 45.5, 246, 15.3653, 0.0556703, 0, 0, 1, 1, 1.35476e-05, 98681
-10111.8, 536947, -108.358, 0.401396, -966.911, 0.653109, 0.35768, 1.03299, 0.34851, 0.655882, 0.0001, 45.5, 246, 25.0359, 0.046892, 0, 0, 1, 0, 4.31941e-05, 98685
-10111.8, 536947, -108.358, 0.401396, -966.911, 0.653109, 0.35768, 1.03299, 0.34851, 0.655882, 3, 45.5, 246, 25.0359, 0.046892, 0, 0, 1, 0, -3.9823e-06, 98685
-9246.24, 575624, -115.899, 0.43065, -1079.55, 0.729116, 0.323396, 0.993198, 0.349787, 0.651995, 0.0001, 91, 246, 25.0359, 0.046892, 0, 0, 1, 0, 0.000106458, 98685
-10527.6, 617025, -118.743, 0.306418, -541.66, 0.0938513, 0.361227, 1.03299, 0.34851, 0.655882, 0.0001, 45.5, 246, 17.3169, 0.0491851, 0, 0, 1, 0, 5.15872e-05, 98694
-10527.6, 617025, -118.743, 0.306418, -541.66, 0.0938513, 0.361227, 1.03299, 0.34851, 0.655882, 3, 45.5, 246, 17.3169, 0.0491851, 0, 0, 1, 0, 6.81243e-05, 98694
-9819.68, 625568, -124.161, 0.318059, -550.839, 0.0956986, 0.326864, 0.993198, 0.349787, 0.651995, 0.0001, 91, 246, 17.3169, 0.0491851, 0, 0, 1, 0, -0.000121439, 98694
-9074.15, 223890, -163.18, 1.42343, -832.026, 0.51635, 0.371591, 0.993198, 0.349787, 0.651995, 0.0001, 91, 246, 30.7723, 0.150718, 0, 0, 1, 0, -2.03975e-05, 98696
-15941.3, 538118, -630.519, 3.85325, -1115.78, 0.00606108, 0.690435, 0.993198, 0.349787, 0.651995, 0.0001, 91, 246, 55.8698, 0.240009, 1.25588, 1, 1, 0, -1.66847e-05, 98703
-15941.3, 538118, -630.519, 3.85325, -1115.78, 0.00606108, 0.690435, 0.993198, 0.349787, 0.651995, 3, 91, 246, 55.8698, 0.240009, 1.2512, 1, 1, 0, -1.39923e-05, 98703
-12383.3, 226490, -344.568, 3.15911, -513.257, 0.563142, 0.399485, 1.03299, 0.34851, 0.655882, 0.0001, 45.5, 246, 45.8924, 0.216785, 1.18203, 1, 0, 0, -3.69987e-05, 98708
-12383.3, 226490, -344.568, 3.15911, -513.257, 0.563142, 0.399485, 1.03299, 0.34851, 0.655882, 3, 45.5, 246, 45.8924, 0.216785, 1.09697, 1, 0, 0, -5.72109e-05, 98708
-8048.66, 241245, -393.075, 3.56102, -599.789, 0.67248, 0.41887, 0.993198, 0.349787, 0.651995, 0.0001, 91, 246, 45.8924, 0.216785, 1.38962, 1, 1, 0, 3.88413e-05, 98708
-8048.66, 241245, -393.075, 3.56102, -599.789, 0.67248, 0.41887, 0.993198, 0.349787, 0.651995, 3, 91, 246, 45.8924, 0.216785, 1.28355, 1, 1, 0, 5.75127e-05, 98708
-2433.83, 261452, -454.9, 4.0692, -719.565, 0.823817, 0.460967, 0.958125, 0.351078, 0.648177, 0.0001, 182, 246, 45.8924, 0.216785, 3.07851, 1, 0, 0, 187.422, 98708
-2433.83, 261452, -454.9, 4.0692, -719.565, 0.823817, 0.460967, 0.958125, 0.351078, 0.648177, 3, 182, 246, 45.8924, 0.216785, 2.84639, 1, 0, 0, -190.209, 98708
-7983.91, 32691, -52.9395, 1.63378, -658.208, 0.0235488, 0.328562, 1.03299, 0.34851, 0.655882, 3, 45.5, 246, 30.3212, 0.136317, 0, 0, 1, 1, -4.47589e-08, 98710
-7438.44, -10829.7, -12.2196, 2.72791, -775.17, 0.249893, 0.255462, 1.03299, 0.34851, 0.655882, 3, 45.5, 246, 17.2591, 0.0368001, 0, 0, 1, 1, 3.16723e-07, 98713
-8948.33, 149654, -183.696, 3.28093, -1138.45, 0.185322, 0.284261, 1.03299, 0.34851, 0.655882, 0.0001, 45.5, 246, 43.6939, 0.175257, 0, 0, 0, 0, 1.24583e-05, 98715
-8948.33, 149654, -183.696, 3.28093, -1138.45, 0.185322, 0.284261, 1.03299, 0.34851, 0.655882, 3, 45.5, 246, 43.6939, 0.175257, 0, 0, 0, 0, -7.46147e-06, 98715
-2581.97, 206295, -302.806, 4.01919, -1278.92, 0.321043, 0.331154, 0.958125, 0.351078, 0.648177, 0.0001, 182, 246, 43.6939, 0.175257, 1.23242, 1, 0, 0, -1.95359e-05, 98715
-14111.4, 261493, -377.345, 3.35121, -569.95, 0.270669, 0.428594, 1.03299, 0.34851, 0.655882, 0.0001, 45.5, 246, 48.1322, 0.228703, 1.17245, 1, 0, 0, -2.90442e-05, 98716
-14111.4, 261493, -377.345, 3.35121, -569.95, 0.270669, 0.428594, 1.03299, 0.34851, 0.655882, 3, 45.5, 246, 48.1322, 0.228703, 1.10562, 1, 0, 0, -1.20357e-05, 98716
-8861.25, 274300, -433.023, 3.73133, -636.589, 0.340238, 0.456142, 0.993198, 0.349787, 0.651995, 0.0001, 91, 246, 48.1322, 0.228703, 1.51026, 1, 1, 0, -3.70136e-05, 98716
-8861.25, 274300, -433.023, 3.73133, -636.589, 0.340238, 0.456142, 0.993198, 0.349787, 0.651995, 3, 91, 246, 48.1322, 0.228703, 1.42784, 1, 1, 0, -1.38088e-05, 98716
-8864.95, 155071, -268.429, 2.92894, -439.416, 0.634452, 0.344408, 1.03299, 0.34851, 0.655882, 0.0001, 45.5, 246, 44.0316, 0.199558, 1.26365, 1, 0, 0, 3.58249e-05, 98721
-8864.95, 155071, -268.429, 2.92894, -439.416, 0.634452, 0.344408, 1.03299, 0.34851, 0.655882, 3, 45.5, 246, 44.0316, 0.199558, 1.14142, 1, 0, 0, -0.000100969, 98721
-6164.75, 165902, -304.699, 3.29508, -514.791, 0.752344, 0.352212, 0.993198, 0.349787, 0.651995, 0.0001, 91, 246, 44.0316, 0.199558, 1.21453, 1, 1, 0, -6.23561e-06, 98721
-6164.75, 165902, -304.699, 3.29508, -514.791, 0.752344, 0.352212, 0.993198, 0.349787, 0.651995, 3, 91, 246, 44.0316, 0.199558, 1.05691, 1, 1, 0, -6.04955e-05, 98721
-2670.72, 180666, -350.661, 3.7559, -619.214, 0.915699, 0.379567, 0.958125, 0.351078, 0.648177, 0.0001, 182, 246, 44.0316, 0.199558, 1.5574, 1, 1, 0, -9.05574e-06, 98721
-2670.72, 180666, -350.661, 3.7559, -619.214, 0.915699, 0.379567, 0.958125, 0.351078, 0.648177, 3, 182, 246, 44.0316, 0.199558, 1.39536, 1, 1, 0, -4.23837e-05, 98721
-11165.4, 264141, -186.589, 1.3287, -764.623, 0.441355, 0.421888, 1.03299, 0.34851, 0.655882, 0.0001, 45.5, 246, 32.5124, 0.156695, 0, 0, 1, 0, 2.30578e-05, 98731
-11165.4, 264141, -186.589, 1.3287, -764.623, 0.441355, 0.421888, 1.03299, 0.34851, 0.655882, 3, 45.5, 246, 32.5124, 0.156695, 0, 0, 1, 0, 4.99529e-05, 98731
-7628.19, 812923, -222.124, 0.109976, -676.688, 0.0284027, 0.363591, 0.993198, 0.349787, 0.651995, 0.0001, 91, 246, 23.359, 0.0685773, 0, 0, 1, 0, 2.1477e-05, 98732
-9753.36, 1.27762e+06, -129.532, 0.152581, -912.769, 0.685754, 0.351032, 1.03299, 0.34851, 0.655882, 0.0001, 45.5, 246, 25.9758, 0.0224997, 0, 0, 1, 0, -5.88448e-05, 98739
-9753.36, 1.27762e+06, -129.532, 0.152581, -912.769, 0.685754, 0.351032, 1.03299, 0.34851, 0.655882, 3, 45.5, 246, 25.9758, 0.0224997, 0, 0, 1, 0, -0.000102835, 98739
-6254.77, -2022.71, -50.4446, 3.336, -833.181, 0.131336, 0.205148, 1.03299, 0.34851, 0.655882, 0.0001, 45.5, 246, 29.8344, 0.0301287, 0, 0, 1, 1, -2.01423e-05, 98741
-6254.77, -2022.71, -50.4446, 3.336, -833.181, 0.131336, 0.205148, 1.03299, 0.34851, 0.655882, 3, 45.5, 246, 29.8344, 0.0301287, 0, 0, 1, 1, -5.35234e-06, 98741
-10332.2, 332053, -244.051, 0.589288, -567.053, 0.455164, 0.496619, 1.03299, 0.34851, 0.655882, 0.0001, 45.5, 246, 31.5213, 0.176923, 0, 0, 1, 0, 0.000261124, 98746
-10332.2, 332053, -244.051, 0.589288, -567.053, 0.455164, 0.496619, 1.03299, 0.34851, 0.655882, 3, 45.5, 246, 31.5213, 0.176923, 0, 0, 1, 0, 1.37222e-05, 98746
-9170.16, 347648, -257.548, 0.629595, -615.257, 0.492195, 0.474661, 0.993198, 0.349787, 0.651995, 0.0001, 91, 246, 31.5213, 0.176923, 0, 0, 1, 0, -0.000139671, 98746
-7802.42, 462345, -194.511, 0.49036, -1077.94, 0.000187066, 0.383007, 0.993198, 0.349787, 0.651995, 0.0001, 91, 246, 31.9206, 0.10651, 0, 0, 1, 0, -2.25758e-05, 98751
-6599.47, 483457, -206.128, 0.507543, -1080.69, 0.00128018, 0.357547, 0.958125, 0.351078, 0.648177, 0.0001, 182, 246, 31.9206, 0.10651, 0, 0, 0, 0, -6.21977e-05, 98751
5163.97, 571317, -666.165, 2.4349, -918.976, 0.154132, 0.791069, 0.9175, 0.352806, 0.64323, 0.0001, 455, 246, 45.9349, 0.231376, 0, 0, 0, 0, 4.80021e-06, 98754
5163.97, 571317, -666.165, 2.4349, -918.976, 0.154132, 0.791069, 0.9175, 0.352806, 0.64323, 3, 455, 246, 45.9349, 0.231376, 0, 0, 0, 0, -1.16007e-05, 98754
-8637.24, 491904, -423.941, 0.123975, -826.218, 0.0360726, 0.708794, 1.03299, 0.34851, 0.655882, 0.0001, 45.5, 246, 43.1253, 0.232859, 0, 0, 0, 0, 3.27093e-05, 98762
-2310.25, 347768, -478.476, 3.16687, -1086.25, 0.286005, 0.594506, 0.958125, 0.351078, 0.648177, 0.0001, 182, 246, 51.065, 0.245491, 1.73649, 1, 0, 0, 1.86143e-06, 98766
-2310.25, 347768, -478.476, 3.16687, -1086.25, 0.286005, 0.594506, 0.958125, 0.351078, 0.648177, 3, 182, 246, 51.065, 0.245491, 2.00025, 1, 0, 0, 8.12871e-06, 98766
250.492, 500250, -265.86, 3.99179, -1728.86, 1.35652, 0.285535, 0.9175, 0.352806, 0.64323, 3, 455, 246, 27.0313, 0.068276, 0, 0, 0, 0, 5.38747e-05, 98769
-1297.57, 130464, -270.17, 3.1678, -1006.42, 0.330874, 0.361442, 0.9175, 0.352806, 0.64323, 0.0001, 455, 246, 48.0159, 0.219878, 1.73372, 1, 0, 0, 2.01846e-05, 98773
-1297.57, 130464, -270.17, 3.1678, -1006.42, 0.330874, 0.361442, 0.9175, 0.352806, 0.64323, 3, 455, 246, 48.0159, 0.219878, 1.73807, 1, 0, 0, 1.06507e-05, 98773
-9157.19, 453943, -91.8882, 0.525872, -1189.33, 0.0438472, 0.319749, 0.993198, 0.349787, 0.651995, 0.0001, 91, 246, 26.6384, 0.0503957, 0, 0, 1, 0, -2.31885e-05, 98774
-10570.5, 516383, -155.152, 0.532013, -864.021, 0.00454465, 0.382838, 1.03299, 0.34851, 0.655882, 0.0001, 45.5, 246, 26.1185, 0.077942, 0, 0, 1, 0, 7.25214e-05, 98778
-10570.5, 516383, -155.152, 0.532013, -864.021, 0.00454465, 0.382838, 1.03299, 0.34851, 0.655882, 3, 45.5, 246, 26.1185, 0.077942, 0, 0, 1, 0, -4.24522e-05, 98778
-5322.31, 678514, -357.063, 0.0410654, -1058.67, 0.0159403, 0.521131, 1.03299, 0.34851, 0.655882, 0.0001, 45.5, 246, 38.0557, 0.136055, 0, 0, 0, 0, 0.000249948, 98787
-10781.6, 314635, -82.2086, 0.73342, -731.589, 0.380275, 0.352835, 1.03299, 0.34851, 0.655882, 0.0001, 45.5, 246, 20.1499, 0.0637886, 0, 0, 1, 0, -1.51487e-06, 98790
-9920.43, 331343, -90.6682, 0.779248, -780.293, 0.407259, 0.320007, 0.993198, 0.349787, 0.651995, 0.0001, 91, 246, 20.1499, 0.0637886, 0, 0, 1, 0, 7.64285e-05, 98790
-11338.7, 212959, -118.934, 1.61957, -681.399, -0.0122141, 0.35467, 1.03299, 0.34851, 0.655882, 3, 45.5, 246, 26.3623, 0.12156, 0, 0, 1, 0, -1.49521e-05, 98798
-8189.18, 229594, -154.768, 1.8104, -693.786, 0.013597, 0.315864, 0.958125, 0.351078, 0.648177, 3, 182, 246, 26.3623, 0.12156, 0, 0, 1, 0, 2.05726e-05, 98798
-6757.77, 130753, -222.427, 2.79643, -876.997, -0.0285153, 0.383214, 1.03299, 0.34851, 0.655882, 0.0001, 45.5, 246, 51.5394, 0.241133, 1.08432, 1, 1, 0, -5.97738e-06, 98799
-6757.77, 130753, -222.427, 2.79643, -876.997, -0.0285153, 0.383214, 1.03299, 0.34851, 0.655882, 3, 45.5, 246, 51.5394, 0.241133, 0, 0, 1, 0, -9.0419e-06, 98799
-4638.67, 145169, -264.194, 3.02451, -894.167, 0.00865757, 0.388582, 0.993198, 0.349787, 0.651995, 0.0001, 91, 246, 51.5394, 0.241133, 1.15985, 1, 1, 0, 2.4748e-06, 98799
-1878.55, 161142, -312.842, 3.28717, -922.402, 0.052473, 0.407611, 0.958125, 0.351078, 0.648177, 0.0001, 182, 246, 51.5394, 0.241133, 1.69498, 1, 1, 0, -1.02813e-06, 98799
-1878.55, 161142, -312.842, 3.28717, -922.402, 0.052473, 0.407611, 0.958125, 0.351078, 0.648177, 3, 182, 246, 51.5394, 0.241133, 1.52606, 1, 0, 0, 5.08924e-06, 98799
-10945.5, 601423, -66.7367, 0.334532, -592.416, 0.155515, 0.34601, 1.03299, 0.34851, 0.655882, 0.0001, 45.5, 246, 15.759, 0.0284635, 0, 0, 1, 0, 4.59042e-05, 98800
-10945.5, 601423, -66.7367, 0.334532, -592.416, 0.155515, 0.34601, 1.03299, 0.34851, 0.655882, 3, 45.5, 246, 15.759, 0.0284635, 0, 0, 1, 0, 3.41194e-05, 98800
-4756.79, 116983, -251.022, 2.96643, -821.305, 0.419761, 0.367233, 1.03299, 0.34851, 0.655882, 0.0001, 45.5, 246, 56.6946, 0.248419, 1.47289, 1, 1, 0, 1.1379e-05, 98801
-4756.79, 116983, -251.022, 2.96643, -821.305, 0.419761, 0.367233, 1.03299, 0.34851, 0.655882, 3, 45.5, 246, 56.6946, 0.248419, 1.33215, 1, 1, 0, 3.27095e-06, 98801
-2479.35, 134161, -297.259, 3.2997, -906.044, 0.495691, 0.377404, 0.993198, 0.349787, 0.651995, 0.0001, 91, 246, 56.6946, 0.248419, 1.69334, 1, 1, 0, 2.60875e-05, 98801
-2479.35, 134161, -297.259, 3.2997, -906.044, 0.495691, 0.377404, 0.993198, 0.349787, 0.651995, 3, 91, 246, 56.6946, 0.248419, 1.57913, 1, 1, 0, 6.12835e-06, 98801
648.355, 156297, -355.227, 3.70619, -1018.57, 0.596192, 0.405975, 0.958125, 0.351078, 0.648177, 0.0001, 182, 246, 56.6946, 0.248419, 3.25757, 1, 0, 0, 1.15192e-05, 98801
648.355, 156297, -355.227, 3.70619, -1018.57, 0.596192, 0.405975, 0.958125, 0.351078, 0.648177, 3, 182, 246, 56.6946, 0.248419, 3.0615, 1, 0, 0, 1.43388e-06, 98801
-5911.45, 101913, -193.199, 3.61128, -916.517, -0.0629793, 0.235391, 1.03299, 0.34851, 0.655882, 0.0001, 45.5, 246, 47.9161, 0.176733, 1.21961, 1, 0, 0, -7.0312e-06, 98802
-5911.45, 101913, -193.199, 3.61128, -916.517, -0.0629793, 0.235391, 1.03299, 0.34851, 0.655882, 3, 45.5, 246, 47.9161, 0.176733, 1.03507, 1, 0, 0, -1.37743e-05, 98802
-3797.93, 117220, -243.509, 3.94642, -933.46, -0.000203154, 0.25653, 0.993198, 0.349787, 0.651995, 0.0001, 91, 246, 47.9161, 0.176733, 1.33884, 1, 1, 0, -2.73918e-06, 98802
-3797.93, 117220, -243.509, 3.94642, -933.46, -0.000203154, 0.25653, 0.993198, 0.349787, 0.651995, 3, 91, 246, 47.9161, 0.176733, 1.18492, 1, 1, 0, 3.86072e-06, 98802
-911.552, 134430, -304.239, 4.35191, -968.764, 0.0754544, 0.299147, 0.958125, 0.351078, 0.648177, 0.0001, 182, 246, 47.9161, 0.176733, 1.95046, 1, 1, 0, -1.45352e-06, 98802
-911.552, 134430, -304.239, 4.35191, -968.764, 0.0754544, 0.299147, 0.958125, 0.351078, 0.648177, 3, 182, 246, 47.9161, 0.176733, 1.81824, 1, 1, 0, -2.1497e-05, 98802
-8332.57, 538723, -236.398, 0.224559, -668.445, 0.800213, 0.398115, 0.993198, 0.349787, 0.651995, 0.0001, 91, 246, 24.3882, 0.102526, 0, 0, 1, 0, 2.69942e-05, 98812
-10528.7, 1.48649e+06, -187.055, 0.129064, -563.078, 0.19949, 0.361672, 1.03299, 0.34851, 0.655882, 0.0001, 45.5, 246, 18.7236, 0.030973, 0, 0, 1, 0, -1.79413e-05, 98817
-12035.6, 217625, -72.2848, 1.70469, -821.205, 0.138936, 0.318673, 1.03299, 0.34851, 0.655882, 0.0001, 45.5, 246, 22.2271, 0.0771205, 0, 0, 1, 0, -1.37055e-05, 98820
-12035.6, 217625, -72.2848, 1.70469, -821.205, 0.138936, 0.318673, 1.03299, 0.34851, 0.655882, 3, 45.5, 246, 22.2271, 0.0771205, 0, 0, 1, 0, 5.84856e-06, 98820
-9081.7, 192643, -266.518, 3.38832, -1091.07, 0.00703034, 0.357336, 1.03299, 0.34851, 0.655882, 3, 45.5, 246, 51.0623, 0.219387, 0, 0, 0, 0, -1.19971e-05, 98826
-5333.52, 215598, -327.545, 3.71285, -1124.71, 0.0624831, 0.379445, 0.993198, 0.349787, 0.651995, 0.0001, 91, 246, 51.0623, 0.219387, 1.17963, 1, 1, 0, 2.0393e-05, 98826
-5333.52, 215598, -327.545, 3.71285, -1124.71, 0.0624831, 0.379445, 0.993198, 0.349787, 0.651995, 3, 91, 246, 51.0623, 0.219387, 1.01717, 1, 1, 0, -2.11272e-05, 98826
-9843.55, 368074, -68.9256, 0.626052, -880.291, 0.24013, 0.312363, 0.993198, 0.349787, 0.651995, 0.0001, 91, 246, 19.9616, 0.0454404, 0, 0, 1, 0, 6.25875e-06, 98833
774.084, 285357, -437.914, 2.73469, -696.581, 0.108472, 0.570134, 0.9175, 0.352806, 0.64323, 0.0001, 455, 246, 44.9533, 0.244706, 1.1519, 1, 0, 0, -5.45893e-07, 98835
774.084, 285357, -437.914, 2.73469, -696.581, 0.108472, 0.570134, 0.9175, 0.352806, 0.64323, 3, 455, 246, 44.9533, 0.244706, 1.90613, 1, 0, 0, 2.05361e-05, 98835
-8280.32, 150650, -127.029, 1.67461, -1111.26, 0.882576, 0.346177, 0.993198, 0.349787, 0.651995, 0.0001, 91, 246, 32.324, 0.157091, 0, 0, 1, 0, -5.42306e-05, 98837
-8280.32, 150650, -127.029, 1.67461, -1111.26, 0.882576, 0.346177, 0.993198, 0.349787, 0.651995, 3, 91, 246, 32.324, 0.157091, 0, 0, 1, 0, -6.4489e-06, 98837
-12769.2, 354850, -41.6609, 1.0639, -1053.49, -0.00353664, 0.32959, 1.03299, 0.34851, 0.655882, 0.0001, 45.5, 246, 21.8303, 0.0361333, 0, 0, 1, 0, 7.62737e-06, 98841
-11020.3, 224526, -359.773, 3.50083, -731.826, 0.621852, 0.377627, 1.03299, 0.34851, 0.655882, 0.0001, 45.5, 246, 51.0701, 0.223953, 1.26157, 1, 0, 0, -5.05223e-05, 98842
-11020.3, 224526, -359.773, 3.50083, -731.826, 0.621852, 0.377627, 1.03299, 0.34851, 0.655882, 3, 45.5, 246, 51.0701, 0.223953, 1.19273, 1, 0, 0, -2.86087e-05, 98842
-6077.34, 246122, -422.237, 3.98578, -856.123, 0.757732, 0.407562, 0.993198, 0.349787, 0.651995, 0.0001, 91, 246, 51.0701, 0.223953, 1.69889, 1, 1, 0, 3.04855e-05, 98842
-6077.34, 246122, -422.237, 3.98578, -856.123, 0.757732, 0.407562, 0.993198, 0.349787, 0.651995, 3, 91, 246, 51.0701, 0.223953, 1.62031, 1, 1, 0, 1.42491e-05, 98842
-11889.7, 400124, -100.882, 0.877131, -941.084, 0.152382, 0.354584, 1.03299, 0.34851, 0.655882, 0.0001, 45.5, 246, 24.6231, 0.0647014, 0, 0, 1, 0, 3.02624e-06, 98846
-11889.7, 400124, -100.882, 0.877131, -941.084, 0.152382, 0.354584, 1.03299, 0.34851, 0.655882, 3, 45.5, 246, 24.6231, 0.0647014, 0, 0, 1, 0, 4.06383e-06, 98846
-10650.5, 936734, -45.4464, 0.181861, -834.503, 0.412181, 0.342063, 1.03299, 0.34851, 0.655882, 0.0001, 45.5, 246, 21.0162, 0.0118308, 0, 0, 1, 0, 3.12489e-05, 98851
-10123, 971239, -48.2453, 0.191571, -892.893, 0.441061, 0.306012, 0.993198, 0.349787, 0.651995, 0.0001, 91, 246, 21.0162, 0.0118308, 0, 0, 1, 0, -0.000181418, 98851
-9477.76, 1.01016e+06, -51.1835, 0.201608, -960.066, 0.474287, 0.2743, 0.958125, 0.351078, 0.648177, 0.0001, 182, 246, 21.0162, 0.0118308, 0, 0, 1, 0, -1.353e-05, 98851
-11530.3, 161727, -22.0412, 1.79376, -752.99, 0.291477, 0.296137, 1.03299, 0.34851, 0.655882, 0.0001, 45.5, 246, 15.2817, 0.0404813, 0, 0, 1, 0, 5.48358e-06, 98855
-11530.3, 161727, -22.0412, 1.79376, -752.99, 0.291477, 0.296137, 1.03299, 0.34851, 0.655882, 3, 45.5, 246, 15.2817, 0.0404813, 0, 0, 1, 0, -1.11609e-05, 98855
-10825.4, 385463, -273.637, 1.13443, -1113.36, 0.0656104, 0.510317, 1.03299, 0.34851, 0.655882, 0.0001, 45.5, 246, 41.072, 0.178393, 0, 0, 0, 0, -3.94006e-05, 98856
-10825.4, 385463, -273.637, 1.13443, -1113.36, 0.0656104, 0.510317, 1.03299, 0.34851, 0.655882, 3, 45.5, 246, 41.072, 0.178393, 0, 0, 0, 0, -2.28116e-05, 98856
-8068.89, 256092, -343.992, 3.90147, -1024.41, 0.918641, 0.329436, 0.993198, 0.349787, 0.651995, 0.0001, 91, 246, 44.7622, 0.183545, 1.04567, 1, 1, 0, -4.77616e-05, 98861
-7701.2, 10338, -21.8877, 2.85414, -977.614, 0.0761886, 0.246443, 1.03299, 0.34851, 0.655882, 3, 45.5, 246, 21.2127, 0.0666841, 0, 0, 1, 1, -8.09583e-06, 98870
-7836.52, 218769, -158.452, 0.00245363, -891.727, 0.537663, 0.46188, 1.03299, 0.34851, 0.655882, 0.0001, 45.5, 246, 33.472, 0.19556, 2.42195, 1, 1, 0, 813.54, 98877
-7836.52, 218769, -158.452, 0.00245363, -891.727, 0.537663, 0.46188, 1.03299, 0.34851, 0.655882, 3, 45.5, 246, 33.472, 0.19556, 2.4221, 1, 1, 0, 815.062, 98877
-7838.57, 241284, -163.235, 0.00260328, -974.534, 0.587585, 0.435154, 0.993198, 0.349787, 0.651995, 0.0001, 91, 246, 33.472, 0.19556, 2.701, 1, 1, 0, 756.193, 98877
-7838.57, 241284, -163.235, 0.00260328, -974.534, 0.587585, 0.435154, 0.993198, 0.349787, 0.651995, 3, 91, 246, 33.472, 0.19556, 2.70047, 1, 1, 0, -756.326, 98877
-7806.78, 268417, -167.743, 0.0027631, -1074.29, 0.647726, 0.412544, 0.958125, 0.351078, 0.648177, 0.0001, 182, 246, 33.472, 0.19556, 3.33504, 1, 1, 0, 2.13624e-06, 98877
-7806.78, 268417, -167.743, 0.0027631, -1074.29, 0.647726, 0.412544, 0.958125, 0.351078, 0.648177, 3, 182, 246, 33.472, 0.19556, 3.33463, 1, 1, 0, -3.08649e-06, 98877
-8842.8, 461876, -419.531, 0.949637, -916.767, 0.200206, 0.658581, 0.993198, 0.349787, 0.651995, 0.0001, 91, 246, 44.1164, 0.22561, 0, 0, 1, 0, 1.15339e-05, 98878
-8842.8, 461876, -419.531, 0.949637, -916.767, 0.200206, 0.658581, 0.993198, 0.349787, 0.651995, 3, 91, 246, 44.1164, 0.22561, 0, 0, 1, 0, -2.07977e-05, 98878
-9644.63, 451620, -378.157, 0.185219, -650.426, 0.0159659, 0.658788, 1.03299, 0.34851, 0.655882, 0.0001, 45.5, 246, 38.9345, 0.225232, 0, 0, 0, 0, -5.77832e-05, 98882
-8271.26, 462063, -394.033, 0.192618, -654.002, 0.0161634, 0.651549, 0.993198, 0.349787, 0.651995, 0.0001, 91, 246, 38.9345, 0.225232, 0, 0, 1, 0, -7.52801e-06, 98882
-6698.06, 472827, -409.816, 0.199942, -657.766, 0.0163743, 0.649102, 0.958125, 0.351078, 0.648177, 0.0001, 182, 246, 38.9345, 0.225232, 0, 0, 0, 0, -1.07828e-05, 98882
-5018.74, 845692, -235.792, 0.820132, -1149.01, 0.876274, 0.292287, 0.9175, 0.352806, 0.64323, 3, 455, 246, 24.9328, 0.0640303, 0, 0, 0, 0, -0.00013078, 98884
-8618.35, 742281, -318.361, 0.183673, -765.578, 0.141271, 0.46926, 1.03299, 0.34851, 0.655882, 0.0001, 45.5, 246, 29.8756, 0.108685, 0, 0, 0, 0, 2.91397e-05, 98887
-8618.35, 742281, -318.361, 0.183673, -765.578, 0.141271, 0.46926, 1.03299, 0.34851, 0.655882, 3, 45.5, 246, 29.8756, 0.108685, 0, 0, 0, 0, 5.28055e-05, 98887
-6105.4, 105435, -210.817, 2.65347, -570.278, -0.0245717, 0.360239, 1.03299, 0.34851, 0.655882, 0.0001, 45.5, 246, 50.3894, 0.228835, 1.24867, 1, 1, 0, -8.62399e-06, 98890
-6105.4, 105435, -210.817, 2.65347, -570.278, -0.0245717, 0.360239, 1.03299, 0.34851, 0.655882, 3, 45.5, 246, 50.3894, 0.228835, 1.0439, 1, 1, 0, 4.8167e-06, 98890
-4487.88, 111887, -241.875, 2.86056, -585.939, 0.00878406, 0.359879, 0.993198, 0.349787, 0.651995, 0.0001, 91, 246, 50.3894, 0.228835, 1.23395, 1, 1, 0, 7.81735e-06, 98890
-4487.88, 111887, -241.875, 2.86056, -585.939, 0.00878406, 0.359879, 0.993198, 0.349787, 0.651995, 3, 91, 246, 50.3894, 0.228835, 1.02975, 1, 1, 0, 6.83859e-06, 98890
-2477.32, 119309, -277.638, 3.09638, -608.909, 0.0478141, 0.371838, 0.958125, 0.351078, 0.648177, 0.0001, 182, 246, 50.3894, 0.228835, 1.46573, 1, 1, 0, 7.59388e-06, 98890
-2477.32, 119309, -277.638, 3.09638, -608.909, 0.0478141, 0.371838, 0.958125, 0.351078, 0.648177, 3, 182, 246, 50.3894, 0.228835, 1.30561, 1, 1, 0, 2.68594e-06, 98890
957.699, 131312, -334.633, 3.46895, -654.116, 0.111502, 0.408084, 0.9175, 0.352806, 0.64323, 0.0001, 455, 246, 50.3894, 0.228835, 2.3139, 1, 0, 0, -6.5607e-06, 98890
957.699, 131312, -334.633, 3.46895, -654.116, 0.111502, 0.408084, 0.9175, 0.352806, 0.64323, 3, 455, 246, 50.3894, 0.228835, 2.25188, 1, 0, 0, 6.27418e-06, 98890
-265.788, 199383, -296.722, 4.47279, -1127.63, 0.506099, 0.336746, 0.9175, 0.352806, 0.64323, 0.0001, 455, 246, 33.8011, 0.128084, 1.25136, 1, 0, 0, 1.30048e-05, 98893
-265.788, 199383, -296.722, 4.47279, -1127.63, 0.506099, 0.336746, 0.9175, 0.352806, 0.64323, 3, 455, 246, 33.8011, 0.128084, 1.28606, 1, 0, 0, 2.40127e-06, 98893
-9194.14, 829080, -617.784, 0.111851, -981.629, 0.300594, 0.761805, 1.03299, 0.34851, 0.655882, 0.0001, 45.5, 246, 44.4928, 0.186622, 3.5008, 1, 0, 0, -1358.01, 98895
-9194.14, 829080, -617.784, 0.111851, -981.629, 0.300594, 0.761805, 1.03299, 0.34851, 0.655882, 3, 45.5, 246, 44.4928, 0.186622, 3.50168, 1, 0, 0, -1360.43, 98895
-5552.65, 867610, -643.964, 0.118307, -1032.54, 0.315645, 0.766468, 0.993198, 0.349787, 0.651995, 0.0001, 91, 246, 44.4928, 0.186622, 7.52373, 1, 1, 0, -0.000135772, 98895
-5552.65, 867610, -643.964, 0.118307, -1032.54, 0.315645, 0.766468, 0.993198, 0.349787, 0.651995, 3, 91, 246, 44.4928, 0.186622, 7.14956, 1, 1, 0, 1.55878e-05, 98895
-10441.8, 524643, -32.89, 0.864905, -1197.71, 0.00490953, 0.26764, 0.958125, 0.351078, 0.648177, 3, 182, 246, 23.1835, 0.0135944, 0, 0, 1, 0, -4.50872e-05, 98898
-12786.3, 134471, -2.57996, 3.25684, -962.051, 0.105046, 0.173143, 1.03299, 0.34851, 0.655882, 0.0001, 45.5, 246, 16.9954, 0.0380554, 0, 0, 0, 0, 1.01739e-06, 98903
-12786.3, 134471, -2.57996, 3.25684, -962.051, 0.105046, 0.173143, 1.03299, 0.34851, 0.655882, 3, 45.5, 246, 16.9954, 0.0380554, 0, 0, 0, 0, -3.75935e-06, 98903
-10913.4, 151343, -33.0658, 3.56008, -983.751, 0.158701, 0.178613, 0.993198, 0.349787, 0.651995, 0.0001, 91, 246, 16.9954, 0.0380554, 0, 0, 1, 0, 1.36643e-05, 98903
-10913.4, 151343, -33.0658, 3.56008, -983.751, 0.158701, 0.178613, 0.993198, 0.349787, 0.651995, 3, 91, 246, 16.9954, 0.0380554, 0, 0, 1, 0, 2.16134e-06, 98903
-11454.2, -126763, 4.50573, 0.656157, -1047.71, 0.164095, 0.376011, 1.03299, 0.34851, 0.655882, 0.0001, 45.5, 246, -70.7396, 0.164259, 0, 0, 1, 0, -6.61999e-06, 98904
-11454.2, -126763, 4.50573, 0.656157, -1047.71, 0.164095, 0.376011, 1.03299, 0.34851, 0.655882, 3, 45.5, 246, -70.7396, 0.164259, 0, 0, 1, 0, -1.99623e-05, 98904
-11211.3, 213665, -343.256, 3.41038, -524.18, 0.197684, 0.37916, 1.03299, 0.34851, 0.655882, 0.0001, 45.5, 246, 48.6078, 0.225099, 1.30674, 1, 0, 0, 3.4684e-06, 98911
-11211.3, 213665, -343.256, 3.41038, -524.18, 0.197684, 0.37916, 1.03299, 0.34851, 0.655882, 3, 45.5, 246, 48.6078, 0.225099, 1.2415, 1, 0, 0, -1.78194e-05, 98911
-6835.81, 223427, -394.131, 3.78081, -578.939, 0.262627, 0.404406, 0.993198, 0.349787, 0.651995, 0.0001, 91, 246, 48.6078, 0.225099, 1.60333, 1, 1, 0, -4.26508e-06, 98911
-6835.81, 223427, -394.131, 3.78081, -578.939, 0.262627, 0.404406, 0.993198, 0.349787, 0.651995, 3, 91, 246, 48.6078, 0.225099, 1.51448, 1, 1, 0, -6.13703e-05, 98911
-1331.62, 236605, -457.069, 4.23441, -653.196, 0.347518, 0.452273, 0.958125, 0.351078, 0.648177, 0.0001, 182, 246, 48.6078, 0.225099, 4.00692, 1, 0, 0, -196.309, 98911
-1331.62, 236605, -457.069, 4.23441, -653.196, 0.347518, 0.452273, 0.958125, 0.351078, 0.648177, 3, 182, 246, 48.6078, 0.225099, 3.63096, 1, 0, 0, -198.632, 98911
-6623.63, 885172, -274.864, 0.166375, -1096, 0.0581879, 0.421088, 1.03299, 0.34851, 0.655882, 0.0001, 45.5, 246, 34.0788, 0.0784693, 0, 0, 0, 0, -3.78859e-05, 98922
-6623.63, 885172, -274.864, 0.166375, -1096, 0.0581879, 0.421088, 1.03299, 0.34851, 0.655882, 3, 45.5, 246, 34.0788, 0.0784693, 0, 0, 0, 0, -9.92901e-05, 98922
-13057.5, 182166, -112.597, 3.4805, -1037.98, 0.0584297, 0.189619, 1.03299, 0.34851, 0.655882, 0.0001, 45.5, 246, 31.4649, 0.105501, 0, 0, 0, 0, -1.57649e-06, 98938
-13057.5, 182166, -112.597, 3.4805, -1037.98, 0.0584297, 0.189619, 1.03299, 0.34851, 0.655882, 3, 45.5, 246, 31.4649, 0.105501, 0, 0, 0, 0, 6.64913e-06, 98938
870.303, 261227, -308.907, 4.90449, -1214.33, 0.326121, 0.322597, 0.9175, 0.352806, 0.64323, 3, 455, 246, 31.4649, 0.105501, 1.29986, 1, 0, 0, 1.98076e-05, 98938
-8875.24, 294743, -221.733, 0.655203, -1002.62, 0.0573481, 0.500132, 1.03299, 0.34851, 0.655882, 0.0001, 45.5, 246, 38.5211, 0.195254, 0, 0, 0, 0, -2.66591e-07, 98941
-8901.34, 477597, -539.964, 3.75729, -716.797, 0.411693, 0.532286, 0.958125, 0.351078, 0.648177, 0.0001, 182, 246, 39.9731, 0.193385, 1.14709, 1, 0, 0, 0.000132905, 98943
-8901.34, 477597, -539.964, 3.75729, -716.797, 0.411693, 0.532286, 0.958125, 0.351078, 0.648177, 3, 182, 246, 39.9731, 0.193385, 1.39689, 1, 0, 0, -6.32687e-06, 98943
-11126.1, 224883, -45.538, 0.995542, -489.75, 0.725013, 0.332746, 1.03299, 0.34851, 0.655882, 0.0001, 45.5, 246, 13.555, 0.0455701, 0, 0, 1, 0, -1.60836e-05, 98947
-10328.9, 238931, -52.4589, 1.08388, -554.759, 0.824183, 0.300768, 0.993198, 0.349787, 0.651995, 0.0001, 91, 246, 13.555, 0.0455701, 0, 0, 1, 0, -7.50043e-05, 98947
-7322.51, 419916, -378.16, 0.285235, -1167.3, -0.000324018, 0.691958, 1.03299, 0.34851, 0.655882, 0.0001, 45.5, 246, 48.4906, 0.246079, 0, 0, 0, 0, -0.000331839, 98951
-5684.33, 446501, -397.053, 0.297183, -1170.25, 4.82837e-05, 0.688669, 0.993198, 0.349787, 0.651995, 0.0001, 91, 246, 48.4906, 0.246079, 0, 0, 1, 0, -0.000395411, 98951
-10703.3, 296065, -86.6683, 0.90399, -997.212, -0.00166673, 0.355281, 1.03299, 0.34851, 0.655882, 0.0001, 45.5, 246, 24.704, 0.0753952, 0, 0, 1, 0, 2.41886e-05, 98956
-5793.06, -9187.52, -55.1161, 3.57798, -738.952, 0.0874901, 0.18063, 1.03299, 0.34851, 0.655882, 3, 45.5, 246, 30.4875, 0.00164842, 0, 0, 1, 1, -9.6221e-06, 98957
-10741.2, 115146, -35.9075, 2.25848, -511.667, 0.084796, 0.272068, 1.03299, 0.34851, 0.655882, 0.0001, 45.5, 246, 14.6916, 0.053231, 0, 0, 1, 0, -1.11961e-06, 98965
-10741.2, 115146, -35.9075, 2.25848, -511.667, 0.084796, 0.272068, 1.03299, 0.34851, 0.655882, 3, 45.5, 246, 14.6916, 0.053231, 0, 0, 1, 0, -1.49801e-05, 98965
-9771.21, 120046, -49.3163, 2.42442, -522.23, 0.110345, 0.255882, 0.993198, 0.349787, 0.651995, 0.0001, 91, 246, 14.6916, 0.053231, 0, 0, 1, 0, -4.80688e-06, 98965
-8553.98, 452190, -185.344, 0.360337, -737.782, 0.303126, 0.375858, 0.993198, 0.349787, 0.651995, 0.0001, 91, 246, 25.272, 0.100814, 0, 0, 1, 0, 6.71456e-05, 98966
-7170.39, 581064, -267.639, 0.234094, -1049.3, 0.623836, 0.447696, 1.03299, 0.34851, 0.655882, 0.0001, 45.5, 246, 34.0961, 0.106918, 0, 0, 0, 0, 0.000188398, 98967
-7170.39, 581064, -267.639, 0.234094, -1049.3, 0.623836, 0.447696, 1.03299, 0.34851, 0.655882, 3, 45.5, 246, 34.0961, 0.106918, 0, 0, 0, 0, -8.23044e-05, 98967
-6067.58, 624678, -279.128, 0.250574, -1165.91, 0.692344, 0.420026, 0.993198, 0.349787, 0.651995, 3, 91, 246, 34.0961, 0.106918, 0, 0, 1, 0, 3.70242e-05, 98967
1119.68, 289101, -321.794, 5.01271, -1367.08, 1.13617, 0.335034, 0.9175, 0.352806, 0.64323, 3, 455, 246, 30.2218, 0.106733, 1.8635, 1, 0, 0, -6.40345e-06, 98976
-6446.57, 374423, -450.378, 4.18605, -809.972, 0.137985, 0.42421, 0.958125, 0.351078, 0.648177, 0.0001, 182, 246, 41.1896, 0.181496, 1.43426, 1, 0, 0, 5.54416e-05, 98977
-6446.57, 374423, -450.378, 4.18605, -809.972, 0.137985, 0.42421, 0.958125, 0.351078, 0.648177, 3, 182, 246, 41.1896, 0.181496, 1.32635, 1, 0, 0, -6.36414e-05, 98977
-11595.4, 374963, -161.152, 0.818449, -593.676, 0.0247395, 0.396496, 1.03299, 0.34851, 0.655882, 0.0001, 45.5, 246, 24.0288, 0.108532, 0, 0, 1, 0, -8.83323e-07, 98978
-11595.4, 374963, -161.152, 0.818449, -593.676, 0.0247395, 0.396496, 1.03299, 0.34851, 0.655882, 3, 45.5, 246, 24.0288, 0.108532, 0, 0, 1, 0, 1.01595e-05, 98978
-10280.4, 93116, -27.5609, 2.87801, -1103.55, -0.0243115, 0.232963, 1.03299, 0.34851, 0.655882, 0.0001, 45.5, 246, 21.7325, 0.0689728, 0, 0, 1, 0, -7.13783e-06, 98979
-10280.4, 93116, -27.5609, 2.87801, -1103.55, -0.0243115, 0.232963, 1.03299, 0.34851, 0.655882, 3, 45.5, 246, 21.7325, 0.0689728, 0, 0, 1, 0, 1.04274e-05, 98979
-9135.42, 114014, -59.8423, 3.10539, -1106.07, 0.0149545, 0.229947, 0.993198, 0.349787, 0.651995, 0.0001, 91, 246, 21.7325, 0.0689728, 0, 0, 1, 0, 4.2237e-06, 98979
-9135.42, 114014, -59.8423, 3.10539, -1106.07, 0.0149545, 0.229947, 0.993198, 0.349787, 0.651995, 3, 91, 246, 21.7325, 0.0689728, 0, 0, 1, 0, 4.35744e-06, 98979
-7690.03, 487648, -565.95, 3.59858, -802.514, 0.0527741, 0.602606, 0.958125, 0.351078, 0.648177, 3, 182, 246, 44.5204, 0.209609, 1.44615, 1, 0, 0, 8.37064e-06, 98984
-9923.74, 1.00923e+06, -46.1995, 0.159744, -859.469, 0.453946, 0.305979, 0.993198, 0.349787, 0.651995, 0.0001, 91, 246, 20.364, 0.0108433, 0, 0, 1, 0, 4.63218e-05, 98994
-7337.82, 159751, -283.335, 3.49434, -724.177, -0.0492657, 0.327579, 1.03299, 0.34851, 0.655882, 0.0001, 45.5, 246, 52.0538, 0.223163, 1.38543, 1, 0, 0, 1.96344e-05, 98995
-7337.82, 159751, -283.335, 3.49434, -724.177, -0.0492657, 0.327579, 1.03299, 0.34851, 0.655882, 3, 45.5, 246, 52.0538, 0.223163, 1.30507, 1, 0, 0, -1.3675e-05, 98995
-4008.09, 170410, -334.992, 3.82231, -751.498, 0.00948056, 0.350971, 0.993198, 0.349787, 0.651995, 0.0001, 91, 246, 52.0538, 0.223163, 1.68353, 1, 1, 0, 7.46906e-06, 98995
-4008.09, 170410, -334.992, 3.82231, -751.498, 0.00948056, 0.350971, 0.993198, 0.349787, 0.651995, 3, 91, 246, 52.0538, 0.223163, 1.58286, 1, 1, 0, -6.63904e-06, 98995
228.928, 183495, -397.337, 4.21776, -795.528, 0.0806092, 0.395253, 0.958125, 0.351078, 0.648177, 0.0001, 182, 246, 52.0538, 0.223163, 3.54888, 1, 0, 0, -3.05025e-06, 98995
228.928, 183495, -397.337, 4.21776, -795.528, 0.0806092, 0.395253, 0.958125, 0.351078, 0.648177, 3, 182, 246, 52.0538, 0.223163, 3.29343, 1, 0, 0, 9.35003e-06, 98995
