-11560.6, 271831, -46.1569, 1.00439, -732.58, 0.338618, 0.333167, 1.03299, 0.34851, 0.655882, 0.0001, 45.5, 246, 17.161, 0.0439757, 0, 0, 1, 0, 24501
-11560.6, 271831, -46.1569, 1.00439, -732.58, 0.338618, 0.333167, 1.03299, 0.34851, 0.655882, 3, 45.5, 246, 17.161, 0.0439757, 0, 0, 1, 0, 24501
-10556.8, 286805, -55.2586, 1.06945, -775.709, 0.362747, 0.301199, 0.993198, 0.349787, 0.651995, 0.0001, 91, 246, 17.161, 0.0439757, 0, 0, 1, 0, 24501
-11106.9, 217639, -100.181, 1.6259, -1079.87, -0.00676384, 0.346442, 1.03299, 0.34851, 0.655882, 0.0001, 45.5, 246, 28.8257, 0.107509, 0, 0, 1, 0, 24502
-11106.9, 217639, -100.181, 1.6259, -1079.87, -0.00676384, 0.346442, 1.03299, 0.34851, 0.655882, 3, 45.5, 246, 28.8257, 0.107509, 0, 0, 1, 0, 24502
-10666.4, 229443, -203.386, 1.54019, -735.502, -0.0110567, 0.451539, 1.03299, 0.34851, 0.655882, 0.0001, 45.5, 246, 37.2707, 0.198594, 0, 0, 1, 0, 24504
-11050.4, 472078, -140.389, 0.66308, -942.873, 0.247736, 0.374342, 1.03299, 0.34851, 0.655882, 0.0001, 45.5, 246, 26.8212, 0.0742842, 0, 0, 1, 0, 24512
-11050.4, 472078, -140.389, 0.66308, -942.873, 0.247736, 0.374342, 1.03299, 0.34851, 0.655882, 3, 45.5, 246, 26.8212, 0.0742842, 0, 0, 1, 0, 24512
-8103.62, 520322, -164.064, 0.735533, -1029.51, 0.273436, 0.315507, 0.958125, 0.351078, 0.648177, 3, 182, 246, 26.8212, 0.0742842, 0, 0, 1, 0, 24512
-9413.08, 533328, -253.686, 0.487791, -964.807, -0.000621296, 0.456685, 1.03299, 0.34851, 0.655882, 0.0001, 45.5, 246, 33.5375, 0.123558, 0, 0, 0, 0, 24526
-9413.08, 533328, -253.686, 0.487791, -964.807, -0.000621296, 0.456685, 1.03299, 0.34851, 0.655882, 3, 45.5, 246, 33.5375, 0.123558, 0, 0, 0, 0, 24526
-8388.7, 574521, -130.225, 0.36855, -1122.52, 0.00013784, 0.332015, 0.993198, 0.349787, 0.651995, 0.0001, 91, 246, 28.3602, 0.0568644, 0, 0, 1, 0, 24529
-7460.72, 596949, -138.049, 0.380094, -1123.92, 0.000753089, 0.302475, 0.958125, 0.351078, 0.648177, 0.0001, 182, 246, 28.3602, 0.0568644, 0, 0, 1, 0, 24529
-5443.74, 87918.2, -195.445, 2.64461, -616.14, 0.527833, 0.328143, 1.03299, 0.34851, 0.655882, 0.0001, 45.5, 246, 49.8968, 0.206109, 1.29123, 1, 1, 0, 24531
-5443.74, 87918.2, -195.445, 2.64461, -616.14, 0.527833, 0.328143, 1.03299, 0.34851, 0.655882, 3, 45.5, 246, 49.8968, 0.206109, 1.08618, 1, 1, 0, 24531
-4038.91, 98721.5, -227.282, 2.93807, -690.263, 0.613145, 0.326212, 0.993198, 0.349787, 0.651995, 0.0001, 91, 246, 49.8968, 0.206109, 1.28986, 1, 1, 0, 24531
-4038.91, 98721.5, -227.282, 2.93807, -690.263, 0.613145, 0.326212, 0.993198, 0.349787, 0.651995, 3, 91, 246, 49.8968, 0.206109, 1.09907, 1, 1, 0, 24531
-2141.14, 112877, -266.958, 3.29402, -788.256, 0.726072, 0.339499, 0.958125, 0.351078, 0.648177, 0.0001, 182, 246, 49.8968, 0.206109, 1.55156, 1, 1, 0, 24531
-2141.14, 112877, -266.958, 3.29402, -788.256, 0.726072, 0.339499, 0.958125, 0.351078, 0.648177, 3, 182, 246, 49.8968, 0.206109, 1.40323, 1, 1, 0, 24531
1513.5, 140070, -337.927, 3.912, -977.838, 0.944499, 0.385655, 0.9175, 0.352806, 0.64323, 0.0001, 455, 246, 49.8968, 0.206109, 4.86385, 1, 0, 0, 24531
1513.5, 140070, -337.927, 3.912, -977.838, 0.944499, 0.385655, 0.9175, 0.352806, 0.64323, 3, 455, 246, 49.8968, 0.206109, 4.87489, 1, 0, 0, 24531
-10657.3, 701918, -102.952, 0.291385, -631.531, 0.0190905, 0.354088, 1.03299, 0.34851, 0.655882, 0.0001, 45.5, 246, 18.2501, 0.0380801, 0, 0, 1, 0, 24537
-10657.3, 701918, -102.952, 0.291385, -631.531, 0.0190905, 0.354088, 1.03299, 0.34851, 0.655882, 3, 45.5, 246, 18.2501, 0.0380801, 0, 0, 1, 0, 24537
-9915.79, 709811, -107.953, 0.301111, -634.285, 0.0195348, 0.319153, 0.993198, 0.349787, 0.651995, 0.0001, 91, 246, 18.2501, 0.0380801, 0, 0, 1, 0, 24537
-9077.9, 717813, -112.89, 0.310375, -637.16, 0.020007, 0.288545, 0.958125, 0.351078, 0.648177, 0.0001, 182, 246, 18.2501, 0.0380801, 0, 0, 1, 0, 24537
-8641.62, 721959, -191.414, 0.24534, -940.796, 0.446382, 0.385179, 1.03299, 0.34851, 0.655882, 0.0001, 45.5, 246, 28.0377, 0.0628728, 0, 0, 1, 0, 24539
-8641.62, 721959, -191.414, 0.24534, -940.796, 0.446382, 0.385179, 1.03299, 0.34851, 0.655882, 3, 45.5, 246, 28.0377, 0.0628728, 0, 0, 1, 0, 24539
-7711.63, 757374, -199.815, 0.259545, -1013.56, 0.480559, 0.352477, 0.993198, 0.349787, 0.651995, 3, 91, 246, 28.0377, 0.0628728, 0, 0, 1, 0, 24539
-3991.97, 217906, -159.972, 3.97223, -1693.57, 1.42691, 0.281344, 0.9175, 0.352806, 0.64323, 0.0001, 455, 246, 19.152, 0.05551, 0, 0, 0, 0, 24540
-3991.97, 217906, -159.972, 3.97223, -1693.57, 1.42691, 0.281344, 0.9175, 0.352806, 0.64323, 3, 455, 246, 19.152, 0.05551, 0, 0, 0, 0, 24540
-5487.53, 112635, -216.612, 3.3902, -1010.18, 0.143905, 0.293444, 1.03299, 0.34851, 0.655882, 0.0001, 45.5, 246, 52.218, 0.210237, 1.29297, 1, 0, 0, 24545
-5487.53, 112635, -216.612, 3.3902, -1010.18, 0.143905, 0.293444, 1.03299, 0.34851, 0.655882, 3, 45.5, 246, 52.218, 0.210237, 1.10524, 1, 0, 0, 24545
-3162.54, 133305, -270.336, 3.73652, -1061.25, 0.204297, 0.31127, 0.993198, 0.349787, 0.651995, 0.0001, 91, 246, 52.218, 0.210237, 1.48522, 1, 1, 0, 24545
-3162.54, 133305, -270.336, 3.73652, -1061.25, 0.204297, 0.31127, 0.993198, 0.349787, 0.651995, 3, 91, 246, 52.218, 0.210237, 1.35194, 1, 1, 0, 24545
115.926, 157745, -336.61, 4.15613, -1134.52, 0.28175, 0.350049, 0.958125, 0.351078, 0.648177, 0.0001, 182, 246, 52.218, 0.210237, 2.77342, 1, 0, 0, 24545
115.926, 157745, -336.61, 4.15613, -1134.52, 0.28175, 0.350049, 0.958125, 0.351078, 0.648177, 3, 182, 246, 52.218, 0.210237, 2.60721, 1, 0, 0, 24545
-7949.06, 974804, -248.492, 0.0820992, -687.17, 0.0537714, 0.400434, 1.03299, 0.34851, 0.655882, 0.0001, 45.5, 246, 24.1009, 0.0647663, 0, 0, 0, 0, 24547
-7242.17, 987071, -256.405, 0.0847849, -693.618, 0.054263, 0.368665, 0.993198, 0.349787, 0.651995, 0.0001, 91, 246, 24.1009, 0.0647663, 0, 0, 1, 0, 24547
-2559.42, 275099, -403.152, 3.52213, -1088.82, 0.995084, 0.462752, 0.958125, 0.351078, 0.648177, 0.0001, 182, 246, 46.5588, 0.217389, 1.71031, 1, 0, 0, 24551
-2559.42, 275099, -403.152, 3.52213, -1088.82, 0.995084, 0.462752, 0.958125, 0.351078, 0.648177, 3, 182, 246, 46.5588, 0.217389, 1.52619, 1, 0, 0, 24551
-7988.3, 4718.45, -31.389, 2.68487, -953.777, 0.00687701, 0.267572, 0.993198, 0.349787, 0.651995, 3, 91, 246, 17.3959, 0.052964, 0, 0, 1, 1, 24556
-9839.11, 84427.3, 1.69845, 1.6422, -1133.2, 0.0922764, 0.307912, 1.03299, 0.34851, 0.655882, 0.0001, 45.5, 246, 14.38, 0.0376094, 0, 0, 1, 0, 24557
-9839.11, 84427.3, 1.69845, 1.6422, -1133.2, 0.0922764, 0.307912, 1.03299, 0.34851, 0.655882, 3, 45.5, 246, 14.38, 0.0376094, 0, 0, 1, 0, 24557
-8788.14, 428765, -163.054, 0.455229, -795.269, 0.224439, 0.361643, 0.993198, 0.349787, 0.651995, 0.0001, 91, 246, 25.2414, 0.0936641, 0, 0, 1, 0, 24558
-7790.26, 59142.6, -84.5479, 2.24927, -855.431, 0.207649, 0.309144, 1.03299, 0.34851, 0.655882, 0.0001, 45.5, 246, 34.0673, 0.144196, 0, 0, 1, 0, 24560
-10862.7, 142053, -47.4472, 1.97495, -869.856, 0.19865, 0.298155, 1.03299, 0.34851, 0.655882, 0.0001, 45.5, 246, 20.8455, 0.0721541, 0, 0, 1, 0, 24561
-9751.25, 157176, -66.8618, 2.12324, -902.476, 0.224113, 0.277899, 0.993198, 0.349787, 0.651995, 0.0001, 91, 246, 20.8455, 0.0721541, 0, 0, 1, 0, 24561
-7857.59, 866104, -201.688, 0.149551, -905.48, 0.0984648, 0.384645, 1.03299, 0.34851, 0.655882, 0.0001, 45.5, 246, 27.574, 0.0585323, 0, 0, 0, 0, 24562
-7107.41, 886043, -209.094, 0.154932, -920.629, 0.100124, 0.351717, 0.993198, 0.349787, 0.651995, 0.0001, 91, 246, 27.574, 0.0585323, 0, 0, 1, 0, 24562
-2908.51, 298512, -405.185, 4.28297, -1048.93, 0.083427, 0.383734, 0.958125, 0.351078, 0.648177, 0.0001, 182, 246, 45.1638, 0.186183, 2.65487, 1, 0, 0, 24565
-2908.51, 298512, -405.185, 4.28297, -1048.93, 0.083427, 0.383734, 0.958125, 0.351078, 0.648177, 3, 182, 246, 45.1638, 0.186183, 2.46992, 1, 0, 0, 24565
-10554.1, 405469, -151.667, 0.67109, -848.851, 0.0741167, 0.389652, 1.03299, 0.34851, 0.655882, 0.0001, 45.5, 246, 26.7615, 0.0953245, 0, 0, 1, 0, 24567
-10554.1, 405469, -151.667, 0.67109, -848.851, 0.0741167, 0.389652, 1.03299, 0.34851, 0.655882, 3, 45.5, 246, 26.7615, 0.0953245, 0, 0, 1, 0, 24567
-10090.1, 526774, -231.473, 0.361896, -619.638, 0.158431, 0.435802, 1.03299, 0.34851, 0.655882, 0.0001, 45.5, 246, 25.8452, 0.111424, 0, 0, 1, 0, 24580
-10090.1, 526774, -231.473, 0.361896, -619.638, 0.158431, 0.435802, 1.03299, 0.34851, 0.655882, 3, 45.5, 246, 25.8452, 0.111424, 0, 0, 1, 0, 24580
-9008.87, 539148, -241.881, 0.378106, -637.916, 0.163115, 0.407492, 0.993198, 0.349787, 0.651995, 3, 91, 246, 25.8452, 0.111424, 0, 0, 1, 0, 24580
-3686.26, 182157, -309.05, 3.04577, -712.746, 0.0376124, 0.4144, 0.958125, 0.351078, 0.648177, 0.0001, 182, 246, 45.8802, 0.224566, 1.00608, 1, 1, 0, 24590
1164.66, 198191, -373.464, 3.41043, -761.292, 0.0988996, 0.452708, 0.9175, 0.352806, 0.64323, 0.0001, 455, 246, 45.8802, 0.224566, 3.35259, 1, 0, 0, 24590
1164.66, 198191, -373.464, 3.41043, -761.292, 0.0988996, 0.452708, 0.9175, 0.352806, 0.64323, 3, 455, 246, 45.8802, 0.224566, 3.37807, 1, 0, 0, 24590
-11507, 134099, -13.5135, 2.22014, -651.433, 0.242087, 0.267643, 1.03299, 0.34851, 0.655882, 3, 45.5, 246, 12.8812, 0.0338014, 0, 0, 1, 0, 24595
-8940.3, 153764, -46.1182, 2.60703, -714.95, 0.317462, 0.243509, 0.958125, 0.351078, 0.648177, 0.0001, 182, 246, 12.8812, 0.0338014, 0, 0, 1, 0, 24595
-8940.3, 153764, -46.1182, 2.60703, -714.95, 0.317462, 0.243509, 0.958125, 0.351078, 0.648177, 3, 182, 246, 12.8812, 0.0338014, 0, 0, 1, 0, 24595
-6516.4, 170147, -75.4684, 2.92676, -775.321, 0.387552, 0.250118, 0.9175, 0.352806, 0.64323, 0.0001, 455, 246, 12.8812, 0.0338014, 0, 0, 1, 0, 24595
-6516.4, 170147, -75.4684, 2.92676, -775.321, 0.387552, 0.250118, 0.9175, 0.352806, 0.64323, 3, 455, 246, 12.8812, 0.0338014, 0, 0, 1, 0, 24595
-5112.88, 91516.5, -166.318, 3.47233, -973.079, 0.520539, 0.292133, 0.9175, 0.352806, 0.64323, 3, 455, 246, 28.6321, 0.0990255, 0, 0, 1, 0, 24603
-8628.53, 98032.9, -63.5178, 2.56702, -1195.64, 0.153192, 0.268085, 0.993198, 0.349787, 0.651995, 0.0001, 91, 246, 23.2708, 0.0855188, 0, 0, 1, 0, 24606
-8628.53, 98032.9, -63.5178, 2.56702, -1195.64, 0.153192, 0.268085, 0.993198, 0.349787, 0.651995, 3, 91, 246, 23.2708, 0.0855188, 0, 0, 1, 0, 24606
-9572.34, 475044, -335.751, 0.525182, -917.798, -0.000567967, 0.573344, 1.03299, 0.34851, 0.655882, 0.0001, 45.5, 246, 39.5291, 0.186314, 0, 0, 0, 0, 24615
-9572.34, 475044, -335.751, 0.525182, -917.798, -0.000567967, 0.573344, 1.03299, 0.34851, 0.655882, 3, 45.5, 246, 39.5291, 0.186314, 0, 0, 0, 0, 24615
-3247.14, 273416, -352.936, 4.36508, -1139.35, 0.091384, 0.329055, 0.958125, 0.351078, 0.648177, 0.0001, 182, 246, 42.7715, 0.165935, 1.49716, 1, 0, 0, 24620
-3247.14, 273416, -352.936, 4.36508, -1139.35, 0.091384, 0.329055, 0.958125, 0.351078, 0.648177, 3, 182, 246, 42.7715, 0.165935, 1.31613, 1, 0, 0, 24620
-8768.96, 316737, -205.233, 0.86631, -850.725, 0.0719203, 0.420314, 0.993198, 0.349787, 0.651995, 0.0001, 91, 246, 32.731, 0.158164, 0, 0, 1, 0, 24629
-9971.55, 184082, -197.677, 2.24358, -935.419, 0.623926, 0.391362, 1.03299, 0.34851, 0.655882, 0.0001, 45.5, 246, 40.7991, 0.189164, 0, 0, 0, 0, 24632
-9971.55, 184082, -197.677, 2.24358, -935.419, 0.623926, 0.391362, 1.03299, 0.34851, 0.655882, 3, 45.5, 246, 40.7991, 0.189164, 0, 0, 0, 0, 24632
-3236.48, 99006.1, -223.949, 3.66555, -932.79, 0.1734, 0.28863, 0.958125, 0.351078, 0.648177, 0.0001, 182, 246, 44.0845, 0.158957, 1.14302, 1, 1, 0, 24637
33.2212, 123988, -299.512, 4.19911, -1013.17, 0.273029, 0.345486, 0.9175, 0.352806, 0.64323, 0.0001, 455, 246, 44.0845, 0.158957, 2.16755, 1, 0, 0, 24637
33.2212, 123988, -299.512, 4.19911, -1013.17, 0.273029, 0.345486, 0.9175, 0.352806, 0.64323, 3, 455, 246, 44.0845, 0.158957, 2.1673, 1, 0, 0, 24637
-3912.45, 50947.9, -171.443, 3.62913, -762.379, 0.304194, 0.222384, 0.993198, 0.349787, 0.651995, 0.0001, 91, 246, 45.5604, 0.105164, 1.02444, 1, 1, 0, 24638
-2700.53, 63431.7, -215.29, 4.04065, -824.929, 0.387345, 0.251612, 0.958125, 0.351078, 0.648177, 0.0001, 182, 246, 45.5604, 0.105164, 1.19322, 1, 1, 0, 24638
-2700.53, 63431.7, -215.29, 4.04065, -824.929, 0.387345, 0.251612, 0.958125, 0.351078, 0.648177, 3, 182, 246, 45.5604, 0.105164, 1.03182, 1, 1, 0, 24638
-123.46, 85220.7, -293.053, 4.75209, -948.501, 0.54333, 0.328334, 0.9175, 0.352806, 0.64323, 0.0001, 455, 246, 45.5604, 0.105164, 1.77358, 1, 1, 0, 24638
-123.46, 85220.7, -293.053, 4.75209, -948.501, 0.54333, 0.328334, 0.9175, 0.352806, 0.64323, 3, 455, 246, 45.5604, 0.105164, 1.68044, 1, 1, 0, 24638
1206.71, 209188, -353.524, 4.33286, -862.459, 0.158205, 0.377117, 0.9175, 0.352806, 0.64323, 0.0001, 455, 246, 38.5464, 0.161477, 2.41619, 1, 0, 0, 24646
1206.71, 209188, -353.524, 4.33286, -862.459, 0.158205, 0.377117, 0.9175, 0.352806, 0.64323, 3, 455, 246, 38.5464, 0.161477, 2.44553, 1, 0, 0, 24646
-10517.2, 424576, -104.376, 0.48168, -615.224, 0.000300656, 0.36265, 1.03299, 0.34851, 0.655882, 0.0001, 45.5, 246, 19.0686, 0.0638626, 0, 0, 1, 0, 24648
-10517.2, 424576, -104.376, 0.48168, -615.224, 0.000300656, 0.36265, 1.03299, 0.34851, 0.655882, 3, 45.5, 246, 19.0686, 0.0638626, 0, 0, 1, 0, 24648
-9767.04, 431371, -110.844, 0.499094, -616.694, 0.00135668, 0.329043, 0.993198, 0.349787, 0.651995, 0.0001, 91, 246, 19.0686, 0.0638626, 0, 0, 1, 0, 24648
-8577.72, 269130, -396.707, 3.58126, -737.851, 0.386559, 0.434686, 0.993198, 0.349787, 0.651995, 0.0001, 91, 246, 47.1289, 0.219677, 1.2643, 1, 1, 0, 24656
-8577.72, 269130, -396.707, 3.58126, -737.851, 0.386559, 0.434686, 0.993198, 0.349787, 0.651995, 3, 91, 246, 47.1289, 0.219677, 1.14873, 1, 1, 0, 24656
-2472.96, 289113, -463.408, 4.02653, -834.213, 0.479289, 0.477773, 0.958125, 0.351078, 0.648177, 0.0001, 182, 246, 47.1289, 0.219677, 4.72303, 1, 0, 0, 24656
-2472.96, 289113, -463.408, 4.02653, -834.213, 0.479289, 0.477773, 0.958125, 0.351078, 0.648177, 3, 182, 246, 47.1289, 0.219677, 3.96182, 1, 0, 0, 24656
-9226.52, 120477, -51.1827, 0.9677, -1040.79, -0.00247619, 0.351373, 1.03299, 0.34851, 0.655882, 0.0001, 45.5, 246, 22.6579, 0.099094, 0, 0, 1, 0, 24659
-9226.52, 120477, -51.1827, 0.9677, -1040.79, -0.00247619, 0.351373, 1.03299, 0.34851, 0.655882, 3, 45.5, 246, 22.6579, 0.099094, 0, 0, 1, 0, 24659
-9799.77, 308280, -67.3442, 0.815135, -972.489, 0.00189905, 0.311538, 0.993198, 0.349787, 0.651995, 0.0001, 91, 246, 21.4454, 0.0532523, 0, 0, 1, 0, 24674
-7865.08, 23686.2, -23.9811, 3.57723, -631.964, 0.776494, 0.199106, 0.993198, 0.349787, 0.651995, 0.0001, 91, 246, 11.2986, 0.0308657, 0, 0, 1, 0, 24677
-7865.08, 23686.2, -23.9811, 3.57723, -631.964, 0.776494, 0.199106, 0.993198, 0.349787, 0.651995, 3, 91, 246, 11.2986, 0.0308657, 0, 0, 1, 0, 24677
-7549.76, 32525.8, -49.9623, 4.09004, -728.089, 0.958559, 0.22684, 0.958125, 0.351078, 0.648177, 0.0001, 182, 246, 11.2986, 0.0308657, 0, 0, 1, 0, 24677
-7549.76, 32525.8, -49.9623, 4.09004, -728.089, 0.958559, 0.22684, 0.958125, 0.351078, 0.648177, 3, 182, 246, 11.2986, 0.0308657, 0, 0, 1, 0, 24677
-6597.7, 50922.9, -103.398, 5.05644, -936.075, 1.35002, 0.310368, 0.9175, 0.352806, 0.64323, 0.0001, 455, 246, 11.2986, 0.0308657, 0, 0, 1, 0, 24677
-6597.7, 50922.9, -103.398, 5.05644, -936.075, 1.35002, 0.310368, 0.9175, 0.352806, 0.64323, 3, 455, 246, 11.2986, 0.0308657, 0, 0, 1, 0, 24677
-9969.75, 172720, -162.951, 2.3334, -1022.65, -0.0229345, 0.364516, 1.03299, 0.34851, 0.655882, 0.0001, 45.5, 246, 38.8525, 0.176227, 0, 0, 0, 0, 24681
-9969.75, 172720, -162.951, 2.3334, -1022.65, -0.0229345, 0.364516, 1.03299, 0.34851, 0.655882, 3, 45.5, 246, 38.8525, 0.176227, 0, 0, 0, 0, 24681
-9967, 612046, -116.177, 0.432218, -776.499, 0.085961, 0.323336, 0.993198, 0.349787, 0.651995, 3, 91, 246, 21.3669, 0.0471372, 0, 0, 1, 0, 24684
-5933.83, 791964, -351.221, 0.141294, -1089.55, 0.557184, 0.475015, 1.03299, 0.34851, 0.655882, 0.0001, 45.5, 246, 36.5261, 0.103051, 0, 0, 0, 0, 24687
-5933.83, 791964, -351.221, 0.141294, -1089.55, 0.557184, 0.475015, 1.03299, 0.34851, 0.655882, 3, 45.5, 246, 36.5261, 0.103051, 0, 0, 0, 0, 24687
-12300.7, 434952, -85.6745, 0.721395, -635.877, 0.518284, 0.347437, 1.03299, 0.34851, 0.655882, 0.0001, 45.5, 246, 18.0469, 0.0474557, 0, 0, 1, 0, 24690
-12300.7, 434952, -85.6745, 0.721395, -635.877, 0.518284, 0.347437, 1.03299, 0.34851, 0.655882, 3, 45.5, 246, 18.0469, 0.0474557, 0, 0, 1, 0, 24690
-6918.12, 419891, -520.485, 3.94142, -755.285, 0.0727948, 0.526497, 0.958125, 0.351078, 0.648177, 0.0001, 182, 246, 43.4272, 0.203503, 2.1698, 1, 0, 0, 24697
-6918.12, 419891, -520.485, 3.94142, -755.285, 0.0727948, 0.526497, 0.958125, 0.351078, 0.648177, 3, 182, 246, 43.4272, 0.203503, 2.16164, 1, 0, 0, 24697
1791.2, 216994, -373.295, 4.83942, -895.932, 0.867713, 0.385471, 0.9175, 0.352806, 0.64323, 0.0001, 455, 246, 36.8156, 0.154382, 3.07668, 1, 0, 0, 24705
1791.2, 216994, -373.295, 4.83942, -895.932, 0.867713, 0.385471, 0.9175, 0.352806, 0.64323, 3, 455, 246, 36.8156, 0.154382, 3.12135, 1, 0, 0, 24705
-11093.8, 707716, -122.072, 0.410284, -907.307, 0.0222725, 0.35896, 1.03299, 0.34851, 0.655882, 0.0001, 45.5, 246, 24.746, 0.0449448, 0, 0, 1, 0, 24706
-11093.8, 707716, -122.072, 0.410284, -907.307, 0.0222725, 0.35896, 1.03299, 0.34851, 0.655882, 3, 45.5, 246, 24.746, 0.0449448, 0, 0, 1, 0, 24706
-8604.22, 739130, -137.389, 0.439225, -916.879, 0.0240274, 0.294965, 0.958125, 0.351078, 0.648177, 3, 182, 246, 24.746, 0.0449448, 0, 0, 1, 0, 24706
-8897.42, 151076, -204.716, 2.3947, -747.254, 0.789227, 0.373405, 1.03299, 0.34851, 0.655882, 3, 45.5, 246, 42.0226, 0.196769, 0, 0, 1, 0, 24707
-11691.3, 343138, -221.262, 1.08058, -717.31, 0.0415589, 0.45578, 1.03299, 0.34851, 0.655882, 0.0001, 45.5, 246, 32.3704, 0.159425, 0, 0, 0, 0, 24710
-9323.54, 86372.5, -38.7178, 1.61486, -1117.31, -0.00944658, 0.32548, 1.03299, 0.34851, 0.655882, 0.0001, 45.5, 246, 22.3486, 0.0920501, 0, 0, 1, 0, 24711
-9323.54, 86372.5, -38.7178, 1.61486, -1117.31, -0.00944658, 0.32548, 1.03299, 0.34851, 0.655882, 3, 45.5, 246, 22.3486, 0.0920501, 0, 0, 1, 0, 24711
-8815.26, 275801, -165.732, 1.39755, -1181.24, 0.000742101, 0.370423, 0.993198, 0.349787, 0.651995, 3, 91, 246, 33.8899, 0.137004, 0, 0, 1, 0, 24715
-9629.18, 83693.7, -48.432, 2.73443, -776.019, -0.0239036, 0.247462, 1.03299, 0.34851, 0.655882, 0.0001, 45.5, 246, 21.7216, 0.076714, 0, 0, 1, 0, 24719
-9629.18, 83693.7, -48.432, 2.73443, -776.019, -0.0239036, 0.247462, 1.03299, 0.34851, 0.655882, 3, 45.5, 246, 21.7216, 0.076714, 0, 0, 1, 0, 24719
-8925.62, 137440, -170.058, 3.36451, -991.87, -0.0443848, 0.257011, 1.03299, 0.34851, 0.655882, 0.0001, 45.5, 246, 41.262, 0.162639, 0, 0, 0, 0, 24720
-8925.62, 137440, -170.058, 3.36451, -991.87, -0.0443848, 0.257011, 1.03299, 0.34851, 0.655882, 3, 45.5, 246, 41.262, 0.162639, 0, 0, 0, 0, 24720
-6535.99, 154980, -217.505, 3.66432, -1006.92, 0.00982811, 0.270846, 0.993198, 0.349787, 0.651995, 3, 91, 246, 41.262, 0.162639, 0, 0, 1, 0, 24720
-3351.88, 174372, -274.174, 4.02129, -1038.41, 0.0748298, 0.303351, 0.958125, 0.351078, 0.648177, 0.0001, 182, 246, 41.262, 0.162639, 1.00871, 1, 0, 0, 24720
-8939.82, 45725.7, -17.8283, 2.80422, -601.144, 0.566017, 0.227924, 1.03299, 0.34851, 0.655882, 0.0001, 45.5, 246, 14.1465, 0.0422559, 0, 0, 1, 0, 24730
-8939.82, 45725.7, -17.8283, 2.80422, -601.144, 0.566017, 0.227924, 1.03299, 0.34851, 0.655882, 3, 45.5, 246, 14.1465, 0.0422559, 0, 0, 1, 0, 24730
-8494.39, 53894.8, -36.2625, 3.12373, -664.439, 0.663933, 0.223791, 0.993198, 0.349787, 0.651995, 3, 91, 246, 14.1465, 0.0422559, 0, 0, 1, 0, 24730
-7794.64, 64454.2, -60.6266, 3.51616, -749.68, 0.795759, 0.2365, 0.958125, 0.351078, 0.648177, 0.0001, 182, 246, 14.1465, 0.0422559, 0, 0, 1, 0, 24730
-7794.64, 64454.2, -60.6266, 3.51616, -749.68, 0.795759, 0.2365, 0.958125, 0.351078, 0.648177, 3, 182, 246, 14.1465, 0.0422559, 0, 0, 1, 0, 24730
-6258.08, 84674.4, -107.312, 4.212, -919.908, 1.05815, 0.285615, 0.9175, 0.352806, 0.64323, 0.0001, 455, 246, 14.1465, 0.0422559, 0, 0, 1, 0, 24730
-6258.08, 84674.4, -107.312, 4.212, -919.908, 1.05815, 0.285615, 0.9175, 0.352806, 0.64323, 3, 455, 246, 14.1465, 0.0422559, 0, 0, 1, 0, 24730
-10035.1, 82524.2, -7.27348, 2.32404, -1124.59, -0.0184989, 0.272448, 1.03299, 0.34851, 0.655882, 0.0001, 45.5, 246, 17.4713, 0.0532999, 0, 0, 1, 0, 24735
-10035.1, 82524.2, -7.27348, 2.32404, -1124.59, -0.0184989, 0.272448, 1.03299, 0.34851, 0.655882, 3, 45.5, 246, 17.4713, 0.0532999, 0, 0, 1, 0, 24735
-9284.65, 104284, -32.2925, 2.48406, -1124.75, 0.00686707, 0.257632, 0.993198, 0.349787, 0.651995, 0.0001, 91, 246, 17.4713, 0.0532999, 0, 0, 1, 0, 24735
-9284.65, 104284, -32.2925, 2.48406, -1124.75, 0.00686707, 0.257632, 0.993198, 0.349787, 0.651995, 3, 91, 246, 17.4713, 0.0532999, 0, 0, 1, 0, 24735
-10694.7, 230055, -113.055, 1.15523, -689.818, -0.00141027, 0.370772, 1.03299, 0.34851, 0.655882, 0.0001, 45.5, 246, 25.0283, 0.116423, 0, 0, 1, 0, 24744
-10694.7, 230055, -113.055, 1.15523, -689.818, -0.00141027, 0.370772, 1.03299, 0.34851, 0.655882, 3, 45.5, 246, 25.0283, 0.116423, 0, 0, 1, 0, 24744
-9628.62, 238514, -125.965, 1.21205, -693.72, 0.00474055, 0.343053, 0.993198, 0.349787, 0.651995, 0.0001, 91, 246, 25.0283, 0.116423, 0, 0, 1, 0, 24744
-13067.7, 453421, 3.88551, 0.700002, -981.277, 0.0831373, 0.332049, 1.03299, 0.34851, 0.655882, 3, 45.5, 246, 18.2677, 0.00340733, 0, 0, 1, 0, 24752
-9842.61, 101707, -64.6563, 2.35644, -799.44, 0.639961, 0.277642, 1.03299, 0.34851, 0.655882, 0.0001, 45.5, 246, 24.1365, 0.0902306, 0, 0, 1, 0, 24766
-9842.61, 101707, -64.6563, 2.35644, -799.44, 0.639961, 0.277642, 1.03299, 0.34851, 0.655882, 3, 45.5, 246, 24.1365, 0.0902306, 0, 0, 1, 0, 24766
-5878.12, 18296.9, -80.8115, 3.32541, -901.608, -0.0228609, 0.211588, 1.03299, 0.34851, 0.655882, 0.0001, 45.5, 246, 37.057, 0.0707611, 0, 0, 1, 1, 24774
-5878.12, 18296.9, -80.8115, 3.32541, -901.608, -0.0228609, 0.211588, 1.03299, 0.34851, 0.655882, 3, 45.5, 246, 37.057, 0.0707611, 0, 0, 1, 1, 24774
-8414, 171939, -65.0877, 1.63604, -1261.59, 0.989167, 0.274988, 0.958125, 0.351078, 0.648177, 0.0001, 182, 246, 19.0384, 0.0633005, 0, 0, 1, 0, 24776
-8414, 171939, -65.0877, 1.63604, -1261.59, 0.989167, 0.274988, 0.958125, 0.351078, 0.648177, 3, 182, 246, 19.0384, 0.0633005, 0, 0, 1, 0, 24776
-9929.64, 385942, -290.725, 0.415251, -626.38, 0.0002494, 0.556052, 1.03299, 0.34851, 0.655882, 0.0001, 45.5, 246, 35.0669, 0.199372, 0, 0, 0, 0, 24778
-8726.24, 394368, -304.852, 0.432042, -629.767, 0.00103745, 0.538805, 0.993198, 0.349787, 0.651995, 0.0001, 91, 246, 35.0669, 0.199372, 0, 0, 1, 0, 24778
-6271.58, 393008, -514.5, 3.48647, -686.569, 0.135453, 0.572862, 0.958125, 0.351078, 0.648177, 0.0001, 182, 246, 44.0294, 0.220614, 1.71529, 1, 0, 0, 24787
-6271.58, 393008, -514.5, 3.48647, -686.569, 0.135453, 0.572862, 0.958125, 0.351078, 0.648177, 3, 182, 246, 44.0294, 0.220614, 1.59934, 1, 0, 0, 24787
-10414.5, 294014, -205.244, 1.02963, -844.263, 0.00834411, 0.460088, 1.03299, 0.34851, 0.655882, 0.0001, 45.5, 246, 34.9464, 0.173723, 0, 0, 0, 0, 24798
-10414.5, 294014, -205.244, 1.02963, -844.263, 0.00834411, 0.460088, 1.03299, 0.34851, 0.655882, 3, 45.5, 246, 34.9464, 0.173723, 0, 0, 0, 0, 24798
-8905.02, 307432, -223.403, 1.08099, -851.661, 0.0132513, 0.438297, 0.993198, 0.349787, 0.651995, 3, 91, 246, 34.9464, 0.173723, 0, 0, 1, 0, 24798
-5497.91, 619295, -358.816, 0.0646987, -764.213, 0.0251797, 0.489114, 0.958125, 0.351078, 0.648177, 0.0001, 182, 246, 33.0531, 0.148572, 0, 0, 0, 0, 24805
-8551.29, 123471, -144.564, 2.27273, -968.359, -0.0179512, 0.360362, 1.03299, 0.34851, 0.655882, 0.0001, 45.5, 246, 40.0629, 0.191429, 0, 0, 1, 0, 24808
-8551.29, 123471, -144.564, 2.27273, -968.359, -0.0179512, 0.360362, 1.03299, 0.34851, 0.655882, 3, 45.5, 246, 40.0629, 0.191429, 0, 0, 1, 0, 24808
-7257.28, 75130.3, -129.781, 1.71604, -628.678, 0.524747, 0.379454, 1.03299, 0.34851, 0.655882, 3, 45.5, 246, 43.9204, 0.233838, 0, 0, 1, 0, 24814
-6649.2, 85240.7, -148.364, 1.8743, -693.163, 0.58761, 0.360662, 0.993198, 0.349787, 0.651995, 0.0001, 91, 246, 43.9204, 0.233838, 0, 0, 1, 0, 24814
-6649.2, 85240.7, -148.364, 1.8743, -693.163, 0.58761, 0.360662, 0.993198, 0.349787, 0.651995, 3, 91, 246, 43.9204, 0.233838, 0, 0, 1, 0, 24814
-5796.76, 97898.6, -170.488, 2.05625, -773.818, 0.666435, 0.349957, 0.958125, 0.351078, 0.648177, 0.0001, 182, 246, 43.9204, 0.233838, 0, 0, 1, 0, 24814
-5796.76, 97898.6, -170.488, 2.05625, -773.818, 0.666435, 0.349957, 0.958125, 0.351078, 0.648177, 3, 182, 246, 43.9204, 0.233838, 0, 0, 1, 0, 24814
-10654.6, 149781, -81.862, 1.87309, -603.134, 0.0147655, 0.31863, 1.03299, 0.34851, 0.655882, 0.0001, 45.5, 246, 22.7037, 0.101607, 0, 0, 1, 0, 24815
-10654.6, 149781, -81.862, 1.87309, -603.134, 0.0147655, 0.31863, 1.03299, 0.34851, 0.655882, 3, 45.5, 246, 22.7037, 0.101607, 0, 0, 1, 0, 24815
-9548.93, 156217, -97.493, 1.99084, -609.881, 0.0312287, 0.297684, 0.993198, 0.349787, 0.651995, 0.0001, 91, 246, 22.7037, 0.101607, 0, 0, 1, 0, 24815
-10778.7, 112466, -25.8258, 2.33445, -608.958, -0.00155029, 0.265896, 1.03299, 0.34851, 0.655882, 0.0001, 45.5, 246, 14.391, 0.0473269, 0, 0, 1, 0, 24816
-10778.7, 112466, -25.8258, 2.33445, -608.958, -0.00155029, 0.265896, 1.03299, 0.34851, 0.655882, 3, 45.5, 246, 14.391, 0.0473269, 0, 0, 1, 0, 24816
-9797, 118655, -40.9883, 2.49751, -612.136, 0.0240808, 0.250914, 0.993198, 0.349787, 0.651995, 0.0001, 91, 246, 14.391, 0.0473269, 0, 0, 1, 0, 24816
-11011.3, 213708, -106.125, 2.4791, -716.635, 0.211042, 0.268529, 0.993198, 0.349787, 0.651995, 0.0001, 91, 246, 22.3154, 0.0829516, 0, 0, 1, 0, 24818
-11011.3, 213708, -106.125, 2.4791, -716.635, 0.211042, 0.268529, 0.993198, 0.349787, 0.651995, 3, 91, 246, 22.3154, 0.0829516, 0, 0, 1, 0, 24818
-10489.6, 720060, -79.4558, 0.27644, -813.155, 0.16303, 0.347874, 1.03299, 0.34851, 0.655882, 0.0001, 45.5, 246, 20.9813, 0.0280554, 0, 0, 1, 0, 24819
-10489.6, 720060, -79.4558, 0.27644, -813.155, 0.16303, 0.347874, 1.03299, 0.34851, 0.655882, 3, 45.5, 246, 20.9813, 0.0280554, 0, 0, 1, 0, 24819
-9796.57, 738403, -84.0631, 0.287753, -835.296, 0.1677, 0.312447, 0.993198, 0.349787, 0.651995, 0.0001, 91, 246, 20.9813, 0.0280554, 0, 0, 1, 0, 24819
-8991.03, 757784, -88.7364, 0.298845, -858.736, 0.172653, 0.281366, 0.958125, 0.351078, 0.648177, 0.0001, 182, 246, 20.9813, 0.0280554, 0, 0, 1, 0, 24819
-11765.6, 322027, -113.226, 1.09548, -829.157, -0.0046062, 0.361776, 1.03299, 0.34851, 0.655882, 0.0001, 45.5, 246, 24.7613, 0.088762, 0, 0, 1, 0, 24831
-11765.6, 322027, -113.226, 1.09548, -829.157, -0.0046062, 0.361776, 1.03299, 0.34851, 0.655882, 3, 45.5, 246, 24.7613, 0.088762, 0, 0, 1, 0, 24831
-11209.1, 350887, -343.178, 0.686942, -607.742, 0.513494, 0.632315, 1.03299, 0.34851, 0.655882, 0.0001, 45.5, 246, 39.7523, 0.234387, 0, 0, 0, 0, 24838
-11209.1, 350887, -343.178, 0.686942, -607.742, 0.513494, 0.632315, 1.03299, 0.34851, 0.655882, 3, 45.5, 246, 39.7523, 0.234387, 0, 0, 0, 0, 24838
-5809.67, 137949, -258.901, 3.2431, -919.094, 0.0601424, 0.359106, 1.03299, 0.34851, 0.655882, 0.0001, 45.5, 246, 55.2639, 0.241695, 1.33735, 1, 0, 0, 24839
-5809.67, 137949, -258.901, 3.2431, -919.094, 0.0601424, 0.359106, 1.03299, 0.34851, 0.655882, 3, 45.5, 246, 55.2639, 0.241695, 1.20952, 1, 0, 0, 24839
-3038.12, 155181, -311.593, 3.5538, -957.191, 0.111928, 0.376554, 0.993198, 0.349787, 0.651995, 0.0001, 91, 246, 55.2639, 0.241695, 1.63829, 1, 1, 0, 24839
-3038.12, 155181, -311.593, 3.5538, -957.191, 0.111928, 0.376554, 0.993198, 0.349787, 0.651995, 3, 91, 246, 55.2639, 0.241695, 1.52399, 1, 1, 0, 24839
666.634, 175396, -375.301, 3.92492, -1013.17, 0.176443, 0.41288, 0.958125, 0.351078, 0.648177, 0.0001, 182, 246, 55.2639, 0.241695, 4.17418, 1, 0, 0, 24839
666.634, 175396, -375.301, 3.92492, -1013.17, 0.176443, 0.41288, 0.958125, 0.351078, 0.648177, 3, 182, 246, 55.2639, 0.241695, 3.84264, 1, 0, 0, 24839
-7526.93, 91449.8, -141.915, 3.42349, -807.363, 0.052728, 0.215796, 1.03299, 0.34851, 0.655882, 3, 45.5, 246, 38.5128, 0.136163, 0, 0, 1, 0, 24851
375.583, 140768, -312.906, 4.80522, -962.015, 0.30943, 0.344554, 0.9175, 0.352806, 0.64323, 0.0001, 455, 246, 38.5128, 0.136163, 1.92494, 1, 0, 0, 24851
375.583, 140768, -312.906, 4.80522, -962.015, 0.30943, 0.344554, 0.9175, 0.352806, 0.64323, 3, 455, 246, 38.5128, 0.136163, 1.92549, 1, 0, 0, 24851
-10460.4, 93992.4, -45.9719, 3.40653, -714.092, 0.231997, 0.167012, 1.03299, 0.34851, 0.655882, 0.0001, 45.5, 246, 20.0017, 0.0603586, 0, 0, 0, 0, 24861
-10460.4, 93992.4, -45.9719, 3.40653, -714.092, 0.231997, 0.167012, 1.03299, 0.34851, 0.655882, 3, 45.5, 246, 20.0017, 0.0603586, 0, 0, 0, 0, 24861
-7270.67, 116301, -109.286, 4.19253, -801.636, 0.387061, 0.20933, 0.958125, 0.351078, 0.648177, 3, 182, 246, 20.0017, 0.0603586, 0, 0, 1, 0, 24861
-11019, 849559, -82.9834, 0.312314, -1068.43, 0.0830154, 0.34698, 1.03299, 0.34851, 0.655882, 0.0001, 45.5, 246, 26.828, 0.0253428, 0, 0, 1, 0, 24871
-11019, 849559, -82.9834, 0.312314, -1068.43, 0.0830154, 0.34698, 1.03299, 0.34851, 0.655882, 3, 45.5, 246, 26.828, 0.0253428, 0, 0, 1, 0, 24871
-6881.97, -75038.2, 18.2554, 2.96516, -1035.4, 0.559509, 0.270395, 1.03299, 0.34851, 0.655882, 0.0001, 45.5, 246, 9.94324, 0.051625, 1.95669, 1, 1, 0, 24876
-6881.97, -75038.2, 18.2554, 2.96516, -1035.4, 0.559509, 0.270395, 1.03299, 0.34851, 0.655882, 3, 45.5, 246, 9.94324, 0.051625, 1.80604, 1, 1, 0, 24876
-9339.14, 11464.3, -130.151, 4.53843, -1568.75, 1.07932, 0.363444, 0.9175, 0.352806, 0.64323, 3, 455, 246, 9.94324, 0.051625, 0, 0, 1, 0, 24876
-12332.8, 240751, -12.9122, 1.34443, -1081.87, 0.402626, 0.314519, 1.03299, 0.34851, 0.655882, 0.0001, 45.5, 246, 19.0447, 0.0270914, 0, 0, 1, 0, 24878
-11074.5, 268071, -27.6086, 1.44518, -1156.93, 0.4391, 0.285182, 0.993198, 0.349787, 0.651995, 3, 91, 246, 19.0447, 0.0270914, 0, 0, 1, 0, 24878
-9432.82, 299999, -45.1979, 1.55565, -1245.67, 0.482455, 0.262145, 0.958125, 0.351078, 0.648177, 0.0001, 182, 246, 19.0447, 0.0270914, 0, 0, 1, 0, 24878
-8309.39, 40478.2, -52.1277, 1.71129, -851.887, 0.295807, 0.331669, 1.03299, 0.34851, 0.655882, 0.0001, 45.5, 246, 28.64, 0.135671, 0, 0, 1, 1, 24883
-8309.39, 40478.2, -52.1277, 1.71129, -851.887, 0.295807, 0.331669, 1.03299, 0.34851, 0.655882, 3, 45.5, 246, 28.64, 0.135671, 0, 0, 1, 1, 24883
-11533.2, 388401, -112.15, 0.926208, -1075.61, 0.00936261, 0.36157, 1.03299, 0.34851, 0.655882, 0.0001, 45.5, 246, 27.5874, 0.0750361, 0, 0, 1, 0, 24884
-11533.2, 388401, -112.15, 0.926208, -1075.61, 0.00936261, 0.36157, 1.03299, 0.34851, 0.655882, 3, 45.5, 246, 27.5874, 0.0750361, 0, 0, 1, 0, 24884
-8722.97, 310942, -247.235, 0.473866, -884.928, 0.393181, 0.526126, 1.03299, 0.34851, 0.655882, 0.0001, 45.5, 246, 38.0737, 0.201341, 0, 0, 0, 0, 24885
-9850.83, 152488, -133.799, 2.44701, -1111.31, 0.0618362, 0.331112, 1.03299, 0.34851, 0.655882, 0.0001, 45.5, 246, 36.5503, 0.155508, 0, 0, 0, 0, 24888
-9850.83, 152488, -133.799, 2.44701, -1111.31, 0.0618362, 0.331112, 1.03299, 0.34851, 0.655882, 3, 45.5, 246, 36.5503, 0.155508, 0, 0, 1, 0, 24888
-9937.47, 223470, -168.87, 1.53448, -1189, -0.00411647, 0.421942, 1.03299, 0.34851, 0.655882, 3, 45.5, 246, 38.2502, 0.173932, 0, 0, 0, 0, 24891
-8271.19, 248789, -195.652, 1.6235, -1196.81, 0.00682687, 0.403234, 0.993198, 0.349787, 0.651995, 0.0001, 91, 246, 38.2502, 0.173932, 0, 0, 1, 0, 24891
-8271.19, 248789, -195.652, 1.6235, -1196.81, 0.00682687, 0.403234, 0.993198, 0.349787, 0.651995, 3, 91, 246, 38.2502, 0.173932, 0, 0, 1, 0, 24891
-12145.1, 469231, -93.8669, 0.711492, -783.944, 0.147527, 0.351333, 1.03299, 0.34851, 0.655882, 0.0001, 45.5, 246, 21.2076, 0.0516735, 0, 0, 1, 0, 24892
-1410.66, 145978, -269.016, 3.79014, -1176.35, 0.55516, 0.338862, 0.9175, 0.352806, 0.64323, 0.0001, 455, 246, 39.9126, 0.160054, 1.50422, 1, 0, 0, 24897
-1410.66, 145978, -269.016, 3.79014, -1176.35, 0.55516, 0.338862, 0.9175, 0.352806, 0.64323, 3, 455, 246, 39.9126, 0.160054, 1.5047, 1, 0, 0, 24897
-1955.36, 150395, -280.344, 2.79084, -717.648, 0.080174, 0.394862, 0.9175, 0.352806, 0.64323, 3, 455, 246, 44.1646, 0.224229, 1.0225, 1, 0, 0, 24898
-11188.9, 186310, -113.962, 1.98754, -788.591, -0.0148975, 0.333435, 1.03299, 0.34851, 0.655882, 3, 45.5, 246, 28.2851, 0.12312, 0, 0, 1, 0, 24904
-7956.71, 177170, -102.403, 0.091005, -1171.06, 0.0797099, 0.402954, 1.03299, 0.34851, 0.655882, 0.0001, 45.5, 246, 29.763, 0.152219, 0, 0, 1, 0, 24908
-7956.71, 177170, -102.403, 0.091005, -1171.06, 0.0797099, 0.402954, 1.03299, 0.34851, 0.655882, 3, 45.5, 246, 29.763, 0.152219, 0, 0, 1, 0, 24908
-7916.6, 775548, -212.787, 0.191429, -952.197, 0.0201694, 0.396335, 1.03299, 0.34851, 0.655882, 0.0001, 45.5, 246, 29.1945, 0.0701158, 0, 0, 0, 0, 24921
-7916.6, 775548, -212.787, 0.191429, -952.197, 0.0201694, 0.396335, 1.03299, 0.34851, 0.655882, 3, 45.5, 246, 29.1945, 0.0701158, 0, 0, 0, 0, 24921
-7041.29, 793176, -221.182, 0.197704, -956.368, 0.0204006, 0.364383, 0.993198, 0.349787, 0.651995, 3, 91, 246, 29.1945, 0.0701158, 0, 0, 1, 0, 24921
-10015.1, 824248, -167.546, 0.309735, -931.394, 0.0696354, 0.372086, 1.03299, 0.34851, 0.655882, 0.0001, 45.5, 246, 27.0373, 0.0519283, 0, 0, 0, 0, 24933
-10015.1, 824248, -167.546, 0.309735, -931.394, 0.0696354, 0.372086, 1.03299, 0.34851, 0.655882, 3, 45.5, 246, 27.0373, 0.0519283, 0, 0, 0, 0, 24933
-11830.5, 250772, -150.439, 1.50452, -720.716, 0.64595, 0.373614, 1.03299, 0.34851, 0.655882, 3, 45.5, 246, 28.209, 0.124614, 0, 0, 1, 0, 24945
653.385, 366990, -458.422, 2.77348, -725.946, 0.156567, 0.546589, 0.9175, 0.352806, 0.64323, 3, 455, 246, 40.1972, 0.209987, 1.34335, 1, 0, 0, 24947
-11080.5, 159137, -61.8144, 1.78887, -675.295, 0.474128, 0.30937, 1.03299, 0.34851, 0.655882, 0.0001, 45.5, 246, 19.953, 0.0760244, 0, 0, 1, 0, 24960
-11080.5, 159137, -61.8144, 1.78887, -675.295, 0.474128, 0.30937, 1.03299, 0.34851, 0.655882, 3, 45.5, 246, 19.953, 0.0760244, 0, 0, 1, 0, 24960
-9952.83, 171945, -77.4026, 1.94705, -734.44, 0.529075, 0.28666, 0.993198, 0.349787, 0.651995, 0.0001, 91, 246, 19.953, 0.0760244, 0, 0, 1, 0, 24960
-1390.05, 236501, -373.467, 3.65382, -1163.13, 0.19542, 0.436069, 0.958125, 0.351078, 0.648177, 0.0001, 182, 246, 50.1139, 0.225361, 2.27083, 1, 0, 0, 24961
-1390.05, 236501, -373.467, 3.65382, -1163.13, 0.19542, 0.436069, 0.958125, 0.351078, 0.648177, 3, 182, 246, 50.1139, 0.225361, 2.08822, 1, 0, 0, 24961
-6273.24, 666721, -232.644, 0.242241, -1137.61, 8.53268e-05, 0.384263, 0.993198, 0.349787, 0.651995, 0.0001, 91, 246, 33.5253, 0.0884121, 0, 0, 1, 0, 24966
-9200.33, 96894, -12.7251, 1.34201, -1148.46, 0.00106724, 0.29378, 0.993198, 0.349787, 0.651995, 0.0001, 91, 246, 13.1403, 0.0359834, 0, 0, 1, 0, 24968
-9200.33, 96894, -12.7251, 1.34201, -1148.46, 0.00106724, 0.29378, 0.993198, 0.349787, 0.651995, 3, 91, 246, 13.1403, 0.0359834, 0, 0, 1, 0, 24968
-4427.92, 295692, -426.103, 3.16323, -705.026, 0.0403812, 0.524763, 0.958125, 0.351078, 0.648177, 0.0001, 182, 246, 45.7998, 0.231577, 1.27114, 1, 0, 0, 24971
-4427.92, 295692, -426.103, 3.16323, -705.026, 0.0403812, 0.524763, 0.958125, 0.351078, 0.648177, 3, 182, 246, 45.7998, 0.231577, 1.0198, 1, 0, 0, 24971
-7840.31, 12279.9, -119.706, 4.27296, -994.728, 0.333662, 0.321351, 0.9175, 0.352806, 0.64323, 3, 455, 246, 17.8065, 0.00512578, 0, 0, 1, 1, 24975
-10039, 193139, -231.829, 1.60514, -567.346, 0.633397, 0.477478, 1.03299, 0.34851, 0.655882, 0.0001, 45.5, 246, 40.233, 0.22605, 0, 0, 1, 0, 24976
-10039, 193139, -231.829, 1.60514, -567.346, 0.633397, 0.477478, 1.03299, 0.34851, 0.655882, 3, 45.5, 246, 40.233, 0.22605, 0, 0, 1, 0, 24976
690.344, 423452, -318.213, 3.78301, -1218.3, 0.142739, 0.316633, 0.9175, 0.352806, 0.64323, 3, 455, 246, 32.887, 0.101727, 0, 0, 0, 0, 24985
-6879.83, 539483, -313.523, 0.117284, -804.795, 0.340339, 0.483252, 0.993198, 0.349787, 0.651995, 0.0001, 91, 246, 32.4054, 0.14622, 0, 0, 1, 0, 24986
-5145.26, 254507, -342.487, 4.41102, -757.971, 0.420027, 0.30931, 0.958125, 0.351078, 0.648177, 0.0001, 182, 246, 37.1661, 0.155827, 1.01678, 1, 0, 0, 24989
-10745.3, 208344, -127.09, 1.7884, -1148.27, 0.111952, 0.362256, 1.03299, 0.34851, 0.655882, 0.0001, 45.5, 246, 33.1989, 0.133903, 0, 0, 0, 0, 24990
-10745.3, 208344, -127.09, 1.7884, -1148.27, 0.111952, 0.362256, 1.03299, 0.34851, 0.655882, 3, 45.5, 246, 33.1989, 0.133903, 0, 0, 0, 0, 24990
-9048.15, 233492, -154.306, 1.91009, -1177.23, 0.129249, 0.343064, 0.993198, 0.349787, 0.651995, 3, 91, 246, 33.1989, 0.133903, 0, 0, 1, 0, 24990
-11991.1, 300819, -144.245, 1.49899, -1071.19, 0.00160752, 0.374202, 1.03299, 0.34851, 0.655882, 0.0001, 45.5, 246, 31.6919, 0.116793, 0, 0, 0, 0, 24991
-11991.1, 300819, -144.245, 1.49899, -1071.19, 0.00160752, 0.374202, 1.03299, 0.34851, 0.655882, 3, 45.5, 246, 31.6919, 0.116793, 0, 0, 0, 0, 24991
-5833.32, 88343.5, -167.818, 3.18885, -1115.98, 0.16108, 0.286923, 1.03299, 0.34851, 0.655882, 0.0001, 45.5, 246, 48.5426, 0.194108, 1.04452, 1, 1, 0, 24994
-4165.15, 112509, -217.415, 3.503, -1166.68, 0.215716, 0.297517, 0.993198, 0.349787, 0.651995, 0.0001, 91, 246, 48.5426, 0.194108, 1.13524, 1, 1, 0, 24994
-1657.66, 140355, -278.192, 3.87872, -1237.96, 0.285227, 0.326571, 0.958125, 0.351078, 0.648177, 0.0001, 182, 246, 48.5426, 0.194108, 1.68949, 1, 1, 0, 24994
-1657.66, 140355, -278.192, 3.87872, -1237.96, 0.285227, 0.326571, 0.958125, 0.351078, 0.648177, 3, 182, 246, 48.5426, 0.194108, 1.53001, 1, 0, 0, 24994
-6059.68, 177721, -226.448, 3.88723, -679.119, 0.210945, 0.266439, 0.958125, 0.351078, 0.648177, 0.0001, 182, 246, 31.6741, 0.127398, 0, 0, 1, 0, 24996
-9461.81, 96977.2, -42.4123, 1.54995, -954.741, 0.042009, 0.326415, 1.03299, 0.34851, 0.655882, 3, 45.5, 246, 21.4858, 0.0895621, 0, 0, 1, 0, 24999
-11493.2, 108678, 0.20344, 3.03247, -1103.92, 0.157895, 0.203165, 1.03299, 0.34851, 0.655882, 0.0001, 45.5, 246, 17.9724, 0.0441563, 0, 0, 0, 0, 25000
-11493.2, 108678, 0.20344, 3.03247, -1103.92, 0.157895, 0.203165, 1.03299, 0.34851, 0.655882, 3, 45.5, 246, 17.9724, 0.0441563, 0, 0, 0, 0, 25000
