-8422.43, 177144, -302.626, 3.57491, -667.747, -0.0618355, 0.330509, 1.03299, 0.34851, 0.655882, 0.0001, 45.5, 246, 51.2533, 0.222584, 1.39765, 1, 0, 0, 104506
-8422.43, 177144, -302.626, 3.57491, -667.747, -0.0618355, 0.330509, 1.03299, 0.34851, 0.655882, 3, 45.5, 246, 51.2533, 0.222584, 1.32653, 1, 0, 0, 104506
-4669.79, 186448, -355.348, 3.91451, -696.703, -0.000195728, 0.357011, 0.993198, 0.349787, 0.651995, 0.0001, 91, 246, 51.2533, 0.222584, 1.70433, 1, 1, 0, 104506
-4669.79, 186448, -355.348, 3.91451, -696.703, -0.000195728, 0.357011, 0.993198, 0.349787, 0.651995, 3, 91, 246, 51.2533, 0.222584, 1.6071, 1, 1, 0, 104506
50.6231, 198324, -419.212, 4.32616, -742.702, 0.0744047, 0.405431, 0.958125, 0.351078, 0.648177, 0.0001, 182, 246, 51.2533, 0.222584, 4.19753, 1, 0, 0, 104506
50.6231, 198324, -419.212, 4.32616, -742.702, 0.0744047, 0.405431, 0.958125, 0.351078, 0.648177, 3, 182, 246, 51.2533, 0.222584, 3.82328, 1, 0, 0, 104506
-11748.1, 349338, -260.045, 1.47667, -1076.38, 0.0262392, 0.490703, 1.03299, 0.34851, 0.655882, 0.0001, 45.5, 246, 41.0183, 0.182154, 0, 0, 0, 0, 104516
-11748.1, 349338, -260.045, 1.47667, -1076.38, 0.0262392, 0.490703, 1.03299, 0.34851, 0.655882, 3, 45.5, 246, 41.0183, 0.182154, 0, 0, 0, 0, 104516
-9707.78, 133514, -149.243, 3.4328, -833.967, -0.052841, 0.220947, 1.03299, 0.34851, 0.655882, 0.0001, 45.5, 246, 36.208, 0.137108, 0, 0, 0, 0, 104518
-9707.78, 133514, -149.243, 3.4328, -833.967, -0.052841, 0.220947, 1.03299, 0.34851, 0.655882, 3, 45.5, 246, 36.208, 0.137108, 0, 0, 0, 0, 104518
-7466.11, 145660, -190.298, 3.73835, -846.599, 0.00363754, 0.234783, 0.993198, 0.349787, 0.651995, 0.0001, 91, 246, 36.208, 0.137108, 0, 0, 1, 0, 104518
-7466.11, 145660, -190.298, 3.73835, -846.599, 0.00363754, 0.234783, 0.993198, 0.349787, 0.651995, 3, 91, 246, 36.208, 0.137108, 0, 0, 1, 0, 104518
604.572, 181360, -322.172, 4.71982, -940.386, 0.187099, 0.346815, 0.9175, 0.352806, 0.64323, 0.0001, 455, 246, 36.208, 0.137108, 1.82235, 1, 0, 0, 104518
604.572, 181360, -322.172, 4.71982, -940.386, 0.187099, 0.346815, 0.9175, 0.352806, 0.64323, 3, 455, 246, 36.208, 0.137108, 1.83277, 1, 0, 0, 104518
859.598, 189762, -331.236, 5.00476, -881.853, 0.274224, 0.346702, 0.9175, 0.352806, 0.64323, 0.0001, 455, 246, 34.8022, 0.131005, 1.73046, 1, 0, 0, 104520
859.598, 189762, -331.236, 5.00476, -881.853, 0.274224, 0.346702, 0.9175, 0.352806, 0.64323, 3, 455, 246, 34.8022, 0.131005, 1.74214, 1, 0, 0, 104520
-8937.02, 347451, -224.853, 0.547355, -619.538, 0.0154612, 0.44272, 0.993198, 0.349787, 0.651995, 0.0001, 91, 246, 30.1422, 0.162964, 0, 0, 1, 0, 104525
-8041.9, 636079, -149.505, 0.286309, -1026.74, 0.00318623, 0.338115, 0.993198, 0.349787, 0.651995, 0.0001, 91, 246, 27.7324, 0.0590694, 0, 0, 1, 0, 104530
-7525.9, 152234, -266.126, 2.92964, -609.923, -0.0395382, 0.390313, 1.03299, 0.34851, 0.655882, 0.0001, 45.5, 246, 50.7692, 0.238325, 1.27252, 1, 1, 0, 104532
-7525.9, 152234, -266.126, 2.92964, -609.923, -0.0395382, 0.390313, 1.03299, 0.34851, 0.655882, 3, 45.5, 246, 50.7692, 0.238325, 1.16299, 1, 1, 0, 104532
-4896.5, 159918, -306.06, 3.17572, -630.977, 0.00139457, 0.400098, 0.993198, 0.349787, 0.651995, 0.0001, 91, 246, 50.7692, 0.238325, 1.4133, 1, 1, 0, 104532
-4896.5, 159918, -306.06, 3.17572, -630.977, 0.00139457, 0.400098, 0.993198, 0.349787, 0.651995, 3, 91, 246, 50.7692, 0.238325, 1.27087, 1, 1, 0, 104532
-1642.34, 169165, -352.794, 3.46174, -662.266, 0.0497855, 0.424797, 0.958125, 0.351078, 0.648177, 0.0001, 182, 246, 50.7692, 0.238325, 1.93463, 1, 1, 0, 104532
-1642.34, 169165, -352.794, 3.46174, -662.266, 0.0497855, 0.424797, 0.958125, 0.351078, 0.648177, 3, 182, 246, 50.7692, 0.238325, 1.78636, 1, 1, 0, 104532
-11558.1, 841602, -67.1647, 0.305817, -880.156, 0.256038, 0.344045, 1.03299, 0.34851, 0.655882, 0.0001, 45.5, 246, 22.3579, 0.0202413, 0, 0, 1, 0, 104535
-11558.1, 841602, -67.1647, 0.305817, -880.156, 0.256038, 0.344045, 1.03299, 0.34851, 0.655882, 3, 45.5, 246, 22.3579, 0.0202413, 0, 0, 1, 0, 104535
-10086.6, 649314, -106.264, 0.380718, -700.585, 0.000349208, 0.319465, 0.993198, 0.349787, 0.651995, 3, 91, 246, 19.5999, 0.0410758, 0, 0, 1, 0, 104536
-7646.08, 24133.1, -50.8802, 2.20538, -845.244, 0.39436, 0.296173, 1.03299, 0.34851, 0.655882, 0.0001, 45.5, 246, 29.5705, 0.0986248, 0, 0, 1, 0, 104537
-7646.08, 24133.1, -50.8802, 2.20538, -845.244, 0.39436, 0.296173, 1.03299, 0.34851, 0.655882, 3, 45.5, 246, 29.5705, 0.0986248, 0, 0, 1, 0, 104537
-11439.3, 365169, -302.463, 0.797235, -622.688, 0.414744, 0.554802, 1.03299, 0.34851, 0.655882, 0.0001, 45.5, 246, 35.8913, 0.198679, 0, 0, 0, 0, 104546
-11439.3, 365169, -302.463, 0.797235, -622.688, 0.414744, 0.554802, 1.03299, 0.34851, 0.655882, 3, 45.5, 246, 35.8913, 0.198679, 0, 0, 0, 0, 104546
-8171.04, 453495, -317.757, 0.490532, -1125.37, 0.0532178, 0.558368, 1.03299, 0.34851, 0.655882, 0.0001, 45.5, 246, 41.9045, 0.18273, 0, 0, 0, 0, 104553
-8171.04, 453495, -317.757, 0.490532, -1125.37, 0.0532178, 0.558368, 1.03299, 0.34851, 0.655882, 3, 45.5, 246, 41.9045, 0.18273, 0, 0, 0, 0, 104553
-3286.82, 85678.5, -212.117, 3.52447, -1083.68, 0.0469538, 0.272318, 1.03299, 0.34851, 0.655882, 0.0001, 45.5, 246, 57.5102, 0.21516, 1.44998, 1, 1, 0, 104554
-3286.82, 85678.5, -212.117, 3.52447, -1083.68, 0.0469538, 0.272318, 1.03299, 0.34851, 0.655882, 3, 45.5, 246, 57.5102, 0.21516, 1.2906, 1, 1, 0, 104554
-1267.54, 108202, -269.415, 3.87194, -1120.36, 0.107834, 0.293132, 0.993198, 0.349787, 0.651995, 0.0001, 91, 246, 57.5102, 0.21516, 1.77798, 1, 1, 0, 104554
-1267.54, 108202, -269.415, 3.87194, -1120.36, 0.107834, 0.293132, 0.993198, 0.349787, 0.651995, 3, 91, 246, 57.5102, 0.21516, 1.64951, 1, 1, 0, 104554
1709.36, 133890, -339.542, 4.29325, -1179.22, 0.184172, 0.335631, 0.958125, 0.351078, 0.648177, 0.0001, 182, 246, 57.5102, 0.21516, 3.95993, 1, 0, 0, 104554
1709.36, 133890, -339.542, 4.29325, -1179.22, 0.184172, 0.335631, 0.958125, 0.351078, 0.648177, 3, 182, 246, 57.5102, 0.21516, 3.71848, 1, 0, 0, 104554
-330.041, 238636, -307.177, 3.35587, -1475.65, 0.847721, 0.377599, 0.9175, 0.352806, 0.64323, 3, 455, 246, 40.1544, 0.183814, 1.42426, 1, 0, 0, 104555
-5986.63, 62822.9, -135.122, 3.78298, -784.611, 0.294589, 0.242992, 0.958125, 0.351078, 0.648177, 3, 182, 246, 28.9137, 0.0824506, 0, 0, 1, 0, 104556
-9469.43, 259881, -94.1828, 1.15255, -1104.81, 8.95571e-05, 0.321652, 0.993198, 0.349787, 0.651995, 0.0001, 91, 246, 25.796, 0.083755, 0, 0, 1, 0, 104557
-10753.5, 244019, -304.462, 2.6263, -984.088, 0.00375928, 0.499442, 1.03299, 0.34851, 0.655882, 3, 45.5, 246, 50.9025, 0.246628, 0, 0, 0, 0, 104560
-2324.26, 284935, -412.487, 3.09659, -1049.92, 0.0758422, 0.534304, 0.958125, 0.351078, 0.648177, 0.0001, 182, 246, 50.9025, 0.246628, 1.46854, 1, 0, 0, 104560
-2324.26, 284935, -412.487, 3.09659, -1049.92, 0.0758422, 0.534304, 0.958125, 0.351078, 0.648177, 3, 182, 246, 50.9025, 0.246628, 1.23442, 1, 0, 0, 104560
-10305.4, 204782, -109.059, 1.39424, -1046.47, 0.0462324, 0.36652, 1.03299, 0.34851, 0.655882, 0.0001, 45.5, 246, 29.751, 0.123, 0, 0, 1, 0, 104562
-10305.4, 204782, -109.059, 1.39424, -1046.47, 0.0462324, 0.36652, 1.03299, 0.34851, 0.655882, 3, 45.5, 246, 29.751, 0.123, 0, 0, 1, 0, 104562
-9093.52, 224819, -128.501, 1.47294, -1059.41, 0.0556621, 0.341452, 0.993198, 0.349787, 0.651995, 0.0001, 91, 246, 29.751, 0.123, 0, 0, 1, 0, 104562
-14909.9, 406479, -480.34, 3.77643, -802.805, 0.707972, 0.459189, 0.993198, 0.349787, 0.651995, 0.0001, 91, 246, 43.9059, 0.198518, 1.06076, 1, 1, 0, 104563
-11380, 130844, -15.4543, 2.14076, -754.061, 0.712624, 0.271332, 1.03299, 0.34851, 0.655882, 0.0001, 45.5, 246, 14.882, 0.0378911, 0, 0, 1, 0, 104567
-10267.8, 147326, -32.8621, 2.37701, -852.82, 0.828285, 0.253338, 0.993198, 0.349787, 0.651995, 0.0001, 91, 246, 14.882, 0.0378911, 0, 0, 1, 0, 104567
-5657.32, 212579, -100.879, 3.16889, -1258.06, 1.30253, 0.258464, 0.9175, 0.352806, 0.64323, 3, 455, 246, 14.882, 0.0378911, 0, 0, 1, 0, 104567
-8755.71, 90672, -54.4254, 0.295628, -887.579, 0.00423049, 0.377425, 1.03299, 0.34851, 0.655882, 0.0001, 45.5, 246, 24.4039, 0.174609, 0, 0, 1, 0, 104569
-8755.71, 90672, -54.4254, 0.295628, -887.579, 0.00423049, 0.377425, 1.03299, 0.34851, 0.655882, 3, 45.5, 246, 24.4039, 0.174609, 0, 0, 1, 0, 104569
-8840.76, 106062, -45.1635, 0.48165, -910.804, -0.000443127, 0.359338, 1.03299, 0.34851, 0.655882, 0.0001, 45.5, 246, 20.4956, 0.107419, 0, 0, 1, 0, 104572
-8840.76, 106062, -45.1635, 0.48165, -910.804, -0.000443127, 0.359338, 1.03299, 0.34851, 0.655882, 3, 45.5, 246, 20.4956, 0.107419, 0, 0, 1, 0, 104572
-8984.01, 152368, -180.604, 3.05529, -1149.56, -0.0442809, 0.317621, 1.03299, 0.34851, 0.655882, 0.0001, 45.5, 246, 43.7599, 0.18419, 0, 0, 0, 0, 104574
-8984.01, 152368, -180.604, 3.05529, -1149.56, -0.0442809, 0.317621, 1.03299, 0.34851, 0.655882, 3, 45.5, 246, 43.7599, 0.18419, 0, 0, 0, 0, 104574
-6528.07, 175899, -229.647, 3.31259, -1162.6, 0.00026167, 0.325605, 0.993198, 0.349787, 0.651995, 0.0001, 91, 246, 43.7599, 0.18419, 0, 0, 1, 0, 104574
-6528.07, 175899, -229.647, 3.31259, -1162.6, 0.00026167, 0.325605, 0.993198, 0.349787, 0.651995, 3, 91, 246, 43.7599, 0.18419, 0, 0, 1, 0, 104574
-10685.4, 262803, -141.993, 1.10196, -849.926, 0.597366, 0.387715, 1.03299, 0.34851, 0.655882, 0.0001, 45.5, 246, 28.7704, 0.121204, 0, 0, 1, 0, 104577
-10685.4, 262803, -141.993, 1.10196, -849.926, 0.597366, 0.387715, 1.03299, 0.34851, 0.655882, 3, 45.5, 246, 28.7704, 0.121204, 0, 0, 1, 0, 104577
-9384.63, 286187, -158.174, 1.19489, -943.727, 0.666024, 0.360914, 0.993198, 0.349787, 0.651995, 3, 91, 246, 28.7704, 0.121204, 0, 0, 1, 0, 104577
-7711.31, 315268, -176.988, 1.29992, -1061.14, 0.751998, 0.339783, 0.958125, 0.351078, 0.648177, 0.0001, 182, 246, 28.7704, 0.121204, 0, 0, 1, 0, 104577
-10652, -39435.5, -60.5894, 0.23864, -913.117, 0.895486, 0.312219, 0.993198, 0.349787, 0.651995, 0.0001, 91, 246, 515.019, 0.0276852, 0, 0, 1, 0, 104582
-10652, -39435.5, -60.5894, 0.23864, -913.117, 0.895486, 0.312219, 0.993198, 0.349787, 0.651995, 3, 91, 246, 515.019, 0.0276852, 0, 0, 1, 0, 104582
-7394.6, -6370.03, -0.144224, 3.17832, -1104.36, 0.322787, 0.215959, 1.03299, 0.34851, 0.655882, 0.0001, 45.5, 246, 17.3585, 0.0616851, 0, 0, 1, 0, 104587
-7394.6, -6370.03, -0.144224, 3.17832, -1104.36, 0.322787, 0.215959, 1.03299, 0.34851, 0.655882, 3, 45.5, 246, 17.3585, 0.0616851, 0, 0, 1, 0, 104587
-7608.46, 56193, -86.8343, 2.9809, -751.6, 0.0281484, 0.240375, 1.03299, 0.34851, 0.655882, 0.0001, 45.5, 246, 31.7162, 0.105077, 0, 0, 1, 0, 104589
-7608.46, 56193, -86.8343, 2.9809, -751.6, 0.0281484, 0.240375, 1.03299, 0.34851, 0.655882, 3, 45.5, 246, 31.7162, 0.105077, 0, 0, 1, 0, 104589
-9468.48, 150393, -179.533, 3.39232, -962.267, -0.0519526, 0.25776, 1.03299, 0.34851, 0.655882, 0.0001, 45.5, 246, 41.19, 0.16344, 0, 0, 0, 0, 104591
-9468.48, 150393, -179.533, 3.39232, -962.267, -0.0519526, 0.25776, 1.03299, 0.34851, 0.655882, 3, 45.5, 246, 41.19, 0.16344, 0, 0, 0, 0, 104591
-6844.63, 166876, -227.258, 3.69524, -977.365, 0.00321698, 0.272579, 0.993198, 0.349787, 0.651995, 3, 91, 246, 41.19, 0.16344, 0, 0, 1, 0, 104591
-3404.37, 185265, -284.284, 4.05652, -1008.92, 0.0692629, 0.306345, 0.958125, 0.351078, 0.648177, 0.0001, 182, 246, 41.19, 0.16344, 1.04062, 1, 0, 0, 104591
-9048.82, 548515, -374.694, 0.307969, -849.944, 0.128534, 0.587889, 1.03299, 0.34851, 0.655882, 0.0001, 45.5, 246, 38.0543, 0.177104, 0, 0, 1, 1, 104593
-9048.82, 548515, -374.694, 0.307969, -849.944, 0.128534, 0.587889, 1.03299, 0.34851, 0.655882, 3, 45.5, 246, 38.0543, 0.177104, 0, 0, 1, 1, 104593
-6352.44, -9057.85, -51.4749, 3.19875, -727.707, -0.0451321, 0.224614, 1.03299, 0.34851, 0.655882, 0.0001, 45.5, 246, 31.4411, 0.0151349, 0, 0, 1, 1, 104600
-24229, 625576, -124.355, 2.91565, -1078.37, 0.0941076, 0.212106, 0.993198, 0.349787, 0.651995, 0.0001, 91, 246, 27.5146, 0.0462547, 1.71327, 1, 1, 0, 104601
-24229, 625576, -124.355, 2.91565, -1078.37, 0.0941076, 0.212106, 0.993198, 0.349787, 0.651995, 3, 91, 246, 27.5146, 0.0462547, 1.72194, 1, 1, 0, 104601
-9060.64, 107849, -115.185, 2.59731, -797.881, 0.544663, 0.285124, 1.03299, 0.34851, 0.655882, 0.0001, 45.5, 246, 32.6933, 0.132283, 0, 0, 1, 0, 104602
-9060.64, 107849, -115.185, 2.59731, -797.881, 0.544663, 0.285124, 1.03299, 0.34851, 0.655882, 3, 45.5, 246, 32.6933, 0.132283, 0, 0, 1, 0, 104602
-7737.29, 123701, -144.848, 2.8822, -885.126, 0.631978, 0.278901, 0.993198, 0.349787, 0.651995, 0.0001, 91, 246, 32.6933, 0.132283, 0, 0, 1, 0, 104602
-7737.29, 123701, -144.848, 2.8822, -885.126, 0.631978, 0.278901, 0.993198, 0.349787, 0.651995, 3, 91, 246, 32.6933, 0.132283, 0, 0, 1, 0, 104602
-5874.81, 144173, -182.568, 3.2271, -1000.43, 0.747554, 0.287348, 0.958125, 0.351078, 0.648177, 0.0001, 182, 246, 32.6933, 0.132283, 0, 0, 1, 0, 104602
-5874.81, 144173, -182.568, 3.2271, -1000.43, 0.747554, 0.287348, 0.958125, 0.351078, 0.648177, 3, 182, 246, 32.6933, 0.132283, 0, 0, 1, 0, 104602
-5928.43, 82116.2, -146.626, 3.15634, -863.938, 0.0697429, 0.273225, 0.958125, 0.351078, 0.648177, 3, 182, 246, 33.2783, 0.122113, 0, 0, 1, 0, 104607
-9161.56, 169946, -108.527, 2.1486, -1044.3, 0.475734, 0.300213, 0.993198, 0.349787, 0.651995, 0.0001, 91, 246, 27.4508, 0.108095, 0, 0, 1, 0, 104609
-8977.05, 93165.7, -41.6505, 3.40922, -1109.9, 0.0207044, 0.207269, 0.993198, 0.349787, 0.651995, 0.0001, 91, 246, 18.8201, 0.0565591, 0, 0, 1, 0, 104615
-8977.05, 93165.7, -41.6505, 3.40922, -1109.9, 0.0207044, 0.207269, 0.993198, 0.349787, 0.651995, 3, 91, 246, 18.8201, 0.0565591, 0, 0, 1, 0, 104615
820.005, 331610, -373.776, 4.25137, -907.231, 0.809875, 0.382227, 0.9175, 0.352806, 0.64323, 3, 455, 246, 31.9895, 0.140366, 1.08014, 1, 0, 0, 104627
-8278.94, 158540, -95.1066, 0.997365, -949.639, 0.624351, 0.312108, 0.958125, 0.351078, 0.648177, 0.0001, 182, 246, 25.0241, 0.132118, 0, 0, 1, 0, 104629
-8278.94, 158540, -95.1066, 0.997365, -949.639, 0.624351, 0.312108, 0.958125, 0.351078, 0.648177, 3, 182, 246, 25.0241, 0.132118, 0, 0, 1, 0, 104629
-12282, 879852, -29.3569, 0.289639, -637.341, 0.00278957, 0.33995, 1.03299, 0.34851, 0.655882, 0.0001, 45.5, 246, 15.7725, 0.00923672, 0, 0, 1, 0, 104632
-12282, 879852, -29.3569, 0.289639, -637.341, 0.00278957, 0.33995, 1.03299, 0.34851, 0.655882, 3, 45.5, 246, 15.7725, 0.00923672, 0, 0, 1, 0, 104632
-10318.5, 457518, -283.693, 0.810975, -1059.78, 0.0471558, 0.504657, 1.03299, 0.34851, 0.655882, 0.0001, 45.5, 246, 38.7181, 0.159275, 0, 0, 0, 0, 104634
-10318.5, 457518, -283.693, 0.810975, -1059.78, 0.0471558, 0.504657, 1.03299, 0.34851, 0.655882, 3, 45.5, 246, 38.7181, 0.159275, 0, 0, 0, 0, 104634
-9757.05, 423924, -357.007, 0.349888, -721.599, 0.149735, 0.634491, 1.03299, 0.34851, 0.655882, 0.0001, 45.5, 246, 39.6055, 0.22072, 0, 0, 0, 0, 104642
-9757.05, 423924, -357.007, 0.349888, -721.599, 0.149735, 0.634491, 1.03299, 0.34851, 0.655882, 3, 45.5, 246, 39.6055, 0.22072, 0, 0, 0, 0, 104642
-8213.97, 439073, -374.162, 0.367323, -742.614, 0.153942, 0.625042, 0.993198, 0.349787, 0.651995, 3, 91, 246, 39.6055, 0.22072, 0, 0, 1, 0, 104642
-8580.37, 352053, -155.725, 0.655603, -1001.81, 0.179195, 0.365765, 0.993198, 0.349787, 0.651995, 0.0001, 91, 246, 29.0173, 0.10873, 0, 0, 1, 0, 104647
-6831.83, 73121.8, -117.715, 3.01259, -949.475, 0.066209, 0.264626, 0.993198, 0.349787, 0.651995, 0.0001, 91, 246, 33.9776, 0.125325, 0, 0, 1, 0, 104648
-6831.83, 73121.8, -117.715, 3.01259, -949.475, 0.066209, 0.264626, 0.993198, 0.349787, 0.651995, 3, 91, 246, 33.9776, 0.125325, 0, 0, 1, 0, 104648
-11167.5, 808768, -96.6231, 0.282489, -610.914, 0.0090159, 0.350563, 1.03299, 0.34851, 0.655882, 0.0001, 45.5, 246, 17.5345, 0.0311314, 0, 0, 1, 0, 104669
-11167.5, 808768, -96.6231, 0.282489, -610.914, 0.0090159, 0.350563, 1.03299, 0.34851, 0.655882, 3, 45.5, 246, 17.5345, 0.0311314, 0, 0, 1, 0, 104669
-10343.4, 815849, -101.287, 0.291688, -612.552, 0.00939119, 0.315345, 0.993198, 0.349787, 0.651995, 3, 91, 246, 17.5345, 0.0311314, 0, 0, 1, 0, 104669
-7019.13, 162508, -288.527, 3.63916, -828.192, -0.0477178, 0.319172, 1.03299, 0.34851, 0.655882, 0.0001, 45.5, 246, 53.6168, 0.225251, 1.39145, 1, 0, 0, 104670
-7019.13, 162508, -288.527, 3.63916, -828.192, -0.0477178, 0.319172, 1.03299, 0.34851, 0.655882, 3, 45.5, 246, 53.6168, 0.225251, 1.31299, 1, 0, 0, 104670
-3447.23, 176209, -346.266, 3.99186, -857.797, 0.0161482, 0.347261, 0.993198, 0.349787, 0.651995, 0.0001, 91, 246, 53.6168, 0.225251, 1.77975, 1, 1, 0, 104670
-3447.23, 176209, -346.266, 3.99186, -857.797, 0.0161482, 0.347261, 0.993198, 0.349787, 0.651995, 3, 91, 246, 53.6168, 0.225251, 1.68582, 1, 1, 0, 104670
-12060.5, 140240, -8.44438, 2.52054, -879.55, 0.144941, 0.245545, 1.03299, 0.34851, 0.655882, 0.0001, 45.5, 246, 15.7598, 0.036922, 0, 0, 1, 0, 104677
-12060.5, 140240, -8.44438, 2.52054, -879.55, 0.144941, 0.245545, 1.03299, 0.34851, 0.655882, 3, 45.5, 246, 15.7598, 0.036922, 0, 0, 1, 0, 104677
-10999.3, 104789, -15.5755, 3.00258, -1126.56, -0.02313, 0.214887, 1.03299, 0.34851, 0.655882, 0.0001, 45.5, 246, 20.2941, 0.0577117, 0, 0, 0, 0, 104690
-10999.3, 104789, -15.5755, 3.00258, -1126.56, -0.02313, 0.214887, 1.03299, 0.34851, 0.655882, 3, 45.5, 246, 20.2941, 0.0577117, 0, 0, 0, 0, 104690
-9645.88, 126524, -48.9513, 3.2464, -1128.79, 0.0196924, 0.214432, 0.993198, 0.349787, 0.651995, 0.0001, 91, 246, 20.2941, 0.0577117, 0, 0, 1, 0, 104690
-9645.88, 126524, -48.9513, 3.2464, -1128.79, 0.0196924, 0.214432, 0.993198, 0.349787, 0.651995, 3, 91, 246, 20.2941, 0.0577117, 0, 0, 1, 0, 104690
-7746.87, 149021, -88.1919, 3.52892, -1142.82, 0.0703273, 0.228747, 0.958125, 0.351078, 0.648177, 3, 182, 246, 20.2941, 0.0577117, 0, 0, 1, 0, 104690
-3297.98, 361592, -509.288, 3.35986, -1007.2, 1.17248, 0.590342, 0.958125, 0.351078, 0.648177, 0.0001, 182, 246, 47.1419, 0.233103, 2.54272, 1, 0, 0, 104692
-3297.98, 361592, -509.288, 3.35986, -1007.2, 1.17248, 0.590342, 0.958125, 0.351078, 0.648177, 3, 182, 246, 47.1419, 0.233103, 2.48341, 1, 0, 0, 104692
-13638.6, 258676, -369.57, 3.19519, -632.655, 0.528613, 0.435157, 1.03299, 0.34851, 0.655882, 0.0001, 45.5, 246, 47.8692, 0.224838, 1.09215, 1, 0, 0, 104693
-13638.6, 258676, -369.57, 3.19519, -632.655, 0.528613, 0.435157, 1.03299, 0.34851, 0.655882, 3, 45.5, 246, 47.8692, 0.224838, 1.00478, 1, 0, 0, 104693
-8606.77, 277027, -425.114, 3.60058, -730.214, 0.632022, 0.458694, 0.993198, 0.349787, 0.651995, 0.0001, 91, 246, 47.8692, 0.224838, 1.39434, 1, 1, 0, 104693
-8606.77, 277027, -425.114, 3.60058, -730.214, 0.632022, 0.458694, 0.993198, 0.349787, 0.651995, 3, 91, 246, 47.8692, 0.224838, 1.29858, 1, 1, 0, 104693
-6159.57, 44342.5, -109.733, 3.59754, -699.517, -0.0610194, 0.175716, 1.03299, 0.34851, 0.655882, 0.0001, 45.5, 246, 36.1865, 0.0909211, 1.10431, 1, 1, 0, 104696
-6159.57, 44342.5, -109.733, 3.59754, -699.517, -0.0610194, 0.175716, 1.03299, 0.34851, 0.655882, 3, 45.5, 246, 36.1865, 0.0909211, 1.00928, 1, 1, 0, 104696
-1832.88, 76893.4, -255.999, 4.99273, -787.909, 0.205003, 0.319692, 0.9175, 0.352806, 0.64323, 0.0001, 455, 246, 36.1865, 0.0909211, 1.0934, 1, 1, 0, 104696
-1832.88, 76893.4, -255.999, 4.99273, -787.909, 0.205003, 0.319692, 0.9175, 0.352806, 0.64323, 3, 455, 246, 36.1865, 0.0909211, 1.04572, 1, 1, 0, 104696
-8468.47, 194075, -117.558, 2.61928, -705.989, 0.663007, 0.265011, 0.958125, 0.351078, 0.648177, 3, 182, 246, 20.4608, 0.0802836, 0, 0, 1, 0, 104703
-4359.7, 244805, -348.41, 3.73687, -808.592, 0.673476, 0.37644, 0.958125, 0.351078, 0.648177, 0.0001, 182, 246, 40.2946, 0.182779, 1.03587, 1, 0, 0, 104708
-6499.03, 44920.8, -102.733, 2.44152, -934.039, 0.122548, 0.290106, 0.993198, 0.349787, 0.651995, 0.0001, 91, 246, 40.4039, 0.13668, 0, 0, 1, 1, 104712
-6499.03, 44920.8, -102.733, 2.44152, -934.039, 0.122548, 0.290106, 0.993198, 0.349787, 0.651995, 3, 91, 246, 40.4039, 0.13668, 0, 0, 1, 1, 104712
-20609.6, -199875, -13.5971, 0.878129, -1173.68, 0.00415796, 0.468079, 1.03299, 0.34851, 0.655882, 0.0001, 45.5, 246, -109.131, 0.247969, 0, 0, 1, 0, 104715
-20609.6, -199875, -13.5971, 0.878129, -1173.68, 0.00415796, 0.468079, 1.03299, 0.34851, 0.655882, 3, 45.5, 246, -109.131, 0.247969, 0, 0, 1, 0, 104715
-9640.24, 412233, -353.861, 0.383558, -748.335, 0.54692, 0.61749, 1.03299, 0.34851, 0.655882, 3, 45.5, 246, 39.0878, 0.210597, 0, 0, 0, 0, 104726
-11601.4, 279286, -125.748, 1.14867, -630.02, 0.229914, 0.369988, 1.03299, 0.34851, 0.655882, 0.0001, 45.5, 246, 23.7142, 0.105184, 0, 0, 1, 0, 104727
-11601.4, 279286, -125.748, 1.14867, -630.02, 0.229914, 0.369988, 1.03299, 0.34851, 0.655882, 3, 45.5, 246, 23.7142, 0.105184, 0, 0, 1, 0, 104727
-10265.6, 290204, -138.774, 1.2202, -658.292, 0.244971, 0.342215, 0.993198, 0.349787, 0.651995, 3, 91, 246, 23.7142, 0.105184, 0, 0, 1, 0, 104727
-8677.69, 302295, -153.021, 1.2957, -690.106, 0.26206, 0.319904, 0.958125, 0.351078, 0.648177, 0.0001, 182, 246, 23.7142, 0.105184, 0, 0, 1, 0, 104727
-2678.42, 196271, -328.774, 3.95073, -885.023, 0.0900735, 0.351229, 0.958125, 0.351078, 0.648177, 0.0001, 182, 246, 44.5778, 0.189704, 1.51739, 1, 0, 0, 104733
-2678.42, 196271, -328.774, 3.95073, -885.023, 0.0900735, 0.351229, 0.958125, 0.351078, 0.648177, 3, 182, 246, 44.5778, 0.189704, 1.33525, 1, 0, 0, 104733
-10904.3, 125445, 8.19884, 1.78732, -1077.09, 0.0774686, 0.295838, 1.03299, 0.34851, 0.655882, 0.0001, 45.5, 246, 14.2621, 0.0246448, 0, 0, 1, 0, 104735
-10904.3, 125445, 8.19884, 1.78732, -1077.09, 0.0774686, 0.295838, 1.03299, 0.34851, 0.655882, 3, 45.5, 246, 14.2621, 0.0246448, 0, 0, 1, 0, 104735
-10178.9, 218642, -264.588, 2.0898, -872.826, 0.471242, 0.488697, 1.03299, 0.34851, 0.655882, 0.0001, 45.5, 246, 46.2003, 0.234646, 0, 0, 0, 0, 104740
-10178.9, 218642, -264.588, 2.0898, -872.826, 0.471242, 0.488697, 1.03299, 0.34851, 0.655882, 3, 45.5, 246, 46.2003, 0.234646, 0, 0, 0, 0, 104740
-12764.8, 185930, -96.305, 2.94928, -1003.41, -0.0414617, 0.242821, 1.03299, 0.34851, 0.655882, 0.0001, 45.5, 246, 28.8635, 0.0996431, 0, 0, 0, 0, 104744
-12764.8, 185930, -96.305, 2.94928, -1003.41, -0.0414617, 0.242821, 1.03299, 0.34851, 0.655882, 3, 45.5, 246, 28.8635, 0.0996431, 0, 0, 0, 0, 104744
-6797.09, 151777, -285.214, 3.07812, -678.886, 0.294801, 0.381164, 1.03299, 0.34851, 0.655882, 0.0001, 45.5, 246, 53.049, 0.238922, 1.40387, 1, 1, 0, 104746
-6797.09, 151777, -285.214, 3.07812, -678.886, 0.294801, 0.381164, 1.03299, 0.34851, 0.655882, 3, 45.5, 246, 53.049, 0.238922, 1.31807, 1, 0, 0, 104746
-3868.94, 164670, -331.485, 3.4084, -741.596, 0.357606, 0.39563, 0.993198, 0.349787, 0.651995, 0.0001, 91, 246, 53.049, 0.238922, 1.64666, 1, 1, 0, 104746
-3868.94, 164670, -331.485, 3.4084, -741.596, 0.357606, 0.39563, 0.993198, 0.349787, 0.651995, 3, 91, 246, 53.049, 0.238922, 1.538, 1, 1, 0, 104746
-60.5654, 181144, -388.518, 3.80791, -824.741, 0.439544, 0.429013, 0.958125, 0.351078, 0.648177, 0.0001, 182, 246, 53.049, 0.238922, 3.02729, 1, 0, 0, 104746
-60.5654, 181144, -388.518, 3.80791, -824.741, 0.439544, 0.429013, 0.958125, 0.351078, 0.648177, 3, 182, 246, 53.049, 0.238922, 2.83, 1, 0, 0, 104746
-10462.2, 88095.3, -21.7096, 3.50811, -1005.92, -0.0548193, 0.162076, 1.03299, 0.34851, 0.655882, 0.0001, 45.5, 246, 20.299, 0.0588346, 0, 0, 0, 0, 104748
-10462.2, 88095.3, -21.7096, 3.50811, -1005.92, -0.0548193, 0.162076, 1.03299, 0.34851, 0.655882, 3, 45.5, 246, 20.299, 0.0588346, 0, 0, 0, 0, 104748
-9112.87, 105086, -57.3697, 3.81948, -1005.56, 0.00415194, 0.175057, 0.993198, 0.349787, 0.651995, 0.0001, 91, 246, 20.299, 0.0588346, 0, 0, 1, 0, 104748
-9112.87, 105086, -57.3697, 3.81948, -1005.56, 0.00415194, 0.175057, 0.993198, 0.349787, 0.651995, 3, 91, 246, 20.299, 0.0588346, 0, 0, 1, 0, 104748
-3754.32, 267150, -374.706, 4.29387, -902.499, 0.256042, 0.351905, 0.958125, 0.351078, 0.648177, 0.0001, 182, 246, 41.9361, 0.17605, 1.60851, 1, 0, 0, 104749
-3754.32, 267150, -374.706, 4.29387, -902.499, 0.256042, 0.351905, 0.958125, 0.351078, 0.648177, 3, 182, 246, 41.9361, 0.17605, 1.44033, 1, 0, 0, 104749
-13117.3, 333009, -345.401, 2.45102, -1166.09, -0.0285167, 0.554801, 1.03299, 0.34851, 0.655882, 3, 45.5, 246, 51.1723, 0.233999, 0, 0, 0, 0, 104750
-12487.8, 165475, 7.31214, 2.18011, -1185.57, -0.0160907, 0.270227, 1.03299, 0.34851, 0.655882, 0.0001, 45.5, 246, 17.4905, 0.0283432, 0, 0, 1, 0, 104760
-12487.8, 165475, 7.31214, 2.18011, -1185.57, -0.0160907, 0.270227, 1.03299, 0.34851, 0.655882, 3, 45.5, 246, 17.4905, 0.0283432, 0, 0, 1, 0, 104760
-7198.16, 490478, -401.049, 0.0121134, -720.767, 0.00131731, 0.650419, 0.993198, 0.349787, 0.651995, 0.0001, 91, 246, 39.4035, 0.219619, 0, 0, 1, 0, 104762
-7291.4, 61412.3, -101.906, 3.439, -778.986, -0.0178724, 0.19569, 1.03299, 0.34851, 0.655882, 0.0001, 45.5, 246, 33.6446, 0.10385, 0, 0, 1, 0, 104764
-7291.4, 61412.3, -101.906, 3.439, -778.986, -0.0178724, 0.19569, 1.03299, 0.34851, 0.655882, 3, 45.5, 246, 33.6446, 0.10385, 0, 0, 1, 0, 104764
-2021.58, 102075, -250.154, 4.75198, -878.82, 0.226982, 0.318437, 0.9175, 0.352806, 0.64323, 0.0001, 455, 246, 33.6446, 0.10385, 1.03227, 1, 1, 0, 104764
-2021.58, 102075, -250.154, 4.75198, -878.82, 0.226982, 0.318437, 0.9175, 0.352806, 0.64323, 3, 455, 246, 33.6446, 0.10385, 1.01561, 1, 1, 0, 104764
-10394.5, 78743.5, -2.06688, 3.28462, -970.311, 0.279245, 0.177833, 1.03299, 0.34851, 0.655882, 0.0001, 45.5, 246, 16.6488, 0.044923, 0, 0, 0, 0, 104768
-10394.5, 78743.5, -2.06688, 3.28462, -970.311, 0.279245, 0.177833, 1.03299, 0.34851, 0.655882, 3, 45.5, 246, 16.6488, 0.044923, 0, 0, 0, 0, 104768
-12559.2, 237951, -367.284, 3.43168, -635.418, 0.6248, 0.386586, 1.03299, 0.34851, 0.655882, 0.0001, 45.5, 246, 48.7266, 0.21941, 1.2367, 1, 0, 0, 104770
-12559.2, 237951, -367.284, 3.43168, -635.418, 0.6248, 0.386586, 1.03299, 0.34851, 0.655882, 3, 45.5, 246, 48.7266, 0.21941, 1.1684, 1, 0, 0, 104770
-7499.49, 257373, -426.054, 3.90313, -748.678, 0.75866, 0.414692, 0.993198, 0.349787, 0.651995, 0.0001, 91, 246, 48.7266, 0.21941, 1.59709, 1, 1, 0, 104770
-7499.49, 257373, -426.054, 3.90313, -748.678, 0.75866, 0.414692, 0.993198, 0.349787, 0.651995, 3, 91, 246, 48.7266, 0.21941, 1.51656, 1, 1, 0, 104770
-8873.59, 323329, -165.537, 2.57347, -974.469, 0.293243, 0.277859, 0.958125, 0.351078, 0.648177, 0.0001, 182, 246, 26.2275, 0.0866597, 0, 0, 1, 0, 104771
-8873.59, 323329, -165.537, 2.57347, -974.469, 0.293243, 0.277859, 0.958125, 0.351078, 0.648177, 3, 182, 246, 26.2275, 0.0866597, 0, 0, 1, 0, 104771
-11270.5, 469211, -17.5695, 0.65639, -1067.23, 0.000655971, 0.299732, 0.993198, 0.349787, 0.651995, 3, 91, 246, 20.4327, 0.0110526, 0, 0, 1, 0, 104775
-10111.6, 489143, -24.5688, 0.679908, -1067.87, 0.00261642, 0.269463, 0.958125, 0.351078, 0.648177, 0.0001, 182, 246, 20.4327, 0.0110526, 0, 0, 1, 0, 104775
-6083.28, -83429.7, 29.0501, 3.38737, -1064.31, 0.211035, 0.233588, 1.03299, 0.34851, 0.655882, 0.0001, 45.5, 246, 5.24955, 0.101313, 2.76416, 1, 1, 0, 104779
-6083.28, -83429.7, 29.0501, 3.38737, -1064.31, 0.211035, 0.233588, 1.03299, 0.34851, 0.655882, 3, 45.5, 246, 5.24955, 0.101313, 2.76391, 1, 1, 0, 104779
844.706, 224876, -309.687, 5.75496, -1726.65, 1.35572, 0.343015, 0.9175, 0.352806, 0.64323, 0.0001, 455, 246, 29.1871, 0.0919652, 2.61541, 1, 0, 0, 104782
844.706, 224876, -309.687, 5.75496, -1726.65, 1.35572, 0.343015, 0.9175, 0.352806, 0.64323, 3, 455, 246, 29.1871, 0.0919652, 0, 0, 0, 0, 104782
-8512.65, -4746.95, -7.22214, 2.0199, -932.295, 0.0501588, 0.287364, 0.993198, 0.349787, 0.651995, 3, 91, 246, 7.56264, 0.0572704, 0, 0, 1, 1, 104785
-7292.13, 53327.4, -92.1378, 2.20678, -896.724, 0.00260336, 0.30224, 0.993198, 0.349787, 0.651995, 0.0001, 91, 246, 35.1394, 0.149595, 0, 0, 1, 0, 104788
-7292.13, 53327.4, -92.1378, 2.20678, -896.724, 0.00260336, 0.30224, 0.993198, 0.349787, 0.651995, 3, 91, 246, 35.1394, 0.149595, 0, 0, 1, 0, 104788
-5708.06, 113281, -228.802, 3.59095, -731.284, -0.057488, 0.251317, 1.03299, 0.34851, 0.655882, 0.0001, 45.5, 246, 50.0069, 0.190069, 1.37661, 1, 1, 0, 104793
-5708.06, 113281, -228.802, 3.59095, -731.284, -0.057488, 0.251317, 1.03299, 0.34851, 0.655882, 3, 45.5, 246, 50.0069, 0.190069, 1.27659, 1, 1, 0, 104793
-3312.48, 123571, -276.025, 3.9255, -753.018, 0.00455769, 0.272775, 0.993198, 0.349787, 0.651995, 0.0001, 91, 246, 50.0069, 0.190069, 1.54984, 1, 1, 0, 104793
-3312.48, 123571, -276.025, 3.9255, -753.018, 0.00455769, 0.272775, 0.993198, 0.349787, 0.651995, 3, 91, 246, 50.0069, 0.190069, 1.43485, 1, 1, 0, 104793
-200.529, 135769, -333.068, 4.33009, -791.012, 0.0794934, 0.315628, 0.958125, 0.351078, 0.648177, 0.0001, 182, 246, 50.0069, 0.190069, 2.21528, 1, 1, 1, 104793
-200.529, 135769, -333.068, 4.33009, -791.012, 0.0794934, 0.315628, 0.958125, 0.351078, 0.648177, 3, 182, 246, 50.0069, 0.190069, 2.08176, 1, 1, 1, 104793
-4376.55, 96596, -215.906, 3.46912, -914.932, 0.00643112, 0.271487, 1.03299, 0.34851, 0.655882, 0.0001, 45.5, 246, 53.9776, 0.204552, 1.42102, 1, 1, 0, 104794
-4376.55, 96596, -215.906, 3.46912, -914.932, 0.00643112, 0.271487, 1.03299, 0.34851, 0.655882, 3, 45.5, 246, 53.9776, 0.204552, 1.2655, 1, 1, 0, 104794
-2285.15, 112707, -266.86, 3.79829, -943.051, 0.0645108, 0.290118, 0.993198, 0.349787, 0.651995, 0.0001, 91, 246, 53.9776, 0.204552, 1.62273, 1, 1, 0, 104794
-2285.15, 112707, -266.86, 3.79829, -943.051, 0.0645108, 0.290118, 0.993198, 0.349787, 0.651995, 3, 91, 246, 53.9776, 0.204552, 1.50809, 1, 1, 0, 104794
601.963, 131170, -328.592, 4.1947, -989.402, 0.136058, 0.329292, 0.958125, 0.351078, 0.648177, 0.0001, 182, 246, 53.9776, 0.204552, 2.64848, 1, 1, 1, 104794
601.963, 131170, -328.592, 4.1947, -989.402, 0.136058, 0.329292, 0.958125, 0.351078, 0.648177, 3, 182, 246, 53.9776, 0.204552, 2.50108, 1, 1, 1, 104794
-5660.76, 71300.6, -161.334, 2.93841, -693.134, 0.656461, 0.263389, 1.03299, 0.34851, 0.655882, 0.0001, 45.5, 246, 44.9439, 0.15556, 1.15493, 1, 1, 0, 104795
-4448.5, 84125.8, -195.713, 3.30325, -791.506, 0.780096, 0.26577, 0.993198, 0.349787, 0.651995, 0.0001, 91, 246, 44.9439, 0.15556, 1.12087, 1, 1, 0, 104795
-2684.09, 101831, -240.718, 3.76318, -928.473, 0.95222, 0.287522, 0.958125, 0.351078, 0.648177, 0.0001, 182, 246, 44.9439, 0.15556, 1.34996, 1, 1, 0, 104795
-2684.09, 101831, -240.718, 3.76318, -928.473, 0.95222, 0.287522, 0.958125, 0.351078, 0.648177, 3, 182, 246, 44.9439, 0.15556, 1.20205, 1, 1, 0, 104795
1087.83, 139093, -327.655, 4.61447, -1218.18, 1.31554, 0.356045, 0.9175, 0.352806, 0.64323, 0.0001, 455, 246, 44.9439, 0.15556, 3.96108, 1, 0, 0, 104795
1087.83, 139093, -327.655, 4.61447, -1218.18, 1.31554, 0.356045, 0.9175, 0.352806, 0.64323, 3, 455, 246, 44.9439, 0.15556, 3.97007, 1, 0, 0, 104795
-10192.8, 338385, -175.014, 0.668472, -716.694, 0.302922, 0.417989, 1.03299, 0.34851, 0.655882, 0.0001, 45.5, 246, 27.7765, 0.12662, 0, 0, 1, 0, 104798
-10192.8, 338385, -175.014, 0.668472, -716.694, 0.302922, 0.417989, 1.03299, 0.34851, 0.655882, 3, 45.5, 246, 27.7765, 0.12662, 0, 0, 1, 0, 104798
-9135.42, 354037, -186.776, 0.70759, -756.208, 0.320333, 0.38975, 0.993198, 0.349787, 0.651995, 0.0001, 91, 246, 27.7765, 0.12662, 0, 0, 1, 0, 104798
716.598, 174526, -333.03, 4.90686, -759.994, 0.233172, 0.351327, 0.9175, 0.352806, 0.64323, 0.0001, 455, 246, 35.7802, 0.138731, 1.61957, 1, 0, 0, 104799
716.598, 174526, -333.03, 4.90686, -759.994, 0.233172, 0.351327, 0.9175, 0.352806, 0.64323, 3, 455, 246, 35.7802, 0.138731, 1.62228, 1, 0, 0, 104799
-8433.9, 168557, -94.5088, 0.259877, -939.315, 0.602198, 0.393818, 1.03299, 0.34851, 0.655882, 0.0001, 45.5, 246, 27.1433, 0.139511, 1.604, 1, 1, 0, 104803
-8433.9, 168557, -94.5088, 0.259877, -939.315, 0.602198, 0.393818, 1.03299, 0.34851, 0.655882, 3, 45.5, 246, 27.1433, 0.139511, 1.6914, 1, 1, 0, 104803
-8089.68, 578608, -275.213, 0.329765, -1019.42, 0.372601, 0.459778, 1.03299, 0.34851, 0.655882, 3, 45.5, 246, 34.4007, 0.115948, 0, 0, 0, 0, 104809
-9761.17, 264235, -91.1057, 0.72682, -998.968, 0.181951, 0.364487, 1.03299, 0.34851, 0.655882, 0.0001, 45.5, 246, 25.2584, 0.0854773, 0, 0, 1, 0, 104818
-11342.3, 194949, -196.563, 3.37139, -1091.73, 0.132746, 0.272416, 1.03299, 0.34851, 0.655882, 0.0001, 45.5, 246, 41.6917, 0.162886, 0, 0, 0, 0, 104834
-11342.3, 194949, -196.563, 3.37139, -1091.73, 0.132746, 0.272416, 1.03299, 0.34851, 0.655882, 3, 45.5, 246, 41.6917, 0.162886, 0, 0, 0, 0, 104834
-11405.7, 673410, -96.1517, 0.444449, -999.565, 0.133364, 0.351807, 1.03299, 0.34851, 0.655882, 0.0001, 45.5, 246, 25.348, 0.0369025, 0, 0, 1, 0, 104837
-11405.7, 673410, -96.1517, 0.444449, -999.565, 0.133364, 0.351807, 1.03299, 0.34851, 0.655882, 3, 45.5, 246, 25.348, 0.0369025, 0, 0, 1, 0, 104837
-8899.46, 720417, -111.373, 0.482011, -1046.45, 0.1412, 0.287097, 0.958125, 0.351078, 0.648177, 3, 182, 246, 25.348, 0.0369025, 0, 0, 1, 0, 104837
-6529.02, -24345.9, -4.41323, 3.46725, -776.382, -0.052159, 0.192554, 1.03299, 0.34851, 0.655882, 0.0001, 45.5, 246, 15.0948, 0.0309841, 0, 0, 1, 1, 104839
-6529.02, -24345.9, -4.41323, 3.46725, -776.382, -0.052159, 0.192554, 1.03299, 0.34851, 0.655882, 3, 45.5, 246, 15.0948, 0.0309841, 0, 0, 1, 1, 104839
-9435.02, 516211, -435.904, 0.513887, -1045.85, -0.000964478, 0.707448, 1.03299, 0.34851, 0.655882, 3, 45.5, 246, 46.8583, 0.225559, 0, 0, 0, 0, 104846
-8444.21, 418916, -173.343, 0.536829, -1007.82, 0.630909, 0.367781, 0.993198, 0.349787, 0.651995, 0.0001, 91, 246, 28.326, 0.098563, 0, 0, 1, 0, 104847
-7297.35, 454557, -184.796, 0.575774, -1122.31, 0.702282, 0.341491, 0.958125, 0.351078, 0.648177, 0.0001, 182, 246, 28.326, 0.098563, 0, 0, 1, 0, 104847
-9308.49, 812736, -246.28, 0.25177, -818.851, 0.425465, 0.406434, 1.03299, 0.34851, 0.655882, 0.0001, 45.5, 246, 27.3187, 0.0723119, 0, 0, 0, 0, 104849
-9308.49, 812736, -246.28, 0.25177, -818.851, 0.425465, 0.406434, 1.03299, 0.34851, 0.655882, 3, 45.5, 246, 27.3187, 0.0723119, 0, 0, 0, 0, 104849
-9137.95, 494657, -376.505, 0.395908, -911.999, 0.00551412, 0.625233, 1.03299, 0.34851, 0.655882, 0.0001, 45.5, 246, 41.4328, 0.202435, 0, 0, 0, 0, 104854
-9137.95, 494657, -376.505, 0.395908, -911.999, 0.00551412, 0.625233, 1.03299, 0.34851, 0.655882, 3, 45.5, 246, 41.4328, 0.202435, 0, 0, 0, 0, 104854
-3742.19, 61420.1, -175.483, 2.76452, -754.112, -0.0134701, 0.307667, 1.03299, 0.34851, 0.655882, 0.0001, 45.5, 246, 57.9156, 0.212499, 1.32402, 1, 1, 0, 104855
-3742.19, 61420.1, -175.483, 2.76452, -754.112, -0.0134701, 0.307667, 1.03299, 0.34851, 0.655882, 3, 45.5, 246, 57.9156, 0.212499, 1.14464, 1, 1, 0, 104855
-2659.72, 72090.4, -209.317, 2.98421, -769.162, 0.022775, 0.306459, 0.993198, 0.349787, 0.651995, 0.0001, 91, 246, 57.9156, 0.212499, 1.44418, 1, 1, 0, 104855
-2659.72, 72090.4, -209.317, 2.98421, -769.162, 0.022775, 0.306459, 0.993198, 0.349787, 0.651995, 3, 91, 246, 57.9156, 0.212499, 1.28432, 1, 1, 0, 104855
-1185.39, 83775.9, -248.582, 3.23579, -793.255, 0.0654926, 0.318316, 0.958125, 0.351078, 0.648177, 0.0001, 182, 246, 57.9156, 0.212499, 1.74724, 1, 1, 0, 104855
-1185.39, 83775.9, -248.582, 3.23579, -793.255, 0.0654926, 0.318316, 0.958125, 0.351078, 0.648177, 3, 182, 246, 57.9156, 0.212499, 1.60335, 1, 1, 0, 104855
1566.91, 101719, -311.77, 3.63656, -843.59, 0.135917, 0.355866, 0.9175, 0.352806, 0.64323, 0.0001, 455, 246, 57.9156, 0.212499, 3.24815, 1, 1, 1, 104855
1566.91, 101719, -311.77, 3.63656, -843.59, 0.135917, 0.355866, 0.9175, 0.352806, 0.64323, 3, 455, 246, 57.9156, 0.212499, 3.14113, 1, 1, 1, 104855
-5801.08, 894391, -434.211, 0.0119776, -939.563, 0.0324283, 0.539926, 1.03299, 0.34851, 0.655882, 0.0001, 45.5, 246, 36.3617, 0.124848, 0, 0, 0, 0, 104856
-5801.08, 894391, -434.211, 0.0119776, -939.563, 0.0324283, 0.539926, 1.03299, 0.34851, 0.655882, 3, 45.5, 246, 36.3617, 0.124848, 0, 0, 0, 0, 104856
-9840.25, 971357, -299.648, 0.187943, -664.911, 0.000369409, 0.429175, 1.03299, 0.34851, 0.655882, 3, 45.5, 246, 25.4223, 0.0798061, 0, 0, 0, 0, 104864
-12771.6, 467752, 2.00846, 0.627113, -1039.65, 0.217487, 0.333676, 1.03299, 0.34851, 0.655882, 0.0001, 45.5, 246, 19.6549, 0.00398388, 0, 0, 1, 0, 104865
-12771.6, 467752, 2.00846, 0.627113, -1039.65, 0.217487, 0.333676, 1.03299, 0.34851, 0.655882, 3, 45.5, 246, 19.6549, 0.00398388, 0, 0, 1, 0, 104865
-11736.7, 492890, -3.99685, 0.658653, -1076.82, 0.227106, 0.298742, 0.993198, 0.349787, 0.651995, 3, 91, 246, 19.6549, 0.00398388, 0, 0, 1, 0, 104865
-10396.7, 402391, -380.294, 0.404087, -665.563, 0.83368, 0.648493, 1.03299, 0.34851, 0.655882, 3, 45.5, 246, 39.0493, 0.219274, 0, 0, 0, 0, 104866
-7706.74, 41692.4, -121.259, 3.94385, -1363.38, 0.742335, 0.314141, 0.9175, 0.352806, 0.64323, 3, 455, 246, 14.7113, 0.0399002, 0, 0, 1, 0, 104867
-7810.67, 630596, -345.125, 0.161916, -852.24, 0.0272024, 0.524223, 1.03299, 0.34851, 0.655882, 0.0001, 45.5, 246, 34.6154, 0.142729, 0, 0, 0, 0, 104873
-7810.67, 630596, -345.125, 0.161916, -852.24, 0.0272024, 0.524223, 1.03299, 0.34851, 0.655882, 3, 45.5, 246, 34.6154, 0.142729, 0, 0, 0, 0, 104873
-6486.38, 646497, -358.382, 0.167787, -857.458, 0.0274397, 0.503231, 0.993198, 0.349787, 0.651995, 3, 91, 246, 34.6154, 0.142729, 0, 0, 1, 0, 104873
-4993.85, 662758, -371.315, 0.173481, -862.844, 0.0276876, 0.486435, 0.958125, 0.351078, 0.648177, 3, 182, 246, 34.6154, 0.142729, 0, 0, 0, 0, 104873
-9452.54, 112840, -84.9356, 2.209, -1092.08, 0.224024, 0.314362, 1.03299, 0.34851, 0.655882, 0.0001, 45.5, 246, 30.5687, 0.126736, 0, 0, 1, 0, 104888
-9452.54, 112840, -84.9356, 2.209, -1092.08, 0.224024, 0.314362, 1.03299, 0.34851, 0.655882, 3, 45.5, 246, 30.5687, 0.126736, 0, 0, 1, 0, 104888
-8959.13, 205661, -74.0813, 2.7296, -918.267, 0.0328069, 0.241659, 0.958125, 0.351078, 0.648177, 3, 182, 246, 18.5566, 0.0478089, 0, 0, 1, 0, 104894
-10470.5, 655851, -117.251, 0.302567, -623.349, 0.0232153, 0.359745, 1.03299, 0.34851, 0.655882, 0.0001, 45.5, 246, 18.8081, 0.0462971, 0, 0, 1, 0, 104896
-10470.5, 655851, -117.251, 0.302567, -623.349, 0.0232153, 0.359745, 1.03299, 0.34851, 0.655882, 3, 45.5, 246, 18.8081, 0.0462971, 0, 0, 1, 0, 104896
-9723.43, 663723, -122.801, 0.312847, -626.639, 0.023718, 0.325259, 0.993198, 0.349787, 0.651995, 0.0001, 91, 246, 18.8081, 0.0462971, 0, 0, 1, 0, 104896
-8877.74, 671724, -128.274, 0.322665, -630.071, 0.0242523, 0.295089, 0.958125, 0.351078, 0.648177, 0.0001, 182, 246, 18.8081, 0.0462971, 0, 0, 1, 0, 104896
-6030.19, 7380.97, -82.6764, 3.9497, -1004.38, 0.0381536, 0.203128, 0.993198, 0.349787, 0.651995, 3, 91, 246, 29.9088, 0.0319413, 0, 0, 1, 1, 104898
-5913.98, -10041.9, -48.7865, 3.47791, -869.605, 0.30531, 0.192002, 1.03299, 0.34851, 0.655882, 0.0001, 45.5, 246, 30.5736, 0.00997126, 0, 0, 1, 0, 104902
-5913.98, -10041.9, -48.7865, 3.47791, -869.605, 0.30531, 0.192002, 1.03299, 0.34851, 0.655882, 3, 45.5, 246, 30.5736, 0.00997126, 0, 0, 1, 0, 104902
-9024.27, 568862, -194.615, 0.390119, -1016.71, 0.151627, 0.40246, 1.03299, 0.34851, 0.655882, 0.0001, 45.5, 246, 30.4679, 0.0860512, 0, 0, 0, 0, 104908
-9024.27, 568862, -194.615, 0.390119, -1016.71, 0.151627, 0.40246, 1.03299, 0.34851, 0.655882, 3, 45.5, 246, 30.4679, 0.0860512, 0, 0, 0, 0, 104908
-7893.94, 592843, -205.204, 0.407279, -1043.85, 0.156064, 0.371543, 0.993198, 0.349787, 0.651995, 3, 91, 246, 30.4679, 0.0860512, 0, 0, 1, 0, 104908
-6350.15, 395777, -488.131, 3.78504, -779.469, 0.301029, 0.500073, 0.958125, 0.351078, 0.648177, 0.0001, 182, 246, 42.2608, 0.199299, 1.55243, 1, 0, 0, 104909
-6350.15, 395777, -488.131, 3.78504, -779.469, 0.301029, 0.500073, 0.958125, 0.351078, 0.648177, 3, 182, 246, 42.2608, 0.199299, 1.46773, 1, 0, 0, 104909
-10401.2, 469636, -179.034, 0.491785, -720.329, 0.662876, 0.396629, 1.03299, 0.34851, 0.655882, 0.0001, 45.5, 246, 24.8842, 0.0881495, 0, 0, 1, 0, 104915
-10401.2, 469636, -179.034, 0.491785, -720.329, 0.662876, 0.396629, 1.03299, 0.34851, 0.655882, 3, 45.5, 246, 24.8842, 0.0881495, 0, 0, 1, 0, 104915
-9294.89, 498211, -189.214, 0.529379, -807.301, 0.741713, 0.365714, 0.993198, 0.349787, 0.651995, 3, 91, 246, 24.8842, 0.0881495, 0, 0, 1, 0, 104915
-9576.06, 85453, -10.3147, 1.4213, -981.977, 0.00910922, 0.319525, 1.03299, 0.34851, 0.655882, 0.0001, 45.5, 246, 14.7112, 0.047526, 0, 0, 1, 0, 104921
-9576.06, 85453, -10.3147, 1.4213, -981.977, 0.00910922, 0.319525, 1.03299, 0.34851, 0.655882, 3, 45.5, 246, 14.7112, 0.047526, 0, 0, 1, 0, 104921
-10360.6, -92266.2, -18.8727, 0.181871, -1146.17, 0.0743407, 0.36706, 1.03299, 0.34851, 0.655882, 0.0001, 45.5, 246, -39.0625, 0.219777, 0, 0, 1, 0, 104926
-10360.6, -92266.2, -18.8727, 0.181871, -1146.17, 0.0743407, 0.36706, 1.03299, 0.34851, 0.655882, 3, 45.5, 246, -39.0625, 0.219777, 0, 0, 1, 0, 104926
-11061.1, 254239, -64.0902, 0.975325, -702.128, 0.361689, 0.341558, 1.03299, 0.34851, 0.655882, 0.0001, 45.5, 246, 18.6396, 0.0611398, 0, 0, 1, 0, 104930
-10144.3, 268497, -73.5158, 1.03952, -746.834, 0.388338, 0.309919, 0.993198, 0.349787, 0.651995, 0.0001, 91, 246, 18.6396, 0.0611398, 0, 0, 1, 0, 104930
-10919.8, 160892, -102.019, 2.41523, -1013.99, 0.132064, 0.2999, 1.03299, 0.34851, 0.655882, 0.0001, 45.5, 246, 30.329, 0.117684, 0, 0, 1, 0, 104931
-10919.8, 160892, -102.019, 2.41523, -1013.99, 0.132064, 0.2999, 1.03299, 0.34851, 0.655882, 3, 45.5, 246, 30.329, 0.117684, 0, 0, 1, 0, 104931
-4576.3, 235738, -178.374, 3.23762, -672.528, 0.0908883, 0.276153, 0.9175, 0.352806, 0.64323, 3, 455, 246, 22.2282, 0.0850582, 0, 0, 0, 0, 104946
-10107.3, 404495, -351.635, 0.602385, -843.724, 0.0286089, 0.640348, 1.03299, 0.34851, 0.655882, 0.0001, 45.5, 246, 42.7011, 0.229974, 0, 0, 0, 0, 104947
-10107.3, 404495, -351.635, 0.602385, -843.724, 0.0286089, 0.640348, 1.03299, 0.34851, 0.655882, 3, 45.5, 246, 42.7011, 0.229974, 0, 0, 0, 0, 104947
-5881.03, 436144, -394.33, 0.660703, -864.349, 0.0324044, 0.630022, 0.958125, 0.351078, 0.648177, 3, 182, 246, 42.7011, 0.229974, 0, 0, 0, 0, 104947
-10273, 749277, -156.355, 0.311277, -806.709, 0.291649, 0.369384, 1.03299, 0.34851, 0.655882, 0.0001, 45.5, 246, 23.998, 0.0512897, 0, 0, 1, 0, 104957
-10273, 749277, -156.355, 0.311277, -806.709, 0.291649, 0.369384, 1.03299, 0.34851, 0.655882, 3, 45.5, 246, 23.998, 0.0512897, 0, 0, 1, 0, 104957
-10765, 114282, -51.9408, 2.68976, -636.539, -0.0222428, 0.245157, 1.03299, 0.34851, 0.655882, 0.0001, 45.5, 246, 19.3569, 0.0690042, 0, 0, 1, 0, 104962
-10765, 114282, -51.9408, 2.68976, -636.539, -0.0222428, 0.245157, 1.03299, 0.34851, 0.655882, 3, 45.5, 246, 19.3569, 0.0690042, 0, 0, 1, 0, 104962
-12131.6, 539930, -38.1191, 0.558275, -1120.64, 0.124732, 0.338658, 1.03299, 0.34851, 0.655882, 0.0001, 45.5, 246, 23.9716, 0.0206048, 0, 0, 1, 0, 104969
-12131.6, 539930, -38.1191, 0.558275, -1120.64, 0.124732, 0.338658, 1.03299, 0.34851, 0.655882, 3, 45.5, 246, 23.9716, 0.0206048, 0, 0, 1, 0, 104969
-7862.83, 312643, -221.389, 0.780549, -1062.61, 0.0215598, 0.45199, 0.993198, 0.349787, 0.651995, 0.0001, 91, 246, 37.5188, 0.180145, 0, 0, 1, 0, 104975
-8508.01, 188224, -120.689, 0.54475, -1150.8, 0.00721534, 0.414967, 1.03299, 0.34851, 0.655882, 0.0001, 45.5, 246, 32.5187, 0.163736, 0, 0, 1, 0, 104976
-8508.01, 188224, -120.689, 0.54475, -1150.8, 0.00721534, 0.414967, 1.03299, 0.34851, 0.655882, 3, 45.5, 246, 32.5187, 0.163736, 0, 0, 1, 0, 104976
-10917.9, 98243.5, -4.83042, 2.85717, -801.356, 0.0604683, 0.220074, 1.03299, 0.34851, 0.655882, 0.0001, 45.5, 246, 14.0823, 0.0370473, 0, 0, 1, 0, 104977
-10917.9, 98243.5, -4.83042, 2.85717, -801.356, 0.0604683, 0.220074, 1.03299, 0.34851, 0.655882, 3, 45.5, 246, 14.0823, 0.0370473, 0, 0, 1, 0, 104977
-8709.72, 32477.4, 13.451, 3.31649, -624.721, -0.0500908, 0.183139, 1.03299, 0.34851, 0.655882, 0.0001, 45.5, 246, 7.6209, 0.0243142, 1.00395, 1, 1, 0, 104978
-8257.81, 848136, -164.32, 0.151706, -796.356, 0.834335, 0.332092, 0.993198, 0.349787, 0.651995, 0.0001, 91, 246, 21.4645, 0.0438095, 0, 0, 1, 0, 104982
-10526, 85500.2, -16.6356, 3.35612, -694.928, 0.0449859, 0.170455, 1.03299, 0.34851, 0.655882, 0.0001, 45.5, 246, 14.9199, 0.0416458, 0, 0, 1, 0, 104987
-10526, 85500.2, -16.6356, 3.35612, -694.928, 0.0449859, 0.170455, 1.03299, 0.34851, 0.655882, 3, 45.5, 246, 14.9199, 0.0416458, 0, 0, 1, 0, 104987
-7856.91, 102962, -69.4771, 4.02999, -725.969, 0.167448, 0.206185, 0.958125, 0.351078, 0.648177, 0.0001, 182, 246, 14.9199, 0.0416458, 0, 0, 1, 0, 104987
-7856.91, 102962, -69.4771, 4.02999, -725.969, 0.167448, 0.206185, 0.958125, 0.351078, 0.648177, 3, 182, 246, 14.9199, 0.0416458, 0, 0, 1, 0, 104987
-11029, 234957, -256.201, 1.73506, -624.225, -0.0128317, 0.505901, 1.03299, 0.34851, 0.655882, 0.0001, 45.5, 246, 41.8342, 0.234214, 0, 0, 1, 0, 104988
-11029, 234957, -256.201, 1.73506, -624.225, -0.0128317, 0.505901, 1.03299, 0.34851, 0.655882, 3, 45.5, 246, 41.8342, 0.234214, 0, 0, 1, 0, 104988
-10445.5, 165752, -131.308, 2.33786, -979.295, 0.0578401, 0.329803, 1.03299, 0.34851, 0.655882, 0.0001, 45.5, 246, 34.0245, 0.145297, 0, 0, 1, 0, 104996
-10445.5, 165752, -131.308, 2.33786, -979.295, 0.0578401, 0.329803, 1.03299, 0.34851, 0.655882, 3, 45.5, 246, 34.0245, 0.145297, 0, 0, 1, 0, 104996
-9292.19, 70679.6, -45.4047, 3.17148, -768.877, -0.045887, 0.205321, 1.03299, 0.34851, 0.655882, 0.0001, 45.5, 246, 21.4881, 0.0690805, 0, 0, 1, 0, 104998
-9292.19, 70679.6, -45.4047, 3.17148, -768.877, -0.045887, 0.205321, 1.03299, 0.34851, 0.655882, 3, 45.5, 246, 21.4881, 0.0690805, 0, 0, 1, 0, 104998
