-7344.26, 653464, -296.254, 0.0160805, -679.479, 0.026876, 0.470303, 1.03299, 0.34851, 0.655882, 0.0001, 45.5, 246, 28.3468, 0.11756, 0, 0, 0, 0, 104001
-11196.5, 274444, -208.92, 1.53075, -943.965, 0.272466, 0.441167, 1.03299, 0.34851, 0.655882, 0.0001, 45.5, 246, 37.2148, 0.172708, 0, 0, 0, 0, 104003
-11196.5, 274444, -208.92, 1.53075, -943.965, 0.272466, 0.441167, 1.03299, 0.34851, 0.655882, 3, 45.5, 246, 37.2148, 0.172708, 0, 0, 0, 0, 104003
-10355.6, 197305, -230.19, 3.38995, -1140.79, 0.0167699, 0.314161, 1.03299, 0.34851, 0.655882, 0.0001, 45.5, 246, 46.4894, 0.19046, 0, 0, 0, 0, 104005
-10355.6, 197305, -230.19, 3.38995, -1140.79, 0.0167699, 0.314161, 1.03299, 0.34851, 0.655882, 3, 45.5, 246, 46.4894, 0.19046, 0, 0, 0, 0, 104005
-6730.01, 221877, -289.094, 3.71221, -1172.99, 0.07236, 0.333073, 0.993198, 0.349787, 0.651995, 3, 91, 246, 46.4894, 0.19046, 0, 0, 1, 0, 104005
-1883.42, 249924, -360.425, 4.09914, -1226.27, 0.140971, 0.371958, 0.958125, 0.351078, 0.648177, 0.0001, 182, 246, 46.4894, 0.19046, 2.06319, 1, 0, 0, 104005
-1883.42, 249924, -360.425, 4.09914, -1226.27, 0.140971, 0.371958, 0.958125, 0.351078, 0.648177, 3, 182, 246, 46.4894, 0.19046, 1.88934, 1, 0, 0, 104005
-7667.64, 228996, -223.69, 1.44226, -1192.4, 0.219612, 0.469149, 0.993198, 0.349787, 0.651995, 0.0001, 91, 246, 43.1427, 0.228, 0, 0, 1, 0, 104008
-9425.46, 106290, -43.0368, 1.30209, -1054.21, 0.204689, 0.336636, 1.03299, 0.34851, 0.655882, 0.0001, 45.5, 246, 21.9196, 0.088995, 0, 0, 1, 0, 104010
-9425.46, 106290, -43.0368, 1.30209, -1054.21, 0.204689, 0.336636, 1.03299, 0.34851, 0.655882, 3, 45.5, 246, 21.9196, 0.088995, 0, 0, 1, 0, 104010
-7477.26, 22781.7, -58.8373, 2.86833, -1017.15, 0.165888, 0.260573, 0.993198, 0.349787, 0.651995, 0.0001, 91, 246, 25.2233, 0.069596, 0, 0, 1, 1, 104011
-7477.26, 22781.7, -58.8373, 2.86833, -1017.15, 0.165888, 0.260573, 0.993198, 0.349787, 0.651995, 3, 91, 246, 25.2233, 0.069596, 0, 0, 1, 1, 104011
-12124.5, 487740, -69.4306, 0.667674, -950.115, 0.261727, 0.343618, 1.03299, 0.34851, 0.655882, 0.0001, 45.5, 246, 22.6219, 0.0372952, 0, 0, 1, 0, 104016
-12124.5, 487740, -69.4306, 0.667674, -950.115, 0.261727, 0.343618, 1.03299, 0.34851, 0.655882, 3, 45.5, 246, 22.6219, 0.0372952, 0, 0, 1, 0, 104016
-8300.9, 276584, -209.543, 0.942772, -1026.19, 0.935114, 0.43374, 0.993198, 0.349787, 0.651995, 0.0001, 91, 246, 35.2027, 0.175821, 0, 0, 1, 0, 104029
-7486.41, 340025, -215.461, 0.0679049, -715.331, 0.181324, 0.424774, 0.958125, 0.351078, 0.648177, 3, 182, 246, 30.7454, 0.170748, 0, 0, 1, 0, 104036
-2304.89, 103626, -239.29, 3.36657, -927.131, 0.0977901, 0.325594, 0.9175, 0.352806, 0.64323, 0.0001, 455, 246, 44.0222, 0.170643, 1.25284, 1, 1, 0, 104038
-2304.89, 103626, -239.29, 3.36657, -927.131, 0.0977901, 0.325594, 0.9175, 0.352806, 0.64323, 3, 455, 246, 44.0222, 0.170643, 1.25041, 1, 1, 0, 104038
-10528.8, 440614, -218.7, 0.79744, -1027.01, -0.00292173, 0.439322, 1.03299, 0.34851, 0.655882, 0.0001, 45.5, 246, 34.0486, 0.127702, 0, 0, 0, 0, 104040
-10528.8, 440614, -218.7, 0.79744, -1027.01, -0.00292173, 0.439322, 1.03299, 0.34851, 0.655882, 3, 45.5, 246, 34.0486, 0.127702, 0, 0, 0, 0, 104040
-16765.5, -855207, -9.15026, 0.0321801, -1040.01, 0.506787, 0.346696, 1.03299, 0.34851, 0.655882, 0.0001, 45.5, 246, -454.879, 0.0051274, 0, 0, 1, 0, 104041
-8285.7, 78612.9, -69.5808, 2.1568, -1060.86, 0.000117483, 0.292553, 0.993198, 0.349787, 0.651995, 0.0001, 91, 246, 25.428, 0.109715, 0, 0, 1, 0, 104045
-8285.7, 78612.9, -69.5808, 2.1568, -1060.86, 0.000117483, 0.292553, 0.993198, 0.349787, 0.651995, 3, 91, 246, 25.428, 0.109715, 0, 0, 1, 0, 104045
-9249.51, 162398, -182.538, 2.66167, -1102.55, -0.031009, 0.361016, 1.03299, 0.34851, 0.655882, 0.0001, 45.5, 246, 43.1939, 0.19359, 0, 0, 0, 0, 104050
-9249.51, 162398, -182.538, 2.66167, -1102.55, -0.031009, 0.361016, 1.03299, 0.34851, 0.655882, 3, 45.5, 246, 43.1939, 0.19359, 0, 0, 0, 0, 104050
-6855.93, -28065.8, 26.1274, 3.51829, -1087.67, -0.0587976, 0.187105, 1.03299, 0.34851, 0.655882, 0.0001, 45.5, 246, 10.0461, 0.0574634, 0, 0, 1, 0, 104051
-9070.42, 180761, -304.267, 2.92379, -625.07, 0.823132, 0.393484, 1.03299, 0.34851, 0.655882, 0.0001, 45.5, 246, 48.1872, 0.220553, 1.28263, 1, 0, 0, 104056
-9070.42, 180761, -304.267, 2.92379, -625.07, 0.823132, 0.393484, 1.03299, 0.34851, 0.655882, 3, 45.5, 246, 48.1872, 0.220553, 1.18211, 1, 0, 0, 104056
-5747.3, 199504, -350.136, 3.33184, -749.916, 0.995519, 0.405497, 0.993198, 0.349787, 0.651995, 0.0001, 91, 246, 48.1872, 0.220553, 1.36003, 1, 1, 0, 104056
-5747.3, 199504, -350.136, 3.33184, -749.916, 0.995519, 0.405497, 0.993198, 0.349787, 0.651995, 3, 91, 246, 48.1872, 0.220553, 1.23359, 1, 1, 0, 104056
-1238.52, 226572, -410.606, 3.86548, -933.307, 1.24875, 0.439157, 0.958125, 0.351078, 0.648177, 0.0001, 182, 246, 48.1872, 0.220553, 2.80077, 1, 0, 0, 104056
-1238.52, 226572, -410.606, 3.86548, -933.307, 1.24875, 0.439157, 0.958125, 0.351078, 0.648177, 3, 182, 246, 48.1872, 0.220553, 2.6007, 1, 0, 0, 104056
-11782.7, 321846, -139.726, 1.05565, -743.231, 0.63463, 0.374945, 1.03299, 0.34851, 0.655882, 0.0001, 45.5, 246, 25.3041, 0.0980667, 0, 0, 1, 0, 104061
-11782.7, 321846, -139.726, 1.05565, -743.231, 0.63463, 0.374945, 1.03299, 0.34851, 0.655882, 3, 45.5, 246, 25.3041, 0.0980667, 0, 0, 1, 0, 104061
-10130.2, 80360.2, 4.99275, 2.16697, -703.673, 0.620341, 0.271354, 1.03299, 0.34851, 0.655882, 0.0001, 45.5, 246, 10.2276, 0.0245544, 0, 0, 1, 0, 104063
-10130.2, 80360.2, 4.99275, 2.16697, -703.673, 0.620341, 0.271354, 1.03299, 0.34851, 0.655882, 3, 45.5, 246, 10.2276, 0.0245544, 0, 0, 1, 0, 104063
-11364, 419453, -215.584, 0.848566, -819.106, 0.014781, 0.438111, 1.03299, 0.34851, 0.655882, 0.0001, 45.5, 246, 31.0361, 0.131447, 0, 0, 0, 0, 104064
-10757.9, 726979, -67.0378, 0.295959, -882.095, 0.0109802, 0.34543, 1.03299, 0.34851, 0.655882, 0.0001, 45.5, 246, 21.8535, 0.0243269, 0, 0, 1, 0, 104071
-10757.9, 726979, -67.0378, 0.295959, -882.095, 0.0109802, 0.34543, 1.03299, 0.34851, 0.655882, 3, 45.5, 246, 21.8535, 0.0243269, 0, 0, 1, 0, 104071
-10020.8, 741135, -71.5634, 0.30566, -884.206, 0.0113973, 0.309875, 0.993198, 0.349787, 0.651995, 0.0001, 91, 246, 21.8535, 0.0243269, 0, 0, 1, 0, 104071
-9181.09, 755397, -76.122, 0.314874, -886.434, 0.0118413, 0.278673, 0.958125, 0.351078, 0.648177, 0.0001, 182, 246, 21.8535, 0.0243269, 0, 0, 1, 0, 104071
-10006.9, 413192, -303.937, 0.647513, -870.159, 0.186754, 0.550035, 1.03299, 0.34851, 0.655882, 0.0001, 45.5, 246, 38.3829, 0.187408, 0, 0, 0, 0, 104077
-10006.9, 413192, -303.937, 0.647513, -870.159, 0.186754, 0.550035, 1.03299, 0.34851, 0.655882, 3, 45.5, 246, 38.3829, 0.187408, 0, 0, 0, 0, 104077
-9659.08, 282312, -95.6932, 0.976002, -898.809, 0.00380072, 0.323854, 0.993198, 0.349787, 0.651995, 0.0001, 91, 246, 23.3993, 0.0798685, 0, 0, 1, 0, 104078
-8648.77, 289991, -146.887, 0.857405, -1068.05, 0.326367, 0.365228, 0.993198, 0.349787, 0.651995, 0.0001, 91, 246, 29.9447, 0.120832, 0, 0, 1, 0, 104083
-7785.39, 449273, -525.733, 3.52862, -720.277, 0.053773, 0.562306, 0.958125, 0.351078, 0.648177, 0.0001, 182, 246, 42.5981, 0.206164, 1.10954, 1, 0, 0, 104084
-7785.39, 449273, -525.733, 3.52862, -720.277, 0.053773, 0.562306, 0.958125, 0.351078, 0.648177, 3, 182, 246, 42.5981, 0.206164, 1.09874, 1, 0, 0, 104084
-11060.9, 182176, -63.4902, 1.5675, -738.438, -0.0007675, 0.3246, 1.03299, 0.34851, 0.655882, 0.0001, 45.5, 246, 20.5614, 0.0791872, 0, 0, 1, 0, 104087
-11060.9, 182176, -63.4902, 1.5675, -738.438, -0.0007675, 0.3246, 1.03299, 0.34851, 0.655882, 3, 45.5, 246, 20.5614, 0.0791872, 0, 0, 1, 0, 104087
-9968.89, 191630, -77.7813, 1.6553, -741.998, 0.0106337, 0.298928, 0.993198, 0.349787, 0.651995, 0.0001, 91, 246, 20.5614, 0.0791872, 0, 0, 1, 0, 104087
-8355.12, 289007, -412.043, 3.47473, -880.827, 0.519417, 0.470899, 0.993198, 0.349787, 0.651995, 0.0001, 91, 246, 48.9474, 0.226403, 1.19873, 1, 1, 0, 104092
-8355.12, 289007, -412.043, 3.47473, -880.827, 0.519417, 0.470899, 0.993198, 0.349787, 0.651995, 3, 91, 246, 48.9474, 0.226403, 1.07443, 1, 1, 0, 104092
-11093.3, 237978, -270.608, 2.58489, -958.977, -0.0305812, 0.452772, 1.03299, 0.34851, 0.655882, 0.0001, 45.5, 246, 47.1004, 0.223935, 0, 0, 0, 0, 104095
-11093.3, 237978, -270.608, 2.58489, -958.977, -0.0305812, 0.452772, 1.03299, 0.34851, 0.655882, 3, 45.5, 246, 47.1004, 0.223935, 0, 0, 0, 0, 104095
-7915.18, 121406, -178.645, 2.54367, -716.887, -0.0306796, 0.352267, 1.03299, 0.34851, 0.655882, 0.0001, 45.5, 246, 43.3891, 0.203229, 0, 0, 1, 0, 104099
-7915.18, 121406, -178.645, 2.54367, -716.887, -0.0306796, 0.352267, 1.03299, 0.34851, 0.655882, 3, 45.5, 246, 43.3891, 0.203229, 0, 0, 1, 0, 104099
-838.835, 156905, -300.896, 3.28728, -787.192, 0.0925838, 0.384423, 0.9175, 0.352806, 0.64323, 0.0001, 455, 246, 43.3891, 0.203229, 1.46363, 1, 0, 0, 104099
-838.835, 156905, -300.896, 3.28728, -787.192, 0.0925838, 0.384423, 0.9175, 0.352806, 0.64323, 3, 455, 246, 43.3891, 0.203229, 1.47764, 1, 0, 0, 104099
-10782.9, 164863, -176.166, 3.45543, -844.932, -0.051417, 0.235348, 1.03299, 0.34851, 0.655882, 0.0001, 45.5, 246, 37.9124, 0.14875, 0, 0, 0, 0, 104106
-10782.9, 164863, -176.166, 3.45543, -844.932, -0.051417, 0.235348, 1.03299, 0.34851, 0.655882, 3, 45.5, 246, 37.9124, 0.14875, 0, 0, 0, 0, 104106
-7604.32, 75930.1, -92.8081, 3.21247, -974.347, 0.03767, 0.239987, 0.993198, 0.349787, 0.651995, 0.0001, 91, 246, 27.6891, 0.0967586, 0, 0, 1, 0, 104114
-7604.32, 75930.1, -92.8081, 3.21247, -974.347, 0.03767, 0.239987, 0.993198, 0.349787, 0.651995, 3, 91, 246, 27.6891, 0.0967586, 0, 0, 1, 0, 104114
-8692.71, 78070.8, -78.3302, 2.76501, -861.923, 0.00947571, 0.261211, 1.03299, 0.34851, 0.655882, 0.0001, 45.5, 246, 29.2114, 0.109965, 0, 0, 1, 0, 104116
-8692.71, 78070.8, -78.3302, 2.76501, -861.923, 0.00947571, 0.261211, 1.03299, 0.34851, 0.655882, 3, 45.5, 246, 29.2114, 0.109965, 0, 0, 1, 0, 104116
-6519.85, 26068.3, -69.9061, 3.33215, -1095.42, 0.0157072, 0.215887, 1.03299, 0.34851, 0.655882, 0.0001, 45.5, 246, 34.1446, 0.0966967, 0, 0, 1, 0, 104119
-6519.85, 26068.3, -69.9061, 3.33215, -1095.42, 0.0157072, 0.215887, 1.03299, 0.34851, 0.655882, 3, 45.5, 246, 34.1446, 0.0966967, 0, 0, 1, 0, 104119
-2504.81, 103606, -245.226, 4.59944, -1219.05, 0.24876, 0.326932, 0.9175, 0.352806, 0.64323, 0.0001, 455, 246, 34.1446, 0.0966967, 1.17109, 1, 1, 0, 104119
-2504.81, 103606, -245.226, 4.59944, -1219.05, 0.24876, 0.326932, 0.9175, 0.352806, 0.64323, 3, 455, 246, 34.1446, 0.0966967, 1.15609, 1, 1, 0, 104119
-9817.22, 369310, -303.201, 0.65287, -851.186, 0.521017, 0.562111, 1.03299, 0.34851, 0.655882, 3, 45.5, 246, 39.1759, 0.199476, 0, 0, 0, 0, 104120
-6274.78, 55111.1, -122.722, 3.44095, -694.97, -0.0569116, 0.19937, 1.03299, 0.34851, 0.655882, 3, 45.5, 246, 38.1728, 0.1097, 0, 0, 1, 0, 104125
-1372.12, 87652.3, -265.824, 4.71948, -781.513, 0.183344, 0.321227, 0.9175, 0.352806, 0.64323, 0.0001, 455, 246, 38.1728, 0.1097, 1.24357, 1, 1, 0, 104125
-1372.12, 87652.3, -265.824, 4.71948, -781.513, 0.183344, 0.321227, 0.9175, 0.352806, 0.64323, 3, 455, 246, 38.1728, 0.1097, 1.19598, 1, 1, 0, 104125
-11971.1, 263870, 2.07562, 1.04951, -1154.91, 0.0827033, 0.323922, 1.03299, 0.34851, 0.655882, 0.0001, 45.5, 246, 18.1563, 0.0128412, 0, 0, 1, 0, 104134
-11971.1, 263870, 2.07562, 1.04951, -1154.91, 0.0827033, 0.323922, 1.03299, 0.34851, 0.655882, 3, 45.5, 246, 18.1563, 0.0128412, 0, 0, 1, 0, 104134
-9674.66, 100230, -42.7374, 1.82812, -1042.13, 0.0945434, 0.31337, 1.03299, 0.34851, 0.655882, 0.0001, 45.5, 246, 22.5203, 0.0869454, 0, 0, 1, 0, 104144
-9674.66, 100230, -42.7374, 1.82812, -1042.13, 0.0945434, 0.31337, 1.03299, 0.34851, 0.655882, 3, 45.5, 246, 22.5203, 0.0869454, 0, 0, 1, 0, 104144
-10028.2, 129905, -56.0695, 1.74265, -1068.7, -0.002779, 0.322565, 1.03299, 0.34851, 0.655882, 0.0001, 45.5, 246, 24.4045, 0.0935327, 0, 0, 1, 0, 104151
-10028.2, 129905, -56.0695, 1.74265, -1068.7, -0.002779, 0.322565, 1.03299, 0.34851, 0.655882, 3, 45.5, 246, 24.4045, 0.0935327, 0, 0, 1, 0, 104151
-6060.51, 644666, -298.593, 0.146866, -1100.52, 0.443894, 0.463959, 1.03299, 0.34851, 0.655882, 0.0001, 45.5, 246, 35.9551, 0.110511, 0, 0, 0, 0, 104154
-6060.51, 644666, -298.593, 0.146866, -1100.52, 0.443894, 0.463959, 1.03299, 0.34851, 0.655882, 3, 45.5, 246, 35.9551, 0.110511, 0, 0, 0, 0, 104154
-4788.73, 59380, -156.517, 3.45891, -791.835, -0.0304187, 0.215216, 1.03299, 0.34851, 0.655882, 0.0001, 45.5, 246, 46.9411, 0.139659, 1.1846, 1, 1, 0, 104156
-3582.04, 70865, -197.201, 3.77275, -808.317, 0.0269119, 0.22968, 0.993198, 0.349787, 0.651995, 0.0001, 91, 246, 46.9411, 0.139659, 1.21233, 1, 1, 0, 104156
-3582.04, 70865, -197.201, 3.77275, -808.317, 0.0269119, 0.22968, 0.993198, 0.349787, 0.651995, 3, 91, 246, 46.9411, 0.139659, 1.01216, 1, 1, 0, 104156
-1873.91, 83658.2, -246.053, 4.14859, -839.232, 0.0962478, 0.263788, 0.958125, 0.351078, 0.648177, 0.0001, 182, 246, 46.9411, 0.139659, 1.45681, 1, 1, 0, 104156
-1873.91, 83658.2, -246.053, 4.14859, -839.232, 0.0962478, 0.263788, 0.958125, 0.351078, 0.648177, 3, 182, 246, 46.9411, 0.139659, 1.31146, 1, 1, 0, 104156
1489.68, 104195, -329.03, 4.78667, -911.633, 0.216557, 0.345446, 0.9175, 0.352806, 0.64323, 0.0001, 455, 246, 46.9411, 0.139659, 2.41038, 1, 1, 1, 104156
1489.68, 104195, -329.03, 4.78667, -911.633, 0.216557, 0.345446, 0.9175, 0.352806, 0.64323, 3, 455, 246, 46.9411, 0.139659, 2.4097, 1, 1, 1, 104156
-5015.73, 400132, -442.032, 4.00617, -1064.51, 0.0648503, 0.423026, 0.958125, 0.351078, 0.648177, 3, 182, 246, 43.9882, 0.178766, 1.34901, 1, 0, 0, 104161
-11954.6, 168457, -60.6239, 2.27801, -963.672, 0.637999, 0.277121, 1.03299, 0.34851, 0.655882, 0.0001, 45.5, 246, 23.796, 0.0745478, 0, 0, 0, 0, 104163
-9609.64, 148782, -166.126, 2.49232, -704.565, -0.0274379, 0.339989, 1.03299, 0.34851, 0.655882, 0.0001, 45.5, 246, 37.4202, 0.17457, 0, 0, 1, 0, 104167
-8323.85, 437317, -249.161, 0.328068, -678.65, 0.132732, 0.443615, 0.993198, 0.349787, 0.651995, 0.0001, 91, 246, 29.5124, 0.144477, 0, 0, 1, 0, 104168
-9074.5, 76520.6, -65.5516, 2.63224, -738.218, 0.70208, 0.253954, 1.03299, 0.34851, 0.655882, 0.0001, 45.5, 246, 24.7953, 0.0876058, 0, 0, 1, 0, 104170
-9074.5, 76520.6, -65.5516, 2.63224, -738.218, 0.70208, 0.253954, 1.03299, 0.34851, 0.655882, 3, 45.5, 246, 24.7953, 0.0876058, 0, 0, 1, 0, 104170
-8214.69, 90407.5, -90.4676, 2.94818, -838.708, 0.828102, 0.246925, 0.993198, 0.349787, 0.651995, 0.0001, 91, 246, 24.7953, 0.0876058, 3.9405, 1, 1, 0, 104170
-8214.69, 90407.5, -90.4676, 2.94818, -838.708, 0.828102, 0.246925, 0.993198, 0.349787, 0.651995, 3, 91, 246, 24.7953, 0.0876058, 3.76423, 1, 1, 0, 104170
-6433.26, 401392, -177.965, 0.0109263, -1271.99, 0.526123, 0.364304, 0.958125, 0.351078, 0.648177, 0.0001, 182, 246, 31.8477, 0.123017, 2.23601, 1, 1, 0, 104173
-6433.26, 401392, -177.965, 0.0109263, -1271.99, 0.526123, 0.364304, 0.958125, 0.351078, 0.648177, 3, 182, 246, 31.8477, 0.123017, 2.13754, 1, 1, 0, 104173
-6220.18, 461052, -183.757, 0.0117168, -1429.12, 0.591085, 0.334805, 0.9175, 0.352806, 0.64323, 0.0001, 455, 246, 31.8477, 0.123017, 2.86141, 1, 0, 0, 104173
-6220.18, 461052, -183.757, 0.0117168, -1429.12, 0.591085, 0.334805, 0.9175, 0.352806, 0.64323, 3, 455, 246, 31.8477, 0.123017, 2.73984, 1, 0, 0, 104173
-8502.94, 523786, -450.562, 0.13207, -882.885, 0.0127815, 0.730751, 1.03299, 0.34851, 0.655882, 0.0001, 45.5, 246, 44.4947, 0.232679, 0, 0, 0, 0, 104178
-8502.94, 523786, -450.562, 0.13207, -882.885, 0.0127815, 0.730751, 1.03299, 0.34851, 0.655882, 3, 45.5, 246, 44.4947, 0.232679, 0, 0, 0, 0, 104178
-12311.6, 379664, -64.4967, 0.959941, -1043.42, 0.00166795, 0.339086, 1.03299, 0.34851, 0.655882, 3, 45.5, 246, 23.5108, 0.0472292, 0, 0, 1, 0, 104184
-9401.09, 88280.7, -87.2125, 3.59797, -618.926, -0.0464918, 0.160205, 1.03299, 0.34851, 0.655882, 0.0001, 45.5, 246, 25.8084, 0.0825034, 0, 0, 1, 0, 104196
-9401.09, 88280.7, -87.2125, 3.59797, -618.926, -0.0464918, 0.160205, 1.03299, 0.34851, 0.655882, 3, 45.5, 246, 25.8084, 0.0825034, 0, 0, 1, 0, 104196
-7995.38, 94611.4, -116.699, 3.92603, -627.396, 0.0156066, 0.176353, 0.993198, 0.349787, 0.651995, 0.0001, 91, 246, 25.8084, 0.0825034, 0, 0, 1, 0, 104196
-7995.38, 94611.4, -116.699, 3.92603, -627.396, 0.0156066, 0.176353, 0.993198, 0.349787, 0.651995, 3, 91, 246, 25.8084, 0.0825034, 0, 0, 1, 0, 104196
-6212.99, 101790, -152.203, 4.3216, -647.168, 0.0905667, 0.213374, 0.958125, 0.351078, 0.648177, 0.0001, 182, 246, 25.8084, 0.0825034, 0, 0, 1, 0, 104196
-6212.99, 101790, -152.203, 4.3216, -647.168, 0.0905667, 0.213374, 0.958125, 0.351078, 0.648177, 3, 182, 246, 25.8084, 0.0825034, 0, 0, 1, 0, 104196
-8182.29, 738847, -263.999, 0.337166, -1135.14, 0.0870118, 0.429717, 1.03299, 0.34851, 0.655882, 0.0001, 45.5, 246, 35.0196, 0.0905423, 0, 0, 0, 0, 104197
-8182.29, 738847, -263.999, 0.337166, -1135.14, 0.0870118, 0.429717, 1.03299, 0.34851, 0.655882, 3, 45.5, 246, 35.0196, 0.0905423, 0, 0, 0, 0, 104197
-8826.6, 310108, -128.432, 0.800835, -1100.37, 0.343093, 0.347099, 0.993198, 0.349787, 0.651995, 0.0001, 91, 246, 28.0794, 0.0987387, 0, 0, 1, 0, 104200
-11582.5, 403908, -70.5005, 0.806633, -1176.11, -0.0010984, 0.344814, 1.03299, 0.34851, 0.655882, 0.0001, 45.5, 246, 25.8672, 0.047734, 0, 0, 1, 0, 104201
-11582.5, 403908, -70.5005, 0.806633, -1176.11, -0.0010984, 0.344814, 1.03299, 0.34851, 0.655882, 3, 45.5, 246, 25.8672, 0.047734, 0, 0, 1, 0, 104201
-8730.64, 80419.3, -95.4627, 3.23347, -604.988, 0.149102, 0.205347, 1.03299, 0.34851, 0.655882, 0.0001, 45.5, 246, 28.1072, 0.0940716, 0, 0, 1, 0, 104202
-8730.64, 80419.3, -95.4627, 3.23347, -604.988, 0.149102, 0.205347, 1.03299, 0.34851, 0.655882, 3, 45.5, 246, 28.1072, 0.0940716, 0, 0, 1, 0, 104202
-7568.48, 87619.9, -122.815, 3.54473, -631.865, 0.204346, 0.212061, 0.993198, 0.349787, 0.651995, 0.0001, 91, 246, 28.1072, 0.0940716, 0, 0, 1, 0, 104202
-7568.48, 87619.9, -122.815, 3.54473, -631.865, 0.204346, 0.212061, 0.993198, 0.349787, 0.651995, 3, 91, 246, 28.1072, 0.0940716, 0, 0, 1, 0, 104202
-6722.37, 93982.1, -161.546, 2.72794, -873.094, -0.0353689, 0.325106, 1.03299, 0.34851, 0.655882, 3, 45.5, 246, 45.9729, 0.200756, 0, 0, 1, 0, 104205
-3497.69, 122401, -237.951, 3.1833, -904.264, 0.0411038, 0.335814, 0.958125, 0.351078, 0.648177, 0.0001, 182, 246, 45.9729, 0.200756, 1.03416, 1, 1, 0, 104205
-103.321, 144505, -303.57, 3.56829, -950.15, 0.10822, 0.372453, 0.9175, 0.352806, 0.64323, 0.0001, 455, 246, 45.9729, 0.200756, 2.21537, 1, 0, 0, 104205
-103.321, 144505, -303.57, 3.56829, -950.15, 0.10822, 0.372453, 0.9175, 0.352806, 0.64323, 3, 455, 246, 45.9729, 0.200756, 2.21607, 1, 0, 0, 104205
-8708.16, 75362.2, -51.4531, 2.87141, -741.379, 0.628479, 0.239758, 0.993198, 0.349787, 0.651995, 0.0001, 91, 246, 17.5883, 0.0578017, 0, 0, 1, 0, 104215
-8708.16, 75362.2, -51.4531, 2.87141, -741.379, 0.628479, 0.239758, 0.993198, 0.349787, 0.651995, 3, 91, 246, 17.5883, 0.0578017, 0, 0, 1, 0, 104215
-7765.22, 88748.3, -77.1912, 3.21013, -831.233, 0.742802, 0.245435, 0.958125, 0.351078, 0.648177, 0.0001, 182, 246, 17.5883, 0.0578017, 0, 0, 1, 0, 104215
-7765.22, 88748.3, -77.1912, 3.21013, -831.233, 0.742802, 0.245435, 0.958125, 0.351078, 0.648177, 3, 182, 246, 17.5883, 0.0578017, 0, 0, 1, 0, 104215
-5801.58, 113696, -125.012, 3.79509, -1004.84, 0.963361, 0.279477, 0.9175, 0.352806, 0.64323, 0.0001, 455, 246, 17.5883, 0.0578017, 0, 0, 1, 0, 104215
-5801.58, 113696, -125.012, 3.79509, -1004.84, 0.963361, 0.279477, 0.9175, 0.352806, 0.64323, 3, 455, 246, 17.5883, 0.0578017, 0, 0, 1, 0, 104215
-9174.04, 55806.9, -17.6727, 2.31485, -1033.5, -0.0249009, 0.2794, 1.03299, 0.34851, 0.655882, 0.0001, 45.5, 246, 18.5296, 0.0675078, 1.03955, 1, 1, 0, 104216
-8706.04, 74138, -41.3294, 2.47342, -1033.3, 0.000275692, 0.264828, 0.993198, 0.349787, 0.651995, 0.0001, 91, 246, 18.5296, 0.0675078, 0, 0, 1, 0, 104216
-8706.04, 74138, -41.3294, 2.47342, -1033.3, 0.000275692, 0.264828, 0.993198, 0.349787, 0.651995, 3, 91, 246, 18.5296, 0.0675078, 0, 0, 1, 0, 104216
-4313.22, 258526, -352.562, 3.88935, -853.23, 0.237777, 0.366983, 0.958125, 0.351078, 0.648177, 0.0001, 182, 246, 41.1288, 0.179682, 1.10504, 1, 0, 0, 104217
-6627.46, -22911.7, -1.40762, 3.43876, -882.991, 0.0783471, 0.194453, 1.03299, 0.34851, 0.655882, 0.0001, 45.5, 246, 15.579, 0.0409755, 0, 0, 1, 1, 104218
-6627.46, -22911.7, -1.40762, 3.43876, -882.991, 0.0783471, 0.194453, 1.03299, 0.34851, 0.655882, 3, 45.5, 246, 15.579, 0.0409755, 0, 0, 1, 1, 104218
-9554.86, 70056.9, -21.2463, 2.60622, -1053.09, 0.0432667, 0.256446, 1.03299, 0.34851, 0.655882, 0.0001, 45.5, 246, 19.8492, 0.0670655, 0, 0, 1, 0, 104225
-11340.2, 226799, -139.982, 1.78509, -944.514, 0.0481763, 0.365957, 1.03299, 0.34851, 0.655882, 3, 45.5, 246, 31.8637, 0.135965, 0, 0, 1, 0, 104229
-10655.1, 301606, -399.385, 3.73012, -701.55, 0.0815549, 0.416089, 0.993198, 0.349787, 0.651995, 0.0001, 91, 246, 45.0934, 0.208694, 1.13152, 1, 1, 0, 104230
-10655.1, 301606, -399.385, 3.73012, -701.55, 0.0815549, 0.416089, 0.993198, 0.349787, 0.651995, 3, 91, 246, 45.0934, 0.208694, 1.01118, 1, 1, 0, 104230
-3907.91, 315581, -466.119, 4.13224, -759.525, 0.151372, 0.462182, 0.958125, 0.351078, 0.648177, 0.0001, 182, 246, 45.0934, 0.208694, 3.12015, 1, 0, 0, 104230
-3907.91, 315581, -466.119, 4.13224, -759.525, 0.151372, 0.462182, 0.958125, 0.351078, 0.648177, 3, 182, 246, 45.0934, 0.208694, 2.88909, 1, 0, 0, 104230
-11456.1, 534301, -183.815, 0.537302, -610.315, 0.00155427, 0.398274, 1.03299, 0.34851, 0.655882, 0.0001, 45.5, 246, 23.0547, 0.0892167, 0, 0, 1, 0, 104231
-8855.04, 540565, -273.405, 0.365919, -899.462, 0.391129, 0.46628, 1.03299, 0.34851, 0.655882, 0.0001, 45.5, 246, 32.7618, 0.123546, 0, 0, 0, 0, 104235
-5896.71, 601099, -300.17, 0.41034, -1032.81, 0.447806, 0.41913, 0.958125, 0.351078, 0.648177, 3, 182, 246, 32.7618, 0.123546, 0, 0, 0, 0, 104235
-11502.2, 178026, -54.3215, 1.85715, -949.897, 0.277347, 0.305638, 1.03299, 0.34851, 0.655882, 0.0001, 45.5, 246, 22.2875, 0.0713688, 0, 0, 1, 0, 104236
-11502.2, 178026, -54.3215, 1.85715, -949.897, 0.277347, 0.305638, 1.03299, 0.34851, 0.655882, 3, 45.5, 246, 22.2875, 0.0713688, 0, 0, 1, 0, 104236
-10155.6, 197252, -74.6111, 2.00124, -998.063, 0.307139, 0.283733, 0.993198, 0.349787, 0.651995, 3, 91, 246, 22.2875, 0.0713688, 0, 0, 1, 0, 104236
-11099.7, 88770.3, 15.3919, 3.4195, -1163.95, -0.0561182, 0.164988, 1.03299, 0.34851, 0.655882, 0.0001, 45.5, 246, 16.6092, 0.0404877, 0, 0, 0, 0, 104251
-11099.7, 88770.3, 15.3919, 3.4195, -1163.95, -0.0561182, 0.164988, 1.03299, 0.34851, 0.655882, 3, 45.5, 246, 16.6092, 0.0404877, 0, 0, 0, 0, 104251
-9761.73, 111608, -21.1206, 3.71638, -1158.9, -0.000159029, 0.175019, 0.993198, 0.349787, 0.651995, 0.0001, 91, 246, 16.6092, 0.0404877, 0, 0, 1, 0, 104251
-9761.73, 111608, -21.1206, 3.71638, -1158.9, -0.000159029, 0.175019, 0.993198, 0.349787, 0.651995, 3, 91, 246, 16.6092, 0.0404877, 0, 0, 1, 0, 104251
-3301.64, 65214.6, -186.053, 3.22343, -892.553, 0.0969863, 0.265829, 1.03299, 0.34851, 0.655882, 0.0001, 45.5, 246, 56.5153, 0.18971, 1.38562, 1, 1, 0, 104256
-3301.64, 65214.6, -186.053, 3.22343, -892.553, 0.0969863, 0.265829, 1.03299, 0.34851, 0.655882, 3, 45.5, 246, 56.5153, 0.18971, 1.2134, 1, 1, 0, 104256
-1907.8, 80813.7, -230.445, 3.52876, -928.608, 0.149327, 0.27593, 0.993198, 0.349787, 0.651995, 0.0001, 91, 246, 56.5153, 0.18971, 1.58502, 1, 1, 0, 104256
-1907.8, 80813.7, -230.445, 3.52876, -928.608, 0.149327, 0.27593, 0.993198, 0.349787, 0.651995, 3, 91, 246, 56.5153, 0.18971, 1.44361, 1, 1, 0, 104256
107.113, 98724.8, -284.189, 3.89236, -980.945, 0.214845, 0.304242, 0.958125, 0.351078, 0.648177, 0.0001, 182, 246, 56.5153, 0.18971, 2.16416, 1, 1, 1, 104256
107.113, 98724.8, -284.189, 3.89236, -980.945, 0.214845, 0.304242, 0.958125, 0.351078, 0.648177, 3, 182, 246, 56.5153, 0.18971, 2.0261, 1, 1, 1, 104256
-5173.92, 142196, -284.273, 3.25837, -951.092, 0.526253, 0.370043, 1.03299, 0.34851, 0.655882, 0.0001, 45.5, 246, 57.4871, 0.248658, 1.46857, 1, 0, 0, 104262
-5173.92, 142196, -284.273, 3.25837, -951.092, 0.526253, 0.370043, 1.03299, 0.34851, 0.655882, 3, 45.5, 246, 57.4871, 0.248658, 1.35869, 1, 0, 0, 104262
-2084.15, 166234, -342.538, 3.66926, -1071.53, 0.63136, 0.390291, 0.993198, 0.349787, 0.651995, 0.0001, 91, 246, 57.4871, 0.248658, 1.86126, 1, 1, 0, 104262
-2084.15, 166234, -342.538, 3.66926, -1071.53, 0.63136, 0.390291, 0.993198, 0.349787, 0.651995, 3, 91, 246, 57.4871, 0.248658, 1.76194, 1, 1, 0, 104262
2307.21, 198738, -418.366, 4.18847, -1238.17, 0.776488, 0.434116, 0.958125, 0.351078, 0.648177, 0.0001, 182, 246, 57.4871, 0.248658, 0, 0, 0, 0, 104262
2307.21, 198738, -418.366, 4.18847, -1238.17, 0.776488, 0.434116, 0.958125, 0.351078, 0.648177, 3, 182, 246, 57.4871, 0.248658, 0, 0, 0, 0, 104262
11479.5, 265053, -563.449, 5.14961, -1584.85, 1.07731, 0.542428, 0.9175, 0.352806, 0.64323, 0.0001, 455, 246, 57.4871, 0.248658, 0, 0, 0, 0, 104262
11479.5, 265053, -563.449, 5.14961, -1584.85, 1.07731, 0.542428, 0.9175, 0.352806, 0.64323, 3, 455, 246, 57.4871, 0.248658, 0, 0, 0, 0, 104262
-13125.2, 186456, -47.9475, 2.63085, -1120.34, 0.16802, 0.248047, 1.03299, 0.34851, 0.655882, 0.0001, 45.5, 246, 24.371, 0.0672382, 0, 0, 0, 0, 104263
-13125.2, 186456, -47.9475, 2.63085, -1120.34, 0.16802, 0.248047, 1.03299, 0.34851, 0.655882, 3, 45.5, 246, 24.371, 0.0672382, 0, 0, 0, 0, 104263
-7460.29, -19941.7, 11.7577, 2.90773, -917.575, -0.0211436, 0.243309, 1.03299, 0.34851, 0.655882, 3, 45.5, 246, 10.2643, 0.0506566, 0, 0, 1, 1, 104264
-7733.55, 28871.9, -87.6665, 3.84116, -954.164, 0.144629, 0.294604, 0.9175, 0.352806, 0.64323, 3, 455, 246, 10.2643, 0.0506566, 0, 0, 1, 1, 104264
-2632.77, 80070.5, -235.412, 2.73101, -573.363, 0.332081, 0.346211, 1.03299, 0.34851, 0.655882, 0.0001, 45.5, 246, 61.872, 0.244362, 1.72, 1, 1, 0, 104266
-2632.77, 80070.5, -235.412, 2.73101, -573.363, 0.332081, 0.346211, 1.03299, 0.34851, 0.655882, 3, 45.5, 246, 61.872, 0.244362, 1.60551, 1, 1, 0, 104266
-1062.49, 88993.7, -269.954, 3.00647, -626.443, 0.388574, 0.347613, 0.993198, 0.349787, 0.651995, 0.0001, 91, 246, 61.872, 0.244362, 1.88496, 1, 1, 0, 104266
-1062.49, 88993.7, -269.954, 3.00647, -626.443, 0.388574, 0.347613, 0.993198, 0.349787, 0.651995, 3, 91, 246, 61.872, 0.244362, 1.76733, 1, 1, 0, 104266
987.815, 100212, -311.74, 3.33294, -694.797, 0.460944, 0.363964, 0.958125, 0.351078, 0.648177, 0.0001, 182, 246, 61.872, 0.244362, 2.44762, 1, 1, 0, 104266
987.815, 100212, -311.74, 3.33294, -694.797, 0.460944, 0.363964, 0.958125, 0.351078, 0.648177, 3, 182, 246, 61.872, 0.244362, 2.30669, 1, 1, 0, 104266
4759.05, 120449, -383.196, 3.87949, -820.74, 0.593408, 0.412703, 0.9175, 0.352806, 0.64323, 0.0001, 455, 246, 61.872, 0.244362, 0, 0, 0, 0, 104266
4759.05, 120449, -383.196, 3.87949, -820.74, 0.593408, 0.412703, 0.9175, 0.352806, 0.64323, 3, 455, 246, 61.872, 0.244362, 0, 0, 0, 0, 104266
-10238.3, 132412, -118.48, 2.63039, -708.952, 0.563003, 0.276163, 1.03299, 0.34851, 0.655882, 0.0001, 45.5, 246, 29.8718, 0.120252, 0, 0, 1, 0, 104267
-10429.7, 221453, -131.536, 1.1227, -644.316, 0.0418724, 0.389813, 1.03299, 0.34851, 0.655882, 0.0001, 45.5, 246, 27.158, 0.138725, 0, 0, 1, 0, 104275
-9397.5, 229507, -144.702, 1.18056, -653.106, 0.0480128, 0.363218, 0.993198, 0.349787, 0.651995, 0.0001, 91, 246, 27.158, 0.138725, 0, 0, 1, 0, 104275
-10950.9, 364259, -126.738, 0.814376, -871.818, -0.00290268, 0.374855, 1.03299, 0.34851, 0.655882, 0.0001, 45.5, 246, 25.8253, 0.0892893, 0, 0, 1, 0, 104280
-10950.9, 364259, -126.738, 0.814376, -871.818, -0.00290268, 0.374855, 1.03299, 0.34851, 0.655882, 3, 45.5, 246, 25.8253, 0.0892893, 0, 0, 1, 0, 104280
-9723.76, 377774, -138.659, 0.849095, -874.532, 0.000134878, 0.34422, 0.993198, 0.349787, 0.651995, 3, 91, 246, 25.8253, 0.0892893, 0, 0, 1, 0, 104280
-3906.23, 335447, -109.151, 4.59145, -962.013, 0.254117, 0.237017, 0.9175, 0.352806, 0.64323, 0.0001, 455, 246, 16.393, 0.0187347, 0, 0, 0, 0, 104284
-3906.23, 335447, -109.151, 4.59145, -962.013, 0.254117, 0.237017, 0.9175, 0.352806, 0.64323, 3, 455, 246, 16.393, 0.0187347, 0, 0, 0, 0, 104284
-16929.9, 494889, -238.761, 2.40686, -767.969, 0.0666068, 0.327704, 0.993198, 0.349787, 0.651995, 0.0001, 91, 246, 28.7367, 0.104773, 1.19523, 1, 1, 0, 104287
-16929.9, 494889, -238.761, 2.40686, -767.969, 0.0666068, 0.327704, 0.993198, 0.349787, 0.651995, 3, 91, 246, 28.7367, 0.104773, 1.22514, 1, 1, 0, 104287
-5100.79, 856173, -378.193, 0.0117401, -995.593, 0.000511131, 0.499255, 1.03299, 0.34851, 0.655882, 0.0001, 45.5, 246, 35.8566, 0.113621, 0, 0, 0, 0, 104288
-5100.79, 856173, -378.193, 0.0117401, -995.593, 0.000511131, 0.499255, 1.03299, 0.34851, 0.655882, 3, 45.5, 246, 35.8566, 0.113621, 0, 0, 0, 0, 104288
-3897.64, 876194, -390.129, 0.0121077, -995.794, 0.000511797, 0.475837, 0.993198, 0.349787, 0.651995, 3, 91, 246, 35.8566, 0.113621, 0, 0, 1, 0, 104288
-9571.49, 584015, -222.818, 0.294288, -675.762, 0.207624, 0.419655, 1.03299, 0.34851, 0.655882, 0.0001, 45.5, 246, 25.4527, 0.0956977, 0, 0, 1, 0, 104292
-9571.49, 584015, -222.818, 0.294288, -675.762, 0.207624, 0.419655, 1.03299, 0.34851, 0.655882, 3, 45.5, 246, 25.4527, 0.0956977, 0, 0, 1, 0, 104292
-8593.32, 599775, -232.303, 0.30778, -700.541, 0.215078, 0.389806, 0.993198, 0.349787, 0.651995, 3, 91, 246, 25.4527, 0.0956977, 0, 0, 1, 0, 104292
-9271.87, 95765.4, -88.3845, 3.06995, -839.405, -0.0450224, 0.232755, 1.03299, 0.34851, 0.655882, 0.0001, 45.5, 246, 29.2958, 0.106475, 0, 0, 1, 0, 104296
-9271.87, 95765.4, -88.3845, 3.06995, -839.405, -0.0450224, 0.232755, 1.03299, 0.34851, 0.655882, 3, 45.5, 246, 29.2958, 0.106475, 0, 0, 1, 0, 104296
-7416.53, 153898, -249.663, 3.58394, -984.853, 0.22198, 0.289745, 1.03299, 0.34851, 0.655882, 0.0001, 45.5, 246, 50.5113, 0.204771, 1.21065, 1, 0, 0, 104297
-7416.53, 153898, -249.663, 3.58394, -984.853, 0.22198, 0.289745, 1.03299, 0.34851, 0.655882, 3, 45.5, 246, 50.5113, 0.204771, 1.09059, 1, 0, 0, 104297
-4159.21, 175289, -309.044, 3.98278, -1053.97, 0.295156, 0.314594, 0.993198, 0.349787, 0.651995, 0.0001, 91, 246, 50.5113, 0.204771, 1.48187, 1, 1, 0, 104297
-4159.21, 175289, -309.044, 3.98278, -1053.97, 0.295156, 0.314594, 0.993198, 0.349787, 0.651995, 3, 91, 246, 50.5113, 0.204771, 1.35808, 1, 1, 0, 104297
327.124, 201887, -383.989, 4.4764, -1151.81, 0.391931, 0.364016, 0.958125, 0.351078, 0.648177, 0.0001, 182, 246, 50.5113, 0.204771, 0, 0, 0, 0, 104297
327.124, 201887, -383.989, 4.4764, -1151.81, 0.391931, 0.364016, 0.958125, 0.351078, 0.648177, 3, 182, 246, 50.5113, 0.204771, 5.73831, 1, 0, 0, 104297
-9805.81, 255997, -37.2054, 1.71622, -759.276, 0.0128274, 0.256831, 0.958125, 0.351078, 0.648177, 0.0001, 182, 246, 14.1947, 0.0246382, 0, 0, 1, 0, 104298
-7239.66, 32235.8, -75.5554, 2.66738, -1026.63, 0.0665907, 0.275208, 0.993198, 0.349787, 0.651995, 0.0001, 91, 246, 31.2073, 0.0899583, 0, 0, 1, 1, 104300
-6342.56, -13688.3, -52.3298, 3.22353, -638.863, 0.0324213, 0.223504, 1.03299, 0.34851, 0.655882, 3, 45.5, 246, 31.4827, 0.0458569, 0, 0, 1, 1, 104302
-6699.43, 104389, -193.783, 3.0179, -630.682, 0.151202, 0.292242, 1.03299, 0.34851, 0.655882, 0.0001, 45.5, 246, 45.2968, 0.183923, 1.11145, 1, 1, 0, 104305
-4951.56, 113211, -228.799, 3.30249, -666.118, 0.199818, 0.297746, 0.993198, 0.349787, 0.651995, 0.0001, 91, 246, 45.2968, 0.183923, 1.12019, 1, 1, 0, 104305
-2696.84, 123834, -270.922, 3.63855, -713.87, 0.260921, 0.319706, 0.958125, 0.351078, 0.648177, 0.0001, 182, 246, 45.2968, 0.183923, 1.36779, 1, 1, 0, 104305
-2696.84, 123834, -270.922, 3.63855, -713.87, 0.260921, 0.319706, 0.958125, 0.351078, 0.648177, 3, 182, 246, 45.2968, 0.183923, 1.20552, 1, 1, 0, 104305
1368.79, 142112, -342.291, 4.19811, -804.917, 0.370129, 0.378552, 0.9175, 0.352806, 0.64323, 0.0001, 455, 246, 45.2968, 0.183923, 2.59571, 1, 0, 0, 104305
1368.79, 142112, -342.291, 4.19811, -804.917, 0.370129, 0.378552, 0.9175, 0.352806, 0.64323, 3, 455, 246, 45.2968, 0.183923, 2.59589, 1, 0, 0, 104305
-10677.2, 97694.7, -25.1618, 2.98019, -757.705, -0.0423291, 0.213885, 1.03299, 0.34851, 0.655882, 0.0001, 45.5, 246, 16.9359, 0.0514726, 0, 0, 1, 0, 104313
-10677.2, 97694.7, -25.1618, 2.98019, -757.705, -0.0423291, 0.213885, 1.03299, 0.34851, 0.655882, 3, 45.5, 246, 16.9359, 0.0514726, 0, 0, 1, 0, 104313
-9862.91, 395700, -290.884, 0.565673, -790.734, 0.48509, 0.531797, 1.03299, 0.34851, 0.655882, 3, 45.5, 246, 36.0245, 0.178871, 0, 0, 0, 0, 104314
-9654.45, 127114, -86.4263, 1.91904, -1010.91, -0.00610685, 0.332933, 1.03299, 0.34851, 0.655882, 0.0001, 45.5, 246, 29.4184, 0.128341, 0, 0, 1, 0, 104318
-9654.45, 127114, -86.4263, 1.91904, -1010.91, -0.00610685, 0.332933, 1.03299, 0.34851, 0.655882, 3, 45.5, 246, 29.4184, 0.128341, 0, 0, 1, 0, 104318
-9264.14, 293541, -246.582, 0.498263, -733.13, 0.305235, 0.536627, 1.03299, 0.34851, 0.655882, 0.0001, 45.5, 246, 37.2913, 0.214804, 0, 0, 0, 0, 104324
-10369.3, 272860, -225.793, 1.11029, -806.592, 0.151245, 0.490772, 1.03299, 0.34851, 0.655882, 0.0001, 45.5, 246, 37.6576, 0.199799, 0, 0, 0, 0, 104325
-10369.3, 272860, -225.793, 1.11029, -806.592, 0.151245, 0.490772, 1.03299, 0.34851, 0.655882, 3, 45.5, 246, 37.6576, 0.199799, 0, 0, 0, 0, 104325
-8766.51, 287753, -245.933, 1.17745, -833.905, 0.160832, 0.472576, 0.993198, 0.349787, 0.651995, 3, 91, 246, 37.6576, 0.199799, 0, 0, 1, 0, 104325
-3750.93, 109917, -226.189, 3.38605, -831.922, 0.568684, 0.304558, 0.958125, 0.351078, 0.648177, 0.0001, 182, 246, 42.6632, 0.168852, 1.01312, 1, 1, 0, 104326
-436.511, 135821, -294.507, 3.97336, -987.397, 0.734339, 0.351068, 0.9175, 0.352806, 0.64323, 0.0001, 455, 246, 42.6632, 0.168852, 1.91966, 1, 0, 0, 104326
-436.511, 135821, -294.507, 3.97336, -987.397, 0.734339, 0.351068, 0.9175, 0.352806, 0.64323, 3, 455, 246, 42.6632, 0.168852, 1.91953, 1, 0, 0, 104326
-11319.5, 423519, -3.82262, 0.47553, -692.227, -0.00102312, 0.337042, 1.03299, 0.34851, 0.655882, 0.0001, 45.5, 246, 13.1799, 0.0050467, 0, 0, 1, 0, 104329
-10699, 431828, -6.94901, 0.492286, -692.239, 5.13815e-06, 0.301536, 0.993198, 0.349787, 0.651995, 0.0001, 91, 246, 13.1799, 0.0050467, 0, 0, 1, 0, 104329
-12318.7, 121570, -3.88858, 3.54221, -1199.7, -0.0421758, 0.14939, 1.03299, 0.34851, 0.655882, 0.0001, 45.5, 246, 20.5738, 0.0504511, 0, 0, 0, 0, 104334
-12318.7, 121570, -3.88858, 3.54221, -1199.7, -0.0421758, 0.14939, 1.03299, 0.34851, 0.655882, 3, 45.5, 246, 20.5738, 0.0504511, 0, 0, 0, 0, 104334
-10388.9, 145971, -44.8574, 3.86055, -1199.59, 0.0179262, 0.162928, 0.993198, 0.349787, 0.651995, 0.0001, 91, 246, 20.5738, 0.0504511, 0, 0, 1, 0, 104334
-10388.9, 145971, -44.8574, 3.86055, -1199.59, 0.0179262, 0.162928, 0.993198, 0.349787, 0.651995, 3, 91, 246, 20.5738, 0.0504511, 0, 0, 1, 0, 104334
-4921.36, 100664, -211.495, 3.33732, -926.722, 0.0660291, 0.288736, 1.03299, 0.34851, 0.655882, 0.0001, 45.5, 246, 52.9089, 0.208555, 1.34739, 1, 1, 0, 104341
-4921.36, 100664, -211.495, 3.33732, -926.722, 0.0660291, 0.288736, 1.03299, 0.34851, 0.655882, 3, 45.5, 246, 52.9089, 0.208555, 1.17031, 1, 1, 0, 104341
-2861.68, 117557, -260.895, 3.65795, -962.24, 0.121021, 0.304153, 0.993198, 0.349787, 0.651995, 0.0001, 91, 246, 52.9089, 0.208555, 1.51808, 1, 1, 0, 104341
-2861.68, 117557, -260.895, 3.65795, -962.24, 0.121021, 0.304153, 0.993198, 0.349787, 0.651995, 3, 91, 246, 52.9089, 0.208555, 1.3882, 1, 1, 0, 104341
-12.1144, 137089, -320.865, 4.04236, -1015.71, 0.189742, 0.339082, 0.958125, 0.351078, 0.648177, 0.0001, 182, 246, 52.9089, 0.208555, 2.41754, 1, 1, 1, 104341
-12.1144, 137089, -320.865, 4.04236, -1015.71, 0.189742, 0.339082, 0.958125, 0.351078, 0.648177, 3, 182, 246, 52.9089, 0.208555, 2.27561, 1, 1, 1, 104341
-4937.29, 656638, -319.059, 0.134819, -1101.51, 0.0360998, 0.459601, 0.993198, 0.349787, 0.651995, 0.0001, 91, 246, 36.916, 0.124788, 0, 0, 1, 0, 104344
-8735.65, 116521, -146.056, 2.83897, -799.321, 0.515401, 0.279877, 1.03299, 0.34851, 0.655882, 0.0001, 45.5, 246, 36.8815, 0.148931, 0, 0, 1, 0, 104348
-8735.65, 116521, -146.056, 2.83897, -799.321, 0.515401, 0.279877, 1.03299, 0.34851, 0.655882, 3, 45.5, 246, 36.8815, 0.148931, 0, 0, 1, 0, 104348
-7066.66, 132654, -180.836, 3.15975, -886.393, 0.604053, 0.280024, 0.993198, 0.349787, 0.651995, 0.0001, 91, 246, 36.8815, 0.148931, 0, 0, 1, 0, 104348
-7066.66, 132654, -180.836, 3.15975, -886.393, 0.604053, 0.280024, 0.993198, 0.349787, 0.651995, 3, 91, 246, 36.8815, 0.148931, 0, 0, 1, 0, 104348
-132.201, 193534, -306.817, 4.24206, -1231.11, 0.954345, 0.352818, 0.9175, 0.352806, 0.64323, 0.0001, 455, 246, 36.8815, 0.148931, 1.86608, 1, 0, 0, 104348
-132.201, 193534, -306.817, 4.24206, -1231.11, 0.954345, 0.352818, 0.9175, 0.352806, 0.64323, 3, 455, 246, 36.8815, 0.148931, 1.89269, 1, 0, 0, 104348
417.149, 491843, -352.992, 3.88926, -1057.57, 0.170771, 0.335636, 0.9175, 0.352806, 0.64323, 3, 455, 246, 31.7488, 0.102403, 0, 0, 0, 0, 104353
-6778.04, -12835.8, -25.7033, 3.17, -840.531, -0.0364717, 0.224127, 1.03299, 0.34851, 0.655882, 0.0001, 45.5, 246, 23.0432, 0.0274668, 0, 0, 1, 1, 104356
-4719.15, 168485, -235.471, 2.5872, -1154.74, 0.823295, 0.379921, 0.958125, 0.351078, 0.648177, 0.0001, 182, 246, 43.4915, 0.217896, 0, 0, 1, 0, 104364
-4719.15, 168485, -235.471, 2.5872, -1154.74, 0.823295, 0.379921, 0.958125, 0.351078, 0.648177, 3, 182, 246, 43.4915, 0.217896, 0, 0, 1, 0, 104364
-835.971, 220789, -303.323, 3.04154, -1430.56, 1.04974, 0.399488, 0.9175, 0.352806, 0.64323, 3, 455, 246, 43.4915, 0.217896, 1.13375, 1, 0, 0, 104364
-11344.9, 209421, -83.2261, 1.43489, -613.993, 0.120078, 0.337183, 1.03299, 0.34851, 0.655882, 0.0001, 45.5, 246, 20.7391, 0.0883513, 0, 0, 1, 0, 104368
-11344.9, 209421, -83.2261, 1.43489, -613.993, 0.120078, 0.337183, 1.03299, 0.34851, 0.655882, 3, 45.5, 246, 20.7391, 0.0883513, 0, 0, 1, 0, 104368
-10173.1, 217487, -95.9672, 1.52189, -629.861, 0.132181, 0.310542, 0.993198, 0.349787, 0.651995, 0.0001, 91, 246, 20.7391, 0.0883513, 0, 0, 1, 0, 104368
-7627.21, 553832, -402.348, 0.274204, -1053.49, 0.00553115, 0.630454, 1.03299, 0.34851, 0.655882, 0.0001, 45.5, 246, 43.2657, 0.192694, 0, 0, 0, 0, 104370
-7627.21, 553832, -402.348, 0.274204, -1053.49, 0.00553115, 0.630454, 1.03299, 0.34851, 0.655882, 3, 45.5, 246, 43.2657, 0.192694, 0, 0, 0, 0, 104370
-9690.6, 646788, -93.5338, 0.321606, -1176.21, -0.000321962, 0.352717, 1.03299, 0.34851, 0.655882, 0.0001, 45.5, 246, 28.1901, 0.0373838, 0, 0, 1, 0, 104372
-8910.24, 671203, -100.037, 0.332169, -1177.03, 0.000147247, 0.317768, 0.993198, 0.349787, 0.651995, 0.0001, 91, 246, 28.1901, 0.0373838, 0, 0, 1, 0, 104372
-8006.97, 695699, -106.598, 0.342216, -1178.02, 0.0006465, 0.28716, 0.958125, 0.351078, 0.648177, 0.0001, 182, 246, 28.1901, 0.0373838, 0, 0, 1, 0, 104372
-10581.7, 245634, -287.963, 2.6022, -1136.73, -0.0309894, 0.488477, 1.03299, 0.34851, 0.655882, 3, 45.5, 246, 50.7406, 0.238728, 0, 0, 0, 0, 104374
-8741.26, 98018.5, -96.2197, 1.94843, -941.246, 0.0537573, 0.342467, 1.03299, 0.34851, 0.655882, 0.0001, 45.5, 246, 33.1404, 0.158684, 0, 0, 1, 0, 104376
-8741.26, 98018.5, -96.2197, 1.94843, -941.246, 0.0537573, 0.342467, 1.03299, 0.34851, 0.655882, 3, 45.5, 246, 33.1404, 0.158684, 0, 0, 1, 0, 104376
-11291.9, 334567, -316.923, 1.53954, -1074.4, -0.00791911, 0.585742, 1.03299, 0.34851, 0.655882, 0.0001, 45.5, 246, 47.1842, 0.232661, 0, 0, 0, 0, 104382
-11291.9, 334567, -316.923, 1.53954, -1074.4, -0.00791911, 0.585742, 1.03299, 0.34851, 0.655882, 3, 45.5, 246, 47.1842, 0.232661, 0, 0, 0, 0, 104382
-10032.9, 71750.1, -13.1904, 3.39764, -599.976, 0.163856, 0.16394, 1.03299, 0.34851, 0.655882, 0.0001, 45.5, 246, 12.9803, 0.035427, 0, 0, 1, 0, 104383
-10032.9, 71750.1, -13.1904, 3.39764, -599.976, 0.163856, 0.16394, 1.03299, 0.34851, 0.655882, 3, 45.5, 246, 12.9803, 0.035427, 0, 0, 1, 0, 104383
-9066.05, 78455.9, -34.2453, 3.73587, -620.842, 0.225553, 0.17385, 0.993198, 0.349787, 0.651995, 0.0001, 91, 246, 12.9803, 0.035427, 0, 0, 1, 0, 104383
-9066.05, 78455.9, -34.2453, 3.73587, -620.842, 0.225553, 0.17385, 0.993198, 0.349787, 0.651995, 3, 91, 246, 12.9803, 0.035427, 0, 0, 1, 0, 104383
-10943.5, 97734.6, -27.3622, 3.37672, -681.128, 0.102871, 0.166644, 1.03299, 0.34851, 0.655882, 0.0001, 45.5, 246, 16.3951, 0.0469214, 0, 0, 1, 0, 104389
-10943.5, 97734.6, -27.3622, 3.37672, -681.128, 0.102871, 0.166644, 1.03299, 0.34851, 0.655882, 3, 45.5, 246, 16.3951, 0.0469214, 0, 0, 1, 0, 104389
-11328.1, 154610, -85.0406, 2.57654, -1038.12, 0.546363, 0.269931, 1.03299, 0.34851, 0.655882, 0.0001, 45.5, 246, 28.3662, 0.0985447, 0, 0, 0, 0, 104397
-11328.1, 154610, -85.0406, 2.57654, -1038.12, 0.546363, 0.269931, 1.03299, 0.34851, 0.655882, 3, 45.5, 246, 28.3662, 0.0985447, 0, 0, 0, 0, 104397
-1695.27, 275137, -240.137, 3.78215, -1567.44, 0.970851, 0.30406, 0.9175, 0.352806, 0.64323, 0.0001, 455, 246, 28.3662, 0.0985447, 0, 0, 0, 0, 104397
-1695.27, 275137, -240.137, 3.78215, -1567.44, 0.970851, 0.30406, 0.9175, 0.352806, 0.64323, 3, 455, 246, 28.3662, 0.0985447, 0, 0, 0, 0, 104397
-5569.73, 570228, -380.063, 0.0618932, -1114.79, 0.000252875, 0.589623, 1.03299, 0.34851, 0.655882, 0.0001, 45.5, 246, 42.234, 0.175706, 0, 0, 0, 0, 104401
-8782.93, 163549, -132.909, 2.01145, -849.921, 0.0180287, 0.327361, 0.993198, 0.349787, 0.651995, 0.0001, 91, 246, 30.5086, 0.140792, 0, 0, 1, 0, 104407
-8217.06, 506860, -220.367, 0.439967, -1192.03, 0.00304433, 0.43232, 1.03299, 0.34851, 0.655882, 0.0001, 45.5, 246, 35.3635, 0.11128, 0, 0, 0, 0, 104409
-8217.06, 506860, -220.367, 0.439967, -1192.03, 0.00304433, 0.43232, 1.03299, 0.34851, 0.655882, 3, 45.5, 246, 35.3635, 0.11128, 0, 0, 0, 0, 104409
-6961.24, 532816, -233.373, 0.456467, -1195.36, 0.00392834, 0.404013, 0.993198, 0.349787, 0.651995, 3, 91, 246, 35.3635, 0.11128, 0, 0, 1, 0, 104409
-11885.8, 378375, -87.7988, 0.933082, -1018.51, 0.0779715, 0.348966, 1.03299, 0.34851, 0.655882, 0.0001, 45.5, 246, 24.9157, 0.0609215, 0, 0, 1, 0, 104411
-11885.8, 378375, -87.7988, 0.933082, -1018.51, 0.0779715, 0.348966, 1.03299, 0.34851, 0.655882, 3, 45.5, 246, 24.9157, 0.0609215, 0, 0, 1, 0, 104411
-11021.9, 299579, -217.375, 1.11703, -785.152, 0.621541, 0.453579, 1.03299, 0.34851, 0.655882, 0.0001, 45.5, 246, 33.8152, 0.162888, 0, 0, 0, 0, 104418
-11021.9, 299579, -217.375, 1.11703, -785.152, 0.621541, 0.453579, 1.03299, 0.34851, 0.655882, 3, 45.5, 246, 33.8152, 0.162888, 0, 0, 0, 0, 104418
-11228.8, 281224, -275.797, 1.73063, -935.845, 0.0091113, 0.527972, 1.03299, 0.34851, 0.655882, 0.0001, 45.5, 246, 44.5863, 0.227085, 0, 0, 0, 0, 104421
-11228.8, 281224, -275.797, 1.73063, -935.845, 0.0091113, 0.527972, 1.03299, 0.34851, 0.655882, 3, 45.5, 246, 44.5863, 0.227085, 0, 0, 0, 0, 104421
-5823.26, -60039.5, 19.9796, 3.55938, -644.546, -0.058486, 0.197795, 1.03299, 0.34851, 0.655882, 0.0001, 45.5, 246, 3.51123, 0.0606887, 3.48664, 1, 1, 0, 104428
-5823.26, -60039.5, 19.9796, 3.55938, -644.546, -0.058486, 0.197795, 1.03299, 0.34851, 0.655882, 3, 45.5, 246, 3.51123, 0.0606887, 3.48623, 1, 1, 0, 104428
-6890.79, -53129.9, -0.0630788, 3.88245, -640.623, 0.00235495, 0.21469, 0.993198, 0.349787, 0.651995, 0.0001, 91, 246, 3.51123, 0.0606887, 2.28087, 1, 1, 1, 104428
-6890.79, -53129.9, -0.0630788, 3.88245, -640.623, 0.00235495, 0.21469, 0.993198, 0.349787, 0.651995, 3, 91, 246, 3.51123, 0.0606887, 2.15679, 1, 1, 1, 104428
-6270.9, 65286.9, -145.573, 3.10802, -575.692, 0.61099, 0.227731, 1.03299, 0.34851, 0.655882, 0.0001, 45.5, 246, 39.5595, 0.12276, 1.05006, 1, 1, 0, 104431
-3618.41, 87041.2, -216.735, 3.97872, -763.788, 0.893285, 0.259431, 0.958125, 0.351078, 0.648177, 0.0001, 182, 246, 39.5595, 0.12276, 1.04817, 1, 1, 0, 104431
-400.234, 113182, -294.423, 4.87891, -994.248, 1.23785, 0.337947, 0.9175, 0.352806, 0.64323, 0.0001, 455, 246, 39.5595, 0.12276, 1.72324, 1, 1, 0, 104431
-400.234, 113182, -294.423, 4.87891, -994.248, 1.23785, 0.337947, 0.9175, 0.352806, 0.64323, 3, 455, 246, 39.5595, 0.12276, 1.68311, 1, 1, 1, 104431
1665.23, 199091, -347.136, 5.23399, -1067.1, 0.537257, 0.354857, 0.9175, 0.352806, 0.64323, 0.0001, 455, 246, 35.5499, 0.129964, 3.26865, 1, 0, 0, 104433
1665.23, 199091, -347.136, 5.23399, -1067.1, 0.537257, 0.354857, 0.9175, 0.352806, 0.64323, 3, 455, 246, 35.5499, 0.129964, 3.34046, 1, 0, 0, 104433
-10809.6, 345548, -223.346, 0.810409, -704.026, 0.51842, 0.457837, 1.03299, 0.34851, 0.655882, 0.0001, 45.5, 246, 31.1939, 0.151729, 0, 0, 1, 0, 104444
-10809.6, 345548, -223.346, 0.810409, -704.026, 0.51842, 0.457837, 1.03299, 0.34851, 0.655882, 3, 45.5, 246, 31.1939, 0.151729, 0, 0, 1, 0, 104444
-6380.16, 675056, -329.463, 0.0420796, -869.611, 0.59144, 0.479681, 1.03299, 0.34851, 0.655882, 0.0001, 45.5, 246, 32.3121, 0.113819, 0, 0, 0, 0, 104448
-5441.58, 714388, -340.128, 0.0448393, -959.665, 0.652422, 0.454517, 0.993198, 0.349787, 0.651995, 0.0001, 91, 246, 32.3121, 0.113819, 0, 0, 1, 0, 104448
-13101.8, 175875, -71.8562, 3.25512, -1166.04, -0.0495879, 0.202214, 1.03299, 0.34851, 0.655882, 0.0001, 45.5, 246, 28.3137, 0.0866002, 0, 0, 0, 0, 104450
-13101.8, 175875, -71.8562, 3.25512, -1166.04, -0.0495879, 0.202214, 1.03299, 0.34851, 0.655882, 3, 45.5, 246, 28.3137, 0.0866002, 0, 0, 0, 0, 104450
-10510.5, 198982, -114.229, 3.53095, -1169.73, 0.00100249, 0.208884, 0.993198, 0.349787, 0.651995, 0.0001, 91, 246, 28.3137, 0.0866002, 0, 0, 1, 0, 104450
-10510.5, 198982, -114.229, 3.53095, -1169.73, 0.00100249, 0.208884, 0.993198, 0.349787, 0.651995, 3, 91, 246, 28.3137, 0.0866002, 0, 0, 1, 0, 104450
-3534.33, 92522.6, -209.736, 4.3617, -1183.02, 1.03142, 0.250364, 0.958125, 0.351078, 0.648177, 0.0001, 182, 246, 38.5356, 0.109098, 1.06662, 1, 1, 0, 104454
564.858, 147473, -324.641, 5.48007, -1582.76, 1.49342, 0.355048, 0.9175, 0.352806, 0.64323, 0.0001, 455, 246, 38.5356, 0.109098, 3.89705, 1, 0, 0, 104454
564.858, 147473, -324.641, 5.48007, -1582.76, 1.49342, 0.355048, 0.9175, 0.352806, 0.64323, 3, 455, 246, 38.5356, 0.109098, 3.92201, 1, 0, 0, 104454
-8764.98, 185453, -214.066, 3.24299, -705.787, 0.228337, 0.288921, 0.993198, 0.349787, 0.651995, 0.0001, 91, 246, 35.1832, 0.150836, 0, 0, 1, 0, 104462
-8764.98, 185453, -214.066, 3.24299, -705.787, 0.228337, 0.288921, 0.993198, 0.349787, 0.651995, 3, 91, 246, 35.1832, 0.150836, 0, 0, 1, 0, 104462
-72.6613, 219515, -325.658, 4.12291, -852.581, 0.399837, 0.362945, 0.9175, 0.352806, 0.64323, 0.0001, 455, 246, 35.1832, 0.150836, 1.17775, 1, 0, 0, 104462
-72.6613, 219515, -325.658, 4.12291, -852.581, 0.399837, 0.362945, 0.9175, 0.352806, 0.64323, 3, 455, 246, 35.1832, 0.150836, 1.19764, 1, 0, 0, 104462
-10161.9, 84238, -25.2712, 3.11553, -873.124, -0.0045786, 0.204343, 1.03299, 0.34851, 0.655882, 0.0001, 45.5, 246, 18.8116, 0.0575672, 0, 0, 1, 0, 104465
-10161.9, 84238, -25.2712, 3.11553, -873.124, -0.0045786, 0.204343, 1.03299, 0.34851, 0.655882, 3, 45.5, 246, 18.8116, 0.0575672, 0, 0, 1, 0, 104465
-7106.13, 109622, -193.662, 2.79323, -672.866, 0.824618, 0.305423, 1.03299, 0.34851, 0.655882, 0.0001, 45.5, 246, 43.6545, 0.1795, 1.04922, 1, 1, 0, 104468
-5350.31, 125030, -229.185, 3.16704, -793.922, 0.992963, 0.306743, 0.993198, 0.349787, 0.651995, 0.0001, 91, 246, 43.6545, 0.1795, 1.01651, 1, 1, 0, 104468
-2870.71, 147342, -276.506, 3.65089, -970.344, 1.23824, 0.327211, 0.958125, 0.351078, 0.648177, 0.0001, 182, 246, 43.6545, 0.1795, 1.29833, 1, 1, 0, 104468
-2870.71, 147342, -276.506, 3.65089, -970.344, 1.23824, 0.327211, 0.958125, 0.351078, 0.648177, 3, 182, 246, 43.6545, 0.1795, 1.12536, 1, 1, 0, 104468
-10102.9, 318433, -235.274, 1.08158, -1057.31, -0.00367333, 0.491698, 1.03299, 0.34851, 0.655882, 0.0001, 45.5, 246, 39.6407, 0.185803, 0, 0, 0, 0, 104472
-10102.9, 318433, -235.274, 1.08158, -1057.31, -0.00367333, 0.491698, 1.03299, 0.34851, 0.655882, 3, 45.5, 246, 39.6407, 0.185803, 0, 0, 0, 0, 104472
890.193, 245523, -356.299, 4.90437, -726.739, 0.295539, 0.359344, 0.9175, 0.352806, 0.64323, 0.0001, 455, 246, 32.6422, 0.135076, 1.26357, 1, 0, 0, 104480
890.193, 245523, -356.299, 4.90437, -726.739, 0.295539, 0.359344, 0.9175, 0.352806, 0.64323, 3, 455, 246, 32.6422, 0.135076, 1.29886, 1, 0, 0, 104480
-11327.3, 231506, -50.9816, 1.17023, -745.667, 0.27135, 0.331313, 1.03299, 0.34851, 0.655882, 0.0001, 45.5, 246, 18.1328, 0.0551414, 0, 0, 1, 0, 104481
-11327.3, 231506, -50.9816, 1.17023, -745.667, 0.27135, 0.331313, 1.03299, 0.34851, 0.655882, 3, 45.5, 246, 18.1328, 0.0551414, 0, 0, 1, 0, 104481
-7943.68, -17747.9, 19.7659, 2.49066, -997.596, -0.0205493, 0.273135, 1.03299, 0.34851, 0.655882, 0.0001, 45.5, 246, 6.85551, 0.053067, 0, 0, 1, 0, 104492
-7943.68, -17747.9, 19.7659, 2.49066, -997.596, -0.0205493, 0.273135, 1.03299, 0.34851, 0.655882, 3, 45.5, 246, 6.85551, 0.053067, 0, 0, 1, 1, 104492
-11292.3, 108812, -16.6377, 3.23614, -1116.56, -0.0500935, 0.190263, 1.03299, 0.34851, 0.655882, 0.0001, 45.5, 246, 20.6648, 0.0574972, 0, 0, 0, 0, 104493
-11292.3, 108812, -16.6377, 3.23614, -1116.56, -0.0500935, 0.190263, 1.03299, 0.34851, 0.655882, 3, 45.5, 246, 20.6648, 0.0574972, 0, 0, 0, 0, 104493
-9756.13, 129873, -52.4033, 3.50775, -1115.07, -0.000121142, 0.1956, 0.993198, 0.349787, 0.651995, 0.0001, 91, 246, 20.6648, 0.0574972, 0, 0, 1, 0, 104493
-9756.13, 129873, -52.4033, 3.50775, -1115.07, -0.000121142, 0.1956, 0.993198, 0.349787, 0.651995, 3, 91, 246, 20.6648, 0.0574972, 0, 0, 1, 0, 104493
-10436, 142109, -127.881, 3.08098, -890.884, 0.143757, 0.248017, 1.03299, 0.34851, 0.655882, 0.0001, 45.5, 246, 33.2918, 0.12757, 0, 0, 0, 0, 104499
-10436, 142109, -127.881, 3.08098, -890.884, 0.143757, 0.248017, 1.03299, 0.34851, 0.655882, 3, 45.5, 246, 33.2918, 0.12757, 0, 0, 0, 0, 104499
