-9008.83, 81459.2, -83.0115, 3.27243, -666.199, -0.038645, 0.201997, 1.03299, 0.34851, 0.655882, 0.0001, 45.5, 246, 26.6806, 0.089418, 0, 0, 1, 0, 97009
-9008.83, 81459.2, -83.0115, 3.27243, -666.199, -0.038645, 0.201997, 1.03299, 0.34851, 0.655882, 3, 45.5, 246, 26.6806, 0.089418, 0, 0, 1, 0, 97009
67.0237, 517357, -318.702, 3.51153, -1171.95, 0.118388, 0.309286, 0.9175, 0.352806, 0.64323, 3, 455, 246, 32.2217, 0.0915397, 0, 0, 0, 0, 97010
-6396.86, 85436.3, -132.963, 3.64486, -1184.65, 0.00364128, 0.233583, 0.993198, 0.349787, 0.651995, 0.0001, 91, 246, 35.0783, 0.122606, 0, 0, 1, 0, 97019
-6396.86, 85436.3, -132.963, 3.64486, -1184.65, 0.00364128, 0.233583, 0.993198, 0.349787, 0.651995, 3, 91, 246, 35.0783, 0.122606, 0, 0, 1, 0, 97019
-909.095, 148265, -278.099, 4.57608, -1272.63, 0.176927, 0.335018, 0.9175, 0.352806, 0.64323, 0.0001, 455, 246, 35.0783, 0.122606, 1.55228, 1, 0, 0, 97019
-909.095, 148265, -278.099, 4.57608, -1272.63, 0.176927, 0.335018, 0.9175, 0.352806, 0.64323, 3, 455, 246, 35.0783, 0.122606, 1.55623, 1, 0, 0, 97019
-7559.07, 82027.3, -118.519, 3.35057, -991.322, 0.0834043, 0.223396, 1.03299, 0.34851, 0.655882, 0.0001, 45.5, 246, 37.4707, 0.132854, 0, 0, 1, 0, 97024
-7559.07, 82027.3, -118.519, 3.35057, -991.322, 0.0834043, 0.223396, 1.03299, 0.34851, 0.655882, 3, 45.5, 246, 37.4707, 0.132854, 0, 0, 1, 0, 97024
76.6088, 153448, -303.595, 4.70464, -1171.21, 0.33541, 0.342985, 0.9175, 0.352806, 0.64323, 0.0001, 455, 246, 37.4707, 0.132854, 2.07464, 1, 0, 0, 97024
76.6088, 153448, -303.595, 4.70464, -1171.21, 0.33541, 0.342985, 0.9175, 0.352806, 0.64323, 3, 455, 246, 37.4707, 0.132854, 2.0799, 1, 0, 0, 97024
-8570.54, 231828, -69.3466, 0.324546, -1162.76, 0.0550345, 0.361183, 1.03299, 0.34851, 0.655882, 0.0001, 45.5, 246, 24.2409, 0.07364, 0, 0, 1, 0, 97028
-8570.54, 231828, -69.3466, 0.324546, -1162.76, 0.0550345, 0.361183, 1.03299, 0.34851, 0.655882, 3, 45.5, 246, 24.2409, 0.07364, 0, 0, 1, 0, 97028
-9996.94, 137525, -125.759, 2.70027, -829.26, -0.0340045, 0.290133, 1.03299, 0.34851, 0.655882, 0.0001, 45.5, 246, 33.0757, 0.13812, 0, 0, 1, 0, 97032
-9996.94, 137525, -125.759, 2.70027, -829.26, -0.0340045, 0.290133, 1.03299, 0.34851, 0.655882, 3, 45.5, 246, 33.0757, 0.13812, 0, 0, 1, 0, 97032
-6126.28, 162323, -192.492, 3.14107, -853.979, 0.0406864, 0.294021, 0.958125, 0.351078, 0.648177, 0.0001, 182, 246, 33.0757, 0.13812, 0, 0, 1, 0, 97032
-10822.9, 167694, -53.8616, 1.49694, -629.913, 0.0136577, 0.323096, 1.03299, 0.34851, 0.655882, 0.0001, 45.5, 246, 17.9812, 0.0715721, 0, 0, 1, 0, 97036
-10261.7, 84510.3, -22.0409, 3.06785, -732.312, -0.0392567, 0.205893, 1.03299, 0.34851, 0.655882, 0.0001, 45.5, 246, 16.2188, 0.0489727, 0, 0, 1, 0, 97037
-10261.7, 84510.3, -22.0409, 3.06785, -732.312, -0.0392567, 0.205893, 1.03299, 0.34851, 0.655882, 3, 45.5, 246, 16.2188, 0.0489727, 0, 0, 1, 0, 97037
-7903.9, 176366, -277.552, 3.40749, -1055.55, 0.443974, 0.348356, 1.03299, 0.34851, 0.655882, 0.0001, 45.5, 246, 52.5897, 0.222755, 1.18246, 1, 0, 0, 97043
-7903.9, 176366, -277.552, 3.40749, -1055.55, 0.443974, 0.348356, 1.03299, 0.34851, 0.655882, 3, 45.5, 246, 52.5897, 0.222755, 1.06419, 1, 0, 0, 97043
-4226.67, 204210, -340.696, 3.82796, -1170.86, 0.539196, 0.371882, 0.993198, 0.349787, 0.651995, 0.0001, 91, 246, 52.5897, 0.222755, 1.49499, 1, 1, 0, 97043
-4226.67, 204210, -340.696, 3.82796, -1170.86, 0.539196, 0.371882, 0.993198, 0.349787, 0.651995, 3, 91, 246, 52.5897, 0.222755, 1.36971, 1, 1, 0, 97043
-6348.31, -20854.9, -22.9389, 3.47771, -654.624, -0.044469, 0.191191, 1.03299, 0.34851, 0.655882, 3, 45.5, 246, 19.7362, 0.00750115, 0, 0, 1, 1, 97047
-9132.71, 318476, -97.5638, 0.793055, -1169.87, 0.0845126, 0.326595, 0.993198, 0.349787, 0.651995, 0.0001, 91, 246, 26.4343, 0.0742389, 0, 0, 1, 0, 97048
-9044.32, 918010, -216.744, 0.154058, -678.957, 0.288433, 0.386769, 1.03299, 0.34851, 0.655882, 0.0001, 45.5, 246, 22.9096, 0.0574959, 0, 0, 1, 0, 97050
-9044.32, 918010, -216.744, 0.154058, -678.957, 0.288433, 0.386769, 1.03299, 0.34851, 0.655882, 3, 45.5, 246, 22.9096, 0.0574959, 0, 0, 1, 0, 97050
-8142.36, 465970, -485.933, 3.98994, -847.781, 0.0642036, 0.448239, 0.958125, 0.351078, 0.648177, 3, 182, 246, 40.9142, 0.176583, 1.11541, 1, 0, 0, 97051
-10066.1, 352640, -333.309, 0.755615, -878.06, 0.507558, 0.621751, 1.03299, 0.34851, 0.655882, 0.0001, 45.5, 246, 43.2626, 0.231216, 0, 0, 0, 0, 97068
-7344.98, -9493.73, -13.7428, 2.88282, -785.009, -0.0229925, 0.244989, 1.03299, 0.34851, 0.655882, 0.0001, 45.5, 246, 17.7082, 0.0383323, 0, 0, 1, 1, 97070
-7344.98, -9493.73, -13.7428, 2.88282, -785.009, -0.0229925, 0.244989, 1.03299, 0.34851, 0.655882, 3, 45.5, 246, 17.7082, 0.0383323, 0, 0, 1, 1, 97070
-4117.1, 222265, -349.764, 3.77017, -649.682, 0.121162, 0.378703, 0.958125, 0.351078, 0.648177, 0.0001, 182, 246, 41.7895, 0.192616, 1.23699, 1, 0, 0, 97071
3015.92, 239379, -431.238, 4.32969, -728.754, 0.221995, 0.449445, 0.9175, 0.352806, 0.64323, 0.0001, 455, 246, 41.7895, 0.192616, 0, 0, 0, 0, 97071
3015.92, 239379, -431.238, 4.32969, -728.754, 0.221995, 0.449445, 0.9175, 0.352806, 0.64323, 3, 455, 246, 41.7895, 0.192616, 0, 0, 0, 0, 97071
-5877.85, 379503, -426.769, 4.3348, -969.795, 0.0762863, 0.381069, 0.958125, 0.351078, 0.648177, 0.0001, 182, 246, 41.7366, 0.168687, 1.28317, 1, 0, 0, 97077
-5877.85, 379503, -426.769, 4.3348, -969.795, 0.0762863, 0.381069, 0.958125, 0.351078, 0.648177, 3, 182, 246, 41.7366, 0.168687, 1.24722, 1, 0, 0, 97077
-5033.1, 36525.2, -122.902, 1.90597, -532.892, 0.781344, 0.323301, 1.03299, 0.34851, 0.655882, 0.0001, 45.5, 246, 55.1844, 0.168432, 4.38168, 1, 1, 0, 97084
-5033.1, 36525.2, -122.902, 1.90597, -532.892, 0.781344, 0.323301, 1.03299, 0.34851, 0.655882, 3, 45.5, 246, 55.1844, 0.168432, 4.38198, 1, 1, 0, 97084
-4652.17, 44213.5, -141.083, 2.11844, -616.306, 0.911676, 0.304076, 0.993198, 0.349787, 0.651995, 0.0001, 91, 246, 55.1844, 0.168432, 2.27249, 1, 1, 0, 97084
-4652.17, 44213.5, -141.083, 2.11844, -616.306, 0.911676, 0.304076, 0.993198, 0.349787, 0.651995, 3, 91, 246, 55.1844, 0.168432, 2.14859, 1, 1, 0, 97084
-4066.93, 54952, -163.916, 2.37812, -731.113, 1.09105, 0.294853, 0.958125, 0.351078, 0.648177, 0.0001, 182, 246, 55.1844, 0.168432, 1.07413, 1, 1, 0, 97084
-2789.09, 77765.6, -205.665, 2.83824, -970.245, 1.46433, 0.300085, 0.9175, 0.352806, 0.64323, 0.0001, 455, 246, 55.1844, 0.168432, 1.58805, 1, 1, 0, 97084
-2789.09, 77765.6, -205.665, 2.83824, -970.245, 1.46433, 0.300085, 0.9175, 0.352806, 0.64323, 3, 455, 246, 55.1844, 0.168432, 1.48586, 1, 1, 0, 97084
-11489.3, 216007, -107.459, 1.85086, -1076.24, 0.147931, 0.337851, 1.03299, 0.34851, 0.655882, 0.0001, 45.5, 246, 29.8158, 0.110778, 0, 0, 1, 0, 97090
-11489.3, 216007, -107.459, 1.85086, -1076.24, 0.147931, 0.337851, 1.03299, 0.34851, 0.655882, 3, 45.5, 246, 29.8158, 0.110778, 0, 0, 1, 0, 97090
-10078.5, 462211, -314.842, 0.745664, -1031.83, 0.0752685, 0.543541, 1.03299, 0.34851, 0.655882, 0.0001, 45.5, 246, 40.2518, 0.175474, 0, 0, 0, 0, 97097
-10078.5, 462211, -314.842, 0.745664, -1031.83, 0.0752685, 0.543541, 1.03299, 0.34851, 0.655882, 3, 45.5, 246, 40.2518, 0.175474, 0, 0, 0, 0, 97097
-10491.9, 179059, -157.06, 1.90657, -637.16, -0.0170465, 0.377033, 1.03299, 0.34851, 0.655882, 0.0001, 45.5, 246, 33.1114, 0.168285, 0, 0, 1, 0, 97099
-9882.74, 317655, -134.466, 1.26429, -1050.12, 0.37532, 0.335983, 0.993198, 0.349787, 0.651995, 0.0001, 91, 246, 27.7469, 0.0952459, 0, 0, 1, 0, 97101
-9882.74, 317655, -134.466, 1.26429, -1050.12, 0.37532, 0.335983, 0.993198, 0.349787, 0.651995, 3, 91, 246, 27.7469, 0.0952459, 0, 0, 1, 0, 97101
-8677.33, 104528, -123.655, 2.74737, -770.1, -0.0341013, 0.284717, 1.03299, 0.34851, 0.655882, 0.0001, 45.5, 246, 34.8897, 0.144255, 0, 0, 1, 0, 97102
-8677.33, 104528, -123.655, 2.74737, -770.1, -0.0341013, 0.284717, 1.03299, 0.34851, 0.655882, 3, 45.5, 246, 34.8897, 0.144255, 0, 0, 1, 0, 97102
144.224, 203956, -323.256, 4.66712, -760.603, 0.182208, 0.345726, 0.9175, 0.352806, 0.64323, 0.0001, 455, 246, 33.6154, 0.134722, 1.18965, 1, 0, 0, 97103
144.224, 203956, -323.256, 4.66712, -760.603, 0.182208, 0.345726, 0.9175, 0.352806, 0.64323, 3, 455, 246, 33.6154, 0.134722, 1.19826, 1, 0, 0, 97103
-15631.4, 297504, -390.473, 3.27095, -646.793, 0.0528493, 0.47569, 1.03299, 0.34851, 0.655882, 0.0001, 45.5, 246, 48.9492, 0.235981, 1.00532, 1, 0, 0, 97116
-9923.4, 308918, -448.664, 3.59675, -692.948, 0.105509, 0.504007, 0.993198, 0.349787, 0.651995, 0.0001, 91, 246, 48.9492, 0.235981, 1.37674, 1, 1, 0, 97116
-9923.4, 308918, -448.664, 3.59675, -692.948, 0.105509, 0.504007, 0.993198, 0.349787, 0.651995, 3, 91, 246, 48.9492, 0.235981, 1.29089, 1, 1, 0, 97116
-11254, 463265, -17.0966, 0.435773, -599.686, 0.0046879, 0.338298, 1.03299, 0.34851, 0.655882, 0.0001, 45.5, 246, 12.6904, 0.011205, 0, 0, 1, 0, 97117
-11254, 463265, -17.0966, 0.435773, -599.686, 0.0046879, 0.338298, 1.03299, 0.34851, 0.655882, 3, 45.5, 246, 12.6904, 0.011205, 0, 0, 1, 0, 97117
-10630, 469633, -20.0625, 0.450955, -600.388, 0.00555517, 0.302711, 0.993198, 0.349787, 0.651995, 0.0001, 91, 246, 12.6904, 0.011205, 0, 0, 1, 0, 97117
-7477.04, 462751, -348.162, 0.0778529, -823.207, 0.647629, 0.577003, 1.03299, 0.34851, 0.655882, 0.0001, 45.5, 246, 37.185, 0.181956, 0, 0, 0, 0, 97129
-6432.23, 495449, -360.884, 0.0835096, -917.854, 0.721493, 0.561032, 0.993198, 0.349787, 0.651995, 0.0001, 91, 246, 37.185, 0.181956, 0, 0, 1, 0, 97129
-10439.7, 193557, -73.8752, 1.29188, -959.919, -0.00704383, 0.344959, 1.03299, 0.34851, 0.655882, 0.0001, 45.5, 246, 24.306, 0.0915786, 0, 0, 1, 0, 97135
-10439.7, 193557, -73.8752, 1.29188, -959.919, -0.00704383, 0.344959, 1.03299, 0.34851, 0.655882, 3, 45.5, 246, 24.306, 0.0915786, 0, 0, 1, 0, 97135
-7410.65, -29353.6, 7.02845, 2.69656, -775.986, 0.034457, 0.263625, 1.03299, 0.34851, 0.655882, 0.0001, 45.5, 246, 9.56825, 0.0419655, 0, 0, 1, 1, 97136
-7805.63, 114561, -158.941, 2.78021, -1004.65, -0.0367993, 0.324965, 1.03299, 0.34851, 0.655882, 0.0001, 45.5, 246, 43.211, 0.189802, 0, 0, 1, 0, 97140
-7805.63, 114561, -158.941, 2.78021, -1004.65, -0.0367993, 0.324965, 1.03299, 0.34851, 0.655882, 3, 45.5, 246, 43.211, 0.189802, 0, 0, 1, 0, 97140
270.659, 180329, -317.27, 3.65235, -1087.26, 0.11302, 0.379018, 0.9175, 0.352806, 0.64323, 0.0001, 455, 246, 43.211, 0.189802, 2.73793, 1, 0, 0, 97140
270.659, 180329, -317.27, 3.65235, -1087.26, 0.11302, 0.379018, 0.9175, 0.352806, 0.64323, 3, 455, 246, 43.211, 0.189802, 2.78202, 1, 0, 0, 97140
-8690.63, 468944, -313.22, 0.404659, -937.264, 0.058197, 0.545254, 1.03299, 0.34851, 0.655882, 0.0001, 45.5, 246, 38.2286, 0.17471, 0, 0, 0, 0, 97142
-8690.63, 468944, -313.22, 0.404659, -937.264, 0.058197, 0.545254, 1.03299, 0.34851, 0.655882, 3, 45.5, 246, 38.2286, 0.17471, 0, 0, 0, 0, 97142
-7170.31, 487805, -329.209, 0.422113, -949.533, 0.0594943, 0.526921, 0.993198, 0.349787, 0.651995, 3, 91, 246, 38.2286, 0.17471, 0, 0, 1, 0, 97142
-6832.04, 129794, -221.628, 3.45057, -925.017, 0.286292, 0.275084, 1.03299, 0.34851, 0.655882, 0.0001, 45.5, 246, 48.6396, 0.19332, 1.18814, 1, 0, 0, 97146
-6832.04, 129794, -221.628, 3.45057, -925.017, 0.286292, 0.275084, 1.03299, 0.34851, 0.655882, 3, 45.5, 246, 48.6396, 0.19332, 1.04693, 1, 0, 0, 97146
-4212.24, 149048, -274.31, 3.83654, -997.6, 0.360869, 0.294237, 0.993198, 0.349787, 0.651995, 0.0001, 91, 246, 48.6396, 0.19332, 1.36552, 1, 1, 0, 97146
-4212.24, 149048, -274.31, 3.83654, -997.6, 0.360869, 0.294237, 0.993198, 0.349787, 0.651995, 3, 91, 246, 48.6396, 0.19332, 1.21844, 1, 1, 0, 97146
-575.734, 173173, -340.939, 4.31281, -1097.95, 0.459929, 0.336462, 0.958125, 0.351078, 0.648177, 0.0001, 182, 246, 48.6396, 0.19332, 2.44355, 1, 0, 0, 97146
-575.734, 173173, -340.939, 4.31281, -1097.95, 0.459929, 0.336462, 0.958125, 0.351078, 0.648177, 3, 182, 246, 48.6396, 0.19332, 2.28247, 1, 0, 0, 97146
-9383.29, 194136, -278.225, 3.24853, -1008.6, 0.718857, 0.352419, 1.03299, 0.34851, 0.655882, 0.0001, 45.5, 246, 49.5372, 0.209332, 1.0617, 1, 0, 0, 97150
-5583.39, 224789, -338.371, 3.69845, -1172.64, 0.870651, 0.371562, 0.993198, 0.349787, 0.651995, 0.0001, 91, 246, 49.5372, 0.209332, 1.19417, 1, 1, 0, 97150
-5583.39, 224789, -338.371, 3.69845, -1172.64, 0.870651, 0.371562, 0.993198, 0.349787, 0.651995, 3, 91, 246, 49.5372, 0.209332, 1.03939, 1, 1, 0, 97150
-2137.36, 313267, -434.489, 3.68601, -1113.65, 0.205857, 0.48264, 0.958125, 0.351078, 0.648177, 0.0001, 182, 246, 48.8805, 0.218475, 3.17006, 1, 0, 0, 97153
-2137.36, 313267, -434.489, 3.68601, -1113.65, 0.205857, 0.48264, 0.958125, 0.351078, 0.648177, 3, 182, 246, 48.8805, 0.218475, 2.94323, 1, 0, 0, 97153
-8562.45, 122239, -162.882, 2.61845, -723.878, 0.449631, 0.31621, 1.03299, 0.34851, 0.655882, 3, 45.5, 246, 38.8124, 0.16951, 0, 0, 1, 0, 97160
-603.991, 184188, -302.461, 3.77856, -1059.04, 0.781822, 0.363693, 0.9175, 0.352806, 0.64323, 0.0001, 455, 246, 38.8124, 0.16951, 1.5441, 1, 0, 0, 97160
-603.991, 184188, -302.461, 3.77856, -1059.04, 0.781822, 0.363693, 0.9175, 0.352806, 0.64323, 3, 455, 246, 38.8124, 0.16951, 1.55172, 1, 0, 0, 97160
-11216.1, 237381, -83.0193, 1.40878, -1107, -0.00749747, 0.342482, 1.03299, 0.34851, 0.655882, 0.0001, 45.5, 246, 26.6265, 0.0870904, 0, 0, 1, 0, 97168
-11216.1, 237381, -83.0193, 1.40878, -1107, -0.00749747, 0.342482, 1.03299, 0.34851, 0.655882, 3, 45.5, 246, 26.6265, 0.0870904, 0, 0, 1, 0, 97168
-9845.3, 258791, -101.867, 1.48344, -1110, 0.00168373, 0.315798, 0.993198, 0.349787, 0.651995, 3, 91, 246, 26.6265, 0.0870904, 0, 0, 1, 0, 97168
-8149.12, 280601, -122.404, 1.56107, -1115.66, 0.011862, 0.295035, 0.958125, 0.351078, 0.648177, 0.0001, 182, 246, 26.6265, 0.0870904, 0, 0, 1, 0, 97168
-12198.9, 278188, -134.247, 1.68245, -1068, -0.00428521, 0.360085, 1.03299, 0.34851, 0.655882, 0.0001, 45.5, 246, 31.2507, 0.115191, 0, 0, 0, 0, 97169
-2314.79, 196320, -312.399, 3.31251, -1287.19, 1.05424, 0.402368, 0.958125, 0.351078, 0.648177, 0.0001, 182, 246, 48.3487, 0.224599, 1.23221, 1, 0, 0, 97173
-11573.4, 492684, -14.4277, 0.457187, -812.039, 0.0364738, 0.337716, 1.03299, 0.34851, 0.655882, 0.0001, 45.5, 246, 16.6265, 0.00985975, 0, 0, 1, 0, 97182
-11573.4, 492684, -14.4277, 0.457187, -812.039, 0.0364738, 0.337716, 1.03299, 0.34851, 0.655882, 3, 45.5, 246, 16.6265, 0.00985975, 0, 0, 1, 0, 97182
-9025.02, 412997, -198.259, 0.448031, -613.854, 0.036099, 0.395002, 0.993198, 0.349787, 0.651995, 0.0001, 91, 246, 25.5891, 0.120539, 0, 0, 1, 0, 97191
-4013.36, 60819.5, -222.467, 5.51637, -1214.64, 1.71508, 0.338197, 0.9175, 0.352806, 0.64323, 0.0001, 455, 246, 30.8695, 0.0333562, 1.07409, 1, 1, 0, 97194
-4013.36, 60819.5, -222.467, 5.51637, -1214.64, 1.71508, 0.338197, 0.9175, 0.352806, 0.64323, 3, 455, 246, 30.8695, 0.0333562, 1.01616, 1, 1, 0, 97194
-7694.25, 105680, -129.028, 2.01193, -780.85, 0.0060239, 0.334793, 0.993198, 0.349787, 0.651995, 3, 91, 246, 35.163, 0.177258, 0, 0, 1, 0, 97210
-10856.4, 731818, -46.3278, 0.241469, -624.22, 0.32635, 0.342401, 1.03299, 0.34851, 0.655882, 0.0001, 45.5, 246, 15.7233, 0.0158081, 0, 0, 1, 0, 97212
-10309.3, 752128, -49.1829, 0.253417, -658.494, 0.344378, 0.306494, 0.993198, 0.349787, 0.651995, 0.0001, 91, 246, 15.7233, 0.0158081, 0, 0, 1, 0, 97212
-12637.2, 133949, -40.2116, 3.52076, -744.873, 0.290703, 0.142308, 1.03299, 0.34851, 0.655882, 0.0001, 45.5, 246, 18.956, 0.0528168, 0, 0, 0, 0, 97217
-12637.2, 133949, -40.2116, 3.52076, -744.873, 0.290703, 0.142308, 1.03299, 0.34851, 0.655882, 3, 45.5, 246, 18.956, 0.0528168, 0, 0, 0, 0, 97217
-10586.5, 145970, -69.8983, 3.90663, -789.937, 0.368142, 0.155834, 0.993198, 0.349787, 0.651995, 0.0001, 91, 246, 18.956, 0.0528168, 6.19251, 1, 1, 0, 97217
-10586.5, 145970, -69.8983, 3.90663, -789.937, 0.368142, 0.155834, 0.993198, 0.349787, 0.651995, 3, 91, 246, 18.956, 0.0528168, 5.87112, 1, 1, 0, 97217
-6303.3, 16196.9, -76.2287, 3.94629, -1124.95, 0.000400444, 0.20291, 0.993198, 0.349787, 0.651995, 0.0001, 91, 246, 27.4186, 0.0599254, 0, 0, 1, 1, 97218
-6303.3, 16196.9, -76.2287, 3.94629, -1124.95, 0.000400444, 0.20291, 0.993198, 0.349787, 0.651995, 3, 91, 246, 27.4186, 0.0599254, 0, 0, 1, 1, 97218
-9672.23, 61462.9, -1.41127, 3.5198, -921.084, -0.0585142, 0.159351, 1.03299, 0.34851, 0.655882, 0.0001, 45.5, 246, 15.7048, 0.0446512, 0, 0, 0, 0, 97221
-9261.57, 168810, -215.339, 1.6459, -635.77, 0.711425, 0.464386, 1.03299, 0.34851, 0.655882, 3, 45.5, 246, 41.8692, 0.232237, 0, 0, 1, 0, 97229
-7722.35, 184669, -239.343, 1.81955, -728.07, 0.816374, 0.451568, 0.993198, 0.349787, 0.651995, 0.0001, 91, 246, 41.8692, 0.232237, 0, 0, 1, 0, 97229
-10001.2, 134360, -129.808, 2.75126, -712.541, 0.00220112, 0.282042, 1.03299, 0.34851, 0.655882, 0.0001, 45.5, 246, 32.308, 0.135602, 0, 0, 1, 0, 97231
-10001.2, 134360, -129.808, 2.75126, -712.541, 0.00220112, 0.282042, 1.03299, 0.34851, 0.655882, 3, 45.5, 246, 32.308, 0.135602, 0, 0, 1, 0, 97231
-8797.61, 93571.5, -79.2902, 1.13517, -1087.4, 0.201679, 0.380233, 1.03299, 0.34851, 0.655882, 0.0001, 45.5, 246, 31.2882, 0.179826, 0, 0, 1, 0, 97232
-8797.61, 93571.5, -79.2902, 1.13517, -1087.4, 0.201679, 0.380233, 1.03299, 0.34851, 0.655882, 3, 45.5, 246, 31.2882, 0.179826, 0, 0, 1, 0, 97232
-13145.3, 158014, 4.06757, 2.73484, -920.351, 0.0126923, 0.223733, 1.03299, 0.34851, 0.655882, 0.0001, 45.5, 246, 15.0525, 0.0277171, 0, 0, 1, 0, 97233
-13145.3, 158014, 4.06757, 2.73484, -920.351, 0.0126923, 0.223733, 1.03299, 0.34851, 0.655882, 3, 45.5, 246, 15.0525, 0.0277171, 0, 0, 1, 0, 97233
-10795.8, 226990, -123.603, 1.53524, -1080.93, 0.0711647, 0.368258, 1.03299, 0.34851, 0.655882, 0.0001, 45.5, 246, 31.3458, 0.125493, 0, 0, 1, 0, 97235
-10795.8, 226990, -123.603, 1.53524, -1080.93, 0.0711647, 0.368258, 1.03299, 0.34851, 0.655882, 3, 45.5, 246, 31.3458, 0.125493, 0, 0, 1, 0, 97235
-9257.86, 248859, -146.132, 1.62848, -1099.81, 0.0830843, 0.345353, 0.993198, 0.349787, 0.651995, 3, 91, 246, 31.3458, 0.125493, 0, 0, 1, 0, 97235
-7359.47, -21628.9, 5.665, 2.88907, -996.408, 0.277177, 0.245555, 1.03299, 0.34851, 0.655882, 0.0001, 45.5, 246, 13.7064, 0.0543521, 0, 0, 1, 1, 97238
-7711.32, -3957.79, -22.051, 3.17162, -1046, 0.332015, 0.244345, 0.993198, 0.349787, 0.651995, 3, 91, 246, 13.7064, 0.0543521, 0, 0, 1, 1, 97238
-4519.11, 316788, -464.505, 3.52608, -674.883, 0.0646594, 0.528936, 0.958125, 0.351078, 0.648177, 0.0001, 182, 246, 45.621, 0.227351, 1.8954, 1, 0, 0, 97241
-4519.11, 316788, -464.505, 3.52608, -674.883, 0.0646594, 0.528936, 0.958125, 0.351078, 0.648177, 3, 182, 246, 45.621, 0.227351, 1.7352, 1, 0, 0, 97241
-3376.57, 835999, -372.774, 0.562914, -1141.74, 1.16555, 0.400193, 0.9175, 0.352806, 0.64323, 3, 455, 246, 28.6256, 0.10946, 0, 0, 0, 0, 97243
-8435.68, 35905.7, -39.6763, 1.27769, -638.281, 0.00973333, 0.338922, 1.03299, 0.34851, 0.655882, 0.0001, 45.5, 246, 24.8089, 0.136602, 0, 0, 1, 0, 97244
-8435.68, 35905.7, -39.6763, 1.27769, -638.281, 0.00973333, 0.338922, 1.03299, 0.34851, 0.655882, 3, 45.5, 246, 24.8089, 0.136602, 0, 0, 1, 0, 97244
-7929.14, 640265, -289.799, 0.377778, -1154.86, 0.00305011, 0.467214, 1.03299, 0.34851, 0.655882, 0.0001, 45.5, 246, 37.2976, 0.116708, 0, 0, 0, 0, 97245
-7929.14, 640265, -289.799, 0.377778, -1154.86, 0.00305011, 0.467214, 1.03299, 0.34851, 0.655882, 3, 45.5, 246, 37.2976, 0.116708, 0, 0, 0, 0, 97245
-10636, 194986, -135.608, 1.7274, -831.416, -0.0139083, 0.370809, 1.03299, 0.34851, 0.655882, 0.0001, 45.5, 246, 31.5119, 0.147619, 0, 0, 1, 0, 97246
-10636, 194986, -135.608, 1.7274, -831.416, -0.0139083, 0.370809, 1.03299, 0.34851, 0.655882, 3, 45.5, 246, 31.5119, 0.147619, 0, 0, 1, 0, 97246
-9148.52, 207194, -157.181, 1.83074, -837.337, -8.89885e-06, 0.351111, 0.993198, 0.349787, 0.651995, 3, 91, 246, 31.5119, 0.147619, 0, 0, 1, 0, 97246
-8777.49, 101458, -102.072, 2.66957, -1162.63, 0.0472585, 0.295551, 1.03299, 0.34851, 0.655882, 0.0001, 45.5, 246, 35.0658, 0.143788, 0, 0, 1, 0, 97247
-7472.74, 125826, -139.562, 2.88485, -1183.3, 0.0817401, 0.291016, 0.993198, 0.349787, 0.651995, 0.0001, 91, 246, 35.0658, 0.143788, 0, 0, 1, 0, 97247
-7472.74, 125826, -139.562, 2.88485, -1183.3, 0.0817401, 0.291016, 0.993198, 0.349787, 0.651995, 3, 91, 246, 35.0658, 0.143788, 0, 0, 1, 0, 97247
-10775.8, 404495, -299.163, 0.922411, -956.104, 0.104981, 0.542125, 1.03299, 0.34851, 0.655882, 0.0001, 45.5, 246, 40.014, 0.187819, 0, 0, 0, 0, 97250
-10775.8, 404495, -299.163, 0.922411, -956.104, 0.104981, 0.542125, 1.03299, 0.34851, 0.655882, 3, 45.5, 246, 40.014, 0.187819, 0, 0, 0, 0, 97250
-12370, 155977, -6.5298, 2.37972, -857.833, -0.0266339, 0.256308, 1.03299, 0.34851, 0.655882, 0.0001, 45.5, 246, 15.0178, 0.0326848, 0, 0, 1, 0, 97254
-12370, 155977, -6.5298, 2.37972, -857.833, -0.0266339, 0.256308, 1.03299, 0.34851, 0.655882, 3, 45.5, 246, 15.0178, 0.0326848, 0, 0, 1, 0, 97254
-11091.6, 169369, -80.0737, 1.87384, -734.577, 0.0874638, 0.317204, 1.03299, 0.34851, 0.655882, 0.0001, 45.5, 246, 23.3225, 0.0954561, 0, 0, 1, 0, 97258
-11091.6, 169369, -80.0737, 1.87384, -734.577, 0.0874638, 0.317204, 1.03299, 0.34851, 0.655882, 3, 45.5, 246, 23.3225, 0.0954561, 0, 0, 1, 0, 97258
-10289, 90090.5, -20.6189, 2.7354, -888.149, -0.0282389, 0.239252, 1.03299, 0.34851, 0.655882, 0.0001, 45.5, 246, 17.7756, 0.0553946, 0, 0, 1, 0, 97261
-10289, 90090.5, -20.6189, 2.7354, -888.149, -0.0282389, 0.239252, 1.03299, 0.34851, 0.655882, 3, 45.5, 246, 17.7756, 0.0553946, 0, 0, 1, 0, 97261
-7405.41, -31998.2, 16.5682, 2.75807, -862.106, -0.0183116, 0.258924, 1.03299, 0.34851, 0.655882, 0.0001, 45.5, 246, 6.67895, 0.0553667, 0, 0, 1, 1, 97262
879.383, 301575, -344.985, 3.61378, -1102.27, 0.120244, 0.374607, 0.9175, 0.352806, 0.64323, 3, 455, 246, 37.2742, 0.151479, 0, 0, 0, 0, 97273
-7766.04, 156328, -241.317, 3.1878, -929.57, -0.0470812, 0.350069, 1.03299, 0.34851, 0.655882, 0.0001, 45.5, 246, 50.1201, 0.220783, 1.05814, 1, 0, 0, 97275
-7766.04, 156328, -241.317, 3.1878, -929.57, -0.0470812, 0.350069, 1.03299, 0.34851, 0.655882, 3, 45.5, 246, 50.1201, 0.220783, 0, 0, 0, 0, 97275
-4920.18, 172460, -291.44, 3.46809, -949.406, 0.00157421, 0.36469, 0.993198, 0.349787, 0.651995, 0.0001, 91, 246, 50.1201, 0.220783, 1.24576, 1, 1, 0, 97275
-1207.76, 190726, -350.926, 3.79909, -984.61, 0.0595934, 0.396612, 0.958125, 0.351078, 0.648177, 0.0001, 182, 246, 50.1201, 0.220783, 2.23705, 1, 0, 0, 97275
-1207.76, 190726, -350.926, 3.79909, -984.61, 0.0595934, 0.396612, 0.958125, 0.351078, 0.648177, 3, 182, 246, 50.1201, 0.220783, 2.0702, 1, 0, 0, 97275
-6054.43, 816977, -210.969, 0.147234, -1182.99, 0.464933, 0.354759, 0.993198, 0.349787, 0.651995, 0.0001, 91, 246, 31.5052, 0.0615328, 0, 0, 1, 0, 97287
-5232.1, 865706, -218.508, 0.15524, -1277.7, 0.501907, 0.326248, 0.958125, 0.351078, 0.648177, 0.0001, 182, 246, 31.5052, 0.0615328, 0, 0, 0, 0, 97287
-3003.53, 78609, -237.661, 5.79894, -1097.77, 1.70728, 0.338905, 0.9175, 0.352806, 0.64323, 0.0001, 455, 246, 29.4221, 0.0588396, 1.0639, 1, 1, 0, 97298
-3003.53, 78609, -237.661, 5.79894, -1097.77, 1.70728, 0.338905, 0.9175, 0.352806, 0.64323, 3, 455, 246, 29.4221, 0.0588396, 1.02289, 1, 1, 0, 97298
-7550.29, 162179, -267.43, 3.39747, -871.411, 0.00681311, 0.338928, 1.03299, 0.34851, 0.655882, 0.0001, 45.5, 246, 51.773, 0.223349, 1.23611, 1, 0, 0, 97300
-7550.29, 162179, -267.43, 3.39747, -871.411, 0.00681311, 0.338928, 1.03299, 0.34851, 0.655882, 3, 45.5, 246, 51.773, 0.223349, 1.12723, 1, 0, 0, 97300
-4304.91, 177422, -321.344, 3.72159, -903.692, 0.0625446, 0.359928, 0.993198, 0.349787, 0.651995, 0.0001, 91, 246, 51.773, 0.223349, 1.52167, 1, 1, 0, 97300
-4304.91, 177422, -321.344, 3.72159, -903.692, 0.0625446, 0.359928, 0.993198, 0.349787, 0.651995, 3, 91, 246, 51.773, 0.223349, 1.4026, 1, 1, 0, 97300
-70.4126, 195499, -386.568, 4.11117, -954.132, 0.13121, 0.401144, 0.958125, 0.351078, 0.648177, 0.0001, 182, 246, 51.773, 0.223349, 3.682, 1, 0, 0, 97300
-70.4126, 195499, -386.568, 4.11117, -954.132, 0.13121, 0.401144, 0.958125, 0.351078, 0.648177, 3, 182, 246, 51.773, 0.223349, 3.40294, 1, 0, 0, 97300
-8071.56, 89473.2, -118.22, 1.68383, -855.681, -0.0130109, 0.388612, 1.03299, 0.34851, 0.655882, 0.0001, 45.5, 246, 40.6269, 0.230561, 0, 0, 1, 0, 97301
-8071.56, 89473.2, -118.22, 1.68383, -855.681, -0.0130109, 0.388612, 1.03299, 0.34851, 0.655882, 3, 45.5, 246, 40.6269, 0.230561, 0, 0, 1, 0, 97301
-9967.27, 448991, -309.212, 0.675079, -965.844, 0.559657, 0.52688, 1.03299, 0.34851, 0.655882, 3, 45.5, 246, 38.1429, 0.164595, 0, 0, 0, 0, 97302
-6889.21, 677753, -247.317, 0.189748, -897.78, 0.00159127, 0.393481, 0.993198, 0.349787, 0.651995, 0.0001, 91, 246, 29.7834, 0.0926976, 0, 0, 1, 0, 97306
-26.6491, 532606, -358.213, 1.84123, -1206.55, 0.0339849, 0.404736, 0.9175, 0.352806, 0.64323, 3, 455, 246, 38.33, 0.138594, 0, 0, 0, 0, 97316
-9763.15, 299411, -99.0681, 0.801961, -696.334, 0.236233, 0.32683, 0.993198, 0.349787, 0.651995, 0.0001, 91, 246, 20.3904, 0.0774366, 0, 0, 1, 0, 97317
-11249.3, 137107, -59.9273, 2.5589, -763.577, 0.0201451, 0.259732, 1.03299, 0.34851, 0.655882, 0.0001, 45.5, 246, 21.7668, 0.077708, 0, 0, 1, 0, 97318
-11249.3, 137107, -59.9273, 2.5589, -763.577, 0.0201451, 0.259732, 1.03299, 0.34851, 0.655882, 3, 45.5, 246, 21.7668, 0.077708, 0, 0, 1, 0, 97318
-10960.4, 246530, -179.911, 1.65956, -987.491, 0.0129196, 0.413551, 1.03299, 0.34851, 0.655882, 0.0001, 45.5, 246, 36.3296, 0.166177, 0, 0, 0, 0, 97322
-10960.4, 246530, -179.911, 1.65956, -987.491, 0.0129196, 0.413551, 1.03299, 0.34851, 0.655882, 3, 45.5, 246, 36.3296, 0.166177, 0, 0, 0, 0, 97322
-11091.8, 364671, -197.337, 1.07328, -1024.13, 0.0153045, 0.428075, 1.03299, 0.34851, 0.655882, 0.0001, 45.5, 246, 34.1281, 0.136166, 0, 0, 0, 0, 97325
-11091.8, 364671, -197.337, 1.07328, -1024.13, 0.0153045, 0.428075, 1.03299, 0.34851, 0.655882, 3, 45.5, 246, 34.1281, 0.136166, 0, 0, 0, 0, 97325
-9914.69, 487708, -139.072, 0.439145, -845.498, 0.00629054, 0.377244, 1.03299, 0.34851, 0.655882, 0.0001, 45.5, 246, 24.9119, 0.0738278, 0, 0, 1, 0, 97332
-9914.69, 487708, -139.072, 0.439145, -845.498, 0.00629054, 0.377244, 1.03299, 0.34851, 0.655882, 3, 45.5, 246, 24.9119, 0.0738278, 0, 0, 1, 0, 97332
-9023.08, 500758, -147.423, 0.454997, -848.085, 0.00717531, 0.344553, 0.993198, 0.349787, 0.651995, 0.0001, 91, 246, 24.9119, 0.0738278, 0, 0, 1, 0, 97332
-8000.52, 513967, -155.832, 0.470318, -850.959, 0.00812436, 0.316201, 0.958125, 0.351078, 0.648177, 0.0001, 182, 246, 24.9119, 0.0738278, 0, 0, 1, 0, 97332
-5426.52, 54386.4, -141.882, 2.74233, -616.38, 0.0581826, 0.279911, 1.03299, 0.34851, 0.655882, 0.0001, 45.5, 246, 46.6668, 0.155126, 1.02873, 1, 1, 0, 97334
-3516.93, 69822.9, -201.181, 3.22743, -662.574, 0.139077, 0.285856, 0.958125, 0.351078, 0.648177, 0.0001, 182, 246, 46.6668, 0.155126, 1.06057, 1, 1, 0, 97334
-1482.05, 82695.2, -253.109, 3.6418, -714.72, 0.213754, 0.320569, 0.9175, 0.352806, 0.64323, 0.0001, 455, 246, 46.6668, 0.155126, 1.39378, 1, 1, 0, 97334
-1482.05, 82695.2, -253.109, 3.6418, -714.72, 0.213754, 0.320569, 0.9175, 0.352806, 0.64323, 3, 455, 246, 46.6668, 0.155126, 1.31394, 1, 1, 0, 97334
-8070.62, 189483, -223.327, 1.6088, -713.168, 1.98231e-06, 0.461621, 0.993198, 0.349787, 0.651995, 0.0001, 91, 246, 41.8107, 0.241089, 0, 0, 1, 0, 97335
-9020.39, 104861, -44.1266, 0.686342, -953.654, 0.00509209, 0.356542, 1.03299, 0.34851, 0.655882, 0.0001, 45.5, 246, 20.7411, 0.101028, 0, 0, 1, 0, 97337
-9020.39, 104861, -44.1266, 0.686342, -953.654, 0.00509209, 0.356542, 1.03299, 0.34851, 0.655882, 3, 45.5, 246, 20.7411, 0.101028, 0, 0, 1, 0, 97337
-7629.72, 335366, -234.014, 0.710861, -1093.7, 0.053158, 0.461537, 0.993198, 0.349787, 0.651995, 0.0001, 91, 246, 38.1147, 0.178935, 0, 0, 1, 0, 97338
-9746.49, 63542.2, 0.00135287, 2.78472, -1021.51, 0.348196, 0.231802, 1.03299, 0.34851, 0.655882, 0.0001, 45.5, 246, 16.004, 0.0475515, 0, 0, 1, 0, 97339
-9746.49, 63542.2, 0.00135287, 2.78472, -1021.51, 0.348196, 0.231802, 1.03299, 0.34851, 0.655882, 3, 45.5, 246, 16.004, 0.0475515, 0, 0, 1, 0, 97339
-10491.6, 172070, -194.272, 3.36587, -891.317, -0.0379668, 0.266161, 1.03299, 0.34851, 0.655882, 0.0001, 45.5, 246, 40.6197, 0.164609, 0, 0, 0, 0, 97349
-10491.6, 172070, -194.272, 3.36587, -891.317, -0.0379668, 0.266161, 1.03299, 0.34851, 0.655882, 3, 45.5, 246, 40.6197, 0.164609, 0, 0, 0, 0, 97349
-11889.6, 148800, 19.8288, 1.98247, -1140.66, -0.0184087, 0.282032, 1.03299, 0.34851, 0.655882, 0.0001, 45.5, 246, 14.433, 0.0159956, 0, 0, 1, 0, 97355
-11889.6, 148800, 19.8288, 1.98247, -1140.66, -0.0184087, 0.282032, 1.03299, 0.34851, 0.655882, 3, 45.5, 246, 14.433, 0.0159956, 0, 0, 1, 0, 97355
-8276.22, 1327.51, -7.2008, 2.61258, -1106.35, 0.437094, 0.267108, 0.993198, 0.349787, 0.651995, 3, 91, 246, 8.79991, 0.0575787, 0, 0, 1, 1, 97356
-10517.2, 117083, -89.1589, 3.27036, -821.693, 0.51886, 0.193923, 1.03299, 0.34851, 0.655882, 0.0001, 45.5, 246, 27.4207, 0.0917699, 0, 0, 0, 0, 97359
-10517.2, 117083, -89.1589, 3.27036, -821.693, 0.51886, 0.193923, 1.03299, 0.34851, 0.655882, 3, 45.5, 246, 27.4207, 0.0917699, 0, 0, 0, 0, 97359
-8739.3, 133535, -124.288, 3.66387, -908.998, 0.622633, 0.20231, 0.993198, 0.349787, 0.651995, 0.0001, 91, 246, 27.4207, 0.0917699, 0, 0, 1, 0, 97359
-8739.3, 133535, -124.288, 3.66387, -908.998, 0.622633, 0.20231, 0.993198, 0.349787, 0.651995, 3, 91, 246, 27.4207, 0.0917699, 0, 0, 1, 0, 97359
-8690.79, 386793, -326.422, 0.560264, -1046.34, 0.393769, 0.599395, 1.03299, 0.34851, 0.655882, 0.0001, 45.5, 246, 43.4172, 0.212654, 0, 0, 0, 0, 97360
-8690.79, 386793, -326.422, 0.560264, -1046.34, 0.393769, 0.599395, 1.03299, 0.34851, 0.655882, 3, 45.5, 246, 43.4172, 0.212654, 0, 0, 0, 0, 97360
-6937.18, 417928, -346.572, 0.597887, -1121.2, 0.421466, 0.58721, 0.993198, 0.349787, 0.651995, 3, 91, 246, 43.4172, 0.212654, 0, 0, 1, 0, 97360
-4820.93, 453902, -367.917, 0.638118, -1207.38, 0.453333, 0.579807, 0.958125, 0.351078, 0.648177, 3, 182, 246, 43.4172, 0.212654, 0, 0, 0, 0, 97360
-11937.6, 261420, -35.9425, 1.1502, -739.414, 0.216901, 0.325829, 1.03299, 0.34851, 0.655882, 0.0001, 45.5, 246, 16.3025, 0.0382611, 0, 0, 1, 0, 97364
-11937.6, 261420, -35.9425, 1.1502, -739.414, 0.216901, 0.325829, 1.03299, 0.34851, 0.655882, 3, 45.5, 246, 16.3025, 0.0382611, 0, 0, 1, 0, 97364
-10826.1, 274329, -45.6767, 1.2195, -767.324, 0.230979, 0.294832, 0.993198, 0.349787, 0.651995, 3, 91, 246, 16.3025, 0.0382611, 0, 0, 1, 0, 97364
-5783.14, 830188, -287.477, 0.0278346, -825.676, 0.0447061, 0.401797, 0.993198, 0.349787, 0.651995, 0.0001, 91, 246, 28.7654, 0.0871906, 0, 0, 1, 0, 97370
-3754.57, 108321, -228.623, 3.49769, -748.042, 0.313968, 0.297845, 0.958125, 0.351078, 0.648177, 0.0001, 182, 246, 41.9679, 0.16365, 1.00819, 1, 1, 0, 97372
-476.23, 127282, -293.555, 4.03267, -842.722, 0.42396, 0.347725, 0.9175, 0.352806, 0.64323, 0.0001, 455, 246, 41.9679, 0.16365, 1.67927, 1, 1, 0, 97372
-476.23, 127282, -293.555, 4.03267, -842.722, 0.42396, 0.347725, 0.9175, 0.352806, 0.64323, 3, 455, 246, 41.9679, 0.16365, 1.64961, 1, 0, 0, 97372
-10160.9, 208056, -185.384, 1.3667, -681.573, -0.00185134, 0.447012, 1.03299, 0.34851, 0.655882, 3, 45.5, 246, 36.0607, 0.200769, 0, 0, 1, 0, 97374
-8796.67, 216758, -204.332, 1.44262, -689.04, 0.00681012, 0.428027, 0.993198, 0.349787, 0.651995, 0.0001, 91, 246, 36.0607, 0.200769, 0, 0, 1, 0, 97374
-10251.9, 402380, -351.933, 0.521166, -753.829, 0.000874406, 0.645069, 1.03299, 0.34851, 0.655882, 3, 45.5, 246, 41.4993, 0.23295, 0, 0, 0, 0, 97376
-8473.41, 414666, -371.378, 0.544649, -759.083, 0.00212149, 0.637478, 0.993198, 0.349787, 0.651995, 3, 91, 246, 41.4993, 0.23295, 0, 0, 1, 0, 97376
-15189.9, -189714, -0.957641, 0.744484, -1138.95, 0.303013, 0.399329, 1.03299, 0.34851, 0.655882, 0.0001, 45.5, 246, -99.4892, 0.160004, 0, 0, 1, 0, 97380
-15189.9, -189714, -0.957641, 0.744484, -1138.95, 0.303013, 0.399329, 1.03299, 0.34851, 0.655882, 3, 45.5, 246, -99.4892, 0.160004, 0, 0, 1, 0, 97380
-13891.8, 178301, -34.49, 3.1218, -1053.33, -0.0447402, 0.195953, 1.03299, 0.34851, 0.655882, 0.0001, 45.5, 246, 22.2706, 0.0576495, 0, 0, 0, 0, 97384
-13891.8, 178301, -34.49, 3.1218, -1053.33, -0.0447402, 0.195953, 1.03299, 0.34851, 0.655882, 3, 45.5, 246, 22.2706, 0.0576495, 0, 0, 0, 0, 97384
-12167.1, 130890, 13.4037, 2.6611, -966.176, 0.0693816, 0.231712, 1.03299, 0.34851, 0.655882, 0.0001, 45.5, 246, 13.9087, 0.0243882, 0, 0, 1, 0, 97386
-12167.1, 130890, 13.4037, 2.6611, -966.176, 0.0693816, 0.231712, 1.03299, 0.34851, 0.655882, 3, 45.5, 246, 13.9087, 0.0243882, 0, 0, 1, 0, 97386
-8089.05, 475589, -209.953, 0.297874, -816.052, 0.787354, 0.388773, 0.993198, 0.349787, 0.651995, 0.0001, 91, 246, 26.4931, 0.104284, 0, 0, 1, 0, 97387
-11127.5, 757905, -114.698, 0.355051, -861.73, 0.39397, 0.354482, 1.03299, 0.34851, 0.655882, 0.0001, 45.5, 246, 23.5259, 0.0367972, 0, 0, 1, 0, 97397
-11127.5, 757905, -114.698, 0.355051, -861.73, 0.39397, 0.354482, 1.03299, 0.34851, 0.655882, 3, 45.5, 246, 23.5259, 0.0367972, 0, 0, 1, 0, 97397
-7310.14, 455352, -474.141, 4.00674, -930.978, 0.102887, 0.438817, 0.958125, 0.351078, 0.648177, 3, 182, 246, 41.735, 0.174712, 1.07658, 1, 0, 0, 97402
-9788.15, 157851, -181.561, 2.64908, -777.74, 0.359284, 0.330848, 1.03299, 0.34851, 0.655882, 0.0001, 45.5, 246, 38.7625, 0.172539, 0, 0, 1, 0, 97407
-9788.15, 157851, -181.561, 2.64908, -777.74, 0.359284, 0.330848, 1.03299, 0.34851, 0.655882, 3, 45.5, 246, 38.7625, 0.172539, 0, 0, 1, 0, 97407
-7658.16, 172969, -216.218, 2.9148, -841.76, 0.416902, 0.328896, 0.993198, 0.349787, 0.651995, 0.0001, 91, 246, 38.7625, 0.172539, 0, 0, 1, 0, 97407
-7658.16, 172969, -216.218, 2.9148, -841.76, 0.416902, 0.328896, 0.993198, 0.349787, 0.651995, 3, 91, 246, 38.7625, 0.172539, 0, 0, 1, 0, 97407
241.729, 224407, -331.643, 3.75309, -1074.9, 0.625286, 0.38287, 0.9175, 0.352806, 0.64323, 0.0001, 455, 246, 38.7625, 0.172539, 1.72209, 1, 0, 0, 97407
241.729, 224407, -331.643, 3.75309, -1074.9, 0.625286, 0.38287, 0.9175, 0.352806, 0.64323, 3, 455, 246, 38.7625, 0.172539, 1.83278, 1, 0, 0, 97407
-7889.32, 429177, -373.134, 0.368348, -1065.77, 0.62497, 0.638605, 1.03299, 0.34851, 0.655882, 0.0001, 45.5, 246, 44.5237, 0.213413, 0, 0, 0, 0, 97414
-7889.32, 429177, -373.134, 0.368348, -1065.77, 0.62497, 0.638605, 1.03299, 0.34851, 0.655882, 3, 45.5, 246, 44.5237, 0.213413, 0, 0, 0, 0, 97414
-6090.58, 469482, -392.67, 0.397373, -1186.69, 0.694168, 0.62968, 0.993198, 0.349787, 0.651995, 3, 91, 246, 44.5237, 0.213413, 0, 0, 1, 0, 97414
-10136.4, 379513, -272.199, 0.644771, -772.591, 0.187648, 0.521275, 1.03299, 0.34851, 0.655882, 0.0001, 45.5, 246, 35.7184, 0.181806, 0, 0, 0, 0, 97416
-10136.4, 379513, -272.199, 0.644771, -772.591, 0.187648, 0.521275, 1.03299, 0.34851, 0.655882, 3, 45.5, 246, 35.7184, 0.181806, 0, 0, 0, 0, 97416
-8613.11, 395562, -288.788, 0.679821, -801.288, 0.195366, 0.501894, 0.993198, 0.349787, 0.651995, 3, 91, 246, 35.7184, 0.181806, 0, 0, 1, 0, 97416
-13796.3, 142372, 24.0168, 3.26293, -966.54, 0.565365, 0.15703, 1.03299, 0.34851, 0.655882, 0.0001, 45.5, 246, 14.5006, 0.0206409, 0, 0, 0, 0, 97423
-13796.3, 142372, 24.0168, 3.26293, -966.54, 0.565365, 0.15703, 1.03299, 0.34851, 0.655882, 3, 45.5, 246, 14.5006, 0.0206409, 0, 0, 0, 0, 97423
-4889.66, 294192, -422.664, 3.82046, -658.58, 0.163659, 0.443149, 0.958125, 0.351078, 0.648177, 0.0001, 182, 246, 42.372, 0.202818, 1.54071, 1, 0, 0, 97425
-4889.66, 294192, -422.664, 3.82046, -658.58, 0.163659, 0.443149, 0.958125, 0.351078, 0.648177, 3, 182, 246, 42.372, 0.202818, 1.36868, 1, 0, 0, 97425
-7619.63, 80209.8, -123.561, 3.49624, -752.193, -0.0328773, 0.19557, 1.03299, 0.34851, 0.655882, 0.0001, 45.5, 246, 35.4425, 0.11764, 0, 0, 1, 0, 97429
-7619.63, 80209.8, -123.561, 3.49624, -752.193, -0.0328773, 0.19557, 1.03299, 0.34851, 0.655882, 3, 45.5, 246, 35.4425, 0.11764, 0, 0, 1, 0, 97429
-917.192, 119194, -279.067, 4.84287, -856.161, 0.21961, 0.327527, 0.9175, 0.352806, 0.64323, 0.0001, 455, 246, 35.4425, 0.11764, 1.2957, 1, 1, 0, 97429
-917.192, 119194, -279.067, 4.84287, -856.161, 0.21961, 0.327527, 0.9175, 0.352806, 0.64323, 3, 455, 246, 35.4425, 0.11764, 1.27735, 1, 1, 0, 97429
-6212.57, 765022, -455.588, 0.0561375, -1001.78, 0.0138158, 0.601592, 1.03299, 0.34851, 0.655882, 0.0001, 45.5, 246, 40.1914, 0.1553, 0, 0, 0, 0, 97437
-6212.57, 765022, -455.588, 0.0561375, -1001.78, 0.0138158, 0.601592, 1.03299, 0.34851, 0.655882, 3, 45.5, 246, 40.1914, 0.1553, 0, 0, 0, 0, 97437
-28762, -944481, -3.12449, 0.133449, -923.807, 0.683376, 0.308306, 0.993198, 0.349787, 0.651995, 3, 91, 246, -497.46, 0.0125229, 0, 0, 1, 0, 97442
-9866.28, 183616, -193.175, 2.18665, -898.027, -0.0200954, 0.406144, 1.03299, 0.34851, 0.655882, 3, 45.5, 246, 41.2412, 0.202006, 0, 0, 1, 0, 97444
-8763.62, 720045, -142.918, 0.223066, -746.828, 0.15568, 0.331145, 0.993198, 0.349787, 0.651995, 0.0001, 91, 246, 21.6444, 0.0489285, 0, 0, 1, 0, 97445
-11122.2, 302314, -86.4146, 0.89064, -722.129, -0.00363519, 0.353375, 1.03299, 0.34851, 0.655882, 0.0001, 45.5, 246, 20.7336, 0.0730086, 0, 0, 1, 0, 97447
-11122.2, 302314, -86.4146, 0.89064, -722.129, -0.00363519, 0.353375, 1.03299, 0.34851, 0.655882, 3, 45.5, 246, 20.7336, 0.0730086, 0, 0, 1, 0, 97447
-10106.6, 311440, -96.0762, 0.929327, -724.105, 9.09862e-07, 0.321751, 0.993198, 0.349787, 0.651995, 0.0001, 91, 246, 20.7336, 0.0730086, 0, 0, 1, 0, 97447
-8546.31, 378965, -150.287, 0.565134, -981.842, 0.0881472, 0.358976, 0.993198, 0.349787, 0.651995, 0.0001, 91, 246, 28.1018, 0.0986554, 0, 0, 1, 0, 97456
-10176.4, 494844, -456.257, 0.540426, -985.691, 0.0152163, 0.760593, 1.03299, 0.34851, 0.655882, 3, 45.5, 246, 48.2486, 0.247205, 0, 0, 0, 0, 97461
-8896.59, 555367, -472.398, 0.349012, -1033.93, -0.000480133, 0.742673, 1.03299, 0.34851, 0.655882, 3, 45.5, 246, 47.3265, 0.228422, 0, 0, 0, 0, 97465
-10993.5, 503589, -187.71, 0.586923, -759.275, -0.0014151, 0.404643, 1.03299, 0.34851, 0.655882, 0.0001, 45.5, 246, 26.449, 0.0966828, 0, 0, 0, 0, 97472
-10993.5, 503589, -187.71, 0.586923, -759.275, -0.0014151, 0.404643, 1.03299, 0.34851, 0.655882, 3, 45.5, 246, 26.449, 0.0966828, 0, 0, 0, 0, 97472
-2731.45, 217092, -335.947, 3.86195, -1029.66, 0.483848, 0.365544, 0.958125, 0.351078, 0.648177, 0.0001, 182, 246, 44.3433, 0.190449, 1.45448, 1, 0, 0, 97476
-2731.45, 217092, -335.947, 3.86195, -1029.66, 0.483848, 0.365544, 0.958125, 0.351078, 0.648177, 3, 182, 246, 44.3433, 0.190449, 1.25047, 1, 0, 0, 97476
-8610.12, 145959, -181.772, 2.14594, -905.558, 0.0144412, 0.409271, 1.03299, 0.34851, 0.655882, 0.0001, 45.5, 246, 43.8259, 0.223246, 0, 0, 1, 0, 97484
-8610.12, 145959, -181.772, 2.14594, -905.558, 0.0144412, 0.409271, 1.03299, 0.34851, 0.655882, 3, 45.5, 246, 43.8259, 0.223246, 0, 0, 1, 0, 97484
-10141.5, 115331, -88.2281, 2.45296, -577.14, 0.402007, 0.275604, 1.03299, 0.34851, 0.655882, 0.0001, 45.5, 246, 24.554, 0.0995068, 0, 0, 1, 0, 97485
-10141.5, 115331, -88.2281, 2.45296, -577.14, 0.402007, 0.275604, 1.03299, 0.34851, 0.655882, 3, 45.5, 246, 24.554, 0.0995068, 0, 0, 1, 0, 97485
-9997.72, 290884, -413.105, 3.44439, -637.704, 0.269681, 0.468094, 0.993198, 0.349787, 0.651995, 0.0001, 91, 246, 45.8943, 0.223334, 1.18923, 1, 1, 0, 97487
-9997.72, 290884, -413.105, 3.44439, -637.704, 0.269681, 0.468094, 0.993198, 0.349787, 0.651995, 3, 91, 246, 45.8943, 0.223334, 1.06816, 1, 1, 0, 97487
-3706.7, 306657, -475.669, 3.83943, -712.662, 0.34246, 0.508559, 0.958125, 0.351078, 0.648177, 0.0001, 182, 246, 45.8943, 0.223334, 2.78859, 1, 0, 0, 97487
-3706.7, 306657, -475.669, 3.83943, -712.662, 0.34246, 0.508559, 0.958125, 0.351078, 0.648177, 3, 182, 246, 45.8943, 0.223334, 2.58775, 1, 0, 0, 97487
-7202, -21633.2, 21.4773, 3.27369, -1124.14, 0.355944, 0.206283, 1.03299, 0.34851, 0.655882, 3, 45.5, 246, 11.8347, 0.0592801, 0, 0, 1, 0, 97488
-10725.2, 206616, -148.084, 1.50953, -657.149, -0.00446202, 0.390078, 1.03299, 0.34851, 0.655882, 0.0001, 45.5, 246, 30.3671, 0.155744, 0, 0, 1, 0, 97489
-10725.2, 206616, -148.084, 1.50953, -657.149, -0.00446202, 0.390078, 1.03299, 0.34851, 0.655882, 3, 45.5, 246, 30.3671, 0.155744, 0, 0, 1, 0, 97489
-9585.83, 135534, -105.574, 2.05638, -1128.46, 0.253788, 0.339214, 1.03299, 0.34851, 0.655882, 0.0001, 45.5, 246, 33.1474, 0.142754, 0, 0, 1, 0, 97491
-9585.83, 135534, -105.574, 2.05638, -1128.46, 0.253788, 0.339214, 1.03299, 0.34851, 0.655882, 3, 45.5, 246, 33.1474, 0.142754, 0, 0, 1, 0, 97491
-12589.9, 314056, -48.7176, 1.21081, -1104.05, 0.155312, 0.327731, 1.03299, 0.34851, 0.655882, 0.0001, 45.5, 246, 23.0997, 0.0451196, 0, 0, 1, 0, 97493
-12589.9, 314056, -48.7176, 1.21081, -1104.05, 0.155312, 0.327731, 1.03299, 0.34851, 0.655882, 3, 45.5, 246, 23.0997, 0.0451196, 0, 0, 1, 0, 97493
