-7629.09, 594304, -368.429, 0.0745224, -798.072, 9.41677e-06, 0.565088, 1.03299, 0.34851, 0.655882, 0.0001, 45.5, 246, 35.6275, 0.163795, 0, 0, 0, 0, 29002
-11641.4, 531306, -114.919, 0.684523, -1110.92, 0.0244021, 0.35925, 1.03299, 0.34851, 0.655882, 0.0001, 45.5, 246, 28.0573, 0.0568388, 0, 0, 0, 0, 29004
-10492.1, 207770, -206.151, 2.30717, -991.843, -0.0248174, 0.407297, 1.03299, 0.34851, 0.655882, 0.0001, 45.5, 246, 41.9704, 0.196836, 0, 0, 0, 0, 29013
-10492.1, 207770, -206.151, 2.30717, -991.843, -0.0248174, 0.407297, 1.03299, 0.34851, 0.655882, 3, 45.5, 246, 41.9704, 0.196836, 0, 0, 0, 0, 29013
-11714.3, 189073, -77.1091, 1.94342, -831.481, 0.159221, 0.309792, 1.03299, 0.34851, 0.655882, 3, 45.5, 246, 23.6286, 0.0871217, 0, 0, 1, 0, 29019
-9210.05, 128952, -118.63, 1.84459, -851.962, -0.0114808, 0.362526, 1.03299, 0.34851, 0.655882, 3, 45.5, 246, 33.9273, 0.168178, 0, 0, 1, 0, 29020
-11948.2, 331865, -430.998, 3.88126, -718.589, 0.107918, 0.430034, 0.993198, 0.349787, 0.651995, 0.0001, 91, 246, 45.5876, 0.209418, 1.19359, 1, 1, 0, 29021
-11948.2, 331865, -430.998, 3.88126, -718.589, 0.107918, 0.430034, 0.993198, 0.349787, 0.651995, 3, 91, 246, 45.5876, 0.209418, 1.10026, 1, 1, 0, 29021
-21796.3, -205574, -4.51987, 0.953132, -1126.99, 0.0315816, 0.478105, 1.03299, 0.34851, 0.655882, 0.0001, 45.5, 246, -119.132, 0.249619, 0, 0, 1, 0, 29041
-21796.3, -205574, -4.51987, 0.953132, -1126.99, 0.0315816, 0.478105, 1.03299, 0.34851, 0.655882, 3, 45.5, 246, -119.132, 0.249619, 0, 0, 1, 0, 29041
-6664.9, 114826, -209.224, 2.49625, -652.072, 0.134332, 0.384041, 1.03299, 0.34851, 0.655882, 0.0001, 45.5, 246, 49.6722, 0.237477, 1.11455, 1, 1, 0, 29043
-5021.25, 124208, -240.968, 2.70792, -683.344, 0.167609, 0.381743, 0.993198, 0.349787, 0.651995, 0.0001, 91, 246, 49.6722, 0.237477, 1.06771, 1, 1, 0, 29043
-2928.73, 135137, -278.01, 2.94972, -723.446, 0.208245, 0.391368, 0.958125, 0.351078, 0.648177, 0.0001, 182, 246, 49.6722, 0.237477, 1.32278, 1, 1, 0, 29043
-2928.73, 135137, -278.01, 2.94972, -723.446, 0.208245, 0.391368, 0.958125, 0.351078, 0.648177, 3, 182, 246, 49.6722, 0.237477, 1.13444, 1, 1, 0, 29043
743.854, 152982, -337.984, 3.33343, -795.222, 0.277555, 0.423999, 0.9175, 0.352806, 0.64323, 0.0001, 455, 246, 49.6722, 0.237477, 2.81402, 1, 0, 0, 29043
743.854, 152982, -337.984, 3.33343, -795.222, 0.277555, 0.423999, 0.9175, 0.352806, 0.64323, 3, 455, 246, 49.6722, 0.237477, 2.81502, 1, 0, 0, 29043
-4792.71, 96382.4, -204.023, 3.51286, -995.561, -0.0573349, 0.265502, 1.03299, 0.34851, 0.655882, 0.0001, 45.5, 246, 52.5115, 0.199519, 1.33001, 1, 1, 0, 29046
-4792.71, 96382.4, -204.023, 3.51286, -995.561, -0.0573349, 0.265502, 1.03299, 0.34851, 0.655882, 3, 45.5, 246, 52.5115, 0.199519, 1.14232, 1, 1, 0, 29046
-2723.83, 114580, -256.894, 3.83561, -1013.3, 0.00198679, 0.285077, 0.993198, 0.349787, 0.651995, 0.0001, 91, 246, 52.5115, 0.199519, 1.51667, 1, 1, 0, 29046
-2723.83, 114580, -256.894, 3.83561, -1013.3, 0.00198679, 0.285077, 0.993198, 0.349787, 0.651995, 3, 91, 246, 52.5115, 0.199519, 1.38703, 1, 1, 0, 29046
174.061, 134810, -320.499, 4.22397, -1049.8, 0.0733716, 0.325132, 0.958125, 0.351078, 0.648177, 0.0001, 182, 246, 52.5115, 0.199519, 2.48091, 1, 1, 1, 29046
174.061, 134810, -320.499, 4.22397, -1049.8, 0.0733716, 0.325132, 0.958125, 0.351078, 0.648177, 3, 182, 246, 52.5115, 0.199519, 2.3379, 1, 1, 1, 29046
-4544.46, 581794, -380.382, 0.0119955, -1066.4, 0.158162, 0.558785, 0.993198, 0.349787, 0.651995, 0.0001, 91, 246, 40.327, 0.171106, 0, 0, 1, 0, 29048
-3572.08, 68462.9, -195.06, 3.43882, -834.614, 0.0867775, 0.276039, 0.958125, 0.351078, 0.648177, 0.0001, 182, 246, 45.9824, 0.136505, 1.01292, 1, 1, 0, 29051
-1408.72, 87201, -257.064, 3.88672, -885.813, 0.167725, 0.31965, 0.9175, 0.352806, 0.64323, 0.0001, 455, 246, 45.9824, 0.136505, 1.51681, 1, 1, 0, 29051
-1408.72, 87201, -257.064, 3.88672, -885.813, 0.167725, 0.31965, 0.9175, 0.352806, 0.64323, 3, 455, 246, 45.9824, 0.136505, 1.43893, 1, 1, 0, 29051
-7934.46, 758946, -289.9, 0.26214, -1027.49, 0.547795, 0.437488, 1.03299, 0.34851, 0.655882, 0.0001, 45.5, 246, 33.3735, 0.0891405, 0, 0, 0, 0, 29052
-7732.07, 604137, -418.741, 0.144974, -916.903, 0.00311295, 0.626712, 1.03299, 0.34851, 0.655882, 0.0001, 45.5, 246, 40.3597, 0.183792, 0, 0, 0, 0, 29056
-11366.1, 99213.1, 3.19954, 3.44189, -1091.26, -0.0547006, 0.161966, 1.03299, 0.34851, 0.655882, 0.0001, 45.5, 246, 17.6522, 0.0442444, 0, 0, 0, 0, 29062
-11366.1, 99213.1, 3.19954, 3.44189, -1091.26, -0.0547006, 0.161966, 1.03299, 0.34851, 0.655882, 3, 45.5, 246, 17.6522, 0.0442444, 0, 0, 0, 0, 29062
-9877.86, 119199, -32.2939, 3.74237, -1087.95, 0.00200145, 0.172608, 0.993198, 0.349787, 0.651995, 0.0001, 91, 246, 17.6522, 0.0442444, 0, 0, 1, 0, 29062
-9877.86, 119199, -32.2939, 3.74237, -1087.95, 0.00200145, 0.172608, 0.993198, 0.349787, 0.651995, 3, 91, 246, 17.6522, 0.0442444, 0, 0, 1, 0, 29062
-12074.1, 212451, -21.042, 1.50908, -738.577, 0.000751773, 0.309403, 1.03299, 0.34851, 0.655882, 3, 45.5, 246, 14.679, 0.033182, 0, 0, 1, 0, 29070
-10884.1, 221816, -32.5077, 1.59131, -740.361, 0.0113058, 0.281793, 0.993198, 0.349787, 0.651995, 3, 91, 246, 14.679, 0.033182, 0, 0, 1, 0, 29070
-9155.86, 417654, -237.409, 0.657847, -727.168, 0.111812, 0.428354, 0.993198, 0.349787, 0.651995, 3, 91, 246, 30.0115, 0.140508, 0, 0, 1, 0, 29072
-7902.15, 2238.74, -34.4543, 2.8242, -1036.44, 0.214179, 0.266159, 0.993198, 0.349787, 0.651995, 3, 91, 246, 18.603, 0.0510691, 0, 0, 1, 1, 29074
-10175, 67693.2, 16.1814, 3.01965, -1120.03, 0.241352, 0.207266, 1.03299, 0.34851, 0.655882, 0.0001, 45.5, 246, 14.9234, 0.0395046, 0, 0, 0, 0, 29077
-7109.19, 531.367, -38.1869, 3.71707, -1170.33, 0.00168459, 0.21756, 0.993198, 0.349787, 0.651995, 0.0001, 91, 246, 18.4798, 0.0600251, 0, 0, 1, 1, 29078
-7109.19, 531.367, -38.1869, 3.71707, -1170.33, 0.00168459, 0.21756, 0.993198, 0.349787, 0.651995, 3, 91, 246, 18.4798, 0.0600251, 0, 0, 1, 1, 29078
-15966.5, 191849, 7.84686, 3.45605, -1149.93, -0.012316, 0.143249, 1.03299, 0.34851, 0.655882, 0.0001, 45.5, 246, 19.5257, 0.0332136, 0, 0, 0, 0, 29083
-15966.5, 191849, 7.84686, 3.45605, -1149.93, -0.012316, 0.143249, 1.03299, 0.34851, 0.655882, 3, 45.5, 246, 19.5257, 0.0332136, 0, 0, 0, 0, 29083
-9349.15, 201722, -48.8324, 0.573859, -994.292, 0.0104352, 0.349816, 1.03299, 0.34851, 0.655882, 0.0001, 45.5, 246, 20.3627, 0.0624474, 0, 0, 1, 0, 29092
-9349.15, 201722, -48.8324, 0.573859, -994.292, 0.0104352, 0.349816, 1.03299, 0.34851, 0.655882, 3, 45.5, 246, 20.3627, 0.0624474, 0, 0, 1, 0, 29092
-6608.19, 102770, -185.114, 2.77431, -717.317, -0.0353067, 0.32977, 1.03299, 0.34851, 0.655882, 0.0001, 45.5, 246, 47.141, 0.206038, 1.05178, 1, 1, 0, 29095
-6608.19, 102770, -185.114, 2.77431, -717.317, -0.0353067, 0.32977, 1.03299, 0.34851, 0.655882, 3, 45.5, 246, 47.141, 0.206038, 0, 0, 1, 0, 29095
-5045.57, 112279, -218.951, 2.99368, -730.644, 0.00122715, 0.330392, 0.993198, 0.349787, 0.651995, 0.0001, 91, 246, 47.141, 0.206038, 1.00416, 1, 1, 0, 29095
-3040.81, 122830, -258.15, 3.24504, -752.791, 0.0439774, 0.344143, 0.958125, 0.351078, 0.648177, 0.0001, 182, 246, 47.141, 0.206038, 1.25448, 1, 1, 0, 29095
-3040.81, 122830, -258.15, 3.24504, -752.791, 0.0439774, 0.344143, 0.958125, 0.351078, 0.648177, 3, 182, 246, 47.141, 0.206038, 1.07055, 1, 1, 0, 29095
496.862, 139297, -321.125, 3.64568, -799.967, 0.113967, 0.384387, 0.9175, 0.352806, 0.64323, 0.0001, 455, 246, 47.141, 0.206038, 2.29874, 1, 0, 0, 29095
496.862, 139297, -321.125, 3.64568, -799.967, 0.113967, 0.384387, 0.9175, 0.352806, 0.64323, 3, 455, 246, 47.141, 0.206038, 2.29862, 1, 0, 0, 29095
-10641.4, 175540, -139.326, 2.39007, -1011.65, 0.00481777, 0.332679, 1.03299, 0.34851, 0.655882, 0.0001, 45.5, 246, 35.0206, 0.148718, 0, 0, 0, 0, 29096
-10641.4, 175540, -139.326, 2.39007, -1011.65, 0.00481777, 0.332679, 1.03299, 0.34851, 0.655882, 3, 45.5, 246, 35.0206, 0.148718, 0, 0, 0, 0, 29096
-4372.73, 109385, -180.654, 4.37064, -998.824, 0.854664, 0.299174, 0.9175, 0.352806, 0.64323, 0.0001, 455, 246, 24.2806, 0.0778518, 0, 0, 1, 0, 29109
-4372.73, 109385, -180.654, 4.37064, -998.824, 0.854664, 0.299174, 0.9175, 0.352806, 0.64323, 3, 455, 246, 24.2806, 0.0778518, 0, 0, 1, 0, 29109
-10815.2, 559766, -34.1954, 0.744905, -643.007, 0.370376, 0.269176, 0.958125, 0.351078, 0.648177, 3, 182, 246, 13.2223, 0.0133521, 0, 0, 1, 0, 29116
-3674.93, 381882, -450.317, 4.26942, -1255.38, 0.866471, 0.413037, 0.958125, 0.351078, 0.648177, 3, 182, 246, 43.7389, 0.178001, 0, 0, 0, 0, 29119
-8610.18, 118961, -36.7467, 0.249883, -1138.11, 0.00105268, 0.352649, 1.03299, 0.34851, 0.655882, 0.0001, 45.5, 246, 19.0116, 0.0746665, 0, 0, 1, 0, 29121
-8610.18, 118961, -36.7467, 0.249883, -1138.11, 0.00105268, 0.352649, 1.03299, 0.34851, 0.655882, 3, 45.5, 246, 19.0116, 0.0746665, 0, 0, 1, 0, 29121
-9993.66, 68903, -1.56224, 3.57636, -951.241, -0.0550658, 0.151132, 1.03299, 0.34851, 0.655882, 0.0001, 45.5, 246, 16.2952, 0.0452506, 0, 0, 0, 0, 29124
-9993.66, 68903, -1.56224, 3.57636, -951.241, -0.0550658, 0.151132, 1.03299, 0.34851, 0.655882, 3, 45.5, 246, 16.2952, 0.0452506, 0, 0, 0, 0, 29124
-4215.97, 272835, -379.88, 4.04271, -874.406, 0.882807, 0.376743, 0.958125, 0.351078, 0.648177, 0.0001, 182, 246, 40.3398, 0.178792, 1.33022, 1, 0, 0, 29142
-4215.97, 272835, -379.88, 4.04271, -874.406, 0.882807, 0.376743, 0.958125, 0.351078, 0.648177, 3, 182, 246, 40.3398, 0.178792, 1.12559, 1, 0, 0, 29142
-11228.1, 233927, -162.635, 1.42788, -629.108, 0.321731, 0.397189, 1.03299, 0.34851, 0.655882, 3, 45.5, 246, 29.5959, 0.149253, 0, 0, 1, 0, 29144
-9705.55, 245803, -180.306, 1.53379, -670.173, 0.349101, 0.375112, 0.993198, 0.349787, 0.651995, 3, 91, 246, 29.5959, 0.149253, 0, 0, 1, 0, 29144
-7850.23, 259492, -200.158, 1.64945, -718.13, 0.381248, 0.359441, 0.958125, 0.351078, 0.648177, 0.0001, 182, 246, 29.5959, 0.149253, 0, 0, 1, 0, 29144
-11309.9, 347485, -319.574, 0.726165, -573.322, 0.45863, 0.593598, 1.03299, 0.34851, 0.655882, 0.0001, 45.5, 246, 37.4764, 0.220017, 0, 0, 0, 0, 29146
-11309.9, 347485, -319.574, 0.726165, -573.322, 0.45863, 0.593598, 1.03299, 0.34851, 0.655882, 3, 45.5, 246, 37.4764, 0.220017, 0, 0, 0, 0, 29146
-7970.7, 30194.3, -50.9609, 2.3236, -1082.41, 0.5435, 0.283544, 0.993198, 0.349787, 0.651995, 3, 91, 246, 23.9558, 0.0861473, 0, 0, 1, 0, 29151
-7321.79, 35867, -63.2828, 3.01244, -1091.28, 0.0118638, 0.245227, 1.03299, 0.34851, 0.655882, 3, 45.5, 246, 31.6562, 0.105935, 0, 0, 1, 0, 29154
-8577.75, 760133, -299.839, 0.343594, -1056.4, 0.00325221, 0.45455, 1.03299, 0.34851, 0.655882, 3, 45.5, 246, 35.0252, 0.101962, 0, 0, 0, 0, 29157
-6450.1, 60396.8, -123.321, 3.49109, -743.019, 0.845207, 0.218151, 0.993198, 0.349787, 0.651995, 0.0001, 91, 246, 31.5973, 0.0887282, 0, 0, 1, 0, 29159
-2622.02, 107272, -240.911, 4.98088, -1172.48, 1.48906, 0.324411, 0.9175, 0.352806, 0.64323, 0.0001, 455, 246, 31.5973, 0.0887282, 1.14768, 1, 1, 0, 29159
-2622.02, 107272, -240.911, 4.98088, -1172.48, 1.48906, 0.324411, 0.9175, 0.352806, 0.64323, 3, 455, 246, 31.5973, 0.0887282, 1.12602, 1, 1, 0, 29159
-11213.8, 165002, -47.9934, 1.88208, -967.854, -0.00339726, 0.304668, 1.03299, 0.34851, 0.655882, 0.0001, 45.5, 246, 21.7139, 0.070877, 0, 0, 1, 0, 29163
-11213.8, 165002, -47.9934, 1.88208, -967.854, -0.00339726, 0.304668, 1.03299, 0.34851, 0.655882, 3, 45.5, 246, 21.7139, 0.070877, 0, 0, 1, 0, 29163
-2956.6, 318548, -386.113, 4.1412, -1233.99, 0.0685167, 0.37544, 0.958125, 0.351078, 0.648177, 0.0001, 182, 246, 45.092, 0.177118, 1.62011, 1, 0, 0, 29167
-2956.6, 318548, -386.113, 4.1412, -1233.99, 0.0685167, 0.37544, 0.958125, 0.351078, 0.648177, 3, 182, 246, 45.092, 0.177118, 1.53457, 1, 0, 0, 29167
-8760.29, 69062, -59.4477, 1.15722, -1099.82, 0.50853, 0.364548, 1.03299, 0.34851, 0.655882, 3, 45.5, 246, 28.401, 0.163877, 0, 0, 1, 0, 29178
-8742.26, 62643.3, -4.53376, 0.219594, -1028.27, -0.000188608, 0.341927, 1.03299, 0.34851, 0.655882, 0.0001, 45.5, 246, 9.10902, 0.0232527, 0, 0, 1, 0, 29180
-8742.26, 62643.3, -4.53376, 0.219594, -1028.27, -0.000188608, 0.341927, 1.03299, 0.34851, 0.655882, 3, 45.5, 246, 9.10902, 0.0232527, 0, 0, 1, 0, 29180
-8293.5, 6450.46, -12.9365, 1.87939, -828.556, 0.303355, 0.307773, 1.03299, 0.34851, 0.655882, 0.0001, 45.5, 246, 16.6414, 0.063971, 0, 0, 1, 1, 29182
-7302.36, 762313, -300.393, 0.138652, -890.876, 0.0276674, 0.454015, 1.03299, 0.34851, 0.655882, 0.0001, 45.5, 246, 31.5767, 0.101294, 0, 0, 0, 0, 29188
-7302.36, 762313, -300.393, 0.138652, -890.876, 0.0276674, 0.454015, 1.03299, 0.34851, 0.655882, 3, 45.5, 246, 31.5767, 0.101294, 0, 0, 0, 0, 29188
-6202.78, 779080, -311.23, 0.143345, -895.933, 0.0278766, 0.426705, 0.993198, 0.349787, 0.651995, 3, 91, 246, 31.5767, 0.101294, 0, 0, 1, 0, 29188
-12259.8, 144979, -2.64938, 2.54947, -998.154, -0.0298888, 0.24441, 1.03299, 0.34851, 0.655882, 0.0001, 45.5, 246, 16.5365, 0.0358899, 0, 0, 1, 0, 29191
-12259.8, 144979, -2.64938, 2.54947, -998.154, -0.0298888, 0.24441, 1.03299, 0.34851, 0.655882, 3, 45.5, 246, 16.5365, 0.0358899, 0, 0, 1, 0, 29191
-7659.14, -17681.1, -2.64379, 2.51221, -603.743, -0.0296249, 0.273091, 1.03299, 0.34851, 0.655882, 3, 45.5, 246, 11.119, 0.0260457, 0, 0, 1, 1, 29192
-3446.29, 519847, -209.806, 3.59621, -938.834, 0.138905, 0.250848, 0.9175, 0.352806, 0.64323, 0.0001, 455, 246, 23.8359, 0.0536581, 0, 0, 0, 0, 29194
-3446.29, 519847, -209.806, 3.59621, -938.834, 0.138905, 0.250848, 0.9175, 0.352806, 0.64323, 3, 455, 246, 23.8359, 0.0536581, 0, 0, 0, 0, 29194
1785.78, 258535, -411.341, 3.9828, -713.021, 0.156537, 0.442138, 0.9175, 0.352806, 0.64323, 0.0001, 455, 246, 39.7499, 0.187535, 3.84641, 1, 0, 0, 29197
1785.78, 258535, -411.341, 3.9828, -713.021, 0.156537, 0.442138, 0.9175, 0.352806, 0.64323, 3, 455, 246, 39.7499, 0.187535, 4.03213, 1, 0, 0, 29197
-5811.37, 484044, -324.572, 0.183774, -1066.08, 0.139051, 0.529072, 0.993198, 0.349787, 0.651995, 0.0001, 91, 246, 39.6399, 0.17664, 0, 0, 1, 0, 29202
-4595.54, 510066, -337.242, 0.191338, -1091.69, 0.142333, 0.514605, 0.958125, 0.351078, 0.648177, 0.0001, 182, 246, 39.6399, 0.17664, 0, 0, 0, 0, 29202
-7482.14, -4847.57, -3.75249, 3.05201, -995.727, 0.152092, 0.228161, 1.03299, 0.34851, 0.655882, 3, 45.5, 246, 16.7523, 0.0563197, 0, 0, 1, 1, 29206
-7865.73, 17352.5, -35.8557, 2.93409, -1097.35, 0.0480475, 0.254854, 0.993198, 0.349787, 0.651995, 3, 91, 246, 18.1082, 0.0655849, 0, 0, 1, 1, 29219
-6693.76, 68351, -123.837, 3.56478, -1153.79, 0.15872, 0.292159, 0.9175, 0.352806, 0.64323, 3, 455, 246, 18.1082, 0.0655849, 0, 0, 1, 0, 29219
-3424.64, 316631, -445.632, 3.95401, -888.433, 0.101152, 0.458813, 0.958125, 0.351078, 0.648177, 0.0001, 182, 246, 46.0625, 0.207727, 2.80914, 1, 0, 0, 29221
-3424.64, 316631, -445.632, 3.95401, -888.433, 0.101152, 0.458813, 0.958125, 0.351078, 0.648177, 3, 182, 246, 46.0625, 0.207727, 2.62094, 1, 0, 0, 29221
-11120.8, 273856, -284.098, 1.428, -736.512, 0.12603, 0.559695, 1.03299, 0.34851, 0.655882, 0.0001, 45.5, 246, 43.1888, 0.241064, 0, 0, 0, 0, 29222
-11120.8, 273856, -284.098, 1.428, -736.512, 0.12603, 0.559695, 1.03299, 0.34851, 0.655882, 3, 45.5, 246, 43.1888, 0.241064, 0, 0, 0, 0, 29222
-10261, 94533.4, -23.9798, 2.51708, -912.175, -0.0145083, 0.258338, 1.03299, 0.34851, 0.655882, 0.0001, 45.5, 246, 18.425, 0.0594341, 0, 0, 1, 0, 29224
-10261, 94533.4, -23.9798, 2.51708, -912.175, -0.0145083, 0.258338, 1.03299, 0.34851, 0.655882, 3, 45.5, 246, 18.425, 0.0594341, 0, 0, 1, 0, 29224
-8755.36, 598684, -272.791, 0.187699, -680.258, 0.0186698, 0.461378, 1.03299, 0.34851, 0.655882, 0.0001, 45.5, 246, 28.1868, 0.118567, 0, 0, 0, 0, 29226
-8755.36, 598684, -272.791, 0.187699, -680.258, 0.0186698, 0.461378, 1.03299, 0.34851, 0.655882, 3, 45.5, 246, 28.1868, 0.118567, 0, 0, 0, 0, 29226
-7816.34, 608775, -283.079, 0.194169, -683.68, 0.0188856, 0.434776, 0.993198, 0.349787, 0.651995, 0.0001, 91, 246, 28.1868, 0.118567, 0, 0, 1, 0, 29226
-6753.48, 619071, -293.053, 0.200385, -687.234, 0.0191135, 0.412312, 0.958125, 0.351078, 0.648177, 0.0001, 182, 246, 28.1868, 0.118567, 0, 0, 1, 0, 29226
-10894, 86676.4, -2.85993, 3.58991, -715.978, 0.227877, 0.134896, 1.03299, 0.34851, 0.655882, 0.0001, 45.5, 246, 13.3043, 0.0328177, 0, 0, 0, 0, 29232
-10894, 86676.4, -2.85993, 3.58991, -715.978, 0.227877, 0.134896, 1.03299, 0.34851, 0.655882, 3, 45.5, 246, 13.3043, 0.0328177, 0, 0, 0, 0, 29232
-11155.2, 461406, -54.1695, 0.55567, -1058.6, 0.0441308, 0.342933, 1.03299, 0.34851, 0.655882, 0.0001, 45.5, 246, 23.1384, 0.0322038, 0, 0, 1, 0, 29243
-11155.2, 461406, -54.1695, 0.55567, -1058.6, 0.0441308, 0.342933, 1.03299, 0.34851, 0.655882, 3, 45.5, 246, 23.1384, 0.0322038, 0, 0, 1, 0, 29243
-10234.2, 482308, -61.5528, 0.577563, -1067.02, 0.0458602, 0.308245, 0.993198, 0.349787, 0.651995, 0.0001, 91, 246, 23.1384, 0.0322038, 0, 0, 1, 0, 29243
-9152.92, 503654, -69.3047, 0.598976, -1075.95, 0.0477254, 0.278069, 0.958125, 0.351078, 0.648177, 0.0001, 182, 246, 23.1384, 0.0322038, 0, 0, 1, 0, 29243
-2102.64, 442069, -301.377, 2.98846, -870.164, 0.1682, 0.328774, 0.9175, 0.352806, 0.64323, 0.0001, 455, 246, 28.8883, 0.108171, 0, 0, 0, 0, 29252
-2102.64, 442069, -301.377, 2.98846, -870.164, 0.1682, 0.328774, 0.9175, 0.352806, 0.64323, 3, 455, 246, 28.8883, 0.108171, 0, 0, 0, 0, 29252
-1986.74, 71276.7, -216.841, 3.19339, -843.724, 0.00295075, 0.291802, 0.993198, 0.349787, 0.651995, 0.0001, 91, 246, 59.6335, 0.20137, 1.53839, 1, 1, 0, 29253
-1986.74, 71276.7, -216.841, 3.19339, -843.724, 0.00295075, 0.291802, 0.993198, 0.349787, 0.651995, 3, 91, 246, 59.6335, 0.20137, 1.38774, 1, 1, 0, 29253
-372.421, 85155.5, -261.46, 3.47194, -868.281, 0.0517671, 0.309166, 0.958125, 0.351078, 0.648177, 0.0001, 182, 246, 59.6335, 0.20137, 1.96429, 1, 1, 1, 29253
-372.421, 85155.5, -261.46, 3.47194, -868.281, 0.0517671, 0.309166, 0.958125, 0.351078, 0.648177, 3, 182, 246, 59.6335, 0.20137, 1.82383, 1, 1, 1, 29253
-8645.6, 137133, -24.8896, 0.181826, -1123.65, 0.121142, 0.346206, 1.03299, 0.34851, 0.655882, 0.0001, 45.5, 246, 16.6381, 0.0434631, 0, 0, 1, 0, 29257
-8645.6, 137133, -24.8896, 0.181826, -1123.65, 0.121142, 0.346206, 1.03299, 0.34851, 0.655882, 3, 45.5, 246, 16.6381, 0.0434631, 0, 0, 1, 0, 29257
-12245.6, 181911, -2.6268, 1.78624, -853.272, 0.306898, 0.291819, 1.03299, 0.34851, 0.655882, 0.0001, 45.5, 246, 14.3127, 0.0232697, 0, 0, 1, 0, 29260
-12245.6, 181911, -2.6268, 1.78624, -853.272, 0.306898, 0.291819, 1.03299, 0.34851, 0.655882, 3, 45.5, 246, 14.3127, 0.0232697, 0, 0, 1, 0, 29260
-10990.8, 198210, -17.4444, 1.92466, -898.334, 0.338417, 0.267711, 0.993198, 0.349787, 0.651995, 3, 91, 246, 14.3127, 0.0232697, 0, 0, 1, 0, 29260
-10304.7, 314766, -230.01, 0.705049, -637.208, 0.465586, 0.482992, 1.03299, 0.34851, 0.655882, 0.0001, 45.5, 246, 32.2808, 0.174392, 0, 0, 1, 0, 29265
-10304.7, 314766, -230.01, 0.705049, -637.208, 0.465586, 0.482992, 1.03299, 0.34851, 0.655882, 3, 45.5, 246, 32.2808, 0.174392, 0, 0, 1, 0, 29265
-9069.1, 331630, -244.46, 0.755055, -692.679, 0.505085, 0.460551, 0.993198, 0.349787, 0.651995, 0.0001, 91, 246, 32.2808, 0.174392, 0, 0, 1, 0, 29265
-10795.2, 204965, -137.175, 1.64756, -794.983, -0.0123841, 0.37417, 1.03299, 0.34851, 0.655882, 0.0001, 45.5, 246, 30.733, 0.145029, 0, 0, 1, 0, 29268
-10795.2, 204965, -137.175, 1.64756, -794.983, -0.0123841, 0.37417, 1.03299, 0.34851, 0.655882, 3, 45.5, 246, 30.733, 0.145029, 0, 0, 1, 0, 29268
-9313.56, 216149, -157.446, 1.74379, -800.778, 0.000242074, 0.353412, 0.993198, 0.349787, 0.651995, 3, 91, 246, 30.733, 0.145029, 0, 0, 1, 0, 29268
-4762.53, 99080.4, -178.643, 3.36374, -1106.77, 0.441313, 0.297936, 0.9175, 0.352806, 0.64323, 3, 455, 246, 31.754, 0.112913, 0, 0, 1, 0, 29272
-10527.3, 182776, -163.614, 2.40456, -963.304, -0.000222882, 0.352102, 1.03299, 0.34851, 0.655882, 0.0001, 45.5, 246, 37.4663, 0.166513, 0, 0, 0, 0, 29276
-10527.3, 182776, -163.614, 2.40456, -963.304, -0.000222882, 0.352102, 1.03299, 0.34851, 0.655882, 3, 45.5, 246, 37.4663, 0.166513, 0, 0, 0, 0, 29276
-7760.01, -19032.9, -3.66867, 2.36198, -637.036, -0.0216829, 0.284483, 1.03299, 0.34851, 0.655882, 0.0001, 45.5, 246, 12.16, 0.0231883, 0, 0, 1, 1, 29277
-11416.7, 278924, -288.587, 1.68106, -882.495, 0.75878, 0.521679, 1.03299, 0.34851, 0.655882, 0.0001, 45.5, 246, 43.1627, 0.214916, 0, 0, 0, 0, 29282
-11416.7, 278924, -288.587, 1.68106, -882.495, 0.75878, 0.521679, 1.03299, 0.34851, 0.655882, 3, 45.5, 246, 43.1627, 0.214916, 0, 0, 0, 0, 29282
-9737.64, 78908.6, -51.0019, 3.5414, -608.115, -0.0572988, 0.157754, 1.03299, 0.34851, 0.655882, 0.0001, 45.5, 246, 19.7331, 0.0594843, 0, 0, 1, 0, 29285
-9737.64, 78908.6, -51.0019, 3.5414, -608.115, -0.0572988, 0.157754, 1.03299, 0.34851, 0.655882, 3, 45.5, 246, 19.7331, 0.0594843, 0, 0, 1, 0, 29285
-8577.14, 84780, -76.2705, 3.85734, -611.595, 0.00283645, 0.171676, 0.993198, 0.349787, 0.651995, 0.0001, 91, 246, 19.7331, 0.0594843, 0, 0, 1, 0, 29285
-8577.14, 84780, -76.2705, 3.85734, -611.595, 0.00283645, 0.171676, 0.993198, 0.349787, 0.651995, 3, 91, 246, 19.7331, 0.0594843, 0, 0, 1, 0, 29285
-7107.22, 91237.1, -106.531, 4.23645, -624.98, 0.0748478, 0.205636, 0.958125, 0.351078, 0.648177, 0.0001, 182, 246, 19.7331, 0.0594843, 0, 0, 1, 0, 29285
-7107.22, 91237.1, -106.531, 4.23645, -624.98, 0.0748478, 0.205636, 0.958125, 0.351078, 0.648177, 3, 182, 246, 19.7331, 0.0594843, 0, 0, 1, 0, 29285
-13527.7, 172946, -76.8839, 3.58596, -1022.74, -0.0605004, 0.158831, 1.03299, 0.34851, 0.655882, 0.0001, 45.5, 246, 27.2409, 0.0834041, 0, 0, 0, 0, 29286
-13527.7, 172946, -76.8839, 3.58596, -1022.74, -0.0605004, 0.158831, 1.03299, 0.34851, 0.655882, 3, 45.5, 246, 27.2409, 0.0834041, 0, 0, 0, 0, 29286
-9496.69, 145788, -162.231, 2.3213, -679.81, 0.0362938, 0.352104, 1.03299, 0.34851, 0.655882, 0.0001, 45.5, 246, 36.98, 0.177501, 0, 0, 1, 0, 29287
-9496.69, 145788, -162.231, 2.3213, -679.81, 0.0362938, 0.352104, 1.03299, 0.34851, 0.655882, 3, 45.5, 246, 36.98, 0.177501, 0, 0, 1, 0, 29287
-11386, 187374, -105.651, 2.16411, -1051.5, 0.345758, 0.316732, 1.03299, 0.34851, 0.655882, 0.0001, 45.5, 246, 30.163, 0.113137, 0, 0, 0, 0, 29288
-11386, 187374, -105.651, 2.16411, -1051.5, 0.345758, 0.316732, 1.03299, 0.34851, 0.655882, 3, 45.5, 246, 30.163, 0.113137, 0, 0, 0, 0, 29288
-8890.96, 152546, -106.6, 2.56203, -1162.03, 0.541523, 0.280213, 0.993198, 0.349787, 0.651995, 0.0001, 91, 246, 28.2059, 0.105197, 0, 0, 1, 0, 29293
-6954.34, 183755, -144.293, 2.83497, -1283.33, 0.627127, 0.279535, 0.958125, 0.351078, 0.648177, 3, 182, 246, 28.2059, 0.105197, 0, 0, 1, 0, 29293
-7046.62, 111503, -181.744, 3.15898, -989.605, 0.799281, 0.272353, 1.03299, 0.34851, 0.655882, 0.0001, 45.5, 246, 44.8024, 0.174404, 1.05043, 1, 0, 0, 29294
-4992.03, 137730, -230.693, 3.59963, -1156.89, 0.972145, 0.28285, 0.993198, 0.349787, 0.651995, 0.0001, 91, 246, 44.8024, 0.174404, 1.03525, 1, 1, 0, 29294
-4992.03, 137730, -230.693, 3.59963, -1156.89, 0.972145, 0.28285, 0.993198, 0.349787, 0.651995, 3, 91, 246, 44.8024, 0.174404, 0, 0, 1, 0, 29294
-1813.04, 176170, -298.193, 4.17892, -1403.73, 1.22697, 0.317477, 0.958125, 0.351078, 0.648177, 0.0001, 182, 246, 44.8024, 0.174404, 1.62064, 1, 0, 0, 29294
-1813.04, 176170, -298.193, 4.17892, -1403.73, 1.22697, 0.317477, 0.958125, 0.351078, 0.648177, 3, 182, 246, 44.8024, 0.174404, 1.40865, 1, 0, 0, 29294
-10037, 274820, -281.201, 1.15856, -920.3, 0.28529, 0.580542, 1.03299, 0.34851, 0.655882, 0.0001, 45.5, 246, 45.0924, 0.247779, 0, 0, 0, 0, 29295
-10037, 274820, -281.201, 1.15856, -920.3, 0.28529, 0.580542, 1.03299, 0.34851, 0.655882, 3, 45.5, 246, 45.0924, 0.247779, 0, 0, 0, 0, 29295
-8074.48, 296315, -307.038, 1.24197, -973.74, 0.305378, 0.57152, 0.993198, 0.349787, 0.651995, 3, 91, 246, 45.0924, 0.247779, 0, 0, 1, 0, 29295
-10856.5, 210338, -97.8428, 1.57551, -1095.77, -0.00817069, 0.348715, 1.03299, 0.34851, 0.655882, 0.0001, 45.5, 246, 28.8247, 0.108553, 0, 0, 1, 0, 29305
-10856.5, 210338, -97.8428, 1.57551, -1095.77, -0.00817069, 0.348715, 1.03299, 0.34851, 0.655882, 3, 45.5, 246, 28.8247, 0.108553, 0, 0, 1, 0, 29305
-9453.69, 231380, -119.419, 1.66446, -1099.96, 0.00334938, 0.324906, 0.993198, 0.349787, 0.651995, 0.0001, 91, 246, 28.8247, 0.108553, 0, 0, 1, 0, 29305
-9453.69, 231380, -119.419, 1.66446, -1099.96, 0.00334938, 0.324906, 0.993198, 0.349787, 0.651995, 3, 91, 246, 28.8247, 0.108553, 0, 0, 1, 0, 29305
-10516.9, 138578, -1.16098, 1.37444, -1084.85, -0.0086497, 0.31628, 1.03299, 0.34851, 0.655882, 0.0001, 45.5, 246, 15.113, 0.0278364, 0, 0, 1, 0, 29308
-10516.9, 138578, -1.16098, 1.37444, -1084.85, -0.0086497, 0.31628, 1.03299, 0.34851, 0.655882, 3, 45.5, 246, 15.113, 0.0278364, 0, 0, 1, 0, 29308
-5955.62, -58501.5, 3.05025, 3.5308, -928.923, 0.44296, 0.208408, 1.03299, 0.34851, 0.655882, 0.0001, 45.5, 246, 17.1328, 0.0314552, 1.47048, 1, 1, 0, 29312
-5955.62, -58501.5, 3.05025, 3.5308, -928.923, 0.44296, 0.208408, 1.03299, 0.34851, 0.655882, 3, 45.5, 246, 17.1328, 0.0314552, 1.33253, 1, 1, 0, 29312
-11713, 207512, -74.4607, 1.667, -756.383, 0.0347467, 0.322766, 1.03299, 0.34851, 0.655882, 3, 45.5, 246, 21.7814, 0.081818, 0, 0, 1, 0, 29313
-6281.23, -9382.29, -46.0174, 3.34173, -741.764, -0.0304911, 0.207382, 1.03299, 0.34851, 0.655882, 0.0001, 45.5, 246, 28.504, 0.00588758, 0, 0, 1, 1, 29315
-6281.23, -9382.29, -46.0174, 3.34173, -741.764, -0.0304911, 0.207382, 1.03299, 0.34851, 0.655882, 3, 45.5, 246, 28.504, 0.00588758, 0, 0, 1, 1, 29315
-9703.68, 99919.2, -49.7139, 2.13851, -1121.61, 0.0341523, 0.300629, 1.03299, 0.34851, 0.655882, 0.0001, 45.5, 246, 24.8759, 0.0947824, 0, 0, 1, 0, 29318
-9703.68, 99919.2, -49.7139, 2.13851, -1121.61, 0.0341523, 0.300629, 1.03299, 0.34851, 0.655882, 3, 45.5, 246, 24.8759, 0.0947824, 0, 0, 1, 0, 29318
-10393, 383111, -267.459, 0.666656, -746.129, 0.452473, 0.503883, 1.03299, 0.34851, 0.655882, 0.0001, 45.5, 246, 34.1001, 0.1688, 0, 0, 0, 0, 29319
-10393, 383111, -267.459, 0.666656, -746.129, 0.452473, 0.503883, 1.03299, 0.34851, 0.655882, 3, 45.5, 246, 34.1001, 0.1688, 0, 0, 0, 0, 29319
-8758.71, 259468, -186.482, 1.35213, -1056.88, 0.916468, 0.390632, 0.993198, 0.349787, 0.651995, 0.0001, 91, 246, 33.4858, 0.153846, 0, 0, 1, 0, 29323
-3823.68, 383444, -465.626, 3.77174, -1128.95, 0.654917, 0.480115, 0.958125, 0.351078, 0.648177, 0.0001, 182, 246, 45.1043, 0.197741, 1.29895, 1, 0, 0, 29324
-3823.68, 383444, -465.626, 3.77174, -1128.95, 0.654917, 0.480115, 0.958125, 0.351078, 0.648177, 3, 182, 246, 45.1043, 0.197741, 1.71107, 1, 0, 0, 29324
-10315.1, 216830, -218.171, 2.11603, -1020.27, 0.0211036, 0.440117, 1.03299, 0.34851, 0.655882, 0.0001, 45.5, 246, 43.2695, 0.208819, 0, 0, 0, 0, 29332
-10315.1, 216830, -218.171, 2.11603, -1020.27, 0.0211036, 0.440117, 1.03299, 0.34851, 0.655882, 3, 45.5, 246, 43.2695, 0.208819, 0, 0, 0, 0, 29332
317.428, 289022, -357.108, 2.6908, -1113.6, 0.106712, 0.453126, 0.9175, 0.352806, 0.64323, 3, 455, 246, 43.2695, 0.208819, 0, 0, 0, 0, 29332
-4047.07, 58313.7, -172.094, 3.05476, -703.546, 0.500783, 0.25182, 1.03299, 0.34851, 0.655882, 0.0001, 45.5, 246, 51.265, 0.154448, 1.34495, 1, 1, 0, 29338
-4047.07, 58313.7, -172.094, 3.05476, -703.546, 0.500783, 0.25182, 1.03299, 0.34851, 0.655882, 3, 45.5, 246, 51.265, 0.154448, 1.185, 1, 1, 0, 29338
-2908.09, 70260.1, -208.505, 3.40918, -783.66, 0.593567, 0.25666, 0.993198, 0.349787, 0.651995, 0.0001, 91, 246, 51.265, 0.154448, 1.38813, 1, 1, 0, 29338
-2908.09, 70260.1, -208.505, 3.40918, -783.66, 0.593567, 0.25666, 0.993198, 0.349787, 0.651995, 3, 91, 246, 51.265, 0.154448, 1.23999, 1, 1, 0, 29338
-1250.34, 86002.7, -255.056, 3.8472, -892.013, 0.718701, 0.280951, 0.958125, 0.351078, 0.648177, 0.0001, 182, 246, 51.265, 0.154448, 1.67058, 1, 1, 0, 29338
-1250.34, 86002.7, -255.056, 3.8472, -892.013, 0.718701, 0.280951, 0.958125, 0.351078, 0.648177, 3, 182, 246, 51.265, 0.154448, 1.53682, 1, 1, 0, 29338
2239.33, 116831, -341.417, 4.63043, -1108.95, 0.968058, 0.35169, 0.9175, 0.352806, 0.64323, 0.0001, 455, 246, 51.265, 0.154448, 5.36191, 1, 0, 0, 29338
2239.33, 116831, -341.417, 4.63043, -1108.95, 0.968058, 0.35169, 0.9175, 0.352806, 0.64323, 3, 455, 246, 51.265, 0.154448, 5.37595, 1, 0, 0, 29338
-10187.6, 409868, -367.484, 0.338988, -658.31, 0.0765519, 0.667324, 1.03299, 0.34851, 0.655882, 0.0001, 45.5, 246, 40.4588, 0.238326, 0, 0, 0, 0, 29340
-10187.6, 409868, -367.484, 0.338988, -658.31, 0.0765519, 0.667324, 1.03299, 0.34851, 0.655882, 3, 45.5, 246, 40.4588, 0.238326, 0, 0, 0, 0, 29340
-6859.7, 434204, -402.83, 0.370623, -682.035, 0.0795824, 0.66045, 0.958125, 0.351078, 0.648177, 0.0001, 182, 246, 40.4588, 0.238326, 0, 0, 0, 0, 29340
-8987.77, 398181, -359.43, 0.430285, -931.84, 0.135422, 0.663494, 1.03299, 0.34851, 0.655882, 0.0001, 45.5, 246, 44.6547, 0.239848, 0, 0, 0, 0, 29345
-10709, 169655, -90.8722, 1.87105, -924.514, -0.00962154, 0.329788, 1.03299, 0.34851, 0.655882, 0.0001, 45.5, 246, 27.3169, 0.111882, 0, 0, 1, 0, 29347
-10709, 169655, -90.8722, 1.87105, -924.514, -0.00962154, 0.329788, 1.03299, 0.34851, 0.655882, 3, 45.5, 246, 27.3169, 0.111882, 0, 0, 1, 0, 29347
-9382.61, 184559, -112.654, 1.98662, -929.442, 0.00670694, 0.30958, 0.993198, 0.349787, 0.651995, 0.0001, 91, 246, 27.3169, 0.111882, 0, 0, 1, 0, 29347
-9382.61, 184559, -112.654, 1.98662, -929.442, 0.00670694, 0.30958, 0.993198, 0.349787, 0.651995, 3, 91, 246, 27.3169, 0.111882, 0, 0, 1, 0, 29347
-3439.03, 352822, -467.724, 3.53499, -1017.89, 0.525452, 0.520983, 0.958125, 0.351078, 0.648177, 0.0001, 182, 246, 46.6773, 0.217322, 2.02966, 1, 0, 0, 29362
-3439.03, 352822, -467.724, 3.53499, -1017.89, 0.525452, 0.520983, 0.958125, 0.351078, 0.648177, 3, 182, 246, 46.6773, 0.217322, 1.95204, 1, 0, 0, 29362
-9566.78, 926291, -149.639, 0.279037, -1147.16, 0.174841, 0.362228, 1.03299, 0.34851, 0.655882, 0.0001, 45.5, 246, 30.9925, 0.0402453, 0, 0, 0, 0, 29368
-9566.78, 926291, -149.639, 0.279037, -1147.16, 0.174841, 0.362228, 1.03299, 0.34851, 0.655882, 3, 45.5, 246, 30.9925, 0.0402453, 0, 0, 0, 0, 29368
-8740.69, 46430.8, -30.7881, 0.916246, -678.935, -0.00353576, 0.346202, 1.03299, 0.34851, 0.655882, 3, 45.5, 246, 19.7881, 0.125555, 0, 0, 1, 0, 29372
-6747.17, 149345, -144.651, 3.36668, -1078.88, 0.427617, 0.259046, 0.958125, 0.351078, 0.648177, 3, 182, 246, 27.2814, 0.0983987, 0, 0, 1, 0, 29374
-7565.93, 727393, -466.338, 0.0325937, -849.127, 0.0140271, 0.629745, 1.03299, 0.34851, 0.655882, 3, 45.5, 246, 38.3918, 0.168402, 0, 0, 0, 0, 29375
-1003.35, 173271, -302.599, 3.17535, -900.829, 0.517622, 0.393284, 0.9175, 0.352806, 0.64323, 0.0001, 455, 246, 42.9092, 0.208071, 1.40704, 1, 0, 0, 29378
-1003.35, 173271, -302.599, 3.17535, -900.829, 0.517622, 0.393284, 0.9175, 0.352806, 0.64323, 3, 455, 246, 42.9092, 0.208071, 1.4077, 1, 0, 0, 29378
-7650.63, 69108.9, -100.464, 3.44838, -853.374, -0.049746, 0.197908, 1.03299, 0.34851, 0.655882, 0.0001, 45.5, 246, 33.4772, 0.108764, 0, 0, 1, 0, 29381
-7650.63, 69108.9, -100.464, 3.44838, -853.374, -0.049746, 0.197908, 1.03299, 0.34851, 0.655882, 3, 45.5, 246, 33.4772, 0.108764, 0, 0, 1, 0, 29381
-6499.32, 81705.3, -137.757, 3.7547, -861.658, 0.00721103, 0.210881, 0.993198, 0.349787, 0.651995, 0.0001, 91, 246, 33.4772, 0.108764, 0, 0, 1, 0, 29381
-1706.51, 116242, -257.589, 4.73921, -942.372, 0.192496, 0.321087, 0.9175, 0.352806, 0.64323, 0.0001, 455, 246, 33.4772, 0.108764, 1.09449, 1, 1, 0, 29381
-1706.51, 116242, -257.589, 4.73921, -942.372, 0.192496, 0.321087, 0.9175, 0.352806, 0.64323, 3, 455, 246, 33.4772, 0.108764, 1.08648, 1, 1, 0, 29381
-10379.3, 285022, -205.033, 1.16531, -948.266, 0.0254681, 0.458634, 1.03299, 0.34851, 0.655882, 0.0001, 45.5, 246, 36.7153, 0.176461, 0, 0, 0, 0, 29382
-10379.3, 285022, -205.033, 1.16531, -948.266, 0.0254681, 0.458634, 1.03299, 0.34851, 0.655882, 3, 45.5, 246, 36.7153, 0.176461, 0, 0, 0, 0, 29382
-8713.7, 302047, -225.936, 1.2276, -959.367, 0.0318812, 0.43817, 0.993198, 0.349787, 0.651995, 3, 91, 246, 36.7153, 0.176461, 0, 0, 1, 0, 29382
449.225, 272726, -335.454, 4.72132, -1056.21, 1.52371, 0.359802, 0.9175, 0.352806, 0.64323, 3, 455, 246, 30.5586, 0.128394, 1.0683, 1, 0, 0, 29389
-8702.45, 160353, -122.627, 0.700995, -1118.31, -0.00203563, 0.428114, 1.03299, 0.34851, 0.655882, 0.0001, 45.5, 246, 34.6884, 0.196021, 0, 0, 1, 0, 29390
-8702.45, 160353, -122.627, 0.700995, -1118.31, -0.00203563, 0.428114, 1.03299, 0.34851, 0.655882, 3, 45.5, 246, 34.6884, 0.196021, 0, 0, 1, 0, 29390
-11090.4, 279281, -200.248, 1.07206, -641.961, 0.753059, 0.436657, 1.03299, 0.34851, 0.655882, 3, 45.5, 246, 30.5976, 0.154882, 0, 0, 1, 0, 29396
-10347.3, 367095, -343.227, 0.543103, -705.13, 0.26125, 0.644163, 1.03299, 0.34851, 0.655882, 0.0001, 45.5, 246, 41.2944, 0.239275, 0, 0, 0, 0, 29401
-10347.3, 367095, -343.227, 0.543103, -705.13, 0.26125, 0.644163, 1.03299, 0.34851, 0.655882, 3, 45.5, 246, 41.2944, 0.239275, 0, 0, 0, 0, 29401
-8663.15, 383647, -362.45, 0.575837, -740.882, 0.273932, 0.636607, 0.993198, 0.349787, 0.651995, 3, 91, 246, 41.2944, 0.239275, 0, 0, 1, 0, 29401
-9726.25, 76523.5, 11.0089, 1.60159, -895.273, -0.0107954, 0.307613, 1.03299, 0.34851, 0.655882, 0.0001, 45.5, 246, 9.38947, 0.0194366, 0, 0, 1, 0, 29409
-9726.25, 76523.5, 11.0089, 1.60159, -895.273, -0.0107954, 0.307613, 1.03299, 0.34851, 0.655882, 3, 45.5, 246, 9.38947, 0.0194366, 0, 0, 1, 0, 29409
-13361.5, 176442, -56.4857, 3.09566, -1067.67, 0.0510648, 0.207185, 1.03299, 0.34851, 0.655882, 0.0001, 45.5, 246, 25.1035, 0.073006, 0, 0, 0, 0, 29412
-13361.5, 176442, -56.4857, 3.09566, -1067.67, 0.0510648, 0.207185, 1.03299, 0.34851, 0.655882, 3, 45.5, 246, 25.1035, 0.073006, 0, 0, 0, 0, 29412
-10208.5, 270540, -369.092, 3.84514, -621.154, 0.0387389, 0.364987, 0.993198, 0.349787, 0.651995, 0.0001, 91, 246, 43.1721, 0.198054, 1.13698, 1, 1, 0, 29414
-10208.5, 270540, -369.092, 3.84514, -621.154, 0.0387389, 0.364987, 0.993198, 0.349787, 0.651995, 3, 91, 246, 43.1721, 0.198054, 1.00778, 1, 1, 0, 29414
-4107.53, 281200, -430.722, 4.25349, -671.23, 0.111454, 0.411372, 0.958125, 0.351078, 0.648177, 0.0001, 182, 246, 43.1721, 0.198054, 2.09484, 1, 0, 0, 29414
-4107.53, 281200, -430.722, 4.25349, -671.23, 0.111454, 0.411372, 0.958125, 0.351078, 0.648177, 3, 182, 246, 43.1721, 0.198054, 1.93851, 1, 0, 0, 29414
-10267.2, 276291, -43.2174, 2.32131, -771.159, 0.416958, 0.24259, 0.958125, 0.351078, 0.648177, 3, 182, 246, 13.6786, 0.0230038, 0, 0, 1, 0, 29416
-16332.8, 200634, -4.92014, 3.3615, -779.809, 0.167124, 0.147651, 1.03299, 0.34851, 0.655882, 0.0001, 45.5, 246, 15.1504, 0.0273745, 0, 0, 0, 0, 29420
-16332.8, 200634, -4.92014, 3.3615, -779.809, 0.167124, 0.147651, 1.03299, 0.34851, 0.655882, 3, 45.5, 246, 15.1504, 0.0273745, 0, 0, 0, 0, 29420
-7341.98, 670881, -362.729, 0.0796731, -815.571, 0.307055, 0.520804, 1.03299, 0.34851, 0.655882, 0.0001, 45.5, 246, 33.3921, 0.133943, 0, 0, 0, 0, 29426
-7341.98, 670881, -362.729, 0.0796731, -815.571, 0.307055, 0.520804, 1.03299, 0.34851, 0.655882, 3, 45.5, 246, 33.3921, 0.133943, 0, 0, 0, 0, 29426
-6111.28, 696886, -375.366, 0.083691, -857.977, 0.322744, 0.499399, 0.993198, 0.349787, 0.651995, 3, 91, 246, 33.3921, 0.133943, 0, 0, 1, 0, 29426
-10465.1, 237074, -231.715, 1.28449, -674.869, 0.367912, 0.497294, 1.03299, 0.34851, 0.655882, 0.0001, 45.5, 246, 38.6321, 0.217288, 0, 0, 1, 0, 29429
-10465.1, 237074, -231.715, 1.28449, -674.869, 0.367912, 0.497294, 1.03299, 0.34851, 0.655882, 3, 45.5, 246, 38.6321, 0.217288, 0, 0, 1, 0, 29429
-6788.26, 268142, -276.727, 1.49215, -785.485, 0.435428, 0.4725, 0.958125, 0.351078, 0.648177, 0.0001, 182, 246, 38.6321, 0.217288, 0, 0, 1, 0, 29429
-8734.77, 398858, -139.112, 0.628621, -1133.81, 0.614724, 0.345034, 0.993198, 0.349787, 0.651995, 0.0001, 91, 246, 27.8765, 0.082562, 0, 0, 1, 0, 29431
-7556.13, 438460, -151.167, 0.67431, -1258.6, 0.682926, 0.317667, 0.958125, 0.351078, 0.648177, 0.0001, 182, 246, 27.8765, 0.082562, 0, 0, 1, 0, 29431
-11186.3, 286743, -86.814, 1.03611, -883.073, -0.00459937, 0.351575, 1.03299, 0.34851, 0.655882, 0.0001, 45.5, 246, 23.3749, 0.0772491, 0, 0, 1, 0, 29442
-11186.3, 286743, -86.814, 1.03611, -883.073, -0.00459937, 0.351575, 1.03299, 0.34851, 0.655882, 3, 45.5, 246, 23.3749, 0.0772491, 0, 0, 1, 0, 29442
-10027.3, 300388, -99.2429, 1.08391, -885.366, 0.000334323, 0.321162, 0.993198, 0.349787, 0.651995, 0.0001, 91, 246, 23.3749, 0.0772491, 0, 0, 1, 0, 29442
-10027.3, 300388, -99.2429, 1.08391, -885.366, 0.000334323, 0.321162, 0.993198, 0.349787, 0.651995, 3, 91, 246, 23.3749, 0.0772491, 0, 0, 1, 0, 29442
-3588.55, 93423.6, -208.665, 2.9557, -925.807, 0.0551023, 0.323198, 0.958125, 0.351078, 0.648177, 0.0001, 182, 246, 49.364, 0.209481, 1.0471, 1, 1, 0, 29444
-1114.86, 115904, -267.241, 3.29422, -968.002, 0.113108, 0.34892, 0.9175, 0.352806, 0.64323, 0.0001, 455, 246, 49.364, 0.209481, 1.83624, 1, 0, 0, 29444
-1114.86, 115904, -267.241, 3.29422, -968.002, 0.113108, 0.34892, 0.9175, 0.352806, 0.64323, 3, 455, 246, 49.364, 0.209481, 1.80579, 1, 0, 0, 29444
-9178.06, 96392.9, -102.519, 3.01062, -636.724, 0.00828196, 0.236921, 1.03299, 0.34851, 0.655882, 0.0001, 45.5, 246, 29.1626, 0.10873, 0, 0, 1, 0, 29448
-9178.06, 96392.9, -102.519, 3.01062, -636.724, 0.00828196, 0.236921, 1.03299, 0.34851, 0.655882, 3, 45.5, 246, 29.1626, 0.10873, 0, 0, 1, 0, 29448
-6257.44, 111564, -160.936, 3.55692, -670.261, 0.103497, 0.254525, 0.958125, 0.351078, 0.648177, 0.0001, 182, 246, 29.1626, 0.10873, 0, 0, 1, 0, 29448
-6257.44, 111564, -160.936, 3.55692, -670.261, 0.103497, 0.254525, 0.958125, 0.351078, 0.648177, 3, 182, 246, 29.1626, 0.10873, 0, 0, 1, 0, 29448
-7666.81, 475080, -525.271, 4.11962, -858.326, 0.0701573, 0.481159, 0.958125, 0.351078, 0.648177, 3, 182, 246, 42.7259, 0.186743, 0, 0, 0, 0, 29451
-4047.83, 90967.4, -227.472, 2.62757, -668.942, 0.78724, 0.354731, 1.03299, 0.34851, 0.655882, 0.0001, 45.5, 246, 56.4772, 0.235935, 1.53723, 1, 1, 0, 29452
-4047.83, 90967.4, -227.472, 2.62757, -668.942, 0.78724, 0.354731, 1.03299, 0.34851, 0.655882, 3, 45.5, 246, 56.4772, 0.235935, 1.40212, 1, 1, 0, 29452
-2408.56, 105522, -263.885, 2.96642, -785.442, 0.938273, 0.354865, 0.993198, 0.349787, 0.651995, 0.0001, 91, 246, 56.4772, 0.235935, 1.66263, 1, 1, 0, 29452
-2408.56, 105522, -263.885, 2.96642, -785.442, 0.938273, 0.354865, 0.993198, 0.349787, 0.651995, 3, 91, 246, 56.4772, 0.235935, 1.5322, 1, 1, 0, 29452
-112.211, 126345, -311.245, 3.39813, -951.632, 1.15376, 0.371981, 0.958125, 0.351078, 0.648177, 0.0001, 182, 246, 56.4772, 0.235935, 2.33165, 1, 1, 1, 29452
-112.211, 126345, -311.245, 3.39813, -951.632, 1.15376, 0.371981, 0.958125, 0.351078, 0.648177, 3, 182, 246, 56.4772, 0.235935, 2.1933, 1, 1, 1, 29452
-12739.7, 185613, -95.3746, 3.01345, -1111.28, 0.0119785, 0.238501, 1.03299, 0.34851, 0.655882, 0.0001, 45.5, 246, 30.1519, 0.100948, 0, 0, 0, 0, 29454
-12739.7, 185613, -95.3746, 3.01345, -1111.28, 0.0119785, 0.238501, 1.03299, 0.34851, 0.655882, 3, 45.5, 246, 30.1519, 0.100948, 0, 0, 0, 0, 29454
-10192.8, 207504, -135.259, 3.26723, -1126.64, 0.0554054, 0.239932, 0.993198, 0.349787, 0.651995, 0.0001, 91, 246, 30.1519, 0.100948, 0, 0, 1, 0, 29454
-10192.8, 207504, -135.259, 3.26723, -1126.64, 0.0554054, 0.239932, 0.993198, 0.349787, 0.651995, 3, 91, 246, 30.1519, 0.100948, 0, 0, 1, 0, 29454
-10558.2, 460263, -268.817, 0.811147, -1025.02, 0.0153059, 0.486549, 1.03299, 0.34851, 0.655882, 0.0001, 45.5, 246, 37.1369, 0.150541, 0, 0, 0, 0, 29455
-10558.2, 460263, -268.817, 0.811147, -1025.02, 0.0153059, 0.486549, 1.03299, 0.34851, 0.655882, 3, 45.5, 246, 37.1369, 0.150541, 0, 0, 0, 0, 29455
-10852.4, 116547, -3.58684, 2.11416, -1165.7, -0.00440645, 0.281446, 1.03299, 0.34851, 0.655882, 0.0001, 45.5, 246, 17.4834, 0.043085, 0, 0, 1, 0, 29457
-10852.4, 116547, -3.58684, 2.11416, -1165.7, -0.00440645, 0.281446, 1.03299, 0.34851, 0.655882, 3, 45.5, 246, 17.4834, 0.043085, 0, 0, 1, 0, 29457
-5752.87, 141181, -289.215, 3.18496, -652.011, 0.119104, 0.372383, 1.03299, 0.34851, 0.655882, 0.0001, 45.5, 246, 55.4886, 0.245056, 1.52666, 1, 1, 0, 29460
-5752.87, 141181, -289.215, 3.18496, -652.011, 0.119104, 0.372383, 1.03299, 0.34851, 0.655882, 3, 45.5, 246, 55.4886, 0.245056, 1.45191, 1, 1, 0, 29460
-2875.47, 151689, -335.865, 3.49869, -694.81, 0.171358, 0.389124, 0.993198, 0.349787, 0.651995, 0.0001, 91, 246, 55.4886, 0.245056, 1.82558, 1, 1, 0, 29460
-2875.47, 151689, -335.865, 3.49869, -694.81, 0.171358, 0.389124, 0.993198, 0.349787, 0.651995, 3, 91, 246, 55.4886, 0.245056, 1.72625, 1, 1, 0, 29460
808.809, 164803, -392.367, 3.87393, -753.286, 0.237433, 0.424618, 0.958125, 0.351078, 0.648177, 0.0001, 182, 246, 55.4886, 0.245056, 3.46949, 1, 0, 0, 29460
808.809, 164803, -392.367, 3.87393, -753.286, 0.237433, 0.424618, 0.958125, 0.351078, 0.648177, 3, 182, 246, 55.4886, 0.245056, 3.2434, 1, 0, 0, 29460
-2633.63, 145554, -238.005, 3.62432, -1556.65, 0.937649, 0.323781, 0.9175, 0.352806, 0.64323, 0.0001, 455, 246, 39.4604, 0.149441, 1.10397, 1, 0, 0, 29464
-2633.63, 145554, -238.005, 3.62432, -1556.65, 0.937649, 0.323781, 0.9175, 0.352806, 0.64323, 3, 455, 246, 39.4604, 0.149441, 1.1048, 1, 0, 0, 29464
-10718.5, 396814, -188.905, 0.761938, -875.393, 0.559637, 0.412579, 1.03299, 0.34851, 0.655882, 0.0001, 45.5, 246, 29.6912, 0.111881, 0, 0, 0, 0, 29470
-10718.5, 396814, -188.905, 0.761938, -875.393, 0.559637, 0.412579, 1.03299, 0.34851, 0.655882, 3, 45.5, 246, 29.6912, 0.111881, 0, 0, 0, 0, 29470
-7412.32, 458883, -219.746, 0.883473, -1074.3, 0.687109, 0.361409, 0.958125, 0.351078, 0.648177, 3, 182, 246, 29.6912, 0.111881, 0, 0, 0, 0, 29470
-13082.8, 144983, -35.4457, 3.5351, -827.873, -0.0526782, 0.146853, 1.03299, 0.34851, 0.655882, 0.0001, 45.5, 246, 19.4608, 0.0535302, 0, 0, 0, 0, 29471
-13082.8, 144983, -35.4457, 3.5351, -827.873, -0.0526782, 0.146853, 1.03299, 0.34851, 0.655882, 3, 45.5, 246, 19.4608, 0.0535302, 0, 0, 0, 0, 29471
-8703.39, 61097.2, -3.87521, 3.96764, -927.399, 0.912074, 0.158714, 0.993198, 0.349787, 0.651995, 3, 91, 246, 10.3925, 0.0273695, 0, 0, 1, 0, 29475
-7530.73, 82117.2, -43.8101, 4.60821, -1093.6, 1.15987, 0.200691, 0.958125, 0.351078, 0.648177, 0.0001, 182, 246, 10.3925, 0.0273695, 0, 0, 1, 0, 29475
-7530.73, 82117.2, -43.8101, 4.60821, -1093.6, 1.15987, 0.200691, 0.958125, 0.351078, 0.648177, 3, 182, 246, 10.3925, 0.0273695, 0, 0, 1, 0, 29475
-4476.03, 129393, -133.267, 5.89694, -1487.53, 1.74177, 0.320994, 0.9175, 0.352806, 0.64323, 0.0001, 455, 246, 10.3925, 0.0273695, 0, 0, 0, 0, 29475
-4476.03, 129393, -133.267, 5.89694, -1487.53, 1.74177, 0.320994, 0.9175, 0.352806, 0.64323, 3, 455, 246, 10.3925, 0.0273695, 0, 0, 0, 0, 29475
-8888.37, 72859.8, -54.0143, 1.75216, -982.966, 0.151735, 0.326933, 1.03299, 0.34851, 0.655882, 0.0001, 45.5, 246, 25.7941, 0.117998, 0, 0, 1, 0, 29479
-8888.37, 72859.8, -54.0143, 1.75216, -982.966, 0.151735, 0.326933, 1.03299, 0.34851, 0.655882, 3, 45.5, 246, 25.7941, 0.117998, 0, 0, 1, 0, 29479
-7241.65, 104309, -161.505, 3.09753, -972.746, 0.0457997, 0.284517, 1.03299, 0.34851, 0.655882, 3, 45.5, 246, 43.7085, 0.176983, 0, 0, 1, 0, 29482
-3103.74, 141660, -255.726, 3.70056, -1039.66, 0.149605, 0.315391, 0.958125, 0.351078, 0.648177, 0.0001, 182, 246, 43.7085, 0.176983, 1.12988, 1, 1, 0, 29482
-8122.8, 78082.3, -96.8071, 2.17964, -887.575, -0.0179334, 0.326265, 1.03299, 0.34851, 0.655882, 3, 45.5, 246, 35.0865, 0.161171, 0, 0, 1, 0, 29484
-7174.06, 109046, -197.204, 3.28733, -654.717, 0.736165, 0.237801, 1.03299, 0.34851, 0.655882, 0.0001, 45.5, 246, 42.2727, 0.155702, 1.15902, 1, 0, 0, 29490
-5129.37, 123236, -237.543, 3.73754, -765.523, 0.894297, 0.250201, 0.993198, 0.349787, 0.651995, 0.0001, 91, 246, 42.2727, 0.155702, 1.14024, 1, 1, 0, 29490
-2259.9, 143668, -291.91, 4.32598, -927.002, 1.12448, 0.287849, 0.958125, 0.351078, 0.648177, 0.0001, 182, 246, 42.2727, 0.155702, 1.48576, 1, 1, 0, 29490
-2259.9, 143668, -291.91, 4.32598, -927.002, 1.12448, 0.287849, 0.958125, 0.351078, 0.648177, 3, 182, 246, 42.2727, 0.155702, 1.34488, 1, 1, 0, 29490
-3607.15, 321120, -412.76, 4.22673, -1031.88, 0.135141, 0.390445, 0.958125, 0.351078, 0.648177, 0.0001, 182, 246, 44.2334, 0.183167, 2.20056, 1, 0, 0, 29496
-3607.15, 321120, -412.76, 4.22673, -1031.88, 0.135141, 0.390445, 0.958125, 0.351078, 0.648177, 3, 182, 246, 44.2334, 0.183167, 2.06078, 1, 0, 0, 29496
-10009, 94461.2, -45.559, 2.47872, -850.235, 0.76227, 0.25982, 1.03299, 0.34851, 0.655882, 0.0001, 45.5, 246, 21.6714, 0.0732332, 0, 0, 1, 0, 29499
-10009, 94461.2, -45.559, 2.47872, -850.235, 0.76227, 0.25982, 1.03299, 0.34851, 0.655882, 3, 45.5, 246, 21.6714, 0.0732332, 0, 0, 1, 0, 29499
