-12214.4, 549459, -45.0761, 0.520596, -668.732, 0.0218694, 0.339932, 1.03299, 0.34851, 0.655882, 3, 45.5, 246, 16.0965, 0.0226006, 0, 0, 1, 0, 85002
-10083.9, 566548, -54.868, 0.558993, -675.08, 0.0246006, 0.274252, 0.958125, 0.351078, 0.648177, 0.0001, 182, 246, 16.0965, 0.0226006, 0, 0, 1, 0, 85002
-11113.9, 97720, 0.487221, 3.17761, -1074.27, -0.0318519, 0.192139, 1.03299, 0.34851, 0.655882, 0.0001, 45.5, 246, 17.3946, 0.0449433, 0, 0, 0, 0, 85004
-11113.9, 97720, 0.487221, 3.17761, -1074.27, -0.0318519, 0.192139, 1.03299, 0.34851, 0.655882, 3, 45.5, 246, 17.3946, 0.0449433, 0, 0, 0, 0, 85004
-9788.44, 117299, -31.9212, 3.44385, -1074.19, 0.0162336, 0.195744, 0.993198, 0.349787, 0.651995, 0.0001, 91, 246, 17.3946, 0.0449433, 0, 0, 1, 0, 85004
-9788.44, 117299, -31.9212, 3.44385, -1074.19, 0.0162336, 0.195744, 0.993198, 0.349787, 0.651995, 3, 91, 246, 17.3946, 0.0449433, 0, 0, 1, 0, 85004
-4741.07, 360390, -440.034, 4.18895, -1058.6, 1.12642, 0.410498, 0.958125, 0.351078, 0.648177, 0.0001, 182, 246, 40.8694, 0.176452, 1.54017, 1, 0, 0, 85005
-4741.07, 360390, -440.034, 4.18895, -1058.6, 1.12642, 0.410498, 0.958125, 0.351078, 0.648177, 3, 182, 246, 40.8694, 0.176452, 1.4896, 1, 0, 0, 85005
-9874.17, 567672, -303.169, 0.418515, -809.431, 0.122644, 0.494515, 1.03299, 0.34851, 0.655882, 0.0001, 45.5, 246, 32.831, 0.136847, 0, 0, 0, 0, 85013
-9874.17, 567672, -303.169, 0.418515, -809.431, 0.122644, 0.494515, 1.03299, 0.34851, 0.655882, 3, 45.5, 246, 32.831, 0.136847, 0, 0, 0, 0, 85013
-9516.73, 826665, -36.9548, 1.19847, -705.053, 0.01786, 0.231041, 0.9175, 0.352806, 0.64323, 0.0001, 455, 246, 16.4022, 0.0065822, 0, 0, 1, 0, 85015
-19027.3, -189113, -50.0887, 0.338308, -1165.27, -0.000489082, 0.414144, 1.03299, 0.34851, 0.655882, 0.0001, 45.5, 246, -110.236, 0.187416, 0, 0, 1, 0, 85016
-19027.3, -189113, -50.0887, 0.338308, -1165.27, -0.000489082, 0.414144, 1.03299, 0.34851, 0.655882, 3, 45.5, 246, -110.236, 0.187416, 0, 0, 1, 0, 85016
-9372.82, -138359, -6.31235, 0.0211534, -1090.94, 0.0739526, 0.342286, 1.03299, 0.34851, 0.655882, 0.0001, 45.5, 246, -93.4516, 0.0188524, 0, 0, 1, 0, 85020
-9372.82, -138359, -6.31235, 0.0211534, -1090.94, 0.0739526, 0.342286, 1.03299, 0.34851, 0.655882, 3, 45.5, 246, -93.4516, 0.0188524, 0, 0, 1, 0, 85020
-5826.62, 35245.7, -106.307, 3.76687, -1187.51, 0.0007289, 0.221799, 0.993198, 0.349787, 0.651995, 0.0001, 91, 246, 34.4671, 0.08283, 0, 0, 1, 1, 85022
-5826.62, 35245.7, -106.307, 3.76687, -1187.51, 0.0007289, 0.221799, 0.993198, 0.349787, 0.651995, 3, 91, 246, 34.4671, 0.08283, 0, 0, 1, 1, 85022
-2566.54, 97096, -250.191, 4.75749, -1271.53, 0.186912, 0.334921, 0.9175, 0.352806, 0.64323, 0.0001, 455, 246, 34.4671, 0.08283, 1.2199, 1, 1, 0, 85022
-2566.54, 97096, -250.191, 4.75749, -1271.53, 0.186912, 0.334921, 0.9175, 0.352806, 0.64323, 3, 455, 246, 34.4671, 0.08283, 1.19534, 1, 1, 0, 85022
-10211.1, 245793, -257.551, 0.857838, -565.676, 0.836834, 0.54402, 1.03299, 0.34851, 0.655882, 0.0001, 45.5, 246, 37.994, 0.229282, 0, 0, 1, 0, 85025
-8886.05, 265538, -275.059, 0.94337, -658.849, 0.968462, 0.528497, 0.993198, 0.349787, 0.651995, 0.0001, 91, 246, 37.994, 0.229282, 0, 0, 1, 0, 85025
-10923.9, 226668, -152.572, 1.82905, -1113.39, -0.00335988, 0.381172, 1.03299, 0.34851, 0.655882, 0.0001, 45.5, 246, 35.4104, 0.149819, 0, 0, 0, 0, 85028
-10923.9, 226668, -152.572, 1.82905, -1113.39, -0.00335988, 0.381172, 1.03299, 0.34851, 0.655882, 3, 45.5, 246, 35.4104, 0.149819, 0, 0, 0, 0, 85028
-11591.9, 358216, -174.716, 1.06472, -870.504, -0.00455486, 0.40632, 1.03299, 0.34851, 0.655882, 0.0001, 45.5, 246, 30.1527, 0.122799, 0, 0, 0, 0, 85030
-11591.9, 358216, -174.716, 1.06472, -870.504, -0.00455486, 0.40632, 1.03299, 0.34851, 0.655882, 3, 45.5, 246, 30.1527, 0.122799, 0, 0, 0, 0, 85030
-7825.92, 386093, -209.698, 1.16851, -882.013, 0.00639549, 0.359551, 0.958125, 0.351078, 0.648177, 3, 182, 246, 30.1527, 0.122799, 0, 0, 1, 0, 85030
-12077.1, 803992, -27.4519, 0.315241, -997.649, 0.312854, 0.339674, 1.03299, 0.34851, 0.655882, 0.0001, 45.5, 246, 23.2567, 0.00940665, 0, 0, 1, 0, 85033
-12077.1, 803992, -27.4519, 0.315241, -997.649, 0.312854, 0.339674, 1.03299, 0.34851, 0.655882, 3, 45.5, 246, 23.2567, 0.00940665, 0, 0, 1, 0, 85033
-14745.1, 291861, -193.393, 2.49293, -966.714, 0.294358, 0.339773, 1.03299, 0.34851, 0.655882, 0.0001, 45.5, 246, 35.3116, 0.137575, 0, 0, 0, 0, 85036
-14745.1, 291861, -193.393, 2.49293, -966.714, 0.294358, 0.339773, 1.03299, 0.34851, 0.655882, 3, 45.5, 246, 35.3116, 0.137575, 0, 0, 0, 0, 85036
-10052.8, 155663, -76.6873, 1.5593, -1069.26, 0.0502108, 0.34166, 1.03299, 0.34851, 0.655882, 0.0001, 45.5, 246, 26.9446, 0.108359, 0, 0, 1, 0, 85038
-10052.8, 155663, -76.6873, 1.5593, -1069.26, 0.0502108, 0.34166, 1.03299, 0.34851, 0.655882, 3, 45.5, 246, 26.9446, 0.108359, 0, 0, 1, 0, 85038
-4860.9, 329861, -451.276, 3.97087, -772.134, 0.351824, 0.453658, 0.958125, 0.351078, 0.648177, 0.0001, 182, 246, 42.7818, 0.199328, 1.93038, 1, 0, 0, 85040
-4860.9, 329861, -451.276, 3.97087, -772.134, 0.351824, 0.453658, 0.958125, 0.351078, 0.648177, 3, 182, 246, 42.7818, 0.199328, 1.78391, 1, 0, 0, 85040
-11266.9, 371771, -97.6219, 0.881524, -1092.97, 0.000429485, 0.356279, 1.03299, 0.34851, 0.655882, 0.0001, 45.5, 246, 26.6995, 0.0687116, 0, 0, 1, 0, 85041
-11266.9, 371771, -97.6219, 0.881524, -1092.97, 0.000429485, 0.356279, 1.03299, 0.34851, 0.655882, 3, 45.5, 246, 26.6995, 0.0687116, 0, 0, 1, 0, 85041
-10176.2, 537844, -290.713, 0.34371, -623.316, 0.0782008, 0.491225, 1.03299, 0.34851, 0.655882, 0.0001, 45.5, 246, 29.3452, 0.139631, 0, 0, 0, 0, 85043
-10176.2, 537844, -290.713, 0.34371, -623.316, 0.0782008, 0.491225, 1.03299, 0.34851, 0.655882, 3, 45.5, 246, 29.3452, 0.139631, 0, 0, 0, 0, 85043
-8889.58, 601854, -302.731, 0.139011, -608.276, 0.207633, 0.483733, 1.03299, 0.34851, 0.655882, 0.0001, 45.5, 246, 27.9113, 0.126964, 0, 0, 0, 0, 85048
-8889.58, 601854, -302.731, 0.139011, -608.276, 0.207633, 0.483733, 1.03299, 0.34851, 0.655882, 3, 45.5, 246, 27.9113, 0.126964, 0, 0, 0, 0, 85048
-7929.79, 617008, -313.567, 0.145233, -630.088, 0.214769, 0.459013, 0.993198, 0.349787, 0.651995, 0.0001, 91, 246, 27.9113, 0.126964, 0, 0, 1, 0, 85048
-6835.34, 633199, -324.066, 0.151436, -653.495, 0.222413, 0.438431, 0.958125, 0.351078, 0.648177, 0.0001, 182, 246, 27.9113, 0.126964, 0, 0, 1, 0, 85048
-9482.86, 107558, -49.5925, 2.82312, -721.448, 0.965061, 0.236131, 0.993198, 0.349787, 0.651995, 3, 91, 246, 15.9921, 0.0500595, 0, 0, 1, 0, 85051
-6577.55, -49652.5, 5.07981, 3.05314, -559.324, 0.446674, 0.239534, 1.03299, 0.34851, 0.655882, 3, 45.5, 246, 8.69531, 0.0063405, 2.04085, 1, 1, 0, 85053
2569.94, 260004, -406.849, 5.15505, -762.243, 0.335541, 0.388987, 0.9175, 0.352806, 0.64323, 0.0001, 455, 246, 35.2663, 0.147616, 0, 0, 0, 0, 85073
2569.94, 260004, -406.849, 5.15505, -762.243, 0.335541, 0.388987, 0.9175, 0.352806, 0.64323, 3, 455, 246, 35.2663, 0.147616, 0, 0, 0, 0, 85073
-8337.44, 502843, -433.82, 0.390901, -1090.56, 0.173121, 0.707126, 1.03299, 0.34851, 0.655882, 0.0001, 45.5, 246, 47.3068, 0.226029, 0, 0, 0, 0, 85088
-8337.44, 502843, -433.82, 0.390901, -1090.56, 0.173121, 0.707126, 1.03299, 0.34851, 0.655882, 3, 45.5, 246, 47.3068, 0.226029, 0, 0, 0, 0, 85088
-9686.82, 167670, -122.215, 1.60244, -1070.88, -0.00574048, 0.37879, 1.03299, 0.34851, 0.655882, 0.0001, 45.5, 246, 33.6601, 0.156672, 0, 0, 1, 0, 85097
-9686.82, 167670, -122.215, 1.60244, -1070.88, -0.00574048, 0.37879, 1.03299, 0.34851, 0.655882, 3, 45.5, 246, 33.6601, 0.156672, 0, 0, 1, 0, 85097
-3125.59, 271959, -395.583, 3.85639, -952.156, 0.540671, 0.417453, 0.958125, 0.351078, 0.648177, 0.0001, 182, 246, 44.5227, 0.199755, 1.77266, 1, 0, 0, 85099
-3125.59, 271959, -395.583, 3.85639, -952.156, 0.540671, 0.417453, 0.958125, 0.351078, 0.648177, 3, 182, 246, 44.5227, 0.199755, 1.60319, 1, 0, 0, 85099
-8741.87, 52131.3, -3.51592, 0.243461, -969.493, 0.477267, 0.341728, 1.03299, 0.34851, 0.655882, 0.0001, 45.5, 246, 8.36046, 0.0233673, 0, 0, 1, 0, 85104
-8741.87, 52131.3, -3.51592, 0.243461, -969.493, 0.477267, 0.341728, 1.03299, 0.34851, 0.655882, 3, 45.5, 246, 8.36046, 0.0233673, 0, 0, 1, 0, 85104
-8956.39, 91438.7, -68.9642, 1.60525, -1095.97, -0.0120051, 0.346523, 1.03299, 0.34851, 0.655882, 0.0001, 45.5, 246, 28.8314, 0.139078, 0, 0, 1, 0, 85107
-8956.39, 91438.7, -68.9642, 1.60525, -1095.97, -0.0120051, 0.346523, 1.03299, 0.34851, 0.655882, 3, 45.5, 246, 28.8314, 0.139078, 0, 0, 1, 0, 85107
-10885.9, 293483, -277.439, 1.01274, -655.74, -0.00467997, 0.567956, 1.03299, 0.34851, 0.655882, 0.0001, 45.5, 246, 40.2664, 0.236082, 0, 0, 0, 0, 85113
-9127.42, 302352, -298.062, 1.06537, -663.369, 6.00478e-05, 0.556018, 0.993198, 0.349787, 0.651995, 3, 91, 246, 40.2664, 0.236082, 0, 0, 1, 0, 85113
-3003.24, 197605, -316.079, 3.00754, -1012.55, 0.344753, 0.433833, 0.958125, 0.351078, 0.648177, 0.0001, 182, 246, 48.4478, 0.236798, 1.01248, 1, 0, 0, 85114
-11382.2, 249723, -290.288, 1.67832, -592.316, 0.170125, 0.550611, 1.03299, 0.34851, 0.655882, 0.0001, 45.5, 246, 43.4822, 0.247976, 0, 0, 1, 0, 85119
-11382.2, 249723, -290.288, 1.67832, -592.316, 0.170125, 0.550611, 1.03299, 0.34851, 0.655882, 3, 45.5, 246, 43.4822, 0.247976, 0, 0, 0, 0, 85119
-7540.28, 385689, -136.205, 0.120608, -874.015, 0.22498, 0.290652, 0.9175, 0.352806, 0.64323, 0.0001, 455, 246, 23.9113, 0.0931921, 2.29037, 1, 0, 0, 85123
-7540.28, 385689, -136.205, 0.120608, -874.015, 0.22498, 0.290652, 0.9175, 0.352806, 0.64323, 3, 455, 246, 23.9113, 0.0931921, 2.17018, 1, 0, 0, 85123
-13961.4, 261332, -365.1, 3.15571, -575.981, 0.329098, 0.442502, 1.03299, 0.34851, 0.655882, 0.0001, 45.5, 246, 47.085, 0.227062, 1.06989, 1, 0, 0, 85125
-9051.19, 274971, -417.329, 3.51278, -645.172, 0.398586, 0.464765, 0.993198, 0.349787, 0.651995, 0.0001, 91, 246, 47.085, 0.227062, 1.33907, 1, 1, 0, 85125
-9051.19, 274971, -417.329, 3.51278, -645.172, 0.398586, 0.464765, 0.993198, 0.349787, 0.651995, 3, 91, 246, 47.085, 0.227062, 1.23592, 1, 1, 0, 85125
-2819.02, 293077, -482.088, 3.95008, -737.478, 0.490535, 0.507914, 0.958125, 0.351078, 0.648177, 0.0001, 182, 246, 47.085, 0.227062, 4.31827, 1, 0, 0, 85125
-2819.02, 293077, -482.088, 3.95008, -737.478, 0.490535, 0.507914, 0.958125, 0.351078, 0.648177, 3, 182, 246, 47.085, 0.227062, 3.74676, 1, 0, 0, 85125
-11583, 126237, -14.5317, 2.66044, -1136.09, 0.244798, 0.239958, 1.03299, 0.34851, 0.655882, 0.0001, 45.5, 246, 20.166, 0.0524777, 0, 0, 0, 0, 85126
-11583, 126237, -14.5317, 2.66044, -1136.09, 0.244798, 0.239958, 1.03299, 0.34851, 0.655882, 3, 45.5, 246, 20.166, 0.0524777, 0, 0, 0, 0, 85126
1094.02, 354944, -438.509, 3.36619, -751.536, 0.212312, 0.479763, 0.9175, 0.352806, 0.64323, 3, 455, 246, 37.8142, 0.185459, 0, 0, 0, 0, 85130
-10729.8, 178713, -94.1945, 1.46449, -606.85, 0.483913, 0.343734, 1.03299, 0.34851, 0.655882, 0.0001, 45.5, 246, 22.9589, 0.105005, 0, 0, 1, 0, 85131
-9676.01, 190614, -108.05, 1.5865, -661.861, 0.535037, 0.318201, 0.993198, 0.349787, 0.651995, 0.0001, 91, 246, 22.9589, 0.105005, 0, 0, 1, 0, 85131
-11912.7, 338071, -15.2853, 0.828628, -1061.83, -0.00261495, 0.331407, 1.03299, 0.34851, 0.655882, 0.0001, 45.5, 246, 19.3507, 0.0187695, 0, 0, 1, 0, 85139
-11912.7, 338071, -15.2853, 0.828628, -1061.83, -0.00261495, 0.331407, 1.03299, 0.34851, 0.655882, 3, 45.5, 246, 19.3507, 0.0187695, 0, 0, 1, 0, 85139
-10915.2, 357687, -23.9699, 0.863161, -1062.09, 0.000526834, 0.297684, 0.993198, 0.349787, 0.651995, 0.0001, 91, 246, 19.3507, 0.0187695, 0, 0, 1, 0, 85139
-8233.48, 321618, -189.118, 0.760442, -1024.17, 0.000188061, 0.406074, 0.993198, 0.349787, 0.651995, 0.0001, 91, 246, 33.517, 0.147218, 0, 0, 1, 0, 85143
-10695.2, 131991, -14.0172, 1.7329, -985.34, 0.0162263, 0.302932, 1.03299, 0.34851, 0.655882, 0.0001, 45.5, 246, 16.6049, 0.0436928, 0, 0, 1, 0, 85145
-10695.2, 131991, -14.0172, 1.7329, -985.34, 0.0162263, 0.302932, 1.03299, 0.34851, 0.655882, 3, 45.5, 246, 16.6049, 0.0436928, 0, 0, 1, 0, 85145
-11710.3, 449644, -190.519, 0.685714, -592.712, 0.0526086, 0.411207, 1.03299, 0.34851, 0.655882, 0.0001, 45.5, 246, 24.5244, 0.10803, 0, 0, 1, 0, 85152
-14502.2, 179875, -4.31544, 3.09083, -1011.4, -0.00711534, 0.188253, 1.03299, 0.34851, 0.655882, 0.0001, 45.5, 246, 18.1597, 0.0358871, 0, 0, 0, 0, 85155
-14502.2, 179875, -4.31544, 3.09083, -1011.4, -0.00711534, 0.188253, 1.03299, 0.34851, 0.655882, 3, 45.5, 246, 18.1597, 0.0358871, 0, 0, 0, 0, 85155
-8523.25, 111061, -122.111, 1.79726, -1089.98, 0.293588, 0.382679, 1.03299, 0.34851, 0.655882, 3, 45.5, 246, 38.4586, 0.198845, 0, 0, 1, 0, 85156
-7568.73, 215314, -136.947, 1.78752, -1185.87, 0.710837, 0.309122, 0.958125, 0.351078, 0.648177, 0.0001, 182, 246, 28.0384, 0.117849, 0, 0, 1, 0, 85158
-7568.73, 215314, -136.947, 1.78752, -1185.87, 0.710837, 0.309122, 0.958125, 0.351078, 0.648177, 3, 182, 246, 28.0384, 0.117849, 0, 0, 1, 0, 85158
-10364.6, 472669, -197.972, 0.577165, -844.309, 0.23268, 0.414641, 1.03299, 0.34851, 0.655882, 0.0001, 45.5, 246, 28.7491, 0.10452, 0, 0, 0, 0, 85184
-10364.6, 472669, -197.972, 0.577165, -844.309, 0.23268, 0.414641, 1.03299, 0.34851, 0.655882, 3, 45.5, 246, 28.7491, 0.10452, 0, 0, 0, 0, 85184
-9363.05, 57548, -10.1679, 2.5008, -1140.92, 0.106474, 0.264165, 1.03299, 0.34851, 0.655882, 0.0001, 45.5, 246, 18.4288, 0.0628257, 1.06338, 1, 1, 0, 85186
-8791.19, 80899, -38.1241, 2.69988, -1164.78, 0.138491, 0.253241, 0.993198, 0.349787, 0.651995, 0.0001, 91, 246, 18.4288, 0.0628257, 0, 0, 1, 0, 85186
-8791.19, 80899, -38.1241, 2.69988, -1164.78, 0.138491, 0.253241, 0.993198, 0.349787, 0.651995, 3, 91, 246, 18.4288, 0.0628257, 0, 0, 1, 0, 85186
-10357.8, 226656, -369.126, 3.61043, -721.648, -0.0273691, 0.414038, 1.03299, 0.34851, 0.655882, 0.0001, 45.5, 246, 54.563, 0.247723, 1.39486, 1, 0, 0, 85188
-10357.8, 226656, -369.126, 3.61043, -721.648, -0.0273691, 0.414038, 1.03299, 0.34851, 0.655882, 3, 45.5, 246, 54.563, 0.247723, 1.34314, 1, 0, 0, 85188
-5321.11, 238607, -431.949, 3.97308, -761.939, 0.0356547, 0.448746, 0.993198, 0.349787, 0.651995, 0.0001, 91, 246, 54.563, 0.247723, 1.91387, 1, 1, 0, 85188
-5321.11, 238607, -431.949, 3.97308, -761.939, 0.0356547, 0.448746, 0.993198, 0.349787, 0.651995, 3, 91, 246, 54.563, 0.247723, 1.81184, 1, 1, 0, 85188
-6745.71, 183222, -204.405, 3.28284, -673.164, 0.231985, 0.287697, 0.958125, 0.351078, 0.648177, 0.0001, 182, 246, 30.349, 0.130072, 0, 0, 1, 0, 85190
-6745.71, 183222, -204.405, 3.28284, -673.164, 0.231985, 0.287697, 0.958125, 0.351078, 0.648177, 3, 182, 246, 30.349, 0.130072, 0, 0, 1, 0, 85190
-10420.3, 139794, -124.286, 2.22118, -528.439, 0.786968, 0.308254, 1.03299, 0.34851, 0.655882, 0.0001, 45.5, 246, 27.563, 0.122726, 0, 0, 1, 0, 85194
-10420.3, 139794, -124.286, 2.22118, -528.439, 0.786968, 0.308254, 1.03299, 0.34851, 0.655882, 3, 45.5, 246, 27.563, 0.122726, 0, 0, 1, 0, 85194
-7129.67, 168486, -171.612, 2.81086, -732.596, 1.1214, 0.293643, 0.958125, 0.351078, 0.648177, 3, 182, 246, 27.563, 0.122726, 0, 0, 1, 0, 85194
-6205.4, 62421.4, -126.309, 3.07971, -897.732, 9.83492e-05, 0.262087, 0.993198, 0.349787, 0.651995, 0.0001, 91, 246, 37.2072, 0.127443, 0, 0, 1, 0, 85195
-8660.64, 6243.53, -0.198178, 2.07684, -1092.1, 0.0527624, 0.285451, 0.993198, 0.349787, 0.651995, 0.0001, 91, 246, 5.73277, 0.0518463, 0, 0, 1, 1, 85200
-8660.64, 6243.53, -0.198178, 2.07684, -1092.1, 0.0527624, 0.285451, 0.993198, 0.349787, 0.651995, 3, 91, 246, 5.73277, 0.0518463, 0, 0, 1, 1, 85200
-10545, 371706, -338.831, 0.726946, -795.417, 0.37753, 0.620257, 1.03299, 0.34851, 0.655882, 0.0001, 45.5, 246, 41.6629, 0.226152, 0, 0, 0, 0, 85201
-10545, 371706, -338.831, 0.726946, -795.417, 0.37753, 0.620257, 1.03299, 0.34851, 0.655882, 3, 45.5, 246, 41.6629, 0.226152, 0, 0, 0, 0, 85201
-13200.2, 348407, -498.531, 3.88377, -687.225, 0.633042, 0.518588, 0.993198, 0.349787, 0.651995, 0.0001, 91, 246, 46.8281, 0.221748, 1.26294, 1, 1, 0, 85203
-13200.2, 348407, -498.531, 3.88377, -687.225, 0.633042, 0.518588, 0.993198, 0.349787, 0.651995, 3, 91, 246, 46.8281, 0.221748, 1.18791, 1, 1, 0, 85203
-10219.5, 323988, -35.348, 0.788192, -1089.42, 0.00853082, 0.301807, 0.993198, 0.349787, 0.651995, 0.0001, 91, 246, 20.1281, 0.0283381, 0, 0, 1, 0, 85204
-10567.6, 232652, -281.877, 2.41502, -958.276, 0.293592, 0.481985, 1.03299, 0.34851, 0.655882, 3, 45.5, 246, 48.2554, 0.23448, 0, 0, 0, 0, 85218
-7832.02, 82018.3, -109.107, 2.70402, -1105.6, 0.425717, 0.292076, 1.03299, 0.34851, 0.655882, 3, 45.5, 246, 37.5481, 0.153357, 0, 0, 1, 0, 85219
-851.383, 194835, -282.154, 3.89897, -1546.91, 0.750918, 0.344184, 0.9175, 0.352806, 0.64323, 0.0001, 455, 246, 37.5481, 0.153357, 1.31507, 1, 0, 0, 85219
-851.383, 194835, -282.154, 3.89897, -1546.91, 0.750918, 0.344184, 0.9175, 0.352806, 0.64323, 3, 455, 246, 37.5481, 0.153357, 1.46323, 1, 0, 0, 85219
1526.41, 332051, -415.512, 4.02973, -772.94, 0.156119, 0.421309, 0.9175, 0.352806, 0.64323, 0.0001, 455, 246, 36.0103, 0.162341, 0, 0, 0, 0, 85222
1526.41, 332051, -415.512, 4.02973, -772.94, 0.156119, 0.421309, 0.9175, 0.352806, 0.64323, 3, 455, 246, 36.0103, 0.162341, 0, 0, 0, 0, 85222
-8432.15, 35390.6, -38.9442, 1.72077, -912.825, 0.476509, 0.323424, 1.03299, 0.34851, 0.655882, 3, 45.5, 246, 24.6154, 0.112546, 0, 0, 1, 0, 85224
-9369.16, 313427, -131.65, 0.886916, -936.314, 0.74623, 0.343815, 0.993198, 0.349787, 0.651995, 0.0001, 91, 246, 25.4672, 0.0950479, 0, 0, 1, 0, 85225
-8030.44, -17990.3, 20.1185, 2.30293, -967.079, 0.534118, 0.282059, 1.03299, 0.34851, 0.655882, 3, 45.5, 246, 6.22501, 0.0534657, 0, 0, 1, 0, 85233
-12370.8, 682422, 1.59703, 0.357876, -696.636, 0.0825295, 0.338124, 1.03299, 0.34851, 0.655882, 0.0001, 45.5, 246, 14.9477, 0.000783716, 0, 0, 1, 0, 85236
-12370.8, 682422, 1.59703, 0.357876, -696.636, 0.0825295, 0.338124, 1.03299, 0.34851, 0.655882, 3, 45.5, 246, 14.9477, 0.000783716, 0, 0, 1, 0, 85236
-10683.4, 705930, -3.04313, 0.384413, -715.442, 0.0859825, 0.270753, 0.958125, 0.351078, 0.648177, 0.0001, 182, 246, 14.9477, 0.000783716, 0, 0, 1, 0, 85236
-6333.55, 13586, -56.1422, 3.5875, -1063.41, -0.0618795, 0.185071, 1.03299, 0.34851, 0.655882, 0.0001, 45.5, 246, 31.0951, 0.0750404, 0, 0, 1, 0, 85242
-6333.55, 13586, -56.1422, 3.5875, -1063.41, -0.0618795, 0.185071, 1.03299, 0.34851, 0.655882, 3, 45.5, 246, 31.0951, 0.0750404, 0, 0, 1, 0, 85242
-7064.67, 121792, -209.064, 3.12417, -731.72, 0.0420269, 0.304061, 1.03299, 0.34851, 0.655882, 0.0001, 45.5, 246, 46.7622, 0.196238, 1.10644, 1, 1, 0, 85244
-4941.11, 132536, -249.407, 3.40662, -759.051, 0.0894537, 0.313451, 0.993198, 0.349787, 0.651995, 0.0001, 91, 246, 46.7622, 0.196238, 1.17849, 1, 1, 0, 85244
-2202.52, 145107, -297.561, 3.73975, -799.187, 0.147607, 0.339743, 0.958125, 0.351078, 0.648177, 0.0001, 182, 246, 46.7622, 0.196238, 1.55808, 1, 1, 0, 85244
-2202.52, 145107, -297.561, 3.73975, -799.187, 0.147607, 0.339743, 0.958125, 0.351078, 0.648177, 3, 182, 246, 46.7622, 0.196238, 1.40592, 1, 1, 0, 85244
-7341.8, 523723, -243.18, 0.223095, -827.491, 0.0185525, 0.417223, 0.993198, 0.349787, 0.651995, 0.0001, 91, 246, 30.0401, 0.1191, 0, 0, 1, 0, 85248
-11098.7, 164122, -100.385, 2.24063, -806.917, 0.141401, 0.305856, 1.03299, 0.34851, 0.655882, 0.0001, 45.5, 246, 27.4039, 0.112055, 0, 0, 1, 0, 85249
-11009.8, 173813, -72.9947, 1.73526, -926.215, 0.595306, 0.320504, 1.03299, 0.34851, 0.655882, 0.0001, 45.5, 246, 24.441, 0.0873567, 0, 0, 1, 0, 85256
-12490.7, 133381, -29.9821, 3.52145, -996.031, 0.0563846, 0.151023, 1.03299, 0.34851, 0.655882, 0.0001, 45.5, 246, 21.3296, 0.0575425, 0, 0, 0, 0, 85257
-12490.7, 133381, -29.9821, 3.52145, -996.031, 0.0563846, 0.151023, 1.03299, 0.34851, 0.655882, 3, 45.5, 246, 21.3296, 0.0575425, 0, 0, 0, 0, 85257
-9791.34, 80005.4, -7.04196, 1.93638, -991.796, -0.01647, 0.295126, 1.03299, 0.34851, 0.655882, 3, 45.5, 246, 15.1547, 0.0475645, 0, 0, 1, 0, 85264
-11393.1, 320230, -94.2316, 1.08813, -1151.51, 0.00810663, 0.353023, 1.03299, 0.34851, 0.655882, 0.0001, 45.5, 246, 27.5092, 0.0762579, 0, 0, 1, 0, 85267
-11393.1, 320230, -94.2316, 1.08813, -1151.51, 0.00810663, 0.353023, 1.03299, 0.34851, 0.655882, 3, 45.5, 246, 27.5092, 0.0762579, 0, 0, 1, 0, 85267
-8087.82, 590818, -345.645, 0.382175, -1081.93, 0.0692637, 0.53605, 1.03299, 0.34851, 0.655882, 0.0001, 45.5, 246, 39.5633, 0.151153, 0, 0, 0, 0, 85270
-8087.82, 590818, -345.645, 0.382175, -1081.93, 0.0692637, 0.53605, 1.03299, 0.34851, 0.655882, 3, 45.5, 246, 39.5633, 0.151153, 0, 0, 0, 0, 85270
-8063.09, 1.00543e+06, -88.1385, 0.836314, -1132.05, 0.0183829, 0.237712, 0.9175, 0.352806, 0.64323, 3, 455, 246, 27.5503, 0.017531, 0, 0, 0, 0, 85273
-14149.7, 153750, 18.5741, 3.3769, -910.098, -0.0108687, 0.152896, 1.03299, 0.34851, 0.655882, 0.0001, 45.5, 246, 13.8347, 0.0210867, 0, 0, 0, 0, 85281
-14149.7, 153750, 18.5741, 3.3769, -910.098, -0.0108687, 0.152896, 1.03299, 0.34851, 0.655882, 3, 45.5, 246, 13.8347, 0.0210867, 0, 0, 0, 0, 85281
-8364.2, -2767.08, 11.6602, 2.08188, -969.714, 0.248208, 0.294614, 1.03299, 0.34851, 0.655882, 0.0001, 45.5, 246, 8.64583, 0.0495746, 0, 0, 1, 1, 85283
-8364.2, -2767.08, 11.6602, 2.08188, -969.714, 0.248208, 0.294614, 1.03299, 0.34851, 0.655882, 3, 45.5, 246, 8.64583, 0.0495746, 0, 0, 1, 1, 85283
-3896.56, 214706, -321.956, 3.53344, -812.795, 0.0889795, 0.37676, 0.958125, 0.351078, 0.648177, 0.0001, 182, 246, 42.7504, 0.193459, 1.01344, 1, 0, 0, 85288
-10495.4, 357020, -250.067, 0.855517, -857.896, 0.537649, 0.485969, 1.03299, 0.34851, 0.655882, 0.0001, 45.5, 246, 35.4245, 0.165397, 0, 0, 0, 0, 85293
-10495.4, 357020, -250.067, 0.855517, -857.896, 0.537649, 0.485969, 1.03299, 0.34851, 0.655882, 3, 45.5, 246, 35.4245, 0.165397, 0, 0, 0, 0, 85293
-9611.94, 135170, -136.904, 3.34488, -1119.84, -0.0467183, 0.241138, 1.03299, 0.34851, 0.655882, 0.0001, 45.5, 246, 37.8061, 0.142746, 0, 0, 0, 0, 85299
-9611.94, 135170, -136.904, 3.34488, -1119.84, -0.0467183, 0.241138, 1.03299, 0.34851, 0.655882, 3, 45.5, 246, 37.8061, 0.142746, 0, 0, 0, 0, 85299
-7353.34, 157135, -185.047, 3.63941, -1130.94, 0.00682843, 0.253252, 0.993198, 0.349787, 0.651995, 0.0001, 91, 246, 37.8061, 0.142746, 0, 0, 1, 0, 85299
-7353.34, 157135, -185.047, 3.63941, -1130.94, 0.00682843, 0.253252, 0.993198, 0.349787, 0.651995, 3, 91, 246, 37.8061, 0.142746, 0, 0, 1, 0, 85299
-11465.8, 401178, -68.4478, 0.657659, -776.728, 0.489567, 0.3449, 1.03299, 0.34851, 0.655882, 0.0001, 45.5, 246, 19.4295, 0.0421617, 0, 0, 1, 0, 85305
-11465.8, 401178, -68.4478, 0.657659, -776.728, 0.489567, 0.3449, 1.03299, 0.34851, 0.655882, 3, 45.5, 246, 19.4295, 0.0421617, 0, 0, 1, 0, 85305
-10480.5, 423728, -76.0411, 0.701976, -843.339, 0.532814, 0.310993, 0.993198, 0.349787, 0.651995, 3, 91, 246, 19.4295, 0.0421617, 0, 0, 1, 0, 85305
-9267.73, 450210, -84.582, 0.74973, -922.648, 0.584325, 0.28181, 0.958125, 0.351078, 0.648177, 0.0001, 182, 246, 19.4295, 0.0421617, 0, 0, 1, 0, 85305
-7644.09, -14084.7, -3.40997, 2.54106, -868.303, 0.576449, 0.268515, 1.03299, 0.34851, 0.655882, 0.0001, 45.5, 246, 15.0375, 0.0473901, 0, 0, 1, 0, 85311
-7644.09, -14084.7, -3.40997, 2.54106, -868.303, 0.576449, 0.268515, 1.03299, 0.34851, 0.655882, 3, 45.5, 246, 15.0375, 0.0473901, 0, 0, 1, 0, 85311
-7425.09, 52530.5, -111.893, 3.74861, -1313.44, 1.03156, 0.298779, 0.9175, 0.352806, 0.64323, 3, 455, 246, 15.0375, 0.0473901, 0, 0, 1, 0, 85311
-7485.88, 283919, -265.563, 0.941323, -1192.13, 0.361973, 0.539262, 0.993198, 0.349787, 0.651995, 0.0001, 91, 246, 44.6101, 0.241098, 0, 0, 1, 0, 85312
-12773.7, 173800, -99.8924, 3.34918, -1007.88, 0.0532528, 0.198933, 1.03299, 0.34851, 0.655882, 0.0001, 45.5, 246, 29.73, 0.0994012, 0, 0, 0, 0, 85313
-12773.7, 173800, -99.8924, 3.34918, -1007.88, 0.0532528, 0.198933, 1.03299, 0.34851, 0.655882, 3, 45.5, 246, 29.73, 0.0994012, 0, 0, 0, 0, 85313
-7362.7, 13494, -39.801, 2.86483, -906.898, -0.0390657, 0.248583, 1.03299, 0.34851, 0.655882, 0.0001, 45.5, 246, 25.9906, 0.0700422, 0, 0, 1, 1, 85314
-7362.7, 13494, -39.801, 2.86483, -906.898, -0.0390657, 0.248583, 1.03299, 0.34851, 0.655882, 3, 45.5, 246, 25.9906, 0.0700422, 0, 0, 1, 1, 85314
-5774.55, 62286.9, -152.104, 3.75879, -949.759, 0.119832, 0.294662, 0.9175, 0.352806, 0.64323, 3, 455, 246, 25.9906, 0.0700422, 0, 0, 1, 0, 85314
-8830.47, 56913.6, -36.759, 3.42869, -896.383, 0.289715, 0.174023, 1.03299, 0.34851, 0.655882, 0.0001, 45.5, 246, 22.0251, 0.0659148, 0, 0, 0, 0, 85315
-8830.47, 56913.6, -36.759, 3.42869, -896.383, 0.289715, 0.174023, 1.03299, 0.34851, 0.655882, 3, 45.5, 246, 22.0251, 0.0659148, 0, 0, 0, 0, 85315
-10074.6, 818295, -255.036, 0.313095, -805.582, -0.000303811, 0.416788, 1.03299, 0.34851, 0.655882, 3, 45.5, 246, 27.8342, 0.0808484, 0, 0, 0, 0, 85318
-9350.13, 251924, -126.479, 1.23605, -952.466, 0.183916, 0.341811, 0.993198, 0.349787, 0.651995, 0.0001, 91, 246, 27.4977, 0.111928, 0, 0, 1, 0, 85319
-6924.6, -25250.4, 25.7518, 3.53266, -1141.89, 0.0645016, 0.183467, 1.03299, 0.34851, 0.655882, 0.0001, 45.5, 246, 11.2891, 0.058981, 0, 0, 1, 0, 85327
-6924.6, -25250.4, 25.7518, 3.53266, -1141.89, 0.0645016, 0.183467, 1.03299, 0.34851, 0.655882, 3, 45.5, 246, 11.2891, 0.058981, 0, 0, 1, 0, 85327
-8655.41, 145787, -201.764, 2.16817, -675.71, 0.520692, 0.402616, 1.03299, 0.34851, 0.655882, 3, 45.5, 246, 42.7965, 0.215365, 0, 0, 1, 0, 85331
-582.692, 209577, -326.05, 3.08841, -1026.24, 0.853826, 0.420956, 0.9175, 0.352806, 0.64323, 0.0001, 455, 246, 42.7965, 0.215365, 1.37911, 1, 0, 0, 85331
-582.692, 209577, -326.05, 3.08841, -1026.24, 0.853826, 0.420956, 0.9175, 0.352806, 0.64323, 3, 455, 246, 42.7965, 0.215365, 1.42661, 1, 0, 0, 85331
-7141.07, 114946, -197.296, 3.1197, -685.711, -0.00019481, 0.291086, 1.03299, 0.34851, 0.655882, 0.0001, 45.5, 246, 45.1068, 0.185965, 1.06535, 1, 1, 0, 85336
-7141.07, 114946, -197.296, 3.1197, -685.711, -0.00019481, 0.291086, 1.03299, 0.34851, 0.655882, 3, 45.5, 246, 45.1068, 0.185965, 0, 0, 1, 0, 85336
-5184.73, 124044, -234.979, 3.39237, -706.682, 0.0463793, 0.299304, 0.993198, 0.349787, 0.651995, 0.0001, 91, 246, 45.1068, 0.185965, 1.0935, 1, 1, 0, 85336
-5184.73, 124044, -234.979, 3.39237, -706.682, 0.0463793, 0.299304, 0.993198, 0.349787, 0.651995, 3, 91, 246, 45.1068, 0.185965, 0, 0, 1, 0, 85336
-2688.29, 134608, -279.649, 3.71271, -739.104, 0.102565, 0.323985, 0.958125, 0.351078, 0.648177, 0.0001, 182, 246, 45.1068, 0.185965, 1.37148, 1, 1, 0, 85336
-2688.29, 134608, -279.649, 3.71271, -739.104, 0.102565, 0.323985, 0.958125, 0.351078, 0.648177, 3, 182, 246, 45.1068, 0.185965, 1.21068, 1, 1, 0, 85336
1743.81, 152129, -353.918, 4.2418, -806.647, 0.198674, 0.386073, 0.9175, 0.352806, 0.64323, 0.0001, 455, 246, 45.1068, 0.185965, 3.07071, 1, 0, 0, 85336
1743.81, 152129, -353.918, 4.2418, -806.647, 0.198674, 0.386073, 0.9175, 0.352806, 0.64323, 3, 455, 246, 45.1068, 0.185965, 3.07385, 1, 0, 0, 85336
-10629.6, 513155, -450.043, 0.306454, -737.75, 0.161508, 0.723304, 1.03299, 0.34851, 0.655882, 3, 45.5, 246, 42.0001, 0.229169, 0, 0, 0, 0, 85338
-7751.12, 24179.3, -76.1536, 3.88919, -804.62, 0.143178, 0.289463, 0.9175, 0.352806, 0.64323, 3, 455, 246, 9.47399, 0.0415881, 0, 0, 1, 1, 85339
-4854.04, 366549, -500.532, 2.97656, -806.302, 0.727479, 0.617431, 0.958125, 0.351078, 0.648177, 0.0001, 182, 246, 45.6702, 0.237584, 1.16567, 1, 0, 0, 85341
-13077.5, 212715, -124.244, 2.95576, -1175.02, -0.0358192, 0.263898, 1.03299, 0.34851, 0.655882, 0.0001, 45.5, 246, 33.6803, 0.117585, 0, 0, 0, 0, 85348
-13077.5, 212715, -124.244, 2.95576, -1175.02, -0.0358192, 0.263898, 1.03299, 0.34851, 0.655882, 3, 45.5, 246, 33.6803, 0.117585, 0, 0, 0, 0, 85348
-7751.63, 290049, -382.752, 3.66663, -1111.35, 0.397812, 0.423006, 0.993198, 0.349787, 0.651995, 0.0001, 91, 246, 49.5924, 0.21346, 1.04642, 1, 1, 0, 85353
-8159.42, 390017, -258.568, 1.12606, -659.746, 0.00615154, 0.410544, 0.958125, 0.351078, 0.648177, 3, 182, 246, 30.3232, 0.150013, 0, 0, 1, 0, 85354
-9110.04, 696803, -377.254, 0.161802, -708.626, 8.84711e-05, 0.539149, 1.03299, 0.34851, 0.655882, 0.0001, 45.5, 246, 32.2713, 0.141817, 0, 0, 0, 0, 85355
-9110.04, 696803, -377.254, 0.161802, -708.626, 8.84711e-05, 0.539149, 1.03299, 0.34851, 0.655882, 3, 45.5, 246, 32.2713, 0.141817, 0, 0, 0, 0, 85355
-4296.31, 75346.2, -180.555, 3.45119, -1020.43, -0.0227796, 0.252452, 1.03299, 0.34851, 0.655882, 0.0001, 45.5, 246, 52.3369, 0.186079, 1.26544, 1, 1, 0, 85359
-4296.31, 75346.2, -180.555, 3.45119, -1020.43, -0.0227796, 0.252452, 1.03299, 0.34851, 0.655882, 3, 45.5, 246, 52.3369, 0.186079, 1.03583, 1, 1, 0, 85359
-2667.8, 94494.1, -231.189, 3.76925, -1040.77, 0.0343736, 0.269065, 0.993198, 0.349787, 0.651995, 0.0001, 91, 246, 52.3369, 0.186079, 1.45813, 1, 1, 0, 85359
-2667.8, 94494.1, -231.189, 3.76925, -1040.77, 0.0343736, 0.269065, 0.993198, 0.349787, 0.651995, 3, 91, 246, 52.3369, 0.186079, 1.29784, 1, 1, 0, 85359
-282.441, 115635, -292.163, 4.15075, -1079.35, 0.103835, 0.305568, 0.958125, 0.351078, 0.648177, 0.0001, 182, 246, 52.3369, 0.186079, 2.13028, 1, 1, 1, 85359
-282.441, 115635, -292.163, 4.15075, -1079.35, 0.103835, 0.305568, 0.958125, 0.351078, 0.648177, 3, 182, 246, 52.3369, 0.186079, 1.99093, 1, 1, 1, 85359
-9086.13, 333469, -295.888, 0.570704, -902.754, 0.65789, 0.57587, 1.03299, 0.34851, 0.655882, 0.0001, 45.5, 246, 40.9527, 0.215148, 0, 0, 0, 0, 85360
-7636.71, 363829, -314.028, 0.618105, -1012.66, 0.735949, 0.561379, 0.993198, 0.349787, 0.651995, 0.0001, 91, 246, 40.9527, 0.215148, 0, 0, 1, 0, 85360
-10913.2, 214395, -61.4464, 1.1506, -645.409, 0.00347243, 0.338055, 1.03299, 0.34851, 0.655882, 0.0001, 45.5, 246, 18.2007, 0.0698424, 0, 0, 1, 0, 85364
-10022, 221673, -71.2467, 1.20631, -648.129, 0.0095758, 0.307863, 0.993198, 0.349787, 0.651995, 0.0001, 91, 246, 18.2007, 0.0698424, 0, 0, 1, 0, 85364
-9059.38, 114862, -72.4112, 1.17438, -1155.28, 0.0800299, 0.36431, 1.03299, 0.34851, 0.655882, 0.0001, 45.5, 246, 28.1661, 0.136097, 0, 0, 1, 0, 85366
-9059.38, 114862, -72.4112, 1.17438, -1155.28, 0.0800299, 0.36431, 1.03299, 0.34851, 0.655882, 3, 45.5, 246, 28.1661, 0.136097, 0, 0, 1, 0, 85366
-6672.37, -14682.6, -32.0343, 3.1642, -682.062, -0.0126044, 0.223475, 1.03299, 0.34851, 0.655882, 0.0001, 45.5, 246, 23.8393, 0.00129017, 0, 0, 1, 1, 85368
-6672.37, -14682.6, -32.0343, 3.1642, -682.062, -0.0126044, 0.223475, 1.03299, 0.34851, 0.655882, 3, 45.5, 246, 23.8393, 0.00129017, 0, 0, 1, 1, 85368
-7038.32, 12803.5, -129.136, 4.27724, -735.907, 0.189711, 0.307884, 0.9175, 0.352806, 0.64323, 3, 455, 246, 23.8393, 0.00129017, 0, 0, 1, 1, 85368
-9014.63, 54990.7, -22.9034, 3.24851, -1107.36, -0.0234147, 0.202403, 1.03299, 0.34851, 0.655882, 0.0001, 45.5, 246, 21.7145, 0.0703869, 1.15834, 1, 1, 0, 85377
-9014.63, 54990.7, -22.9034, 3.24851, -1107.36, -0.0234147, 0.202403, 1.03299, 0.34851, 0.655882, 3, 45.5, 246, 21.7145, 0.0703869, 1.08862, 1, 1, 0, 85377
-8224.31, 76080, -59.1937, 3.52833, -1111.19, 0.0269387, 0.208941, 0.993198, 0.349787, 0.651995, 0.0001, 91, 246, 21.7145, 0.0703869, 0, 0, 1, 0, 85377
-8224.31, 76080, -59.1937, 3.52833, -1111.19, 0.0269387, 0.208941, 0.993198, 0.349787, 0.651995, 3, 91, 246, 21.7145, 0.0703869, 0, 0, 1, 0, 85377
-11438.7, 220001, 1.80931, 1.09686, -746.258, 0.00136661, 0.322547, 1.03299, 0.34851, 0.655882, 0.0001, 45.5, 246, 11.6249, 0.00992359, 0, 0, 1, 0, 85379
-10616.1, 229615, -5.62957, 1.14821, -746.796, 0.00690124, 0.290669, 0.993198, 0.349787, 0.651995, 0.0001, 91, 246, 11.6249, 0.00992359, 0, 0, 1, 0, 85379
-8390.7, 40639.9, -32.8583, 2.97133, -857.196, -0.041192, 0.230026, 1.03299, 0.34851, 0.655882, 0.0001, 45.5, 246, 21.1979, 0.068516, 1.17595, 1, 1, 0, 85383
-5125.1, 406466, -490.65, 3.4708, -897.695, 0.0483622, 0.539202, 0.958125, 0.351078, 0.648177, 0.0001, 182, 246, 45.6721, 0.210753, 1.26771, 1, 0, 0, 85391
-5125.1, 406466, -490.65, 3.4708, -897.695, 0.0483622, 0.539202, 0.958125, 0.351078, 0.648177, 3, 182, 246, 45.6721, 0.210753, 1.33272, 1, 0, 0, 85391
-11706.7, 108338, 10.4574, 3.08155, -748.352, 0.159418, 0.190741, 1.03299, 0.34851, 0.655882, 0.0001, 45.5, 246, 11.3638, 0.0227919, 0, 0, 1, 0, 85396
-11706.7, 108338, 10.4574, 3.08155, -748.352, 0.159418, 0.190741, 1.03299, 0.34851, 0.655882, 3, 45.5, 246, 11.3638, 0.0227919, 0, 0, 1, 0, 85396
-4983.38, 330231, -459.491, 4.28616, -803.502, 1.10059, 0.42985, 0.958125, 0.351078, 0.648177, 0.0001, 182, 246, 40.4751, 0.18683, 2.13357, 1, 0, 0, 85399
-4983.38, 330231, -459.491, 4.28616, -803.502, 1.10059, 0.42985, 0.958125, 0.351078, 0.648177, 3, 182, 246, 40.4751, 0.18683, 1.98893, 1, 0, 0, 85399
-11029.4, 298461, -133.043, 1.1081, -998.245, 0.479717, 0.376316, 1.03299, 0.34851, 0.655882, 0.0001, 45.5, 246, 29.144, 0.103971, 0, 0, 1, 0, 85401
-11029.4, 298461, -133.043, 1.1081, -998.245, 0.479717, 0.376316, 1.03299, 0.34851, 0.655882, 3, 45.5, 246, 29.144, 0.103971, 0, 0, 1, 0, 85401
-10147.3, 117356, -6.35756, 1.42349, -1183.36, 0.0756144, 0.317132, 1.03299, 0.34851, 0.655882, 3, 45.5, 246, 16.6223, 0.0392952, 0, 0, 1, 0, 85404
-9656.37, 565465, -422.22, 0.202902, -732.865, 0.00127814, 0.652452, 1.03299, 0.34851, 0.655882, 0.0001, 45.5, 246, 38.5148, 0.198831, 0, 0, 0, 0, 85415
-9656.37, 565465, -422.22, 0.202902, -732.865, 0.00127814, 0.652452, 1.03299, 0.34851, 0.655882, 3, 45.5, 246, 38.5148, 0.198831, 0, 0, 0, 0, 85415
-704.016, 143673, -286.23, 4.93029, -1159.02, 0.796494, 0.33524, 0.9175, 0.352806, 0.64323, 0.0001, 455, 246, 34.5853, 0.11612, 1.56245, 1, 0, 0, 85423
-704.016, 143673, -286.23, 4.93029, -1159.02, 0.796494, 0.33524, 0.9175, 0.352806, 0.64323, 3, 455, 246, 34.5853, 0.11612, 1.56333, 1, 0, 0, 85423
-6994.09, 598949, -216.39, 0.147603, -1008.01, 0.00364761, 0.416049, 1.03299, 0.34851, 0.655882, 0.0001, 45.5, 246, 31.1383, 0.0925207, 0, 0, 0, 0, 85427
-8581.27, 111517, -148.99, 2.78475, -612.929, 0.00387836, 0.289598, 1.03299, 0.34851, 0.655882, 0.0001, 45.5, 246, 36.5677, 0.155003, 0, 0, 1, 0, 85430
-8581.27, 111517, -148.99, 2.78475, -612.929, 0.00387836, 0.289598, 1.03299, 0.34851, 0.655882, 3, 45.5, 246, 36.5677, 0.155003, 0, 0, 1, 0, 85430
-11178.5, 736565, -37.9268, 0.291128, -990.209, 0.219493, 0.341134, 1.03299, 0.34851, 0.655882, 0.0001, 45.5, 246, 22.9738, 0.0136729, 0, 0, 1, 0, 85443
-11178.5, 736565, -37.9268, 0.291128, -990.209, 0.219493, 0.341134, 1.03299, 0.34851, 0.655882, 3, 45.5, 246, 22.9738, 0.0136729, 0, 0, 1, 0, 85443
-10469.9, 763207, -41.8142, 0.304, -1026.14, 0.227782, 0.30526, 0.993198, 0.349787, 0.651995, 0.0001, 91, 246, 22.9738, 0.0136729, 0, 0, 1, 0, 85443
-9630.54, 791879, -45.9322, 0.316785, -1064.85, 0.236726, 0.27376, 0.958125, 0.351078, 0.648177, 0.0001, 182, 246, 22.9738, 0.0136729, 0, 0, 1, 0, 85443
-11011.5, 359790, -155.543, 1.05243, -1146.17, -0.00510457, 0.392219, 1.03299, 0.34851, 0.655882, 0.0001, 45.5, 246, 32.3505, 0.109441, 0, 0, 0, 0, 85446
-11011.5, 359790, -155.543, 1.05243, -1146.17, -0.00510457, 0.392219, 1.03299, 0.34851, 0.655882, 3, 45.5, 246, 32.3505, 0.109441, 0, 0, 0, 0, 85446
-9278.8, 129347, -132.922, 2.80536, -1014.28, -0.0120022, 0.295394, 1.03299, 0.34851, 0.655882, 0.0001, 45.5, 246, 36.9173, 0.152746, 0, 0, 1, 0, 85449
-9278.8, 129347, -132.922, 2.80536, -1014.28, -0.0120022, 0.295394, 1.03299, 0.34851, 0.655882, 3, 45.5, 246, 36.9173, 0.152746, 0, 0, 1, 0, 85449
-7983.53, -4665.4, -25.777, 2.82239, -1025.82, 0.15373, 0.266065, 0.993198, 0.349787, 0.651995, 3, 91, 246, 15.5285, 0.0511152, 0, 0, 1, 1, 85452
-10885.4, -39.3507, -232.058, 1.03134, -781.156, 0.838497, 0.451382, 0.993198, 0.349787, 0.651995, 0.0001, 91, 246, 424.691, 0.164161, 0, 0, 1, 0, 85455
-7776.73, 607552, -476.29, 0.120878, -963.807, 0.0342088, 0.708685, 1.03299, 0.34851, 0.655882, 3, 45.5, 246, 44.1742, 0.208614, 0, 0, 0, 0, 85457
-9833.49, 576815, -260.807, 0.317812, -668.484, 0.466125, 0.445288, 1.03299, 0.34851, 0.655882, 0.0001, 45.5, 246, 27.0124, 0.108486, 0, 0, 0, 0, 85462
-9833.49, 576815, -260.807, 0.317812, -668.484, 0.466125, 0.445288, 1.03299, 0.34851, 0.655882, 3, 45.5, 246, 27.0124, 0.108486, 0, 0, 0, 0, 85462
-9312.2, 136158, -163.14, 2.97223, -821.494, 0.423612, 0.278397, 1.03299, 0.34851, 0.655882, 3, 45.5, 246, 37.9055, 0.154051, 0, 0, 0, 0, 85470
-7248.6, 152731, -201.302, 3.29903, -899.005, 0.500223, 0.282228, 0.993198, 0.349787, 0.651995, 0.0001, 91, 246, 37.9055, 0.154051, 0, 0, 1, 0, 85470
-7248.6, 152731, -201.302, 3.29903, -899.005, 0.500223, 0.282228, 0.993198, 0.349787, 0.651995, 3, 91, 246, 37.9055, 0.154051, 0, 0, 1, 0, 85470
970.886, 212691, -336.629, 4.38885, -1201.44, 0.796053, 0.367125, 0.9175, 0.352806, 0.64323, 0.0001, 455, 246, 37.9055, 0.154051, 0, 0, 0, 0, 85470
970.886, 212691, -336.629, 4.38885, -1201.44, 0.796053, 0.367125, 0.9175, 0.352806, 0.64323, 3, 455, 246, 37.9055, 0.154051, 0, 0, 0, 0, 85470
-10311.4, 149993, -138.096, 3.17867, -1056.85, -0.0434446, 0.256184, 1.03299, 0.34851, 0.655882, 0.0001, 45.5, 246, 36.4962, 0.140446, 0, 0, 0, 0, 85474
-10311.4, 149993, -138.096, 3.17867, -1056.85, -0.0434446, 0.256184, 1.03299, 0.34851, 0.655882, 3, 45.5, 246, 36.4962, 0.140446, 0, 0, 0, 0, 85474
-7991.16, 169513, -182.139, 3.44909, -1067.44, 0.00478213, 0.263793, 0.993198, 0.349787, 0.651995, 0.0001, 91, 246, 36.4962, 0.140446, 0, 0, 1, 0, 85474
-7991.16, 169513, -182.139, 3.44909, -1067.44, 0.00478213, 0.263793, 0.993198, 0.349787, 0.651995, 3, 91, 246, 36.4962, 0.140446, 0, 0, 1, 0, 85474
719.465, 222929, -320.423, 4.29124, -1156.72, 0.158378, 0.349422, 0.9175, 0.352806, 0.64323, 0.0001, 455, 246, 36.4962, 0.140446, 1.86171, 1, 0, 0, 85474
719.465, 222929, -320.423, 4.29124, -1156.72, 0.158378, 0.349422, 0.9175, 0.352806, 0.64323, 3, 455, 246, 36.4962, 0.140446, 2.13973, 1, 0, 0, 85474
-9425.65, 107629, -28.5823, 1.05473, -937.398, 0.00296587, 0.336545, 1.03299, 0.34851, 0.655882, 0.0001, 45.5, 246, 17.5441, 0.0668495, 0, 0, 1, 0, 85478
-9425.65, 107629, -28.5823, 1.05473, -937.398, 0.00296587, 0.336545, 1.03299, 0.34851, 0.655882, 3, 45.5, 246, 17.5441, 0.0668495, 0, 0, 1, 0, 85478
-2661.78, 134001, -238.858, 4.09728, -1481.04, 1.27727, 0.320469, 0.9175, 0.352806, 0.64323, 0.0001, 455, 246, 35.7664, 0.120051, 1.2597, 1, 0, 0, 85486
-2661.78, 134001, -238.858, 4.09728, -1481.04, 1.27727, 0.320469, 0.9175, 0.352806, 0.64323, 3, 455, 246, 35.7664, 0.120051, 1.27224, 1, 0, 0, 85486
-8136.69, 347433, -284.546, 0.565715, -1175.85, 0.0293974, 0.572234, 1.03299, 0.34851, 0.655882, 0.0001, 45.5, 246, 44.1073, 0.21647, 0, 0, 0, 0, 85492
-10612.8, 420479, -351.393, 0.570234, -738.255, 0.621412, 0.597267, 1.03299, 0.34851, 0.655882, 3, 45.5, 246, 38.1214, 0.198951, 0, 0, 0, 0, 85500
